// Created by Crowbar 0.34.0.0

$ModelName "weapons/tfa_cso/w_crossbowex.mdl"

$BodyGroup "studio"
{
	studio "v_crossbowex_v_ref1"
}

$collisionmodel "v_crossbowex_v_ref1.smd"
{
	$mass 9
}

$CDMaterials "models\weapons\tfa_cso\crossbowex"

$attachment "0" "root" 0.00 -11.00 -0.60 rotate -0 0 0

$Sequence "idle" {
	"anims\idle.smd"
	fps 30
}