version 1
nodes
  0 "Bone_Root" -1
  1 "Bone01" 0
  2 "Bone_Lefthand" 1
  3 "m16a4_root" 2
  4 "trigger" 3
  5 "magazine" 3
  6 "load01" 3
  7 "load02" 3
  8 "Bone04" 0
  9 "Bone_Righthand" 8
  10 "Bone39" 9
  11 "Bone40" 10
  12 "Bone41" 11
  13 "Bone35" 9
  14 "Bone36" 13
  15 "Bone37" 14
  16 "Bone31" 9
  17 "Bone32" 16
  18 "Bone33" 17
  19 "Bone43" 9
  20 "Bone44" 19
  21 "Bone45" 20
  22 "Bone27" 9
  23 "Bone28" 22
  24 "Bone29" 23
  25 "Bone_Se_Hand-R" 9
  26 "Bone13" 2
  27 "Bone14" 26
  28 "Bone15" 27
  29 "Bone17" 2
  30 "Bone18" 29
  31 "Bone19" 30
  32 "Bone21" 2
  33 "Bone22" 32
  34 "Bone23" 33
  35 "Bone09" 2
  36 "Bone10" 35
  37 "Bone11" 36
  38 "Bone05" 2
  39 "Bone06" 38
  40 "Bone07" 39
  41 "Bone_Se_Hand-L" 2
end
skeleton
  time 0
    0 0.000000 -1.996155 0.000000 0.000000 0.000000 -0.000011
    1 8.365576 7.279113 -9.986450 1.176166 -1.855973 -1.240158
    2 -0.071918 -8.498730 -0.104136 0.061590 0.268749 0.020771
    3 1.837369 -3.928482 1.063097 -0.074335 0.132417 2.344846
    4 0.190386 0.829184 -0.000001 0.000000 0.000000 0.526739
    5 -0.998952 2.262489 0.000000 0.000001 0.000000 0.737786
    6 -0.312858 -2.236601 -0.000003 0.000001 -0.000001 2.097535
    7 -1.067731 0.874859 0.541503 0.000000 -0.000001 2.097535
    8 -1.000466 -4.652283 -9.181686 0.780625 -4.372930 1.488100
    9 0.096944 -8.450418 -0.009364 0.126178 -0.251742 0.027799
    10 0.447952 -2.798983 -0.200442 -0.825401 -0.102210 0.041797
    11 -0.032910 -1.480206 0.004936 -1.762688 0.000000 0.000002
    12 -0.027022 -1.076919 -0.020212 -1.132336 0.000000 0.000000
    13 -0.249534 -2.846962 -0.174215 -0.634460 -0.091831 0.024622
    14 0.043235 -1.683940 0.096014 -1.906095 0.002823 -0.000167
    15 0.031729 -1.160831 0.058836 -1.087362 0.000642 0.008372
    16 -0.963866 -2.785142 -0.085346 -0.618191 0.014961 -0.024958
    17 0.028479 -1.403069 0.006271 -1.332633 0.000000 0.000000
    18 0.021413 -0.957782 0.020047 -1.304122 0.000000 0.000000
    19 1.164474 -2.543938 -0.170328 -0.683748 -0.318398 0.068471
    20 0.024033 -1.129042 0.017806 -1.548171 0.000000 0.000001
    21 0.014896 -0.883989 -0.019845 -1.052873 0.000000 0.000000
    22 -0.586770 -1.264475 0.200164 -0.330647 -0.882972 -2.453547
    23 1.522835 0.058681 0.016850 0.197130 -0.282574 0.860492
    24 1.117948 0.048424 -0.005764 -0.023002 -0.010289 1.205986
    25 -0.139399 -0.111697 0.014397 0.285382 -0.030687 1.580508
    26 -0.488517 -2.755600 -0.228261 -1.638088 0.011758 -0.287189
    27 0.039888 -1.479789 0.029853 -0.928033 0.000000 0.000000
    28 0.028786 -1.075730 -0.023111 -1.481385 0.000000 0.000000
    29 0.250028 -2.820664 -0.238396 -1.250421 -0.014906 -0.312588
    30 -0.049759 -1.680545 0.100480 -1.463660 0.000000 -0.000002
    31 -0.034141 -1.148312 0.084779 -1.087281 0.000000 0.000000
    32 0.957766 -2.746776 -0.090301 -0.143359 -0.206189 -0.071012
    33 -0.033419 -1.397128 -0.011255 -0.779092 0.124808 -0.122316
    34 -0.022361 -0.957434 0.018783 -1.043353 0.000000 0.000000
    35 -1.180680 -2.507215 -0.193861 -1.751193 0.170447 -0.335155
    36 -0.024966 -1.123935 0.017594 -0.977967 0.000000 0.000001
    37 -0.020057 -0.890966 0.010091 -0.933434 0.000000 0.000000
    38 0.583510 -1.197274 0.185377 0.272562 -1.003490 -0.533081
    39 1.535926 0.010244 0.005008 0.440185 -0.138733 -1.296648
    40 1.100770 0.004526 -0.010676 -0.011449 0.011491 -0.607431
    41 0.120152 -0.050266 -0.054488 0.287568 3.110905 1.561085
  time 1
    0 0.000000 0.113285 0.000000 -0.009072 0.000000 -0.000011
    1 9.830465 7.279113 -9.986450 1.126940 -1.855973 -1.240158
    2 -0.071918 -8.498730 -0.104136 0.061590 0.268749 0.020771
    3 1.837369 -3.928482 1.063097 -0.074335 0.132417 2.344846
    4 0.327109 0.590895 -0.000001 0.000000 0.000000 0.526739
    5 -0.998952 2.262489 0.000000 0.000001 0.000000 0.737786
    6 -0.312858 -2.236601 -0.000003 0.000001 -0.000001 2.097535
    7 -1.067731 0.874859 0.541503 -1.134456 -3.141496 -1.043961
    8 -1.383290 -5.441370 -9.181686 0.710480 -4.372930 1.488100
    9 0.096944 -8.450418 -0.009364 0.126178 -0.251742 0.027799
    10 0.447952 -2.798983 -0.200442 -0.825401 -0.102210 0.041797
    11 -0.032910 -1.480206 0.004936 -1.735490 0.000000 0.000002
    12 -0.027022 -1.076919 -0.020212 -1.077912 0.000000 0.000000
    13 -0.249534 -2.846962 -0.174215 -0.634460 -0.091831 0.024622
    14 0.043235 -1.683940 0.096014 -1.869832 0.002823 -0.000167
    15 0.031729 -1.160831 0.058836 -1.051042 0.000642 0.008372
    16 -0.963866 -2.785142 -0.085346 -0.618191 0.014961 -0.024958
    17 0.028479 -1.403069 0.006271 -1.278182 0.000000 0.000000
    18 0.021413 -0.957782 0.020047 -1.258776 0.000000 0.000000
    19 1.164474 -2.543938 -0.170328 -0.683748 -0.318398 0.068471
    20 0.024033 -1.129042 0.017806 -1.520901 0.000000 0.000001
    21 0.014896 -0.883989 -0.019845 -1.025625 0.000000 0.000000
    22 -0.586770 -1.264475 0.200164 -0.330647 -0.882972 -2.453547
    23 1.522835 0.058681 0.016850 0.197130 -0.282574 0.860492
    24 1.117948 0.048424 -0.005764 -0.023002 -0.010289 1.205986
    25 -0.139399 -0.111697 0.014397 0.285382 -0.030687 1.580508
    26 -0.488517 -2.755600 -0.228261 -1.638088 0.011758 -0.287189
    27 0.039888 -1.479789 0.029853 -0.928033 0.000000 0.000000
    28 0.028786 -1.075730 -0.023111 -1.481385 0.000000 0.000000
    29 0.250028 -2.820664 -0.238396 -1.250421 -0.014906 -0.312588
    30 -0.049759 -1.680545 0.100480 -1.463660 0.000000 -0.000002
    31 -0.034141 -1.148312 0.084779 -1.087281 0.000000 0.000000
    32 0.957766 -2.746776 -0.090301 -0.143359 -0.206189 -0.071012
    33 -0.033419 -1.397128 -0.011255 -1.479973 0.156411 -0.156268
    34 -0.022361 -0.957434 0.018783 -0.868799 0.000000 0.000000
    35 -1.180680 -2.507215 -0.193861 -1.751193 0.170447 -0.335155
    36 -0.024966 -1.123935 0.017594 -0.977967 0.000000 0.000001
    37 -0.020057 -0.890966 0.010091 -0.933434 0.000000 0.000000
    38 0.583510 -1.197274 0.185377 0.272562 -1.003490 -0.533081
    39 1.535926 0.010244 0.005008 0.440185 -0.138733 -1.296648
    40 1.100770 0.004526 -0.010676 -0.011449 0.011491 -0.607431
    41 0.120152 -0.050266 -0.054488 0.287568 3.110905 1.561085
  time 2
    0 0.000000 -0.101566 0.000000 -0.030717 0.000000 -0.000011
    1 9.779682 7.279113 -9.986450 1.128632 -1.855973 -1.240158
    2 -0.071918 -8.498730 -0.104136 0.061590 0.268749 0.020771
    3 1.837369 -3.928482 1.063097 -0.074335 0.132417 2.344846
    4 0.311483 0.618240 -0.000001 0.000000 0.000000 0.526739
    5 -0.998952 2.262489 0.000000 0.000001 0.000000 0.737786
    6 -0.312858 -2.236601 -0.000003 0.000001 -0.000001 2.097535
    7 -1.067731 0.874859 0.541503 -1.343192 -3.141496 -1.043961
    8 -1.371571 -5.331992 -9.177780 0.712852 -4.372930 1.488100
    9 0.096944 -8.450418 -0.009364 0.126178 -0.251742 0.027799
    10 0.447952 -2.798983 -0.200442 -0.825401 -0.102210 0.041797
    11 -0.032910 -1.480206 0.004936 -1.670568 0.000000 0.000002
    12 -0.027022 -1.076919 -0.020212 -0.948048 0.000000 0.000000
    13 -0.249534 -2.846962 -0.174215 -0.634460 -0.091831 0.024622
    14 0.043235 -1.683940 0.096014 -1.783257 0.002823 -0.000167
    15 0.031729 -1.160831 0.058836 -0.964498 0.000642 0.008372
    16 -0.963866 -2.785142 -0.085346 -0.618191 0.014961 -0.024958
    17 0.028479 -1.403069 0.006271 -1.148361 0.000000 0.000000
    18 0.021413 -0.957782 0.020047 -1.150560 0.000000 0.000000
    19 1.164474 -2.543938 -0.170328 -0.683748 -0.318398 0.068471
    20 0.024033 -1.129042 0.017806 -1.455995 0.000000 0.000001
    21 0.014896 -0.883989 -0.019845 -0.960714 0.000000 0.000000
    22 -0.586770 -1.264475 0.200164 -0.330647 -0.882972 -2.453547
    23 1.522835 0.058681 0.016850 0.197130 -0.282574 0.860492
    24 1.117948 0.048424 -0.005764 -0.023002 -0.010289 1.205986
    25 -0.139399 -0.111697 0.014397 0.285382 -0.030687 1.580508
    26 -0.488517 -2.755600 -0.228261 -1.638088 0.011758 -0.287189
    27 0.039888 -1.479789 0.029853 -0.928033 0.000000 0.000000
    28 0.028786 -1.075730 -0.023111 -1.481385 0.000000 0.000000
    29 0.250028 -2.820664 -0.238396 -1.250421 -0.014906 -0.312588
    30 -0.049759 -1.680545 0.100480 -1.463660 0.000000 -0.000002
    31 -0.034141 -1.148312 0.084779 -1.087281 0.000000 0.000000
    32 0.957766 -2.746776 -0.090301 -0.143359 -0.206189 -0.071012
    33 -0.033419 -1.397128 -0.011255 -1.407118 0.153127 -0.152733
    34 -0.022361 -0.957434 0.018783 -0.813416 0.000000 0.000000
    35 -1.180680 -2.507215 -0.193861 -1.751193 0.170447 -0.335155
    36 -0.024966 -1.123935 0.017594 -0.977967 0.000000 0.000001
    37 -0.020057 -0.890966 0.010091 -0.933434 0.000000 0.000000
    38 0.583510 -1.197274 0.185377 0.272562 -1.003490 -0.533081
    39 1.535926 0.010244 0.005008 0.440185 -0.138733 -1.296648
    40 1.100770 0.004526 -0.010676 -0.011449 0.011491 -0.607431
    41 0.120152 -0.050266 -0.054488 0.287568 3.110905 1.561085
  time 3
    0 0.000000 -0.628925 0.000000 -0.056543 0.000000 -0.000011
    1 9.646865 7.279113 -9.986450 1.133194 -1.855973 -1.240158
    2 -0.071918 -8.498730 -0.104136 0.061590 0.268749 0.020771
    3 1.837369 -3.928482 1.063097 -0.074335 0.132417 2.344846
    4 0.280232 0.676836 -0.000001 0.000000 0.000000 0.526739
    5 -0.998952 2.262489 0.000000 0.000001 0.000000 0.737786
    6 -0.312858 -2.236601 -0.000003 0.000001 -0.000001 2.097535
    7 -1.067731 0.874859 0.541503 1.300610 -0.000001 2.097535
    8 -1.336413 -5.179643 -9.173873 0.719322 -4.372930 1.488100
    9 0.096944 -8.450418 -0.009364 0.126178 -0.251742 0.027799
    10 0.447952 -2.798983 -0.200442 -0.825401 -0.102210 0.041797
    11 -0.032910 -1.480206 0.004936 -1.593090 0.000000 0.000002
    12 -0.027022 -1.076919 -0.020212 -0.793049 0.000000 0.000000
    13 -0.249534 -2.846962 -0.174215 -0.634460 -0.091831 0.024622
    14 0.043235 -1.683940 0.096014 -1.679932 0.002823 -0.000167
    15 0.031729 -1.160831 0.058836 -0.861178 0.000642 0.008372
    16 -0.963866 -2.785142 -0.085346 -0.618191 0.014961 -0.024958
    17 0.028479 -1.403069 0.006271 -0.993349 0.000000 0.000000
    18 0.021413 -0.957782 0.020047 -1.021387 0.000000 0.000000
    19 1.164474 -2.543938 -0.170328 -0.683748 -0.318398 0.068471
    20 0.024033 -1.129042 0.017806 -1.378482 0.000000 0.000001
    21 0.014896 -0.883989 -0.019845 -0.883208 0.000000 0.000000
    22 -0.586770 -1.264475 0.200164 -0.330647 -0.882972 -2.453547
    23 1.522835 0.058681 0.016850 0.197130 -0.282574 0.860492
    24 1.117948 0.048424 -0.005764 -0.023002 -0.010289 1.205986
    25 -0.139399 -0.111697 0.014397 0.285382 -0.030687 1.580508
    26 -0.488517 -2.755600 -0.228261 -1.638088 0.011758 -0.287189
    27 0.039888 -1.479789 0.029853 -0.928033 0.000000 0.000000
    28 0.028786 -1.075730 -0.023111 -1.481385 0.000000 0.000000
    29 0.250028 -2.820664 -0.238396 -1.250421 -0.014906 -0.312588
    30 -0.049759 -1.680545 0.100480 -1.463660 0.000000 -0.000002
    31 -0.034141 -1.148312 0.084779 -1.087281 0.000000 0.000000
    32 0.957766 -2.746776 -0.090301 -0.143359 -0.206189 -0.071012
    33 -0.033419 -1.397128 -0.011255 -1.233277 0.145289 -0.144319
    34 -0.022361 -0.957434 0.018783 -0.765479 0.000000 0.000000
    35 -1.180680 -2.507215 -0.193861 -1.751193 0.170447 -0.335155
    36 -0.024966 -1.123935 0.017594 -0.977967 0.000000 0.000001
    37 -0.020057 -0.890966 0.010091 -0.933434 0.000000 0.000000
    38 0.583510 -1.197274 0.185377 0.272562 -1.003490 -0.533081
    39 1.535926 0.010244 0.005008 0.440185 -0.138733 -1.296648
    40 1.100770 0.004526 -0.010676 -0.011449 0.011491 -0.607431
    41 0.120152 -0.050266 -0.054488 0.287568 3.110905 1.561085
  time 4
    0 0.000000 -1.253945 0.000000 -0.078187 0.000000 -0.000011
    1 9.451547 7.279113 -9.986450 1.139743 -1.855973 -1.240158
    2 -0.071918 -8.498730 -0.104136 0.061590 0.268749 0.020771
    3 1.837369 -3.928482 1.063097 -0.074335 0.132417 2.344846
    4 0.237262 0.747150 -0.000001 0.000000 0.000000 0.526739
    5 -0.998952 2.262489 0.000000 0.000001 0.000000 0.737786
    6 -0.312858 -2.236601 -0.000003 0.000001 -0.000001 2.097535
    7 -1.067731 0.874859 0.541503 0.706483 -0.000001 2.097535
    8 -1.285631 -5.085890 -9.173873 0.728649 -4.372930 1.488100
    9 0.096944 -8.450418 -0.009364 0.126178 -0.251742 0.027799
    10 0.447952 -2.798983 -0.200442 -0.825401 -0.102210 0.041797
    11 -0.032910 -1.480206 0.004936 -1.528117 0.000000 0.000002
    12 -0.027022 -1.076919 -0.020212 -0.663220 0.000000 0.000000
    13 -0.249534 -2.846962 -0.174215 -0.634460 -0.091831 0.024622
    14 0.043235 -1.683940 0.096014 -1.593358 0.002823 -0.000167
    15 0.031729 -1.160831 0.058836 -0.774598 0.000642 0.008372
    16 -0.963866 -2.785142 -0.085346 -0.618191 0.014961 -0.024958
    17 0.028479 -1.403069 0.006271 -0.863529 0.000000 0.000000
    18 0.021413 -0.957782 0.020047 -0.913171 0.000000 0.000000
    19 1.164474 -2.543938 -0.170328 -0.683748 -0.318398 0.068471
    20 0.024033 -1.129042 0.017806 -1.313576 0.000000 0.000001
    21 0.014896 -0.883989 -0.019845 -0.818297 0.000000 0.000000
    22 -0.586770 -1.264475 0.200164 -0.330647 -0.882972 -2.453547
    23 1.522835 0.058681 0.016850 0.197130 -0.282574 0.860492
    24 1.117948 0.048424 -0.005764 -0.023002 -0.010289 1.205986
    25 -0.139399 -0.111697 0.014397 0.285382 -0.030687 1.580508
    26 -0.488517 -2.755600 -0.228261 -1.638088 0.011758 -0.287189
    27 0.039888 -1.479789 0.029853 -0.928033 0.000000 0.000000
    28 0.028786 -1.075730 -0.023111 -1.481385 0.000000 0.000000
    29 0.250028 -2.820664 -0.238396 -1.250421 -0.014906 -0.312588
    30 -0.049759 -1.680545 0.100480 -1.463660 0.000000 -0.000002
    31 -0.034141 -1.148312 0.084779 -1.087281 0.000000 0.000000
    32 0.957766 -2.746776 -0.090301 -0.143359 -0.206189 -0.071012
    33 -0.033419 -1.397128 -0.011255 -1.025834 0.135929 -0.134264
    34 -0.022361 -0.957434 0.018783 -0.727768 0.000000 0.000000
    35 -1.180680 -2.507215 -0.193861 -1.751193 0.170447 -0.335155
    36 -0.024966 -1.123935 0.017594 -0.977967 0.000000 0.000001
    37 -0.020057 -0.890966 0.010091 -0.933434 0.000000 0.000000
    38 0.583510 -1.197274 0.185377 0.272562 -1.003490 -0.533081
    39 1.535926 0.010244 0.005008 0.440185 -0.138733 -1.296648
    40 1.100770 0.004526 -0.010676 -0.011449 0.011491 -0.607431
    41 0.120152 -0.050266 -0.054488 0.287568 3.110905 1.561085
  time 5
    0 0.000000 -1.777398 0.000000 -0.087260 0.000000 -0.000011
    1 9.221071 7.279113 -9.986450 1.147469 -1.855973 -1.240158
    2 -0.071918 -8.498730 -0.104136 0.061590 0.268749 0.020771
    3 1.837369 -3.928482 1.063097 -0.074335 0.132417 2.344846
    4 0.202105 0.805746 -0.000001 0.000000 0.000000 0.526739
    5 -0.998952 2.262489 0.000000 0.000001 0.000000 0.737786
    6 -0.312858 -2.236601 -0.000003 0.000001 -0.000001 2.097535
    7 -1.067731 0.874859 0.541503 0.208737 -0.000001 2.097535
    8 -1.227035 -4.988231 -9.173873 0.739702 -4.372930 1.488100
    9 0.096944 -8.450418 -0.009364 0.126178 -0.251742 0.027799
    10 0.447952 -2.798983 -0.200442 -0.825401 -0.102210 0.041797
    11 -0.032910 -1.480206 0.004936 -1.500918 0.000000 0.000002
    12 -0.027022 -1.076919 -0.020212 -0.608761 0.000000 0.000000
    13 -0.249534 -2.846962 -0.174215 -0.634460 -0.091831 0.024622
    14 0.043235 -1.683940 0.096014 -1.557036 0.002823 -0.000167
    15 0.031729 -1.160831 0.058836 -0.738278 0.000642 0.008372
    16 -0.963866 -2.785142 -0.085346 -0.618191 0.014961 -0.024958
    17 0.028479 -1.403069 0.006271 -0.809036 0.000000 0.000000
    18 0.021413 -0.957782 0.020047 -0.867825 0.000000 0.000000
    19 1.164474 -2.543938 -0.170328 -0.683748 -0.318398 0.068471
    20 0.024033 -1.129042 0.017806 -1.286353 0.000000 0.000001
    21 0.014896 -0.883989 -0.019845 -0.791049 0.000000 0.000000
    22 -0.586770 -1.264475 0.200164 -0.330647 -0.882972 -2.453547
    23 1.522835 0.058681 0.016850 0.197130 -0.282574 0.860492
    24 1.117948 0.048424 -0.005764 -0.023002 -0.010289 1.205986
    25 -0.139399 -0.111697 0.014397 0.285382 -0.030687 1.580508
    26 -0.488517 -2.755600 -0.228261 -1.638088 0.011758 -0.287189
    27 0.039888 -1.479789 0.029853 -0.928033 0.000000 0.000000
    28 0.028786 -1.075730 -0.023111 -1.481385 0.000000 0.000000
    29 0.250028 -2.820664 -0.238396 -1.250421 -0.014906 -0.312588
    30 -0.049759 -1.680545 0.100480 -1.463660 0.000000 -0.000002
    31 -0.034141 -1.148312 0.084779 -1.087281 0.000000 0.000000
    32 0.957766 -2.746776 -0.090301 -0.143359 -0.206189 -0.071012
    33 -0.033419 -1.397128 -0.011255 -0.851993 0.128091 -0.125839
    34 -0.022361 -0.957434 0.018783 -0.703129 0.000000 0.000000
    35 -1.180680 -2.507215 -0.193861 -1.751193 0.170447 -0.335155
    36 -0.024966 -1.123935 0.017594 -0.977967 0.000000 0.000001
    37 -0.020057 -0.890966 0.010091 -0.933434 0.000000 0.000000
    38 0.583510 -1.197274 0.185377 0.272562 -1.003490 -0.533081
    39 1.535926 0.010244 0.005008 0.440185 -0.138733 -1.296648
    40 1.100770 0.004526 -0.010676 -0.011449 0.011491 -0.607431
    41 0.120152 -0.050266 -0.054488 0.287568 3.110905 1.561085
  time 6
    0 0.000000 -1.996155 0.000000 -0.082298 0.000000 -0.000011
    1 8.974970 7.279113 -9.986450 1.155637 -1.855973 -1.240158
    2 -0.071918 -8.498730 -0.104136 0.061590 0.268749 0.020771
    3 1.837369 -3.928482 1.063097 -0.074335 0.132417 2.344846
    4 0.190386 0.829184 -0.000001 0.000000 0.000000 0.526739
    5 -0.998952 2.262489 0.000000 0.000001 0.000000 0.737786
    6 -0.312858 -2.236601 -0.000003 0.000001 -0.000001 2.097535
    7 -1.067731 0.874859 0.541503 0.000000 -0.000001 2.097535
    8 -1.160627 -4.886666 -9.173873 0.751402 -4.372930 1.488100
    9 0.096944 -8.450418 -0.009364 0.126178 -0.251742 0.027799
    10 0.447952 -2.798983 -0.200442 -0.825401 -0.102210 0.041797
    11 -0.032910 -1.480206 0.004936 -1.520301 0.000000 0.000002
    12 -0.027022 -1.076919 -0.020212 -0.647537 0.000000 0.000000
    13 -0.249534 -2.846962 -0.174215 -0.634460 -0.091831 0.024622
    14 0.043235 -1.683940 0.096014 -1.582896 0.002823 -0.000167
    15 0.031729 -1.160831 0.058836 -0.764144 0.000642 0.008372
    16 -0.963866 -2.785142 -0.085346 -0.618191 0.014961 -0.024958
    17 0.028479 -1.403069 0.006271 -0.847830 0.000000 0.000000
    18 0.021413 -0.957782 0.020047 -0.900118 0.000000 0.000000
    19 1.164474 -2.543938 -0.170328 -0.683748 -0.318398 0.068471
    20 0.024033 -1.129042 0.017806 -1.305731 0.000000 0.000001
    21 0.014896 -0.883989 -0.019845 -0.810456 0.000000 0.000000
    22 -0.586770 -1.264475 0.200164 -0.330647 -0.882972 -2.453547
    23 1.522835 0.058681 0.016850 0.197130 -0.282574 0.860492
    24 1.117948 0.048424 -0.005764 -0.023002 -0.010289 1.205986
    25 -0.139399 -0.111697 0.014397 0.285382 -0.030687 1.580508
    26 -0.488517 -2.755600 -0.228261 -1.638088 0.011758 -0.287189
    27 0.039888 -1.479789 0.029853 -0.928033 0.000000 0.000000
    28 0.028786 -1.075730 -0.023111 -1.481385 0.000000 0.000000
    29 0.250028 -2.820664 -0.238396 -1.250421 -0.014906 -0.312588
    30 -0.049759 -1.680545 0.100480 -1.463660 0.000000 -0.000002
    31 -0.034141 -1.148312 0.084779 -1.087281 0.000000 0.000000
    32 0.957766 -2.746776 -0.090301 -0.143359 -0.206189 -0.071012
    33 -0.033419 -1.397128 -0.011255 -0.779092 0.124808 -0.122316
    34 -0.022361 -0.957434 0.018783 -0.694276 0.000000 0.000000
    35 -1.180680 -2.507215 -0.193861 -1.751193 0.170447 -0.335155
    36 -0.024966 -1.123935 0.017594 -0.977967 0.000000 0.000001
    37 -0.020057 -0.890966 0.010091 -0.933434 0.000000 0.000000
    38 0.583510 -1.197274 0.185377 0.272562 -1.003490 -0.533081
    39 1.535926 0.010244 0.005008 0.440185 -0.138733 -1.296648
    40 1.100770 0.004526 -0.010676 -0.011449 0.011491 -0.607431
    41 0.120152 -0.050266 -0.054488 0.287568 3.110905 1.561085
  time 7
    0 0.000000 -1.996155 0.000000 -0.069451 0.000000 -0.000011
    1 8.744494 7.279113 -9.986450 1.163436 -1.855973 -1.240158
    2 -0.071918 -8.498730 -0.104136 0.061590 0.268749 0.020771
    3 1.837369 -3.928482 1.063097 -0.074335 0.132417 2.344846
    4 0.190386 0.829184 -0.000001 0.000000 0.000000 0.526739
    5 -0.998952 2.262489 0.000000 0.000001 0.000000 0.737786
    6 -0.312858 -2.236601 -0.000003 0.000001 -0.000001 2.097535
    7 -1.067731 0.874859 0.541503 0.000000 -0.000001 2.097535
    8 -1.102031 -4.796819 -9.177780 0.762455 -4.372930 1.488100
    9 0.096944 -8.450418 -0.009364 0.126178 -0.251742 0.027799
    10 0.447952 -2.798983 -0.200442 -0.825401 -0.102210 0.041797
    11 -0.032910 -1.480206 0.004936 -1.568810 0.000000 0.000002
    12 -0.027022 -1.076919 -0.020212 -0.744511 0.000000 0.000000
    13 -0.249534 -2.846962 -0.174215 -0.634460 -0.091831 0.024622
    14 0.043235 -1.683940 0.096014 -1.647548 0.002823 -0.000167
    15 0.031729 -1.160831 0.058836 -0.828809 0.000642 0.008372
    16 -0.963866 -2.785142 -0.085346 -0.618191 0.014961 -0.024958
    17 0.028479 -1.403069 0.006271 -0.944815 0.000000 0.000000
    18 0.021413 -0.957782 0.020047 -0.980951 0.000000 0.000000
    19 1.164474 -2.543938 -0.170328 -0.683748 -0.318398 0.068471
    20 0.024033 -1.129042 0.017806 -1.354201 0.000000 0.000001
    21 0.014896 -0.883989 -0.019845 -0.858927 0.000000 0.000000
    22 -0.586770 -1.264475 0.200164 -0.330647 -0.882972 -2.453547
    23 1.522835 0.058681 0.016850 0.197130 -0.282574 0.860492
    24 1.117948 0.048424 -0.005764 -0.023002 -0.010289 1.205986
    25 -0.139399 -0.111697 0.014397 0.285382 -0.030687 1.580508
    26 -0.488517 -2.755600 -0.228261 -1.638088 0.011758 -0.287189
    27 0.039888 -1.479789 0.029853 -0.928033 0.000000 0.000000
    28 0.028786 -1.075730 -0.023111 -1.481385 0.000000 0.000000
    29 0.250028 -2.820664 -0.238396 -1.250421 -0.014906 -0.312588
    30 -0.049759 -1.680545 0.100480 -1.463660 0.000000 -0.000002
    31 -0.034141 -1.148312 0.084779 -1.087281 0.000000 0.000000
    32 0.957766 -2.746776 -0.090301 -0.143359 -0.206189 -0.071012
    33 -0.033419 -1.397128 -0.011255 -0.779092 0.124808 -0.122316
    34 -0.022361 -0.957434 0.018783 -0.720130 0.000000 0.000000
    35 -1.180680 -2.507215 -0.193861 -1.751193 0.170447 -0.335155
    36 -0.024966 -1.123935 0.017594 -0.977967 0.000000 0.000001
    37 -0.020057 -0.890966 0.010091 -0.933434 0.000000 0.000000
    38 0.583510 -1.197274 0.185377 0.272562 -1.003490 -0.533081
    39 1.535926 0.010244 0.005008 0.440185 -0.138733 -1.296648
    40 1.100770 0.004526 -0.010676 -0.011449 0.011491 -0.607431
    41 0.120152 -0.050266 -0.054488 0.287568 3.110905 1.561085
  time 8
    0 0.000000 -1.996155 0.000000 -0.051749 0.000000 -0.000011
    1 8.549176 7.279113 -9.986450 1.169985 -1.855973 -1.240158
    2 -0.071918 -8.498730 -0.104136 0.061590 0.268749 0.020771
    3 1.837369 -3.928482 1.063097 -0.074335 0.132417 2.344846
    4 0.190386 0.829184 -0.000001 0.000000 0.000000 0.526739
    5 -0.998952 2.262489 0.000000 0.000001 0.000000 0.737786
    6 -0.312858 -2.236601 -0.000003 0.000001 -0.000001 2.097535
    7 -1.067731 0.874859 0.541503 0.000000 -0.000001 2.097535
    8 -1.051248 -4.718692 -9.177780 0.771782 -4.372930 1.488100
    9 0.096944 -8.450418 -0.009364 0.126178 -0.251742 0.027799
    10 0.447952 -2.798983 -0.200442 -0.825401 -0.102210 0.041797
    11 -0.032910 -1.480206 0.004936 -1.631803 0.000000 0.000002
    12 -0.027022 -1.076919 -0.020212 -0.870566 0.000000 0.000000
    13 -0.249534 -2.846962 -0.174215 -0.634460 -0.091831 0.024622
    14 0.043235 -1.683940 0.096014 -1.731595 0.002823 -0.000167
    15 0.031729 -1.160831 0.058836 -0.912838 0.000642 0.008372
    16 -0.963866 -2.785142 -0.085346 -0.618191 0.014961 -0.024958
    17 0.028479 -1.403069 0.006271 -1.070855 0.000000 0.000000
    18 0.021413 -0.957782 0.020047 -1.085974 0.000000 0.000000
    19 1.164474 -2.543938 -0.170328 -0.683748 -0.318398 0.068471
    20 0.024033 -1.129042 0.017806 -1.417239 0.000000 0.000001
    21 0.014896 -0.883989 -0.019845 -0.921961 0.000000 0.000000
    22 -0.586770 -1.264475 0.200164 -0.330647 -0.882972 -2.453547
    23 1.522835 0.058681 0.016850 0.197130 -0.282574 0.860492
    24 1.117948 0.048424 -0.005764 -0.023002 -0.010289 1.205986
    25 -0.139399 -0.111697 0.014397 0.285382 -0.030687 1.580508
    26 -0.488517 -2.755600 -0.228261 -1.638088 0.011758 -0.287189
    27 0.039888 -1.479789 0.029853 -0.928033 0.000000 0.000000
    28 0.028786 -1.075730 -0.023111 -1.481385 0.000000 0.000000
    29 0.250028 -2.820664 -0.238396 -1.250421 -0.014906 -0.312588
    30 -0.049759 -1.680545 0.100480 -1.463660 0.000000 -0.000002
    31 -0.034141 -1.148312 0.084779 -1.087281 0.000000 0.000000
    32 0.957766 -2.746776 -0.090301 -0.143359 -0.206189 -0.071012
    33 -0.033419 -1.397128 -0.011255 -0.779092 0.124808 -0.122316
    34 -0.022361 -0.957434 0.018783 -0.784781 0.000000 0.000000
    35 -1.180680 -2.507215 -0.193861 -1.751193 0.170447 -0.335155
    36 -0.024966 -1.123935 0.017594 -0.977967 0.000000 0.000001
    37 -0.020057 -0.890966 0.010091 -0.933434 0.000000 0.000000
    38 0.583510 -1.197274 0.185377 0.272562 -1.003490 -0.533081
    39 1.535926 0.010244 0.005008 0.440185 -0.138733 -1.296648
    40 1.100770 0.004526 -0.010676 -0.011449 0.011491 -0.607431
    41 0.120152 -0.050266 -0.054488 0.287568 3.110905 1.561085
  time 9
    0 0.000000 -1.996155 0.000000 -0.032239 0.000000 -0.000011
    1 8.416359 7.279113 -9.986450 1.174547 -1.855973 -1.240158
    2 -0.071918 -8.498730 -0.104136 0.061590 0.268749 0.020771
    3 1.837369 -3.928482 1.063097 -0.074335 0.132417 2.344846
    4 0.190386 0.829184 -0.000001 0.000000 0.000000 0.526739
    5 -0.998952 2.262489 0.000000 0.000001 0.000000 0.737786
    6 -0.312858 -2.236601 -0.000003 0.000001 -0.000001 2.097535
    7 -1.067731 0.874859 0.541503 0.000000 -0.000001 2.097535
    8 -1.016091 -4.671815 -9.181686 0.778252 -4.372930 1.488100
    9 0.096944 -8.450418 -0.009364 0.126178 -0.251742 0.027799
    10 0.447952 -2.798983 -0.200442 -0.825401 -0.102210 0.041797
    11 -0.032910 -1.480206 0.004936 -1.694849 0.000000 0.000002
    12 -0.027022 -1.076919 -0.020212 -0.996622 0.000000 0.000000
    13 -0.249534 -2.846962 -0.174215 -0.634460 -0.091831 0.024622
    14 0.043235 -1.683940 0.096014 -1.815642 0.002823 -0.000167
    15 0.031729 -1.160831 0.058836 -0.996867 0.000642 0.008372
    16 -0.963866 -2.785142 -0.085346 -0.618191 0.014961 -0.024958
    17 0.028479 -1.403069 0.006271 -1.196895 0.000000 0.000000
    18 0.021413 -0.957782 0.020047 -1.191036 0.000000 0.000000
    19 1.164474 -2.543938 -0.170328 -0.683748 -0.318398 0.068471
    20 0.024033 -1.129042 0.017806 -1.480277 0.000000 0.000001
    21 0.014896 -0.883989 -0.019845 -0.984995 0.000000 0.000000
    22 -0.586770 -1.264475 0.200164 -0.330647 -0.882972 -2.453547
    23 1.522835 0.058681 0.016850 0.197130 -0.282574 0.860492
    24 1.117948 0.048424 -0.005764 -0.023002 -0.010289 1.205986
    25 -0.139399 -0.111697 0.014397 0.285382 -0.030687 1.580508
    26 -0.488517 -2.755600 -0.228261 -1.638088 0.011758 -0.287189
    27 0.039888 -1.479789 0.029853 -0.928033 0.000000 0.000000
    28 0.028786 -1.075730 -0.023111 -1.481385 0.000000 0.000000
    29 0.250028 -2.820664 -0.238396 -1.250421 -0.014906 -0.312588
    30 -0.049759 -1.680545 0.100480 -1.463660 0.000000 -0.000002
    31 -0.034141 -1.148312 0.084779 -1.087313 0.000000 0.000000
    32 0.957766 -2.746776 -0.090301 -0.143359 -0.206189 -0.071012
    33 -0.033419 -1.397128 -0.011255 -0.779092 0.124808 -0.122316
    34 -0.022361 -0.957434 0.018783 -0.868799 0.000000 0.000000
    35 -1.180680 -2.507215 -0.193861 -1.751193 0.170447 -0.335155
    36 -0.024966 -1.123935 0.017594 -0.977967 0.000000 0.000001
    37 -0.020057 -0.890966 0.010091 -0.933434 0.000000 0.000000
    38 0.583510 -1.197274 0.185377 0.272562 -1.003490 -0.533081
    39 1.535926 0.010244 0.005008 0.440185 -0.138733 -1.296648
    40 1.100770 0.004526 -0.010676 -0.011449 0.011491 -0.607431
    41 0.120152 -0.050266 -0.054488 0.287568 3.110905 1.561085
  time 10
    0 0.000000 -1.996155 0.000000 -0.013974 0.000000 -0.000011
    1 8.365576 7.279113 -9.986450 1.176166 -1.855973 -1.240158
    2 -0.071918 -8.498730 -0.104136 0.061590 0.268749 0.020771
    3 1.837369 -3.928482 1.063097 -0.074335 0.132417 2.344846
    4 0.190386 0.829184 -0.000001 0.000000 0.000000 0.526739
    5 -0.998952 2.262489 0.000000 0.000001 0.000000 0.737786
    6 -0.312858 -2.236601 -0.000003 0.000001 -0.000001 2.097535
    7 -1.067731 0.874859 0.541503 0.000000 -0.000001 2.097535
    8 -1.000466 -4.652283 -9.181686 0.780625 -4.372930 1.488100
    9 0.096944 -8.450418 -0.009364 0.126178 -0.251742 0.027799
    10 0.447952 -2.798983 -0.200442 -0.825401 -0.102210 0.041797
    11 -0.032910 -1.480206 0.004936 -1.743305 0.000000 0.000002
    12 -0.027022 -1.076919 -0.020212 -1.093561 0.000000 0.000000
    13 -0.249534 -2.846962 -0.174215 -0.634460 -0.091831 0.024622
    14 0.043235 -1.683940 0.096014 -1.880293 0.002823 -0.000167
    15 0.031729 -1.160831 0.058836 -1.061496 0.000642 0.008372
    16 -0.963866 -2.785142 -0.085346 -0.618191 0.014961 -0.024958
    17 0.028479 -1.403069 0.006271 -1.293880 0.000000 0.000000
    18 0.021413 -0.957782 0.020047 -1.271829 0.000000 0.000000
    19 1.164474 -2.543938 -0.170328 -0.683748 -0.318398 0.068471
    20 0.024033 -1.129042 0.017806 -1.528746 0.000000 0.000001
    21 0.014896 -0.883989 -0.019845 -1.033466 0.000000 0.000000
    22 -0.586770 -1.264475 0.200164 -0.330647 -0.882972 -2.453547
    23 1.522835 0.058681 0.016850 0.197130 -0.282574 0.860492
    24 1.117948 0.048424 -0.005764 -0.023002 -0.010289 1.205986
    25 -0.139399 -0.111697 0.014397 0.285382 -0.030687 1.580508
    26 -0.488517 -2.755600 -0.228261 -1.638088 0.011758 -0.287189
    27 0.039888 -1.479789 0.029853 -0.928033 0.000000 0.000000
    28 0.028786 -1.075730 -0.023111 -1.481385 0.000000 0.000000
    29 0.250028 -2.820664 -0.238396 -1.250421 -0.014906 -0.312588
    30 -0.049759 -1.680545 0.100480 -1.463660 0.000000 -0.000002
    31 -0.034141 -1.148312 0.084779 -1.087281 0.000000 0.000000
    32 0.957766 -2.746776 -0.090301 -0.143359 -0.206189 -0.071012
    33 -0.033419 -1.397128 -0.011255 -0.779092 0.124808 -0.122316
    34 -0.022361 -0.957434 0.018783 -0.952848 0.000000 0.000000
    35 -1.180680 -2.507215 -0.193861 -1.751193 0.170447 -0.335155
    36 -0.024966 -1.123935 0.017594 -0.977967 0.000000 0.000001
    37 -0.020057 -0.890966 0.010091 -0.933434 0.000000 0.000000
    38 0.583510 -1.197274 0.185377 0.272562 -1.003490 -0.533081
    39 1.535926 0.010244 0.005008 0.440185 -0.138733 -1.296648
    40 1.100770 0.004526 -0.010676 -0.011449 0.011491 -0.607431
    41 0.120152 -0.050266 -0.054488 0.287568 3.110905 1.561085
  time 11
    0 0.000000 -1.996155 0.000000 0.000000 0.000000 -0.000011
    1 8.365576 7.279113 -9.986450 1.176166 -1.855973 -1.240158
    2 -0.071918 -8.498730 -0.104136 0.061590 0.268749 0.020771
    3 1.837369 -3.928482 1.063097 -0.074335 0.132417 2.344846
    4 0.190386 0.829184 -0.000001 0.000000 0.000000 0.526739
    5 -0.998952 2.262489 0.000000 0.000001 0.000000 0.737786
    6 -0.312858 -2.236601 -0.000003 0.000001 -0.000001 2.097535
    7 -1.067731 0.874859 0.541503 0.000000 -0.000001 2.097535
    8 -1.000466 -4.652283 -9.181686 0.780625 -4.372930 1.488100
    9 0.096944 -8.450418 -0.009364 0.126178 -0.251742 0.027799
    10 0.447952 -2.798983 -0.200442 -0.825401 -0.102210 0.041797
    11 -0.032910 -1.480206 0.004936 -1.762688 0.000000 0.000002
    12 -0.027022 -1.076919 -0.020212 -1.132336 0.000000 0.000000
    13 -0.249534 -2.846962 -0.174215 -0.634460 -0.091831 0.024622
    14 0.043235 -1.683940 0.096014 -1.906095 0.002823 -0.000167
    15 0.031729 -1.160831 0.058836 -1.087362 0.000642 0.008372
    16 -0.963866 -2.785142 -0.085346 -0.618191 0.014961 -0.024958
    17 0.028479 -1.403069 0.006271 -1.332633 0.000000 0.000000
    18 0.021413 -0.957782 0.020047 -1.304122 0.000000 0.000000
    19 1.164474 -2.543938 -0.170328 -0.683748 -0.318398 0.068471
    20 0.024033 -1.129042 0.017806 -1.548171 0.000000 0.000001
    21 0.014896 -0.883989 -0.019845 -1.052873 0.000000 0.000000
    22 -0.586770 -1.264475 0.200164 -0.330647 -0.882972 -2.453547
    23 1.522835 0.058681 0.016850 0.197130 -0.282574 0.860492
    24 1.117948 0.048424 -0.005764 -0.023002 -0.010289 1.205986
    25 -0.139399 -0.111697 0.014397 0.285382 -0.030687 1.580508
    26 -0.488517 -2.755600 -0.228261 -1.638088 0.011758 -0.287189
    27 0.039888 -1.479789 0.029853 -0.928033 0.000000 0.000000
    28 0.028786 -1.075730 -0.023111 -1.481385 0.000000 0.000000
    29 0.250028 -2.820664 -0.238396 -1.250421 -0.014906 -0.312588
    30 -0.049759 -1.680545 0.100480 -1.463660 0.000000 -0.000002
    31 -0.034141 -1.148312 0.084779 -1.087281 0.000000 0.000000
    32 0.957766 -2.746776 -0.090301 -0.143359 -0.206189 -0.071012
    33 -0.033419 -1.397128 -0.011255 -0.779092 0.124808 -0.122316
    34 -0.022361 -0.957434 0.018783 -1.017467 0.000000 0.000000
    35 -1.180680 -2.507215 -0.193861 -1.751193 0.170447 -0.335155
    36 -0.024966 -1.123935 0.017594 -0.977967 0.000000 0.000001
    37 -0.020057 -0.890966 0.010091 -0.933434 0.000000 0.000000
    38 0.583510 -1.197274 0.185377 0.272562 -1.003490 -0.533081
    39 1.535926 0.010244 0.005008 0.440185 -0.138733 -1.296648
    40 1.100770 0.004526 -0.010676 -0.011449 0.011491 -0.607431
    41 0.120152 -0.050266 -0.054488 0.287568 3.110905 1.561085
  time 12
    0 0.000000 -1.996155 0.000000 0.010678 0.000000 -0.000011
    1 8.365576 7.279113 -9.986450 1.176166 -1.855973 -1.240158
    2 -0.071918 -8.498730 -0.104136 0.061590 0.268749 0.020771
    3 1.837369 -3.928482 1.063097 -0.074335 0.132417 2.344846
    4 0.190386 0.829184 -0.000001 0.000000 0.000000 0.526739
    5 -0.998952 2.262489 0.000000 0.000001 0.000000 0.737786
    6 -0.312858 -2.236601 -0.000003 0.000001 -0.000001 2.097535
    7 -1.067731 0.874859 0.541503 0.000000 -0.000001 2.097535
    8 -1.000466 -4.652283 -9.181686 0.780625 -4.372930 1.488100
    9 0.096944 -8.450418 -0.009364 0.126178 -0.251742 0.027799
    10 0.447952 -2.798983 -0.200442 -0.825401 -0.102210 0.041797
    11 -0.032910 -1.480206 0.004936 -1.762688 0.000000 0.000002
    12 -0.027022 -1.076919 -0.020212 -1.132336 0.000000 0.000000
    13 -0.249534 -2.846962 -0.174215 -0.634460 -0.091831 0.024622
    14 0.043235 -1.683940 0.096014 -1.906095 0.002823 -0.000167
    15 0.031729 -1.160831 0.058836 -1.087362 0.000642 0.008372
    16 -0.963866 -2.785142 -0.085346 -0.618191 0.014961 -0.024958
    17 0.028479 -1.403069 0.006271 -1.332633 0.000000 0.000000
    18 0.021413 -0.957782 0.020047 -1.304122 0.000000 0.000000
    19 1.164474 -2.543938 -0.170328 -0.683748 -0.318398 0.068471
    20 0.024033 -1.129042 0.017806 -1.548171 0.000000 0.000001
    21 0.014896 -0.883989 -0.019845 -1.052873 0.000000 0.000000
    22 -0.586770 -1.264475 0.200164 -0.330647 -0.882972 -2.453547
    23 1.522835 0.058681 0.016850 0.197130 -0.282574 0.860492
    24 1.117948 0.048424 -0.005764 -0.023002 -0.010289 1.205986
    25 -0.139399 -0.111697 0.014397 0.285382 -0.030687 1.580508
    26 -0.488517 -2.755600 -0.228261 -1.638088 0.011758 -0.287189
    27 0.039888 -1.479789 0.029853 -0.928033 0.000000 0.000000
    28 0.028786 -1.075730 -0.023111 -1.481385 0.000000 0.000000
    29 0.250028 -2.820664 -0.238396 -1.250421 -0.014906 -0.312588
    30 -0.049759 -1.680545 0.100480 -1.463660 0.000000 -0.000002
    31 -0.034141 -1.148312 0.084779 -1.087313 0.000000 0.000000
    32 0.957766 -2.746776 -0.090301 -0.143359 -0.206189 -0.071012
    33 -0.033419 -1.397128 -0.011255 -0.779092 0.124808 -0.122316
    34 -0.022361 -0.957434 0.018783 -1.043321 0.000000 0.000000
    35 -1.180680 -2.507215 -0.193861 -1.751193 0.170447 -0.335155
    36 -0.024966 -1.123935 0.017594 -0.977967 0.000000 0.000001
    37 -0.020057 -0.890966 0.010091 -0.933434 0.000000 0.000000
    38 0.583510 -1.197274 0.185377 0.272562 -1.003490 -0.533081
    39 1.535926 0.010244 0.005008 0.440185 -0.138733 -1.296648
    40 1.100770 0.004526 -0.010676 -0.011449 0.011491 -0.607431
    41 0.120152 -0.050266 -0.054488 0.287568 3.110905 1.561085
  time 13
    0 0.000000 -1.996155 0.000000 0.020685 0.000000 -0.000011
    1 8.365576 7.279113 -9.986450 1.176166 -1.855973 -1.240158
    2 -0.071918 -8.498730 -0.104136 0.061590 0.268749 0.020771
    3 1.837369 -3.928482 1.063097 -0.074335 0.132417 2.344846
    4 0.190386 0.829184 -0.000001 0.000000 0.000000 0.526739
    5 -0.998952 2.262489 0.000000 0.000001 0.000000 0.737786
    6 -0.312858 -2.236601 -0.000003 0.000001 -0.000001 2.097535
    7 -1.067731 0.874859 0.541503 0.000000 -0.000001 2.097535
    8 -1.000466 -4.652283 -9.181686 0.780625 -4.372930 1.488100
    9 0.096944 -8.450418 -0.009364 0.126178 -0.251742 0.027799
    10 0.447952 -2.798983 -0.200442 -0.825401 -0.102210 0.041797
    11 -0.032910 -1.480206 0.004936 -1.762688 0.000000 0.000002
    12 -0.027022 -1.076919 -0.020212 -1.132336 0.000000 0.000000
    13 -0.249534 -2.846962 -0.174215 -0.634460 -0.091831 0.024622
    14 0.043235 -1.683940 0.096014 -1.906095 0.002823 -0.000167
    15 0.031729 -1.160831 0.058836 -1.087362 0.000642 0.008372
    16 -0.963866 -2.785142 -0.085346 -0.618191 0.014961 -0.024958
    17 0.028479 -1.403069 0.006271 -1.332633 0.000000 0.000000
    18 0.021413 -0.957782 0.020047 -1.304122 0.000000 0.000000
    19 1.164474 -2.543938 -0.170328 -0.683748 -0.318398 0.068471
    20 0.024033 -1.129042 0.017806 -1.548171 0.000000 0.000001
    21 0.014896 -0.883989 -0.019845 -1.052873 0.000000 0.000000
    22 -0.586770 -1.264475 0.200164 -0.330647 -0.882972 -2.453547
    23 1.522835 0.058681 0.016850 0.197130 -0.282574 0.860492
    24 1.117948 0.048424 -0.005764 -0.023002 -0.010289 1.205986
    25 -0.139399 -0.111697 0.014397 0.285382 -0.030687 1.580508
    26 -0.488517 -2.755600 -0.228261 -1.638088 0.011758 -0.287189
    27 0.039888 -1.479789 0.029853 -0.928033 0.000000 0.000000
    28 0.028786 -1.075730 -0.023111 -1.481385 0.000000 0.000000
    29 0.250028 -2.820664 -0.238396 -1.250421 -0.014906 -0.312588
    30 -0.049759 -1.680545 0.100480 -1.463660 0.000000 -0.000002
    31 -0.034141 -1.148312 0.084779 -1.087281 0.000000 0.000000
    32 0.957766 -2.746776 -0.090301 -0.143359 -0.206189 -0.071012
    33 -0.033419 -1.397128 -0.011255 -0.779092 0.124808 -0.122316
    34 -0.022361 -0.957434 0.018783 -1.043321 0.000000 0.000000
    35 -1.180680 -2.507215 -0.193861 -1.751193 0.170447 -0.335155
    36 -0.024966 -1.123935 0.017594 -0.977967 0.000000 0.000001
    37 -0.020057 -0.890966 0.010091 -0.933434 0.000000 0.000000
    38 0.583510 -1.197274 0.185377 0.272562 -1.003490 -0.533081
    39 1.535926 0.010244 0.005008 0.440185 -0.138733 -1.296648
    40 1.100770 0.004526 -0.010676 -0.011449 0.011491 -0.607431
    41 0.120152 -0.050266 -0.054488 0.287568 3.110905 1.561085
  time 14
    0 0.000000 -1.996155 0.000000 0.029458 0.000000 -0.000011
    1 8.365576 7.279113 -9.986450 1.176166 -1.855973 -1.240158
    2 -0.071918 -8.498730 -0.104136 0.061590 0.268749 0.020771
    3 1.837369 -3.928482 1.063097 -0.074335 0.132417 2.344846
    4 0.190386 0.829184 -0.000001 0.000000 0.000000 0.526739
    5 -0.998952 2.262489 0.000000 0.000001 0.000000 0.737786
    6 -0.312858 -2.236601 -0.000003 0.000001 -0.000001 2.097535
    7 -1.067731 0.874859 0.541503 0.000000 -0.000001 2.097535
    8 -1.000466 -4.652283 -9.181686 0.780625 -4.372930 1.488100
    9 0.096944 -8.450418 -0.009364 0.126178 -0.251742 0.027799
    10 0.447952 -2.798983 -0.200442 -0.825401 -0.102210 0.041797
    11 -0.032910 -1.480206 0.004936 -1.762688 0.000000 0.000002
    12 -0.027022 -1.076919 -0.020212 -1.132336 0.000000 0.000000
    13 -0.249534 -2.846962 -0.174215 -0.634460 -0.091831 0.024622
    14 0.043235 -1.683940 0.096014 -1.906095 0.002823 -0.000167
    15 0.031729 -1.160831 0.058836 -1.087362 0.000642 0.008372
    16 -0.963866 -2.785142 -0.085346 -0.618191 0.014961 -0.024958
    17 0.028479 -1.403069 0.006271 -1.332633 0.000000 0.000000
    18 0.021413 -0.957782 0.020047 -1.304122 0.000000 0.000000
    19 1.164474 -2.543938 -0.170328 -0.683748 -0.318398 0.068471
    20 0.024033 -1.129042 0.017806 -1.548171 0.000000 0.000001
    21 0.014896 -0.883989 -0.019845 -1.052873 0.000000 0.000000
    22 -0.586770 -1.264475 0.200164 -0.330647 -0.882972 -2.453547
    23 1.522835 0.058681 0.016850 0.197130 -0.282574 0.860492
    24 1.117948 0.048424 -0.005764 -0.023002 -0.010289 1.205986
    25 -0.139399 -0.111697 0.014397 0.285382 -0.030687 1.580508
    26 -0.488517 -2.755600 -0.228261 -1.638088 0.011758 -0.287189
    27 0.039888 -1.479789 0.029853 -0.928033 0.000000 0.000000
    28 0.028786 -1.075730 -0.023111 -1.481385 0.000000 0.000000
    29 0.250028 -2.820664 -0.238396 -1.250421 -0.014906 -0.312588
    30 -0.049759 -1.680545 0.100480 -1.463660 0.000000 -0.000002
    31 -0.034141 -1.148312 0.084779 -1.087281 0.000000 0.000000
    32 0.957766 -2.746776 -0.090301 -0.143359 -0.206189 -0.071012
    33 -0.033419 -1.397128 -0.011255 -0.779092 0.124808 -0.122316
    34 -0.022361 -0.957434 0.018783 -1.043353 0.000000 0.000000
    35 -1.180680 -2.507215 -0.193861 -1.751193 0.170447 -0.335155
    36 -0.024966 -1.123935 0.017594 -0.977967 0.000000 0.000001
    37 -0.020057 -0.890966 0.010091 -0.933434 0.000000 0.000000
    38 0.583510 -1.197274 0.185377 0.272562 -1.003490 -0.533081
    39 1.535926 0.010244 0.005008 0.440185 -0.138733 -1.296648
    40 1.100770 0.004526 -0.010676 -0.011449 0.011491 -0.607431
    41 0.120152 -0.050266 -0.054488 0.287568 3.110905 1.561085
  time 15
    0 0.000000 -1.996155 0.000000 0.036421 0.000000 -0.000011
    1 8.365576 7.279113 -9.986450 1.176166 -1.855973 -1.240158
    2 -0.071918 -8.498730 -0.104136 0.061590 0.268749 0.020771
    3 1.837369 -3.928482 1.063097 -0.074335 0.132417 2.344846
    4 0.190386 0.829184 -0.000001 0.000000 0.000000 0.526739
    5 -0.998952 2.262489 0.000000 0.000001 0.000000 0.737786
    6 -0.312858 -2.236601 -0.000003 0.000001 -0.000001 2.097535
    7 -1.067731 0.874859 0.541503 0.000000 -0.000001 2.097535
    8 -1.000466 -4.652283 -9.181686 0.780625 -4.372930 1.488100
    9 0.096944 -8.450418 -0.009364 0.126178 -0.251742 0.027799
    10 0.447952 -2.798983 -0.200442 -0.825401 -0.102210 0.041797
    11 -0.032910 -1.480206 0.004936 -1.762688 0.000000 0.000002
    12 -0.027022 -1.076919 -0.020212 -1.132336 0.000000 0.000000
    13 -0.249534 -2.846962 -0.174215 -0.634460 -0.091831 0.024622
    14 0.043235 -1.683940 0.096014 -1.906095 0.002823 -0.000167
    15 0.031729 -1.160831 0.058836 -1.087362 0.000642 0.008372
    16 -0.963866 -2.785142 -0.085346 -0.618191 0.014961 -0.024958
    17 0.028479 -1.403069 0.006271 -1.332633 0.000000 0.000000
    18 0.021413 -0.957782 0.020047 -1.304122 0.000000 0.000000
    19 1.164474 -2.543938 -0.170328 -0.683748 -0.318398 0.068471
    20 0.024033 -1.129042 0.017806 -1.548171 0.000000 0.000001
    21 0.014896 -0.883989 -0.019845 -1.052873 0.000000 0.000000
    22 -0.586770 -1.264475 0.200164 -0.330647 -0.882972 -2.453547
    23 1.522835 0.058681 0.016850 0.197130 -0.282574 0.860492
    24 1.117948 0.048424 -0.005764 -0.023002 -0.010289 1.205986
    25 -0.139399 -0.111697 0.014397 0.285382 -0.030687 1.580508
    26 -0.488517 -2.755600 -0.228261 -1.638088 0.011758 -0.287189
    27 0.039888 -1.479789 0.029853 -0.928033 0.000000 0.000000
    28 0.028786 -1.075730 -0.023111 -1.481385 0.000000 0.000000
    29 0.250028 -2.820664 -0.238396 -1.250421 -0.014906 -0.312588
    30 -0.049759 -1.680545 0.100480 -1.463660 0.000000 -0.000002
    31 -0.034141 -1.148312 0.084779 -1.087313 0.000000 0.000000
    32 0.957766 -2.746776 -0.090301 -0.143359 -0.206189 -0.071012
    33 -0.033419 -1.397128 -0.011255 -0.779092 0.124808 -0.122316
    34 -0.022361 -0.957434 0.018783 -1.043353 0.000000 0.000000
    35 -1.180680 -2.507215 -0.193861 -1.751193 0.170447 -0.335155
    36 -0.024966 -1.123935 0.017594 -0.977967 0.000000 0.000001
    37 -0.020057 -0.890966 0.010091 -0.933434 0.000000 0.000000
    38 0.583510 -1.197274 0.185377 0.272562 -1.003490 -0.533081
    39 1.535926 0.010244 0.005008 0.440185 -0.138733 -1.296648
    40 1.100770 0.004526 -0.010676 -0.011449 0.011491 -0.607431
    41 0.120152 -0.050266 -0.054488 0.287568 3.110905 1.561085
  time 16
    0 0.000000 -1.996155 0.000000 0.041011 0.000000 -0.000011
    1 8.365576 7.279113 -9.986450 1.176166 -1.855973 -1.240158
    2 -0.071918 -8.498730 -0.104136 0.061590 0.268749 0.020771
    3 1.837369 -3.928482 1.063097 -0.074335 0.132417 2.344846
    4 0.190386 0.829184 -0.000001 0.000000 0.000000 0.526739
    5 -0.998952 2.262489 0.000000 0.000001 0.000000 0.737786
    6 -0.312858 -2.236601 -0.000003 0.000001 -0.000001 2.097535
    7 -1.067731 0.874859 0.541503 0.000000 -0.000001 2.097535
    8 -1.000466 -4.652283 -9.181686 0.780625 -4.372930 1.488100
    9 0.096944 -8.450418 -0.009364 0.126178 -0.251742 0.027799
    10 0.447952 -2.798983 -0.200442 -0.825401 -0.102210 0.041797
    11 -0.032910 -1.480206 0.004936 -1.762688 0.000000 0.000002
    12 -0.027022 -1.076919 -0.020212 -1.132336 0.000000 0.000000
    13 -0.249534 -2.846962 -0.174215 -0.634460 -0.091831 0.024622
    14 0.043235 -1.683940 0.096014 -1.906095 0.002823 -0.000167
    15 0.031729 -1.160831 0.058836 -1.087362 0.000642 0.008372
    16 -0.963866 -2.785142 -0.085346 -0.618191 0.014961 -0.024958
    17 0.028479 -1.403069 0.006271 -1.332633 0.000000 0.000000
    18 0.021413 -0.957782 0.020047 -1.304122 0.000000 0.000000
    19 1.164474 -2.543938 -0.170328 -0.683748 -0.318398 0.068471
    20 0.024033 -1.129042 0.017806 -1.548171 0.000000 0.000001
    21 0.014896 -0.883989 -0.019845 -1.052873 0.000000 0.000000
    22 -0.586770 -1.264475 0.200164 -0.330647 -0.882972 -2.453547
    23 1.522835 0.058681 0.016850 0.197130 -0.282574 0.860492
    24 1.117948 0.048424 -0.005764 -0.023002 -0.010289 1.205986
    25 -0.139399 -0.111697 0.014397 0.285382 -0.030687 1.580508
    26 -0.488517 -2.755600 -0.228261 -1.638088 0.011758 -0.287189
    27 0.039888 -1.479789 0.029853 -0.928033 0.000000 0.000000
    28 0.028786 -1.075730 -0.023111 -1.481385 0.000000 0.000000
    29 0.250028 -2.820664 -0.238396 -1.250421 -0.014906 -0.312588
    30 -0.049759 -1.680545 0.100480 -1.463660 0.000000 -0.000002
    31 -0.034141 -1.148312 0.084779 -1.087281 0.000000 0.000000
    32 0.957766 -2.746776 -0.090301 -0.143359 -0.206189 -0.071012
    33 -0.033419 -1.397128 -0.011255 -0.779092 0.124808 -0.122316
    34 -0.022361 -0.957434 0.018783 -1.043321 0.000000 0.000000
    35 -1.180680 -2.507215 -0.193861 -1.751193 0.170447 -0.335155
    36 -0.024966 -1.123935 0.017594 -0.977967 0.000000 0.000001
    37 -0.020057 -0.890966 0.010091 -0.933434 0.000000 0.000000
    38 0.583510 -1.197274 0.185377 0.272562 -1.003490 -0.533081
    39 1.535926 0.010244 0.005008 0.440185 -0.138733 -1.296648
    40 1.100770 0.004526 -0.010676 -0.011449 0.011491 -0.607431
    41 0.120152 -0.050266 -0.054488 0.287568 3.110905 1.561085
  time 17
    0 0.000000 -1.996155 0.000000 0.042677 0.000000 -0.000011
    1 8.365576 7.279113 -9.986450 1.176166 -1.855973 -1.240158
    2 -0.071918 -8.498730 -0.104136 0.061590 0.268749 0.020771
    3 1.837369 -3.928482 1.063097 -0.074335 0.132417 2.344846
    4 0.190386 0.829184 -0.000001 0.000000 0.000000 0.526739
    5 -0.998952 2.262489 0.000000 0.000001 0.000000 0.737786
    6 -0.312858 -2.236601 -0.000003 0.000001 -0.000001 2.097535
    7 -1.067731 0.874859 0.541503 0.000000 -0.000001 2.097535
    8 -1.000466 -4.652283 -9.181686 0.780625 -4.372930 1.488100
    9 0.096944 -8.450418 -0.009364 0.126178 -0.251742 0.027799
    10 0.447952 -2.798983 -0.200442 -0.825401 -0.102210 0.041797
    11 -0.032910 -1.480206 0.004936 -1.762688 0.000000 0.000002
    12 -0.027022 -1.076919 -0.020212 -1.132336 0.000000 0.000000
    13 -0.249534 -2.846962 -0.174215 -0.634460 -0.091831 0.024622
    14 0.043235 -1.683940 0.096014 -1.906095 0.002823 -0.000167
    15 0.031729 -1.160831 0.058836 -1.087362 0.000642 0.008372
    16 -0.963866 -2.785142 -0.085346 -0.618191 0.014961 -0.024958
    17 0.028479 -1.403069 0.006271 -1.332633 0.000000 0.000000
    18 0.021413 -0.957782 0.020047 -1.304122 0.000000 0.000000
    19 1.164474 -2.543938 -0.170328 -0.683748 -0.318398 0.068471
    20 0.024033 -1.129042 0.017806 -1.548171 0.000000 0.000001
    21 0.014896 -0.883989 -0.019845 -1.052873 0.000000 0.000000
    22 -0.586770 -1.264475 0.200164 -0.330647 -0.882972 -2.453547
    23 1.522835 0.058681 0.016850 0.197130 -0.282574 0.860492
    24 1.117948 0.048424 -0.005764 -0.023002 -0.010289 1.205986
    25 -0.139399 -0.111697 0.014397 0.285382 -0.030687 1.580508
    26 -0.488517 -2.755600 -0.228261 -1.638088 0.011758 -0.287189
    27 0.039888 -1.479789 0.029853 -0.928033 0.000000 0.000000
    28 0.028786 -1.075730 -0.023111 -1.481385 0.000000 0.000000
    29 0.250028 -2.820664 -0.238396 -1.250421 -0.014906 -0.312588
    30 -0.049759 -1.680545 0.100480 -1.463660 0.000000 -0.000002
    31 -0.034141 -1.148312 0.084779 -1.087313 0.000000 0.000000
    32 0.957766 -2.746776 -0.090301 -0.143359 -0.206189 -0.071012
    33 -0.033419 -1.397128 -0.011255 -0.779092 0.124808 -0.122316
    34 -0.022361 -0.957434 0.018783 -1.043321 0.000000 0.000000
    35 -1.180680 -2.507215 -0.193861 -1.751193 0.170447 -0.335155
    36 -0.024966 -1.123935 0.017594 -0.977967 0.000000 0.000001
    37 -0.020057 -0.890966 0.010091 -0.933434 0.000000 0.000000
    38 0.583510 -1.197274 0.185377 0.272562 -1.003490 -0.533081
    39 1.535926 0.010244 0.005008 0.440185 -0.138733 -1.296648
    40 1.100770 0.004526 -0.010676 -0.011449 0.011491 -0.607431
    41 0.120152 -0.050266 -0.054488 0.287568 3.110905 1.561085
  time 18
    0 0.000000 -1.996155 0.000000 0.041958 0.000000 -0.000011
    1 8.365576 7.279113 -9.986450 1.176166 -1.855973 -1.240158
    2 -0.071918 -8.498730 -0.104136 0.061590 0.268749 0.020771
    3 1.837369 -3.928482 1.063097 -0.074335 0.132417 2.344846
    4 0.190386 0.829184 -0.000001 0.000000 0.000000 0.526739
    5 -0.998952 2.262489 0.000000 0.000001 0.000000 0.737786
    6 -0.312858 -2.236601 -0.000003 0.000001 -0.000001 2.097535
    7 -1.067731 0.874859 0.541503 0.000000 -0.000001 2.097535
    8 -1.000466 -4.652283 -9.181686 0.780625 -4.372930 1.488100
    9 0.096944 -8.450418 -0.009364 0.126178 -0.251742 0.027799
    10 0.447952 -2.798983 -0.200442 -0.825401 -0.102210 0.041797
    11 -0.032910 -1.480206 0.004936 -1.762688 0.000000 0.000002
    12 -0.027022 -1.076919 -0.020212 -1.132336 0.000000 0.000000
    13 -0.249534 -2.846962 -0.174215 -0.634460 -0.091831 0.024622
    14 0.043235 -1.683940 0.096014 -1.906095 0.002823 -0.000167
    15 0.031729 -1.160831 0.058836 -1.087362 0.000642 0.008372
    16 -0.963866 -2.785142 -0.085346 -0.618191 0.014961 -0.024958
    17 0.028479 -1.403069 0.006271 -1.332633 0.000000 0.000000
    18 0.021413 -0.957782 0.020047 -1.304122 0.000000 0.000000
    19 1.164474 -2.543938 -0.170328 -0.683748 -0.318398 0.068471
    20 0.024033 -1.129042 0.017806 -1.548171 0.000000 0.000001
    21 0.014896 -0.883989 -0.019845 -1.052873 0.000000 0.000000
    22 -0.586770 -1.264475 0.200164 -0.330647 -0.882972 -2.453547
    23 1.522835 0.058681 0.016850 0.197130 -0.282574 0.860492
    24 1.117948 0.048424 -0.005764 -0.023002 -0.010289 1.205986
    25 -0.139399 -0.111697 0.014397 0.285382 -0.030687 1.580508
    26 -0.488517 -2.755600 -0.228261 -1.638088 0.011758 -0.287189
    27 0.039888 -1.479789 0.029853 -0.928033 0.000000 0.000000
    28 0.028786 -1.075730 -0.023111 -1.481385 0.000000 0.000000
    29 0.250028 -2.820664 -0.238396 -1.250421 -0.014906 -0.312588
    30 -0.049759 -1.680545 0.100480 -1.463660 0.000000 -0.000002
    31 -0.034141 -1.148312 0.084779 -1.087313 0.000000 0.000000
    32 0.957766 -2.746776 -0.090301 -0.143359 -0.206189 -0.071012
    33 -0.033419 -1.397128 -0.011255 -0.779092 0.124808 -0.122316
    34 -0.022361 -0.957434 0.018783 -1.043353 0.000000 0.000000
    35 -1.180680 -2.507215 -0.193861 -1.751193 0.170447 -0.335155
    36 -0.024966 -1.123935 0.017594 -0.977967 0.000000 0.000001
    37 -0.020057 -0.890966 0.010091 -0.933434 0.000000 0.000000
    38 0.583510 -1.197274 0.185377 0.272562 -1.003490 -0.533081
    39 1.535926 0.010244 0.005008 0.440185 -0.138733 -1.296648
    40 1.100770 0.004526 -0.010676 -0.011449 0.011491 -0.607431
    41 0.120152 -0.050266 -0.054488 0.287568 3.110905 1.561085
  time 19
    0 0.000000 -1.996155 0.000000 0.039957 0.000000 -0.000011
    1 8.365576 7.279113 -9.986450 1.176166 -1.855973 -1.240158
    2 -0.071918 -8.498730 -0.104136 0.061590 0.268749 0.020771
    3 1.837369 -3.928482 1.063097 -0.074335 0.132417 2.344846
    4 0.190386 0.829184 -0.000001 0.000000 0.000000 0.526739
    5 -0.998952 2.262489 0.000000 0.000001 0.000000 0.737786
    6 -0.312858 -2.236601 -0.000003 0.000001 -0.000001 2.097535
    7 -1.067731 0.874859 0.541503 0.000000 -0.000001 2.097535
    8 -1.000466 -4.652283 -9.181686 0.780625 -4.372930 1.488100
    9 0.096944 -8.450418 -0.009364 0.126178 -0.251742 0.027799
    10 0.447952 -2.798983 -0.200442 -0.825401 -0.102210 0.041797
    11 -0.032910 -1.480206 0.004936 -1.762688 0.000000 0.000002
    12 -0.027022 -1.076919 -0.020212 -1.132336 0.000000 0.000000
    13 -0.249534 -2.846962 -0.174215 -0.634460 -0.091831 0.024622
    14 0.043235 -1.683940 0.096014 -1.906095 0.002823 -0.000167
    15 0.031729 -1.160831 0.058836 -1.087362 0.000642 0.008372
    16 -0.963866 -2.785142 -0.085346 -0.618191 0.014961 -0.024958
    17 0.028479 -1.403069 0.006271 -1.332633 0.000000 0.000000
    18 0.021413 -0.957782 0.020047 -1.304122 0.000000 0.000000
    19 1.164474 -2.543938 -0.170328 -0.683748 -0.318398 0.068471
    20 0.024033 -1.129042 0.017806 -1.548171 0.000000 0.000001
    21 0.014896 -0.883989 -0.019845 -1.052873 0.000000 0.000000
    22 -0.586770 -1.264475 0.200164 -0.330647 -0.882972 -2.453547
    23 1.522835 0.058681 0.016850 0.197130 -0.282574 0.860492
    24 1.117948 0.048424 -0.005764 -0.023002 -0.010289 1.205986
    25 -0.139399 -0.111697 0.014397 0.285382 -0.030687 1.580508
    26 -0.488517 -2.755600 -0.228261 -1.638088 0.011758 -0.287189
    27 0.039888 -1.479789 0.029853 -0.928033 0.000000 0.000000
    28 0.028786 -1.075730 -0.023111 -1.481385 0.000000 0.000000
    29 0.250028 -2.820664 -0.238396 -1.250421 -0.014906 -0.312588
    30 -0.049759 -1.680545 0.100480 -1.463660 0.000000 -0.000002
    31 -0.034141 -1.148312 0.084779 -1.087281 0.000000 0.000000
    32 0.957766 -2.746776 -0.090301 -0.143359 -0.206189 -0.071012
    33 -0.033419 -1.397128 -0.011255 -0.779092 0.124808 -0.122316
    34 -0.022361 -0.957434 0.018783 -1.043321 0.000000 0.000000
    35 -1.180680 -2.507215 -0.193861 -1.751193 0.170447 -0.335155
    36 -0.024966 -1.123935 0.017594 -0.977967 0.000000 0.000001
    37 -0.020057 -0.890966 0.010091 -0.933434 0.000000 0.000000
    38 0.583510 -1.197274 0.185377 0.272562 -1.003490 -0.533081
    39 1.535926 0.010244 0.005008 0.440185 -0.138733 -1.296648
    40 1.100770 0.004526 -0.010676 -0.011449 0.011491 -0.607431
    41 0.120152 -0.050266 -0.054488 0.287568 3.110905 1.561085
  time 20
    0 0.000000 -1.996155 0.000000 0.036901 0.000000 -0.000011
    1 8.365576 7.279113 -9.986450 1.176166 -1.855973 -1.240158
    2 -0.071918 -8.498730 -0.104136 0.061590 0.268749 0.020771
    3 1.837369 -3.928482 1.063097 -0.074335 0.132417 2.344846
    4 0.190386 0.829184 -0.000001 0.000000 0.000000 0.526739
    5 -0.998952 2.262489 0.000000 0.000001 0.000000 0.737786
    6 -0.312858 -2.236601 -0.000003 0.000001 -0.000001 2.097535
    7 -1.067731 0.874859 0.541503 0.000000 -0.000001 2.097535
    8 -1.000466 -4.652283 -9.181686 0.780625 -4.372930 1.488100
    9 0.096944 -8.450418 -0.009364 0.126178 -0.251742 0.027799
    10 0.447952 -2.798983 -0.200442 -0.825401 -0.102210 0.041797
    11 -0.032910 -1.480206 0.004936 -1.762688 0.000000 0.000002
    12 -0.027022 -1.076919 -0.020212 -1.132336 0.000000 0.000000
    13 -0.249534 -2.846962 -0.174215 -0.634460 -0.091831 0.024622
    14 0.043235 -1.683940 0.096014 -1.906095 0.002823 -0.000167
    15 0.031729 -1.160831 0.058836 -1.087362 0.000642 0.008372
    16 -0.963866 -2.785142 -0.085346 -0.618191 0.014961 -0.024958
    17 0.028479 -1.403069 0.006271 -1.332633 0.000000 0.000000
    18 0.021413 -0.957782 0.020047 -1.304122 0.000000 0.000000
    19 1.164474 -2.543938 -0.170328 -0.683748 -0.318398 0.068471
    20 0.024033 -1.129042 0.017806 -1.548171 0.000000 0.000001
    21 0.014896 -0.883989 -0.019845 -1.052873 0.000000 0.000000
    22 -0.586770 -1.264475 0.200164 -0.330647 -0.882972 -2.453547
    23 1.522835 0.058681 0.016850 0.197130 -0.282574 0.860492
    24 1.117948 0.048424 -0.005764 -0.023002 -0.010289 1.205986
    25 -0.139399 -0.111697 0.014397 0.285382 -0.030687 1.580508
    26 -0.488517 -2.755600 -0.228261 -1.638088 0.011758 -0.287189
    27 0.039888 -1.479789 0.029853 -0.928033 0.000000 0.000000
    28 0.028786 -1.075730 -0.023111 -1.481385 0.000000 0.000000
    29 0.250028 -2.820664 -0.238396 -1.250421 -0.014906 -0.312588
    30 -0.049759 -1.680545 0.100480 -1.463660 0.000000 -0.000002
    31 -0.034141 -1.148312 0.084779 -1.087313 0.000000 0.000000
    32 0.957766 -2.746776 -0.090301 -0.143359 -0.206189 -0.071012
    33 -0.033419 -1.397128 -0.011255 -0.779092 0.124808 -0.122316
    34 -0.022361 -0.957434 0.018783 -1.043321 0.000000 0.000000
    35 -1.180680 -2.507215 -0.193861 -1.751193 0.170447 -0.335155
    36 -0.024966 -1.123935 0.017594 -0.977967 0.000000 0.000001
    37 -0.020057 -0.890966 0.010091 -0.933434 0.000000 0.000000
    38 0.583510 -1.197274 0.185377 0.272562 -1.003490 -0.533081
    39 1.535926 0.010244 0.005008 0.440185 -0.138733 -1.296648
    40 1.100770 0.004526 -0.010676 -0.011449 0.011491 -0.607431
    41 0.120152 -0.050266 -0.054488 0.287568 3.110905 1.561085
  time 21
    0 0.000000 -1.996155 0.000000 0.033042 0.000000 -0.000011
    1 8.365576 7.279113 -9.986450 1.176166 -1.855973 -1.240158
    2 -0.071918 -8.498730 -0.104136 0.061590 0.268749 0.020771
    3 1.837369 -3.928482 1.063097 -0.074335 0.132417 2.344846
    4 0.190386 0.829184 -0.000001 0.000000 0.000000 0.526739
    5 -0.998952 2.262489 0.000000 0.000001 0.000000 0.737786
    6 -0.312858 -2.236601 -0.000003 0.000001 -0.000001 2.097535
    7 -1.067731 0.874859 0.541503 0.000000 -0.000001 2.097535
    8 -1.000466 -4.652283 -9.181686 0.780625 -4.372930 1.488100
    9 0.096944 -8.450418 -0.009364 0.126178 -0.251742 0.027799
    10 0.447952 -2.798983 -0.200442 -0.825401 -0.102210 0.041797
    11 -0.032910 -1.480206 0.004936 -1.762688 0.000000 0.000002
    12 -0.027022 -1.076919 -0.020212 -1.132336 0.000000 0.000000
    13 -0.249534 -2.846962 -0.174215 -0.634460 -0.091831 0.024622
    14 0.043235 -1.683940 0.096014 -1.906095 0.002823 -0.000167
    15 0.031729 -1.160831 0.058836 -1.087362 0.000642 0.008372
    16 -0.963866 -2.785142 -0.085346 -0.618191 0.014961 -0.024958
    17 0.028479 -1.403069 0.006271 -1.332633 0.000000 0.000000
    18 0.021413 -0.957782 0.020047 -1.304122 0.000000 0.000000
    19 1.164474 -2.543938 -0.170328 -0.683748 -0.318398 0.068471
    20 0.024033 -1.129042 0.017806 -1.548124 0.000000 0.000001
    21 0.014896 -0.883989 -0.019845 -1.052873 0.000000 0.000000
    22 -0.586770 -1.264475 0.200164 -0.330647 -0.882972 -2.453547
    23 1.522835 0.058681 0.016850 0.197130 -0.282574 0.860492
    24 1.117948 0.048424 -0.005764 -0.023002 -0.010289 1.205986
    25 -0.139399 -0.111697 0.014397 0.285382 -0.030687 1.580508
    26 -0.488517 -2.755600 -0.228261 -1.638088 0.011758 -0.287189
    27 0.039888 -1.479789 0.029853 -0.928033 0.000000 0.000000
    28 0.028786 -1.075730 -0.023111 -1.481385 0.000000 0.000000
    29 0.250028 -2.820664 -0.238396 -1.250421 -0.014906 -0.312588
    30 -0.049759 -1.680545 0.100480 -1.463660 0.000000 -0.000002
    31 -0.034141 -1.148312 0.084779 -1.087313 0.000000 0.000000
    32 0.957766 -2.746776 -0.090301 -0.143359 -0.206189 -0.071012
    33 -0.033419 -1.397128 -0.011255 -0.779092 0.124808 -0.122316
    34 -0.022361 -0.957434 0.018783 -1.043321 0.000000 0.000000
    35 -1.180680 -2.507215 -0.193861 -1.751193 0.170447 -0.335155
    36 -0.024966 -1.123935 0.017594 -0.977967 0.000000 0.000001
    37 -0.020057 -0.890966 0.010091 -0.933434 0.000000 0.000000
    38 0.583510 -1.197274 0.185377 0.272562 -1.003490 -0.533081
    39 1.535926 0.010244 0.005008 0.440185 -0.138733 -1.296648
    40 1.100770 0.004526 -0.010676 -0.011449 0.011491 -0.607431
    41 0.120152 -0.050266 -0.054488 0.287568 3.110905 1.561085
  time 22
    0 0.000000 -1.996155 0.000000 0.028595 0.000000 -0.000011
    1 8.365576 7.279113 -9.986450 1.176166 -1.855973 -1.240158
    2 -0.071918 -8.498730 -0.104136 0.061590 0.268749 0.020771
    3 1.837369 -3.928482 1.063097 -0.074335 0.132417 2.344846
    4 0.190386 0.829184 -0.000001 0.000000 0.000000 0.526739
    5 -0.998952 2.262489 0.000000 0.000001 0.000000 0.737786
    6 -0.312858 -2.236601 -0.000003 0.000001 -0.000001 2.097535
    7 -1.067731 0.874859 0.541503 0.000000 -0.000001 2.097535
    8 -1.000466 -4.652283 -9.181686 0.780625 -4.372930 1.488100
    9 0.096944 -8.450418 -0.009364 0.126178 -0.251742 0.027799
    10 0.447952 -2.798983 -0.200442 -0.825401 -0.102210 0.041797
    11 -0.032910 -1.480206 0.004936 -1.762688 0.000000 0.000002
    12 -0.027022 -1.076919 -0.020212 -1.132336 0.000000 0.000000
    13 -0.249534 -2.846962 -0.174215 -0.634460 -0.091831 0.024622
    14 0.043235 -1.683940 0.096014 -1.906095 0.002823 -0.000167
    15 0.031729 -1.160831 0.058836 -1.087362 0.000642 0.008372
    16 -0.963866 -2.785142 -0.085346 -0.618191 0.014961 -0.024958
    17 0.028479 -1.403069 0.006271 -1.332633 0.000000 0.000000
    18 0.021413 -0.957782 0.020047 -1.304122 0.000000 0.000000
    19 1.164474 -2.543938 -0.170328 -0.683748 -0.318398 0.068471
    20 0.024033 -1.129042 0.017806 -1.548171 0.000000 0.000001
    21 0.014896 -0.883989 -0.019845 -1.052873 0.000000 0.000000
    22 -0.586770 -1.264475 0.200164 -0.330647 -0.882972 -2.453547
    23 1.522835 0.058681 0.016850 0.197130 -0.282574 0.860492
    24 1.117948 0.048424 -0.005764 -0.023002 -0.010289 1.205986
    25 -0.139399 -0.111697 0.014397 0.285382 -0.030687 1.580508
    26 -0.488517 -2.755600 -0.228261 -1.638088 0.011758 -0.287189
    27 0.039888 -1.479789 0.029853 -0.928033 0.000000 0.000000
    28 0.028786 -1.075730 -0.023111 -1.481385 0.000000 0.000000
    29 0.250028 -2.820664 -0.238396 -1.250421 -0.014906 -0.312588
    30 -0.049759 -1.680545 0.100480 -1.463660 0.000000 -0.000002
    31 -0.034141 -1.148312 0.084779 -1.087281 0.000000 0.000000
    32 0.957766 -2.746776 -0.090301 -0.143359 -0.206189 -0.071012
    33 -0.033419 -1.397128 -0.011255 -0.779092 0.124808 -0.122316
    34 -0.022361 -0.957434 0.018783 -1.043353 0.000000 0.000000
    35 -1.180680 -2.507215 -0.193861 -1.751193 0.170447 -0.335155
    36 -0.024966 -1.123935 0.017594 -0.977967 0.000000 0.000001
    37 -0.020057 -0.890966 0.010091 -0.933434 0.000000 0.000000
    38 0.583510 -1.197274 0.185377 0.272562 -1.003490 -0.533081
    39 1.535926 0.010244 0.005008 0.440185 -0.138733 -1.296648
    40 1.100770 0.004526 -0.010676 -0.011449 0.011491 -0.607431
    41 0.120152 -0.050266 -0.054488 0.287568 3.110905 1.561085
  time 23
    0 0.000000 -1.996155 0.000000 0.023789 0.000000 -0.000011
    1 8.365576 7.279113 -9.986450 1.176166 -1.855973 -1.240158
    2 -0.071918 -8.498730 -0.104136 0.061590 0.268749 0.020771
    3 1.837369 -3.928482 1.063097 -0.074335 0.132417 2.344846
    4 0.190386 0.829184 -0.000001 0.000000 0.000000 0.526739
    5 -0.998952 2.262489 0.000000 0.000001 0.000000 0.737786
    6 -0.312858 -2.236601 -0.000003 0.000001 -0.000001 2.097535
    7 -1.067731 0.874859 0.541503 0.000000 -0.000001 2.097535
    8 -1.000466 -4.652283 -9.181686 0.780625 -4.372930 1.488100
    9 0.096944 -8.450418 -0.009364 0.126178 -0.251742 0.027799
    10 0.447952 -2.798983 -0.200442 -0.825401 -0.102210 0.041797
    11 -0.032910 -1.480206 0.004936 -1.762688 0.000000 0.000002
    12 -0.027022 -1.076919 -0.020212 -1.132336 0.000000 0.000000
    13 -0.249534 -2.846962 -0.174215 -0.634460 -0.091831 0.024622
    14 0.043235 -1.683940 0.096014 -1.906095 0.002823 -0.000167
    15 0.031729 -1.160831 0.058836 -1.087362 0.000642 0.008372
    16 -0.963866 -2.785142 -0.085346 -0.618191 0.014961 -0.024958
    17 0.028479 -1.403069 0.006271 -1.332633 0.000000 0.000000
    18 0.021413 -0.957782 0.020047 -1.304122 0.000000 0.000000
    19 1.164474 -2.543938 -0.170328 -0.683748 -0.318398 0.068471
    20 0.024033 -1.129042 0.017806 -1.548171 0.000000 0.000001
    21 0.014896 -0.883989 -0.019845 -1.052873 0.000000 0.000000
    22 -0.586770 -1.264475 0.200164 -0.330647 -0.882972 -2.453547
    23 1.522835 0.058681 0.016850 0.197130 -0.282574 0.860492
    24 1.117948 0.048424 -0.005764 -0.023002 -0.010289 1.205986
    25 -0.139399 -0.111697 0.014397 0.285382 -0.030687 1.580508
    26 -0.488517 -2.755600 -0.228261 -1.638088 0.011758 -0.287189
    27 0.039888 -1.479789 0.029853 -0.928033 0.000000 0.000000
    28 0.028786 -1.075730 -0.023111 -1.481385 0.000000 0.000000
    29 0.250028 -2.820664 -0.238396 -1.250421 -0.014906 -0.312588
    30 -0.049759 -1.680545 0.100480 -1.463660 0.000000 -0.000002
    31 -0.034141 -1.148312 0.084779 -1.087281 0.000000 0.000000
    32 0.957766 -2.746776 -0.090301 -0.143359 -0.206189 -0.071012
    33 -0.033419 -1.397128 -0.011255 -0.779092 0.124808 -0.122316
    34 -0.022361 -0.957434 0.018783 -1.043321 0.000000 0.000000
    35 -1.180680 -2.507215 -0.193861 -1.751193 0.170447 -0.335155
    36 -0.024966 -1.123935 0.017594 -0.977967 0.000000 0.000001
    37 -0.020057 -0.890966 0.010091 -0.933434 0.000000 0.000000
    38 0.583510 -1.197274 0.185377 0.272562 -1.003490 -0.533081
    39 1.535926 0.010244 0.005008 0.440185 -0.138733 -1.296648
    40 1.100770 0.004526 -0.010676 -0.011449 0.011491 -0.607431
    41 0.120152 -0.050266 -0.054488 0.287568 3.110905 1.561085
  time 24
    0 0.000000 -1.996155 0.000000 0.018876 0.000000 -0.000011
    1 8.365576 7.279113 -9.986450 1.176166 -1.855973 -1.240158
    2 -0.071918 -8.498730 -0.104136 0.061590 0.268749 0.020771
    3 1.837369 -3.928482 1.063097 -0.074335 0.132417 2.344846
    4 0.190386 0.829184 -0.000001 0.000000 0.000000 0.526739
    5 -0.998952 2.262489 0.000000 0.000001 0.000000 0.737786
    6 -0.312858 -2.236601 -0.000003 0.000001 -0.000001 2.097535
    7 -1.067731 0.874859 0.541503 0.000000 -0.000001 2.097535
    8 -1.000466 -4.652283 -9.181686 0.780625 -4.372930 1.488100
    9 0.096944 -8.450418 -0.009364 0.126178 -0.251742 0.027799
    10 0.447952 -2.798983 -0.200442 -0.825401 -0.102210 0.041797
    11 -0.032910 -1.480206 0.004936 -1.762688 0.000000 0.000002
    12 -0.027022 -1.076919 -0.020212 -1.132336 0.000000 0.000000
    13 -0.249534 -2.846962 -0.174215 -0.634460 -0.091831 0.024622
    14 0.043235 -1.683940 0.096014 -1.906095 0.002823 -0.000167
    15 0.031729 -1.160831 0.058836 -1.087362 0.000642 0.008372
    16 -0.963866 -2.785142 -0.085346 -0.618191 0.014961 -0.024958
    17 0.028479 -1.403069 0.006271 -1.332633 0.000000 0.000000
    18 0.021413 -0.957782 0.020047 -1.304122 0.000000 0.000000
    19 1.164474 -2.543938 -0.170328 -0.683748 -0.318398 0.068471
    20 0.024033 -1.129042 0.017806 -1.548171 0.000000 0.000001
    21 0.014896 -0.883989 -0.019845 -1.052873 0.000000 0.000000
    22 -0.586770 -1.264475 0.200164 -0.330647 -0.882972 -2.453547
    23 1.522835 0.058681 0.016850 0.197130 -0.282574 0.860492
    24 1.117948 0.048424 -0.005764 -0.023002 -0.010289 1.205986
    25 -0.139399 -0.111697 0.014397 0.285382 -0.030687 1.580508
    26 -0.488517 -2.755600 -0.228261 -1.638088 0.011758 -0.287189
    27 0.039888 -1.479789 0.029853 -0.928033 0.000000 0.000000
    28 0.028786 -1.075730 -0.023111 -1.481385 0.000000 0.000000
    29 0.250028 -2.820664 -0.238396 -1.250421 -0.014906 -0.312588
    30 -0.049759 -1.680545 0.100480 -1.463660 0.000000 -0.000002
    31 -0.034141 -1.148312 0.084779 -1.087281 0.000000 0.000000
    32 0.957766 -2.746776 -0.090301 -0.143359 -0.206189 -0.071012
    33 -0.033419 -1.397128 -0.011255 -0.779092 0.124808 -0.122316
    34 -0.022361 -0.957434 0.018783 -1.043321 0.000000 0.000000
    35 -1.180680 -2.507215 -0.193861 -1.751193 0.170447 -0.335155
    36 -0.024966 -1.123935 0.017594 -0.977967 0.000000 0.000001
    37 -0.020057 -0.890966 0.010091 -0.933434 0.000000 0.000000
    38 0.583510 -1.197274 0.185377 0.272562 -1.003490 -0.533081
    39 1.535926 0.010244 0.005008 0.440185 -0.138733 -1.296648
    40 1.100770 0.004526 -0.010676 -0.011449 0.011491 -0.607431
    41 0.120152 -0.050266 -0.054488 0.287568 3.110905 1.561085
  time 25
    0 0.000000 -1.996155 0.000000 0.014082 0.000000 -0.000011
    1 8.365576 7.279113 -9.986450 1.176166 -1.855973 -1.240158
    2 -0.071918 -8.498730 -0.104136 0.061590 0.268749 0.020771
    3 1.837369 -3.928482 1.063097 -0.074335 0.132417 2.344846
    4 0.190386 0.829184 -0.000001 0.000000 0.000000 0.526739
    5 -0.998952 2.262489 0.000000 0.000001 0.000000 0.737786
    6 -0.312858 -2.236601 -0.000003 0.000001 -0.000001 2.097535
    7 -1.067731 0.874859 0.541503 0.000000 -0.000001 2.097535
    8 -1.000466 -4.652283 -9.181686 0.780625 -4.372930 1.488100
    9 0.096944 -8.450418 -0.009364 0.126178 -0.251742 0.027799
    10 0.447952 -2.798983 -0.200442 -0.825401 -0.102210 0.041797
    11 -0.032910 -1.480206 0.004936 -1.762688 0.000000 0.000002
    12 -0.027022 -1.076919 -0.020212 -1.132336 0.000000 0.000000
    13 -0.249534 -2.846962 -0.174215 -0.634460 -0.091831 0.024622
    14 0.043235 -1.683940 0.096014 -1.906095 0.002823 -0.000167
    15 0.031729 -1.160831 0.058836 -1.087362 0.000642 0.008372
    16 -0.963866 -2.785142 -0.085346 -0.618191 0.014961 -0.024958
    17 0.028479 -1.403069 0.006271 -1.332633 0.000000 0.000000
    18 0.021413 -0.957782 0.020047 -1.304122 0.000000 0.000000
    19 1.164474 -2.543938 -0.170328 -0.683748 -0.318398 0.068471
    20 0.024033 -1.129042 0.017806 -1.548171 0.000000 0.000001
    21 0.014896 -0.883989 -0.019845 -1.052873 0.000000 0.000000
    22 -0.586770 -1.264475 0.200164 -0.330647 -0.882972 -2.453547
    23 1.522835 0.058681 0.016850 0.197130 -0.282574 0.860492
    24 1.117948 0.048424 -0.005764 -0.023002 -0.010289 1.205986
    25 -0.139399 -0.111697 0.014397 0.285382 -0.030687 1.580508
    26 -0.488517 -2.755600 -0.228261 -1.638088 0.011758 -0.287189
    27 0.039888 -1.479789 0.029853 -0.928033 0.000000 0.000000
    28 0.028786 -1.075730 -0.023111 -1.481385 0.000000 0.000000
    29 0.250028 -2.820664 -0.238396 -1.250421 -0.014906 -0.312588
    30 -0.049759 -1.680545 0.100480 -1.463660 0.000000 -0.000002
    31 -0.034141 -1.148312 0.084779 -1.087281 0.000000 0.000000
    32 0.957766 -2.746776 -0.090301 -0.143359 -0.206189 -0.071012
    33 -0.033419 -1.397128 -0.011255 -0.779092 0.124808 -0.122316
    34 -0.022361 -0.957434 0.018783 -1.043321 0.000000 0.000000
    35 -1.180680 -2.507215 -0.193861 -1.751193 0.170447 -0.335155
    36 -0.024966 -1.123935 0.017594 -0.977967 0.000000 0.000001
    37 -0.020057 -0.890966 0.010091 -0.933434 0.000000 0.000000
    38 0.583510 -1.197274 0.185377 0.272562 -1.003490 -0.533081
    39 1.535926 0.010244 0.005008 0.440185 -0.138733 -1.296648
    40 1.100770 0.004526 -0.010676 -0.011449 0.011491 -0.607431
    41 0.120152 -0.050266 -0.054488 0.287568 3.110905 1.561085
  time 26
    0 0.000000 -1.996155 0.000000 0.009624 0.000000 -0.000011
    1 8.365576 7.279113 -9.986450 1.176166 -1.855973 -1.240158
    2 -0.071918 -8.498730 -0.104136 0.061590 0.268749 0.020771
    3 1.837369 -3.928482 1.063097 -0.074335 0.132417 2.344846
    4 0.190386 0.829184 -0.000001 0.000000 0.000000 0.526739
    5 -0.998952 2.262489 0.000000 0.000001 0.000000 0.737786
    6 -0.312858 -2.236601 -0.000003 0.000001 -0.000001 2.097535
    7 -1.067731 0.874859 0.541503 0.000000 -0.000001 2.097535
    8 -1.000466 -4.652283 -9.181686 0.780625 -4.372930 1.488100
    9 0.096944 -8.450418 -0.009364 0.126178 -0.251742 0.027799
    10 0.447952 -2.798983 -0.200442 -0.825401 -0.102210 0.041797
    11 -0.032910 -1.480206 0.004936 -1.762688 0.000000 0.000002
    12 -0.027022 -1.076919 -0.020212 -1.132336 0.000000 0.000000
    13 -0.249534 -2.846962 -0.174215 -0.634460 -0.091831 0.024622
    14 0.043235 -1.683940 0.096014 -1.906095 0.002823 -0.000167
    15 0.031729 -1.160831 0.058836 -1.087362 0.000642 0.008372
    16 -0.963866 -2.785142 -0.085346 -0.618191 0.014961 -0.024958
    17 0.028479 -1.403069 0.006271 -1.332633 0.000000 0.000000
    18 0.021413 -0.957782 0.020047 -1.304122 0.000000 0.000000
    19 1.164474 -2.543938 -0.170328 -0.683748 -0.318398 0.068471
    20 0.024033 -1.129042 0.017806 -1.548171 0.000000 0.000001
    21 0.014896 -0.883989 -0.019845 -1.052873 0.000000 0.000000
    22 -0.586770 -1.264475 0.200164 -0.330647 -0.882972 -2.453547
    23 1.522835 0.058681 0.016850 0.197130 -0.282574 0.860492
    24 1.117948 0.048424 -0.005764 -0.023002 -0.010289 1.205986
    25 -0.139399 -0.111697 0.014397 0.285382 -0.030687 1.580508
    26 -0.488517 -2.755600 -0.228261 -1.638088 0.011758 -0.287189
    27 0.039888 -1.479789 0.029853 -0.928033 0.000000 0.000000
    28 0.028786 -1.075730 -0.023111 -1.481385 0.000000 0.000000
    29 0.250028 -2.820664 -0.238396 -1.250421 -0.014906 -0.312588
    30 -0.049759 -1.680545 0.100480 -1.463660 0.000000 -0.000002
    31 -0.034141 -1.148312 0.084779 -1.087281 0.000000 0.000000
    32 0.957766 -2.746776 -0.090301 -0.143359 -0.206189 -0.071012
    33 -0.033419 -1.397128 -0.011255 -0.779092 0.124808 -0.122316
    34 -0.022361 -0.957434 0.018783 -1.043321 0.000000 0.000000
    35 -1.180680 -2.507215 -0.193861 -1.751193 0.170447 -0.335155
    36 -0.024966 -1.123935 0.017594 -0.977967 0.000000 0.000001
    37 -0.020057 -0.890966 0.010091 -0.933434 0.000000 0.000000
    38 0.583510 -1.197274 0.185377 0.272562 -1.003490 -0.533081
    39 1.535926 0.010244 0.005008 0.440185 -0.138733 -1.296648
    40 1.100770 0.004526 -0.010676 -0.011449 0.011491 -0.607431
    41 0.120152 -0.050266 -0.054488 0.287568 3.110905 1.561085
  time 27
    0 0.000000 -1.996155 0.000000 0.005765 0.000000 -0.000011
    1 8.365576 7.279113 -9.986450 1.176166 -1.855973 -1.240158
    2 -0.071918 -8.498730 -0.104136 0.061590 0.268749 0.020771
    3 1.837369 -3.928482 1.063097 -0.074335 0.132417 2.344846
    4 0.190386 0.829184 -0.000001 0.000000 0.000000 0.526739
    5 -0.998952 2.262489 0.000000 0.000001 0.000000 0.737786
    6 -0.312858 -2.236601 -0.000003 0.000001 -0.000001 2.097535
    7 -1.067731 0.874859 0.541503 0.000000 -0.000001 2.097535
    8 -1.000466 -4.652283 -9.181686 0.780625 -4.372930 1.488100
    9 0.096944 -8.450418 -0.009364 0.126178 -0.251742 0.027799
    10 0.447952 -2.798983 -0.200442 -0.825401 -0.102210 0.041797
    11 -0.032910 -1.480206 0.004936 -1.762688 0.000000 0.000002
    12 -0.027022 -1.076919 -0.020212 -1.132336 0.000000 0.000000
    13 -0.249534 -2.846962 -0.174215 -0.634460 -0.091831 0.024622
    14 0.043235 -1.683940 0.096014 -1.906095 0.002823 -0.000167
    15 0.031729 -1.160831 0.058836 -1.087362 0.000642 0.008372
    16 -0.963866 -2.785142 -0.085346 -0.618191 0.014961 -0.024958
    17 0.028479 -1.403069 0.006271 -1.332633 0.000000 0.000000
    18 0.021413 -0.957782 0.020047 -1.304122 0.000000 0.000000
    19 1.164474 -2.543938 -0.170328 -0.683748 -0.318398 0.068471
    20 0.024033 -1.129042 0.017806 -1.548171 0.000000 0.000001
    21 0.014896 -0.883989 -0.019845 -1.052873 0.000000 0.000000
    22 -0.586770 -1.264475 0.200164 -0.330647 -0.882972 -2.453547
    23 1.522835 0.058681 0.016850 0.197130 -0.282574 0.860492
    24 1.117948 0.048424 -0.005764 -0.023002 -0.010289 1.205986
    25 -0.139399 -0.111697 0.014397 0.285382 -0.030687 1.580508
    26 -0.488517 -2.755600 -0.228261 -1.638088 0.011758 -0.287189
    27 0.039888 -1.479789 0.029853 -0.928033 0.000000 0.000000
    28 0.028786 -1.075730 -0.023111 -1.481385 0.000000 0.000000
    29 0.250028 -2.820664 -0.238396 -1.250421 -0.014906 -0.312588
    30 -0.049759 -1.680545 0.100480 -1.463660 0.000000 -0.000002
    31 -0.034141 -1.148312 0.084779 -1.087281 0.000000 0.000000
    32 0.957766 -2.746776 -0.090301 -0.143359 -0.206189 -0.071012
    33 -0.033419 -1.397128 -0.011255 -0.779092 0.124808 -0.122316
    34 -0.022361 -0.957434 0.018783 -1.043321 0.000000 0.000000
    35 -1.180680 -2.507215 -0.193861 -1.751193 0.170447 -0.335155
    36 -0.024966 -1.123935 0.017594 -0.977967 0.000000 0.000001
    37 -0.020057 -0.890966 0.010091 -0.933434 0.000000 0.000000
    38 0.583510 -1.197274 0.185377 0.272562 -1.003490 -0.533081
    39 1.535926 0.010244 0.005008 0.440185 -0.138733 -1.296648
    40 1.100770 0.004526 -0.010676 -0.011449 0.011491 -0.607431
    41 0.120152 -0.050266 -0.054488 0.287568 3.110905 1.561085
  time 28
    0 0.000000 -1.996155 0.000000 0.002709 0.000000 -0.000011
    1 8.365576 7.279113 -9.986450 1.176166 -1.855973 -1.240158
    2 -0.071918 -8.498730 -0.104136 0.061590 0.268749 0.020771
    3 1.837369 -3.928482 1.063097 -0.074335 0.132417 2.344846
    4 0.190386 0.829184 -0.000001 0.000000 0.000000 0.526739
    5 -0.998952 2.262489 0.000000 0.000001 0.000000 0.737786
    6 -0.312858 -2.236601 -0.000003 0.000001 -0.000001 2.097535
    7 -1.067731 0.874859 0.541503 0.000000 -0.000001 2.097535
    8 -1.000466 -4.652283 -9.181686 0.780625 -4.372930 1.488100
    9 0.096944 -8.450418 -0.009364 0.126178 -0.251742 0.027799
    10 0.447952 -2.798983 -0.200442 -0.825401 -0.102210 0.041797
    11 -0.032910 -1.480206 0.004936 -1.762688 0.000000 0.000002
    12 -0.027022 -1.076919 -0.020212 -1.132336 0.000000 0.000000
    13 -0.249534 -2.846962 -0.174215 -0.634460 -0.091831 0.024622
    14 0.043235 -1.683940 0.096014 -1.906095 0.002823 -0.000167
    15 0.031729 -1.160831 0.058836 -1.087362 0.000642 0.008372
    16 -0.963866 -2.785142 -0.085346 -0.618191 0.014961 -0.024958
    17 0.028479 -1.403069 0.006271 -1.332633 0.000000 0.000000
    18 0.021413 -0.957782 0.020047 -1.304122 0.000000 0.000000
    19 1.164474 -2.543938 -0.170328 -0.683748 -0.318398 0.068471
    20 0.024033 -1.129042 0.017806 -1.548171 0.000000 0.000001
    21 0.014896 -0.883989 -0.019845 -1.052873 0.000000 0.000000
    22 -0.586770 -1.264475 0.200164 -0.330647 -0.882972 -2.453547
    23 1.522835 0.058681 0.016850 0.197130 -0.282574 0.860492
    24 1.117948 0.048424 -0.005764 -0.023002 -0.010289 1.205986
    25 -0.139399 -0.111697 0.014397 0.285382 -0.030687 1.580508
    26 -0.488517 -2.755600 -0.228261 -1.638088 0.011758 -0.287189
    27 0.039888 -1.479789 0.029853 -0.928033 0.000000 0.000000
    28 0.028786 -1.075730 -0.023111 -1.481385 0.000000 0.000000
    29 0.250028 -2.820664 -0.238396 -1.250421 -0.014906 -0.312588
    30 -0.049759 -1.680545 0.100480 -1.463660 0.000000 -0.000002
    31 -0.034141 -1.148312 0.084779 -1.087281 0.000000 0.000000
    32 0.957766 -2.746776 -0.090301 -0.143359 -0.206189 -0.071012
    33 -0.033419 -1.397128 -0.011255 -0.779092 0.124808 -0.122316
    34 -0.022361 -0.957434 0.018783 -1.043321 0.000000 0.000000
    35 -1.180680 -2.507215 -0.193861 -1.751193 0.170447 -0.335155
    36 -0.024966 -1.123935 0.017594 -0.977967 0.000000 0.000001
    37 -0.020057 -0.890966 0.010091 -0.933434 0.000000 0.000000
    38 0.583510 -1.197274 0.185377 0.272562 -1.003490 -0.533081
    39 1.535926 0.010244 0.005008 0.440185 -0.138733 -1.296648
    40 1.100770 0.004526 -0.010676 -0.011449 0.011491 -0.607431
    41 0.120152 -0.050266 -0.054488 0.287568 3.110905 1.561085
  time 29
    0 0.000000 -1.996155 0.000000 0.000707 0.000000 -0.000011
    1 8.365576 7.279113 -9.986450 1.176166 -1.855973 -1.240158
    2 -0.071918 -8.498730 -0.104136 0.061590 0.268749 0.020771
    3 1.837369 -3.928482 1.063097 -0.074335 0.132417 2.344846
    4 0.190386 0.829184 -0.000001 0.000000 0.000000 0.526739
    5 -0.998952 2.262489 0.000000 0.000001 0.000000 0.737786
    6 -0.312858 -2.236601 -0.000003 0.000001 -0.000001 2.097535
    7 -1.067731 0.874859 0.541503 0.000000 -0.000001 2.097535
    8 -1.000466 -4.652283 -9.181686 0.780625 -4.372930 1.488100
    9 0.096944 -8.450418 -0.009364 0.126178 -0.251742 0.027799
    10 0.447952 -2.798983 -0.200442 -0.825401 -0.102210 0.041797
    11 -0.032910 -1.480206 0.004936 -1.762688 0.000000 0.000002
    12 -0.027022 -1.076919 -0.020212 -1.132336 0.000000 0.000000
    13 -0.249534 -2.846962 -0.174215 -0.634460 -0.091831 0.024622
    14 0.043235 -1.683940 0.096014 -1.906095 0.002823 -0.000167
    15 0.031729 -1.160831 0.058836 -1.087362 0.000642 0.008372
    16 -0.963866 -2.785142 -0.085346 -0.618191 0.014961 -0.024958
    17 0.028479 -1.403069 0.006271 -1.332633 0.000000 0.000000
    18 0.021413 -0.957782 0.020047 -1.304122 0.000000 0.000000
    19 1.164474 -2.543938 -0.170328 -0.683748 -0.318398 0.068471
    20 0.024033 -1.129042 0.017806 -1.548171 0.000000 0.000001
    21 0.014896 -0.883989 -0.019845 -1.052873 0.000000 0.000000
    22 -0.586770 -1.264475 0.200164 -0.330647 -0.882972 -2.453547
    23 1.522835 0.058681 0.016850 0.197130 -0.282574 0.860492
    24 1.117948 0.048424 -0.005764 -0.023002 -0.010289 1.205986
    25 -0.139399 -0.111697 0.014397 0.285382 -0.030687 1.580508
    26 -0.488517 -2.755600 -0.228261 -1.638088 0.011758 -0.287189
    27 0.039888 -1.479789 0.029853 -0.928033 0.000000 0.000000
    28 0.028786 -1.075730 -0.023111 -1.481385 0.000000 0.000000
    29 0.250028 -2.820664 -0.238396 -1.250421 -0.014906 -0.312588
    30 -0.049759 -1.680545 0.100480 -1.463660 0.000000 -0.000002
    31 -0.034141 -1.148312 0.084779 -1.087281 0.000000 0.000000
    32 0.957766 -2.746776 -0.090301 -0.143359 -0.206189 -0.071012
    33 -0.033419 -1.397128 -0.011255 -0.779092 0.124808 -0.122316
    34 -0.022361 -0.957434 0.018783 -1.043321 0.000000 0.000000
    35 -1.180680 -2.507215 -0.193861 -1.751193 0.170447 -0.335155
    36 -0.024966 -1.123935 0.017594 -0.977967 0.000000 0.000001
    37 -0.020057 -0.890966 0.010091 -0.933434 0.000000 0.000000
    38 0.583510 -1.197274 0.185377 0.272562 -1.003490 -0.533081
    39 1.535926 0.010244 0.005008 0.440185 -0.138733 -1.296648
    40 1.100770 0.004526 -0.010676 -0.011449 0.011491 -0.607431
    41 0.120152 -0.050266 -0.054488 0.287568 3.110905 1.561085
  time 30
    0 0.000000 -1.996155 0.000000 0.000000 0.000000 -0.000011
    1 8.365576 7.279113 -9.986450 1.176166 -1.855973 -1.240158
    2 -0.071918 -8.498730 -0.104136 0.061590 0.268749 0.020771
    3 1.837369 -3.928482 1.063097 -0.074335 0.132417 2.344846
    4 0.190386 0.829184 -0.000001 0.000000 0.000000 0.526739
    5 -0.998952 2.262489 0.000000 0.000001 0.000000 0.737786
    6 -0.312858 -2.236601 -0.000003 0.000001 -0.000001 2.097535
    7 -1.067731 0.874859 0.541503 0.000000 -0.000001 2.097535
    8 -1.000466 -4.652283 -9.181686 0.780625 -4.372930 1.488100
    9 0.096944 -8.450418 -0.009364 0.126178 -0.251742 0.027799
    10 0.447952 -2.798983 -0.200442 -0.825401 -0.102210 0.041797
    11 -0.032910 -1.480206 0.004936 -1.762688 0.000000 0.000002
    12 -0.027022 -1.076919 -0.020212 -1.132336 0.000000 0.000000
    13 -0.249534 -2.846962 -0.174215 -0.634460 -0.091831 0.024622
    14 0.043235 -1.683940 0.096014 -1.906095 0.002823 -0.000167
    15 0.031729 -1.160831 0.058836 -1.087362 0.000642 0.008372
    16 -0.963866 -2.785142 -0.085346 -0.618191 0.014961 -0.024958
    17 0.028479 -1.403069 0.006271 -1.332633 0.000000 0.000000
    18 0.021413 -0.957782 0.020047 -1.304122 0.000000 0.000000
    19 1.164474 -2.543938 -0.170328 -0.683748 -0.318398 0.068471
    20 0.024033 -1.129042 0.017806 -1.548171 0.000000 0.000001
    21 0.014896 -0.883989 -0.019845 -1.052873 0.000000 0.000000
    22 -0.586770 -1.264475 0.200164 -0.330647 -0.882972 -2.453547
    23 1.522835 0.058681 0.016850 0.197130 -0.282574 0.860492
    24 1.117948 0.048424 -0.005764 -0.023002 -0.010289 1.205986
    25 -0.139399 -0.111697 0.014397 0.285382 -0.030687 1.580508
    26 -0.488517 -2.755600 -0.228261 -1.638088 0.011758 -0.287189
    27 0.039888 -1.479789 0.029853 -0.928033 0.000000 0.000000
    28 0.028786 -1.075730 -0.023111 -1.481385 0.000000 0.000000
    29 0.250028 -2.820664 -0.238396 -1.250421 -0.014906 -0.312588
    30 -0.049759 -1.680545 0.100480 -1.463660 0.000000 -0.000002
    31 -0.034141 -1.148312 0.084779 -1.087281 0.000000 0.000000
    32 0.957766 -2.746776 -0.090301 -0.143359 -0.206189 -0.071012
    33 -0.033419 -1.397128 -0.011255 -0.779092 0.124808 -0.122316
    34 -0.022361 -0.957434 0.018783 -1.043353 0.000000 0.000000
    35 -1.180680 -2.507215 -0.193861 -1.751193 0.170447 -0.335155
    36 -0.024966 -1.123935 0.017594 -0.977967 0.000000 0.000001
    37 -0.020057 -0.890966 0.010091 -0.933434 0.000000 0.000000
    38 0.583510 -1.197274 0.185377 0.272562 -1.003490 -0.533081
    39 1.535926 0.010244 0.005008 0.440185 -0.138733 -1.296648
    40 1.100770 0.004526 -0.010676 -0.011449 0.011491 -0.607431
    41 0.120152 -0.050266 -0.054488 0.287568 3.110905 1.561085
end
