// Created by Crowbar 0.49.0.0

$modelname "weapons/tfa_cso/c_at4ex.mdl"

$Include "csonline_gmod.qci"

$bodygroup "weapon"
{
	studio "v_at4ex_v_ref"
}

$CDMaterials "models\weapons\tfa_cso\at4ex"

$attachment 0 "M136AT4_root" -18.117001 1.401 1.3

$definebone "root" "" 0.001265 -0.569176 -20.601572 0.000000 0.000000 0.000000 0.000000 0.000000 0.000000 -0.000000 0.000000 0.000000
$definebone "Bone01" "root" 9.310103 -5.299614 -12.557959 -0.012834 -89.771431 179.846260 0.000000 -0.000001 -0.000004 0.000000 0.000000 -0.000000
$definebone "Bone_Lefthand" "Bone01" -0.071921 -8.498736 -0.104137 16.477753 0.853593 -1.435030 0.000000 0.000000 0.000000 0.000002 0.000000 -0.000000
$definebone "M136AT4_root" "Bone_Lefthand" 17.900803 5.328067 -23.274620 16.550457 178.920851 88.314798 0.000000 0.000000 0.000000 -0.000000 0.000000 -0.000000
$definebone "M136AT4_bullet" "M136AT4_root" 27.389179 1.263549 1.155638 0.000516 0.189821 -0.150516 0.000000 0.000000 0.000000 -0.000000 0.000000 -0.000000
$definebone "M136AT4_lens" "M136AT4_root" -2.855124 1.648685 1.176711 0.000000 -179.918031 0.000000 0.000000 0.000000 0.000000 0.000000 0.000000 0.000000

$sequence "idle1" {
	"v_at4ex_anims\idle1"
	fps 30
	loop
	activity "ACT_VM_IDLE" 1
	snap
}
$sequence "shoot1" {
	"v_at4ex_anims\shoot1"
	{ event 5001 0 "71" }
	fps 30
	activity "ACT_VM_PRIMARYATTACK" 1
	snap
}
$sequence "shoot2" {
	"v_at4ex_anims\shoot2"
	{ event 5001 0 "71" }
	fps 30
	activity "ACT_VM_PRIMARYATTACK" 2
	snap
}
$sequence "reload" {
	"v_at4ex_anims\reload"
	{ event 5004 28 "AT4.ClipIn1" }
	{ event 5004 54 "AT4.ClipIn2" }
	{ event 5004 83 "AT4.ClipIn3" }
	fps 30
	activity "ACT_VM_RELOAD" 1
	snap
}
$sequence "draw" {
	"v_at4ex_anims\draw"
	{ event 5004 8 "AT4.Draw" }
	fps 30
	activity "ACT_VM_DRAW" 1
	snap
}
