// Created by Crowbar 0.49.0.0

$modelname "weapons/tfa_cso/c_x-12.mdl"

$Include "csonline_gmod.qci"

$bodygroup "weapon"
{
	studio "v_kronos12_v_kro12"
}
$bodygroup "weapon"
{
	studio "v_kronos12_v_kro12_2"
}
$bodygroup "effect"
{
	studio "v_kronos12_ef"
}

$CDMaterials "models\weapons\tfa_cso\x-12\"

$attachment 0 "kronos12_root001" 20 0 0
//$attachment 1 "kronos12_root001" 3 -0.4 0.3

$sequence "idle" {
	"v_kronos12_anims\idle"
	fps 30
	loop
	activity "ACT_VM_IDLE" 1
	snap
}
$sequence "idle2" {
	"v_kronos12_anims\idle2"
	fps 30
	loop
}
$sequence "idle3" {
	"v_kronos12_anims\idle3"
	fps 30
	loop
}
$sequence "shoot1" {
	"v_kronos12_anims\shoot1"
	{ event 5001 0 "#I43 S0.07 R2 F0 P30 T999 A1 L0 O0 X0" }
	fps 30
	activity "ACT_VM_PRIMARYATTACK" 1
	snap
}
$sequence "shoot2" {
	"v_kronos12_anims\shoot2"
	{ event 5001 0 "#I43 S0.07 R2 F0 P30 T999 A1 L0 O0 X0" }
	fps 30
}
$sequence "shoot3" {
	"v_kronos12_anims\shoot3"
	{ event 5001 0 "#I43 S0.07 R2 F0 P30 T999 A1 L0 O0 X0" }
	fps 30
}
$sequence "reload" {
	"v_kronos12_anims\reload"
	{ event 5004 10 "X-12.ClipOut1" }
	{ event 5004 38 "X-12.ClipOut2" }
	{ event 5004 70 "X-12.ClipIn1" }
	{ event 5004 90 "X-12.ClipIn2" }
	fps 30
	activity "ACT_VM_RELOAD" 1
	snap
}
$sequence "reload2" {
	"v_kronos12_anims\reload2"
	{ event 5004 10 "X-12.ClipOut1" }
	{ event 5004 38 "X-12.ClipOut2" }
	{ event 5004 70 "X-12.ClipIn1" }
	{ event 5004 90 "X-12.ClipIn2" }
	fps 30
}
$sequence "draw" {
	"v_kronos12_anims\draw"
	{ event 5004 1 "X-12.Draw" }
	fps 30
	activity "ACT_VM_DRAW" 1
	snap
}
$sequence "draw2" {
	"v_kronos12_anims\draw2"
	{ event 5004 1 "X-12.Draw" }
	fps 30
}
$sequence "scan_activate" {
	"v_kronos12_anims\scan_activate"
	{ event 5004 1 "weapons/kronos12_scan_acivate.wav" }
	fps 30
}
$sequence "zoom" {
	"v_kronos12_anims\zoom"
	{ event 5004 1 "weapons/kronos12_zoom.wav" }
	fps 30
}
$sequence "scan_deactivate" {
	"v_kronos12_anims\scan_deactivate"
	{ event 5004 1 "weapons/kronos12_scan_deactivate.wav" }
	fps 30
}
