// Created by Crowbar 0.49.0.0

$modelname "weapons/tfa_cso/c_an94.mdl"

$Include "csonline_gmod.qci"

$bodygroup "studio"
{
	studio "v_an94_REF_AN-94"
}

$CDMaterials "models\weapons\tfa_cso\an94"

$attachment 0 "AN94_Handle_02" -4.8 0 0
//$attachment 1 "AN94_Root" -3.8 5.5 0.8

$definebone "root" "" 0.001265 15.734154 -36.189949 0.000000 0.000000 0.000000 0.000000 0.000000 0.000000 -0.000000 0.000000 0.000000
$definebone "Bone01" "root" 0.496437 0.571350 22.470005 -0.012834 -89.771431 179.847612 0.000000 0.000000 0.000000 0.000000 0.000000 -0.000000
$definebone "Bone_Lefthand" "Bone01" -0.071922 -8.498730 -0.104135 16.477755 0.853593 -1.435030 0.000002 0.000000 -0.000001 0.000005 0.000000 -0.000000
$definebone "AN94_Root" "Bone_Lefthand" 6.327528 9.240917 -9.817032 -60.905064 -177.394099 86.382155 0.000000 0.000000 0.000000 0.000000 -0.000005 -0.000000
$definebone "AN94_Handle_02" "AN94_Root" -5.920427 18.485756 -0.000015 -0.000058 -77.915725 -0.000000 0.000000 0.000000 0.000000 -0.000000 0.000005 -0.000000
$definebone "AN94_Magazine_01" "AN94_Root" -1.809614 3.801281 -0.000003 0.000000 27.808847 -0.000058 0.000000 0.000000 0.000000 0.000000 -0.000003 -0.000000
$definebone "AN94_MagazineH" "AN94_Root" -1.461153 2.895001 -0.000002 0.000000 0.475092 -0.000000 0.000000 0.000000 -0.000000 0.000000 -0.000005 -0.000000
$definebone "AN94_Handle_01" "AN94_Root" -4.116413 7.399962 0.812983 -0.000000 -77.365123 -0.000000 0.000000 0.000000 0.000000 -0.000000 0.000005 -0.000000
$definebone "AN94_trigger" "AN94_Root" -0.997117 1.095268 -0.000001 0.000000 30.095460 -0.000057 0.000000 0.000000 0.000000 0.000000 -0.000005 -0.000000
$definebone "AN94_butt" "AN94_Root" -0.611540 -1.594788 0.446660 -0.000058 -77.423037 -0.000000 0.000000 0.000000 0.000000 -0.000000 0.000005 -0.000000
$definebone "AN94_Magazine_02" "AN94_Root" -1.809614 3.801284 3.550323 0.000000 27.808847 -0.000058 -0.000000 0.000000 0.000000 0.000000 -0.000003 -0.000000


$sequence "idle1" {
	"v_an94_anims\idle1"
	fps 15
	loop
	activity "ACT_VM_IDLE" 1
	snap
}
$sequence "reload" {
	"v_an94_anims\reload"
	{ event 5004 18 "AN94.ClipOut" }
	{ event 5004 33 "AN94.ClipIn" }
	{ event 5004 46 "AN94.Boltpull" }
	fps 30
	activity "ACT_VM_RELOAD" 1
	snap
}
$sequence "draw" {
	"v_an94_anims\draw"
	{ event 5004 4 "AN94.Draw" }
	fps 30
	activity "ACT_VM_DRAW" 1
	snap
}
$sequence "shoot1" {
	"v_an94_anims\shoot1"
	{ event 5001 0 "22" }
	fps 30
	activity "ACT_VM_PRIMARYATTACK" 1
	snap
}
$sequence "shoot2" {
	"v_an94_anims\shoot2"
	{ event 5001 0 "22" }
	fps 30
	activity "ACT_VM_PRIMARYATTACK" 2
	snap
}
$sequence "shoot3" {
	"v_an94_anims\shoot3"
	{ event 5001 0 "22" }
	fps 30
	activity "ACT_VM_PRIMARYATTACK" 3
	snap
}
