// Created by Crowbar 0.34.0.0

$ModelName "weapons/tfa_cso/w_pp2000.mdl"

$BodyGroup "studio"
{
	studio "v_pp2000"
}

$collisionmodel "v_pp2000.smd"
{
	$mass 9
}

$CDMaterials "models\weapons\tfa_cso\pp2000"

$attachment "0" "root" 0.10 -8.50 0.50 rotate -0 0 0

$Sequence "idle" {
	"anims\idle.smd"
	fps 30
}