// Created by Crowbar 0.34.0.0
version 1
nodes
  0 "phantom_1" -1
  1 "phantom_11" -1
  2 "phantfx" 0
  3 "phantom_22" -1
  4 "phantom_2" -1
  5 "phantfx02" 4
  6 "stab_fx_bone" -1
  7 "ligh_root" -1
  8 "fxlightning_3" 7
  9 "fxlightning_1" 7
  10 "fxlightning_2" 7
  11 "fxlightning_4" 7
  12 "line_root" -1
  13 "line03" 12
  14 "line04" 12
  15 "line01" 12
  16 "line02" 12
  17 "exefx01" 0
  18 "exefx02" 0
  19 "eyephentom02fx01" 4
  20 "eyephentom02fx" 4
  21 "root" -1
  22 "Bone01" 21
  23 "Bone_L_Upper" 22
  24 "Bone_Lefthand" 22
  25 "Bone13" 24
  26 "Bone14" 25
  27 "Bone15" 26
  28 "Bone17" 24
  29 "Bone18" 28
  30 "Bone19" 29
  31 "Bone21" 24
  32 "Bone22" 31
  33 "Bone23" 32
  34 "Bone09" 24
  35 "Bone10" 34
  36 "Bone11" 35
  37 "Bone05" 24
  38 "Bone06" 37
  39 "Bone07" 38
  40 "Bone_Se_Hand-L" 24
  41 "Bone04" 21
  42 "Bone_Righthand" 41
  43 "Bone39" 42
  44 "Bone40" 43
  45 "Bone41" 44
  46 "Bone35" 42
  47 "Bone36" 46
  48 "Bone37" 47
  49 "Bone31" 42
  50 "Bone32" 49
  51 "Bone33" 50
  52 "Bone43" 42
  53 "Bone44" 52
  54 "Bone45" 53
  55 "Bone27" 42
  56 "Bone28" 55
  57 "Bone29" 56
  58 "Bone_Se_Hand-R" 42
  59 "Bone_R_Upper" 41
end
skeleton
  time 0
    0 0.000000 -0.000002 48.828247 -3.141592 1.570796 0.000000
    1 0.000000 -9.548562 37.551598 -3.141592 1.570796 0.000000
    2 -6.746239 1.488021 0.000145 -3.141592 1.570796 0.000000
    3 -0.000001 -30.405510 37.551598 -3.141592 1.570796 0.000000
    4 -0.000001 -20.525276 48.828247 -3.141592 1.570796 0.000000
    5 -6.884506 0.045362 -0.000546 3.141591 1.570796 0.000000
    6 -33.148422 39.600525 3.921634 0.000000 0.000000 0.000000
    7 -16.313324 12.403505 11.858739 1.504637 -0.696400 0.409610
    8 0.000000 0.000000 0.000000 0.000000 0.000000 0.000000
    9 0.000000 0.000000 0.000000 0.000000 0.000000 0.000000
    10 0.000000 0.000000 -0.000002 0.000000 0.000000 0.000000
    11 0.000001 -0.000002 -0.000004 0.000000 0.000000 0.000000
    12 -59.593906 10.219164 0.000000 0.000000 0.000000 0.000000
    13 -10.000088 10.000000 0.000000 0.000000 0.000000 0.000000
    14 10.000000 10.000000 0.000000 0.000000 0.000000 0.000000
    15 9.999908 -10.000000 0.000000 0.000000 0.000000 0.000000
    16 -9.999996 -10.000000 0.000000 0.000000 0.000000 0.000000
    17 8.297502 1.873835 -0.833016 1.566653 -0.564520 -2.759211
    18 8.360184 2.109215 0.930654 0.921809 -0.364005 0.384206
    19 8.130560 2.232922 0.862472 1.552574 -0.417441 0.661589
    20 8.262385 2.367609 -0.906657 0.679593 -0.758166 -2.316103
    21 0.001265 -0.569176 -20.601572 0.000000 0.000000 0.000000
    22 9.310103 -5.299614 -12.557959 3.138909 -0.000224 -1.566807
    23 1.257180 8.762585 -0.153713 -1.570562 0.002683 -1.566807
    24 -0.071921 -8.498736 -0.104134 -0.025046 0.287591 0.014898
    25 -0.488518 -2.755602 -0.228260 0.106454 0.010332 -0.264490
    26 0.039887 -1.479790 0.029854 -0.055395 0.000000 0.000001
    27 0.028786 -1.075731 -0.023109 0.002099 0.000000 0.000000
    28 0.250027 -2.820665 -0.238396 0.041826 -0.002921 0.008443
    29 -0.049759 -1.680544 0.100479 0.019826 0.000000 -0.000002
    30 -0.034142 -1.148312 0.084782 -0.040115 0.000000 0.000000
    31 0.957766 -2.746780 -0.090302 -0.017221 -0.162277 0.191558
    32 -0.033420 -1.397129 -0.011257 0.013931 0.000000 -0.000001
    33 -0.022360 -0.957436 0.018784 0.003845 0.000000 0.000000
    34 -1.180681 -2.507217 -0.193859 0.082999 0.013294 -0.477915
    35 -0.024967 -1.123934 0.017597 -0.018065 0.000000 0.000001
    36 -0.020057 -0.890968 0.010090 -0.060797 0.000000 0.000000
    37 0.583510 -1.197277 0.185379 0.158049 -0.404973 -0.364290
    38 1.535927 0.010246 0.005009 -0.002964 -0.012979 0.000887
    39 1.100771 0.004527 -0.010679 -0.002796 0.015973 0.003458
    40 0.120153 -0.050270 -0.054489 0.287569 3.110905 1.561085
    41 -9.310107 -5.231260 -12.513384 0.004984 -3.131565 -1.566847
    42 0.096944 -8.450418 -0.009365 -0.032965 -0.297907 -0.004663
    43 0.447953 -2.798986 -0.200443 0.106456 -0.010396 0.265094
    44 -0.032909 -1.480204 0.004940 -0.055403 0.000000 0.000002
    45 -0.027022 -1.076920 -0.020210 0.002094 0.000000 0.000000
    46 -0.249534 -2.846964 -0.174213 0.041903 -0.000125 -0.008396
    47 0.043235 -1.683941 0.096012 0.019757 0.002823 -0.000167
    48 0.031729 -1.160830 0.058838 -0.040181 0.000642 0.008372
    49 -0.963866 -2.785145 -0.085350 -0.017227 0.162276 -0.191556
    50 0.028479 -1.403067 0.006271 0.013941 0.000000 0.000000
    51 0.021413 -0.957781 0.020046 0.003851 0.000000 0.000000
    52 1.164475 -2.543940 -0.170330 0.083003 -0.013294 0.477915
    53 0.024032 -1.129042 0.017807 -0.018074 0.000000 0.000001
    54 0.014898 -0.883989 -0.019848 -0.060801 0.000000 0.000000
    55 -0.586770 -1.264477 0.200161 -0.152092 -0.410513 -2.814816
    56 1.522835 0.058681 0.016848 0.001410 0.008985 -0.046880
    57 1.117947 0.048424 -0.005766 -0.000243 -0.025198 0.065422
    58 -0.139399 -0.111698 0.014397 0.285382 -0.030687 1.580508
    59 -1.393470 8.839177 -0.239433 1.580804 -0.005023 -1.566847
end
triangles
$0b_bluesword.bmp
  5 -1.039457 -19.970637 55.762752 -0.840732 0.541449 -0.001618 0.356863 0.890196
  5 -0.589457 -19.670637 56.242752 -0.421478 0.794326 0.437496 0.384314 0.913725
  5 -0.579457 -19.540638 55.712752 -0.461822 0.886926 0.009090 0.384314 0.890196
$0b_bluesword.bmp
  5 -0.579457 -19.540638 55.712752 -0.461822 0.886926 0.009090 0.384314 0.890196
  5 -0.589457 -19.670637 56.242752 -0.421478 0.794326 0.437496 0.384314 0.913725
  5 0.010543 -19.600637 56.302752 0.008165 0.861018 0.508509 0.411765 0.917647
$0b_bluesword.bmp
  5 -0.589457 -19.670637 56.242752 -0.421478 0.794326 0.437496 0.384314 0.913725
  5 0.010543 -19.980637 56.742752 0.019066 0.524650 0.851105 0.411765 0.945098
  5 0.010543 -19.600637 56.302752 0.008165 0.861018 0.508509 0.411765 0.917647
$0b_bluesword.bmp
  5 0.010543 -19.600637 56.302752 0.008165 0.861018 0.508509 0.411765 0.917647
  5 0.010543 -19.980637 56.742752 0.019066 0.524650 0.851105 0.411765 0.945098
  5 0.610543 -20.060637 56.602752 0.471797 0.449855 0.758313 0.443137 0.937255
$0b_bluesword.bmp
  5 0.010543 -19.980637 56.742752 0.019066 0.524650 0.851105 0.411765 0.945098
  5 0.610543 -20.570637 56.742753 0.479384 -0.000003 0.877605 0.450980 0.960784
  5 0.610543 -20.060637 56.602752 0.471797 0.449855 0.758313 0.443137 0.937255
$0b_bluesword.bmp
  5 0.610543 -20.060637 56.602752 0.471797 0.449855 0.758313 0.443137 0.937255
  5 0.610543 -20.570637 56.742753 0.479384 -0.000003 0.877605 0.450980 0.960784
  5 1.040543 -20.570638 56.302753 0.847655 0.000000 0.530547 0.482353 0.929412
$0b_bluesword.bmp
  5 0.610543 -20.570637 56.742753 0.479384 -0.000003 0.877605 0.450980 0.960784
  5 0.610543 -21.080637 56.602754 0.471797 -0.449856 0.758312 0.443137 0.937255
  5 1.040543 -20.570638 56.302753 0.847655 0.000000 0.530547 0.482353 0.929412
$0b_bluesword.bmp
  5 1.040543 -20.570638 56.302753 0.847655 0.000000 0.530547 0.482353 0.929412
  5 0.610543 -21.080637 56.602754 0.471797 -0.449856 0.758312 0.443137 0.937255
  5 1.040543 -20.860638 56.222754 0.848119 -0.266843 0.457699 0.470588 0.921569
$0b_bluesword.bmp
  5 0.610543 -21.080637 56.602754 0.471797 -0.449856 0.758312 0.443137 0.937255
  5 0.610542 -21.460638 56.222755 0.454191 -0.767590 0.452235 0.439216 0.913725
  5 1.040543 -20.860638 56.222754 0.848119 -0.266843 0.457699 0.470588 0.921569
$0b_bluesword.bmp
  5 1.040543 -20.860638 56.222754 0.848119 -0.266843 0.457699 0.470588 0.921569
  5 0.610542 -21.460638 56.222755 0.454191 -0.767590 0.452235 0.439216 0.913725
  5 1.040542 -21.080638 56.002754 0.847004 -0.459577 0.267159 0.466667 0.905882
$0b_bluesword.bmp
  5 0.610542 -21.460638 56.222755 0.454191 -0.767590 0.452235 0.439216 0.913725
  5 0.610542 -21.600639 55.712755 0.482061 -0.876136 0.001844 0.435294 0.890196
  5 1.040542 -21.080638 56.002754 0.847004 -0.459577 0.267159 0.466667 0.905882
$0b_bluesword.bmp
  5 1.040542 -21.080638 56.002754 0.847004 -0.459577 0.267159 0.466667 0.905882
  5 0.610542 -21.600639 55.712755 0.482061 -0.876136 0.001844 0.435294 0.890196
  5 1.040542 -21.160639 55.712754 0.847372 -0.530999 0.001064 0.462745 0.890196
$0b_bluesword.bmp
  5 0.610542 -21.600639 55.712755 0.482061 -0.876136 0.001844 0.435294 0.890196
  5 0.610542 -21.460639 55.202755 0.481217 -0.759550 -0.437623 0.439216 0.870588
  5 1.040542 -21.160639 55.712754 0.847372 -0.530999 0.001064 0.462745 0.890196
$0b_bluesword.bmp
  5 1.040542 -21.160639 55.712754 0.847372 -0.530999 0.001064 0.462745 0.890196
  5 0.610542 -21.460639 55.202755 0.481217 -0.759550 -0.437623 0.439216 0.870588
  5 1.040542 -21.080639 55.412754 0.847551 -0.459434 -0.265664 0.466667 0.878431
$0b_bluesword.bmp
  5 0.610542 -21.460639 55.202755 0.481217 -0.759550 -0.437623 0.439216 0.870588
  5 0.610542 -21.090640 54.822754 0.480195 -0.437085 -0.760506 0.443137 0.847059
  5 1.040542 -21.080639 55.412754 0.847551 -0.459434 -0.265664 0.466667 0.878431
$0b_bluesword.bmp
  5 1.040542 -21.080639 55.412754 0.847551 -0.459434 -0.265664 0.466667 0.878431
  5 0.610542 -21.090640 54.822754 0.480195 -0.437085 -0.760506 0.443137 0.847059
  5 1.040543 -20.870640 55.202754 0.847187 -0.260567 -0.463010 0.470588 0.862745
$0b_bluesword.bmp
  5 0.610542 -21.090640 54.822754 0.480195 -0.437085 -0.760506 0.443137 0.847059
  5 0.610543 -20.570640 54.692753 0.486067 0.000000 -0.873922 0.450980 0.823529
  5 1.040543 -20.870640 55.202754 0.847187 -0.260567 -0.463010 0.470588 0.862745
$0b_bluesword.bmp
  5 1.040543 -20.870640 55.202754 0.847187 -0.260567 -0.463010 0.470588 0.862745
  5 0.610543 -20.570640 54.692753 0.486067 0.000000 -0.873922 0.450980 0.823529
  5 1.040543 -20.570640 55.122753 0.843659 -0.000002 -0.536879 0.482353 0.854902
$0b_bluesword.bmp
  5 0.610543 -20.570640 54.692753 0.486067 0.000000 -0.873922 0.450980 0.823529
  5 1.040543 -20.270640 55.202753 0.847187 0.260571 -0.463009 0.470588 0.862745
  5 1.040543 -20.570640 55.122753 0.843659 -0.000002 -0.536879 0.482353 0.854902
$0b_bluesword.bmp
  5 1.040543 -20.570640 55.122753 0.843659 -0.000002 -0.536879 0.482353 0.854902
  5 1.040543 -20.270640 55.202753 0.847187 0.260571 -0.463009 0.470588 0.862745
  5 1.210543 -20.570639 55.712753 1.000000 0.000000 0.000527 0.490196 0.890196
$0b_bluesword.bmp
  5 1.040543 -20.270640 55.202753 0.847187 0.260571 -0.463009 0.470588 0.862745
  5 1.040543 -20.060639 55.412752 0.847550 0.459433 -0.265668 0.466667 0.878431
  5 1.210543 -20.570639 55.712753 1.000000 0.000000 0.000527 0.490196 0.890196
$0b_bluesword.bmp
  5 1.210543 -20.570639 55.712753 1.000000 0.000000 0.000527 0.490196 0.890196
  5 1.040543 -20.060639 55.412752 0.847550 0.459433 -0.265668 0.466667 0.878431
  5 1.040543 -19.980639 55.712752 0.847373 0.530998 0.001063 0.462745 0.890196
$0b_bluesword.bmp
  5 1.040543 -20.060639 55.412752 0.847550 0.459433 -0.265668 0.466667 0.878431
  5 0.610543 -19.680639 55.202752 0.481215 0.759549 -0.437626 0.439216 0.870588
  5 1.040543 -19.980639 55.712752 0.847373 0.530998 0.001063 0.462745 0.890196
$0b_bluesword.bmp
  5 1.040543 -19.980639 55.712752 0.847373 0.530998 0.001063 0.462745 0.890196
  5 0.610543 -19.680639 55.202752 0.481215 0.759549 -0.437626 0.439216 0.870588
  5 0.610543 -19.540639 55.712752 0.482059 0.876137 0.001844 0.435294 0.890196
$0b_bluesword.bmp
  5 0.610543 -19.680639 55.202752 0.481215 0.759549 -0.437626 0.439216 0.870588
  5 0.010543 -19.540639 55.112752 0.000891 0.863420 -0.504486 0.411765 0.866667
  5 0.610543 -19.540639 55.712752 0.482059 0.876137 0.001844 0.435294 0.890196
$0b_bluesword.bmp
  5 0.610543 -19.540639 55.712752 0.482059 0.876137 0.001844 0.435294 0.890196
  5 0.010543 -19.540639 55.112752 0.000891 0.863420 -0.504486 0.411765 0.866667
  5 0.010544 -19.380638 55.712751 -0.009231 0.999354 0.034736 0.411765 0.890196
$0b_bluesword.bmp
  5 0.010543 -19.540639 55.112752 0.000891 0.863420 -0.504486 0.411765 0.866667
  5 -0.579457 -19.670639 55.212752 -0.488785 0.758838 -0.430412 0.384314 0.870588
  5 0.010544 -19.380638 55.712751 -0.009231 0.999354 0.034736 0.411765 0.890196
$0b_bluesword.bmp
  5 0.010544 -19.380638 55.712751 -0.009231 0.999354 0.034736 0.411765 0.890196
  5 -0.579457 -19.670639 55.212752 -0.488785 0.758838 -0.430412 0.384314 0.870588
  5 -0.579457 -19.540638 55.712752 -0.461822 0.886926 0.009090 0.384314 0.890196
$0b_bluesword.bmp
  5 -0.579457 -19.670639 55.212752 -0.488785 0.758838 -0.430412 0.384314 0.870588
  5 -1.029457 -20.050638 55.452752 -0.848061 0.460826 -0.261595 0.356863 0.878431
  5 -0.579457 -19.540638 55.712752 -0.461822 0.886926 0.009090 0.384314 0.890196
$0b_bluesword.bmp
  5 -0.579457 -19.540638 55.712752 -0.461822 0.886926 0.009090 0.384314 0.890196
  5 -1.029457 -20.050638 55.452752 -0.848061 0.460826 -0.261595 0.356863 0.878431
  5 -1.039457 -19.970637 55.762752 -0.840732 0.541449 -0.001618 0.356863 0.890196
$0b_bluesword.bmp
  5 -1.029457 -20.050638 55.452752 -0.848061 0.460826 -0.261595 0.356863 0.878431
  5 -1.199457 -20.570637 55.782753 -0.999947 -0.000002 0.010322 0.329412 0.890196
  5 -1.039457 -19.970637 55.762752 -0.840732 0.541449 -0.001618 0.356863 0.890196
$0b_bluesword.bmp
  5 -1.039457 -19.970637 55.762752 -0.840732 0.541449 -0.001618 0.356863 0.890196
  5 -1.199457 -20.570637 55.782753 -0.999947 -0.000002 0.010322 0.329412 0.890196
  5 -1.039457 -20.050637 56.082752 -0.832377 0.471982 0.290486 0.356863 0.905882
$0b_bluesword.bmp
  5 -1.199457 -20.570637 55.782753 -0.999947 -0.000002 0.010322 0.329412 0.890196
  5 -1.029457 -20.270637 56.282753 -0.826412 0.248345 0.505339 0.352941 0.921569
  5 -1.039457 -20.050637 56.082752 -0.832377 0.471982 0.290486 0.356863 0.905882
$0b_bluesword.bmp
  5 -1.039457 -20.050637 56.082752 -0.832377 0.471982 0.290486 0.356863 0.905882
  5 -1.029457 -20.270637 56.282753 -0.826412 0.248345 0.505339 0.352941 0.921569
  5 -0.579457 -20.060636 56.622753 -0.448686 0.433810 0.781339 0.380392 0.937255
$0b_bluesword.bmp
  5 -1.029457 -20.270637 56.282753 -0.826412 0.248345 0.505339 0.352941 0.921569
  5 -0.579457 -20.570636 56.742753 -0.454306 -0.000004 0.890846 0.368627 0.960784
  5 -0.579457 -20.060636 56.622753 -0.448686 0.433810 0.781339 0.380392 0.937255
$0b_bluesword.bmp
  5 -0.579457 -20.060636 56.622753 -0.448686 0.433810 0.781339 0.380392 0.937255
  5 -0.579457 -20.570636 56.742753 -0.454306 -0.000004 0.890846 0.368627 0.960784
  5 0.010543 -20.570636 56.902753 0.006558 -0.000002 0.999978 0.411765 0.972549
$0b_bluesword.bmp
  5 -0.579457 -20.570636 56.742753 -0.454306 -0.000004 0.890846 0.368627 0.960784
  5 -0.579457 -21.080636 56.622754 -0.448683 -0.433817 0.781336 0.380392 0.937255
  5 0.010543 -20.570636 56.902753 0.006558 -0.000002 0.999978 0.411765 0.972549
$0b_bluesword.bmp
  5 0.010543 -20.570636 56.902753 0.006558 -0.000002 0.999978 0.411765 0.972549
  5 -0.579457 -21.080636 56.622754 -0.448683 -0.433817 0.781336 0.380392 0.937255
  5 0.010542 -21.160637 56.742754 0.019063 -0.524649 0.851105 0.411765 0.945098
$0b_bluesword.bmp
  5 -0.579457 -21.080636 56.622754 -0.448683 -0.433817 0.781336 0.380392 0.937255
  5 -0.589458 -21.470637 56.242755 -0.421479 -0.794326 0.437495 0.384314 0.913725
  5 0.010542 -21.160637 56.742754 0.019063 -0.524649 0.851105 0.411765 0.945098
$0b_bluesword.bmp
  5 0.010542 -21.160637 56.742754 0.019063 -0.524649 0.851105 0.411765 0.945098
  5 -0.589458 -21.470637 56.242755 -0.421479 -0.794326 0.437495 0.384314 0.913725
  5 0.010542 -21.540637 56.302755 0.008163 -0.861017 0.508511 0.411765 0.917647
$0b_bluesword.bmp
  5 -0.589458 -21.470637 56.242755 -0.421479 -0.794326 0.437495 0.384314 0.913725
  5 -0.579458 -21.600638 55.712755 -0.461821 -0.886926 0.009088 0.384314 0.890196
  5 0.010542 -21.540637 56.302755 0.008163 -0.861017 0.508511 0.411765 0.917647
$0b_bluesword.bmp
  5 0.010542 -21.540637 56.302755 0.008163 -0.861017 0.508511 0.411765 0.917647
  5 -0.579458 -21.600638 55.712755 -0.461821 -0.886926 0.009088 0.384314 0.890196
  5 0.010542 -21.760638 55.712755 -0.009227 -0.999354 0.034734 0.411765 0.890196
$0b_bluesword.bmp
  5 -0.579458 -21.600638 55.712755 -0.461821 -0.886926 0.009088 0.384314 0.890196
  5 -0.579458 -21.470639 55.212755 -0.488784 -0.758839 -0.430411 0.384314 0.870588
  5 0.010542 -21.760638 55.712755 -0.009227 -0.999354 0.034734 0.411765 0.890196
$0b_bluesword.bmp
  5 0.010542 -21.760638 55.712755 -0.009227 -0.999354 0.034734 0.411765 0.890196
  5 -0.579458 -21.470639 55.212755 -0.488784 -0.758839 -0.430411 0.384314 0.870588
  5 0.010542 -21.600639 55.112755 0.000893 -0.863419 -0.504487 0.411765 0.866667
$0b_bluesword.bmp
  5 -0.579458 -21.470639 55.212755 -0.488784 -0.758839 -0.430411 0.384314 0.870588
  5 -0.579457 -21.080639 54.812754 -0.483592 -0.438289 -0.757656 0.380392 0.847059
  5 0.010542 -21.600639 55.112755 0.000893 -0.863419 -0.504487 0.411765 0.866667
$0b_bluesword.bmp
  5 0.010542 -21.600639 55.112755 0.000893 -0.863419 -0.504487 0.411765 0.866667
  5 -0.579457 -21.080639 54.812754 -0.483592 -0.438289 -0.757656 0.380392 0.847059
  5 0.010542 -21.170640 54.682754 0.004728 -0.497727 -0.867321 0.411765 0.839216
$0b_bluesword.bmp
  5 -0.579457 -21.080639 54.812754 -0.483592 -0.438289 -0.757656 0.380392 0.847059
  5 -0.579457 -20.570639 54.672753 -0.482566 0.000000 -0.875860 0.368627 0.823529
  5 0.010542 -21.170640 54.682754 0.004728 -0.497727 -0.867321 0.411765 0.839216
$0b_bluesword.bmp
  5 0.010542 -21.170640 54.682754 0.004728 -0.497727 -0.867321 0.411765 0.839216
  5 -0.579457 -20.570639 54.672753 -0.482566 0.000000 -0.875860 0.368627 0.823529
  5 0.000543 -20.570640 54.522753 0.001176 -0.000002 -0.999999 0.411765 0.811765
$0b_bluesword.bmp
  5 -0.579457 -20.570639 54.672753 -0.482566 0.000000 -0.875860 0.368627 0.823529
  5 0.010543 -19.970640 54.682752 0.004727 0.497727 -0.867321 0.411765 0.839216
  5 0.000543 -20.570640 54.522753 0.001176 -0.000002 -0.999999 0.411765 0.811765
$0b_bluesword.bmp
  5 0.000543 -20.570640 54.522753 0.001176 -0.000002 -0.999999 0.411765 0.811765
  5 0.010543 -19.970640 54.682752 0.004727 0.497727 -0.867321 0.411765 0.839216
  5 0.610543 -20.050640 54.822752 0.480197 0.437084 -0.760506 0.443137 0.847059
$0b_bluesword.bmp
  5 0.010543 -19.970640 54.682752 0.004727 0.497727 -0.867321 0.411765 0.839216
  5 0.610543 -19.680639 55.202752 0.481215 0.759549 -0.437626 0.439216 0.870588
  5 0.610543 -20.050640 54.822752 0.480197 0.437084 -0.760506 0.443137 0.847059
$0b_bluesword.bmp
  5 0.610543 -20.050640 54.822752 0.480197 0.437084 -0.760506 0.443137 0.847059
  5 0.610543 -19.680639 55.202752 0.481215 0.759549 -0.437626 0.439216 0.870588
  5 1.040543 -20.060639 55.412752 0.847550 0.459433 -0.265668 0.466667 0.878431
$0b_bluesword.bmp
  5 -1.039457 -20.050637 56.082752 -0.832377 0.471982 0.290486 0.356863 0.905882
  5 -0.579457 -20.060636 56.622753 -0.448686 0.433810 0.781339 0.380392 0.937255
  5 -0.589457 -19.670637 56.242752 -0.421478 0.794326 0.437496 0.384314 0.913725
$0b_bluesword.bmp
  5 -0.589457 -19.670637 56.242752 -0.421478 0.794326 0.437496 0.384314 0.913725
  5 -0.579457 -20.060636 56.622753 -0.448686 0.433810 0.781339 0.380392 0.937255
  5 0.010543 -19.980637 56.742752 0.019066 0.524650 0.851105 0.411765 0.945098
$0b_bluesword.bmp
  5 -0.579457 -20.060636 56.622753 -0.448686 0.433810 0.781339 0.380392 0.937255
  5 0.010543 -20.570636 56.902753 0.006558 -0.000002 0.999978 0.411765 0.972549
  5 0.010543 -19.980637 56.742752 0.019066 0.524650 0.851105 0.411765 0.945098
$0b_bluesword.bmp
  5 0.010543 -19.980637 56.742752 0.019066 0.524650 0.851105 0.411765 0.945098
  5 0.010543 -20.570636 56.902753 0.006558 -0.000002 0.999978 0.411765 0.972549
  5 0.610543 -20.570637 56.742753 0.479384 -0.000003 0.877605 0.450980 0.960784
$0b_bluesword.bmp
  5 0.010543 -20.570636 56.902753 0.006558 -0.000002 0.999978 0.411765 0.972549
  5 0.010542 -21.160637 56.742754 0.019063 -0.524649 0.851105 0.411765 0.945098
  5 0.610543 -20.570637 56.742753 0.479384 -0.000003 0.877605 0.450980 0.960784
$0b_bluesword.bmp
  5 0.610543 -20.570637 56.742753 0.479384 -0.000003 0.877605 0.450980 0.960784
  5 0.010542 -21.160637 56.742754 0.019063 -0.524649 0.851105 0.411765 0.945098
  5 0.610543 -21.080637 56.602754 0.471797 -0.449856 0.758312 0.443137 0.937255
$0b_bluesword.bmp
  5 0.010542 -21.160637 56.742754 0.019063 -0.524649 0.851105 0.411765 0.945098
  5 0.010542 -21.540637 56.302755 0.008163 -0.861017 0.508511 0.411765 0.917647
  5 0.610543 -21.080637 56.602754 0.471797 -0.449856 0.758312 0.443137 0.937255
$0b_bluesword.bmp
  5 0.610543 -21.080637 56.602754 0.471797 -0.449856 0.758312 0.443137 0.937255
  5 0.010542 -21.540637 56.302755 0.008163 -0.861017 0.508511 0.411765 0.917647
  5 0.610542 -21.460638 56.222755 0.454191 -0.767590 0.452235 0.439216 0.913725
$0b_bluesword.bmp
  5 0.010542 -21.540637 56.302755 0.008163 -0.861017 0.508511 0.411765 0.917647
  5 0.010542 -21.760638 55.712755 -0.009227 -0.999354 0.034734 0.411765 0.890196
  5 0.610542 -21.460638 56.222755 0.454191 -0.767590 0.452235 0.439216 0.913725
$0b_bluesword.bmp
  5 0.610542 -21.460638 56.222755 0.454191 -0.767590 0.452235 0.439216 0.913725
  5 0.010542 -21.760638 55.712755 -0.009227 -0.999354 0.034734 0.411765 0.890196
  5 0.610542 -21.600639 55.712755 0.482061 -0.876136 0.001844 0.435294 0.890196
$0b_bluesword.bmp
  5 0.010542 -21.760638 55.712755 -0.009227 -0.999354 0.034734 0.411765 0.890196
  5 0.010542 -21.600639 55.112755 0.000893 -0.863419 -0.504487 0.411765 0.866667
  5 0.610542 -21.600639 55.712755 0.482061 -0.876136 0.001844 0.435294 0.890196
$0b_bluesword.bmp
  5 0.610542 -21.600639 55.712755 0.482061 -0.876136 0.001844 0.435294 0.890196
  5 0.010542 -21.600639 55.112755 0.000893 -0.863419 -0.504487 0.411765 0.866667
  5 0.610542 -21.460639 55.202755 0.481217 -0.759550 -0.437623 0.439216 0.870588
$0b_bluesword.bmp
  5 0.010542 -21.600639 55.112755 0.000893 -0.863419 -0.504487 0.411765 0.866667
  5 0.010542 -21.170640 54.682754 0.004728 -0.497727 -0.867321 0.411765 0.839216
  5 0.610542 -21.460639 55.202755 0.481217 -0.759550 -0.437623 0.439216 0.870588
$0b_bluesword.bmp
  5 0.610542 -21.460639 55.202755 0.481217 -0.759550 -0.437623 0.439216 0.870588
  5 0.010542 -21.170640 54.682754 0.004728 -0.497727 -0.867321 0.411765 0.839216
  5 0.610542 -21.090640 54.822754 0.480195 -0.437085 -0.760506 0.443137 0.847059
$0b_bluesword.bmp
  5 0.010542 -21.170640 54.682754 0.004728 -0.497727 -0.867321 0.411765 0.839216
  5 0.000543 -20.570640 54.522753 0.001176 -0.000002 -0.999999 0.411765 0.811765
  5 0.610542 -21.090640 54.822754 0.480195 -0.437085 -0.760506 0.443137 0.847059
$0b_bluesword.bmp
  5 0.610542 -21.090640 54.822754 0.480195 -0.437085 -0.760506 0.443137 0.847059
  5 0.000543 -20.570640 54.522753 0.001176 -0.000002 -0.999999 0.411765 0.811765
  5 0.610543 -20.570640 54.692753 0.486067 0.000000 -0.873922 0.450980 0.823529
$0b_bluesword.bmp
  5 0.000543 -20.570640 54.522753 0.001176 -0.000002 -0.999999 0.411765 0.811765
  5 0.610543 -20.050640 54.822752 0.480197 0.437084 -0.760506 0.443137 0.847059
  5 0.610543 -20.570640 54.692753 0.486067 0.000000 -0.873922 0.450980 0.823529
$0b_bluesword.bmp
  5 0.610543 -20.570640 54.692753 0.486067 0.000000 -0.873922 0.450980 0.823529
  5 0.610543 -20.050640 54.822752 0.480197 0.437084 -0.760506 0.443137 0.847059
  5 1.040543 -20.270640 55.202753 0.847187 0.260571 -0.463009 0.470588 0.862745
$0b_bluesword.bmp
  5 0.610543 -20.050640 54.822752 0.480197 0.437084 -0.760506 0.443137 0.847059
  5 1.040543 -20.060639 55.412752 0.847550 0.459433 -0.265668 0.466667 0.878431
  5 1.040543 -20.270640 55.202753 0.847187 0.260571 -0.463009 0.470588 0.862745
$0b_bluesword.bmp
  5 -1.199457 -20.570637 55.782753 -0.999947 -0.000002 0.010322 0.329412 0.890196
  5 -1.029457 -20.570637 56.342753 -0.822779 0.000002 0.568362 0.341176 0.929412
  5 -1.029457 -20.270637 56.282753 -0.826412 0.248345 0.505339 0.352941 0.921569
$0b_bluesword.bmp
  5 -1.029457 -20.270637 56.282753 -0.826412 0.248345 0.505339 0.352941 0.921569
  5 -1.029457 -20.570637 56.342753 -0.822779 0.000002 0.568362 0.341176 0.929412
  5 -0.579457 -20.570636 56.742753 -0.454306 -0.000004 0.890846 0.368627 0.960784
$0b_bluesword.bmp
  5 -1.029457 -20.570637 56.342753 -0.822779 0.000002 0.568362 0.341176 0.929412
  5 -1.029457 -20.870637 56.282754 -0.826410 -0.248353 0.505339 0.352941 0.921569
  5 -0.579457 -20.570636 56.742753 -0.454306 -0.000004 0.890846 0.368627 0.960784
$0b_bluesword.bmp
  5 -0.579457 -20.570636 56.742753 -0.454306 -0.000004 0.890846 0.368627 0.960784
  5 -1.029457 -20.870637 56.282754 -0.826410 -0.248353 0.505339 0.352941 0.921569
  5 -0.579457 -21.080636 56.622754 -0.448683 -0.433817 0.781336 0.380392 0.937255
$0b_bluesword.bmp
  5 -1.029457 -20.870637 56.282754 -0.826410 -0.248353 0.505339 0.352941 0.921569
  5 -1.039457 -21.090637 56.082754 -0.832376 -0.471983 0.290486 0.356863 0.905882
  5 -0.579457 -21.080636 56.622754 -0.448683 -0.433817 0.781336 0.380392 0.937255
$0b_bluesword.bmp
  5 -0.579457 -21.080636 56.622754 -0.448683 -0.433817 0.781336 0.380392 0.937255
  5 -1.039457 -21.090637 56.082754 -0.832376 -0.471983 0.290486 0.356863 0.905882
  5 -0.589458 -21.470637 56.242755 -0.421479 -0.794326 0.437495 0.384314 0.913725
$0b_bluesword.bmp
  5 -1.039457 -21.090637 56.082754 -0.832376 -0.471983 0.290486 0.356863 0.905882
  5 -1.039458 -21.170637 55.762754 -0.840732 -0.541449 -0.001621 0.356863 0.890196
  5 -0.589458 -21.470637 56.242755 -0.421479 -0.794326 0.437495 0.384314 0.913725
$0b_bluesword.bmp
  5 -0.589458 -21.470637 56.242755 -0.421479 -0.794326 0.437495 0.384314 0.913725
  5 -1.039458 -21.170637 55.762754 -0.840732 -0.541449 -0.001621 0.356863 0.890196
  5 -0.579458 -21.600638 55.712755 -0.461821 -0.886926 0.009088 0.384314 0.890196
$0b_bluesword.bmp
  5 -1.039458 -21.170637 55.762754 -0.840732 -0.541449 -0.001621 0.356863 0.890196
  5 -1.029457 -21.090638 55.452754 -0.848059 -0.460828 -0.261599 0.356863 0.878431
  5 -0.579458 -21.600638 55.712755 -0.461821 -0.886926 0.009088 0.384314 0.890196
$0b_bluesword.bmp
  5 -0.579458 -21.600638 55.712755 -0.461821 -0.886926 0.009088 0.384314 0.890196
  5 -1.029457 -21.090638 55.452754 -0.848059 -0.460828 -0.261599 0.356863 0.878431
  5 -0.579458 -21.470639 55.212755 -0.488784 -0.758839 -0.430411 0.384314 0.870588
$0b_bluesword.bmp
  5 -1.029457 -21.090638 55.452754 -0.848059 -0.460828 -0.261599 0.356863 0.878431
  5 -1.029457 -20.870638 55.222754 -0.852011 -0.269823 -0.448635 0.352941 0.862745
  5 -0.579458 -21.470639 55.212755 -0.488784 -0.758839 -0.430411 0.384314 0.870588
$0b_bluesword.bmp
  5 -0.579458 -21.470639 55.212755 -0.488784 -0.758839 -0.430411 0.384314 0.870588
  5 -1.029457 -20.870638 55.222754 -0.852011 -0.269823 -0.448635 0.352941 0.862745
  5 -0.579457 -21.080639 54.812754 -0.483592 -0.438289 -0.757656 0.380392 0.847059
$0b_bluesword.bmp
  5 -1.029457 -20.870638 55.222754 -0.852011 -0.269823 -0.448635 0.352941 0.862745
  5 -1.019457 -20.570638 55.132753 -0.850995 0.000000 -0.525173 0.341176 0.854902
  5 -0.579457 -21.080639 54.812754 -0.483592 -0.438289 -0.757656 0.380392 0.847059
$0b_bluesword.bmp
  5 -0.579457 -21.080639 54.812754 -0.483592 -0.438289 -0.757656 0.380392 0.847059
  5 -1.019457 -20.570638 55.132753 -0.850995 0.000000 -0.525173 0.341176 0.854902
  5 -0.579457 -20.570639 54.672753 -0.482566 0.000000 -0.875860 0.368627 0.823529
$0b_bluesword.bmp
  5 -1.019457 -20.570638 55.132753 -0.850995 0.000000 -0.525173 0.341176 0.854902
  5 -0.579457 -20.060639 54.812753 -0.483590 0.438288 -0.757657 0.380392 0.847059
  5 -0.579457 -20.570639 54.672753 -0.482566 0.000000 -0.875860 0.368627 0.823529
$0b_bluesword.bmp
  5 -0.579457 -20.570639 54.672753 -0.482566 0.000000 -0.875860 0.368627 0.823529
  5 -0.579457 -20.060639 54.812753 -0.483590 0.438288 -0.757657 0.380392 0.847059
  5 0.010543 -19.970640 54.682752 0.004727 0.497727 -0.867321 0.411765 0.839216
$0b_bluesword.bmp
  5 -0.579457 -20.060639 54.812753 -0.483590 0.438288 -0.757657 0.380392 0.847059
  5 0.010543 -19.540639 55.112752 0.000891 0.863420 -0.504486 0.411765 0.866667
  5 0.010543 -19.970640 54.682752 0.004727 0.497727 -0.867321 0.411765 0.839216
$0b_bluesword.bmp
  5 0.010543 -19.970640 54.682752 0.004727 0.497727 -0.867321 0.411765 0.839216
  5 0.010543 -19.540639 55.112752 0.000891 0.863420 -0.504486 0.411765 0.866667
  5 0.610543 -19.680639 55.202752 0.481215 0.759549 -0.437626 0.439216 0.870588
$0b_bluesword.bmp
  5 1.210543 -20.570639 55.712753 1.000000 0.000000 0.000527 0.490196 0.890196
  5 1.040543 -20.870640 55.202754 0.847187 -0.260567 -0.463010 0.470588 0.862745
  5 1.040543 -20.570640 55.122753 0.843659 -0.000002 -0.536879 0.482353 0.854902
$0b_bluesword.bmp
  5 1.210543 -20.570639 55.712753 1.000000 0.000000 0.000527 0.490196 0.890196
  5 1.040542 -21.080639 55.412754 0.847551 -0.459434 -0.265664 0.466667 0.878431
  5 1.040543 -20.870640 55.202754 0.847187 -0.260567 -0.463010 0.470588 0.862745
$0b_bluesword.bmp
  5 1.210543 -20.570639 55.712753 1.000000 0.000000 0.000527 0.490196 0.890196
  5 1.040542 -21.160639 55.712754 0.847372 -0.530999 0.001064 0.462745 0.890196
  5 1.040542 -21.080639 55.412754 0.847551 -0.459434 -0.265664 0.466667 0.878431
$0b_bluesword.bmp
  5 1.210543 -20.570639 55.712753 1.000000 0.000000 0.000527 0.490196 0.890196
  5 1.040542 -21.080638 56.002754 0.847004 -0.459577 0.267159 0.466667 0.905882
  5 1.040542 -21.160639 55.712754 0.847372 -0.530999 0.001064 0.462745 0.890196
$0b_bluesword.bmp
  5 1.210543 -20.570639 55.712753 1.000000 0.000000 0.000527 0.490196 0.890196
  5 1.040543 -20.860638 56.222754 0.848119 -0.266843 0.457699 0.470588 0.921569
  5 1.040542 -21.080638 56.002754 0.847004 -0.459577 0.267159 0.466667 0.905882
$0b_bluesword.bmp
  5 1.210543 -20.570639 55.712753 1.000000 0.000000 0.000527 0.490196 0.890196
  5 1.040543 -20.570638 56.302753 0.847655 0.000000 0.530547 0.482353 0.929412
  5 1.040543 -20.860638 56.222754 0.848119 -0.266843 0.457699 0.470588 0.921569
$0b_bluesword.bmp
  5 1.210543 -20.570639 55.712753 1.000000 0.000000 0.000527 0.490196 0.890196
  5 1.040543 -20.280638 56.222753 0.848119 0.266845 0.457699 0.470588 0.921569
  5 1.040543 -20.570638 56.302753 0.847655 0.000000 0.530547 0.482353 0.929412
$0b_bluesword.bmp
  5 1.210543 -20.570639 55.712753 1.000000 0.000000 0.000527 0.490196 0.890196
  5 1.040543 -20.060638 56.002752 0.847002 0.459576 0.267165 0.466667 0.905882
  5 1.040543 -20.280638 56.222753 0.848119 0.266845 0.457699 0.470588 0.921569
$0b_bluesword.bmp
  5 1.210543 -20.570639 55.712753 1.000000 0.000000 0.000527 0.490196 0.890196
  5 1.040543 -19.980639 55.712752 0.847373 0.530998 0.001063 0.462745 0.890196
  5 1.040543 -20.060638 56.002752 0.847002 0.459576 0.267165 0.466667 0.905882
$0b_bluesword.bmp
  5 -1.199457 -20.570637 55.782753 -0.999947 -0.000002 0.010322 0.329412 0.890196
  5 -1.029457 -20.870637 56.282754 -0.826410 -0.248353 0.505339 0.352941 0.921569
  5 -1.029457 -20.570637 56.342753 -0.822779 0.000002 0.568362 0.341176 0.929412
$0b_bluesword.bmp
  5 -1.199457 -20.570637 55.782753 -0.999947 -0.000002 0.010322 0.329412 0.890196
  5 -1.039457 -21.090637 56.082754 -0.832376 -0.471983 0.290486 0.356863 0.905882
  5 -1.029457 -20.870637 56.282754 -0.826410 -0.248353 0.505339 0.352941 0.921569
$0b_bluesword.bmp
  5 -1.199457 -20.570637 55.782753 -0.999947 -0.000002 0.010322 0.329412 0.890196
  5 -1.039458 -21.170637 55.762754 -0.840732 -0.541449 -0.001621 0.356863 0.890196
  5 -1.039457 -21.090637 56.082754 -0.832376 -0.471983 0.290486 0.356863 0.905882
$0b_bluesword.bmp
  5 -1.199457 -20.570637 55.782753 -0.999947 -0.000002 0.010322 0.329412 0.890196
  5 -1.029457 -21.090638 55.452754 -0.848059 -0.460828 -0.261599 0.356863 0.878431
  5 -1.039458 -21.170637 55.762754 -0.840732 -0.541449 -0.001621 0.356863 0.890196
$0b_bluesword.bmp
  5 -1.199457 -20.570637 55.782753 -0.999947 -0.000002 0.010322 0.329412 0.890196
  5 -1.029457 -20.870638 55.222754 -0.852011 -0.269823 -0.448635 0.352941 0.862745
  5 -1.029457 -21.090638 55.452754 -0.848059 -0.460828 -0.261599 0.356863 0.878431
$0b_bluesword.bmp
  5 -1.199457 -20.570637 55.782753 -0.999947 -0.000002 0.010322 0.329412 0.890196
  5 -1.019457 -20.570638 55.132753 -0.850995 0.000000 -0.525173 0.341176 0.854902
  5 -1.029457 -20.870638 55.222754 -0.852011 -0.269823 -0.448635 0.352941 0.862745
$0b_bluesword.bmp
  5 -1.199457 -20.570637 55.782753 -0.999947 -0.000002 0.010322 0.329412 0.890196
  5 -1.029457 -20.270638 55.222753 -0.852011 0.269820 -0.448636 0.352941 0.862745
  5 -1.019457 -20.570638 55.132753 -0.850995 0.000000 -0.525173 0.341176 0.854902
$0b_bluesword.bmp
  5 -1.199457 -20.570637 55.782753 -0.999947 -0.000002 0.010322 0.329412 0.890196
  5 -1.029457 -20.050638 55.452752 -0.848061 0.460826 -0.261595 0.356863 0.878431
  5 -1.029457 -20.270638 55.222753 -0.852011 0.269820 -0.448636 0.352941 0.862745
$0b_bluesword.bmp
  5 0.610543 -19.680638 56.222752 0.454190 0.767590 0.452235 0.439216 0.913725
  5 0.010544 -19.380638 55.712751 -0.009231 0.999354 0.034736 0.411765 0.890196
  5 0.010543 -19.600637 56.302752 0.008165 0.861018 0.508509 0.411765 0.917647
$0b_bluesword.bmp
  5 0.610543 -19.680638 56.222752 0.454190 0.767590 0.452235 0.439216 0.913725
  5 0.610543 -19.540639 55.712752 0.482059 0.876137 0.001844 0.435294 0.890196
  5 0.010544 -19.380638 55.712751 -0.009231 0.999354 0.034736 0.411765 0.890196
$0b_bluesword.bmp
  5 0.610543 -19.680638 56.222752 0.454190 0.767590 0.452235 0.439216 0.913725
  5 1.040543 -20.060638 56.002752 0.847002 0.459576 0.267165 0.466667 0.905882
  5 0.610543 -19.540639 55.712752 0.482059 0.876137 0.001844 0.435294 0.890196
$0b_bluesword.bmp
  5 0.610543 -19.680638 56.222752 0.454190 0.767590 0.452235 0.439216 0.913725
  5 1.040543 -20.280638 56.222753 0.848119 0.266845 0.457699 0.470588 0.921569
  5 1.040543 -20.060638 56.002752 0.847002 0.459576 0.267165 0.466667 0.905882
$0b_bluesword.bmp
  5 0.610543 -19.680638 56.222752 0.454190 0.767590 0.452235 0.439216 0.913725
  5 0.610543 -20.060637 56.602752 0.471797 0.449855 0.758313 0.443137 0.937255
  5 1.040543 -20.280638 56.222753 0.848119 0.266845 0.457699 0.470588 0.921569
$0b_bluesword.bmp
  5 0.610543 -19.680638 56.222752 0.454190 0.767590 0.452235 0.439216 0.913725
  5 0.010543 -19.600637 56.302752 0.008165 0.861018 0.508509 0.411765 0.917647
  5 0.610543 -20.060637 56.602752 0.471797 0.449855 0.758313 0.443137 0.937255
$0b_bluesword.bmp
  5 -1.019457 -20.570638 55.132753 -0.850995 0.000000 -0.525173 0.341176 0.854902
  5 -1.029457 -20.270638 55.222753 -0.852011 0.269820 -0.448636 0.352941 0.862745
  5 -0.579457 -20.060639 54.812753 -0.483590 0.438288 -0.757657 0.380392 0.847059
$0b_bluesword.bmp
  5 -0.579457 -20.060639 54.812753 -0.483590 0.438288 -0.757657 0.380392 0.847059
  5 -1.029457 -20.270638 55.222753 -0.852011 0.269820 -0.448636 0.352941 0.862745
  5 -0.579457 -19.670639 55.212752 -0.488785 0.758838 -0.430412 0.384314 0.870588
$0b_bluesword.bmp
  5 -1.029457 -20.270638 55.222753 -0.852011 0.269820 -0.448636 0.352941 0.862745
  5 -1.029457 -20.050638 55.452752 -0.848061 0.460826 -0.261595 0.356863 0.878431
  5 -0.579457 -19.670639 55.212752 -0.488785 0.758838 -0.430412 0.384314 0.870588
$0b_bluesword.bmp
  5 -0.589457 -19.670637 56.242752 -0.421478 0.794326 0.437496 0.384314 0.913725
  5 -1.039457 -19.970637 55.762752 -0.840732 0.541449 -0.001618 0.356863 0.890196
  5 -1.039457 -20.050637 56.082752 -0.832377 0.471982 0.290486 0.356863 0.905882
$0b_bluesword.bmp
  5 0.010543 -19.540639 55.112752 0.000891 0.863420 -0.504486 0.411765 0.866667
  5 -0.579457 -20.060639 54.812753 -0.483590 0.438288 -0.757657 0.380392 0.847059
  5 -0.579457 -19.670639 55.212752 -0.488785 0.758838 -0.430412 0.384314 0.870588
$0b_bluesword.bmp
  5 -0.579457 -19.540638 55.712752 -0.461822 0.886926 0.009090 0.384314 0.890196
  5 0.010543 -19.600637 56.302752 0.008165 0.861018 0.508509 0.411765 0.917647
  5 0.010544 -19.380638 55.712751 -0.009231 0.999354 0.034736 0.411765 0.890196
$0b_bluesword.bmp
  5 0.610543 -19.540639 55.712752 0.482059 0.876137 0.001844 0.435294 0.890196
  5 1.040543 -20.060638 56.002752 0.847002 0.459576 0.267165 0.466667 0.905882
  5 1.040543 -19.980639 55.712752 0.847373 0.530998 0.001063 0.462745 0.890196
$0b_bluesword.bmp
  5 0.610543 -20.060637 56.602752 0.471797 0.449855 0.758313 0.443137 0.937255
  5 1.040543 -20.570638 56.302753 0.847655 0.000000 0.530547 0.482353 0.929412
  5 1.040543 -20.280638 56.222753 0.848119 0.266845 0.457699 0.470588 0.921569
$0b_eyephantom02.bmp
  20 1.815450 -22.350599 41.247199 0.687591 -0.533596 -0.492438 1.000000 0.000000
  20 0.804493 -23.817083 41.424652 0.687591 -0.533596 -0.492438 1.000000 1.000000
  20 0.998610 -21.974781 39.699416 0.687591 -0.533596 -0.492438 0.000000 0.000000
$0b_eyephantom02.bmp
  20 0.998610 -21.974781 39.699416 0.687591 -0.533596 -0.492438 0.000000 0.000000
  20 0.804493 -23.817083 41.424652 0.687591 -0.533596 -0.492438 1.000000 1.000000
  20 -0.012347 -23.441265 39.876869 0.687591 -0.533596 -0.492438 0.000000 1.000000
$0b_eyephantom02.bmp
  19 -1.699875 -21.840854 40.454099 -0.405424 -0.561614 -0.721263 1.000000 0.000000
  19 -0.064022 -22.252965 39.855477 -0.405424 -0.561614 -0.721263 0.000000 0.000000
  19 -1.670061 -23.261084 41.543207 -0.405424 -0.561614 -0.721263 1.000000 1.000000
$0b_eyephantom02.bmp
  19 -1.670061 -23.261084 41.543207 -0.405424 -0.561614 -0.721263 1.000000 1.000000
  19 -0.064022 -22.252965 39.855477 -0.405424 -0.561614 -0.721263 0.000000 0.000000
  19 -0.034208 -23.673195 40.944585 -0.405424 -0.561614 -0.721263 0.000000 1.000000
end
