// Created by Crowbar 0.34.0.0

$ModelName "v_dualswordfx.mdl"

$BodyGroup "weapon"
{
	studio "v_dualswordfx_v_ref_1fx.smd"
}
$BodyGroup "weapon"
{
	studio "v_dualswordfx_v_ref_1_2fx.smd"
}
$BodyGroup "weapon"
{
	studio "v_dualswordfx_v_ref_2fx.smd"
}
$BodyGroup "weapon"
{
	studio "v_dualswordfx_v_ref_2_2fx.smd"
}
$BodyGroup "weapon"
{
	studio "v_dualswordfx_slash_fx.smd"
}
$BodyGroup "weapon"
{
	studio "v_dualswordfx_ref_flare.smd"
}
$BodyGroup "hands"
{
	studio "v_dualswordfx_cso_hand_male_l_2009.smd"
	studio "v_dualswordfx_cso_hand_female_l_2009.smd"
}

$Flags 0

$TextureGroup "skinfamilies"
{
	{ "phantomslasher1.bmp" "phantomslasher2.bmp" "$0b_slashfx.bmp" "$0b_slashna.bmp" "$0b_flarephantom.bmp" "#512512CSO_HighQ_Hand__Long_512.BMP" "#512512CSO_Girl_Hand_long.bmp" }
}

$CBox 0 0 0 0 0 0

$BBox 0 0 0 0 0 0

$HBox 0 "phantom_1" -8.09 -3.62 -1.9 45.919998 2.97 1.9
$HBox 0 "phantom_11" -0.7 -1.91 -1.66 35.09 4.03 1.66
$HBox 0 "phantom_22" -0.7 -1.76 -1.66 35.470001 1.81 1.66
$HBox 0 "phantom_2" -8.15 -3.15 -2.17 46.950001 4.7 2.17
$HBox 0 "root" -9.310107 -5.299614 -12.557959 9.310103 0 0
$HBox 0 "Bone01" -1.36 -8.498736 -1.73 1.62 8.762585 1.24
$HBox 0 "Bone_L_Upper" 0 -1.69 -2.69 8.98 1.68 1.69
$HBox 0 "Bone_Lefthand" -1.6 -3.09 -0.83 1.38 0 0.92
$HBox 0 "Bone05" 0 -0.83 -0.75 1.535927 0.87 0.73
$HBox 0 "Bone06" 0 -0.66 -0.61 1.2 0.54 0.49
$HBox 0 "Bone04" -1.72 -8.450418 -1.67 1.31 8.839177 1.3
$HBox 0 "Bone_Righthand" -1.4 -3.14 -0.81 1.58 0 0.94
$HBox 0 "Bone27" 0 -0.87 -0.75 1.522835 0.85 0.73
$HBox 0 "Bone28" 0 -0.56 -0.61 1.23 0.63 0.48
$HBox 0 "Bone_R_Upper" 0 -1.63 -2.69 9.07 1.74 1.69

$Sequence "slash_1" {
	"v_dualswordfx_anims\slash_1.smd"
	fps 30
}
$Sequence "slash_2" {
	"v_dualswordfx_anims\slash_2.smd"
	fps 30
}
$Sequence "slash_3" {
	"v_dualswordfx_anims\slash_3.smd"
	fps 30
}
$Sequence "slash_4" {
	"v_dualswordfx_anims\slash_4.smd"
	fps 30
}
