version 1
nodes
  0 "Bone01" -1
  1 "Bone_Lefthand" 0
  2 "Bone02" 1
  3 "Bone03" 2
  4 "Bone48" 3
  5 "Bone56" 3
  6 "Bone25" 3
  7 "Bone54" 3
  8 "Bone50" 3
  9 "Bone52" 3
  10 "Bone_Button" 3
  11 "Bone04" -1
  12 "Bone_Righthand" 11
  13 "Bone27" 12
  14 "Bone28" 13
  15 "Bone29" 14
  16 "Bone31" 12
  17 "Bone32" 16
  18 "Bone33" 17
  19 "Bone35" 12
  20 "Bone36" 19
  21 "Bone37" 20
  22 "Bone39" 12
  23 "Bone40" 22
  24 "Bone41" 23
  25 "Bone43" 12
  26 "Bone44" 25
  27 "Bone45" 26
  28 "Bone_Se_Hand-R" 12
  29 "Bone05" 1
  30 "Bone06" 29
  31 "Bone07" 30
  32 "Bone21" 1
  33 "Bone22" 32
  34 "Bone23" 33
  35 "Bone17" 1
  36 "Bone18" 35
  37 "Bone19" 36
  38 "Bone13" 1
  39 "Bone14" 38
  40 "Bone15" 39
  41 "Bone09" 1
  42 "Bone10" 41
  43 "Bone11" 42
  44 "Bone_Se_Hand-L" 1
end
skeleton
  time 0
    0 7.602645 3.724267 -5.924458 -0.981508 -1.423763 0.743275
    1 -0.069508 -8.500779 -0.100989 0.351238 -0.142149 -0.182270
    2 -0.549791 -3.387297 1.031815 0.764876 1.739162 0.794019
    3 0.000000 1.888488 0.974220 0.000000 0.000000 0.000000
    4 -0.013949 -13.443616 2.413798 0.000000 0.000000 0.000000
    5 -0.482113 -4.704160 2.234720 0.000000 -2.835044 0.000000
    6 -0.013948 -2.720513 1.100493 -0.261799 0.000000 0.000000
    7 -0.013949 -4.784637 0.953041 0.000000 0.000000 0.000000
    8 0.013504 -3.609847 2.576681 0.000000 0.000000 0.000000
    9 -0.061524 -0.623888 2.571739 0.000000 0.000000 0.000000
    10 -0.640636 -3.730933 1.422005 -1.570796 0.000000 -1.570796
    11 -0.339367 -3.110133 -8.176842 1.112484 2.086520 1.553969
    12 0.096946 -8.450419 -0.009363 0.022642 -0.623364 0.385037
    13 -0.586769 -1.264477 0.200164 -0.150978 -0.261960 -2.348876
    14 1.522835 0.058680 0.016850 0.407974 0.041125 0.323270
    15 1.117947 0.048424 -0.005765 0.209853 -0.001522 -0.115412
    16 -0.963867 -2.785143 -0.085346 -0.991575 0.384655 0.005354
    17 0.028478 -1.403067 0.006272 -1.138366 -0.049204 -0.002683
    18 0.021412 -0.957782 0.020047 -0.469066 -0.033045 -0.015228
    19 -0.249534 -2.846963 -0.174215 -0.833400 0.272817 0.172600
    20 0.043235 -1.683940 0.096015 -1.470641 0.000001 0.000000
    21 0.031729 -1.160830 0.058836 -0.875961 0.000000 0.000000
    22 0.447951 -2.798983 -0.200441 -1.034777 0.344592 0.302295
    23 -0.032909 -1.480207 0.004935 -1.539428 0.000000 0.000000
    24 -0.027023 -1.076921 -0.020212 -0.358738 0.000000 0.000000
    25 1.164474 -2.543939 -0.170327 -1.126130 0.241153 0.235942
    26 0.024033 -1.129040 0.017807 -1.349622 0.000000 -0.000001
    27 0.014896 -0.883992 -0.019846 -0.511010 0.000000 0.000000
    28 -0.064620 -0.124786 0.029284 0.384017 0.052253 1.458040
    29 0.583509 -1.197274 0.185379 0.377232 -0.745798 -1.043320
    30 1.535926 0.010247 0.005009 -0.290357 -0.063207 -0.837499
    31 1.100770 0.004528 -0.010675 0.000000 0.000000 -0.577704
    32 0.957766 -2.746777 -0.090301 -0.201716 0.016530 0.045802
    33 -0.033419 -1.397128 -0.011255 -0.763584 0.000000 0.000000
    34 -0.022361 -0.957433 0.018783 -0.593413 0.000000 0.000000
    35 0.250029 -2.820664 -0.238396 -0.872208 -0.049326 -0.238818
    36 -0.049759 -1.680544 0.100479 -1.454738 0.000000 0.000000
    37 -0.034141 -1.148311 0.084779 -1.567306 0.000000 0.000000
    38 -0.488517 -2.755600 -0.228261 -1.098181 -0.096000 -0.264903
    39 0.039889 -1.479791 0.029854 -1.354100 0.000000 0.000000
    40 0.028785 -1.075733 -0.023110 -1.435200 0.000000 0.000000
    41 -1.180679 -2.507216 -0.193861 -1.163678 -0.049451 -0.281014
    42 -0.024967 -1.123934 0.017595 -0.883852 0.000000 0.000000
    43 -0.020058 -0.890965 0.010091 -1.435318 0.000000 0.000000
    44 0.120180 -0.051600 -0.063059 0.012085 -2.987703 1.512552
  time 1
    0 7.602645 3.724267 -5.924458 -0.981508 -1.423763 0.743275
    1 -0.069508 -8.500779 -0.100989 0.351238 -0.142149 -0.182270
    2 -0.549791 -3.387297 1.031815 0.764876 1.739162 0.794019
    3 0.000000 1.888488 0.974220 0.000000 0.000000 0.000000
    4 -0.013949 -13.443616 2.413798 0.000000 0.000000 0.000000
    5 -0.482113 -4.704160 2.234720 0.000000 -2.835044 0.000000
    6 -0.013948 -2.720513 1.100493 -0.261799 0.000000 0.000000
    7 -0.013949 -4.784637 0.953041 0.000000 0.000000 0.000000
    8 0.013504 -3.609847 2.576681 0.000000 0.000000 0.000000
    9 -0.061524 -0.623888 2.571739 0.000000 0.000000 0.000000
    10 -0.640636 -3.730933 1.422005 -1.570796 0.000000 -1.570796
    11 -0.339367 -3.110133 -8.176842 1.112484 2.086520 1.553969
    12 0.096946 -8.450419 -0.009363 0.022642 -0.623364 0.385037
    13 -0.586769 -1.264477 0.200164 -0.150978 -0.261960 -2.348876
    14 1.522835 0.058680 0.016850 0.407974 0.041125 0.323270
    15 1.117947 0.048424 -0.005765 0.209853 -0.001522 -0.115412
    16 -0.963867 -2.785143 -0.085346 -0.991575 0.384655 0.005354
    17 0.028478 -1.403067 0.006272 -1.138366 -0.049204 -0.002683
    18 0.021412 -0.957782 0.020047 -0.469066 -0.033045 -0.015228
    19 -0.249534 -2.846963 -0.174215 -0.833400 0.272817 0.172600
    20 0.043235 -1.683940 0.096015 -1.470641 0.000001 0.000000
    21 0.031729 -1.160830 0.058836 -0.875961 0.000000 0.000000
    22 0.447951 -2.798983 -0.200441 -1.034777 0.344592 0.302295
    23 -0.032909 -1.480207 0.004935 -1.539428 0.000000 0.000000
    24 -0.027023 -1.076921 -0.020212 -0.358738 0.000000 0.000000
    25 1.164474 -2.543939 -0.170327 -1.126130 0.241153 0.235942
    26 0.024033 -1.129040 0.017807 -1.349622 0.000000 -0.000001
    27 0.014896 -0.883992 -0.019846 -0.511010 0.000000 0.000000
    28 -0.064620 -0.124786 0.029284 0.384017 0.052253 1.458040
    29 0.583509 -1.197274 0.185379 0.377232 -0.745798 -1.043320
    30 1.535926 0.010247 0.005009 -0.290357 -0.063207 -0.837499
    31 1.100770 0.004528 -0.010675 0.000000 0.000000 -0.577704
    32 0.957766 -2.746777 -0.090301 -0.201716 0.016530 0.045802
    33 -0.033419 -1.397128 -0.011255 -0.763584 0.000000 0.000000
    34 -0.022361 -0.957433 0.018783 -0.593413 0.000000 0.000000
    35 0.250029 -2.820664 -0.238396 -0.872208 -0.049326 -0.238818
    36 -0.049759 -1.680544 0.100479 -1.454738 0.000000 0.000000
    37 -0.034141 -1.148311 0.084779 -1.567306 0.000000 0.000000
    38 -0.488517 -2.755600 -0.228261 -1.098181 -0.096000 -0.264903
    39 0.039889 -1.479791 0.029854 -1.354100 0.000000 0.000000
    40 0.028785 -1.075733 -0.023110 -1.435200 0.000000 0.000000
    41 -1.180679 -2.507216 -0.193861 -1.163678 -0.049451 -0.281014
    42 -0.024967 -1.123934 0.017595 -0.883852 0.000000 0.000000
    43 -0.020058 -0.890965 0.010091 -1.435318 0.000000 0.000000
    44 0.120180 -0.051600 -0.063059 0.012085 -2.987703 1.512552
end
