// Created by Crowbar 0.34.0.0

$ModelName "weapons/tfa_cso/w_m82_v8.mdl"

$BodyGroup "studio"
{
	studio "v_m82_v_ref"
}

$collisionmodel "v_m82_v_ref.smd"
{
	$mass 9
}

$CDMaterials "models\weapons\tfa_cso\m82_v8"

$attachment "0" "root" -0.10 -21.60 -0.30 rotate -0 0 0

$Sequence "idle" {
	"anims\idle.smd"
	fps 30
}