// Created by Crowbar 0.49.0.0

$modelname "weapons/tfa_cso/c_kriss.mdl"

$Include "csonline_gmod.qci"

$bodygroup "weapon"
{
	studio "v_kriss_v_ref"
}

$CDMaterials "models\weapons\tfa_cso\kriss"

$attachment 0 "Kriss_root" -3.8 18.108999 0
//$attachment 1 "Kriss_root" -2 7.664 0.74
//$attachment 2 "Kriss_root" -2.2 12.5 0

$definebone "Bone_Root" "" 0.000000 0.000000 0.000000 0.000000 0.000000 0.000000 0.000000 0.000000 0.000000 -0.000000 0.000000 0.000000
$definebone "Bone01" "Bone_Root" 0.497702 0.002174 -0.149878 -0.012834 -89.771431 179.847612 -0.000000 0.000000 0.000000 0.000000 0.000000 -0.000000
$definebone "Bone_Lefthand" "Bone01" -0.071918 -8.498730 -0.104137 16.477755 0.853593 -1.435030 0.000000 0.000001 -0.000000 0.000005 0.000000 -0.000000
$definebone "Kriss_root" "Bone_Lefthand" 5.871392 8.743834 6.519175 -58.299777 -177.707509 86.652473 0.000000 0.000000 0.000000 0.000000 -0.000003 -0.000000
$definebone "magazine" "Kriss_root" -0.795049 6.628532 0.000002 0.000000 -2.728026 0.000057 0.000000 0.000000 0.000000 0.000000 -0.000003 -0.000000
$definebone "load01" "Kriss_root" -1.846357 7.578958 0.739989 -0.000057 105.179942 0.000000 0.000000 0.000000 0.000000 0.000000 0.000003 0.000000
$definebone "silencer" "Kriss_root" -1.762573 10.567570 -0.008215 0.000000 105.179942 0.000000 0.000000 0.000000 0.000000 0.000000 0.000003 0.000000
$definebone "trigger" "Kriss_root" 0.082600 1.146645 -0.000000 0.000000 3.628939 -0.000000 0.000000 0.000000 0.000000 0.000000 -0.000003 -0.000000

$sequence "idle_sil" {
	"v_kriss_anims\idle_sil"
	fps 16
	activity "ACT_VM_IDLE_SILENCED" 1
	snap
	loop
}
$sequence "shoot1_sil" {
	"v_kriss_anims\shoot1_sil"
	{ event 5001 0 "13" }
	fps 30
	activity "ACT_VM_PRIMARYATTACK_SILENCED" 1
	snap
}
$sequence "shoot2_sil" {
	"v_kriss_anims\shoot2_sil"
	{ event 5001 0 "13" }
	fps 30
	activity "ACT_VM_PRIMARYATTACK_SILENCED" 2
	snap
}
$sequence "shoot3_sil" {
	"v_kriss_anims\shoot3_sil"
	{ event 5001 0 "13" }
	fps 30
	activity "ACT_VM_PRIMARYATTACK_SILENCED" 3
	snap
}
$sequence "reload_sil" {
	"v_kriss_anims\reload_sil"
	{ event 5004 15 "Kriss.Foley1" }
	{ event 5004 30 "Kriss.ClipOut" }
	{ event 5004 44 "Kriss.ClipIn" }
	{ event 5004 69 "Kriss.ClipOn" }
	{ event 5004 87 "Kriss.Draw" }
	fps 30
	activity "ACT_VM_RELOAD_SILENCED" 1
	snap
}
$sequence "draw_sil" {
	"v_kriss_anims\draw_sil"
	{ event 5004 18 "Kriss.Draw" }
	fps 30
	activity "ACT_VM_DRAW_SILENCED" 1
	snap
}
$sequence "silencer_add" {
	"v_kriss_anims\silencer_add"
	{ event 5004 35 "Kriss.Foley2" }
	fps 30
	activity "ACT_VM_ATTACH_SILENCER" 1
	snap
}
$sequence "idle" {
	"v_kriss_anims\idle"
	fps 16
	loop
	activity "ACT_VM_IDLE" 1
	snap
}
$sequence "shoot1" {
	"v_kriss_anims\shoot1"
	{ event 5021 0 "22" }
	fps 30
	activity "ACT_VM_PRIMARYATTACK" 1
	snap
}
$sequence "shoot2" {
	"v_kriss_anims\shoot2"
	{ event 5021 0 "22" }
	fps 30
	activity "ACT_VM_PRIMARYATTACK" 2
	snap
}
$sequence "shoot3" {
	"v_kriss_anims\shoot3"
	{ event 5021 0 "22" }
	fps 30
	activity "ACT_VM_PRIMARYATTACK" 3
	snap
}
$sequence "reload" {
	"v_kriss_anims\reload"
	{ event 5004 15 "Kriss.Foley1" }
	{ event 5004 30 "Kriss.ClipOut" }
	{ event 5004 44 "Kriss.ClipIn" }
	{ event 5004 69 "Kriss.ClipOn" }
	{ event 5004 87 "Kriss.Draw" }
	fps 30
	activity "ACT_VM_RELOAD" 1
	snap
}
$sequence "draw" {
	"v_kriss_anims\draw"
	{ event 5004 18 "Kriss.Draw" }
	fps 30
	activity "ACT_VM_DRAW" 1
	snap
}
$sequence "silencer_detach" {
	"v_kriss_anims\silencer_detach"
	{ event 5004 12 "Kriss.Foley2" }
	fps 30
	activity "ACT_VM_DETACH_SILENCER" 1
	snap
}
