version 1
nodes
  0 "Bone01" -1
  1 "Bone_Lefthand" 0
  2 "Dao_bomb_root" 1
  3 "Dao_bomb_right" 2
  4 "Dao_bomb_right2" 3
  5 "Dao_bomb_right1" 3
  6 "Dao_bomb_left" 2
  7 "Dao_bomb_left2" 6
  8 "Dao_bomb_left1" 6
  9 "Dao_bomb_center" 2
  10 "Dao_bomb_rightEYE" 9
  11 "Dao_bomb_leftEYE" 9
  12 "Bone04" -1
  13 "Bone_Righthand" 12
  14 "Bone39" 13
  15 "Bone40" 14
  16 "Bone41" 15
  17 "Bone35" 13
  18 "Bone36" 17
  19 "Bone37" 18
  20 "Bone31" 13
  21 "Bone32" 20
  22 "Bone33" 21
  23 "Bone43" 13
  24 "Bone44" 23
  25 "Bone45" 24
  26 "Bone27" 13
  27 "Bone28" 26
  28 "Bone29" 27
  29 "Bone_Se_Hand-R" 13
  30 "Bone13" 1
  31 "Bone14" 30
  32 "Bone15" 31
  33 "Bone17" 1
  34 "Bone18" 33
  35 "Bone19" 34
  36 "Bone21" 1
  37 "Bone22" 36
  38 "Bone23" 37
  39 "Bone09" 1
  40 "Bone10" 39
  41 "Bone11" 40
  42 "Bone05" 1
  43 "Bone06" 42
  44 "Bone07" 43
  45 "Bone_Se_Hand-L" 1
end
skeleton
  time 0
    0 0.497702 0.002174 -11.414404 3.138933 -0.000224 -1.566807
    1 -0.071919 -8.498732 -0.104136 -0.025046 0.287591 0.014898
    2 4.452675 9.307381 -14.087191 -1.283226 0.030688 -1.580509
    3 -1.523948 -1.229219 2.670131 0.000000 0.000000 0.000000
    4 -0.409590 0.426907 -0.120398 0.000000 0.000000 0.000000
    5 0.398091 -0.636501 -0.179404 0.000000 0.000000 0.000000
    6 1.386996 -1.224607 2.670132 0.000000 0.000000 0.000000
    7 0.417872 0.422296 -0.120397 0.000000 0.000000 0.000000
    8 -0.319011 -0.641112 -0.179403 0.000000 0.000000 0.000000
    9 -0.085175 0.232386 2.858432 0.000000 0.000000 0.000000
    10 -0.658988 0.000000 0.000000 0.000000 0.000000 0.000000
    11 0.646029 0.000000 -0.000001 0.000000 0.000000 0.000000
    12 -0.496544 0.082236 -0.060314 0.004985 -3.131565 -1.566847
    13 0.096944 -8.450419 -0.009364 -0.032965 -0.297907 -0.004663
    14 0.447952 -2.798982 -0.200442 0.106456 -0.010397 0.265094
    15 -0.032910 -1.480206 0.004936 -0.055403 0.000000 0.000002
    16 -0.027022 -1.076919 -0.020212 0.002094 0.000000 0.000000
    17 -0.249534 -2.846962 -0.174215 0.041903 -0.000125 -0.008396
    18 0.043235 -1.683939 0.096014 0.019757 0.002823 -0.000167
    19 0.031729 -1.160831 0.058836 -0.040181 0.000642 0.008372
    20 -0.963866 -2.785142 -0.085346 -0.017227 0.162276 -0.191556
    21 0.028479 -1.403068 0.006271 0.013941 0.000000 0.000000
    22 0.021413 -0.957782 0.020047 0.003851 0.000000 0.000000
    23 1.164474 -2.543938 -0.170328 0.083003 -0.013294 0.477915
    24 0.024032 -1.129043 0.017806 -0.018074 0.000000 0.000001
    25 0.014896 -0.883989 -0.019845 -0.060801 0.000000 0.000000
    26 -0.586770 -1.264475 0.200164 -0.152092 -0.410513 -2.814816
    27 1.522835 0.058681 0.016850 0.001410 0.008985 -0.046880
    28 1.117948 0.048424 -0.005764 -0.000243 -0.025198 0.065422
    29 -0.139399 -0.111697 0.014397 0.285382 -0.030687 1.580508
    30 -0.488517 -2.755600 -0.228261 0.106454 0.010332 -0.264490
    31 0.039888 -1.479789 0.029853 -0.055395 0.000000 0.000000
    32 0.028785 -1.075730 -0.023111 0.002099 0.000000 0.000000
    33 0.250028 -2.820663 -0.238396 0.041826 -0.002921 0.008443
    34 -0.049759 -1.680545 0.100480 0.019826 0.000000 -0.000002
    35 -0.034141 -1.148312 0.084779 -0.040115 0.000000 0.000000
    36 0.957766 -2.746776 -0.090301 -0.017221 -0.162277 0.191558
    37 -0.033419 -1.397129 -0.011255 0.013931 0.000000 -0.000001
    38 -0.022361 -0.957434 0.018783 0.003845 0.000000 0.000000
    39 -1.180680 -2.507215 -0.193861 0.082999 0.013293 -0.477915
    40 -0.024966 -1.123934 0.017594 -0.018065 0.000000 0.000001
    41 -0.020057 -0.890966 0.010091 -0.060797 0.000000 0.000000
    42 0.583510 -1.197274 0.185377 0.158049 -0.404973 -0.364290
    43 1.535926 0.010245 0.005008 -0.002964 -0.012979 0.000887
    44 1.100770 0.004526 -0.010676 -0.002796 0.015973 0.003458
    45 0.120152 -0.050266 -0.054488 0.287568 3.110905 1.561085
end
triangles
dao-bomb.bmp
  2 -2.147203 0.009985 5.351769 -0.601509 0.063139 0.796367 0.380392 0.948207
  2 -1.967202 -0.980014 5.171768 -0.599789 -0.296919 0.743029 0.435294 0.888446
  2 -1.297203 -0.110014 5.761768 -0.333616 0.004756 0.942697 0.486275 1.000000
dao-bomb.bmp
  2 -1.297203 -0.110014 5.761768 -0.333616 0.004756 0.942697 0.486275 1.000000
  2 -1.967202 -0.980014 5.171768 -0.599789 -0.296919 0.743029 0.435294 0.888446
  2 -1.217202 -0.750013 5.661768 -0.344233 -0.230670 0.910107 0.501961 0.956175
dao-bomb.bmp
  2 -1.967202 -0.980014 5.171768 -0.599789 -0.296919 0.743029 0.435294 0.888446
  2 -1.687201 -1.720014 5.041767 -0.532729 -0.565865 0.629283 0.482353 0.848606
  2 -1.217202 -0.750013 5.661768 -0.344233 -0.230670 0.910107 0.501961 0.956175
dao-bomb.bmp
  2 -1.217202 -0.750013 5.661768 -0.344233 -0.230670 0.910107 0.501961 0.956175
  2 -1.687201 -1.720014 5.041767 -0.532729 -0.565865 0.629283 0.482353 0.848606
  2 -0.707201 -1.470013 5.611767 -0.212066 -0.428757 0.878177 0.556863 0.912351
dao-bomb.bmp
  2 -1.687201 -1.720014 5.041767 -0.532729 -0.565865 0.629283 0.482353 0.848606
  2 -1.037201 -2.260013 4.831766 -0.301297 -0.780277 0.548077 0.537255 0.820717
  2 -0.707201 -1.470013 5.611767 -0.212066 -0.428757 0.878177 0.556863 0.912351
dao-bomb.bmp
  2 -0.707201 -1.470013 5.611767 -0.212066 -0.428757 0.878177 0.556863 0.912351
  2 -1.037201 -2.260013 4.831766 -0.301297 -0.780277 0.548077 0.537255 0.820717
  2 0.002799 -1.690012 5.581766 0.000000 -0.527511 0.849548 0.611765 0.900398
dao-bomb.bmp
  2 -1.037201 -2.260013 4.831766 -0.301297 -0.780277 0.548077 0.537255 0.820717
  2 0.002800 -2.470011 4.801765 0.000001 -0.836529 0.547922 0.615686 0.812749
  2 0.002799 -1.690012 5.581766 0.000000 -0.527511 0.849548 0.611765 0.900398
dao-bomb.bmp
  2 0.002799 -1.690012 5.581766 0.000000 -0.527511 0.849548 0.611765 0.900398
  2 0.002800 -2.470011 4.801765 0.000001 -0.836529 0.547922 0.615686 0.812749
  2 1.032799 -2.260010 4.831764 0.289418 -0.780498 0.554130 0.694118 0.816733
dao-bomb.bmp
  2 0.002800 -2.470011 4.801765 0.000001 -0.836529 0.547922 0.615686 0.812749
  2 0.002799 -2.720011 4.231765 0.000000 -0.950009 0.312224 0.619608 0.756972
  2 1.032799 -2.260010 4.831764 0.289418 -0.780498 0.554130 0.694118 0.816733
dao-bomb.bmp
  2 1.032799 -2.260010 4.831764 0.289418 -0.780498 0.554130 0.694118 0.816733
  2 0.002799 -2.720011 4.231765 0.000000 -0.950009 0.312224 0.619608 0.756972
  2 1.162799 -2.480009 4.251764 0.359464 -0.875948 0.321715 0.705882 0.764940
dao-bomb.bmp
  2 0.002799 -2.720011 4.231765 0.000000 -0.950009 0.312224 0.619608 0.756972
  2 0.002799 -2.830010 3.751765 0.000211 -0.991781 0.127949 0.623529 0.717131
  2 1.162799 -2.480009 4.251764 0.359464 -0.875948 0.321715 0.705882 0.764940
dao-bomb.bmp
  2 1.162799 -2.480009 4.251764 0.359464 -0.875948 0.321715 0.705882 0.764940
  2 0.002799 -2.830010 3.751765 0.000211 -0.991781 0.127949 0.623529 0.717131
  9 0.617624 -2.718441 3.794150 0.188425 -0.965727 0.178516 0.670588 0.721116
dao-bomb.bmp
  2 0.002799 -2.830010 3.751765 0.000211 -0.991781 0.127949 0.623529 0.717131
  11 0.423653 -2.768441 3.624151 0.187993 -0.981625 0.032725 0.658824 0.709163
  9 0.617624 -2.718441 3.794150 0.188425 -0.965727 0.178516 0.670588 0.721116
dao-bomb.bmp
  9 0.617624 -2.718441 3.794150 0.188425 -0.965727 0.178516 0.670588 0.721116
  11 0.423653 -2.768441 3.624151 0.187993 -0.981625 0.032725 0.658824 0.709163
  2 1.272799 -2.590008 3.671764 0.392494 -0.915528 0.088076 0.721569 0.713147
dao-bomb.bmp
  11 0.423653 -2.768441 3.624151 0.187993 -0.981625 0.032725 0.658824 0.709163
  2 0.002798 -2.830010 3.171765 -0.000618 -0.999417 -0.034143 0.627451 0.669323
  2 1.272799 -2.590008 3.671764 0.392494 -0.915528 0.088076 0.721569 0.713147
dao-bomb.bmp
  2 1.272799 -2.590008 3.671764 0.392494 -0.915528 0.088076 0.721569 0.713147
  2 0.002798 -2.830010 3.171765 -0.000618 -0.999417 -0.034143 0.627451 0.669323
  2 0.002798 -2.790009 2.301765 -0.000282 -0.922318 -0.386431 0.635294 0.597610
dao-bomb.bmp
  2 0.002798 -2.830010 3.171765 -0.000618 -0.999417 -0.034143 0.627451 0.669323
  2 -0.647203 -2.660010 2.291766 -0.215719 -0.900935 -0.376539 0.588235 0.593625
  2 0.002798 -2.790009 2.301765 -0.000282 -0.922318 -0.386431 0.635294 0.597610
dao-bomb.bmp
  2 0.002798 -2.790009 2.301765 -0.000282 -0.922318 -0.386431 0.635294 0.597610
  2 -0.647203 -2.660010 2.291766 -0.215719 -0.900935 -0.376539 0.588235 0.593625
  2 0.002797 -2.350009 1.881765 0.011226 -0.639126 -0.769020 0.639216 0.549801
dao-bomb.bmp
  2 -0.647203 -2.660010 2.291766 -0.215719 -0.900935 -0.376539 0.588235 0.593625
  2 -0.577203 -2.360009 1.961766 -0.084780 -0.640923 -0.762909 0.592157 0.561753
  2 0.002797 -2.350009 1.881765 0.011226 -0.639126 -0.769020 0.639216 0.549801
dao-bomb.bmp
  2 0.002797 -2.350009 1.881765 0.011226 -0.639126 -0.769020 0.639216 0.549801
  2 -0.577203 -2.360009 1.961766 -0.084780 -0.640923 -0.762909 0.592157 0.561753
  5 -0.783061 -1.850737 1.656046 -0.132216 -0.328591 -0.935172 0.584314 0.517928
dao-bomb.bmp
  2 -0.577203 -2.360009 1.961766 -0.084780 -0.640923 -0.762909 0.592157 0.561753
  5 -0.843060 -2.380737 1.976046 -0.171482 -0.670223 -0.722077 0.576471 0.565737
  5 -0.783061 -1.850737 1.656046 -0.132216 -0.328591 -0.935172 0.584314 0.517928
dao-bomb.bmp
  5 -0.783061 -1.850737 1.656046 -0.132216 -0.328591 -0.935172 0.584314 0.517928
  5 -0.843060 -2.380737 1.976046 -0.171482 -0.670223 -0.722077 0.576471 0.565737
  3 -1.191152 -1.940141 1.742548 -0.338737 -0.403010 -0.850200 0.556863 0.529880
dao-bomb.bmp
  5 -0.843060 -2.380737 1.976046 -0.171482 -0.670223 -0.722077 0.576471 0.565737
  3 -1.301151 -2.370142 2.162548 -0.439068 -0.708222 -0.552848 0.549020 0.585657
  3 -1.191152 -1.940141 1.742548 -0.338737 -0.403010 -0.850200 0.556863 0.529880
dao-bomb.bmp
  3 -1.191152 -1.940141 1.742548 -0.338737 -0.403010 -0.850200 0.556863 0.529880
  3 -1.301151 -2.370142 2.162548 -0.439068 -0.708222 -0.552848 0.549020 0.585657
  3 -1.891151 -1.970143 2.422548 -0.673960 -0.537868 -0.506434 0.498039 0.593625
dao-bomb.bmp
  3 -1.301151 -2.370142 2.162548 -0.439068 -0.708222 -0.552848 0.549020 0.585657
  3 -1.751151 -2.270143 2.592548 -0.620177 -0.729730 -0.287880 0.513725 0.613546
  3 -1.891151 -1.970143 2.422548 -0.673960 -0.537868 -0.506434 0.498039 0.593625
dao-bomb.bmp
  3 -1.891151 -1.970143 2.422548 -0.673960 -0.537868 -0.506434 0.498039 0.593625
  3 -1.751151 -2.270143 2.592548 -0.620177 -0.729730 -0.287880 0.513725 0.613546
  4 -2.230741 -1.709745 2.759456 -0.839000 -0.506792 -0.198096 0.470588 0.617530
dao-bomb.bmp
  3 -1.751151 -2.270143 2.592548 -0.620177 -0.729730 -0.287880 0.513725 0.613546
  4 -1.860741 -2.229745 2.859455 -0.667258 -0.737738 -0.102516 0.501961 0.633466
  4 -2.230741 -1.709745 2.759456 -0.839000 -0.506792 -0.198096 0.470588 0.617530
dao-bomb.bmp
  4 -2.230741 -1.709745 2.759456 -0.839000 -0.506792 -0.198096 0.470588 0.617530
  4 -1.860741 -2.229745 2.859455 -0.667258 -0.737738 -0.102516 0.501961 0.633466
  2 -2.157202 -1.970013 3.861768 -0.739857 -0.650465 0.171775 0.462745 0.729084
dao-bomb.bmp
  4 -1.860741 -2.229745 2.859455 -0.667258 -0.737738 -0.102516 0.501961 0.633466
  2 -1.277201 -2.590012 3.681766 -0.380996 -0.918816 0.103051 0.529412 0.713147
  2 -2.157202 -1.970013 3.861768 -0.739857 -0.650465 0.171775 0.462745 0.729084
dao-bomb.bmp
  2 -2.157202 -1.970013 3.861768 -0.739857 -0.650465 0.171775 0.462745 0.729084
  2 -1.277201 -2.590012 3.681766 -0.380996 -0.918816 0.103051 0.529412 0.713147
  2 -1.167201 -2.480012 4.251766 -0.366603 -0.869134 0.331976 0.537255 0.764940
dao-bomb.bmp
  2 -1.277201 -2.590012 3.681766 -0.380996 -0.918816 0.103051 0.529412 0.713147
  9 -0.622376 -2.718443 3.794152 -0.186388 -0.965398 0.182393 0.576471 0.721116
  2 -1.167201 -2.480012 4.251766 -0.366603 -0.869134 0.331976 0.537255 0.764940
dao-bomb.bmp
  2 -1.167201 -2.480012 4.251766 -0.366603 -0.869134 0.331976 0.537255 0.764940
  9 -0.622376 -2.718443 3.794152 -0.186388 -0.965398 0.182393 0.576471 0.721116
  2 0.002799 -2.830010 3.751765 0.000211 -0.991781 0.127949 0.623529 0.717131
dao-bomb.bmp
  9 -0.622376 -2.718443 3.794152 -0.186388 -0.965398 0.182393 0.576471 0.721116
  10 -0.431364 -2.768443 3.634151 -0.187794 -0.981624 0.033873 0.592157 0.705179
  2 0.002799 -2.830010 3.751765 0.000211 -0.991781 0.127949 0.623529 0.717131
dao-bomb.bmp
  2 0.002799 -2.830010 3.751765 0.000211 -0.991781 0.127949 0.623529 0.717131
  10 -0.431364 -2.768443 3.634151 -0.187794 -0.981624 0.033873 0.592157 0.705179
  2 0.002798 -2.830010 3.171765 -0.000618 -0.999417 -0.034143 0.627451 0.669323
dao-bomb.bmp
  10 -0.431364 -2.768443 3.634151 -0.187794 -0.981624 0.033873 0.592157 0.705179
  2 -1.277201 -2.590012 3.681766 -0.380996 -0.918816 0.103051 0.529412 0.713147
  2 0.002798 -2.830010 3.171765 -0.000618 -0.999417 -0.034143 0.627451 0.669323
dao-bomb.bmp
  2 0.002798 -2.830010 3.171765 -0.000618 -0.999417 -0.034143 0.627451 0.669323
  2 -1.277201 -2.590012 3.681766 -0.380996 -0.918816 0.103051 0.529412 0.713147
  2 -0.647203 -2.660010 2.291766 -0.215719 -0.900935 -0.376539 0.588235 0.593625
dao-bomb.bmp
  2 -1.277201 -2.590012 3.681766 -0.380996 -0.918816 0.103051 0.529412 0.713147
  2 -1.297202 -2.550011 2.961766 -0.357319 -0.931171 -0.072414 0.537255 0.645418
  2 -0.647203 -2.660010 2.291766 -0.215719 -0.900935 -0.376539 0.588235 0.593625
dao-bomb.bmp
  2 -0.647203 -2.660010 2.291766 -0.215719 -0.900935 -0.376539 0.588235 0.593625
  2 -1.297202 -2.550011 2.961766 -0.357319 -0.931171 -0.072414 0.537255 0.645418
  4 -1.050741 -2.469743 2.209454 -0.284909 -0.862298 -0.418652 0.564706 0.585657
dao-bomb.bmp
  2 -1.297202 -2.550011 2.961766 -0.357319 -0.931171 -0.072414 0.537255 0.645418
  4 -1.340741 -2.499744 2.519454 -0.306870 -0.928209 -0.210376 0.541176 0.613546
  4 -1.050741 -2.469743 2.209454 -0.284909 -0.862298 -0.418652 0.564706 0.585657
dao-bomb.bmp
  4 -1.050741 -2.469743 2.209454 -0.284909 -0.862298 -0.418652 0.564706 0.585657
  4 -1.340741 -2.499744 2.519454 -0.306870 -0.928209 -0.210376 0.541176 0.613546
  3 -1.301151 -2.370142 2.162548 -0.439068 -0.708222 -0.552848 0.549020 0.585657
dao-bomb.bmp
  4 -1.340741 -2.499744 2.519454 -0.306870 -0.928209 -0.210376 0.541176 0.613546
  3 -1.751151 -2.270143 2.592548 -0.620177 -0.729730 -0.287880 0.513725 0.613546
  3 -1.301151 -2.370142 2.162548 -0.439068 -0.708222 -0.552848 0.549020 0.585657
dao-bomb.bmp
  2 1.922793 0.219994 1.871766 0.596470 0.225927 -0.770182 0.850980 0.442231
  2 1.922794 -0.580006 1.801765 0.588672 -0.067534 -0.805546 0.815686 0.486056
  2 1.012792 0.209993 1.431766 0.396304 0.217639 -0.891951 0.741176 0.362550
dao-bomb.bmp
  2 1.012792 0.209993 1.431766 0.396304 0.217639 -0.891951 0.741176 0.362550
  2 1.922794 -0.580006 1.801765 0.588672 -0.067534 -0.805546 0.815686 0.486056
  2 0.882793 -0.240007 1.411766 0.281921 -0.109346 -0.953186 0.725490 0.410359
dao-bomb.bmp
  2 1.922794 -0.580006 1.801765 0.588672 -0.067534 -0.805546 0.815686 0.486056
  2 1.542795 -1.250006 1.731765 0.436436 -0.236590 -0.868072 0.764706 0.505976
  2 0.882793 -0.240007 1.411766 0.281921 -0.109346 -0.953186 0.725490 0.410359
dao-bomb.bmp
  2 0.882793 -0.240007 1.411766 0.281921 -0.109346 -0.953186 0.725490 0.410359
  2 1.542795 -1.250006 1.731765 0.436436 -0.236590 -0.868072 0.764706 0.505976
  2 0.442794 -0.690008 1.411766 0.156617 -0.181227 -0.970890 0.682353 0.430279
dao-bomb.bmp
  2 1.542795 -1.250006 1.731765 0.436436 -0.236590 -0.868072 0.764706 0.505976
  8 0.780781 -1.850736 1.656046 0.178986 -0.367441 -0.912661 0.698039 0.517928
  2 0.442794 -0.690008 1.411766 0.156617 -0.181227 -0.970890 0.682353 0.430279
dao-bomb.bmp
  2 0.442794 -0.690008 1.411766 0.156617 -0.181227 -0.970890 0.682353 0.430279
  8 0.780781 -1.850736 1.656046 0.178986 -0.367441 -0.912661 0.698039 0.517928
  2 0.002796 -1.990008 1.611766 0.000025 -0.415864 -0.909427 0.639216 0.517928
dao-bomb.bmp
  8 0.780781 -1.850736 1.656046 0.178986 -0.367441 -0.912661 0.698039 0.517928
  2 0.582797 -2.340008 1.981765 0.137024 -0.631603 -0.763087 0.678431 0.561753
  2 0.002796 -1.990008 1.611766 0.000025 -0.415864 -0.909427 0.639216 0.517928
dao-bomb.bmp
  2 0.002796 -1.990008 1.611766 0.000025 -0.415864 -0.909427 0.639216 0.517928
  2 0.582797 -2.340008 1.981765 0.137024 -0.631603 -0.763087 0.678431 0.561753
  2 0.002797 -2.350009 1.881765 0.011226 -0.639126 -0.769020 0.639216 0.549801
dao-bomb.bmp
  2 0.582797 -2.340008 1.981765 0.137024 -0.631603 -0.763087 0.678431 0.561753
  2 0.642797 -2.660008 2.291764 0.256771 -0.875476 -0.409403 0.682353 0.593625
  2 0.002797 -2.350009 1.881765 0.011226 -0.639126 -0.769020 0.639216 0.549801
dao-bomb.bmp
  2 0.002797 -2.350009 1.881765 0.011226 -0.639126 -0.769020 0.639216 0.549801
  2 0.642797 -2.660008 2.291764 0.256771 -0.875476 -0.409403 0.682353 0.593625
  2 0.002798 -2.790009 2.301765 -0.000282 -0.922318 -0.386431 0.635294 0.597610
dao-bomb.bmp
  2 0.642797 -2.660008 2.291764 0.256771 -0.875476 -0.409403 0.682353 0.593625
  2 1.292798 -2.550008 2.951764 0.413409 -0.903258 -0.114970 0.725490 0.649402
  2 0.002798 -2.790009 2.301765 -0.000282 -0.922318 -0.386431 0.635294 0.597610
dao-bomb.bmp
  2 0.002798 -2.790009 2.301765 -0.000282 -0.922318 -0.386431 0.635294 0.597610
  2 1.292798 -2.550008 2.951764 0.413409 -0.903258 -0.114970 0.725490 0.649402
  2 1.272799 -2.590008 3.671764 0.392494 -0.915528 0.088076 0.721569 0.713147
dao-bomb.bmp
  2 1.292798 -2.550008 2.951764 0.413409 -0.903258 -0.114970 0.725490 0.649402
  2 2.152798 -1.970007 3.861763 0.734633 -0.658366 0.163916 0.792157 0.733068
  2 1.272799 -2.590008 3.671764 0.392494 -0.915528 0.088076 0.721569 0.713147
dao-bomb.bmp
  2 1.272799 -2.590008 3.671764 0.392494 -0.915528 0.088076 0.721569 0.713147
  2 2.152798 -1.970007 3.861763 0.734633 -0.658366 0.163916 0.792157 0.733068
  2 1.162799 -2.480009 4.251764 0.359464 -0.875948 0.321715 0.705882 0.764940
dao-bomb.bmp
  2 2.152798 -1.970007 3.861763 0.734633 -0.658366 0.163916 0.792157 0.733068
  2 1.692799 -1.720009 5.041764 0.533685 -0.560793 0.633002 0.752941 0.844622
  2 1.162799 -2.480009 4.251764 0.359464 -0.875948 0.321715 0.705882 0.764940
dao-bomb.bmp
  2 1.162799 -2.480009 4.251764 0.359464 -0.875948 0.321715 0.705882 0.764940
  2 1.692799 -1.720009 5.041764 0.533685 -0.560793 0.633002 0.752941 0.844622
  2 1.032799 -2.260010 4.831764 0.289418 -0.780498 0.554130 0.694118 0.816733
dao-bomb.bmp
  2 1.692799 -1.720009 5.041764 0.533685 -0.560793 0.633002 0.752941 0.844622
  2 0.702799 -1.470011 5.611765 0.212067 -0.428757 0.878177 0.670588 0.904382
  2 1.032799 -2.260010 4.831764 0.289418 -0.780498 0.554130 0.694118 0.816733
dao-bomb.bmp
  2 1.032799 -2.260010 4.831764 0.289418 -0.780498 0.554130 0.694118 0.816733
  2 0.702799 -1.470011 5.611765 0.212067 -0.428757 0.878177 0.670588 0.904382
  2 0.002799 -1.690012 5.581766 0.000000 -0.527511 0.849548 0.611765 0.900398
dao-bomb.bmp
  2 0.702799 -1.470011 5.611765 0.212067 -0.428757 0.878177 0.670588 0.904382
  2 0.002798 -0.370012 5.961767 0.000000 -0.088311 0.996093 0.627451 1.000000
  2 0.002799 -1.690012 5.581766 0.000000 -0.527511 0.849548 0.611765 0.900398
dao-bomb.bmp
  2 0.002799 -1.690012 5.581766 0.000000 -0.527511 0.849548 0.611765 0.900398
  2 0.002798 -0.370012 5.961767 0.000000 -0.088311 0.996093 0.627451 1.000000
  2 -0.707201 -1.470013 5.611767 -0.212066 -0.428757 0.878177 0.556863 0.912351
dao-bomb.bmp
  2 0.002798 -0.370012 5.961767 0.000000 -0.088311 0.996093 0.627451 1.000000
  2 -1.217202 -0.750013 5.661768 -0.344233 -0.230670 0.910107 0.501961 0.956175
  2 -0.707201 -1.470013 5.611767 -0.212066 -0.428757 0.878177 0.556863 0.912351
dao-bomb.bmp
  2 3.162796 0.019993 4.781764 0.622693 -0.026176 0.782028 0.019608 0.342629
  2 2.272795 0.739992 4.751766 0.502881 0.613309 0.609067 0.101961 0.334661
  2 2.492796 0.039992 4.991765 0.546480 0.056880 0.835538 0.062745 0.382470
dao-bomb.bmp
  2 2.492796 0.039992 4.991765 0.546480 0.056880 0.835538 0.062745 0.382470
  2 2.272795 0.739992 4.751766 0.502881 0.613309 0.609067 0.101961 0.334661
  2 2.142797 0.009991 5.351765 0.601509 0.063140 0.796367 0.098039 0.422311
dao-bomb.bmp
  2 2.272795 0.739992 4.751766 0.502881 0.613309 0.609067 0.101961 0.334661
  2 1.822796 0.609991 5.321766 0.511873 0.413988 0.752728 0.133333 0.390438
  2 2.142797 0.009991 5.351765 0.601509 0.063140 0.796367 0.098039 0.422311
dao-bomb.bmp
  2 2.142797 0.009991 5.351765 0.601509 0.063140 0.796367 0.098039 0.422311
  2 1.822796 0.609991 5.321766 0.511873 0.413988 0.752728 0.133333 0.390438
  2 1.292797 -0.110010 5.761766 0.333617 0.004756 0.942697 0.168627 0.466135
dao-bomb.bmp
  2 1.822796 0.609991 5.321766 0.511873 0.413988 0.752728 0.133333 0.390438
  2 0.702796 0.489989 5.821767 0.199526 0.279703 0.939125 0.215686 0.438247
  2 1.292797 -0.110010 5.761766 0.333617 0.004756 0.942697 0.168627 0.466135
dao-bomb.bmp
  2 1.292797 -0.110010 5.761766 0.333617 0.004756 0.942697 0.168627 0.466135
  2 0.702796 0.489989 5.821767 0.199526 0.279703 0.939125 0.215686 0.438247
  2 0.002798 -0.370012 5.961767 0.000000 -0.088311 0.996093 0.270588 0.498008
dao-bomb.bmp
  2 0.702796 0.489989 5.821767 0.199526 0.279703 0.939125 0.215686 0.438247
  2 0.002796 0.709988 5.841768 0.000000 0.365427 0.930840 0.266667 0.430279
  2 0.002798 -0.370012 5.961767 0.000000 -0.088311 0.996093 0.270588 0.498008
dao-bomb.bmp
  2 0.002798 -0.370012 5.961767 0.000000 -0.088311 0.996093 0.270588 0.498008
  2 0.002796 0.709988 5.841768 0.000000 0.365427 0.930840 0.266667 0.430279
  2 -0.707204 0.489987 5.821768 -0.199525 0.279703 0.939125 0.317647 0.438247
dao-bomb.bmp
  2 0.002796 0.709988 5.841768 0.000000 0.365427 0.930840 0.266667 0.430279
  2 0.002794 1.619989 5.261769 0.000000 0.733318 0.679886 0.270588 0.362550
  2 -0.707204 0.489987 5.821768 -0.199525 0.279703 0.939125 0.317647 0.438247
dao-bomb.bmp
  2 -0.707204 0.489987 5.821768 -0.199525 0.279703 0.939125 0.317647 0.438247
  2 0.002794 1.619989 5.261769 0.000000 0.733318 0.679886 0.270588 0.362550
  2 -1.197205 1.329987 5.241769 -0.351484 0.643679 0.679806 0.349020 0.370518
dao-bomb.bmp
  2 0.002794 1.619989 5.261769 0.000000 0.733318 0.679886 0.270588 0.362550
  2 0.002792 2.249989 4.161769 0.000000 0.964430 0.264338 0.278431 0.270916
  2 -1.197205 1.329987 5.241769 -0.351484 0.643679 0.679806 0.349020 0.370518
dao-bomb.bmp
  2 -1.197205 1.329987 5.241769 -0.351484 0.643679 0.679806 0.349020 0.370518
  2 0.002792 2.249989 4.161769 0.000000 0.964430 0.264338 0.278431 0.270916
  2 -1.457207 1.909987 4.131770 -0.473808 0.850454 0.228547 0.372549 0.278884
dao-bomb.bmp
  2 0.002792 2.249989 4.161769 0.000000 0.964430 0.264338 0.278431 0.270916
  2 0.002791 2.279990 3.031769 0.000000 0.975965 -0.217926 0.286275 0.191235
  2 -1.457207 1.909987 4.131770 -0.473808 0.850454 0.228547 0.372549 0.278884
dao-bomb.bmp
  2 -1.457207 1.909987 4.131770 -0.473808 0.850454 0.228547 0.372549 0.278884
  2 0.002791 2.279990 3.031769 0.000000 0.975965 -0.217926 0.286275 0.191235
  2 -1.317208 1.939989 2.921770 -0.451268 0.852090 -0.265142 0.372549 0.183267
dao-bomb.bmp
  2 0.002791 2.279990 3.031769 0.000000 0.975965 -0.217926 0.286275 0.191235
  2 0.002791 1.749991 2.061769 -0.000001 0.758495 -0.651679 0.294118 0.111554
  2 -1.317208 1.939989 2.921770 -0.451268 0.852090 -0.265142 0.372549 0.183267
dao-bomb.bmp
  2 -1.317208 1.939989 2.921770 -0.451268 0.852090 -0.265142 0.372549 0.183267
  2 0.002791 1.749991 2.061769 -0.000001 0.758495 -0.651679 0.294118 0.111554
  2 -0.987209 1.549990 2.031770 -0.324591 0.664495 -0.673117 0.356863 0.107570
dao-bomb.bmp
  2 0.002791 1.749991 2.061769 -0.000001 0.758495 -0.651679 0.294118 0.111554
  2 0.002792 0.939992 1.511768 -0.000001 0.533160 -0.846014 0.294118 0.043825
  2 -0.987209 1.549990 2.031770 -0.324591 0.664495 -0.673117 0.356863 0.107570
dao-bomb.bmp
  2 -0.987209 1.549990 2.031770 -0.324591 0.664495 -0.673117 0.356863 0.107570
  2 0.002792 0.939992 1.511768 -0.000001 0.533160 -0.846014 0.294118 0.043825
  2 -0.617208 0.749991 1.501768 -0.273636 0.440910 -0.854823 0.345098 0.039841
dao-bomb.bmp
  2 3.162796 0.019993 4.781764 0.622693 -0.026176 0.782028 0.960784 0.848606
  2 3.132797 -0.610006 4.441764 0.677810 -0.626893 0.384160 0.917647 0.800797
  2 3.432795 0.039994 4.131764 0.996446 0.019470 0.081949 0.984314 0.768924
dao-bomb.bmp
  2 3.432795 0.039994 4.131764 0.996446 0.019470 0.081949 0.984314 0.768924
  2 3.132797 -0.610006 4.441764 0.677810 -0.626893 0.384160 0.917647 0.800797
  2 3.192795 -0.490006 3.511764 0.803200 -0.478686 -0.354582 0.933333 0.701195
dao-bomb.bmp
  2 3.132797 -0.610006 4.441764 0.677810 -0.626893 0.384160 0.917647 0.800797
  2 2.482797 -0.960007 4.581764 0.718940 -0.506458 0.476052 0.858824 0.820717
  2 3.192795 -0.490006 3.511764 0.803200 -0.478686 -0.354582 0.933333 0.701195
dao-bomb.bmp
  2 3.192795 -0.490006 3.511764 0.803200 -0.478686 -0.354582 0.933333 0.701195
  2 2.482797 -0.960007 4.581764 0.718940 -0.506458 0.476052 0.858824 0.820717
  2 2.732796 -0.900006 3.261764 0.880854 -0.415678 -0.226513 0.890196 0.669323
dao-bomb.bmp
  2 2.482797 -0.960007 4.581764 0.718940 -0.506458 0.476052 0.858824 0.820717
  2 2.152798 -1.970007 3.861763 0.734633 -0.658366 0.163916 0.792157 0.733068
  2 2.732796 -0.900006 3.261764 0.880854 -0.415678 -0.226513 0.890196 0.669323
dao-bomb.bmp
  2 2.732796 -0.900006 3.261764 0.880854 -0.415678 -0.226513 0.890196 0.669323
  2 2.152798 -1.970007 3.861763 0.734633 -0.658366 0.163916 0.792157 0.733068
  7 2.197665 -1.829741 2.759453 0.786309 -0.579056 -0.215437 0.796078 0.621514
dao-bomb.bmp
  2 2.152798 -1.970007 3.861763 0.734633 -0.658366 0.163916 0.792157 0.733068
  7 1.887665 -2.119742 2.849453 0.621399 -0.777737 -0.094811 0.772549 0.637450
  7 2.197665 -1.829741 2.759453 0.786309 -0.579056 -0.215437 0.796078 0.621514
dao-bomb.bmp
  7 2.197665 -1.829741 2.759453 0.786309 -0.579056 -0.215437 0.796078 0.621514
  7 1.887665 -2.119742 2.849453 0.621399 -0.777737 -0.094811 0.772549 0.637450
  6 1.739793 -2.180139 2.587157 0.586215 -0.763139 -0.271977 0.760784 0.613546
dao-bomb.bmp
  7 1.887665 -2.119742 2.849453 0.621399 -0.777737 -0.094811 0.772549 0.637450
  7 1.607665 -2.309742 2.719453 0.548221 -0.818336 -0.172568 0.749020 0.625498
  6 1.739793 -2.180139 2.587157 0.586215 -0.763139 -0.271977 0.760784 0.613546
dao-bomb.bmp
  6 1.739793 -2.180139 2.587157 0.586215 -0.763139 -0.271977 0.760784 0.613546
  7 1.607665 -2.309742 2.719453 0.548221 -0.818336 -0.172568 0.749020 0.625498
  7 1.297665 -2.429742 2.489453 0.379165 -0.874498 -0.302469 0.721569 0.617530
dao-bomb.bmp
  7 1.607665 -2.309742 2.719453 0.548221 -0.818336 -0.172568 0.749020 0.625498
  2 1.292798 -2.550008 2.951764 0.413409 -0.903258 -0.114970 0.725490 0.649402
  7 1.297665 -2.429742 2.489453 0.379165 -0.874498 -0.302469 0.721569 0.617530
dao-bomb.bmp
  7 1.297665 -2.429742 2.489453 0.379165 -0.874498 -0.302469 0.721569 0.617530
  2 1.292798 -2.550008 2.951764 0.413409 -0.903258 -0.114970 0.725490 0.649402
  7 1.017665 -2.409742 2.219453 0.358796 -0.814215 -0.456419 0.705882 0.589641
dao-bomb.bmp
  2 1.292798 -2.550008 2.951764 0.413409 -0.903258 -0.114970 0.725490 0.649402
  2 0.642797 -2.660008 2.291764 0.256771 -0.875476 -0.409403 0.682353 0.593625
  7 1.017665 -2.409742 2.219453 0.358796 -0.814215 -0.456419 0.705882 0.589641
dao-bomb.bmp
  7 1.017665 -2.409742 2.219453 0.358796 -0.814215 -0.456419 0.705882 0.589641
  2 0.642797 -2.660008 2.291764 0.256771 -0.875476 -0.409403 0.682353 0.593625
  8 0.840782 -2.350736 2.006045 0.235072 -0.659562 -0.713946 0.694118 0.573705
dao-bomb.bmp
  2 0.642797 -2.660008 2.291764 0.256771 -0.875476 -0.409403 0.682353 0.593625
  2 0.582797 -2.340008 1.981765 0.137024 -0.631603 -0.763087 0.678431 0.561753
  8 0.840782 -2.350736 2.006045 0.235072 -0.659562 -0.713946 0.694118 0.573705
dao-bomb.bmp
  8 0.840782 -2.350736 2.006045 0.235072 -0.659562 -0.713946 0.694118 0.573705
  2 0.582797 -2.340008 1.981765 0.137024 -0.631603 -0.763087 0.678431 0.561753
  8 0.780781 -1.850736 1.656046 0.178986 -0.367441 -0.912661 0.698039 0.517928
dao-bomb.bmp
  2 1.012792 0.209993 1.431766 0.396304 0.217639 -0.891951 0.196078 0.003984
  2 0.612792 0.749993 1.501767 0.273636 0.440910 -0.854822 0.243137 0.035857
  2 1.922793 0.219994 1.871766 0.596470 0.225927 -0.770182 0.105882 0.043825
dao-bomb.bmp
  2 1.922793 0.219994 1.871766 0.596470 0.225927 -0.770182 0.105882 0.043825
  2 0.612792 0.749993 1.501767 0.273636 0.440910 -0.854822 0.243137 0.035857
  2 1.612792 0.809994 1.951766 0.512002 0.434624 -0.740916 0.168627 0.079681
dao-bomb.bmp
  2 0.612792 0.749993 1.501767 0.273636 0.440910 -0.854822 0.243137 0.035857
  2 0.982791 1.549993 2.031768 0.324590 0.664496 -0.673117 0.227451 0.103586
  2 1.612792 0.809994 1.951766 0.512002 0.434624 -0.740916 0.168627 0.079681
dao-bomb.bmp
  2 1.612792 0.809994 1.951766 0.512002 0.434624 -0.740916 0.168627 0.079681
  2 0.982791 1.549993 2.031768 0.324590 0.664496 -0.673117 0.227451 0.103586
  2 2.132793 1.009994 2.651766 0.726728 0.556325 -0.402950 0.125490 0.139442
dao-bomb.bmp
  2 0.982791 1.549993 2.031768 0.324590 0.664496 -0.673117 0.227451 0.103586
  2 1.312792 1.939992 2.921768 0.451268 0.852090 -0.265142 0.200000 0.175299
  2 2.132793 1.009994 2.651766 0.726728 0.556325 -0.402950 0.125490 0.139442
dao-bomb.bmp
  2 2.132793 1.009994 2.651766 0.726728 0.556325 -0.402950 0.125490 0.139442
  2 1.312792 1.939992 2.921768 0.451268 0.852090 -0.265142 0.200000 0.175299
  2 2.352793 1.029993 3.551766 0.674480 0.718500 -0.169805 0.101961 0.219124
dao-bomb.bmp
  2 1.312792 1.939992 2.921768 0.451268 0.852090 -0.265142 0.200000 0.175299
  2 1.452793 1.909991 4.131767 0.473807 0.850454 0.228547 0.184314 0.266932
  2 2.352793 1.029993 3.551766 0.674480 0.718500 -0.169805 0.101961 0.219124
dao-bomb.bmp
  2 2.352793 1.029993 3.551766 0.674480 0.718500 -0.169805 0.101961 0.219124
  2 1.452793 1.909991 4.131767 0.473807 0.850454 0.228547 0.184314 0.266932
  2 2.262794 1.029993 4.221766 0.562608 0.792560 0.235204 0.109804 0.282869
dao-bomb.bmp
  2 1.452793 1.909991 4.131767 0.473807 0.850454 0.228547 0.184314 0.266932
  2 2.272795 0.739992 4.751766 0.502881 0.613309 0.609067 0.101961 0.334661
  2 2.262794 1.029993 4.221766 0.562608 0.792560 0.235204 0.109804 0.282869
dao-bomb.bmp
  2 2.262794 1.029993 4.221766 0.562608 0.792560 0.235204 0.109804 0.282869
  2 2.272795 0.739992 4.751766 0.502881 0.613309 0.609067 0.101961 0.334661
  2 3.142795 0.639994 4.461765 0.645637 0.642199 0.413200 0.047059 0.302789
dao-bomb.bmp
  2 2.272795 0.739992 4.751766 0.502881 0.613309 0.609067 0.101961 0.334661
  2 3.162796 0.019993 4.781764 0.622693 -0.026176 0.782028 0.019608 0.342629
  2 3.142795 0.639994 4.461765 0.645637 0.642199 0.413200 0.047059 0.302789
dao-bomb.bmp
  2 3.142795 0.639994 4.461765 0.645637 0.642199 0.413200 0.047059 0.302789
  2 3.162796 0.019993 4.781764 0.622693 -0.026176 0.782028 0.019608 0.342629
  2 3.432795 0.039994 4.131764 0.996446 0.019470 0.081949 0.000000 0.282869
dao-bomb.bmp
  2 -1.017208 0.209990 1.431768 -0.396304 0.217638 -0.891951 0.392157 0.007968
  2 -1.917207 0.219989 1.871769 -0.596471 0.225926 -0.770182 0.458824 0.047809
  2 -0.617208 0.749991 1.501768 -0.273636 0.440910 -0.854823 0.345098 0.039841
dao-bomb.bmp
  2 -0.617208 0.749991 1.501768 -0.273636 0.440910 -0.854823 0.345098 0.039841
  2 -1.917207 0.219989 1.871769 -0.596471 0.225926 -0.770182 0.458824 0.047809
  2 -1.617208 0.809989 1.951769 -0.512002 0.434624 -0.740916 0.419608 0.087649
dao-bomb.bmp
  2 -1.917207 0.219989 1.871769 -0.596471 0.225926 -0.770182 0.458824 0.047809
  2 -2.547207 0.219987 2.541770 -0.865484 0.237865 -0.440860 0.513725 0.115538
  2 -1.617208 0.809989 1.951769 -0.512002 0.434624 -0.740916 0.419608 0.087649
dao-bomb.bmp
  2 -1.617208 0.809989 1.951769 -0.512002 0.434624 -0.740916 0.419608 0.087649
  2 -2.547207 0.219987 2.541770 -0.865484 0.237865 -0.440860 0.513725 0.115538
  2 -2.137207 1.009988 2.651770 -0.726729 0.556324 -0.402950 0.450980 0.155378
dao-bomb.bmp
  2 -2.547207 0.219987 2.541770 -0.865484 0.237865 -0.440860 0.513725 0.115538
  2 -2.637206 0.179987 2.951770 -0.845025 0.276494 -0.457694 0.533333 0.179283
  2 -2.137207 1.009988 2.651770 -0.726729 0.556324 -0.402950 0.450980 0.155378
dao-bomb.bmp
  2 -2.137207 1.009988 2.651770 -0.726729 0.556324 -0.402950 0.450980 0.155378
  2 -2.637206 0.179987 2.951770 -0.845025 0.276494 -0.457694 0.533333 0.179283
  2 -2.357207 1.029987 3.551770 -0.674481 0.718500 -0.169804 0.462745 0.239044
dao-bomb.bmp
  2 -2.637206 0.179987 2.951770 -0.845025 0.276494 -0.457694 0.533333 0.179283
  2 -3.117206 0.669985 3.871771 -0.667505 0.714928 -0.208124 0.513725 0.278884
  2 -2.357207 1.029987 3.551770 -0.674481 0.718500 -0.169804 0.462745 0.239044
dao-bomb.bmp
  2 -2.357207 1.029987 3.551770 -0.674481 0.718500 -0.169804 0.462745 0.239044
  2 -3.117206 0.669985 3.871771 -0.667505 0.714928 -0.208124 0.513725 0.278884
  2 -2.267206 1.029986 4.221770 -0.562608 0.792560 0.235203 0.447059 0.298805
dao-bomb.bmp
  2 -3.117206 0.669985 3.871771 -0.667505 0.714928 -0.208124 0.513725 0.278884
  2 -3.147205 0.639985 4.461771 -0.645637 0.642198 0.413200 0.505882 0.326693
  2 -2.267206 1.029986 4.221770 -0.562608 0.792560 0.235203 0.447059 0.298805
dao-bomb.bmp
  2 -2.267206 1.029986 4.221770 -0.562608 0.792560 0.235203 0.447059 0.298805
  2 -3.147205 0.639985 4.461771 -0.645637 0.642198 0.413200 0.505882 0.326693
  2 -2.277205 0.739986 4.751770 -0.502881 0.613309 0.609067 0.447059 0.354582
dao-bomb.bmp
  2 -3.147205 0.639985 4.461771 -0.645637 0.642198 0.413200 0.505882 0.326693
  2 -3.157204 0.019985 4.781770 -0.622693 -0.026178 0.782028 0.529412 0.366534
  2 -2.277205 0.739986 4.751770 -0.502881 0.613309 0.609067 0.447059 0.354582
dao-bomb.bmp
  2 -2.277205 0.739986 4.751770 -0.502881 0.613309 0.609067 0.447059 0.354582
  2 -3.157204 0.019985 4.781770 -0.622693 -0.026178 0.782028 0.529412 0.366534
  2 -2.497204 0.039985 4.991770 -0.546480 0.056879 0.835539 0.478431 0.398406
dao-bomb.bmp
  2 -0.097201 -0.520013 6.651767 -0.867567 -0.491806 0.073854 0.203922 0.657371
  2 -0.097202 -0.380013 6.661767 -0.867395 0.469343 0.165356 0.176471 0.657371
  2 -0.117202 -0.340012 6.231767 -0.869237 0.485512 0.093298 0.176471 0.577689
dao-bomb.bmp
  2 -0.117202 -0.340012 6.231767 -0.869237 0.485512 0.093298 0.176471 0.577689
  2 -0.097202 -0.380013 6.661767 -0.867395 0.469343 0.165356 0.176471 0.657371
  2 0.002798 -0.270012 6.231767 0.000000 0.995533 0.094413 0.149020 0.577689
dao-bomb.bmp
  2 -0.097202 -0.380013 6.661767 -0.867395 0.469343 0.165356 0.176471 0.657371
  2 0.022798 -0.310013 6.671767 -0.041118 0.996388 0.074296 0.149020 0.657371
  2 0.002798 -0.270012 6.231767 0.000000 0.995533 0.094413 0.149020 0.577689
dao-bomb.bmp
  2 0.002798 -0.270012 6.231767 0.000000 0.995533 0.094413 0.149020 0.577689
  2 0.022798 -0.310013 6.671767 -0.041118 0.996388 0.074296 0.149020 0.657371
  2 0.112798 -0.340012 6.231767 0.860658 0.509182 0.001503 0.125490 0.577689
dao-bomb.bmp
  2 0.022798 -0.310013 6.671767 -0.041118 0.996388 0.074296 0.149020 0.657371
  2 0.132798 -0.380012 6.661767 0.834546 0.530739 -0.147816 0.125490 0.657371
  2 0.112798 -0.340012 6.231767 0.860658 0.509182 0.001503 0.125490 0.577689
dao-bomb.bmp
  2 0.112798 -0.340012 6.231767 0.860658 0.509182 0.001503 0.125490 0.577689
  2 0.132798 -0.380012 6.661767 0.834546 0.530739 -0.147816 0.125490 0.657371
  2 0.112798 -0.470012 6.211767 0.860657 -0.500388 -0.094239 0.098039 0.577689
dao-bomb.bmp
  2 0.132798 -0.380012 6.661767 0.834546 0.530739 -0.147816 0.125490 0.657371
  2 0.132799 -0.520012 6.651767 0.835313 -0.489885 -0.249529 0.098039 0.657371
  2 0.112798 -0.470012 6.211767 0.860657 -0.500388 -0.094239 0.098039 0.577689
dao-bomb.bmp
  2 0.112798 -0.470012 6.211767 0.860657 -0.500388 -0.094239 0.098039 0.577689
  2 0.132799 -0.520012 6.651767 0.835313 -0.489885 -0.249529 0.098039 0.657371
  2 0.002798 -0.540012 6.211767 0.000000 -0.995533 -0.094412 0.070588 0.577689
dao-bomb.bmp
  2 0.132799 -0.520012 6.651767 0.835313 -0.489885 -0.249529 0.098039 0.657371
  2 0.022799 -0.580013 6.641767 -0.043223 -0.992151 -0.117338 0.070588 0.657371
  2 0.002798 -0.540012 6.211767 0.000000 -0.995533 -0.094412 0.070588 0.577689
dao-bomb.bmp
  2 0.002798 -0.540012 6.211767 0.000000 -0.995533 -0.094412 0.070588 0.577689
  2 0.022799 -0.580013 6.641767 -0.043223 -0.992151 -0.117338 0.070588 0.657371
  2 -0.117202 -0.470012 6.211767 -0.869237 -0.494395 0.000366 0.043137 0.577689
dao-bomb.bmp
  2 0.022799 -0.580013 6.641767 -0.043223 -0.992151 -0.117338 0.070588 0.657371
  2 -0.097201 -0.520013 6.651767 -0.867567 -0.491806 0.073854 0.043137 0.657371
  2 -0.117202 -0.470012 6.211767 -0.869237 -0.494395 0.000366 0.043137 0.577689
dao-bomb.bmp
  2 0.032799 -0.580013 7.141767 -0.858749 -0.489852 0.150319 0.203922 0.741036
  2 0.032799 -0.410013 7.151767 -0.858733 0.453276 0.238994 0.176471 0.741036
  2 -0.097202 -0.380013 6.661767 -0.867395 0.469343 0.165356 0.176471 0.657371
dao-bomb.bmp
  2 -0.097202 -0.380013 6.661767 -0.867395 0.469343 0.165356 0.176471 0.657371
  2 0.032799 -0.410013 7.151767 -0.858733 0.453276 0.238994 0.176471 0.741036
  2 0.022798 -0.310013 6.671767 -0.041118 0.996388 0.074296 0.149020 0.657371
dao-bomb.bmp
  2 0.032799 -0.410013 7.151767 -0.858733 0.453276 0.238994 0.176471 0.741036
  2 0.152799 -0.320013 7.101767 -0.067586 0.996955 0.038895 0.149020 0.741036
  2 0.022798 -0.310013 6.671767 -0.041118 0.996388 0.074296 0.149020 0.657371
dao-bomb.bmp
  2 0.022798 -0.310013 6.671767 -0.041118 0.996388 0.074296 0.149020 0.657371
  2 0.152799 -0.320013 7.101767 -0.067586 0.996955 0.038895 0.149020 0.741036
  2 0.132798 -0.380012 6.661767 0.834546 0.530739 -0.147816 0.125490 0.657371
dao-bomb.bmp
  2 0.152799 -0.320013 7.101767 -0.067586 0.996955 0.038895 0.149020 0.741036
  2 0.282799 -0.400013 7.031767 0.788020 0.546424 -0.283629 0.125490 0.741036
  2 0.132798 -0.380012 6.661767 0.834546 0.530739 -0.147816 0.125490 0.657371
dao-bomb.bmp
  2 0.132798 -0.380012 6.661767 0.834546 0.530739 -0.147816 0.125490 0.657371
  2 0.282799 -0.400013 7.031767 0.788020 0.546424 -0.283629 0.125490 0.741036
  2 0.132799 -0.520012 6.651767 0.835313 -0.489885 -0.249529 0.098039 0.657371
dao-bomb.bmp
  2 0.282799 -0.400013 7.031767 0.788020 0.546424 -0.283629 0.125490 0.741036
  2 0.282799 -0.570013 7.011766 0.803200 -0.478686 -0.354582 0.098039 0.741036
  2 0.132799 -0.520012 6.651767 0.835313 -0.489885 -0.249529 0.098039 0.657371
dao-bomb.bmp
  2 0.132799 -0.520012 6.651767 0.835313 -0.489885 -0.249529 0.098039 0.657371
  2 0.282799 -0.570013 7.011766 0.803200 -0.478686 -0.354582 0.098039 0.741036
  2 0.022799 -0.580013 6.641767 -0.043223 -0.992151 -0.117338 0.070588 0.657371
dao-bomb.bmp
  2 0.282799 -0.570013 7.011766 0.803200 -0.478686 -0.354582 0.098039 0.741036
  2 0.152799 -0.660013 7.071767 -0.068054 -0.987435 -0.142621 0.070588 0.741036
  2 0.022799 -0.580013 6.641767 -0.043223 -0.992151 -0.117338 0.070588 0.657371
dao-bomb.bmp
  2 0.022799 -0.580013 6.641767 -0.043223 -0.992151 -0.117338 0.070588 0.657371
  2 0.152799 -0.660013 7.071767 -0.068054 -0.987435 -0.142621 0.070588 0.741036
  2 -0.097201 -0.520013 6.651767 -0.867567 -0.491806 0.073854 0.043137 0.657371
dao-bomb.bmp
  2 0.152799 -0.660013 7.071767 -0.068054 -0.987435 -0.142621 0.070588 0.741036
  2 0.032799 -0.580013 7.141767 -0.858749 -0.489852 0.150319 0.043137 0.741036
  2 -0.097201 -0.520013 6.651767 -0.867567 -0.491806 0.073854 0.043137 0.657371
dao-bomb.bmp
  2 0.702796 0.489989 5.821767 0.199526 0.279703 0.939125 0.215686 0.438247
  2 1.192795 1.329990 5.241767 0.351484 0.643679 0.679806 0.192157 0.362550
  2 0.002794 1.619989 5.261769 0.000000 0.733318 0.679886 0.270588 0.362550
dao-bomb.bmp
  2 0.002794 1.619989 5.261769 0.000000 0.733318 0.679886 0.270588 0.362550
  2 1.192795 1.329990 5.241767 0.351484 0.643679 0.679806 0.192157 0.362550
  2 0.002792 2.249989 4.161769 0.000000 0.964430 0.264338 0.278431 0.270916
dao-bomb.bmp
  2 1.192795 1.329990 5.241767 0.351484 0.643679 0.679806 0.192157 0.362550
  2 1.452793 1.909991 4.131767 0.473807 0.850454 0.228547 0.184314 0.266932
  2 0.002792 2.249989 4.161769 0.000000 0.964430 0.264338 0.278431 0.270916
dao-bomb.bmp
  2 0.002792 2.249989 4.161769 0.000000 0.964430 0.264338 0.278431 0.270916
  2 1.452793 1.909991 4.131767 0.473807 0.850454 0.228547 0.184314 0.266932
  2 0.002791 2.279990 3.031769 0.000000 0.975965 -0.217926 0.286275 0.191235
dao-bomb.bmp
  2 1.452793 1.909991 4.131767 0.473807 0.850454 0.228547 0.184314 0.266932
  2 1.312792 1.939992 2.921768 0.451268 0.852090 -0.265142 0.200000 0.175299
  2 0.002791 2.279990 3.031769 0.000000 0.975965 -0.217926 0.286275 0.191235
dao-bomb.bmp
  2 0.002791 2.279990 3.031769 0.000000 0.975965 -0.217926 0.286275 0.191235
  2 1.312792 1.939992 2.921768 0.451268 0.852090 -0.265142 0.200000 0.175299
  2 0.002791 1.749991 2.061769 -0.000001 0.758495 -0.651679 0.294118 0.111554
dao-bomb.bmp
  2 1.312792 1.939992 2.921768 0.451268 0.852090 -0.265142 0.200000 0.175299
  2 0.982791 1.549993 2.031768 0.324590 0.664496 -0.673117 0.227451 0.103586
  2 0.002791 1.749991 2.061769 -0.000001 0.758495 -0.651679 0.294118 0.111554
dao-bomb.bmp
  2 0.002791 1.749991 2.061769 -0.000001 0.758495 -0.651679 0.294118 0.111554
  2 0.982791 1.549993 2.031768 0.324590 0.664496 -0.673117 0.227451 0.103586
  2 0.002792 0.939992 1.511768 -0.000001 0.533160 -0.846014 0.294118 0.043825
dao-bomb.bmp
  2 0.982791 1.549993 2.031768 0.324590 0.664496 -0.673117 0.227451 0.103586
  2 0.612792 0.749993 1.501767 0.273636 0.440910 -0.854822 0.243137 0.035857
  2 0.002792 0.939992 1.511768 -0.000001 0.533160 -0.846014 0.294118 0.043825
dao-bomb.bmp
  2 2.632794 0.179994 2.951765 0.845025 0.276495 -0.457694 0.964706 0.597610
  2 2.732796 -0.900006 3.261764 0.880854 -0.415678 -0.226513 0.890196 0.669323
  2 2.542794 0.219994 2.541765 0.865483 0.237865 -0.440861 0.937255 0.529880
dao-bomb.bmp
  2 2.542794 0.219994 2.541765 0.865483 0.237865 -0.440861 0.937255 0.529880
  2 2.732796 -0.900006 3.261764 0.880854 -0.415678 -0.226513 0.890196 0.669323
  2 2.482795 -0.800006 2.481764 0.858697 -0.146248 -0.491172 0.866667 0.573705
dao-bomb.bmp
  2 2.732796 -0.900006 3.261764 0.880854 -0.415678 -0.226513 0.890196 0.669323
  7 2.197665 -1.829741 2.759453 0.786309 -0.579056 -0.215437 0.796078 0.621514
  2 2.482795 -0.800006 2.481764 0.858697 -0.146248 -0.491172 0.866667 0.573705
dao-bomb.bmp
  2 2.482795 -0.800006 2.481764 0.858697 -0.146248 -0.491172 0.866667 0.573705
  7 2.197665 -1.829741 2.759453 0.786309 -0.579056 -0.215437 0.796078 0.621514
  7 2.217664 -1.569741 2.429453 0.778804 -0.384710 -0.495442 0.811765 0.585657
dao-bomb.bmp
  7 2.197665 -1.829741 2.759453 0.786309 -0.579056 -0.215437 0.796078 0.621514
  6 1.849793 -2.000138 2.417157 0.612374 -0.602183 -0.512225 0.768627 0.597610
  7 2.217664 -1.569741 2.429453 0.778804 -0.384710 -0.495442 0.811765 0.585657
dao-bomb.bmp
  7 2.217664 -1.569741 2.429453 0.778804 -0.384710 -0.495442 0.811765 0.585657
  6 1.849793 -2.000138 2.417157 0.612374 -0.602183 -0.512225 0.768627 0.597610
  6 1.249792 -1.850139 1.787157 0.391210 -0.425240 -0.816165 0.729412 0.533865
dao-bomb.bmp
  6 1.849793 -2.000138 2.417157 0.612374 -0.602183 -0.512225 0.768627 0.597610
  6 1.299793 -2.290139 2.177157 0.440844 -0.706686 -0.553400 0.725490 0.593625
  6 1.249792 -1.850139 1.787157 0.391210 -0.425240 -0.816165 0.729412 0.533865
dao-bomb.bmp
  6 1.249792 -1.850139 1.787157 0.391210 -0.425240 -0.816165 0.729412 0.533865
  6 1.299793 -2.290139 2.177157 0.440844 -0.706686 -0.553400 0.725490 0.593625
  8 0.840782 -2.350736 2.006045 0.235072 -0.659562 -0.713946 0.694118 0.573705
dao-bomb.bmp
  6 1.299793 -2.290139 2.177157 0.440844 -0.706686 -0.553400 0.725490 0.593625
  7 1.017665 -2.409742 2.219453 0.358796 -0.814215 -0.456419 0.705882 0.589641
  8 0.840782 -2.350736 2.006045 0.235072 -0.659562 -0.713946 0.694118 0.573705
dao-bomb.bmp
  2 -1.967202 -0.980014 5.171768 -0.599789 -0.296919 0.743029 0.435294 0.888446
  2 -2.487203 -0.960014 4.581769 -0.718939 -0.506459 0.476052 0.384314 0.812749
  2 -1.687201 -1.720014 5.041767 -0.532729 -0.565865 0.629283 0.482353 0.848606
dao-bomb.bmp
  2 -1.687201 -1.720014 5.041767 -0.532729 -0.565865 0.629283 0.482353 0.848606
  2 -2.487203 -0.960014 4.581769 -0.718939 -0.506459 0.476052 0.384314 0.812749
  2 -2.157202 -1.970013 3.861768 -0.739857 -0.650465 0.171775 0.462745 0.729084
dao-bomb.bmp
  2 -2.487203 -0.960014 4.581769 -0.718939 -0.506459 0.476052 0.384314 0.812749
  2 -2.737204 -0.900014 3.261769 -0.877634 -0.421101 -0.228981 0.376471 0.661355
  2 -2.157202 -1.970013 3.861768 -0.739857 -0.650465 0.171775 0.462745 0.729084
dao-bomb.bmp
  2 -2.157202 -1.970013 3.861768 -0.739857 -0.650465 0.171775 0.462745 0.729084
  2 -2.737204 -0.900014 3.261769 -0.877634 -0.421101 -0.228981 0.376471 0.661355
  4 -2.230741 -1.709745 2.759456 -0.839000 -0.506792 -0.198096 0.470588 0.617530
dao-bomb.bmp
  2 -2.737204 -0.900014 3.261769 -0.877634 -0.421101 -0.228981 0.376471 0.661355
  2 -2.487205 -0.800013 2.481769 -0.853509 -0.155426 -0.497358 0.411765 0.573705
  4 -2.230741 -1.709745 2.759456 -0.839000 -0.506792 -0.198096 0.470588 0.617530
dao-bomb.bmp
  4 -2.230741 -1.709745 2.759456 -0.839000 -0.506792 -0.198096 0.470588 0.617530
  2 -2.487205 -0.800013 2.481769 -0.853509 -0.155426 -0.497358 0.411765 0.573705
  4 -2.210742 -1.569745 2.429456 -0.787273 -0.391763 -0.476154 0.462745 0.589641
dao-bomb.bmp
  2 -2.487205 -0.800013 2.481769 -0.853509 -0.155426 -0.497358 0.411765 0.573705
  2 -1.587205 -1.250011 1.731768 -0.460342 -0.226408 -0.858385 0.513725 0.513944
  4 -2.210742 -1.569745 2.429456 -0.787273 -0.391763 -0.476154 0.462745 0.589641
dao-bomb.bmp
  4 -2.210742 -1.569745 2.429456 -0.787273 -0.391763 -0.476154 0.462745 0.589641
  2 -1.587205 -1.250011 1.731768 -0.460342 -0.226408 -0.858385 0.513725 0.513944
  3 -1.191152 -1.940141 1.742548 -0.338737 -0.403010 -0.850200 0.556863 0.529880
dao-bomb.bmp
  2 -1.587205 -1.250011 1.731768 -0.460342 -0.226408 -0.858385 0.513725 0.513944
  5 -0.783061 -1.850737 1.656046 -0.132216 -0.328591 -0.935172 0.584314 0.517928
  3 -1.191152 -1.940141 1.742548 -0.338737 -0.403010 -0.850200 0.556863 0.529880
dao-bomb.bmp
  2 2.542794 0.219994 2.541765 0.865483 0.237865 -0.440861 0.937255 0.529880
  2 2.482795 -0.800006 2.481764 0.858697 -0.146248 -0.491172 0.866667 0.573705
  2 1.922793 0.219994 1.871766 0.596470 0.225927 -0.770182 0.850980 0.442231
dao-bomb.bmp
  2 1.922793 0.219994 1.871766 0.596470 0.225927 -0.770182 0.850980 0.442231
  2 2.482795 -0.800006 2.481764 0.858697 -0.146248 -0.491172 0.866667 0.573705
  2 1.922794 -0.580006 1.801765 0.588672 -0.067534 -0.805546 0.815686 0.486056
dao-bomb.bmp
  2 2.482795 -0.800006 2.481764 0.858697 -0.146248 -0.491172 0.866667 0.573705
  7 2.217664 -1.569741 2.429453 0.778804 -0.384710 -0.495442 0.811765 0.585657
  2 1.922794 -0.580006 1.801765 0.588672 -0.067534 -0.805546 0.815686 0.486056
dao-bomb.bmp
  2 1.922794 -0.580006 1.801765 0.588672 -0.067534 -0.805546 0.815686 0.486056
  7 2.217664 -1.569741 2.429453 0.778804 -0.384710 -0.495442 0.811765 0.585657
  2 1.542795 -1.250006 1.731765 0.436436 -0.236590 -0.868072 0.764706 0.505976
dao-bomb.bmp
  7 2.217664 -1.569741 2.429453 0.778804 -0.384710 -0.495442 0.811765 0.585657
  6 1.249792 -1.850139 1.787157 0.391210 -0.425240 -0.816165 0.729412 0.533865
  2 1.542795 -1.250006 1.731765 0.436436 -0.236590 -0.868072 0.764706 0.505976
dao-bomb.bmp
  2 1.542795 -1.250006 1.731765 0.436436 -0.236590 -0.868072 0.764706 0.505976
  6 1.249792 -1.850139 1.787157 0.391210 -0.425240 -0.816165 0.729412 0.533865
  8 0.780781 -1.850736 1.656046 0.178986 -0.367441 -0.912661 0.698039 0.517928
dao-bomb.bmp
  6 1.249792 -1.850139 1.787157 0.391210 -0.425240 -0.816165 0.729412 0.533865
  8 0.840782 -2.350736 2.006045 0.235072 -0.659562 -0.713946 0.694118 0.573705
  8 0.780781 -1.850736 1.656046 0.178986 -0.367441 -0.912661 0.698039 0.517928
dao-bomb.bmp
  2 3.162796 0.019993 4.781764 0.622693 -0.026176 0.782028 0.960784 0.848606
  2 2.492796 0.039992 4.991765 0.546480 0.056880 0.835538 0.905882 0.900398
  2 3.132797 -0.610006 4.441764 0.677810 -0.626893 0.384160 0.917647 0.800797
dao-bomb.bmp
  2 3.132797 -0.610006 4.441764 0.677810 -0.626893 0.384160 0.917647 0.800797
  2 2.492796 0.039992 4.991765 0.546480 0.056880 0.835538 0.905882 0.900398
  2 2.482797 -0.960007 4.581764 0.718940 -0.506458 0.476052 0.858824 0.820717
dao-bomb.bmp
  2 2.492796 0.039992 4.991765 0.546480 0.056880 0.835538 0.905882 0.900398
  2 1.962798 -0.980009 5.171764 0.599790 -0.296918 0.743029 0.800000 0.880478
  2 2.482797 -0.960007 4.581764 0.718940 -0.506458 0.476052 0.858824 0.820717
dao-bomb.bmp
  2 2.482797 -0.960007 4.581764 0.718940 -0.506458 0.476052 0.858824 0.820717
  2 1.962798 -0.980009 5.171764 0.599790 -0.296918 0.743029 0.800000 0.880478
  2 1.692799 -1.720009 5.041764 0.533685 -0.560793 0.633002 0.752941 0.844622
dao-bomb.bmp
  2 1.962798 -0.980009 5.171764 0.599790 -0.296918 0.743029 0.800000 0.880478
  2 1.212798 -0.750010 5.661765 0.344235 -0.230669 0.910107 0.729412 0.940239
  2 1.692799 -1.720009 5.041764 0.533685 -0.560793 0.633002 0.752941 0.844622
dao-bomb.bmp
  2 1.692799 -1.720009 5.041764 0.533685 -0.560793 0.633002 0.752941 0.844622
  2 1.212798 -0.750010 5.661765 0.344235 -0.230669 0.910107 0.729412 0.940239
  2 0.702799 -1.470011 5.611765 0.212067 -0.428757 0.878177 0.670588 0.904382
dao-bomb.bmp
  2 1.212798 -0.750010 5.661765 0.344235 -0.230669 0.910107 0.729412 0.940239
  2 0.002798 -0.370012 5.961767 0.000000 -0.088311 0.996093 0.627451 1.000000
  2 0.702799 -1.470011 5.611765 0.212067 -0.428757 0.878177 0.670588 0.904382
dao-bomb.bmp
  2 3.142795 0.639994 4.461765 0.645637 0.642199 0.413200 0.047059 0.302789
  2 3.112794 0.669994 3.871765 0.667504 0.714928 -0.208125 0.043137 0.250996
  2 2.262794 1.029993 4.221766 0.562608 0.792560 0.235204 0.109804 0.282869
dao-bomb.bmp
  2 2.262794 1.029993 4.221766 0.562608 0.792560 0.235204 0.109804 0.282869
  2 3.112794 0.669994 3.871765 0.667504 0.714928 -0.208125 0.043137 0.250996
  2 2.352793 1.029993 3.551766 0.674480 0.718500 -0.169805 0.101961 0.219124
dao-bomb.bmp
  2 3.112794 0.669994 3.871765 0.667504 0.714928 -0.208125 0.043137 0.250996
  2 2.632794 0.179994 2.951765 0.845025 0.276495 -0.457694 0.035294 0.151394
  2 2.352793 1.029993 3.551766 0.674480 0.718500 -0.169805 0.101961 0.219124
dao-bomb.bmp
  2 2.352793 1.029993 3.551766 0.674480 0.718500 -0.169805 0.101961 0.219124
  2 2.632794 0.179994 2.951765 0.845025 0.276495 -0.457694 0.035294 0.151394
  2 2.132793 1.009994 2.651766 0.726728 0.556325 -0.402950 0.125490 0.139442
dao-bomb.bmp
  2 2.632794 0.179994 2.951765 0.845025 0.276495 -0.457694 0.035294 0.151394
  2 2.542794 0.219994 2.541765 0.865483 0.237865 -0.440861 0.058824 0.099602
  2 2.132793 1.009994 2.651766 0.726728 0.556325 -0.402950 0.125490 0.139442
dao-bomb.bmp
  2 2.132793 1.009994 2.651766 0.726728 0.556325 -0.402950 0.125490 0.139442
  2 2.542794 0.219994 2.541765 0.865483 0.237865 -0.440861 0.058824 0.099602
  2 1.612792 0.809994 1.951766 0.512002 0.434624 -0.740916 0.168627 0.079681
dao-bomb.bmp
  2 2.542794 0.219994 2.541765 0.865483 0.237865 -0.440861 0.058824 0.099602
  2 1.922793 0.219994 1.871766 0.596470 0.225927 -0.770182 0.105882 0.043825
  2 1.612792 0.809994 1.951766 0.512002 0.434624 -0.740916 0.168627 0.079681
dao-bomb.bmp
  2 0.002798 -0.370012 5.961767 0.000000 -0.088311 0.996093 0.270588 0.498008
  2 -0.707204 0.489987 5.821768 -0.199525 0.279703 0.939125 0.317647 0.438247
  2 -1.297203 -0.110014 5.761768 -0.333616 0.004756 0.942697 0.368627 0.466135
dao-bomb.bmp
  2 -1.297203 -0.110014 5.761768 -0.333616 0.004756 0.942697 0.368627 0.466135
  2 -0.707204 0.489987 5.821768 -0.199525 0.279703 0.939125 0.317647 0.438247
  2 -1.827204 0.609986 5.321770 -0.511873 0.413987 0.752729 0.403922 0.402390
dao-bomb.bmp
  2 -0.707204 0.489987 5.821768 -0.199525 0.279703 0.939125 0.317647 0.438247
  2 -1.197205 1.329987 5.241769 -0.351484 0.643679 0.679806 0.349020 0.370518
  2 -1.827204 0.609986 5.321770 -0.511873 0.413987 0.752729 0.403922 0.402390
dao-bomb.bmp
  2 -1.827204 0.609986 5.321770 -0.511873 0.413987 0.752729 0.403922 0.402390
  2 -1.197205 1.329987 5.241769 -0.351484 0.643679 0.679806 0.349020 0.370518
  2 -2.277205 0.739986 4.751770 -0.502881 0.613309 0.609067 0.447059 0.354582
dao-bomb.bmp
  2 -1.197205 1.329987 5.241769 -0.351484 0.643679 0.679806 0.349020 0.370518
  2 -1.457207 1.909987 4.131770 -0.473808 0.850454 0.228547 0.372549 0.278884
  2 -2.277205 0.739986 4.751770 -0.502881 0.613309 0.609067 0.447059 0.354582
dao-bomb.bmp
  2 -2.277205 0.739986 4.751770 -0.502881 0.613309 0.609067 0.447059 0.354582
  2 -1.457207 1.909987 4.131770 -0.473808 0.850454 0.228547 0.372549 0.278884
  2 -2.267206 1.029986 4.221770 -0.562608 0.792560 0.235203 0.447059 0.298805
dao-bomb.bmp
  2 -1.457207 1.909987 4.131770 -0.473808 0.850454 0.228547 0.372549 0.278884
  2 -2.357207 1.029987 3.551770 -0.674481 0.718500 -0.169804 0.462745 0.239044
  2 -2.267206 1.029986 4.221770 -0.562608 0.792560 0.235203 0.447059 0.298805
dao-bomb.bmp
  2 -2.547207 0.219987 2.541770 -0.865484 0.237865 -0.440860 0.337255 0.537849
  2 -2.737204 -0.900014 3.261769 -0.877634 -0.421101 -0.228981 0.376471 0.661355
  2 -2.637206 0.179987 2.951770 -0.845025 0.276494 -0.457694 0.305882 0.589641
dao-bomb.bmp
  2 -2.637206 0.179987 2.951770 -0.845025 0.276494 -0.457694 0.305882 0.589641
  2 -2.737204 -0.900014 3.261769 -0.877634 -0.421101 -0.228981 0.376471 0.661355
  2 -3.297206 0.139985 3.401771 -0.802839 0.219418 -0.554351 0.270588 0.665339
dao-bomb.bmp
  2 -2.737204 -0.900014 3.261769 -0.877634 -0.421101 -0.228981 0.376471 0.661355
  2 -3.197204 -0.490014 3.511770 -0.803200 -0.478688 -0.354580 0.325490 0.685259
  2 -3.297206 0.139985 3.401771 -0.802839 0.219418 -0.554351 0.270588 0.665339
dao-bomb.bmp
  2 -3.297206 0.139985 3.401771 -0.802839 0.219418 -0.554351 0.270588 0.665339
  2 -3.197204 -0.490014 3.511770 -0.803200 -0.478688 -0.354580 0.325490 0.685259
  2 -3.437205 0.039985 4.131771 -0.996446 0.019468 0.081949 0.266667 0.749004
dao-bomb.bmp
  2 -3.197204 -0.490014 3.511770 -0.803200 -0.478688 -0.354580 0.325490 0.685259
  2 -3.137203 -0.610015 4.441770 -0.677809 -0.626894 0.384160 0.329412 0.784861
  2 -3.437205 0.039985 4.131771 -0.996446 0.019468 0.081949 0.266667 0.749004
dao-bomb.bmp
  2 -3.437205 0.039985 4.131771 -0.996446 0.019468 0.081949 0.266667 0.749004
  2 -3.137203 -0.610015 4.441770 -0.677809 -0.626894 0.384160 0.329412 0.784861
  2 -3.157204 0.019985 4.781770 -0.622693 -0.026178 0.782028 0.282353 0.828685
dao-bomb.bmp
  2 -3.137203 -0.610015 4.441770 -0.677809 -0.626894 0.384160 0.329412 0.784861
  2 -2.497204 0.039985 4.991770 -0.546480 0.056879 0.835539 0.329412 0.892430
  2 -3.157204 0.019985 4.781770 -0.622693 -0.026178 0.782028 0.282353 0.828685
dao-bomb.bmp
  2 0.632797 -0.360011 5.711766 1.000000 0.000001 -0.000001 0.980392 0.147410
  2 0.442797 0.079989 5.751767 0.707106 0.703950 0.066759 0.886275 0.147410
  2 0.442798 0.029988 6.281767 0.707106 0.703950 0.066759 0.886275 0.270916
dao-bomb.bmp
  2 0.442798 0.029988 6.281767 0.707106 0.703950 0.066759 0.886275 0.270916
  2 0.442797 0.079989 5.751767 0.707106 0.703950 0.066759 0.886275 0.147410
  2 0.002797 0.219988 6.301767 0.000000 0.995533 0.094413 0.780392 0.270916
dao-bomb.bmp
  2 0.442797 0.079989 5.751767 0.707106 0.703950 0.066759 0.886275 0.147410
  2 0.002797 0.269988 5.771767 0.000000 0.995533 0.094413 0.780392 0.147410
  2 0.002797 0.219988 6.301767 0.000000 0.995533 0.094413 0.780392 0.270916
dao-bomb.bmp
  2 0.002797 0.219988 6.301767 0.000000 0.995533 0.094413 0.780392 0.270916
  2 0.002797 0.269988 5.771767 0.000000 0.995533 0.094413 0.780392 0.147410
  2 -0.447202 0.029987 6.281768 -0.707106 0.703949 0.066760 0.678431 0.270916
dao-bomb.bmp
  2 0.002797 0.269988 5.771767 0.000000 0.995533 0.094413 0.780392 0.147410
  2 -0.447203 0.079988 5.751768 -0.707106 0.703949 0.066760 0.678431 0.147410
  2 -0.447202 0.029987 6.281768 -0.707106 0.703949 0.066760 0.678431 0.270916
dao-bomb.bmp
  2 -0.447202 0.029987 6.281768 -0.707106 0.703949 0.066760 0.678431 0.270916
  2 -0.447203 0.079988 5.751768 -0.707106 0.703949 0.066760 0.678431 0.147410
  2 -0.637202 -0.410013 6.241767 -1.000000 0.000000 0.000000 0.576471 0.270916
dao-bomb.bmp
  2 -0.447203 0.079988 5.751768 -0.707106 0.703949 0.066760 0.678431 0.147410
  2 -0.637203 -0.360013 5.711768 -1.000000 0.000000 0.000000 0.576471 0.147410
  2 -0.637202 -0.410013 6.241767 -1.000000 0.000000 0.000000 0.576471 0.270916
dao-bomb.bmp
  2 -0.637203 -0.360013 5.711768 -1.000000 0.000000 0.000000 0.576471 0.015936
  2 -0.447202 -0.810012 5.671767 -0.707105 -0.703950 -0.066760 0.674510 0.015936
  2 -0.447201 -0.860013 6.191767 -0.707105 -0.703950 -0.066760 0.674510 0.139442
dao-bomb.bmp
  2 -0.447201 -0.860013 6.191767 -0.707105 -0.703950 -0.066760 0.674510 0.139442
  2 -0.447202 -0.810012 5.671767 -0.707105 -0.703950 -0.066760 0.674510 0.015936
  2 0.002799 -1.040012 6.181766 0.000000 -0.995533 -0.094412 0.780392 0.139442
dao-bomb.bmp
  2 -0.447202 -0.810012 5.671767 -0.707105 -0.703950 -0.066760 0.674510 0.015936
  2 0.002798 -0.990012 5.651766 0.000000 -0.995533 -0.094412 0.780392 0.015936
  2 0.002799 -1.040012 6.181766 0.000000 -0.995533 -0.094412 0.780392 0.139442
dao-bomb.bmp
  2 0.002799 -1.040012 6.181766 0.000000 -0.995533 -0.094412 0.780392 0.139442
  2 0.002798 -0.990012 5.651766 0.000000 -0.995533 -0.094412 0.780392 0.015936
  2 0.442799 -0.860012 6.191766 0.707107 -0.703948 -0.066760 0.886275 0.139442
dao-bomb.bmp
  2 0.002798 -0.990012 5.651766 0.000000 -0.995533 -0.094412 0.780392 0.015936
  2 0.442798 -0.810011 5.671766 0.707107 -0.703948 -0.066760 0.886275 0.015936
  2 0.442799 -0.860012 6.191766 0.707107 -0.703948 -0.066760 0.886275 0.139442
dao-bomb.bmp
  2 0.442799 -0.860012 6.191766 0.707107 -0.703948 -0.066760 0.886275 0.139442
  2 0.442798 -0.810011 5.671766 0.707107 -0.703948 -0.066760 0.886275 0.015936
  2 0.632798 -0.410011 6.241766 1.000000 0.000001 -0.000001 0.980392 0.139442
dao-bomb.bmp
  2 0.442798 -0.810011 5.671766 0.707107 -0.703948 -0.066760 0.886275 0.015936
  2 0.632797 -0.360011 5.711766 1.000000 0.000001 -0.000001 0.980392 0.015936
  2 0.632798 -0.410011 6.241766 1.000000 0.000001 -0.000001 0.980392 0.139442
dao-bomb.bmp
  2 0.002797 -2.350009 1.881765 0.011226 -0.639126 -0.769020 0.639216 0.549801
  5 -0.783061 -1.850737 1.656046 -0.132216 -0.328591 -0.935172 0.584314 0.517928
  2 0.002796 -1.990008 1.611766 0.000025 -0.415864 -0.909427 0.639216 0.517928
dao-bomb.bmp
  2 0.002796 -1.990008 1.611766 0.000025 -0.415864 -0.909427 0.639216 0.517928
  5 -0.783061 -1.850737 1.656046 -0.132216 -0.328591 -0.935172 0.584314 0.517928
  2 -0.447206 -0.690009 1.411767 -0.153770 -0.180324 -0.971513 0.588235 0.422311
dao-bomb.bmp
  5 -0.783061 -1.850737 1.656046 -0.132216 -0.328591 -0.935172 0.584314 0.517928
  2 -1.587205 -1.250011 1.731768 -0.460342 -0.226408 -0.858385 0.513725 0.513944
  2 -0.447206 -0.690009 1.411767 -0.153770 -0.180324 -0.971513 0.588235 0.422311
dao-bomb.bmp
  2 -0.447206 -0.690009 1.411767 -0.153770 -0.180324 -0.971513 0.588235 0.422311
  2 -1.587205 -1.250011 1.731768 -0.460342 -0.226408 -0.858385 0.513725 0.513944
  2 -0.887207 -0.240009 1.411768 -0.280371 -0.105784 -0.954045 0.545098 0.422311
dao-bomb.bmp
  2 -1.587205 -1.250011 1.731768 -0.460342 -0.226408 -0.858385 0.513725 0.513944
  2 -1.917206 -0.580011 1.801769 -0.596367 -0.071417 -0.799528 0.466667 0.498008
  2 -0.887207 -0.240009 1.411768 -0.280371 -0.105784 -0.954045 0.545098 0.422311
dao-bomb.bmp
  2 -0.887207 -0.240009 1.411768 -0.280371 -0.105784 -0.954045 0.545098 0.422311
  2 -1.917206 -0.580011 1.801769 -0.596367 -0.071417 -0.799528 0.466667 0.498008
  2 -1.017208 0.209990 1.431768 -0.396304 0.217638 -0.891951 0.513725 0.386454
dao-bomb.bmp
  2 -1.917206 -0.580011 1.801769 -0.596367 -0.071417 -0.799528 0.466667 0.498008
  2 -1.917207 0.219989 1.871769 -0.596471 0.225926 -0.770182 0.415686 0.462151
  2 -1.017208 0.209990 1.431768 -0.396304 0.217638 -0.891951 0.513725 0.386454
dao-bomb.bmp
  2 -1.457207 1.909987 4.131770 -0.473808 0.850454 0.228547 0.372549 0.278884
  2 -1.317208 1.939989 2.921770 -0.451268 0.852090 -0.265142 0.372549 0.183267
  2 -2.357207 1.029987 3.551770 -0.674481 0.718500 -0.169804 0.462745 0.239044
dao-bomb.bmp
  2 -2.357207 1.029987 3.551770 -0.674481 0.718500 -0.169804 0.462745 0.239044
  2 -1.317208 1.939989 2.921770 -0.451268 0.852090 -0.265142 0.372549 0.183267
  2 -2.137207 1.009988 2.651770 -0.726729 0.556324 -0.402950 0.450980 0.155378
dao-bomb.bmp
  2 -1.317208 1.939989 2.921770 -0.451268 0.852090 -0.265142 0.372549 0.183267
  2 -0.987209 1.549990 2.031770 -0.324591 0.664495 -0.673117 0.356863 0.107570
  2 -2.137207 1.009988 2.651770 -0.726729 0.556324 -0.402950 0.450980 0.155378
dao-bomb.bmp
  2 -2.137207 1.009988 2.651770 -0.726729 0.556324 -0.402950 0.450980 0.155378
  2 -0.987209 1.549990 2.031770 -0.324591 0.664495 -0.673117 0.356863 0.107570
  2 -1.617208 0.809989 1.951769 -0.512002 0.434624 -0.740916 0.419608 0.087649
dao-bomb.bmp
  2 -0.987209 1.549990 2.031770 -0.324591 0.664495 -0.673117 0.356863 0.107570
  2 -0.617208 0.749991 1.501768 -0.273636 0.440910 -0.854823 0.345098 0.039841
  2 -1.617208 0.809989 1.951769 -0.512002 0.434624 -0.740916 0.419608 0.087649
dao-bomb.bmp
  7 1.017665 -2.409742 2.219453 0.358796 -0.814215 -0.456419 0.705882 0.589641
  6 1.299793 -2.290139 2.177157 0.440844 -0.706686 -0.553400 0.725490 0.593625
  7 1.297665 -2.429742 2.489453 0.379165 -0.874498 -0.302469 0.721569 0.617530
dao-bomb.bmp
  7 1.297665 -2.429742 2.489453 0.379165 -0.874498 -0.302469 0.721569 0.617530
  6 1.299793 -2.290139 2.177157 0.440844 -0.706686 -0.553400 0.725490 0.593625
  6 1.739793 -2.180139 2.587157 0.586215 -0.763139 -0.271977 0.760784 0.613546
dao-bomb.bmp
  6 1.299793 -2.290139 2.177157 0.440844 -0.706686 -0.553400 0.725490 0.593625
  6 1.849793 -2.000138 2.417157 0.612374 -0.602183 -0.512225 0.768627 0.597610
  6 1.739793 -2.180139 2.587157 0.586215 -0.763139 -0.271977 0.760784 0.613546
dao-bomb.bmp
  6 1.739793 -2.180139 2.587157 0.586215 -0.763139 -0.271977 0.760784 0.613546
  6 1.849793 -2.000138 2.417157 0.612374 -0.602183 -0.512225 0.768627 0.597610
  7 2.197665 -1.829741 2.759453 0.786309 -0.579056 -0.215437 0.796078 0.621514
dao-bomb.bmp
  2 -2.147203 0.009985 5.351769 -0.601509 0.063139 0.796367 0.380392 0.948207
  2 -2.497204 0.039985 4.991770 -0.546480 0.056879 0.835539 0.329412 0.892430
  2 -1.967202 -0.980014 5.171768 -0.599789 -0.296919 0.743029 0.435294 0.888446
dao-bomb.bmp
  2 -1.967202 -0.980014 5.171768 -0.599789 -0.296919 0.743029 0.435294 0.888446
  2 -2.497204 0.039985 4.991770 -0.546480 0.056879 0.835539 0.329412 0.892430
  2 -2.487203 -0.960014 4.581769 -0.718939 -0.506459 0.476052 0.384314 0.812749
dao-bomb.bmp
  2 -2.497204 0.039985 4.991770 -0.546480 0.056879 0.835539 0.329412 0.892430
  2 -3.137203 -0.610015 4.441770 -0.677809 -0.626894 0.384160 0.329412 0.784861
  2 -2.487203 -0.960014 4.581769 -0.718939 -0.506459 0.476052 0.384314 0.812749
dao-bomb.bmp
  2 -2.487203 -0.960014 4.581769 -0.718939 -0.506459 0.476052 0.384314 0.812749
  2 -3.137203 -0.610015 4.441770 -0.677809 -0.626894 0.384160 0.329412 0.784861
  2 -3.197204 -0.490014 3.511770 -0.803200 -0.478688 -0.354580 0.325490 0.685259
dao-bomb.bmp
  2 -1.277201 -2.590012 3.681766 -0.380996 -0.918816 0.103051 0.529412 0.713147
  4 -1.860741 -2.229745 2.859455 -0.667258 -0.737738 -0.102516 0.501961 0.633466
  2 -1.297202 -2.550011 2.961766 -0.357319 -0.931171 -0.072414 0.537255 0.645418
dao-bomb.bmp
  2 -1.297202 -2.550011 2.961766 -0.357319 -0.931171 -0.072414 0.537255 0.645418
  4 -1.860741 -2.229745 2.859455 -0.667258 -0.737738 -0.102516 0.501961 0.633466
  4 -1.610741 -2.369745 2.719455 -0.489134 -0.868584 -0.079433 0.521569 0.625498
dao-bomb.bmp
  4 -1.860741 -2.229745 2.859455 -0.667258 -0.737738 -0.102516 0.501961 0.633466
  3 -1.751151 -2.270143 2.592548 -0.620177 -0.729730 -0.287880 0.513725 0.613546
  4 -1.610741 -2.369745 2.719455 -0.489134 -0.868584 -0.079433 0.521569 0.625498
dao-bomb.bmp
  4 -1.610741 -2.369745 2.719455 -0.489134 -0.868584 -0.079433 0.521569 0.625498
  3 -1.751151 -2.270143 2.592548 -0.620177 -0.729730 -0.287880 0.513725 0.613546
  4 -1.340741 -2.499744 2.519454 -0.306870 -0.928209 -0.210376 0.541176 0.613546
dao-bomb.bmp
  2 -2.487205 -0.800013 2.481769 -0.853509 -0.155426 -0.497358 0.411765 0.573705
  2 -1.917206 -0.580011 1.801769 -0.596367 -0.071417 -0.799528 0.466667 0.498008
  2 -1.587205 -1.250011 1.731768 -0.460342 -0.226408 -0.858385 0.513725 0.513944
dao-bomb.bmp
  2 -2.487205 -0.800013 2.481769 -0.853509 -0.155426 -0.497358 0.411765 0.573705
  2 -1.917207 0.219989 1.871769 -0.596471 0.225926 -0.770182 0.415686 0.462151
  2 -1.917206 -0.580011 1.801769 -0.596367 -0.071417 -0.799528 0.466667 0.498008
dao-bomb.bmp
  2 -2.487205 -0.800013 2.481769 -0.853509 -0.155426 -0.497358 0.411765 0.573705
  2 -2.547207 0.219987 2.541770 -0.865484 0.237865 -0.440860 0.337255 0.537849
  2 -1.917207 0.219989 1.871769 -0.596471 0.225926 -0.770182 0.415686 0.462151
dao-bomb.bmp
  2 -2.487205 -0.800013 2.481769 -0.853509 -0.155426 -0.497358 0.411765 0.573705
  2 -2.737204 -0.900014 3.261769 -0.877634 -0.421101 -0.228981 0.376471 0.661355
  2 -2.547207 0.219987 2.541770 -0.865484 0.237865 -0.440860 0.337255 0.537849
dao-bomb.bmp
  2 0.002799 -1.040012 6.181766 0.000000 -0.088311 0.996093 0.133333 0.756972
  2 0.442799 -0.860012 6.191766 0.000000 -0.088311 0.996093 0.215686 0.792829
  2 -0.447201 -0.860013 6.191767 0.000000 -0.088311 0.996093 0.050980 0.792829
dao-bomb.bmp
  2 -0.447201 -0.860013 6.191767 0.000000 -0.088311 0.996093 0.050980 0.792829
  2 0.442799 -0.860012 6.191766 0.000000 -0.088311 0.996093 0.215686 0.792829
  2 -0.447202 0.029987 6.281768 0.000000 -0.088311 0.996093 0.050980 0.960159
dao-bomb.bmp
  2 0.442799 -0.860012 6.191766 0.000000 -0.088311 0.996093 0.215686 0.792829
  2 0.442798 0.029988 6.281767 0.000000 -0.088311 0.996093 0.215686 0.960159
  2 -0.447202 0.029987 6.281768 0.000000 -0.088311 0.996093 0.050980 0.960159
dao-bomb.bmp
  2 -0.447202 0.029987 6.281768 0.000000 -0.088311 0.996093 0.050980 0.960159
  2 0.442798 0.029988 6.281767 0.000000 -0.088311 0.996093 0.215686 0.960159
  2 0.002797 0.219988 6.301767 0.000000 -0.088311 0.996093 0.133333 0.996016
dao-bomb.bmp
  2 -1.037201 -2.260013 4.831766 -0.301297 -0.780277 0.548077 0.537255 0.820717
  2 0.002799 -2.720011 4.231765 0.000000 -0.950009 0.312224 0.619608 0.756972
  2 0.002800 -2.470011 4.801765 0.000001 -0.836529 0.547922 0.615686 0.812749
dao-bomb.bmp
  2 -1.037201 -2.260013 4.831766 -0.301297 -0.780277 0.548077 0.537255 0.820717
  2 -1.167201 -2.480012 4.251766 -0.366603 -0.869134 0.331976 0.537255 0.764940
  2 0.002799 -2.720011 4.231765 0.000000 -0.950009 0.312224 0.619608 0.756972
dao-bomb.bmp
  2 -1.037201 -2.260013 4.831766 -0.301297 -0.780277 0.548077 0.537255 0.820717
  2 -2.157202 -1.970013 3.861768 -0.739857 -0.650465 0.171775 0.462745 0.729084
  2 -1.167201 -2.480012 4.251766 -0.366603 -0.869134 0.331976 0.537255 0.764940
dao-bomb.bmp
  2 -1.037201 -2.260013 4.831766 -0.301297 -0.780277 0.548077 0.537255 0.820717
  2 -1.687201 -1.720014 5.041767 -0.532729 -0.565865 0.629283 0.482353 0.848606
  2 -2.157202 -1.970013 3.861768 -0.739857 -0.650465 0.171775 0.462745 0.729084
dao-bomb.bmp
  2 1.452793 1.909991 4.131767 0.473807 0.850454 0.228547 0.184314 0.266932
  2 1.192795 1.329990 5.241767 0.351484 0.643679 0.679806 0.192157 0.362550
  2 2.272795 0.739992 4.751766 0.502881 0.613309 0.609067 0.101961 0.334661
dao-bomb.bmp
  2 2.272795 0.739992 4.751766 0.502881 0.613309 0.609067 0.101961 0.334661
  2 1.192795 1.329990 5.241767 0.351484 0.643679 0.679806 0.192157 0.362550
  2 1.822796 0.609991 5.321766 0.511873 0.413988 0.752728 0.133333 0.390438
dao-bomb.bmp
  2 1.192795 1.329990 5.241767 0.351484 0.643679 0.679806 0.192157 0.362550
  2 0.702796 0.489989 5.821767 0.199526 0.279703 0.939125 0.215686 0.438247
  2 1.822796 0.609991 5.321766 0.511873 0.413988 0.752728 0.133333 0.390438
dao-bomb.bmp
  2 2.632794 0.179994 2.951765 0.845025 0.276495 -0.457694 0.964706 0.597610
  2 3.292795 0.139995 3.401764 0.802839 0.219421 -0.554351 0.988235 0.681275
  2 2.732796 -0.900006 3.261764 0.880854 -0.415678 -0.226513 0.890196 0.669323
dao-bomb.bmp
  2 2.732796 -0.900006 3.261764 0.880854 -0.415678 -0.226513 0.890196 0.669323
  2 3.292795 0.139995 3.401764 0.802839 0.219421 -0.554351 0.988235 0.681275
  2 3.192795 -0.490006 3.511764 0.803200 -0.478686 -0.354582 0.933333 0.701195
dao-bomb.bmp
  2 3.292795 0.139995 3.401764 0.802839 0.219421 -0.554351 0.988235 0.681275
  2 3.432795 0.039994 4.131764 0.996446 0.019470 0.081949 0.984314 0.768924
  2 3.192795 -0.490006 3.511764 0.803200 -0.478686 -0.354582 0.933333 0.701195
dao-bomb.bmp
  2 2.632794 0.179994 2.951765 0.845025 0.276495 -0.457694 0.035294 0.151394
  2 3.112794 0.669994 3.871765 0.667504 0.714928 -0.208125 0.043137 0.250996
  2 3.292795 0.139995 3.401764 0.802839 0.219421 -0.554351 0.007843 0.211155
dao-bomb.bmp
  2 3.292795 0.139995 3.401764 0.802839 0.219421 -0.554351 0.007843 0.211155
  2 3.112794 0.669994 3.871765 0.667504 0.714928 -0.208125 0.043137 0.250996
  2 3.432795 0.039994 4.131764 0.996446 0.019470 0.081949 0.000000 0.282869
dao-bomb.bmp
  2 3.112794 0.669994 3.871765 0.667504 0.714928 -0.208125 0.043137 0.250996
  2 3.142795 0.639994 4.461765 0.645637 0.642199 0.413200 0.047059 0.302789
  2 3.432795 0.039994 4.131764 0.996446 0.019470 0.081949 0.000000 0.282869
dao-bomb.bmp
  2 2.142797 0.009991 5.351765 0.601509 0.063140 0.796367 0.854902 0.940239
  2 1.292797 -0.110010 5.761766 0.333617 0.004756 0.942697 0.756863 0.980080
  2 1.962798 -0.980009 5.171764 0.599790 -0.296918 0.743029 0.800000 0.880478
dao-bomb.bmp
  2 1.962798 -0.980009 5.171764 0.599790 -0.296918 0.743029 0.800000 0.880478
  2 1.292797 -0.110010 5.761766 0.333617 0.004756 0.942697 0.756863 0.980080
  2 1.212798 -0.750010 5.661765 0.344235 -0.230669 0.910107 0.729412 0.940239
dao-bomb.bmp
  2 1.292797 -0.110010 5.761766 0.333617 0.004756 0.942697 0.756863 0.980080
  2 0.002798 -0.370012 5.961767 0.000000 -0.088311 0.996093 0.627451 1.000000
  2 1.212798 -0.750010 5.661765 0.344235 -0.230669 0.910107 0.729412 0.940239
dao-bomb.bmp
  2 -2.497204 0.039985 4.991770 -0.546480 0.056879 0.835539 0.478431 0.398406
  2 -2.147203 0.009985 5.351769 -0.601509 0.063139 0.796367 0.439216 0.430279
  2 -2.277205 0.739986 4.751770 -0.502881 0.613309 0.609067 0.447059 0.354582
dao-bomb.bmp
  2 -2.277205 0.739986 4.751770 -0.502881 0.613309 0.609067 0.447059 0.354582
  2 -2.147203 0.009985 5.351769 -0.601509 0.063139 0.796367 0.439216 0.430279
  2 -1.827204 0.609986 5.321770 -0.511873 0.413987 0.752729 0.403922 0.402390
dao-bomb.bmp
  2 -2.147203 0.009985 5.351769 -0.601509 0.063139 0.796367 0.439216 0.430279
  2 -1.297203 -0.110014 5.761768 -0.333616 0.004756 0.942697 0.368627 0.466135
  2 -1.827204 0.609986 5.321770 -0.511873 0.413987 0.752729 0.403922 0.402390
dao-bomb.bmp
  2 -3.297206 0.139985 3.401771 -0.802839 0.219418 -0.554351 0.552941 0.239044
  2 -3.437205 0.039985 4.131771 -0.996446 0.019468 0.081949 0.556863 0.306773
  2 -3.117206 0.669985 3.871771 -0.667505 0.714928 -0.208124 0.513725 0.278884
dao-bomb.bmp
  2 -3.117206 0.669985 3.871771 -0.667505 0.714928 -0.208124 0.513725 0.278884
  2 -3.437205 0.039985 4.131771 -0.996446 0.019468 0.081949 0.556863 0.306773
  2 -3.147205 0.639985 4.461771 -0.645637 0.642198 0.413200 0.505882 0.326693
dao-bomb.bmp
  2 -3.437205 0.039985 4.131771 -0.996446 0.019468 0.081949 0.556863 0.306773
  2 -3.157204 0.019985 4.781770 -0.622693 -0.026178 0.782028 0.529412 0.366534
  2 -3.147205 0.639985 4.461771 -0.645637 0.642198 0.413200 0.505882 0.326693
dao-bomb.bmp
  2 0.032799 -0.580013 7.141767 0.422615 -0.085567 0.902261 0.862745 0.310757
  2 0.152799 -0.660013 7.071767 0.422615 -0.085567 0.902261 0.921569 0.274900
  2 0.032799 -0.410013 7.151767 0.422615 -0.085567 0.902261 0.862745 0.378486
dao-bomb.bmp
  2 0.032799 -0.410013 7.151767 0.422615 -0.085567 0.902261 0.862745 0.378486
  2 0.152799 -0.660013 7.071767 0.422615 -0.085567 0.902261 0.921569 0.274900
  2 0.282799 -0.400013 7.031767 0.422615 -0.085567 0.902261 0.980392 0.378486
dao-bomb.bmp
  2 0.152799 -0.660013 7.071767 0.422615 -0.085567 0.902261 0.921569 0.274900
  2 0.282799 -0.570013 7.011766 0.422615 -0.085567 0.902261 0.980392 0.310757
  2 0.282799 -0.400013 7.031767 0.422615 -0.085567 0.902261 0.980392 0.378486
dao-bomb.bmp
  3 -1.301151 -2.370142 2.162548 -0.439068 -0.708222 -0.552848 0.549020 0.585657
  5 -0.843060 -2.380737 1.976046 -0.171482 -0.670223 -0.722077 0.576471 0.565737
  4 -1.050741 -2.469743 2.209454 -0.284909 -0.862298 -0.418652 0.564706 0.585657
dao-bomb.bmp
  4 -1.050741 -2.469743 2.209454 -0.284909 -0.862298 -0.418652 0.564706 0.585657
  5 -0.843060 -2.380737 1.976046 -0.171482 -0.670223 -0.722077 0.576471 0.565737
  2 -0.647203 -2.660010 2.291766 -0.215719 -0.900935 -0.376539 0.588235 0.593625
dao-bomb.bmp
  5 -0.843060 -2.380737 1.976046 -0.171482 -0.670223 -0.722077 0.576471 0.565737
  2 -0.577203 -2.360009 1.961766 -0.084780 -0.640923 -0.762909 0.592157 0.561753
  2 -0.647203 -2.660010 2.291766 -0.215719 -0.900935 -0.376539 0.588235 0.593625
dao-bomb.bmp
  2 0.442794 -0.690008 1.411766 0.156617 -0.181227 -0.970890 0.682353 0.430279
  2 0.002796 -1.990008 1.611766 0.000025 -0.415864 -0.909427 0.639216 0.517928
  2 0.002794 -0.690008 1.351767 0.000000 -0.196854 -0.980433 0.639216 0.422311
dao-bomb.bmp
  2 0.002794 -0.690008 1.351767 0.000000 -0.196854 -0.980433 0.639216 0.422311
  2 0.002796 -1.990008 1.611766 0.000025 -0.415864 -0.909427 0.639216 0.517928
  2 -0.447206 -0.690009 1.411767 -0.153770 -0.180324 -0.971513 0.588235 0.422311
dao-bomb.bmp
  2 2.152798 -1.970007 3.861763 0.734633 -0.658366 0.163916 0.792157 0.733068
  2 1.292798 -2.550008 2.951764 0.413409 -0.903258 -0.114970 0.725490 0.649402
  7 1.887665 -2.119742 2.849453 0.621399 -0.777737 -0.094811 0.772549 0.637450
dao-bomb.bmp
  7 1.887665 -2.119742 2.849453 0.621399 -0.777737 -0.094811 0.772549 0.637450
  2 1.292798 -2.550008 2.951764 0.413409 -0.903258 -0.114970 0.725490 0.649402
  7 1.607665 -2.309742 2.719453 0.548221 -0.818336 -0.172568 0.749020 0.625498
dao-bomb.bmp
  3 -1.191152 -1.940141 1.742548 -0.338737 -0.403010 -0.850200 0.556863 0.529880
  3 -1.891151 -1.970143 2.422548 -0.673960 -0.537868 -0.506434 0.498039 0.593625
  4 -2.210742 -1.569745 2.429456 -0.787273 -0.391763 -0.476154 0.462745 0.589641
dao-bomb.bmp
  4 -2.210742 -1.569745 2.429456 -0.787273 -0.391763 -0.476154 0.462745 0.589641
  3 -1.891151 -1.970143 2.422548 -0.673960 -0.537868 -0.506434 0.498039 0.593625
  4 -2.230741 -1.709745 2.759456 -0.839000 -0.506792 -0.198096 0.470588 0.617530
dao-bomb.bmp
  2 1.962798 -0.980009 5.171764 0.599790 -0.296918 0.743029 0.800000 0.880478
  2 2.492796 0.039992 4.991765 0.546480 0.056880 0.835538 0.905882 0.900398
  2 2.142797 0.009991 5.351765 0.601509 0.063140 0.796367 0.854902 0.940239
dao-bomb.bmp
  2 0.702796 0.489989 5.821767 0.199526 0.279703 0.939125 0.215686 0.438247
  2 0.002794 1.619989 5.261769 0.000000 0.733318 0.679886 0.270588 0.362550
  2 0.002796 0.709988 5.841768 0.000000 0.365427 0.930840 0.266667 0.430279
dao-bomb.bmp
  2 2.482797 -0.960007 4.581764 0.718940 -0.506458 0.476052 0.858824 0.820717
  2 1.692799 -1.720009 5.041764 0.533685 -0.560793 0.633002 0.752941 0.844622
  2 2.152798 -1.970007 3.861763 0.734633 -0.658366 0.163916 0.792157 0.733068
dao-bomb.bmp
  2 -1.217202 -0.750013 5.661768 -0.344233 -0.230670 0.910107 0.501961 0.956175
  2 0.002798 -0.370012 5.961767 0.000000 -0.088311 0.996093 0.627451 1.000000
  2 -1.297203 -0.110014 5.761768 -0.333616 0.004756 0.942697 0.486275 1.000000
dao-bomb.bmp
  2 -2.487203 -0.960014 4.581769 -0.718939 -0.506459 0.476052 0.384314 0.812749
  2 -3.197204 -0.490014 3.511770 -0.803200 -0.478688 -0.354580 0.325490 0.685259
  2 -2.737204 -0.900014 3.261769 -0.877634 -0.421101 -0.228981 0.376471 0.661355
dao-bomb.bmp
  2 -3.117206 0.669985 3.871771 -0.667505 0.714928 -0.208124 0.513725 0.278884
  2 -2.637206 0.179987 2.951770 -0.845025 0.276494 -0.457694 0.533333 0.179283
  2 -3.297206 0.139985 3.401771 -0.802839 0.219418 -0.554351 0.552941 0.239044
dao-bomb.bmp
  2 0.882793 -0.240007 1.411766 0.094684 -0.063330 -0.993491 0.725490 0.410359
  2 0.002794 -0.690008 1.351767 0.094684 -0.063330 -0.993491 0.639216 0.422311
  2 0.002792 0.179992 1.301767 0.094684 -0.063330 -0.993491 0.627451 0.334661
dao-bomb.bmp
  2 0.002794 -0.690008 1.351767 0.125510 -0.124353 -0.984268 0.639216 0.422311
  2 0.882793 -0.240007 1.411766 0.125510 -0.124353 -0.984268 0.725490 0.410359
  2 0.442794 -0.690008 1.411766 0.125510 -0.124353 -0.984268 0.682353 0.430279
dao-bomb.bmp
  2 0.002792 0.179992 1.301767 0.128414 0.007579 -0.991692 0.627451 0.334661
  2 1.012792 0.209993 1.431766 0.128414 0.007579 -0.991692 0.741176 0.362550
  2 0.882793 -0.240007 1.411766 0.128414 0.007579 -0.991692 0.725490 0.410359
dao-bomb.bmp
  2 0.612792 0.749993 1.501767 0.072366 0.266045 -0.961240 0.243137 0.035857
  2 0.002792 0.179992 1.301767 0.072366 0.266045 -0.961240 0.290196 0.000000
  2 0.002792 0.939992 1.511768 0.072366 0.266045 -0.961240 0.294118 0.043825
dao-bomb.bmp
  2 0.002792 0.179992 1.301767 0.117924 0.219470 -0.968466 0.290196 0.000000
  2 0.612792 0.749993 1.501767 0.117924 0.219470 -0.968466 0.243137 0.035857
  2 1.012792 0.209993 1.431766 0.117924 0.219470 -0.968466 0.196078 0.003984
dao-bomb.bmp
  2 -0.447206 -0.690009 1.411767 -0.126240 -0.063107 -0.989990 0.588235 0.422311
  2 0.002792 0.179992 1.301767 -0.126240 -0.063107 -0.989990 0.627451 0.334661
  2 0.002794 -0.690008 1.351767 -0.126240 -0.063107 -0.989990 0.639216 0.422311
dao-bomb.bmp
  2 0.002792 0.179992 1.301767 -0.084347 -0.084744 -0.992826 0.627451 0.334661
  2 -0.447206 -0.690009 1.411767 -0.084347 -0.084744 -0.992826 0.588235 0.422311
  2 -0.887207 -0.240009 1.411768 -0.084347 -0.084744 -0.992826 0.545098 0.422311
dao-bomb.bmp
  2 0.002792 0.179992 1.301767 -0.128414 0.007579 -0.991692 0.627451 0.334661
  2 -0.887207 -0.240009 1.411768 -0.128414 0.007579 -0.991692 0.545098 0.422311
  2 -1.017208 0.209990 1.431768 -0.128414 0.007579 -0.991692 0.513725 0.386454
dao-bomb.bmp
  2 -1.017208 0.209990 1.431768 -0.114882 0.264978 -0.957386 0.392157 0.007968
  2 0.002792 0.939992 1.511768 -0.114882 0.264978 -0.957386 0.294118 0.043825
  2 0.002792 0.179992 1.301767 -0.114882 0.264978 -0.957386 0.290196 0.000000
dao-bomb.bmp
  2 0.002792 0.939992 1.511768 -0.040739 0.164147 -0.985594 0.294118 0.043825
  2 -1.017208 0.209990 1.431768 -0.040739 0.164147 -0.985594 0.392157 0.007968
  2 -0.617208 0.749991 1.501768 -0.040739 0.164147 -0.985594 0.345098 0.039841
dao-bomb.bmp
  2 0.632797 -0.360011 5.711766 1.000000 0.000001 -0.000001 0.980392 0.147410
  2 0.442798 0.029988 6.281767 0.707106 0.703950 0.066759 0.886275 0.270916
  2 0.632798 -0.410011 6.241766 1.000000 0.000001 -0.000001 0.980392 0.270916
dao-bomb.bmp
  2 -0.637203 -0.360013 5.711768 -1.000000 0.000000 0.000000 0.576471 0.015936
  2 -0.447201 -0.860013 6.191767 -0.707105 -0.703950 -0.066760 0.674510 0.139442
  2 -0.637202 -0.410013 6.241767 -1.000000 0.000000 0.000000 0.576471 0.139442
dao-bomb.bmp
  2 0.442798 0.029988 6.281767 0.000000 -0.088311 0.996093 0.215686 0.960159
  2 0.442799 -0.860012 6.191766 0.000000 -0.088311 0.996093 0.215686 0.792829
  2 0.632798 -0.410011 6.241766 0.000000 -0.088311 0.996093 0.250980 0.876494
dao-bomb.bmp
  2 -0.637202 -0.410013 6.241767 0.000000 -0.088311 0.996093 0.019608 0.876494
  2 -0.447201 -0.860013 6.191767 0.000000 -0.088311 0.996093 0.050980 0.792829
  2 -0.447202 0.029987 6.281768 0.000000 -0.088311 0.996093 0.050980 0.960159
dao-bomb.bmp
  2 -0.097201 -0.520013 6.651767 -0.867567 -0.491806 0.073854 0.203922 0.657371
  2 -0.117202 -0.340012 6.231767 -0.869237 0.485512 0.093298 0.176471 0.577689
  2 -0.117202 -0.470012 6.211767 -0.869237 -0.494395 0.000366 0.203922 0.577689
dao-bomb.bmp
  2 0.032799 -0.580013 7.141767 -0.858749 -0.489852 0.150319 0.203922 0.741036
  2 -0.097202 -0.380013 6.661767 -0.867395 0.469343 0.165356 0.176471 0.657371
  2 -0.097201 -0.520013 6.651767 -0.867567 -0.491806 0.073854 0.203922 0.657371
dao-bomb.bmp
  2 0.152799 -0.320013 7.101767 0.422615 -0.085567 0.902261 0.921569 0.414343
  2 0.032799 -0.410013 7.151767 0.422615 -0.085567 0.902261 0.862745 0.378486
  2 0.282799 -0.400013 7.031767 0.422615 -0.085567 0.902261 0.980392 0.378486
dao-bomb.bmp
  4 -1.610741 -2.369745 2.719455 -0.489134 -0.868584 -0.079433 0.521569 0.625498
  4 -1.340741 -2.499744 2.519454 -0.306870 -0.928209 -0.210376 0.541176 0.613546
  2 -1.297202 -2.550011 2.961766 -0.357319 -0.931171 -0.072414 0.537255 0.645418
dao-bomb.bmp
  2 -1.167201 -2.480012 4.251766 -0.366603 -0.869134 0.331976 0.537255 0.764940
  2 0.002799 -2.830010 3.751765 0.000211 -0.991781 0.127949 0.623529 0.717131
  2 0.002799 -2.720011 4.231765 0.000000 -0.950009 0.312224 0.619608 0.756972
dao-bomb.bmp
  2 -1.277201 -2.590012 3.681766 -0.380996 -0.918816 0.103051 0.529412 0.713147
  10 -0.431364 -2.768443 3.634151 -0.187794 -0.981624 0.033873 0.592157 0.705179
  9 -0.622376 -2.718443 3.794152 -0.186388 -0.965398 0.182393 0.576471 0.721116
dao-bomb.bmp
  2 1.162799 -2.480009 4.251764 0.359464 -0.875948 0.321715 0.705882 0.764940
  9 0.617624 -2.718441 3.794150 0.188425 -0.965727 0.178516 0.670588 0.721116
  2 1.272799 -2.590008 3.671764 0.392494 -0.915528 0.088076 0.721569 0.713147
dao-bomb.bmp
  11 0.423653 -2.768441 3.624151 0.187993 -0.981625 0.032725 0.658824 0.709163
  2 0.002799 -2.830010 3.751765 0.000211 -0.991781 0.127949 0.623529 0.717131
  2 0.002798 -2.830010 3.171765 -0.000618 -0.999417 -0.034143 0.627451 0.669323
end
