version 1
nodes
  0 "turbulent3_root" -1
  1 "megazin" 0
  2 "triger" 0
  3 "ezr04" 0
  4 "ezr03" 0
  5 "ezr02" 0
  6 "ezr01" 0
  7 "ezl03" 0
  8 "ezl02" 0
  9 "ezl01" 0
  10 "ezl04" 0
  11 "Bone046" 0
  12 "rBone049" 0
  13 "rBone048" 0
  14 "root" -1
  15 "Bone01" 14
  16 "Bone_L_Upper" 15
  17 "Bone_Lefthand" 15
  18 "Bone13" 17
  19 "Bone14" 18
  20 "Bone15" 19
  21 "Bone17" 17
  22 "Bone18" 21
  23 "Bone19" 22
  24 "Bone21" 17
  25 "Bone22" 24
  26 "Bone23" 25
  27 "Bone09" 17
  28 "Bone10" 27
  29 "Bone11" 28
  30 "Bone05" 17
  31 "Bone06" 30
  32 "Bone07" 31
  33 "Bone_Se_Hand-L" 17
  34 "Bone04" 14
  35 "Bone_Righthand" 34
  36 "Bone39" 35
  37 "Bone40" 36
  38 "Bone41" 37
  39 "Bone35" 35
  40 "Bone36" 39
  41 "Bone37" 40
  42 "Bone31" 35
  43 "Bone32" 42
  44 "Bone33" 43
  45 "Bone43" 35
  46 "Bone44" 45
  47 "Bone45" 46
  48 "Bone27" 35
  49 "Bone28" 48
  50 "Bone29" 49
  51 "Bone_Se_Hand-R" 35
  52 "Bone_R_Upper" 34
end
skeleton
  time 0
    0 5.199072 -6.961150 -5.402509 -0.011631 -0.176681 -1.697670
    1 8.265903 -0.786431 0.000000 0.000000 0.000000 -1.570795
    2 -0.197608 0.000001 -1.958414 4.712389 0.958800 3.141592
    3 4.362904 -1.050445 2.086500 1.570797 1.570796 0.000000
    4 5.074254 -1.050445 2.484950 1.570797 1.570796 0.000000
    5 5.785604 -1.050445 2.043530 1.570797 1.570796 0.000000
    6 6.496956 -1.050445 2.332601 1.570797 1.570796 0.000000
    7 5.074254 1.017943 2.043530 1.570797 1.570796 0.000000
    8 5.785604 1.017944 2.484950 1.570797 1.570796 0.000000
    9 6.496954 1.017944 2.086500 1.570797 1.570796 0.000000
    10 4.362903 1.017943 2.328695 1.570797 1.570796 0.000000
    11 6.145618 0.331481 0.126217 0.000000 0.000000 1.570796
    12 1.221165 -0.808934 1.278864 0.000000 -3.141592 0.332876
    13 1.220377 0.807360 1.278864 0.000000 -3.141592 -0.333470
    14 2.376226 6.127828 -4.573739 -0.010546 0.000000 0.206357
    15 7.290511 -3.119860 -5.393677 6.243117 -1.928403 -0.600893
    16 7.956603 2.149102 -0.352938 1.567315 -3.119712 0.342642
    17 -0.001606 -8.518268 -0.072883 0.232433 0.591566 0.250356
    18 -0.488518 -2.755602 -0.228260 -1.428130 -0.160856 -0.230070
    19 0.039887 -1.550105 0.029854 -2.079381 -0.002469 0.045435
    20 0.032692 -1.310113 -0.085611 -2.212855 -0.000671 0.047998
    21 0.250027 -2.820665 -0.238396 -1.235290 -0.189365 -0.138021
    22 -0.049759 -1.602417 -0.004993 -2.024646 -0.011325 -0.048935
    23 -0.034142 -1.206908 0.045718 -1.953457 -0.008689 -0.047315
    24 0.957766 -2.746780 -0.090302 -0.040927 -0.188140 0.130401
    25 -0.033420 -1.397129 -0.034695 -1.363723 -0.006627 -0.063891
    26 -0.022360 -0.957436 -0.000748 -0.815603 0.006484 -0.039729
    27 -1.180681 -2.507217 -0.193859 -1.395888 0.078406 -0.337683
    28 -0.024967 -1.127840 0.017597 -1.816414 -0.022243 -0.067916
    29 -0.020057 -0.890968 0.064779 -2.298967 -0.040688 -0.071344
    30 0.599135 -1.197277 0.181473 0.406214 -0.806240 -0.659243
    31 1.528114 -0.118664 0.040166 0.006036 -0.129613 -0.420006
    32 0.967954 -0.202511 0.051823 0.134224 -0.274210 -1.244940
    33 0.120153 -0.050270 -0.054489 0.287569 3.110905 1.561085
    34 -8.142103 -8.723554 -2.661521 0.383529 -3.618801 0.334636
    35 0.175071 -8.438699 -0.224215 0.070076 0.682077 0.105747
    36 0.447953 -2.798986 -0.200443 -0.575114 0.020764 0.098269
    37 -0.032909 -1.499736 0.032285 -1.604100 0.022998 -0.032524
    38 -0.027022 -1.108171 -0.028023 -0.809502 0.019391 -0.011397
    39 -0.249534 -2.846964 -0.174213 -0.305656 0.018056 0.027965
    40 0.043235 -1.656596 0.060855 -1.708616 -0.024370 0.012704
    41 0.031729 -1.153017 0.058838 -0.456036 -0.004044 0.005831
    42 -0.963866 -2.785145 -0.085350 -0.131792 0.089002 0.029572
    43 0.028479 -1.406973 -0.024980 -1.178057 -0.034384 -0.037392
    44 0.021413 -0.942156 0.012233 -0.911525 -0.023202 -0.032562
    45 1.164475 -2.543940 -0.170330 -0.596435 -0.045557 0.103003
    46 0.024032 -1.144668 -0.005631 -1.101947 0.015017 0.056041
    47 0.014898 -0.899614 -0.019848 -0.810464 0.003152 0.041047
    48 -0.586770 -1.264477 0.200161 -0.027868 -0.631674 -2.776263
    49 1.550180 0.039149 0.016848 -0.011521 -0.004414 0.620144
    50 1.114041 0.044518 -0.005766 -0.024799 -0.034810 0.910969
    51 -0.069084 -0.111698 0.022210 -0.185450 0.061295 1.564101
    52 -5.467813 6.885993 -0.356624 1.580696 -0.019692 -1.011108
  time 1
    0 5.382672 -5.117344 -5.371258 -0.067424 -0.169448 -1.702421
    1 8.265903 -0.786431 0.000000 0.000000 0.000000 -1.570795
    2 -0.197608 0.000001 -1.958414 1.560826 2.174985 -0.009971
    3 4.362904 -1.050445 2.043530 1.570797 1.570796 0.000000
    4 5.074254 -1.050445 2.484950 1.570797 1.570796 0.000000
    5 5.785604 -1.050445 2.043530 1.570797 1.570796 0.000000
    6 6.496956 -1.050445 2.445886 1.570797 1.570796 0.000000
    7 5.074254 1.017943 2.043530 1.570797 1.570796 0.000000
    8 5.785604 1.017944 2.484950 1.570797 1.570796 0.000000
    9 6.496954 1.017944 2.043530 1.570797 1.570796 0.000000
    10 4.362903 1.017943 2.438073 1.570797 1.570796 0.000000
    11 6.145618 0.331481 0.126217 0.000000 0.000000 1.570796
    12 1.221165 -0.808934 1.278864 -0.785374 -3.141592 0.332876
    13 1.220377 0.807360 1.278864 0.785374 -3.141592 -0.333470
    14 2.376226 6.127828 -4.573739 -0.010546 0.000000 0.206357
    15 8.130380 -1.615908 -5.401490 6.252893 -1.889765 -0.676932
    16 7.991760 -0.460353 -0.392002 -1.570179 -0.027384 -3.120929
    17 0.002300 -8.529987 -0.072883 0.298251 0.593953 0.276148
    18 -0.488518 -2.755602 -0.228260 -1.428130 -0.160856 -0.230070
    19 0.039887 -1.550105 0.029854 -2.079381 -0.002469 0.045435
    20 0.032692 -1.310113 -0.085611 -2.212855 -0.000671 0.047998
    21 0.250027 -2.820665 -0.238396 -1.235290 -0.189365 -0.138021
    22 -0.049759 -1.602417 -0.004993 -2.024646 -0.011325 -0.048935
    23 -0.034142 -1.206908 0.045718 -1.953457 -0.008689 -0.047315
    24 0.957766 -2.746780 -0.090302 -0.039009 -0.188200 0.130497
    25 -0.033420 -1.397129 -0.034695 -1.358837 -0.006448 -0.063711
    26 -0.022360 -0.957436 -0.000748 -0.815603 0.006484 -0.039729
    27 -1.180681 -2.507217 -0.193859 -1.395888 0.078406 -0.337683
    28 -0.024967 -1.127840 0.017597 -1.816414 -0.022243 -0.067916
    29 -0.020057 -0.890968 0.064779 -2.298967 -0.040688 -0.071344
    30 0.599135 -1.197277 0.181473 0.406214 -0.806240 -0.659243
    31 1.528114 -0.118664 0.040166 0.006036 -0.129613 -0.420006
    32 0.967954 -0.202511 0.051823 0.134224 -0.274210 -1.244940
    33 0.120153 -0.050270 -0.054489 0.287569 3.110905 1.561085
    34 -9.052287 -7.774306 -3.376386 0.508690 -3.506951 0.562306
    35 0.147727 -8.384010 -0.239841 -0.005688 0.727880 0.305112
    36 0.447953 -2.798986 -0.200443 -0.575114 0.020764 0.098269
    37 -0.032909 -1.499736 0.032285 -1.604100 0.022998 -0.032524
    38 -0.027022 -1.108171 -0.028023 -0.809502 0.019391 -0.011397
    39 -0.249534 -2.846964 -0.174213 -0.305656 0.018056 0.027965
    40 0.043235 -1.656596 0.060855 -1.708616 -0.024370 0.012704
    41 0.031729 -1.153017 0.058838 -0.456036 -0.004044 0.005831
    42 -0.963866 -2.785145 -0.085350 -0.131792 0.089002 0.029572
    43 0.028479 -1.406973 -0.024980 -1.178057 -0.034384 -0.037392
    44 0.021413 -0.942156 0.012233 -0.911525 -0.023202 -0.032562
    45 1.164475 -2.543940 -0.170330 -0.596435 -0.045557 0.103003
    46 0.024032 -1.144668 -0.005631 -1.101947 0.015017 0.056041
    47 0.014898 -0.899614 -0.019848 -0.810464 0.003152 0.041047
    48 -0.586770 -1.264477 0.200161 -0.027868 -0.631674 -2.776263
    49 1.550180 0.039149 0.016848 -0.011521 -0.004414 0.620144
    50 1.114041 0.044518 -0.005766 -0.024799 -0.034810 0.910969
    51 -0.069084 -0.111698 0.022210 -0.185450 0.061295 1.564101
    52 -7.788196 3.413230 -0.442564 1.573709 -0.031305 -0.498549
  time 2
    0 5.222510 -5.132969 -5.363445 -0.027167 -0.173470 -1.700174
    1 8.265903 -0.786431 0.000000 0.000000 0.000000 -1.570795
    2 -0.197608 0.000001 -1.958414 1.532638 2.153040 -0.038159
    3 4.362904 -1.050445 2.043530 1.570797 1.570796 0.000000
    4 5.074254 -1.050445 2.484950 1.570797 1.570796 0.000000
    5 5.785604 -1.050445 2.043530 1.570797 1.570796 0.000000
    6 6.496956 -1.050445 2.492762 1.570797 1.570796 0.000000
    7 5.074254 1.017943 2.043530 1.570797 1.570796 0.000000
    8 5.785604 1.017944 2.484950 1.570797 1.570796 0.000000
    9 6.496954 1.017944 2.043530 1.570797 1.570796 0.000000
    10 4.362903 1.017943 2.484950 1.570797 1.570796 0.000000
    11 6.145618 0.331481 0.126217 0.000000 0.000000 1.570796
    12 1.221165 -0.808934 1.278864 -1.570796 -3.141592 0.332876
    13 1.220377 0.807360 1.278864 -1.570796 0.000000 -3.474966
    14 2.376226 6.162986 -4.573739 -0.010546 0.007922 0.210007
    15 8.091316 -1.690129 -5.405397 6.276088 -1.892562 -0.697137
    16 8.003480 -0.397851 -0.392002 -1.570274 -0.027289 -3.112769
    17 -0.009419 -8.526081 -0.072883 0.280876 0.554744 0.243944
    18 -0.488518 -2.755602 -0.228260 -1.428130 -0.160856 -0.230070
    19 0.039887 -1.550105 0.029854 -2.079381 -0.002469 0.045435
    20 0.032692 -1.310113 -0.085611 -2.212855 -0.000671 0.047998
    21 0.250027 -2.820665 -0.238396 -1.235290 -0.189365 -0.138021
    22 -0.049759 -1.602417 -0.004993 -2.024646 -0.011325 -0.048935
    23 -0.034142 -1.206908 0.045718 -1.953457 -0.008689 -0.047315
    24 0.957766 -2.746780 -0.090302 -0.027540 -0.188499 0.131000
    25 -0.033420 -1.397129 -0.034695 -1.329482 -0.005417 -0.062656
    26 -0.022360 -0.957436 -0.000748 -0.815603 0.006484 -0.039729
    27 -1.180681 -2.507217 -0.193859 -1.395888 0.078406 -0.337683
    28 -0.024967 -1.127840 0.017597 -1.816414 -0.022243 -0.067916
    29 -0.020057 -0.890968 0.064779 -2.298967 -0.040688 -0.071344
    30 0.599135 -1.197277 0.181473 0.406214 -0.806228 -0.659243
    31 1.528114 -0.118664 0.040166 0.006036 -0.129613 -0.420006
    32 0.967954 -0.202511 0.051823 0.134224 -0.274210 -1.244940
    33 0.120153 -0.050270 -0.054489 0.287569 3.110905 1.561085
    34 -9.142133 -7.676647 -3.493577 0.493773 -3.521948 0.537318
    35 0.151633 -8.387917 -0.228122 0.030691 0.685785 0.298888
    36 0.447953 -2.798986 -0.200443 -0.575114 0.020764 0.098269
    37 -0.032909 -1.499736 0.032285 -1.604100 0.022998 -0.032524
    38 -0.027022 -1.108171 -0.028023 -0.809502 0.019391 -0.011397
    39 -0.249534 -2.846964 -0.174213 -0.305656 0.018056 0.027965
    40 0.043235 -1.656596 0.060855 -1.708616 -0.024370 0.012704
    41 0.031729 -1.153017 0.058838 -0.456036 -0.004044 0.005831
    42 -0.963866 -2.785145 -0.085350 -0.131792 0.089002 0.029572
    43 0.028479 -1.406973 -0.024980 -1.178057 -0.034384 -0.037392
    44 0.021413 -0.942156 0.012233 -0.911525 -0.023202 -0.032562
    45 1.164475 -2.543940 -0.170330 -0.596435 -0.045557 0.103003
    46 0.024032 -1.144668 -0.005631 -1.101947 0.015017 0.056041
    47 0.014898 -0.899614 -0.019848 -0.810464 0.003152 0.041047
    48 -0.586770 -1.264477 0.200161 -0.027868 -0.631674 -2.776263
    49 1.550180 0.039149 0.016848 -0.011521 -0.004414 0.620144
    50 1.114041 0.044518 -0.005766 -0.024799 -0.034810 0.910969
    51 -0.069084 -0.111698 0.022210 -0.185450 0.061295 1.564101
    52 -7.792103 3.397605 -0.442564 1.573661 -0.031341 -0.496421
  time 3
    0 5.038911 -5.371258 -5.390790 0.022961 -0.181432 -1.691698
    1 8.265903 -0.786431 0.000000 0.000000 0.000000 -1.570795
    2 -0.197608 0.000001 -1.958414 1.489206 2.119142 -0.081591
    3 4.362904 -1.050445 2.043530 1.570797 1.570796 0.000000
    4 5.074254 -1.050445 2.484950 1.570797 1.570796 0.000000
    5 5.785604 -1.050445 2.043530 1.570797 1.570796 0.000000
    6 6.496956 -1.050445 2.492762 1.570797 1.570796 0.000000
    7 5.074254 1.017943 2.043530 1.570797 1.570796 0.000000
    8 5.785604 1.017944 2.484950 1.570797 1.570796 0.000000
    9 6.496954 1.017944 2.043530 1.570797 1.570796 0.000000
    10 4.362903 1.017943 2.484950 1.570797 1.570796 0.000000
    11 6.145618 0.331481 0.126217 0.000000 0.000000 1.570796
    12 1.221165 -0.808934 1.278864 1.570796 0.000000 -2.808716
    13 1.220377 0.807360 1.278864 -1.570796 0.000000 -3.474966
    14 2.376226 6.245019 -4.573739 -0.010546 0.025347 0.218009
    15 7.927249 -1.990919 -5.432741 0.017449 -1.902254 -0.709140
    16 8.050356 0.047475 -0.388095 1.570478 -3.115130 0.083776
    17 -0.021138 -8.522175 -0.080696 0.253705 0.505884 0.203737
    18 -0.488518 -2.755602 -0.228260 -1.428130 -0.160856 -0.230070
    19 0.039887 -1.550105 0.029854 -2.079381 -0.002469 0.045435
    20 0.032692 -1.310113 -0.085611 -2.212855 -0.000671 0.047998
    21 0.250027 -2.820665 -0.238396 -1.235290 -0.189365 -0.138021
    22 -0.049759 -1.602417 -0.004993 -2.024646 -0.011325 -0.048935
    23 -0.034142 -1.206908 0.045718 -1.953457 -0.008689 -0.047315
    24 0.957766 -2.746780 -0.090302 -0.014776 -0.188847 0.131563
    25 -0.033420 -1.397129 -0.034695 -1.296771 -0.004302 -0.061434
    26 -0.022360 -0.957436 -0.000748 -0.815603 0.006484 -0.039729
    27 -1.180681 -2.507217 -0.193859 -1.395888 0.078406 -0.337683
    28 -0.024967 -1.127840 0.017597 -1.816414 -0.022243 -0.067916
    29 -0.020057 -0.890968 0.064779 -2.298967 -0.040688 -0.071344
    30 0.599135 -1.197277 0.181473 0.406214 -0.806228 -0.659243
    31 1.528114 -0.118664 0.040166 0.006036 -0.129613 -0.420006
    32 0.967954 -0.202511 0.051823 0.134224 -0.274210 -1.244940
    33 0.120153 -0.050270 -0.054489 0.287569 3.110905 1.561085
    34 -9.149946 -7.700085 -3.575611 0.455969 -3.556705 0.479012
    35 0.163352 -8.403542 -0.208590 0.086919 0.627623 0.264428
    36 0.447953 -2.798986 -0.200443 -0.575114 0.020764 0.098269
    37 -0.032909 -1.499736 0.032285 -1.604100 0.022998 -0.032524
    38 -0.027022 -1.108171 -0.028023 -0.809502 0.019391 -0.011397
    39 -0.249534 -2.846964 -0.174213 -0.305656 0.018056 0.027965
    40 0.043235 -1.656596 0.060855 -1.708616 -0.024370 0.012704
    41 0.031729 -1.153017 0.058838 -0.456036 -0.004044 0.005831
    42 -0.963866 -2.785145 -0.085350 -0.131792 0.089002 0.029572
    43 0.028479 -1.406973 -0.024980 -1.178057 -0.034384 -0.037392
    44 0.021413 -0.942156 0.012233 -0.911525 -0.023202 -0.032562
    45 1.164475 -2.543940 -0.170330 -0.596435 -0.045557 0.103003
    46 0.024032 -1.144668 -0.005631 -1.101947 0.015017 0.056041
    47 0.014898 -0.899614 -0.019848 -0.810464 0.003152 0.041047
    48 -0.586770 -1.264477 0.200161 -0.027868 -0.631674 -2.776263
    49 1.550180 0.039149 0.016848 -0.011521 -0.004414 0.620144
    50 1.114041 0.044518 -0.005766 -0.024799 -0.034810 0.910969
    51 -0.069084 -0.111698 0.022210 -0.185450 0.061295 1.564101
    52 -7.612410 3.878088 -0.434751 1.574824 -0.030155 -0.558636
  time 4
    0 4.890469 -5.718925 -5.406415 0.068669 -0.188827 -1.681939
    1 8.265903 -0.786431 0.000000 0.000000 0.000000 -1.570795
    2 -0.197608 0.000001 -1.958414 1.433118 2.075439 -0.137679
    3 4.362904 -1.050445 2.043530 1.570797 1.570796 0.000000
    4 5.074254 -1.050445 2.367759 1.570797 1.570796 0.000000
    5 5.785604 -1.050445 2.262287 1.570797 1.570796 0.000000
    6 6.496956 -1.050445 2.488856 1.570797 1.570796 0.000000
    7 5.074254 1.017943 2.262287 1.570797 1.570796 0.000000
    8 5.785604 1.017944 2.367759 1.570797 1.570796 0.000000
    9 6.496954 1.017944 2.043530 1.570797 1.570796 0.000000
    10 4.362903 1.017943 2.484950 1.570797 1.570796 0.000000
    11 6.145618 0.331481 0.126217 0.000000 0.000000 1.570796
    12 1.221165 -0.808934 1.278864 1.570796 0.000000 -2.808716
    13 1.220377 0.807360 1.278864 -1.570796 0.000000 -3.474966
    14 2.376226 6.327053 -4.573739 -0.010546 0.042785 0.226081
    15 7.716305 -2.373743 -5.440554 0.037193 -1.913247 -0.712725
    16 8.077701 0.641243 -0.376376 1.569520 -3.116275 0.156421
    17 -0.032857 -8.514362 -0.084602 0.227075 0.461748 0.169026
    18 -0.488518 -2.755602 -0.228260 -1.428130 -0.160856 -0.230070
    19 0.039887 -1.550105 0.029854 -2.079381 -0.002469 0.045435
    20 0.032692 -1.310113 -0.085611 -2.212855 -0.000671 0.047998
    21 0.250027 -2.820665 -0.238396 -1.235290 -0.189365 -0.138021
    22 -0.049759 -1.602417 -0.004993 -2.024646 -0.011325 -0.048935
    23 -0.034142 -1.206908 0.045718 -1.953457 -0.008689 -0.047315
    24 0.957766 -2.746780 -0.090302 -0.001353 -0.189218 0.132138
    25 -0.033420 -1.397129 -0.034695 -1.262445 -0.003176 -0.060116
    26 -0.022360 -0.957436 -0.000748 -0.815603 0.006484 -0.039729
    27 -1.180681 -2.507217 -0.193859 -1.395888 0.078406 -0.337683
    28 -0.024967 -1.127840 0.017597 -1.816414 -0.022243 -0.067916
    29 -0.020057 -0.890968 0.064779 -2.298967 -0.040688 -0.071344
    30 0.599135 -1.197277 0.181473 0.406214 -0.806228 -0.659243
    31 1.528114 -0.118664 0.040166 0.006036 -0.129613 -0.420006
    32 0.967954 -0.202511 0.051823 0.134224 -0.274210 -1.244940
    33 0.120153 -0.050270 -0.054489 0.287569 3.110905 1.561085
    34 -9.056193 -7.852434 -3.571705 0.410145 -3.593963 0.409363
    35 0.171165 -8.423074 -0.192964 0.137702 0.573694 0.213619
    36 0.447953 -2.798986 -0.200443 -0.575114 0.020764 0.098269
    37 -0.032909 -1.499736 0.032285 -1.604100 0.022998 -0.032524
    38 -0.027022 -1.108171 -0.028023 -0.809502 0.019391 -0.011397
    39 -0.249534 -2.846964 -0.174213 -0.305656 0.018056 0.027965
    40 0.043235 -1.656596 0.060855 -1.708616 -0.024370 0.012704
    41 0.031729 -1.153017 0.058838 -0.456036 -0.004044 0.005831
    42 -0.963866 -2.785145 -0.085350 -0.131792 0.089002 0.029572
    43 0.028479 -1.406973 -0.024980 -1.178057 -0.034384 -0.037392
    44 0.021413 -0.942156 0.012233 -0.911525 -0.023202 -0.032562
    45 1.164475 -2.543940 -0.170330 -0.596435 -0.045557 0.103003
    46 0.024032 -1.144668 -0.005631 -1.101947 0.015017 0.056041
    47 0.014898 -0.899614 -0.019848 -0.810464 0.003152 0.041047
    48 -0.586770 -1.264477 0.200161 -0.027868 -0.631674 -2.776263
    49 1.550180 0.039149 0.016848 -0.011521 -0.004414 0.620144
    50 1.114041 0.044518 -0.005766 -0.024799 -0.034810 0.910969
    51 -0.069084 -0.111698 0.022210 -0.185450 0.061295 1.564101
    52 -7.245211 4.647643 -0.419126 1.576585 -0.028009 -0.662327
  time 5
    0 4.800623 -6.043153 -5.394696 0.097123 -0.192471 -1.678023
    1 8.265903 -0.786431 0.000000 0.000000 0.000000 -1.570795
    2 -0.197608 0.000001 -1.958414 1.367251 2.024115 -0.203546
    3 4.362904 -1.050445 2.156815 1.570797 1.570796 0.000000
    4 5.074254 -1.050445 2.156815 1.570797 1.570796 0.000000
    5 5.785604 -1.050445 2.484950 1.570797 1.570796 0.000000
    6 6.496956 -1.050445 2.367759 1.570797 1.570796 0.000000
    7 5.074254 1.017943 2.484950 1.570797 1.570796 0.000000
    8 5.785604 1.017944 2.156815 1.570797 1.570796 0.000000
    9 6.496954 1.017944 2.156815 1.570797 1.570796 0.000000
    10 4.362903 1.017943 2.367759 1.570797 1.570796 0.000000
    11 6.145618 0.331481 0.126217 0.000000 0.000000 1.570796
    12 1.221165 -0.808934 1.278864 -1.570796 -3.141592 0.332876
    13 1.220377 0.807360 1.278864 -1.570796 0.000000 -3.474966
    14 2.376226 6.366117 -4.573739 -0.010546 0.050707 0.229660
    15 7.548331 -2.682347 -5.424928 0.046681 -1.921183 -0.708760
    16 8.069888 1.137352 -0.372470 1.568753 -3.117325 0.217455
    17 -0.040670 -8.510455 -0.084602 0.208401 0.438029 0.150658
    18 -0.488518 -2.755602 -0.228260 -1.428130 -0.160856 -0.230070
    19 0.039887 -1.550105 0.029854 -2.079381 -0.002469 0.045435
    20 0.032692 -1.310113 -0.085611 -2.212855 -0.000671 0.047998
    21 0.250027 -2.820665 -0.238396 -1.235290 -0.189365 -0.138021
    22 -0.049759 -1.602417 -0.004993 -2.024646 -0.011325 -0.048935
    23 -0.034142 -1.206908 0.045718 -1.953457 -0.008689 -0.047315
    24 0.957766 -2.746780 -0.090302 0.012045 -0.189602 0.132714
    25 -0.033420 -1.397129 -0.030789 -1.228120 -0.002085 -0.058761
    26 -0.022360 -0.957436 -0.000748 -0.815603 0.006484 -0.039729
    27 -1.180681 -2.507217 -0.193859 -1.395888 0.078406 -0.337683
    28 -0.024967 -1.127840 0.017597 -1.816414 -0.022243 -0.067916
    29 -0.020057 -0.890968 0.064779 -2.298967 -0.040688 -0.071344
    30 0.599135 -1.197277 0.181473 0.406214 -0.806228 -0.659243
    31 1.528114 -0.118664 0.040166 0.006036 -0.129613 -0.420006
    32 0.967954 -0.202511 0.051823 0.134224 -0.274210 -1.244940
    33 0.120153 -0.050270 -0.054489 0.287569 3.110905 1.561085
    34 -8.923377 -8.032127 -3.497484 0.375867 -3.618723 0.354627
    35 0.175071 -8.434793 -0.185152 0.165971 0.542984 0.169901
    36 0.447953 -2.798986 -0.200443 -0.575114 0.020764 0.098269
    37 -0.032909 -1.499736 0.032285 -1.604100 0.022998 -0.032524
    38 -0.027022 -1.108171 -0.028023 -0.809502 0.019391 -0.011397
    39 -0.249534 -2.846964 -0.174213 -0.305656 0.018056 0.027965
    40 0.043235 -1.656596 0.060855 -1.708616 -0.024370 0.012704
    41 0.031729 -1.153017 0.058838 -0.456036 -0.004044 0.005831
    42 -0.963866 -2.785145 -0.085350 -0.131792 0.089002 0.029572
    43 0.028479 -1.406973 -0.024980 -1.178057 -0.034384 -0.037392
    44 0.021413 -0.942156 0.012233 -0.911525 -0.023202 -0.032562
    45 1.164475 -2.543940 -0.170330 -0.596435 -0.045557 0.103003
    46 0.024032 -1.144668 -0.005631 -1.101947 0.015017 0.056041
    47 0.014898 -0.899614 -0.019848 -0.810464 0.003152 0.041047
    48 -0.586770 -1.264477 0.200161 -0.027868 -0.631674 -2.776263
    49 1.550180 0.039149 0.016848 -0.011521 -0.004414 0.620144
    50 1.114041 0.044518 -0.005766 -0.024799 -0.034810 0.910969
    51 -0.069084 -0.111698 0.022210 -0.185450 0.061295 1.564101
    52 -6.827230 5.339070 -0.403501 1.578036 -0.025816 -0.760546
  time 6
    0 4.824061 -6.304880 -5.375164 0.086694 -0.193740 -1.684700
    1 8.265903 -0.786431 0.000000 0.000000 0.000000 -1.570795
    2 -0.197608 0.000001 -1.958414 1.294384 1.967357 -0.276413
    3 4.362904 -1.050445 2.367759 1.570797 1.570796 0.000000
    4 5.074254 -1.050445 2.043530 1.570797 1.570796 0.000000
    5 5.785604 -1.050445 2.484950 1.570797 1.570796 0.000000
    6 6.496956 -1.050445 2.156815 1.570797 1.570796 0.000000
    7 5.074254 1.017943 2.484950 1.570797 1.570796 0.000000
    8 5.785604 1.017944 2.043530 1.570797 1.570796 0.000000
    9 6.496954 1.017944 2.367759 1.570797 1.570796 0.000000
    10 4.362903 1.017943 2.156815 1.570797 1.570796 0.000000
    11 6.145618 0.331481 0.126217 0.000000 0.000000 1.570796
    12 1.221165 -0.808934 1.278864 -1.526789 -3.141592 0.332876
    13 1.220377 0.807360 1.278864 1.526789 -3.141592 -0.333470
    14 2.376226 6.346585 -4.573739 -0.010546 0.046956 0.227976
    15 7.431140 -2.885478 -5.405397 0.035468 -1.925736 -0.688935
    16 8.042543 1.516270 -0.364657 1.568177 -3.118184 0.264226
    17 -0.036764 -8.510455 -0.084602 0.199200 0.457075 0.161649
    18 -0.488518 -2.755602 -0.228260 -1.428130 -0.160856 -0.230070
    19 0.039887 -1.550105 0.029854 -2.079381 -0.002469 0.045435
    20 0.032692 -1.310113 -0.085611 -2.212855 -0.000671 0.047998
    21 0.250027 -2.820665 -0.238396 -1.235290 -0.189365 -0.138021
    22 -0.049759 -1.602417 -0.004993 -2.024646 -0.011325 -0.048935
    23 -0.034142 -1.206908 0.045718 -1.953457 -0.008689 -0.047315
    24 0.957766 -2.746780 -0.090302 0.025672 -0.189997 0.133301
    25 -0.033420 -1.397129 -0.030789 -1.193284 -0.001043 -0.057347
    26 -0.022360 -0.957436 -0.000748 -0.815603 0.006484 -0.039729
    27 -1.180681 -2.507217 -0.193859 -1.395888 0.078406 -0.337683
    28 -0.024967 -1.127840 0.017597 -1.816414 -0.022243 -0.067916
    29 -0.020057 -0.890968 0.064779 -2.298967 -0.040688 -0.071344
    30 0.599135 -1.197277 0.181473 0.406214 -0.806228 -0.659243
    31 1.528114 -0.118664 0.040166 0.006036 -0.129613 -0.420006
    32 0.967954 -0.202511 0.051823 0.134224 -0.274210 -1.244940
    33 0.120153 -0.050270 -0.054489 0.287569 3.110905 1.561085
    34 -8.802279 -8.184475 -3.341229 0.370758 -3.623956 0.334160
    35 0.175071 -8.438699 -0.189058 0.159648 0.556991 0.151881
    36 0.447953 -2.798986 -0.200443 -0.575114 0.020764 0.098269
    37 -0.032909 -1.499736 0.032285 -1.604100 0.022998 -0.032524
    38 -0.027022 -1.108171 -0.028023 -0.809502 0.019391 -0.011397
    39 -0.249534 -2.846964 -0.174213 -0.305656 0.018056 0.027965
    40 0.043235 -1.656596 0.060855 -1.708616 -0.024370 0.012704
    41 0.031729 -1.153017 0.058838 -0.456036 -0.004044 0.005831
    42 -0.963866 -2.785145 -0.085350 -0.131792 0.089002 0.029572
    43 0.028479 -1.406973 -0.024980 -1.178057 -0.034384 -0.037392
    44 0.021413 -0.942156 0.012233 -0.911525 -0.023202 -0.032562
    45 1.164475 -2.543940 -0.170330 -0.596435 -0.045557 0.103003
    46 0.024032 -1.144668 -0.005631 -1.101947 0.015017 0.056041
    47 0.014898 -0.899614 -0.019848 -0.810464 0.003152 0.041047
    48 -0.586770 -1.264477 0.200161 -0.027868 -0.631674 -2.776263
    49 1.550180 0.039149 0.016848 -0.011521 -0.004414 0.620144
    50 1.114041 0.044518 -0.005766 -0.024799 -0.034810 0.910969
    51 -0.069084 -0.111698 0.022210 -0.185450 0.061295 1.564101
    52 -6.518626 5.764865 -0.391781 1.578851 -0.024330 -0.824099
  time 7
    0 4.929533 -6.547075 -5.347819 0.049356 -0.194333 -1.695743
    1 8.265903 -0.786431 0.000000 0.000000 0.000000 -1.570795
    2 -0.197608 0.000001 -1.958414 1.217395 1.907349 -0.353402
    3 4.362904 -1.050445 2.484950 1.570797 1.570796 0.000000
    4 5.074254 -1.050445 2.043530 1.570797 1.570796 0.000000
    5 5.785604 -1.050445 2.484950 1.570797 1.570796 0.000000
    6 6.496956 -1.050445 2.043530 1.570797 1.570796 0.000000
    7 5.074254 1.017943 2.484950 1.570797 1.570796 0.000000
    8 5.785604 1.017944 2.043530 1.570797 1.570796 0.000000
    9 6.496954 1.017944 2.484950 1.570797 1.570796 0.000000
    10 4.362903 1.017943 2.043530 1.570797 1.570796 0.000000
    11 6.145618 0.331481 0.126217 0.000000 0.000000 1.570796
    12 1.221165 -0.808934 1.278864 -1.407422 -3.141592 0.332876
    13 1.220377 0.807360 1.278864 1.407422 -3.141592 -0.333470
    14 2.376226 6.303615 -4.573739 -0.010546 0.037560 0.223624
    15 7.341293 -3.049545 -5.389771 0.010165 -1.929119 -0.656999
    16 7.999573 1.867843 -0.360751 1.567698 -3.119043 0.307680
    17 -0.025045 -8.510455 -0.080696 0.196764 0.504564 0.191877
    18 -0.488518 -2.755602 -0.228260 -1.428130 -0.160856 -0.230070
    19 0.039887 -1.550105 0.029854 -2.079381 -0.002469 0.045435
    20 0.032692 -1.310113 -0.085611 -2.212855 -0.000671 0.047998
    21 0.250027 -2.820665 -0.238396 -1.235290 -0.189365 -0.138021
    22 -0.049759 -1.602417 -0.004993 -2.024646 -0.011325 -0.048935
    23 -0.034142 -1.206908 0.045718 -1.953457 -0.008689 -0.047315
    24 0.957766 -2.746780 -0.090302 0.039658 -0.190417 0.133888
    25 -0.033420 -1.397129 -0.030789 -1.157472 -0.000012 -0.055861
    26 -0.022360 -0.957436 -0.000748 -0.815603 0.006484 -0.039729
    27 -1.180681 -2.507217 -0.193859 -1.395888 0.078406 -0.337683
    28 -0.024967 -1.127840 0.017597 -1.816414 -0.022243 -0.067916
    29 -0.020057 -0.890968 0.064779 -2.298967 -0.040688 -0.071344
    30 0.599135 -1.197277 0.181473 0.406214 -0.806228 -0.659243
    31 1.528114 -0.118664 0.040166 0.006036 -0.129613 -0.420006
    32 0.967954 -0.202511 0.051823 0.134224 -0.274210 -1.244940
    33 0.120153 -0.050270 -0.054489 0.287569 3.110905 1.561085
    34 -8.653837 -8.344636 -3.114660 0.381690 -3.619895 0.332494
    35 0.175071 -8.438699 -0.200777 0.132428 0.600284 0.145193
    36 0.447953 -2.798986 -0.200443 -0.575114 0.020764 0.098269
    37 -0.032909 -1.499736 0.032285 -1.604100 0.022998 -0.032524
    38 -0.027022 -1.108171 -0.028023 -0.809502 0.019391 -0.011397
    39 -0.249534 -2.846964 -0.174213 -0.305656 0.018056 0.027965
    40 0.043235 -1.656596 0.060855 -1.708616 -0.024370 0.012704
    41 0.031729 -1.153017 0.058838 -0.456036 -0.004044 0.005831
    42 -0.963866 -2.785145 -0.085350 -0.131792 0.089002 0.029572
    43 0.028479 -1.406973 -0.024980 -1.178057 -0.034384 -0.037392
    44 0.021413 -0.942156 0.012233 -0.911525 -0.023202 -0.032562
    45 1.164475 -2.543940 -0.170330 -0.596435 -0.045557 0.103003
    46 0.024032 -1.144668 -0.005631 -1.101947 0.015017 0.056041
    47 0.014898 -0.899614 -0.019848 -0.810464 0.003152 0.041047
    48 -0.586770 -1.264477 0.200161 -0.027868 -0.631674 -2.776263
    49 1.550180 0.039149 0.016848 -0.011521 -0.004414 0.620144
    50 1.114041 0.044518 -0.005766 -0.024799 -0.034810 0.910969
    51 -0.069084 -0.111698 0.022210 -0.185450 0.061295 1.564101
    52 -6.241274 6.100812 -0.383969 1.579462 -0.023060 -0.877009
  time 8
    0 5.007660 -6.761925 -5.343913 0.024249 -0.191823 -1.703769
    1 8.265903 -0.786431 0.000000 0.000000 0.000000 -1.570795
    2 -0.197608 0.000001 -1.958414 1.138968 1.846239 -0.431829
    3 4.362904 -1.050445 2.484950 1.570797 1.570796 0.000000
    4 5.074254 -1.050445 2.043530 1.570797 1.570796 0.000000
    5 5.785604 -1.050445 2.484950 1.570797 1.570796 0.000000
    6 6.496956 -1.050445 2.043530 1.570797 1.570796 0.000000
    7 5.074254 1.017943 2.484950 1.570797 1.570796 0.000000
    8 5.785604 1.017944 2.043530 1.570797 1.570796 0.000000
    9 6.496954 1.017944 2.484950 1.570797 1.570796 0.000000
    10 4.362903 1.017943 2.043530 1.570797 1.570796 0.000000
    11 6.145618 0.331481 0.126217 0.000000 0.000000 1.570796
    12 1.221165 -0.808934 1.278864 -1.231488 -3.141592 0.332876
    13 1.220377 0.807360 1.278864 1.231488 -3.141592 -0.333470
    14 2.376226 6.245019 -4.573739 -0.010546 0.025347 0.218009
    15 7.274885 -3.158924 -5.374146 6.272542 -1.931265 -0.631580
    16 7.960510 2.117851 -0.352938 1.567410 -3.119616 0.338794
    17 -0.017232 -8.510455 -0.076789 0.199579 0.541234 0.215741
    18 -0.488518 -2.755602 -0.228260 -1.428130 -0.160856 -0.230070
    19 0.039887 -1.550105 0.029854 -2.079381 -0.002469 0.045435
    20 0.032692 -1.310113 -0.085611 -2.212855 -0.000671 0.047998
    21 0.250027 -2.820665 -0.238396 -1.235290 -0.189365 -0.138021
    22 -0.049759 -1.602417 -0.004993 -2.024646 -0.011325 -0.048935
    23 -0.034142 -1.206908 0.045718 -1.953457 -0.008689 -0.047315
    24 0.957766 -2.746780 -0.090302 0.053200 -0.190824 0.134463
    25 -0.033420 -1.397129 -0.030789 -1.122849 0.000923 -0.054387
    26 -0.022360 -0.957436 -0.000748 -0.815603 0.006484 -0.039729
    27 -1.180681 -2.507217 -0.193859 -1.395888 0.078406 -0.337683
    28 -0.024967 -1.127840 0.017597 -1.816414 -0.022243 -0.067916
    29 -0.020057 -0.890968 0.064779 -2.298967 -0.040688 -0.071344
    30 0.599135 -1.197277 0.181473 0.406214 -0.806228 -0.659243
    31 1.528114 -0.118664 0.040166 0.006036 -0.129613 -0.420006
    32 0.967954 -0.202511 0.051823 0.134224 -0.274210 -1.244940
    33 0.120153 -0.050270 -0.054489 0.287569 3.110905 1.561085
    34 -8.493676 -8.489172 -2.923247 0.386441 -3.618801 0.329480
    35 0.175071 -8.438699 -0.208590 0.110538 0.633953 0.134078
    36 0.447953 -2.798986 -0.200443 -0.575114 0.020764 0.098269
    37 -0.032909 -1.499736 0.032285 -1.604100 0.022998 -0.032524
    38 -0.027022 -1.108171 -0.028023 -0.809502 0.019391 -0.011397
    39 -0.249534 -2.846964 -0.174213 -0.305656 0.018056 0.027965
    40 0.043235 -1.656596 0.060855 -1.708616 -0.024370 0.012704
    41 0.031729 -1.153017 0.058838 -0.456036 -0.004044 0.005831
    42 -0.963866 -2.785145 -0.085350 -0.131792 0.089002 0.029572
    43 0.028479 -1.406973 -0.024980 -1.178057 -0.034384 -0.037392
    44 0.021413 -0.942156 0.012233 -0.911525 -0.023202 -0.032562
    45 1.164475 -2.543940 -0.170330 -0.596435 -0.045557 0.103003
    46 0.024032 -1.144668 -0.005631 -1.101947 0.015017 0.056041
    47 0.014898 -0.899614 -0.019848 -0.810464 0.003152 0.041047
    48 -0.586770 -1.264477 0.200161 -0.027868 -0.631674 -2.776263
    49 1.550180 0.039149 0.016848 -0.011521 -0.004414 0.620144
    50 1.114041 0.044518 -0.005766 -0.024799 -0.034810 0.910969
    51 -0.069084 -0.111698 0.022210 -0.185450 0.061295 1.564101
    52 -5.956109 6.413322 -0.372250 1.579989 -0.021789 -0.928520
  time 9
    0 5.023286 -6.945524 -5.355632 0.021116 -0.185831 -1.705695
    1 8.265903 -0.786431 0.000000 0.000000 0.000000 -1.570795
    2 -0.197608 0.000001 -1.958414 1.061883 1.786212 -0.508914
    3 4.362904 -1.050445 2.484950 1.570797 1.570796 0.000000
    4 5.074254 -1.050445 2.043530 1.570797 1.570796 0.000000
    5 5.785604 -1.050445 2.367759 1.570797 1.570796 0.000000
    6 6.496956 -1.050445 2.043530 1.570797 1.570796 0.000000
    7 5.074254 1.017943 2.367759 1.570797 1.570796 0.000000
    8 5.785604 1.017944 2.043530 1.570797 1.570796 0.000000
    9 6.496954 1.017944 2.484950 1.570797 1.570796 0.000000
    10 4.362903 1.017943 2.043530 1.570797 1.570796 0.000000
    11 6.145618 0.331481 0.126217 0.000000 0.000000 1.570796
    12 1.221165 -0.808934 1.278864 -1.017875 -3.141592 0.332876
    13 1.220377 0.807360 1.278864 1.017875 -3.141592 -0.333470
    14 2.376226 6.190330 -4.573739 -0.010546 0.013147 0.212394
    15 7.235821 -3.229238 -5.362427 6.260848 -1.932371 -0.616426
    16 7.933165 2.274105 -0.352938 1.567219 -3.119998 0.358365
    17 -0.013325 -8.514362 -0.072883 0.205154 0.556013 0.225142
    18 -0.488518 -2.755602 -0.228260 -1.428130 -0.160856 -0.230070
    19 0.039887 -1.550105 0.029854 -2.079381 -0.002469 0.045435
    20 0.032692 -1.310113 -0.085611 -2.212855 -0.000671 0.047998
    21 0.250027 -2.820665 -0.238396 -1.235290 -0.189365 -0.138021
    22 -0.049759 -1.602417 -0.004993 -2.024646 -0.011325 -0.048935
    23 -0.034142 -1.206908 0.045718 -1.953457 -0.008689 -0.047315
    24 0.957766 -2.746780 -0.090302 0.066659 -0.191232 0.135015
    25 -0.033420 -1.397129 -0.030789 -1.088396 0.001810 -0.052889
    26 -0.022360 -0.957436 -0.000748 -0.815603 0.006484 -0.039729
    27 -1.180681 -2.507217 -0.193859 -1.395888 0.078406 -0.337683
    28 -0.024967 -1.127840 0.017597 -1.816414 -0.022243 -0.067916
    29 -0.020057 -0.890968 0.064779 -2.298967 -0.040688 -0.071344
    30 0.599135 -1.197277 0.181473 0.406214 -0.806228 -0.659243
    31 1.528114 -0.118664 0.040166 0.006036 -0.129613 -0.420006
    32 0.967954 -0.202511 0.051823 0.134224 -0.274210 -1.244940
    33 0.120153 -0.050270 -0.054489 0.287569 3.110905 1.561085
    34 -8.333515 -8.610269 -2.798244 0.378114 -3.624269 0.316391
    35 0.175071 -8.442606 -0.212496 0.101663 0.645862 0.113921
    36 0.447953 -2.798986 -0.200443 -0.575114 0.020764 0.098269
    37 -0.032909 -1.499736 0.032285 -1.604100 0.022998 -0.032524
    38 -0.027022 -1.108171 -0.028023 -0.809502 0.019391 -0.011397
    39 -0.249534 -2.846964 -0.174213 -0.305656 0.018056 0.027965
    40 0.043235 -1.656596 0.060855 -1.708616 -0.024370 0.012704
    41 0.031729 -1.153017 0.058838 -0.456036 -0.004044 0.005831
    42 -0.963866 -2.785145 -0.085350 -0.131792 0.089002 0.029572
    43 0.028479 -1.406973 -0.024980 -1.178057 -0.034384 -0.037392
    44 0.021413 -0.942156 0.012233 -0.911525 -0.023202 -0.032562
    45 1.164475 -2.543940 -0.170330 -0.596435 -0.045557 0.103003
    46 0.024032 -1.144668 -0.005631 -1.101947 0.015017 0.056041
    47 0.014898 -0.899614 -0.019848 -0.810464 0.003152 0.041047
    48 -0.586770 -1.264477 0.200161 -0.027868 -0.631674 -2.776263
    49 1.550180 0.039149 0.016848 -0.011521 -0.004414 0.620144
    50 1.114041 0.044518 -0.005766 -0.024799 -0.034810 0.910969
    51 -0.069084 -0.111698 0.022210 -0.185450 0.061295 1.564101
    52 -5.631881 6.737550 -0.360530 1.580480 -0.020387 -0.983984
  time 10
    0 5.046724 -7.097873 -5.382977 0.020214 -0.179273 -1.702934
    1 8.265903 -0.786431 0.000000 0.000000 0.000000 -1.570795
    2 -0.197608 0.000001 -1.958414 0.989113 1.729454 -0.581684
    3 4.362904 -1.050445 2.484950 1.570797 1.570796 0.000000
    4 5.074254 -1.050445 2.262287 1.570797 1.570796 0.000000
    5 5.785604 -1.050445 2.156815 1.570797 1.570796 0.000000
    6 6.496956 -1.050445 2.043530 1.570797 1.570796 0.000000
    7 5.074254 1.017943 2.156815 1.570797 1.570796 0.000000
    8 5.785604 1.017944 2.262287 1.570797 1.570796 0.000000
    9 6.496954 1.017944 2.484950 1.570797 1.570796 0.000000
    10 4.362903 1.017943 2.043530 1.570797 1.570796 0.000000
    11 6.145618 0.331481 0.126217 0.000000 0.000000 1.570796
    12 1.221165 -0.808934 1.278864 -0.785374 -3.141592 0.332876
    13 1.220377 0.807360 1.278864 0.785374 -3.141592 -0.333470
    14 2.376226 6.143454 -4.573739 -0.010546 0.003751 0.208112
    15 7.204570 -3.280021 -5.354614 6.250497 -1.932956 -0.603228
    16 7.905820 2.395203 -0.349031 1.567027 -3.120284 0.373292
    17 -0.009419 -8.514362 -0.072883 0.213164 0.565409 0.231168
    18 -0.488518 -2.755602 -0.228260 -1.428130 -0.160856 -0.230070
    19 0.039887 -1.550105 0.029854 -2.079381 -0.002469 0.045435
    20 0.032692 -1.310113 -0.085611 -2.212855 -0.000671 0.047998
    21 0.250027 -2.820665 -0.238396 -1.235290 -0.189365 -0.138021
    22 -0.049759 -1.602417 -0.004993 -2.024646 -0.011325 -0.048935
    23 -0.034142 -1.206908 0.045718 -1.953457 -0.008689 -0.047315
    24 0.957766 -2.746780 -0.090302 0.080477 -0.191663 0.135578
    25 -0.033420 -1.397129 -0.030789 -1.053008 0.002661 -0.051319
    26 -0.022360 -0.957436 -0.000748 -0.815603 0.006484 -0.039729
    27 -1.180681 -2.507217 -0.193859 -1.395888 0.078406 -0.337683
    28 -0.024967 -1.127840 0.017597 -1.816414 -0.022243 -0.067916
    29 -0.020057 -0.890968 0.064779 -2.298967 -0.040688 -0.071344
    30 0.599135 -1.197277 0.181473 0.406214 -0.806228 -0.659243
    31 1.528114 -0.118664 0.040166 0.006036 -0.129613 -0.420006
    32 0.967954 -0.202511 0.051823 0.134224 -0.274210 -1.244940
    33 0.120153 -0.050270 -0.054489 0.287569 3.110905 1.561085
    34 -8.157728 -8.731367 -2.684959 0.364934 -3.631689 0.299573
    35 0.178978 -8.446512 -0.216403 0.095538 0.652341 0.089492
    36 0.447953 -2.798986 -0.200443 -0.575114 0.020764 0.098269
    37 -0.032909 -1.499736 0.032285 -1.604100 0.022998 -0.032524
    38 -0.027022 -1.108171 -0.028023 -0.809502 0.019391 -0.011397
    39 -0.249534 -2.846964 -0.174213 -0.305656 0.018056 0.027965
    40 0.043235 -1.656596 0.060855 -1.708616 -0.024370 0.012704
    41 0.031729 -1.153017 0.058838 -0.456036 -0.004044 0.005831
    42 -0.963866 -2.785145 -0.085350 -0.131792 0.089002 0.029572
    43 0.028479 -1.406973 -0.024980 -1.178057 -0.034384 -0.037392
    44 0.021413 -0.942156 0.012233 -0.911525 -0.023202 -0.032562
    45 1.164475 -2.543940 -0.170330 -0.596435 -0.045557 0.103003
    46 0.024032 -1.144668 -0.005631 -1.101947 0.015017 0.056041
    47 0.014898 -0.899614 -0.019848 -0.810464 0.003152 0.041047
    48 -0.586770 -1.264477 0.200161 -0.027868 -0.631674 -2.776263
    49 1.550180 0.039149 0.016848 -0.011521 -0.004414 0.620144
    50 1.114041 0.044518 -0.005766 -0.024799 -0.034810 0.910969
    51 -0.069084 -0.111698 0.022210 -0.185450 0.061295 1.564101
    52 -5.260776 7.065686 -0.348811 1.580924 -0.018841 -1.044253
  time 11
    0 5.089694 -7.203345 -5.410321 0.016910 -0.174144 -1.695679
    1 8.265903 -0.786431 0.000000 0.000000 0.000000 -1.570795
    2 -0.197608 0.000001 -1.958414 0.923246 1.678131 -0.647551
    3 4.362904 -1.050445 2.262287 1.570797 1.570796 0.000000
    4 5.074254 -1.050445 2.484950 1.570797 1.570796 0.000000
    5 5.785604 -1.050445 2.043530 1.570797 1.570796 0.000000
    6 6.496956 -1.050445 2.156815 1.570797 1.570796 0.000000
    7 5.074254 1.017943 2.043530 1.570797 1.570796 0.000000
    8 5.785604 1.017944 2.484950 1.570797 1.570796 0.000000
    9 6.496954 1.017944 2.262287 1.570797 1.570796 0.000000
    10 4.362903 1.017943 2.156815 1.570797 1.570796 0.000000
    11 6.145618 0.331481 0.126217 0.000000 0.000000 1.570796
    12 1.221165 -0.808934 1.278864 -0.552873 -3.141592 0.332876
    13 1.220377 0.807360 1.278864 0.552873 -3.141592 -0.333470
    14 2.376226 6.127828 -4.573739 -0.010546 0.000000 0.206357
    15 7.181132 -3.311272 -5.350707 6.241584 -1.933151 -0.592311
    16 7.890195 2.481143 -0.349031 1.566931 -3.120475 0.383906
    17 -0.009419 -8.514362 -0.072883 0.221987 0.571606 0.235218
    18 -0.488518 -2.755602 -0.228260 -1.428130 -0.160856 -0.230070
    19 0.039887 -1.550105 0.029854 -2.079381 -0.002469 0.045435
    20 0.032692 -1.310113 -0.085611 -2.212855 -0.000671 0.047998
    21 0.250027 -2.820665 -0.238396 -1.235290 -0.189365 -0.138021
    22 -0.049759 -1.602417 -0.004993 -2.024646 -0.011325 -0.048935
    23 -0.034142 -1.206908 0.045718 -1.953457 -0.008689 -0.047315
    24 0.957766 -2.746780 -0.090302 0.093876 -0.192083 0.136129
    25 -0.033420 -1.397129 -0.030789 -1.018725 0.003440 -0.049761
    26 -0.022360 -0.957436 -0.000748 -0.815603 0.006484 -0.039729
    27 -1.180681 -2.507217 -0.193859 -1.395888 0.078406 -0.337683
    28 -0.024967 -1.127840 0.017597 -1.816414 -0.022243 -0.067916
    29 -0.020057 -0.890968 0.064779 -2.298967 -0.040688 -0.071344
    30 0.599135 -1.197277 0.181473 0.406214 -0.806228 -0.659243
    31 1.528114 -0.118664 0.040166 0.006036 -0.129613 -0.420006
    32 0.967954 -0.202511 0.051823 0.134224 -0.274210 -1.244940
    33 0.120153 -0.050270 -0.054489 0.287569 3.110905 1.561085
    34 -7.985848 -8.840745 -2.583393 0.350170 -3.639343 0.281804
    35 0.178978 -8.450418 -0.216403 0.091002 0.655862 0.064475
    36 0.447953 -2.798986 -0.200443 -0.575114 0.020764 0.098269
    37 -0.032909 -1.499736 0.032285 -1.604100 0.022998 -0.032524
    38 -0.027022 -1.108171 -0.028023 -0.809502 0.019391 -0.011397
    39 -0.249534 -2.846964 -0.174213 -0.305656 0.018056 0.027965
    40 0.043235 -1.656596 0.060855 -1.708616 -0.024370 0.012704
    41 0.031729 -1.153017 0.058838 -0.456036 -0.004044 0.005831
    42 -0.963866 -2.785145 -0.085350 -0.131792 0.089002 0.029572
    43 0.028479 -1.406973 -0.024980 -1.178057 -0.034384 -0.037392
    44 0.021413 -0.942156 0.012233 -0.911525 -0.023202 -0.032562
    45 1.164475 -2.543940 -0.170330 -0.596435 -0.045557 0.103003
    46 0.024032 -1.144668 -0.005631 -1.101947 0.015017 0.056041
    47 0.014898 -0.899614 -0.019848 -0.810464 0.003152 0.041047
    48 -0.586770 -1.264477 0.200161 -0.027868 -0.631674 -2.776263
    49 1.550180 0.039149 0.016848 -0.011521 -0.004414 0.620144
    50 1.114041 0.044518 -0.005766 -0.024799 -0.034810 0.910969
    51 -0.069084 -0.111698 0.022210 -0.185450 0.061295 1.564101
    52 -4.877951 7.362570 -0.337092 1.581271 -0.017307 -1.102941
  time 12
    0 5.144383 -7.258034 -5.437666 0.010901 -0.170663 -1.687268
    1 8.265903 -0.786431 0.000000 0.000000 0.000000 -1.570795
    2 -0.197608 0.000001 -1.958414 0.867158 1.634427 -0.703639
    3 4.362904 -1.050445 2.043530 1.570797 1.570796 0.000000
    4 5.074254 -1.050445 2.484950 1.570797 1.570796 0.000000
    5 5.785604 -1.050445 2.043530 1.570797 1.570796 0.000000
    6 6.496956 -1.050445 2.375571 1.570797 1.570796 0.000000
    7 5.074254 1.017943 2.043530 1.570797 1.570796 0.000000
    8 5.785604 1.017944 2.484950 1.570797 1.570796 0.000000
    9 6.496954 1.017944 2.043530 1.570797 1.570796 0.000000
    10 4.362903 1.017943 2.367759 1.570797 1.570796 0.000000
    11 6.145618 0.331481 0.126217 0.000000 0.000000 1.570796
    12 1.221165 -0.808934 1.278864 -0.339260 -3.141592 0.332876
    13 1.220377 0.807360 1.278864 0.339260 -3.141592 -0.333470
    14 2.376226 6.127828 -4.573739 -0.010546 0.000000 0.206357
    15 7.169413 -3.326898 -5.350707 6.234395 -1.933021 -0.583838
    16 7.878476 2.531926 -0.349031 1.566931 -3.120571 0.390342
    17 -0.005513 -8.518268 -0.072883 0.230268 0.576583 0.238593
    18 -0.488518 -2.755602 -0.228260 -1.428130 -0.160856 -0.230070
    19 0.039887 -1.550105 0.029854 -2.079381 -0.002469 0.045435
    20 0.032692 -1.310113 -0.085611 -2.212855 -0.000671 0.047998
    21 0.250027 -2.820665 -0.238396 -1.235290 -0.189365 -0.138021
    22 -0.049759 -1.602417 -0.004993 -2.024646 -0.011325 -0.048935
    23 -0.034142 -1.206908 0.045718 -1.953457 -0.008689 -0.047315
    24 0.957766 -2.746780 -0.090302 0.106088 -0.192478 0.136621
    25 -0.033420 -1.397129 -0.026882 -0.987501 0.004099 -0.048335
    26 -0.022360 -0.957436 -0.000748 -0.815603 0.006484 -0.039729
    27 -1.180681 -2.507217 -0.193859 -1.395888 0.078406 -0.337683
    28 -0.024967 -1.127840 0.017597 -1.816414 -0.022243 -0.067916
    29 -0.020057 -0.890968 0.064779 -2.298967 -0.040688 -0.071344
    30 0.599135 -1.197277 0.181473 0.406214 -0.806228 -0.659243
    31 1.528114 -0.118664 0.040166 0.006036 -0.129613 -0.420006
    32 0.967954 -0.202511 0.051823 0.134224 -0.274210 -1.244940
    33 0.120153 -0.050270 -0.054489 0.287569 3.110905 1.561085
    34 -7.833500 -8.922779 -2.497453 0.337450 -3.645436 0.267049
    35 0.178978 -8.454325 -0.216403 0.086834 0.658858 0.043359
    36 0.447953 -2.798986 -0.200443 -0.575114 0.020764 0.098269
    37 -0.032909 -1.499736 0.032285 -1.604100 0.022998 -0.032524
    38 -0.027022 -1.108171 -0.028023 -0.809502 0.019391 -0.011397
    39 -0.249534 -2.846964 -0.174213 -0.305656 0.018056 0.027965
    40 0.043235 -1.656596 0.060855 -1.708616 -0.024370 0.012704
    41 0.031729 -1.153017 0.058838 -0.456036 -0.004044 0.005831
    42 -0.963866 -2.785145 -0.085350 -0.131792 0.089002 0.029572
    43 0.028479 -1.406973 -0.024980 -1.178057 -0.034384 -0.037392
    44 0.021413 -0.942156 0.012233 -0.911525 -0.023202 -0.032562
    45 1.164475 -2.543940 -0.170330 -0.596435 -0.045557 0.103003
    46 0.024032 -1.144668 -0.005631 -1.101947 0.015017 0.056041
    47 0.014898 -0.899614 -0.019848 -0.810464 0.003152 0.041047
    48 -0.586770 -1.264477 0.200161 -0.027868 -0.631674 -2.776263
    49 1.550180 0.039149 0.016848 -0.011521 -0.004414 0.620144
    50 1.114041 0.044518 -0.005766 -0.024799 -0.034810 0.910969
    51 -0.069084 -0.111698 0.022210 -0.185450 0.061295 1.564101
    52 -4.545910 7.593045 -0.329279 1.581487 -0.016013 -1.151959
  time 13
    0 5.195166 -7.281472 -5.453291 0.003691 -0.168638 -1.681939
    1 8.265903 -0.786431 0.000000 0.000000 0.000000 -1.570795
    2 -0.197608 0.000001 -1.958414 0.823630 1.600529 -0.747167
    3 4.362904 -1.050445 2.043530 1.570797 1.570796 0.000000
    4 5.074254 -1.050445 2.484950 1.570797 1.570796 0.000000
    5 5.785604 -1.050445 2.043530 1.570797 1.570796 0.000000
    6 6.496956 -1.050445 2.492762 1.570797 1.570796 0.000000
    7 5.074254 1.017943 2.043530 1.570797 1.570796 0.000000
    8 5.785604 1.017944 2.484950 1.570797 1.570796 0.000000
    9 6.496954 1.017944 2.043530 1.570797 1.570796 0.000000
    10 4.362903 1.017943 2.484950 1.570797 1.570796 0.000000
    11 6.145618 0.331481 0.126217 0.000000 0.000000 1.570796
    12 1.221165 -0.808934 1.278864 -0.163326 -3.141592 0.332876
    13 1.220377 0.807360 1.278864 0.163326 -3.141592 -0.333470
    14 2.376226 6.127828 -4.573739 -0.010546 0.000000 0.206357
    15 7.169413 -3.330804 -5.350707 6.229124 -1.932696 -0.578027
    16 7.874569 2.551458 -0.345125 1.566931 -3.120666 0.392796
    17 -0.005513 -8.518268 -0.072883 0.236547 0.582525 0.242835
    18 -0.488518 -2.755602 -0.228260 -1.428130 -0.160856 -0.230070
    19 0.039887 -1.550105 0.029854 -2.079381 -0.002469 0.045435
    20 0.032692 -1.310113 -0.085611 -2.212855 -0.000671 0.047998
    21 0.250027 -2.820665 -0.238396 -1.235290 -0.189365 -0.138021
    22 -0.049759 -1.602417 -0.004993 -2.024646 -0.011325 -0.048935
    23 -0.034142 -1.206908 0.045718 -1.953457 -0.008689 -0.047315
    24 0.957766 -2.746780 -0.090302 0.116347 -0.192814 0.137028
    25 -0.033420 -1.397129 -0.026882 -0.961247 0.004614 -0.047112
    26 -0.022360 -0.957436 -0.000748 -0.815603 0.006484 -0.039729
    27 -1.180681 -2.507217 -0.193859 -1.395888 0.078406 -0.337683
    28 -0.024967 -1.127840 0.017597 -1.816414 -0.022243 -0.067916
    29 -0.020057 -0.890968 0.064779 -2.298967 -0.040688 -0.071344
    30 0.599135 -1.197277 0.181473 0.406214 -0.806228 -0.659243
    31 1.528114 -0.118664 0.040166 0.006036 -0.129613 -0.420006
    32 0.967954 -0.202511 0.051823 0.134224 -0.274210 -1.244940
    33 0.120153 -0.050270 -0.054489 0.287569 3.110905 1.561085
    34 -7.731934 -8.969655 -2.438858 0.331269 -3.648170 0.260147
    35 0.178978 -8.454325 -0.220309 0.081928 0.663801 0.031284
    36 0.447953 -2.798986 -0.200443 -0.575114 0.020764 0.098269
    37 -0.032909 -1.499736 0.032285 -1.604100 0.022998 -0.032524
    38 -0.027022 -1.108171 -0.028023 -0.809502 0.019391 -0.011397
    39 -0.249534 -2.846964 -0.174213 -0.305656 0.018056 0.027965
    40 0.043235 -1.656596 0.060855 -1.708616 -0.024370 0.012704
    41 0.031729 -1.153017 0.058838 -0.456036 -0.004044 0.005831
    42 -0.963866 -2.785145 -0.085350 -0.131792 0.089002 0.029572
    43 0.028479 -1.406973 -0.024980 -1.178057 -0.034384 -0.037392
    44 0.021413 -0.942156 0.012233 -0.911525 -0.023202 -0.032562
    45 1.164475 -2.543940 -0.170330 -0.596435 -0.045557 0.103003
    46 0.024032 -1.144668 -0.005631 -1.101947 0.015017 0.056041
    47 0.014898 -0.899614 -0.019848 -0.810464 0.003152 0.041047
    48 -0.586770 -1.264477 0.200161 -0.027868 -0.631674 -2.776263
    49 1.550180 0.039149 0.016848 -0.011521 -0.004414 0.620144
    50 1.114041 0.044518 -0.005766 -0.024799 -0.034810 0.910969
    51 -0.069084 -0.111698 0.022210 -0.185450 0.061295 1.564101
    52 -4.346685 7.721956 -0.321467 1.581595 -0.015246 -1.181090
  time 14
    0 5.206885 -7.125217 -5.429853 -0.006009 -0.172363 -1.689002
    1 8.265903 -0.786431 0.000000 0.000000 0.000000 -1.570795
    2 -0.197608 0.000001 -1.958414 0.795442 1.578584 -0.775355
    3 4.362904 -1.050445 2.043530 1.570797 1.570796 0.000000
    4 5.074254 -1.050445 2.484950 1.570797 1.570796 0.000000
    5 5.785604 -1.050445 2.043530 1.570797 1.570796 0.000000
    6 6.496956 -1.050445 2.492762 1.570797 1.570796 0.000000
    7 5.074254 1.017943 2.043530 1.570797 1.570796 0.000000
    8 5.785604 1.017944 2.484950 1.570797 1.570796 0.000000
    9 6.496954 1.017944 2.043530 1.570797 1.570796 0.000000
    10 4.362903 1.017943 2.484950 1.570797 1.570796 0.000000
    11 6.145618 0.331481 0.126217 0.000000 0.000000 1.570796
    12 1.221165 -0.808934 1.278864 -0.043959 -3.141592 0.332876
    13 1.220377 0.807360 1.278864 0.043959 -3.141592 -0.333470
    14 2.376226 6.127828 -4.573739 -0.010546 0.000000 0.206357
    15 7.228009 -3.225332 -5.374146 6.234971 -1.930485 -0.588292
    16 7.917539 2.352233 -0.349031 1.567123 -3.120189 0.367984
    17 -0.001606 -8.518268 -0.072883 0.235681 0.588823 0.247849
    18 -0.488518 -2.755602 -0.228260 -1.428130 -0.160856 -0.230070
    19 0.039887 -1.550105 0.029854 -2.079381 -0.002469 0.045435
    20 0.032692 -1.310113 -0.085611 -2.212855 -0.000671 0.047998
    21 0.250027 -2.820665 -0.238396 -1.235290 -0.189365 -0.138021
    22 -0.049759 -1.602417 -0.004993 -2.024646 -0.011325 -0.048935
    23 -0.034142 -1.206908 0.045718 -1.953457 -0.008689 -0.047315
    24 0.957766 -2.746780 -0.090302 0.118600 -0.192886 0.137112
    25 -0.033420 -1.397129 -0.026882 -0.955469 0.004734 -0.046837
    26 -0.022360 -0.957436 -0.000748 -0.815603 0.006484 -0.039729
    27 -1.180681 -2.507217 -0.193859 -1.395888 0.078406 -0.337683
    28 -0.024967 -1.127840 0.017597 -1.816414 -0.022243 -0.067916
    29 -0.020057 -0.890968 0.064779 -2.298967 -0.040688 -0.071344
    30 0.599135 -1.197277 0.181473 0.406214 -0.806240 -0.659243
    31 1.528114 -0.118664 0.040166 0.006036 -0.129613 -0.420006
    32 0.967954 -0.202511 0.051823 0.134224 -0.274210 -1.244940
    33 0.120153 -0.050270 -0.054489 0.287569 3.110905 1.561085
    34 -7.938972 -8.856370 -2.552142 0.358344 -3.633485 0.299573
    35 0.178978 -8.450418 -0.220309 0.074783 0.674475 0.069181
    36 0.447953 -2.798986 -0.200443 -0.575114 0.020764 0.098269
    37 -0.032909 -1.499736 0.032285 -1.604100 0.022998 -0.032524
    38 -0.027022 -1.108171 -0.028023 -0.809502 0.019391 -0.011397
    39 -0.249534 -2.846964 -0.174213 -0.305656 0.018056 0.027965
    40 0.043235 -1.656596 0.060855 -1.708616 -0.024370 0.012704
    41 0.031729 -1.153017 0.058838 -0.456036 -0.004044 0.005831
    42 -0.963866 -2.785145 -0.085350 -0.131792 0.089002 0.029572
    43 0.028479 -1.406973 -0.024980 -1.178057 -0.034384 -0.037392
    44 0.021413 -0.942156 0.012233 -0.911525 -0.023202 -0.032562
    45 1.164475 -2.543940 -0.170330 -0.596435 -0.045557 0.103003
    46 0.024032 -1.144668 -0.005631 -1.101947 0.015017 0.056041
    47 0.014898 -0.899614 -0.019848 -0.810464 0.003152 0.041047
    48 -0.586770 -1.264477 0.200161 -0.027868 -0.631674 -2.776263
    49 1.550180 0.039149 0.016848 -0.011521 -0.004414 0.620144
    50 1.114041 0.044518 -0.005766 -0.024799 -0.034810 0.910969
    51 -0.069084 -0.111698 0.022210 -0.185450 0.061295 1.564101
    52 -4.932641 7.319600 -0.340999 1.581223 -0.017523 -1.094731
  time 15
    0 5.199072 -6.961150 -5.402509 -0.011631 -0.176681 -1.697670
    1 8.265903 -0.786431 0.000000 0.000000 0.000000 -1.570795
    2 -0.197608 0.000001 -1.958414 1.570797 1.570796 0.000000
    3 4.362904 -1.050445 2.043530 1.570797 1.570796 0.000000
    4 5.074254 -1.050445 2.328695 1.570797 1.570796 0.000000
    5 5.785604 -1.050445 2.262287 1.570797 1.570796 0.000000
    6 6.496956 -1.050445 2.488856 1.570797 1.570796 0.000000
    7 5.074254 1.017943 2.262287 1.570797 1.570796 0.000000
    8 5.785604 1.017944 2.328695 1.570797 1.570796 0.000000
    9 6.496954 1.017944 2.043530 1.570797 1.570796 0.000000
    10 4.362903 1.017943 2.484950 1.570797 1.570796 0.000000
    11 6.145618 0.331481 0.126217 0.000000 0.000000 1.570796
    12 1.221165 -0.808934 1.278864 0.000000 -3.141592 0.332876
    13 1.220377 0.807360 1.278864 0.000000 -3.141592 -0.333470
    14 2.376226 6.127828 -4.573739 -0.010546 0.000000 0.206357
    15 7.290511 -3.119860 -5.393677 6.243117 -1.928403 -0.600893
    16 7.956603 2.149102 -0.352938 1.567315 -3.119712 0.342642
    17 -0.001606 -8.518268 -0.072883 0.232433 0.591566 0.250356
    18 -0.488518 -2.755602 -0.228260 -1.428130 -0.160856 -0.230070
    19 0.039887 -1.550105 0.029854 -2.079381 -0.002469 0.045435
    20 0.032692 -1.310113 -0.085611 -2.212855 -0.000671 0.047998
    21 0.250027 -2.820665 -0.238396 -1.235290 -0.189365 -0.138021
    22 -0.049759 -1.602417 -0.004993 -2.024646 -0.011325 -0.048935
    23 -0.034142 -1.206908 0.045718 -1.953457 -0.008689 -0.047315
    24 0.957766 -2.746780 -0.090302 0.116347 -0.192814 0.137028
    25 -0.033420 -1.397129 -0.026882 -0.961247 0.004614 -0.047112
    26 -0.022360 -0.957436 -0.000748 -0.815603 0.006484 -0.039729
    27 -1.180681 -2.507217 -0.193859 -1.395888 0.078406 -0.337683
    28 -0.024967 -1.127840 0.017597 -1.816414 -0.022243 -0.067916
    29 -0.020057 -0.890968 0.064779 -2.298967 -0.040688 -0.071344
    30 0.599135 -1.197277 0.181473 0.406214 -0.806240 -0.659243
    31 1.528114 -0.118664 0.040166 0.006036 -0.129613 -0.420006
    32 0.967954 -0.202511 0.051823 0.134224 -0.274210 -1.244940
    33 0.120153 -0.050270 -0.054489 0.287569 3.110905 1.561085
    34 -8.142103 -8.723554 -2.661521 0.383529 -3.618801 0.334636
    35 0.175071 -8.438699 -0.224215 0.070076 0.682077 0.105747
    36 0.447953 -2.798986 -0.200443 -0.575114 0.020764 0.098269
    37 -0.032909 -1.499736 0.032285 -1.604100 0.022998 -0.032524
    38 -0.027022 -1.108171 -0.028023 -0.809502 0.019391 -0.011397
    39 -0.249534 -2.846964 -0.174213 -0.305656 0.018056 0.027965
    40 0.043235 -1.656596 0.060855 -1.708616 -0.024370 0.012704
    41 0.031729 -1.153017 0.058838 -0.456036 -0.004044 0.005831
    42 -0.963866 -2.785145 -0.085350 -0.131792 0.089002 0.029572
    43 0.028479 -1.406973 -0.024980 -1.178057 -0.034384 -0.037392
    44 0.021413 -0.942156 0.012233 -0.911525 -0.023202 -0.032562
    45 1.164475 -2.543940 -0.170330 -0.596435 -0.045557 0.103003
    46 0.024032 -1.144668 -0.005631 -1.101947 0.015017 0.056041
    47 0.014898 -0.899614 -0.019848 -0.810464 0.003152 0.041047
    48 -0.586770 -1.264477 0.200161 -0.027868 -0.631674 -2.776263
    49 1.550180 0.039149 0.016848 -0.011521 -0.004414 0.620144
    50 1.114041 0.044518 -0.005766 -0.024799 -0.034810 0.910969
    51 -0.069084 -0.111698 0.022210 -0.185450 0.061295 1.564101
    52 -5.467813 6.885993 -0.356624 1.580696 -0.019692 -1.011108
end
