version 1
nodes
  0 "turbulent3_root" -1
  1 "megazin" 0
  2 "triger" 0
  3 "ezr04" 0
  4 "ezr03" 0
  5 "ezr02" 0
  6 "ezr01" 0
  7 "ezl03" 0
  8 "ezl02" 0
  9 "ezl01" 0
  10 "ezl04" 0
  11 "Bone046" 0
  12 "rBone049" 0
  13 "rBone048" 0
  14 "root" -1
  15 "Bone01" 14
  16 "Bone_L_Upper" 15
  17 "Bone_Lefthand" 15
  18 "Bone13" 17
  19 "Bone14" 18
  20 "Bone15" 19
  21 "Bone17" 17
  22 "Bone18" 21
  23 "Bone19" 22
  24 "Bone21" 17
  25 "Bone22" 24
  26 "Bone23" 25
  27 "Bone09" 17
  28 "Bone10" 27
  29 "Bone11" 28
  30 "Bone05" 17
  31 "Bone06" 30
  32 "Bone07" 31
  33 "Bone_Se_Hand-L" 17
  34 "Bone04" 14
  35 "Bone_Righthand" 34
  36 "Bone39" 35
  37 "Bone40" 36
  38 "Bone41" 37
  39 "Bone35" 35
  40 "Bone36" 39
  41 "Bone37" 40
  42 "Bone31" 35
  43 "Bone32" 42
  44 "Bone33" 43
  45 "Bone43" 35
  46 "Bone44" 45
  47 "Bone45" 46
  48 "Bone27" 35
  49 "Bone28" 48
  50 "Bone29" 49
  51 "Bone_Se_Hand-R" 35
  52 "Bone_R_Upper" 34
end
skeleton
  time 0
    0 5.199072 -6.961150 -5.402509 -0.011631 -0.176681 -1.697670
    1 8.265903 -0.786431 0.000000 0.000000 0.000000 -1.570795
    2 -0.197608 0.000001 -1.958414 4.712389 0.958800 3.141592
    3 4.362904 -1.050445 2.086500 1.570797 1.570796 0.000000
    4 5.074254 -1.050445 2.484950 1.570797 1.570796 0.000000
    5 5.785604 -1.050445 2.043530 1.570797 1.570796 0.000000
    6 6.496956 -1.050445 2.332601 1.570797 1.570796 0.000000
    7 5.074254 1.017943 2.043530 1.570797 1.570796 0.000000
    8 5.785604 1.017944 2.484950 1.570797 1.570796 0.000000
    9 6.496954 1.017944 2.086500 1.570797 1.570796 0.000000
    10 4.362903 1.017943 2.328695 1.570797 1.570796 0.000000
    11 6.145618 0.331481 0.126217 0.000000 0.000000 1.570796
    12 1.221165 -0.808934 1.278864 0.000000 -3.141592 0.332876
    13 1.220377 0.807360 1.278864 0.000000 -3.141592 -0.333470
    14 2.376226 6.127828 -4.573739 -0.010546 0.000000 0.206357
    15 7.290511 -3.119860 -5.393677 6.243117 -1.928403 -0.600893
    16 7.956603 2.149102 -0.352938 1.567315 -3.119712 0.342642
    17 -0.001606 -8.518268 -0.072883 0.232433 0.591566 0.250356
    18 -0.488518 -2.755602 -0.228260 -1.428130 -0.160856 -0.230070
    19 0.039887 -1.550105 0.029854 -2.079381 -0.002469 0.045435
    20 0.032692 -1.310113 -0.085611 -2.212855 -0.000671 0.047998
    21 0.250027 -2.820665 -0.238396 -1.235290 -0.189365 -0.138021
    22 -0.049759 -1.602417 -0.004993 -2.024646 -0.011325 -0.048935
    23 -0.034142 -1.206908 0.045718 -1.953457 -0.008689 -0.047315
    24 0.957766 -2.746780 -0.090302 -0.040927 -0.188140 0.130401
    25 -0.033420 -1.397129 -0.034695 -1.363723 -0.006627 -0.063891
    26 -0.022360 -0.957436 -0.000748 -0.815603 0.006484 -0.039729
    27 -1.180681 -2.507217 -0.193859 -1.395888 0.078406 -0.337683
    28 -0.024967 -1.127840 0.017597 -1.816414 -0.022243 -0.067916
    29 -0.020057 -0.890968 0.064779 -2.298967 -0.040688 -0.071344
    30 0.599135 -1.197277 0.181473 0.406214 -0.806240 -0.659243
    31 1.528114 -0.118664 0.040166 0.006036 -0.129613 -0.420006
    32 0.967954 -0.202511 0.051823 0.134224 -0.274210 -1.244940
    33 0.120153 -0.050270 -0.054489 0.287569 3.110905 1.561085
    34 -8.142103 -8.723554 -2.661521 0.383529 -3.618801 0.334636
    35 0.175071 -8.438699 -0.224215 0.070076 0.682077 0.105747
    36 0.447953 -2.798986 -0.200443 -0.575114 0.020764 0.098269
    37 -0.032909 -1.499736 0.032285 -1.604100 0.022998 -0.032524
    38 -0.027022 -1.108171 -0.028023 -0.809502 0.019391 -0.011397
    39 -0.249534 -2.846964 -0.174213 -0.305656 0.018056 0.027965
    40 0.043235 -1.656596 0.060855 -1.708616 -0.024370 0.012704
    41 0.031729 -1.153017 0.058838 -0.456036 -0.004044 0.005831
    42 -0.963866 -2.785145 -0.085350 -0.131792 0.089002 0.029572
    43 0.028479 -1.406973 -0.024980 -1.178057 -0.034384 -0.037392
    44 0.021413 -0.942156 0.012233 -0.911525 -0.023202 -0.032562
    45 1.164475 -2.543940 -0.170330 -0.596435 -0.045557 0.103003
    46 0.024032 -1.144668 -0.005631 -1.101947 0.015017 0.056041
    47 0.014898 -0.899614 -0.019848 -0.810464 0.003152 0.041047
    48 -0.586770 -1.264477 0.200161 -0.027868 -0.631674 -2.776263
    49 1.550180 0.039149 0.016848 -0.011521 -0.004414 0.620144
    50 1.114041 0.044518 -0.005766 -0.024799 -0.034810 0.910969
    51 -0.069084 -0.111698 0.022210 -0.185450 0.061295 1.564101
    52 -5.467813 6.885993 -0.356624 1.580696 -0.019692 -1.011108
  time 1
    0 5.749870 -5.836116 -5.261879 -0.036437 -0.182835 -1.680719
    1 8.265903 -0.786431 0.000000 0.000000 0.000000 -1.570795
    2 -0.197608 0.000001 -1.958414 4.712389 0.958800 3.141592
    3 4.362904 -1.050445 2.043530 1.570797 1.570796 0.000000
    4 5.074254 -1.050445 2.484950 1.570797 1.570796 0.000000
    5 5.785604 -1.050445 2.043530 1.570797 1.570796 0.000000
    6 6.496956 -1.050445 2.445886 1.570797 1.570796 0.000000
    7 5.074254 1.017943 2.043530 1.570797 1.570796 0.000000
    8 5.785604 1.017944 2.484950 1.570797 1.570796 0.000000
    9 6.496954 1.017944 2.043530 1.570797 1.570796 0.000000
    10 4.362903 1.017943 2.438073 1.570797 1.570796 0.000000
    11 6.145618 0.331481 0.126217 0.000000 0.000000 1.570796
    12 1.221165 -0.808934 1.278864 -0.407236 -3.141592 0.332876
    13 1.220377 0.807360 1.278864 0.407236 -3.141592 -0.333470
    14 2.376226 6.237207 -4.726088 -0.010546 -0.038710 0.227906
    15 7.704586 -2.424526 -5.440554 0.028854 -1.916044 -0.697028
    16 8.081607 0.750621 -0.376376 1.569328 -3.116562 0.169822
    17 0.006206 -8.522175 -0.068977 0.275951 0.623005 0.279957
    18 -0.488518 -2.755602 -0.228260 -1.428130 -0.160856 -0.230070
    19 0.039887 -1.550105 0.029854 -2.079381 -0.002469 0.045435
    20 0.032692 -1.310113 -0.085611 -2.212855 -0.000671 0.047998
    21 0.250027 -2.820665 -0.238396 -1.235290 -0.189365 -0.138021
    22 -0.049759 -1.602417 -0.004993 -2.024646 -0.011325 -0.048935
    23 -0.034142 -1.206908 0.045718 -1.953457 -0.008689 -0.047315
    24 0.957766 -2.746780 -0.090302 -0.040927 -0.188140 0.130401
    25 -0.033420 -1.397129 -0.034695 -1.363723 -0.006627 -0.063891
    26 -0.022360 -0.957436 -0.000748 -0.815603 0.006484 -0.039729
    27 -1.180681 -2.507217 -0.193859 -1.395888 0.078406 -0.337683
    28 -0.024967 -1.127840 0.017597 -1.816414 -0.022243 -0.067916
    29 -0.020057 -0.890968 0.064779 -2.298967 -0.040688 -0.071344
    30 0.599135 -1.197277 0.181473 0.406214 -0.806228 -0.659243
    31 1.528114 -0.118664 0.040166 0.006036 -0.129613 -0.420006
    32 0.967954 -0.202511 0.051823 0.134224 -0.274210 -1.244940
    33 0.120153 -0.050270 -0.054489 0.287569 3.110905 1.561085
    34 -8.532740 -8.379793 -2.770899 0.487693 -3.541865 0.485041
    35 0.159446 -8.407448 -0.239841 0.000267 0.739415 0.209098
    36 0.447953 -2.798986 -0.200443 -0.575114 0.020764 0.098269
    37 -0.032909 -1.499736 0.032285 -1.604100 0.022998 -0.032524
    38 -0.027022 -1.108171 -0.028023 -0.809502 0.019391 -0.011397
    39 -0.249534 -2.846964 -0.174213 -0.305656 0.018056 0.027965
    40 0.043235 -1.656596 0.060855 -1.708616 -0.024370 0.012704
    41 0.031729 -1.153017 0.058838 -0.456036 -0.004044 0.005831
    42 -0.963866 -2.785145 -0.085350 -0.131792 0.089002 0.029572
    43 0.028479 -1.406973 -0.024980 -1.178057 -0.034384 -0.037392
    44 0.021413 -0.942156 0.012233 -0.911525 -0.023202 -0.032562
    45 1.164475 -2.543940 -0.170330 -0.596435 -0.045557 0.103003
    46 0.024032 -1.144668 -0.005631 -1.101947 0.015017 0.056041
    47 0.014898 -0.899614 -0.019848 -0.810464 0.003152 0.041047
    48 -0.586770 -1.264477 0.200161 -0.027868 -0.631674 -2.776263
    49 1.550180 0.039149 0.016848 -0.011521 -0.004414 0.620144
    50 1.114041 0.044518 -0.005766 -0.024799 -0.034810 0.910969
    51 -0.069084 -0.111698 0.022210 -0.185450 0.061295 1.564101
    52 -6.842855 5.311726 -0.403501 1.577976 -0.025912 -0.756593
  time 2
    0 5.913938 -5.472823 -5.191565 0.076265 -0.166938 -1.663448
    1 8.265903 -0.786431 0.000000 0.000000 0.000000 -1.570795
    2 -0.197608 0.000001 -1.958414 4.712389 0.958800 3.141592
    3 4.362904 -1.050445 2.043530 1.570797 1.570796 0.000000
    4 5.074254 -1.050445 2.484950 1.570797 1.570796 0.000000
    5 5.785604 -1.050445 2.043530 1.570797 1.570796 0.000000
    6 6.496956 -1.050445 2.492762 1.570797 1.570796 0.000000
    7 5.074254 1.017943 2.043530 1.570797 1.570796 0.000000
    8 5.785604 1.017944 2.484950 1.570797 1.570796 0.000000
    9 6.496954 1.017944 2.043530 1.570797 1.570796 0.000000
    10 4.362903 1.017943 2.484950 1.570797 1.570796 0.000000
    11 6.145618 0.331481 0.126217 0.000000 0.000000 1.570796
    12 1.221165 -0.808934 1.278864 -1.163512 -3.141592 0.332876
    13 1.220377 0.807360 1.278864 1.163512 -3.141592 -0.333470
    14 2.376226 6.346585 -4.882342 -0.010546 -0.077432 0.249524
    15 7.872560 -2.272178 -5.397584 0.114443 -1.927167 -0.771275
    16 8.062075 0.211542 -0.384189 1.570191 -3.115416 0.103878
    17 -0.009419 -8.518268 -0.072883 0.244395 0.567390 0.205279
    18 -0.488518 -2.755602 -0.228260 -1.428130 -0.160856 -0.230070
    19 0.039887 -1.550105 0.029854 -2.079381 -0.002469 0.045435
    20 0.032692 -1.310113 -0.085611 -2.212855 -0.000671 0.047998
    21 0.250027 -2.820665 -0.238396 -1.235290 -0.189365 -0.138021
    22 -0.049759 -1.602417 -0.004993 -2.024646 -0.011325 -0.048935
    23 -0.034142 -1.206908 0.045718 -1.953457 -0.008689 -0.047315
    24 0.957766 -2.746780 -0.090302 -0.046535 -0.187996 0.130161
    25 -0.033420 -1.397129 -0.034695 -1.378082 -0.007155 -0.064394
    26 -0.022360 -0.957436 -0.000748 -0.815603 0.006484 -0.039729
    27 -1.180681 -2.507217 -0.193859 -1.395888 0.078406 -0.337683
    28 -0.024967 -1.127840 0.017597 -1.816414 -0.022243 -0.067916
    29 -0.020057 -0.890968 0.064779 -2.298967 -0.040688 -0.071344
    30 0.599135 -1.197277 0.181473 0.406214 -0.806228 -0.659243
    31 1.528114 -0.118664 0.040166 0.006036 -0.129613 -0.420006
    32 0.967954 -0.202511 0.051823 0.134224 -0.274210 -1.244940
    33 0.120153 -0.050270 -0.054489 0.287569 3.110905 1.561085
    34 -8.673369 -8.250883 -2.950592 0.481614 -3.543661 0.486231
    35 0.163352 -8.403542 -0.220309 0.044500 0.669007 0.231886
    36 0.447953 -2.798986 -0.200443 -0.575114 0.020764 0.098269
    37 -0.032909 -1.499736 0.032285 -1.604100 0.022998 -0.032524
    38 -0.027022 -1.108171 -0.028023 -0.809502 0.019391 -0.011397
    39 -0.249534 -2.846964 -0.174213 -0.305656 0.018056 0.027965
    40 0.043235 -1.656596 0.060855 -1.708616 -0.024370 0.012704
    41 0.031729 -1.153017 0.058838 -0.456036 -0.004044 0.005831
    42 -0.963866 -2.785145 -0.085350 -0.131792 0.089002 0.029572
    43 0.028479 -1.406973 -0.024980 -1.178057 -0.034384 -0.037392
    44 0.021413 -0.942156 0.012233 -0.911525 -0.023202 -0.032562
    45 1.164475 -2.543940 -0.170330 -0.596435 -0.045557 0.103003
    46 0.024032 -1.144668 -0.005631 -1.101947 0.015017 0.056041
    47 0.014898 -0.899614 -0.019848 -0.810464 0.003152 0.041047
    48 -0.586770 -1.264477 0.200161 -0.027868 -0.631674 -2.776263
    49 1.550180 0.039149 0.016848 -0.011521 -0.004414 0.620144
    50 1.114041 0.044518 -0.005766 -0.024799 -0.034810 0.910969
    51 -0.069084 -0.111698 0.022210 -0.185450 0.061295 1.564101
    52 -7.045986 4.995310 -0.411313 1.577328 -0.026943 -0.711163
  time 3
    0 5.730338 -5.605640 -5.093905 0.129097 -0.164401 -1.665502
    1 8.265903 -0.786431 0.000000 0.000000 0.000000 -1.570795
    2 -0.197608 0.000001 -1.958414 4.712389 0.958800 3.141592
    3 4.362904 -1.050445 2.043530 1.570797 1.570796 0.000000
    4 5.074254 -1.050445 2.484950 1.570797 1.570796 0.000000
    5 5.785604 -1.050445 2.043530 1.570797 1.570796 0.000000
    6 6.496956 -1.050445 2.492762 1.570797 1.570796 0.000000
    7 5.074254 1.017943 2.043530 1.570797 1.570796 0.000000
    8 5.785604 1.017944 2.484950 1.570797 1.570796 0.000000
    9 6.496954 1.017944 2.043530 1.570797 1.570796 0.000000
    10 4.362903 1.017943 2.484950 1.570797 1.570796 0.000000
    11 6.145618 0.331481 0.126217 0.000000 0.000000 1.570796
    12 1.221165 -0.808934 1.278864 -1.570796 -3.141592 0.332876
    13 1.220377 0.807360 1.278864 1.570796 -3.141592 -0.333470
    14 2.376226 6.315334 -4.831560 -0.010546 -0.065340 0.242786
    15 7.911623 -2.303429 -5.374146 0.157382 -1.938615 -0.800984
    16 8.058169 0.117790 -0.384189 1.570382 -3.115225 0.092069
    17 -0.021138 -8.510455 -0.076789 0.217819 0.522289 0.150320
    18 -0.488518 -2.755602 -0.228260 -1.428130 -0.160856 -0.230070
    19 0.039887 -1.550105 0.029854 -2.079381 -0.002469 0.045435
    20 0.032692 -1.310113 -0.085611 -2.212855 -0.000671 0.047998
    21 0.250027 -2.820665 -0.238396 -1.235290 -0.189365 -0.138021
    22 -0.049759 -1.602417 -0.004993 -2.024646 -0.011325 -0.048935
    23 -0.034142 -1.206908 0.045718 -1.953457 -0.008689 -0.047315
    24 0.957766 -2.746780 -0.090302 -0.040927 -0.188140 0.130401
    25 -0.033420 -1.397129 -0.034695 -1.363723 -0.006627 -0.063891
    26 -0.022360 -0.957436 -0.000748 -0.815603 0.006484 -0.039729
    27 -1.180681 -2.507217 -0.193859 -1.395888 0.078406 -0.337683
    28 -0.024967 -1.127840 0.017597 -1.816414 -0.022243 -0.067916
    29 -0.020057 -0.890968 0.064779 -2.298967 -0.040688 -0.071344
    30 0.599135 -1.197277 0.181473 0.406214 -0.806228 -0.659243
    31 1.528114 -0.118664 0.040166 0.006036 -0.129613 -0.420006
    32 0.967954 -0.202511 0.051823 0.134224 -0.274210 -1.244940
    33 0.120153 -0.050270 -0.054489 0.287569 3.110905 1.561085
    34 -8.688995 -8.239164 -3.071689 0.454743 -3.562251 0.460926
    35 0.167259 -8.411355 -0.204683 0.089159 0.608673 0.225694
    36 0.447953 -2.798986 -0.200443 -0.575114 0.020764 0.098269
    37 -0.032909 -1.499736 0.032285 -1.604100 0.022998 -0.032524
    38 -0.027022 -1.108171 -0.028023 -0.809502 0.019391 -0.011397
    39 -0.249534 -2.846964 -0.174213 -0.305656 0.018056 0.027965
    40 0.043235 -1.656596 0.060855 -1.708616 -0.024370 0.012704
    41 0.031729 -1.153017 0.058838 -0.456036 -0.004044 0.005831
    42 -0.963866 -2.785145 -0.085350 -0.131792 0.089002 0.029572
    43 0.028479 -1.406973 -0.024980 -1.178057 -0.034384 -0.037392
    44 0.021413 -0.942156 0.012233 -0.911525 -0.023202 -0.032562
    45 1.164475 -2.543940 -0.170330 -0.596435 -0.045557 0.103003
    46 0.024032 -1.144668 -0.005631 -1.101947 0.015017 0.056041
    47 0.014898 -0.899614 -0.019848 -0.810464 0.003152 0.041047
    48 -0.586770 -1.264477 0.200161 -0.027868 -0.631674 -2.776263
    49 1.550180 0.039149 0.016848 -0.011521 -0.004414 0.620144
    50 1.114041 0.044518 -0.005766 -0.024799 -0.034810 0.910969
    51 -0.069084 -0.111698 0.022210 -0.185450 0.061295 1.564101
    52 -6.971765 5.116407 -0.407407 1.577580 -0.026559 -0.728131
  time 4
    0 5.554552 -5.918149 -5.078280 0.094205 -0.169232 -1.676738
    1 8.265903 -0.786431 0.000000 0.000000 0.000000 -1.570795
    2 -0.197608 0.000001 -1.958414 1.448171 2.087168 -0.122626
    3 4.362904 -1.050445 2.043530 1.570797 1.570796 0.000000
    4 5.074254 -1.050445 2.367759 1.570797 1.570796 0.000000
    5 5.785604 -1.050445 2.262287 1.570797 1.570796 0.000000
    6 6.496956 -1.050445 2.488856 1.570797 1.570796 0.000000
    7 5.074254 1.017943 2.262287 1.570797 1.570796 0.000000
    8 5.785604 1.017944 2.367759 1.570797 1.570796 0.000000
    9 6.496954 1.017944 2.043530 1.570797 1.570796 0.000000
    10 4.362903 1.017943 2.484950 1.570797 1.570796 0.000000
    11 6.145618 0.331481 0.126217 0.000000 0.000000 1.570796
    12 1.221165 -0.808934 1.278864 -1.570796 -3.141592 0.332876
    13 1.220377 0.807360 1.278864 1.570796 -3.141592 -0.333470
    14 2.376226 6.237207 -4.726088 -0.010546 -0.038710 0.227906
    15 7.825683 -2.440152 -5.381958 0.135050 -1.937835 -0.775891
    16 8.073794 0.414674 -0.380282 1.569807 -3.115798 0.128889
    17 -0.017232 -8.510455 -0.076789 0.216033 0.533310 0.158468
    18 -0.488518 -2.755602 -0.228260 -1.428130 -0.160856 -0.230070
    19 0.039887 -1.550105 0.029854 -2.079381 -0.002469 0.045435
    20 0.032692 -1.310113 -0.085611 -2.212855 -0.000671 0.047998
    21 0.250027 -2.820665 -0.238396 -1.235290 -0.189365 -0.138021
    22 -0.049759 -1.602417 -0.004993 -2.024646 -0.011325 -0.048935
    23 -0.034142 -1.206908 0.045718 -1.953457 -0.008689 -0.047315
    24 0.957766 -2.746780 -0.090302 -0.013350 -0.188895 0.131623
    25 -0.033420 -1.397129 -0.034695 -1.293160 -0.004183 -0.061290
    26 -0.022360 -0.957436 -0.000748 -0.815603 0.006484 -0.039729
    27 -1.180681 -2.507217 -0.193859 -1.395888 0.078406 -0.337683
    28 -0.024967 -1.127840 0.017597 -1.816414 -0.022243 -0.067916
    29 -0.020057 -0.890968 0.064779 -2.298967 -0.040688 -0.071344
    30 0.599135 -1.197277 0.181473 0.406214 -0.806228 -0.659243
    31 1.528114 -0.118664 0.040166 0.006036 -0.129613 -0.420006
    32 0.967954 -0.202511 0.051823 0.134224 -0.274210 -1.244940
    33 0.120153 -0.050270 -0.054489 0.287569 3.110905 1.561085
    34 -8.599148 -8.329011 -3.017000 0.441818 -3.572952 0.440935
    35 0.167259 -8.415261 -0.208590 0.087968 0.616875 0.207798
    36 0.447953 -2.798986 -0.200443 -0.575114 0.020764 0.098269
    37 -0.032909 -1.499736 0.032285 -1.604100 0.022998 -0.032524
    38 -0.027022 -1.108171 -0.028023 -0.809502 0.019391 -0.011397
    39 -0.249534 -2.846964 -0.174213 -0.305656 0.018056 0.027965
    40 0.043235 -1.656596 0.060855 -1.708616 -0.024370 0.012704
    41 0.031729 -1.153017 0.058838 -0.456036 -0.004044 0.005831
    42 -0.963866 -2.785145 -0.085350 -0.131792 0.089002 0.029572
    43 0.028479 -1.406973 -0.024980 -1.178057 -0.034384 -0.037392
    44 0.021413 -0.942156 0.012233 -0.911525 -0.023202 -0.032562
    45 1.164475 -2.543940 -0.170330 -0.596435 -0.045557 0.103003
    46 0.024032 -1.144668 -0.005631 -1.101947 0.015017 0.056041
    47 0.014898 -0.899614 -0.019848 -0.810464 0.003152 0.041047
    48 -0.586770 -1.264477 0.200161 -0.027868 -0.631674 -2.776263
    49 1.550180 0.039149 0.016848 -0.011521 -0.004414 0.620144
    50 1.114041 0.044518 -0.005766 -0.024799 -0.034810 0.910969
    51 -0.069084 -0.111698 0.022210 -0.185450 0.061295 1.564101
    52 -6.760821 5.432823 -0.399594 1.578215 -0.025493 -0.774472
  time 5
    0 5.390484 -6.285348 -5.097812 0.042017 -0.174090 -1.688809
    1 8.265903 -0.786431 0.000000 0.000000 0.000000 -1.570795
    2 -0.197608 0.000001 -1.958414 1.178182 1.876775 -0.392615
    3 4.362904 -1.050445 2.156815 1.570797 1.570796 0.000000
    4 5.074254 -1.050445 2.156815 1.570797 1.570796 0.000000
    5 5.785604 -1.050445 2.484950 1.570797 1.570796 0.000000
    6 6.496956 -1.050445 2.367759 1.570797 1.570796 0.000000
    7 5.074254 1.017943 2.484950 1.570797 1.570796 0.000000
    8 5.785604 1.017944 2.156815 1.570797 1.570796 0.000000
    9 6.496954 1.017944 2.156815 1.570797 1.570796 0.000000
    10 4.362903 1.017943 2.367759 1.570797 1.570796 0.000000
    11 6.145618 0.331481 0.126217 0.000000 0.000000 1.570796
    12 1.221165 -0.808934 1.278864 -1.570796 -3.141592 0.332876
    13 1.220377 0.807360 1.278864 1.570796 -3.141592 -0.333470
    14 2.376226 6.162986 -4.620616 -0.010546 -0.012092 0.213095
    15 7.692867 -2.619845 -5.393677 0.094220 -1.934843 -0.734016
    16 8.077701 0.856093 -0.376376 1.569136 -3.116753 0.183024
    17 -0.013325 -8.510455 -0.072883 0.219443 0.558248 0.181657
    18 -0.488518 -2.755602 -0.228260 -1.428130 -0.160856 -0.230070
    19 0.039887 -1.550105 0.029854 -2.079381 -0.002469 0.045435
    20 0.032692 -1.310113 -0.085611 -2.212855 -0.000671 0.047998
    21 0.250027 -2.820665 -0.238396 -1.235290 -0.189365 -0.138021
    22 -0.049759 -1.602417 -0.004993 -2.024646 -0.011325 -0.048935
    23 -0.034142 -1.206908 0.045718 -1.953457 -0.008689 -0.047315
    24 0.957766 -2.746780 -0.090302 0.021154 -0.189866 0.133109
    25 -0.033420 -1.397129 -0.030789 -1.204839 -0.001378 -0.057815
    26 -0.022360 -0.957436 -0.000748 -0.815603 0.006484 -0.039729
    27 -1.180681 -2.507217 -0.193859 -1.395888 0.078406 -0.337683
    28 -0.024967 -1.127840 0.017597 -1.816414 -0.022243 -0.067916
    29 -0.020057 -0.890968 0.064779 -2.298967 -0.040688 -0.071344
    30 0.599135 -1.197277 0.181473 0.406214 -0.806228 -0.659243
    31 1.528114 -0.118664 0.040166 0.006036 -0.129613 -0.420006
    32 0.967954 -0.202511 0.051823 0.134224 -0.274210 -1.244940
    33 0.120153 -0.050270 -0.054489 0.287569 3.110905 1.561085
    34 -8.466331 -8.454014 -2.903716 0.429353 -3.583887 0.417216
    35 0.171165 -8.419168 -0.212496 0.076484 0.640993 0.183028
    36 0.447953 -2.798986 -0.200443 -0.575114 0.020764 0.098269
    37 -0.032909 -1.499736 0.032285 -1.604100 0.022998 -0.032524
    38 -0.027022 -1.108171 -0.028023 -0.809502 0.019391 -0.011397
    39 -0.249534 -2.846964 -0.174213 -0.305656 0.018056 0.027965
    40 0.043235 -1.656596 0.060855 -1.708616 -0.024370 0.012704
    41 0.031729 -1.153017 0.058838 -0.456036 -0.004044 0.005831
    42 -0.963866 -2.785145 -0.085350 -0.131792 0.089002 0.029572
    43 0.028479 -1.406973 -0.024980 -1.178057 -0.034384 -0.037392
    44 0.021413 -0.942156 0.012233 -0.911525 -0.023202 -0.032562
    45 1.164475 -2.543940 -0.170330 -0.596435 -0.045557 0.103003
    46 0.024032 -1.144668 -0.005631 -1.101947 0.015017 0.056041
    47 0.014898 -0.899614 -0.019848 -0.810464 0.003152 0.041047
    48 -0.586770 -1.264477 0.200161 -0.027868 -0.631674 -2.776263
    49 1.550180 0.039149 0.016848 -0.011521 -0.004414 0.620144
    50 1.114041 0.044518 -0.005766 -0.024799 -0.034810 0.910969
    51 -0.069084 -0.111698 0.022210 -0.185450 0.061295 1.564101
    52 -6.448312 5.854711 -0.387875 1.579018 -0.023995 -0.838086
  time 6
    0 5.327982 -6.597858 -5.179846 -0.003691 -0.174738 -1.695294
    1 8.265903 -0.786431 0.000000 0.000000 0.000000 -1.570795
    2 -0.197608 0.000001 -1.958414 0.908193 1.666420 -0.662604
    3 4.362904 -1.050445 2.367759 1.570797 1.570796 0.000000
    4 5.074254 -1.050445 2.043530 1.570797 1.570796 0.000000
    5 5.785604 -1.050445 2.484950 1.570797 1.570796 0.000000
    6 6.496956 -1.050445 2.156815 1.570797 1.570796 0.000000
    7 5.074254 1.017943 2.484950 1.570797 1.570796 0.000000
    8 5.785604 1.017944 2.043530 1.570797 1.570796 0.000000
    9 6.496954 1.017944 2.367759 1.570797 1.570796 0.000000
    10 4.362903 1.017943 2.156815 1.570797 1.570796 0.000000
    11 6.145618 0.331481 0.126217 0.000000 0.000000 1.570796
    12 1.221165 -0.808934 1.278864 -1.570796 -3.141592 0.332876
    13 1.220377 0.807360 1.278864 1.570796 -3.141592 -0.333470
    14 2.376226 6.127828 -4.573739 -0.010546 0.000000 0.206357
    15 7.544425 -2.815163 -5.401490 0.044190 -1.931590 -0.684156
    16 8.054262 1.352202 -0.368563 1.568369 -3.117803 0.243793
    17 -0.005513 -8.514362 -0.072883 0.226479 0.588823 0.212511
    18 -0.488518 -2.755602 -0.228260 -1.428130 -0.160856 -0.230070
    19 0.039887 -1.550105 0.029854 -2.079381 -0.002469 0.045435
    20 0.032692 -1.310113 -0.085611 -2.212855 -0.000671 0.047998
    21 0.250027 -2.820665 -0.238396 -1.235290 -0.189365 -0.138021
    22 -0.049759 -1.602417 -0.004993 -2.024646 -0.011325 -0.048935
    23 -0.034142 -1.206908 0.045718 -1.953457 -0.008689 -0.047315
    24 0.957766 -2.746780 -0.090302 0.057599 -0.190956 0.134643
    25 -0.033420 -1.397129 -0.030789 -1.111591 0.001210 -0.053896
    26 -0.022360 -0.957436 -0.000748 -0.815603 0.006484 -0.039729
    27 -1.180681 -2.507217 -0.193859 -1.395888 0.078406 -0.337683
    28 -0.024967 -1.127840 0.017597 -1.816414 -0.022243 -0.067916
    29 -0.020057 -0.890968 0.064779 -2.298967 -0.040688 -0.071344
    30 0.599135 -1.197277 0.181473 0.406214 -0.806228 -0.659243
    31 1.528114 -0.118664 0.040166 0.006036 -0.129613 -0.420006
    32 0.967954 -0.202511 0.051823 0.134224 -0.274210 -1.244940
    33 0.120153 -0.050270 -0.054489 0.287569 3.110905 1.561085
    34 -8.298358 -8.594644 -2.759180 0.416837 -3.594900 0.391197
    35 0.171165 -8.426980 -0.220309 0.060067 0.672003 0.153646
    36 0.447953 -2.798986 -0.200443 -0.575114 0.020764 0.098269
    37 -0.032909 -1.499736 0.032285 -1.604100 0.022998 -0.032524
    38 -0.027022 -1.108171 -0.028023 -0.809502 0.019391 -0.011397
    39 -0.249534 -2.846964 -0.174213 -0.305656 0.018056 0.027965
    40 0.043235 -1.656596 0.060855 -1.708616 -0.024370 0.012704
    41 0.031729 -1.153017 0.058838 -0.456036 -0.004044 0.005831
    42 -0.963866 -2.785145 -0.085350 -0.131792 0.089002 0.029572
    43 0.028479 -1.406973 -0.024980 -1.178057 -0.034384 -0.037392
    44 0.021413 -0.942156 0.012233 -0.911525 -0.023202 -0.032562
    45 1.164475 -2.543940 -0.170330 -0.596435 -0.045557 0.103003
    46 0.024032 -1.144668 -0.005631 -1.101947 0.015017 0.056041
    47 0.014898 -0.899614 -0.019848 -0.810464 0.003152 0.041047
    48 -0.586770 -1.264477 0.200161 -0.027868 -0.631674 -2.776263
    49 1.550180 0.039149 0.016848 -0.011521 -0.004414 0.620144
    50 1.114041 0.044518 -0.005766 -0.024799 -0.034810 0.910969
    51 -0.069084 -0.111698 0.022210 -0.185450 0.061295 1.564101
    52 -6.053769 6.311756 -0.376156 1.579821 -0.022209 -0.911431
  time 7
    0 5.351421 -6.832240 -5.297037 -0.035536 -0.172228 -1.696578
    1 8.265903 -0.786431 0.000000 0.000000 0.000000 -1.570795
    2 -0.197608 0.000001 -1.958414 1.570797 1.570796 0.000000
    3 4.362904 -1.050445 2.484950 1.570797 1.570796 0.000000
    4 5.074254 -1.050445 2.043530 1.570797 1.570796 0.000000
    5 5.785604 -1.050445 2.484950 1.570797 1.570796 0.000000
    6 6.496956 -1.050445 2.043530 1.570797 1.570796 0.000000
    7 5.074254 1.017943 2.484950 1.570797 1.570796 0.000000
    8 5.785604 1.017944 2.043530 1.570797 1.570796 0.000000
    9 6.496954 1.017944 2.484950 1.570797 1.570796 0.000000
    10 4.362903 1.017943 2.043530 1.570797 1.570796 0.000000
    11 6.145618 0.331481 0.126217 0.000000 0.000000 1.570796
    12 1.221165 -0.808934 1.278864 -1.516913 -3.141592 0.332876
    13 1.220377 0.807360 1.278864 1.516913 -3.141592 -0.333470
    14 2.376226 6.127828 -4.573739 -0.010546 0.000000 0.206357
    15 7.395983 -2.990950 -5.397584 6.278771 -1.929314 -0.636251
    16 8.007386 1.809247 -0.360751 1.567794 -3.118853 0.300515
    17 0.002300 -8.514362 -0.068977 0.234761 0.616808 0.243076
    18 -0.488518 -2.755602 -0.228260 -1.428130 -0.160856 -0.230070
    19 0.039887 -1.550105 0.029854 -2.079381 -0.002469 0.045435
    20 0.032692 -1.310113 -0.085611 -2.212855 -0.000671 0.047998
    21 0.250027 -2.820665 -0.238396 -1.235290 -0.189365 -0.138021
    22 -0.049759 -1.602417 -0.004993 -2.024646 -0.011325 -0.048935
    23 -0.034142 -1.206908 0.045718 -1.953457 -0.008689 -0.047315
    24 0.957766 -2.746780 -0.090302 0.091000 -0.191999 0.136009
    25 -0.033420 -1.397129 -0.030789 -1.026117 0.003272 -0.050097
    26 -0.022360 -0.957436 -0.000748 -0.815603 0.006484 -0.039729
    27 -1.180681 -2.507217 -0.193859 -1.395888 0.078406 -0.337683
    28 -0.024967 -1.127840 0.017597 -1.816414 -0.022243 -0.067916
    29 -0.020057 -0.890968 0.064779 -2.298967 -0.040688 -0.071344
    30 0.599135 -1.197277 0.181473 0.406214 -0.806228 -0.659243
    31 1.528114 -0.118664 0.040166 0.006036 -0.129613 -0.420006
    32 0.967954 -0.202511 0.051823 0.134224 -0.274210 -1.244940
    33 0.120153 -0.050270 -0.054489 0.287569 3.110905 1.561085
    34 -8.130384 -8.719648 -2.610738 0.404321 -3.605367 0.365177
    35 0.171165 -8.430887 -0.228122 0.044188 0.700953 0.123582
    36 0.447953 -2.798986 -0.200443 -0.575114 0.020764 0.098269
    37 -0.032909 -1.499736 0.032285 -1.604100 0.022998 -0.032524
    38 -0.027022 -1.108171 -0.028023 -0.809502 0.019391 -0.011397
    39 -0.249534 -2.846964 -0.174213 -0.305656 0.018056 0.027965
    40 0.043235 -1.656596 0.060855 -1.708616 -0.024370 0.012704
    41 0.031729 -1.153017 0.058838 -0.456036 -0.004044 0.005831
    42 -0.963866 -2.785145 -0.085350 -0.131792 0.089002 0.029572
    43 0.028479 -1.406973 -0.024980 -1.178057 -0.034384 -0.037392
    44 0.021413 -0.942156 0.012233 -0.911525 -0.023202 -0.032562
    45 1.164475 -2.543940 -0.170330 -0.596435 -0.045557 0.103003
    46 0.024032 -1.144668 -0.005631 -1.101947 0.015017 0.056041
    47 0.014898 -0.899614 -0.019848 -0.810464 0.003152 0.041047
    48 -0.586770 -1.264477 0.200161 -0.027868 -0.631674 -2.776263
    49 1.550180 0.039149 0.016848 -0.011521 -0.004414 0.620144
    50 1.114041 0.044518 -0.005766 -0.024799 -0.034810 0.910969
    51 -0.069084 -0.111698 0.022210 -0.185450 0.061295 1.564101
    52 -5.631881 6.737550 -0.360530 1.580492 -0.020375 -0.984228
  time 8
    0 5.355327 -7.000214 -5.379070 -0.055450 -0.170636 -1.697349
    1 8.265903 -0.786431 0.000000 0.000000 0.000000 -1.570795
    2 -0.197608 0.000001 -1.958414 1.570797 1.570796 0.000000
    3 4.362904 -1.050445 2.484950 1.570797 1.570796 0.000000
    4 5.074254 -1.050445 2.043530 1.570797 1.570796 0.000000
    5 5.785604 -1.050445 2.484950 1.570797 1.570796 0.000000
    6 6.496956 -1.050445 2.043530 1.570797 1.570796 0.000000
    7 5.074254 1.017943 2.484950 1.570797 1.570796 0.000000
    8 5.785604 1.017944 2.043530 1.570797 1.570796 0.000000
    9 6.496954 1.017944 2.484950 1.570797 1.570796 0.000000
    10 4.362903 1.017943 2.043530 1.570797 1.570796 0.000000
    11 6.145618 0.331481 0.126217 0.000000 0.000000 1.570796
    12 1.221165 -0.808934 1.278864 -1.372523 -3.141592 0.332876
    13 1.220377 0.807360 1.278864 1.372523 -3.141592 -0.333470
    14 2.376226 6.127828 -4.573739 -0.010546 0.000000 0.206357
    15 7.290511 -3.119860 -5.393677 6.243117 -1.928403 -0.600893
    16 7.956603 2.149102 -0.352938 1.567315 -3.119712 0.342642
    17 0.006206 -8.518268 -0.068977 0.240552 0.634178 0.264433
    18 -0.488518 -2.755602 -0.228260 -1.428130 -0.160856 -0.230070
    19 0.039887 -1.550105 0.029854 -2.079381 -0.002469 0.045435
    20 0.032692 -1.310113 -0.085611 -2.212855 -0.000671 0.047998
    21 0.250027 -2.820665 -0.238396 -1.235290 -0.189365 -0.138021
    22 -0.049759 -1.602417 -0.004993 -2.024646 -0.011325 -0.048935
    23 -0.034142 -1.206908 0.045718 -1.953457 -0.008689 -0.047315
    24 0.957766 -2.746780 -0.090302 0.116347 -0.192814 0.137028
    25 -0.033420 -1.397129 -0.026882 -0.961247 0.004614 -0.047112
    26 -0.022360 -0.957436 -0.000748 -0.815603 0.006484 -0.039729
    27 -1.180681 -2.507217 -0.193859 -1.395888 0.078406 -0.337683
    28 -0.024967 -1.127840 0.017597 -1.816414 -0.022243 -0.067916
    29 -0.020057 -0.890968 0.064779 -2.298967 -0.040688 -0.071344
    30 0.599135 -1.197277 0.181473 0.406214 -0.806228 -0.659243
    31 1.528114 -0.118664 0.040166 0.006036 -0.129613 -0.420006
    32 0.967954 -0.202511 0.051823 0.134224 -0.274210 -1.244940
    33 0.120153 -0.050270 -0.054489 0.287569 3.110905 1.561085
    34 -7.997567 -8.809494 -2.501360 0.392878 -3.614193 0.342807
    35 0.171165 -8.434793 -0.235934 0.034831 0.719079 0.099153
    36 0.447953 -2.798986 -0.200443 -0.575114 0.020764 0.098269
    37 -0.032909 -1.499736 0.032285 -1.604100 0.022998 -0.032524
    38 -0.027022 -1.108171 -0.028023 -0.809502 0.019391 -0.011397
    39 -0.249534 -2.846964 -0.174213 -0.305656 0.018056 0.027965
    40 0.043235 -1.656596 0.060855 -1.708616 -0.024370 0.012704
    41 0.031729 -1.153017 0.058838 -0.456036 -0.004044 0.005831
    42 -0.963866 -2.785145 -0.085350 -0.131792 0.089002 0.029572
    43 0.028479 -1.406973 -0.024980 -1.178057 -0.034384 -0.037392
    44 0.021413 -0.942156 0.012233 -0.911525 -0.023202 -0.032562
    45 1.164475 -2.543940 -0.170330 -0.596435 -0.045557 0.103003
    46 0.024032 -1.144668 -0.005631 -1.101947 0.015017 0.056041
    47 0.014898 -0.899614 -0.019848 -0.810464 0.003152 0.041047
    48 -0.586770 -1.264477 0.200161 -0.027868 -0.631674 -2.776263
    49 1.550180 0.039149 0.016848 -0.011521 -0.004414 0.620144
    50 1.114041 0.044518 -0.005766 -0.024799 -0.034810 0.910969
    51 -0.069084 -0.111698 0.022210 -0.185450 0.061295 1.564101
    52 -5.276401 7.050060 -0.348811 1.580912 -0.018901 -1.041881
  time 9
    0 5.324076 -7.050996 -5.410321 -0.052317 -0.171229 -1.697605
    1 8.265903 -0.786431 0.000000 0.000000 0.000000 -1.570795
    2 -0.197608 0.000001 -1.958414 1.570797 1.570796 0.000000
    3 4.362904 -1.050445 2.484950 1.570797 1.570796 0.000000
    4 5.074254 -1.050445 2.043530 1.570797 1.570796 0.000000
    5 5.785604 -1.050445 2.367759 1.570797 1.570796 0.000000
    6 6.496956 -1.050445 2.043530 1.570797 1.570796 0.000000
    7 5.074254 1.017943 2.367759 1.570797 1.570796 0.000000
    8 5.785604 1.017944 2.043530 1.570797 1.570796 0.000000
    9 6.496954 1.017944 2.484950 1.570797 1.570796 0.000000
    10 4.362903 1.017943 2.043530 1.570797 1.570796 0.000000
    11 6.145618 0.331481 0.126217 0.000000 0.000000 1.570796
    12 1.221165 -0.808934 1.278864 -1.163512 -3.141592 0.332876
    13 1.220377 0.807360 1.278864 1.163512 -3.141592 -0.333470
    14 2.376226 6.127828 -4.573739 -0.010546 0.000000 0.206357
    15 7.251447 -3.166736 -5.389771 6.231903 -1.928338 -0.589541
    16 7.933165 2.262386 -0.352938 1.567219 -3.119903 0.356574
    17 0.006206 -8.518268 -0.068977 0.240336 0.630725 0.267856
    18 -0.488518 -2.755602 -0.228260 -1.428130 -0.160856 -0.230070
    19 0.039887 -1.550105 0.029854 -2.079381 -0.002469 0.045435
    20 0.032692 -1.310113 -0.085611 -2.212855 -0.000671 0.047998
    21 0.250027 -2.820665 -0.238396 -1.235290 -0.189365 -0.138021
    22 -0.049759 -1.602417 -0.004993 -2.024646 -0.011325 -0.048935
    23 -0.034142 -1.206908 0.045718 -1.953457 -0.008689 -0.047315
    24 0.957766 -2.746780 -0.090302 0.125084 -0.193101 0.137376
    25 -0.033420 -1.397129 -0.026882 -0.938901 0.005034 -0.046058
    26 -0.022360 -0.957436 -0.000748 -0.815603 0.006484 -0.039729
    27 -1.180681 -2.507217 -0.193859 -1.395888 0.078406 -0.337683
    28 -0.024967 -1.127840 0.017597 -1.816414 -0.022243 -0.067916
    29 -0.020057 -0.890968 0.064779 -2.298967 -0.040688 -0.071344
    30 0.599135 -1.197277 0.181473 0.406214 -0.806240 -0.659243
    31 1.528114 -0.118664 0.040166 0.006036 -0.129613 -0.420006
    32 0.967954 -0.202511 0.051823 0.134224 -0.274210 -1.244940
    33 0.120153 -0.050270 -0.054489 0.287569 3.110905 1.561085
    34 -7.981942 -8.825119 -2.497453 0.386748 -3.618176 0.333129
    35 0.175071 -8.438699 -0.232028 0.039425 0.716757 0.092186
    36 0.447953 -2.798986 -0.200443 -0.575114 0.020764 0.098269
    37 -0.032909 -1.499736 0.032285 -1.604100 0.022998 -0.032524
    38 -0.027022 -1.108171 -0.028023 -0.809502 0.019391 -0.011397
    39 -0.249534 -2.846964 -0.174213 -0.305656 0.018056 0.027965
    40 0.043235 -1.656596 0.060855 -1.708616 -0.024370 0.012704
    41 0.031729 -1.153017 0.058838 -0.456036 -0.004044 0.005831
    42 -0.963866 -2.785145 -0.085350 -0.131792 0.089002 0.029572
    43 0.028479 -1.406973 -0.024980 -1.178057 -0.034384 -0.037392
    44 0.021413 -0.942156 0.012233 -0.911525 -0.023202 -0.032562
    45 1.164475 -2.543940 -0.170330 -0.596435 -0.045557 0.103003
    46 0.024032 -1.144668 -0.005631 -1.101947 0.015017 0.056041
    47 0.014898 -0.899614 -0.019848 -0.810464 0.003152 0.041047
    48 -0.586770 -1.264477 0.200161 -0.027868 -0.631674 -2.776263
    49 1.550180 0.039149 0.016848 -0.011521 -0.004414 0.620144
    50 1.114041 0.044518 -0.005766 -0.024799 -0.034810 0.910969
    51 -0.069084 -0.111698 0.022210 -0.185450 0.061295 1.564101
    52 -5.186555 7.124281 -0.348811 1.580996 -0.018542 -1.055626
  time 10
    0 5.269387 -7.008026 -5.406415 -0.034034 -0.173659 -1.697605
    1 8.265903 -0.786431 0.000000 0.000000 0.000000 -1.570795
    2 -0.197608 0.000001 -1.958414 1.570797 1.570796 0.000000
    3 4.362904 -1.050445 2.484950 1.570797 1.570796 0.000000
    4 5.074254 -1.050445 2.262287 1.570797 1.570796 0.000000
    5 5.785604 -1.050445 2.156815 1.570797 1.570796 0.000000
    6 6.496956 -1.050445 2.043530 1.570797 1.570796 0.000000
    7 5.074254 1.017943 2.156815 1.570797 1.570796 0.000000
    8 5.785604 1.017944 2.262287 1.570797 1.570796 0.000000
    9 6.496954 1.017944 2.484950 1.570797 1.570796 0.000000
    10 4.362903 1.017943 2.043530 1.570797 1.570796 0.000000
    11 6.145618 0.331481 0.126217 0.000000 0.000000 1.570796
    12 1.221165 -0.808934 1.278864 -0.915718 -3.141592 0.332876
    13 1.220377 0.807360 1.278864 0.915718 -3.141592 -0.333470
    14 2.376226 6.127828 -4.573739 -0.010546 0.000000 0.206357
    15 7.270979 -3.143298 -5.389771 6.237558 -1.928338 -0.595190
    16 7.944884 2.203791 -0.352938 1.567315 -3.119807 0.349608
    17 0.002300 -8.518268 -0.068977 0.236655 0.613151 0.259660
    18 -0.488518 -2.755602 -0.228260 -1.428130 -0.160856 -0.230070
    19 0.039887 -1.550105 0.029854 -2.079381 -0.002469 0.045435
    20 0.032692 -1.310113 -0.085611 -2.212855 -0.000671 0.047998
    21 0.250027 -2.820665 -0.238396 -1.235290 -0.189365 -0.138021
    22 -0.049759 -1.602417 -0.004993 -2.024646 -0.011325 -0.048935
    23 -0.034142 -1.206908 0.045718 -1.953457 -0.008689 -0.047315
    24 0.957766 -2.746780 -0.090302 0.120722 -0.192958 0.137196
    25 -0.033420 -1.397129 -0.026882 -0.950074 0.004830 -0.046585
    26 -0.022360 -0.957436 -0.000748 -0.815603 0.006484 -0.039729
    27 -1.180681 -2.507217 -0.193859 -1.395888 0.078406 -0.337683
    28 -0.024967 -1.127840 0.017597 -1.816414 -0.022243 -0.067916
    29 -0.020057 -0.890968 0.064779 -2.298967 -0.040688 -0.071344
    30 0.599135 -1.197277 0.181473 0.406214 -0.806228 -0.659243
    31 1.528114 -0.118664 0.040166 0.006036 -0.129613 -0.420006
    32 0.967954 -0.202511 0.051823 0.134224 -0.274210 -1.244940
    33 0.120153 -0.050270 -0.054489 0.287569 3.110905 1.561085
    34 -8.056163 -8.778243 -2.575581 0.385828 -3.618176 0.334557
    35 0.175071 -8.438699 -0.228122 0.053120 0.701177 0.099091
    36 0.447953 -2.798986 -0.200443 -0.575114 0.020764 0.098269
    37 -0.032909 -1.499736 0.032285 -1.604100 0.022998 -0.032524
    38 -0.027022 -1.108171 -0.028023 -0.809502 0.019391 -0.011397
    39 -0.249534 -2.846964 -0.174213 -0.305656 0.018056 0.027965
    40 0.043235 -1.656596 0.060855 -1.708616 -0.024370 0.012704
    41 0.031729 -1.153017 0.058838 -0.456036 -0.004044 0.005831
    42 -0.963866 -2.785145 -0.085350 -0.131792 0.089002 0.029572
    43 0.028479 -1.406973 -0.024980 -1.178057 -0.034384 -0.037392
    44 0.021413 -0.942156 0.012233 -0.911525 -0.023202 -0.032562
    45 1.164475 -2.543940 -0.170330 -0.596435 -0.045557 0.103003
    46 0.024032 -1.144668 -0.005631 -1.101947 0.015017 0.056041
    47 0.014898 -0.899614 -0.019848 -0.810464 0.003152 0.041047
    48 -0.586770 -1.264477 0.200161 -0.027868 -0.631674 -2.776263
    49 1.550180 0.039149 0.016848 -0.011521 -0.004414 0.620144
    50 1.114041 0.044518 -0.005766 -0.024799 -0.034810 0.910969
    51 -0.069084 -0.111698 0.022210 -0.185450 0.061295 1.564101
    52 -5.323277 7.010996 -0.352718 1.580852 -0.019093 -1.034158
  time 11
    0 5.226417 -6.968963 -5.398602 -0.019613 -0.175602 -1.697605
    1 8.265903 -0.786431 0.000000 0.000000 0.000000 -1.570795
    2 -0.197608 0.000001 -1.958414 1.570797 1.570796 0.000000
    3 4.362904 -1.050445 2.262287 1.570797 1.570796 0.000000
    4 5.074254 -1.050445 2.484950 1.570797 1.570796 0.000000
    5 5.785604 -1.050445 2.043530 1.570797 1.570796 0.000000
    6 6.496956 -1.050445 2.156815 1.570797 1.570796 0.000000
    7 5.074254 1.017943 2.043530 1.570797 1.570796 0.000000
    8 5.785604 1.017944 2.484950 1.570797 1.570796 0.000000
    9 6.496954 1.017944 2.262287 1.570797 1.570796 0.000000
    10 4.362903 1.017943 2.156815 1.570797 1.570796 0.000000
    11 6.145618 0.331481 0.126217 0.000000 0.000000 1.570796
    12 1.221165 -0.808934 1.278864 -0.655030 -3.141592 0.332876
    13 1.220377 0.807360 1.278864 0.655030 -3.141592 -0.333470
    14 2.376226 6.127828 -4.573739 -0.010546 0.000000 0.206357
    15 7.290511 -3.119860 -5.393677 6.243117 -1.928403 -0.600893
    16 7.956603 2.149102 -0.352938 1.567315 -3.119712 0.342642
    17 -0.001606 -8.518268 -0.072883 0.233841 0.599286 0.252863
    18 -0.488518 -2.755602 -0.228260 -1.428130 -0.160856 -0.230070
    19 0.039887 -1.550105 0.029854 -2.079381 -0.002469 0.045435
    20 0.032692 -1.310113 -0.085611 -2.212855 -0.000671 0.047998
    21 0.250027 -2.820665 -0.238396 -1.235290 -0.189365 -0.138021
    22 -0.049759 -1.602417 -0.004993 -2.024646 -0.011325 -0.048935
    23 -0.034142 -1.206908 0.045718 -1.953457 -0.008689 -0.047315
    24 0.957766 -2.746780 -0.090302 0.116347 -0.192814 0.137028
    25 -0.033420 -1.397129 -0.026882 -0.961247 0.004614 -0.047112
    26 -0.022360 -0.957436 -0.000748 -0.815603 0.006484 -0.039729
    27 -1.180681 -2.507217 -0.193859 -1.395888 0.078406 -0.337683
    28 -0.024967 -1.127840 0.017597 -1.816414 -0.022243 -0.067916
    29 -0.020057 -0.890968 0.064779 -2.298967 -0.040688 -0.071344
    30 0.599135 -1.197277 0.181473 0.406214 -0.806228 -0.659243
    31 1.528114 -0.118664 0.040166 0.006036 -0.129613 -0.420006
    32 0.967954 -0.202511 0.051823 0.134224 -0.274210 -1.244940
    33 0.120153 -0.050270 -0.054489 0.287569 3.110905 1.561085
    34 -8.114758 -8.739179 -2.634176 0.385369 -3.617864 0.336302
    35 0.175071 -8.438699 -0.224215 0.063696 0.688781 0.104788
    36 0.447953 -2.798986 -0.200443 -0.575114 0.020764 0.098269
    37 -0.032909 -1.499736 0.032285 -1.604100 0.022998 -0.032524
    38 -0.027022 -1.108171 -0.028023 -0.809502 0.019391 -0.011397
    39 -0.249534 -2.846964 -0.174213 -0.305656 0.018056 0.027965
    40 0.043235 -1.656596 0.060855 -1.708616 -0.024370 0.012704
    41 0.031729 -1.153017 0.058838 -0.456036 -0.004044 0.005831
    42 -0.963866 -2.785145 -0.085350 -0.131792 0.089002 0.029572
    43 0.028479 -1.406973 -0.024980 -1.178057 -0.034384 -0.037392
    44 0.021413 -0.942156 0.012233 -0.911525 -0.023202 -0.032562
    45 1.164475 -2.543940 -0.170330 -0.596435 -0.045557 0.103003
    46 0.024032 -1.144668 -0.005631 -1.101947 0.015017 0.056041
    47 0.014898 -0.899614 -0.019848 -0.810464 0.003152 0.041047
    48 -0.586770 -1.264477 0.200161 -0.027868 -0.631674 -2.776263
    49 1.550180 0.039149 0.016848 -0.011521 -0.004414 0.620144
    50 1.114041 0.044518 -0.005766 -0.024799 -0.034810 0.910969
    51 -0.069084 -0.111698 0.022210 -0.185450 0.061295 1.564101
    52 -5.436562 6.913337 -0.356624 1.580744 -0.019560 -1.016339
  time 12
    0 5.210791 -6.965056 -5.402509 -0.014850 -0.176250 -1.697670
    1 8.265903 -0.786431 0.000000 0.000000 0.000000 -1.570795
    2 -0.197608 0.000001 -1.958414 1.570797 1.570796 0.000000
    3 4.362904 -1.050445 2.043530 1.570797 1.570796 0.000000
    4 5.074254 -1.050445 2.484950 1.570797 1.570796 0.000000
    5 5.785604 -1.050445 2.043530 1.570797 1.570796 0.000000
    6 6.496956 -1.050445 2.375571 1.570797 1.570796 0.000000
    7 5.074254 1.017943 2.043530 1.570797 1.570796 0.000000
    8 5.785604 1.017944 2.484950 1.570797 1.570796 0.000000
    9 6.496954 1.017944 2.043530 1.570797 1.570796 0.000000
    10 4.362903 1.017943 2.367759 1.570797 1.570796 0.000000
    11 6.145618 0.331481 0.126217 0.000000 0.000000 1.570796
    12 1.221165 -0.808934 1.278864 -0.407236 -3.141592 0.332876
    13 1.220377 0.807360 1.278864 0.407236 -3.141592 -0.333470
    14 2.376226 6.127828 -4.573739 -0.010546 0.000000 0.206357
    15 7.290511 -3.119860 -5.393677 6.243117 -1.928403 -0.600893
    16 7.956603 2.149102 -0.352938 1.567315 -3.119712 0.342642
    17 -0.001606 -8.518268 -0.072883 0.232975 0.594664 0.251368
    18 -0.488518 -2.755602 -0.228260 -1.428130 -0.160856 -0.230070
    19 0.039887 -1.550105 0.029854 -2.079381 -0.002469 0.045435
    20 0.032692 -1.310113 -0.085611 -2.212855 -0.000671 0.047998
    21 0.250027 -2.820665 -0.238396 -1.235290 -0.189365 -0.138021
    22 -0.049759 -1.602417 -0.004993 -2.024646 -0.011325 -0.048935
    23 -0.034142 -1.206908 0.045718 -1.953457 -0.008689 -0.047315
    24 0.957766 -2.746780 -0.090302 0.116347 -0.192814 0.137028
    25 -0.033420 -1.397129 -0.026882 -0.961247 0.004614 -0.047112
    26 -0.022360 -0.957436 -0.000748 -0.815603 0.006484 -0.039729
    27 -1.180681 -2.507217 -0.193859 -1.395888 0.078406 -0.337683
    28 -0.024967 -1.127840 0.017597 -1.816414 -0.022243 -0.067916
    29 -0.020057 -0.890968 0.064779 -2.298967 -0.040688 -0.071344
    30 0.599135 -1.197277 0.181473 0.406214 -0.806228 -0.659243
    31 1.528114 -0.118664 0.040166 0.006036 -0.129613 -0.420006
    32 0.967954 -0.202511 0.051823 0.134224 -0.274210 -1.244940
    33 0.120153 -0.050270 -0.054489 0.287569 3.110905 1.561085
    34 -8.130384 -8.731367 -2.649802 0.384296 -3.618411 0.335271
    35 0.175071 -8.438699 -0.224215 0.067496 0.684774 0.105376
    36 0.447953 -2.798986 -0.200443 -0.575114 0.020764 0.098269
    37 -0.032909 -1.499736 0.032285 -1.604100 0.022998 -0.032524
    38 -0.027022 -1.108171 -0.028023 -0.809502 0.019391 -0.011397
    39 -0.249534 -2.846964 -0.174213 -0.305656 0.018056 0.027965
    40 0.043235 -1.656596 0.060855 -1.708616 -0.024370 0.012704
    41 0.031729 -1.153017 0.058838 -0.456036 -0.004044 0.005831
    42 -0.963866 -2.785145 -0.085350 -0.131792 0.089002 0.029572
    43 0.028479 -1.406973 -0.024980 -1.178057 -0.034384 -0.037392
    44 0.021413 -0.942156 0.012233 -0.911525 -0.023202 -0.032562
    45 1.164475 -2.543940 -0.170330 -0.596435 -0.045557 0.103003
    46 0.024032 -1.144668 -0.005631 -1.101947 0.015017 0.056041
    47 0.014898 -0.899614 -0.019848 -0.810464 0.003152 0.041047
    48 -0.586770 -1.264477 0.200161 -0.027868 -0.631674 -2.776263
    49 1.550180 0.039149 0.016848 -0.011521 -0.004414 0.620144
    50 1.114041 0.044518 -0.005766 -0.024799 -0.034810 0.910969
    51 -0.069084 -0.111698 0.022210 -0.185450 0.061295 1.564101
    52 -5.456094 6.897712 -0.356624 1.580720 -0.019632 -1.013176
  time 13
    0 5.202979 -6.965056 -5.402509 -0.012532 -0.176547 -1.697670
    1 8.265903 -0.786431 0.000000 0.000000 0.000000 -1.570795
    2 -0.197608 0.000001 -1.958414 1.570797 1.570796 0.000000
    3 4.362904 -1.050445 2.043530 1.570797 1.570796 0.000000
    4 5.074254 -1.050445 2.484950 1.570797 1.570796 0.000000
    5 5.785604 -1.050445 2.043530 1.570797 1.570796 0.000000
    6 6.496956 -1.050445 2.492762 1.570797 1.570796 0.000000
    7 5.074254 1.017943 2.043530 1.570797 1.570796 0.000000
    8 5.785604 1.017944 2.484950 1.570797 1.570796 0.000000
    9 6.496954 1.017944 2.043530 1.570797 1.570796 0.000000
    10 4.362903 1.017943 2.484950 1.570797 1.570796 0.000000
    11 6.145618 0.331481 0.126217 0.000000 0.000000 1.570796
    12 1.221165 -0.808934 1.278864 -0.198225 -3.141592 0.332876
    13 1.220377 0.807360 1.278864 0.198225 -3.141592 -0.333470
    14 2.376226 6.127828 -4.573739 -0.010546 0.000000 0.206357
    15 7.290511 -3.119860 -5.393677 6.243213 -1.928403 -0.600947
    16 7.956603 2.149102 -0.352938 1.567315 -3.119712 0.342642
    17 -0.001606 -8.518268 -0.072883 0.232542 0.592429 0.250597
    18 -0.488518 -2.755602 -0.228260 -1.428130 -0.160856 -0.230070
    19 0.039887 -1.550105 0.029854 -2.079381 -0.002469 0.045435
    20 0.032692 -1.310113 -0.085611 -2.212855 -0.000671 0.047998
    21 0.250027 -2.820665 -0.238396 -1.235290 -0.189365 -0.138021
    22 -0.049759 -1.602417 -0.004993 -2.024646 -0.011325 -0.048935
    23 -0.034142 -1.206908 0.045718 -1.953457 -0.008689 -0.047315
    24 0.957766 -2.746780 -0.090302 0.116347 -0.192814 0.137028
    25 -0.033420 -1.397129 -0.026882 -0.961247 0.004614 -0.047112
    26 -0.022360 -0.957436 -0.000748 -0.815603 0.006484 -0.039729
    27 -1.180681 -2.507217 -0.193859 -1.395888 0.078406 -0.337683
    28 -0.024967 -1.127840 0.017597 -1.816414 -0.022243 -0.067916
    29 -0.020057 -0.890968 0.064779 -2.298967 -0.040688 -0.071344
    30 0.599135 -1.197277 0.181473 0.406214 -0.806228 -0.659243
    31 1.528114 -0.118664 0.040166 0.006036 -0.129613 -0.420006
    32 0.967954 -0.202511 0.051823 0.134224 -0.274210 -1.244940
    33 0.120153 -0.050270 -0.054489 0.287569 3.110905 1.561085
    34 -8.138196 -8.727460 -2.657614 0.383734 -3.618723 0.334795
    35 0.175071 -8.438699 -0.224215 0.069339 0.682789 0.105655
    36 0.447953 -2.798986 -0.200443 -0.575114 0.020764 0.098269
    37 -0.032909 -1.499736 0.032285 -1.604100 0.022998 -0.032524
    38 -0.027022 -1.108171 -0.028023 -0.809502 0.019391 -0.011397
    39 -0.249534 -2.846964 -0.174213 -0.305656 0.018056 0.027965
    40 0.043235 -1.656596 0.060855 -1.708616 -0.024370 0.012704
    41 0.031729 -1.153017 0.058838 -0.456036 -0.004044 0.005831
    42 -0.963866 -2.785145 -0.085350 -0.131792 0.089002 0.029572
    43 0.028479 -1.406973 -0.024980 -1.178057 -0.034384 -0.037392
    44 0.021413 -0.942156 0.012233 -0.911525 -0.023202 -0.032562
    45 1.164475 -2.543940 -0.170330 -0.596435 -0.045557 0.103003
    46 0.024032 -1.144668 -0.005631 -1.101947 0.015017 0.056041
    47 0.014898 -0.899614 -0.019848 -0.810464 0.003152 0.041047
    48 -0.586770 -1.264477 0.200161 -0.027868 -0.631674 -2.776263
    49 1.550180 0.039149 0.016848 -0.011521 -0.004414 0.620144
    50 1.114041 0.044518 -0.005766 -0.024799 -0.034810 0.910969
    51 -0.069084 -0.111698 0.022210 -0.185450 0.061295 1.564101
    52 -5.463907 6.889899 -0.356624 1.580708 -0.019680 -1.011717
  time 14
    0 5.199072 -6.961150 -5.402509 -0.011759 -0.176654 -1.697670
    1 8.265903 -0.786431 0.000000 0.000000 0.000000 -1.570795
    2 -0.197608 0.000001 -1.958414 1.570797 1.570796 0.000000
    3 4.362904 -1.050445 2.043530 1.570797 1.570796 0.000000
    4 5.074254 -1.050445 2.484950 1.570797 1.570796 0.000000
    5 5.785604 -1.050445 2.043530 1.570797 1.570796 0.000000
    6 6.496956 -1.050445 2.492762 1.570797 1.570796 0.000000
    7 5.074254 1.017943 2.043530 1.570797 1.570796 0.000000
    8 5.785604 1.017944 2.484950 1.570797 1.570796 0.000000
    9 6.496954 1.017944 2.043530 1.570797 1.570796 0.000000
    10 4.362903 1.017943 2.484950 1.570797 1.570796 0.000000
    11 6.145618 0.331481 0.126217 0.000000 0.000000 1.570796
    12 1.221165 -0.808934 1.278864 -0.053835 -3.141592 0.332876
    13 1.220377 0.807360 1.278864 0.053835 -3.141592 -0.333470
    14 2.376226 6.127828 -4.573739 -0.010546 0.000000 0.206357
    15 7.290511 -3.119860 -5.393677 6.243213 -1.928403 -0.600947
    16 7.956603 2.149102 -0.352938 1.567315 -3.119712 0.342642
    17 -0.001606 -8.518268 -0.072883 0.232433 0.591667 0.250356
    18 -0.488518 -2.755602 -0.228260 -1.428130 -0.160856 -0.230070
    19 0.039887 -1.550105 0.029854 -2.079381 -0.002469 0.045435
    20 0.032692 -1.310113 -0.085611 -2.212855 -0.000671 0.047998
    21 0.250027 -2.820665 -0.238396 -1.235290 -0.189365 -0.138021
    22 -0.049759 -1.602417 -0.004993 -2.024646 -0.011325 -0.048935
    23 -0.034142 -1.206908 0.045718 -1.953457 -0.008689 -0.047315
    24 0.957766 -2.746780 -0.090302 0.116347 -0.192814 0.137028
    25 -0.033420 -1.397129 -0.026882 -0.961247 0.004614 -0.047112
    26 -0.022360 -0.957436 -0.000748 -0.815603 0.006484 -0.039729
    27 -1.180681 -2.507217 -0.193859 -1.395888 0.078406 -0.337683
    28 -0.024967 -1.127840 0.017597 -1.816414 -0.022243 -0.067916
    29 -0.020057 -0.890968 0.064779 -2.298967 -0.040688 -0.071344
    30 0.599135 -1.197277 0.181473 0.406214 -0.806228 -0.659243
    31 1.528114 -0.118664 0.040166 0.006036 -0.129613 -0.420006
    32 0.967954 -0.202511 0.051823 0.134224 -0.274210 -1.244940
    33 0.120153 -0.050270 -0.054489 0.287569 3.110905 1.561085
    34 -8.142103 -8.727460 -2.661521 0.383581 -3.618801 0.334636
    35 0.175071 -8.438699 -0.224215 0.069963 0.682152 0.105716
    36 0.447953 -2.798986 -0.200443 -0.575114 0.020764 0.098269
    37 -0.032909 -1.499736 0.032285 -1.604100 0.022998 -0.032524
    38 -0.027022 -1.108171 -0.028023 -0.809502 0.019391 -0.011397
    39 -0.249534 -2.846964 -0.174213 -0.305656 0.018056 0.027965
    40 0.043235 -1.656596 0.060855 -1.708616 -0.024370 0.012704
    41 0.031729 -1.153017 0.058838 -0.456036 -0.004044 0.005831
    42 -0.963866 -2.785145 -0.085350 -0.131792 0.089002 0.029572
    43 0.028479 -1.406973 -0.024980 -1.178057 -0.034384 -0.037392
    44 0.021413 -0.942156 0.012233 -0.911525 -0.023202 -0.032562
    45 1.164475 -2.543940 -0.170330 -0.596435 -0.045557 0.103003
    46 0.024032 -1.144668 -0.005631 -1.101947 0.015017 0.056041
    47 0.014898 -0.899614 -0.019848 -0.810464 0.003152 0.041047
    48 -0.586770 -1.264477 0.200161 -0.027868 -0.631674 -2.776263
    49 1.550180 0.039149 0.016848 -0.011521 -0.004414 0.620144
    50 1.114041 0.044518 -0.005766 -0.024799 -0.034810 0.910969
    51 -0.069084 -0.111698 0.022210 -0.185450 0.061295 1.564101
    52 -5.467813 6.885993 -0.356624 1.580696 -0.019692 -1.011169
  time 15
    0 5.199072 -6.961150 -5.402509 -0.011631 -0.176681 -1.697670
    1 8.265903 -0.786431 0.000000 0.000000 0.000000 -1.570795
    2 -0.197608 0.000001 -1.958414 1.570797 1.570796 0.000000
    3 4.362904 -1.050445 2.043530 1.570797 1.570796 0.000000
    4 5.074254 -1.050445 2.328695 1.570797 1.570796 0.000000
    5 5.785604 -1.050445 2.262287 1.570797 1.570796 0.000000
    6 6.496956 -1.050445 2.488856 1.570797 1.570796 0.000000
    7 5.074254 1.017943 2.262287 1.570797 1.570796 0.000000
    8 5.785604 1.017944 2.328695 1.570797 1.570796 0.000000
    9 6.496954 1.017944 2.043530 1.570797 1.570796 0.000000
    10 4.362903 1.017943 2.484950 1.570797 1.570796 0.000000
    11 6.145618 0.331481 0.126217 0.000000 0.000000 1.570796
    12 1.221165 -0.808934 1.278864 0.000000 -3.141592 0.332876
    13 1.220377 0.807360 1.278864 0.000000 -3.141592 -0.333470
    14 2.376226 6.127828 -4.573739 -0.010546 0.000000 0.206357
    15 7.290511 -3.119860 -5.393677 6.243117 -1.928403 -0.600893
    16 7.956603 2.149102 -0.352938 1.567315 -3.119712 0.342642
    17 -0.001606 -8.518268 -0.072883 0.232433 0.591566 0.250356
    18 -0.488518 -2.755602 -0.228260 -1.428130 -0.160856 -0.230070
    19 0.039887 -1.550105 0.029854 -2.079381 -0.002469 0.045435
    20 0.032692 -1.310113 -0.085611 -2.212855 -0.000671 0.047998
    21 0.250027 -2.820665 -0.238396 -1.235290 -0.189365 -0.138021
    22 -0.049759 -1.602417 -0.004993 -2.024646 -0.011325 -0.048935
    23 -0.034142 -1.206908 0.045718 -1.953457 -0.008689 -0.047315
    24 0.957766 -2.746780 -0.090302 0.116347 -0.192814 0.137028
    25 -0.033420 -1.397129 -0.026882 -0.961247 0.004614 -0.047112
    26 -0.022360 -0.957436 -0.000748 -0.815603 0.006484 -0.039729
    27 -1.180681 -2.507217 -0.193859 -1.395888 0.078406 -0.337683
    28 -0.024967 -1.127840 0.017597 -1.816414 -0.022243 -0.067916
    29 -0.020057 -0.890968 0.064779 -2.298967 -0.040688 -0.071344
    30 0.599135 -1.197277 0.181473 0.406214 -0.806240 -0.659243
    31 1.528114 -0.118664 0.040166 0.006036 -0.129613 -0.420006
    32 0.967954 -0.202511 0.051823 0.134224 -0.274210 -1.244940
    33 0.120153 -0.050270 -0.054489 0.287569 3.110905 1.561085
    34 -8.142103 -8.723554 -2.661521 0.383529 -3.618801 0.334636
    35 0.175071 -8.438699 -0.224215 0.070076 0.682077 0.105747
    36 0.447953 -2.798986 -0.200443 -0.575114 0.020764 0.098269
    37 -0.032909 -1.499736 0.032285 -1.604100 0.022998 -0.032524
    38 -0.027022 -1.108171 -0.028023 -0.809502 0.019391 -0.011397
    39 -0.249534 -2.846964 -0.174213 -0.305656 0.018056 0.027965
    40 0.043235 -1.656596 0.060855 -1.708616 -0.024370 0.012704
    41 0.031729 -1.153017 0.058838 -0.456036 -0.004044 0.005831
    42 -0.963866 -2.785145 -0.085350 -0.131792 0.089002 0.029572
    43 0.028479 -1.406973 -0.024980 -1.178057 -0.034384 -0.037392
    44 0.021413 -0.942156 0.012233 -0.911525 -0.023202 -0.032562
    45 1.164475 -2.543940 -0.170330 -0.596435 -0.045557 0.103003
    46 0.024032 -1.144668 -0.005631 -1.101947 0.015017 0.056041
    47 0.014898 -0.899614 -0.019848 -0.810464 0.003152 0.041047
    48 -0.586770 -1.264477 0.200161 -0.027868 -0.631674 -2.776263
    49 1.550180 0.039149 0.016848 -0.011521 -0.004414 0.620144
    50 1.114041 0.044518 -0.005766 -0.024799 -0.034810 0.910969
    51 -0.069084 -0.111698 0.022210 -0.185450 0.061295 1.564101
    52 -5.467813 6.885993 -0.356624 1.580696 -0.019692 -1.011108
end
