// Created by Crowbar 0.34.0.0

$ModelName "weapons/tfa_cso/w_turbulent3.mdl"

$BodyGroup "studio"
{
	studio "v_turbulent3_v_ref2"
}

$collisionmodel "v_turbulent3_v_ref2.smd"
{
	$mass 9
}

$CDMaterials "models\weapons\tfa_cso\turbulent3"

$attachment "0" "root" 0.20 -15.00 -0.70 rotate -0 0 0

$Sequence "idle" {
	"anims\idle.smd"
	fps 30
}