version 1
nodes
  0 "Bone01" -1
  1 "Bone_Lefthand" 0
  2 "Bone17" 1
  3 "M14_Bone02" 2
  4 "M14_Bone06" 3
  5 "M14_Bone07" 4
  6 "M14_Bone04" 3
  7 "M14_Bone03" 3
  8 "M14_Bone08" 3
  9 "M14_Bone05" 3
  10 "M14_Bone11" 9
  11 "M14_Bone12" 9
  12 "M14_Bone09" 3
  13 "M14_Bone10" 12
  14 "Bone04" -1
  15 "Bone_Righthand" 14
  16 "Bone39" 15
  17 "Bone40" 16
  18 "Bone41" 17
  19 "Bone35" 15
  20 "Bone36" 19
  21 "Bone37" 20
  22 "Bone31" 15
  23 "Bone32" 22
  24 "Bone33" 23
  25 "Bone43" 15
  26 "Bone44" 25
  27 "Bone45" 26
  28 "Bone27" 15
  29 "Bone28" 28
  30 "Bone29" 29
  31 "Bone_Se_Hand-R" 15
  32 "Bone13" 1
  33 "Bone14" 32
  34 "Bone15" 33
  35 "Bone18" 2
  36 "Bone19" 35
  37 "Bone21" 1
  38 "Bone22" 37
  39 "Bone23" 38
  40 "Bone09" 1
  41 "Bone10" 40
  42 "Bone11" 41
  43 "Bone05" 1
  44 "Bone06" 43
  45 "Bone07" 44
  46 "Bone_Se_Hand-L" 1
end
skeleton
  time 0
    0 11.662686 5.865773 -10.754228 0.934392 -1.907294 -1.453648
    1 -0.071918 -8.498731 -0.104137 0.269871 0.181476 -0.141146
    2 0.250028 -2.820663 -0.238396 -0.758577 0.008668 -0.269408
    3 1.034835 -0.368954 0.962382 1.438903 -5.718260 1.593918
    4 0.000004 7.330805 -0.181574 0.000000 0.000000 0.000000
    5 -0.000006 -4.491440 2.746747 0.000000 0.000000 0.000000
    6 -0.000006 -5.215600 0.521221 0.000000 0.000000 0.000000
    7 -0.000004 -2.584793 0.626897 0.535552 0.000000 0.000000
    8 -0.000006 -3.113141 3.685755 0.000000 0.000000 0.000000
    9 -0.000007 -7.713655 -1.563225 0.000000 0.000000 0.000000
    10 -0.000003 0.619987 3.519732 0.000000 0.000000 0.000000
    11 -0.000001 -0.041039 4.583956 0.000000 0.000000 0.000000
    12 -1.112914 -8.867437 2.842189 0.000000 0.000000 0.000000
    13 1.112910 1.686673 0.481230 0.000000 0.000000 0.000000
    14 -1.640473 -9.390476 -12.013804 -1.857372 -5.341387 -0.958692
    15 0.096944 -8.450419 -0.009364 0.644320 -1.866922 -0.246031
    16 0.447952 -2.798982 -0.200442 -0.632518 -0.188188 0.437361
    17 -0.032910 -1.480206 0.004936 -0.767246 0.000000 0.000002
    18 -0.027022 -1.076919 -0.020212 -0.201651 0.000000 0.000000
    19 -0.249534 -2.846962 -0.174215 -0.511223 -0.169887 0.357523
    20 0.043235 -1.683939 0.096014 -0.815309 0.002823 -0.000167
    21 0.031729 -1.160831 0.058836 -0.220796 0.000642 0.008372
    22 -0.963866 -2.785142 -0.085346 0.047968 -0.066833 0.271976
    23 0.028479 -1.403068 0.006271 -0.840841 0.000000 0.000000
    24 0.021413 -0.957782 0.020047 -0.601214 0.000000 0.000000
    25 1.164474 -2.543938 -0.170328 -0.568466 -0.246526 0.363210
    26 0.024032 -1.129043 0.017806 -0.754842 0.000000 0.000001
    27 0.014896 -0.883989 -0.019845 -0.334519 0.000000 0.000000
    28 -0.586770 -1.264475 0.200164 0.343013 -0.969972 -3.051832
    29 1.522835 0.058681 0.016850 0.296119 0.032403 0.392684
    30 1.117948 0.048424 -0.005764 -0.004929 -0.024719 0.252806
    31 -0.014395 -0.010131 0.010491 1.521828 0.323016 1.395694
    32 -0.488517 -2.755600 -0.228261 -0.945124 0.023395 -0.387835
    33 0.039888 -1.479789 0.029853 -1.586857 0.000000 0.000000
    34 0.028785 -1.075730 -0.023111 -0.303352 0.000000 0.000000
    35 -0.049759 -1.680545 0.100480 -1.511590 0.000000 -0.000002
    36 -0.034141 -1.148312 0.084779 -0.918049 0.000000 0.000000
    37 0.957766 -2.746776 -0.090301 0.329094 0.226419 0.013570
    38 -0.033419 -1.397129 -0.011255 -1.244904 0.000000 -0.000001
    39 -0.022361 -0.957434 0.018783 -1.017505 0.000000 0.000000
    40 -1.180680 -2.507215 -0.193861 -0.849276 0.096358 -0.405085
    41 -0.024966 -1.123934 0.017594 -1.517723 0.000000 0.000001
    42 -0.020057 -0.890966 0.010091 -0.909695 0.000000 0.000000
    43 0.583510 -1.197274 0.185377 1.121813 -0.962663 -1.143982
    44 1.535926 0.010245 0.005008 0.283120 -0.138086 -1.134210
    45 1.100770 0.004526 -0.010676 -0.009124 0.013408 -0.421109
    46 0.014680 -0.007296 -0.007612 -2.315902 -0.029011 -1.484394
  time 1
    0 11.662686 5.877493 -10.754228 0.935349 -1.907479 -1.453932
    1 -0.071918 -8.498731 -0.104137 0.269583 0.181514 -0.141432
    2 0.250028 -2.820663 -0.238396 -0.758577 0.008668 -0.269408
    3 1.034835 -0.368954 0.962382 1.438903 -5.718260 1.593918
    4 0.000004 7.330805 -0.181574 0.000000 0.000000 0.000000
    5 -0.000006 -4.491440 2.746747 0.000000 0.000000 0.000000
    6 -0.000006 -5.215600 0.521221 0.000000 0.000000 0.000000
    7 -0.000004 -2.584793 0.626897 0.535552 0.000000 0.000000
    8 -0.000006 -3.113141 3.685755 0.000000 0.000000 0.000000
    9 -0.000007 -7.713655 -1.563225 0.000000 0.000000 0.000000
    10 -0.000003 0.619987 3.519732 0.000000 0.000000 0.000000
    11 -0.000001 -0.041039 4.583956 0.000000 0.000000 0.000000
    12 -1.112914 -8.867437 2.842189 0.000000 0.000000 0.000000
    13 1.112910 1.686673 0.481230 0.000000 0.000000 0.000000
    14 -1.691256 -9.402196 -11.998178 -1.863131 -5.323294 -0.965591
    15 0.096944 -8.450419 -0.009364 0.666562 -1.885297 -0.320822
    16 0.447952 -2.798982 -0.200442 -0.632518 -0.188188 0.437361
    17 -0.032910 -1.480206 0.004936 -0.767246 0.000000 0.000002
    18 -0.027022 -1.076919 -0.020212 -0.201651 0.000000 0.000000
    19 -0.249534 -2.846962 -0.174215 -0.511223 -0.169887 0.357523
    20 0.043235 -1.683939 0.096014 -0.815309 0.002823 -0.000167
    21 0.031729 -1.160831 0.058836 -0.220796 0.000642 0.008372
    22 -0.963866 -2.785142 -0.085346 0.047968 -0.066833 0.271976
    23 0.028479 -1.403068 0.006271 -0.840841 0.000000 0.000000
    24 0.021413 -0.957782 0.020047 -0.601214 0.000000 0.000000
    25 1.164474 -2.543938 -0.170328 -0.568466 -0.246526 0.363210
    26 0.024032 -1.129043 0.017806 -0.754842 0.000000 0.000001
    27 0.014896 -0.883989 -0.019845 -0.334519 0.000000 0.000000
    28 -0.586770 -1.264475 0.200164 0.335990 -1.026318 -3.059936
    29 1.522835 0.058681 0.016850 0.295999 0.023966 0.416701
    30 1.117948 0.048424 -0.005764 -0.004833 -0.024515 0.252003
    31 -0.014395 -0.010131 0.010491 1.522168 0.305306 1.396592
    32 -0.488517 -2.755600 -0.228261 -0.945124 0.023395 -0.387835
    33 0.039888 -1.479789 0.029853 -1.586857 0.000000 0.000000
    34 0.028785 -1.075730 -0.023111 -0.303352 0.000000 0.000000
    35 -0.049759 -1.680545 0.100480 -1.511590 0.000000 -0.000002
    36 -0.034141 -1.148312 0.084779 -0.918049 0.000000 0.000000
    37 0.957766 -2.746776 -0.090301 0.329094 0.226419 0.013570
    38 -0.033419 -1.397129 -0.011255 -1.244904 0.000000 -0.000001
    39 -0.022361 -0.957434 0.018783 -1.017505 0.000000 0.000000
    40 -1.180680 -2.507215 -0.193861 -0.849276 0.096358 -0.405085
    41 -0.024966 -1.123934 0.017594 -1.517723 0.000000 0.000001
    42 -0.020057 -0.890966 0.010091 -0.909695 0.000000 0.000000
    43 0.583510 -1.197274 0.185377 1.121813 -0.962663 -1.143982
    44 1.535926 0.010245 0.005008 0.280268 -0.126533 -1.114361
    45 1.100770 0.004526 -0.010676 -0.009519 0.013073 -0.453876
    46 0.014680 -0.007296 -0.007612 -2.315902 -0.029011 -1.484394
  time 2
    0 11.662686 5.936088 -10.754228 0.938221 -1.908529 -1.455734
    1 -0.071918 -8.498731 -0.104137 0.269284 0.181680 -0.143165
    2 0.250028 -2.820663 -0.238396 -0.758577 0.008668 -0.269408
    3 1.034835 -0.368954 0.962382 1.438903 -5.718260 1.593918
    4 0.000004 7.330805 -0.181574 0.000000 0.000000 0.000000
    5 -0.000006 -4.491440 2.746747 0.000000 0.000000 0.000000
    6 -0.000006 -5.215600 0.521221 0.000000 0.000000 0.000000
    7 -0.000004 -2.584793 0.626897 0.535552 0.000000 0.000000
    8 -0.000006 -3.113141 3.685755 0.000000 0.000000 0.000000
    9 -0.000007 -7.713655 -1.563225 0.000000 0.000000 0.000000
    10 -0.000003 0.619987 3.519732 0.000000 0.000000 0.000000
    11 -0.000001 -0.041039 4.583956 0.000000 0.000000 0.000000
    12 -1.112914 -6.582211 2.842189 0.000000 0.000000 0.000000
    13 1.112910 1.686673 0.481230 0.000000 0.000000 0.000000
    14 -1.738132 -9.452978 -11.978646 -1.875265 -5.283357 -0.980442
    15 0.096944 -8.450419 -0.009364 0.715445 -1.925648 -0.485353
    16 0.447952 -2.798982 -0.200442 -0.632518 -0.188188 0.437361
    17 -0.032910 -1.480206 0.004936 -0.767246 0.000000 0.000002
    18 -0.027022 -1.076919 -0.020212 -0.201651 0.000000 0.000000
    19 -0.249534 -2.846962 -0.174215 -0.511223 -0.169887 0.357523
    20 0.043235 -1.683939 0.096014 -0.815309 0.002823 -0.000167
    21 0.031729 -1.160831 0.058836 -0.220796 0.000642 0.008372
    22 -0.963866 -2.785142 -0.085346 0.047968 -0.066833 0.271976
    23 0.028479 -1.403068 0.006271 -0.840841 0.000000 0.000000
    24 0.021413 -0.957782 0.020047 -0.601214 0.000000 0.000000
    25 1.164474 -2.543938 -0.170328 -0.568466 -0.246526 0.363210
    26 0.024032 -1.129043 0.017806 -0.754842 0.000000 0.000001
    27 0.014896 -0.883989 -0.019845 -0.334519 0.000000 0.000000
    28 -0.586770 -1.264475 0.200164 0.318623 -1.150290 -3.077842
    29 1.522835 0.058681 0.016850 0.295537 0.005426 0.471413
    30 1.117948 0.048424 -0.005764 -0.004617 -0.024059 0.250284
    31 -0.014395 -0.010131 0.010491 1.522772 0.266356 1.398546
    32 -0.488517 -2.755600 -0.228261 -0.945124 0.023395 -0.387835
    33 0.039888 -1.479789 0.029853 -1.586857 0.000000 0.000000
    34 0.028785 -1.075730 -0.023111 -0.303352 0.000000 0.000000
    35 -0.049759 -1.680545 0.100480 -1.511590 0.000000 -0.000002
    36 -0.034141 -1.148312 0.084779 -0.918049 0.000000 0.000000
    37 0.957766 -2.746776 -0.090301 0.329094 0.226419 0.013570
    38 -0.033419 -1.397129 -0.011255 -1.244904 0.000000 -0.000001
    39 -0.022361 -0.957434 0.018783 -1.017505 0.000000 0.000000
    40 -1.180680 -2.507215 -0.193861 -0.849276 0.096358 -0.405085
    41 -0.024966 -1.123934 0.017594 -1.517723 0.000000 0.000001
    42 -0.020057 -0.890966 0.010091 -0.909695 0.000000 0.000000
    43 0.583510 -1.197274 0.185377 1.121813 -0.962663 -1.143982
    44 1.535926 0.010245 0.005008 0.274000 -0.101114 -1.070643
    45 1.100770 0.004526 -0.010676 -0.010418 0.012318 -0.525927
    46 0.014680 -0.007296 -0.007612 -2.315902 -0.029011 -1.484394
  time 3
    0 11.662686 6.951744 -10.754228 0.944774 -1.911680 -1.462562
    1 -0.071918 -8.498731 -0.104137 0.274041 0.182549 -0.151381
    2 0.250028 -2.820663 -0.238396 -0.758577 0.008668 -0.269408
    3 1.034835 -0.368954 0.962382 1.438903 -5.718260 1.593918
    4 0.000004 7.330805 -0.181574 0.000000 0.000000 0.000000
    5 -0.000006 -4.491440 2.746747 0.000000 0.000000 0.000000
    6 -0.000006 -5.215600 0.521221 0.000000 0.000000 0.000000
    7 -0.000004 -2.584793 0.626897 0.535552 0.000000 0.000000
    8 -0.000006 -3.113141 3.685755 0.000000 0.000000 0.000000
    9 -0.000007 -7.713655 -1.563225 0.000000 0.000000 0.000000
    10 -0.000003 0.619987 3.519732 0.000000 0.000000 0.000000
    11 -0.000001 -0.041039 4.583956 0.000000 0.000000 0.000000
    12 -1.112914 -4.293079 2.842189 0.000000 0.000000 0.000000
    13 1.112910 0.753051 0.481230 0.000000 0.000000 0.000000
    14 -1.644379 -9.347506 -12.048961 -1.881983 -5.240421 -0.985904
    15 0.096944 -8.450419 -0.009364 0.764329 -1.966051 -0.649907
    16 0.447952 -2.798982 -0.200442 -0.632518 -0.188188 0.437361
    17 -0.032910 -1.480206 0.004936 -0.767246 0.000000 0.000002
    18 -0.027022 -1.076919 -0.020212 -0.201651 0.000000 0.000000
    19 -0.249534 -2.846962 -0.174215 -0.511223 -0.169887 0.357523
    20 0.043235 -1.683939 0.096014 -0.815309 0.002823 -0.000167
    21 0.031729 -1.160831 0.058836 -0.220796 0.000642 0.008372
    22 -0.963866 -2.785142 -0.085346 0.047968 -0.066833 0.271976
    23 0.028479 -1.403068 0.006271 -0.840841 0.000000 0.000000
    24 0.021413 -0.957782 0.020047 -0.601214 0.000000 0.000000
    25 1.164474 -2.543938 -0.170328 -0.568466 -0.246526 0.363210
    26 0.024032 -1.129043 0.017806 -0.754842 0.000000 0.000001
    27 0.014896 -0.883989 -0.019845 -0.334519 0.000000 0.000000
    28 -0.586770 -1.264475 0.200164 0.297175 -1.274218 -3.095747
    29 1.522835 0.058681 0.016850 0.294573 -0.013127 0.530896
    30 1.117948 0.048424 -0.005764 -0.004402 -0.023544 0.248564
    31 -0.014395 -0.010131 0.010491 1.523188 0.227407 1.400475
    32 -0.488517 -2.755600 -0.228261 -0.945124 0.023395 -0.387835
    33 0.039888 -1.479789 0.029853 -1.586857 0.000000 0.000000
    34 0.028785 -1.075730 -0.023111 -0.303352 0.000000 0.000000
    35 -0.049759 -1.680545 0.100480 -1.511590 0.000000 -0.000002
    36 -0.034141 -1.148312 0.084779 -0.918049 0.000000 0.000000
    37 0.957766 -2.746776 -0.090301 0.329094 0.226419 0.013570
    38 -0.033419 -1.397129 -0.011255 -1.244904 0.000000 -0.000001
    39 -0.022361 -0.957434 0.018783 -1.017505 0.000000 0.000000
    40 -1.180680 -2.507215 -0.193861 -0.849276 0.096358 -0.405085
    41 -0.024966 -1.123934 0.017594 -1.517723 0.000000 0.000001
    42 -0.020057 -0.890966 0.010091 -0.909695 0.000000 0.000000
    43 0.583510 -1.197274 0.185377 1.121813 -0.962663 -1.143982
    44 1.535926 0.010245 0.005008 0.267720 -0.075694 -1.026926
    45 1.100770 0.004526 -0.010676 -0.011305 0.011563 -0.597945
    46 0.014680 -0.007296 -0.007612 -2.315902 -0.029011 -1.484394
  time 4
    0 11.662686 7.920524 -10.754228 0.949487 -1.914028 -1.467968
    1 -0.071918 -8.498731 -0.104137 0.282431 0.183290 -0.158190
    2 0.250028 -2.820663 -0.238396 -0.758577 0.008668 -0.269408
    3 1.034835 -0.368954 0.962382 1.438903 -5.718260 1.593918
    4 0.000004 7.330805 -0.181574 0.000000 0.000000 0.000000
    5 -0.000006 -4.491440 2.746747 0.000000 0.000000 0.000000
    6 -0.000006 -5.215600 0.521221 0.000000 0.000000 0.000000
    7 -0.000004 -2.584793 0.626897 0.535552 0.000000 0.000000
    8 -0.000006 -3.113141 3.685755 0.000000 0.000000 0.000000
    9 -0.000007 -7.713655 -1.563225 0.000000 0.000000 0.000000
    10 -0.000003 0.619987 3.519732 0.000000 0.000000 0.000000
    11 -0.000001 -0.041039 4.583956 0.000000 0.000000 0.000000
    12 -1.105101 -4.449334 2.850002 0.000000 0.000000 0.000000
    13 1.112910 -0.184478 0.481230 0.000000 0.000000 0.000000
    14 -1.484218 -9.230315 -12.166152 -1.882600 -5.219140 -0.980059
    15 0.096944 -8.450419 -0.009364 0.786571 -1.984425 -0.724698
    16 0.447952 -2.798982 -0.200442 -0.632518 -0.188188 0.437361
    17 -0.032910 -1.480206 0.004936 -0.767246 0.000000 0.000002
    18 -0.027022 -1.076919 -0.020212 -0.201651 0.000000 0.000000
    19 -0.249534 -2.846962 -0.174215 -0.511223 -0.169887 0.357523
    20 0.043235 -1.683939 0.096014 -0.815309 0.002823 -0.000167
    21 0.031729 -1.160831 0.058836 -0.220796 0.000642 0.008372
    22 -0.963866 -2.785142 -0.085346 0.047968 -0.066833 0.271976
    23 0.028479 -1.403068 0.006271 -0.840841 0.000000 0.000000
    24 0.021413 -0.957782 0.020047 -0.601214 0.000000 0.000000
    25 1.164474 -2.543938 -0.170328 -0.568466 -0.246526 0.363210
    26 0.024032 -1.129043 0.017806 -0.754842 0.000000 0.000001
    27 0.014896 -0.883989 -0.019845 -0.334519 0.000000 0.000000
    28 -0.586770 -1.264475 0.200164 0.277340 -1.330564 -3.103851
    29 1.522835 0.058681 0.016850 0.292926 -0.021552 0.569140
    30 1.117948 0.048424 -0.005764 -0.004306 -0.023161 0.247800
    31 -0.014395 -0.010131 0.010491 1.523339 0.209697 1.401362
    32 -0.488517 -2.755600 -0.228261 -0.945124 0.023395 -0.387835
    33 0.039888 -1.479789 0.029853 -1.586857 0.000000 0.000000
    34 0.028785 -1.075730 -0.023111 -0.303352 0.000000 0.000000
    35 -0.049759 -1.680545 0.100480 -1.511590 0.000000 -0.000002
    36 -0.034141 -1.148312 0.084779 -0.918049 0.000000 0.000000
    37 0.957766 -2.746776 -0.090301 0.329094 0.226419 0.013570
    38 -0.033419 -1.397129 -0.011255 -1.244904 0.000000 -0.000001
    39 -0.022361 -0.957434 0.018783 -1.017505 0.000000 0.000000
    40 -1.180680 -2.507215 -0.193861 -0.849276 0.096358 -0.405085
    41 -0.024966 -1.123934 0.017594 -1.517723 0.000000 0.000001
    42 -0.020057 -0.890966 0.010091 -0.909695 0.000000 0.000000
    43 0.583510 -1.197274 0.185377 1.121813 -0.962663 -1.143982
    44 1.535926 0.010245 0.005008 0.264880 -0.064141 -1.007042
    45 1.100770 0.004526 -0.010676 -0.011713 0.011215 -0.630711
    46 0.014680 -0.007296 -0.007612 -2.315902 -0.029011 -1.484394
  time 5
    0 11.662686 7.549419 -10.769853 0.948529 -1.913163 -1.466071
    1 -0.071918 -8.498731 -0.104137 0.291048 0.179917 -0.127976
    2 0.250028 -2.820663 -0.238396 -0.758577 0.008668 -0.269408
    3 1.034835 -0.368954 0.962382 1.438903 -5.718260 1.593918
    4 0.000004 7.330805 -0.181574 0.000000 0.000000 0.000000
    5 -0.000006 -4.491440 2.746747 0.000000 0.000000 0.000000
    6 -0.000006 -5.215600 0.521221 0.000000 0.000000 0.000000
    7 -0.000004 -2.584793 0.626897 0.535552 0.000000 0.000000
    8 -0.000006 -3.113141 3.685755 0.000000 0.000000 0.000000
    9 -0.000007 -7.713655 -1.563225 0.000000 0.000000 0.000000
    10 -0.000003 0.619987 3.519732 0.000000 0.000000 0.000000
    11 -0.000001 -0.041039 4.583956 0.000000 0.000000 0.000000
    12 -1.097288 -5.093885 2.857815 0.000000 0.000000 0.000000
    13 1.112910 0.299912 0.481230 0.000000 0.000000 0.000000
    14 -1.417810 -9.331881 -11.904425 -1.921676 -5.243327 -1.014840
    15 0.096944 -8.450419 -0.009364 0.784983 -1.984013 -0.724419
    16 0.447952 -2.798982 -0.200442 -0.632518 -0.188188 0.437361
    17 -0.032910 -1.480206 0.004936 -0.767246 0.000000 0.000002
    18 -0.027022 -1.076919 -0.020212 -0.201651 0.000000 0.000000
    19 -0.249534 -2.846962 -0.174215 -0.511223 -0.169887 0.357523
    20 0.043235 -1.683939 0.096014 -0.815309 0.002823 -0.000167
    21 0.031729 -1.160831 0.058836 -0.220796 0.000642 0.008372
    22 -0.963866 -2.785142 -0.085346 0.047968 -0.066833 0.271976
    23 0.028479 -1.403068 0.006271 -0.840841 0.000000 0.000000
    24 0.021413 -0.957782 0.020047 -0.601214 0.000000 0.000000
    25 1.164474 -2.543938 -0.170328 -0.568466 -0.246526 0.363210
    26 0.024032 -1.129043 0.017806 -0.754842 0.000000 0.000001
    27 0.014896 -0.883989 -0.019845 -0.334519 0.000000 0.000000
    28 -0.586770 -1.264475 0.200164 0.256841 -1.296862 -3.081623
    29 1.522835 0.058681 0.016850 0.231514 -0.015631 0.583907
    30 1.117948 0.048424 -0.005764 -0.004306 -0.022969 0.247915
    31 -0.014395 -0.010131 0.010491 1.523339 0.209697 1.401362
    32 -0.488517 -2.755600 -0.228261 -0.945124 0.023395 -0.387835
    33 0.039888 -1.479789 0.029853 -1.586857 0.000000 0.000000
    34 0.028785 -1.075730 -0.023111 -0.303352 0.000000 0.000000
    35 -0.049759 -1.680545 0.100480 -1.511590 0.000000 -0.000002
    36 -0.034141 -1.148312 0.084779 -0.918049 0.000000 0.000000
    37 0.957766 -2.746776 -0.090301 0.329094 0.226419 0.013570
    38 -0.033419 -1.397129 -0.011255 -1.244904 0.000000 -0.000001
    39 -0.022361 -0.957434 0.018783 -1.017505 0.000000 0.000000
    40 -1.180680 -2.507215 -0.193861 -0.849276 0.096358 -0.405085
    41 -0.024966 -1.123934 0.017594 -1.517723 0.000000 0.000001
    42 -0.020057 -0.890966 0.010091 -0.909695 0.000000 0.000000
    43 0.583510 -1.197274 0.185377 1.121813 -0.962663 -1.143982
    44 1.535926 0.010245 0.005008 0.267720 -0.075694 -1.026926
    45 1.100770 0.004526 -0.010676 -0.011305 0.011563 -0.597945
    46 0.014680 -0.007296 -0.007612 -2.315902 -0.029011 -1.484394
  time 6
    0 11.662686 6.705643 -10.808917 0.946026 -1.911124 -1.461804
    1 -0.071918 -8.498731 -0.104137 0.289561 0.177988 -0.112278
    2 0.250028 -2.820663 -0.238396 -0.758577 0.008668 -0.269408
    3 1.034835 -0.368954 0.962382 1.438903 -5.718260 1.593918
    4 0.000004 7.330805 -0.181574 0.000000 0.000000 0.000000
    5 -0.000006 -4.491440 2.746747 0.000000 0.000000 0.000000
    6 -0.000006 -5.215600 0.521221 0.000000 0.000000 0.000000
    7 -0.000004 -2.584793 0.626897 0.535552 0.000000 0.000000
    8 -0.000006 -3.113141 3.685755 0.000000 0.000000 0.000000
    9 -0.000007 -7.713655 -1.563225 0.000000 0.000000 0.000000
    10 -0.000003 0.619987 3.519732 0.000000 0.000000 0.000000
    11 -0.000001 -0.041039 4.583956 0.000000 0.000000 0.000000
    12 -1.101195 -6.574399 2.853908 0.000000 0.000000 0.000000
    13 1.112910 1.202283 0.481230 0.000000 0.000000 0.000000
    14 -1.378746 -9.327975 -11.912238 -1.919414 -5.269951 -1.024901
    15 0.096944 -8.450419 -0.009364 0.780053 -1.981697 -0.723234
    16 0.447952 -2.798982 -0.200442 -0.632518 -0.188188 0.437361
    17 -0.032910 -1.480206 0.004936 -0.767246 0.000000 0.000002
    18 -0.027022 -1.076919 -0.020212 -0.201651 0.000000 0.000000
    19 -0.249534 -2.846962 -0.174215 -0.511223 -0.169887 0.357523
    20 0.043235 -1.683939 0.096014 -0.815309 0.002823 -0.000167
    21 0.031729 -1.160831 0.058836 -0.220796 0.000642 0.008372
    22 -0.963866 -2.785142 -0.085346 0.047968 -0.066833 0.271976
    23 0.028479 -1.403068 0.006271 -0.840841 0.000000 0.000000
    24 0.021413 -0.957782 0.020047 -0.601214 0.000000 0.000000
    25 1.164474 -2.543938 -0.170328 -0.568466 -0.246526 0.363210
    26 0.024032 -1.129043 0.017806 -0.754842 0.000000 0.000001
    27 0.014896 -0.883989 -0.019845 -0.334519 0.000000 0.000000
    28 -0.586770 -1.264475 0.200164 0.233780 -1.222717 -3.032769
    29 1.522835 0.058681 0.016850 0.098990 -0.002604 0.591705
    30 1.117948 0.048424 -0.005764 -0.004318 -0.022861 0.248679
    31 -0.014395 -0.010131 0.010491 1.523339 0.209697 1.401362
    32 -0.488517 -2.755600 -0.228261 -0.945124 0.023395 -0.387835
    33 0.039888 -1.479789 0.029853 -1.586857 0.000000 0.000000
    34 0.028785 -1.075730 -0.023111 -0.303352 0.000000 0.000000
    35 -0.049759 -1.680545 0.100480 -1.511590 0.000000 -0.000002
    36 -0.034141 -1.148312 0.084779 -0.918049 0.000000 0.000000
    37 0.957766 -2.746776 -0.090301 0.329094 0.226419 0.013570
    38 -0.033419 -1.397129 -0.011255 -1.244904 0.000000 -0.000001
    39 -0.022361 -0.957434 0.018783 -1.017505 0.000000 0.000000
    40 -1.180680 -2.507215 -0.193861 -0.849276 0.096358 -0.405085
    41 -0.024966 -1.123934 0.017594 -1.517723 0.000000 0.000001
    42 -0.020057 -0.890966 0.010091 -0.909695 0.000000 0.000000
    43 0.583510 -1.197274 0.185377 1.121813 -0.962663 -1.143982
    44 1.535926 0.010245 0.005008 0.274000 -0.101114 -1.070643
    45 1.100770 0.004526 -0.010676 -0.010418 0.012318 -0.525927
    46 0.014680 -0.007296 -0.007612 -2.315902 -0.029011 -1.484394
  time 7
    0 11.662686 5.783740 -10.844074 0.942933 -1.908776 -1.456872
    1 -0.071918 -8.498731 -0.104137 0.286254 0.176404 -0.099781
    2 0.250028 -2.820663 -0.238396 -0.758577 0.008668 -0.269408
    3 1.034835 -0.368954 0.962382 1.438903 -5.718260 1.593918
    4 0.000004 7.330805 -0.181574 0.000000 0.000000 0.000000
    5 -0.000006 -4.491440 2.746747 0.000000 0.000000 0.000000
    6 -0.000006 -5.215600 0.521221 0.000000 0.000000 0.000000
    7 -0.000004 -2.584793 0.626897 0.535552 0.000000 0.000000
    8 -0.000006 -3.113141 3.685755 0.000000 0.000000 0.000000
    9 -0.000007 -7.713655 -1.563225 0.000000 0.000000 0.000000
    10 -0.000003 0.619987 3.519732 0.000000 0.000000 0.000000
    11 -0.000001 -0.041039 4.583956 0.000000 0.000000 0.000000
    12 -1.109008 -8.308827 2.846095 0.000000 0.000000 0.000000
    13 1.112910 1.686673 0.481230 0.000000 0.000000 0.000000
    14 -1.355308 -9.382664 -11.966927 -1.910365 -5.294701 -1.029979
    15 0.096944 -8.450419 -0.009364 0.771703 -1.975418 -0.720537
    16 0.447952 -2.798982 -0.200442 -0.632518 -0.188188 0.437361
    17 -0.032910 -1.480206 0.004936 -0.767246 0.000000 0.000002
    18 -0.027022 -1.076919 -0.020212 -0.201651 0.000000 0.000000
    19 -0.249534 -2.846962 -0.174215 -0.511223 -0.169887 0.357523
    20 0.043235 -1.683939 0.096014 -0.815309 0.002823 -0.000167
    21 0.031729 -1.160831 0.058836 -0.220796 0.000642 0.008372
    22 -0.963866 -2.785142 -0.085346 0.047968 -0.066833 0.271976
    23 0.028479 -1.403068 0.006271 -0.840841 0.000000 0.000000
    24 0.021413 -0.957782 0.020047 -0.601214 0.000000 0.000000
    25 1.164474 -2.543938 -0.170328 -0.568466 -0.246526 0.363210
    26 0.024032 -1.129043 0.017806 -0.754842 0.000000 0.000001
    27 0.014896 -0.883989 -0.019845 -0.334519 0.000000 0.000000
    28 -0.586770 -1.264475 0.200164 0.214990 -1.148572 -2.983915
    29 1.522835 0.058681 0.016850 -0.032971 0.010399 0.594775
    30 1.117948 0.048424 -0.005764 -0.004342 -0.022801 0.250666
    31 -0.014395 -0.010131 0.010491 1.523339 0.209697 1.401362
    32 -0.488517 -2.755600 -0.228261 -0.945124 0.023395 -0.387835
    33 0.039888 -1.479789 0.029853 -1.586857 0.000000 0.000000
    34 0.028785 -1.075730 -0.023111 -0.303352 0.000000 0.000000
    35 -0.049759 -1.680545 0.100480 -1.511590 0.000000 -0.000002
    36 -0.034141 -1.148312 0.084779 -0.918049 0.000000 0.000000
    37 0.957766 -2.746776 -0.090301 0.329094 0.226419 0.013570
    38 -0.033419 -1.397129 -0.011255 -1.244904 0.000000 -0.000001
    39 -0.022361 -0.957434 0.018783 -1.017505 0.000000 0.000000
    40 -1.180680 -2.507215 -0.193861 -0.849276 0.096358 -0.405085
    41 -0.024966 -1.123934 0.017594 -1.517723 0.000000 0.000001
    42 -0.020057 -0.890966 0.010091 -0.909695 0.000000 0.000000
    43 0.583510 -1.197274 0.185377 1.121813 -0.962663 -1.143982
    44 1.535926 0.010245 0.005008 0.280268 -0.126533 -1.114361
    45 1.100770 0.004526 -0.010676 -0.009519 0.013073 -0.453876
    46 0.014680 -0.007296 -0.007612 -2.315902 -0.029011 -1.484394
  time 8
    0 11.662686 5.178252 -10.863606 0.939988 -1.907047 -1.452984
    1 -0.071918 -8.498731 -0.104137 0.282910 0.175739 -0.094684
    2 0.250028 -2.820663 -0.238396 -0.758577 0.008668 -0.269408
    3 1.034835 -0.368954 0.962382 1.438903 -5.718260 1.593918
    4 0.000004 7.330805 -0.181574 0.000000 0.000000 0.000000
    5 -0.000006 -4.491440 2.746747 0.000000 0.000000 0.000000
    6 -0.000006 -5.215600 0.521221 0.000000 0.000000 0.000000
    7 -0.000004 -2.584793 0.626897 0.535552 0.000000 0.000000
    8 -0.000006 -3.113141 3.685755 0.000000 0.000000 0.000000
    9 -0.000007 -7.713655 -1.563225 0.000000 0.000000 0.000000
    10 -0.000003 0.619987 3.519732 0.000000 0.000000 0.000000
    11 -0.000001 -0.041039 4.583956 0.000000 0.000000 0.000000
    12 -1.112914 -9.140883 2.842189 0.000000 0.000000 0.000000
    13 1.112910 1.686673 0.481230 0.000000 0.000000 0.000000
    14 -1.355308 -9.574076 -12.021617 -1.903441 -5.305482 -1.031512
    15 0.096944 -8.450419 -0.009364 0.759767 -1.963426 -0.715771
    16 0.447952 -2.798982 -0.200442 -0.632518 -0.188188 0.437361
    17 -0.032910 -1.480206 0.004936 -0.767246 0.000000 0.000002
    18 -0.027022 -1.076919 -0.020212 -0.201651 0.000000 0.000000
    19 -0.249534 -2.846962 -0.174215 -0.511223 -0.169887 0.357523
    20 0.043235 -1.683939 0.096014 -0.815309 0.002823 -0.000167
    21 0.031729 -1.160831 0.058836 -0.220796 0.000642 0.008372
    22 -0.963866 -2.785142 -0.085346 0.047968 -0.066833 0.271976
    23 0.028479 -1.403068 0.006271 -0.840841 0.000000 0.000000
    24 0.021413 -0.957782 0.020047 -0.601214 0.000000 0.000000
    25 1.164474 -2.543938 -0.170328 -0.568466 -0.246526 0.363210
    26 0.024032 -1.129043 0.017806 -0.754842 0.000000 0.000001
    27 0.014896 -0.883989 -0.019845 -0.334519 0.000000 0.000000
    28 -0.586770 -1.264475 0.200164 0.207208 -1.114870 -2.961687
    29 1.522835 0.058681 0.016850 -0.092877 0.016332 0.595314
    30 1.117948 0.048424 -0.005764 -0.004378 -0.022789 0.254487
    31 -0.014395 -0.010131 0.010491 1.523339 0.209697 1.401362
    32 -0.488517 -2.755600 -0.228261 -0.945124 0.023395 -0.387835
    33 0.039888 -1.479789 0.029853 -1.586857 0.000000 0.000000
    34 0.028785 -1.075730 -0.023111 -0.303352 0.000000 0.000000
    35 -0.049759 -1.680545 0.100480 -1.511590 0.000000 -0.000002
    36 -0.034141 -1.148312 0.084779 -0.918049 0.000000 0.000000
    37 0.957766 -2.746776 -0.090301 0.329094 0.226419 0.013570
    38 -0.033419 -1.397129 -0.011255 -1.244904 0.000000 -0.000001
    39 -0.022361 -0.957434 0.018783 -1.017505 0.000000 0.000000
    40 -1.180680 -2.507215 -0.193861 -0.849276 0.096358 -0.405085
    41 -0.024966 -1.123934 0.017594 -1.517723 0.000000 0.000001
    42 -0.020057 -0.890966 0.010091 -0.909695 0.000000 0.000000
    43 0.583510 -1.197274 0.185377 1.121813 -0.962663 -1.143982
    44 1.535926 0.010245 0.005008 0.283120 -0.138086 -1.134210
    45 1.100770 0.004526 -0.010676 -0.009124 0.013408 -0.421109
    46 0.014680 -0.007296 -0.007612 -2.315902 -0.029011 -1.484394
  time 9
    0 11.662686 4.955589 -10.828449 0.937116 -1.905811 -1.450233
    1 -0.071918 -8.498731 -0.104137 0.279650 0.176391 -0.099944
    2 0.250028 -2.820663 -0.238396 -0.758577 0.008668 -0.269408
    3 1.034835 -0.368954 0.962382 1.438903 -5.718260 1.593918
    4 0.000004 7.330805 -0.181574 0.000000 0.000000 0.000000
    5 -0.000006 -4.491440 2.746747 0.000000 0.000000 0.000000
    6 -0.000006 -5.215600 0.521221 0.000000 0.000000 0.000000
    7 -0.000004 -2.584793 0.626897 0.535552 0.000000 0.000000
    8 -0.000006 -3.113141 3.685755 0.000000 0.000000 0.000000
    9 -0.000007 -7.713655 -1.563225 0.000000 0.000000 0.000000
    10 -0.000003 0.619987 3.519732 0.000000 0.000000 0.000000
    11 -0.000001 -0.041039 4.583956 0.000000 0.000000 0.000000
    12 -1.112914 -8.867437 2.842189 0.000000 0.000000 0.000000
    13 1.112910 1.686673 0.481230 0.000000 0.000000 0.000000
    14 -1.406091 -9.773301 -12.009897 -1.898231 -5.300419 -1.025859
    15 0.096944 -8.450419 -0.009364 0.741232 -1.937589 -0.681247
    16 0.447952 -2.798982 -0.200442 -0.632518 -0.188188 0.437361
    17 -0.032910 -1.480206 0.004936 -0.767246 0.000000 0.000002
    18 -0.027022 -1.076919 -0.020212 -0.201651 0.000000 0.000000
    19 -0.249534 -2.846962 -0.174215 -0.511223 -0.169887 0.357523
    20 0.043235 -1.683939 0.096014 -0.815309 0.002823 -0.000167
    21 0.031729 -1.160831 0.058836 -0.220796 0.000642 0.008372
    22 -0.963866 -2.785142 -0.085346 0.047968 -0.066833 0.271976
    23 0.028479 -1.403068 0.006271 -0.840841 0.000000 0.000000
    24 0.021413 -0.957782 0.020047 -0.601214 0.000000 0.000000
    25 1.164474 -2.543938 -0.170328 -0.568466 -0.246526 0.363210
    26 0.024032 -1.129043 0.017806 -0.754842 0.000000 0.000001
    27 0.014896 -0.883989 -0.019845 -0.334519 0.000000 0.000000
    28 -0.586770 -1.264475 0.200164 0.241088 -1.121962 -2.986925
    29 1.522835 0.058681 0.016850 -0.052772 0.016008 0.581999
    30 1.117948 0.048424 -0.005764 -0.004581 -0.022897 0.262970
    31 -0.030021 -0.021851 0.010491 1.523226 0.221491 1.400775
    32 -0.488517 -2.755600 -0.228261 -0.945124 0.023395 -0.387835
    33 0.039888 -1.479789 0.029853 -1.586857 0.000000 0.000000
    34 0.028785 -1.075730 -0.023111 -0.303352 0.000000 0.000000
    35 -0.049759 -1.680545 0.100480 -1.511590 0.000000 -0.000002
    36 -0.034141 -1.148312 0.084779 -0.918049 0.000000 0.000000
    37 0.957766 -2.746776 -0.090301 0.329094 0.226419 0.013570
    38 -0.033419 -1.397129 -0.011255 -1.244904 0.000000 -0.000001
    39 -0.022361 -0.957434 0.018783 -1.017505 0.000000 0.000000
    40 -1.180680 -2.507215 -0.193861 -0.849276 0.096358 -0.405085
    41 -0.024966 -1.123934 0.017594 -1.517723 0.000000 0.000001
    42 -0.020057 -0.890966 0.010091 -0.909695 0.000000 0.000000
    43 0.583510 -1.197274 0.185377 1.121813 -0.962680 -1.143982
    44 1.535926 0.010245 0.005008 0.283120 -0.138086 -1.134210
    45 1.100770 0.004526 -0.010676 -0.009124 0.013408 -0.421109
    46 0.014680 -0.007296 -0.007612 -2.315902 -0.029011 -1.484394
  time 10
    0 11.662686 4.869649 -10.765947 0.933803 -1.904514 -1.447293
    1 -0.071918 -8.498731 -0.104137 0.275911 0.177924 -0.112461
    2 0.250028 -2.820663 -0.238396 -0.758577 0.008668 -0.269408
    3 1.034835 -0.368954 0.962382 1.438903 -5.718260 1.593918
    4 0.000004 7.330805 -0.181574 0.000000 0.000000 0.000000
    5 -0.000006 -4.491440 2.746747 0.000000 0.000000 0.000000
    6 -0.000006 -5.215600 0.521221 0.000000 0.000000 0.000000
    7 -0.000004 -2.584793 0.626897 0.535552 0.000000 0.000000
    8 -0.000006 -3.113141 3.685755 0.000000 0.000000 0.000000
    9 -0.000007 -7.713655 -1.563225 0.000000 0.000000 0.000000
    10 -0.000003 0.619987 3.519732 0.000000 0.000000 0.000000
    11 -0.000001 -0.041039 4.583956 0.000000 0.000000 0.000000
    12 -1.112914 -8.867437 2.842189 0.000000 0.000000 0.000000
    13 1.112910 1.686673 0.481230 0.000000 0.000000 0.000000
    14 -1.503750 -9.831896 -11.951302 -1.889182 -5.288794 -1.011678
    15 0.096944 -8.450419 -0.009364 0.716790 -1.898576 -0.606246
    16 0.447952 -2.798982 -0.200442 -0.632518 -0.188188 0.437361
    17 -0.032910 -1.480206 0.004936 -0.767246 0.000000 0.000002
    18 -0.027022 -1.076919 -0.020212 -0.201651 0.000000 0.000000
    19 -0.249534 -2.846962 -0.174215 -0.511223 -0.169887 0.357523
    20 0.043235 -1.683939 0.096014 -0.815309 0.002823 -0.000167
    21 0.031729 -1.160831 0.058836 -0.220796 0.000642 0.008372
    22 -0.963866 -2.785142 -0.085346 0.047968 -0.066833 0.271976
    23 0.028479 -1.403068 0.006271 -0.840841 0.000000 0.000000
    24 0.021413 -0.957782 0.020047 -0.601214 0.000000 0.000000
    25 1.164474 -2.543938 -0.170328 -0.568466 -0.246526 0.363210
    26 0.024032 -1.129043 0.017806 -0.754842 0.000000 0.000001
    27 0.014896 -0.883989 -0.019845 -0.334519 0.000000 0.000000
    28 -0.586770 -1.264475 0.200164 0.321944 -1.138968 -3.047125
    29 1.522835 0.058681 0.016850 0.042860 0.015253 0.549811
    30 1.117948 0.048424 -0.005764 -0.004989 -0.023161 0.275961
    31 -0.061272 -0.045289 0.014397 1.522999 0.249586 1.399385
    32 -0.488517 -2.755600 -0.228261 -0.945124 0.023395 -0.387835
    33 0.039888 -1.479789 0.029853 -1.586857 0.000000 0.000000
    34 0.028785 -1.075730 -0.023111 -0.303352 0.000000 0.000000
    35 -0.049759 -1.680545 0.100480 -1.511590 0.000000 -0.000002
    36 -0.034141 -1.148312 0.084779 -0.918049 0.000000 0.000000
    37 0.957766 -2.746776 -0.090301 0.329094 0.226419 0.013570
    38 -0.033419 -1.397129 -0.011255 -1.244904 0.000000 -0.000001
    39 -0.022361 -0.957434 0.018783 -1.017505 0.000000 0.000000
    40 -1.180680 -2.507215 -0.193861 -0.849276 0.096358 -0.405085
    41 -0.024966 -1.123934 0.017594 -1.517723 0.000000 0.000001
    42 -0.020057 -0.890966 0.010091 -0.909695 0.000000 0.000000
    43 0.583510 -1.197274 0.185377 1.121813 -0.962663 -1.143982
    44 1.535926 0.010245 0.005008 0.283120 -0.138086 -1.134210
    45 1.100770 0.004526 -0.010676 -0.009124 0.013408 -0.421109
    46 0.014680 -0.007296 -0.007612 -2.315902 -0.029011 -1.484394
  time 11
    0 11.662686 4.857930 -10.719070 0.930269 -1.903216 -1.444353
    1 -0.071918 -8.498731 -0.104137 0.272376 0.179764 -0.127405
    2 0.250028 -2.820663 -0.238396 -0.758577 0.008668 -0.269408
    3 1.034835 -0.368954 0.962382 1.438903 -5.718260 1.593918
    4 0.000004 7.330805 -0.181574 0.000000 0.000000 0.000000
    5 -0.000006 -4.491440 2.746747 0.000000 0.000000 0.000000
    6 -0.000006 -5.215600 0.521221 0.000000 0.000000 0.000000
    7 -0.000004 -2.584793 0.626897 0.535552 0.000000 0.000000
    8 -0.000006 -3.113141 3.685755 0.000000 0.000000 0.000000
    9 -0.000007 -7.713655 -1.563225 0.000000 0.000000 0.000000
    10 -0.000003 0.619987 3.519732 0.000000 0.000000 0.000000
    11 -0.000001 -0.041039 4.583956 0.000000 0.000000 0.000000
    12 -1.112914 -8.867437 2.842189 0.000000 0.000000 0.000000
    13 1.112910 1.686673 0.481230 0.000000 0.000000 0.000000
    14 -1.620941 -9.831896 -11.908332 -1.878144 -5.275201 -0.993377
    15 0.096944 -8.450419 -0.009364 0.691900 -1.857246 -0.515762
    16 0.447952 -2.798982 -0.200442 -0.632518 -0.188188 0.437361
    17 -0.032910 -1.480206 0.004936 -0.767246 0.000000 0.000002
    18 -0.027022 -1.076919 -0.020212 -0.201651 0.000000 0.000000
    19 -0.249534 -2.846962 -0.174215 -0.511223 -0.169887 0.357523
    20 0.043235 -1.683939 0.096014 -0.815309 0.002823 -0.000167
    21 0.031729 -1.160831 0.058836 -0.220796 0.000642 0.008372
    22 -0.963866 -2.785142 -0.085346 0.047968 -0.066833 0.271976
    23 0.028479 -1.403068 0.006271 -0.840841 0.000000 0.000000
    24 0.021413 -0.957782 0.020047 -0.601214 0.000000 0.000000
    25 1.164474 -2.543938 -0.170328 -0.568466 -0.246526 0.363210
    26 0.024032 -1.129043 0.017806 -0.754842 0.000000 0.000001
    27 0.014896 -0.883989 -0.019845 -0.334519 0.000000 0.000000
    28 -0.586770 -1.264475 0.200164 0.418365 -1.159233 -3.118901
    29 1.522835 0.058681 0.016850 0.157089 0.014342 0.510073
    30 1.117948 0.048424 -0.005764 -0.005456 -0.023472 0.289870
    31 -0.096429 -0.076540 0.014397 1.522546 0.283127 1.397707
    32 -0.488517 -2.755600 -0.228261 -0.945124 0.023395 -0.387835
    33 0.039888 -1.479789 0.029853 -1.586857 0.000000 0.000000
    34 0.028785 -1.075730 -0.023111 -0.303352 0.000000 0.000000
    35 -0.049759 -1.680545 0.100480 -1.511590 0.000000 -0.000002
    36 -0.034141 -1.148312 0.084779 -0.918049 0.000000 0.000000
    37 0.957766 -2.746776 -0.090301 0.329094 0.226419 0.013570
    38 -0.033419 -1.397129 -0.011255 -1.244904 0.000000 -0.000001
    39 -0.022361 -0.957434 0.018783 -1.017505 0.000000 0.000000
    40 -1.180680 -2.507215 -0.193861 -0.849276 0.096358 -0.405085
    41 -0.024966 -1.123934 0.017594 -1.517723 0.000000 0.000001
    42 -0.020057 -0.890966 0.010091 -0.909695 0.000000 0.000000
    43 0.583510 -1.197274 0.185377 1.121813 -0.962680 -1.143982
    44 1.535926 0.010245 0.005008 0.283120 -0.138086 -1.134210
    45 1.100770 0.004526 -0.010676 -0.009124 0.013408 -0.421109
    46 0.014680 -0.007296 -0.007612 -2.315902 -0.029011 -1.484394
  time 12
    0 11.662686 4.924338 -10.695632 0.926661 -1.901981 -1.441413
    1 -0.071918 -8.498731 -0.104137 0.269763 0.181309 -0.139923
    2 0.250028 -2.820663 -0.238396 -0.758577 0.008668 -0.269408
    3 1.034835 -0.368954 0.962382 1.438903 -5.718260 1.593918
    4 0.000004 7.330805 -0.181574 0.000000 0.000000 0.000000
    5 -0.000006 -4.491440 2.746747 0.000000 0.000000 0.000000
    6 -0.000006 -5.215600 0.521221 0.000000 0.000000 0.000000
    7 -0.000004 -2.584793 0.626897 0.535552 0.000000 0.000000
    8 -0.000006 -3.113141 3.685755 0.000000 0.000000 0.000000
    9 -0.000007 -7.713655 -1.563225 0.000000 0.000000 0.000000
    10 -0.000003 0.619987 3.519732 0.000000 0.000000 0.000000
    11 -0.000001 -0.041039 4.583956 0.000000 0.000000 0.000000
    12 -1.112914 -8.867437 2.842189 0.000000 0.000000 0.000000
    13 1.112910 1.686673 0.481230 0.000000 0.000000 0.000000
    14 -1.718600 -9.765488 -11.892706 -1.867724 -5.263764 -0.976705
    15 0.096944 -8.450419 -0.009364 0.672061 -1.824461 -0.434717
    16 0.447952 -2.798982 -0.200442 -0.632518 -0.188188 0.437361
    17 -0.032910 -1.480206 0.004936 -0.767246 0.000000 0.000002
    18 -0.027022 -1.076919 -0.020212 -0.201651 0.000000 0.000000
    19 -0.249534 -2.846962 -0.174215 -0.511223 -0.169887 0.357523
    20 0.043235 -1.683939 0.096014 -0.815309 0.002823 -0.000167
    21 0.031729 -1.160831 0.058836 -0.220796 0.000642 0.008372
    22 -0.963866 -2.785142 -0.085346 0.047968 -0.066833 0.271976
    23 0.028479 -1.403068 0.006271 -0.840841 0.000000 0.000000
    24 0.021413 -0.957782 0.020047 -0.601214 0.000000 0.000000
    25 1.164474 -2.543938 -0.170328 -0.568466 -0.246526 0.363210
    26 0.024032 -1.129043 0.017806 -0.754842 0.000000 0.000001
    27 0.014896 -0.883989 -0.019845 -0.334519 0.000000 0.000000
    28 -0.586770 -1.264475 0.200164 0.499127 -1.176239 -3.179100
    29 1.522835 0.058681 0.016850 0.252862 0.013587 0.474234
    30 1.117948 0.048424 -0.005764 -0.005840 -0.023772 0.300913
    31 -0.127680 -0.103884 0.014397 1.522054 0.311240 1.396293
    32 -0.488517 -2.755600 -0.228261 -0.945124 0.023395 -0.387835
    33 0.039888 -1.479789 0.029853 -1.586857 0.000000 0.000000
    34 0.028785 -1.075730 -0.023111 -0.303352 0.000000 0.000000
    35 -0.049759 -1.680545 0.100480 -1.511590 0.000000 -0.000002
    36 -0.034141 -1.148312 0.084779 -0.918049 0.000000 0.000000
    37 0.957766 -2.746776 -0.090301 0.329094 0.226419 0.013570
    38 -0.033419 -1.397129 -0.011255 -1.244904 0.000000 -0.000001
    39 -0.022361 -0.957434 0.018783 -1.017505 0.000000 0.000000
    40 -1.180680 -2.507215 -0.193861 -0.849276 0.096358 -0.405085
    41 -0.024966 -1.123934 0.017594 -1.517723 0.000000 0.000001
    42 -0.020057 -0.890966 0.010091 -0.909695 0.000000 0.000000
    43 0.583510 -1.197274 0.185377 1.121813 -0.962680 -1.143982
    44 1.535926 0.010245 0.005008 0.283120 -0.138086 -1.134210
    45 1.100770 0.004526 -0.010676 -0.009124 0.013408 -0.421109
    46 0.014680 -0.007296 -0.007612 -2.315902 -0.029011 -1.484394
  time 13
    0 11.662686 5.100125 -10.676100 0.923126 -1.900745 -1.438568
    1 -0.071918 -8.498731 -0.104137 0.268732 0.181948 -0.145183
    2 0.250028 -2.820663 -0.238396 -0.758577 0.008668 -0.269408
    3 1.034835 -0.368954 0.962382 1.438903 -5.718260 1.593918
    4 0.000004 7.330805 -0.181574 0.000000 0.000000 0.000000
    5 -0.000006 -4.491440 2.746747 0.000000 0.000000 0.000000
    6 -0.000006 -5.215600 0.521221 0.000000 0.000000 0.000000
    7 -0.000004 -2.584793 0.626897 0.535552 0.000000 0.000000
    8 -0.000006 -3.113141 3.685755 0.000000 0.000000 0.000000
    9 -0.000007 -7.713655 -1.563225 0.000000 0.000000 0.000000
    10 -0.000003 0.619987 3.519732 0.000000 0.000000 0.000000
    11 -0.000001 -0.041039 4.583956 0.000000 0.000000 0.000000
    12 -1.112914 -8.867437 2.842189 0.000000 0.000000 0.000000
    13 1.112910 1.686673 0.481230 0.000000 0.000000 0.000000
    14 -1.765477 -9.605327 -11.896613 -1.861417 -5.258795 -0.968369
    15 0.096944 -8.450419 -0.009364 0.662732 -1.811079 -0.388150
    16 0.447952 -2.798982 -0.200442 -0.632518 -0.188188 0.437361
    17 -0.032910 -1.480206 0.004936 -0.767246 0.000000 0.000002
    18 -0.027022 -1.076919 -0.020212 -0.201651 0.000000 0.000000
    19 -0.249534 -2.846962 -0.174215 -0.511223 -0.169887 0.357523
    20 0.043235 -1.683939 0.096014 -0.815309 0.002823 -0.000167
    21 0.031729 -1.160831 0.058836 -0.220796 0.000642 0.008372
    22 -0.963866 -2.785142 -0.085346 0.047968 -0.066833 0.271976
    23 0.028479 -1.403068 0.006271 -0.840841 0.000000 0.000000
    24 0.021413 -0.957782 0.020047 -0.601214 0.000000 0.000000
    25 1.164474 -2.543938 -0.170328 -0.568466 -0.246526 0.363210
    26 0.024032 -1.129043 0.017806 -0.754842 0.000000 0.000001
    27 0.014896 -0.883989 -0.019845 -0.334519 0.000000 0.000000
    28 -0.586770 -1.264475 0.200164 0.533007 -1.183376 -3.204338
    29 1.522835 0.058681 0.016850 0.293227 0.013275 0.453743
    30 1.117948 0.048424 -0.005764 -0.006008 -0.023940 0.305383
    31 -0.139399 -0.111697 0.014397 1.521828 0.323016 1.395694
    32 -0.488517 -2.755600 -0.228261 -0.945124 0.023395 -0.387835
    33 0.039888 -1.479789 0.029853 -1.586857 0.000000 0.000000
    34 0.028785 -1.075730 -0.023111 -0.303352 0.000000 0.000000
    35 -0.049759 -1.680545 0.100480 -1.511590 0.000000 -0.000002
    36 -0.034141 -1.148312 0.084779 -0.918049 0.000000 0.000000
    37 0.957766 -2.746776 -0.090301 0.329094 0.226419 0.013570
    38 -0.033419 -1.397129 -0.011255 -1.244904 0.000000 -0.000001
    39 -0.022361 -0.957434 0.018783 -1.017505 0.000000 0.000000
    40 -1.180680 -2.507215 -0.193861 -0.849276 0.096358 -0.405085
    41 -0.024966 -1.123934 0.017594 -1.517723 0.000000 0.000001
    42 -0.020057 -0.890966 0.010091 -0.909695 0.000000 0.000000
    43 0.583510 -1.197274 0.185377 1.121813 -0.962663 -1.143982
    44 1.535926 0.010245 0.005008 0.283120 -0.138086 -1.134210
    45 1.100770 0.004526 -0.010676 -0.009124 0.013408 -0.421109
    46 0.014680 -0.007296 -0.007612 -2.315902 -0.029011 -1.484394
  time 14
    0 11.662686 5.338414 -10.656568 0.919886 -1.899695 -1.436102
    1 -0.071918 -8.498731 -0.104137 0.269200 0.181744 -0.143511
    2 0.250028 -2.820663 -0.238396 -0.758577 0.008668 -0.269408
    3 1.034835 -0.368954 0.962382 1.438903 -5.718260 1.593918
    4 0.000004 7.330805 -0.181574 0.000000 0.000000 0.000000
    5 -0.000006 -4.491440 2.746747 0.000000 0.000000 0.000000
    6 -0.000006 -5.215600 0.521221 0.000000 0.000000 0.000000
    7 -0.000004 -2.584793 0.626897 0.535552 0.000000 0.000000
    8 -0.000006 -3.113141 3.685755 0.000000 0.000000 0.000000
    9 -0.000007 -7.713655 -1.563225 0.000000 0.000000 0.000000
    10 -0.000003 0.619987 3.519732 0.000000 0.000000 0.000000
    11 -0.000001 -0.041039 4.583956 0.000000 0.000000 0.000000
    12 -1.112914 -8.867437 2.842189 0.000000 0.000000 0.000000
    13 1.112910 1.686673 0.481230 0.000000 0.000000 0.000000
    14 -1.769383 -9.402196 -11.896613 -1.861143 -5.259920 -0.968369
    15 0.096944 -8.450419 -0.009364 0.660573 -1.811645 -0.368133
    16 0.447952 -2.798982 -0.200442 -0.632518 -0.188188 0.437361
    17 -0.032910 -1.480206 0.004936 -0.767246 0.000000 0.000002
    18 -0.027022 -1.076919 -0.020212 -0.201651 0.000000 0.000000
    19 -0.249534 -2.846962 -0.174215 -0.511223 -0.169887 0.357523
    20 0.043235 -1.683939 0.096014 -0.815309 0.002823 -0.000167
    21 0.031729 -1.160831 0.058836 -0.220796 0.000642 0.008372
    22 -0.963866 -2.785142 -0.085346 0.047968 -0.066833 0.271976
    23 0.028479 -1.403068 0.006271 -0.840841 0.000000 0.000000
    24 0.021413 -0.957782 0.020047 -0.601214 0.000000 0.000000
    25 1.164474 -2.543938 -0.170328 -0.568466 -0.246526 0.363210
    26 0.024032 -1.129043 0.017806 -0.754842 0.000000 0.000001
    27 0.014896 -0.883989 -0.019845 -0.334519 0.000000 0.000000
    28 -0.586770 -1.264475 0.200164 0.531204 -1.181217 -3.202794
    29 1.522835 0.058681 0.016850 0.293509 0.013455 0.445156
    30 1.117948 0.048424 -0.005764 -0.005996 -0.024035 0.304887
    31 -0.139399 -0.111697 0.014397 1.521828 0.323016 1.395694
    32 -0.488517 -2.755600 -0.228261 -0.945124 0.023395 -0.387835
    33 0.039888 -1.479789 0.029853 -1.586857 0.000000 0.000000
    34 0.028785 -1.075730 -0.023111 -0.303352 0.000000 0.000000
    35 -0.049759 -1.680545 0.100480 -1.511590 0.000000 -0.000002
    36 -0.034141 -1.148312 0.084779 -0.918049 0.000000 0.000000
    37 0.957766 -2.746776 -0.090301 0.329094 0.226419 0.013570
    38 -0.033419 -1.397129 -0.011255 -1.244904 0.000000 -0.000001
    39 -0.022361 -0.957434 0.018783 -1.017505 0.000000 0.000000
    40 -1.180680 -2.507215 -0.193861 -0.849276 0.096358 -0.405085
    41 -0.024966 -1.123934 0.017594 -1.517723 0.000000 0.000001
    42 -0.020057 -0.890966 0.010091 -0.909695 0.000000 0.000000
    43 0.583510 -1.197274 0.185377 1.121813 -0.962663 -1.143982
    44 1.535926 0.010245 0.005008 0.283120 -0.138086 -1.134210
    45 1.100770 0.004526 -0.010676 -0.009124 0.013408 -0.421109
    46 0.014680 -0.007296 -0.007612 -2.315902 -0.029011 -1.484394
  time 15
    0 11.662686 5.596234 -10.644849 0.917015 -1.898768 -1.433921
    1 -0.071918 -8.498731 -0.104137 0.270374 0.181246 -0.139352
    2 0.250028 -2.820663 -0.238396 -0.758577 0.008668 -0.269408
    3 1.034835 -0.368954 0.962382 1.438903 -5.718260 1.593918
    4 0.000004 7.330805 -0.181574 0.000000 0.000000 0.000000
    5 -0.000006 -4.491440 2.746747 0.000000 0.000000 0.000000
    6 -0.000006 -5.215600 0.521221 0.000000 0.000000 0.000000
    7 -0.000004 -2.584793 0.626897 0.505871 0.000000 0.000000
    8 -0.000006 -3.113141 3.685755 0.000000 0.000000 0.000000
    9 -0.000007 -7.713655 -1.563225 0.000000 0.000000 0.000000
    10 -0.000003 0.619987 3.519732 0.000000 0.000000 0.000000
    11 -0.000001 -0.041039 4.583956 0.000000 0.000000 0.000000
    12 -1.112914 -8.867437 2.842189 0.000000 0.000000 0.000000
    13 1.112910 1.686673 0.481230 0.000000 0.000000 0.000000
    14 -1.773289 -9.191252 -11.869268 -1.864845 -5.263858 -0.971436
    15 0.096944 -8.450419 -0.009364 0.658537 -1.813241 -0.349999
    16 0.447952 -2.798982 -0.200442 -0.632518 -0.188188 0.437361
    17 -0.032910 -1.480206 0.004936 -0.767246 0.000000 0.000002
    18 -0.027022 -1.076919 -0.020212 -0.201651 0.000000 0.000000
    19 -0.249534 -2.846962 -0.174215 -0.511223 -0.169887 0.357523
    20 0.043235 -1.683939 0.096014 -0.815309 0.002823 -0.000167
    21 0.031729 -1.160831 0.058836 -0.220796 0.000642 0.008372
    22 -0.963866 -2.785142 -0.085346 0.047968 -0.066833 0.271976
    23 0.028479 -1.403068 0.006271 -0.840841 0.000000 0.000000
    24 0.021413 -0.957782 0.020047 -0.601214 0.000000 0.000000
    25 1.164474 -2.543938 -0.170328 -0.568466 -0.246526 0.363210
    26 0.024032 -1.129043 0.017806 -0.754842 0.000000 0.000001
    27 0.014896 -0.883989 -0.019845 -0.334519 0.000000 0.000000
    28 -0.586770 -1.264475 0.200164 0.525794 -1.175181 -3.198472
    29 1.522835 0.058681 0.016850 0.293790 0.014007 0.437400
    30 1.117948 0.048424 -0.005764 -0.005960 -0.024107 0.303396
    31 -0.139399 -0.111697 0.014397 1.521828 0.323016 1.395694
    32 -0.488517 -2.755600 -0.228261 -0.945124 0.023395 -0.387835
    33 0.039888 -1.479789 0.029853 -1.586857 0.000000 0.000000
    34 0.028785 -1.075730 -0.023111 -0.303352 0.000000 0.000000
    35 -0.049759 -1.680545 0.100480 -1.511590 0.000000 -0.000002
    36 -0.034141 -1.148312 0.084779 -0.918049 0.000000 0.000000
    37 0.957766 -2.746776 -0.090301 0.332259 0.204595 0.010286
    38 -0.033419 -1.397129 -0.011255 -1.208983 0.000000 -0.000001
    39 -0.022361 -0.957434 0.018783 -0.970151 0.000000 0.000000
    40 -1.180680 -2.507215 -0.193861 -0.849276 0.096358 -0.405085
    41 -0.024966 -1.123934 0.017594 -1.517723 0.000000 0.000001
    42 -0.020057 -0.890966 0.010091 -0.909695 0.000000 0.000000
    43 0.583510 -1.197274 0.185377 1.121813 -0.962663 -1.143982
    44 1.535926 0.010245 0.005008 0.283120 -0.138086 -1.134210
    45 1.100770 0.004526 -0.010676 -0.009124 0.013408 -0.421109
    46 0.014680 -0.007296 -0.007612 -2.315902 -0.029011 -1.484394
  time 16
    0 11.662686 5.834522 -10.633130 0.914806 -1.898027 -1.432309
    1 -0.071918 -8.498731 -0.104137 0.271896 0.180594 -0.133929
    2 0.250028 -2.820663 -0.238396 -0.758577 0.008668 -0.269408
    3 1.034835 -0.368954 0.962382 1.438903 -5.718260 1.593918
    4 0.000004 7.330805 -0.181574 0.000000 0.000000 0.000000
    5 -0.000006 -4.491440 2.746747 0.000000 0.000000 0.000000
    6 -0.000006 -5.215600 0.521221 0.000000 0.000000 0.000000
    7 -0.000004 -2.584793 0.626897 0.429363 0.000000 0.000000
    8 -0.000006 -3.113141 3.685755 0.000000 0.000000 0.000000
    9 -0.000007 -7.713655 -1.563225 0.000000 0.000000 0.000000
    10 -0.000003 0.619987 3.519732 0.000000 0.000000 0.000000
    11 -0.000001 -0.041039 4.583956 0.000000 0.000000 0.000000
    12 -1.112914 -8.867437 2.842189 0.000000 0.000000 0.000000
    13 1.112910 1.686673 0.481230 0.000000 0.000000 0.000000
    14 -1.773289 -9.011559 -11.830204 -1.870672 -5.269857 -0.975843
    15 0.096944 -8.450419 -0.009364 0.656622 -1.815711 -0.333679
    16 0.447952 -2.798982 -0.200442 -0.632518 -0.188188 0.437361
    17 -0.032910 -1.480206 0.004936 -0.767246 0.000000 0.000002
    18 -0.027022 -1.076919 -0.020212 -0.201651 0.000000 0.000000
    19 -0.249534 -2.846962 -0.174215 -0.511223 -0.169887 0.357523
    20 0.043235 -1.683939 0.096014 -0.815309 0.002823 -0.000167
    21 0.031729 -1.160831 0.058836 -0.220796 0.000642 0.008372
    22 -0.963866 -2.785142 -0.085346 0.047968 -0.066833 0.271976
    23 0.028479 -1.403068 0.006271 -0.840841 0.000000 0.000000
    24 0.021413 -0.957782 0.020047 -0.601214 0.000000 0.000000
    25 1.164474 -2.543938 -0.170328 -0.568466 -0.246526 0.363210
    26 0.024032 -1.129043 0.017806 -0.754842 0.000000 0.000001
    27 0.014896 -0.883989 -0.019845 -0.334519 0.000000 0.000000
    28 -0.586770 -1.264475 0.200164 0.517348 -1.165798 -3.191758
    29 1.522835 0.058681 0.016850 0.294071 0.014845 0.430390
    30 1.117948 0.048424 -0.005764 -0.005912 -0.024191 0.301065
    31 -0.139399 -0.111697 0.014397 1.521828 0.323016 1.395694
    32 -0.488517 -2.755600 -0.228261 -0.945124 0.023395 -0.387835
    33 0.039888 -1.479789 0.029853 -1.586857 0.000000 0.000000
    34 0.028785 -1.075730 -0.023111 -0.303352 0.000000 0.000000
    35 -0.049759 -1.680545 0.100480 -1.511590 0.000000 -0.000002
    36 -0.034141 -1.148312 0.084779 -0.918049 0.000000 0.000000
    37 0.957766 -2.746776 -0.090301 0.340437 0.148292 0.001853
    38 -0.033419 -1.397129 -0.011255 -1.115205 0.000000 -0.000001
    39 -0.022361 -0.957434 0.018783 -0.848006 0.000000 0.000000
    40 -1.180680 -2.507215 -0.193861 -0.849276 0.096358 -0.405085
    41 -0.024966 -1.123934 0.017594 -1.517723 0.000000 0.000001
    42 -0.020057 -0.890966 0.010091 -0.909695 0.000000 0.000000
    43 0.583510 -1.197274 0.185377 1.121813 -0.962663 -1.143982
    44 1.535926 0.010245 0.005008 0.283120 -0.138086 -1.134210
    45 1.100770 0.004526 -0.010676 -0.009124 0.013408 -0.421109
    46 0.014680 -0.007296 -0.007612 -2.315902 -0.029011 -1.484394
  time 17
    0 11.662686 6.006403 -10.625317 0.913333 -1.897594 -1.431266
    1 -0.071918 -8.498731 -0.104137 0.273430 0.179955 -0.128527
    2 0.250028 -2.820663 -0.238396 -0.758577 0.008668 -0.269408
    3 1.034835 -0.368954 0.962382 1.438903 -5.718260 1.593918
    4 0.000004 7.330805 -0.181574 0.000000 0.000000 0.000000
    5 -0.000006 -4.491440 2.746747 0.000000 0.000000 0.000000
    6 -0.000006 -5.215600 0.521221 0.000000 0.000000 0.000000
    7 -0.000004 -2.584793 0.626897 0.324760 0.000000 0.000000
    8 -0.000006 -3.113141 3.685755 0.000000 0.000000 0.000000
    9 -0.000007 -7.713655 -1.563225 0.000000 0.000000 0.000000
    10 -0.000003 0.619987 3.519732 0.000000 0.000000 0.000000
    11 -0.000001 -0.041039 4.583956 0.000000 0.000000 0.000000
    12 -1.112914 -8.867437 2.842189 0.000000 0.000000 0.000000
    13 1.112910 1.686673 0.481230 0.000000 0.000000 0.000000
    14 -1.769383 -8.898274 -11.791141 -1.876705 -5.276888 -0.980155
    15 0.096944 -8.450419 -0.009364 0.654870 -1.818902 -0.319102
    16 0.447952 -2.798982 -0.200442 -0.632518 -0.188188 0.437361
    17 -0.032910 -1.480206 0.004936 -0.767246 0.000000 0.000002
    18 -0.027022 -1.076919 -0.020212 -0.201651 0.000000 0.000000
    19 -0.249534 -2.846962 -0.174215 -0.511223 -0.169887 0.357523
    20 0.043235 -1.683939 0.096014 -0.815309 0.002823 -0.000167
    21 0.031729 -1.160831 0.058836 -0.220796 0.000642 0.008372
    22 -0.963866 -2.785142 -0.085346 0.047968 -0.066833 0.271976
    23 0.028479 -1.403068 0.006271 -0.840841 0.000000 0.000000
    24 0.021413 -0.957782 0.020047 -0.601214 0.000000 0.000000
    25 1.164474 -2.543938 -0.170328 -0.568466 -0.246526 0.363210
    26 0.024032 -1.129043 0.017806 -0.754842 0.000000 0.000001
    27 0.014896 -0.883989 -0.019845 -0.334519 0.000000 0.000000
    28 -0.586770 -1.264475 0.200164 0.506434 -1.153506 -3.182959
    29 1.522835 0.058681 0.016850 0.294332 0.015948 0.424126
    30 1.117948 0.048424 -0.005764 -0.005852 -0.024251 0.298047
    31 -0.139399 -0.111697 0.014397 1.521828 0.323016 1.395694
    32 -0.488517 -2.755600 -0.228261 -0.945124 0.023395 -0.387835
    33 0.039888 -1.479789 0.029853 -1.586857 0.000000 0.000000
    34 0.028785 -1.075730 -0.023111 -0.303352 0.000000 0.000000
    35 -0.049759 -1.680545 0.100480 -1.511590 0.000000 -0.000002
    36 -0.034141 -1.148312 0.084779 -0.918049 0.000000 0.000000
    37 0.957766 -2.746776 -0.090301 0.351620 0.071315 -0.009721
    38 -0.033419 -1.397129 -0.011255 -0.984470 0.000000 -0.000001
    39 -0.022361 -0.957434 0.018783 -0.681025 0.000000 0.000000
    40 -1.180680 -2.507215 -0.193861 -0.849276 0.096358 -0.405085
    41 -0.024966 -1.123934 0.017594 -1.517723 0.000000 0.000001
    42 -0.020057 -0.890966 0.010091 -0.909695 0.000000 0.000000
    43 0.583510 -1.197274 0.185377 1.121813 -0.962663 -1.143982
    44 1.535926 0.010245 0.005008 0.283120 -0.138086 -1.134210
    45 1.100770 0.004526 -0.010676 -0.009124 0.013408 -0.421109
    46 0.014680 -0.007296 -0.007612 -2.315902 -0.029011 -1.484394
  time 18
    0 11.662686 6.076717 -10.625317 0.912818 -1.897409 -1.430791
    1 -0.071918 -8.498731 -0.104137 0.274605 0.179457 -0.124347
    2 0.250028 -2.820663 -0.238396 -0.758577 0.008668 -0.269408
    3 1.034835 -0.368954 0.962382 1.438903 -5.718260 1.593918
    4 0.000004 7.330805 -0.181574 0.000000 0.000000 0.000000
    5 -0.000006 -4.491440 2.746747 0.000000 0.000000 0.000000
    6 -0.000006 -5.215600 0.521221 0.000000 0.000000 0.000000
    7 -0.000004 -2.584793 0.626897 0.210775 0.000000 0.000000
    8 -0.000006 -3.113141 3.685755 0.000000 0.000000 0.000000
    9 -0.000007 -7.713655 -1.563225 0.000000 0.000000 0.000000
    10 -0.000003 0.619987 3.519732 0.000000 0.000000 0.000000
    11 -0.000001 -0.041039 4.583956 0.000000 0.000000 0.000000
    12 -1.112914 -8.867437 2.842189 0.000000 0.000000 0.000000
    13 1.112910 1.686673 0.481230 0.000000 0.000000 0.000000
    14 -1.757664 -8.890461 -11.763796 -1.881229 -5.284295 -0.982934
    15 0.096944 -8.450419 -0.009364 0.653282 -1.822763 -0.306152
    16 0.447952 -2.798982 -0.200442 -0.632518 -0.188188 0.437361
    17 -0.032910 -1.480206 0.004936 -0.767246 0.000000 0.000002
    18 -0.027022 -1.076919 -0.020212 -0.201651 0.000000 0.000000
    19 -0.249534 -2.846962 -0.174215 -0.511223 -0.169887 0.357523
    20 0.043235 -1.683939 0.096014 -0.815309 0.002823 -0.000167
    21 0.031729 -1.160831 0.058836 -0.220796 0.000642 0.008372
    22 -0.963866 -2.785142 -0.085346 0.047968 -0.066833 0.271976
    23 0.028479 -1.403068 0.006271 -0.840841 0.000000 0.000000
    24 0.021413 -0.957782 0.020047 -0.601214 0.000000 0.000000
    25 1.164474 -2.543938 -0.170328 -0.568466 -0.246526 0.363210
    26 0.024032 -1.129043 0.017806 -0.754842 0.000000 0.000001
    27 0.014896 -0.883989 -0.019845 -0.334519 0.000000 0.000000
    28 -0.586770 -1.264475 0.200164 0.493432 -1.138836 -3.172463
    29 1.522835 0.058681 0.016850 0.294573 0.017266 0.418568
    30 1.117948 0.048424 -0.005764 -0.005780 -0.024323 0.294417
    31 -0.139399 -0.111697 0.014397 1.521828 0.323016 1.395694
    32 -0.488517 -2.755600 -0.228261 -0.945124 0.023395 -0.387835
    33 0.039888 -1.479789 0.029853 -1.586857 0.000000 0.000000
    34 0.028785 -1.075730 -0.023111 -0.303352 0.000000 0.000000
    35 -0.049759 -1.680545 0.100480 -1.511590 0.000000 -0.000002
    36 -0.034141 -1.148312 0.084779 -0.918049 0.000000 0.000000
    37 0.957766 -2.746776 -0.090301 0.363800 -0.012565 -0.022312
    38 -0.033419 -1.397129 -0.011255 -0.837867 0.000000 -0.000001
    39 -0.022361 -0.957434 0.018783 -0.499067 0.000000 0.000000
    40 -1.180680 -2.507215 -0.193861 -0.849276 0.096358 -0.405085
    41 -0.024966 -1.123934 0.017594 -1.517723 0.000000 0.000001
    42 -0.020057 -0.890966 0.010091 -0.909695 0.000000 0.000000
    43 0.583510 -1.197274 0.185377 1.121813 -0.962680 -1.143982
    44 1.535926 0.010245 0.005008 0.283120 -0.138086 -1.134210
    45 1.100770 0.004526 -0.010676 -0.009124 0.013408 -0.421109
    46 0.014680 -0.007296 -0.007612 -2.315902 -0.029011 -1.484394
  time 19
    0 11.662686 6.072811 -10.625317 0.913260 -1.897656 -1.431266
    1 -0.071918 -8.498731 -0.104137 0.275072 0.179253 -0.122696
    2 0.250028 -2.820663 -0.238396 -0.758577 0.008668 -0.269408
    3 1.034835 -0.368954 0.962382 1.438903 -5.718260 1.593918
    4 0.000004 7.330805 -0.181574 0.000000 0.000000 0.000000
    5 -0.000006 -4.491440 2.746747 0.000000 0.000000 0.000000
    6 -0.000006 -5.215600 0.521221 0.000000 0.000000 0.000000
    7 -0.000004 -2.584793 0.626897 0.106172 0.000000 0.000000
    8 -0.000006 -3.113141 3.685755 0.000000 0.000000 0.000000
    9 -0.000007 -7.713655 -1.563225 0.000000 0.000000 0.000000
    10 -0.000003 0.619987 3.519732 0.000000 0.000000 0.000000
    11 -0.000001 -0.041039 4.583956 0.000000 0.000000 0.000000
    12 -1.112914 -8.867437 2.842189 0.000000 0.000000 0.000000
    13 1.112910 1.686673 0.481230 0.000000 0.000000 0.000000
    14 -1.745945 -8.945150 -11.759890 -1.882326 -5.291232 -0.982934
    15 0.096944 -8.450419 -0.009364 0.651815 -1.827034 -0.294737
    16 0.447952 -2.798982 -0.200442 -0.632518 -0.188188 0.437361
    17 -0.032910 -1.480206 0.004936 -0.767246 0.000000 0.000002
    18 -0.027022 -1.076919 -0.020212 -0.201651 0.000000 0.000000
    19 -0.249534 -2.846962 -0.174215 -0.511223 -0.169887 0.357523
    20 0.043235 -1.683939 0.096014 -0.815309 0.002823 -0.000167
    21 0.031729 -1.160831 0.058836 -0.220796 0.000642 0.008372
    22 -0.963866 -2.785142 -0.085346 0.047968 -0.066833 0.271976
    23 0.028479 -1.403068 0.006271 -0.840841 0.000000 0.000000
    24 0.021413 -0.957782 0.020047 -0.601214 0.000000 0.000000
    25 1.164474 -2.543938 -0.170328 -0.568466 -0.246526 0.363210
    26 0.024032 -1.129043 0.017806 -0.754842 0.000000 0.000001
    27 0.014896 -0.883989 -0.019845 -0.334519 0.000000 0.000000
    28 -0.586770 -1.264475 0.200164 0.478723 -1.122403 -3.160732
    29 1.522835 0.058681 0.016850 0.294814 0.018740 0.413673
    30 1.117948 0.048424 -0.005764 -0.005696 -0.024383 0.290367
    31 -0.139399 -0.111697 0.014397 1.521828 0.323016 1.395694
    32 -0.488517 -2.755600 -0.228261 -0.945124 0.023395 -0.387835
    33 0.039888 -1.479789 0.029853 -1.586857 0.000000 0.000000
    34 0.028785 -1.075730 -0.023111 -0.303352 0.000000 0.000000
    35 -0.049759 -1.680545 0.100480 -1.511590 0.000000 -0.000002
    36 -0.034141 -1.148312 0.084779 -0.918049 0.000000 0.000000
    37 0.957766 -2.746776 -0.090301 0.374970 -0.089543 -0.033862
    38 -0.033419 -1.397129 -0.011255 -0.696298 0.000000 -0.000001
    39 -0.022361 -0.957434 0.018783 -0.332086 0.000000 0.000000
    40 -1.180680 -2.507215 -0.193861 -0.849276 0.096358 -0.405085
    41 -0.024966 -1.123934 0.017594 -1.517723 0.000000 0.000001
    42 -0.020057 -0.890966 0.010091 -0.909695 0.000000 0.000000
    43 0.583510 -1.197274 0.185377 1.121813 -0.962663 -1.143982
    44 1.535926 0.010245 0.005008 0.283120 -0.138086 -1.134210
    45 1.100770 0.004526 -0.010676 -0.009124 0.013408 -0.421109
    46 0.014680 -0.007296 -0.007612 -2.315902 -0.029011 -1.484394
  time 20
    0 11.662686 6.061092 -10.633130 0.914438 -1.898150 -1.432499
    1 -0.071918 -8.498731 -0.104137 0.274952 0.179304 -0.123124
    2 0.250028 -2.820663 -0.238396 -0.758577 0.008668 -0.269408
    3 1.034835 -0.368954 0.962382 1.438903 -5.718260 1.593918
    4 0.000004 7.330805 -0.181574 0.000000 0.000000 0.000000
    5 -0.000006 -4.491440 2.746747 0.000000 0.000000 0.000000
    6 -0.000006 -5.215600 0.521221 0.000000 0.000000 0.000000
    7 -0.000004 -2.584793 0.626897 0.029665 0.000000 0.000000
    8 -0.000006 -3.113141 3.685755 0.000000 0.000000 0.000000
    9 -0.000007 -7.713655 -1.563225 0.000000 0.000000 0.000000
    10 -0.000003 0.619987 3.519732 0.000000 0.000000 0.000000
    11 -0.000001 -0.041039 4.583956 0.000000 0.000000 0.000000
    12 -1.112914 -8.867437 2.842189 0.000000 0.000000 0.000000
    13 1.112910 1.686673 0.481230 0.000000 0.000000 0.000000
    14 -1.730319 -8.999840 -11.779422 -1.880749 -5.297607 -0.980826
    15 0.096944 -8.450419 -0.009364 0.650471 -1.831718 -0.284810
    16 0.447952 -2.798982 -0.200442 -0.632518 -0.188188 0.437361
    17 -0.032910 -1.480206 0.004936 -0.767246 0.000000 0.000002
    18 -0.027022 -1.076919 -0.020212 -0.201651 0.000000 0.000000
    19 -0.249534 -2.846962 -0.174215 -0.511223 -0.169887 0.357523
    20 0.043235 -1.683939 0.096014 -0.815309 0.002823 -0.000167
    21 0.031729 -1.160831 0.058836 -0.220796 0.000642 0.008372
    22 -0.963866 -2.785142 -0.085346 0.047968 -0.066833 0.271976
    23 0.028479 -1.403068 0.006271 -0.840841 0.000000 0.000000
    24 0.021413 -0.957782 0.020047 -0.601214 0.000000 0.000000
    25 1.164474 -2.543938 -0.170328 -0.568466 -0.246526 0.363210
    26 0.024032 -1.129043 0.017806 -0.754842 0.000000 0.000001
    27 0.014896 -0.883989 -0.019845 -0.334519 0.000000 0.000000
    28 -0.586770 -1.264475 0.200164 0.462969 -1.104605 -3.148075
    29 1.522835 0.058681 0.016850 0.295015 0.020334 0.409401
    30 1.117948 0.048424 -0.005764 -0.005600 -0.024443 0.285972
    31 -0.139399 -0.111697 0.014397 1.521828 0.323016 1.395694
    32 -0.488517 -2.755600 -0.228261 -0.945124 0.023395 -0.387835
    33 0.039888 -1.479789 0.029853 -1.586857 0.000000 0.000000
    34 0.028785 -1.075730 -0.023111 -0.303352 0.000000 0.000000
    35 -0.049759 -1.680545 0.100480 -1.511590 0.000000 -0.000002
    36 -0.034141 -1.148312 0.084779 -0.918049 0.000000 0.000000
    37 0.957766 -2.746776 -0.090301 0.383148 -0.145846 -0.042319
    38 -0.033419 -1.397129 -0.011255 -0.580737 0.000000 -0.000001
    39 -0.022361 -0.957434 0.018783 -0.209973 0.000000 0.000000
    40 -1.180680 -2.507215 -0.193861 -0.849276 0.096358 -0.405085
    41 -0.024966 -1.123934 0.017594 -1.517723 0.000000 0.000001
    42 -0.020057 -0.890966 0.010091 -0.909695 0.000000 0.000000
    43 0.583510 -1.197274 0.185377 1.121813 -0.962663 -1.143982
    44 1.535926 0.010245 0.005008 0.283120 -0.138086 -1.134210
    45 1.100770 0.004526 -0.010676 -0.009124 0.013408 -0.421109
    46 0.014680 -0.007296 -0.007612 -2.315902 -0.029011 -1.484394
  time 21
    0 11.662686 6.041560 -10.644849 0.916205 -1.898953 -1.434395
    1 -0.071918 -8.498731 -0.104137 0.274617 0.179444 -0.124286
    2 0.250028 -2.820663 -0.238396 -0.758577 0.008668 -0.269408
    3 1.034835 -0.368954 0.962382 1.438903 -5.718260 1.593918
    4 0.000004 7.330805 -0.181574 0.000000 0.000000 0.000000
    5 -0.000006 -4.491440 2.746747 0.000000 0.000000 0.000000
    6 -0.000006 -5.215600 0.521221 0.000000 0.000000 0.000000
    7 -0.000004 -2.584793 0.626897 0.000000 0.000000 0.000000
    8 -0.000006 -3.113141 3.685755 0.000000 0.000000 0.000000
    9 -0.000007 -7.713655 -1.563225 0.000000 0.000000 0.000000
    10 -0.000003 0.619987 3.519732 0.000000 0.000000 0.000000
    11 -0.000001 -0.041039 4.583956 0.000000 0.000000 0.000000
    12 -1.112914 -8.867437 2.842189 0.000000 0.000000 0.000000
    13 1.112910 1.686673 0.481230 0.000000 0.000000 0.000000
    14 -1.718600 -9.054529 -11.802860 -1.878556 -5.304075 -0.978334
    15 0.096944 -8.450419 -0.009364 0.649289 -1.836556 -0.276231
    16 0.447952 -2.798982 -0.200442 -0.632518 -0.188188 0.437361
    17 -0.032910 -1.480206 0.004936 -0.767246 0.000000 0.000002
    18 -0.027022 -1.076919 -0.020212 -0.201651 0.000000 0.000000
    19 -0.249534 -2.846962 -0.174215 -0.511223 -0.169887 0.357523
    20 0.043235 -1.683939 0.096014 -0.815309 0.002823 -0.000167
    21 0.031729 -1.160831 0.058836 -0.220796 0.000642 0.008372
    22 -0.963866 -2.785142 -0.085346 0.047968 -0.066833 0.271976
    23 0.028479 -1.403068 0.006271 -0.840841 0.000000 0.000000
    24 0.021413 -0.957782 0.020047 -0.601214 0.000000 0.000000
    25 1.164474 -2.543938 -0.170328 -0.568466 -0.246526 0.363210
    26 0.024032 -1.129043 0.017806 -0.754842 0.000000 0.000001
    27 0.014896 -0.883989 -0.019845 -0.334519 0.000000 0.000000
    28 -0.586770 -1.264475 0.200164 0.446456 -1.086057 -3.134800
    29 1.522835 0.058681 0.016850 0.295216 0.021988 0.405709
    30 1.117948 0.048424 -0.005764 -0.005516 -0.024491 0.281425
    31 -0.139399 -0.111697 0.014397 1.521828 0.323016 1.395694
    32 -0.488517 -2.755600 -0.228261 -0.945124 0.023395 -0.387835
    33 0.039888 -1.479789 0.029853 -1.586857 0.000000 0.000000
    34 0.028785 -1.075730 -0.023111 -0.303352 0.000000 0.000000
    35 -0.049759 -1.680545 0.100480 -1.511590 0.000000 -0.000002
    36 -0.034141 -1.148312 0.084779 -0.918049 0.000000 0.000000
    37 0.957766 -2.746776 -0.090301 0.386325 -0.167658 -0.045602
    38 -0.033419 -1.397129 -0.011255 -0.512200 0.000000 -0.000001
    39 -0.022361 -0.957434 0.018783 -0.162619 0.000000 0.000000
    40 -1.180680 -2.507215 -0.193861 -0.849276 0.096358 -0.405085
    41 -0.024966 -1.123934 0.017594 -1.517723 0.000000 0.000001
    42 -0.020057 -0.890966 0.010091 -0.909695 0.000000 0.000000
    43 0.583510 -1.197274 0.185377 1.121813 -0.962663 -1.143982
    44 1.535926 0.010245 0.005008 0.283120 -0.138086 -1.134210
    45 1.100770 0.004526 -0.010676 -0.009124 0.013408 -0.421109
    46 0.014680 -0.007296 -0.007612 -2.315902 -0.029011 -1.484394
  time 22
    0 11.662686 6.022028 -10.656568 0.918414 -1.900004 -1.436766
    1 -0.071918 -8.498731 -0.104137 0.274125 0.179661 -0.126060
    2 0.250028 -2.820663 -0.238396 -0.758577 0.008668 -0.269408
    3 1.034835 -0.368954 0.962382 1.438903 -5.718260 1.593918
    4 0.000004 7.330805 -0.181574 0.000000 0.000000 0.000000
    5 -0.000006 -4.491440 2.746747 0.000000 0.000000 0.000000
    6 -0.000006 -5.215600 0.521221 0.000000 0.000000 0.000000
    7 -0.000004 -2.584793 0.626897 0.000000 0.000000 0.000000
    8 -0.000006 -3.113141 3.685755 0.000000 0.000000 0.000000
    9 -0.000007 -7.713655 -1.563225 0.000000 0.000000 0.000000
    10 -0.000003 0.619987 3.519732 0.000000 0.000000 0.000000
    11 -0.000001 -0.041039 4.583956 0.000000 0.000000 0.000000
    12 -1.112914 -8.867437 2.842189 0.000000 0.000000 0.000000
    13 1.112910 1.686673 0.481230 0.000000 0.000000 0.000000
    14 -1.702975 -9.113124 -11.830204 -1.875813 -5.310450 -0.975556
    15 0.096944 -8.450419 -0.009364 0.648230 -1.841497 -0.268931
    16 0.447952 -2.798982 -0.200442 -0.632518 -0.188188 0.437361
    17 -0.032910 -1.480206 0.004936 -0.767246 0.000000 0.000002
    18 -0.027022 -1.076919 -0.020212 -0.201651 0.000000 0.000000
    19 -0.249534 -2.846962 -0.174215 -0.511223 -0.169887 0.357523
    20 0.043235 -1.683939 0.096014 -0.815309 0.002823 -0.000167
    21 0.031729 -1.160831 0.058836 -0.220796 0.000642 0.008372
    22 -0.963866 -2.785142 -0.085346 0.047968 -0.066833 0.271976
    23 0.028479 -1.403068 0.006271 -0.840841 0.000000 0.000000
    24 0.021413 -0.957782 0.020047 -0.601214 0.000000 0.000000
    25 1.164474 -2.543938 -0.170328 -0.568466 -0.246526 0.363210
    26 0.024032 -1.129043 0.017806 -0.754842 0.000000 0.000001
    27 0.014896 -0.883989 -0.019845 -0.334519 0.000000 0.000000
    28 -0.586770 -1.264475 0.200164 0.429658 -1.067290 -3.121371
    29 1.522835 0.058681 0.016850 0.295396 0.023678 0.402556
    30 1.117948 0.048424 -0.005764 -0.005420 -0.024539 0.276764
    31 -0.139399 -0.111697 0.014397 1.521828 0.323016 1.395694
    32 -0.488517 -2.755600 -0.228261 -0.945124 0.023395 -0.387835
    33 0.039888 -1.479789 0.029853 -1.586857 0.000000 0.000000
    34 0.028785 -1.075730 -0.023111 -0.303352 0.000000 0.000000
    35 -0.049759 -1.680545 0.100480 -1.511590 0.000000 -0.000002
    36 -0.034141 -1.148312 0.084779 -0.918049 0.000000 0.000000
    37 0.957766 -2.746776 -0.090301 0.383024 -0.167658 -0.045602
    38 -0.033419 -1.397129 -0.011255 -0.477970 0.000000 -0.000001
    39 -0.022361 -0.957434 0.018783 -0.162619 0.000000 0.000000
    40 -1.180680 -2.507215 -0.193861 -0.849276 0.096358 -0.405085
    41 -0.024966 -1.123934 0.017594 -1.517723 0.000000 0.000001
    42 -0.020057 -0.890966 0.010091 -0.909695 0.000000 0.000000
    43 0.583510 -1.197274 0.185377 1.121813 -0.962663 -1.143982
    44 1.535926 0.010245 0.005008 0.283120 -0.138086 -1.134210
    45 1.100770 0.004526 -0.010676 -0.009124 0.013408 -0.421109
    46 0.014680 -0.007296 -0.007612 -2.315902 -0.029011 -1.484394
  time 23
    0 11.662686 5.998590 -10.672194 0.920917 -1.901116 -1.439422
    1 -0.071918 -8.498731 -0.104137 0.273514 0.179917 -0.128241
    2 0.250028 -2.820663 -0.238396 -0.758577 0.008668 -0.269408
    3 1.034835 -0.368954 0.962382 1.438903 -5.718260 1.593918
    4 0.000004 7.330805 -0.181574 0.000000 0.000000 0.000000
    5 -0.000006 -4.491440 2.746747 0.000000 0.000000 0.000000
    6 -0.000006 -5.215600 0.521221 0.000000 0.000000 0.000000
    7 -0.000004 -2.584793 0.626897 0.000000 0.000000 0.000000
    8 -0.000006 -3.113141 3.685755 0.000000 0.000000 0.000000
    9 -0.000007 -7.713655 -1.563225 0.000000 0.000000 0.000000
    10 -0.000003 0.619987 3.519732 0.000000 0.000000 0.000000
    11 -0.000001 -0.041039 4.583956 0.000000 0.000000 0.000000
    12 -1.112914 -8.867437 2.842189 0.000000 0.000000 0.000000
    13 1.112910 1.686673 0.481230 0.000000 0.000000 0.000000
    14 -1.691256 -9.163907 -11.861455 -1.872797 -5.316544 -0.972585
    15 0.096944 -8.450419 -0.009364 0.647293 -1.846335 -0.262840
    16 0.447952 -2.798982 -0.200442 -0.632518 -0.188188 0.437361
    17 -0.032910 -1.480206 0.004936 -0.767246 0.000000 0.000002
    18 -0.027022 -1.076919 -0.020212 -0.201651 0.000000 0.000000
    19 -0.249534 -2.846962 -0.174215 -0.511223 -0.169887 0.357523
    20 0.043235 -1.683939 0.096014 -0.815309 0.002823 -0.000167
    21 0.031729 -1.160831 0.058836 -0.220796 0.000642 0.008372
    22 -0.963866 -2.785142 -0.085346 0.047968 -0.066833 0.271976
    23 0.028479 -1.403068 0.006271 -0.840841 0.000000 0.000000
    24 0.021413 -0.957782 0.020047 -0.601214 0.000000 0.000000
    25 1.164474 -2.543938 -0.170328 -0.568466 -0.246526 0.363210
    26 0.024032 -1.129043 0.017806 -0.754842 0.000000 0.000001
    27 0.014896 -0.883989 -0.019845 -0.334519 0.000000 0.000000
    28 -0.586770 -1.264475 0.200164 0.413145 -1.048743 -3.108096
    29 1.522835 0.058681 0.016850 0.295557 0.025344 0.399943
    30 1.117948 0.048424 -0.005764 -0.005324 -0.024575 0.272217
    31 -0.139399 -0.111697 0.014397 1.521828 0.323016 1.395694
    32 -0.488517 -2.755600 -0.228261 -0.945124 0.023395 -0.387835
    33 0.039888 -1.479789 0.029853 -1.586857 0.000000 0.000000
    34 0.028785 -1.075730 -0.023111 -0.303352 0.000000 0.000000
    35 -0.049759 -1.680545 0.100480 -1.511590 0.000000 -0.000002
    36 -0.034141 -1.148312 0.084779 -0.918049 0.000000 0.000000
    37 0.957766 -2.746776 -0.090301 0.374206 -0.167658 -0.045602
    38 -0.033419 -1.397129 -0.011255 -0.450770 0.000000 -0.000001
    39 -0.022361 -0.957434 0.018783 -0.162619 0.000000 0.000000
    40 -1.180680 -2.507215 -0.193861 -0.849276 0.096358 -0.405085
    41 -0.024966 -1.123934 0.017594 -1.517723 0.000000 0.000001
    42 -0.020057 -0.890966 0.010091 -0.909695 0.000000 0.000000
    43 0.583510 -1.197274 0.185377 1.121813 -0.962663 -1.143982
    44 1.535926 0.010245 0.005008 0.283120 -0.138086 -1.134210
    45 1.100770 0.004526 -0.010676 -0.009124 0.013408 -0.421109
    46 0.014680 -0.007296 -0.007612 -2.315902 -0.029011 -1.484394
  time 24
    0 11.662686 5.971245 -10.687819 0.923568 -1.902351 -1.442267
    1 -0.071918 -8.498731 -0.104137 0.272831 0.180211 -0.130667
    2 0.250028 -2.820663 -0.238396 -0.758577 0.008668 -0.269408
    3 1.034835 -0.368954 0.962382 1.438903 -5.718260 1.593918
    4 0.000004 7.330805 -0.181574 0.000000 0.000000 0.000000
    5 -0.000006 -4.491440 2.746747 0.000000 0.000000 0.000000
    6 -0.000006 -5.215600 0.521221 0.000000 0.000000 0.000000
    7 -0.000004 -2.584793 0.626897 0.000000 0.000000 0.000000
    8 -0.000006 -3.113141 3.685755 0.000000 0.000000 0.000000
    9 -0.000007 -7.713655 -1.563225 0.000000 0.000000 0.000000
    10 -0.000003 0.619987 3.519732 0.000000 0.000000 0.000000
    11 -0.000001 -0.041039 4.583956 0.000000 0.000000 0.000000
    12 -1.112914 -8.867437 2.842189 0.000000 0.000000 0.000000
    13 1.112910 1.686673 0.481230 0.000000 0.000000 0.000000
    14 -1.679537 -9.218596 -11.892706 -1.869643 -5.322356 -0.969615
    15 0.096944 -8.450419 -0.009364 0.646519 -1.850967 -0.257841
    16 0.447952 -2.798982 -0.200442 -0.632518 -0.188188 0.437361
    17 -0.032910 -1.480206 0.004936 -0.767246 0.000000 0.000002
    18 -0.027022 -1.076919 -0.020212 -0.201651 0.000000 0.000000
    19 -0.249534 -2.846962 -0.174215 -0.511223 -0.169887 0.357523
    20 0.043235 -1.683939 0.096014 -0.815309 0.002823 -0.000167
    21 0.031729 -1.160831 0.058836 -0.220796 0.000642 0.008372
    22 -0.963866 -2.785142 -0.085346 0.047968 -0.066833 0.271976
    23 0.028479 -1.403068 0.006271 -0.840841 0.000000 0.000000
    24 0.021413 -0.957782 0.020047 -0.601214 0.000000 0.000000
    25 1.164474 -2.543938 -0.170328 -0.568466 -0.246526 0.363210
    26 0.024032 -1.129043 0.017806 -0.754842 0.000000 0.000001
    27 0.014896 -0.883989 -0.019845 -0.334519 0.000000 0.000000
    28 -0.586770 -1.264475 0.200164 0.397391 -1.030944 -3.095438
    29 1.522835 0.058681 0.016850 0.295697 0.026938 0.397786
    30 1.117948 0.048424 -0.005764 -0.005229 -0.024611 0.267822
    31 -0.139399 -0.111697 0.014397 1.521828 0.323016 1.395694
    32 -0.488517 -2.755600 -0.228261 -0.945124 0.023395 -0.387835
    33 0.039888 -1.479789 0.029853 -1.586857 0.000000 0.000000
    34 0.028785 -1.075730 -0.023111 -0.303352 0.000000 0.000000
    35 -0.049759 -1.680545 0.100480 -1.511590 0.000000 -0.000002
    36 -0.034141 -1.148312 0.084779 -0.918049 0.000000 0.000000
    37 0.957766 -2.746776 -0.090301 0.361435 -0.167658 -0.045602
    38 -0.033419 -1.397129 -0.011255 -0.429794 0.000000 -0.000001
    39 -0.022361 -0.957434 0.018783 -0.162619 0.000000 0.000000
    40 -1.180680 -2.507215 -0.193861 -0.849276 0.096358 -0.405085
    41 -0.024966 -1.123934 0.017594 -1.517723 0.000000 0.000001
    42 -0.020057 -0.890966 0.010091 -0.909695 0.000000 0.000000
    43 0.583510 -1.197274 0.185377 1.121813 -0.962663 -1.143982
    44 1.535926 0.010245 0.005008 0.283120 -0.138086 -1.134210
    45 1.100770 0.004526 -0.010676 -0.009124 0.013408 -0.421109
    46 0.014680 -0.007296 -0.007612 -2.315902 -0.029011 -1.484394
  time 25
    0 11.662686 5.943901 -10.703445 0.926292 -1.903587 -1.445112
    1 -0.071918 -8.498731 -0.104137 0.272124 0.180517 -0.133175
    2 0.250028 -2.820663 -0.238396 -0.758577 0.008668 -0.269408
    3 1.034835 -0.368954 0.962382 1.438903 -5.718260 1.593918
    4 0.000004 7.330805 -0.181574 0.000000 0.000000 0.000000
    5 -0.000006 -4.491440 2.746747 0.000000 0.000000 0.000000
    6 -0.000006 -5.215600 0.521221 0.000000 0.000000 0.000000
    7 -0.000004 -2.584793 0.626897 0.000000 0.000000 0.000000
    8 -0.000006 -3.113141 3.685755 0.000000 0.000000 0.000000
    9 -0.000007 -7.713655 -1.563225 0.000000 0.000000 0.000000
    10 -0.000003 0.619987 3.519732 0.000000 0.000000 0.000000
    11 -0.000001 -0.041039 4.583956 0.000000 0.000000 0.000000
    12 -1.112914 -8.867437 2.842189 0.000000 0.000000 0.000000
    13 1.112910 1.686673 0.481230 0.000000 0.000000 0.000000
    14 -1.667817 -9.265473 -11.923957 -1.866558 -5.327606 -0.966741
    15 0.096944 -8.450419 -0.009364 0.645827 -1.855291 -0.253866
    16 0.447952 -2.798982 -0.200442 -0.632518 -0.188188 0.437361
    17 -0.032910 -1.480206 0.004936 -0.767246 0.000000 0.000002
    18 -0.027022 -1.076919 -0.020212 -0.201651 0.000000 0.000000
    19 -0.249534 -2.846962 -0.174215 -0.511223 -0.169887 0.357523
    20 0.043235 -1.683939 0.096014 -0.815309 0.002823 -0.000167
    21 0.031729 -1.160831 0.058836 -0.220796 0.000642 0.008372
    22 -0.963866 -2.785142 -0.085346 0.047968 -0.066833 0.271976
    23 0.028479 -1.403068 0.006271 -0.840841 0.000000 0.000000
    24 0.021413 -0.957782 0.020047 -0.601214 0.000000 0.000000
    25 1.164474 -2.543938 -0.170328 -0.568466 -0.246526 0.363210
    26 0.024032 -1.129043 0.017806 -0.754842 0.000000 0.000001
    27 0.014896 -0.883989 -0.019845 -0.334519 0.000000 0.000000
    28 -0.586770 -1.264475 0.200164 0.382682 -1.014512 -3.083630
    29 1.522835 0.058681 0.016850 0.295818 0.028412 0.396086
    30 1.117948 0.048424 -0.005764 -0.005145 -0.024647 0.263772
    31 -0.139399 -0.111697 0.014397 1.521828 0.323016 1.395694
    32 -0.488517 -2.755600 -0.228261 -0.945124 0.023395 -0.387835
    33 0.039888 -1.479789 0.029853 -1.586857 0.000000 0.000000
    34 0.028785 -1.075730 -0.023111 -0.303352 0.000000 0.000000
    35 -0.049759 -1.680545 0.100480 -1.511590 0.000000 -0.000002
    36 -0.034141 -1.148312 0.084779 -0.918049 0.000000 0.000000
    37 0.957766 -2.746776 -0.090301 0.346287 -0.167658 -0.045602
    38 -0.033419 -1.397129 -0.011255 -0.414312 0.000000 -0.000001
    39 -0.022361 -0.957434 0.018783 -0.162619 0.000000 0.000000
    40 -1.180680 -2.507215 -0.193861 -0.849276 0.096358 -0.405085
    41 -0.024966 -1.123934 0.017594 -1.517723 0.000000 0.000001
    42 -0.020057 -0.890966 0.010091 -0.909695 0.000000 0.000000
    43 0.583510 -1.197274 0.185377 1.121813 -0.962663 -1.143982
    44 1.535926 0.010245 0.005008 0.283120 -0.138086 -1.134210
    45 1.100770 0.004526 -0.010676 -0.009124 0.013408 -0.421109
    46 0.014680 -0.007296 -0.007612 -2.315902 -0.029011 -1.484394
  time 26
    0 11.662686 5.920463 -10.719070 0.928796 -1.904699 -1.447768
    1 -0.071918 -8.498731 -0.104137 0.271429 0.180811 -0.135601
    2 0.250028 -2.820663 -0.238396 -0.758577 0.008668 -0.269408
    3 1.034835 -0.368954 0.962382 1.438903 -5.718260 1.593918
    4 0.000004 7.330805 -0.181574 0.000000 0.000000 0.000000
    5 -0.000006 -4.491440 2.746747 0.000000 0.000000 0.000000
    6 -0.000006 -5.215600 0.521221 0.000000 0.000000 0.000000
    7 -0.000004 -2.584793 0.626897 0.000000 0.000000 0.000000
    8 -0.000006 -3.113141 3.685755 0.000000 0.000000 0.000000
    9 -0.000007 -7.713655 -1.563225 0.000000 0.000000 0.000000
    10 -0.000003 0.619987 3.519732 0.000000 0.000000 0.000000
    11 -0.000001 -0.041039 4.583956 0.000000 0.000000 0.000000
    12 -1.112914 -8.867437 2.842189 0.000000 0.000000 0.000000
    13 1.112910 1.686673 0.481230 0.000000 0.000000 0.000000
    14 -1.660005 -9.304536 -11.951302 -1.863611 -5.332200 -0.964154
    15 0.096944 -8.450419 -0.009364 0.645297 -1.859099 -0.250797
    16 0.447952 -2.798982 -0.200442 -0.632518 -0.188188 0.437361
    17 -0.032910 -1.480206 0.004936 -0.767246 0.000000 0.000002
    18 -0.027022 -1.076919 -0.020212 -0.201651 0.000000 0.000000
    19 -0.249534 -2.846962 -0.174215 -0.511223 -0.169887 0.357523
    20 0.043235 -1.683939 0.096014 -0.815309 0.002823 -0.000167
    21 0.031729 -1.160831 0.058836 -0.220796 0.000642 0.008372
    22 -0.963866 -2.785142 -0.085346 0.047968 -0.066833 0.271976
    23 0.028479 -1.403068 0.006271 -0.840841 0.000000 0.000000
    24 0.021413 -0.957782 0.020047 -0.601214 0.000000 0.000000
    25 1.164474 -2.543938 -0.170328 -0.568466 -0.246526 0.363210
    26 0.024032 -1.129043 0.017806 -0.754842 0.000000 0.000001
    27 0.014896 -0.883989 -0.019845 -0.334519 0.000000 0.000000
    28 -0.586770 -1.264475 0.200164 0.369680 -0.999841 -3.073211
    29 1.522835 0.058681 0.016850 0.295938 0.029718 0.394758
    30 1.117948 0.048424 -0.005764 -0.005073 -0.024671 0.260142
    31 -0.139399 -0.111697 0.014397 1.521828 0.323016 1.395694
    32 -0.488517 -2.755600 -0.228261 -0.945124 0.023395 -0.387835
    33 0.039888 -1.479789 0.029853 -1.586857 0.000000 0.000000
    34 0.028785 -1.075730 -0.023111 -0.303352 0.000000 0.000000
    35 -0.049759 -1.680545 0.100480 -1.511590 0.000000 -0.000002
    36 -0.034141 -1.148312 0.084779 -0.918049 0.000000 0.000000
    37 0.957766 -2.746776 -0.090301 0.330350 -0.167658 -0.045602
    38 -0.033419 -1.397129 -0.011255 -0.403401 0.000000 -0.000001
    39 -0.022361 -0.957434 0.018783 -0.162619 0.000000 0.000000
    40 -1.180680 -2.507215 -0.193861 -0.849276 0.096358 -0.405085
    41 -0.024966 -1.123934 0.017594 -1.517723 0.000000 0.000001
    42 -0.020057 -0.890966 0.010091 -0.909695 0.000000 0.000000
    43 0.583510 -1.197274 0.185377 1.121813 -0.962663 -1.143982
    44 1.535926 0.010245 0.005008 0.283120 -0.138086 -1.134210
    45 1.100770 0.004526 -0.010676 -0.009124 0.013408 -0.421109
    46 0.014680 -0.007296 -0.007612 -2.315902 -0.029011 -1.484394
  time 27
    0 11.662686 5.900931 -10.734696 0.931005 -1.905749 -1.450139
    1 -0.071918 -8.498731 -0.104137 0.270818 0.181067 -0.137782
    2 0.250028 -2.820663 -0.238396 -0.758577 0.008668 -0.269408
    3 1.034835 -0.368954 0.962382 1.438903 -5.718260 1.593918
    4 0.000004 7.330805 -0.181574 0.000000 0.000000 0.000000
    5 -0.000006 -4.491440 2.746747 0.000000 0.000000 0.000000
    6 -0.000006 -5.215600 0.521221 0.000000 0.000000 0.000000
    7 -0.000004 -2.584793 0.626897 0.000000 0.000000 0.000000
    8 -0.000006 -3.113141 3.685755 0.000000 0.000000 0.000000
    9 -0.000007 -7.713655 -1.563225 0.000000 0.000000 0.000000
    10 -0.000003 0.619987 3.519732 0.000000 0.000000 0.000000
    11 -0.000001 -0.041039 4.583956 0.000000 0.000000 0.000000
    12 -1.112914 -8.867437 2.842189 0.000000 0.000000 0.000000
    13 1.112910 1.686673 0.481230 0.000000 0.000000 0.000000
    14 -1.652192 -9.339694 -11.978646 -1.861143 -5.335950 -0.961950
    15 0.096944 -8.450419 -0.009364 0.644890 -1.862342 -0.248565
    16 0.447952 -2.798982 -0.200442 -0.632518 -0.188188 0.437361
    17 -0.032910 -1.480206 0.004936 -0.767246 0.000000 0.000002
    18 -0.027022 -1.076919 -0.020212 -0.201651 0.000000 0.000000
    19 -0.249534 -2.846962 -0.174215 -0.511223 -0.169887 0.357523
    20 0.043235 -1.683939 0.096014 -0.815309 0.002823 -0.000167
    21 0.031729 -1.160831 0.058836 -0.220796 0.000642 0.008372
    22 -0.963866 -2.785142 -0.085346 0.047968 -0.066833 0.271976
    23 0.028479 -1.403068 0.006271 -0.840841 0.000000 0.000000
    24 0.021413 -0.957782 0.020047 -0.601214 0.000000 0.000000
    25 1.164474 -2.543938 -0.170328 -0.568466 -0.246526 0.363210
    26 0.024032 -1.129043 0.017806 -0.754842 0.000000 0.000001
    27 0.014896 -0.883989 -0.019845 -0.334519 0.000000 0.000000
    28 -0.586770 -1.264475 0.200164 0.358671 -0.987550 -3.064413
    29 1.522835 0.058681 0.016850 0.296019 0.030821 0.393804
    30 1.117948 0.048424 -0.005764 -0.005013 -0.024695 0.257124
    31 -0.139399 -0.111697 0.014397 1.521828 0.323016 1.395694
    32 -0.488517 -2.755600 -0.228261 -0.945124 0.023395 -0.387835
    33 0.039888 -1.479789 0.029853 -1.586857 0.000000 0.000000
    34 0.028785 -1.075730 -0.023111 -0.303352 0.000000 0.000000
    35 -0.049759 -1.680545 0.100480 -1.511590 0.000000 -0.000002
    36 -0.034141 -1.148312 0.084779 -0.918049 0.000000 0.000000
    37 0.957766 -2.746776 -0.090301 0.315215 -0.167658 -0.045602
    38 -0.033419 -1.397129 -0.011255 -0.396332 0.000000 -0.000001
    39 -0.022361 -0.957434 0.018783 -0.162619 0.000000 0.000000
    40 -1.180680 -2.507215 -0.193861 -0.849276 0.096358 -0.405085
    41 -0.024966 -1.123934 0.017594 -1.517723 0.000000 0.000001
    42 -0.020057 -0.890966 0.010091 -0.909695 0.000000 0.000000
    43 0.583510 -1.197274 0.185377 1.121813 -0.962663 -1.143982
    44 1.535926 0.010245 0.005008 0.283120 -0.138086 -1.134210
    45 1.100770 0.004526 -0.010676 -0.009124 0.013408 -0.421109
    46 0.014680 -0.007296 -0.007612 -2.315902 -0.029011 -1.484394
  time 28
    0 11.662686 5.881399 -10.742508 0.932772 -1.906552 -1.451941
    1 -0.071918 -8.498731 -0.104137 0.270326 0.181284 -0.139536
    2 0.250028 -2.820663 -0.238396 -0.758577 0.008668 -0.269408
    3 1.034835 -0.368954 0.962382 1.438903 -5.718260 1.593918
    4 0.000004 7.330805 -0.181574 0.000000 0.000000 0.000000
    5 -0.000006 -4.491440 2.746747 0.000000 0.000000 0.000000
    6 -0.000006 -5.215600 0.521221 0.000000 0.000000 0.000000
    7 -0.000004 -2.584793 0.626897 0.000000 0.000000 0.000000
    8 -0.000006 -3.113141 3.685755 0.000000 0.000000 0.000000
    9 -0.000007 -7.713655 -1.563225 0.000000 0.000000 0.000000
    10 -0.000003 0.619987 3.519732 0.000000 0.000000 0.000000
    11 -0.000001 -0.041039 4.583956 0.000000 0.000000 0.000000
    12 -1.112914 -8.867437 2.842189 0.000000 0.000000 0.000000
    13 1.112910 1.686673 0.481230 0.000000 0.000000 0.000000
    14 -1.644379 -9.367038 -11.998178 -1.859155 -5.338856 -0.960225
    15 0.096944 -8.450419 -0.009364 0.644564 -1.864812 -0.247100
    16 0.447952 -2.798982 -0.200442 -0.632518 -0.188188 0.437361
    17 -0.032910 -1.480206 0.004936 -0.767246 0.000000 0.000002
    18 -0.027022 -1.076919 -0.020212 -0.201651 0.000000 0.000000
    19 -0.249534 -2.846962 -0.174215 -0.511223 -0.169887 0.357523
    20 0.043235 -1.683939 0.096014 -0.815309 0.002823 -0.000167
    21 0.031729 -1.160831 0.058836 -0.220796 0.000642 0.008372
    22 -0.963866 -2.785142 -0.085346 0.047968 -0.066833 0.271976
    23 0.028479 -1.403068 0.006271 -0.840841 0.000000 0.000000
    24 0.021413 -0.957782 0.020047 -0.601214 0.000000 0.000000
    25 1.164474 -2.543938 -0.170328 -0.568466 -0.246526 0.363210
    26 0.024032 -1.129043 0.017806 -0.754842 0.000000 0.000001
    27 0.014896 -0.883989 -0.019845 -0.334519 0.000000 0.000000
    28 -0.586770 -1.264475 0.200164 0.350320 -0.978122 -3.057698
    29 1.522835 0.058681 0.016850 0.296079 0.031672 0.393182
    30 1.117948 0.048424 -0.005764 -0.004965 -0.024707 0.254793
    31 -0.139399 -0.111697 0.014397 1.521828 0.323016 1.395694
    32 -0.488517 -2.755600 -0.228261 -0.945124 0.023395 -0.387835
    33 0.039888 -1.479789 0.029853 -1.586857 0.000000 0.000000
    34 0.028785 -1.075730 -0.023111 -0.303352 0.000000 0.000000
    35 -0.049759 -1.680545 0.100480 -1.511590 0.000000 -0.000002
    36 -0.034141 -1.148312 0.084779 -0.918049 0.000000 0.000000
    37 0.957766 -2.746776 -0.090301 0.302443 -0.167658 -0.045602
    38 -0.033419 -1.397129 -0.011255 -0.392298 0.000000 -0.000001
    39 -0.022361 -0.957434 0.018783 -0.162619 0.000000 0.000000
    40 -1.180680 -2.507215 -0.193861 -0.849276 0.096358 -0.405085
    41 -0.024966 -1.123934 0.017594 -1.517723 0.000000 0.000001
    42 -0.020057 -0.890966 0.010091 -0.909695 0.000000 0.000000
    43 0.583510 -1.197274 0.185377 1.121813 -0.962663 -1.143982
    44 1.535926 0.010245 0.005008 0.283120 -0.138086 -1.134210
    45 1.100770 0.004526 -0.010676 -0.009124 0.013408 -0.421109
    46 0.014680 -0.007296 -0.007612 -2.315902 -0.029011 -1.484394
  time 29
    0 11.662686 5.869680 -10.750321 0.933950 -1.907108 -1.453268
    1 -0.071918 -8.498731 -0.104137 0.269991 0.181424 -0.140718
    2 0.250028 -2.820663 -0.238396 -0.758577 0.008668 -0.269408
    3 1.034835 -0.368954 0.962382 1.438903 -5.718260 1.593918
    4 0.000004 7.330805 -0.181574 0.000000 0.000000 0.000000
    5 -0.000006 -4.491440 2.746747 0.000000 0.000000 0.000000
    6 -0.000006 -5.215600 0.521221 0.000000 0.000000 0.000000
    7 -0.000004 -2.584793 0.626897 0.000000 0.000000 0.000000
    8 -0.000006 -3.113141 3.685755 0.000000 0.000000 0.000000
    9 -0.000007 -7.713655 -1.563225 0.000000 0.000000 0.000000
    10 -0.000003 0.619987 3.519732 0.000000 0.000000 0.000000
    11 -0.000001 -0.041039 4.583956 0.000000 0.000000 0.000000
    12 -1.112914 -8.867437 2.842189 0.000000 0.000000 0.000000
    13 1.112910 1.686673 0.481230 0.000000 0.000000 0.000000
    14 -1.640473 -9.382664 -12.009897 -1.857783 -5.340731 -0.959075
    15 0.096944 -8.450419 -0.009364 0.644401 -1.866408 -0.246287
    16 0.447952 -2.798982 -0.200442 -0.632518 -0.188188 0.437361
    17 -0.032910 -1.480206 0.004936 -0.767246 0.000000 0.000002
    18 -0.027022 -1.076919 -0.020212 -0.201651 0.000000 0.000000
    19 -0.249534 -2.846962 -0.174215 -0.511223 -0.169887 0.357523
    20 0.043235 -1.683939 0.096014 -0.815309 0.002823 -0.000167
    21 0.031729 -1.160831 0.058836 -0.220796 0.000642 0.008372
    22 -0.963866 -2.785142 -0.085346 0.047968 -0.066833 0.271976
    23 0.028479 -1.403068 0.006271 -0.840841 0.000000 0.000000
    24 0.021413 -0.957782 0.020047 -0.601214 0.000000 0.000000
    25 1.164474 -2.543938 -0.170328 -0.568466 -0.246526 0.363210
    26 0.024032 -1.129043 0.017806 -0.754842 0.000000 0.000001
    27 0.014896 -0.883989 -0.019845 -0.334519 0.000000 0.000000
    28 -0.586770 -1.264475 0.200164 0.344911 -0.972086 -3.053376
    29 1.522835 0.058681 0.016850 0.296099 0.032211 0.392809
    30 1.117948 0.048424 -0.005764 -0.004941 -0.024719 0.253303
    31 -0.139399 -0.111697 0.014397 1.521828 0.323016 1.395694
    32 -0.488517 -2.755600 -0.228261 -0.945124 0.023395 -0.387835
    33 0.039888 -1.479789 0.029853 -1.586857 0.000000 0.000000
    34 0.028785 -1.075730 -0.023111 -0.303352 0.000000 0.000000
    35 -0.049759 -1.680545 0.100480 -1.511590 0.000000 -0.000002
    36 -0.034141 -1.148312 0.084779 -0.918049 0.000000 0.000000
    37 0.957766 -2.746776 -0.090301 0.293613 -0.167658 -0.045602
    38 -0.033419 -1.397129 -0.011255 -0.390454 0.000000 -0.000001
    39 -0.022361 -0.957434 0.018783 -0.162619 0.000000 0.000000
    40 -1.180680 -2.507215 -0.193861 -0.849276 0.096358 -0.405085
    41 -0.024966 -1.123934 0.017594 -1.517723 0.000000 0.000001
    42 -0.020057 -0.890966 0.010091 -0.909695 0.000000 0.000000
    43 0.583510 -1.197274 0.185377 1.121813 -0.962663 -1.143982
    44 1.535926 0.010245 0.005008 0.283120 -0.138086 -1.134210
    45 1.100770 0.004526 -0.010676 -0.009124 0.013408 -0.421109
    46 0.014680 -0.007296 -0.007612 -2.315902 -0.029011 -1.484394
  time 30
    0 11.662686 5.865773 -10.754228 0.934392 -1.907294 -1.453648
    1 -0.071918 -8.498731 -0.104137 0.269871 0.181476 -0.141146
    2 0.250028 -2.820663 -0.238396 -0.758577 0.008668 -0.269408
    3 1.034835 -0.368954 0.962382 1.438903 -5.718260 1.593918
    4 0.000004 7.330805 -0.181574 0.000000 0.000000 0.000000
    5 -0.000006 -4.491440 2.746747 0.000000 0.000000 0.000000
    6 -0.000006 -5.215600 0.521221 0.000000 0.000000 0.000000
    7 -0.000004 -2.584793 0.626897 0.000000 0.000000 0.000000
    8 -0.000006 -3.113141 3.685755 0.000000 0.000000 0.000000
    9 -0.000007 -7.713655 -1.563225 0.000000 0.000000 0.000000
    10 -0.000003 0.619987 3.519732 0.000000 0.000000 0.000000
    11 -0.000001 -0.041039 4.583956 0.000000 0.000000 0.000000
    12 -1.112914 -8.867437 2.842189 0.000000 0.000000 0.000000
    13 1.112910 1.686673 0.481230 0.000000 0.000000 0.000000
    14 -1.640473 -9.390476 -12.013804 -1.857372 -5.341387 -0.958692
    15 0.096944 -8.450419 -0.009364 0.644320 -1.866922 -0.246031
    16 0.447952 -2.798982 -0.200442 -0.632518 -0.188188 0.437361
    17 -0.032910 -1.480206 0.004936 -0.767246 0.000000 0.000002
    18 -0.027022 -1.076919 -0.020212 -0.201651 0.000000 0.000000
    19 -0.249534 -2.846962 -0.174215 -0.511223 -0.169887 0.357523
    20 0.043235 -1.683939 0.096014 -0.815309 0.002823 -0.000167
    21 0.031729 -1.160831 0.058836 -0.220796 0.000642 0.008372
    22 -0.963866 -2.785142 -0.085346 0.047968 -0.066833 0.271976
    23 0.028479 -1.403068 0.006271 -0.840841 0.000000 0.000000
    24 0.021413 -0.957782 0.020047 -0.601214 0.000000 0.000000
    25 1.164474 -2.543938 -0.170328 -0.568466 -0.246526 0.363210
    26 0.024032 -1.129043 0.017806 -0.754842 0.000000 0.000001
    27 0.014896 -0.883989 -0.019845 -0.334519 0.000000 0.000000
    28 -0.586770 -1.264475 0.200164 0.343013 -0.969972 -3.051832
    29 1.522835 0.058681 0.016850 0.296119 0.032403 0.392684
    30 1.117948 0.048424 -0.005764 -0.004929 -0.024719 0.252806
    31 -0.139399 -0.111697 0.014397 1.521828 0.323016 1.395694
    32 -0.488517 -2.755600 -0.228261 -0.945124 0.023395 -0.387835
    33 0.039888 -1.479789 0.029853 -1.586857 0.000000 0.000000
    34 0.028785 -1.075730 -0.023111 -0.303352 0.000000 0.000000
    35 -0.049759 -1.680545 0.100480 -1.511590 0.000000 -0.000002
    36 -0.034141 -1.148312 0.084779 -0.918049 0.000000 0.000000
    37 0.957766 -2.746776 -0.090301 0.290325 -0.167658 -0.045602
    38 -0.033419 -1.397129 -0.011255 -0.390032 0.000000 -0.000001
    39 -0.022361 -0.957434 0.018783 -0.162619 0.000000 0.000000
    40 -1.180680 -2.507215 -0.193861 -0.849276 0.096358 -0.405085
    41 -0.024966 -1.123934 0.017594 -1.517723 0.000000 0.000001
    42 -0.020057 -0.890966 0.010091 -0.909695 0.000000 0.000000
    43 0.583510 -1.197274 0.185377 1.121813 -0.962663 -1.143982
    44 1.535926 0.010245 0.005008 0.283120 -0.138086 -1.134210
    45 1.100770 0.004526 -0.010676 -0.009124 0.013408 -0.421109
    46 0.014680 -0.007296 -0.007612 -2.315902 -0.029011 -1.484394
end
