version 1
nodes
  0 "Bone01" -1
  1 "Bone_Lefthand" 0
  2 "Bone02" 1
  3 "Bone03" 2
  4 "Bone50" 3
  5 "Bone48" 3
  6 "Bone25" 3
  7 "AddBone05" 2
  8 "AddBone03" 2
  9 "AddBone04" 8
  10 "AddBone01" 2
  11 "AddBone02" 10
  12 "Bone 04" 1
  13 "Bone13" 12
  14 "Bone14" 13
  15 "Bone15" 14
  16 "Bone17" 12
  17 "Bone18" 16
  18 "Bone19" 17
  19 "Bone21" 12
  20 "Bone22" 19
  21 "Bone23" 20
  22 "Bone05" 12
  23 "Bone06" 22
  24 "Bone07" 23
  25 "Bone09" 12
  26 "Bone10" 25
  27 "Bone11" 26
  28 "Bone04" -1
  29 "Bone_Righthand" 28
  30 "Bone26" 29
  31 "Bone35" 30
  32 "Bone36" 31
  33 "Bone37" 32
  34 "Bone31" 30
  35 "Bone32" 34
  36 "Bone33" 35
  37 "Bone39" 30
  38 "Bone40" 37
  39 "Bone41" 38
  40 "Bone43" 30
  41 "Bone44" 40
  42 "Bone45" 41
  43 "Bone27" 30
  44 "Bone28" 43
  45 "Bone29" 44
end
skeleton
  time 0
    0 6.357837 2.166442 -6.693046 5.508894 -1.331322 -5.715832
    1 -0.001603 -8.561233 -0.002571 0.347496 -0.125219 -0.169569
    2 -1.047996 -2.317996 0.654462 -1.246991 1.437608 -1.233761
    3 0.000000 0.743005 1.588492 0.000000 0.000000 0.000000
    4 0.000000 3.192657 2.044578 0.000000 0.000000 0.000000
    5 0.000000 1.878595 2.044578 0.000000 0.000000 0.000000
    6 0.000000 -1.103893 0.407971 0.000000 0.000000 0.000000
    7 -0.019827 -0.426563 4.971295 1.570796 -2.797374 -1.570766
    8 0.276650 -3.399288 5.573969 1.564481 -0.761686 0.009181
    9 1.704292 0.000000 0.000000 0.000000 -0.233555 0.048831
    10 -0.248656 -3.399303 5.551128 1.407195 -2.480944 0.262823
    11 1.839642 0.000000 0.000000 0.011159 -0.384060 2.340417
    12 -0.003480 -0.404829 0.000000 0.000000 0.000000 0.000000
    13 -0.519309 -2.501156 -0.278957 -1.490008 -0.039729 -0.147496
    14 -0.010598 -1.208185 -0.000001 -0.928524 0.000000 0.000000
    15 0.000000 -0.763066 0.000001 -0.956441 0.000000 0.000000
    16 0.105981 -2.607135 -0.278958 -1.202940 -0.083077 -0.180316
    17 -0.000001 -1.250581 -0.000002 -1.029748 0.000000 0.000000
    18 0.000000 -0.932634 0.000000 -1.190315 0.000000 0.000000
    19 0.763064 -2.490556 -0.278958 -0.490267 -0.010738 0.101382
    20 -0.012323 -1.280918 0.000000 -1.129225 0.000000 0.000000
    21 -0.001697 -0.749372 -0.000001 -0.760965 0.000000 0.000000
    22 0.354567 0.016267 0.318132 0.476509 -0.569473 -1.011337
    23 1.887165 0.012877 0.000000 -0.301658 -0.048610 -0.556363
    24 1.001875 -0.000270 0.000000 0.000000 0.000000 -1.022754
    25 -1.123360 -2.195094 -0.278958 -1.567306 0.000000 -0.087266
    26 0.010771 -0.963791 0.000000 -1.213004 0.000000 0.000000
    27 -0.010412 -0.631916 0.000000 -1.197304 0.000000 0.000000
    28 -0.741723 -3.611200 -9.404878 0.808356 2.185141 1.190133
    29 0.089929 -8.543166 0.000000 0.122392 -0.156191 0.283119
    30 0.000000 -0.359714 0.000000 0.000000 0.000000 0.000000
    31 -0.170479 -2.636146 -0.277655 -1.750535 0.000000 0.000000
    32 0.010599 -1.261177 0.000001 -0.342077 0.000000 0.000000
    33 -0.000001 -0.943233 0.000001 -0.961659 0.000000 0.000000
    34 -0.827563 -2.508972 -0.277656 -1.480020 0.000000 0.000000
    35 0.000000 -1.292971 0.000001 -0.979101 0.000000 0.000000
    36 0.000000 -0.752466 0.000001 -0.502647 0.000000 0.000000
    37 0.444213 -2.561960 -0.277655 -1.748213 -0.046885 -0.024335
    38 0.021022 -1.208185 -0.000001 -0.322909 0.000000 0.000000
    39 0.010597 -0.741867 0.000000 -0.877897 0.000000 0.000000
    40 1.047444 -2.222821 -0.277655 -1.581386 -0.083393 -0.037063
    41 0.000000 -0.996223 0.000001 -1.199038 0.000000 0.000000
    42 -0.000001 -0.614689 0.000001 -1.062893 0.000000 0.000000
    43 -0.308254 -0.007814 0.307165 -0.181399 -0.369377 -2.311048
    44 1.978378 0.019545 -0.000001 0.042951 -0.179887 0.769158
    45 0.982425 0.003186 0.000000 0.000000 0.000000 1.090793
  time 1
    0 6.357837 2.146910 -6.685234 5.508894 -1.331322 -5.715832
    1 -0.001603 -8.561233 -0.002571 0.343949 -0.135013 -0.142125
    2 -1.047996 -2.317996 0.654462 -1.247038 1.437608 -1.233761
    3 0.000000 0.743005 1.588492 0.000000 0.000000 0.000000
    4 0.000000 3.192657 2.044578 0.000000 0.000000 0.000000
    5 0.000000 1.878595 2.044578 0.000000 0.000000 0.000000
    6 0.000000 -1.080455 0.407971 0.000000 0.000000 0.000000
    7 -0.019827 -0.426563 4.971295 1.570796 -2.912725 -1.570766
    8 0.276650 -3.399288 5.573969 1.388837 -0.724876 0.270611
    9 1.704292 0.000000 0.000000 0.000000 -0.307528 0.048831
    10 -0.248656 -3.399303 5.551128 1.477244 -2.478399 0.150374
    11 1.839642 0.000000 0.000000 0.258558 -0.455649 2.189406
    12 -0.003480 -0.404829 0.000000 0.000000 0.000000 0.000000
    13 -0.519309 -2.501156 -0.278957 -1.490008 -0.039729 -0.147496
    14 -0.010598 -1.208185 -0.000001 -0.928524 0.000000 0.000000
    15 0.000000 -0.763066 0.000001 -0.956441 0.000000 0.000000
    16 0.105981 -2.607135 -0.278958 -1.202940 -0.083077 -0.180316
    17 -0.000001 -1.250581 -0.000002 -1.029748 0.000000 0.000000
    18 0.000000 -0.932634 0.000000 -1.190315 0.000000 0.000000
    19 0.763064 -2.490556 -0.278958 -0.492161 -0.010738 0.101382
    20 -0.012323 -1.280918 0.000000 -1.133462 0.000000 0.000000
    21 -0.001697 -0.749372 -0.000001 -0.760194 0.000000 0.000000
    22 0.354567 0.016267 0.318132 0.476305 -0.569653 -1.010966
    23 1.887165 0.012877 0.000000 -0.301694 -0.048334 -0.555488
    24 1.001875 -0.000270 0.000000 0.000000 0.000000 -1.025524
    25 -1.123360 -2.195094 -0.278958 -1.567306 0.000000 -0.087266
    26 0.010771 -0.963791 0.000000 -1.213004 0.000000 0.000000
    27 -0.010412 -0.631916 0.000000 -1.197304 0.000000 0.000000
    28 -0.741723 -3.837770 -9.393159 0.845506 2.214448 1.235955
    29 0.089929 -8.543166 0.000000 0.111260 -0.164284 0.352955
    30 0.000000 -0.359714 0.000000 0.000000 0.000000 0.000000
    31 -0.170479 -2.636146 -0.277655 -1.750535 0.000000 0.000000
    32 0.010599 -1.261177 0.000001 -0.342077 0.000000 0.000000
    33 -0.000001 -0.943233 0.000001 -0.961659 0.000000 0.000000
    34 -0.827563 -2.508972 -0.277656 -1.480020 0.000000 0.000000
    35 0.000000 -1.292971 0.000001 -0.979101 0.000000 0.000000
    36 0.000000 -0.752466 0.000001 -0.502647 0.000000 0.000000
    37 0.444213 -2.561960 -0.277655 -1.748213 -0.046885 -0.024335
    38 0.021022 -1.208185 -0.000001 -0.322909 0.000000 0.000000
    39 0.010597 -0.741867 0.000000 -0.877897 0.000000 0.000000
    40 1.047444 -2.222821 -0.277655 -1.581386 -0.083393 -0.037063
    41 0.000000 -0.996223 0.000001 -1.199038 0.000000 0.000000
    42 -0.000001 -0.614689 0.000001 -1.062893 0.000000 0.000000
    43 -0.308254 -0.007814 0.307165 -0.181399 -0.369377 -2.311048
    44 1.978378 0.019545 -0.000001 0.042951 -0.179887 0.769158
    45 0.982425 0.003186 0.000000 0.000000 0.000000 1.090793
  time 2
    0 6.357837 2.166442 -6.693046 5.473645 -1.322470 -5.679520
    1 -0.001603 -8.561233 -0.002571 0.341572 -0.141129 -0.124817
    2 -1.047996 -2.317996 0.654462 -1.247038 1.437608 -1.233761
    3 0.000000 0.743005 1.588492 0.000000 0.000000 0.000000
    4 0.000000 3.192657 2.044578 0.000000 0.000000 0.000000
    5 0.000000 1.878595 2.044578 0.000000 0.000000 0.000000
    6 0.000000 -1.064830 0.407971 0.000000 0.000000 0.000000
    7 -0.019827 -0.426563 4.971295 1.570796 -3.126936 -1.570766
    8 0.276650 -3.399288 5.573969 1.213118 -0.687996 0.532041
    9 1.704292 0.000000 0.000000 0.000000 -0.128056 0.048831
    10 -0.248656 -3.399303 5.551128 -1.533956 -0.667969 3.083009
    11 1.839642 0.000000 0.000000 0.718164 -0.588628 1.908938
    12 -0.003480 -0.404829 0.000000 0.000000 0.000000 0.000000
    13 -0.519309 -2.501156 -0.278957 -1.490008 -0.039729 -0.147496
    14 -0.010598 -1.208185 -0.000001 -0.928524 0.000000 0.000000
    15 0.000000 -0.763066 0.000001 -0.956441 0.000000 0.000000
    16 0.105981 -2.607135 -0.278958 -1.202940 -0.083077 -0.180316
    17 -0.000001 -1.250581 -0.000002 -1.029748 0.000000 0.000000
    18 0.000000 -0.932634 0.000000 -1.190315 0.000000 0.000000
    19 0.763064 -2.490556 -0.278958 -0.495924 -0.010738 0.101382
    20 -0.012323 -1.280918 0.000000 -1.142787 0.000000 0.000000
    21 -0.001697 -0.749372 -0.000001 -0.758356 0.000000 0.000000
    22 0.354567 0.016267 0.318132 0.475849 -0.570000 -1.010115
    23 1.887165 0.012877 0.000000 -0.301790 -0.047723 -0.553462
    24 1.001875 -0.000270 0.000000 0.000000 0.000000 -1.032239
    25 -1.123360 -2.195094 -0.278958 -1.567306 0.000000 -0.087266
    26 0.010771 -0.963791 0.000000 -1.213004 0.000000 0.000000
    27 -0.010412 -0.631916 0.000000 -1.197304 0.000000 0.000000
    28 -0.741723 -3.884646 -9.354096 0.873870 2.239828 1.271715
    29 0.089929 -8.543166 0.000000 0.100913 -0.170790 0.414944
    30 0.000000 -0.359714 0.000000 0.000000 0.000000 0.000000
    31 -0.170479 -2.636146 -0.277655 -1.750535 0.000000 0.000000
    32 0.010599 -1.261177 0.000001 -0.342077 0.000000 0.000000
    33 -0.000001 -0.943233 0.000001 -0.961659 0.000000 0.000000
    34 -0.827563 -2.508972 -0.277656 -1.480020 0.000000 0.000000
    35 0.000000 -1.292971 0.000001 -0.979101 0.000000 0.000000
    36 0.000000 -0.752466 0.000001 -0.502647 0.000000 0.000000
    37 0.444213 -2.561960 -0.277655 -1.748213 -0.046885 -0.024335
    38 0.021022 -1.208185 -0.000001 -0.322909 0.000000 0.000000
    39 0.010597 -0.741867 0.000000 -0.877897 0.000000 0.000000
    40 1.047444 -2.222821 -0.277655 -1.581386 -0.083393 -0.037063
    41 0.000000 -0.996223 0.000001 -1.199038 0.000000 0.000000
    42 -0.000001 -0.614689 0.000001 -1.062893 0.000000 0.000000
    43 -0.308254 -0.007814 0.307165 -0.181399 -0.369377 -2.311048
    44 1.978378 0.019545 -0.000001 0.042951 -0.179887 0.769158
    45 0.982425 0.003186 0.000000 0.000000 0.000000 1.090793
  time 3
    0 6.357837 2.244569 -6.728204 5.451145 -1.316250 -5.656354
    1 -0.001603 -8.561233 -0.002571 0.342556 -0.138607 -0.131973
    2 -1.047996 -2.317996 0.654462 -1.247038 1.437608 -1.233761
    3 0.000000 0.743005 1.588492 0.000000 0.000000 0.000000
    4 0.000000 3.192657 2.044578 0.000000 0.000000 0.000000
    5 0.000000 1.878595 2.044578 0.000000 0.000000 0.000000
    6 0.000000 -1.057017 0.407971 0.000000 0.000000 0.000000
    7 -0.019827 -0.426563 4.971295 1.570796 -3.242382 -1.570766
    8 0.276650 -3.399288 5.573969 1.213118 -0.687996 0.532041
    9 1.704292 0.000000 0.000000 0.000000 0.056410 0.048831
    10 -0.248656 -3.399303 5.551128 -1.463816 -0.670514 2.970561
    11 1.839642 0.000000 0.000000 0.965634 -0.660217 1.757927
    12 -0.003480 -0.404829 0.000000 0.000000 0.000000 0.000000
    13 -0.519309 -2.501156 -0.278957 -1.490008 -0.039729 -0.147496
    14 -0.010598 -1.208185 -0.000001 -0.928524 0.000000 0.000000
    15 0.000000 -0.763066 0.000001 -0.956441 0.000000 0.000000
    16 0.105981 -2.607135 -0.278958 -1.202940 -0.083077 -0.180316
    17 -0.000001 -1.250581 -0.000002 -1.029748 0.000000 0.000000
    18 0.000000 -0.932634 0.000000 -1.190315 0.000000 0.000000
    19 0.763064 -2.490556 -0.278958 -0.498752 -0.010738 0.101382
    20 -0.012323 -1.280918 0.000000 -1.152112 0.000000 0.000000
    21 -0.001697 -0.749372 -0.000001 -0.756063 0.000000 0.000000
    22 0.354567 0.016267 0.318132 0.475406 -0.570384 -1.009276
    23 1.887165 0.012877 0.000000 -0.301910 -0.047004 -0.551149
    24 1.001875 -0.000270 0.000000 0.000000 0.000000 -1.040549
    25 -1.123360 -2.195094 -0.278958 -1.567306 0.000000 -0.087266
    26 0.010771 -0.963791 0.000000 -1.213004 0.000000 0.000000
    27 -0.010412 -0.631916 0.000000 -1.197304 0.000000 0.000000
    28 -0.741723 -3.755736 -9.283781 0.871769 2.237913 1.269169
    29 0.089929 -8.543166 0.000000 0.098535 -0.172178 0.429010
    30 0.000000 -0.359714 0.000000 0.000000 0.000000 0.000000
    31 -0.170479 -2.636146 -0.277655 -1.750535 0.000000 0.000000
    32 0.010599 -1.261177 0.000001 -0.342077 0.000000 0.000000
    33 -0.000001 -0.943233 0.000001 -0.961659 0.000000 0.000000
    34 -0.827563 -2.508972 -0.277656 -1.480020 0.000000 0.000000
    35 0.000000 -1.292971 0.000001 -0.979101 0.000000 0.000000
    36 0.000000 -0.752466 0.000001 -0.502647 0.000000 0.000000
    37 0.444213 -2.561960 -0.277655 -1.748213 -0.046885 -0.024335
    38 0.021022 -1.208185 -0.000001 -0.322909 0.000000 0.000000
    39 0.010597 -0.741867 0.000000 -0.877897 0.000000 0.000000
    40 1.047444 -2.222821 -0.277655 -1.581386 -0.083393 -0.037063
    41 0.000000 -0.996223 0.000001 -1.199038 0.000000 0.000000
    42 -0.000001 -0.614689 0.000001 -1.062893 0.000000 0.000000
    43 -0.308254 -0.007814 0.307165 -0.181399 -0.369377 -2.311048
    44 1.978378 0.019545 -0.000001 0.042951 -0.179887 0.769158
    45 0.982425 0.003186 0.000000 0.000000 0.000000 1.090793
  time 4
    0 6.357837 2.482858 -6.825863 5.465958 -1.320397 -5.671614
    1 -0.001603 -8.561233 -0.002571 0.344747 -0.132848 -0.148198
    2 -1.047996 -2.317996 0.654462 -1.247038 1.437608 -1.233761
    3 0.000000 0.743005 1.588492 0.000000 0.000000 0.000000
    4 0.000000 3.192657 2.044578 0.000000 0.000000 0.000000
    5 0.000000 1.878595 2.044578 0.000000 0.000000 0.000000
    6 0.000000 -1.064830 0.407971 0.000000 0.000000 0.000000
    7 -0.019827 -0.426563 4.971295 1.570796 -3.096984 -1.570766
    8 0.276650 -3.399288 5.573969 1.213118 -0.687996 0.532041
    9 1.704292 0.000000 0.000000 0.000000 0.162513 0.048831
    10 -0.248656 -3.399303 5.551128 -1.506100 -0.668962 3.038326
    11 1.839642 0.000000 0.000000 0.911086 -0.644916 1.794663
    12 -0.003480 -0.404829 0.000000 0.000000 0.000000 0.000000
    13 -0.519309 -2.501156 -0.278957 -1.490008 -0.039729 -0.147496
    14 -0.010598 -1.208185 -0.000001 -0.928524 0.000000 0.000000
    15 0.000000 -0.763066 0.000001 -0.956441 0.000000 0.000000
    16 0.105981 -2.607135 -0.278958 -1.202940 -0.083077 -0.180316
    17 -0.000001 -1.250581 -0.000002 -1.029748 0.000000 0.000000
    18 0.000000 -0.932634 0.000000 -1.190315 0.000000 0.000000
    19 0.763064 -2.490556 -0.278958 -0.497818 -0.010738 0.101382
    20 -0.012323 -1.280918 0.000000 -1.156366 0.000000 0.000000
    21 -0.001697 -0.749372 -0.000001 -0.753997 0.000000 0.000000
    22 0.354567 0.016267 0.318132 0.475190 -0.570552 -1.008892
    23 1.887165 0.012877 0.000000 -0.301982 -0.046453 -0.549411
    24 1.001875 -0.000270 0.000000 0.000000 0.000000 -1.048055
    25 -1.123360 -2.195094 -0.278958 -1.567306 0.000000 -0.087266
    26 0.010771 -0.963791 0.000000 -1.213004 0.000000 0.000000
    27 -0.010412 -0.631916 0.000000 -1.197304 0.000000 0.000000
    28 -0.741723 -3.439320 -9.346283 0.858876 2.226133 1.252804
    29 0.089929 -8.543166 0.000000 0.097358 -0.172810 0.435637
    30 0.000000 -0.359714 0.000000 0.000000 0.000000 0.000000
    31 -0.170479 -2.636146 -0.277655 -1.750535 0.000000 0.000000
    32 0.010599 -1.261177 0.000001 -0.342077 0.000000 0.000000
    33 -0.000001 -0.943233 0.000001 -0.961659 0.000000 0.000000
    34 -0.827563 -2.508972 -0.277656 -1.480020 0.000000 0.000000
    35 0.000000 -1.292971 0.000001 -0.979101 0.000000 0.000000
    36 0.000000 -0.752466 0.000001 -0.502647 0.000000 0.000000
    37 0.444213 -2.561960 -0.277655 -1.748213 -0.046885 -0.024335
    38 0.021022 -1.208185 -0.000001 -0.322909 0.000000 0.000000
    39 0.010597 -0.741867 0.000000 -0.877897 0.000000 0.000000
    40 1.047444 -2.222821 -0.277655 -1.581386 -0.083393 -0.037063
    41 0.000000 -0.996223 0.000001 -1.199038 0.000000 0.000000
    42 -0.000001 -0.614689 0.000001 -1.062893 0.000000 0.000000
    43 -0.308254 -0.007814 0.307165 -0.181399 -0.369377 -2.311048
    44 1.978378 0.019545 -0.000001 0.042951 -0.179887 0.769158
    45 0.982425 0.003186 0.000000 0.000000 0.000000 1.090793
  time 5
    0 6.357837 2.623487 -6.888365 5.500363 -1.329328 -5.707007
    1 -0.001603 -8.561233 -0.002571 0.346252 -0.128771 -0.159636
    2 -1.047996 -2.317996 0.654462 -1.246991 1.437608 -1.233761
    3 0.000000 0.743005 1.588492 0.000000 0.000000 0.000000
    4 0.000000 3.192657 2.044578 0.000000 0.000000 0.000000
    5 0.000000 1.878595 2.044578 0.000000 0.000000 0.000000
    6 0.000000 -1.080455 0.407971 0.000000 0.000000 0.000000
    7 -0.019827 -0.426563 4.971295 1.570796 -2.827041 -1.570766
    8 0.276650 -3.399288 5.573969 1.252175 -0.695636 0.474098
    9 1.704292 0.000000 0.000000 0.000000 0.109173 0.048831
    10 -0.248656 -3.399303 5.551128 1.542393 -2.476041 0.045939
    11 1.839642 0.000000 0.000000 0.770389 -0.605409 1.889350
    12 -0.003480 -0.404829 0.000000 0.000000 0.000000 0.000000
    13 -0.519309 -2.501156 -0.278957 -1.490008 -0.039729 -0.147496
    14 -0.010598 -1.208185 -0.000001 -0.928524 0.000000 0.000000
    15 0.000000 -0.763066 0.000001 -0.956441 0.000000 0.000000
    16 0.105981 -2.607135 -0.278958 -1.202940 -0.083077 -0.180316
    17 -0.000001 -1.250581 -0.000002 -1.029748 0.000000 0.000000
    18 0.000000 -0.932634 0.000000 -1.190315 0.000000 0.000000
    19 0.763064 -2.490556 -0.278958 -0.490267 -0.010738 0.101382
    20 -0.012323 -1.280918 0.000000 -1.150410 0.000000 0.000000
    21 -0.001697 -0.749372 -0.000001 -0.752772 0.000000 0.000000
    22 0.354567 0.016267 0.318132 0.475478 -0.570300 -1.009432
    23 1.887165 0.012877 0.000000 -0.301994 -0.046357 -0.549124
    24 1.001875 -0.000270 0.000000 0.000000 0.000000 -1.052420
    25 -1.123360 -2.195094 -0.278958 -1.567306 0.000000 -0.087266
    26 0.010771 -0.963791 0.000000 -1.213004 0.000000 0.000000
    27 -0.010412 -0.631916 0.000000 -1.197304 0.000000 0.000000
    28 -0.741723 -3.185406 -9.447849 0.841304 2.211000 1.230863
    29 0.089929 -8.543166 0.000000 0.098069 -0.172439 0.431626
    30 0.000000 -0.359714 0.000000 0.000000 0.000000 0.000000
    31 -0.170479 -2.636146 -0.277655 -1.750535 0.000000 0.000000
    32 0.010599 -1.261177 0.000001 -0.342077 0.000000 0.000000
    33 -0.000001 -0.943233 0.000001 -0.961659 0.000000 0.000000
    34 -0.827563 -2.508972 -0.277656 -1.480020 0.000000 0.000000
    35 0.000000 -1.292971 0.000001 -0.979101 0.000000 0.000000
    36 0.000000 -0.752466 0.000001 -0.502647 0.000000 0.000000
    37 0.444213 -2.561960 -0.277655 -1.748213 -0.046885 -0.024335
    38 0.021022 -1.208185 -0.000001 -0.322909 0.000000 0.000000
    39 0.010597 -0.741867 0.000000 -0.877897 0.000000 0.000000
    40 1.047444 -2.222821 -0.277655 -1.581386 -0.083393 -0.037063
    41 0.000000 -0.996223 0.000001 -1.199038 0.000000 0.000000
    42 -0.000001 -0.614689 0.000001 -1.062893 0.000000 0.000000
    43 -0.308254 -0.007814 0.307165 -0.181399 -0.369377 -2.311048
    44 1.978378 0.019545 -0.000001 0.042951 -0.179887 0.769158
    45 0.982425 0.003186 0.000000 0.000000 0.000000 1.090793
  time 6
    0 6.357837 2.518015 -6.845395 5.524457 -1.334990 -5.731919
    1 -0.001603 -8.561233 -0.002571 0.346716 -0.127447 -0.163293
    2 -1.047996 -2.317996 0.654462 -1.247038 1.437608 -1.233761
    3 0.000000 0.743005 1.588492 0.000000 0.000000 0.000000
    4 0.000000 3.192657 2.044578 0.000000 0.000000 0.000000
    5 0.000000 1.878595 2.044578 0.000000 0.000000 0.000000
    6 0.000000 -1.103893 0.407971 0.000000 0.000000 0.000000
    7 -0.019827 -0.426563 4.971295 1.570796 -2.681833 -1.570766
    8 0.276650 -3.399288 5.573969 1.345185 -0.713833 0.335838
    9 1.704292 0.000000 0.000000 0.000000 -0.017974 0.048831
    10 -0.248656 -3.399303 5.551128 1.449388 -2.479454 0.195058
    11 1.839642 0.000000 0.000000 0.578101 -0.551404 2.018875
    12 -0.003480 -0.404829 0.000000 0.000000 0.000000 0.000000
    13 -0.519309 -2.501156 -0.278957 -1.490008 -0.039729 -0.147496
    14 -0.010598 -1.208185 -0.000001 -0.928524 0.000000 0.000000
    15 0.000000 -0.763066 0.000001 -0.956441 0.000000 0.000000
    16 0.105981 -2.607135 -0.278958 -1.202940 -0.083077 -0.180316
    17 -0.000001 -1.250581 -0.000002 -1.029748 0.000000 0.000000
    18 0.000000 -0.932634 0.000000 -1.190315 0.000000 0.000000
    19 0.763064 -2.490556 -0.278958 -0.476257 -0.010738 0.101382
    20 -0.012323 -1.280918 0.000000 -1.129225 0.000000 0.000000
    21 -0.001697 -0.749372 -0.000001 -0.753122 0.000000 0.000000
    22 0.354567 0.016267 0.318132 0.476509 -0.569473 -1.011337
    23 1.887165 0.012877 0.000000 -0.301910 -0.047004 -0.551149
    24 1.001875 -0.000270 0.000000 0.000000 0.000000 -1.051233
    25 -1.123360 -2.195094 -0.278958 -1.567306 0.000000 -0.087266
    26 0.010771 -0.963791 0.000000 -1.213004 0.000000 0.000000
    27 -0.010412 -0.631916 0.000000 -1.197304 0.000000 0.000000
    28 -0.741723 -3.224470 -9.502538 0.828316 2.200465 1.214680
    29 0.089929 -8.543166 0.000000 0.100031 -0.171311 0.420205
    30 0.000000 -0.359714 0.000000 0.000000 0.000000 0.000000
    31 -0.170479 -2.636146 -0.277655 -1.750535 0.000000 0.000000
    32 0.010599 -1.261177 0.000001 -0.342077 0.000000 0.000000
    33 -0.000001 -0.943233 0.000001 -0.961659 0.000000 0.000000
    34 -0.827563 -2.508972 -0.277656 -1.480020 0.000000 0.000000
    35 0.000000 -1.292971 0.000001 -0.979101 0.000000 0.000000
    36 0.000000 -0.752466 0.000001 -0.502647 0.000000 0.000000
    37 0.444213 -2.561960 -0.277655 -1.748213 -0.046885 -0.024335
    38 0.021022 -1.208185 -0.000001 -0.322909 0.000000 0.000000
    39 0.010597 -0.741867 0.000000 -0.877897 0.000000 0.000000
    40 1.047444 -2.222821 -0.277655 -1.581386 -0.083393 -0.037063
    41 0.000000 -0.996223 0.000001 -1.199038 0.000000 0.000000
    42 -0.000001 -0.614689 0.000001 -1.062893 0.000000 0.000000
    43 -0.308254 -0.007814 0.307165 -0.181399 -0.369377 -2.311048
    44 1.978378 0.019545 -0.000001 0.042951 -0.179887 0.769158
    45 0.982425 0.003186 0.000000 0.000000 0.000000 1.090793
  time 7
    0 6.357837 2.326603 -6.763361 5.528488 -1.335867 -5.736148
    1 -0.001603 -8.561233 -0.002571 0.347013 -0.126627 -0.165583
    2 -1.047996 -2.317996 0.654462 -1.247038 1.437608 -1.233761
    3 0.000000 0.743005 1.588492 0.000000 0.000000 0.000000
    4 0.000000 3.192657 2.044578 0.000000 0.000000 0.000000
    5 0.000000 1.878595 2.044578 0.000000 0.000000 0.000000
    6 0.000000 -1.146863 0.407971 0.000000 0.000000 0.000000
    7 -0.019827 -0.426563 4.971295 1.570796 -2.729888 -1.570766
    8 0.276650 -3.399288 5.573969 1.456204 -0.735572 0.170901
    9 1.704292 0.000000 0.000000 0.000000 -0.169762 0.048831
    10 -0.248656 -3.399303 5.551128 1.407195 -2.480944 0.262823
    11 1.839642 0.000000 0.000000 0.368498 -0.492565 2.159990
    12 -0.003480 -0.404829 0.000000 0.000000 0.000000 0.000000
    13 -0.519309 -2.501156 -0.278957 -1.490008 -0.039729 -0.147496
    14 -0.010598 -1.208185 -0.000001 -0.928524 0.000000 0.000000
    15 0.000000 -0.763066 0.000001 -0.956441 0.000000 0.000000
    16 0.105981 -2.607135 -0.278958 -1.202940 -0.083077 -0.180316
    17 -0.000001 -1.250581 -0.000002 -1.029748 0.000000 0.000000
    18 0.000000 -0.932634 0.000000 -1.190315 0.000000 0.000000
    19 0.763064 -2.490556 -0.278958 -0.458460 -0.010738 0.101382
    20 -0.012323 -1.280918 0.000000 -1.089339 0.000000 0.000000
    21 -0.001697 -0.749372 -0.000001 -0.755625 0.000000 0.000000
    22 0.354567 0.016267 0.318132 0.478450 -0.567903 -1.014945
    23 1.887165 0.012877 0.000000 -0.301658 -0.048610 -0.556363
    24 1.001875 -0.000270 0.000000 0.000000 0.000000 -1.042132
    25 -1.123360 -2.195094 -0.278958 -1.567306 0.000000 -0.087266
    26 0.010771 -0.963791 0.000000 -1.213004 0.000000 0.000000
    27 -0.010412 -0.631916 0.000000 -1.197304 0.000000 0.000000
    28 -0.741723 -3.380725 -9.506444 0.823923 2.196921 1.209165
    29 0.089929 -8.543166 0.000000 0.102115 -0.170084 0.407824
    30 0.000000 -0.359714 0.000000 0.000000 0.000000 0.000000
    31 -0.170479 -2.636146 -0.277655 -1.750535 0.000000 0.000000
    32 0.010599 -1.261177 0.000001 -0.342077 0.000000 0.000000
    33 -0.000001 -0.943233 0.000001 -0.961659 0.000000 0.000000
    34 -0.827563 -2.508972 -0.277656 -1.480020 0.000000 0.000000
    35 0.000000 -1.292971 0.000001 -0.979101 0.000000 0.000000
    36 0.000000 -0.752466 0.000001 -0.502647 0.000000 0.000000
    37 0.444213 -2.561960 -0.277655 -1.748213 -0.046885 -0.024335
    38 0.021022 -1.208185 -0.000001 -0.322909 0.000000 0.000000
    39 0.010597 -0.741867 0.000000 -0.877897 0.000000 0.000000
    40 1.047444 -2.222821 -0.277655 -1.581386 -0.083393 -0.037063
    41 0.000000 -0.996223 0.000001 -1.199038 0.000000 0.000000
    42 -0.000001 -0.614689 0.000001 -1.062893 0.000000 0.000000
    43 -0.308254 -0.007814 0.307165 -0.181399 -0.369377 -2.311048
    44 1.978378 0.019545 -0.000001 0.042951 -0.179887 0.769158
    45 0.982425 0.003186 0.000000 0.000000 0.000000 1.090793
  time 8
    0 6.357837 2.201599 -6.712578 5.527738 -1.335708 -5.735321
    1 -0.001603 -8.561233 -0.002571 0.347162 -0.126165 -0.166870
    2 -1.047996 -2.317996 0.654462 -1.246991 1.437608 -1.233761
    3 0.000000 0.743005 1.588492 0.000000 0.000000 0.000000
    4 0.000000 3.192657 2.044578 0.000000 0.000000 0.000000
    5 0.000000 1.878595 2.044578 0.000000 0.000000 0.000000
    6 0.000000 -1.193740 0.407971 0.000000 0.000000 0.000000
    7 -0.019827 -0.426563 4.971295 1.570796 -2.819079 -1.570766
    8 0.276650 -3.399288 5.573969 1.549288 -0.753838 0.032689
    9 1.704292 0.000000 0.000000 0.000000 -0.296909 0.048831
    10 -0.248656 -3.399303 5.551128 1.407195 -2.480944 0.262823
    11 1.839642 0.000000 0.000000 0.176139 -0.438559 2.289515
    12 -0.003480 -0.404829 0.000000 0.000000 0.000000 0.000000
    13 -0.519309 -2.501156 -0.278957 -1.490008 -0.039729 -0.147496
    14 -0.010598 -1.208185 -0.000001 -0.928524 0.000000 0.000000
    15 0.000000 -0.763066 0.000001 -0.956441 0.000000 0.000000
    16 0.105981 -2.607135 -0.278958 -1.202940 -0.083077 -0.180316
    17 -0.000001 -1.250581 -0.000002 -1.029748 0.000000 0.000000
    18 0.000000 -0.932634 0.000000 -1.190315 0.000000 0.000000
    19 0.763064 -2.490556 -0.278958 -0.437931 -0.010738 0.101382
    20 -0.012323 -1.280918 0.000000 -1.034191 0.000000 0.000000
    21 -0.001697 -0.749372 -0.000001 -0.760965 0.000000 0.000000
    22 0.354567 0.016267 0.318132 0.481123 -0.565734 -1.019906
    23 1.887165 0.012877 0.000000 -0.301131 -0.051917 -0.567029
    24 1.001875 -0.000270 0.000000 0.000000 0.000000 -1.022754
    25 -1.123360 -2.195094 -0.278958 -1.567306 0.000000 -0.087266
    26 0.010771 -0.963791 0.000000 -1.213004 0.000000 0.000000
    27 -0.010412 -0.631916 0.000000 -1.197304 0.000000 0.000000
    28 -0.741723 -3.552605 -9.486912 0.819338 2.193378 1.203467
    29 0.089929 -8.543166 0.000000 0.105670 -0.167915 0.386783
    30 0.000000 -0.359714 0.000000 0.000000 0.000000 0.000000
    31 -0.170479 -2.636146 -0.277655 -1.750535 0.000000 0.000000
    32 0.010599 -1.261177 0.000001 -0.342077 0.000000 0.000000
    33 -0.000001 -0.943233 0.000001 -0.961659 0.000000 0.000000
    34 -0.827563 -2.508972 -0.277656 -1.480020 0.000000 0.000000
    35 0.000000 -1.292971 0.000001 -0.979101 0.000000 0.000000
    36 0.000000 -0.752466 0.000001 -0.502647 0.000000 0.000000
    37 0.444213 -2.561960 -0.277655 -1.748213 -0.046885 -0.024335
    38 0.021022 -1.208185 -0.000001 -0.322909 0.000000 0.000000
    39 0.010597 -0.741867 0.000000 -0.877897 0.000000 0.000000
    40 1.047444 -2.222821 -0.277655 -1.581386 -0.083393 -0.037063
    41 0.000000 -0.996223 0.000001 -1.199038 0.000000 0.000000
    42 -0.000001 -0.614689 0.000001 -1.062893 0.000000 0.000000
    43 -0.308254 -0.007814 0.307165 -0.181399 -0.369377 -2.311048
    44 1.978378 0.019545 -0.000001 0.042951 -0.179887 0.769158
    45 0.982425 0.003186 0.000000 0.000000 0.000000 1.090793
  time 9
    0 6.357837 2.170348 -6.700859 5.523800 -1.334831 -5.731276
    1 -0.001603 -8.561233 -0.002571 0.347254 -0.125933 -0.167545
    2 -1.047996 -2.317996 0.654462 -1.246991 1.437608 -1.233761
    3 0.000000 0.743005 1.588492 0.000000 0.000000 0.000000
    4 0.000000 3.192657 2.044578 0.000000 0.000000 0.000000
    5 0.000000 1.878595 2.044578 0.000000 0.000000 0.000000
    6 0.000000 -1.252335 0.407971 0.000000 0.000000 0.000000
    7 -0.019827 -0.426563 4.971295 1.570796 -2.867135 -1.570766
    8 0.276650 -3.399288 5.573969 1.588197 -0.761547 -0.025254
    9 1.704292 0.000000 0.000000 0.000000 -0.350249 0.048831
    10 -0.248656 -3.399303 5.551128 1.407195 -2.480944 0.262823
    11 1.839642 0.000000 0.000000 0.035512 -0.399073 2.384134
    12 -0.003480 -0.404829 0.000000 0.000000 0.000000 0.000000
    13 -0.519309 -2.501156 -0.278957 -1.490008 -0.039729 -0.147496
    14 -0.010598 -1.208185 -0.000001 -0.928524 0.000000 0.000000
    15 0.000000 -0.763066 0.000001 -0.956441 0.000000 0.000000
    16 0.105981 -2.607135 -0.278958 -1.202940 -0.083077 -0.180316
    17 -0.000001 -1.250581 -0.000002 -1.029748 0.000000 0.000000
    18 0.000000 -0.932634 0.000000 -1.190315 0.000000 0.000000
    19 0.763064 -2.490556 -0.278958 -0.415663 -0.010738 0.101382
    20 -0.012323 -1.280918 0.000000 -0.968849 0.000000 0.000000
    21 -0.001697 -0.749372 -0.000001 -0.774059 0.000000 0.000000
    22 0.354567 0.016267 0.318132 0.484263 -0.563121 -1.025791
    23 1.887165 0.012877 0.000000 -0.300232 -0.056951 -0.583256
    24 1.001875 -0.000270 0.000000 0.000000 0.000000 -0.975293
    25 -1.123360 -2.195094 -0.278958 -1.567306 0.000000 -0.087266
    26 0.010771 -0.963791 0.000000 -1.213004 0.000000 0.000000
    27 -0.010412 -0.631916 0.000000 -1.197304 0.000000 0.000000
    28 -0.741723 -3.642451 -9.471287 0.816091 2.190983 1.199649
    29 0.089929 -8.543166 0.000000 0.109789 -0.165263 0.361964
    30 0.000000 -0.359714 0.000000 0.000000 0.000000 0.000000
    31 -0.170479 -2.636146 -0.277655 -1.750535 0.000000 0.000000
    32 0.010599 -1.261177 0.000001 -0.342077 0.000000 0.000000
    33 -0.000001 -0.943233 0.000001 -0.961659 0.000000 0.000000
    34 -0.827563 -2.508972 -0.277656 -1.480020 0.000000 0.000000
    35 0.000000 -1.292971 0.000001 -0.979101 0.000000 0.000000
    36 0.000000 -0.752466 0.000001 -0.502647 0.000000 0.000000
    37 0.444213 -2.561960 -0.277655 -1.748213 -0.046885 -0.024335
    38 0.021022 -1.208185 -0.000001 -0.322909 0.000000 0.000000
    39 0.010597 -0.741867 0.000000 -0.877897 0.000000 0.000000
    40 1.047444 -2.222821 -0.277655 -1.581386 -0.083393 -0.037063
    41 0.000000 -0.996223 0.000001 -1.199038 0.000000 0.000000
    42 -0.000001 -0.614689 0.000001 -1.062893 0.000000 0.000000
    43 -0.308254 -0.007814 0.307165 -0.181399 -0.369377 -2.311048
    44 1.978378 0.019545 -0.000001 0.042951 -0.179887 0.769158
    45 0.982425 0.003186 0.000000 0.000000 0.000000 1.090793
  time 10
    0 6.357837 2.154723 -6.693046 5.518175 -1.333555 -5.725484
    1 -0.001603 -8.561233 -0.002571 0.347310 -0.125765 -0.167969
    2 -1.047996 -2.317996 0.654462 -1.246991 1.437608 -1.233761
    3 0.000000 0.743005 1.588492 0.000000 0.000000 0.000000
    4 0.000000 3.192657 2.044578 0.000000 0.000000 0.000000
    5 0.000000 1.878595 2.044578 0.000000 0.000000 0.000000
    6 0.000000 -1.318744 0.407971 0.000000 0.000000 0.000000
    7 -0.019827 -0.426563 4.971295 1.570796 -2.849031 -1.570766
    8 0.276650 -3.399288 5.573969 1.582045 -0.761686 -0.016314
    9 1.704292 0.000000 0.000000 0.000000 -0.319985 0.048831
    10 -0.248656 -3.399303 5.551128 1.407195 -2.480944 0.262823
    11 1.839642 0.000000 0.000000 -0.018965 -0.383772 2.420870
    12 -0.003480 -0.404829 0.000000 0.000000 0.000000 0.000000
    13 -0.519309 -2.501156 -0.278957 -1.490008 -0.039729 -0.147496
    14 -0.010598 -1.208185 -0.000001 -0.928524 0.000000 0.000000
    15 0.000000 -0.763066 0.000001 -0.956441 0.000000 0.000000
    16 0.105981 -2.607135 -0.278958 -1.202940 -0.083077 -0.180316
    17 -0.000001 -1.250581 -0.000002 -1.029748 0.000000 0.000000
    18 0.000000 -0.932634 0.000000 -1.190315 0.000000 0.000000
    19 0.763064 -2.490556 -0.278958 -0.392725 -0.010738 0.101382
    20 -0.012323 -1.280918 0.000000 -0.898437 0.000000 0.000000
    21 -0.001697 -0.749372 -0.000001 -0.795871 0.000000 0.000000
    22 0.354567 0.016267 0.318132 0.487618 -0.560305 -1.032095
    23 1.887165 0.012877 0.000000 -0.299070 -0.062943 -0.602683
    24 1.001875 -0.000270 0.000000 0.000000 0.000000 -0.896199
    25 -1.123360 -2.195094 -0.278958 -1.567306 0.000000 -0.087266
    26 0.010771 -0.963791 0.000000 -1.213004 0.000000 0.000000
    27 -0.010412 -0.631916 0.000000 -1.197304 0.000000 0.000000
    28 -0.741723 -3.681515 -9.451755 0.813704 2.189164 1.196679
    29 0.089929 -8.543166 0.000000 0.114178 -0.162288 0.335169
    30 0.000000 -0.359714 0.000000 0.000000 0.000000 0.000000
    31 -0.170479 -2.636146 -0.277655 -1.750535 0.000000 0.000000
    32 0.010599 -1.261177 0.000001 -0.342077 0.000000 0.000000
    33 -0.000001 -0.943233 0.000001 -0.961659 0.000000 0.000000
    34 -0.827563 -2.508972 -0.277656 -1.480020 0.000000 0.000000
    35 0.000000 -1.292971 0.000001 -0.979101 0.000000 0.000000
    36 0.000000 -0.752466 0.000001 -0.502647 0.000000 0.000000
    37 0.444213 -2.561960 -0.277655 -1.748213 -0.046885 -0.024335
    38 0.021022 -1.208185 -0.000001 -0.322909 0.000000 0.000000
    39 0.010597 -0.741867 0.000000 -0.877897 0.000000 0.000000
    40 1.047444 -2.222821 -0.277655 -1.581386 -0.083393 -0.037063
    41 0.000000 -0.996223 0.000001 -1.199038 0.000000 0.000000
    42 -0.000001 -0.614689 0.000001 -1.062893 0.000000 0.000000
    43 -0.308254 -0.007814 0.307165 -0.181399 -0.369377 -2.311048
    44 1.978378 0.019545 -0.000001 0.042951 -0.179887 0.769158
    45 0.982425 0.003186 0.000000 0.000000 0.000000 1.090793
  time 11
    0 6.357837 2.150816 -6.689140 5.512738 -1.332279 -5.719785
    1 -0.001603 -8.561233 -0.002571 0.347384 -0.125576 -0.168518
    2 -1.047996 -2.317996 0.654462 -1.246991 1.437608 -1.233761
    3 0.000000 0.743005 1.588492 0.000000 0.000000 0.000000
    4 0.000000 3.192657 2.044578 0.000000 0.000000 0.000000
    5 0.000000 1.878595 2.044578 0.000000 0.000000 0.000000
    6 0.000000 -1.400777 0.407971 0.000000 0.000000 0.000000
    7 -0.019827 -0.426563 4.971295 1.570796 -2.815383 -1.570766
    8 0.276650 -3.399288 5.573969 1.570632 -0.761686 0.000289
    9 1.704292 0.000000 0.000000 0.000000 -0.263792 0.048831
    10 -0.248656 -3.399303 5.551128 1.407195 -2.480944 0.262823
    11 1.839642 0.000000 0.000000 -0.003903 -0.383916 2.380610
    12 -0.003480 -0.404829 0.000000 0.000000 0.000000 0.000000
    13 -0.519309 -2.501156 -0.278957 -1.490008 -0.039729 -0.147496
    14 -0.010598 -1.208185 -0.000001 -0.928524 0.000000 0.000000
    15 0.000000 -0.763066 0.000001 -0.956441 0.000000 0.000000
    16 0.105981 -2.607135 -0.278958 -1.202940 -0.083077 -0.180316
    17 -0.000001 -1.250581 -0.000002 -1.029748 0.000000 0.000000
    18 0.000000 -0.932634 0.000000 -1.190315 0.000000 0.000000
    19 0.763064 -2.490556 -0.278958 -0.370122 -0.010738 0.101382
    20 -0.012323 -1.280918 0.000000 -0.828025 0.000000 0.000000
    21 -0.001697 -0.749372 -0.000001 -0.821184 0.000000 0.000000
    22 0.354567 0.016267 0.318132 0.490974 -0.557477 -1.038386
    23 1.887165 0.012877 0.000000 -0.297739 -0.069151 -0.622913
    24 1.001875 -0.000270 0.000000 0.000000 0.000000 -0.804479
    25 -1.123360 -2.195094 -0.278958 -1.567306 0.000000 -0.087266
    26 0.010771 -0.963791 0.000000 -1.213004 0.000000 0.000000
    27 -0.010412 -0.631916 0.000000 -1.197304 0.000000 0.000000
    28 -0.741723 -3.669796 -9.432223 0.811412 2.187344 1.193770
    29 0.089929 -8.543166 0.000000 0.118469 -0.159190 0.308258
    30 0.000000 -0.359714 0.000000 0.000000 0.000000 0.000000
    31 -0.170479 -2.636146 -0.277655 -1.750535 0.000000 0.000000
    32 0.010599 -1.261177 0.000001 -0.342077 0.000000 0.000000
    33 -0.000001 -0.943233 0.000001 -0.961659 0.000000 0.000000
    34 -0.827563 -2.508972 -0.277656 -1.480020 0.000000 0.000000
    35 0.000000 -1.292971 0.000001 -0.979101 0.000000 0.000000
    36 0.000000 -0.752466 0.000001 -0.502647 0.000000 0.000000
    37 0.444213 -2.561960 -0.277655 -1.748213 -0.046885 -0.024335
    38 0.021022 -1.208185 -0.000001 -0.322909 0.000000 0.000000
    39 0.010597 -0.741867 0.000000 -0.877897 0.000000 0.000000
    40 1.047444 -2.222821 -0.277655 -1.581386 -0.083393 -0.037063
    41 0.000000 -0.996223 0.000001 -1.199038 0.000000 0.000000
    42 -0.000001 -0.614689 0.000001 -1.062893 0.000000 0.000000
    43 -0.308254 -0.007814 0.307165 -0.181399 -0.369377 -2.311048
    44 1.978378 0.019545 -0.000001 0.042951 -0.179887 0.769158
    45 0.982425 0.003186 0.000000 0.000000 0.000000 1.090793
  time 12
    0 6.357837 2.166442 -6.693046 5.508894 -1.331322 -5.715832
    1 -0.001603 -8.561233 -0.002571 0.347496 -0.125219 -0.169569
    2 -1.047996 -2.317996 0.654462 -1.246991 1.437608 -1.233761
    3 0.000000 0.743005 1.588492 0.000000 0.000000 0.000000
    4 0.000000 3.192657 2.044578 0.000000 0.000000 0.000000
    5 0.000000 1.878595 2.044578 0.000000 0.000000 0.000000
    6 0.000000 -1.490624 0.407971 0.000000 0.000000 0.000000
    7 -0.019827 -0.426563 4.971295 1.570796 -2.797374 -1.570766
    8 0.276650 -3.399288 5.573969 1.564481 -0.761686 0.009181
    9 1.704292 0.000000 0.000000 0.000000 -0.233555 0.048831
    10 -0.248656 -3.399303 5.551128 1.407195 -2.480944 0.262823
    11 1.839642 0.000000 0.000000 0.011159 -0.384060 2.340417
    12 -0.003480 -0.404829 0.000000 0.000000 0.000000 0.000000
    13 -0.519309 -2.501156 -0.278957 -1.490008 -0.039729 -0.147496
    14 -0.010598 -1.208185 -0.000001 -0.928524 0.000000 0.000000
    15 0.000000 -0.763066 0.000001 -0.956441 0.000000 0.000000
    16 0.105981 -2.607135 -0.278958 -1.202940 -0.083077 -0.180316
    17 -0.000001 -1.250581 -0.000002 -1.029748 0.000000 0.000000
    18 0.000000 -0.932634 0.000000 -1.190315 0.000000 0.000000
    19 0.763064 -2.490556 -0.278958 -0.348897 -0.010738 0.101382
    20 -0.012323 -1.280918 0.000000 -0.762700 0.000000 0.000000
    21 -0.001697 -0.749372 -0.000001 -0.844729 0.000000 0.000000
    22 0.354567 0.016267 0.318132 0.494018 -0.554828 -1.044175
    23 1.887165 0.012877 0.000000 -0.296409 -0.074844 -0.641561
    24 1.001875 -0.000270 0.000000 0.000000 0.000000 -0.719066
    25 -1.123360 -2.195094 -0.278958 -1.567306 0.000000 -0.087266
    26 0.010771 -0.963791 0.000000 -1.213004 0.000000 0.000000
    27 -0.010412 -0.631916 0.000000 -1.197304 0.000000 0.000000
    28 -0.741723 -3.611200 -9.404878 0.808356 2.185141 1.190133
    29 0.089929 -8.543166 0.000000 0.122392 -0.156191 0.283119
    30 0.000000 -0.359714 0.000000 0.000000 0.000000 0.000000
    31 -0.170479 -2.636146 -0.277655 -1.750535 0.000000 0.000000
    32 0.010599 -1.261177 0.000001 -0.342077 0.000000 0.000000
    33 -0.000001 -0.943233 0.000001 -0.961659 0.000000 0.000000
    34 -0.827563 -2.508972 -0.277656 -1.480020 0.000000 0.000000
    35 0.000000 -1.292971 0.000001 -0.979101 0.000000 0.000000
    36 0.000000 -0.752466 0.000001 -0.502647 0.000000 0.000000
    37 0.444213 -2.561960 -0.277655 -1.748213 -0.046885 -0.024335
    38 0.021022 -1.208185 -0.000001 -0.322909 0.000000 0.000000
    39 0.010597 -0.741867 0.000000 -0.877897 0.000000 0.000000
    40 1.047444 -2.222821 -0.277655 -1.581386 -0.083393 -0.037063
    41 0.000000 -0.996223 0.000001 -1.199038 0.000000 0.000000
    42 -0.000001 -0.614689 0.000001 -1.062893 0.000000 0.000000
    43 -0.308254 -0.007814 0.307165 -0.181399 -0.369377 -2.311048
    44 1.978378 0.019545 -0.000001 0.042951 -0.179887 0.769158
    45 0.982425 0.003186 0.000000 0.000000 0.000000 1.090793
end
