version 1
nodes
  0 "Bone04" -1
  1 "Bone_Righthand" 0
  2 "NEXON_CSO_JKnife_Root" 1
  3 "Plane02" 2
  4 "Bone27" 1
  5 "Bone28" 4
  6 "Bone29" 5
  7 "Bone31" 1
  8 "Bone32" 7
  9 "Bone33" 8
  10 "Bone35" 1
  11 "Bone36" 10
  12 "Bone37" 11
  13 "Bone39" 1
  14 "Bone40" 13
  15 "Bone41" 14
  16 "Bone43" 1
  17 "Bone44" 16
  18 "Bone45" 17
  19 "Bone_Se_Hand-R" 1
  20 "Bone01" -1
  21 "Bone_Lefthand" 20
  22 "Bone05" 21
  23 "Bone06" 22
  24 "Bone07" 23
  25 "Bone21" 21
  26 "Bone22" 25
  27 "Bone23" 26
  28 "Bone17" 21
  29 "Bone18" 28
  30 "Bone19" 29
  31 "Bone13" 21
  32 "Bone14" 31
  33 "Bone15" 32
  34 "Bone09" 21
  35 "Bone10" 34
  36 "Bone11" 35
  37 "Bone_Se_Hand-L" 21
end
skeleton
  time 0
    0 -10.618523 -0.975081 -8.032327 0.435867 -2.653527 0.252869
    1 0.096946 -8.450419 -0.009363 -0.160372 -0.393060 0.510475
    2 -1.377217 -2.745359 0.715276 0.005971 3.115427 0.315588
    3 3.183929 -0.085375 0.002823 -1.570796 0.000000 0.000000
    4 -0.586769 -1.264477 0.200164 -0.117873 -0.770970 -2.714936
    5 1.522835 0.058679 0.016851 0.136897 -0.381034 0.952664
    6 1.117948 0.048424 -0.005765 0.238514 -0.262532 1.209644
    7 -0.963867 -2.785143 -0.085346 -0.512029 0.106644 -0.036720
    8 0.028478 -1.403067 0.006271 -1.544402 0.000000 0.000000
    9 0.021413 -0.957782 0.020047 -0.916381 0.000000 0.000000
    10 -0.249535 -2.846963 -0.174215 -0.771061 -0.026052 0.072745
    11 0.043234 -1.683940 0.096014 -2.044952 0.000000 0.000000
    12 0.031729 -1.160831 0.058837 -1.178609 0.000000 0.000000
    13 0.447951 -2.798983 -0.200441 -1.037933 -0.008006 0.159009
    14 -0.032909 -1.480207 0.004936 -1.835243 0.000000 0.000000
    15 -0.027023 -1.076921 -0.020212 -0.976443 0.000000 0.000000
    16 1.164474 -2.543939 -0.170327 -1.065875 -0.149891 0.112546
    17 0.024032 -1.129040 0.017806 -1.422457 0.000000 0.000000
    18 0.014896 -0.883992 -0.019845 -0.820590 0.000000 0.000000
    19 0.032481 -0.135136 -0.036385 0.291051 -0.135012 1.394863
    20 8.768051 0.924424 -10.304347 0.624732 -3.340376 -0.187244
    21 -0.071917 -8.498731 -0.104136 0.093894 0.433809 -0.139426
    22 0.583509 -1.197273 0.185379 0.091468 -0.455004 -0.782157
    23 1.535926 0.010247 0.005008 -0.476115 -0.197263 -0.555147
    24 1.100770 0.004527 -0.010675 -0.017094 0.119073 -0.303596
    25 0.957766 -2.746777 -0.090301 -0.059557 0.016814 0.140568
    26 -0.033419 -1.397128 -0.011256 -1.167143 0.000000 0.000000
    27 -0.022361 -0.957434 0.018783 -0.528151 0.000000 0.000000
    28 0.250028 -2.820664 -0.238397 -0.515190 0.076760 -0.161114
    29 -0.049759 -1.680544 0.100479 -1.289599 0.049505 -0.014373
    30 -0.034141 -1.148311 0.084778 -0.747872 0.000000 0.000000
    31 -0.488517 -2.755599 -0.228262 -0.690791 0.097106 -0.216295
    32 0.039889 -1.479791 0.029852 -1.347548 0.000000 0.000000
    33 0.028785 -1.075733 -0.023111 -0.288921 0.000000 0.000000
    34 -1.180679 -2.507215 -0.193862 -0.690903 0.327071 -0.388124
    35 -0.024967 -1.123934 0.017594 -0.903361 0.003607 -0.034700
    36 -0.020058 -0.890964 0.010091 -0.770842 0.000000 0.000000
    37 0.120152 -0.050267 -0.054489 0.287569 3.110905 1.561085
  time 1
    0 -10.618523 -0.975081 -8.032327 0.435867 -2.653527 0.252869
    1 0.096946 -8.450419 -0.009363 -0.160372 -0.393060 0.510475
    2 -1.377217 -2.745359 0.715276 0.005971 3.115427 0.315588
    3 3.183929 -0.085375 0.002823 -1.570796 0.000000 0.000000
    4 -0.586769 -1.264477 0.200164 -0.117873 -0.770970 -2.714936
    5 1.522835 0.058679 0.016851 0.136897 -0.381034 0.952664
    6 1.117948 0.048424 -0.005765 0.238514 -0.262532 1.209644
    7 -0.963867 -2.785143 -0.085346 -0.512029 0.106644 -0.036720
    8 0.028478 -1.403067 0.006271 -1.544402 0.000000 0.000000
    9 0.021413 -0.957782 0.020047 -0.916381 0.000000 0.000000
    10 -0.249535 -2.846963 -0.174215 -0.771061 -0.026052 0.072745
    11 0.043234 -1.683940 0.096014 -2.044952 0.000000 0.000000
    12 0.031729 -1.160831 0.058837 -1.178609 0.000000 0.000000
    13 0.447951 -2.798983 -0.200441 -1.037933 -0.008006 0.159009
    14 -0.032909 -1.480207 0.004936 -1.835243 0.000000 0.000000
    15 -0.027023 -1.076921 -0.020212 -0.976443 0.000000 0.000000
    16 1.164474 -2.543939 -0.170327 -1.065875 -0.149891 0.112546
    17 0.024032 -1.129040 0.017806 -1.422457 0.000000 0.000000
    18 0.014896 -0.883992 -0.019845 -0.820590 0.000000 0.000000
    19 0.032481 -0.135136 -0.036385 0.291051 -0.135012 1.394863
    20 8.768051 0.924424 -10.304347 0.624732 -3.340376 -0.187244
    21 -0.071917 -8.498731 -0.104136 0.093894 0.433809 -0.139426
    22 0.583509 -1.197273 0.185379 0.091468 -0.455004 -0.782157
    23 1.535926 0.010247 0.005008 -0.476115 -0.197263 -0.555147
    24 1.100770 0.004527 -0.010675 -0.017094 0.119073 -0.303596
    25 0.957766 -2.746777 -0.090301 -0.059557 0.016814 0.140568
    26 -0.033419 -1.397128 -0.011256 -1.167143 0.000000 0.000000
    27 -0.022361 -0.957434 0.018783 -0.528151 0.000000 0.000000
    28 0.250028 -2.820664 -0.238397 -0.515190 0.076760 -0.161114
    29 -0.049759 -1.680544 0.100479 -1.289599 0.049505 -0.014373
    30 -0.034141 -1.148311 0.084778 -0.747872 0.000000 0.000000
    31 -0.488517 -2.755599 -0.228262 -0.690791 0.097106 -0.216295
    32 0.039889 -1.479791 0.029852 -1.347548 0.000000 0.000000
    33 0.028785 -1.075733 -0.023111 -0.288921 0.000000 0.000000
    34 -1.180679 -2.507215 -0.193862 -0.690903 0.327071 -0.388124
    35 -0.024967 -1.123934 0.017594 -0.903361 0.003607 -0.034700
    36 -0.020058 -0.890964 0.010091 -0.770842 0.000000 0.000000
    37 0.120152 -0.050267 -0.054489 0.287569 3.110905 1.561085
end
