// Created by Crowbar 0.34.0.0

$ModelName "weapons/tfa_cso/w_m3_dragon.mdl"

$BodyGroup "studio"
{
	studio "v_m3dragon_m3_dragon2.smd"
}

$collisionmodel "v_m3dragon_m3_dragon2.smd"
{
	$mass 9
}

$CDMaterials "models\weapons\tfa_cso\m3_dragon\"

$attachment "0" "root" 0.00 -12.00 0.30 rotate -0 0 0

$Sequence "idle" {
	"anims\idle.smd"
	fps 30
}