version 1
nodes
  0 "Bone01" -1
  1 "Bone_Lefthand" 0
  2 "Pyramid01" 1
  3 "CSO_GuaDo" 2
  4 "Bone04" -1
  5 "Bone_Righthand" 4
  6 "Bone27" 5
  7 "Bone28" 6
  8 "Bone29" 7
  9 "Bone31" 5
  10 "Bone32" 9
  11 "Bone33" 10
  12 "Bone35" 5
  13 "Bone36" 12
  14 "Bone37" 13
  15 "Bone39" 5
  16 "Bone40" 15
  17 "Bone41" 16
  18 "Bone43" 5
  19 "Bone44" 18
  20 "Bone45" 19
  21 "Bone_Se_Hand-R" 5
  22 "Bone05" 1
  23 "Bone06" 22
  24 "Bone07" 23
  25 "Bone21" 1
  26 "Bone22" 25
  27 "Bone23" 26
  28 "Bone17" 1
  29 "Bone18" 28
  30 "Bone19" 29
  31 "Bone13" 1
  32 "Bone14" 31
  33 "Bone15" 32
  34 "Bone09" 1
  35 "Bone10" 34
  36 "Bone11" 35
  37 "Bone_Se_Hand-L" 1
end
skeleton
  time 0
    0 4.322603 -5.462489 -8.944930 -1.059135 0.696882 -2.913674
    1 -0.071917 -8.498731 -0.104136 0.606372 1.050112 0.911104
    2 1.670212 -3.366861 0.894589 -1.513957 3.033171 1.261427
    3 0.000000 -0.000001 -0.000001 0.000000 0.000000 0.000000
    4 -7.357134 -5.347108 -9.740572 0.600769 3.413342 1.107865
    5 0.096946 -8.450418 -0.009364 -0.762949 -0.327141 0.244742
    6 -0.586769 -1.264477 0.200164 -0.311827 -0.632677 -2.691549
    7 1.522835 0.058680 0.016850 0.551089 -0.219919 0.477425
    8 1.117948 0.048425 -0.005765 0.063375 -0.105357 0.627234
    9 -0.963866 -2.785142 -0.085346 -0.154146 0.041171 -0.106335
    10 0.028478 -1.403067 0.006272 -0.253978 0.000000 0.000000
    11 0.021414 -0.957782 0.020047 -0.159810 -0.000001 0.000005
    12 -0.249534 -2.846962 -0.174215 -0.387972 -0.016238 0.013051
    13 0.043234 -1.683940 0.096015 -0.653911 0.000000 0.000000
    14 0.031728 -1.160830 0.058837 -0.655902 0.000000 0.000000
    15 0.447951 -2.798983 -0.200441 -0.643142 0.020331 -0.016354
    16 -0.032909 -1.480207 0.004936 -0.805660 0.000000 0.000000
    17 -0.027023 -1.076920 -0.020212 -0.631665 0.000000 0.000000
    18 1.164475 -2.543938 -0.170327 -1.075042 -0.027809 -0.008918
    19 0.024032 -1.129040 0.017806 -0.927334 0.000000 0.000000
    20 0.014896 -0.883991 -0.019846 -0.523625 0.000000 0.000000
    21 -0.143140 -0.112350 0.013004 0.301414 -0.380325 1.465932
    22 0.583510 -1.197274 0.185379 -0.010434 -0.280810 -0.577392
    23 1.535926 0.010246 0.005009 -0.122818 0.029065 -0.357307
    24 1.100770 0.004527 -0.010676 0.052265 0.108389 0.289798
    25 0.957766 -2.746777 -0.090301 -0.136932 0.016814 0.140559
    26 -0.033419 -1.397127 -0.011256 -1.731003 0.000000 0.000000
    27 -0.022361 -0.957433 0.018783 -1.056813 0.000000 0.000000
    28 0.250029 -2.820664 -0.238397 -0.592579 0.076756 -0.161122
    29 -0.049759 -1.680544 0.100480 -1.853482 0.049496 -0.014370
    30 -0.034141 -1.148310 0.084780 -1.276564 0.000000 0.000000
    31 -0.488516 -2.755600 -0.228262 -0.768171 0.097106 -0.216302
    32 0.039889 -1.479791 0.029853 -1.911424 0.000000 0.000000
    33 0.028785 -1.075732 -0.023111 -0.817580 0.000000 0.000000
    34 -1.180679 -2.507217 -0.193861 -0.768285 0.327066 -0.388117
    35 -0.024967 -1.123934 0.017594 -1.467253 0.003595 -0.034695
    36 -0.020058 -0.890965 0.010092 -1.299509 0.000000 0.000000
    37 0.120153 -0.050267 -0.054488 0.287569 3.110905 1.561085
  time 1
    0 3.291322 -4.864815 -8.858990 -1.264682 0.688144 -2.992034
    1 -0.071917 -8.498731 -0.104136 0.677243 1.131565 0.908560
    2 1.662400 -2.870752 0.937559 -1.501788 3.046238 1.404158
    3 0.000000 -0.000001 -0.000001 0.000000 0.000000 0.000000
    4 -7.474325 -5.386172 -9.635100 0.609982 3.407399 1.112609
    5 0.096946 -8.450418 -0.009364 -0.756539 -0.323837 0.208969
    6 -0.586769 -1.264477 0.200164 -0.307568 -0.617158 -2.693112
    7 1.522835 0.058680 0.016850 0.553171 -0.199072 0.445359
    8 1.117948 0.048425 -0.005765 0.066995 -0.099233 0.565215
    9 -0.963866 -2.785142 -0.085346 -0.140976 0.041387 -0.112147
    10 0.028478 -1.403067 0.006272 -0.235252 0.000000 0.000000
    11 0.021414 -0.957782 0.020047 -0.134781 -0.000001 0.000005
    12 -0.249534 -2.846962 -0.174215 -0.348802 -0.016789 0.011481
    13 0.043234 -1.683940 0.096015 -0.594415 0.000000 0.000000
    14 0.031728 -1.160830 0.058837 -0.598152 0.000000 0.000000
    15 0.447951 -2.798983 -0.200441 -0.594499 0.020259 0.003409
    16 -0.032909 -1.480207 0.004936 -0.731480 0.000000 0.000000
    17 -0.027023 -1.076920 -0.020212 -0.571920 0.000000 0.000000
    18 1.164475 -2.543938 -0.170327 -0.986560 -0.028264 0.016018
    19 0.024032 -1.129040 0.017806 -0.866722 0.000000 0.000000
    20 0.014896 -0.883991 -0.019846 -0.473778 0.000000 0.000000
    21 -0.139233 -0.112350 0.013004 0.301414 -0.380325 1.465932
    22 0.583510 -1.197274 0.185379 -0.018381 -0.282643 -0.572861
    23 1.535926 0.010246 0.005009 -0.128558 0.034758 -0.345951
    24 1.100770 0.004527 -0.010676 0.052073 0.106016 0.288786
    25 0.957766 -2.746777 -0.090301 -0.136932 0.016814 0.140559
    26 -0.033419 -1.397127 -0.011256 -1.731003 0.000000 0.000000
    27 -0.022361 -0.957433 0.018783 -1.056813 0.000000 0.000000
    28 0.250029 -2.820664 -0.238397 -0.592579 0.076756 -0.161122
    29 -0.049759 -1.680544 0.100480 -1.853482 0.049496 -0.014370
    30 -0.034141 -1.148310 0.084780 -1.276564 0.000000 0.000000
    31 -0.488516 -2.755600 -0.228262 -0.768171 0.097106 -0.216302
    32 0.039889 -1.479791 0.029853 -1.911424 0.000000 0.000000
    33 0.028785 -1.075732 -0.023111 -0.817580 0.000000 0.000000
    34 -1.180679 -2.507217 -0.193861 -0.768285 0.327066 -0.388117
    35 -0.024967 -1.123934 0.017594 -1.467253 0.003595 -0.034695
    36 -0.020058 -0.890965 0.010092 -1.299509 0.000000 0.000000
    37 0.120153 -0.050267 -0.054488 0.290349 3.110905 1.561085
  time 2
    0 2.470984 -4.399957 -8.749612 -1.438549 0.676390 -3.060447
    1 -0.071917 -8.498731 -0.104136 0.724585 1.187508 0.892123
    2 1.654587 -2.444958 0.972716 -1.491044 3.057612 1.530999
    3 0.000000 -0.000001 -0.000001 0.000000 0.000000 0.000000
    4 -7.782928 -5.460393 -9.365561 0.630207 3.393021 1.114476
    5 0.096946 -8.450418 -0.009364 -0.737625 -0.316610 0.121825
    6 -0.586769 -1.264477 0.200164 -0.296922 -0.578335 -2.697037
    7 1.522835 0.058680 0.016850 0.558413 -0.146920 0.365153
    8 1.117948 0.048425 -0.005765 0.076055 -0.083916 0.410118
    9 -0.963866 -2.785142 -0.085346 -0.107764 0.041962 -0.126673
    10 0.028478 -1.403067 0.006272 -0.188423 0.000000 0.000000
    11 0.021414 -0.957782 0.020047 -0.072153 -0.000001 0.000005
    12 -0.249534 -2.846962 -0.174215 -0.250903 -0.018191 0.007371
    13 0.043234 -1.683940 0.096015 -0.445790 0.000000 0.000000
    14 0.031728 -1.160830 0.058837 -0.453778 0.000000 0.000000
    15 0.447951 -2.798983 -0.200441 -0.472801 0.020067 0.052821
    16 -0.032909 -1.480207 0.004936 -0.545956 0.000000 0.000000
    17 -0.027023 -1.076920 -0.020212 -0.422507 0.000000 0.000000
    18 1.164475 -2.543938 -0.170327 -0.765309 -0.029391 0.078341
    19 0.024032 -1.129040 0.017806 -0.715214 0.000000 0.000000
    20 0.014896 -0.883991 -0.019846 -0.349204 0.000000 0.000000
    21 -0.139233 -0.112350 0.009098 0.301414 -0.380325 1.465932
    22 0.583510 -1.197274 0.185379 -0.040141 -0.287653 -0.560395
    23 1.535926 0.010246 0.005009 -0.144138 0.050230 -0.314887
    24 1.100770 0.004527 -0.010676 0.051534 0.099556 0.285818
    25 0.957766 -2.746777 -0.090301 -0.136932 0.016814 0.140559
    26 -0.033419 -1.397127 -0.011256 -1.731003 0.000000 0.000000
    27 -0.022361 -0.957433 0.018783 -1.056813 0.000000 0.000000
    28 0.250029 -2.820664 -0.238397 -0.592579 0.076756 -0.161122
    29 -0.049759 -1.680544 0.100480 -1.853482 0.049496 -0.014370
    30 -0.034141 -1.148310 0.084780 -1.276564 0.000000 0.000000
    31 -0.488516 -2.755600 -0.228262 -0.768171 0.097106 -0.216302
    32 0.039889 -1.479791 0.029853 -1.911424 0.000000 0.000000
    33 0.028785 -1.075732 -0.023111 -0.817580 0.000000 0.000000
    34 -1.180679 -2.507217 -0.193861 -0.768285 0.327066 -0.388117
    35 -0.024967 -1.123934 0.017594 -1.467253 0.003595 -0.034695
    36 -0.020058 -0.890965 0.010092 -1.299509 0.000000 0.000000
    37 0.120153 -0.050267 -0.054488 0.298019 3.110905 1.561085
  time 3
    0 1.861590 -4.075728 -8.612889 1.560479 -3.803260 0.022537
    1 -0.071917 -8.498731 -0.104136 0.748368 1.217980 0.861895
    2 1.650681 -2.085572 1.003967 -4.623207 0.074266 -1.499556
    3 0.000000 -0.000001 -0.000001 0.000000 0.000000 0.000000
    4 -8.216535 -5.487738 -9.025707 0.650155 3.375480 1.094876
    5 0.096946 -8.450418 -0.009364 -0.706784 -0.309567 0.013541
    6 -0.586769 -1.264477 0.200164 -0.283074 -0.527861 -2.702115
    7 1.522835 0.058680 0.016850 0.565217 -0.079096 0.260812
    8 1.117948 0.048425 -0.005765 0.087896 -0.064010 0.208465
    9 -0.963866 -2.785142 -0.085346 -0.063892 0.042694 -0.145560
    10 0.028478 -1.403067 0.006272 -0.127572 0.000000 0.000000
    11 0.021414 -0.957782 0.020047 0.009274 -0.000001 0.000005
    12 -0.249534 -2.846962 -0.174215 -0.123640 -0.020157 0.001654
    13 0.043234 -1.683940 0.096015 -0.252508 0.000000 0.000000
    14 0.031728 -1.160830 0.058837 -0.266111 0.000000 0.000000
    15 0.447951 -2.798983 -0.200441 -0.314577 0.019827 0.117059
    16 -0.032909 -1.480207 0.004936 -0.304784 0.000000 0.000000
    17 -0.027023 -1.076920 -0.020212 -0.228294 0.000000 0.000000
    18 1.164475 -2.543938 -0.170327 -0.477651 -0.030865 0.159363
    19 0.024032 -1.129040 0.017806 -0.518258 0.000000 0.000000
    20 0.014896 -0.883991 -0.019846 -0.187223 0.000000 0.000000
    21 -0.135327 -0.116256 0.009098 0.301414 -0.380325 1.465932
    22 0.583510 -1.197274 0.185379 -0.072710 -0.295155 -0.541753
    23 1.535926 0.010246 0.005009 -0.167086 0.073085 -0.268658
    24 1.100770 0.004527 -0.010676 0.050695 0.089968 0.281163
    25 0.957766 -2.746777 -0.090301 -0.136932 0.016814 0.140559
    26 -0.033419 -1.397127 -0.011256 -1.731003 0.000000 0.000000
    27 -0.022361 -0.957433 0.018783 -1.056813 0.000000 0.000000
    28 0.250029 -2.820664 -0.238397 -0.592579 0.076756 -0.161122
    29 -0.049759 -1.680544 0.100480 -1.853482 0.049496 -0.014370
    30 -0.034141 -1.148310 0.084780 -1.276564 0.000000 0.000000
    31 -0.488516 -2.755600 -0.228262 -0.768171 0.097106 -0.216302
    32 0.039889 -1.479791 0.029853 -1.911424 0.000000 0.000000
    33 0.028785 -1.075732 -0.023111 -0.817580 0.000000 0.000000
    34 -1.180679 -2.507217 -0.193861 -0.768285 0.327066 -0.388117
    35 -0.024967 -1.123934 0.017594 -1.467253 0.003595 -0.034695
    36 -0.020058 -0.890965 0.010092 -1.299509 0.000000 0.000000
    37 0.120153 -0.050267 -0.054488 0.309332 3.110905 1.561085
  time 4
    0 1.463141 -3.884316 -8.448821 1.449694 -3.785398 -0.025981
    1 -0.071917 -8.498731 -0.104136 0.748653 1.222982 0.817826
    2 1.646774 -1.796501 1.027405 -4.615126 0.066276 -1.404497
    3 0.000000 -0.000001 -0.000001 0.000000 0.000000 0.000000
    4 -8.704831 -5.397891 -8.701478 0.658674 3.359953 1.035456
    5 0.096946 -8.450418 -0.009364 -0.664438 -0.306791 -0.085652
    6 -0.586769 -1.264477 0.200164 -0.269227 -0.477412 -2.707192
    7 1.522835 0.058680 0.016850 0.572021 -0.011227 0.156391
    8 1.117948 0.048425 -0.005765 0.099844 -0.044104 0.006845
    9 -0.963866 -2.785142 -0.085346 -0.018827 0.043437 -0.164436
    10 0.028478 -1.403067 0.006272 -0.066721 0.000000 0.000000
    11 0.021414 -0.957782 0.020047 0.090702 -0.000001 0.000005
    12 -0.249534 -2.846962 -0.174215 0.003572 -0.022350 -0.004746
    13 0.043234 -1.683940 0.096015 -0.059179 0.000000 0.000000
    14 0.031728 -1.160830 0.058837 -0.078443 0.000000 0.000000
    15 0.447951 -2.798983 -0.200441 -0.156352 0.019588 0.181284
    16 -0.032909 -1.480207 0.004936 -0.063663 0.000000 0.000000
    17 -0.027023 -1.076920 -0.020212 -0.034081 0.000000 0.000000
    18 1.164475 -2.543938 -0.170327 -0.189993 -0.032327 0.240386
    19 0.024032 -1.129040 0.017806 -0.321301 0.000000 0.000000
    20 0.014896 -0.883991 -0.019846 -0.025285 0.000000 0.000000
    21 -0.135327 -0.116256 0.005191 0.299564 -0.373711 1.467467
    22 0.583510 -1.197274 0.185379 -0.113061 -0.304431 -0.518698
    23 1.535926 0.010246 0.005009 -0.194904 0.100913 -0.211737
    24 1.100770 0.004527 -0.010676 0.049628 0.078223 0.275091
    25 0.957766 -2.746777 -0.090301 -0.136932 0.016814 0.140559
    26 -0.033419 -1.397127 -0.011256 -1.731003 0.000000 0.000000
    27 -0.022361 -0.957433 0.018783 -1.056813 0.000000 0.000000
    28 0.250029 -2.820664 -0.238397 -0.592579 0.076756 -0.161122
    29 -0.049759 -1.680544 0.100480 -1.853482 0.049496 -0.014370
    30 -0.034141 -1.148310 0.084780 -1.276564 0.000000 0.000000
    31 -0.488516 -2.755600 -0.228262 -0.768171 0.097106 -0.216302
    32 0.039889 -1.479791 0.029853 -1.911424 0.000000 0.000000
    33 0.028785 -1.075732 -0.023111 -0.817580 0.000000 0.000000
    34 -1.180679 -2.507217 -0.193861 -0.768285 0.327066 -0.388117
    35 -0.024967 -1.123934 0.017594 -1.467253 0.003595 -0.034695
    36 -0.020058 -0.890965 0.010092 -1.299509 0.000000 0.000000
    37 0.120153 -0.050267 -0.054488 0.323041 3.110905 1.561085
  time 5
    0 1.275635 -3.833534 -8.261316 1.370495 -3.764519 -0.064645
    1 -0.071917 -8.498731 -0.104136 0.725346 1.202475 0.759914
    2 1.642868 -1.573838 1.046937 -4.608471 0.059978 -1.325422
    3 0.000000 -0.000001 -0.000001 0.000000 0.000000 0.000000
    4 -9.189221 -5.116633 -8.478815 0.644475 3.351805 0.917703
    5 0.096946 -8.450418 -0.009364 -0.611058 -0.312389 -0.145553
    6 -0.586769 -1.264477 0.200164 -0.258581 -0.438564 -2.711098
    7 1.522835 0.058680 0.016850 0.577245 0.041120 0.075867
    8 1.117948 0.048425 -0.005765 0.109204 -0.028799 -0.148252
    9 -0.963866 -2.785142 -0.085346 0.018049 0.044000 -0.178973
    10 0.028478 -1.403067 0.006272 -0.019922 0.000000 0.000000
    11 0.021414 -0.957782 0.020047 0.153292 -0.000001 0.000005
    12 -0.249534 -2.846962 -0.174215 0.101471 -0.024459 -0.010882
    13 0.043234 -1.683940 0.096015 0.089492 0.000000 0.000000
    14 0.031728 -1.160830 0.058837 0.065931 0.000000 0.000000
    15 0.447951 -2.798983 -0.200441 -0.034655 0.019396 0.230684
    16 -0.032909 -1.480207 0.004936 0.121862 0.000000 0.000000
    17 -0.027023 -1.076920 -0.020212 0.115298 0.000000 0.000000
    18 1.164475 -2.543938 -0.170327 0.031259 -0.033465 0.302709
    19 0.024032 -1.129040 0.017806 -0.169793 0.000000 0.000000
    20 0.014896 -0.883991 -0.019846 0.099332 0.000000 0.000000
    21 -0.131420 -0.116256 0.001285 0.294442 -0.354953 1.471757
    22 0.583510 -1.197274 0.185379 -0.158127 -0.314810 -0.492920
    23 1.535926 0.010246 0.005009 -0.225131 0.131330 -0.148736
    24 1.100770 0.004527 -0.010676 0.048382 0.065268 0.267839
    25 0.957766 -2.746777 -0.090301 -0.136932 0.016814 0.140559
    26 -0.033419 -1.397127 -0.011256 -1.731003 0.000000 0.000000
    27 -0.022361 -0.957433 0.018783 -1.056813 0.000000 0.000000
    28 0.250029 -2.820664 -0.238397 -0.592579 0.076756 -0.161122
    29 -0.049759 -1.680544 0.100480 -1.853482 0.049496 -0.014370
    30 -0.034141 -1.148310 0.084780 -1.276564 0.000000 0.000000
    31 -0.488516 -2.755600 -0.228262 -0.768171 0.097106 -0.216302
    32 0.039889 -1.479791 0.029853 -1.911424 0.000000 0.000000
    33 0.028785 -1.075732 -0.023111 -0.817580 0.000000 0.000000
    34 -1.180679 -2.507217 -0.193861 -0.768285 0.327066 -0.388117
    35 -0.024967 -1.123934 0.017594 -1.467253 0.003595 -0.034695
    36 -0.020058 -0.890965 0.010092 -1.299509 0.000000 0.000000
    37 0.120153 -0.050267 -0.054488 0.337997 3.110905 1.561085
  time 6
    0 1.412358 -4.036665 -7.999589 1.333015 -3.748667 -0.074405
    1 -0.071917 -8.498731 -0.104136 0.678543 1.156458 0.688162
    2 1.642868 -1.421489 1.062562 -4.603147 0.055466 -1.262144
    3 0.000000 -0.000001 -0.000001 0.000000 0.000000 0.000000
    4 -9.689236 -4.550209 -8.361624 0.594743 3.356406 0.701175
    5 0.096946 -8.450418 -0.009364 -0.547118 -0.330444 -0.135902
    6 -0.586769 -1.264477 0.200164 -0.254322 -0.423045 -2.712661
    7 1.522835 0.058680 0.016850 0.579327 0.062293 0.043297
    8 1.117948 0.048425 -0.005765 0.113315 -0.022675 -0.210271
    9 -0.963866 -2.785142 -0.085346 0.037268 0.044228 -0.184786
    10 0.028478 -1.403067 0.006272 -0.001196 0.000000 0.000000
    11 0.021414 -0.957782 0.020047 0.178358 -0.000001 0.000005
    12 -0.249534 -2.846962 -0.174215 0.140641 -0.026161 -0.015844
    13 0.043234 -1.683940 0.096015 0.148942 0.000000 0.000000
    14 0.031728 -1.160830 0.058837 0.123681 0.000000 0.000000
    15 0.447951 -2.798983 -0.200441 0.013988 0.019324 0.250447
    16 -0.032909 -1.480207 0.004936 0.196092 0.000000 0.000000
    17 -0.027023 -1.076920 -0.020212 0.175043 0.000000 0.000000
    18 1.164475 -2.543938 -0.170327 0.119741 -0.033909 0.327645
    19 0.024032 -1.129040 0.017806 -0.109181 0.000000 0.000000
    20 0.014896 -0.883991 -0.019846 0.149137 0.000000 0.000000
    21 -0.127514 -0.116256 -0.002621 0.286725 -0.325664 1.478301
    22 0.583510 -1.197274 0.185379 -0.204860 -0.325572 -0.466155
    23 1.535926 0.010246 0.005009 -0.255270 0.161926 -0.084128
    24 1.100770 0.004527 -0.010676 0.047028 0.052085 0.259609
    25 0.957766 -2.746777 -0.090301 -0.136932 0.016814 0.140559
    26 -0.033419 -1.397127 -0.011256 -1.731003 0.000000 0.000000
    27 -0.022361 -0.957433 0.018783 -1.056813 0.000000 0.000000
    28 0.250029 -2.820664 -0.238397 -0.592579 0.076756 -0.161122
    29 -0.049759 -1.680544 0.100480 -1.853482 0.049496 -0.014370
    30 -0.034141 -1.148310 0.084780 -1.276564 0.000000 0.000000
    31 -0.488516 -2.755600 -0.228262 -0.768171 0.097106 -0.216302
    32 0.039889 -1.479791 0.029853 -1.911424 0.000000 0.000000
    33 0.028785 -1.075732 -0.023111 -0.817580 0.000000 0.000000
    34 -1.180679 -2.507217 -0.193861 -0.768285 0.327066 -0.388117
    35 -0.024967 -1.123934 0.017594 -1.467253 0.003595 -0.034695
    36 -0.020058 -0.890965 0.010092 -1.299509 0.000000 0.000000
    37 0.120153 -0.050267 -0.054488 0.352857 3.110905 1.561085
  time 7
    0 1.885029 -4.513242 -7.655828 1.339093 -3.739543 -0.051413
    1 -0.071917 -8.498731 -0.104136 0.608179 1.085009 0.602618
    2 1.635055 -1.355081 1.062562 -4.600104 0.055936 -1.214283
    3 0.000000 -0.000001 -0.000001 0.000000 0.000000 0.000000
    4 -10.255659 -3.745497 -8.291309 0.516959 3.370113 0.398393
    5 0.096946 -8.450418 -0.009364 -0.466523 -0.366096 -0.035121
    6 -0.586769 -1.264477 0.200164 -0.258052 -0.425515 -2.709262
    7 1.522835 0.058680 0.016850 0.576868 0.064532 0.039796
    8 1.117948 0.048425 -0.005765 0.114250 -0.022268 -0.214665
    9 -0.963866 -2.785142 -0.085346 0.045870 0.044204 -0.184139
    10 0.028478 -1.403067 0.006272 -0.001255 0.000000 0.000000
    11 0.021414 -0.957782 0.020047 0.176886 -0.000001 0.000005
    12 -0.249534 -2.846962 -0.174215 0.137201 -0.027815 -0.020661
    13 0.043234 -1.683940 0.096015 0.146702 0.000000 0.000000
    14 0.031728 -1.160830 0.058837 0.123754 0.000000 0.000000
    15 0.447951 -2.798983 -0.200441 0.008441 0.019324 0.248266
    16 -0.032909 -1.480207 0.004936 0.192417 0.000000 0.000000
    17 -0.027023 -1.076920 -0.020212 0.174802 0.000000 0.000000
    18 1.164475 -2.543938 -0.170327 0.109830 -0.033585 0.328638
    19 0.024032 -1.129040 0.017806 -0.114333 0.000000 0.000000
    20 0.014896 -0.883991 -0.019846 0.149723 0.000000 0.000000
    21 -0.123608 -0.120163 -0.006528 0.277130 -0.287410 1.486558
    22 0.583510 -1.197274 0.185379 -0.250275 -0.336023 -0.440189
    23 1.535926 0.010246 0.005009 -0.282847 0.190306 -0.022419
    24 1.100770 0.004527 -0.010676 0.045601 0.039633 0.250704
    25 0.957766 -2.746777 -0.090301 -0.138299 0.020841 0.139985
    26 -0.033419 -1.397127 -0.011256 -1.726823 0.000000 0.000000
    27 -0.022361 -0.957433 0.018783 -1.060914 0.000000 0.000000
    28 0.250029 -2.820664 -0.238397 -0.592579 0.076756 -0.161122
    29 -0.049759 -1.680544 0.100480 -1.853482 0.049496 -0.014370
    30 -0.034141 -1.148310 0.084780 -1.276564 0.000000 0.000000
    31 -0.488516 -2.755600 -0.228262 -0.768171 0.097106 -0.216302
    32 0.039889 -1.479791 0.029853 -1.911424 0.000000 0.000000
    33 0.028785 -1.075732 -0.023111 -0.817580 0.000000 0.000000
    34 -1.180679 -2.507217 -0.193861 -0.768285 0.327066 -0.388117
    35 -0.024967 -1.123934 0.017594 -1.467253 0.003595 -0.034695
    36 -0.020058 -0.890965 0.010092 -1.299509 0.000000 0.000000
    37 0.120153 -0.050267 -0.054488 0.366662 3.110905 1.561085
  time 8
    0 2.572550 -5.130448 -7.288630 1.376758 -3.727325 -0.018567
    1 -0.071917 -8.498731 -0.104136 0.485654 0.966313 0.485117
    2 1.623336 -1.386332 1.054750 -4.599344 0.062140 -1.181556
    3 0.000000 -0.000001 -0.000001 0.000000 0.000000 0.000000
    4 -10.845521 -2.847032 -8.267871 0.430379 3.385066 0.069712
    5 0.096946 -8.450418 -0.009364 -0.368852 -0.415950 0.131477
    6 -0.586769 -1.264477 0.200164 -0.268584 -0.432576 -2.699713
    7 1.522835 0.058680 0.016850 0.569884 0.070076 0.031256
    8 1.117948 0.048425 -0.005765 0.115784 -0.021177 -0.226759
    9 -0.963866 -2.785142 -0.085346 0.056652 0.044132 -0.182305
    10 0.028478 -1.403067 0.006272 -0.001494 0.000000 0.000000
    11 0.021414 -0.957782 0.020047 0.172620 -0.000001 0.000005
    12 -0.249534 -2.846962 -0.174215 0.127293 -0.029936 -0.026809
    13 0.043234 -1.683940 0.096015 0.140076 0.000000 0.000000
    14 0.031728 -1.160830 0.058837 0.123754 0.000000 0.000000
    15 0.447951 -2.798983 -0.200441 -0.007448 0.019348 0.242034
    16 -0.032909 -1.480207 0.004936 0.181849 0.000000 0.000000
    17 -0.027023 -1.076920 -0.020212 0.173872 0.000000 0.000000
    18 1.164475 -2.543938 -0.170327 0.081402 -0.032674 0.331309
    19 0.024032 -1.129040 0.017806 -0.129122 0.000000 0.000000
    20 0.014896 -0.883991 -0.019846 0.151189 0.000000 0.000000
    21 -0.115795 -0.120163 -0.010434 0.266389 -0.241829 1.496050
    22 0.583510 -1.197274 0.185379 -0.291285 -0.345467 -0.416735
    23 1.535926 0.010246 0.005009 -0.305379 0.214071 0.031811
    24 1.100770 0.004527 -0.010676 0.044187 0.028871 0.241293
    25 0.957766 -2.746777 -0.090301 -0.142134 0.032106 0.138385
    26 -0.033419 -1.397127 -0.011256 -1.715068 0.000000 0.000000
    27 -0.022361 -0.957433 0.018783 -1.072386 0.000000 0.000000
    28 0.250029 -2.820664 -0.238397 -0.592579 0.076756 -0.161122
    29 -0.049759 -1.680544 0.100480 -1.853482 0.049496 -0.014370
    30 -0.034141 -1.148310 0.084780 -1.276564 0.000000 0.000000
    31 -0.488516 -2.755600 -0.228262 -0.768171 0.097106 -0.216302
    32 0.039889 -1.479791 0.029853 -1.911424 0.000000 0.000000
    33 0.028785 -1.075732 -0.023111 -0.817580 0.000000 0.000000
    34 -1.180679 -2.507217 -0.193861 -0.768285 0.327066 -0.388117
    35 -0.024967 -1.123934 0.017594 -1.467253 0.003595 -0.034695
    36 -0.020058 -0.890965 0.010092 -1.299509 0.000000 0.000000
    37 0.120153 -0.050267 -0.054488 0.377879 3.110905 1.561085
  time 9
    0 3.342104 -5.739842 -6.948776 1.434038 -3.702348 0.001422
    1 -0.071917 -8.498731 -0.104136 0.305226 0.796059 0.332095
    2 1.611617 -1.480085 1.043031 -4.600009 0.070130 -1.164720
    3 0.000000 -0.000001 -0.000001 0.000000 0.000000 0.000000
    4 -11.411945 -1.995444 -8.283496 0.354326 3.393021 -0.224515
    5 0.096946 -8.450418 -0.009364 -0.263196 -0.471240 0.324165
    6 -0.586769 -1.264477 0.200164 -0.284889 -0.443604 -2.684929
    7 1.522835 0.058680 0.016850 0.559095 0.078228 0.018684
    8 1.117948 0.048425 -0.005765 0.117785 -0.019523 -0.244898
    9 -0.963866 -2.785142 -0.085346 0.069122 0.044012 -0.179429
    10 0.028478 -1.403067 0.006272 -0.002000 0.000000 0.000000
    11 0.021414 -0.957782 0.020047 0.165825 -0.000001 0.000005
    12 -0.249534 -2.846962 -0.174215 0.111636 -0.032405 -0.034036
    13 0.043234 -1.683940 0.096015 0.129343 0.000000 0.000000
    14 0.031728 -1.160830 0.058837 0.123275 0.000000 0.000000
    15 0.447951 -2.798983 -0.200441 -0.032436 0.019396 0.232230
    16 -0.032909 -1.480207 0.004936 0.164848 0.000000 0.000000
    17 -0.027023 -1.076920 -0.020212 0.171909 0.000000 0.000000
    18 1.164475 -2.543938 -0.170327 0.036755 -0.031260 0.335230
    19 0.024032 -1.129040 0.017806 -0.152469 0.000000 0.000000
    20 0.014896 -0.883991 -0.019846 0.152990 0.000000 0.000000
    21 -0.111889 -0.120163 -0.018247 0.255152 -0.190486 1.506357
    22 0.583510 -1.197274 0.185379 -0.324863 -0.353197 -0.397530
    23 1.535926 0.010246 0.005009 -0.320404 0.230826 0.074092
    24 1.100770 0.004527 -0.010676 0.042833 0.020769 0.231680
    25 0.957766 -2.746777 -0.090301 -0.148030 0.049376 0.135930
    26 -0.033419 -1.397127 -0.011256 -1.697000 0.000000 0.000000
    27 -0.022361 -0.957433 0.018783 -1.090011 0.000000 0.000000
    28 0.250029 -2.820664 -0.238397 -0.592579 0.076756 -0.161122
    29 -0.049759 -1.680544 0.100480 -1.853482 0.049496 -0.014370
    30 -0.034141 -1.148310 0.084780 -1.276564 0.000000 0.000000
    31 -0.488516 -2.755600 -0.228262 -0.768171 0.097106 -0.216302
    32 0.039889 -1.479791 0.029853 -1.911424 0.000000 0.000000
    33 0.028785 -1.075732 -0.023111 -0.817580 0.000000 0.000000
    34 -1.180679 -2.507217 -0.193861 -0.768285 0.327066 -0.388117
    35 -0.024967 -1.123934 0.017594 -1.467253 0.003595 -0.034695
    36 -0.020058 -0.890965 0.010092 -1.299509 0.000000 0.000000
    37 0.120153 -0.050267 -0.054488 0.385549 3.110905 1.561085
  time 10
    0 4.056970 -6.208606 -6.702674 1.498778 -3.654946 -0.014063
    1 -0.071917 -8.498731 -0.104136 0.101270 0.600334 0.165232
    2 1.607710 -1.620714 1.031312 -4.600960 0.075676 -1.164625
    3 0.000000 -0.000001 -0.000001 0.000000 0.000000 0.000000
    4 -11.911960 -1.327454 -8.345998 0.308057 3.385832 -0.423699
    5 0.096946 -8.450418 -0.009364 -0.158643 -0.523296 0.503029
    6 -0.586769 -1.264477 0.200164 -0.305953 -0.458026 -2.665848
    7 1.522835 0.058680 0.016850 0.545147 0.088358 0.003062
    8 1.117948 0.048425 -0.005765 0.120134 -0.017486 -0.267499
    9 -0.963866 -2.785142 -0.085346 0.082745 0.043868 -0.175630
    10 0.028478 -1.403067 0.006272 -0.002893 0.000000 0.000000
    11 0.021414 -0.957782 0.020047 0.156727 -0.000001 0.000005
    12 -0.249534 -2.846962 -0.174215 0.090947 -0.035162 -0.042042
    13 0.043234 -1.683940 0.096015 0.114737 0.000000 0.000000
    14 0.031728 -1.160830 0.058837 0.121874 0.000000 0.000000
    15 0.447951 -2.798983 -0.200441 -0.065279 0.019444 0.219347
    16 -0.032909 -1.480207 0.004936 0.141977 0.000000 0.000000
    17 -0.027023 -1.076920 -0.020212 0.168603 0.000000 0.000000
    18 1.164475 -2.543938 -0.170327 -0.021948 -0.029427 0.339973
    19 0.024032 -1.129040 0.017806 -0.183336 0.000000 0.000000
    20 0.014896 -0.883991 -0.019846 0.154708 0.000000 0.000000
    21 -0.107982 -0.124069 -0.022153 0.243956 -0.135064 1.517167
    22 0.583510 -1.197274 0.185379 -0.348003 -0.358518 -0.384288
    23 1.535926 0.010246 0.005009 -0.325425 0.238172 0.099844
    24 1.100770 0.004527 -0.010676 0.041587 0.016287 0.222100
    25 0.957766 -2.746777 -0.090301 -0.155569 0.071500 0.132792
    26 -0.033419 -1.397127 -0.011256 -1.673881 0.000000 0.000000
    27 -0.022361 -0.957433 0.018783 -1.112570 0.000000 0.000000
    28 0.250029 -2.820664 -0.238397 -0.592579 0.076756 -0.161122
    29 -0.049759 -1.680544 0.100480 -1.853482 0.049496 -0.014370
    30 -0.034141 -1.148310 0.084780 -1.276564 0.000000 0.000000
    31 -0.488516 -2.755600 -0.228262 -0.768171 0.097106 -0.216302
    32 0.039889 -1.479791 0.029853 -1.911424 0.000000 0.000000
    33 0.028785 -1.075732 -0.023111 -0.817580 0.000000 0.000000
    34 -1.180679 -2.507217 -0.193861 -0.768285 0.327066 -0.388117
    35 -0.024967 -1.123934 0.017594 -1.467253 0.003595 -0.034695
    36 -0.020058 -0.890965 0.010092 -1.299509 0.000000 0.000000
    37 0.120153 -0.050267 -0.054488 0.388425 3.110905 1.561085
  time 11
    0 4.588236 -6.400018 -6.608922 1.558913 -3.575299 -0.087731
    1 -0.071917 -8.498731 -0.104136 -0.091873 0.405187 0.006256
    2 1.623336 -1.780875 1.023499 -4.601245 0.075018 -1.181745
    3 0.000000 -0.000001 -0.000001 0.000000 0.000000 0.000000
    4 -12.361192 -0.886035 -8.510066 0.303971 3.352764 -0.496030
    5 0.096946 -8.450418 -0.009364 -0.064440 -0.563330 0.628219
    6 -0.586769 -1.264477 0.200164 -0.330776 -0.475216 -2.643428
    7 1.522835 0.058680 0.016850 0.528739 0.099771 -0.014549
    8 1.117948 0.048425 -0.005765 0.122711 -0.015209 -0.292875
    9 -0.963866 -2.785142 -0.085346 0.096944 0.043688 -0.171076
    10 0.028478 -1.403067 0.006272 -0.004292 0.000000 0.000000
    11 0.021414 -0.957782 0.020047 0.145591 -0.000001 0.000005
    12 -0.249534 -2.846962 -0.174215 0.065997 -0.038086 -0.050575
    13 0.043234 -1.683940 0.096015 0.096445 0.000000 0.000000
    14 0.031728 -1.160830 0.058837 0.119218 0.000000 0.000000
    15 0.447951 -2.798983 -0.200441 -0.104735 0.019492 0.203839
    16 -0.032909 -1.480207 0.004936 0.113745 0.000000 0.000000
    17 -0.027023 -1.076920 -0.020212 0.163610 0.000000 0.000000
    18 1.164475 -2.543938 -0.170327 -0.092500 -0.027269 0.345070
    19 0.024032 -1.129040 0.017806 -0.220725 0.000000 0.000000
    20 0.014896 -0.883991 -0.019846 0.155755 0.000000 0.000000
    21 -0.100169 -0.124069 -0.026060 0.233257 -0.077154 1.528216
    22 0.583510 -1.197274 0.185379 -0.360787 -0.361466 -0.376987
    23 1.535926 0.010246 0.005009 -0.318638 0.236471 0.111864
    24 1.100770 0.004527 -0.010676 0.040316 0.015748 0.211171
    25 0.957766 -2.746777 -0.090301 -0.164329 0.097231 0.129128
    26 -0.033419 -1.397127 -0.011256 -1.647018 0.000000 0.000000
    27 -0.022361 -0.957433 0.018783 -1.138803 0.000000 0.000000
    28 0.250029 -2.820664 -0.238397 -0.592579 0.076756 -0.161122
    29 -0.049759 -1.680544 0.100480 -1.853482 0.049496 -0.014370
    30 -0.034141 -1.148310 0.084780 -1.276564 0.000000 0.000000
    31 -0.488516 -2.755600 -0.228262 -0.768171 0.097106 -0.216302
    32 0.039889 -1.479791 0.029853 -1.911424 0.000000 0.000000
    33 0.028785 -1.075732 -0.023111 -0.817580 0.000000 0.000000
    34 -1.180679 -2.507217 -0.193861 -0.768285 0.327066 -0.388117
    35 -0.024967 -1.123934 0.017594 -1.467253 0.003595 -0.034695
    36 -0.020058 -0.890965 0.010092 -1.299509 0.000000 0.000000
    37 0.120153 -0.050267 -0.058394 0.371456 3.124613 1.557167
  time 12
    0 4.990592 -6.396112 -6.608922 -1.511946 0.311482 -3.370791
    1 -0.071917 -8.498731 -0.104136 -0.239798 0.236703 -0.123103
    2 1.666306 -1.933224 1.023499 -4.599914 0.063832 -1.217026
    3 0.000000 -0.000001 -0.000001 0.000000 0.000000 0.000000
    4 -12.798706 -0.593057 -8.803043 0.335902 3.293144 -0.463987
    5 0.096946 -8.450418 -0.009364 0.025402 -0.590310 0.684882
    6 -0.586769 -1.264477 0.200164 -0.358327 -0.494627 -2.618587
    7 1.522835 0.058680 0.016850 0.510536 0.111836 -0.033142
    8 1.117948 0.048425 -0.005765 0.125371 -0.012824 -0.319440
    9 -0.963866 -2.785142 -0.085346 0.111266 0.043485 -0.165898
    10 0.028478 -1.403067 0.006272 -0.006287 0.000000 0.000000
    11 0.021414 -0.957782 0.020047 0.132680 -0.000001 0.000005
    12 -0.249534 -2.846962 -0.174215 0.037403 -0.041106 -0.059348
    13 0.043234 -1.683940 0.096015 0.074793 0.000000 0.000000
    14 0.031728 -1.160830 0.058837 0.114830 0.000000 0.000000
    15 0.447951 -2.798983 -0.200441 -0.149562 0.019564 0.186222
    16 -0.032909 -1.480207 0.004936 0.080714 0.000000 0.000000
    17 -0.027023 -1.076920 -0.020212 0.156654 0.000000 0.000000
    18 1.164475 -2.543938 -0.170327 -0.172648 -0.024872 0.350106
    19 0.024032 -1.129040 0.017806 -0.263556 0.000000 0.000000
    20 0.014896 -0.883991 -0.019846 0.155755 0.000000 0.000000
    21 -0.096263 -0.124069 -0.033872 0.223441 -0.018414 1.539278
    22 0.583510 -1.197274 0.185379 -0.365872 -0.362641 -0.374052
    23 1.535926 0.010246 0.005009 -0.301632 0.228429 0.116372
    24 1.100770 0.004527 -0.010676 0.038866 0.018480 0.197780
    25 0.957766 -2.746777 -0.090301 -0.173929 0.125382 0.125134
    26 -0.033419 -1.397127 -0.011256 -1.617630 0.000000 0.000000
    27 -0.022361 -0.957433 0.018783 -1.167494 0.000000 0.000000
    28 0.250029 -2.820664 -0.238397 -0.592579 0.076756 -0.161122
    29 -0.049759 -1.680544 0.100480 -1.853482 0.049496 -0.014370
    30 -0.034141 -1.148310 0.084780 -1.276564 0.000000 0.000000
    31 -0.488516 -2.755600 -0.228262 -0.768171 0.097106 -0.216302
    32 0.039889 -1.479791 0.029853 -1.911424 0.000000 0.000000
    33 0.028785 -1.075732 -0.023111 -0.817580 0.000000 0.000000
    34 -1.180679 -2.507217 -0.193861 -0.768285 0.327066 -0.388117
    35 -0.024967 -1.123934 0.017594 -1.467253 0.003595 -0.034695
    36 -0.020058 -0.890965 0.010092 -1.299509 0.000000 0.000000
    37 0.120153 -0.054173 -0.066207 0.326972 3.160944 1.546749
  time 13
    0 5.400761 -6.388299 -6.608922 -1.416540 0.150796 -3.565894
    1 -0.071917 -8.498731 -0.104136 -0.308196 0.120892 -0.201166
    2 1.752246 -2.089478 1.043031 -4.596111 0.035349 -1.278886
    3 0.000000 -0.000001 -0.000001 0.000000 0.000000 0.000000
    4 -13.212781 -0.428990 -9.193680 0.395746 3.214163 -0.348956
    5 0.096946 -8.450418 -0.009364 0.120340 -0.609375 0.691358
    6 -0.586769 -1.264477 0.200164 -0.387594 -0.515661 -2.592280
    7 1.522835 0.058680 0.016850 0.491237 0.123901 -0.051708
    8 1.117948 0.048425 -0.005765 0.127996 -0.010511 -0.345543
    9 -0.963866 -2.785142 -0.085346 0.125094 0.043269 -0.160230
    10 0.028478 -1.403067 0.006272 -0.009026 0.000000 0.000000
    11 0.021414 -0.957782 0.020047 0.118184 -0.000001 0.000005
    12 -0.249534 -2.846962 -0.174215 0.005882 -0.044102 -0.068096
    13 0.043234 -1.683940 0.096015 0.050014 0.000000 0.000000
    14 0.031728 -1.160830 0.058837 0.108340 0.000000 0.000000
    15 0.447951 -2.798983 -0.200441 -0.198516 0.019635 0.166962
    16 -0.032909 -1.480207 0.004936 0.043394 0.000000 0.000000
    17 -0.027023 -1.076920 -0.020212 0.147357 0.000000 0.000000
    18 1.164475 -2.543938 -0.170327 -0.260319 -0.022332 0.354628
    19 0.024032 -1.129040 0.017806 -0.310791 0.000000 0.000000
    20 0.014896 -0.883991 -0.019846 0.154121 0.000000 0.000000
    21 -0.092357 -0.127975 -0.037779 0.214744 0.039519 1.550172
    22 0.583510 -1.197274 0.185379 -0.364061 -0.362221 -0.375109
    23 1.535926 0.010246 0.005009 -0.276981 0.215114 0.113996
    24 1.100770 0.004527 -0.010676 0.037284 0.023957 0.182433
    25 0.957766 -2.746777 -0.090301 -0.183924 0.154745 0.120957
    26 -0.033419 -1.397127 -0.011256 -1.586980 0.000000 0.000000
    27 -0.022361 -0.957433 0.018783 -1.197423 0.000000 0.000000
    28 0.250029 -2.820664 -0.238397 -0.592579 0.076756 -0.161122
    29 -0.049759 -1.680544 0.100480 -1.853482 0.049496 -0.014370
    30 -0.034141 -1.148310 0.084780 -1.276564 0.000000 0.000000
    31 -0.488516 -2.755600 -0.228262 -0.768171 0.097106 -0.216302
    32 0.039889 -1.479791 0.029853 -1.911424 0.000000 0.000000
    33 0.028785 -1.075732 -0.023111 -0.817580 0.000000 0.000000
    34 -1.180679 -2.507217 -0.193861 -0.768285 0.327066 -0.388117
    35 -0.024967 -1.123934 0.017594 -1.467253 0.003595 -0.034695
    36 -0.020058 -0.890965 0.010092 -1.299509 0.000000 0.000000
    37 0.120153 -0.058080 -0.081833 0.264848 3.212421 1.532222
  time 14
    0 5.810930 -6.372674 -6.612828 -1.309162 -0.036414 2.482205
    1 -0.071917 -8.498731 -0.104136 -0.246521 0.026704 -0.204066
    2 1.885063 -2.273078 1.074282 -4.590597 -0.008738 -1.368459
    3 0.000000 -0.000001 -0.000001 0.000000 0.000000 0.000000
    4 -13.595605 -0.362581 -9.639006 0.475262 3.123200 -0.172171
    5 0.096946 -8.450418 -0.009364 0.216382 -0.621282 0.657547
    6 -0.586769 -1.264477 0.200164 -0.417575 -0.537692 -2.565427
    7 1.522835 0.058680 0.016850 0.471472 0.135270 -0.069240
    8 1.117948 0.048425 -0.005765 0.130465 -0.008401 -0.369531
    9 -0.963866 -2.785142 -0.085346 0.137893 0.043029 -0.154213
    10 0.028478 -1.403067 0.006272 -0.012568 0.000000 0.000000
    11 0.021414 -0.957782 0.020047 0.102442 -0.000001 0.000005
    12 -0.249534 -2.846962 -0.174215 -0.027794 -0.047002 -0.076546
    13 0.043234 -1.683940 0.096015 0.022296 0.000000 0.000000
    14 0.031728 -1.160830 0.058837 0.099342 0.000000 0.000000
    15 0.447951 -2.798983 -0.200441 -0.250355 0.019719 0.146517
    16 -0.032909 -1.480207 0.004936 0.002348 0.000000 0.000000
    17 -0.027023 -1.076920 -0.020212 0.135442 0.000000 0.000000
    18 1.164475 -2.543938 -0.170327 -0.353172 -0.019707 0.358206
    19 0.024032 -1.129040 0.017806 -0.361390 0.000000 0.000000
    20 0.014896 -0.883991 -0.019846 0.150393 0.000000 0.000000
    21 -0.088450 -0.127975 -0.041685 0.207330 0.094987 1.560695
    22 0.583510 -1.197274 0.185379 -0.356094 -0.360387 -0.379663
    23 1.535926 0.010246 0.005009 -0.247259 0.197629 0.105470
    24 1.100770 0.004527 -0.010676 0.035594 0.031663 0.165668
    25 0.957766 -2.746777 -0.090301 -0.193931 0.184095 0.116781
    26 -0.033419 -1.397127 -0.011256 -1.556286 0.000000 0.000000
    27 -0.022361 -0.957433 0.018783 -1.227331 0.000000 0.000000
    28 0.250029 -2.820664 -0.238397 -0.592579 0.076756 -0.161122
    29 -0.049759 -1.680544 0.100480 -1.853482 0.049496 -0.014370
    30 -0.034141 -1.148310 0.084780 -1.276564 0.000000 0.000000
    31 -0.488516 -2.755600 -0.228262 -0.768171 0.097106 -0.216302
    32 0.039889 -1.479791 0.029853 -1.911424 0.000000 0.000000
    33 0.028785 -1.075732 -0.023111 -0.817580 0.000000 0.000000
    34 -1.180679 -2.507217 -0.193861 -0.768285 0.327066 -0.388117
    35 -0.024967 -1.123934 0.017594 -1.467253 0.003595 -0.034695
    36 -0.020058 -0.890965 0.010092 -1.299509 0.000000 0.000000
    37 0.120153 -0.061986 -0.097458 0.194478 3.271375 1.515784
  time 15
    0 6.209379 -6.341423 -6.620641 -1.202981 -0.238006 2.220660
    1 -0.071917 -8.498731 -0.104136 -0.072118 -0.072909 -0.144272
    2 2.037411 -2.480115 1.109439 -4.584417 -0.059311 -1.475342
    3 0.000000 -0.000001 -0.000001 0.000000 0.000000 0.000000
    4 -13.935459 -0.374300 -10.103864 0.566206 3.027253 0.045212
    5 0.096946 -8.450418 -0.009364 0.309482 -0.626788 0.593286
    6 -0.586769 -1.264477 0.200164 -0.447242 -0.560172 -2.538965
    7 1.522835 0.058680 0.016850 0.451977 0.145292 -0.084676
    8 1.117948 0.048425 -0.005765 0.132646 -0.006664 -0.389819
    9 -0.963866 -2.785142 -0.085346 0.149170 0.042789 -0.148005
    10 0.028478 -1.403067 0.006272 -0.017034 0.000000 0.000000
    11 0.021414 -0.957782 0.020047 0.085605 -0.000001 0.000005
    12 -0.249534 -2.846962 -0.174215 -0.062960 -0.049711 -0.084419
    13 0.043234 -1.683940 0.096015 -0.008082 0.000000 0.000000
    14 0.031728 -1.160830 0.058837 0.087467 0.000000 0.000000
    15 0.447951 -2.798983 -0.200441 -0.303881 0.019791 0.125388
    16 -0.032909 -1.480207 0.004936 -0.041914 0.000000 0.000000
    17 -0.027023 -1.076920 -0.020212 0.120532 0.000000 0.000000
    18 1.164475 -2.543938 -0.170327 -0.449133 -0.017118 0.360387
    19 0.024032 -1.129040 0.017806 -0.414275 0.000000 0.000000
    20 0.014896 -0.883991 -0.019846 0.144068 0.000000 0.000000
    21 -0.084544 -0.127975 -0.045591 0.201283 0.146353 1.570618
    22 0.583510 -1.197274 0.185379 -0.342712 -0.357307 -0.387317
    23 1.535926 0.010246 0.005009 -0.215038 0.177063 0.091458
    24 1.100770 0.004527 -0.010676 0.033868 0.041095 0.148027
    25 0.957766 -2.746777 -0.090301 -0.203519 0.212247 0.112787
    26 -0.033419 -1.397127 -0.011256 -1.526898 0.000000 0.000000
    27 -0.022361 -0.957433 0.018783 -1.256043 0.000000 0.000000
    28 0.250029 -2.820664 -0.238397 -0.592579 0.076756 -0.161122
    29 -0.049759 -1.680544 0.100480 -1.853482 0.049496 -0.014370
    30 -0.034141 -1.148310 0.084780 -1.276564 0.000000 0.000000
    31 -0.488516 -2.755600 -0.228262 -0.768171 0.097106 -0.216302
    32 0.039889 -1.479791 0.029853 -1.911424 0.000000 0.000000
    33 0.028785 -1.075732 -0.023111 -0.817580 0.000000 0.000000
    34 -1.180679 -2.507217 -0.193861 -0.768285 0.327066 -0.388117
    35 -0.024967 -1.123934 0.017594 -1.467253 0.003595 -0.034695
    36 -0.020058 -0.890965 0.010092 -1.299509 0.000000 0.000000
    37 0.120153 -0.065892 -0.116990 0.125260 3.330520 1.499632
  time 16
    0 6.588297 -6.290640 -6.632360 -1.110982 -0.442150 1.945976
    1 -0.071917 -8.498731 -0.104136 0.147503 -0.145897 -0.054912
    2 2.174134 -2.691059 1.144596 -1.437136 3.248436 1.552281
    3 0.000000 -0.000001 -0.000001 0.000000 0.000000 0.000000
    4 -14.228437 -0.436802 -10.549191 0.660475 2.933798 0.281729
    5 0.096946 -8.450418 -0.009364 0.395804 -0.626605 0.508540
    6 -0.586769 -1.264477 0.200164 -0.475594 -0.582502 -2.513830
    7 1.522835 0.058680 0.016850 0.433379 0.153313 -0.097062
    8 1.117948 0.048425 -0.005765 0.134420 -0.005441 -0.404754
    9 -0.963866 -2.785142 -0.085346 0.158389 0.042550 -0.141737
    10 0.028478 -1.403067 0.006272 -0.022571 0.000000 0.000000
    11 0.021414 -0.957782 0.020047 0.067976 -0.000001 0.000005
    12 -0.249534 -2.846962 -0.174215 -0.098896 -0.052120 -0.091442
    13 0.043234 -1.683940 0.096015 -0.040841 0.000000 0.000000
    14 0.031728 -1.160830 0.058837 0.072237 0.000000 0.000000
    15 0.447951 -2.798983 -0.200441 -0.357850 0.019875 0.104067
    16 -0.032909 -1.480207 0.004936 -0.088832 0.000000 0.000000
    17 -0.027023 -1.076920 -0.020212 0.102385 0.000000 0.000000
    18 1.164475 -2.543938 -0.170327 -0.545905 -0.014638 0.360755
    19 0.024032 -1.129040 0.017806 -0.468489 0.000000 0.000000
    20 0.014896 -0.883991 -0.019846 0.134685 0.000000 0.000000
    21 -0.080638 -0.131882 -0.049498 0.196589 0.192004 1.579654
    22 0.583510 -1.197274 0.185379 -0.324698 -0.353161 -0.397624
    23 1.535926 0.010246 0.005009 -0.182894 0.154472 0.072624
    24 1.100770 0.004527 -0.010676 0.032131 0.051725 0.129981
    25 0.957766 -2.746777 -0.090301 -0.212292 0.237978 0.109123
    26 -0.033419 -1.397127 -0.011256 -1.500035 0.000000 0.000000
    27 -0.022361 -0.957433 0.018783 -1.282277 0.000000 0.000000
    28 0.250029 -2.820664 -0.238397 -0.592579 0.076756 -0.161122
    29 -0.049759 -1.680544 0.100480 -1.853482 0.049496 -0.014370
    30 -0.034141 -1.148310 0.084780 -1.276564 0.000000 0.000000
    31 -0.488516 -2.755600 -0.228262 -0.768171 0.097106 -0.216302
    32 0.039889 -1.479791 0.029853 -1.911424 0.000000 0.000000
    33 0.028785 -1.075732 -0.023111 -0.817580 0.000000 0.000000
    34 -1.180679 -2.507217 -0.193861 -0.768285 0.327066 -0.388117
    35 -0.024967 -1.123934 0.017594 -1.467253 0.003595 -0.034695
    36 -0.020058 -0.890965 0.010092 -1.299509 0.000000 0.000000
    37 0.120153 -0.069799 -0.128709 0.065916 3.382285 1.485965
  time 17
    0 6.943777 -6.212512 -6.644079 -1.046335 -0.636628 1.671481
    1 -0.071917 -8.498731 -0.104136 0.344736 -0.160133 0.031039
    2 2.279606 -2.909816 1.171941 -1.432953 3.283687 1.441709
    3 0.000000 -0.000001 -0.000001 0.000000 0.000000 0.000000
    4 -14.462819 -0.526649 -10.939827 0.749827 2.849832 0.516301
    5 0.096946 -8.450418 -0.009364 0.471250 -0.621489 0.413176
    6 -0.586769 -1.264477 0.200164 -0.501602 -0.604084 -2.490961
    7 1.522835 0.058680 0.016850 0.416378 0.158661 -0.105311
    8 1.117948 0.048425 -0.005765 0.135654 -0.004878 -0.412684
    9 -0.963866 -2.785142 -0.085346 0.164973 0.042310 -0.135541
    10 0.028478 -1.403067 0.006272 -0.029240 0.000000 0.000000
    11 0.021414 -0.957782 0.020047 0.049818 -0.000001 0.000005
    12 -0.249534 -2.846962 -0.174215 -0.134883 -0.054133 -0.097339
    13 0.043234 -1.683940 0.096015 -0.075839 0.000000 0.000000
    14 0.031728 -1.160830 0.058837 0.053319 0.000000 0.000000
    15 0.447951 -2.798983 -0.200441 -0.410976 0.019959 0.083010
    16 -0.032909 -1.480207 0.004936 -0.137944 0.000000 0.000000
    17 -0.027023 -1.076920 -0.020212 0.080588 0.000000 0.000000
    18 1.164475 -2.543938 -0.170327 -0.641325 -0.012348 0.358843
    19 0.024032 -1.129040 0.017806 -0.522910 0.000000 0.000000
    20 0.014896 -0.883991 -0.019846 0.121742 0.000000 0.000000
    21 -0.076731 -0.131882 -0.053404 0.193180 0.230303 1.587432
    22 0.583510 -1.197274 0.185379 -0.302793 -0.348115 -0.410137
    23 1.535926 0.010246 0.005009 -0.153411 0.130970 0.049667
    24 1.100770 0.004527 -0.010676 0.030441 0.063039 0.112104
    25 0.957766 -2.746777 -0.090301 -0.219818 0.260101 0.105984
    26 -0.033419 -1.397127 -0.011256 -1.476917 0.000000 0.000000
    27 -0.022361 -0.957433 0.018783 -1.304815 0.000000 0.000000
    28 0.250029 -2.820664 -0.238397 -0.592579 0.076756 -0.161122
    29 -0.049759 -1.680544 0.100480 -1.853482 0.049496 -0.014370
    30 -0.034141 -1.148310 0.084780 -1.276564 0.000000 0.000000
    31 -0.488516 -2.755600 -0.228262 -0.768171 0.097106 -0.216302
    32 0.039889 -1.479791 0.029853 -1.911424 0.000000 0.000000
    33 0.028785 -1.075732 -0.023111 -0.817580 0.000000 0.000000
    34 -1.180679 -2.507217 -0.193861 -0.768285 0.327066 -0.388117
    35 -0.024967 -1.123934 0.017594 -1.467253 0.003595 -0.034695
    36 -0.020058 -0.890965 0.010092 -1.299509 0.000000 0.000000
    37 0.120153 -0.073705 -0.140428 0.024500 3.419287 1.477459
  time 18
    0 7.260193 -6.110947 -6.659704 -1.021839 -0.809532 1.410780
    1 -0.071917 -8.498731 -0.104136 0.452073 -0.083490 0.080553
    2 2.318670 -3.116854 1.179754 -1.431242 3.297599 1.345041
    3 0.000000 -0.000001 -0.000001 0.000000 0.000000 0.000000
    4 -14.630793 -0.616495 -11.232805 0.826018 2.782736 0.727541
    5 0.096946 -8.450418 -0.009364 0.531880 -0.612174 0.317097
    6 -0.586769 -1.264477 0.200164 -0.524267 -0.624319 -2.471334
    7 1.522835 0.058680 0.016850 0.401658 0.160705 -0.108441
    8 1.117948 0.048425 -0.005765 0.136218 -0.005130 -0.411990
    9 -0.963866 -2.785142 -0.085346 0.168389 0.042070 -0.129573
    10 0.028478 -1.403067 0.006272 -0.037159 0.000000 0.000000
    11 0.021414 -0.957782 0.020047 0.031320 -0.000001 0.000005
    12 -0.249534 -2.846962 -0.174215 -0.170253 -0.055679 -0.101857
    13 0.043234 -1.683940 0.096015 -0.112750 0.000000 0.000000
    14 0.031728 -1.160830 0.058837 0.030271 0.000000 0.000000
    15 0.447951 -2.798983 -0.200441 -0.462061 0.020031 0.062696
    16 -0.032909 -1.480207 0.004936 -0.188639 0.000000 0.000000
    17 -0.027023 -1.076920 -0.020212 0.054865 0.000000 0.000000
    18 1.164475 -2.543938 -0.170327 -0.733232 -0.010359 0.354224
    19 0.024032 -1.129040 0.017806 -0.576543 0.000000 0.000000
    20 0.014896 -0.883991 -0.019846 0.104777 0.000000 0.000000
    21 -0.076731 -0.131882 -0.053404 0.190888 0.259662 1.593544
    22 0.583510 -1.197274 0.185379 -0.277780 -0.342351 -0.424459
    23 1.535926 0.010246 0.005009 -0.129164 0.107636 0.023250
    24 1.100770 0.004527 -0.010676 0.028835 0.074520 0.094901
    25 0.957766 -2.746777 -0.090301 -0.225714 0.277395 0.103530
    26 -0.033419 -1.397127 -0.011256 -1.458892 0.000000 0.000000
    27 -0.022361 -0.957433 0.018783 -1.322439 0.000000 0.000000
    28 0.250029 -2.820664 -0.238397 -0.592579 0.076756 -0.161122
    29 -0.049759 -1.680544 0.100480 -1.853482 0.049496 -0.014370
    30 -0.034141 -1.148310 0.084780 -1.276564 0.000000 0.000000
    31 -0.488516 -2.755600 -0.228262 -0.768171 0.097106 -0.216302
    32 0.039889 -1.479791 0.029853 -1.911424 0.000000 0.000000
    33 0.028785 -1.075732 -0.023111 -0.817580 0.000000 0.000000
    34 -1.180679 -2.507217 -0.193861 -0.768285 0.327066 -0.388117
    35 -0.024967 -1.123934 0.017594 -1.467253 0.003595 -0.034695
    36 -0.020058 -0.890965 0.010092 -1.299509 0.000000 0.000000
    37 0.120153 -0.077612 -0.144334 0.009064 3.434145 1.476790
  time 19
    0 7.537545 -5.978130 -6.683143 -1.030403 -0.966893 1.098747
    1 -0.071917 -8.498731 -0.104136 0.402004 0.116083 0.060605
    2 2.232730 -3.335610 1.156315 -1.442080 3.282089 1.278263
    3 0.000000 -0.000001 -0.000001 0.000000 0.000000 0.000000
    4 -14.728452 -0.686810 -11.392966 0.880875 2.739699 0.894214
    5 0.096946 -8.450418 -0.009364 0.573754 -0.599395 0.230171
    6 -0.586769 -1.264477 0.200164 -0.542573 -0.642632 -2.455808
    7 1.522835 0.058680 0.016850 0.389881 0.158748 -0.105444
    8 1.117948 0.048425 -0.005765 0.136002 -0.006364 -0.401053
    9 -0.963866 -2.785142 -0.085346 0.168142 0.041855 -0.123964
    10 0.028478 -1.403067 0.006272 -0.046447 0.000000 0.000000
    11 0.021414 -0.957782 0.020047 0.012785 -0.000001 0.000005
    12 -0.249534 -2.846962 -0.174215 -0.204238 -0.056662 -0.104685
    13 0.043234 -1.683940 0.096015 -0.151387 0.000000 0.000000
    14 0.031728 -1.160830 0.058837 0.002724 0.000000 0.000000
    15 0.447951 -2.798983 -0.200441 -0.509861 0.020103 0.043641
    16 -0.032909 -1.480207 0.004936 -0.240406 0.000000 0.000000
    17 -0.027023 -1.076920 -0.020212 0.024872 0.000000 0.000000
    18 1.164475 -2.543938 -0.170327 -0.819371 -0.008729 0.346467
    19 0.024032 -1.129040 0.017806 -0.628306 0.000000 0.000000
    20 0.014896 -0.883991 -0.019846 0.083205 0.000000 0.000000
    21 -0.072825 -0.131882 -0.057311 0.189576 0.278443 1.597535
    22 0.583510 -1.197274 0.185379 -0.250399 -0.336047 -0.440118
    23 1.535926 0.010246 0.005009 -0.112726 0.085549 -0.005926
    24 1.100770 0.004527 -0.010676 0.027349 0.085666 0.078913
    25 0.957766 -2.746777 -0.090301 -0.229549 0.288649 0.101930
    26 -0.033419 -1.397127 -0.011256 -1.447093 0.000000 0.000000
    27 -0.022361 -0.957433 0.018783 -1.333932 0.000000 0.000000
    28 0.250029 -2.820664 -0.238397 -0.592579 0.076756 -0.161122
    29 -0.049759 -1.680544 0.100480 -1.853482 0.049496 -0.014370
    30 -0.034141 -1.148310 0.084780 -1.276564 0.000000 0.000000
    31 -0.488516 -2.755600 -0.228262 -0.768171 0.097106 -0.216302
    32 0.039889 -1.479791 0.029853 -1.911424 0.000000 0.000000
    33 0.028785 -1.075732 -0.023111 -0.817580 0.000000 0.000000
    34 -1.180679 -2.507217 -0.193861 -0.768285 0.327066 -0.388117
    35 -0.024967 -1.123934 0.017594 -1.467253 0.003595 -0.034695
    36 -0.020058 -0.890965 0.010092 -1.299509 0.000000 0.000000
    37 0.092808 -0.069799 -0.124803 0.086528 3.379313 1.500779
  time 20
    0 7.760208 -5.802344 -6.706581 -1.051492 -1.112423 0.736225
    1 -0.071917 -8.498731 -0.104136 0.159901 0.546623 -0.045141
    2 2.029598 -3.562180 1.093813 -1.468701 3.243548 1.229835
    3 0.000000 -0.000001 -0.000001 0.000000 0.000000 0.000000
    4 -14.744078 -0.706342 -11.385154 0.906226 2.727909 0.995090
    5 0.096946 -8.450418 -0.009364 0.592931 -0.583886 0.162299
    6 -0.586769 -1.264477 0.200164 -0.555491 -0.658426 -2.445379
    7 1.522835 0.058680 0.016850 0.381731 0.152139 -0.095285
    8 1.117948 0.048425 -0.005765 0.134851 -0.008701 -0.378254
    9 -0.963866 -2.785142 -0.085346 0.163698 0.041651 -0.118871
    10 0.028478 -1.403067 0.006272 -0.057194 0.000000 0.000000
    11 0.021414 -0.957782 0.020047 -0.005562 -0.000001 0.000005
    12 -0.249534 -2.846962 -0.174215 -0.236170 -0.056962 -0.105584
    13 0.043234 -1.683940 0.096015 -0.191472 0.000000 0.000000
    14 0.031728 -1.160830 0.058837 -0.029765 0.000000 0.000000
    15 0.447951 -2.798983 -0.200441 -0.553134 0.020175 0.026287
    16 -0.032909 -1.480207 0.004936 -0.292735 0.000000 0.000000
    17 -0.027023 -1.076920 -0.020212 -0.009666 0.000000 0.000000
    18 1.164475 -2.543938 -0.170327 -0.897537 -0.007555 0.335120
    19 0.024032 -1.129040 0.017806 -0.677161 0.000000 0.000000
    20 0.014896 -0.883991 -0.019846 0.056648 0.000000 0.000000
    21 -0.072825 -0.131882 -0.057311 0.189148 0.285056 1.598961
    22 0.583510 -1.197274 0.185379 -0.221412 -0.329383 -0.456694
    23 1.535926 0.010246 0.005009 -0.106670 0.065798 -0.037235
    24 1.100770 0.004527 -0.010676 0.026031 0.095925 0.064645
    25 0.957766 -2.746777 -0.090301 -0.230916 0.292663 0.101356
    26 -0.033419 -1.397127 -0.011256 -1.442914 0.000000 0.000000
    27 -0.022361 -0.957433 0.018783 -1.338034 0.000000 0.000000
    28 0.250029 -2.820664 -0.238397 -0.592579 0.076756 -0.161122
    29 -0.049759 -1.680544 0.100480 -1.853482 0.049496 -0.014370
    30 -0.034141 -1.148310 0.084780 -1.276564 0.000000 0.000000
    31 -0.488516 -2.755600 -0.228262 -0.768171 0.097106 -0.216302
    32 0.039889 -1.479791 0.029853 -1.911424 0.000000 0.000000
    33 0.028785 -1.075732 -0.023111 -0.817580 0.000000 0.000000
    34 -1.180679 -2.507217 -0.193861 -0.768285 0.327066 -0.388117
    35 -0.024967 -1.123934 0.017594 -1.467253 0.003595 -0.034695
    36 -0.020058 -0.890965 0.010092 -1.299509 0.000000 0.000000
    37 0.034213 -0.061986 -0.081833 0.260150 3.254695 1.549712
  time 21
    0 7.928182 -5.591400 -6.737832 -1.077738 -1.230502 0.436110
    1 -0.071917 -8.498731 -0.104136 -0.080394 0.841344 -0.143611
    2 1.771778 -3.780936 1.011780 -1.502548 3.193633 1.167786
    3 0.000000 -0.000001 -0.000001 0.000000 0.000000 0.000000
    4 -14.622980 -0.710248 -11.154678 0.900200 2.754939 1.038800
    5 0.096946 -8.450418 -0.009364 0.585313 -0.566358 0.123413
    6 -0.586769 -1.264477 0.200164 -0.562022 -0.671075 -2.440965
    7 1.522835 0.058680 0.016850 0.377889 0.140227 -0.076958
    8 1.117948 0.048425 -0.005765 0.132670 -0.012332 -0.341942
    9 -0.963866 -2.785142 -0.085346 0.154438 0.041483 -0.114412
    10 0.028478 -1.403067 0.006272 -0.069519 0.000000 0.000000
    11 0.021414 -0.957782 0.020047 -0.023493 -0.000001 0.000005
    12 -0.249534 -2.846962 -0.174215 -0.265329 -0.056506 -0.104266
    13 0.043234 -1.683940 0.096015 -0.232723 0.000000 0.000000
    14 0.031728 -1.160830 0.058837 -0.067564 0.000000 0.000000
    15 0.447951 -2.798983 -0.200441 -0.590682 0.020223 0.011127
    16 -0.032909 -1.480207 0.004936 -0.345013 0.000000 0.000000
    17 -0.027023 -1.076920 -0.020212 -0.049129 0.000000 0.000000
    18 1.164475 -2.543938 -0.170327 -0.965566 -0.006943 0.319754
    19 0.024032 -1.129040 0.017806 -0.722069 0.000000 0.000000
    20 0.014896 -0.883991 -0.019846 0.024520 0.000000 0.000000
    21 -0.076731 -0.131882 -0.053404 0.191399 0.275977 1.598146
    22 0.583510 -1.197274 0.185379 -0.191581 -0.322516 -0.473762
    23 1.535926 0.010246 0.005009 -0.109546 0.042620 -0.162329
    24 1.100770 0.004527 -0.010676 0.024940 0.104817 0.052636
    25 0.957766 -2.746777 -0.090301 -0.228291 0.284945 0.102455
    26 -0.033419 -1.397127 -0.011256 -1.450968 0.000000 0.000000
    27 -0.022361 -0.957433 0.018783 -1.330151 0.000000 0.000000
    28 0.250029 -2.820664 -0.238397 -0.592579 0.076756 -0.161122
    29 -0.049759 -1.680544 0.100480 -1.853482 0.049496 -0.014370
    30 -0.034141 -1.148310 0.084780 -1.276564 0.000000 0.000000
    31 -0.488516 -2.755600 -0.228262 -0.768171 0.097106 -0.216302
    32 0.039889 -1.479791 0.029853 -1.911424 0.000000 0.000000
    33 0.028785 -1.075732 -0.023111 -0.817580 0.000000 0.000000
    34 -1.180679 -2.507217 -0.193861 -0.768285 0.327066 -0.388117
    35 -0.024967 -1.123934 0.017594 -1.467253 0.003595 -0.034695
    36 -0.020058 -0.890965 0.010092 -1.299509 0.000000 0.000000
    37 -0.024383 -0.050267 -0.034956 -2.702929 0.017403 -1.537378
  time 22
    0 8.021935 -5.329673 -6.772989 -1.102050 -1.305201 0.311015
    1 -0.071917 -8.498731 -0.104136 -0.226544 0.708797 -0.175823
    2 1.537396 -3.976255 0.937559 -1.534874 3.143906 1.060525
    3 0.000000 -0.000001 -0.000001 0.000000 0.000000 0.000000
    4 -14.349534 -0.733686 -10.713258 0.870347 2.817530 1.052100
    5 0.096946 -8.450418 -0.009364 0.536661 -0.541145 0.108375
    6 -0.586769 -1.264477 0.200164 -0.561136 -0.680057 -2.443485
    7 1.522835 0.058680 0.016850 0.379020 0.122336 -0.049401
    8 1.117948 0.048425 -0.005765 0.129314 -0.017366 -0.290463
    9 -0.963866 -2.785142 -0.085346 0.139910 0.041339 -0.110745
    10 0.028478 -1.403067 0.006272 -0.083571 0.000000 0.000000
    11 0.021414 -0.957782 0.020047 -0.040707 -0.000001 0.000005
    12 -0.249534 -2.846962 -0.174215 -0.290997 -0.055200 -0.100455
    13 0.043234 -1.683940 0.096015 -0.275000 0.000000 0.000000
    14 0.031728 -1.160830 0.058837 -0.111079 0.000000 0.000000
    15 0.447951 -2.798983 -0.200441 -0.621173 0.020271 -0.001349
    16 -0.032909 -1.480207 0.004936 -0.396882 0.000000 0.000000
    17 -0.027023 -1.076920 -0.020212 -0.093825 0.000000 0.000000
    18 1.164475 -2.543938 -0.170327 -1.021250 -0.006955 0.299915
    19 0.024032 -1.129040 0.017806 -0.762033 0.000000 0.000000
    20 0.014896 -0.883991 -0.019846 -0.013598 0.000000 0.000000
    21 -0.080638 -0.131882 -0.049498 0.197652 0.251273 1.596025
    22 0.583510 -1.197274 0.185379 -0.161668 -0.315625 -0.490877
    23 1.535926 0.010246 0.005009 -0.115867 0.015331 -0.395849
    24 1.100770 0.004527 -0.010676 0.024101 0.111804 0.043394
    25 0.957766 -2.746777 -0.090301 -0.221148 0.263984 0.105435
    26 -0.033419 -1.397127 -0.011256 -1.472868 0.000000 0.000000
    27 -0.022361 -0.957433 0.018783 -1.308767 0.000000 0.000000
    28 0.250029 -2.820664 -0.238397 -0.592579 0.076756 -0.161122
    29 -0.049759 -1.680544 0.100480 -1.853482 0.049496 -0.014370
    30 -0.034141 -1.148310 0.084780 -1.276564 0.000000 0.000000
    31 -0.488516 -2.755600 -0.228262 -0.768171 0.097106 -0.216302
    32 0.039889 -1.479791 0.029853 -1.911424 0.000000 0.000000
    33 0.028785 -1.075732 -0.023111 -0.817580 0.000000 0.000000
    34 -1.180679 -2.507217 -0.193861 -0.768285 0.327066 -0.388117
    35 -0.024967 -1.123934 0.017594 -1.467253 0.003595 -0.034695
    36 -0.020058 -0.890965 0.010092 -1.299509 0.000000 0.000000
    37 -0.055634 -0.050267 0.004108 -2.619617 0.089490 -1.494848
  time 23
    0 8.076624 -4.923411 -6.827678 -1.119547 -1.339457 0.315332
    1 -0.071917 -8.498731 -0.104136 -0.356046 0.417268 -0.186815
    2 1.275669 -4.116884 0.843806 1.564964 0.069002 3.888003
    3 0.000000 -0.000001 -0.000001 0.000000 0.000000 0.000000
    4 -13.962804 -0.772750 -10.115584 0.822416 2.906480 1.041133
    5 0.096946 -8.450418 -0.009364 0.443930 -0.504575 0.103892
    6 -0.586769 -1.264477 0.200164 -0.551847 -0.684723 -2.453913
    7 1.522835 0.058680 0.016850 0.385806 0.097793 -0.011658
    8 1.117948 0.048425 -0.005765 0.124664 -0.023993 -0.222232
    9 -0.963866 -2.785142 -0.085346 0.119538 0.041231 -0.108001
    10 0.028478 -1.403067 0.006272 -0.099379 0.000000 0.000000
    11 0.021414 -0.957782 0.020047 -0.057016 -0.000001 0.000005
    12 -0.249534 -2.846962 -0.174215 -0.312507 -0.052947 -0.093887
    13 0.043234 -1.683940 0.096015 -0.318024 0.000000 0.000000
    14 0.031728 -1.160830 0.058837 -0.160753 0.000000 0.000000
    15 0.447951 -2.798983 -0.200441 -0.643497 0.020307 -0.010673
    16 -0.032909 -1.480207 0.004936 -0.447629 0.000000 0.000000
    17 -0.027023 -1.076920 -0.020212 -0.144031 0.000000 0.000000
    18 1.164475 -2.543938 -0.170327 -1.062428 -0.007686 0.275174
    19 0.024032 -1.129040 0.017806 -0.795974 0.000000 0.000000
    20 0.014896 -0.883991 -0.019846 -0.058250 0.000000 0.000000
    21 -0.088450 -0.127975 -0.041685 0.207233 0.214863 1.593089
    22 0.583510 -1.197274 0.185379 -0.132413 -0.308890 -0.507617
    23 1.535926 0.010246 0.005009 -0.122187 -0.007416 -0.621332
    24 1.100770 0.004527 -0.010676 0.023562 0.116370 0.037491
    25 0.957766 -2.746777 -0.090301 -0.210614 0.233088 0.109819
    26 -0.033419 -1.397127 -0.011256 -1.505129 0.000000 0.000000
    27 -0.022361 -0.957433 0.018783 -1.277278 0.000000 0.000000
    28 0.250029 -2.820664 -0.238397 -0.592579 0.076756 -0.161122
    29 -0.049759 -1.680544 0.100480 -1.853482 0.049496 -0.014370
    30 -0.034141 -1.148310 0.084780 -1.276564 0.000000 0.000000
    31 -0.488516 -2.755600 -0.228262 -0.768171 0.097106 -0.216302
    32 0.039889 -1.479791 0.029853 -1.911424 0.000000 0.000000
    33 0.028785 -1.075732 -0.023111 -0.817580 0.000000 0.000000
    34 -1.180679 -2.507217 -0.193861 -0.768285 0.327066 -0.388117
    35 -0.024967 -1.123934 0.017594 -1.467253 0.003595 -0.034695
    36 -0.020058 -0.890965 0.010092 -1.299509 0.000000 0.000000
    37 -0.055634 -0.050267 0.031452 -2.655185 0.103582 -1.461302
  time 24
    0 8.119594 -4.314017 -6.905806 -1.137873 -1.352912 0.341702
    1 -0.071917 -8.498731 -0.104136 -0.448638 0.125663 -0.202031
    2 1.119414 -4.175480 0.781304 1.537677 0.117883 3.644064
    3 0.000000 -0.000001 -0.000001 0.000000 0.000000 0.000000
    4 -13.497946 -0.827439 -9.420250 0.762156 3.012875 1.011889
    5 0.096946 -8.450418 -0.009364 0.320515 -0.460457 0.107628
    6 -0.586769 -1.264477 0.200164 -0.533113 -0.684523 -2.473169
    7 1.522835 0.058680 0.016850 0.398929 0.065989 0.037303
    8 1.117948 0.048425 -0.005765 0.118588 -0.032335 -0.135564
    9 -0.963866 -2.785142 -0.085346 0.092828 0.041171 -0.106335
    10 0.028478 -1.403067 0.006272 -0.117123 0.000000 0.000000
    11 0.021414 -0.957782 0.020047 -0.072116 -0.000001 0.000005
    12 -0.249534 -2.846962 -0.174215 -0.329089 -0.049663 -0.084276
    13 0.043234 -1.683940 0.096015 -0.361469 0.000000 0.000000
    14 0.031728 -1.160830 0.058837 -0.216954 0.000000 0.000000
    15 0.447951 -2.798983 -0.200441 -0.656280 0.020331 -0.016354
    16 -0.032909 -1.480207 0.004936 -0.496843 0.000000 0.000000
    17 -0.027023 -1.076920 -0.020212 -0.200160 0.000000 0.000000
    18 1.164475 -2.543938 -0.170327 -1.086801 -0.009232 0.245091
    19 0.024032 -1.129040 0.017806 -0.822811 0.000000 0.000000
    20 0.014896 -0.883991 -0.019846 -0.109898 0.000000 0.000000
    21 -0.096263 -0.124069 -0.033872 0.219451 0.170618 1.589781
    22 0.583510 -1.197274 0.185379 -0.104621 -0.302490 -0.523511
    23 1.535926 0.010246 0.005009 -0.125064 -0.016920 -0.722386
    24 1.100770 0.004527 -0.010676 0.023370 0.118012 0.035400
    25 0.957766 -2.746777 -0.090301 -0.197838 0.195564 0.115156
    26 -0.033419 -1.397127 -0.011256 -1.544313 0.000000 0.000000
    27 -0.022361 -0.957433 0.018783 -1.239038 0.000000 0.000000
    28 0.250029 -2.820664 -0.238397 -0.592579 0.076756 -0.161122
    29 -0.049759 -1.680544 0.100480 -1.853482 0.049496 -0.014370
    30 -0.034141 -1.148310 0.084780 -1.276564 0.000000 0.000000
    31 -0.488516 -2.755600 -0.228262 -0.768171 0.097106 -0.216302
    32 0.039889 -1.479791 0.029853 -1.911424 0.000000 0.000000
    33 0.028785 -1.075732 -0.023111 -0.817580 0.000000 0.000000
    34 -1.180679 -2.507217 -0.193861 -0.768285 0.327066 -0.388117
    35 -0.024967 -1.123934 0.017594 -1.467253 0.003595 -0.034695
    36 -0.020058 -0.890965 0.010092 -1.299509 0.000000 0.000000
    37 -0.055634 -0.069799 0.050984 -2.734854 0.105786 -1.424411
  time 25
    0 8.150845 -3.587432 -6.999558 -1.168539 -1.355154 0.410115
    1 -0.071917 -8.498731 -0.104136 -0.484025 -0.006885 -0.246863
    2 1.193635 -4.183292 0.789117 1.541670 0.118729 3.676885
    3 0.000000 -0.000001 -0.000001 0.000000 0.000000 0.000000
    4 -12.997931 -0.886035 -8.674133 0.695315 3.127705 0.970513
    5 0.096946 -8.450418 -0.009364 0.179605 -0.412623 0.117248
    6 -0.586769 -1.264477 0.200164 -0.500202 -0.678710 -2.505979
    7 1.522835 0.058680 0.016850 0.421656 0.020011 0.108066
    8 1.117948 0.048425 -0.005765 0.109756 -0.044176 -0.012121
    9 -0.963866 -2.785142 -0.085346 0.053607 0.041136 -0.105580
    10 0.028478 -1.403067 0.006272 -0.140254 0.000000 0.000000
    11 0.021414 -0.957782 0.020047 -0.088650 -0.000001 0.000005
    12 -0.249534 -2.846962 -0.174215 -0.343052 -0.044510 -0.069283
    13 0.043234 -1.683940 0.096015 -0.413452 0.000000 0.000000
    14 0.031728 -1.160830 0.058837 -0.290855 0.000000 0.000000
    15 0.447951 -2.798983 -0.200441 -0.660629 0.020343 -0.018931
    16 -0.032909 -1.480207 0.004936 -0.553205 0.000000 0.000000
    17 -0.027023 -1.076920 -0.020212 -0.273197 0.000000 0.000000
    18 1.164475 -2.543938 -0.170327 -1.096577 -0.011989 0.203440
    19 0.024032 -1.129040 0.017806 -0.846532 0.000000 0.000000
    20 0.014896 -0.883991 -0.019846 -0.178971 0.000000 0.000000
    21 -0.107982 -0.124069 -0.022153 0.233408 0.122410 1.586438
    22 0.583510 -1.197274 0.185379 -0.079010 -0.296593 -0.538161
    23 1.535926 0.010246 0.005009 -0.124900 -0.013516 -0.695340
    24 1.100770 0.004527 -0.010676 0.025515 0.117293 0.054222
    25 0.957766 -2.746777 -0.090301 -0.183924 0.154745 0.120957
    26 -0.033419 -1.397127 -0.011256 -1.586980 0.000000 0.000000
    27 -0.022361 -0.957433 0.018783 -1.197423 0.000000 0.000000
    28 0.250029 -2.820664 -0.238397 -0.592579 0.076756 -0.161122
    29 -0.049759 -1.680544 0.100480 -1.853482 0.049496 -0.014370
    30 -0.034141 -1.148310 0.084780 -1.276564 0.000000 0.000000
    31 -0.488516 -2.755600 -0.228262 -0.768171 0.097106 -0.216302
    32 0.039889 -1.479791 0.029853 -1.911424 0.000000 0.000000
    33 0.028785 -1.075732 -0.023111 -0.817580 0.000000 0.000000
    34 -1.180679 -2.507217 -0.193861 -0.768285 0.327066 -0.388117
    35 -0.024967 -1.123934 0.017594 -1.467253 0.003595 -0.034695
    36 -0.020058 -0.890965 0.010092 -1.299509 0.000000 0.000000
    37 -0.059540 -0.085424 0.070516 -2.815097 0.100514 -1.388189
  time 26
    0 8.170377 -2.817878 -7.097218 -1.221676 -1.346261 0.541310
    1 -0.071917 -8.498731 -0.104136 -0.463890 0.038170 -0.343399
    2 1.385047 -4.191105 0.804742 1.551558 0.119387 3.758892
    3 0.000000 -0.000001 -0.000001 0.000000 0.000000 0.000000
    4 -12.501822 -0.948537 -7.943642 0.627713 3.241864 0.923069
    5 0.096946 -8.450418 -0.009364 0.034544 -0.364903 0.130387
    6 -0.586769 -1.264477 0.200164 -0.454587 -0.668555 -2.551073
    7 1.522835 0.058680 0.016850 0.453054 -0.039879 0.200260
    8 1.117948 0.048425 -0.005765 0.098202 -0.059504 0.147867
    9 -0.963866 -2.785142 -0.085346 0.002039 0.041124 -0.105364
    10 0.028478 -1.403067 0.006272 -0.169221 0.000000 0.000000
    11 0.021414 -0.957782 0.020047 -0.107714 -0.000001 0.000005
    12 -0.249534 -2.846962 -0.174215 -0.356656 -0.037570 -0.049077
    13 0.043234 -1.683940 0.096015 -0.476075 0.000000 0.000000
    14 0.031728 -1.160830 0.058837 -0.383712 0.000000 0.000000
    15 0.447951 -2.798983 -0.200441 -0.659697 0.020343 -0.019650
    16 -0.032909 -1.480207 0.004936 -0.619778 0.000000 0.000000
    17 -0.027023 -1.076920 -0.020212 -0.364587 0.000000 0.000000
    18 1.164475 -2.543938 -0.170327 -1.097343 -0.015812 0.150002
    19 0.024032 -1.129040 0.017806 -0.870337 0.000000 0.000000
    20 0.014896 -0.883991 -0.019846 -0.266308 0.000000 0.000000
    21 -0.115795 -0.120163 -0.010434 0.248056 0.074178 1.583286
    22 0.583510 -1.197274 0.185379 -0.056344 -0.291380 -0.551121
    23 1.535926 0.010246 0.005009 -0.124483 -0.004995 -0.627727
    24 1.100770 0.004527 -0.010676 0.030860 0.115519 0.101344
    25 0.957766 -2.746777 -0.090301 -0.170022 0.113913 0.126759
    26 -0.033419 -1.397127 -0.011256 -1.629603 0.000000 0.000000
    27 -0.022361 -0.957433 0.018783 -1.155787 0.000000 0.000000
    28 0.250029 -2.820664 -0.238397 -0.592579 0.076756 -0.161122
    29 -0.049759 -1.680544 0.100480 -1.853482 0.049496 -0.014370
    30 -0.034141 -1.148310 0.084780 -1.276564 0.000000 0.000000
    31 -0.488516 -2.755600 -0.228262 -0.768171 0.097106 -0.216302
    32 0.039889 -1.479791 0.029853 -1.911424 0.000000 0.000000
    33 0.028785 -1.075732 -0.023111 -0.817580 0.000000 0.000000
    34 -1.180679 -2.507217 -0.193861 -0.768285 0.327066 -0.388117
    35 -0.024967 -1.123934 0.017594 -1.467253 0.003595 -0.034695
    36 -0.020058 -0.890965 0.010092 -1.299509 0.000000 0.000000
    37 -0.059540 -0.101050 0.074422 -2.852295 0.092366 -1.356841
  time 27
    0 8.186002 -2.083480 -7.190971 -1.289270 -1.324996 0.715110
    1 -0.071917 -8.498731 -0.104136 -0.415850 0.145593 -0.475200
    2 1.631149 -4.195011 0.824274 1.564489 0.119951 3.865491
    3 0.000000 -0.000001 -0.000001 0.000000 0.000000 0.000000
    4 -12.044777 -1.003226 -7.275653 0.565098 3.346342 0.875626
    5 0.096946 -8.450418 -0.009364 -0.101375 -0.321130 0.144677
    6 -0.586769 -1.264477 0.200164 -0.404628 -0.656454 -2.600327
    7 1.522835 0.058680 0.016850 0.487396 -0.103726 0.298554
    8 1.117948 0.048425 -0.005765 0.085858 -0.075791 0.318130
    9 -0.963866 -2.785142 -0.085346 -0.053233 0.041136 -0.105520
    10 0.028478 -1.403067 0.006272 -0.199587 0.000000 0.000000
    11 0.021414 -0.957782 0.020047 -0.126816 -0.000001 0.000005
    12 -0.249534 -2.846962 -0.174215 -0.368926 -0.030068 -0.027205
    13 0.043234 -1.683940 0.096015 -0.540425 0.000000 0.000000
    14 0.031728 -1.160830 0.058837 -0.481141 0.000000 0.000000
    15 0.447951 -2.798983 -0.200441 -0.655481 0.020343 -0.019134
    16 -0.032909 -1.480207 0.004936 -0.687422 0.000000 0.000000
    17 -0.027023 -1.076920 -0.020212 -0.460282 0.000000 0.000000
    18 1.164475 -2.543938 -0.170327 -1.092387 -0.020007 0.093413
    19 0.024032 -1.129040 0.017806 -0.892313 0.000000 0.000000
    20 0.014896 -0.883991 -0.019846 -0.358252 0.000000 0.000000
    21 -0.127514 -0.116256 -0.002621 0.262096 0.029841 1.580505
    22 0.583510 -1.197274 0.185379 -0.037403 -0.287018 -0.561968
    23 1.535926 0.010246 0.005009 -0.123941 0.006079 -0.539847
    24 1.100770 0.004527 -0.010676 0.037823 0.113194 0.162599
    25 0.957766 -2.746777 -0.090301 -0.157234 0.076389 0.132096
    26 -0.033419 -1.397127 -0.011256 -1.668787 0.000000 0.000000
    27 -0.022361 -0.957433 0.018783 -1.117547 0.000000 0.000000
    28 0.250029 -2.820664 -0.238397 -0.592579 0.076756 -0.161122
    29 -0.049759 -1.680544 0.100480 -1.853482 0.049496 -0.014370
    30 -0.034141 -1.148310 0.084780 -1.276564 0.000000 0.000000
    31 -0.488516 -2.755600 -0.228262 -0.768171 0.097106 -0.216302
    32 0.039889 -1.479791 0.029853 -1.911424 0.000000 0.000000
    33 0.028785 -1.075732 -0.023111 -0.817580 0.000000 0.000000
    34 -1.180679 -2.507217 -0.193861 -0.768285 0.327066 -0.388117
    35 -0.024967 -1.123934 0.017594 -1.467253 0.003595 -0.034695
    36 -0.020058 -0.890965 0.010092 -1.299509 0.000000 0.000000
    37 -0.067353 -0.104956 0.043171 -2.819507 0.065046 -1.332279
  time 28
    0 8.193815 -1.466274 -7.269098 -1.356404 -1.299556 0.890318
    1 -0.071917 -8.498731 -0.104136 -0.358519 0.273793 -0.609698
    2 1.877250 -4.198918 0.847712 -1.564157 3.021233 0.830679
    3 0.000000 -0.000001 -0.000001 0.000000 0.000000 0.000000
    4 -11.673671 -1.050102 -6.732668 0.513219 3.432224 0.834171
    5 0.096946 -8.450418 -0.009364 -0.214912 -0.285133 0.157816
    6 -0.586769 -1.264477 0.200164 -0.358627 -0.644853 -2.645577
    7 1.522835 0.058680 0.016850 0.518973 -0.161659 0.387724
    8 1.117948 0.048425 -0.005765 0.074653 -0.090544 0.472302
    9 -0.963866 -2.785142 -0.085346 -0.103525 0.041148 -0.105843
    10 0.028478 -1.403067 0.006272 -0.226797 0.000000 0.000000
    11 0.021414 -0.957782 0.020047 -0.143502 -0.000001 0.000005
    12 -0.249534 -2.846962 -0.174215 -0.378885 -0.023201 -0.007191
    13 0.043234 -1.683940 0.096015 -0.597495 0.000000 0.000000
    14 0.031728 -1.160830 0.058837 -0.568577 0.000000 0.000000
    15 0.447951 -2.798983 -0.200441 -0.649977 0.020343 -0.018008
    16 -0.032909 -1.480207 0.004936 -0.747051 0.000000 0.000000
    17 -0.027023 -1.076920 -0.020212 -0.546094 0.000000 0.000000
    18 1.164475 -2.543938 -0.170327 -1.084909 -0.023878 0.042315
    19 0.024032 -1.129040 0.017806 -0.910467 0.000000 0.000000
    20 0.014896 -0.883991 -0.019846 -0.440938 0.000000 0.000000
    21 -0.135327 -0.116256 0.005191 0.274079 -0.006661 1.578276
    22 0.583510 -1.197274 0.185379 -0.022931 -0.283686 -0.570232
    23 1.535926 0.010246 0.005009 -0.123398 0.017141 -0.451966
    24 1.100770 0.004527 -0.010676 0.044774 0.110881 0.223854
    25 0.957766 -2.746777 -0.090301 -0.146712 0.045493 0.136480
    26 -0.033419 -1.397127 -0.011256 -1.701049 0.000000 0.000000
    27 -0.022361 -0.957433 0.018783 -1.086058 0.000000 0.000000
    28 0.250029 -2.820664 -0.238397 -0.592579 0.076756 -0.161122
    29 -0.049759 -1.680544 0.100480 -1.853482 0.049496 -0.014370
    30 -0.034141 -1.148310 0.084780 -1.276564 0.000000 0.000000
    31 -0.488516 -2.755600 -0.228262 -0.768171 0.097106 -0.216302
    32 0.039889 -1.479791 0.029853 -1.911424 0.000000 0.000000
    33 0.028785 -1.075732 -0.023111 -0.817580 0.000000 0.000000
    34 -1.180679 -2.507217 -0.193861 -0.768285 0.327066 -0.388117
    35 -0.024967 -1.123934 0.017594 -1.467253 0.003595 -0.034695
    36 -0.020058 -0.890965 0.010092 -1.299509 0.000000 0.000000
    37 -0.079072 -0.108863 -0.023237 -2.745687 0.015582 -1.313642
  time 29
    0 8.197721 -1.036573 -7.323787 -1.407699 -1.278291 1.025642
    1 -0.071917 -8.498731 -0.104136 -0.310511 0.381217 -0.714223
    2 2.068662 -4.198918 0.863338 -1.554174 3.020951 0.912686
    3 0.000000 -0.000001 -0.000001 0.000000 0.000000 0.000000
    4 -11.423664 -1.085260 -6.365469 0.477894 3.490310 0.804850
    5 0.096946 -8.450418 -0.009364 -0.292775 -0.260723 0.167405
    6 -0.586769 -1.264477 0.200164 -0.324917 -0.636120 -2.678699
    7 1.522835 0.058680 0.016850 0.542113 -0.203702 0.452467
    8 1.117948 0.048425 -0.005765 0.066515 -0.101234 0.584114
    9 -0.963866 -2.785142 -0.085346 -0.140071 0.041160 -0.106179
    10 0.028478 -1.403067 0.006272 -0.246446 0.000000 0.000000
    11 0.021414 -0.957782 0.020047 -0.155317 -0.000001 0.000005
    12 -0.249534 -2.846962 -0.174215 -0.385508 -0.018179 0.007407
    13 0.043234 -1.683940 0.096015 -0.638279 0.000000 0.000000
    14 0.031728 -1.160830 0.058837 -0.631674 0.000000 0.000000
    15 0.447951 -2.798983 -0.200441 -0.645184 0.020331 -0.016869
    16 -0.032909 -1.480207 0.004936 -0.789476 0.000000 0.000000
    17 -0.027023 -1.076920 -0.020212 -0.607905 0.000000 0.000000
    18 1.164475 -2.543938 -0.170327 -1.078061 -0.026706 0.005333
    19 0.024032 -1.129040 0.017806 -0.922806 0.000000 0.000000
    20 0.014896 -0.883991 -0.019846 -0.500670 0.000000 0.000000
    21 -0.139233 -0.112350 0.009098 0.282431 -0.031457 1.576778
    22 0.583510 -1.197274 0.185379 -0.013687 -0.281565 -0.575538
    23 1.535926 0.010246 0.005009 -0.122982 0.025662 -0.384353
    24 1.100770 0.004527 -0.010676 0.050132 0.109096 0.270976
    25 0.957766 -2.746777 -0.090301 -0.139569 0.024544 0.139460
    26 -0.033419 -1.397127 -0.011256 -1.722948 0.000000 0.000000
    27 -0.022361 -0.957433 0.018783 -1.064674 0.000000 0.000000
    28 0.250029 -2.820664 -0.238397 -0.592579 0.076756 -0.161122
    29 -0.049759 -1.680544 0.100480 -1.853482 0.049496 -0.014370
    30 -0.034141 -1.148310 0.084780 -1.276564 0.000000 0.000000
    31 -0.488516 -2.755600 -0.228262 -0.768171 0.097106 -0.216302
    32 0.039889 -1.479791 0.029853 -1.911424 0.000000 0.000000
    33 0.028785 -1.075732 -0.023111 -0.817580 0.000000 0.000000
    34 -1.180679 -2.507217 -0.193861 -0.768285 0.327066 -0.388117
    35 -0.024967 -1.123934 0.017594 -1.467253 0.003595 -0.034695
    36 -0.020058 -0.890965 0.010092 -1.299509 0.000000 0.000000
    37 -0.086885 -0.112769 -0.085739 -2.671195 6.251282 -1.301696
  time 30
    0 8.197721 -0.876412 -7.343319 -1.428143 -1.269398 1.079978
    1 -0.071917 -8.498731 -0.104136 -0.290375 0.426233 -0.756308
    2 2.142883 -4.198918 0.867244 -1.550276 3.020951 0.945413
    3 0.000000 -0.000001 -0.000001 0.000000 0.000000 0.000000
    4 -11.329911 -1.096979 -6.228746 0.464803 3.511685 0.793728
    5 0.096946 -8.450418 -0.009364 -0.321724 -0.251730 0.171141
    6 -0.586769 -1.264477 0.200164 -0.311827 -0.632677 -2.691549
    7 1.522835 0.058680 0.016850 0.551089 -0.219919 0.477425
    8 1.117948 0.048425 -0.005765 0.063375 -0.105357 0.627234
    9 -0.963866 -2.785142 -0.085346 -0.154146 0.041171 -0.106335
    10 0.028478 -1.403067 0.006272 -0.253978 0.000000 0.000000
    11 0.021414 -0.957782 0.020047 -0.159810 -0.000001 0.000005
    12 -0.249534 -2.846962 -0.174215 -0.387972 -0.016238 0.013051
    13 0.043234 -1.683940 0.096015 -0.653911 0.000000 0.000000
    14 0.031728 -1.160830 0.058837 -0.655902 0.000000 0.000000
    15 0.447951 -2.798983 -0.200441 -0.643142 0.020331 -0.016354
    16 -0.032909 -1.480207 0.004936 -0.805660 0.000000 0.000000
    17 -0.027023 -1.076920 -0.020212 -0.631665 0.000000 0.000000
    18 1.164475 -2.543938 -0.170327 -1.075042 -0.027809 -0.008918
    19 0.024032 -1.129040 0.017806 -0.927334 0.000000 0.000000
    20 0.014896 -0.883991 -0.019846 -0.523625 0.000000 0.000000
    21 -0.143140 -0.112350 0.013004 0.285538 -0.040583 1.576215
    22 0.583510 -1.197274 0.185379 -0.010434 -0.280810 -0.577392
    23 1.535926 0.010246 0.005009 -0.122818 0.029077 -0.357307
    24 1.100770 0.004527 -0.010676 0.052265 0.108389 0.289798
    25 0.957766 -2.746777 -0.090301 -0.136932 0.016814 0.140559
    26 -0.033419 -1.397127 -0.011256 -1.731003 0.000000 0.000000
    27 -0.022361 -0.957433 0.018783 -1.056813 0.000000 0.000000
    28 0.250029 -2.820664 -0.238397 -0.592579 0.076756 -0.161122
    29 -0.049759 -1.680544 0.100480 -1.853482 0.049496 -0.014370
    30 -0.034141 -1.148310 0.084780 -1.276564 0.000000 0.000000
    31 -0.488516 -2.755600 -0.228262 -0.768171 0.097106 -0.216302
    32 0.039889 -1.479791 0.029853 -1.911424 0.000000 0.000000
    33 0.028785 -1.075732 -0.023111 -0.817580 0.000000 0.000000
    34 -1.180679 -2.507217 -0.193861 -0.768285 0.327066 -0.388117
    35 -0.024967 -1.123934 0.017594 -1.467253 0.003595 -0.034695
    36 -0.020058 -0.890965 0.010092 -1.299509 0.000000 0.000000
    37 -0.090791 -0.112769 -0.116990 -2.637065 6.230001 -1.297491
end
