"VertexLitGeneric"
{
	$basetexture	"models\weapons\tfa_cso\dark_knight_overlord\$20@003_m4a1b1"
	$bumpmap "models\weapons\tfa_cso\dark_knight_overlord\$20@003_m4a1b1_n"
	$phongexponenttexture "models\weapons\v_models\Request CSO\Dragon TMP S"
	
	$phong "1"
	$phongexponent "20"
	$phongfresnelranges "[0.15 0.65 1.00]"
	$phongalbedotint "1"
	$phongboost "16"
}