version 1
nodes
  0 "Bone_L_Upper" -1
  1 "Bone01" 0
  2 "Bone_Lefthand" 1
  3 "Bone02" 2
  4 "CSO_PUMPKIN" 3
  5 "CSO_PUMPKIN_Inner" 3
  6 "Bone05" 2
  7 "Bone06" 6
  8 "Bone07" 7
  9 "Bone21" 2
  10 "Bone22" 9
  11 "Bone23" 10
  12 "Bone17" 2
  13 "Bone18" 12
  14 "Bone19" 13
  15 "Bone13" 2
  16 "Bone14" 15
  17 "Bone15" 16
  18 "Bone09" 2
  19 "Bone10" 18
  20 "Bone11" 19
  21 "Bone_Se_Hand-L" 2
  22 "Bone_R_Upper" -1
  23 "Bone04" 22
  24 "Bone_Righthand" 23
  25 "Bone27" 24
  26 "Bone28" 25
  27 "Bone29" 26
  28 "Bone31" 24
  29 "Bone32" 28
  30 "Bone33" 29
  31 "Bone35" 24
  32 "Bone36" 31
  33 "Bone37" 32
  34 "Bone39" 24
  35 "Bone40" 34
  36 "Bone41" 35
  37 "Bone43" 24
  38 "Bone44" 37
  39 "Bone45" 38
  40 "Bone_Se_Hand-R" 24
end
skeleton
  time 0
    0 13.071628 5.172389 -5.433760 -4.338692 -1.166522 -0.709501
    1 0.002627 0.000056 9.038851 -1.570838 0.000012 -0.000044
    2 -0.071919 -8.498734 -0.104135 0.181137 0.206839 -0.096512
    3 0.158530 -3.108199 4.344622 5.297365 -0.722887 3.933444
    4 -0.000001 0.000000 0.000000 0.000000 0.000000 0.000000
    5 -0.000001 0.000000 0.000000 0.000000 0.000000 0.000000
    6 0.583509 -1.197273 0.185379 -0.003339 0.029364 -0.620868
    7 1.535926 0.010246 0.005008 -0.397043 -0.224711 -0.211950
    8 1.100770 0.004527 -0.010675 -0.286806 -0.025314 -0.569663
    9 0.957766 -2.746777 -0.090301 0.111344 -0.154211 0.131479
    10 -0.033419 -1.397127 -0.011256 -0.483142 0.000000 -0.000001
    11 -0.022361 -0.957433 0.018782 -0.132944 0.000000 0.000000
    12 0.250029 -2.820664 -0.238396 -0.046999 0.012084 -0.009307
    13 -0.049759 -1.680544 0.100480 -0.344206 0.000000 -0.000002
    14 -0.034141 -1.148309 0.084778 -0.137690 0.000000 0.000000
    15 -0.488517 -2.755599 -0.228261 -0.138819 -0.026233 -0.216984
    16 0.039889 -1.479791 0.029853 -0.256197 0.000000 0.000001
    17 0.028786 -1.075732 -0.023111 -0.120963 0.000000 0.000000
    18 -1.180679 -2.507216 -0.193861 -0.166396 0.116170 -0.293557
    19 -0.024966 -1.123936 0.017594 -0.251488 0.000000 0.000001
    20 -0.020058 -0.890965 0.010091 -0.194049 0.000000 0.000000
    21 0.120152 -0.050267 -0.062301 0.012156 3.295443 1.512633
    22 -5.632068 3.292713 -10.531571 4.617527 0.940470 0.134277
    23 -0.003715 -0.001665 -8.821198 1.570797 0.000001 -0.000045
    24 0.096946 -8.450419 -0.009364 -0.122393 -0.015496 0.137593
    25 -0.587378 -1.261647 0.201457 -0.057747 -0.178899 -2.570693
    26 1.522835 0.058680 0.016851 0.452643 -0.313844 0.344218
    27 1.117948 0.048424 -0.005765 -0.000003 -0.000005 0.419747
    28 -0.956054 -2.753892 0.004500 -0.270949 0.061162 -0.128889
    29 0.028478 -1.403067 0.006271 -0.347084 0.000000 0.000000
    30 0.021414 -0.957782 0.020047 -0.318678 0.000000 0.000000
    31 -0.249534 -2.811807 -0.060930 -0.250603 -0.000005 -0.000007
    32 0.043234 -1.683941 0.096014 -0.506117 0.000007 -0.000011
    33 0.031729 -1.160830 0.058836 -0.216139 0.000007 0.000007
    34 0.447952 -2.752107 -0.110595 -0.423317 0.057879 0.075569
    35 -0.032910 -1.480208 0.004936 -0.278940 0.000000 0.000002
    36 -0.027022 -1.076920 -0.020212 0.008133 0.000000 0.000000
    37 1.164475 -2.512688 -0.100012 -0.365992 0.079694 0.117837
    38 0.024033 -1.129040 0.017806 -0.333928 0.000000 0.000000
    39 0.014896 -0.883991 -0.019845 -0.154676 0.000000 0.000000
    40 -0.112054 -0.127324 -0.040292 0.322885 0.160755 1.329799
  time 1
    0 13.071628 5.172389 -5.433760 -4.338692 -1.166522 -0.709501
    1 0.002627 0.000056 9.038851 -1.570838 0.000012 -0.000044
    2 -0.071919 -8.498734 -0.104135 0.181137 0.206839 -0.096512
    3 0.158530 -3.108199 4.344622 5.297365 -0.722887 3.933444
    4 -0.000001 0.000000 0.000000 0.000000 0.000000 0.000000
    5 -0.000001 0.000000 0.000000 0.000000 0.000000 0.000000
    6 0.583509 -1.197273 0.185379 -0.003339 0.029364 -0.620868
    7 1.535926 0.010246 0.005008 -0.397043 -0.224711 -0.211950
    8 1.100770 0.004527 -0.010675 -0.286806 -0.025314 -0.569663
    9 0.957766 -2.746777 -0.090301 0.111344 -0.154211 0.131479
    10 -0.033419 -1.397127 -0.011256 -0.483142 0.000000 -0.000001
    11 -0.022361 -0.957433 0.018782 -0.132944 0.000000 0.000000
    12 0.250029 -2.820664 -0.238396 -0.046999 0.012084 -0.009307
    13 -0.049759 -1.680544 0.100480 -0.344206 0.000000 -0.000002
    14 -0.034141 -1.148309 0.084778 -0.137690 0.000000 0.000000
    15 -0.488517 -2.755599 -0.228261 -0.138819 -0.026233 -0.216984
    16 0.039889 -1.479791 0.029853 -0.256197 0.000000 0.000001
    17 0.028786 -1.075732 -0.023111 -0.120963 0.000000 0.000000
    18 -1.180679 -2.507216 -0.193861 -0.166396 0.116170 -0.293557
    19 -0.024966 -1.123936 0.017594 -0.251488 0.000000 0.000001
    20 -0.020058 -0.890965 0.010091 -0.194049 0.000000 0.000000
    21 0.120152 -0.050267 -0.062301 0.012156 3.295443 1.512633
    22 -5.632068 3.292713 -10.531571 4.617527 0.940470 0.134277
    23 -0.003715 -0.001665 -8.821198 1.570797 0.000001 -0.000045
    24 0.096946 -8.450419 -0.009364 -0.122393 -0.015496 0.137593
    25 -0.587378 -1.261647 0.201457 -0.057747 -0.178899 -2.570693
    26 1.522835 0.058680 0.016851 0.452643 -0.313844 0.344218
    27 1.117948 0.048424 -0.005765 -0.000003 -0.000005 0.419747
    28 -0.956054 -2.753892 0.004500 -0.270949 0.061162 -0.128889
    29 0.028478 -1.403067 0.006271 -0.347084 0.000000 0.000000
    30 0.021414 -0.957782 0.020047 -0.318678 0.000000 0.000000
    31 -0.249534 -2.811807 -0.060930 -0.250603 -0.000005 -0.000007
    32 0.043234 -1.683941 0.096014 -0.506117 0.000007 -0.000011
    33 0.031729 -1.160830 0.058836 -0.216139 0.000007 0.000007
    34 0.447952 -2.752107 -0.110595 -0.423317 0.057879 0.075569
    35 -0.032910 -1.480208 0.004936 -0.278940 0.000000 0.000002
    36 -0.027022 -1.076920 -0.020212 0.008133 0.000000 0.000000
    37 1.164475 -2.512688 -0.100012 -0.365992 0.079694 0.117837
    38 0.024033 -1.129040 0.017806 -0.333928 0.000000 0.000000
    39 0.014896 -0.883991 -0.019845 -0.154676 0.000000 0.000000
    40 -0.112054 -0.127324 -0.040292 0.322885 0.160755 1.329799
end
