version 1
nodes
  0 "Bone_L_Upper" -1
  1 "Bone01" 0
  2 "Bone_Lefthand" 1
  3 "Bone02" 2
  4 "CSO_PUMPKIN" 3
  5 "CSO_PUMPKIN_Inner" 3
  6 "Bone05" 2
  7 "Bone06" 6
  8 "Bone07" 7
  9 "Bone21" 2
  10 "Bone22" 9
  11 "Bone23" 10
  12 "Bone17" 2
  13 "Bone18" 12
  14 "Bone19" 13
  15 "Bone13" 2
  16 "Bone14" 15
  17 "Bone15" 16
  18 "Bone09" 2
  19 "Bone10" 18
  20 "Bone11" 19
  21 "Bone_Se_Hand-L" 2
  22 "Bone_R_Upper" -1
  23 "Bone04" 22
  24 "Bone_Righthand" 23
  25 "Bone27" 24
  26 "Bone28" 25
  27 "Bone29" 26
  28 "Bone31" 24
  29 "Bone32" 28
  30 "Bone33" 29
  31 "Bone35" 24
  32 "Bone36" 31
  33 "Bone37" 32
  34 "Bone39" 24
  35 "Bone40" 34
  36 "Bone41" 35
  37 "Bone43" 24
  38 "Bone44" 37
  39 "Bone45" 38
  40 "Bone_Se_Hand-R" 24
end
skeleton
  time 0
    0 4.024477 7.008383 3.261818 -0.730068 0.074095 -3.022211
    1 0.135444 0.191468 8.898222 -1.394999 1.674310 -1.513144
    2 -0.071919 -8.498734 -0.104135 -0.040435 0.478995 0.004559
    3 -0.255545 -2.514431 4.743071 0.547078 -1.536294 2.150667
    4 -0.000001 0.000000 0.000000 0.000000 0.000000 0.000000
    5 -0.000001 0.000000 0.000000 0.000000 0.000000 0.000000
    6 0.583509 -1.197273 0.185379 -0.176133 -0.400571 -0.567513
    7 1.535926 0.010246 0.005008 -0.405281 -0.013015 -0.431692
    8 1.100770 0.004527 -0.010675 -0.006570 0.014834 -0.240678
    9 0.957766 -2.746777 -0.090301 -0.424021 -0.162277 0.191558
    10 -0.033419 -1.397127 -0.011256 -0.128772 0.000000 -0.000001
    11 -0.022361 -0.957433 0.018782 -0.440153 0.000000 0.000000
    12 0.250029 -2.820664 -0.238396 -0.364973 -0.002921 0.008442
    13 -0.049759 -1.680544 0.100480 -0.122887 0.000000 -0.000002
    14 -0.034141 -1.148309 0.084778 -0.484127 0.000000 0.000000
    15 -0.488517 -2.755599 -0.228261 -0.300336 0.010332 -0.264491
    16 0.039889 -1.479791 0.029853 -0.198108 0.000000 0.000001
    17 0.028786 -1.075732 -0.023111 -0.441898 0.000000 0.000000
    18 -1.180679 -2.507216 -0.193861 -0.323785 0.013294 -0.477916
    19 -0.024966 -1.123936 0.017594 -0.160777 0.000000 0.000001
    20 -0.020058 -0.890965 0.010091 -0.504809 0.000000 0.000000
    21 0.120152 -0.050267 -0.054488 0.287569 3.110905 1.561085
    22 -6.514907 6.492029 0.171880 -0.157380 -2.906975 -1.073163
    23 -0.085749 -0.255579 -8.907138 2.300168 0.635897 -1.479782
    24 0.096946 -8.450419 -0.009364 -0.026765 -0.688694 0.011598
    25 -0.591284 -1.257741 0.232708 0.201839 -0.425650 -2.662327
    26 1.522835 0.058680 0.016851 0.004899 0.007667 0.367379
    27 1.117948 0.048424 -0.005765 -0.011976 -0.022177 0.551574
    28 -0.963867 -2.785143 -0.085346 -0.345765 0.162276 -0.191556
    29 0.028478 -1.403067 0.006271 -0.336765 0.000000 0.000000
    30 0.021414 -0.957782 0.020047 -0.241222 0.000000 0.000000
    31 -0.249534 -2.846964 -0.174215 -0.286638 -0.000125 -0.008396
    32 0.043234 -1.683941 0.096014 -0.330949 0.002823 -0.000167
    33 0.031729 -1.160830 0.058836 -0.285254 0.000642 0.008372
    34 0.447952 -2.798983 -0.200441 -0.222079 -0.010397 0.265093
    35 -0.032910 -1.480208 0.004936 -0.406108 0.000000 0.000002
    36 -0.027022 -1.076920 -0.020212 -0.242980 0.000000 0.000000
    37 1.164475 -2.543939 -0.170327 -0.245526 -0.013294 0.477914
    38 0.024033 -1.129040 0.017806 -0.368779 0.000000 0.000000
    39 0.014896 -0.883991 -0.019845 -0.305874 0.000000 0.000000
    40 -0.139399 -0.111699 0.014397 0.285534 -0.040597 1.576226
  time 1
    0 4.161200 6.828690 3.070406 -0.723329 0.084403 -3.015379
    1 0.135444 0.191468 8.898222 -1.396605 1.498434 -1.510925
    2 -0.071919 -8.498734 -0.104135 -0.032588 0.455049 -0.008637
    3 -0.255545 -2.514431 4.743071 0.555526 -1.536202 2.145172
    4 -0.000001 0.000000 0.000000 0.000000 0.000000 0.000000
    5 -0.000001 0.000000 0.000000 0.000000 0.000000 0.000000
    6 0.583509 -1.197273 0.185379 -0.175617 -0.382146 -0.569502
    7 1.535926 0.010246 0.005008 -0.404765 -0.007418 -0.418464
    8 1.100770 0.004527 -0.010675 -0.006283 0.014954 -0.221211
    9 0.957766 -2.746777 -0.090301 -0.424021 -0.162277 0.191558
    10 -0.033419 -1.397127 -0.011256 -0.128772 0.000000 -0.000001
    11 -0.022361 -0.957433 0.018782 -0.440153 0.000000 0.000000
    12 0.250029 -2.820664 -0.238396 -0.364973 -0.002921 0.008442
    13 -0.049759 -1.680544 0.100480 -0.122887 0.000000 -0.000002
    14 -0.034141 -1.148309 0.084778 -0.484127 0.000000 0.000000
    15 -0.488517 -2.755599 -0.228261 -0.305511 0.010332 -0.264491
    16 0.039889 -1.479791 0.029853 -0.198108 0.000000 0.000001
    17 0.028786 -1.075732 -0.023111 -0.441898 0.000000 0.000000
    18 -1.180679 -2.507216 -0.193861 -0.333128 0.013294 -0.477916
    19 -0.024966 -1.123936 0.017594 -0.160777 0.000000 0.000001
    20 -0.020058 -0.890965 0.010091 -0.504809 0.000000 0.000000
    21 0.120152 -0.050267 -0.054488 0.287569 3.110905 1.561085
    22 -6.581315 6.281085 0.167974 -0.139266 -2.941586 -1.041245
    23 -0.085749 -0.255579 -8.907138 2.120636 0.482219 -1.483855
    24 0.096946 -8.450419 -0.009364 -0.020240 -0.692131 0.005461
    25 -0.591284 -1.257741 0.232708 0.201839 -0.425650 -2.662327
    26 1.522835 0.058680 0.016851 0.004899 0.007667 0.367379
    27 1.117948 0.048424 -0.005765 -0.011976 -0.022177 0.551574
    28 -0.963867 -2.785143 -0.085346 -0.345765 0.162276 -0.191556
    29 0.028478 -1.403067 0.006271 -0.336765 0.000000 0.000000
    30 0.021414 -0.957782 0.020047 -0.241222 0.000000 0.000000
    31 -0.249534 -2.846964 -0.174215 -0.286638 -0.000125 -0.008396
    32 0.043234 -1.683941 0.096014 -0.330949 0.002823 -0.000167
    33 0.031729 -1.160830 0.058836 -0.285254 0.000642 0.008372
    34 0.447952 -2.798983 -0.200441 -0.222079 -0.010397 0.265093
    35 -0.032910 -1.480208 0.004936 -0.406108 0.000000 0.000002
    36 -0.027022 -1.076920 -0.020212 -0.242980 0.000000 0.000000
    37 1.164475 -2.543939 -0.170327 -0.245526 -0.013294 0.477914
    38 0.024033 -1.129040 0.017806 -0.368779 0.000000 0.000000
    39 0.014896 -0.883991 -0.019845 -0.305874 0.000000 0.000000
    40 -0.139399 -0.111699 0.014397 0.323134 -0.042584 1.577604
  time 2
    0 4.516680 6.348206 2.578204 -0.737556 0.114680 -2.999893
    1 0.135444 0.191468 8.898222 -1.412857 1.197883 -1.507144
    2 -0.071919 -8.498734 -0.104135 -0.013204 0.394915 -0.042641
    3 -0.255545 -2.514431 4.743071 0.574129 -1.535926 2.133219
    4 -0.000001 0.000000 0.000000 0.000000 0.000000 0.000000
    5 -0.000001 0.000000 0.000000 0.000000 0.000000 0.000000
    6 0.583509 -1.197273 0.185379 -0.174263 -0.334584 -0.574476
    7 1.535926 0.010246 0.005008 -0.403464 0.007047 -0.384324
    8 1.100770 0.004527 -0.010675 -0.005516 0.015254 -0.170995
    9 0.957766 -2.746777 -0.090301 -0.424021 -0.162277 0.191558
    10 -0.033419 -1.397127 -0.011256 -0.128772 0.000000 -0.000001
    11 -0.022361 -0.957433 0.018782 -0.440153 0.000000 0.000000
    12 0.250029 -2.820664 -0.238396 -0.364973 -0.002921 0.008442
    13 -0.049759 -1.680544 0.100480 -0.122887 0.000000 -0.000002
    14 -0.034141 -1.148309 0.084778 -0.484127 0.000000 0.000000
    15 -0.488517 -2.755599 -0.228261 -0.318852 0.010332 -0.264491
    16 0.039889 -1.479791 0.029853 -0.198108 0.000000 0.000001
    17 0.028786 -1.075732 -0.023111 -0.441898 0.000000 0.000000
    18 -1.180679 -2.507216 -0.193861 -0.357223 0.013294 -0.477916
    19 -0.024966 -1.123936 0.017594 -0.160777 0.000000 0.000001
    20 -0.020058 -0.890965 0.010091 -0.504809 0.000000 0.000000
    21 0.120152 -0.050267 -0.054488 0.287569 3.110905 1.561085
    22 -6.757102 5.738100 0.156255 -0.106393 -2.951613 -0.985317
    23 -0.085749 -0.255579 -8.907138 1.844017 0.238678 -1.489242
    24 0.096946 -8.450419 -0.009364 -0.003618 -0.702668 -0.010933
    25 -0.591284 -1.257741 0.232708 0.201839 -0.425650 -2.662327
    26 1.522835 0.058680 0.016851 0.004899 0.007667 0.367379
    27 1.117948 0.048424 -0.005765 -0.011976 -0.022177 0.551574
    28 -0.963867 -2.785143 -0.085346 -0.345765 0.162276 -0.191556
    29 0.028478 -1.403067 0.006271 -0.336765 0.000000 0.000000
    30 0.021414 -0.957782 0.020047 -0.241222 0.000000 0.000000
    31 -0.249534 -2.846964 -0.174215 -0.286638 -0.000125 -0.008396
    32 0.043234 -1.683941 0.096014 -0.330949 0.002823 -0.000167
    33 0.031729 -1.160830 0.058836 -0.285254 0.000642 0.008372
    34 0.447952 -2.798983 -0.200441 -0.222079 -0.010397 0.265093
    35 -0.032910 -1.480208 0.004936 -0.406108 0.000000 0.000002
    36 -0.027022 -1.076920 -0.020212 -0.242980 0.000000 0.000000
    37 1.164475 -2.543939 -0.170327 -0.245526 -0.013294 0.477914
    38 0.024033 -1.129040 0.017806 -0.368779 0.000000 0.000000
    39 0.014896 -0.883991 -0.019845 -0.305874 0.000000 0.000000
    40 -0.143305 -0.111699 0.022210 0.420085 -0.047733 1.581164
  time 3
    0 4.997163 5.645060 1.902402 -0.881422 0.182864 -2.992423
    1 0.135444 0.191468 8.898222 -1.436101 0.966471 -1.504220
    2 -0.071919 -8.498734 -0.104135 0.011429 0.316123 -0.088974
    3 -0.255545 -2.514431 4.743071 0.592448 -1.535649 2.121562
    4 -0.000001 0.000000 0.000000 0.000000 0.000000 0.000000
    5 -0.000001 0.000000 0.000000 0.000000 0.000000 0.000000
    6 0.583509 -1.197273 0.185379 -0.172274 -0.269552 -0.580935
    7 1.535926 0.010246 0.005008 -0.401696 0.026870 -0.337656
    8 1.100770 0.004527 -0.010675 -0.004461 0.015589 -0.102361
    9 0.957766 -2.746777 -0.090301 -0.424021 -0.162277 0.191558
    10 -0.033419 -1.397127 -0.011256 -0.128772 0.000000 -0.000001
    11 -0.022361 -0.957433 0.018782 -0.440153 0.000000 0.000000
    12 0.250029 -2.820664 -0.238396 -0.364973 -0.002921 0.008442
    13 -0.049759 -1.680544 0.100480 -0.122887 0.000000 -0.000002
    14 -0.034141 -1.148309 0.084778 -0.484127 0.000000 0.000000
    15 -0.488517 -2.755599 -0.228261 -0.337093 0.010332 -0.264491
    16 0.039889 -1.479791 0.029853 -0.198108 0.000000 0.000001
    17 0.028786 -1.075732 -0.023111 -0.441898 0.000000 0.000000
    18 -1.180679 -2.507216 -0.193861 -0.390169 0.013294 -0.477916
    19 -0.024966 -1.123936 0.017594 -0.160777 0.000000 0.000001
    20 -0.020058 -0.890965 0.010091 -0.504809 0.000000 0.000000
    21 0.120152 -0.050267 -0.054488 0.287569 3.110905 1.561085
    22 -6.999297 4.999796 0.140629 -0.308998 -2.688466 -0.926282
    23 -0.085749 -0.255579 -8.907138 1.966560 0.347187 -1.486933
    24 0.096946 -8.450419 -0.009364 0.018761 -0.720480 -0.034665
    25 -0.591284 -1.257741 0.232708 0.201839 -0.425650 -2.662327
    26 1.522835 0.058680 0.016851 0.004899 0.007667 0.367379
    27 1.117948 0.048424 -0.005765 -0.011976 -0.022177 0.551574
    28 -0.963867 -2.785143 -0.085346 -0.345765 0.162276 -0.191556
    29 0.028478 -1.403067 0.006271 -0.336765 0.000000 0.000000
    30 0.021414 -0.957782 0.020047 -0.241222 0.000000 0.000000
    31 -0.249534 -2.846964 -0.174215 -0.286638 -0.000125 -0.008396
    32 0.043234 -1.683941 0.096014 -0.330949 0.002823 -0.000167
    33 0.031729 -1.160830 0.058836 -0.285254 0.000642 0.008372
    34 0.447952 -2.798983 -0.200441 -0.222079 -0.010397 0.265093
    35 -0.032910 -1.480208 0.004936 -0.406108 0.000000 0.000002
    36 -0.027022 -1.076920 -0.020212 -0.242980 0.000000 0.000000
    37 1.164475 -2.543939 -0.170327 -0.245526 -0.013294 0.477914
    38 0.024033 -1.129040 0.017806 -0.368779 0.000000 0.000000
    39 0.014896 -0.883991 -0.019845 -0.305874 0.000000 0.000000
    40 -0.151118 -0.111699 0.030022 0.552688 -0.054763 1.586041
  time 4
    0 5.524523 4.809097 1.168004 -0.953214 0.265333 -2.989144
    1 0.135444 0.191468 8.898222 -1.489108 0.595359 -1.499481
    2 -0.071919 -8.498734 -0.104135 0.034557 0.236333 -0.140191
    3 -0.255545 -2.514431 4.743071 0.600706 -1.535557 2.116291
    4 -0.000001 0.000000 0.000000 0.000000 0.000000 0.000000
    5 -0.000001 0.000000 0.000000 0.000000 0.000000 0.000000
    6 0.583509 -1.197273 0.185379 -0.169913 -0.198674 -0.587503
    7 1.535926 0.010246 0.005008 -0.399768 0.048490 -0.286856
    8 1.100770 0.004527 -0.010675 -0.003286 0.015889 -0.027571
    9 0.957766 -2.746777 -0.090301 -0.424021 -0.162277 0.191558
    10 -0.033419 -1.397127 -0.011256 -0.128772 0.000000 -0.000001
    11 -0.022361 -0.957433 0.018782 -0.440153 0.000000 0.000000
    12 0.250029 -2.820664 -0.238396 -0.364973 -0.002921 0.008442
    13 -0.049759 -1.680544 0.100480 -0.122887 0.000000 -0.000002
    14 -0.034141 -1.148309 0.084778 -0.484127 0.000000 0.000000
    15 -0.488517 -2.755599 -0.228261 -0.356968 0.010332 -0.264491
    16 0.039889 -1.479791 0.029853 -0.198108 0.000000 0.000001
    17 0.028786 -1.075732 -0.023111 -0.441898 0.000000 0.000000
    18 -1.180679 -2.507216 -0.193861 -0.426066 0.013294 -0.477916
    19 -0.024966 -1.123936 0.017594 -0.160777 0.000000 0.000001
    20 -0.020058 -0.890965 0.010091 -0.504809 0.000000 0.000000
    21 0.120152 -0.050267 -0.054488 0.287569 3.110905 1.561085
    22 -7.257117 4.195084 0.125004 -0.559330 -2.425543 -0.795972
    23 -0.085749 -0.255579 -8.907138 2.022398 0.396394 -1.485847
    24 0.096946 -8.450419 -0.009364 0.042675 -0.745819 -0.062903
    25 -0.591284 -1.257741 0.232708 0.201839 -0.425650 -2.662327
    26 1.522835 0.058680 0.016851 0.004899 0.007667 0.367379
    27 1.117948 0.048424 -0.005765 -0.011976 -0.022177 0.551574
    28 -0.963867 -2.785143 -0.085346 -0.345765 0.162276 -0.191556
    29 0.028478 -1.403067 0.006271 -0.336765 0.000000 0.000000
    30 0.021414 -0.957782 0.020047 -0.241222 0.000000 0.000000
    31 -0.249534 -2.846964 -0.174215 -0.286638 -0.000125 -0.008396
    32 0.043234 -1.683941 0.096014 -0.330949 0.002823 -0.000167
    33 0.031729 -1.160830 0.058836 -0.285254 0.000642 0.008372
    34 0.447952 -2.798983 -0.200441 -0.222079 -0.010397 0.265093
    35 -0.032910 -1.480208 0.004936 -0.406108 0.000000 0.000002
    36 -0.027022 -1.076920 -0.020212 -0.242980 0.000000 0.000000
    37 1.164475 -2.543939 -0.170327 -0.245526 -0.013294 0.477914
    38 0.024033 -1.129040 0.017806 -0.368779 0.000000 0.000000
    39 0.014896 -0.883991 -0.019845 -0.305874 0.000000 0.000000
    40 -0.158931 -0.111699 0.041742 0.697161 -0.062426 1.591363
  time 5
    0 6.008913 3.918445 0.492203 -0.951062 0.187977 -3.126788
    1 0.135444 0.191468 8.898222 -1.562901 0.182989 -1.494137
    2 -0.071919 -8.498734 -0.104135 0.049158 0.173499 -0.190395
    3 -0.255545 -2.514431 4.743071 0.589126 -1.535696 2.123641
    4 -0.000001 0.000000 0.000000 0.000000 0.000000 0.000000
    5 -0.000001 0.000000 0.000000 0.000000 0.000000 0.000000
    6 0.583509 -1.197273 0.185379 -0.167516 -0.133615 -0.593088
    7 1.535926 0.010246 0.005008 -0.398000 0.068360 -0.240241
    8 1.100770 0.004527 -0.010675 -0.002196 0.016057 0.041063
    9 0.957766 -2.746777 -0.090301 -0.424021 -0.162277 0.191558
    10 -0.033419 -1.397127 -0.011256 -0.128772 0.000000 -0.000001
    11 -0.022361 -0.957433 0.018782 -0.440153 0.000000 0.000000
    12 0.250029 -2.820664 -0.238396 -0.364973 -0.002921 0.008442
    13 -0.049759 -1.680544 0.100480 -0.122887 0.000000 -0.000002
    14 -0.034141 -1.148309 0.084778 -0.484127 0.000000 0.000000
    15 -0.488517 -2.755599 -0.228261 -0.375225 0.010332 -0.264491
    16 0.039889 -1.479791 0.029853 -0.198108 0.000000 0.000001
    17 0.028786 -1.075732 -0.023111 -0.441898 0.000000 0.000000
    18 -1.180679 -2.507216 -0.193861 -0.459012 0.013294 -0.477916
    19 -0.024966 -1.123936 0.017594 -0.160777 0.000000 0.000001
    20 -0.020058 -0.890965 0.010091 -0.504809 0.000000 0.000000
    21 0.120152 -0.050267 -0.054488 0.287569 3.110905 1.561085
    22 -7.495406 3.468499 0.105472 -0.924669 -2.367611 -0.396756
    23 -0.085749 -0.255579 -8.907138 2.001572 0.378024 -1.486254
    24 0.096946 -8.450419 -0.009364 0.063874 -0.778959 -0.092771
    25 -0.591284 -1.257741 0.232708 0.201839 -0.425650 -2.662327
    26 1.522835 0.058680 0.016851 0.004899 0.007667 0.367379
    27 1.117948 0.048424 -0.005765 -0.011976 -0.022177 0.551574
    28 -0.963867 -2.785143 -0.085346 -0.345765 0.162276 -0.191556
    29 0.028478 -1.403067 0.006271 -0.336765 0.000000 0.000000
    30 0.021414 -0.957782 0.020047 -0.241222 0.000000 0.000000
    31 -0.249534 -2.846964 -0.174215 -0.286638 -0.000125 -0.008396
    32 0.043234 -1.683941 0.096014 -0.330949 0.002823 -0.000167
    33 0.031729 -1.160830 0.058836 -0.285254 0.000642 0.008372
    34 0.447952 -2.798983 -0.200441 -0.222079 -0.010397 0.265093
    35 -0.032910 -1.480208 0.004936 -0.406108 0.000000 0.000002
    36 -0.027022 -1.076920 -0.020212 -0.242980 0.000000 0.000000
    37 1.164475 -2.543939 -0.170327 -0.245526 -0.013294 0.477914
    38 0.024033 -1.129040 0.017806 -0.368779 0.000000 0.000000
    39 0.014896 -0.883991 -0.019845 -0.305874 0.000000 0.000000
    40 -0.162837 -0.111699 0.053461 0.829744 -0.069471 1.596240
  time 6
    0 6.360486 3.059043 0.000000 -1.090434 -0.099530 -3.322003
    1 0.135444 0.191468 8.898222 -1.599468 -0.009705 -1.491666
    2 -0.071919 -8.498734 -0.104135 0.048208 0.145891 -0.235125
    3 -0.255545 -2.514431 4.743071 0.547078 -1.536294 2.150667
    4 -0.000001 0.000000 0.000000 0.000000 0.000000 0.000000
    5 -0.000001 0.000000 0.000000 0.000000 0.000000 0.000000
    6 0.583509 -1.197273 0.185379 -0.165598 -0.086027 -0.596887
    7 1.535926 0.010246 0.005008 -0.396699 0.082922 -0.206168
    8 1.100770 0.004527 -0.010675 -0.001393 0.016153 0.091279
    9 0.957766 -2.746777 -0.090301 -0.424021 -0.162277 0.191558
    10 -0.033419 -1.397127 -0.011256 -0.128772 0.000000 -0.000001
    11 -0.022361 -0.957433 0.018782 -0.440153 0.000000 0.000000
    12 0.250029 -2.820664 -0.238396 -0.364973 -0.002921 0.008442
    13 -0.049759 -1.680544 0.100480 -0.122887 0.000000 -0.000002
    14 -0.034141 -1.148309 0.084778 -0.484127 0.000000 0.000000
    15 -0.488517 -2.755599 -0.228261 -0.388566 0.010332 -0.264491
    16 0.039889 -1.479791 0.029853 -0.198108 0.000000 0.000001
    17 0.028786 -1.075732 -0.023111 -0.441898 0.000000 0.000000
    18 -1.180679 -2.507216 -0.193861 -0.483107 0.013294 -0.477916
    19 -0.024966 -1.123936 0.017594 -0.160777 0.000000 0.000001
    20 -0.020058 -0.890965 0.010091 -0.504809 0.000000 0.000000
    21 0.120152 -0.050267 -0.054488 0.287569 3.110905 1.561085
    22 -7.663380 2.948952 0.085940 -1.323553 -2.559307 0.028165
    23 -0.085749 -0.255579 -8.907138 1.928576 0.313643 -1.487657
    24 0.096946 -8.450419 -0.009364 0.078045 -0.820253 -0.121379
    25 -0.591284 -1.257741 0.232708 0.201839 -0.425650 -2.662327
    26 1.522835 0.058680 0.016851 0.004899 0.007667 0.367379
    27 1.117948 0.048424 -0.005765 -0.011976 -0.022177 0.551574
    28 -0.963867 -2.785143 -0.085346 -0.345765 0.162276 -0.191556
    29 0.028478 -1.403067 0.006271 -0.336765 0.000000 0.000000
    30 0.021414 -0.957782 0.020047 -0.241222 0.000000 0.000000
    31 -0.249534 -2.846964 -0.174215 -0.286638 -0.000125 -0.008396
    32 0.043234 -1.683941 0.096014 -0.330949 0.002823 -0.000167
    33 0.031729 -1.160830 0.058836 -0.285254 0.000642 0.008372
    34 0.447952 -2.798983 -0.200441 -0.222079 -0.010397 0.265093
    35 -0.032910 -1.480208 0.004936 -0.406108 0.000000 0.000002
    36 -0.027022 -1.076920 -0.020212 -0.242980 0.000000 0.000000
    37 1.164475 -2.543939 -0.170327 -0.245526 -0.013294 0.477914
    38 0.024033 -1.129040 0.017806 -0.368779 0.000000 0.000000
    39 0.014896 -0.883991 -0.019845 -0.305874 0.000000 0.000000
    40 -0.170650 -0.115605 0.057367 0.926716 -0.074605 1.599812
  time 7
    0 6.497209 2.309021 -0.187506 1.459836 2.792347 -0.147539
    1 0.135444 0.191468 8.898222 -1.559216 0.202123 -1.494389
    2 -0.071919 -8.498734 -0.104135 -0.170408 0.472930 -0.311333
    3 2.420318 -4.713717 4.325090 0.067940 -1.539702 2.477271
    4 -0.000001 0.000000 0.000000 0.000000 0.000000 0.000000
    5 -0.000001 0.000000 0.000000 0.000000 0.000000 0.000000
    6 0.583509 -1.197273 0.185379 -0.164819 -0.067575 -0.598289
    7 1.535926 0.010246 0.005008 -0.396208 0.088566 -0.192966
    8 1.100770 0.004527 -0.010675 -0.001069 0.016177 0.110746
    9 0.957766 -2.746777 -0.090301 -0.424021 -0.162277 0.191558
    10 -0.033419 -1.397127 -0.011256 -0.128772 0.000000 -0.000001
    11 -0.022361 -0.957433 0.018782 -0.440153 0.000000 0.000000
    12 0.250029 -2.820664 -0.238396 -0.364973 -0.002921 0.008442
    13 -0.049759 -1.680544 0.100480 -0.122887 0.000000 -0.000002
    14 -0.034141 -1.148309 0.084778 -0.484113 0.000000 0.000000
    15 -0.488517 -2.755599 -0.228261 -0.393741 0.010332 -0.264491
    16 0.039889 -1.479791 0.029853 -0.198108 0.000000 0.000001
    17 0.028786 -1.075732 -0.023111 -0.441898 0.000000 0.000000
    18 -1.180679 -2.507216 -0.193861 -0.492449 0.013294 -0.477916
    19 -0.024966 -1.123936 0.017594 -0.160777 0.000000 0.000001
    20 -0.020058 -0.890965 0.010091 -0.504809 0.000000 0.000000
    21 0.120152 -0.050267 -0.054488 0.287569 3.110905 1.561085
    22 -7.733694 2.741915 0.054689 1.281073 -0.749815 -2.818039
    23 -0.085749 -0.255579 -8.907138 1.799368 0.198970 -1.490056
    24 0.096946 -8.450419 -0.009364 0.055135 -1.112172 -0.180063
    25 -0.591284 -1.257741 0.232708 0.201839 -0.425650 -2.662327
    26 1.522835 0.058680 0.016851 0.004899 0.007667 0.367379
    27 1.117948 0.048424 -0.005765 -0.011976 -0.022177 0.551574
    28 -0.963867 -2.785143 -0.085346 -0.345765 0.162276 -0.191556
    29 0.028478 -1.403067 0.006271 -0.336765 0.000000 0.000000
    30 0.021414 -0.957782 0.020047 -0.241222 0.000000 0.000000
    31 -0.249534 -2.846964 -0.174215 -0.286638 -0.000125 -0.008396
    32 0.043234 -1.683941 0.096014 -0.330949 0.002823 -0.000167
    33 0.031729 -1.160830 0.058836 -0.285254 0.000642 0.008372
    34 0.447952 -2.798983 -0.200441 -0.222079 -0.010397 0.265093
    35 -0.032910 -1.480208 0.004936 -0.406108 0.000000 0.000002
    36 -0.027022 -1.076920 -0.020212 -0.242980 0.000000 0.000000
    37 1.164475 -2.543939 -0.170327 -0.245526 -0.013294 0.477914
    38 0.024033 -1.129040 0.017806 -0.368779 0.000000 0.000000
    39 0.014896 -0.883991 -0.019845 -0.305874 0.000000 0.000000
    40 -0.170650 -0.115605 0.061273 0.964315 -0.076607 1.601202
  time 8
    0 6.497209 1.676189 1.863338 0.709900 2.370420 -0.773268
    1 0.135444 0.191468 8.898222 -1.566020 0.166395 -1.493935
    2 -0.071919 -8.498734 -0.104135 -0.358641 0.331416 -0.435681
    3 32.811870 16.529119 -20.046748 0.067940 -1.539702 2.477271
    4 -0.000001 0.000000 0.000000 0.000000 0.000000 0.000000
    5 -0.000001 0.000000 0.000000 0.000000 0.000000 0.000000
    6 0.583509 -1.197273 0.185379 -0.164819 -0.067575 -0.598289
    7 1.535926 0.010246 0.005008 -0.396208 0.088566 -0.192966
    8 1.100770 0.004527 -0.010675 -0.001069 0.016177 0.110746
    9 0.957766 -2.746777 -0.090301 -0.424021 -0.162277 0.191558
    10 -0.033419 -1.397127 -0.011256 -0.128772 0.000000 -0.000001
    11 -0.022361 -0.957433 0.018782 -0.440153 0.000000 0.000000
    12 0.250029 -2.820664 -0.238396 -0.364973 -0.002921 0.008442
    13 -0.049759 -1.680544 0.100480 -0.122887 0.000000 -0.000002
    14 -0.034141 -1.148309 0.084778 -0.484127 0.000000 0.000000
    15 -0.488517 -2.755599 -0.228261 -0.393726 0.010332 -0.264491
    16 0.039889 -1.479791 0.029853 -0.198108 0.000000 0.000001
    17 0.028786 -1.075732 -0.023111 -0.441898 0.000000 0.000000
    18 -1.180679 -2.507216 -0.193861 -0.492449 0.013294 -0.477916
    19 -0.024966 -1.123936 0.017594 -0.160777 0.000000 0.000001
    20 -0.020058 -0.890965 0.010091 -0.504809 0.000000 0.000000
    21 0.120152 -0.050267 -0.054488 0.287569 3.110905 1.561085
    22 -7.733694 1.015300 3.082125 0.423311 -0.701538 -2.078453
    23 -0.085749 -0.255579 -8.907138 1.784458 0.185708 -1.490328
    24 0.096946 -8.450419 -0.009364 -0.275003 -0.417298 0.058186
    25 -0.591284 -1.257741 0.232708 0.201839 -0.425650 -2.662327
    26 1.522835 0.058680 0.016851 0.004899 0.007667 0.367379
    27 1.117948 0.048424 -0.005765 -0.011976 -0.022177 0.551574
    28 -0.963867 -2.785143 -0.085346 -0.345765 0.162276 -0.191556
    29 0.028478 -1.403067 0.006271 -0.336765 0.000000 0.000000
    30 0.021414 -0.957782 0.020047 -0.241222 0.000000 0.000000
    31 -0.249534 -2.846964 -0.174215 -0.286638 -0.000125 -0.008396
    32 0.043234 -1.683941 0.096014 -0.330949 0.002823 -0.000167
    33 0.031729 -1.160830 0.058836 -0.285254 0.000642 0.008372
    34 0.447952 -2.798983 -0.200441 -0.222079 -0.010397 0.265093
    35 -0.032910 -1.480208 0.004936 -0.406108 0.000000 0.000002
    36 -0.027022 -1.076920 -0.020212 -0.242980 0.000000 0.000000
    37 1.164475 -2.543939 -0.170327 -0.245526 -0.013294 0.477914
    38 0.024033 -1.129040 0.017806 -0.368779 0.000000 0.000000
    39 0.014896 -0.883991 -0.019845 -0.305874 0.000000 0.000000
    40 -0.170650 -0.115605 0.061273 0.964315 -0.076607 1.601202
  time 9
    0 6.497209 1.742597 1.347697 0.640635 2.821812 -0.587435
    1 0.135444 0.191468 8.898222 -1.599468 -0.009705 -1.491666
    2 -0.071919 -8.498734 -0.104135 -0.532649 0.078620 -0.545396
    3 11.822948 48.108207 -6.151793 0.067940 -1.539702 2.477271
    4 -0.000001 0.000000 0.000000 0.000000 0.000000 0.000000
    5 -0.000001 0.000000 0.000000 0.000000 0.000000 0.000000
    6 0.583509 -1.197273 0.185379 -0.164819 -0.067575 -0.598289
    7 1.535926 0.010246 0.005008 -0.396208 0.088566 -0.192966
    8 1.100770 0.004527 -0.010675 -0.001069 0.016177 0.110746
    9 0.957766 -2.746777 -0.090301 -0.424009 -0.162277 0.191558
    10 -0.033419 -1.397127 -0.011256 -0.128772 0.000000 -0.000001
    11 -0.022361 -0.957433 0.018782 -0.440153 0.000000 0.000000
    12 0.250029 -2.820664 -0.238396 -0.364973 -0.002921 0.008442
    13 -0.049759 -1.680544 0.100480 -0.122887 0.000000 -0.000002
    14 -0.034141 -1.148309 0.084778 -0.484127 0.000000 0.000000
    15 -0.488517 -2.755599 -0.228261 -0.393726 0.010332 -0.264491
    16 0.039889 -1.479791 0.029853 -0.198108 0.000000 0.000001
    17 0.028786 -1.075732 -0.023111 -0.441898 0.000000 0.000000
    18 -1.180679 -2.507216 -0.193861 -0.492449 0.013294 -0.477916
    19 -0.024966 -1.123936 0.017594 -0.160777 0.000000 0.000001
    20 -0.020058 -0.890965 0.010091 -0.504809 0.000000 0.000000
    21 0.120152 -0.050267 -0.054488 0.287569 3.110905 1.561085
    22 -7.733694 1.253588 2.418043 0.415931 -0.500038 -2.108960
    23 -0.085749 -0.255579 -8.907138 1.555780 -0.018293 -1.494311
    24 0.096946 -8.450419 -0.009364 -0.725834 -0.423293 0.322332
    25 -0.591284 -1.257741 0.232708 0.201839 -0.425650 -2.662327
    26 1.522835 0.058680 0.016851 0.004899 0.007667 0.367379
    27 1.117948 0.048424 -0.005765 -0.011976 -0.022177 0.551574
    28 -0.963867 -2.785143 -0.085346 -0.345765 0.162276 -0.191556
    29 0.028478 -1.403067 0.006271 -0.336765 0.000000 0.000000
    30 0.021414 -0.957782 0.020047 -0.241222 0.000000 0.000000
    31 -0.249534 -2.846964 -0.174215 -0.286638 -0.000125 -0.008396
    32 0.043234 -1.683941 0.096014 -0.330949 0.002823 -0.000167
    33 0.031729 -1.160830 0.058836 -0.285254 0.000642 0.008372
    34 0.447952 -2.798983 -0.200441 -0.222079 -0.010397 0.265093
    35 -0.032910 -1.480208 0.004936 -0.406108 0.000000 0.000002
    36 -0.027022 -1.076920 -0.020212 -0.242980 0.000000 0.000000
    37 1.164475 -2.543939 -0.170327 -0.245526 -0.013294 0.477914
    38 0.024033 -1.129040 0.017806 -0.368779 0.000000 0.000000
    39 0.014896 -0.883991 -0.019845 -0.305874 0.000000 0.000000
    40 -0.170650 -0.115605 0.061273 0.964315 -0.076607 1.601202
  time 10
    0 6.497209 1.891039 0.222663 0.571089 3.002985 -0.412806
    1 0.135444 0.191468 8.898222 -1.599468 -0.009705 -1.491666
    2 -0.071919 -8.498734 -0.104135 -0.612066 -0.056682 -0.589002
    3 -1.798561 46.803480 -2.749345 0.067940 -1.539702 2.477271
    4 -0.000001 0.000000 0.000000 0.000000 0.000000 0.000000
    5 -0.000001 0.000000 0.000000 0.000000 0.000000 0.000000
    6 0.583509 -1.197273 0.185379 -0.164819 -0.067575 -0.598289
    7 1.535926 0.010246 0.005008 -0.396208 0.088566 -0.192966
    8 1.100770 0.004527 -0.010675 -0.001069 0.016177 0.110746
    9 0.957766 -2.746777 -0.090301 -0.424021 -0.162277 0.191558
    10 -0.033419 -1.397127 -0.011256 -0.128772 0.000000 -0.000001
    11 -0.022361 -0.957433 0.018782 -0.440153 0.000000 0.000000
    12 0.250029 -2.820664 -0.238396 -0.364973 -0.002921 0.008442
    13 -0.049759 -1.680544 0.100480 -0.122887 0.000000 -0.000002
    14 -0.034141 -1.148309 0.084778 -0.484127 0.000000 0.000000
    15 -0.488517 -2.755599 -0.228261 -0.393726 0.010332 -0.264491
    16 0.039889 -1.479791 0.029853 -0.198108 0.000000 0.000001
    17 0.028786 -1.075732 -0.023111 -0.441898 0.000000 0.000000
    18 -1.180679 -2.507216 -0.193861 -0.492449 0.013294 -0.477916
    19 -0.024966 -1.123936 0.017594 -0.160777 0.000000 0.000001
    20 -0.020058 -0.890965 0.010091 -0.504809 0.000000 0.000000
    21 0.120152 -0.050267 -0.054488 0.287569 3.110905 1.561085
    22 -7.733694 1.777042 0.953154 0.391780 -0.411209 -2.144268
    23 -0.085749 -0.255579 -8.907138 1.555780 -0.018293 -1.494311
    24 0.096946 -8.450419 -0.009364 -1.000407 -0.429565 0.481042
    25 -0.591284 -1.257741 0.232708 0.201839 -0.425650 -2.662327
    26 1.522835 0.058680 0.016851 0.004899 0.007667 0.367379
    27 1.117948 0.048424 -0.005765 -0.011976 -0.022177 0.551574
    28 -0.963867 -2.785143 -0.085346 -0.345765 0.162276 -0.191556
    29 0.028478 -1.403067 0.006271 -0.336765 0.000000 0.000000
    30 0.021414 -0.957782 0.020047 -0.241222 0.000000 0.000000
    31 -0.249534 -2.846964 -0.174215 -0.286638 -0.000125 -0.008396
    32 0.043234 -1.683941 0.096014 -0.330949 0.002823 -0.000167
    33 0.031729 -1.160830 0.058836 -0.285254 0.000642 0.008372
    34 0.447952 -2.798983 -0.200441 -0.222079 -0.010397 0.265093
    35 -0.032910 -1.480208 0.004936 -0.406108 0.000000 0.000002
    36 -0.027022 -1.076920 -0.020212 -0.242980 0.000000 0.000000
    37 1.164475 -2.543939 -0.170327 -0.245526 -0.013294 0.477914
    38 0.024033 -1.129040 0.017806 -0.368779 0.000000 0.000000
    39 0.014896 -0.883991 -0.019845 -0.305874 0.000000 0.000000
    40 -0.170650 -0.115605 0.061273 0.964315 -0.076607 1.601202
  time 11
    0 6.497209 2.035575 -0.902371 0.612460 2.999333 -0.397684
    1 0.135444 0.191468 8.898222 -1.599468 -0.009705 -1.491666
    2 -0.071919 -8.498734 -0.104135 -0.612066 -0.056682 -0.589002
    3 -13.943463 42.916643 -1.175078 0.067940 -1.539702 2.477271
    4 -0.000001 0.000000 0.000000 0.000000 0.000000 0.000000
    5 -0.000001 0.000000 0.000000 0.000000 0.000000 0.000000
    6 0.583509 -1.197273 0.185379 -0.164819 -0.067575 -0.598289
    7 1.535926 0.010246 0.005008 -0.396208 0.088566 -0.192966
    8 1.100770 0.004527 -0.010675 -0.001069 0.016177 0.110746
    9 0.957766 -2.746777 -0.090301 -0.424021 -0.162277 0.191558
    10 -0.033419 -1.397127 -0.011256 -0.128772 0.000000 -0.000001
    11 -0.022361 -0.957433 0.018782 -0.440153 0.000000 0.000000
    12 0.250029 -2.820664 -0.238396 -0.364973 -0.002921 0.008442
    13 -0.049759 -1.680544 0.100480 -0.122887 0.000000 -0.000002
    14 -0.034141 -1.148309 0.084778 -0.484127 0.000000 0.000000
    15 -0.488517 -2.755599 -0.228261 -0.393726 0.010332 -0.264491
    16 0.039889 -1.479791 0.029853 -0.198108 0.000000 0.000001
    17 0.028786 -1.075732 -0.023111 -0.441898 0.000000 0.000000
    18 -1.180679 -2.507216 -0.193861 -0.492449 0.013294 -0.477916
    19 -0.024966 -1.123936 0.017594 -0.160777 0.000000 0.000001
    20 -0.020058 -0.890965 0.010091 -0.504809 0.000000 0.000000
    21 0.120152 -0.050267 -0.054488 0.287569 3.110905 1.561085
    22 -7.733694 2.300495 -0.503922 0.449092 -0.454064 -2.188520
    23 -0.085749 -0.255579 -8.907138 1.555780 -0.018293 -1.494311
    24 0.096946 -8.450419 -0.009364 -1.000407 -0.429565 0.481027
    25 -0.591284 -1.257741 0.232708 0.201839 -0.425650 -2.662327
    26 1.522835 0.058680 0.016851 0.004899 0.007667 0.367379
    27 1.117948 0.048424 -0.005765 -0.011976 -0.022177 0.551574
    28 -0.963867 -2.785143 -0.085346 -0.345765 0.162276 -0.191556
    29 0.028478 -1.403067 0.006271 -0.336765 0.000000 0.000000
    30 0.021414 -0.957782 0.020047 -0.241222 0.000000 0.000000
    31 -0.249534 -2.846964 -0.174215 -0.286638 -0.000125 -0.008396
    32 0.043234 -1.683941 0.096014 -0.330949 0.002823 -0.000167
    33 0.031729 -1.160830 0.058836 -0.285254 0.000642 0.008372
    34 0.447952 -2.798983 -0.200441 -0.222079 -0.010397 0.265093
    35 -0.032910 -1.480208 0.004936 -0.406108 0.000000 0.000002
    36 -0.027022 -1.076920 -0.020212 -0.242980 0.000000 0.000000
    37 1.164475 -2.543939 -0.170327 -0.245526 -0.013294 0.477914
    38 0.024033 -1.129040 0.017806 -0.368779 0.000000 0.000000
    39 0.014896 -0.883991 -0.019845 -0.305874 0.000000 0.000000
    40 -0.170650 -0.115605 0.061273 0.964315 -0.076607 1.601202
  time 12
    0 6.497209 2.105889 -1.414106 0.534490 3.006476 -0.397047
    1 0.135444 0.191468 8.898222 -1.562146 0.186950 -1.494187
    2 -0.071919 -8.498734 -0.104135 -0.612066 -0.056682 -0.589002
    3 -24.533630 36.486759 -0.792254 0.067940 -1.539702 2.477271
    4 -0.000001 0.000000 0.000000 0.000000 0.000000 0.000000
    5 -0.000001 0.000000 0.000000 0.000000 0.000000 0.000000
    6 0.583509 -1.197273 0.185379 -0.164819 -0.067575 -0.598289
    7 1.535926 0.010246 0.005008 -0.396208 0.088566 -0.192966
    8 1.100770 0.004527 -0.010675 -0.001069 0.016177 0.110746
    9 0.957766 -2.746777 -0.090301 -0.424021 -0.162277 0.191558
    10 -0.033419 -1.397127 -0.011256 -0.128772 0.000000 -0.000001
    11 -0.022361 -0.957433 0.018782 -0.440153 0.000000 0.000000
    12 0.250029 -2.820664 -0.238396 -0.364973 -0.002921 0.008442
    13 -0.049759 -1.680544 0.100480 -0.122887 0.000000 -0.000002
    14 -0.034141 -1.148309 0.084778 -0.484127 0.000000 0.000000
    15 -0.488517 -2.755599 -0.228261 -0.393741 0.010332 -0.264491
    16 0.039889 -1.479791 0.029853 -0.198108 0.000000 0.000001
    17 0.028786 -1.075732 -0.023111 -0.441898 0.000000 0.000000
    18 -1.180679 -2.507216 -0.193861 -0.492449 0.013294 -0.477916
    19 -0.024966 -1.123936 0.017594 -0.160777 0.000000 0.000001
    20 -0.020058 -0.890965 0.010091 -0.504809 0.000000 0.000000
    21 0.120152 -0.050267 -0.054488 0.287569 3.110905 1.561085
    22 -7.733694 2.538784 -1.168004 0.392834 -0.424949 -2.163946
    23 -0.085749 -0.255579 -8.907138 1.693956 0.105053 -1.491912
    24 0.096946 -8.450419 -0.009364 -1.000407 -0.429565 0.481042
    25 -0.591284 -1.257741 0.232708 0.201839 -0.425650 -2.662327
    26 1.522835 0.058680 0.016851 0.004899 0.007667 0.367379
    27 1.117948 0.048424 -0.005765 -0.011976 -0.022177 0.551574
    28 -0.963867 -2.785143 -0.085346 -0.345765 0.162276 -0.191556
    29 0.028478 -1.403067 0.006271 -0.336765 0.000000 0.000000
    30 0.021414 -0.957782 0.020047 -0.241222 0.000000 0.000000
    31 -0.249534 -2.846964 -0.174215 -0.286638 -0.000125 -0.008396
    32 0.043234 -1.683941 0.096014 -0.330949 0.002823 -0.000167
    33 0.031729 -1.160830 0.058836 -0.285254 0.000642 0.008372
    34 0.447952 -2.798983 -0.200441 -0.222079 -0.010397 0.265093
    35 -0.032910 -1.480208 0.004936 -0.406108 0.000000 0.000002
    36 -0.027022 -1.076920 -0.020212 -0.242980 0.000000 0.000000
    37 1.164475 -2.543939 -0.170327 -0.245526 -0.013294 0.477914
    38 0.024033 -1.129040 0.017806 -0.368779 0.000000 0.000000
    39 0.014896 -0.883991 -0.019845 -0.305874 0.000000 0.000000
    40 -0.170650 -0.115605 0.061273 0.964315 -0.076607 1.601202
  time 13
    0 6.497209 2.105889 -1.414106 0.534490 3.006476 -0.397047
    1 0.135444 0.191468 8.898222 -1.562146 0.186950 -1.494187
    2 -0.071919 -8.498734 -0.104135 -0.612066 -0.056682 -0.589002
    3 -33.197957 21.154260 -5.261140 0.067940 -1.539702 2.477271
    4 -0.000001 0.000000 0.000000 0.000000 0.000000 0.000000
    5 -0.000001 0.000000 0.000000 0.000000 0.000000 0.000000
    6 0.583509 -1.197273 0.185379 -0.164819 -0.067575 -0.598289
    7 1.535926 0.010246 0.005008 -0.396208 0.088566 -0.192966
    8 1.100770 0.004527 -0.010675 -0.001069 0.016177 0.110746
    9 0.957766 -2.746777 -0.090301 -0.424021 -0.162277 0.191558
    10 -0.033419 -1.397127 -0.011256 -0.128772 0.000000 -0.000001
    11 -0.022361 -0.957433 0.018782 -0.440153 0.000000 0.000000
    12 0.250029 -2.820664 -0.238396 -0.364973 -0.002921 0.008442
    13 -0.049759 -1.680544 0.100480 -0.122887 0.000000 -0.000002
    14 -0.034141 -1.148309 0.084778 -0.484127 0.000000 0.000000
    15 -0.488517 -2.755599 -0.228261 -0.393741 0.010332 -0.264491
    16 0.039889 -1.479791 0.029853 -0.198108 0.000000 0.000001
    17 0.028786 -1.075732 -0.023111 -0.441898 0.000000 0.000000
    18 -1.180679 -2.507216 -0.193861 -0.492449 0.013294 -0.477916
    19 -0.024966 -1.123936 0.017594 -0.160777 0.000000 0.000001
    20 -0.020058 -0.890965 0.010091 -0.504809 0.000000 0.000000
    21 0.120152 -0.050267 -0.054488 0.287569 3.110905 1.561085
    22 -7.733694 2.538784 -1.168004 0.392834 -0.424949 -2.163946
    23 -0.085749 -0.255579 -8.907138 1.693956 0.105053 -1.491912
    24 0.096946 -8.450419 -0.009364 -1.000407 -0.429565 0.481042
    25 -0.591284 -1.257741 0.232708 0.201839 -0.425650 -2.662327
    26 1.522835 0.058680 0.016851 0.004899 0.007667 0.367379
    27 1.117948 0.048424 -0.005765 -0.011976 -0.022177 0.551574
    28 -0.963867 -2.785143 -0.085346 -0.345765 0.162276 -0.191556
    29 0.028478 -1.403067 0.006271 -0.336765 0.000000 0.000000
    30 0.021414 -0.957782 0.020047 -0.241222 0.000000 0.000000
    31 -0.249534 -2.846964 -0.174215 -0.286638 -0.000125 -0.008396
    32 0.043234 -1.683941 0.096014 -0.330949 0.002823 -0.000167
    33 0.031729 -1.160830 0.058836 -0.285254 0.000642 0.008372
    34 0.447952 -2.798983 -0.200441 -0.222079 -0.010397 0.265093
    35 -0.032910 -1.480208 0.004936 -0.406108 0.000000 0.000002
    36 -0.027022 -1.076920 -0.020212 -0.242980 0.000000 0.000000
    37 1.164475 -2.543939 -0.170327 -0.245526 -0.013294 0.477914
    38 0.024033 -1.129040 0.017806 -0.368779 0.000000 0.000000
    39 0.014896 -0.883991 -0.019845 -0.305874 0.000000 0.000000
    40 -0.170650 -0.115605 0.061273 0.964315 -0.076607 1.601202
  time 14
    0 6.497209 2.105889 -1.414106 0.534490 3.006476 -0.397047
    1 0.135444 0.191468 8.898222 -1.562146 0.186950 -1.494187
    2 -0.071919 -8.498734 -0.104135 -0.612066 -0.056682 -0.589002
    3 -37.131671 9.669534 -9.730027 0.067940 -1.539702 2.477271
    4 -0.000001 0.000000 0.000000 0.000000 0.000000 0.000000
    5 -0.000001 0.000000 0.000000 0.000000 0.000000 0.000000
    6 0.583509 -1.197273 0.185379 -0.164819 -0.067575 -0.598289
    7 1.535926 0.010246 0.005008 -0.396208 0.088566 -0.192966
    8 1.100770 0.004527 -0.010675 -0.001069 0.016177 0.110746
    9 0.957766 -2.746777 -0.090301 -0.424021 -0.162277 0.191558
    10 -0.033419 -1.397127 -0.011256 -0.128772 0.000000 -0.000001
    11 -0.022361 -0.957433 0.018782 -0.440153 0.000000 0.000000
    12 0.250029 -2.820664 -0.238396 -0.364973 -0.002921 0.008442
    13 -0.049759 -1.680544 0.100480 -0.122887 0.000000 -0.000002
    14 -0.034141 -1.148309 0.084778 -0.484127 0.000000 0.000000
    15 -0.488517 -2.755599 -0.228261 -0.393741 0.010332 -0.264491
    16 0.039889 -1.479791 0.029853 -0.198108 0.000000 0.000001
    17 0.028786 -1.075732 -0.023111 -0.441898 0.000000 0.000000
    18 -1.180679 -2.507216 -0.193861 -0.492449 0.013294 -0.477916
    19 -0.024966 -1.123936 0.017594 -0.160777 0.000000 0.000001
    20 -0.020058 -0.890965 0.010091 -0.504809 0.000000 0.000000
    21 0.120152 -0.050267 -0.054488 0.287569 3.110905 1.561085
    22 -7.733694 2.538784 -1.168004 0.392834 -0.424949 -2.163946
    23 -0.085749 -0.255579 -8.907138 1.693956 0.105053 -1.491912
    24 0.096946 -8.450419 -0.009364 -1.000407 -0.429565 0.481042
    25 -0.591284 -1.257741 0.232708 0.201839 -0.425650 -2.662327
    26 1.522835 0.058680 0.016851 0.004899 0.007667 0.367379
    27 1.117948 0.048424 -0.005765 -0.011976 -0.022177 0.551574
    28 -0.963867 -2.785143 -0.085346 -0.345765 0.162276 -0.191556
    29 0.028478 -1.403067 0.006271 -0.336765 0.000000 0.000000
    30 0.021414 -0.957782 0.020047 -0.241222 0.000000 0.000000
    31 -0.249534 -2.846964 -0.174215 -0.286638 -0.000125 -0.008396
    32 0.043234 -1.683941 0.096014 -0.330949 0.002823 -0.000167
    33 0.031729 -1.160830 0.058836 -0.285254 0.000642 0.008372
    34 0.447952 -2.798983 -0.200441 -0.222079 -0.010397 0.265093
    35 -0.032910 -1.480208 0.004936 -0.406108 0.000000 0.000002
    36 -0.027022 -1.076920 -0.020212 -0.242980 0.000000 0.000000
    37 1.164475 -2.543939 -0.170327 -0.245526 -0.013294 0.477914
    38 0.024033 -1.129040 0.017806 -0.368779 0.000000 0.000000
    39 0.014896 -0.883991 -0.019845 -0.305874 0.000000 0.000000
    40 -0.170650 -0.115605 0.061273 0.964315 -0.076607 1.601202
  time 15
    0 6.497209 2.105889 -1.414106 0.534490 3.006476 -0.397047
    1 0.135444 0.191468 8.898222 -1.562146 0.186950 -1.494187
    2 -0.071919 -8.498734 -0.104135 -0.612066 -0.056682 -0.589002
    3 -37.448087 9.739849 -9.651899 0.067940 -1.539702 2.477271
    4 -0.000001 0.000000 0.000000 0.000000 0.000000 0.000000
    5 -0.000001 0.000000 0.000000 0.000000 0.000000 0.000000
    6 0.583509 -1.197273 0.185379 -0.164819 -0.067575 -0.598289
    7 1.535926 0.010246 0.005008 -0.396208 0.088566 -0.192966
    8 1.100770 0.004527 -0.010675 -0.001069 0.016177 0.110746
    9 0.957766 -2.746777 -0.090301 -0.424021 -0.162277 0.191558
    10 -0.033419 -1.397127 -0.011256 -0.128772 0.000000 -0.000001
    11 -0.022361 -0.957433 0.018782 -0.440153 0.000000 0.000000
    12 0.250029 -2.820664 -0.238396 -0.364973 -0.002921 0.008442
    13 -0.049759 -1.680544 0.100480 -0.122887 0.000000 -0.000002
    14 -0.034141 -1.148309 0.084778 -0.484127 0.000000 0.000000
    15 -0.488517 -2.755599 -0.228261 -0.393741 0.010332 -0.264491
    16 0.039889 -1.479791 0.029853 -0.198108 0.000000 0.000001
    17 0.028786 -1.075732 -0.023111 -0.441898 0.000000 0.000000
    18 -1.180679 -2.507216 -0.193861 -0.492449 0.013294 -0.477916
    19 -0.024966 -1.123936 0.017594 -0.160777 0.000000 0.000001
    20 -0.020058 -0.890965 0.010091 -0.504809 0.000000 0.000000
    21 0.120152 -0.050267 -0.054488 0.287569 3.110905 1.561085
    22 -7.733694 2.538784 -1.168004 0.392834 -0.424949 -2.163946
    23 -0.085749 -0.255579 -8.907138 1.693956 0.105053 -1.491912
    24 0.096946 -8.450419 -0.009364 -1.000407 -0.429565 0.481042
    25 -0.591284 -1.257741 0.232708 0.201839 -0.425650 -2.662327
    26 1.522835 0.058680 0.016851 0.004899 0.007667 0.367379
    27 1.117948 0.048424 -0.005765 -0.011976 -0.022177 0.551574
    28 -0.963867 -2.785143 -0.085346 -0.345765 0.162276 -0.191556
    29 0.028478 -1.403067 0.006271 -0.336765 0.000000 0.000000
    30 0.021414 -0.957782 0.020047 -0.241222 0.000000 0.000000
    31 -0.249534 -2.846964 -0.174215 -0.286638 -0.000125 -0.008396
    32 0.043234 -1.683941 0.096014 -0.330949 0.002823 -0.000167
    33 0.031729 -1.160830 0.058836 -0.285254 0.000642 0.008372
    34 0.447952 -2.798983 -0.200441 -0.222079 -0.010397 0.265093
    35 -0.032910 -1.480208 0.004936 -0.406108 0.000000 0.000002
    36 -0.027022 -1.076920 -0.020212 -0.242980 0.000000 0.000000
    37 1.164475 -2.543939 -0.170327 -0.245526 -0.013294 0.477914
    38 0.024033 -1.129040 0.017806 -0.368779 0.000000 0.000000
    39 0.014896 -0.883991 -0.019845 -0.305874 0.000000 0.000000
    40 -0.170650 -0.115605 0.061273 0.964315 -0.076607 1.601202
  time 16
    0 6.497209 2.105889 -1.414106 0.534490 3.006476 -0.397047
    1 0.135444 0.191468 8.898222 -1.562146 0.186950 -1.494187
    2 -0.071919 -8.498734 -0.104135 -0.612066 -0.056682 -0.589002
    3 -37.737158 9.927355 -9.444862 0.067940 -1.539702 2.477271
    4 -0.000001 0.000000 0.000000 0.000000 0.000000 0.000000
    5 -0.000001 0.000000 0.000000 0.000000 0.000000 0.000000
    6 0.583509 -1.197273 0.185379 -0.164819 -0.067575 -0.598289
    7 1.535926 0.010246 0.005008 -0.396208 0.088566 -0.192966
    8 1.100770 0.004527 -0.010675 -0.001069 0.016177 0.110746
    9 0.957766 -2.746777 -0.090301 -0.424021 -0.162277 0.191558
    10 -0.033419 -1.397127 -0.011256 -0.128772 0.000000 -0.000001
    11 -0.022361 -0.957433 0.018782 -0.440153 0.000000 0.000000
    12 0.250029 -2.820664 -0.238396 -0.364973 -0.002921 0.008442
    13 -0.049759 -1.680544 0.100480 -0.122887 0.000000 -0.000002
    14 -0.034141 -1.148309 0.084778 -0.484127 0.000000 0.000000
    15 -0.488517 -2.755599 -0.228261 -0.393741 0.010332 -0.264491
    16 0.039889 -1.479791 0.029853 -0.198108 0.000000 0.000001
    17 0.028786 -1.075732 -0.023111 -0.441898 0.000000 0.000000
    18 -1.180679 -2.507216 -0.193861 -0.492449 0.013294 -0.477916
    19 -0.024966 -1.123936 0.017594 -0.160777 0.000000 0.000001
    20 -0.020058 -0.890965 0.010091 -0.504809 0.000000 0.000000
    21 0.120152 -0.050267 -0.054488 0.287569 3.110905 1.561085
    22 -7.733694 2.538784 -1.168004 0.392834 -0.424949 -2.163946
    23 -0.085749 -0.255579 -8.907138 1.693956 0.105053 -1.491912
    24 0.096946 -8.450419 -0.009364 -1.000407 -0.429565 0.481042
    25 -0.591284 -1.257741 0.232708 0.201839 -0.425650 -2.662327
    26 1.522835 0.058680 0.016851 0.004899 0.007667 0.367379
    27 1.117948 0.048424 -0.005765 -0.011976 -0.022177 0.551574
    28 -0.963867 -2.785143 -0.085346 -0.345765 0.162276 -0.191556
    29 0.028478 -1.403067 0.006271 -0.336765 0.000000 0.000000
    30 0.021414 -0.957782 0.020047 -0.241222 0.000000 0.000000
    31 -0.249534 -2.846964 -0.174215 -0.286638 -0.000125 -0.008396
    32 0.043234 -1.683941 0.096014 -0.330949 0.002823 -0.000167
    33 0.031729 -1.160830 0.058836 -0.285254 0.000642 0.008372
    34 0.447952 -2.798983 -0.200441 -0.222079 -0.010397 0.265093
    35 -0.032910 -1.480208 0.004936 -0.406108 0.000000 0.000002
    36 -0.027022 -1.076920 -0.020212 -0.242980 0.000000 0.000000
    37 1.164475 -2.543939 -0.170327 -0.245526 -0.013294 0.477914
    38 0.024033 -1.129040 0.017806 -0.368779 0.000000 0.000000
    39 0.014896 -0.883991 -0.019845 -0.305874 0.000000 0.000000
    40 -0.170650 -0.115605 0.061273 0.964315 -0.076607 1.601202
  time 17
    0 6.497209 2.105889 -1.414106 0.534490 3.006476 -0.397047
    1 0.135444 0.191468 8.898222 -1.562146 0.186950 -1.494187
    2 -0.071919 -8.498734 -0.104135 -0.612066 -0.056682 -0.589002
    3 -37.994978 10.196894 -9.144071 0.067940 -1.539702 2.477271
    4 -0.000001 0.000000 0.000000 0.000000 0.000000 0.000000
    5 -0.000001 0.000000 0.000000 0.000000 0.000000 0.000000
    6 0.583509 -1.197273 0.185379 -0.164819 -0.067575 -0.598289
    7 1.535926 0.010246 0.005008 -0.396208 0.088566 -0.192966
    8 1.100770 0.004527 -0.010675 -0.001069 0.016177 0.110746
    9 0.957766 -2.746777 -0.090301 -0.424021 -0.162277 0.191558
    10 -0.033419 -1.397127 -0.011256 -0.128772 0.000000 -0.000001
    11 -0.022361 -0.957433 0.018782 -0.440153 0.000000 0.000000
    12 0.250029 -2.820664 -0.238396 -0.364973 -0.002921 0.008442
    13 -0.049759 -1.680544 0.100480 -0.122887 0.000000 -0.000002
    14 -0.034141 -1.148309 0.084778 -0.484127 0.000000 0.000000
    15 -0.488517 -2.755599 -0.228261 -0.393741 0.010332 -0.264491
    16 0.039889 -1.479791 0.029853 -0.198108 0.000000 0.000001
    17 0.028786 -1.075732 -0.023111 -0.441898 0.000000 0.000000
    18 -1.180679 -2.507216 -0.193861 -0.492449 0.013294 -0.477916
    19 -0.024966 -1.123936 0.017594 -0.160777 0.000000 0.000001
    20 -0.020058 -0.890965 0.010091 -0.504809 0.000000 0.000000
    21 0.120152 -0.050267 -0.054488 0.287569 3.110905 1.561085
    22 -7.733694 2.538784 -1.168004 0.392834 -0.424949 -2.163946
    23 -0.085749 -0.255579 -8.907138 1.693956 0.105053 -1.491912
    24 0.096946 -8.450419 -0.009364 -1.000407 -0.429565 0.481042
    25 -0.591284 -1.257741 0.232708 0.201839 -0.425650 -2.662327
    26 1.522835 0.058680 0.016851 0.004899 0.007667 0.367379
    27 1.117948 0.048424 -0.005765 -0.011976 -0.022177 0.551574
    28 -0.963867 -2.785143 -0.085346 -0.345765 0.162276 -0.191556
    29 0.028478 -1.403067 0.006271 -0.336765 0.000000 0.000000
    30 0.021414 -0.957782 0.020047 -0.241222 0.000000 0.000000
    31 -0.249534 -2.846964 -0.174215 -0.286638 -0.000125 -0.008396
    32 0.043234 -1.683941 0.096014 -0.330949 0.002823 -0.000167
    33 0.031729 -1.160830 0.058836 -0.285254 0.000642 0.008372
    34 0.447952 -2.798983 -0.200441 -0.222079 -0.010397 0.265093
    35 -0.032910 -1.480208 0.004936 -0.406108 0.000000 0.000002
    36 -0.027022 -1.076920 -0.020212 -0.242980 0.000000 0.000000
    37 1.164475 -2.543939 -0.170327 -0.245526 -0.013294 0.477914
    38 0.024033 -1.129040 0.017806 -0.368779 0.000000 0.000000
    39 0.014896 -0.883991 -0.019845 -0.305874 0.000000 0.000000
    40 -0.170650 -0.115605 0.061273 0.964315 -0.076607 1.601202
  time 18
    0 6.497209 2.105889 -1.414106 0.534490 3.006476 -0.397047
    1 0.135444 0.191468 8.898222 -1.562146 0.186950 -1.494187
    2 -0.071919 -8.498734 -0.104135 -0.612066 -0.056682 -0.589002
    3 -38.221548 10.517216 -8.784685 0.067940 -1.539702 2.477271
    4 -0.000001 0.000000 0.000000 0.000000 0.000000 0.000000
    5 -0.000001 0.000000 0.000000 0.000000 0.000000 0.000000
    6 0.583509 -1.197273 0.185379 -0.164819 -0.067575 -0.598289
    7 1.535926 0.010246 0.005008 -0.396208 0.088566 -0.192966
    8 1.100770 0.004527 -0.010675 -0.001069 0.016177 0.110746
    9 0.957766 -2.746777 -0.090301 -0.424021 -0.162277 0.191558
    10 -0.033419 -1.397127 -0.011256 -0.128772 0.000000 -0.000001
    11 -0.022361 -0.957433 0.018782 -0.440153 0.000000 0.000000
    12 0.250029 -2.820664 -0.238396 -0.364973 -0.002921 0.008442
    13 -0.049759 -1.680544 0.100480 -0.122887 0.000000 -0.000002
    14 -0.034141 -1.148309 0.084778 -0.484127 0.000000 0.000000
    15 -0.488517 -2.755599 -0.228261 -0.393741 0.010332 -0.264491
    16 0.039889 -1.479791 0.029853 -0.198108 0.000000 0.000001
    17 0.028786 -1.075732 -0.023111 -0.441898 0.000000 0.000000
    18 -1.180679 -2.507216 -0.193861 -0.492449 0.013294 -0.477916
    19 -0.024966 -1.123936 0.017594 -0.160777 0.000000 0.000001
    20 -0.020058 -0.890965 0.010091 -0.504809 0.000000 0.000000
    21 0.120152 -0.050267 -0.054488 0.287569 3.110905 1.561085
    22 -7.733694 2.538784 -1.168004 0.392834 -0.424949 -2.163946
    23 -0.085749 -0.255579 -8.907138 1.693956 0.105053 -1.491912
    24 0.096946 -8.450419 -0.009364 -1.000407 -0.429565 0.481042
    25 -0.591284 -1.257741 0.232708 0.201839 -0.425650 -2.662327
    26 1.522835 0.058680 0.016851 0.004899 0.007667 0.367379
    27 1.117948 0.048424 -0.005765 -0.011976 -0.022177 0.551574
    28 -0.963867 -2.785143 -0.085346 -0.345765 0.162276 -0.191556
    29 0.028478 -1.403067 0.006271 -0.336765 0.000000 0.000000
    30 0.021414 -0.957782 0.020047 -0.241222 0.000000 0.000000
    31 -0.249534 -2.846964 -0.174215 -0.286638 -0.000125 -0.008396
    32 0.043234 -1.683941 0.096014 -0.330949 0.002823 -0.000167
    33 0.031729 -1.160830 0.058836 -0.285254 0.000642 0.008372
    34 0.447952 -2.798983 -0.200441 -0.222079 -0.010397 0.265093
    35 -0.032910 -1.480208 0.004936 -0.406108 0.000000 0.000002
    36 -0.027022 -1.076920 -0.020212 -0.242980 0.000000 0.000000
    37 1.164475 -2.543939 -0.170327 -0.245526 -0.013294 0.477914
    38 0.024033 -1.129040 0.017806 -0.368779 0.000000 0.000000
    39 0.014896 -0.883991 -0.019845 -0.305874 0.000000 0.000000
    40 -0.170650 -0.115605 0.061273 0.964315 -0.076607 1.601202
  time 19
    0 6.497209 2.105889 -1.414106 0.534490 3.006476 -0.397047
    1 0.135444 0.191468 8.898222 -1.562146 0.186950 -1.494187
    2 -0.071919 -8.498734 -0.104135 -0.612066 -0.056682 -0.589002
    3 -38.412960 10.853164 -8.409674 0.067940 -1.539702 2.477271
    4 -0.000001 0.000000 0.000000 0.000000 0.000000 0.000000
    5 -0.000001 0.000000 0.000000 0.000000 0.000000 0.000000
    6 0.583509 -1.197273 0.185379 -0.164819 -0.067575 -0.598289
    7 1.535926 0.010246 0.005008 -0.396208 0.088566 -0.192966
    8 1.100770 0.004527 -0.010675 -0.001069 0.016177 0.110746
    9 0.957766 -2.746777 -0.090301 -0.424021 -0.162277 0.191558
    10 -0.033419 -1.397127 -0.011256 -0.128772 0.000000 -0.000001
    11 -0.022361 -0.957433 0.018782 -0.440153 0.000000 0.000000
    12 0.250029 -2.820664 -0.238396 -0.364973 -0.002921 0.008442
    13 -0.049759 -1.680544 0.100480 -0.122887 0.000000 -0.000002
    14 -0.034141 -1.148309 0.084778 -0.484127 0.000000 0.000000
    15 -0.488517 -2.755599 -0.228261 -0.393741 0.010332 -0.264491
    16 0.039889 -1.479791 0.029853 -0.198108 0.000000 0.000001
    17 0.028786 -1.075732 -0.023111 -0.441898 0.000000 0.000000
    18 -1.180679 -2.507216 -0.193861 -0.492449 0.013294 -0.477916
    19 -0.024966 -1.123936 0.017594 -0.160777 0.000000 0.000001
    20 -0.020058 -0.890965 0.010091 -0.504809 0.000000 0.000000
    21 0.120152 -0.050267 -0.054488 0.287569 3.110905 1.561085
    22 -7.733694 2.538784 -1.168004 0.392834 -0.424949 -2.163946
    23 -0.085749 -0.255579 -8.907138 1.693956 0.105053 -1.491912
    24 0.096946 -8.450419 -0.009364 -1.000407 -0.429565 0.481042
    25 -0.591284 -1.257741 0.232708 0.201839 -0.425650 -2.662327
    26 1.522835 0.058680 0.016851 0.004899 0.007667 0.367379
    27 1.117948 0.048424 -0.005765 -0.011976 -0.022177 0.551574
    28 -0.963867 -2.785143 -0.085346 -0.345765 0.162276 -0.191556
    29 0.028478 -1.403067 0.006271 -0.336765 0.000000 0.000000
    30 0.021414 -0.957782 0.020047 -0.241222 0.000000 0.000000
    31 -0.249534 -2.846964 -0.174215 -0.286638 -0.000125 -0.008396
    32 0.043234 -1.683941 0.096014 -0.330949 0.002823 -0.000167
    33 0.031729 -1.160830 0.058836 -0.285254 0.000642 0.008372
    34 0.447952 -2.798983 -0.200441 -0.222079 -0.010397 0.265093
    35 -0.032910 -1.480208 0.004936 -0.406108 0.000000 0.000002
    36 -0.027022 -1.076920 -0.020212 -0.242980 0.000000 0.000000
    37 1.164475 -2.543939 -0.170327 -0.245526 -0.013294 0.477914
    38 0.024033 -1.129040 0.017806 -0.368779 0.000000 0.000000
    39 0.014896 -0.883991 -0.019845 -0.305874 0.000000 0.000000
    40 -0.170650 -0.115605 0.061273 0.964315 -0.076607 1.601202
  time 20
    0 6.497209 2.105889 -1.414106 0.534490 3.006476 -0.397047
    1 0.135444 0.191468 8.898222 -1.562146 0.186950 -1.494187
    2 -0.071919 -8.498734 -0.104135 -0.612066 -0.056682 -0.589002
    3 -38.569215 11.173486 -8.050288 0.067940 -1.539702 2.477271
    4 -0.000001 0.000000 0.000000 0.000000 0.000000 0.000000
    5 -0.000001 0.000000 0.000000 0.000000 0.000000 0.000000
    6 0.583509 -1.197273 0.185379 -0.164819 -0.067575 -0.598289
    7 1.535926 0.010246 0.005008 -0.396208 0.088566 -0.192966
    8 1.100770 0.004527 -0.010675 -0.001069 0.016177 0.110746
    9 0.957766 -2.746777 -0.090301 -0.424021 -0.162277 0.191558
    10 -0.033419 -1.397127 -0.011256 -0.128772 0.000000 -0.000001
    11 -0.022361 -0.957433 0.018782 -0.440153 0.000000 0.000000
    12 0.250029 -2.820664 -0.238396 -0.364973 -0.002921 0.008442
    13 -0.049759 -1.680544 0.100480 -0.122887 0.000000 -0.000002
    14 -0.034141 -1.148309 0.084778 -0.484127 0.000000 0.000000
    15 -0.488517 -2.755599 -0.228261 -0.393741 0.010332 -0.264491
    16 0.039889 -1.479791 0.029853 -0.198108 0.000000 0.000001
    17 0.028786 -1.075732 -0.023111 -0.441898 0.000000 0.000000
    18 -1.180679 -2.507216 -0.193861 -0.492449 0.013294 -0.477916
    19 -0.024966 -1.123936 0.017594 -0.160777 0.000000 0.000001
    20 -0.020058 -0.890965 0.010091 -0.504809 0.000000 0.000000
    21 0.120152 -0.050267 -0.054488 0.287569 3.110905 1.561085
    22 -7.733694 2.538784 -1.168004 0.392834 -0.424949 -2.163946
    23 -0.085749 -0.255579 -8.907138 1.693956 0.105053 -1.491912
    24 0.096946 -8.450419 -0.009364 -1.000407 -0.429565 0.481042
    25 -0.591284 -1.257741 0.232708 0.201839 -0.425650 -2.662327
    26 1.522835 0.058680 0.016851 0.004899 0.007667 0.367379
    27 1.117948 0.048424 -0.005765 -0.011976 -0.022177 0.551574
    28 -0.963867 -2.785143 -0.085346 -0.345765 0.162276 -0.191556
    29 0.028478 -1.403067 0.006271 -0.336765 0.000000 0.000000
    30 0.021414 -0.957782 0.020047 -0.241222 0.000000 0.000000
    31 -0.249534 -2.846964 -0.174215 -0.286638 -0.000125 -0.008396
    32 0.043234 -1.683941 0.096014 -0.330949 0.002823 -0.000167
    33 0.031729 -1.160830 0.058836 -0.285254 0.000642 0.008372
    34 0.447952 -2.798983 -0.200441 -0.222079 -0.010397 0.265093
    35 -0.032910 -1.480208 0.004936 -0.406108 0.000000 0.000002
    36 -0.027022 -1.076920 -0.020212 -0.242980 0.000000 0.000000
    37 1.164475 -2.543939 -0.170327 -0.245526 -0.013294 0.477914
    38 0.024033 -1.129040 0.017806 -0.368779 0.000000 0.000000
    39 0.014896 -0.883991 -0.019845 -0.305874 0.000000 0.000000
    40 -0.170650 -0.115605 0.061273 0.964315 -0.076607 1.601202
  time 21
    0 6.497209 2.105889 -1.414106 0.534490 3.006476 -0.397047
    1 0.135444 0.191468 8.898222 -1.562146 0.186950 -1.494187
    2 -0.071919 -8.498734 -0.104135 -0.612066 -0.056682 -0.589002
    3 -38.678593 11.443026 -7.749498 0.067940 -1.539702 2.477271
    4 -0.000001 0.000000 0.000000 0.000000 0.000000 0.000000
    5 -0.000001 0.000000 0.000000 0.000000 0.000000 0.000000
    6 0.583509 -1.197273 0.185379 -0.164819 -0.067575 -0.598289
    7 1.535926 0.010246 0.005008 -0.396208 0.088566 -0.192966
    8 1.100770 0.004527 -0.010675 -0.001069 0.016177 0.110746
    9 0.957766 -2.746777 -0.090301 -0.424021 -0.162277 0.191558
    10 -0.033419 -1.397127 -0.011256 -0.128772 0.000000 -0.000001
    11 -0.022361 -0.957433 0.018782 -0.440153 0.000000 0.000000
    12 0.250029 -2.820664 -0.238396 -0.364973 -0.002921 0.008442
    13 -0.049759 -1.680544 0.100480 -0.122887 0.000000 -0.000002
    14 -0.034141 -1.148309 0.084778 -0.484127 0.000000 0.000000
    15 -0.488517 -2.755599 -0.228261 -0.393741 0.010332 -0.264491
    16 0.039889 -1.479791 0.029853 -0.198108 0.000000 0.000001
    17 0.028786 -1.075732 -0.023111 -0.441898 0.000000 0.000000
    18 -1.180679 -2.507216 -0.193861 -0.492449 0.013294 -0.477916
    19 -0.024966 -1.123936 0.017594 -0.160777 0.000000 0.000001
    20 -0.020058 -0.890965 0.010091 -0.504809 0.000000 0.000000
    21 0.120152 -0.050267 -0.054488 0.287569 3.110905 1.561085
    22 -7.733694 2.538784 -1.168004 0.392834 -0.424949 -2.163946
    23 -0.085749 -0.255579 -8.907138 1.693956 0.105053 -1.491912
    24 0.096946 -8.450419 -0.009364 -1.000407 -0.429565 0.481042
    25 -0.591284 -1.257741 0.232708 0.201839 -0.425650 -2.662327
    26 1.522835 0.058680 0.016851 0.004899 0.007667 0.367379
    27 1.117948 0.048424 -0.005765 -0.011976 -0.022177 0.551574
    28 -0.963867 -2.785143 -0.085346 -0.345765 0.162276 -0.191556
    29 0.028478 -1.403067 0.006271 -0.336765 0.000000 0.000000
    30 0.021414 -0.957782 0.020047 -0.241222 0.000000 0.000000
    31 -0.249534 -2.846964 -0.174215 -0.286638 -0.000125 -0.008396
    32 0.043234 -1.683941 0.096014 -0.330949 0.002823 -0.000167
    33 0.031729 -1.160830 0.058836 -0.285254 0.000642 0.008372
    34 0.447952 -2.798983 -0.200441 -0.222079 -0.010397 0.265093
    35 -0.032910 -1.480208 0.004936 -0.406108 0.000000 0.000002
    36 -0.027022 -1.076920 -0.020212 -0.242980 0.000000 0.000000
    37 1.164475 -2.543939 -0.170327 -0.245526 -0.013294 0.477914
    38 0.024033 -1.129040 0.017806 -0.368779 0.000000 0.000000
    39 0.014896 -0.883991 -0.019845 -0.305874 0.000000 0.000000
    40 -0.170650 -0.115605 0.061273 0.964315 -0.076607 1.601202
  time 22
    0 6.497209 2.105889 -1.414106 0.534490 3.006476 -0.397047
    1 0.135444 0.191468 8.898222 -1.562146 0.186950 -1.494187
    2 -0.071919 -8.498734 -0.104135 -0.612066 -0.056682 -0.589002
    3 -38.748908 11.626625 -7.542460 0.067940 -1.539702 2.477271
    4 -0.000001 0.000000 0.000000 0.000000 0.000000 0.000000
    5 -0.000001 0.000000 0.000000 0.000000 0.000000 0.000000
    6 0.583509 -1.197273 0.185379 -0.164819 -0.067575 -0.598289
    7 1.535926 0.010246 0.005008 -0.396208 0.088566 -0.192966
    8 1.100770 0.004527 -0.010675 -0.001069 0.016177 0.110746
    9 0.957766 -2.746777 -0.090301 -0.424021 -0.162277 0.191558
    10 -0.033419 -1.397127 -0.011256 -0.128772 0.000000 -0.000001
    11 -0.022361 -0.957433 0.018782 -0.440153 0.000000 0.000000
    12 0.250029 -2.820664 -0.238396 -0.364973 -0.002921 0.008442
    13 -0.049759 -1.680544 0.100480 -0.122887 0.000000 -0.000002
    14 -0.034141 -1.148309 0.084778 -0.484127 0.000000 0.000000
    15 -0.488517 -2.755599 -0.228261 -0.393741 0.010332 -0.264491
    16 0.039889 -1.479791 0.029853 -0.198108 0.000000 0.000001
    17 0.028786 -1.075732 -0.023111 -0.441898 0.000000 0.000000
    18 -1.180679 -2.507216 -0.193861 -0.492449 0.013294 -0.477916
    19 -0.024966 -1.123936 0.017594 -0.160777 0.000000 0.000001
    20 -0.020058 -0.890965 0.010091 -0.504809 0.000000 0.000000
    21 0.120152 -0.050267 -0.054488 0.287569 3.110905 1.561085
    22 -7.733694 2.538784 -1.168004 0.392834 -0.424949 -2.163946
    23 -0.085749 -0.255579 -8.907138 1.693956 0.105053 -1.491912
    24 0.096946 -8.450419 -0.009364 -1.000407 -0.429565 0.481042
    25 -0.591284 -1.257741 0.232708 0.201839 -0.425650 -2.662327
    26 1.522835 0.058680 0.016851 0.004899 0.007667 0.367379
    27 1.117948 0.048424 -0.005765 -0.011976 -0.022177 0.551574
    28 -0.963867 -2.785143 -0.085346 -0.345765 0.162276 -0.191556
    29 0.028478 -1.403067 0.006271 -0.336765 0.000000 0.000000
    30 0.021414 -0.957782 0.020047 -0.241222 0.000000 0.000000
    31 -0.249534 -2.846964 -0.174215 -0.286638 -0.000125 -0.008396
    32 0.043234 -1.683941 0.096014 -0.330949 0.002823 -0.000167
    33 0.031729 -1.160830 0.058836 -0.285254 0.000642 0.008372
    34 0.447952 -2.798983 -0.200441 -0.222079 -0.010397 0.265093
    35 -0.032910 -1.480208 0.004936 -0.406108 0.000000 0.000002
    36 -0.027022 -1.076920 -0.020212 -0.242980 0.000000 0.000000
    37 1.164475 -2.543939 -0.170327 -0.245526 -0.013294 0.477914
    38 0.024033 -1.129040 0.017806 -0.368779 0.000000 0.000000
    39 0.014896 -0.883991 -0.019845 -0.305874 0.000000 0.000000
    40 -0.170650 -0.115605 0.061273 0.964315 -0.076607 1.601202
  time 23
    0 6.497209 2.105889 -1.414106 0.534490 3.006476 -0.397047
    1 0.135444 0.191468 8.898222 -1.562146 0.186950 -1.494187
    2 -0.071919 -8.498734 -0.104135 -0.612066 -0.056682 -0.589002
    3 -38.772346 11.696940 -7.464333 0.067940 -1.539702 2.477271
    4 -0.000001 0.000000 0.000000 0.000000 0.000000 0.000000
    5 -0.000001 0.000000 0.000000 0.000000 0.000000 0.000000
    6 0.583509 -1.197273 0.185379 -0.164819 -0.067575 -0.598289
    7 1.535926 0.010246 0.005008 -0.396208 0.088566 -0.192966
    8 1.100770 0.004527 -0.010675 -0.001069 0.016177 0.110746
    9 0.957766 -2.746777 -0.090301 -0.424021 -0.162277 0.191558
    10 -0.033419 -1.397127 -0.011256 -0.128772 0.000000 -0.000001
    11 -0.022361 -0.957433 0.018782 -0.440153 0.000000 0.000000
    12 0.250029 -2.820664 -0.238396 -0.364973 -0.002921 0.008442
    13 -0.049759 -1.680544 0.100480 -0.122887 0.000000 -0.000002
    14 -0.034141 -1.148309 0.084778 -0.484127 0.000000 0.000000
    15 -0.488517 -2.755599 -0.228261 -0.393741 0.010332 -0.264491
    16 0.039889 -1.479791 0.029853 -0.198108 0.000000 0.000001
    17 0.028786 -1.075732 -0.023111 -0.441898 0.000000 0.000000
    18 -1.180679 -2.507216 -0.193861 -0.492449 0.013294 -0.477916
    19 -0.024966 -1.123936 0.017594 -0.160777 0.000000 0.000001
    20 -0.020058 -0.890965 0.010091 -0.504809 0.000000 0.000000
    21 0.120152 -0.050267 -0.054488 0.287569 3.110905 1.561085
    22 -7.733694 2.538784 -1.168004 0.392834 -0.424949 -2.163946
    23 -0.085749 -0.255579 -8.907138 1.693956 0.105053 -1.491912
    24 0.096946 -8.450419 -0.009364 -1.000407 -0.429565 0.481042
    25 -0.591284 -1.257741 0.232708 0.201839 -0.425650 -2.662327
    26 1.522835 0.058680 0.016851 0.004899 0.007667 0.367379
    27 1.117948 0.048424 -0.005765 -0.011976 -0.022177 0.551574
    28 -0.963867 -2.785143 -0.085346 -0.345765 0.162276 -0.191556
    29 0.028478 -1.403067 0.006271 -0.336765 0.000000 0.000000
    30 0.021414 -0.957782 0.020047 -0.241222 0.000000 0.000000
    31 -0.249534 -2.846964 -0.174215 -0.286638 -0.000125 -0.008396
    32 0.043234 -1.683941 0.096014 -0.330949 0.002823 -0.000167
    33 0.031729 -1.160830 0.058836 -0.285254 0.000642 0.008372
    34 0.447952 -2.798983 -0.200441 -0.222079 -0.010397 0.265093
    35 -0.032910 -1.480208 0.004936 -0.406108 0.000000 0.000002
    36 -0.027022 -1.076920 -0.020212 -0.242980 0.000000 0.000000
    37 1.164475 -2.543939 -0.170327 -0.245526 -0.013294 0.477914
    38 0.024033 -1.129040 0.017806 -0.368779 0.000000 0.000000
    39 0.014896 -0.883991 -0.019845 -0.305874 0.000000 0.000000
    40 -0.170650 -0.115605 0.061273 0.964315 -0.076607 1.601202
end
