version 1
nodes
  0 "Bone01" -1
  1 "Bone_Lefthand" 0
  2 "Bone_XM8" 1
  3 "Bone_Magazine_Clip" 2
  4 "Bone_Magazine" 2
  5 "Bone_Bullet_case" 2
  6 "Bone_ReloadB" 2
  7 "Bone_ReloadA" 6
  8 "Bone_SharpenShooter" 2
  9 "Bone_Carbine" 2
  10 "Bone_Chongyol" 2
  11 "Bone_Chongyol_Cover" 10
  12 "Bone_Clip" 2
  13 "Bone_Scope_Carbine" 2
  14 "Bone_Scope_Sharp" 2
  15 "bone_chongyoul_dummy" 2
  16 "Bone4" 1
  17 "Bone13" 16
  18 "Bone14" 17
  19 "Bone15" 18
  20 "Bone17" 16
  21 "Bone18" 20
  22 "Bone19" 21
  23 "Bone21" 16
  24 "Bone22" 23
  25 "Bone23" 24
  26 "Bone05" 16
  27 "Bone06" 26
  28 "Bone07" 27
  29 "Bone09" 16
  30 "Bone10" 29
  31 "Bone11" 30
  32 "Bone04" -1
  33 "Bone_Righthand" 32
  34 "Bone26" 33
  35 "Bone35" 34
  36 "Bone36" 35
  37 "Bone37" 36
  38 "Bone31" 34
  39 "Bone32" 38
  40 "Bone33" 39
  41 "Bone39" 34
  42 "Bone40" 41
  43 "Bone41" 42
  44 "Bone43" 34
  45 "Bone44" 44
  46 "Bone45" 45
  47 "Bone27" 34
  48 "Bone28" 47
  49 "Bone29" 48
end
skeleton
  time 0
    0 8.384314 2.885567 -8.258803 -0.451735 -1.193902 0.136016
    1 -0.021280 -8.563255 -0.000751 0.438614 -0.273799 -0.110942
    2 0.792406 -2.905200 0.835872 2.680096 -1.494964 0.470879
    3 -0.028195 2.698898 -0.230784 0.000000 0.000000 0.000000
    4 -0.000001 4.191838 -0.843241 0.000000 0.000000 0.000000
    5 0.195636 2.351838 2.013436 0.000000 0.000000 0.000000
    6 0.000001 4.321806 3.144327 0.000000 0.000000 0.000000
    7 0.000000 1.957418 -0.226470 0.000000 0.000000 0.000000
    8 -0.000278 -21.671399 1.916064 0.000000 0.000000 0.000000
    9 0.000001 14.986850 1.918826 0.000000 0.000000 0.000000
    10 0.000001 11.449860 1.851792 0.000000 0.000000 0.000000
    11 0.000000 1.934806 -0.630419 0.000000 0.000000 0.000000
    12 0.000000 1.253695 0.634938 -0.121881 0.000000 0.000000
    13 0.044885 0.941603 4.711482 0.000000 0.000000 0.000000
    14 0.027106 0.933223 1.960619 0.000000 0.000000 0.000000
    15 0.000001 9.949661 2.586495 0.000000 0.000000 0.000000
    16 -0.003480 -0.404828 0.000000 -0.000001 0.000000 0.000000
    17 -0.519309 -2.501154 -0.278957 -0.879568 -0.036235 -0.324918
    18 -0.010599 -1.208185 0.000000 -1.185576 0.000000 0.000000
    19 0.000000 -0.763066 0.000000 -0.741497 0.000000 0.000000
    20 0.105981 -2.607134 -0.278957 -0.872556 -0.035899 -0.258089
    21 0.000000 -1.250579 0.000000 -0.794537 0.000000 0.000000
    22 0.000000 -0.932635 0.000000 -1.567302 0.000000 0.000000
    23 0.763065 -2.490556 -0.278958 -0.357530 0.040172 0.012324
    24 -0.012322 -1.280917 0.000000 -0.648289 0.000000 0.000000
    25 -0.001696 -0.738089 0.129481 -0.786269 0.000000 0.000000
    26 0.354567 0.016267 0.318133 0.308709 -0.503867 -0.874878
    27 1.887165 0.012878 0.000000 -0.095972 -0.113060 -1.028586
    28 1.001874 -0.000270 0.000000 0.000000 0.000000 -0.250165
    29 -1.123358 -2.195093 -0.278957 -1.061907 0.026409 -0.326972
    30 0.010772 -0.963791 0.000001 -0.810998 0.000000 0.000000
    31 -0.010412 -0.631916 0.000000 -0.691889 0.000000 0.000000
    32 -0.220197 -12.530386 -10.876366 -0.735619 0.368088 0.575485
    33 0.089928 -8.543165 0.000002 0.677002 -0.697328 -0.019319
    34 0.000000 -0.359714 0.000001 0.000000 0.000000 0.000000
    35 -0.170480 -2.636148 -0.277655 -1.043745 -0.052707 0.090280
    36 0.010599 -1.261177 0.000001 -0.473462 0.000000 0.000000
    37 0.000000 -0.943233 -0.000001 -0.944945 0.000000 0.000000
    38 -0.827563 -2.508972 -0.277656 -0.652127 -0.046328 0.035347
    39 0.000000 -1.292972 -0.000001 -0.708426 0.000000 0.000000
    40 -0.000002 -0.752465 0.000000 -0.777556 -0.248777 0.191914
    41 0.444212 -2.561962 -0.277655 -1.341904 0.037900 0.168005
    42 0.021023 -1.208187 0.000001 -0.304120 0.000000 0.000000
    43 0.010598 -0.741867 -0.000001 -0.721161 0.000000 0.000000
    44 1.047445 -2.222822 -0.277654 -1.356438 -0.069503 -0.040766
    45 -0.000001 -0.996223 -0.000001 -1.199027 0.000000 0.000000
    46 -0.000001 -0.614691 0.000000 -1.031474 0.000000 0.000000
    47 -0.308256 -0.007814 0.307165 -0.242488 -0.496952 -2.409685
    48 1.978377 0.019544 0.000000 0.057141 -0.049951 0.249261
    49 0.980611 0.058420 -0.012629 0.225287 0.009851 0.000629
  time 1
    0 8.435097 3.389488 -8.235364 -0.444437 -1.194809 0.127057
    1 -0.021280 -8.563255 -0.000751 0.443980 -0.283976 -0.124261
    2 0.792406 -2.905200 0.835872 2.680096 -1.494964 0.470879
    3 -0.028195 2.698898 -0.230784 0.000000 0.000000 0.000000
    4 -0.000001 4.191838 -0.843241 0.000000 0.000000 0.000000
    5 0.195636 1.008047 2.013436 0.000000 0.000000 0.000000
    6 0.000001 0.513096 3.144327 0.000000 0.000000 0.000000
    7 0.000000 1.957418 -0.226470 0.000000 0.000000 0.000000
    8 -0.000278 -21.671399 1.916064 0.000000 0.000000 0.000000
    9 0.000001 14.986850 1.918826 0.000000 0.000000 0.000000
    10 0.000001 11.449860 1.851792 0.000000 0.000000 0.000000
    11 0.000000 1.934806 -0.630419 0.000000 0.000000 0.000000
    12 0.000000 1.253695 0.634938 -0.459176 0.000000 0.000000
    13 0.044885 0.941603 4.711482 0.000000 0.000000 0.000000
    14 0.027106 0.933223 1.960619 0.000000 0.000000 0.000000
    15 0.000001 9.949661 2.586495 0.000000 0.000000 0.000000
    16 -0.003480 -0.404828 0.000000 -0.000001 0.000000 0.000000
    17 -0.519309 -2.501154 -0.278957 -0.879568 -0.036235 -0.324918
    18 -0.010599 -1.208185 0.000000 -1.185576 0.000000 0.000000
    19 0.000000 -0.763066 0.000000 -0.741497 0.000000 0.000000
    20 0.105981 -2.607134 -0.278957 -0.872556 -0.035899 -0.258089
    21 0.000000 -1.250579 0.000000 -0.794537 0.000000 0.000000
    22 0.000000 -0.932635 0.000000 -1.567302 0.000000 0.000000
    23 0.763065 -2.490556 -0.278958 -0.401186 0.040172 0.012324
    24 -0.012322 -1.280917 0.000000 -0.896958 0.000000 0.000000
    25 -0.001696 -0.738089 0.129481 -0.934525 0.000000 0.000000
    26 0.354567 0.016267 0.318133 0.308709 -0.503867 -0.874878
    27 1.887165 0.012878 0.000000 -0.095972 -0.113060 -1.028586
    28 1.001874 -0.000270 0.000000 0.000000 0.000000 -0.250165
    29 -1.123358 -2.195093 -0.278957 -1.061907 0.026409 -0.326972
    30 0.010772 -0.963791 0.000001 -0.810998 0.000000 0.000000
    31 -0.010412 -0.631916 0.000000 -0.691889 0.000000 0.000000
    32 -0.220197 -12.530386 -11.384194 -0.767213 0.389324 0.599245
    33 0.089928 -8.543165 0.000002 0.572407 -0.709437 -0.027816
    34 0.000000 -0.359714 0.000001 0.000000 0.000000 0.000000
    35 -0.170480 -2.636148 -0.277655 -1.043745 -0.052707 0.090280
    36 0.010599 -1.261177 0.000001 -0.473462 0.000000 0.000000
    37 0.000000 -0.943233 -0.000001 -0.944945 0.000000 0.000000
    38 -0.827563 -2.508972 -0.277656 -0.652127 -0.046328 0.035347
    39 0.000000 -1.292972 -0.000001 -0.708426 0.000000 0.000000
    40 -0.000002 -0.752465 0.000000 -0.777556 -0.248777 0.191914
    41 0.444212 -2.561962 -0.277655 -1.341904 0.037900 0.168005
    42 0.021023 -1.208187 0.000001 -0.304120 0.000000 0.000000
    43 0.010598 -0.741867 -0.000001 -0.721161 0.000000 0.000000
    44 1.047445 -2.222822 -0.277654 -1.356438 -0.069503 -0.040766
    45 -0.000001 -0.996223 -0.000001 -1.199027 0.000000 0.000000
    46 -0.000001 -0.614691 0.000000 -1.031474 0.000000 0.000000
    47 -0.308256 -0.007814 0.307165 -0.227335 -0.479947 -2.438364
    48 1.978377 0.019544 0.000000 0.058160 -0.048693 0.228000
    49 0.980611 0.058420 -0.012629 0.225311 0.007718 0.009923
  time 2
    0 8.485879 3.889504 -8.188488 -0.439206 -1.195523 0.118859
    1 -0.021280 -8.563255 -0.000751 0.430691 -0.264623 -0.085567
    2 0.792406 -2.905200 0.835872 2.680096 -1.494964 0.470879
    3 -0.028195 2.698898 -0.230784 0.000000 0.000000 0.000000
    4 -0.000001 4.191838 -0.843241 0.000000 0.000000 0.000000
    5 0.195636 1.008047 2.013436 0.000000 0.000000 0.000000
    6 0.000001 0.954515 3.144327 0.000000 0.000000 0.000000
    7 0.000000 1.957418 -0.226470 0.000000 0.000000 0.000000
    8 -0.000278 -21.671399 1.916064 0.000000 0.000000 0.000000
    9 0.000001 14.986850 1.918826 0.000000 0.000000 0.000000
    10 0.000001 11.449860 1.851792 0.000000 0.000000 0.000000
    11 0.000000 1.934806 -0.630419 0.000000 0.000000 0.000000
    12 0.000000 1.253695 0.634938 -0.459176 0.000000 0.000000
    13 0.044885 0.941603 4.711482 0.000000 0.000000 0.000000
    14 0.027106 0.933223 1.960619 0.000000 0.000000 0.000000
    15 0.000001 9.949661 2.586495 0.000000 0.000000 0.000000
    16 -0.003480 -0.404828 0.000000 -0.000001 0.000000 0.000000
    17 -0.519309 -2.501154 -0.278957 -0.879568 -0.036235 -0.324918
    18 -0.010599 -1.208185 0.000000 -1.185576 0.000000 0.000000
    19 0.000000 -0.763066 0.000000 -0.741497 0.000000 0.000000
    20 0.105981 -2.607134 -0.278957 -0.872556 -0.035899 -0.258089
    21 0.000000 -1.250579 0.000000 -0.794537 0.000000 0.000000
    22 0.000000 -0.932635 0.000000 -1.567302 0.000000 0.000000
    23 0.763065 -2.490556 -0.278958 -0.401186 0.040172 0.012324
    24 -0.012322 -1.280917 0.000000 -0.896958 0.000000 0.000000
    25 -0.001696 -0.738089 0.129481 -0.934525 0.000000 0.000000
    26 0.354567 0.016267 0.318133 0.308709 -0.503867 -0.874878
    27 1.887165 0.012878 0.000000 -0.095972 -0.113060 -1.028586
    28 1.001874 -0.000270 0.000000 0.000000 0.000000 -0.250165
    29 -1.123358 -2.195093 -0.278957 -1.061907 0.026409 -0.326972
    30 0.010772 -0.963791 0.000001 -0.810998 0.000000 0.000000
    31 -0.010412 -0.631916 0.000000 -0.691889 0.000000 0.000000
    32 -0.220197 -12.530386 -11.634202 -0.863216 0.393151 0.601629
    33 0.089928 -8.543165 0.000002 0.516095 -0.715960 -0.032392
    34 0.000000 -0.359714 0.000001 0.000000 0.000000 0.000000
    35 -0.170480 -2.636148 -0.277655 -1.043745 -0.052707 0.090280
    36 0.010599 -1.261177 0.000001 -0.473462 0.000000 0.000000
    37 0.000000 -0.943233 -0.000001 -0.944945 0.000000 0.000000
    38 -0.827563 -2.508972 -0.277656 -0.652127 -0.046328 0.035347
    39 0.000000 -1.292972 -0.000001 -0.708426 0.000000 0.000000
    40 -0.000002 -0.752465 0.000000 -0.777556 -0.248777 0.191914
    41 0.444212 -2.561962 -0.277655 -1.341904 0.037900 0.168005
    42 0.021023 -1.208187 0.000001 -0.304120 0.000000 0.000000
    43 0.010598 -0.741867 -0.000001 -0.721161 0.000000 0.000000
    44 1.047445 -2.222822 -0.277654 -1.356438 -0.069503 -0.040766
    45 -0.000001 -0.996223 -0.000001 -1.199027 0.000000 0.000000
    46 -0.000001 -0.614691 0.000000 -1.031474 0.000000 0.000000
    47 -0.308256 -0.007814 0.307165 -0.225610 -0.352384 -2.424619
    48 1.978377 0.019544 0.000000 0.060008 -0.046368 0.188540
    49 0.980611 0.058420 -0.012629 0.225323 0.004686 0.023147
  time 3
    0 8.485879 3.842627 -8.106454 -0.435821 -1.196017 0.112267
    1 -0.021280 -8.563255 -0.000751 0.430862 -0.262911 -0.086364
    2 0.792406 -2.905200 0.835872 2.680096 -1.494964 0.470879
    3 -0.028195 2.698898 -0.230784 0.000000 0.000000 0.000000
    4 -0.000001 4.191838 -0.843241 0.000000 0.000000 0.000000
    5 0.195636 1.008047 2.013436 0.000000 0.000000 0.000000
    6 0.000001 4.321806 3.144327 0.000000 0.000000 0.000000
    7 0.000000 1.957418 -0.226470 0.000000 0.000000 0.000000
    8 -0.000278 -21.671399 1.916064 0.000000 0.000000 0.000000
    9 0.000001 14.986850 1.918826 0.000000 0.000000 0.000000
    10 0.000001 11.449860 1.851792 0.000000 0.000000 0.000000
    11 0.000000 1.934806 -0.630419 0.000000 0.000000 0.000000
    12 0.000000 1.253695 0.634938 -0.459176 0.000000 0.000000
    13 0.044885 0.941603 4.711482 0.000000 0.000000 0.000000
    14 0.027106 0.933223 1.960619 0.000000 0.000000 0.000000
    15 0.000001 9.949661 2.586495 0.000000 0.000000 0.000000
    16 -0.003480 -0.404828 0.000000 -0.000001 0.000000 0.000000
    17 -0.519309 -2.501154 -0.278957 -0.879568 -0.036235 -0.324918
    18 -0.010599 -1.208185 0.000000 -1.185576 0.000000 0.000000
    19 0.000000 -0.763066 0.000000 -0.741497 0.000000 0.000000
    20 0.105981 -2.607134 -0.278957 -0.872556 -0.035899 -0.258089
    21 0.000000 -1.250579 0.000000 -0.794537 0.000000 0.000000
    22 0.000000 -0.932635 0.000000 -1.567302 0.000000 0.000000
    23 0.763065 -2.490556 -0.278958 -0.401186 0.040172 0.012324
    24 -0.012322 -1.280917 0.000000 -0.896958 0.000000 0.000000
    25 -0.001696 -0.738089 0.129481 -0.934525 0.000000 0.000000
    26 0.354567 0.016267 0.318133 0.308709 -0.503867 -0.874878
    27 1.887165 0.012878 0.000000 -0.095972 -0.113060 -1.028586
    28 1.001874 -0.000270 0.000000 0.000000 0.000000 -0.250165
    29 -1.123358 -2.195093 -0.278957 -1.061907 0.026409 -0.326972
    30 0.010772 -0.963791 0.000001 -0.810998 0.000000 0.000000
    31 -0.010412 -0.631916 0.000000 -0.691889 0.000000 0.000000
    32 -0.220197 -12.530386 -11.622482 -0.868294 0.384924 0.593324
    33 0.089928 -8.543165 0.000002 0.542324 -0.713350 -0.030531
    34 0.000000 -0.359714 0.000001 0.000000 0.000000 0.000000
    35 -0.170480 -2.636148 -0.277655 -1.043745 -0.052707 0.090280
    36 0.010599 -1.261177 0.000001 -0.473462 0.000000 0.000000
    37 0.000000 -0.943233 -0.000001 -0.944945 0.000000 0.000000
    38 -0.827563 -2.508972 -0.277656 -0.652127 -0.046328 0.035347
    39 0.000000 -1.292972 -0.000001 -0.708426 0.000000 0.000000
    40 -0.000002 -0.752465 0.000000 -0.777556 -0.248777 0.191914
    41 0.444212 -2.561962 -0.277655 -1.341904 0.037900 0.168005
    42 0.021023 -1.208187 0.000001 -0.304120 0.000000 0.000000
    43 0.010598 -0.741867 -0.000001 -0.721161 0.000000 0.000000
    44 1.047445 -2.222822 -0.277654 -1.356438 -0.069503 -0.040766
    45 -0.000001 -0.996223 -0.000001 -1.199027 0.000000 0.000000
    46 -0.000001 -0.614691 0.000000 -1.031474 0.000000 0.000000
    47 -0.308256 -0.007814 0.307165 -0.219994 -0.371231 -2.436297
    48 1.978377 0.019544 0.000000 0.061027 -0.045109 0.167307
    49 0.980611 0.058420 -0.012629 0.225347 0.001198 0.038370
  time 4
    0 8.485879 3.721530 -8.012701 -0.433974 -1.196347 0.107703
    1 -0.021280 -8.563255 -0.000751 0.431799 -0.261360 -0.090416
    2 0.792406 -2.905200 0.835872 2.680096 -1.494964 0.470879
    3 -0.028195 2.698898 -0.230784 0.000000 0.000000 0.000000
    4 -0.000001 4.191838 -0.843241 0.000000 0.000000 0.000000
    5 0.195636 1.703381 2.013436 0.000000 0.000000 0.000000
    6 0.042971 4.321806 3.156046 0.000000 0.000000 0.000000
    7 0.000000 1.957418 -0.226470 0.000000 0.000000 0.068677
    8 -0.000278 -21.671399 1.916064 0.000000 0.000000 0.000000
    9 0.000001 14.986850 1.918826 0.000000 0.000000 0.000000
    10 0.000001 11.449860 1.851792 0.000000 0.000000 0.000000
    11 0.000000 1.934806 -0.630419 0.000000 0.000000 0.000000
    12 0.000000 1.253695 0.634938 -0.459176 0.000000 0.000000
    13 0.044885 0.941603 4.711482 0.000000 0.000000 0.000000
    14 0.027106 0.933223 1.960619 0.000000 0.000000 0.000000
    15 0.000001 9.949661 2.586495 0.000000 0.000000 0.000000
    16 -0.003480 -0.404828 0.000000 -0.000001 0.000000 0.000000
    17 -0.519309 -2.501154 -0.278957 -0.879568 -0.036235 -0.324918
    18 -0.010599 -1.208185 0.000000 -1.185576 0.000000 0.000000
    19 0.000000 -0.763066 0.000000 -0.741497 0.000000 0.000000
    20 0.105981 -2.607134 -0.278957 -0.872556 -0.035899 -0.258089
    21 0.000000 -1.250579 0.000000 -0.794537 0.000000 0.000000
    22 0.000000 -0.932635 0.000000 -1.567302 0.000000 0.000000
    23 0.763065 -2.490556 -0.278958 -0.401186 0.040172 0.012324
    24 -0.012322 -1.280917 0.000000 -0.896958 0.000000 0.000000
    25 -0.001696 -0.738089 0.129481 -0.934525 0.000000 0.000000
    26 0.354567 0.016267 0.318133 0.308709 -0.503867 -0.874878
    27 1.887165 0.012878 0.000000 -0.095972 -0.113060 -1.028586
    28 1.001874 -0.000270 0.000000 0.000000 0.000000 -0.250165
    29 -1.123358 -2.195093 -0.278957 -1.061907 0.026409 -0.326972
    30 0.010772 -0.963791 0.000001 -0.810998 0.000000 0.000000
    31 -0.010412 -0.631916 0.000000 -0.691889 0.000000 0.000000
    32 -0.220197 -12.530386 -11.579512 -0.864251 0.375358 0.583790
    33 0.089928 -8.543165 0.000002 0.604096 -0.706909 -0.025954
    34 0.000000 -0.359714 0.000001 0.000000 0.000000 0.000000
    35 -0.170480 -2.636148 -0.277655 -1.043745 -0.052707 0.090280
    36 0.010599 -1.261177 0.000001 -0.473462 0.000000 0.000000
    37 0.000000 -0.943233 -0.000001 -0.944945 0.000000 0.000000
    38 -0.827563 -2.508972 -0.277656 -0.652127 -0.046328 0.035347
    39 0.000000 -1.292972 -0.000001 -0.708426 0.000000 0.000000
    40 -0.000002 -0.752465 0.000000 -0.777556 -0.248777 0.191914
    41 0.444212 -2.561962 -0.277655 -1.341904 0.037900 0.168005
    42 0.021023 -1.208187 0.000001 -0.304120 0.000000 0.000000
    43 0.010598 -0.741867 -0.000001 -0.721161 0.000000 0.000000
    44 1.047445 -2.222822 -0.277654 -1.356438 -0.069503 -0.040766
    45 -0.000001 -0.996223 -0.000001 -1.199027 0.000000 0.000000
    46 -0.000001 -0.614691 0.000000 -1.031474 0.000000 0.000000
    47 -0.308256 -0.007814 0.307165 -0.212088 -0.414946 -2.462534
    48 1.978377 0.019544 0.000000 0.060239 -0.046152 0.184504
    49 0.980611 0.058420 -0.012629 0.225371 -0.002325 0.053727
  time 5
    0 8.485879 3.580901 -7.965825 -0.433403 -1.196429 0.106097
    1 -0.021280 -8.563255 -0.000751 0.433886 -0.257063 -0.098819
    2 0.792406 -2.905200 0.835872 2.680096 -1.494964 0.470879
    3 -0.028195 2.698898 -0.230784 0.000000 0.000000 0.000000
    4 -0.000001 4.191838 -0.843241 0.000000 0.000000 0.000000
    5 0.195636 2.996389 2.013436 0.000000 0.000000 0.000000
    6 0.000001 4.321806 3.144327 0.000000 0.000000 0.000000
    7 0.000000 1.957418 -0.226470 0.000000 0.000000 0.000000
    8 -0.000278 -21.671399 1.916064 0.000000 0.000000 0.000000
    9 0.000001 14.986850 1.918826 0.000000 0.000000 0.000000
    10 0.000001 11.449860 1.851792 0.000000 0.000000 0.000000
    11 0.000000 1.934806 -0.630419 0.000000 0.000000 0.000000
    12 0.000000 1.253695 0.634938 -0.459176 0.000000 0.000000
    13 0.044885 0.941603 4.711482 0.000000 0.000000 0.000000
    14 0.027106 0.933223 1.960619 0.000000 0.000000 0.000000
    15 0.000001 9.949661 2.586495 0.000000 0.000000 0.000000
    16 -0.003480 -0.404828 0.000000 -0.000001 0.000000 0.000000
    17 -0.519309 -2.501154 -0.278957 -0.879568 -0.036235 -0.324918
    18 -0.010599 -1.208185 0.000000 -1.185576 0.000000 0.000000
    19 0.000000 -0.763066 0.000000 -0.741497 0.000000 0.000000
    20 0.105981 -2.607134 -0.278957 -0.872556 -0.035899 -0.258089
    21 0.000000 -1.250579 0.000000 -0.794537 0.000000 0.000000
    22 0.000000 -0.932635 0.000000 -1.567302 0.000000 0.000000
    23 0.763065 -2.490556 -0.278958 -0.387541 0.040172 0.012324
    24 -0.012322 -1.280917 0.000000 -0.742855 0.000000 0.000000
    25 -0.001696 -0.738089 0.129481 -1.074204 0.000000 0.000000
    26 0.354567 0.016267 0.318133 0.308709 -0.503867 -0.874878
    27 1.887165 0.012878 0.000000 -0.095972 -0.113060 -1.028586
    28 1.001874 -0.000270 0.000000 0.000000 0.000000 -0.250165
    29 -1.123358 -2.195093 -0.278957 -1.061907 0.026409 -0.326972
    30 0.010772 -0.963791 0.000001 -0.810998 0.000000 0.000000
    31 -0.010412 -0.631916 0.000000 -0.691889 0.000000 0.000000
    32 -0.220197 -12.530386 -11.243565 -0.822596 0.378993 0.587557
    33 0.089928 -8.543165 0.000002 0.676199 -0.698714 -0.020173
    34 0.000000 -0.359714 0.000001 0.000000 0.000000 0.000000
    35 -0.170480 -2.636148 -0.277655 -1.043745 -0.052707 0.090280
    36 0.010599 -1.261177 0.000001 -0.473462 0.000000 0.000000
    37 0.000000 -0.943233 -0.000001 -0.944945 0.000000 0.000000
    38 -0.827563 -2.508972 -0.277656 -0.652127 -0.046328 0.035347
    39 0.000000 -1.292972 -0.000001 -0.708426 0.000000 0.000000
    40 -0.000002 -0.752465 0.000000 -0.777556 -0.248777 0.191914
    41 0.444212 -2.561962 -0.277655 -1.341904 0.037900 0.168005
    42 0.021023 -1.208187 0.000001 -0.304120 0.000000 0.000000
    43 0.010598 -0.741867 -0.000001 -0.721161 0.000000 0.000000
    44 1.047445 -2.222822 -0.277654 -1.356438 -0.069503 -0.040766
    45 -0.000001 -0.996223 -0.000001 -1.199027 0.000000 0.000000
    46 -0.000001 -0.614691 0.000000 -1.031474 0.000000 0.000000
    47 -0.308256 -0.007814 0.307165 -0.201923 -0.464340 -2.490101
    48 1.978377 0.019544 0.000000 0.059084 -0.047626 0.209105
    49 0.980611 0.058420 -0.012629 0.225395 -0.005441 0.067318
  time 6
    0 8.485879 3.412927 -8.012701 -0.444789 -1.194122 0.117169
    1 -0.021280 -8.563255 -0.000751 0.436825 -0.252055 -0.109746
    2 0.792406 -2.905200 0.835872 2.680096 -1.494964 0.470879
    3 -0.028195 2.698898 -0.230784 0.000000 0.000000 0.000000
    4 -0.000001 4.191838 -0.843241 0.000000 0.000000 0.000000
    5 0.195636 3.691723 2.013436 0.000000 0.000000 0.000000
    6 0.000001 4.321806 3.144327 0.000000 0.000000 0.000000
    7 0.000000 1.957418 -0.226470 0.000000 0.000000 0.000000
    8 -0.000278 -21.671399 1.916064 0.000000 0.000000 0.000000
    9 0.000001 14.986850 1.918826 0.000000 0.000000 0.000000
    10 0.000001 11.449860 1.851792 0.000000 0.000000 0.000000
    11 0.000000 1.934806 -0.630419 0.000000 0.000000 0.000000
    12 0.000000 1.253695 0.634938 -0.229588 0.000000 0.000000
    13 0.044885 0.941603 4.711482 0.000000 0.000000 0.000000
    14 0.027106 0.933223 1.960619 0.000000 0.000000 0.000000
    15 0.000001 9.949661 2.586495 0.000000 0.000000 0.000000
    16 -0.003480 -0.404828 0.000000 -0.000001 0.000000 0.000000
    17 -0.519309 -2.501154 -0.278957 -0.879568 -0.036235 -0.324918
    18 -0.010599 -1.208185 0.000000 -1.185576 0.000000 0.000000
    19 0.000000 -0.763066 0.000000 -0.741497 0.000000 0.000000
    20 0.105981 -2.607134 -0.278957 -0.872556 -0.035899 -0.258089
    21 0.000000 -1.250579 0.000000 -0.794537 0.000000 0.000000
    22 0.000000 -0.932635 0.000000 -1.567302 0.000000 0.000000
    23 0.763065 -2.490556 -0.278958 -0.357530 0.040172 0.012324
    24 -0.012322 -1.280917 0.000000 -0.526585 0.000000 0.000000
    25 -0.001696 -0.738089 0.129481 -1.213883 0.000000 0.000000
    26 0.354567 0.016267 0.318133 0.308709 -0.503867 -0.874878
    27 1.887165 0.012878 0.000000 -0.095972 -0.113060 -1.028586
    28 1.001874 -0.000270 0.000000 0.000000 0.000000 -0.250165
    29 -1.123358 -2.195093 -0.278957 -1.061907 0.026409 -0.326972
    30 0.010772 -0.963791 0.000001 -0.810998 0.000000 0.000000
    31 -0.010412 -0.631916 0.000000 -0.691889 0.000000 0.000000
    32 -0.220197 -12.530386 -11.110748 -0.792319 0.378132 0.586712
    33 0.089928 -8.543165 0.000002 0.733261 -0.690805 -0.014742
    34 0.000000 -0.359714 0.000001 0.000000 0.000000 0.000000
    35 -0.170480 -2.636148 -0.277655 -1.043745 -0.052707 0.090280
    36 0.010599 -1.261177 0.000001 -0.473462 0.000000 0.000000
    37 0.000000 -0.943233 -0.000001 -0.944945 0.000000 0.000000
    38 -0.827563 -2.508972 -0.277656 -0.652127 -0.046328 0.035347
    39 0.000000 -1.292972 -0.000001 -0.708426 0.000000 0.000000
    40 -0.000002 -0.752465 0.000000 -0.777556 -0.248777 0.191914
    41 0.444212 -2.561962 -0.277655 -1.341904 0.037900 0.168005
    42 0.021023 -1.208187 0.000001 -0.304120 0.000000 0.000000
    43 0.010598 -0.741867 -0.000001 -0.721161 0.000000 0.000000
    44 1.047445 -2.222822 -0.277654 -1.356438 -0.069503 -0.040766
    45 -0.000001 -0.996223 -0.000001 -1.199027 0.000000 0.000000
    46 -0.000001 -0.614691 0.000000 -1.031474 0.000000 0.000000
    47 -0.308256 -0.007814 0.307165 -0.182910 -0.534339 -2.522912
    48 1.978377 0.019544 0.000000 0.058445 -0.048513 0.222407
    49 0.980611 0.058420 -0.012629 0.225395 -0.007730 0.077311
  time 7
    0 8.485879 3.221515 -8.106454 -0.468573 -1.189259 0.140411
    1 -0.021280 -8.563255 -0.000751 0.440147 -0.246918 -0.121537
    2 0.792406 -2.905200 0.835872 2.680096 -1.494964 0.470879
    3 -0.028195 2.698898 -0.230784 0.000000 0.000000 0.000000
    4 -0.000001 4.191838 -0.843241 0.000000 0.000000 0.000000
    5 0.195636 3.691723 2.013436 0.000000 0.000000 0.000000
    6 0.000001 4.321806 3.144327 0.000000 0.000000 0.000000
    7 0.000000 1.957418 -0.226470 0.000000 0.000000 0.000000
    8 -0.000278 -21.671399 1.916064 0.000000 0.000000 0.000000
    9 0.000001 14.986850 1.918826 0.000000 0.000000 0.000000
    10 0.000001 11.449860 1.851792 0.000000 0.000000 0.000000
    11 0.000000 1.934806 -0.630419 0.000000 0.000000 0.000000
    12 0.000000 1.253695 0.634938 0.000000 0.000000 0.000000
    13 0.044885 0.941603 4.711482 0.000000 0.000000 0.000000
    14 0.027106 0.933223 1.960619 0.000000 0.000000 0.000000
    15 0.000001 9.949661 2.586495 0.000000 0.000000 0.000000
    16 -0.003480 -0.404828 0.000000 -0.000001 0.000000 0.000000
    17 -0.519309 -2.501154 -0.278957 -0.879568 -0.036235 -0.324918
    18 -0.010599 -1.208185 0.000000 -1.185576 0.000000 0.000000
    19 0.000000 -0.763066 0.000000 -0.741497 0.000000 0.000000
    20 0.105981 -2.607134 -0.278957 -0.872556 -0.035899 -0.258089
    21 0.000000 -1.250579 0.000000 -0.794537 0.000000 0.000000
    22 0.000000 -0.932635 0.000000 -1.567302 0.000000 0.000000
    23 0.763065 -2.490556 -0.278958 -0.327502 0.040172 0.012324
    24 -0.012322 -1.280917 0.000000 -0.432019 0.000000 0.000000
    25 -0.001696 -0.738089 0.129481 -1.185554 0.000000 0.000000
    26 0.354567 0.016267 0.318133 0.308709 -0.503867 -0.874878
    27 1.887165 0.012878 0.000000 -0.095972 -0.113060 -1.028586
    28 1.001874 -0.000270 0.000000 0.000000 0.000000 -0.250165
    29 -1.123358 -2.195093 -0.278957 -1.061907 0.026409 -0.326972
    30 0.010772 -0.963791 0.000001 -0.810998 0.000000 0.000000
    31 -0.010412 -0.631916 0.000000 -0.691889 0.000000 0.000000
    32 -0.220197 -12.530386 -10.938868 -0.758845 0.378036 0.586712
    33 0.089928 -8.543165 0.000002 0.758473 -0.681713 -0.008983
    34 0.000000 -0.359714 0.000001 0.000000 0.000000 0.000000
    35 -0.170480 -2.636148 -0.277655 -1.043745 -0.052707 0.090280
    36 0.010599 -1.261177 0.000001 -0.473462 0.000000 0.000000
    37 0.000000 -0.943233 -0.000001 -0.944945 0.000000 0.000000
    38 -0.827563 -2.508972 -0.277656 -0.652127 -0.046328 0.035347
    39 0.000000 -1.292972 -0.000001 -0.708426 0.000000 0.000000
    40 -0.000002 -0.752465 0.000000 -0.777556 -0.248777 0.191914
    41 0.444212 -2.561962 -0.277655 -1.341904 0.037900 0.168005
    42 0.021023 -1.208187 0.000001 -0.304120 0.000000 0.000000
    43 0.010598 -0.741867 -0.000001 -0.721161 0.000000 0.000000
    44 1.047445 -2.222822 -0.277654 -1.356438 -0.069503 -0.040766
    45 -0.000001 -0.996223 -0.000001 -1.199027 0.000000 0.000000
    46 -0.000001 -0.614691 0.000000 -1.031474 0.000000 0.000000
    47 -0.308256 -0.007814 0.307165 -0.169483 -0.581447 -2.543794
    48 1.978377 0.019544 0.000000 0.057875 -0.049376 0.233705
    49 0.980611 0.058420 -0.012629 0.225383 -0.009324 0.084240
  time 8
    0 8.485879 3.061353 -8.188488 -0.489280 -1.185029 0.160696
    1 -0.021280 -8.563255 -0.000751 0.443299 -0.242233 -0.132465
    2 0.792406 -2.905200 0.835872 2.680096 -1.494964 0.470879
    3 -0.028195 2.698898 -0.230784 0.000000 0.000000 0.000000
    4 -0.000001 4.191838 -0.843241 0.000000 0.000000 0.000000
    5 0.195636 3.691723 2.013436 0.000000 0.000000 0.000000
    6 0.000001 4.321806 3.144327 0.000000 0.000000 0.000000
    7 0.000000 1.957418 -0.226470 0.000000 0.000000 0.000000
    8 -0.000278 -21.671399 1.916064 0.000000 0.000000 0.000000
    9 0.000001 14.986850 1.918826 0.000000 0.000000 0.000000
    10 0.000001 11.449860 1.851792 0.000000 0.000000 0.000000
    11 0.000000 1.934806 -0.630419 0.000000 0.000000 0.000000
    12 0.000000 1.253695 0.634938 0.000000 0.000000 0.000000
    13 0.044885 0.941603 4.711482 0.000000 0.000000 0.000000
    14 0.027106 0.933223 1.960619 0.000000 0.000000 0.000000
    15 0.000001 9.949661 2.586495 0.000000 0.000000 0.000000
    16 -0.003480 -0.404828 0.000000 -0.000001 0.000000 0.000000
    17 -0.519309 -2.501154 -0.278957 -0.879568 -0.036235 -0.324918
    18 -0.010599 -1.208185 0.000000 -1.185576 0.000000 0.000000
    19 0.000000 -0.763066 0.000000 -0.741497 0.000000 0.000000
    20 0.105981 -2.607134 -0.278957 -0.872556 -0.035899 -0.258089
    21 0.000000 -1.250579 0.000000 -0.794537 0.000000 0.000000
    22 0.000000 -0.932635 0.000000 -1.567302 0.000000 0.000000
    23 0.763065 -2.490556 -0.278958 -0.313873 0.040172 0.012324
    24 -0.012322 -1.280917 0.000000 -0.399621 0.000000 0.000000
    25 -0.001696 -0.738089 0.129481 -1.112937 0.000000 0.000000
    26 0.354567 0.016267 0.318133 0.308709 -0.503867 -0.874878
    27 1.887165 0.012878 0.000000 -0.095972 -0.113060 -1.028586
    28 1.001874 -0.000270 0.000000 0.000000 0.000000 -0.250165
    29 -1.123358 -2.195093 -0.278957 -1.061907 0.026409 -0.326972
    30 0.010772 -0.963791 0.000001 -0.810998 0.000000 0.000000
    31 -0.010412 -0.631916 0.000000 -0.691889 0.000000 0.000000
    32 -0.220197 -12.530386 -10.833396 -0.733927 0.376793 0.585404
    33 0.089928 -8.543165 0.000002 0.763184 -0.673315 -0.003815
    34 0.000000 -0.359714 0.000001 0.000000 0.000000 0.000000
    35 -0.170480 -2.636148 -0.277655 -1.043745 -0.052707 0.090280
    36 0.010599 -1.261177 0.000001 -0.473462 0.000000 0.000000
    37 0.000000 -0.943233 -0.000001 -0.944945 0.000000 0.000000
    38 -0.827563 -2.508972 -0.277656 -0.652127 -0.046328 0.035347
    39 0.000000 -1.292972 -0.000001 -0.708426 0.000000 0.000000
    40 -0.000002 -0.752465 0.000000 -0.777556 -0.248777 0.191914
    41 0.444212 -2.561962 -0.277655 -1.341904 0.037900 0.168005
    42 0.021023 -1.208187 0.000001 -0.304120 0.000000 0.000000
    43 0.010598 -0.741867 -0.000001 -0.721161 0.000000 0.000000
    44 1.047445 -2.222822 -0.277654 -1.356438 -0.069503 -0.040766
    45 -0.000001 -0.996223 -0.000001 -1.199027 0.000000 0.000000
    46 -0.000001 -0.614691 0.000000 -1.031474 0.000000 0.000000
    47 -0.308256 -0.007814 0.307165 -0.172996 -0.581021 -2.537548
    48 1.978377 0.019544 0.000000 0.057317 -0.050023 0.244503
    49 0.980611 0.058420 -0.012629 0.225347 -0.010643 0.090036
  time 9
    0 8.485879 2.959788 -8.231458 -0.500314 -1.182776 0.171429
    1 -0.021280 -8.563255 -0.000751 0.445641 -0.238582 -0.140834
    2 0.792406 -2.905200 0.835872 2.680096 -1.494964 0.470879
    3 -0.028195 2.698898 -0.230784 0.000000 0.000000 0.000000
    4 -0.000001 4.191838 -0.843241 0.000000 0.000000 0.000000
    5 0.195636 3.691723 2.013436 0.000000 0.000000 0.000000
    6 0.000001 4.321806 3.144327 0.000000 0.000000 0.000000
    7 0.000000 1.957418 -0.226470 0.000000 0.000000 0.000000
    8 -0.000278 -21.671399 1.916064 0.000000 0.000000 0.000000
    9 0.000001 14.986850 1.918826 0.000000 0.000000 0.000000
    10 0.000001 11.449860 1.851792 0.000000 0.000000 0.000000
    11 0.000000 1.934806 -0.630419 0.000000 0.000000 0.000000
    12 0.000000 1.253695 0.634938 0.000000 0.000000 0.000000
    13 0.044885 0.941603 4.711482 0.000000 0.000000 0.000000
    14 0.027106 0.933223 1.960619 0.000000 0.000000 0.000000
    15 0.000001 9.949661 2.586495 0.000000 0.000000 0.000000
    16 -0.003480 -0.404828 0.000000 -0.000001 0.000000 0.000000
    17 -0.519309 -2.501154 -0.278957 -0.879568 -0.036235 -0.324918
    18 -0.010599 -1.208185 0.000000 -1.185576 0.000000 0.000000
    19 0.000000 -0.763066 0.000000 -0.741497 0.000000 0.000000
    20 0.105981 -2.607134 -0.278957 -0.872556 -0.035899 -0.258089
    21 0.000000 -1.250579 0.000000 -0.794537 0.000000 0.000000
    22 0.000000 -0.932635 0.000000 -1.567302 0.000000 0.000000
    23 0.763065 -2.490556 -0.278958 -0.313873 0.040172 0.012324
    24 -0.012322 -1.280917 0.000000 -0.403700 0.000000 0.000000
    25 -0.001696 -0.738089 0.129481 -1.014592 0.000000 0.000000
    26 0.354567 0.016267 0.318133 0.308709 -0.503867 -0.874878
    27 1.887165 0.012878 0.000000 -0.095972 -0.113060 -1.028586
    28 1.001874 -0.000270 0.000000 0.000000 0.000000 -0.250165
    29 -1.123358 -2.195093 -0.278957 -1.061907 0.026409 -0.326972
    30 0.010772 -0.963791 0.000001 -0.810998 0.000000 0.000000
    31 -0.010412 -0.631916 0.000000 -0.691889 0.000000 0.000000
    32 -0.220197 -12.530386 -10.880272 -0.733927 0.370958 0.578792
    33 0.089928 -8.543165 0.000002 0.763237 -0.669197 -0.001318
    34 0.000000 -0.359714 0.000001 0.000000 0.000000 0.000000
    35 -0.170480 -2.636148 -0.277655 -1.043745 -0.052707 0.090280
    36 0.010599 -1.261177 0.000001 -0.473462 0.000000 0.000000
    37 0.000000 -0.943233 -0.000001 -0.944945 0.000000 0.000000
    38 -0.827563 -2.508972 -0.277656 -0.652127 -0.046328 0.035347
    39 0.000000 -1.292972 -0.000001 -0.708426 0.000000 0.000000
    40 -0.000002 -0.752465 0.000000 -0.777556 -0.248777 0.191914
    41 0.444212 -2.561962 -0.277655 -1.341904 0.037900 0.168005
    42 0.021023 -1.208187 0.000001 -0.304120 0.000000 0.000000
    43 0.010598 -0.741867 -0.000001 -0.721161 0.000000 0.000000
    44 1.047445 -2.222822 -0.277654 -1.356438 -0.069503 -0.040766
    45 -0.000001 -0.996223 -0.000001 -1.199027 0.000000 0.000000
    46 -0.000001 -0.614691 0.000000 -1.031474 0.000000 0.000000
    47 -0.308256 -0.007814 0.307165 -0.182001 -0.579708 -2.521503
    48 1.978377 0.019544 0.000000 0.056706 -0.050275 0.256357
    49 0.980611 0.058420 -0.012629 0.225287 -0.011709 0.094666
  time 10
    0 8.485879 2.905099 -8.254896 -0.506162 -1.181567 0.177177
    1 -0.021280 -8.563255 -0.000751 0.447132 -0.236288 -0.146016
    2 0.792406 -2.905200 0.835872 2.680096 -1.494964 0.470879
    3 -0.028195 2.698898 -0.230784 0.000000 0.000000 0.000000
    4 -0.000001 4.191838 -0.843241 0.000000 0.000000 0.000000
    5 0.195636 3.691723 2.013436 0.000000 0.000000 0.000000
    6 0.000001 4.321806 3.144327 0.000000 0.000000 0.000000
    7 0.000000 1.957418 -0.226470 0.000000 0.000000 0.000000
    8 -0.000278 -21.671399 1.916064 0.000000 0.000000 0.000000
    9 0.000001 14.986850 1.918826 0.000000 0.000000 0.000000
    10 0.000001 11.449860 1.851792 0.000000 0.000000 0.000000
    11 0.000000 1.934806 -0.630419 0.000000 0.000000 0.000000
    12 0.000000 1.253695 0.634938 0.000000 0.000000 0.000000
    13 0.044885 0.941603 4.711482 0.000000 0.000000 0.000000
    14 0.027106 0.933223 1.960619 0.000000 0.000000 0.000000
    15 0.000001 9.949661 2.586495 0.000000 0.000000 0.000000
    16 -0.003480 -0.404828 0.000000 -0.000001 0.000000 0.000000
    17 -0.519309 -2.501154 -0.278957 -0.879568 -0.036235 -0.324918
    18 -0.010599 -1.208185 0.000000 -1.185576 0.000000 0.000000
    19 0.000000 -0.763066 0.000000 -0.741497 0.000000 0.000000
    20 0.105981 -2.607134 -0.278957 -0.872556 -0.035899 -0.258089
    21 0.000000 -1.250579 0.000000 -0.794537 0.000000 0.000000
    22 0.000000 -0.932635 0.000000 -1.567302 0.000000 0.000000
    23 0.763065 -2.490556 -0.278958 -0.313873 0.040172 0.012324
    24 -0.012322 -1.280917 0.000000 -0.412702 0.000000 0.000000
    25 -0.001696 -0.738089 0.129481 -0.909060 0.000000 0.000000
    26 0.354567 0.016267 0.318133 0.308709 -0.503867 -0.874878
    27 1.887165 0.012878 0.000000 -0.095972 -0.113060 -1.028586
    28 1.001874 -0.000270 0.000000 0.000000 0.000000 -0.250165
    29 -1.123358 -2.195093 -0.278957 -1.061907 0.026409 -0.326972
    30 0.010772 -0.963791 0.000001 -0.810998 0.000000 0.000000
    31 -0.010412 -0.631916 0.000000 -0.691889 0.000000 0.000000
    32 -0.220197 -12.530386 -10.985744 -0.747843 0.363687 0.570641
    33 0.089928 -8.543165 0.000002 0.763237 -0.667934 -0.000573
    34 0.000000 -0.359714 0.000001 0.000000 0.000000 0.000000
    35 -0.170480 -2.636148 -0.277655 -1.043745 -0.052707 0.090280
    36 0.010599 -1.261177 0.000001 -0.473462 0.000000 0.000000
    37 0.000000 -0.943233 -0.000001 -0.944945 0.000000 0.000000
    38 -0.827563 -2.508972 -0.277656 -0.652127 -0.046328 0.035347
    39 0.000000 -1.292972 -0.000001 -0.708426 0.000000 0.000000
    40 -0.000002 -0.752465 0.000000 -0.777556 -0.248777 0.191914
    41 0.444212 -2.561962 -0.277655 -1.341904 0.037900 0.168005
    42 0.021023 -1.208187 0.000001 -0.304120 0.000000 0.000000
    43 0.010598 -0.741867 -0.000001 -0.721161 0.000000 0.000000
    44 1.047445 -2.222822 -0.277654 -1.356438 -0.069503 -0.040766
    45 -0.000001 -0.996223 -0.000001 -1.199027 0.000000 0.000000
    46 -0.000001 -0.614691 0.000000 -1.031474 0.000000 0.000000
    47 -0.308256 -0.007814 0.307165 -0.194268 -0.577473 -2.499650
    48 1.978377 0.019544 0.000000 0.055782 -0.037703 0.274474
    49 0.980611 0.058420 -0.012629 0.225251 -0.012524 0.098231
  time 11
    0 8.485879 2.889473 -8.262709 -0.507876 -1.181210 0.178867
    1 -0.021280 -8.563255 -0.000751 0.447941 -0.235028 -0.148905
    2 0.792406 -2.905200 0.835872 2.680096 -1.494964 0.470879
    3 -0.028195 2.698898 -0.230784 0.000000 0.000000 0.000000
    4 -0.000001 4.191838 -0.843241 0.000000 0.000000 0.000000
    5 0.195636 3.691723 2.013436 0.000000 0.000000 0.000000
    6 0.000001 4.321806 3.144327 0.000000 0.000000 0.000000
    7 0.000000 1.957418 -0.226470 0.000000 0.000000 0.000000
    8 -0.000278 -21.671399 1.916064 0.000000 0.000000 0.000000
    9 0.000001 14.986850 1.918826 0.000000 0.000000 0.000000
    10 0.000001 11.449860 1.851792 0.000000 0.000000 0.000000
    11 0.000000 1.934806 -0.630419 0.000000 0.000000 0.000000
    12 0.000000 1.253695 0.634938 0.000000 0.000000 0.000000
    13 0.044885 0.941603 4.711482 0.000000 0.000000 0.000000
    14 0.027106 0.933223 1.960619 0.000000 0.000000 0.000000
    15 0.000001 9.949661 2.586495 0.000000 0.000000 0.000000
    16 -0.003480 -0.404828 0.000000 -0.000001 0.000000 0.000000
    17 -0.519309 -2.501154 -0.278957 -0.879568 -0.036235 -0.324918
    18 -0.010599 -1.208185 0.000000 -1.185576 0.000000 0.000000
    19 0.000000 -0.763066 0.000000 -0.741497 0.000000 0.000000
    20 0.105981 -2.607134 -0.278957 -0.872556 -0.035899 -0.258089
    21 0.000000 -1.250579 0.000000 -0.794537 0.000000 0.000000
    22 0.000000 -0.932635 0.000000 -1.567302 0.000000 0.000000
    23 0.763065 -2.490556 -0.278958 -0.313873 0.040172 0.012324
    24 -0.012322 -1.280917 0.000000 -0.421703 0.000000 0.000000
    25 -0.001696 -0.738089 0.129481 -0.814933 0.000000 0.000000
    26 0.354567 0.016267 0.318133 0.308709 -0.503867 -0.874878
    27 1.887165 0.012878 0.000000 -0.095972 -0.113060 -1.028586
    28 1.001874 -0.000270 0.000000 0.000000 0.000000 -0.250165
    29 -1.123358 -2.195093 -0.278957 -1.061907 0.026409 -0.326972
    30 0.010772 -0.963791 0.000001 -0.810998 0.000000 0.000000
    31 -0.010412 -0.631916 0.000000 -0.691889 0.000000 0.000000
    32 -0.220197 -12.530386 -11.071684 -0.758280 0.359478 0.566027
    33 0.089928 -8.543165 0.000002 0.763023 -0.668097 -0.000683
    34 0.000000 -0.359714 0.000001 0.000000 0.000000 0.000000
    35 -0.170480 -2.636148 -0.277655 -1.043745 -0.052707 0.090280
    36 0.010599 -1.261177 0.000001 -0.473462 0.000000 0.000000
    37 0.000000 -0.943233 -0.000001 -0.944945 0.000000 0.000000
    38 -0.827563 -2.508972 -0.277656 -0.652127 -0.046328 0.035347
    39 0.000000 -1.292972 -0.000001 -0.708426 0.000000 0.000000
    40 -0.000002 -0.752465 0.000000 -0.777556 -0.248777 0.191914
    41 0.444212 -2.561962 -0.277655 -1.341904 0.037900 0.168005
    42 0.021023 -1.208187 0.000001 -0.304120 0.000000 0.000000
    43 0.010598 -0.741867 -0.000001 -0.721161 0.000000 0.000000
    44 1.047445 -2.222822 -0.277654 -1.356438 -0.069503 -0.040766
    45 -0.000001 -0.996223 -0.000001 -1.199027 0.000000 0.000000
    46 -0.000001 -0.614691 0.000000 -1.031474 0.000000 0.000000
    47 -0.308256 -0.007814 0.307165 -0.207476 -0.574284 -2.476028
    48 1.978377 0.019544 0.000000 0.055184 -0.017904 0.286189
    49 0.980611 0.058420 -0.012629 0.225191 -0.013099 0.100696
  time 12
    0 8.485879 2.901192 -8.254896 -0.506513 -1.181485 0.177515
    1 -0.021280 -8.563255 -0.000751 0.448325 -0.234543 -0.150068
    2 0.792406 -2.905200 0.835872 2.680096 -1.494964 0.470879
    3 -0.028195 2.698898 -0.230784 0.000000 0.000000 0.000000
    4 -0.000001 4.191838 -0.843241 0.000000 0.000000 0.000000
    5 0.195636 3.691723 2.013436 0.000000 0.000000 0.000000
    6 0.000001 4.321806 3.144327 0.000000 0.000000 0.000000
    7 0.000000 1.957418 -0.226470 0.000000 0.000000 0.000000
    8 -0.000278 -21.671399 1.916064 0.000000 0.000000 0.000000
    9 0.000001 14.986850 1.918826 0.000000 0.000000 0.000000
    10 0.000001 11.449860 1.851792 0.000000 0.000000 0.000000
    11 0.000000 1.934806 -0.630419 0.000000 0.000000 0.000000
    12 0.000000 1.253695 0.634938 0.000000 0.000000 0.000000
    13 0.044885 0.941603 4.711482 0.000000 0.000000 0.000000
    14 0.027106 0.933223 1.960619 0.000000 0.000000 0.000000
    15 0.000001 9.949661 2.586495 0.000000 0.000000 0.000000
    16 -0.003480 -0.404828 0.000000 -0.000001 0.000000 0.000000
    17 -0.519309 -2.501154 -0.278957 -0.879568 -0.036235 -0.324918
    18 -0.010599 -1.208185 0.000000 -1.185576 0.000000 0.000000
    19 0.000000 -0.763066 0.000000 -0.741497 0.000000 0.000000
    20 0.105981 -2.607134 -0.278957 -0.872556 -0.035899 -0.258089
    21 0.000000 -1.250579 0.000000 -0.794537 0.000000 0.000000
    22 0.000000 -0.932635 0.000000 -1.567302 0.000000 0.000000
    23 0.763065 -2.490556 -0.278958 -0.313873 0.040172 0.012324
    24 -0.012322 -1.280917 0.000000 -0.425782 0.000000 0.000000
    25 -0.001696 -0.738089 0.129481 -0.705903 0.000000 0.000000
    26 0.354567 0.016267 0.318133 0.308709 -0.503867 -0.874878
    27 1.887165 0.012878 0.000000 -0.095972 -0.113060 -1.028586
    28 1.001874 -0.000270 0.000000 0.000000 0.000000 -0.250165
    29 -1.123358 -2.195093 -0.278957 -1.061907 0.026409 -0.326972
    30 0.010772 -0.963791 0.000001 -0.810998 0.000000 0.000000
    31 -0.010412 -0.631916 0.000000 -0.691889 0.000000 0.000000
    32 -0.220197 -12.530386 -11.134186 -0.762888 0.358617 0.565105
    33 0.089928 -8.543165 0.000002 0.762434 -0.668586 -0.000968
    34 0.000000 -0.359714 0.000001 0.000000 0.000000 0.000000
    35 -0.170480 -2.636148 -0.277655 -1.043745 -0.052707 0.090280
    36 0.010599 -1.261177 0.000001 -0.473462 0.000000 0.000000
    37 0.000000 -0.943233 -0.000001 -0.944945 0.000000 0.000000
    38 -0.827563 -2.508972 -0.277656 -0.652127 -0.046328 0.035347
    39 0.000000 -1.292972 -0.000001 -0.708426 0.000000 0.000000
    40 -0.000002 -0.752465 0.000000 -0.777556 -0.248777 0.191914
    41 0.444212 -2.561962 -0.277655 -1.341904 0.037900 0.168005
    42 0.021023 -1.208187 0.000001 -0.304120 0.000000 0.000000
    43 0.010598 -0.741867 -0.000001 -0.721161 0.000000 0.000000
    44 1.047445 -2.222822 -0.277654 -1.356438 -0.069503 -0.040766
    45 -0.000001 -0.996223 -0.000001 -1.199027 0.000000 0.000000
    46 -0.000001 -0.614691 0.000000 -1.031474 0.000000 0.000000
    47 -0.308256 -0.007814 0.307165 -0.219335 -0.570088 -2.454644
    48 1.978377 0.019544 0.000000 0.056570 -0.001677 0.260587
    49 0.980611 0.058420 -0.012629 0.225155 -0.013435 0.102161
  time 13
    0 8.485879 2.932443 -8.243177 -0.503040 -1.182199 0.174134
    1 -0.021280 -8.563255 -0.000751 0.448367 -0.234640 -0.149968
    2 0.792406 -2.905200 0.835872 2.680096 -1.494964 0.470879
    3 -0.028195 2.698898 -0.230784 0.000000 0.000000 0.000000
    4 -0.000001 4.191838 -0.843241 0.000000 0.000000 0.000000
    5 0.195636 3.691723 2.013436 0.000000 0.000000 0.000000
    6 0.000001 4.321806 3.144327 0.000000 0.000000 0.000000
    7 0.000000 1.957418 -0.226470 0.000000 0.000000 0.000000
    8 -0.000278 -21.671399 1.916064 0.000000 0.000000 0.000000
    9 0.000001 14.986850 1.918826 0.000000 0.000000 0.000000
    10 0.000001 11.449860 1.851792 0.000000 0.000000 0.000000
    11 0.000000 1.934806 -0.630419 0.000000 0.000000 0.000000
    12 0.000000 1.253695 0.634938 0.000000 0.000000 0.000000
    13 0.044885 0.941603 4.711482 0.000000 0.000000 0.000000
    14 0.027106 0.933223 1.960619 0.000000 0.000000 0.000000
    15 0.000001 9.949661 2.586495 0.000000 0.000000 0.000000
    16 -0.003480 -0.404828 0.000000 -0.000001 0.000000 0.000000
    17 -0.519309 -2.501154 -0.278957 -0.879568 -0.036235 -0.324918
    18 -0.010599 -1.208185 0.000000 -1.185576 0.000000 0.000000
    19 0.000000 -0.763066 0.000000 -0.741497 0.000000 0.000000
    20 0.105981 -2.607134 -0.278957 -0.872556 -0.035899 -0.258089
    21 0.000000 -1.250579 0.000000 -0.794537 0.000000 0.000000
    22 0.000000 -0.932635 0.000000 -1.567302 0.000000 0.000000
    23 0.763065 -2.490556 -0.278958 -0.313873 0.040172 0.012324
    24 -0.012322 -1.280917 0.000000 -0.425546 0.000000 0.000000
    25 -0.001696 -0.738089 0.129481 -0.638014 0.000000 0.000000
    26 0.354567 0.016267 0.318133 0.308709 -0.503867 -0.874878
    27 1.887165 0.012878 0.000000 -0.095972 -0.113060 -1.028586
    28 1.001874 -0.000270 0.000000 0.000000 0.000000 -0.250165
    29 -1.123358 -2.195093 -0.278957 -1.061907 0.026409 -0.326972
    30 0.010772 -0.963791 0.000001 -0.810998 0.000000 0.000000
    31 -0.010412 -0.631916 0.000000 -0.691889 0.000000 0.000000
    32 -0.220197 -12.530386 -11.192782 -0.768906 0.358330 0.564951
    33 0.089928 -8.543165 0.000002 0.761417 -0.669320 -0.001449
    34 0.000000 -0.359714 0.000001 0.000000 0.000000 0.000000
    35 -0.170480 -2.636148 -0.277655 -1.043745 -0.052707 0.090280
    36 0.010599 -1.261177 0.000001 -0.473462 0.000000 0.000000
    37 0.000000 -0.943233 -0.000001 -0.944945 0.000000 0.000000
    38 -0.827563 -2.508972 -0.277656 -0.652127 -0.046328 0.035347
    39 0.000000 -1.292972 -0.000001 -0.708426 0.000000 0.000000
    40 -0.000002 -0.752465 0.000000 -0.777556 -0.248777 0.191914
    41 0.444212 -2.561962 -0.277655 -1.341904 0.037900 0.168005
    42 0.021023 -1.208187 0.000001 -0.304120 0.000000 0.000000
    43 0.010598 -0.741867 -0.000001 -0.721161 0.000000 0.000000
    44 1.047445 -2.222822 -0.277654 -1.356438 -0.069503 -0.040766
    45 -0.000001 -0.996223 -0.000001 -1.199027 0.000000 0.000000
    46 -0.000001 -0.614691 0.000000 -1.031474 0.000000 0.000000
    47 -0.308256 -0.007814 0.307165 -0.227586 -0.564852 -2.439522
    48 1.978377 0.019544 0.000000 0.058105 0.007335 0.231618
    49 0.980611 0.058420 -0.012629 0.225143 -0.013543 0.102661
  time 14
    0 8.485879 2.975413 -8.223645 -0.498600 -1.183106 0.169739
    1 -0.021280 -8.563255 -0.000751 0.448197 -0.235092 -0.149138
    2 0.792406 -2.905200 0.835872 2.680096 -1.494964 0.470879
    3 -0.028195 2.698898 -0.230784 0.000000 0.000000 0.000000
    4 -0.000001 4.191838 -0.843241 0.000000 0.000000 0.000000
    5 0.195636 3.691723 2.013436 0.000000 0.000000 0.000000
    6 0.000001 4.321806 3.144327 0.000000 0.000000 0.000000
    7 0.000000 1.957418 -0.226470 0.000000 0.000000 0.000000
    8 -0.000278 -21.671399 1.916064 0.000000 0.000000 0.000000
    9 0.000001 14.986850 1.918826 0.000000 0.000000 0.000000
    10 0.000001 11.449860 1.851792 0.000000 0.000000 0.000000
    11 0.000000 1.934806 -0.630419 0.000000 0.000000 0.000000
    12 0.000000 1.253695 0.634938 0.000000 0.000000 0.000000
    13 0.044885 0.941603 4.711482 0.000000 0.000000 0.000000
    14 0.027106 0.933223 1.960619 0.000000 0.000000 0.000000
    15 0.000001 9.949661 2.586495 0.000000 0.000000 0.000000
    16 -0.003480 -0.404828 0.000000 -0.000001 0.000000 0.000000
    17 -0.519309 -2.501154 -0.278957 -0.879568 -0.036235 -0.324918
    18 -0.010599 -1.208185 0.000000 -1.185576 0.000000 0.000000
    19 0.000000 -0.763066 0.000000 -0.741497 0.000000 0.000000
    20 0.105981 -2.607134 -0.278957 -0.872556 -0.035899 -0.258089
    21 0.000000 -1.250579 0.000000 -0.794537 0.000000 0.000000
    22 0.000000 -0.932635 0.000000 -1.567302 0.000000 0.000000
    23 0.763065 -2.490556 -0.278958 -0.313873 0.040172 0.012324
    24 -0.012322 -1.280917 0.000000 -0.424872 0.000000 0.000000
    25 -0.001696 -0.738089 0.129481 -0.638014 0.000000 0.000000
    26 0.354567 0.016267 0.318133 0.308709 -0.503867 -0.874878
    27 1.887165 0.012878 0.000000 -0.095972 -0.113060 -1.028586
    28 1.001874 -0.000270 0.000000 0.000000 0.000000 -0.250165
    29 -1.123358 -2.195093 -0.278957 -1.061907 0.026409 -0.326972
    30 0.010772 -0.963791 0.000001 -0.810998 0.000000 0.000000
    31 -0.010412 -0.631916 0.000000 -0.691889 0.000000 0.000000
    32 -0.220197 -12.530386 -11.239658 -0.775018 0.358522 0.565258
    33 0.089928 -8.543165 0.000002 0.760132 -0.670339 -0.002063
    34 0.000000 -0.359714 0.000001 0.000000 0.000000 0.000000
    35 -0.170480 -2.636148 -0.277655 -1.043745 -0.052707 0.090280
    36 0.010599 -1.261177 0.000001 -0.473462 0.000000 0.000000
    37 0.000000 -0.943233 -0.000001 -0.944945 0.000000 0.000000
    38 -0.827563 -2.508972 -0.277656 -0.652127 -0.046328 0.035347
    39 0.000000 -1.292972 -0.000001 -0.708426 0.000000 0.000000
    40 -0.000002 -0.752465 0.000000 -0.777556 -0.248777 0.191914
    41 0.444212 -2.561962 -0.277655 -1.341904 0.037900 0.168005
    42 0.021023 -1.208187 0.000001 -0.304120 0.000000 0.000000
    43 0.010598 -0.741867 -0.000001 -0.721161 0.000000 0.000000
    44 1.047445 -2.222822 -0.277654 -1.356438 -0.069503 -0.040766
    45 -0.000001 -0.996223 -0.000001 -1.199027 0.000000 0.000000
    46 -0.000001 -0.614691 0.000000 -1.031474 0.000000 0.000000
    47 -0.308256 -0.007814 0.307165 -0.232449 -0.557552 -2.430224
    48 1.978377 0.019544 0.000000 0.058364 0.004291 0.225551
    49 0.980611 0.058420 -0.012629 0.225143 -0.013303 0.101595
  time 15
    0 8.485879 3.018383 -8.204113 -0.494116 -1.184040 0.165429
    1 -0.021280 -8.563255 -0.000751 0.447984 -0.235642 -0.148042
    2 0.792406 -2.905200 0.835872 2.680096 -1.494964 0.470879
    3 -0.028195 2.698898 -0.230784 0.000000 0.000000 0.000000
    4 -0.000001 4.191838 -0.843241 0.000000 0.000000 0.000000
    5 0.195636 3.691723 2.013436 0.000000 0.000000 0.000000
    6 0.000001 4.321806 3.144327 0.000000 0.000000 0.000000
    7 0.000000 1.957418 -0.226470 0.000000 0.000000 0.000000
    8 -0.000278 -21.671399 1.916064 0.000000 0.000000 0.000000
    9 0.000001 14.986850 1.918826 0.000000 0.000000 0.000000
    10 0.000001 11.449860 1.851792 0.000000 0.000000 0.000000
    11 0.000000 1.934806 -0.630419 0.000000 0.000000 0.000000
    12 0.000000 1.253695 0.634938 0.000000 0.000000 0.000000
    13 0.044885 0.941603 4.711482 0.000000 0.000000 0.000000
    14 0.027106 0.933223 1.960619 0.000000 0.000000 0.000000
    15 0.000001 9.949661 2.586495 0.000000 0.000000 0.000000
    16 -0.003480 -0.404828 0.000000 -0.000001 0.000000 0.000000
    17 -0.519309 -2.501154 -0.278957 -0.879568 -0.036235 -0.324918
    18 -0.010599 -1.208185 0.000000 -1.185576 0.000000 0.000000
    19 0.000000 -0.763066 0.000000 -0.741497 0.000000 0.000000
    20 0.105981 -2.607134 -0.278957 -0.872556 -0.035899 -0.258089
    21 0.000000 -1.250579 0.000000 -0.794537 0.000000 0.000000
    22 0.000000 -0.932635 0.000000 -1.567302 0.000000 0.000000
    23 0.763065 -2.490556 -0.278958 -0.313873 0.040172 0.012324
    24 -0.012322 -1.280917 0.000000 -0.423861 0.000000 0.000000
    25 -0.001696 -0.738089 0.129481 -0.638014 0.000000 0.000000
    26 0.354567 0.016267 0.318133 0.308709 -0.503867 -0.874878
    27 1.887165 0.012878 0.000000 -0.095972 -0.113060 -1.028586
    28 1.001874 -0.000270 0.000000 0.000000 0.000000 -0.250165
    29 -1.123358 -2.195093 -0.278957 -1.061907 0.026409 -0.326972
    30 0.010772 -0.963791 0.000001 -0.810998 0.000000 0.000000
    31 -0.010412 -0.631916 0.000000 -0.691889 0.000000 0.000000
    32 -0.220197 -12.530386 -11.278722 -0.780189 0.359096 0.565951
    33 0.089928 -8.543165 0.000002 0.758580 -0.671521 -0.002785
    34 0.000000 -0.359714 0.000001 0.000000 0.000000 0.000000
    35 -0.170480 -2.636148 -0.277655 -1.043745 -0.052707 0.090280
    36 0.010599 -1.261177 0.000001 -0.473462 0.000000 0.000000
    37 0.000000 -0.943233 -0.000001 -0.944945 0.000000 0.000000
    38 -0.827563 -2.508972 -0.277656 -0.652127 -0.046328 0.035347
    39 0.000000 -1.292972 -0.000001 -0.708426 0.000000 0.000000
    40 -0.000002 -0.752465 0.000000 -0.777556 -0.248777 0.191914
    41 0.444212 -2.561962 -0.277655 -1.341904 0.037900 0.168005
    42 0.021023 -1.208187 0.000001 -0.304120 0.000000 0.000000
    43 0.010598 -0.741867 -0.000001 -0.721161 0.000000 0.000000
    44 1.047445 -2.222822 -0.277654 -1.356438 -0.069503 -0.040766
    45 -0.000001 -0.996223 -0.000001 -1.199027 0.000000 0.000000
    46 -0.000001 -0.614691 0.000000 -1.031474 0.000000 0.000000
    47 -0.308256 -0.007814 0.307165 -0.235900 -0.547949 -2.423273
    48 1.978377 0.019544 0.000000 0.058567 -0.003583 0.220765
    49 0.980611 0.058420 -0.012629 0.225143 -0.012620 0.098630
  time 16
    0 8.485879 3.049634 -8.192394 -0.490643 -1.184727 0.162048
    1 -0.021280 -8.563255 -0.000751 0.447856 -0.236062 -0.147178
    2 0.792406 -2.905200 0.835872 2.680096 -1.494964 0.470879
    3 -0.028195 2.698898 -0.230784 0.000000 0.000000 0.000000
    4 -0.000001 4.191838 -0.843241 0.000000 0.000000 0.000000
    5 0.195636 3.691723 2.013436 0.000000 0.000000 0.000000
    6 0.000001 4.321806 3.144327 0.000000 0.000000 0.000000
    7 0.000000 1.957418 -0.226470 0.000000 0.000000 0.000000
    8 -0.000278 -21.671399 1.916064 0.000000 0.000000 0.000000
    9 0.000001 14.986850 1.918826 0.000000 0.000000 0.000000
    10 0.000001 11.449860 1.851792 0.000000 0.000000 0.000000
    11 0.000000 1.934806 -0.630419 0.000000 0.000000 0.000000
    12 0.000000 1.253695 0.634938 0.000000 0.000000 0.000000
    13 0.044885 0.941603 4.711482 0.000000 0.000000 0.000000
    14 0.027106 0.933223 1.960619 0.000000 0.000000 0.000000
    15 0.000001 9.949661 2.586495 0.000000 0.000000 0.000000
    16 -0.003480 -0.404828 0.000000 -0.000001 0.000000 0.000000
    17 -0.519309 -2.501154 -0.278957 -0.879568 -0.036235 -0.324918
    18 -0.010599 -1.208185 0.000000 -1.185576 0.000000 0.000000
    19 0.000000 -0.763066 0.000000 -0.741497 0.000000 0.000000
    20 0.105981 -2.607134 -0.278957 -0.872556 -0.035899 -0.258089
    21 0.000000 -1.250579 0.000000 -0.794537 0.000000 0.000000
    22 0.000000 -0.932635 0.000000 -1.567302 0.000000 0.000000
    23 0.763065 -2.490556 -0.278958 -0.313873 0.040172 0.012324
    24 -0.012322 -1.280917 0.000000 -0.422479 0.000000 0.000000
    25 -0.001696 -0.738089 0.129481 -0.638014 0.000000 0.000000
    26 0.354567 0.016267 0.318133 0.308709 -0.503867 -0.874878
    27 1.887165 0.012878 0.000000 -0.095972 -0.113060 -1.028586
    28 1.001874 -0.000270 0.000000 0.000000 0.000000 -0.250165
    29 -1.123358 -2.195093 -0.278957 -1.061907 0.026409 -0.326972
    30 0.010772 -0.963791 0.000001 -0.810998 0.000000 0.000000
    31 -0.010412 -0.631916 0.000000 -0.691889 0.000000 0.000000
    32 -0.220197 -12.530386 -11.290441 -0.782916 0.359861 0.566873
    33 0.089928 -8.543165 0.000002 0.756760 -0.672907 -0.003639
    34 0.000000 -0.359714 0.000001 0.000000 0.000000 0.000000
    35 -0.170480 -2.636148 -0.277655 -1.043745 -0.052707 0.090280
    36 0.010599 -1.261177 0.000001 -0.473462 0.000000 0.000000
    37 0.000000 -0.943233 -0.000001 -0.944945 0.000000 0.000000
    38 -0.827563 -2.508972 -0.277656 -0.652127 -0.046328 0.035347
    39 0.000000 -1.292972 -0.000001 -0.708426 0.000000 0.000000
    40 -0.000002 -0.752465 0.000000 -0.777556 -0.248777 0.191914
    41 0.444212 -2.561962 -0.277655 -1.341904 0.037900 0.168005
    42 0.021023 -1.208187 0.000001 -0.304120 0.000000 0.000000
    43 0.010598 -0.741867 -0.000001 -0.721161 0.000000 0.000000
    44 1.047445 -2.222822 -0.277654 -1.356438 -0.069503 -0.040766
    45 -0.000001 -0.996223 -0.000001 -1.199027 0.000000 0.000000
    46 -0.000001 -0.614691 0.000000 -1.031474 0.000000 0.000000
    47 -0.308256 -0.007814 0.307165 -0.238253 -0.537221 -2.418154
    48 1.978377 0.019544 0.000000 0.058730 -0.014357 0.217147
    49 0.980611 0.058420 -0.012629 0.225155 -0.011541 0.093967
  time 17
    0 8.485879 3.061353 -8.188488 -0.489280 -1.185029 0.160696
    1 -0.021280 -8.563255 -0.000751 0.447856 -0.236094 -0.147145
    2 0.792406 -2.905200 0.835872 2.680096 -1.494964 0.470879
    3 -0.028195 2.698898 -0.230784 0.000000 0.000000 0.000000
    4 -0.000001 4.191838 -0.843241 0.000000 0.000000 0.000000
    5 0.195636 3.691723 2.013436 0.000000 0.000000 0.000000
    6 0.000001 4.321806 3.144327 0.000000 0.000000 0.000000
    7 0.000000 1.957418 -0.226470 0.000000 0.000000 0.000000
    8 -0.000278 -21.671399 1.916064 0.000000 0.000000 0.000000
    9 0.000001 14.986850 1.918826 0.000000 0.000000 0.000000
    10 0.000001 11.449860 1.851792 0.000000 0.000000 0.000000
    11 0.000000 1.934806 -0.630419 0.000000 0.000000 0.000000
    12 0.000000 1.253695 0.634938 0.000000 0.000000 0.000000
    13 0.044885 0.941603 4.711482 0.000000 0.000000 0.000000
    14 0.027106 0.933223 1.960619 0.000000 0.000000 0.000000
    15 0.000001 9.949661 2.586495 0.000000 0.000000 0.000000
    16 -0.003480 -0.404828 0.000000 -0.000001 0.000000 0.000000
    17 -0.519309 -2.501154 -0.278957 -0.879568 -0.036235 -0.324918
    18 -0.010599 -1.208185 0.000000 -1.185576 0.000000 0.000000
    19 0.000000 -0.763066 0.000000 -0.741497 0.000000 0.000000
    20 0.105981 -2.607134 -0.278957 -0.872556 -0.035899 -0.258089
    21 0.000000 -1.250579 0.000000 -0.794537 0.000000 0.000000
    22 0.000000 -0.932635 0.000000 -1.567302 0.000000 0.000000
    23 0.763065 -2.490556 -0.278958 -0.313873 0.040172 0.012324
    24 -0.012322 -1.280917 0.000000 -0.420860 0.000000 0.000000
    25 -0.001696 -0.738089 0.129481 -0.638014 0.000000 0.000000
    26 0.354567 0.016267 0.318133 0.308709 -0.503867 -0.874878
    27 1.887165 0.012878 0.000000 -0.095972 -0.113060 -1.028586
    28 1.001874 -0.000270 0.000000 0.000000 0.000000 -0.250165
    29 -1.123358 -2.195093 -0.278957 -1.061907 0.026409 -0.326972
    30 0.010772 -0.963791 0.000001 -0.810998 0.000000 0.000000
    31 -0.010412 -0.631916 0.000000 -0.691889 0.000000 0.000000
    32 -0.220197 -12.530386 -11.290441 -0.783104 0.360435 0.567565
    33 0.089928 -8.543165 0.000002 0.754780 -0.674375 -0.004581
    34 0.000000 -0.359714 0.000001 0.000000 0.000000 0.000000
    35 -0.170480 -2.636148 -0.277655 -1.043745 -0.052707 0.090280
    36 0.010599 -1.261177 0.000001 -0.473462 0.000000 0.000000
    37 0.000000 -0.943233 -0.000001 -0.944945 0.000000 0.000000
    38 -0.827563 -2.508972 -0.277656 -0.652127 -0.046328 0.035347
    39 0.000000 -1.292972 -0.000001 -0.708426 0.000000 0.000000
    40 -0.000002 -0.752465 0.000000 -0.777556 -0.248777 0.191914
    41 0.444212 -2.561962 -0.277655 -1.341904 0.037900 0.168005
    42 0.021023 -1.208187 0.000001 -0.304120 0.000000 0.000000
    43 0.010598 -0.741867 -0.000001 -0.721161 0.000000 0.000000
    44 1.047445 -2.222822 -0.277654 -1.356438 -0.069503 -0.040766
    45 -0.000001 -0.996223 -0.000001 -1.199027 0.000000 0.000000
    46 -0.000001 -0.614691 0.000000 -1.031474 0.000000 0.000000
    47 -0.308256 -0.007814 0.307165 -0.239822 -0.526544 -2.414319
    48 1.978377 0.019544 0.000000 0.058839 -0.026078 0.214531
    49 0.980611 0.058420 -0.012629 0.225167 -0.010151 0.087871
  time 18
    0 8.485879 3.061353 -8.188488 -0.489280 -1.185029 0.160696
    1 -0.021280 -8.563255 -0.000751 0.447984 -0.235932 -0.147577
    2 0.792406 -2.905200 0.835872 2.680096 -1.494964 0.470879
    3 -0.028195 2.698898 -0.230784 0.000000 0.000000 0.000000
    4 -0.000001 4.191838 -0.843241 0.000000 0.000000 0.000000
    5 0.195636 3.691723 2.013436 0.000000 0.000000 0.000000
    6 0.000001 4.321806 3.144327 0.000000 0.000000 0.000000
    7 0.000000 1.957418 -0.226470 0.000000 0.000000 0.000000
    8 -0.000278 -21.671399 1.916064 0.000000 0.000000 0.000000
    9 0.000001 14.986850 1.918826 0.000000 0.000000 0.000000
    10 0.000001 11.449860 1.851792 0.000000 0.000000 0.000000
    11 0.000000 1.934806 -0.630419 0.000000 0.000000 0.000000
    12 0.000000 1.253695 0.634938 0.000000 0.000000 0.000000
    13 0.044885 0.941603 4.711482 0.000000 0.000000 0.000000
    14 0.027106 0.933223 1.960619 0.000000 0.000000 0.000000
    15 0.000001 9.949661 2.586495 0.000000 0.000000 0.000000
    16 -0.003480 -0.404828 0.000000 -0.000001 0.000000 0.000000
    17 -0.519309 -2.501154 -0.278957 -0.879568 -0.036235 -0.324918
    18 -0.010599 -1.208185 0.000000 -1.185576 0.000000 0.000000
    19 0.000000 -0.763066 0.000000 -0.741497 0.000000 0.000000
    20 0.105981 -2.607134 -0.278957 -0.872556 -0.035899 -0.258089
    21 0.000000 -1.250579 0.000000 -0.794537 0.000000 0.000000
    22 0.000000 -0.932635 0.000000 -1.567302 0.000000 0.000000
    23 0.763065 -2.490556 -0.278958 -0.313873 0.040172 0.012324
    24 -0.012322 -1.280917 0.000000 -0.419006 0.000000 0.000000
    25 -0.001696 -0.738089 0.129481 -0.638014 0.000000 0.000000
    26 0.354567 0.016267 0.318133 0.308709 -0.503867 -0.874878
    27 1.887165 0.012878 0.000000 -0.095972 -0.113060 -1.028586
    28 1.001874 -0.000270 0.000000 0.000000 0.000000 -0.250165
    29 -1.123358 -2.195093 -0.278957 -1.061907 0.026409 -0.326972
    30 0.010772 -0.963791 0.000001 -0.810998 0.000000 0.000000
    31 -0.010412 -0.631916 0.000000 -0.691889 0.000000 0.000000
    32 -0.220197 -12.530386 -11.290441 -0.782822 0.360531 0.567642
    33 0.089928 -8.543165 0.000002 0.752692 -0.676006 -0.005566
    34 0.000000 -0.359714 0.000001 0.000000 0.000000 0.000000
    35 -0.170480 -2.636148 -0.277655 -1.043745 -0.052707 0.090280
    36 0.010599 -1.261177 0.000001 -0.473462 0.000000 0.000000
    37 0.000000 -0.943233 -0.000001 -0.944945 0.000000 0.000000
    38 -0.827563 -2.508972 -0.277656 -0.652127 -0.046328 0.035347
    39 0.000000 -1.292972 -0.000001 -0.708426 0.000000 0.000000
    40 -0.000002 -0.752465 0.000000 -0.777556 -0.248777 0.191914
    41 0.444212 -2.561962 -0.277655 -1.341904 0.037900 0.168005
    42 0.021023 -1.208187 0.000001 -0.304120 0.000000 0.000000
    43 0.010598 -0.741867 -0.000001 -0.721161 0.000000 0.000000
    44 1.047445 -2.222822 -0.277654 -1.356438 -0.069503 -0.040766
    45 -0.000001 -0.996223 -0.000001 -1.199027 0.000000 0.000000
    46 -0.000001 -0.614691 0.000000 -1.031474 0.000000 0.000000
    47 -0.308256 -0.007814 0.307165 -0.241014 -0.517061 -2.411251
    48 1.978377 0.019544 0.000000 0.058921 -0.036852 0.212862
    49 0.980611 0.058420 -0.012629 0.225167 -0.008497 0.080642
  time 19
    0 8.485879 3.061353 -8.188488 -0.489280 -1.185029 0.160696
    1 -0.021280 -8.563255 -0.000751 0.448112 -0.235771 -0.147942
    2 0.792406 -2.905200 0.835872 2.680096 -1.494964 0.470879
    3 -0.028195 2.698898 -0.230784 0.000000 0.000000 0.000000
    4 -0.000001 4.191838 -0.843241 0.000000 0.000000 0.000000
    5 0.195636 3.691723 2.013436 0.000000 0.000000 0.000000
    6 0.000001 4.321806 3.144327 0.000000 0.000000 0.000000
    7 0.000000 1.957418 -0.226470 0.000000 0.000000 0.000000
    8 -0.000278 -21.671399 1.916064 0.000000 0.000000 0.000000
    9 0.000001 14.986850 1.918826 0.000000 0.000000 0.000000
    10 0.000001 11.449860 1.851792 0.000000 0.000000 0.000000
    11 0.000000 1.934806 -0.630419 0.000000 0.000000 0.000000
    12 0.000000 1.253695 0.634938 0.000000 0.000000 0.000000
    13 0.044885 0.941603 4.711482 0.000000 0.000000 0.000000
    14 0.027106 0.933223 1.960619 0.000000 0.000000 0.000000
    15 0.000001 9.949661 2.586495 0.000000 0.000000 0.000000
    16 -0.003480 -0.404828 0.000000 -0.000001 0.000000 0.000000
    17 -0.519309 -2.501154 -0.278957 -0.879568 -0.036235 -0.324918
    18 -0.010599 -1.208185 0.000000 -1.185576 0.000000 0.000000
    19 0.000000 -0.763066 0.000000 -0.741497 0.000000 0.000000
    20 0.105981 -2.607134 -0.278957 -0.872556 -0.035899 -0.258089
    21 0.000000 -1.250579 0.000000 -0.794537 0.000000 0.000000
    22 0.000000 -0.932635 0.000000 -1.567302 0.000000 0.000000
    23 0.763065 -2.490556 -0.278958 -0.313873 0.040172 0.012324
    24 -0.012322 -1.280917 0.000000 -0.416983 0.000000 0.000000
    25 -0.001696 -0.738089 0.129481 -0.638014 0.000000 0.000000
    26 0.354567 0.016267 0.318133 0.308709 -0.503867 -0.874878
    27 1.887165 0.012878 0.000000 -0.095972 -0.113060 -1.028586
    28 1.001874 -0.000270 0.000000 0.000000 0.000000 -0.250165
    29 -1.123358 -2.195093 -0.278957 -1.061907 0.026409 -0.326972
    30 0.010772 -0.963791 0.000001 -0.810998 0.000000 0.000000
    31 -0.010412 -0.631916 0.000000 -0.691889 0.000000 0.000000
    32 -0.220197 -12.530386 -11.290441 -0.782446 0.360626 0.567796
    33 0.089928 -8.543165 0.000002 0.750497 -0.677677 -0.006618
    34 0.000000 -0.359714 0.000001 0.000000 0.000000 0.000000
    35 -0.170480 -2.636148 -0.277655 -1.043745 -0.052707 0.090280
    36 0.010599 -1.261177 0.000001 -0.473462 0.000000 0.000000
    37 0.000000 -0.943233 -0.000001 -0.944945 0.000000 0.000000
    38 -0.827563 -2.508972 -0.277656 -0.652127 -0.046328 0.035347
    39 0.000000 -1.292972 -0.000001 -0.708426 0.000000 0.000000
    40 -0.000002 -0.752465 0.000000 -0.777556 -0.248777 0.191914
    41 0.444212 -2.561962 -0.277655 -1.341904 0.037900 0.168005
    42 0.021023 -1.208187 0.000001 -0.304120 0.000000 0.000000
    43 0.010598 -0.741867 -0.000001 -0.721161 0.000000 0.000000
    44 1.047445 -2.222822 -0.277654 -1.356438 -0.069503 -0.040766
    45 -0.000001 -0.996223 -0.000001 -1.199027 0.000000 0.000000
    46 -0.000001 -0.614691 0.000000 -1.031474 0.000000 0.000000
    47 -0.308256 -0.007814 0.307165 -0.242143 -0.509965 -2.408417
    48 1.978377 0.019544 0.000000 0.058961 -0.044726 0.211915
    49 0.980611 0.058420 -0.012629 0.225179 -0.006628 0.072481
  time 20
    0 8.485879 3.061353 -8.188488 -0.489280 -1.185029 0.160696
    1 -0.021280 -8.563255 -0.000751 0.448239 -0.235674 -0.148274
    2 0.792406 -2.905200 0.835872 2.680096 -1.494964 0.470879
    3 -0.028195 2.698898 -0.230784 0.000000 0.000000 0.000000
    4 -0.000001 4.191838 -0.843241 0.000000 0.000000 0.000000
    5 0.195636 3.691723 2.013436 0.000000 0.000000 0.000000
    6 0.000001 4.321806 3.144327 0.000000 0.000000 0.000000
    7 0.000000 1.957418 -0.226470 0.000000 0.000000 0.000000
    8 -0.000278 -21.671399 1.916064 0.000000 0.000000 0.000000
    9 0.000001 14.986850 1.918826 0.000000 0.000000 0.000000
    10 0.000001 11.449860 1.851792 0.000000 0.000000 0.000000
    11 0.000000 1.934806 -0.630419 0.000000 0.000000 0.000000
    12 0.000000 1.253695 0.634938 0.000000 0.000000 0.000000
    13 0.044885 0.941603 4.711482 0.000000 0.000000 0.000000
    14 0.027106 0.933223 1.960619 0.000000 0.000000 0.000000
    15 0.000001 9.949661 2.586495 0.000000 0.000000 0.000000
    16 -0.003480 -0.404828 0.000000 -0.000001 0.000000 0.000000
    17 -0.519309 -2.501154 -0.278957 -0.879568 -0.036235 -0.324918
    18 -0.010599 -1.208185 0.000000 -1.185576 0.000000 0.000000
    19 0.000000 -0.763066 0.000000 -0.741497 0.000000 0.000000
    20 0.105981 -2.607134 -0.278957 -0.872556 -0.035899 -0.258089
    21 0.000000 -1.250579 0.000000 -0.794537 0.000000 0.000000
    22 0.000000 -0.932635 0.000000 -1.567302 0.000000 0.000000
    23 0.763065 -2.490556 -0.278958 -0.313873 0.040172 0.012324
    24 -0.012322 -1.280917 0.000000 -0.414859 0.000000 0.000000
    25 -0.001696 -0.738089 0.129481 -0.638014 0.000000 0.000000
    26 0.354567 0.016267 0.318133 0.308709 -0.503867 -0.874878
    27 1.887165 0.012878 0.000000 -0.095972 -0.113060 -1.028586
    28 1.001874 -0.000270 0.000000 0.000000 0.000000 -0.250165
    29 -1.123358 -2.195093 -0.278957 -1.061907 0.026409 -0.326972
    30 0.010772 -0.963791 0.000001 -0.810998 0.000000 0.000000
    31 -0.010412 -0.631916 0.000000 -0.691889 0.000000 0.000000
    32 -0.220197 -12.530386 -11.290441 -0.782070 0.360722 0.567873
    33 0.089928 -8.543165 0.000002 0.748249 -0.679390 -0.007669
    34 0.000000 -0.359714 0.000001 0.000000 0.000000 0.000000
    35 -0.170480 -2.636148 -0.277655 -1.043745 -0.052707 0.090280
    36 0.010599 -1.261177 0.000001 -0.473462 0.000000 0.000000
    37 0.000000 -0.943233 -0.000001 -0.944945 0.000000 0.000000
    38 -0.827563 -2.508972 -0.277656 -0.652127 -0.046328 0.035347
    39 0.000000 -1.292972 -0.000001 -0.708426 0.000000 0.000000
    40 -0.000002 -0.752465 0.000000 -0.777556 -0.248777 0.191914
    41 0.444212 -2.561962 -0.277655 -1.341904 0.037900 0.168005
    42 0.021023 -1.208187 0.000001 -0.304120 0.000000 0.000000
    43 0.010598 -0.741867 -0.000001 -0.721161 0.000000 0.000000
    44 1.047445 -2.222822 -0.277654 -1.356438 -0.069503 -0.040766
    45 -0.000001 -0.996223 -0.000001 -1.199027 0.000000 0.000000
    46 -0.000001 -0.614691 0.000000 -1.031474 0.000000 0.000000
    47 -0.308256 -0.007814 0.307165 -0.243524 -0.506418 -2.405302
    48 1.978377 0.019544 0.000000 0.058975 -0.047770 0.211665
    49 0.980611 0.058420 -0.012629 0.225191 -0.004614 0.063720
  time 21
    0 8.485879 3.061353 -8.188488 -0.489280 -1.185029 0.160696
    1 -0.021280 -8.563255 -0.000751 0.448325 -0.235577 -0.148474
    2 0.792406 -2.905200 0.835872 2.680096 -1.494964 0.470879
    3 -0.028195 2.698898 -0.230784 0.000000 0.000000 0.000000
    4 -0.000001 4.191838 -0.843241 0.000000 0.000000 0.000000
    5 0.195636 3.691723 2.013436 0.000000 0.000000 0.000000
    6 0.000001 4.321806 3.144327 0.000000 0.000000 0.000000
    7 0.000000 1.957418 -0.226470 0.000000 0.000000 0.000000
    8 -0.000278 -21.671399 1.916064 0.000000 0.000000 0.000000
    9 0.000001 14.986850 1.918826 0.000000 0.000000 0.000000
    10 0.000001 11.449860 1.851792 0.000000 0.000000 0.000000
    11 0.000000 1.934806 -0.630419 0.000000 0.000000 0.000000
    12 0.000000 1.253695 0.634938 0.000000 0.000000 0.000000
    13 0.044885 0.941603 4.711482 0.000000 0.000000 0.000000
    14 0.027106 0.933223 1.960619 0.000000 0.000000 0.000000
    15 0.000001 9.949661 2.586495 0.000000 0.000000 0.000000
    16 -0.003480 -0.404828 0.000000 -0.000001 0.000000 0.000000
    17 -0.519309 -2.501154 -0.278957 -0.879568 -0.036235 -0.324918
    18 -0.010599 -1.208185 0.000000 -1.185576 0.000000 0.000000
    19 0.000000 -0.763066 0.000000 -0.741497 0.000000 0.000000
    20 0.105981 -2.607134 -0.278957 -0.872556 -0.035899 -0.258089
    21 0.000000 -1.250579 0.000000 -0.794537 0.000000 0.000000
    22 0.000000 -0.932635 0.000000 -1.567302 0.000000 0.000000
    23 0.763065 -2.490556 -0.278958 -0.313873 0.040172 0.012324
    24 -0.012322 -1.280917 0.000000 -0.412702 0.000000 0.000000
    25 -0.001696 -0.738089 0.129481 -0.638014 0.000000 0.000000
    26 0.354567 0.016267 0.318133 0.308709 -0.503867 -0.874878
    27 1.887165 0.012878 0.000000 -0.095972 -0.113060 -1.028586
    28 1.001874 -0.000270 0.000000 0.000000 0.000000 -0.250165
    29 -1.123358 -2.195093 -0.278957 -1.061907 0.026409 -0.326972
    30 0.010772 -0.963791 0.000001 -0.810998 0.000000 0.000000
    31 -0.010412 -0.631916 0.000000 -0.691889 0.000000 0.000000
    32 -0.220197 -12.530386 -11.290441 -0.781882 0.360818 0.567950
    33 0.089928 -8.543165 0.000002 0.746001 -0.681102 -0.008720
    34 0.000000 -0.359714 0.000001 0.000000 0.000000 0.000000
    35 -0.170480 -2.636148 -0.277655 -1.043745 -0.052707 0.090280
    36 0.010599 -1.261177 0.000001 -0.473462 0.000000 0.000000
    37 0.000000 -0.943233 -0.000001 -0.944945 0.000000 0.000000
    38 -0.827563 -2.508972 -0.277656 -0.652127 -0.046328 0.035347
    39 0.000000 -1.292972 -0.000001 -0.708426 0.000000 0.000000
    40 -0.000002 -0.752465 0.000000 -0.777556 -0.248777 0.191914
    41 0.444212 -2.561962 -0.277655 -1.341904 0.037900 0.168005
    42 0.021023 -1.208187 0.000001 -0.304120 0.000000 0.000000
    43 0.010598 -0.741867 -0.000001 -0.721161 0.000000 0.000000
    44 1.047445 -2.222822 -0.277654 -1.356438 -0.069503 -0.040766
    45 -0.000001 -0.996223 -0.000001 -1.199027 0.000000 0.000000
    46 -0.000001 -0.614691 0.000000 -1.031474 0.000000 0.000000
    47 -0.308256 -0.007814 0.307165 -0.245155 -0.505156 -2.401827
    48 1.978377 0.019544 0.000000 0.058975 -0.047770 0.211665
    49 0.980611 0.058420 -0.012629 0.225215 -0.002505 0.054526
  time 22
    0 8.485879 3.061353 -8.188488 -0.489280 -1.185029 0.160696
    1 -0.021280 -8.563255 -0.000751 0.448367 -0.235512 -0.148640
    2 0.792406 -2.905200 0.835872 2.680096 -1.494964 0.470879
    3 -0.028195 2.698898 -0.230784 0.000000 0.000000 0.000000
    4 -0.000001 4.191838 -0.843241 0.000000 0.000000 0.000000
    5 0.195636 3.691723 2.013436 0.000000 0.000000 0.000000
    6 0.000001 4.321806 3.144327 0.000000 0.000000 0.000000
    7 0.000000 1.957418 -0.226470 0.000000 0.000000 0.000000
    8 -0.000278 -21.671399 1.916064 0.000000 0.000000 0.000000
    9 0.000001 14.986850 1.918826 0.000000 0.000000 0.000000
    10 0.000001 11.449860 1.851792 0.000000 0.000000 0.000000
    11 0.000000 1.934806 -0.630419 0.000000 0.000000 0.000000
    12 0.000000 1.253695 0.634938 0.000000 0.000000 0.000000
    13 0.044885 0.941603 4.711482 0.000000 0.000000 0.000000
    14 0.027106 0.933223 1.960619 0.000000 0.000000 0.000000
    15 0.000001 9.949661 2.586495 0.000000 0.000000 0.000000
    16 -0.003480 -0.404828 0.000000 -0.000001 0.000000 0.000000
    17 -0.519309 -2.501154 -0.278957 -0.879568 -0.036235 -0.324918
    18 -0.010599 -1.208185 0.000000 -1.185576 0.000000 0.000000
    19 0.000000 -0.763066 0.000000 -0.741497 0.000000 0.000000
    20 0.105981 -2.607134 -0.278957 -0.872556 -0.035899 -0.258089
    21 0.000000 -1.250579 0.000000 -0.794537 0.000000 0.000000
    22 0.000000 -0.932635 0.000000 -1.567302 0.000000 0.000000
    23 0.763065 -2.490556 -0.278958 -0.313873 0.040172 0.012324
    24 -0.012322 -1.280917 0.000000 -0.410510 0.000000 0.000000
    25 -0.001696 -0.738089 0.129481 -0.638014 0.000000 0.000000
    26 0.354567 0.016267 0.318133 0.308709 -0.503867 -0.874878
    27 1.887165 0.012878 0.000000 -0.095972 -0.113060 -1.028586
    28 1.001874 -0.000270 0.000000 0.000000 0.000000 -0.250165
    29 -1.123358 -2.195093 -0.278957 -1.061907 0.026409 -0.326972
    30 0.010772 -0.963791 0.000001 -0.810998 0.000000 0.000000
    31 -0.010412 -0.631916 0.000000 -0.691889 0.000000 0.000000
    32 -0.220197 -12.530386 -11.290441 -0.781600 0.360818 0.568027
    33 0.089928 -8.543165 0.000002 0.743806 -0.682773 -0.009771
    34 0.000000 -0.359714 0.000001 0.000000 0.000000 0.000000
    35 -0.170480 -2.636148 -0.277655 -1.043745 -0.052707 0.090280
    36 0.010599 -1.261177 0.000001 -0.473462 0.000000 0.000000
    37 0.000000 -0.943233 -0.000001 -0.944945 0.000000 0.000000
    38 -0.827563 -2.508972 -0.277656 -0.652127 -0.046328 0.035347
    39 0.000000 -1.292972 -0.000001 -0.708426 0.000000 0.000000
    40 -0.000002 -0.752465 0.000000 -0.777556 -0.248777 0.191914
    41 0.444212 -2.561962 -0.277655 -1.341904 0.037900 0.168005
    42 0.021023 -1.208187 0.000001 -0.304120 0.000000 0.000000
    43 0.010598 -0.741867 -0.000001 -0.721161 0.000000 0.000000
    44 1.047445 -2.222822 -0.277654 -1.356438 -0.069503 -0.040766
    45 -0.000001 -0.996223 -0.000001 -1.199027 0.000000 0.000000
    46 -0.000001 -0.614691 0.000000 -1.031474 0.000000 0.000000
    47 -0.308256 -0.007814 0.307165 -0.246818 -0.504081 -2.398367
    48 1.978377 0.019544 0.000000 0.058975 -0.047770 0.211665
    49 0.980611 0.058420 -0.012629 0.225227 -0.000372 0.045232
  time 23
    0 8.485879 3.061353 -8.188488 -0.489280 -1.185029 0.160696
    1 -0.021280 -8.563255 -0.000751 0.448410 -0.235480 -0.148706
    2 0.792406 -2.905200 0.835872 2.680096 -1.494964 0.470879
    3 -0.028195 2.698898 -0.230784 0.000000 0.000000 0.000000
    4 -0.000001 4.191838 -0.843241 0.000000 0.000000 0.000000
    5 0.195636 3.691723 2.013436 0.000000 0.000000 0.000000
    6 0.000001 4.321806 3.144327 0.000000 0.000000 0.000000
    7 0.000000 1.957418 -0.226470 0.000000 0.000000 0.000000
    8 -0.000278 -21.671399 1.916064 0.000000 0.000000 0.000000
    9 0.000001 14.986850 1.918826 0.000000 0.000000 0.000000
    10 0.000001 11.449860 1.851792 0.000000 0.000000 0.000000
    11 0.000000 1.934806 -0.630419 0.000000 0.000000 0.000000
    12 0.000000 1.253695 0.634938 0.000000 0.000000 0.000000
    13 0.044885 0.941603 4.711482 0.000000 0.000000 0.000000
    14 0.027106 0.933223 1.960619 0.000000 0.000000 0.000000
    15 0.000001 9.949661 2.586495 0.000000 0.000000 0.000000
    16 -0.003480 -0.404828 0.000000 -0.000001 0.000000 0.000000
    17 -0.519309 -2.501154 -0.278957 -0.879568 -0.036235 -0.324918
    18 -0.010599 -1.208185 0.000000 -1.185576 0.000000 0.000000
    19 0.000000 -0.763066 0.000000 -0.741497 0.000000 0.000000
    20 0.105981 -2.607134 -0.278957 -0.872556 -0.035899 -0.258089
    21 0.000000 -1.250579 0.000000 -0.794537 0.000000 0.000000
    22 0.000000 -0.932635 0.000000 -1.567302 0.000000 0.000000
    23 0.763065 -2.490556 -0.278958 -0.313873 0.040172 0.012324
    24 -0.012322 -1.280917 0.000000 -0.408386 0.000000 0.000000
    25 -0.001696 -0.738089 0.129481 -0.638014 0.000000 0.000000
    26 0.354567 0.016267 0.318133 0.308709 -0.503867 -0.874878
    27 1.887165 0.012878 0.000000 -0.095972 -0.113060 -1.028586
    28 1.001874 -0.000270 0.000000 0.000000 0.000000 -0.250165
    29 -1.123358 -2.195093 -0.278957 -1.061907 0.026409 -0.326972
    30 0.010772 -0.963791 0.000001 -0.810998 0.000000 0.000000
    31 -0.010412 -0.631916 0.000000 -0.691889 0.000000 0.000000
    32 -0.220197 -12.530386 -11.290441 -0.781506 0.360818 0.568027
    33 0.089928 -8.543165 0.000002 0.741719 -0.684363 -0.010756
    34 0.000000 -0.359714 0.000001 0.000000 0.000000 0.000000
    35 -0.170480 -2.636148 -0.277655 -1.043745 -0.052707 0.090280
    36 0.010599 -1.261177 0.000001 -0.473462 0.000000 0.000000
    37 0.000000 -0.943233 -0.000001 -0.944945 0.000000 0.000000
    38 -0.827563 -2.508972 -0.277656 -0.652127 -0.046328 0.035347
    39 0.000000 -1.292972 -0.000001 -0.708426 0.000000 0.000000
    40 -0.000002 -0.752465 0.000000 -0.777556 -0.248777 0.191914
    41 0.444212 -2.561962 -0.277655 -1.341904 0.037900 0.168005
    42 0.021023 -1.208187 0.000001 -0.304120 0.000000 0.000000
    43 0.010598 -0.741867 -0.000001 -0.721161 0.000000 0.000000
    44 1.047445 -2.222822 -0.277654 -1.356438 -0.069503 -0.040766
    45 -0.000001 -0.996223 -0.000001 -1.199027 0.000000 0.000000
    46 -0.000001 -0.614691 0.000000 -1.031474 0.000000 0.000000
    47 -0.308256 -0.007814 0.307165 -0.248449 -0.503211 -2.394986
    48 1.978377 0.019544 0.000000 0.058975 -0.047770 0.211665
    49 0.980611 0.058420 -0.012629 0.225239 0.001725 0.036072
  time 24
    0 8.485879 3.061353 -8.188488 -0.489280 -1.185029 0.160696
    1 -0.021280 -8.563255 -0.000751 0.448410 -0.235480 -0.148706
    2 0.792406 -2.905200 0.835872 2.680096 -1.494964 0.470879
    3 -0.028195 2.698898 -0.230784 0.000000 0.000000 0.000000
    4 -0.000001 4.191838 -0.843241 0.000000 0.000000 0.000000
    5 0.195636 3.691723 2.013436 0.000000 0.000000 0.000000
    6 0.000001 4.321806 3.144327 0.000000 0.000000 0.000000
    7 0.000000 1.957418 -0.226470 0.000000 0.000000 0.000000
    8 -0.000278 -21.671399 1.916064 0.000000 0.000000 0.000000
    9 0.000001 14.986850 1.918826 0.000000 0.000000 0.000000
    10 0.000001 11.449860 1.851792 0.000000 0.000000 0.000000
    11 0.000000 1.934806 -0.630419 0.000000 0.000000 0.000000
    12 0.000000 1.253695 0.634938 0.000000 0.000000 0.000000
    13 0.044885 0.941603 4.711482 0.000000 0.000000 0.000000
    14 0.027106 0.933223 1.960619 0.000000 0.000000 0.000000
    15 0.000001 9.949661 2.586495 0.000000 0.000000 0.000000
    16 -0.003480 -0.404828 0.000000 -0.000001 0.000000 0.000000
    17 -0.519309 -2.501154 -0.278957 -0.879568 -0.036235 -0.324918
    18 -0.010599 -1.208185 0.000000 -1.185576 0.000000 0.000000
    19 0.000000 -0.763066 0.000000 -0.741497 0.000000 0.000000
    20 0.105981 -2.607134 -0.278957 -0.872556 -0.035899 -0.258089
    21 0.000000 -1.250579 0.000000 -0.794537 0.000000 0.000000
    22 0.000000 -0.932635 0.000000 -1.567302 0.000000 0.000000
    23 0.763065 -2.490556 -0.278958 -0.313873 0.040172 0.012324
    24 -0.012322 -1.280917 0.000000 -0.406397 0.000000 0.000000
    25 -0.001696 -0.738089 0.129481 -0.638014 0.000000 0.000000
    26 0.354567 0.016267 0.318133 0.308709 -0.503867 -0.874878
    27 1.887165 0.012878 0.000000 -0.095972 -0.113060 -1.028586
    28 1.001874 -0.000270 0.000000 0.000000 0.000000 -0.250165
    29 -1.123358 -2.195093 -0.278957 -1.061907 0.026409 -0.326972
    30 0.010772 -0.963791 0.000001 -0.810998 0.000000 0.000000
    31 -0.010412 -0.631916 0.000000 -0.691889 0.000000 0.000000
    32 -0.220197 -12.530386 -11.290441 -0.781506 0.360818 0.568027
    33 0.089928 -8.543165 0.000002 0.739738 -0.685872 -0.011698
    34 0.000000 -0.359714 0.000001 0.000000 0.000000 0.000000
    35 -0.170480 -2.636148 -0.277655 -1.043745 -0.052707 0.090280
    36 0.010599 -1.261177 0.000001 -0.473462 0.000000 0.000000
    37 0.000000 -0.943233 -0.000001 -0.944945 0.000000 0.000000
    38 -0.827563 -2.508972 -0.277656 -0.652127 -0.046328 0.035347
    39 0.000000 -1.292972 -0.000001 -0.708426 0.000000 0.000000
    40 -0.000002 -0.752465 0.000000 -0.777556 -0.248777 0.191914
    41 0.444212 -2.561962 -0.277655 -1.341904 0.037900 0.168005
    42 0.021023 -1.208187 0.000001 -0.304120 0.000000 0.000000
    43 0.010598 -0.741867 -0.000001 -0.721161 0.000000 0.000000
    44 1.047445 -2.222822 -0.277654 -1.356438 -0.069503 -0.040766
    45 -0.000001 -0.996223 -0.000001 -1.199027 0.000000 0.000000
    46 -0.000001 -0.614691 0.000000 -1.031474 0.000000 0.000000
    47 -0.308256 -0.007814 0.307165 -0.249987 -0.502529 -2.391793
    48 1.978377 0.019544 0.000000 0.058975 -0.047770 0.211665
    49 0.980611 0.058420 -0.012629 0.225251 0.003739 0.027278
  time 25
    0 8.485879 3.061353 -8.188488 -0.489280 -1.185029 0.160696
    1 -0.021280 -8.563255 -0.000751 0.448367 -0.235512 -0.148640
    2 0.792406 -2.905200 0.835872 2.680096 -1.494964 0.470879
    3 -0.028195 2.698898 -0.230784 0.000000 0.000000 0.000000
    4 -0.000001 4.191838 -0.843241 0.000000 0.000000 0.000000
    5 0.195636 3.691723 2.013436 0.000000 0.000000 0.000000
    6 0.000001 4.321806 3.144327 0.000000 0.000000 0.000000
    7 0.000000 1.957418 -0.226470 0.000000 0.000000 0.000000
    8 -0.000278 -21.671399 1.916064 0.000000 0.000000 0.000000
    9 0.000001 14.986850 1.918826 0.000000 0.000000 0.000000
    10 0.000001 11.449860 1.851792 0.000000 0.000000 0.000000
    11 0.000000 1.934806 -0.630419 0.000000 0.000000 0.000000
    12 0.000000 1.253695 0.634938 0.000000 0.000000 0.000000
    13 0.044885 0.941603 4.711482 0.000000 0.000000 0.000000
    14 0.027106 0.933223 1.960619 0.000000 0.000000 0.000000
    15 0.000001 9.949661 2.586495 0.000000 0.000000 0.000000
    16 -0.003480 -0.404828 0.000000 -0.000001 0.000000 0.000000
    17 -0.519309 -2.501154 -0.278957 -0.879568 -0.036235 -0.324918
    18 -0.010599 -1.208185 0.000000 -1.185576 0.000000 0.000000
    19 0.000000 -0.763066 0.000000 -0.741497 0.000000 0.000000
    20 0.105981 -2.607134 -0.278957 -0.872556 -0.035899 -0.258089
    21 0.000000 -1.250579 0.000000 -0.794537 0.000000 0.000000
    22 0.000000 -0.932635 0.000000 -1.567302 0.000000 0.000000
    23 0.763065 -2.490556 -0.278958 -0.313873 0.040172 0.012324
    24 -0.012322 -1.280917 0.000000 -0.404543 0.000000 0.000000
    25 -0.001696 -0.738089 0.129481 -0.638014 0.000000 0.000000
    26 0.354567 0.016267 0.318133 0.308709 -0.503867 -0.874878
    27 1.887165 0.012878 0.000000 -0.095972 -0.113060 -1.028586
    28 1.001874 -0.000270 0.000000 0.000000 0.000000 -0.250165
    29 -1.123358 -2.195093 -0.278957 -1.061907 0.026409 -0.326972
    30 0.010772 -0.963791 0.000001 -0.810998 0.000000 0.000000
    31 -0.010412 -0.631916 0.000000 -0.691889 0.000000 0.000000
    32 -0.220197 -12.530386 -11.290441 -0.781600 0.360818 0.568027
    33 0.089928 -8.543165 0.000002 0.737918 -0.687258 -0.012530
    34 0.000000 -0.359714 0.000001 0.000000 0.000000 0.000000
    35 -0.170480 -2.636148 -0.277655 -1.043745 -0.052707 0.090280
    36 0.010599 -1.261177 0.000001 -0.473462 0.000000 0.000000
    37 0.000000 -0.943233 -0.000001 -0.944945 0.000000 0.000000
    38 -0.827563 -2.508972 -0.277656 -0.652127 -0.046328 0.035347
    39 0.000000 -1.292972 -0.000001 -0.708426 0.000000 0.000000
    40 -0.000002 -0.752465 0.000000 -0.777556 -0.248777 0.191914
    41 0.444212 -2.561962 -0.277655 -1.341904 0.037900 0.168005
    42 0.021023 -1.208187 0.000001 -0.304120 0.000000 0.000000
    43 0.010598 -0.741867 -0.000001 -0.721161 0.000000 0.000000
    44 1.047445 -2.222822 -0.277654 -1.356438 -0.069503 -0.040766
    45 -0.000001 -0.996223 -0.000001 -1.199027 0.000000 0.000000
    46 -0.000001 -0.614691 0.000000 -1.031474 0.000000 0.000000
    47 -0.308256 -0.007814 0.307165 -0.251398 -0.501983 -2.388850
    48 1.978377 0.019544 0.000000 0.058975 -0.047770 0.211665
    49 0.980611 0.058420 -0.012629 0.225263 0.005608 0.019116
  time 26
    0 8.485879 3.061353 -8.188488 -0.489280 -1.185029 0.160696
    1 -0.021280 -8.563255 -0.000751 0.448325 -0.235577 -0.148474
    2 0.792406 -2.905200 0.835872 2.680096 -1.494964 0.470879
    3 -0.028195 2.698898 -0.230784 0.000000 0.000000 0.000000
    4 -0.000001 4.191838 -0.843241 0.000000 0.000000 0.000000
    5 0.195636 3.691723 2.013436 0.000000 0.000000 0.000000
    6 0.000001 4.321806 3.144327 0.000000 0.000000 0.000000
    7 0.000000 1.957418 -0.226470 0.000000 0.000000 0.000000
    8 -0.000278 -21.671399 1.916064 0.000000 0.000000 0.000000
    9 0.000001 14.986850 1.918826 0.000000 0.000000 0.000000
    10 0.000001 11.449860 1.851792 0.000000 0.000000 0.000000
    11 0.000000 1.934806 -0.630419 0.000000 0.000000 0.000000
    12 0.000000 1.253695 0.634938 0.000000 0.000000 0.000000
    13 0.044885 0.941603 4.711482 0.000000 0.000000 0.000000
    14 0.027106 0.933223 1.960619 0.000000 0.000000 0.000000
    15 0.000001 9.949661 2.586495 0.000000 0.000000 0.000000
    16 -0.003480 -0.404828 0.000000 -0.000001 0.000000 0.000000
    17 -0.519309 -2.501154 -0.278957 -0.879568 -0.036235 -0.324918
    18 -0.010599 -1.208185 0.000000 -1.185576 0.000000 0.000000
    19 0.000000 -0.763066 0.000000 -0.741497 0.000000 0.000000
    20 0.105981 -2.607134 -0.278957 -0.872556 -0.035899 -0.258089
    21 0.000000 -1.250579 0.000000 -0.794537 0.000000 0.000000
    22 0.000000 -0.932635 0.000000 -1.567302 0.000000 0.000000
    23 0.763065 -2.490556 -0.278958 -0.313873 0.040172 0.012324
    24 -0.012322 -1.280917 0.000000 -0.402925 0.000000 0.000000
    25 -0.001696 -0.738089 0.129481 -0.638014 0.000000 0.000000
    26 0.354567 0.016267 0.318133 0.308709 -0.503867 -0.874878
    27 1.887165 0.012878 0.000000 -0.095972 -0.113060 -1.028586
    28 1.001874 -0.000270 0.000000 0.000000 0.000000 -0.250165
    29 -1.123358 -2.195093 -0.278957 -1.061907 0.026409 -0.326972
    30 0.010772 -0.963791 0.000001 -0.810998 0.000000 0.000000
    31 -0.010412 -0.631916 0.000000 -0.691889 0.000000 0.000000
    32 -0.220197 -12.530386 -11.290441 -0.781788 0.360818 0.567950
    33 0.089928 -8.543165 0.000002 0.736366 -0.688440 -0.013275
    34 0.000000 -0.359714 0.000001 0.000000 0.000000 0.000000
    35 -0.170480 -2.636148 -0.277655 -1.043745 -0.052707 0.090280
    36 0.010599 -1.261177 0.000001 -0.473462 0.000000 0.000000
    37 0.000000 -0.943233 -0.000001 -0.944945 0.000000 0.000000
    38 -0.827563 -2.508972 -0.277656 -0.652127 -0.046328 0.035347
    39 0.000000 -1.292972 -0.000001 -0.708426 0.000000 0.000000
    40 -0.000002 -0.752465 0.000000 -0.777556 -0.248777 0.191914
    41 0.444212 -2.561962 -0.277655 -1.341904 0.037900 0.168005
    42 0.021023 -1.208187 0.000001 -0.304120 0.000000 0.000000
    43 0.010598 -0.741867 -0.000001 -0.721161 0.000000 0.000000
    44 1.047445 -2.222822 -0.277654 -1.356438 -0.069503 -0.040766
    45 -0.000001 -0.996223 -0.000001 -1.199027 0.000000 0.000000
    46 -0.000001 -0.614691 0.000000 -1.031474 0.000000 0.000000
    47 -0.308256 -0.007814 0.307165 -0.252685 -0.501591 -2.386251
    48 1.978377 0.019544 0.000000 0.058975 -0.047770 0.211665
    49 0.980611 0.058420 -0.012629 0.225275 0.007274 0.011888
  time 27
    0 8.485879 3.061353 -8.188488 -0.489280 -1.185029 0.160696
    1 -0.021280 -8.563255 -0.000751 0.448239 -0.235674 -0.148274
    2 0.792406 -2.905200 0.835872 2.680096 -1.494964 0.470879
    3 -0.028195 2.698898 -0.230784 0.000000 0.000000 0.000000
    4 -0.000001 4.191838 -0.843241 0.000000 0.000000 0.000000
    5 0.195636 3.691723 2.013436 0.000000 0.000000 0.000000
    6 0.000001 4.321806 3.144327 0.000000 0.000000 0.000000
    7 0.000000 1.957418 -0.226470 0.000000 0.000000 0.000000
    8 -0.000278 -21.671399 1.916064 0.000000 0.000000 0.000000
    9 0.000001 14.986850 1.918826 0.000000 0.000000 0.000000
    10 0.000001 11.449860 1.851792 0.000000 0.000000 0.000000
    11 0.000000 1.934806 -0.630419 0.000000 0.000000 0.000000
    12 0.000000 1.253695 0.634938 0.000000 0.000000 0.000000
    13 0.044885 0.941603 4.711482 0.000000 0.000000 0.000000
    14 0.027106 0.933223 1.960619 0.000000 0.000000 0.000000
    15 0.000001 9.949661 2.586495 0.000000 0.000000 0.000000
    16 -0.003480 -0.404828 0.000000 -0.000001 0.000000 0.000000
    17 -0.519309 -2.501154 -0.278957 -0.879568 -0.036235 -0.324918
    18 -0.010599 -1.208185 0.000000 -1.185576 0.000000 0.000000
    19 0.000000 -0.763066 0.000000 -0.741497 0.000000 0.000000
    20 0.105981 -2.607134 -0.278957 -0.872556 -0.035899 -0.258089
    21 0.000000 -1.250579 0.000000 -0.794537 0.000000 0.000000
    22 0.000000 -0.932635 0.000000 -1.567302 0.000000 0.000000
    23 0.763065 -2.490556 -0.278958 -0.313873 0.040172 0.012324
    24 -0.012322 -1.280917 0.000000 -0.401543 0.000000 0.000000
    25 -0.001696 -0.738089 0.129481 -0.638014 0.000000 0.000000
    26 0.354567 0.016267 0.318133 0.308709 -0.503867 -0.874878
    27 1.887165 0.012878 0.000000 -0.095972 -0.113060 -1.028586
    28 1.001874 -0.000270 0.000000 0.000000 0.000000 -0.250165
    29 -1.123358 -2.195093 -0.278957 -1.061907 0.026409 -0.326972
    30 0.010772 -0.963791 0.000001 -0.810998 0.000000 0.000000
    31 -0.010412 -0.631916 0.000000 -0.691889 0.000000 0.000000
    32 -0.220197 -12.530386 -11.290441 -0.782070 0.360722 0.567873
    33 0.089928 -8.543165 0.000002 0.735081 -0.689419 -0.013888
    34 0.000000 -0.359714 0.000001 0.000000 0.000000 0.000000
    35 -0.170480 -2.636148 -0.277655 -1.043745 -0.052707 0.090280
    36 0.010599 -1.261177 0.000001 -0.473462 0.000000 0.000000
    37 0.000000 -0.943233 -0.000001 -0.944945 0.000000 0.000000
    38 -0.827563 -2.508972 -0.277656 -0.652127 -0.046328 0.035347
    39 0.000000 -1.292972 -0.000001 -0.708426 0.000000 0.000000
    40 -0.000002 -0.752465 0.000000 -0.777556 -0.248777 0.191914
    41 0.444212 -2.561962 -0.277655 -1.341904 0.037900 0.168005
    42 0.021023 -1.208187 0.000001 -0.304120 0.000000 0.000000
    43 0.010598 -0.741867 -0.000001 -0.721161 0.000000 0.000000
    44 1.047445 -2.222822 -0.277654 -1.356438 -0.069503 -0.040766
    45 -0.000001 -0.996223 -0.000001 -1.199027 0.000000 0.000000
    46 -0.000001 -0.614691 0.000000 -1.031474 0.000000 0.000000
    47 -0.308256 -0.007814 0.307165 -0.253720 -0.501301 -2.384075
    48 1.978377 0.019544 0.000000 0.058975 -0.047770 0.211665
    49 0.980611 0.058420 -0.012629 0.225275 0.008665 0.005825
  time 28
    0 8.485879 3.061353 -8.188488 -0.489280 -1.185029 0.160696
    1 -0.021280 -8.563255 -0.000751 0.448112 -0.235771 -0.147942
    2 0.792406 -2.905200 0.835872 2.680096 -1.494964 0.470879
    3 -0.028195 2.698898 -0.230784 0.000000 0.000000 0.000000
    4 -0.000001 4.191838 -0.843241 0.000000 0.000000 0.000000
    5 0.195636 3.691723 2.013436 0.000000 0.000000 0.000000
    6 0.000001 4.321806 3.144327 0.000000 0.000000 0.000000
    7 0.000000 1.957418 -0.226470 0.000000 0.000000 0.000000
    8 -0.000278 -21.671399 1.916064 0.000000 0.000000 0.000000
    9 0.000001 14.986850 1.918826 0.000000 0.000000 0.000000
    10 0.000001 11.449860 1.851792 0.000000 0.000000 0.000000
    11 0.000000 1.934806 -0.630419 0.000000 0.000000 0.000000
    12 0.000000 1.253695 0.634938 0.000000 0.000000 0.000000
    13 0.044885 0.941603 4.711482 0.000000 0.000000 0.000000
    14 0.027106 0.933223 1.960619 0.000000 0.000000 0.000000
    15 0.000001 9.949661 2.586495 0.000000 0.000000 0.000000
    16 -0.003480 -0.404828 0.000000 -0.000001 0.000000 0.000000
    17 -0.519309 -2.501154 -0.278957 -0.879568 -0.036235 -0.324918
    18 -0.010599 -1.208185 0.000000 -1.185576 0.000000 0.000000
    19 0.000000 -0.763066 0.000000 -0.741497 0.000000 0.000000
    20 0.105981 -2.607134 -0.278957 -0.872556 -0.035899 -0.258089
    21 0.000000 -1.250579 0.000000 -0.794537 0.000000 0.000000
    22 0.000000 -0.932635 0.000000 -1.567302 0.000000 0.000000
    23 0.763065 -2.490556 -0.278958 -0.313873 0.040172 0.012324
    24 -0.012322 -1.280917 0.000000 -0.400498 0.000000 0.000000
    25 -0.001696 -0.738089 0.129481 -0.638014 0.000000 0.000000
    26 0.354567 0.016267 0.318133 0.308709 -0.503867 -0.874878
    27 1.887165 0.012878 0.000000 -0.095972 -0.113060 -1.028586
    28 1.001874 -0.000270 0.000000 0.000000 0.000000 -0.250165
    29 -1.123358 -2.195093 -0.278957 -1.061907 0.026409 -0.326972
    30 0.010772 -0.963791 0.000001 -0.810998 0.000000 0.000000
    31 -0.010412 -0.631916 0.000000 -0.691889 0.000000 0.000000
    32 -0.220197 -12.530386 -11.290441 -0.782446 0.360626 0.567796
    33 0.089928 -8.543165 0.000002 0.734064 -0.690193 -0.014348
    34 0.000000 -0.359714 0.000001 0.000000 0.000000 0.000000
    35 -0.170480 -2.636148 -0.277655 -1.043745 -0.052707 0.090280
    36 0.010599 -1.261177 0.000001 -0.473462 0.000000 0.000000
    37 0.000000 -0.943233 -0.000001 -0.944945 0.000000 0.000000
    38 -0.827563 -2.508972 -0.277656 -0.652127 -0.046328 0.035347
    39 0.000000 -1.292972 -0.000001 -0.708426 0.000000 0.000000
    40 -0.000002 -0.752465 0.000000 -0.777556 -0.248777 0.191914
    41 0.444212 -2.561962 -0.277655 -1.341904 0.037900 0.168005
    42 0.021023 -1.208187 0.000001 -0.304120 0.000000 0.000000
    43 0.010598 -0.741867 -0.000001 -0.721161 0.000000 0.000000
    44 1.047445 -2.222822 -0.277654 -1.356438 -0.069503 -0.040766
    45 -0.000001 -0.996223 -0.000001 -1.199027 0.000000 0.000000
    46 -0.000001 -0.614691 0.000000 -1.031474 0.000000 0.000000
    47 -0.308256 -0.007814 0.307165 -0.254536 -0.501130 -2.382431
    48 1.978377 0.019544 0.000000 0.058975 -0.047770 0.211665
    49 0.980611 0.058420 -0.012629 0.225287 0.009731 0.001162
  time 29
    0 8.485879 3.061353 -8.188488 -0.489280 -1.185029 0.160696
    1 -0.021280 -8.563255 -0.000751 0.447984 -0.235932 -0.147577
    2 0.792406 -2.905200 0.835872 2.680096 -1.494964 0.470879
    3 -0.028195 2.698898 -0.230784 0.000000 0.000000 0.000000
    4 -0.000001 4.191838 -0.843241 0.000000 0.000000 0.000000
    5 0.195636 3.691723 2.013436 0.000000 0.000000 0.000000
    6 0.000001 4.321806 3.144327 0.000000 0.000000 0.000000
    7 0.000000 1.957418 -0.226470 0.000000 0.000000 0.000000
    8 -0.000278 -21.671399 1.916064 0.000000 0.000000 0.000000
    9 0.000001 14.986850 1.918826 0.000000 0.000000 0.000000
    10 0.000001 11.449860 1.851792 0.000000 0.000000 0.000000
    11 0.000000 1.934806 -0.630419 0.000000 0.000000 0.000000
    12 0.000000 1.253695 0.634938 0.000000 0.000000 0.000000
    13 0.044885 0.941603 4.711482 0.000000 0.000000 0.000000
    14 0.027106 0.933223 1.960619 0.000000 0.000000 0.000000
    15 0.000001 9.949661 2.586495 0.000000 0.000000 0.000000
    16 -0.003480 -0.404828 0.000000 -0.000001 0.000000 0.000000
    17 -0.519309 -2.501154 -0.278957 -0.879568 -0.036235 -0.324918
    18 -0.010599 -1.208185 0.000000 -1.185576 0.000000 0.000000
    19 0.000000 -0.763066 0.000000 -0.741497 0.000000 0.000000
    20 0.105981 -2.607134 -0.278957 -0.872556 -0.035899 -0.258089
    21 0.000000 -1.250579 0.000000 -0.794537 0.000000 0.000000
    22 0.000000 -0.932635 0.000000 -1.567302 0.000000 0.000000
    23 0.763065 -2.490556 -0.278958 -0.313873 0.040172 0.012324
    24 -0.012322 -1.280917 0.000000 -0.399823 0.000000 0.000000
    25 -0.001696 -0.738089 0.129481 -0.638014 0.000000 0.000000
    26 0.354567 0.016267 0.318133 0.308709 -0.503867 -0.874878
    27 1.887165 0.012878 0.000000 -0.095972 -0.113060 -1.028586
    28 1.001874 -0.000270 0.000000 0.000000 0.000000 -0.250165
    29 -1.123358 -2.195093 -0.278957 -1.061907 0.026409 -0.326972
    30 0.010772 -0.963791 0.000001 -0.810998 0.000000 0.000000
    31 -0.010412 -0.631916 0.000000 -0.691889 0.000000 0.000000
    32 -0.220197 -12.530386 -11.290441 -0.782822 0.360531 0.567642
    33 0.089928 -8.543165 0.000002 0.733475 -0.690642 -0.014654
    34 0.000000 -0.359714 0.000001 0.000000 0.000000 0.000000
    35 -0.170480 -2.636148 -0.277655 -1.043745 -0.052707 0.090280
    36 0.010599 -1.261177 0.000001 -0.473462 0.000000 0.000000
    37 0.000000 -0.943233 -0.000001 -0.944945 0.000000 0.000000
    38 -0.827563 -2.508972 -0.277656 -0.652127 -0.046328 0.035347
    39 0.000000 -1.292972 -0.000001 -0.708426 0.000000 0.000000
    40 -0.000002 -0.752465 0.000000 -0.777556 -0.248777 0.191914
    41 0.444212 -2.561962 -0.277655 -1.341904 0.037900 0.168005
    42 0.021023 -1.208187 0.000001 -0.304120 0.000000 0.000000
    43 0.010598 -0.741867 -0.000001 -0.721161 0.000000 0.000000
    44 1.047445 -2.222822 -0.277654 -1.356438 -0.069503 -0.040766
    45 -0.000001 -0.996223 -0.000001 -1.199027 0.000000 0.000000
    46 -0.000001 -0.614691 0.000000 -1.031474 0.000000 0.000000
    47 -0.308256 -0.007814 0.307165 -0.255069 -0.501028 -2.381367
    48 1.978377 0.019544 0.000000 0.058975 -0.047770 0.211665
    49 0.980611 0.058420 -0.012629 0.225287 0.010414 -0.001836
  time 30
    0 8.485879 3.061353 -8.188488 -0.489280 -1.185029 0.160696
    1 -0.021280 -8.563255 -0.000751 0.447856 -0.236094 -0.147145
    2 0.792406 -2.905200 0.835872 2.680096 -1.494964 0.470879
    3 -0.028195 2.698898 -0.230784 0.000000 0.000000 0.000000
    4 -0.000001 4.191838 -0.843241 0.000000 0.000000 0.000000
    5 0.195636 3.691723 2.013436 0.000000 0.000000 0.000000
    6 0.000001 4.321806 3.144327 0.000000 0.000000 0.000000
    7 0.000000 1.957418 -0.226470 0.000000 0.000000 0.000000
    8 -0.000278 -21.671399 1.916064 0.000000 0.000000 0.000000
    9 0.000001 14.986850 1.918826 0.000000 0.000000 0.000000
    10 0.000001 11.449860 1.851792 0.000000 0.000000 0.000000
    11 0.000000 1.934806 -0.630419 0.000000 0.000000 0.000000
    12 0.000000 1.253695 0.634938 0.000000 0.000000 0.000000
    13 0.044885 0.941603 4.711482 0.000000 0.000000 0.000000
    14 0.027106 0.933223 1.960619 0.000000 0.000000 0.000000
    15 0.000001 9.949661 2.586495 0.000000 0.000000 0.000000
    16 -0.003480 -0.404828 0.000000 -0.000001 0.000000 0.000000
    17 -0.519309 -2.501154 -0.278957 -0.879568 -0.036235 -0.324918
    18 -0.010599 -1.208185 0.000000 -1.185576 0.000000 0.000000
    19 0.000000 -0.763066 0.000000 -0.741497 0.000000 0.000000
    20 0.105981 -2.607134 -0.278957 -0.872556 -0.035899 -0.258089
    21 0.000000 -1.250579 0.000000 -0.794537 0.000000 0.000000
    22 0.000000 -0.932635 0.000000 -1.567302 0.000000 0.000000
    23 0.763065 -2.490556 -0.278958 -0.313873 0.040172 0.012324
    24 -0.012322 -1.280917 0.000000 -0.399621 0.000000 0.000000
    25 -0.001696 -0.738089 0.129481 -0.638014 0.000000 0.000000
    26 0.354567 0.016267 0.318133 0.308709 -0.503867 -0.874878
    27 1.887165 0.012878 0.000000 -0.095972 -0.113060 -1.028586
    28 1.001874 -0.000270 0.000000 0.000000 0.000000 -0.250165
    29 -1.123358 -2.195093 -0.278957 -1.061907 0.026409 -0.326972
    30 0.010772 -0.963791 0.000001 -0.810998 0.000000 0.000000
    31 -0.010412 -0.631916 0.000000 -0.691889 0.000000 0.000000
    32 -0.220197 -12.530386 -11.290441 -0.783104 0.360435 0.567565
    33 0.089928 -8.543165 0.000002 0.733261 -0.690805 -0.014742
    34 0.000000 -0.359714 0.000001 0.000000 0.000000 0.000000
    35 -0.170480 -2.636148 -0.277655 -1.043745 -0.052707 0.090280
    36 0.010599 -1.261177 0.000001 -0.473462 0.000000 0.000000
    37 0.000000 -0.943233 -0.000001 -0.944945 0.000000 0.000000
    38 -0.827563 -2.508972 -0.277656 -0.652127 -0.046328 0.035347
    39 0.000000 -1.292972 -0.000001 -0.708426 0.000000 0.000000
    40 -0.000002 -0.752465 0.000000 -0.777556 -0.248777 0.191914
    41 0.444212 -2.561962 -0.277655 -1.341904 0.037900 0.168005
    42 0.021023 -1.208187 0.000001 -0.304120 0.000000 0.000000
    43 0.010598 -0.741867 -0.000001 -0.721161 0.000000 0.000000
    44 1.047445 -2.222822 -0.277654 -1.356438 -0.069503 -0.040766
    45 -0.000001 -0.996223 -0.000001 -1.199027 0.000000 0.000000
    46 -0.000001 -0.614691 0.000000 -1.031474 0.000000 0.000000
    47 -0.308256 -0.007814 0.307165 -0.255226 -0.501011 -2.381007
    48 1.978377 0.019544 0.000000 0.058975 -0.047770 0.211665
    49 0.980611 0.058420 -0.012629 0.225287 0.010654 -0.002869
end
