version 1
nodes
  0 "crow1_root" -1
  1 "megazine" 0
  2 "megazine01" 1
  3 "triger" 0
  4 "bone02" 0
  5 "eyelight_point" 4
  6 "bone_eye_light08" 5
  7 "bone_eye_light07" 5
  8 "bone_eye_light06" 5
  9 "bone_eye_light05" 5
  10 "bone_eye_light04" 5
  11 "bone_eye_light03" 5
  12 "bone_eye_light02" 5
  13 "bone_eye_light01" 5
  14 "linelight_point01" 0
  15 "linelight_01" 14
  16 "linelight_02" 14
  17 "linelight_03" 14
  18 "linelight_04" 14
  19 "line01" 0
  20 "line02" 19
  21 "root" -1
  22 "Bone01" 21
  23 "Bone_L_Upper" 22
  24 "Bone_Lefthand" 22
  25 "Bone13" 24
  26 "Bone14" 25
  27 "Bone15" 26
  28 "Bone17" 24
  29 "Bone18" 28
  30 "Bone19" 29
  31 "Bone21" 24
  32 "Bone22" 31
  33 "Bone23" 32
  34 "Bone09" 24
  35 "Bone10" 34
  36 "Bone11" 35
  37 "Bone05" 24
  38 "Bone06" 37
  39 "Bone07" 38
  40 "Bone_Se_Hand-L" 24
  41 "Bone04" 21
  42 "Bone_Righthand" 41
  43 "Bone39" 42
  44 "Bone40" 43
  45 "Bone41" 44
  46 "Bone35" 42
  47 "Bone36" 46
  48 "Bone37" 47
  49 "Bone31" 42
  50 "Bone32" 49
  51 "Bone33" 50
  52 "Bone43" 42
  53 "Bone44" 52
  54 "Bone45" 53
  55 "Bone27" 42
  56 "Bone28" 55
  57 "Bone29" 56
  58 "Bone_Se_Hand-R" 42
  59 "Bone_R_Upper" 41
end
skeleton
  time 0
    0 3.705450 -9.443073 -3.286916 1.570773 -1.570114 -0.000006
    1 0.052541 0.093240 -1.368013 0.000001 2.794712 0.000000
    2 0.340545 0.000000 0.000000 0.000000 0.000000 0.000000
    3 0.232853 0.000000 -0.068218 1.570796 -3.141592 1.570796
    4 0.779971 0.000000 1.863581 1.570796 -0.000001 0.000000
    5 0.526153 -4.087935 -0.751131 -0.000001 -1.096125 -3.141591
    6 -0.011397 -0.710795 -0.536931 0.000002 -3.141592 -0.000001
    7 -0.019695 0.346802 -0.526049 0.000002 -3.141592 -0.000001
    8 -0.017859 -0.722185 0.440962 0.000002 -3.141592 -0.000001
    9 -0.026174 0.335806 0.451879 0.000002 -3.141592 -0.000001
    10 -0.010029 -0.347538 -0.523839 0.000001 -3.141592 -0.000001
    11 -0.011838 0.684008 -0.521458 0.000001 -3.141592 -0.000001
    12 -0.021454 -0.350513 0.445313 0.000001 -3.141592 -0.000001
    13 -0.023281 0.681426 0.447730 0.000001 -3.141592 -0.000001
    14 0.594428 0.688249 0.169690 -1.570795 -0.349065 -1.575493
    15 0.000000 0.000001 0.000000 0.000002 -3.141592 -0.000001
    16 0.000000 0.000000 0.000000 0.000002 -3.141592 -0.000001
    17 0.000000 0.000000 0.000001 0.000002 -3.141592 -0.000001
    18 0.000000 0.000000 0.000000 0.000002 -3.141592 -0.000001
    19 0.577926 0.528937 0.130075 -1.570796 0.000000 1.570796
    20 -0.000041 -0.114611 0.000512 0.000000 0.000000 0.000000
    21 -0.002752 9.499025 -3.183072 0.000000 0.000000 0.167707
    22 4.442767 -6.799660 -2.725627 0.388078 -1.953815 -0.663089
    23 1.632191 8.692270 -0.157619 1.570259 3.139629 1.527696
    24 -0.013325 -8.467485 -0.076789 0.061075 0.544058 -0.097412
    25 -0.488518 -2.755602 -0.228260 -0.694823 -0.202299 -0.156365
    26 0.039887 -1.546198 0.022041 -1.878783 -0.006532 0.041911
    27 0.028786 -1.146046 -0.116862 -0.896245 -0.014513 0.018229
    28 0.250027 -2.820665 -0.238396 -0.649506 -0.251254 -0.095032
    29 -0.049759 -1.594604 0.026258 -1.652451 -0.001798 -0.043638
    30 -0.034142 -1.167844 0.049625 -1.032400 0.007706 -0.026929
    31 0.957766 -2.746780 -0.090302 0.006796 -0.183418 0.033529
    32 -0.033420 -1.393223 -0.019070 -0.605197 0.008377 -0.029615
    33 -0.022360 -0.957436 0.007065 -0.523059 0.007970 -0.025072
    34 -1.180681 -2.507217 -0.193859 -0.526507 0.019610 -0.141991
    35 -0.024967 -1.127840 0.017597 -1.592407 -0.013123 -0.063314
    36 -0.020057 -0.906594 0.033528 -1.012385 0.005213 -0.041479
    37 0.634293 -1.197277 0.193192 0.573204 -1.198059 -0.537443
    38 1.446081 -0.251481 0.079230 0.076374 -0.245696 -0.919764
    39 1.065614 -0.128290 0.024478 0.022563 -0.160812 -0.649862
    40 -0.024383 -0.116678 -0.109178 0.409548 3.235475 1.520903
    41 -2.384115 -6.993032 -5.708489 -1.485585 -5.103230 -1.175908
    42 0.077412 -8.473857 0.010167 0.482367 -0.353187 0.316373
    43 0.447953 -2.798986 -0.200443 -0.464249 -0.007376 0.217482
    44 -0.032909 -1.499736 0.032285 -1.517035 0.023286 -0.030067
    45 -0.027022 -1.096452 -0.028023 -0.513423 0.013471 -0.005429
    46 -0.249534 -2.846964 -0.174213 -0.318172 0.095045 0.146924
    47 0.043235 -1.656596 0.064761 -1.531742 -0.023160 0.009433
    48 0.031729 -1.153017 0.058838 -0.570894 -0.005482 0.005484
    49 -0.963866 -2.785145 -0.085350 -0.340675 0.289321 0.090289
    50 0.028479 -1.406973 -0.021074 -1.051346 -0.028907 -0.035726
    51 0.021413 -0.949968 0.020046 -0.495206 -0.008917 -0.020482
    52 1.164475 -2.543940 -0.170330 -0.588558 -0.315114 0.278610
    53 0.024032 -1.144668 -0.009538 -1.230037 0.020506 0.060691
    54 0.014898 -0.895708 -0.019848 -0.595619 -0.000911 0.029698
    55 -0.586770 -1.264477 0.200161 -0.158983 -0.551253 -2.635642
    56 1.565805 0.035243 0.016848 -0.018556 -0.006883 0.883288
    57 1.114041 0.040611 -0.005766 -0.029126 -0.034294 1.046560
    58 -0.072991 -0.279672 -0.016854 0.578273 0.237666 1.530233
    59 -5.702195 6.671142 -0.364437 1.580421 -0.020626 -0.972334
  time 1
    0 3.713263 -8.935245 -3.486141 0.013540 -1.656129 1.560815
    1 0.052541 0.093240 -1.368013 0.000001 2.794712 0.000000
    2 0.340545 0.000000 0.000000 0.000000 0.000000 0.000000
    3 0.232853 0.000000 -0.068218 -1.183342 -0.000097 4.712388
    4 0.779971 0.000000 0.246344 1.570796 -0.000001 0.000000
    5 0.526153 -4.087935 -0.751131 -0.000001 -1.096125 -3.141591
    6 -0.011397 -0.710795 -0.536931 0.000002 -3.141592 -0.000001
    7 -0.019695 0.346802 -0.526049 0.000002 -3.141592 -0.000001
    8 -0.017859 -0.722185 0.440962 0.000002 -3.141592 -0.000001
    9 -0.026174 0.335806 0.451879 0.000002 -3.141592 -0.000001
    10 -0.010029 -0.347538 -0.523839 0.000001 -3.141592 -0.000001
    11 -0.011838 0.684008 -0.521458 0.000001 -3.141592 -0.000001
    12 -0.021454 -0.350513 0.445313 0.000001 -3.141592 -0.000001
    13 -0.023281 0.681426 0.447730 0.000001 -3.141592 -0.000001
    14 0.594428 0.688249 0.169690 -1.570795 -0.349065 -1.575493
    15 0.000000 0.000001 0.000000 0.000002 -3.141592 -0.000001
    16 0.000000 0.000000 0.000000 0.000002 -3.141592 -0.000001
    17 0.000000 0.000000 0.000001 0.000002 -3.141592 -0.000001
    18 0.000000 0.000000 0.000000 0.000002 -3.141592 -0.000001
    19 0.577926 0.528937 0.130075 -1.570796 0.000000 1.570796
    20 -0.000041 -0.114611 0.000512 0.000000 0.000000 0.000000
    21 -0.002752 9.499025 -3.183072 0.000000 0.000000 0.167707
    22 4.860749 -6.619967 -3.749096 0.688919 -2.037464 -0.988307
    23 4.405714 7.535985 -0.220121 1.566328 -3.136660 1.156912
    24 0.002300 -8.444047 -0.076789 0.025152 0.551442 -0.354834
    25 -0.488518 -2.755602 -0.228260 -0.694823 -0.202299 -0.156365
    26 0.039887 -1.546198 0.022041 -1.878783 -0.006532 0.041911
    27 0.028786 -1.146046 -0.116862 -0.896245 -0.014513 0.018229
    28 0.250027 -2.820665 -0.238396 -0.649506 -0.251254 -0.095032
    29 -0.049759 -1.594604 0.026258 -1.652451 -0.001798 -0.043638
    30 -0.034142 -1.167844 0.049625 -1.032400 0.007706 -0.026929
    31 0.957766 -2.746780 -0.090302 0.006796 -0.183418 0.033529
    32 -0.033420 -1.393223 -0.019070 -0.605197 0.008377 -0.029615
    33 -0.022360 -0.957436 0.007065 -0.523059 0.007970 -0.025072
    34 -1.180681 -2.507217 -0.193859 -0.526507 0.019610 -0.141991
    35 -0.024967 -1.127840 0.017597 -1.592407 -0.013123 -0.063314
    36 -0.020057 -0.906594 0.033528 -1.012385 0.005213 -0.041479
    37 0.634293 -1.197277 0.193192 0.573204 -1.198059 -0.537443
    38 1.446081 -0.251481 0.079230 0.076374 -0.245696 -0.919764
    39 1.065614 -0.128290 0.024478 0.022563 -0.160812 -0.649862
    40 -0.024383 -0.116678 -0.109178 0.409548 3.235475 1.520903
    41 -2.329425 -6.660991 -6.181159 -1.505223 -5.189578 -1.174376
    42 0.065693 -8.458231 0.017980 0.506690 -0.396234 0.468746
    43 0.447953 -2.798986 -0.200443 -0.464249 -0.007376 0.217482
    44 -0.032909 -1.499736 0.032285 -1.517035 0.023286 -0.030067
    45 -0.027022 -1.096452 -0.028023 -0.513423 0.013471 -0.005429
    46 -0.249534 -2.846964 -0.174213 -0.318172 0.095045 0.146924
    47 0.043235 -1.656596 0.064761 -1.531742 -0.023160 0.009433
    48 0.031729 -1.153017 0.058838 -0.570894 -0.005482 0.005484
    49 -0.963866 -2.785145 -0.085350 -0.340675 0.289321 0.090289
    50 0.028479 -1.406973 -0.021074 -1.051346 -0.028907 -0.035726
    51 0.021413 -0.949968 0.020046 -0.495206 -0.008917 -0.020482
    52 1.164475 -2.543940 -0.170330 -0.588558 -0.315114 0.278610
    53 0.024032 -1.144668 -0.009538 -1.230037 0.020506 0.060691
    54 0.014898 -0.895708 -0.019848 -0.595619 -0.000911 0.029698
    55 -0.586770 -1.264477 0.200161 -0.158983 -0.551253 -2.635642
    56 1.565805 0.035243 0.016848 -0.018556 -0.006883 0.883288
    57 1.114041 0.040611 -0.005766 -0.029126 -0.034294 1.046560
    58 -0.072991 -0.279672 -0.016854 0.578273 0.237666 1.530233
    59 -6.721758 5.487512 -0.399594 1.578408 -0.025317 -0.782400
  time 2
    0 3.705450 -8.794616 -3.236133 0.009291 -1.532907 1.559952
    1 0.052541 0.093240 -1.368013 0.000001 2.794712 0.000000
    2 0.340545 0.000000 0.000000 0.000000 0.000000 0.000000
    3 0.232853 0.000000 -0.068218 -1.183342 -0.000097 4.712388
    4 0.779971 0.000000 -0.316173 1.570796 -0.000001 0.000000
    5 0.526153 -4.087935 -0.751131 -0.000001 -1.096125 -3.141591
    6 -0.011397 -0.710795 -0.536931 0.000002 -3.141592 -0.000001
    7 -0.019695 0.346802 -0.526049 0.000002 -3.141592 -0.000001
    8 -0.017859 -0.722185 0.440962 0.000002 -3.141592 -0.000001
    9 -0.026174 0.335806 0.451879 0.000002 -3.141592 -0.000001
    10 -0.010029 -0.347538 -0.523839 0.000001 -3.141592 -0.000001
    11 -0.011838 0.684008 -0.521458 0.000001 -3.141592 -0.000001
    12 -0.021454 -0.350513 0.445313 0.000001 -3.141592 -0.000001
    13 -0.023281 0.681426 0.447730 0.000001 -3.141592 -0.000001
    14 0.594428 0.688249 0.169690 -1.570795 -0.349065 -1.575493
    15 0.000000 0.000001 0.000000 0.000002 -3.141592 -0.000001
    16 0.000000 0.000000 0.000000 0.000002 -3.141592 -0.000001
    17 0.000000 0.000000 0.000001 0.000002 -3.141592 -0.000001
    18 0.000000 0.000000 0.000000 0.000002 -3.141592 -0.000001
    19 0.577926 0.528937 0.130075 -1.570796 0.000000 1.570796
    20 -0.000041 -0.114611 0.000512 0.000000 0.000000 0.000000
    21 -0.002752 9.499025 -3.183072 0.000000 0.000000 0.167707
    22 4.888093 -6.576997 -3.917070 0.656233 -2.025142 -0.959270
    23 4.472122 7.493015 -0.220121 1.566232 -3.136468 1.147099
    24 -0.009419 -8.463579 -0.076789 0.077413 0.542309 -0.192739
    25 -0.488518 -2.755602 -0.228260 -0.694823 -0.202299 -0.156365
    26 0.039887 -1.546198 0.022041 -1.878783 -0.006532 0.041911
    27 0.028786 -1.146046 -0.116862 -0.896245 -0.014513 0.018229
    28 0.250027 -2.820665 -0.238396 -0.649506 -0.251254 -0.095032
    29 -0.049759 -1.594604 0.026258 -1.652451 -0.001798 -0.043638
    30 -0.034142 -1.167844 0.049625 -1.032400 0.007706 -0.026929
    31 0.957766 -2.746780 -0.090302 0.006796 -0.183418 0.033529
    32 -0.033420 -1.393223 -0.019070 -0.605197 0.008377 -0.029615
    33 -0.022360 -0.957436 0.007065 -0.523059 0.007970 -0.025072
    34 -1.180681 -2.507217 -0.193859 -0.526507 0.019610 -0.141991
    35 -0.024967 -1.127840 0.017597 -1.592407 -0.013123 -0.063314
    36 -0.020057 -0.906594 0.033528 -1.012385 0.005213 -0.041479
    37 0.634293 -1.197277 0.193192 0.573204 -1.198059 -0.537443
    38 1.446081 -0.251481 0.079230 0.076374 -0.245696 -0.919764
    39 1.065614 -0.128290 0.024478 0.022563 -0.160812 -0.649862
    40 -0.024383 -0.116678 -0.109178 0.409548 3.235475 1.520903
    41 -2.352864 -6.653178 -6.243661 -1.498677 -5.156794 -1.171696
    42 0.081319 -8.473857 0.006260 0.500199 -0.334942 0.330844
    43 0.447953 -2.798986 -0.200443 -0.464249 -0.007376 0.217482
    44 -0.032909 -1.499736 0.032285 -1.517035 0.023286 -0.030067
    45 -0.027022 -1.096452 -0.028023 -0.513423 0.013471 -0.005429
    46 -0.249534 -2.846964 -0.174213 -0.318172 0.095045 0.146924
    47 0.043235 -1.656596 0.064761 -1.531742 -0.023160 0.009433
    48 0.031729 -1.153017 0.058838 -0.570894 -0.005482 0.005484
    49 -0.963866 -2.785145 -0.085350 -0.340675 0.289321 0.090289
    50 0.028479 -1.406973 -0.021074 -1.051346 -0.028907 -0.035726
    51 0.021413 -0.949968 0.020046 -0.495206 -0.008917 -0.020482
    52 1.164475 -2.543940 -0.170330 -0.588558 -0.315114 0.278610
    53 0.024032 -1.144668 -0.009538 -1.230037 0.020506 0.060691
    54 0.014898 -0.895708 -0.019848 -0.595619 -0.000911 0.029698
    55 -0.586770 -1.264477 0.200161 -0.158983 -0.551253 -2.635642
    56 1.565805 0.035243 0.016848 -0.018556 -0.006883 0.883288
    57 1.114041 0.040611 -0.005766 -0.029126 -0.034294 1.046560
    58 -0.072991 -0.279672 -0.016854 0.578273 0.237666 1.530233
    59 -6.604567 5.651580 -0.395688 1.578695 -0.024743 -0.807021
  time 3
    0 3.810922 -7.794585 -2.032972 0.353599 -1.301859 1.199585
    1 0.052541 0.093240 -1.368013 0.000001 2.794712 0.000000
    2 0.340545 0.000000 0.000000 0.000000 0.000000 0.000000
    3 0.232853 0.000000 -0.068218 -1.183342 -0.000097 4.712388
    4 0.779971 0.000000 0.246344 1.570796 -0.000001 0.000000
    5 0.526153 -4.087935 -0.751131 -0.000001 -1.096125 -3.141591
    6 -0.011397 -0.710795 -0.536931 0.000002 -3.141592 -0.000001
    7 -0.019695 0.346802 -0.526049 0.000002 -3.141592 -0.000001
    8 -0.017859 -0.722185 0.440962 0.000002 -3.141592 -0.000001
    9 -0.026174 0.335806 0.451879 0.000002 -3.141592 -0.000001
    10 -0.010029 -0.347538 -0.523839 0.000001 -3.141592 -0.000001
    11 -0.011838 0.684008 -0.521458 0.000001 -3.141592 -0.000001
    12 -0.021454 -0.350513 0.445313 0.000001 -3.141592 -0.000001
    13 -0.023281 0.681426 0.447730 0.000001 -3.141592 -0.000001
    14 0.594428 0.688249 0.169690 -1.570795 -0.349065 -1.575493
    15 0.000000 0.000001 0.000000 0.000002 -3.141592 -0.000001
    16 0.000000 0.000000 0.000000 0.000002 -3.141592 -0.000001
    17 0.000000 0.000000 0.000001 0.000002 -3.141592 -0.000001
    18 0.000000 0.000000 0.000000 0.000002 -3.141592 -0.000001
    19 0.577926 0.528937 0.130075 -1.570796 0.000000 1.570796
    20 -0.000041 -0.114611 0.000512 0.000000 0.000000 0.000000
    21 -0.002752 9.499025 -3.183072 0.000000 0.000000 0.167707
    22 5.149820 -6.338708 -4.456149 0.792407 -2.088919 -1.109515
    23 5.808100 6.371887 -0.259185 1.565178 -3.131962 0.932364
    24 -0.001606 -8.490924 -0.072883 0.163721 0.604549 -0.027529
    25 -0.488518 -2.755602 -0.228260 -0.694823 -0.202299 -0.156365
    26 0.039887 -1.546198 0.022041 -1.878783 -0.006532 0.041911
    27 0.028786 -1.146046 -0.116862 -0.896245 -0.014513 0.018229
    28 0.250027 -2.820665 -0.238396 -0.649506 -0.251254 -0.095032
    29 -0.049759 -1.594604 0.026258 -1.652451 -0.001798 -0.043638
    30 -0.034142 -1.167844 0.049625 -1.032400 0.007706 -0.026929
    31 0.957766 -2.746780 -0.090302 0.006796 -0.183418 0.033529
    32 -0.033420 -1.393223 -0.019070 -0.605197 0.008377 -0.029615
    33 -0.022360 -0.957436 0.007065 -0.523059 0.007970 -0.025072
    34 -1.180681 -2.507217 -0.193859 -0.526507 0.019610 -0.141991
    35 -0.024967 -1.127840 0.017597 -1.592407 -0.013123 -0.063314
    36 -0.020057 -0.906594 0.033528 -1.012385 0.005213 -0.041479
    37 0.634293 -1.197277 0.193192 0.573204 -1.198059 -0.537443
    38 1.446081 -0.251481 0.079230 0.076374 -0.245696 -0.919764
    39 1.065614 -0.128290 0.024478 0.022563 -0.160812 -0.649862
    40 -0.024383 -0.116678 -0.109178 0.409548 3.235475 1.520903
    41 -2.333332 -6.528174 -6.341321 -1.511703 -5.230428 -1.176100
    42 0.116476 -8.469950 -0.021084 0.488784 -0.149349 0.265597
    43 0.447953 -2.798986 -0.200443 -0.464249 -0.007376 0.217482
    44 -0.032909 -1.499736 0.032285 -1.517035 0.023286 -0.030067
    45 -0.027022 -1.096452 -0.028023 -0.513423 0.013471 -0.005429
    46 -0.249534 -2.846964 -0.174213 -0.318172 0.095045 0.146924
    47 0.043235 -1.656596 0.064761 -1.531742 -0.023160 0.009433
    48 0.031729 -1.153017 0.058838 -0.570894 -0.005482 0.005484
    49 -0.963866 -2.785145 -0.085350 -0.340675 0.289321 0.090289
    50 0.028479 -1.406973 -0.021074 -1.051346 -0.028907 -0.035726
    51 0.021413 -0.949968 0.020046 -0.495206 -0.008917 -0.020482
    52 1.164475 -2.543940 -0.170330 -0.588558 -0.315114 0.278610
    53 0.024032 -1.144668 -0.009538 -1.230037 0.020506 0.060691
    54 0.014898 -0.895708 -0.019848 -0.595619 -0.000911 0.029698
    55 -0.586770 -1.264477 0.200161 -0.158983 -0.551253 -2.635642
    56 1.565805 0.035243 0.016848 -0.018556 -0.006883 0.883288
    57 1.114041 0.040611 -0.005766 -0.029126 -0.034294 1.046560
    58 -0.072991 -0.279672 -0.016854 0.578273 0.237666 1.530233
    59 -7.077237 4.940621 -0.411313 1.577258 -0.027040 -0.703447
  time 4
    0 3.740607 -7.693020 -2.302511 0.169254 -1.295616 1.377420
    1 0.052541 0.093240 -1.368013 0.000001 2.794712 0.000000
    2 0.340545 0.000000 0.000000 0.000000 0.000000 0.000000
    3 0.232853 0.000000 -0.068218 -1.183342 -0.000097 -1.570700
    4 0.779971 0.000000 1.297158 1.570796 -0.000001 0.000000
    5 0.526153 -4.087935 -0.751131 -0.000001 -1.096125 -3.141591
    6 -0.011397 -0.710795 -0.536931 0.000002 -3.141592 -0.000001
    7 -0.019695 0.346802 -0.526049 0.000002 -3.141592 -0.000001
    8 -0.017859 -0.722185 0.440962 0.000002 -3.141592 -0.000001
    9 -0.026174 0.335806 0.451879 0.000002 -3.141592 -0.000001
    10 -0.010029 -0.347538 -0.523839 0.000001 -3.141592 -0.000001
    11 -0.011838 0.684008 -0.521458 0.000001 -3.141592 -0.000001
    12 -0.021454 -0.350513 0.445313 0.000001 -3.141592 -0.000001
    13 -0.023281 0.681426 0.447730 0.000001 -3.141592 -0.000001
    14 0.594428 0.688249 0.169690 -1.570795 -0.349065 -1.575493
    15 0.000000 0.000001 0.000000 0.000002 -3.141592 -0.000001
    16 0.000000 0.000000 0.000000 0.000002 -3.141592 -0.000001
    17 0.000000 0.000000 0.000001 0.000002 -3.141592 -0.000001
    18 0.000000 0.000000 0.000000 0.000002 -3.141592 -0.000001
    19 0.577926 0.528937 0.130075 -1.570796 0.000000 1.570796
    20 -0.000041 -0.114611 0.000512 0.000000 0.000000 0.000000
    21 -0.002752 9.499025 -3.183072 0.000000 0.000000 0.167707
    22 5.161539 -6.194173 -4.545995 0.929725 -1.996073 -1.265474
    23 6.128422 6.016407 -0.266998 1.565082 -3.130716 0.873870
    24 -0.036764 -8.490924 -0.084602 0.153150 0.444328 0.005540
    25 -0.488518 -2.755602 -0.228260 -0.694823 -0.202299 -0.156365
    26 0.039887 -1.546198 0.022041 -1.878783 -0.006532 0.041911
    27 0.028786 -1.146046 -0.116862 -0.896245 -0.014513 0.018229
    28 0.250027 -2.820665 -0.238396 -0.649506 -0.251254 -0.095032
    29 -0.049759 -1.594604 0.026258 -1.652451 -0.001798 -0.043638
    30 -0.034142 -1.167844 0.049625 -1.032400 0.007706 -0.026929
    31 0.957766 -2.746780 -0.090302 0.006796 -0.183418 0.033529
    32 -0.033420 -1.393223 -0.019070 -0.605197 0.008377 -0.029615
    33 -0.022360 -0.957436 0.007065 -0.523059 0.007970 -0.025072
    34 -1.180681 -2.507217 -0.193859 -0.526507 0.019610 -0.141991
    35 -0.024967 -1.127840 0.017597 -1.592407 -0.013123 -0.063314
    36 -0.020057 -0.906594 0.033528 -1.012385 0.005213 -0.041479
    37 0.634293 -1.197277 0.193192 0.573204 -1.198059 -0.537443
    38 1.446081 -0.251481 0.079230 0.076374 -0.245696 -0.919764
    39 1.065614 -0.128290 0.024478 0.022563 -0.160812 -0.649862
    40 -0.024383 -0.116678 -0.109178 0.409548 3.235475 1.520903
    41 -2.337238 -6.407077 -6.548358 -1.507802 -5.202162 -1.166144
    42 0.112569 -8.485576 -0.013271 0.501094 -0.176859 0.195324
    43 0.447953 -2.798986 -0.200443 -0.464249 -0.007376 0.217482
    44 -0.032909 -1.499736 0.032285 -1.517035 0.023286 -0.030067
    45 -0.027022 -1.096452 -0.028023 -0.513423 0.013471 -0.005429
    46 -0.249534 -2.846964 -0.174213 -0.318172 0.095045 0.146924
    47 0.043235 -1.656596 0.064761 -1.531742 -0.023160 0.009433
    48 0.031729 -1.153017 0.058838 -0.570894 -0.005482 0.005484
    49 -0.963866 -2.785145 -0.085350 -0.340675 0.289321 0.090289
    50 0.028479 -1.406973 -0.021074 -1.051346 -0.028907 -0.035726
    51 0.021413 -0.949968 0.020046 -0.495206 -0.008917 -0.020482
    52 1.164475 -2.543940 -0.170330 -0.588558 -0.315114 0.278610
    53 0.024032 -1.144668 -0.009538 -1.230037 0.020506 0.060691
    54 0.014898 -0.895708 -0.019848 -0.595619 -0.000911 0.029698
    55 -0.586770 -1.264477 0.200161 -0.158983 -0.551253 -2.635642
    56 1.565805 0.035243 0.016848 -0.018556 -0.006883 0.883288
    57 1.114041 0.040611 -0.005766 -0.029126 -0.034294 1.046560
    58 -0.072991 -0.279672 -0.016854 0.578273 0.237666 1.530233
    59 -7.124114 4.862493 -0.415220 1.577066 -0.027327 -0.692432
  time 5
    0 3.635135 -7.771147 -2.837684 -0.096550 -1.318058 -4.644311
    1 0.052541 0.093240 -1.368013 0.000001 2.794712 0.000000
    2 0.340545 0.000000 0.000000 0.000000 0.000000 0.000000
    3 0.232853 0.000000 -0.068218 -1.183342 -0.000097 4.712388
    4 0.779971 0.000000 1.863581 1.570796 -0.000001 0.000000
    5 0.526153 -4.087935 -0.751131 -0.000001 -1.096125 -3.141591
    6 -0.011397 -0.710795 -0.536931 0.000002 -3.141592 -0.000001
    7 -0.019695 0.346802 -0.526049 0.000002 -3.141592 -0.000001
    8 -0.017859 -0.722185 0.440962 0.000002 -3.141592 -0.000001
    9 -0.026174 0.335806 0.451879 0.000002 -3.141592 -0.000001
    10 -0.010029 -0.347538 -0.523839 0.000001 -3.141592 -0.000001
    11 -0.011838 0.684008 -0.521458 0.000001 -3.141592 -0.000001
    12 -0.021454 -0.350513 0.445313 0.000001 -3.141592 -0.000001
    13 -0.023281 0.681426 0.447730 0.000001 -3.141592 -0.000001
    14 0.594428 0.688249 0.169690 -1.570795 -0.349065 -1.575493
    15 0.000000 0.000001 0.000000 0.000002 -3.141592 -0.000001
    16 0.000000 0.000000 0.000000 0.000002 -3.141592 -0.000001
    17 0.000000 0.000000 0.000001 0.000002 -3.141592 -0.000001
    18 0.000000 0.000000 0.000000 0.000002 -3.141592 -0.000001
    19 0.577926 0.528937 0.130075 -1.570796 0.000000 1.570796
    20 -0.000041 -0.114611 0.000512 0.000000 0.000000 0.000000
    21 -0.002752 9.499025 -3.183072 0.000000 0.000000 0.167707
    22 5.075599 -6.034011 -4.514744 1.162145 -1.886567 -1.503299
    23 6.323741 5.782025 -0.274810 1.565082 -3.129949 0.836429
    24 -0.075827 -8.487017 -0.108040 0.117041 0.252099 0.016241
    25 -0.488518 -2.755602 -0.228260 -0.694823 -0.202299 -0.156365
    26 0.039887 -1.546198 0.022041 -1.878783 -0.006532 0.041911
    27 0.028786 -1.146046 -0.116862 -0.896245 -0.014513 0.018229
    28 0.250027 -2.820665 -0.238396 -0.649506 -0.251254 -0.095032
    29 -0.049759 -1.594604 0.026258 -1.652451 -0.001798 -0.043638
    30 -0.034142 -1.167844 0.049625 -1.032400 0.007706 -0.026929
    31 0.957766 -2.746780 -0.090302 0.006796 -0.183418 0.033529
    32 -0.033420 -1.393223 -0.019070 -0.605197 0.008377 -0.029615
    33 -0.022360 -0.957436 0.007065 -0.523059 0.007970 -0.025072
    34 -1.180681 -2.507217 -0.193859 -0.526507 0.019610 -0.141991
    35 -0.024967 -1.127840 0.017597 -1.592407 -0.013123 -0.063314
    36 -0.020057 -0.906594 0.033528 -1.012385 0.005213 -0.041479
    37 0.634293 -1.197277 0.193192 0.573204 -1.198059 -0.537443
    38 1.446081 -0.251481 0.079230 0.076374 -0.245696 -0.919764
    39 1.065614 -0.128290 0.024478 0.022563 -0.160812 -0.649862
    40 -0.024383 -0.116678 -0.109178 0.409548 3.235475 1.520903
    41 -2.337238 -6.289886 -6.751489 -1.498810 -5.154213 -1.150924
    42 0.100850 -8.505108 -0.009365 0.522731 -0.242393 0.123232
    43 0.447953 -2.798986 -0.200443 -0.464249 -0.007376 0.217482
    44 -0.032909 -1.499736 0.032285 -1.517035 0.023286 -0.030067
    45 -0.027022 -1.096452 -0.028023 -0.513423 0.013471 -0.005429
    46 -0.249534 -2.846964 -0.174213 -0.318172 0.095045 0.146924
    47 0.043235 -1.656596 0.064761 -1.531742 -0.023160 0.009433
    48 0.031729 -1.153017 0.058838 -0.570894 -0.005482 0.005484
    49 -0.963866 -2.785145 -0.085350 -0.340675 0.289321 0.090289
    50 0.028479 -1.406973 -0.021074 -1.051346 -0.028907 -0.035726
    51 0.021413 -0.949968 0.020046 -0.495206 -0.008917 -0.020482
    52 1.164475 -2.543940 -0.170330 -0.588558 -0.315114 0.278610
    53 0.024032 -1.144668 -0.009538 -1.230037 0.020506 0.060691
    54 0.014898 -0.895708 -0.019848 -0.595619 -0.000911 0.029698
    55 -0.586770 -1.264477 0.200161 -0.158983 -0.551253 -2.635642
    56 1.565805 0.035243 0.016848 -0.018556 -0.006883 0.883288
    57 1.114041 0.040611 -0.005766 -0.029126 -0.034294 1.046560
    58 -0.072991 -0.279672 -0.016854 0.578273 0.237666 1.530233
    59 -7.077237 4.940621 -0.411313 1.577258 -0.027040 -0.703447
  time 6
    0 3.576540 -7.935215 -3.294729 -0.311096 -1.349613 -4.429760
    1 0.052541 0.093240 -1.368013 0.000001 2.794712 0.000000
    2 0.340545 0.000000 0.000000 0.000000 0.000000 0.000000
    3 0.232853 0.000000 -0.068218 -1.183342 -0.000097 4.712388
    4 0.779971 0.000000 1.594042 1.570796 -0.000001 0.000000
    5 0.526153 -4.087935 -0.751131 -0.000001 -1.096125 -3.141591
    6 -0.011397 -0.710795 -0.536931 0.000002 -3.141592 -0.000001
    7 -0.019695 0.346802 -0.526049 0.000002 -3.141592 -0.000001
    8 -0.017859 -0.722185 0.440962 0.000002 -3.141592 -0.000001
    9 -0.026174 0.335806 0.451879 0.000002 -3.141592 -0.000001
    10 -0.010029 -0.347538 -0.523839 0.000001 -3.141592 -0.000001
    11 -0.011838 0.684008 -0.521458 0.000001 -3.141592 -0.000001
    12 -0.021454 -0.350513 0.445313 0.000001 -3.141592 -0.000001
    13 -0.023281 0.681426 0.447730 0.000001 -3.141592 -0.000001
    14 0.594428 0.688249 0.169690 -1.570795 -0.349065 -1.575493
    15 0.000000 0.000001 0.000000 0.000002 -3.141592 -0.000001
    16 0.000000 0.000000 0.000000 0.000002 -3.141592 -0.000001
    17 0.000000 0.000000 0.000001 0.000002 -3.141592 -0.000001
    18 0.000000 0.000000 0.000000 0.000002 -3.141592 -0.000001
    19 0.577926 0.528937 0.130075 -1.570796 0.000000 1.570796
    20 -0.000041 -0.114611 0.000512 0.000000 0.000000 0.000000
    21 -0.002752 9.499025 -3.183072 0.000000 0.000000 0.167707
    22 5.001378 -5.979322 -4.436617 4.463486 -1.310485 1.481650
    23 6.315928 5.789838 -0.274810 1.565082 -3.129949 0.837668
    24 -0.095359 -8.483111 -0.123666 0.097658 0.156047 0.003862
    25 -0.488518 -2.755602 -0.228260 -0.694823 -0.202299 -0.156365
    26 0.039887 -1.546198 0.022041 -1.878783 -0.006532 0.041911
    27 0.028786 -1.146046 -0.116862 -0.896245 -0.014513 0.018229
    28 0.250027 -2.820665 -0.238396 -0.649506 -0.251254 -0.095032
    29 -0.049759 -1.594604 0.026258 -1.652451 -0.001798 -0.043638
    30 -0.034142 -1.167844 0.049625 -1.032400 0.007706 -0.026929
    31 0.957766 -2.746780 -0.090302 0.006796 -0.183418 0.033529
    32 -0.033420 -1.393223 -0.019070 -0.605197 0.008377 -0.029615
    33 -0.022360 -0.957436 0.007065 -0.523059 0.007970 -0.025072
    34 -1.180681 -2.507217 -0.193859 -0.526507 0.019610 -0.141991
    35 -0.024967 -1.127840 0.017597 -1.592407 -0.013123 -0.063314
    36 -0.020057 -0.906594 0.033528 -1.012385 0.005213 -0.041479
    37 0.634293 -1.197277 0.193192 0.573204 -1.198059 -0.537443
    38 1.446081 -0.251481 0.079230 0.076374 -0.245696 -0.919764
    39 1.065614 -0.128290 0.024478 0.022563 -0.160812 -0.649862
    40 -0.024383 -0.116678 -0.109178 0.409548 3.235475 1.520903
    41 -2.341145 -6.235197 -6.856961 -1.490941 -5.121235 -1.140394
    42 0.096944 -8.512920 0.002354 0.537840 -0.297621 0.098493
    43 0.447953 -2.798986 -0.200443 -0.464249 -0.007376 0.217482
    44 -0.032909 -1.499736 0.032285 -1.517035 0.023286 -0.030067
    45 -0.027022 -1.096452 -0.028023 -0.513423 0.013471 -0.005429
    46 -0.249534 -2.846964 -0.174213 -0.318172 0.095045 0.146924
    47 0.043235 -1.656596 0.064761 -1.531742 -0.023160 0.009433
    48 0.031729 -1.153017 0.058838 -0.570894 -0.005482 0.005484
    49 -0.963866 -2.785145 -0.085350 -0.340675 0.289321 0.090289
    50 0.028479 -1.406973 -0.021074 -1.051346 -0.028907 -0.035726
    51 0.021413 -0.949968 0.020046 -0.495206 -0.008917 -0.020482
    52 1.164475 -2.543940 -0.170330 -0.588558 -0.315114 0.278610
    53 0.024032 -1.144668 -0.009538 -1.230037 0.020506 0.060691
    54 0.014898 -0.895708 -0.019848 -0.595619 -0.000911 0.029698
    55 -0.586770 -1.264477 0.200161 -0.158983 -0.551253 -2.635642
    56 1.565805 0.035243 0.016848 -0.018556 -0.006883 0.883288
    57 1.114041 0.040611 -0.005766 -0.029126 -0.034294 1.046560
    58 -0.072991 -0.279672 -0.016854 0.578273 0.237666 1.530233
    59 -7.014735 5.046093 -0.411313 1.577449 -0.026753 -0.718256
  time 7
    0 3.588259 -8.161784 -3.599426 -0.423033 -1.410570 -4.311938
    1 0.052541 0.093240 -1.368013 0.000001 2.794712 0.000000
    2 0.340545 0.000000 0.000000 0.000000 0.000000 0.000000
    3 0.232853 0.000000 -0.068218 -1.188993 -0.000097 4.712388
    4 0.779971 0.000000 1.863581 1.570796 -0.000001 0.000000
    5 0.526153 -4.087935 -0.751131 -0.000001 -1.096125 -3.141591
    6 -0.011397 -0.710795 -0.536931 0.000002 -3.141592 -0.000001
    7 -0.019695 0.346802 -0.526049 0.000002 -3.141592 -0.000001
    8 -0.017859 -0.722185 0.440962 0.000002 -3.141592 -0.000001
    9 -0.026174 0.335806 0.451879 0.000002 -3.141592 -0.000001
    10 -0.010029 -0.347538 -0.523839 0.000001 -3.141592 -0.000001
    11 -0.011838 0.684008 -0.521458 0.000001 -3.141592 -0.000001
    12 -0.021454 -0.350513 0.445313 0.000001 -3.141592 -0.000001
    13 -0.023281 0.681426 0.447730 0.000001 -3.141592 -0.000001
    14 0.594428 0.688249 0.169690 -1.570795 -0.349065 -1.575493
    15 0.000000 0.000001 0.000000 0.000002 -3.141592 -0.000001
    16 0.000000 0.000000 0.000000 0.000002 -3.141592 -0.000001
    17 0.000000 0.000000 0.000001 0.000002 -3.141592 -0.000001
    18 0.000000 0.000000 0.000000 0.000002 -3.141592 -0.000001
    19 0.577926 0.528937 0.130075 -1.570796 0.000000 1.570796
    20 -0.000041 -0.114611 0.000512 0.000000 0.000000 0.000000
    21 -0.002752 9.499025 -3.183072 0.000000 0.000000 0.167707
    22 5.024816 -6.076981 -4.432711 1.173009 -1.838581 -1.513041
    23 6.077640 6.075003 -0.266998 1.565082 -3.130908 0.883492
    24 -0.083640 -8.475298 -0.115853 0.108956 0.204809 -0.053133
    25 -0.488518 -2.755602 -0.228260 -0.694823 -0.202299 -0.156365
    26 0.039887 -1.546198 0.022041 -1.878783 -0.006532 0.041911
    27 0.028786 -1.146046 -0.116862 -0.896245 -0.014513 0.018229
    28 0.250027 -2.820665 -0.238396 -0.649506 -0.251254 -0.095032
    29 -0.049759 -1.594604 0.026258 -1.652451 -0.001798 -0.043638
    30 -0.034142 -1.167844 0.049625 -1.032400 0.007706 -0.026929
    31 0.957766 -2.746780 -0.090302 0.006796 -0.183418 0.033529
    32 -0.033420 -1.393223 -0.019070 -0.605197 0.008377 -0.029615
    33 -0.022360 -0.957436 0.007065 -0.523059 0.007970 -0.025072
    34 -1.180681 -2.507217 -0.193859 -0.526507 0.019610 -0.141991
    35 -0.024967 -1.127840 0.017597 -1.592407 -0.013123 -0.063314
    36 -0.020057 -0.906594 0.033528 -1.012385 0.005213 -0.041479
    37 0.634293 -1.197277 0.193192 0.573204 -1.198059 -0.537443
    38 1.446081 -0.251481 0.079230 0.076374 -0.245696 -0.919764
    39 1.065614 -0.128290 0.024478 0.022563 -0.160812 -0.649862
    40 -0.024383 -0.116678 -0.109178 0.409548 3.235475 1.520903
    41 -2.352864 -6.239103 -6.860868 -1.489685 -5.116524 -1.141734
    42 0.089131 -8.505108 0.006260 0.538287 -0.330492 0.149963
    43 0.447953 -2.798986 -0.200443 -0.464249 -0.007376 0.217482
    44 -0.032909 -1.499736 0.032285 -1.517035 0.023286 -0.030067
    45 -0.027022 -1.096452 -0.028023 -0.513423 0.013471 -0.005429
    46 -0.249534 -2.846964 -0.174213 -0.318172 0.095045 0.146924
    47 0.043235 -1.656596 0.064761 -1.531742 -0.023160 0.009433
    48 0.031729 -1.153017 0.058838 -0.570894 -0.005482 0.005484
    49 -0.963866 -2.785145 -0.085350 -0.340675 0.289321 0.090289
    50 0.028479 -1.406973 -0.021074 -1.051346 -0.028907 -0.035726
    51 0.021413 -0.949968 0.020046 -0.495206 -0.008917 -0.020482
    52 1.164475 -2.543940 -0.170330 -0.588558 -0.315114 0.278610
    53 0.024032 -1.144668 -0.009538 -1.230037 0.020506 0.060691
    54 0.014898 -0.895708 -0.019848 -0.595619 -0.000911 0.029698
    55 -0.586770 -1.264477 0.200161 -0.158983 -0.551253 -2.635642
    56 1.565805 0.035243 0.016848 -0.018556 -0.006883 0.883288
    57 1.114041 0.040611 -0.005766 -0.029126 -0.034294 1.046560
    58 -0.072991 -0.279672 -0.016854 0.578273 0.237666 1.530233
    59 -6.991297 5.081250 -0.407407 1.577545 -0.026657 -0.723162
  time 8
    0 3.631229 -8.450855 -3.880684 -0.628527 -1.495193 -4.097003
    1 0.052541 0.093240 -1.368013 0.000001 2.794712 0.000000
    2 0.340545 0.000000 0.000000 0.000000 0.000000 0.000000
    3 0.232853 0.000000 -0.068218 -1.204797 -0.000097 4.712388
    4 0.779971 0.000000 1.863581 1.570796 -0.000001 0.000000
    5 0.526153 -4.087935 -0.751131 -0.000001 -1.096125 -3.141591
    6 -0.011397 -0.710795 -0.536931 0.000002 -3.141592 -0.000001
    7 -0.019695 0.346802 -0.526049 0.000002 -3.141592 -0.000001
    8 -0.017859 -0.722185 0.440962 0.000002 -3.141592 -0.000001
    9 -0.026174 0.335806 0.451879 0.000002 -3.141592 -0.000001
    10 -0.010029 -0.347538 -0.523839 0.000001 -3.141592 -0.000001
    11 -0.011838 0.684008 -0.521458 0.000001 -3.141592 -0.000001
    12 -0.021454 -0.350513 0.445313 0.000001 -3.141592 -0.000001
    13 -0.023281 0.681426 0.447730 0.000001 -3.141592 -0.000001
    14 0.594428 0.688249 0.169690 -1.570795 -0.349065 -1.575493
    15 0.000000 0.000001 0.000000 0.000002 -3.141592 -0.000001
    16 0.000000 0.000000 0.000000 0.000002 -3.141592 -0.000001
    17 0.000000 0.000000 0.000001 0.000002 -3.141592 -0.000001
    18 0.000000 0.000000 0.000000 0.000002 -3.141592 -0.000001
    19 0.577926 0.528937 0.130075 -1.570796 0.000000 1.570796
    20 -0.000041 -0.114611 0.000512 0.000000 0.000000 0.000000
    21 -0.002752 9.499025 -3.183072 0.000000 0.000000 0.167707
    22 5.052161 -6.244955 -4.401460 0.911715 -1.887955 -1.250112
    23 5.632313 6.547673 -0.251372 1.565273 -3.132633 0.963327
    24 -0.060202 -8.467485 -0.100228 0.113438 0.327608 -0.138215
    25 -0.488518 -2.755602 -0.228260 -0.694823 -0.202299 -0.156365
    26 0.039887 -1.546198 0.022041 -1.878783 -0.006532 0.041911
    27 0.028786 -1.146046 -0.116862 -0.896245 -0.014513 0.018229
    28 0.250027 -2.820665 -0.238396 -0.649506 -0.251254 -0.095032
    29 -0.049759 -1.594604 0.026258 -1.652451 -0.001798 -0.043638
    30 -0.034142 -1.167844 0.049625 -1.032400 0.007706 -0.026929
    31 0.957766 -2.746780 -0.090302 0.006796 -0.183418 0.033529
    32 -0.033420 -1.393223 -0.019070 -0.605197 0.008377 -0.029615
    33 -0.022360 -0.957436 0.007065 -0.523059 0.007970 -0.025072
    34 -1.180681 -2.507217 -0.193859 -0.526507 0.019610 -0.141991
    35 -0.024967 -1.127840 0.017597 -1.592407 -0.013123 -0.063314
    36 -0.020057 -0.906594 0.033528 -1.012385 0.005213 -0.041479
    37 0.634293 -1.197277 0.193192 0.573204 -1.198059 -0.537443
    38 1.446081 -0.251481 0.079230 0.076374 -0.245696 -0.919764
    39 1.065614 -0.128290 0.024478 0.022563 -0.160812 -0.649862
    40 -0.024383 -0.116678 -0.109178 0.409548 3.235475 1.520903
    41 -2.368489 -6.293792 -6.798366 -1.491338 -5.122913 -1.149297
    42 0.081319 -8.489482 0.010167 0.529521 -0.358080 0.243718
    43 0.447953 -2.798986 -0.200443 -0.464249 -0.007376 0.217482
    44 -0.032909 -1.499736 0.032285 -1.517035 0.023286 -0.030067
    45 -0.027022 -1.096452 -0.028023 -0.513423 0.013471 -0.005429
    46 -0.249534 -2.846964 -0.174213 -0.318172 0.095045 0.146924
    47 0.043235 -1.656596 0.064761 -1.531742 -0.023160 0.009433
    48 0.031729 -1.153017 0.058838 -0.570894 -0.005482 0.005484
    49 -0.963866 -2.785145 -0.085350 -0.340675 0.289321 0.090289
    50 0.028479 -1.406973 -0.021074 -1.051346 -0.028907 -0.035726
    51 0.021413 -0.949968 0.020046 -0.495206 -0.008917 -0.020482
    52 1.164475 -2.543940 -0.170330 -0.588558 -0.315114 0.278610
    53 0.024032 -1.144668 -0.009538 -1.230037 0.020506 0.060691
    54 0.014898 -0.895708 -0.019848 -0.595619 -0.000911 0.029698
    55 -0.586770 -1.264477 0.200161 -0.158983 -0.551253 -2.635642
    56 1.565805 0.035243 0.016848 -0.018556 -0.006883 0.883288
    57 1.114041 0.040611 -0.005766 -0.029126 -0.034294 1.046560
    58 -0.072991 -0.279672 -0.016854 0.578273 0.237666 1.530233
    59 -6.963953 5.128126 -0.407407 1.577641 -0.026466 -0.729826
  time 9
    0 3.682012 -8.724301 -4.103347 0.778534 -1.596775 0.788697
    1 0.052541 0.093240 -1.368013 0.000001 2.794712 0.000000
    2 0.340545 0.000000 0.000000 0.000000 0.000000 0.000000
    3 0.232853 0.000000 -0.068218 -1.229125 -0.000097 4.712388
    4 0.779971 0.000000 1.863581 1.570796 -0.000001 0.000000
    5 0.526153 -4.087935 -0.751131 -0.000001 -1.096125 -3.141591
    6 -0.011397 -0.710795 -0.536931 0.000002 -3.141592 -0.000001
    7 -0.019695 0.346802 -0.526049 0.000002 -3.141592 -0.000001
    8 -0.017859 -0.722185 0.440962 0.000002 -3.141592 -0.000001
    9 -0.026174 0.335806 0.451879 0.000002 -3.141592 -0.000001
    10 -0.010029 -0.347538 -0.523839 0.000001 -3.141592 -0.000001
    11 -0.011838 0.684008 -0.521458 0.000001 -3.141592 -0.000001
    12 -0.021454 -0.350513 0.445313 0.000001 -3.141592 -0.000001
    13 -0.023281 0.681426 0.447730 0.000001 -3.141592 -0.000001
    14 0.594428 0.688249 0.169690 -1.570795 -0.349065 -1.575493
    15 0.000000 0.000001 0.000000 0.000002 -3.141592 -0.000001
    16 0.000000 0.000000 0.000000 0.000002 -3.141592 -0.000001
    17 0.000000 0.000000 0.000001 0.000002 -3.141592 -0.000001
    18 0.000000 0.000000 0.000000 0.000002 -3.141592 -0.000001
    19 0.577926 0.528937 0.130075 -1.570796 0.000000 1.570796
    20 -0.000041 -0.114611 0.000512 0.000000 0.000000 0.000000
    21 -0.002752 9.499025 -3.183072 0.000000 0.000000 0.167707
    22 5.005285 -6.405116 -4.299894 0.708740 -1.956592 -1.034861
    23 5.058077 7.059408 -0.235747 1.565657 -3.134647 1.057356
    24 -0.025045 -8.459673 -0.084602 0.089083 0.463136 -0.222344
    25 -0.488518 -2.755602 -0.228260 -0.694823 -0.202299 -0.156365
    26 0.039887 -1.546198 0.022041 -1.878783 -0.006532 0.041911
    27 0.028786 -1.146046 -0.116862 -0.896245 -0.014513 0.018229
    28 0.250027 -2.820665 -0.238396 -0.649506 -0.251254 -0.095032
    29 -0.049759 -1.594604 0.026258 -1.652451 -0.001798 -0.043638
    30 -0.034142 -1.167844 0.049625 -1.032400 0.007706 -0.026929
    31 0.957766 -2.746780 -0.090302 0.006796 -0.183418 0.033529
    32 -0.033420 -1.393223 -0.019070 -0.605197 0.008377 -0.029615
    33 -0.022360 -0.957436 0.007065 -0.523059 0.007970 -0.025072
    34 -1.180681 -2.507217 -0.193859 -0.526507 0.019610 -0.141991
    35 -0.024967 -1.127840 0.017597 -1.592407 -0.013123 -0.063314
    36 -0.020057 -0.906594 0.033528 -1.012385 0.005213 -0.041479
    37 0.634293 -1.197277 0.193192 0.573204 -1.198059 -0.537443
    38 1.446081 -0.251481 0.079230 0.076374 -0.245696 -0.919764
    39 1.065614 -0.128290 0.024478 0.022563 -0.160812 -0.649862
    40 -0.024383 -0.116678 -0.109178 0.409548 3.235475 1.520903
    41 -2.384115 -6.383639 -6.681175 -1.493057 -5.130528 -1.158199
    42 0.073506 -8.477763 0.014073 0.515792 -0.376897 0.339032
    43 0.447953 -2.798986 -0.200443 -0.464249 -0.007376 0.217482
    44 -0.032909 -1.499736 0.032285 -1.517035 0.023286 -0.030067
    45 -0.027022 -1.096452 -0.028023 -0.513423 0.013471 -0.005429
    46 -0.249534 -2.846964 -0.174213 -0.318172 0.095045 0.146924
    47 0.043235 -1.656596 0.064761 -1.531742 -0.023160 0.009433
    48 0.031729 -1.153017 0.058838 -0.570894 -0.005482 0.005484
    49 -0.963866 -2.785145 -0.085350 -0.340675 0.289321 0.090289
    50 0.028479 -1.406973 -0.021074 -1.051346 -0.028907 -0.035726
    51 0.021413 -0.949968 0.020046 -0.495206 -0.008917 -0.020482
    52 1.164475 -2.543940 -0.170330 -0.588558 -0.315114 0.278610
    53 0.024032 -1.144668 -0.009538 -1.230037 0.020506 0.060691
    54 0.014898 -0.895708 -0.019848 -0.595619 -0.000911 0.029698
    55 -0.586770 -1.264477 0.200161 -0.158983 -0.551253 -2.635642
    56 1.565805 0.035243 0.016848 -0.018556 -0.006883 0.883288
    57 1.114041 0.040611 -0.005766 -0.029126 -0.034294 1.046560
    58 -0.072991 -0.279672 -0.016854 0.578273 0.237666 1.530233
    59 -6.893638 5.237505 -0.403501 1.577833 -0.026083 -0.745561
  time 10
    0 3.713263 -8.923526 -4.224445 0.013355 -1.637483 1.560143
    1 0.052541 0.093240 -1.368013 0.000001 2.794712 0.000000
    2 0.340545 0.000000 0.000000 0.000000 0.000000 0.000000
    3 0.232853 0.000000 -0.068218 -1.260157 -0.000097 4.712388
    4 0.779971 0.000000 1.863581 1.570796 -0.000001 0.000000
    5 0.526153 -4.087935 -0.751131 -0.000001 -1.096125 -3.141591
    6 -0.011397 -0.710795 -0.536931 0.000002 -3.141592 -0.000001
    7 -0.019695 0.346802 -0.526049 0.000002 -3.141592 -0.000001
    8 -0.017859 -0.722185 0.440962 0.000002 -3.141592 -0.000001
    9 -0.026174 0.335806 0.451879 0.000002 -3.141592 -0.000001
    10 -0.010029 -0.347538 -0.523839 0.000001 -3.141592 -0.000001
    11 -0.011838 0.684008 -0.521458 0.000001 -3.141592 -0.000001
    12 -0.021454 -0.350513 0.445313 0.000001 -3.141592 -0.000001
    13 -0.023281 0.681426 0.447730 0.000001 -3.141592 -0.000001
    14 0.594428 0.688249 0.169690 -1.570795 -0.349065 -1.575493
    15 0.000000 0.000001 0.000000 0.000002 -3.141592 -0.000001
    16 0.000000 0.000000 0.000000 0.000002 -3.141592 -0.000001
    17 0.000000 0.000000 0.000001 0.000002 -3.141592 -0.000001
    18 0.000000 0.000000 0.000000 0.000002 -3.141592 -0.000001
    19 0.577926 0.528937 0.130075 -1.570796 0.000000 1.570796
    20 -0.000041 -0.114611 0.000512 0.000000 0.000000 0.000000
    21 -0.002752 9.499025 -3.183072 0.000000 0.000000 0.167707
    22 4.911532 -6.510588 -4.155358 0.596770 -2.005011 -0.907377
    23 4.526811 7.453951 -0.224028 1.566136 -3.136276 1.138715
    24 -0.001606 -8.455766 -0.076789 0.055240 0.551526 -0.273699
    25 -0.488518 -2.755602 -0.228260 -0.694823 -0.202299 -0.156365
    26 0.039887 -1.546198 0.022041 -1.878783 -0.006532 0.041911
    27 0.028786 -1.146046 -0.116862 -0.896245 -0.014513 0.018229
    28 0.250027 -2.820665 -0.238396 -0.649506 -0.251254 -0.095032
    29 -0.049759 -1.594604 0.026258 -1.652451 -0.001798 -0.043638
    30 -0.034142 -1.167844 0.049625 -1.032400 0.007706 -0.026929
    31 0.957766 -2.746780 -0.090302 0.006796 -0.183418 0.033529
    32 -0.033420 -1.393223 -0.019070 -0.605197 0.008377 -0.029615
    33 -0.022360 -0.957436 0.007065 -0.523059 0.007970 -0.025072
    34 -1.180681 -2.507217 -0.193859 -0.526507 0.019610 -0.141991
    35 -0.024967 -1.127840 0.017597 -1.592407 -0.013123 -0.063314
    36 -0.020057 -0.906594 0.033528 -1.012385 0.005213 -0.041479
    37 0.634293 -1.197277 0.193192 0.573204 -1.198059 -0.537443
    38 1.446081 -0.251481 0.079230 0.076374 -0.245696 -0.919764
    39 1.065614 -0.128290 0.024478 0.022563 -0.160812 -0.649862
    40 -0.024383 -0.116678 -0.109178 0.409548 3.235475 1.520903
    41 -2.391927 -6.473485 -6.563984 -1.493255 -5.131948 -1.164421
    42 0.069599 -8.466044 0.014073 0.503929 -0.385642 0.395831
    43 0.447953 -2.798986 -0.200443 -0.464249 -0.007376 0.217482
    44 -0.032909 -1.499736 0.032285 -1.517035 0.023286 -0.030067
    45 -0.027022 -1.096452 -0.028023 -0.513423 0.013471 -0.005429
    46 -0.249534 -2.846964 -0.174213 -0.318172 0.095045 0.146924
    47 0.043235 -1.656596 0.064761 -1.531742 -0.023160 0.009433
    48 0.031729 -1.153017 0.058838 -0.570894 -0.005482 0.005484
    49 -0.963866 -2.785145 -0.085350 -0.340675 0.289321 0.090289
    50 0.028479 -1.406973 -0.021074 -1.051346 -0.028907 -0.035726
    51 0.021413 -0.949968 0.020046 -0.495206 -0.008917 -0.020482
    52 1.164475 -2.543940 -0.170330 -0.588558 -0.315114 0.278610
    53 0.024032 -1.144668 -0.009538 -1.230037 0.020506 0.060691
    54 0.014898 -0.895708 -0.019848 -0.595619 -0.000911 0.029698
    55 -0.586770 -1.264477 0.200161 -0.158983 -0.551253 -2.635642
    56 1.565805 0.035243 0.016848 -0.018556 -0.006883 0.883288
    57 1.114041 0.040611 -0.005766 -0.029126 -0.034294 1.046560
    58 -0.072991 -0.279672 -0.016854 0.578273 0.237666 1.530233
    59 -6.784260 5.397666 -0.399594 1.578216 -0.025604 -0.769257
  time 11
    0 3.721075 -9.036811 -4.181475 3.069821 -1.503250 -1.494582
    1 0.052541 0.093240 -1.368013 0.000001 2.794712 0.000000
    2 0.340545 0.000000 0.000000 0.000000 0.000000 0.000000
    3 0.232853 0.000000 -0.068218 -1.296266 -0.000097 -1.570700
    4 0.779971 0.000000 1.863581 1.570796 -0.000001 0.000000
    5 0.526153 -4.087935 -0.751131 -0.000001 -1.096125 -3.141591
    6 -0.011397 -0.710795 -0.536931 0.000002 -3.141592 -0.000001
    7 -0.019695 0.346802 -0.526049 0.000002 -3.141592 -0.000001
    8 -0.017859 -0.722185 0.440962 0.000002 -3.141592 -0.000001
    9 -0.026174 0.335806 0.451879 0.000002 -3.141592 -0.000001
    10 -0.010029 -0.347538 -0.523839 0.000001 -3.141592 -0.000001
    11 -0.011838 0.684008 -0.521458 0.000001 -3.141592 -0.000001
    12 -0.021454 -0.350513 0.445313 0.000001 -3.141592 -0.000001
    13 -0.023281 0.681426 0.447730 0.000001 -3.141592 -0.000001
    14 0.594428 0.688249 0.169690 -1.570795 -0.349065 -1.575493
    15 0.000000 0.000001 0.000000 0.000002 -3.141592 -0.000001
    16 0.000000 0.000000 0.000000 0.000002 -3.141592 -0.000001
    17 0.000000 0.000000 0.000001 0.000002 -3.141592 -0.000001
    18 0.000000 0.000000 0.000000 0.000002 -3.141592 -0.000001
    19 0.577926 0.528937 0.130075 -1.570796 0.000000 1.570796
    20 -0.000041 -0.114611 0.000512 0.000000 0.000000 0.000000
    21 -0.002752 9.499025 -3.183072 0.000000 0.000000 0.167707
    22 4.829498 -6.573090 -4.014729 0.543597 -2.018287 -0.844900
    23 4.128361 7.711771 -0.212309 1.566616 -3.137427 1.197115
    24 0.002300 -8.455766 -0.076789 0.045312 0.581077 -0.264569
    25 -0.488518 -2.755602 -0.228260 -0.694823 -0.202299 -0.156365
    26 0.039887 -1.546198 0.022041 -1.878783 -0.006532 0.041911
    27 0.028786 -1.146046 -0.116862 -0.896245 -0.014513 0.018229
    28 0.250027 -2.820665 -0.238396 -0.649506 -0.251254 -0.095032
    29 -0.049759 -1.594604 0.026258 -1.652451 -0.001798 -0.043638
    30 -0.034142 -1.167844 0.049625 -1.032400 0.007706 -0.026929
    31 0.957766 -2.746780 -0.090302 0.006796 -0.183418 0.033529
    32 -0.033420 -1.393223 -0.019070 -0.605197 0.008377 -0.029615
    33 -0.022360 -0.957436 0.007065 -0.523059 0.007970 -0.025072
    34 -1.180681 -2.507217 -0.193859 -0.526507 0.019610 -0.141991
    35 -0.024967 -1.127840 0.017597 -1.592407 -0.013123 -0.063314
    36 -0.020057 -0.906594 0.033528 -1.012385 0.005213 -0.041479
    37 0.634293 -1.197277 0.193192 0.573204 -1.198059 -0.537443
    38 1.446081 -0.251481 0.079230 0.076374 -0.245696 -0.919764
    39 1.065614 -0.128290 0.024478 0.022563 -0.160812 -0.649862
    40 -0.024383 -0.116678 -0.109178 0.409548 3.235475 1.520903
    41 -2.395834 -6.555519 -6.458512 -1.491735 -5.125559 -1.167389
    42 0.069599 -8.466044 0.014073 0.496916 -0.380905 0.395528
    43 0.447953 -2.798986 -0.200443 -0.464249 -0.007376 0.217482
    44 -0.032909 -1.499736 0.032285 -1.517035 0.023286 -0.030067
    45 -0.027022 -1.096452 -0.028023 -0.513423 0.013471 -0.005429
    46 -0.249534 -2.846964 -0.174213 -0.318172 0.095045 0.146924
    47 0.043235 -1.656596 0.064761 -1.531742 -0.023160 0.009433
    48 0.031729 -1.153017 0.058838 -0.570894 -0.005482 0.005484
    49 -0.963866 -2.785145 -0.085350 -0.340675 0.289321 0.090289
    50 0.028479 -1.406973 -0.021074 -1.051346 -0.028907 -0.035726
    51 0.021413 -0.949968 0.020046 -0.495206 -0.008917 -0.020482
    52 1.164475 -2.543940 -0.170330 -0.588558 -0.315114 0.278610
    53 0.024032 -1.144668 -0.009538 -1.230037 0.020506 0.060691
    54 0.014898 -0.895708 -0.019848 -0.595619 -0.000911 0.029698
    55 -0.586770 -1.264477 0.200161 -0.158983 -0.551253 -2.635642
    56 1.565805 0.035243 0.016848 -0.018556 -0.006883 0.883288
    57 1.114041 0.040611 -0.005766 -0.029126 -0.034294 1.046560
    58 -0.072991 -0.279672 -0.016854 0.578273 0.237666 1.530233
    59 -6.647537 5.592984 -0.395688 1.578599 -0.024934 -0.798321
  time 12
    0 3.721075 -9.099313 -4.009594 2.973955 -1.532864 -1.399481
    1 0.052541 0.093240 -1.368013 0.000001 2.794712 0.000000
    2 0.340545 0.000000 0.000000 0.000000 0.000000 0.000000
    3 0.232853 0.000000 -0.068218 -1.335823 -0.000097 4.712388
    4 0.779971 0.000000 1.863581 1.570796 -0.000001 0.000000
    5 0.526153 -4.087935 -0.751131 -0.000001 -1.096125 -3.141591
    6 -0.011397 -0.710795 -0.536931 0.000002 -3.141592 -0.000001
    7 -0.019695 0.346802 -0.526049 0.000002 -3.141592 -0.000001
    8 -0.017859 -0.722185 0.440962 0.000002 -3.141592 -0.000001
    9 -0.026174 0.335806 0.451879 0.000002 -3.141592 -0.000001
    10 -0.010029 -0.347538 -0.523839 0.000001 -3.141592 -0.000001
    11 -0.011838 0.684008 -0.521458 0.000001 -3.141592 -0.000001
    12 -0.021454 -0.350513 0.445313 0.000001 -3.141592 -0.000001
    13 -0.023281 0.681426 0.447730 0.000001 -3.141592 -0.000001
    14 0.594428 0.688249 0.169690 -1.570795 -0.349065 -1.575493
    15 0.000000 0.000001 0.000000 0.000002 -3.141592 -0.000001
    16 0.000000 0.000000 0.000000 0.000002 -3.141592 -0.000001
    17 0.000000 0.000000 0.000001 0.000002 -3.141592 -0.000001
    18 0.000000 0.000000 0.000000 0.000002 -3.141592 -0.000001
    19 0.577926 0.528937 0.130075 -1.570796 0.000000 1.570796
    20 -0.000041 -0.114611 0.000512 0.000000 0.000000 0.000000
    21 -0.002752 9.499025 -3.183072 0.000000 0.000000 0.167707
    22 4.766996 -6.616060 -3.870193 0.511197 -2.014295 -0.807245
    23 3.784601 7.907090 -0.204496 1.566999 -3.138386 1.245416
    24 0.002300 -8.459673 -0.076789 0.054716 0.584158 -0.215295
    25 -0.488518 -2.755602 -0.228260 -0.694823 -0.202299 -0.156365
    26 0.039887 -1.546198 0.022041 -1.878783 -0.006532 0.041911
    27 0.028786 -1.146046 -0.116862 -0.896245 -0.014513 0.018229
    28 0.250027 -2.820665 -0.238396 -0.649506 -0.251254 -0.095032
    29 -0.049759 -1.594604 0.026258 -1.652451 -0.001798 -0.043638
    30 -0.034142 -1.167844 0.049625 -1.032400 0.007706 -0.026929
    31 0.957766 -2.746780 -0.090302 0.006796 -0.183418 0.033529
    32 -0.033420 -1.393223 -0.019070 -0.605197 0.008377 -0.029615
    33 -0.022360 -0.957436 0.007065 -0.523059 0.007970 -0.025072
    34 -1.180681 -2.507217 -0.193859 -0.526507 0.019610 -0.141991
    35 -0.024967 -1.127840 0.017597 -1.592407 -0.013123 -0.063314
    36 -0.020057 -0.906594 0.033528 -1.012385 0.005213 -0.041479
    37 0.634293 -1.197277 0.193192 0.573204 -1.198059 -0.537443
    38 1.446081 -0.251481 0.079230 0.076374 -0.245696 -0.919764
    39 1.065614 -0.128290 0.024478 0.022563 -0.160812 -0.649862
    40 -0.024383 -0.116678 -0.109178 0.409548 3.235475 1.520903
    41 -2.399740 -6.633646 -6.349133 -1.489553 -5.115750 -1.169016
    42 0.073506 -8.469950 0.014073 0.492104 -0.365393 0.361821
    43 0.447953 -2.798986 -0.200443 -0.464249 -0.007376 0.217482
    44 -0.032909 -1.499736 0.032285 -1.517035 0.023286 -0.030067
    45 -0.027022 -1.096452 -0.028023 -0.513423 0.013471 -0.005429
    46 -0.249534 -2.846964 -0.174213 -0.318172 0.095045 0.146924
    47 0.043235 -1.656596 0.064761 -1.531742 -0.023160 0.009433
    48 0.031729 -1.153017 0.058838 -0.570894 -0.005482 0.005484
    49 -0.963866 -2.785145 -0.085350 -0.340675 0.289321 0.090289
    50 0.028479 -1.406973 -0.021074 -1.051346 -0.028907 -0.035726
    51 0.021413 -0.949968 0.020046 -0.495206 -0.008917 -0.020482
    52 1.164475 -2.543940 -0.170330 -0.588558 -0.315114 0.278610
    53 0.024032 -1.144668 -0.009538 -1.230037 0.020506 0.060691
    54 0.014898 -0.895708 -0.019848 -0.595619 -0.000911 0.029698
    55 -0.586770 -1.264477 0.200161 -0.158983 -0.551253 -2.635642
    56 1.565805 0.035243 0.016848 -0.018556 -0.006883 0.883288
    57 1.114041 0.040611 -0.005766 -0.029126 -0.034294 1.046560
    58 -0.072991 -0.279672 -0.016854 0.578273 0.237666 1.530233
    59 -6.479563 5.815647 -0.391781 1.578983 -0.024073 -0.831920
  time 13
    0 3.717169 -9.134470 -3.806463 1.546391 -1.565178 0.026262
    1 0.052541 0.093240 -1.368013 0.000001 2.794712 0.000000
    2 0.340545 0.000000 0.000000 0.000000 0.000000 0.000000
    3 0.232853 0.000000 -0.068218 -1.377008 -0.000097 -1.570700
    4 0.779971 0.000000 1.863581 1.570796 -0.000001 0.000000
    5 0.526153 -4.087935 -0.751131 -0.000001 -1.096125 -3.141591
    6 -0.011397 -0.710795 -0.536931 0.000002 -3.141592 -0.000001
    7 -0.019695 0.346802 -0.526049 0.000002 -3.141592 -0.000001
    8 -0.017859 -0.722185 0.440962 0.000002 -3.141592 -0.000001
    9 -0.026174 0.335806 0.451879 0.000002 -3.141592 -0.000001
    10 -0.010029 -0.347538 -0.523839 0.000001 -3.141592 -0.000001
    11 -0.011838 0.684008 -0.521458 0.000001 -3.141592 -0.000001
    12 -0.021454 -0.350513 0.445313 0.000001 -3.141592 -0.000001
    13 -0.023281 0.681426 0.447730 0.000001 -3.141592 -0.000001
    14 0.594428 0.688249 0.169690 -1.570795 -0.349065 -1.575493
    15 0.000000 0.000001 0.000000 0.000002 -3.141592 -0.000001
    16 0.000000 0.000000 0.000000 0.000002 -3.141592 -0.000001
    17 0.000000 0.000000 0.000001 0.000002 -3.141592 -0.000001
    18 0.000000 0.000000 0.000000 0.000002 -3.141592 -0.000001
    19 0.577926 0.528937 0.130075 -1.570796 0.000000 1.570796
    20 -0.000041 -0.114611 0.000512 0.000000 0.000000 0.000000
    21 -0.002752 9.499025 -3.183072 0.000000 0.000000 0.167707
    22 4.712307 -6.655124 -3.721751 0.487850 -2.002581 -0.780831
    23 3.472091 8.063345 -0.196683 1.567383 3.143847 1.288572
    24 -0.005513 -8.467485 -0.076789 0.069769 0.574803 -0.156287
    25 -0.488518 -2.755602 -0.228260 -0.694823 -0.202299 -0.156365
    26 0.039887 -1.546198 0.022041 -1.878783 -0.006532 0.041911
    27 0.028786 -1.146046 -0.116862 -0.896245 -0.014513 0.018229
    28 0.250027 -2.820665 -0.238396 -0.649506 -0.251254 -0.095032
    29 -0.049759 -1.594604 0.026258 -1.652451 -0.001798 -0.043638
    30 -0.034142 -1.167844 0.049625 -1.032400 0.007706 -0.026929
    31 0.957766 -2.746780 -0.090302 0.006796 -0.183418 0.033529
    32 -0.033420 -1.393223 -0.019070 -0.605197 0.008377 -0.029615
    33 -0.022360 -0.957436 0.007065 -0.523059 0.007970 -0.025072
    34 -1.180681 -2.507217 -0.193859 -0.526507 0.019610 -0.141991
    35 -0.024967 -1.127840 0.017597 -1.592407 -0.013123 -0.063314
    36 -0.020057 -0.906594 0.033528 -1.012385 0.005213 -0.041479
    37 0.634293 -1.197277 0.193192 0.573204 -1.198059 -0.537443
    38 1.446081 -0.251481 0.079230 0.076374 -0.245696 -0.919764
    39 1.065614 -0.128290 0.024478 0.022563 -0.160812 -0.649862
    40 -0.024383 -0.116678 -0.109178 0.409548 3.235475 1.520903
    41 -2.399740 -6.711774 -6.239755 -1.487172 -5.105618 -1.169877
    42 0.081319 -8.473857 0.010167 0.488187 -0.348346 0.319623
    43 0.447953 -2.798986 -0.200443 -0.464249 -0.007376 0.217482
    44 -0.032909 -1.499736 0.032285 -1.517035 0.023286 -0.030067
    45 -0.027022 -1.096452 -0.028023 -0.513423 0.013471 -0.005429
    46 -0.249534 -2.846964 -0.174213 -0.318172 0.095045 0.146924
    47 0.043235 -1.656596 0.064761 -1.531742 -0.023160 0.009433
    48 0.031729 -1.153017 0.058838 -0.570894 -0.005482 0.005484
    49 -0.963866 -2.785145 -0.085350 -0.340675 0.289321 0.090289
    50 0.028479 -1.406973 -0.021074 -1.051346 -0.028907 -0.035726
    51 0.021413 -0.949968 0.020046 -0.495206 -0.008917 -0.020482
    52 1.164475 -2.543940 -0.170330 -0.588558 -0.315114 0.278610
    53 0.024032 -1.144668 -0.009538 -1.230037 0.020506 0.060691
    54 0.014898 -0.895708 -0.019848 -0.595619 -0.000911 0.029698
    55 -0.586770 -1.264477 0.200161 -0.158983 -0.551253 -2.635642
    56 1.565805 0.035243 0.016848 -0.018556 -0.006883 0.883288
    57 1.114041 0.040611 -0.005766 -0.029126 -0.034294 1.046560
    58 -0.072991 -0.279672 -0.016854 0.578273 0.237666 1.530233
    59 -6.303776 6.030498 -0.383969 1.579366 -0.023307 -0.865704
  time 14
    0 3.713263 -9.173534 -3.658021 0.218942 -1.548009 1.352590
    1 0.052541 0.093240 -1.368013 0.000001 2.794712 0.000000
    2 0.340545 0.000000 0.000000 0.000000 0.000000 0.000000
    3 0.232853 0.000000 -0.068218 -1.418289 -0.000097 4.712388
    4 0.779971 0.000000 1.863581 1.570796 -0.000001 0.000000
    5 0.526153 -4.087935 -0.751131 -0.000001 -1.096125 -3.141591
    6 -0.011397 -0.710795 -0.536931 0.000002 -3.141592 -0.000001
    7 -0.019695 0.346802 -0.526049 0.000002 -3.141592 -0.000001
    8 -0.017859 -0.722185 0.440962 0.000002 -3.141592 -0.000001
    9 -0.026174 0.335806 0.451879 0.000002 -3.141592 -0.000001
    10 -0.010029 -0.347538 -0.523839 0.000001 -3.141592 -0.000001
    11 -0.011838 0.684008 -0.521458 0.000001 -3.141592 -0.000001
    12 -0.021454 -0.350513 0.445313 0.000001 -3.141592 -0.000001
    13 -0.023281 0.681426 0.447730 0.000001 -3.141592 -0.000001
    14 0.594428 0.688249 0.169690 -1.570795 -0.349065 -1.575493
    15 0.000000 0.000001 0.000000 0.000002 -3.141592 -0.000001
    16 0.000000 0.000000 0.000000 0.000002 -3.141592 -0.000001
    17 0.000000 0.000000 0.000001 0.000002 -3.141592 -0.000001
    18 0.000000 0.000000 0.000000 0.000002 -3.141592 -0.000001
    19 0.577926 0.528937 0.130075 -1.570796 0.000000 1.570796
    20 -0.000041 -0.114611 0.000512 0.000000 0.000000 0.000000
    21 -0.002752 9.499025 -3.183072 0.000000 0.000000 0.167707
    22 4.665430 -6.690281 -3.573309 0.467267 -1.993036 -0.757320
    23 3.175207 8.200068 -0.188870 1.567862 3.143080 1.328680
    24 -0.005513 -8.471392 -0.076789 0.077566 0.567696 -0.118196
    25 -0.488518 -2.755602 -0.228260 -0.694823 -0.202299 -0.156365
    26 0.039887 -1.546198 0.022041 -1.878783 -0.006532 0.041911
    27 0.028786 -1.146046 -0.116862 -0.896245 -0.014513 0.018229
    28 0.250027 -2.820665 -0.238396 -0.649506 -0.251254 -0.095032
    29 -0.049759 -1.594604 0.026258 -1.652451 -0.001798 -0.043638
    30 -0.034142 -1.167844 0.049625 -1.032400 0.007706 -0.026929
    31 0.957766 -2.746780 -0.090302 0.006796 -0.183418 0.033529
    32 -0.033420 -1.393223 -0.019070 -0.605197 0.008377 -0.029615
    33 -0.022360 -0.957436 0.007065 -0.523059 0.007970 -0.025072
    34 -1.180681 -2.507217 -0.193859 -0.526507 0.019610 -0.141991
    35 -0.024967 -1.127840 0.017597 -1.592407 -0.013123 -0.063314
    36 -0.020057 -0.906594 0.033528 -1.012385 0.005213 -0.041479
    37 0.634293 -1.197277 0.193192 0.573204 -1.198059 -0.537443
    38 1.446081 -0.251481 0.079230 0.076374 -0.245696 -0.919764
    39 1.065614 -0.128290 0.024478 0.022563 -0.160812 -0.649862
    40 -0.024383 -0.116678 -0.109178 0.409548 3.235475 1.520903
    41 -2.399740 -6.774276 -6.142096 -1.485585 -5.099229 -1.170643
    42 0.081319 -8.477763 0.010167 0.485202 -0.338638 0.294408
    43 0.447953 -2.798986 -0.200443 -0.464249 -0.007376 0.217482
    44 -0.032909 -1.499736 0.032285 -1.517035 0.023286 -0.030067
    45 -0.027022 -1.096452 -0.028023 -0.513423 0.013471 -0.005429
    46 -0.249534 -2.846964 -0.174213 -0.318172 0.095045 0.146924
    47 0.043235 -1.656596 0.064761 -1.531742 -0.023160 0.009433
    48 0.031729 -1.153017 0.058838 -0.570894 -0.005482 0.005484
    49 -0.963866 -2.785145 -0.085350 -0.340675 0.289321 0.090289
    50 0.028479 -1.406973 -0.021074 -1.051346 -0.028907 -0.035726
    51 0.021413 -0.949968 0.020046 -0.495206 -0.008917 -0.020482
    52 1.164475 -2.543940 -0.170330 -0.588558 -0.315114 0.278610
    53 0.024032 -1.144668 -0.009538 -1.230037 0.020506 0.060691
    54 0.014898 -0.895708 -0.019848 -0.595619 -0.000911 0.029698
    55 -0.586770 -1.264477 0.200161 -0.158983 -0.551253 -2.635642
    56 1.565805 0.035243 0.016848 -0.018556 -0.006883 0.883288
    57 1.114041 0.040611 -0.005766 -0.029126 -0.034294 1.046560
    58 -0.072991 -0.279672 -0.016854 0.578273 0.237666 1.530233
    59 -6.155334 6.198472 -0.380062 1.579654 -0.022637 -0.892824
  time 15
    0 3.713263 -9.224316 -3.568175 0.181352 -1.544887 1.389883
    1 0.052541 0.093240 -1.368013 0.000001 2.794712 0.000000
    2 0.340545 0.000000 0.000000 0.000000 0.000000 0.000000
    3 0.232853 0.000000 -0.068218 -1.457846 -0.000097 4.712388
    4 0.779971 0.000000 1.863581 1.570796 -0.000001 0.000000
    5 0.526153 -4.087935 -0.751131 -0.000001 -1.096125 -3.141591
    6 -0.011397 -0.710795 -0.536931 0.000002 -3.141592 -0.000001
    7 -0.019695 0.346802 -0.526049 0.000002 -3.141592 -0.000001
    8 -0.017859 -0.722185 0.440962 0.000002 -3.141592 -0.000001
    9 -0.026174 0.335806 0.451879 0.000002 -3.141592 -0.000001
    10 -0.010029 -0.347538 -0.523839 0.000001 -3.141592 -0.000001
    11 -0.011838 0.684008 -0.521458 0.000001 -3.141592 -0.000001
    12 -0.021454 -0.350513 0.445313 0.000001 -3.141592 -0.000001
    13 -0.023281 0.681426 0.447730 0.000001 -3.141592 -0.000001
    14 0.594428 0.688249 0.169690 -1.570795 -0.349065 -1.575493
    15 0.000000 0.000001 0.000000 0.000002 -3.141592 -0.000001
    16 0.000000 0.000000 0.000000 0.000002 -3.141592 -0.000001
    17 0.000000 0.000000 0.000001 0.000002 -3.141592 -0.000001
    18 0.000000 0.000000 0.000000 0.000002 -3.141592 -0.000001
    19 0.577926 0.528937 0.130075 -1.570796 0.000000 1.570796
    20 -0.000041 -0.114611 0.000512 0.000000 0.000000 0.000000
    21 -0.002752 9.499025 -3.183072 0.000000 0.000000 0.167707
    22 4.618554 -6.717626 -3.420961 0.449352 -1.987309 -0.735870
    23 2.882230 8.321165 -0.184964 1.568245 3.142409 1.367359
    24 -0.009419 -8.471392 -0.076789 0.076821 0.565628 -0.105133
    25 -0.488518 -2.755602 -0.228260 -0.694823 -0.202299 -0.156365
    26 0.039887 -1.546198 0.022041 -1.878783 -0.006532 0.041911
    27 0.028786 -1.146046 -0.116862 -0.896245 -0.014513 0.018229
    28 0.250027 -2.820665 -0.238396 -0.649506 -0.251254 -0.095032
    29 -0.049759 -1.594604 0.026258 -1.652451 -0.001798 -0.043638
    30 -0.034142 -1.167844 0.049625 -1.032400 0.007706 -0.026929
    31 0.957766 -2.746780 -0.090302 0.006796 -0.183418 0.033529
    32 -0.033420 -1.393223 -0.019070 -0.605197 0.008377 -0.029615
    33 -0.022360 -0.957436 0.007065 -0.523059 0.007970 -0.025072
    34 -1.180681 -2.507217 -0.193859 -0.526507 0.019610 -0.141991
    35 -0.024967 -1.127840 0.017597 -1.592407 -0.013123 -0.063314
    36 -0.020057 -0.906594 0.033528 -1.012385 0.005213 -0.041479
    37 0.634293 -1.197277 0.193192 0.573204 -1.198059 -0.537443
    38 1.446081 -0.251481 0.079230 0.076374 -0.245696 -0.919764
    39 1.065614 -0.128290 0.024478 0.022563 -0.160812 -0.649862
    40 -0.024383 -0.116678 -0.109178 0.409548 3.235475 1.520903
    41 -2.399740 -6.825058 -6.052249 -1.484990 -5.097422 -1.171696
    42 0.081319 -8.477763 0.010167 0.483449 -0.337441 0.290205
    43 0.447953 -2.798986 -0.200443 -0.464249 -0.007376 0.217482
    44 -0.032909 -1.499736 0.032285 -1.517035 0.023286 -0.030067
    45 -0.027022 -1.096452 -0.028023 -0.513423 0.013471 -0.005429
    46 -0.249534 -2.846964 -0.174213 -0.318172 0.095045 0.146924
    47 0.043235 -1.656596 0.064761 -1.531742 -0.023160 0.009433
    48 0.031729 -1.153017 0.058838 -0.570894 -0.005482 0.005484
    49 -0.963866 -2.785145 -0.085350 -0.340675 0.289321 0.090289
    50 0.028479 -1.406973 -0.021074 -1.051346 -0.028907 -0.035726
    51 0.021413 -0.949968 0.020046 -0.495206 -0.008917 -0.020482
    52 1.164475 -2.543940 -0.170330 -0.588558 -0.315114 0.278610
    53 0.024032 -1.144668 -0.009538 -1.230037 0.020506 0.060691
    54 0.014898 -0.895708 -0.019848 -0.595619 -0.000911 0.029698
    55 -0.586770 -1.264477 0.200161 -0.158983 -0.551253 -2.635642
    56 1.565805 0.035243 0.016848 -0.018556 -0.006883 0.883288
    57 1.114041 0.040611 -0.005766 -0.029126 -0.034294 1.046560
    58 -0.072991 -0.279672 -0.016854 0.578273 0.237666 1.530233
    59 -6.049862 6.319569 -0.376156 1.579846 -0.022158 -0.912447
  time 16
    0 3.713263 -9.279006 -3.486141 0.164913 -1.547292 1.406180
    1 0.052541 0.093240 -1.368013 0.000001 2.794712 0.000000
    2 0.340545 0.000000 0.000000 0.000000 0.000000 0.000000
    3 0.232853 0.000000 -0.068218 -1.493955 -0.000097 -1.570700
    4 0.779971 0.000000 1.863581 1.570796 -0.000001 0.000000
    5 0.526153 -4.087935 -0.751131 -0.000001 -1.096125 -3.141591
    6 -0.011397 -0.710795 -0.536931 0.000002 -3.141592 -0.000001
    7 -0.019695 0.346802 -0.526049 0.000002 -3.141592 -0.000001
    8 -0.017859 -0.722185 0.440962 0.000002 -3.141592 -0.000001
    9 -0.026174 0.335806 0.451879 0.000002 -3.141592 -0.000001
    10 -0.010029 -0.347538 -0.523839 0.000001 -3.141592 -0.000001
    11 -0.011838 0.684008 -0.521458 0.000001 -3.141592 -0.000001
    12 -0.021454 -0.350513 0.445313 0.000001 -3.141592 -0.000001
    13 -0.023281 0.681426 0.447730 0.000001 -3.141592 -0.000001
    14 0.594428 0.688249 0.169690 -1.570795 -0.349065 -1.575493
    15 0.000000 0.000001 0.000000 0.000002 -3.141592 -0.000001
    16 0.000000 0.000000 0.000000 0.000002 -3.141592 -0.000001
    17 0.000000 0.000000 0.000001 0.000002 -3.141592 -0.000001
    18 0.000000 0.000000 0.000000 0.000002 -3.141592 -0.000001
    19 0.577926 0.528937 0.130075 -1.570796 0.000000 1.570796
    20 -0.000041 -0.114611 0.000512 0.000000 0.000000 0.000000
    21 -0.002752 9.499025 -3.183072 0.000000 0.000000 0.167707
    22 4.571678 -6.744971 -3.260800 0.434772 -1.980281 -0.718166
    23 2.589252 8.426637 -0.177151 1.568725 3.141642 1.405467
    24 -0.009419 -8.471392 -0.076789 0.073997 0.561617 -0.099359
    25 -0.488518 -2.755602 -0.228260 -0.694823 -0.202299 -0.156365
    26 0.039887 -1.546198 0.022041 -1.878783 -0.006532 0.041911
    27 0.028786 -1.146046 -0.116862 -0.896245 -0.014513 0.018229
    28 0.250027 -2.820665 -0.238396 -0.649506 -0.251254 -0.095032
    29 -0.049759 -1.594604 0.026258 -1.652451 -0.001798 -0.043638
    30 -0.034142 -1.167844 0.049625 -1.032400 0.007706 -0.026929
    31 0.957766 -2.746780 -0.090302 0.006796 -0.183418 0.033529
    32 -0.033420 -1.393223 -0.019070 -0.605197 0.008377 -0.029615
    33 -0.022360 -0.957436 0.007065 -0.523059 0.007970 -0.025072
    34 -1.180681 -2.507217 -0.193859 -0.526507 0.019610 -0.141991
    35 -0.024967 -1.127840 0.017597 -1.592407 -0.013123 -0.063314
    36 -0.020057 -0.906594 0.033528 -1.012385 0.005213 -0.041479
    37 0.634293 -1.197277 0.193192 0.573204 -1.198059 -0.537443
    38 1.446081 -0.251481 0.079230 0.076374 -0.245696 -0.919764
    39 1.065614 -0.128290 0.024478 0.022563 -0.160812 -0.649862
    40 -0.024383 -0.116678 -0.109178 0.409548 3.235475 1.520903
    41 -2.395834 -6.871935 -5.966309 -1.484858 -5.097551 -1.172749
    42 0.081319 -8.477763 0.010167 0.482591 -0.339263 0.292328
    43 0.447953 -2.798986 -0.200443 -0.464249 -0.007376 0.217482
    44 -0.032909 -1.499736 0.032285 -1.517035 0.023286 -0.030067
    45 -0.027022 -1.096452 -0.028023 -0.513423 0.013471 -0.005429
    46 -0.249534 -2.846964 -0.174213 -0.318172 0.095045 0.146924
    47 0.043235 -1.656596 0.064761 -1.531742 -0.023160 0.009433
    48 0.031729 -1.153017 0.058838 -0.570894 -0.005482 0.005484
    49 -0.963866 -2.785145 -0.085350 -0.340675 0.289321 0.090289
    50 0.028479 -1.406973 -0.021074 -1.051346 -0.028907 -0.035726
    51 0.021413 -0.949968 0.020046 -0.495206 -0.008917 -0.020482
    52 1.164475 -2.543940 -0.170330 -0.588558 -0.315114 0.278610
    53 0.024032 -1.144668 -0.009538 -1.230037 0.020506 0.060691
    54 0.014898 -0.895708 -0.019848 -0.595619 -0.000911 0.029698
    55 -0.586770 -1.264477 0.200161 -0.158983 -0.551253 -2.635642
    56 1.565805 0.035243 0.016848 -0.018556 -0.006883 0.883288
    57 1.114041 0.040611 -0.005766 -0.029126 -0.034294 1.046560
    58 -0.072991 -0.279672 -0.016854 0.578273 0.237666 1.530233
    59 -5.952203 6.421135 -0.372250 1.580037 -0.021679 -0.929478
  time 17
    0 3.713263 -9.333695 -3.419733 0.155954 -1.553155 1.415000
    1 0.052541 0.093240 -1.368013 0.000001 2.794712 0.000000
    2 0.340545 0.000000 0.000000 0.000000 0.000000 0.000000
    3 0.232853 0.000000 -0.068218 -1.524988 -0.000097 4.712388
    4 0.779971 0.000000 1.863581 1.570796 -0.000001 0.000000
    5 0.526153 -4.087935 -0.751131 -0.000001 -1.096125 -3.141591
    6 -0.011397 -0.710795 -0.536931 0.000002 -3.141592 -0.000001
    7 -0.019695 0.346802 -0.526049 0.000002 -3.141592 -0.000001
    8 -0.017859 -0.722185 0.440962 0.000002 -3.141592 -0.000001
    9 -0.026174 0.335806 0.451879 0.000002 -3.141592 -0.000001
    10 -0.010029 -0.347538 -0.523839 0.000001 -3.141592 -0.000001
    11 -0.011838 0.684008 -0.521458 0.000001 -3.141592 -0.000001
    12 -0.021454 -0.350513 0.445313 0.000001 -3.141592 -0.000001
    13 -0.023281 0.681426 0.447730 0.000001 -3.141592 -0.000001
    14 0.594428 0.688249 0.169690 -1.570795 -0.349065 -1.575493
    15 0.000000 0.000001 0.000000 0.000002 -3.141592 -0.000001
    16 0.000000 0.000000 0.000000 0.000002 -3.141592 -0.000001
    17 0.000000 0.000000 0.000001 0.000002 -3.141592 -0.000001
    18 0.000000 0.000000 0.000000 0.000002 -3.141592 -0.000001
    19 0.577926 0.528937 0.130075 -1.570796 0.000000 1.570796
    20 -0.000041 -0.114611 0.000512 0.000000 0.000000 0.000000
    21 -0.002752 9.499025 -3.183072 0.000000 0.000000 0.167707
    22 4.532614 -6.764502 -3.100639 0.422193 -1.972558 -0.702711
    23 2.307993 8.520390 -0.173245 1.569204 3.141067 1.442145
    24 -0.009419 -8.471392 -0.076789 0.070107 0.556523 -0.098084
    25 -0.488518 -2.755602 -0.228260 -0.694823 -0.202299 -0.156365
    26 0.039887 -1.546198 0.022041 -1.878783 -0.006532 0.041911
    27 0.028786 -1.146046 -0.116862 -0.896245 -0.014513 0.018229
    28 0.250027 -2.820665 -0.238396 -0.649506 -0.251254 -0.095032
    29 -0.049759 -1.594604 0.026258 -1.652451 -0.001798 -0.043638
    30 -0.034142 -1.167844 0.049625 -1.032400 0.007706 -0.026929
    31 0.957766 -2.746780 -0.090302 0.006796 -0.183418 0.033529
    32 -0.033420 -1.393223 -0.019070 -0.605197 0.008377 -0.029615
    33 -0.022360 -0.957436 0.007065 -0.523059 0.007970 -0.025072
    34 -1.180681 -2.507217 -0.193859 -0.526507 0.019610 -0.141991
    35 -0.024967 -1.127840 0.017597 -1.592407 -0.013123 -0.063314
    36 -0.020057 -0.906594 0.033528 -1.012385 0.005213 -0.041479
    37 0.634293 -1.197277 0.193192 0.573204 -1.198059 -0.537443
    38 1.446081 -0.251481 0.079230 0.076374 -0.245696 -0.919764
    39 1.065614 -0.128290 0.024478 0.022563 -0.160812 -0.649862
    40 -0.024383 -0.116678 -0.109178 0.409548 3.235475 1.520903
    41 -2.391927 -6.914905 -5.880369 -1.484990 -5.098906 -1.173802
    42 0.081319 -8.473857 0.010167 0.482330 -0.342906 0.298350
    43 0.447953 -2.798986 -0.200443 -0.464249 -0.007376 0.217482
    44 -0.032909 -1.499736 0.032285 -1.517035 0.023286 -0.030067
    45 -0.027022 -1.096452 -0.028023 -0.513423 0.013471 -0.005429
    46 -0.249534 -2.846964 -0.174213 -0.318172 0.095045 0.146924
    47 0.043235 -1.656596 0.064761 -1.531742 -0.023160 0.009433
    48 0.031729 -1.153017 0.058838 -0.570894 -0.005482 0.005484
    49 -0.963866 -2.785145 -0.085350 -0.340675 0.289321 0.090289
    50 0.028479 -1.406973 -0.021074 -1.051346 -0.028907 -0.035726
    51 0.021413 -0.949968 0.020046 -0.495206 -0.008917 -0.020482
    52 1.164475 -2.543940 -0.170330 -0.588558 -0.315114 0.278610
    53 0.024032 -1.144668 -0.009538 -1.230037 0.020506 0.060691
    54 0.014898 -0.895708 -0.019848 -0.595619 -0.000911 0.029698
    55 -0.586770 -1.264477 0.200161 -0.158983 -0.551253 -2.635642
    56 1.565805 0.035243 0.016848 -0.018556 -0.006883 0.883288
    57 1.114041 0.040611 -0.005766 -0.029126 -0.034294 1.046560
    58 -0.072991 -0.279672 -0.016854 0.578273 0.237666 1.530233
    59 -5.866263 6.507075 -0.368343 1.580133 -0.021392 -0.944103
  time 18
    0 3.709356 -9.380571 -3.361137 0.149951 -1.560327 1.420944
    1 0.052541 0.093240 -1.368013 0.000001 2.794712 0.000000
    2 0.340545 0.000000 0.000000 0.000000 0.000000 0.000000
    3 0.232853 0.000000 -0.068218 -1.549315 -0.000097 4.712388
    4 0.779971 0.000000 1.863581 1.570796 -0.000001 0.000000
    5 0.526153 -4.087935 -0.751131 -0.000001 -1.096125 -3.141591
    6 -0.011397 -0.710795 -0.536931 0.000002 -3.141592 -0.000001
    7 -0.019695 0.346802 -0.526049 0.000002 -3.141592 -0.000001
    8 -0.017859 -0.722185 0.440962 0.000002 -3.141592 -0.000001
    9 -0.026174 0.335806 0.451879 0.000002 -3.141592 -0.000001
    10 -0.010029 -0.347538 -0.523839 0.000001 -3.141592 -0.000001
    11 -0.011838 0.684008 -0.521458 0.000001 -3.141592 -0.000001
    12 -0.021454 -0.350513 0.445313 0.000001 -3.141592 -0.000001
    13 -0.023281 0.681426 0.447730 0.000001 -3.141592 -0.000001
    14 0.594428 0.688249 0.169690 -1.570795 -0.349065 -1.575493
    15 0.000000 0.000001 0.000000 0.000002 -3.141592 -0.000001
    16 0.000000 0.000000 0.000000 0.000002 -3.141592 -0.000001
    17 0.000000 0.000000 0.000001 0.000002 -3.141592 -0.000001
    18 0.000000 0.000000 0.000000 0.000002 -3.141592 -0.000001
    19 0.577926 0.528937 0.130075 -1.570796 0.000000 1.570796
    20 -0.000041 -0.114611 0.000512 0.000000 0.000000 0.000000
    21 -0.002752 9.499025 -3.183072 0.000000 0.000000 0.167707
    22 4.493550 -6.784034 -2.948290 0.410281 -1.964922 -0.688567
    23 2.038454 8.594611 -0.165432 1.569588 3.140492 1.476156
    24 -0.013325 -8.467485 -0.076789 0.066115 0.551276 -0.098742
    25 -0.488518 -2.755602 -0.228260 -0.694823 -0.202299 -0.156365
    26 0.039887 -1.546198 0.022041 -1.878783 -0.006532 0.041911
    27 0.028786 -1.146046 -0.116862 -0.896245 -0.014513 0.018229
    28 0.250027 -2.820665 -0.238396 -0.649506 -0.251254 -0.095032
    29 -0.049759 -1.594604 0.026258 -1.652451 -0.001798 -0.043638
    30 -0.034142 -1.167844 0.049625 -1.032400 0.007706 -0.026929
    31 0.957766 -2.746780 -0.090302 0.006796 -0.183418 0.033529
    32 -0.033420 -1.393223 -0.019070 -0.605197 0.008377 -0.029615
    33 -0.022360 -0.957436 0.007065 -0.523059 0.007970 -0.025072
    34 -1.180681 -2.507217 -0.193859 -0.526507 0.019610 -0.141991
    35 -0.024967 -1.127840 0.017597 -1.592407 -0.013123 -0.063314
    36 -0.020057 -0.906594 0.033528 -1.012385 0.005213 -0.041479
    37 0.634293 -1.197277 0.193192 0.573204 -1.198059 -0.537443
    38 1.446081 -0.251481 0.079230 0.076374 -0.245696 -0.919764
    39 1.065614 -0.128290 0.024478 0.022563 -0.160812 -0.649862
    40 -0.024383 -0.116678 -0.109178 0.409548 3.235475 1.520903
    41 -2.388021 -6.946156 -5.806148 -1.485255 -5.100778 -1.174664
    42 0.081319 -8.473857 0.010167 0.482367 -0.347227 0.305932
    43 0.447953 -2.798986 -0.200443 -0.464249 -0.007376 0.217482
    44 -0.032909 -1.499736 0.032285 -1.517035 0.023286 -0.030067
    45 -0.027022 -1.096452 -0.028023 -0.513423 0.013471 -0.005429
    46 -0.249534 -2.846964 -0.174213 -0.318172 0.095045 0.146924
    47 0.043235 -1.656596 0.064761 -1.531742 -0.023160 0.009433
    48 0.031729 -1.153017 0.058838 -0.570894 -0.005482 0.005484
    49 -0.963866 -2.785145 -0.085350 -0.340675 0.289321 0.090289
    50 0.028479 -1.406973 -0.021074 -1.051346 -0.028907 -0.035726
    51 0.021413 -0.949968 0.020046 -0.495206 -0.008917 -0.020482
    52 1.164475 -2.543940 -0.170330 -0.588558 -0.315114 0.278610
    53 0.024032 -1.144668 -0.009538 -1.230037 0.020506 0.060691
    54 0.014898 -0.895708 -0.019848 -0.595619 -0.000911 0.029698
    55 -0.586770 -1.264477 0.200161 -0.158983 -0.551253 -2.635642
    56 1.565805 0.035243 0.016848 -0.018556 -0.006883 0.883288
    57 1.114041 0.040611 -0.005766 -0.029126 -0.034294 1.046560
    58 -0.072991 -0.279672 -0.016854 0.578273 0.237666 1.530233
    59 -5.795948 6.577389 -0.368343 1.580325 -0.021009 -0.956228
  time 19
    0 3.709356 -9.415728 -3.314261 0.138037 -1.566781 1.432831
    1 0.052541 0.093240 -1.368013 0.000001 2.794712 0.000000
    2 0.340545 0.000000 0.000000 0.000000 0.000000 0.000000
    3 0.232853 0.000000 -0.068218 -1.565119 -0.000097 -1.570700
    4 0.779971 0.000000 1.863581 1.570796 -0.000001 0.000000
    5 0.526153 -4.087935 -0.751131 -0.000001 -1.096125 -3.141591
    6 -0.011397 -0.710795 -0.536931 0.000002 -3.141592 -0.000001
    7 -0.019695 0.346802 -0.526049 0.000002 -3.141592 -0.000001
    8 -0.017859 -0.722185 0.440962 0.000002 -3.141592 -0.000001
    9 -0.026174 0.335806 0.451879 0.000002 -3.141592 -0.000001
    10 -0.010029 -0.347538 -0.523839 0.000001 -3.141592 -0.000001
    11 -0.011838 0.684008 -0.521458 0.000001 -3.141592 -0.000001
    12 -0.021454 -0.350513 0.445313 0.000001 -3.141592 -0.000001
    13 -0.023281 0.681426 0.447730 0.000001 -3.141592 -0.000001
    14 0.594428 0.688249 0.169690 -1.570795 -0.349065 -1.575493
    15 0.000000 0.000001 0.000000 0.000002 -3.141592 -0.000001
    16 0.000000 0.000000 0.000000 0.000002 -3.141592 -0.000001
    17 0.000000 0.000000 0.000001 0.000002 -3.141592 -0.000001
    18 0.000000 0.000000 0.000000 0.000002 -3.141592 -0.000001
    19 0.577926 0.528937 0.130075 -1.570796 0.000000 1.570796
    20 -0.000041 -0.114611 0.000512 0.000000 0.000000 0.000000
    21 -0.002752 9.499025 -3.183072 0.000000 0.000000 0.167707
    22 4.462299 -6.795753 -2.815474 0.398751 -1.958327 -0.675078
    23 1.807978 8.653206 -0.161526 1.569971 3.140013 1.505593
    24 -0.013325 -8.467485 -0.076789 0.062868 0.546792 -0.099118
    25 -0.488518 -2.755602 -0.228260 -0.694823 -0.202299 -0.156365
    26 0.039887 -1.546198 0.022041 -1.878783 -0.006532 0.041911
    27 0.028786 -1.146046 -0.116862 -0.896245 -0.014513 0.018229
    28 0.250027 -2.820665 -0.238396 -0.649506 -0.251254 -0.095032
    29 -0.049759 -1.594604 0.026258 -1.652451 -0.001798 -0.043638
    30 -0.034142 -1.167844 0.049625 -1.032400 0.007706 -0.026929
    31 0.957766 -2.746780 -0.090302 0.006796 -0.183418 0.033529
    32 -0.033420 -1.393223 -0.019070 -0.605197 0.008377 -0.029615
    33 -0.022360 -0.957436 0.007065 -0.523059 0.007970 -0.025072
    34 -1.180681 -2.507217 -0.193859 -0.526507 0.019610 -0.141991
    35 -0.024967 -1.127840 0.017597 -1.592407 -0.013123 -0.063314
    36 -0.020057 -0.906594 0.033528 -1.012385 0.005213 -0.041479
    37 0.634293 -1.197277 0.193192 0.573204 -1.198059 -0.537443
    38 1.446081 -0.251481 0.079230 0.076374 -0.245696 -0.919764
    39 1.065614 -0.128290 0.024478 0.022563 -0.160812 -0.649862
    40 -0.024383 -0.116678 -0.109178 0.409548 3.235475 1.520903
    41 -2.388021 -6.973500 -5.747552 -1.485519 -5.102391 -1.175429
    42 0.077412 -8.473857 0.010167 0.482442 -0.351053 0.312691
    43 0.447953 -2.798986 -0.200443 -0.464249 -0.007376 0.217482
    44 -0.032909 -1.499736 0.032285 -1.517035 0.023286 -0.030067
    45 -0.027022 -1.096452 -0.028023 -0.513423 0.013471 -0.005429
    46 -0.249534 -2.846964 -0.174213 -0.318172 0.095045 0.146924
    47 0.043235 -1.656596 0.064761 -1.531742 -0.023160 0.009433
    48 0.031729 -1.153017 0.058838 -0.570894 -0.005482 0.005484
    49 -0.963866 -2.785145 -0.085350 -0.340675 0.289321 0.090289
    50 0.028479 -1.406973 -0.021074 -1.051346 -0.028907 -0.035726
    51 0.021413 -0.949968 0.020046 -0.495206 -0.008917 -0.020482
    52 1.164475 -2.543940 -0.170330 -0.588558 -0.315114 0.278610
    53 0.024032 -1.144668 -0.009538 -1.230037 0.020506 0.060691
    54 0.014898 -0.895708 -0.019848 -0.595619 -0.000911 0.029698
    55 -0.586770 -1.264477 0.200161 -0.158983 -0.551253 -2.635642
    56 1.565805 0.035243 0.016848 -0.018556 -0.006883 0.883288
    57 1.114041 0.040611 -0.005766 -0.029126 -0.034294 1.046560
    58 -0.072991 -0.279672 -0.016854 0.578273 0.237666 1.530233
    59 -5.741259 6.632079 -0.364437 1.580421 -0.020818 -0.965669
  time 20
    0 3.705450 -9.443073 -3.286916 1.570773 -1.570282 -0.000006
    1 0.052541 0.093240 -1.368013 0.000001 2.794712 0.000000
    2 0.340545 0.000000 0.000000 0.000000 0.000000 0.000000
    3 0.232853 0.000000 -0.068218 1.570796 -3.141592 1.570796
    4 0.779971 0.000000 1.863581 1.570796 -0.000001 0.000000
    5 0.526153 -4.087935 -0.751131 -0.000001 -1.096125 -3.141591
    6 -0.011397 -0.710795 -0.536931 0.000002 -3.141592 -0.000001
    7 -0.019695 0.346802 -0.526049 0.000002 -3.141592 -0.000001
    8 -0.017859 -0.722185 0.440962 0.000002 -3.141592 -0.000001
    9 -0.026174 0.335806 0.451879 0.000002 -3.141592 -0.000001
    10 -0.010029 -0.347538 -0.523839 0.000001 -3.141592 -0.000001
    11 -0.011838 0.684008 -0.521458 0.000001 -3.141592 -0.000001
    12 -0.021454 -0.350513 0.445313 0.000001 -3.141592 -0.000001
    13 -0.023281 0.681426 0.447730 0.000001 -3.141592 -0.000001
    14 0.594428 0.688249 0.169690 -1.570795 -0.349065 -1.575493
    15 0.000000 0.000001 0.000000 0.000002 -3.141592 -0.000001
    16 0.000000 0.000000 0.000000 0.000002 -3.141592 -0.000001
    17 0.000000 0.000000 0.000001 0.000002 -3.141592 -0.000001
    18 0.000000 0.000000 0.000000 0.000002 -3.141592 -0.000001
    19 0.577926 0.528937 0.130075 -1.570796 0.000000 1.570796
    20 -0.000041 -0.114611 0.000512 0.000000 0.000000 0.000000
    21 -0.002752 9.499025 -3.183072 0.000000 0.000000 0.167707
    22 4.442767 -6.799660 -2.725627 0.387888 -1.953815 -0.662901
    23 1.632191 8.692270 -0.157619 1.570259 3.139629 1.527791
    24 -0.013325 -8.467485 -0.076789 0.061075 0.544058 -0.097359
    25 -0.488518 -2.755602 -0.228260 -0.694823 -0.202299 -0.156365
    26 0.039887 -1.546198 0.022041 -1.878783 -0.006532 0.041911
    27 0.028786 -1.146046 -0.116862 -0.896245 -0.014513 0.018229
    28 0.250027 -2.820665 -0.238396 -0.649506 -0.251254 -0.095032
    29 -0.049759 -1.594604 0.026258 -1.652451 -0.001798 -0.043638
    30 -0.034142 -1.167844 0.049625 -1.032400 0.007706 -0.026929
    31 0.957766 -2.746780 -0.090302 0.006796 -0.183418 0.033529
    32 -0.033420 -1.393223 -0.019070 -0.605197 0.008377 -0.029615
    33 -0.022360 -0.957436 0.007065 -0.523059 0.007970 -0.025072
    34 -1.180681 -2.507217 -0.193859 -0.526507 0.019610 -0.141991
    35 -0.024967 -1.127840 0.017597 -1.592407 -0.013123 -0.063314
    36 -0.020057 -0.906594 0.033528 -1.012385 0.005213 -0.041479
    37 0.634293 -1.197277 0.193192 0.573204 -1.198059 -0.537443
    38 1.446081 -0.251481 0.079230 0.076374 -0.245696 -0.919764
    39 1.065614 -0.128290 0.024478 0.022563 -0.160812 -0.649862
    40 -0.024383 -0.116678 -0.109178 0.409548 3.235475 1.520903
    41 -2.384115 -6.993032 -5.708489 -1.485585 -5.103166 -1.175908
    42 0.077412 -8.473857 0.010167 0.482367 -0.353187 0.316330
    43 0.447953 -2.798986 -0.200443 -0.464249 -0.007376 0.217482
    44 -0.032909 -1.499736 0.032285 -1.517035 0.023286 -0.030067
    45 -0.027022 -1.096452 -0.028023 -0.513423 0.013471 -0.005429
    46 -0.249534 -2.846964 -0.174213 -0.318172 0.095045 0.146924
    47 0.043235 -1.656596 0.064761 -1.531742 -0.023160 0.009433
    48 0.031729 -1.153017 0.058838 -0.570894 -0.005482 0.005484
    49 -0.963866 -2.785145 -0.085350 -0.340675 0.289321 0.090289
    50 0.028479 -1.406973 -0.021074 -1.051346 -0.028907 -0.035726
    51 0.021413 -0.949968 0.020046 -0.495206 -0.008917 -0.020482
    52 1.164475 -2.543940 -0.170330 -0.588558 -0.315114 0.278610
    53 0.024032 -1.144668 -0.009538 -1.230037 0.020506 0.060691
    54 0.014898 -0.895708 -0.019848 -0.595619 -0.000911 0.029698
    55 -0.586770 -1.264477 0.200161 -0.158983 -0.551253 -2.635642
    56 1.565805 0.035243 0.016848 -0.018556 -0.006883 0.883288
    57 1.114041 0.040611 -0.005766 -0.029126 -0.034294 1.046560
    58 -0.072991 -0.279672 -0.016854 0.578273 0.237666 1.530233
    59 -5.702195 6.671142 -0.364437 1.580421 -0.020626 -0.972334
end
