// Created by Crowbar 0.49.0.0

$modelname "weapons/tfa_cso/c_coilmg.mdl"

$Include "csonline_gmod.qci"

$bodygroup "weapon"
{
	studio "v_coilmg"
}

$CDMaterials "models\weapons\tfa_cso\coilmg\"

$attachment 0 "coil" 11 0 0

$definebone "root" "" 0.000000 0.000000 0.000000 0.000000 0.000000 0.000000 0.000000 0.000000 0.000000 -0.000000 0.000000 0.000000
$definebone "Bone01" "root" 9.213061 0.524484 -7.904157 -87.597662 177.381763 171.407643 0.000000 0.000000 0.000000 -0.000000 0.000000 0.000002
$definebone "Bone_Lefthand" "Bone01" -0.071918 -8.498732 -0.104136 16.186515 3.297716 8.666101 0.000000 0.000000 0.000000 0.000002 -0.000000 0.000002
$definebone "coilmg_root" "Bone_Lefthand" 3.336524 -1.717669 2.732183 14.096713 179.366958 -3.080911 0.000000 0.000000 0.000000 0.000003 0.000000 -0.000003
$definebone "coil" "coilmg_root" -0.179153 7.772105 0.000706 -0.001716 89.770113 0.000117 0.000000 -0.000000 0.000000 0.000003 -0.000000 0.000003
$definebone "battery" "coilmg_root" 2.021399 3.485291 -0.000179 -0.000513 -0.229870 0.000112 0.000000 0.000000 0.000000 0.000003 0.000000 -0.000003
$definebone "reload02" "coilmg_root" -1.443540 3.689672 1.587837 45.000108 -0.231586 179.997562 0.000000 0.000000 0.000000 -0.000003 -0.000002 -0.000002
$definebone "reload" "coilmg_root" -0.090965 5.612166 1.353291 89.999976 179.885028 0.000000 0.000000 0.000000 0.000000 0.000003 -0.000003 0.000000
$definebone "reload01" "coilmg_root" -1.447341 2.742330 1.587809 45.000169 -0.231586 179.997562 0.000000 0.000000 0.000000 -0.000003 -0.000002 -0.000002
$definebone "trigger" "coilmg_root" 0.748279 0.812449 -0.000037 0.000003 0.000000 -0.000003 0.000000 0.000000 0.000000 0.000003 0.000000 -0.000003
$definebone "handle" "coilmg_root" 1.428550 7.411647 0.590113 -89.999983 89.656609 0.000000 0.000000 0.000000 0.000000 -0.000003 0.000003 0.000000

$sequence "idle1" {
	"v_coilmg_anims\idle1"
	fps 30
	loop
	activity "ACT_VM_IDLE" 1
	snap
}
$sequence "reload" {
	"v_coilmg_anims\reload"
	{ event 5004 17 "CoilMG.ClipOut" }
	{ event 5004 66 "CoilMG.ClipIn" }
	fps 30
	activity "ACT_VM_RELOAD" 1
	snap
}
$sequence "draw" {
	"v_coilmg_anims\draw"
	fps 30
	activity "ACT_VM_DRAW" 1
	snap
}
$sequence "shoot1" {
	"v_coilmg_anims\shoot1"
	{ event 5001 0 "#I19 S0.11 R2 F15 P120 T0.5 A1 L0.1 O0" }
	fps 30
	activity "ACT_VM_PRIMARYATTACK" 1
	snap
}
$sequence "shoot2" {
	"v_coilmg_anims\shoot2"
	{ event 5001 0 "#I19 S0.11 R2 F15 P120 T0.5 A1 L0.1 O0" }
	fps 30
	//activity "ACT_VM_PRIMARYATTACK" 2
	snap
}
$sequence "shoot3" {
	"v_coilmg_anims\shoot3"
	{ event 5001 0 "#I19 S0.11 R2 F15 P120 T0.5 A1 L0.1 O0" }
	fps 30
	//activity "ACT_VM_PRIMARYATTACK" 3
	snap
}
