// Created by Crowbar 0.34.0.0

$ModelName "weapons/tfa_cso/w_galilcraft.mdl"

$BodyGroup "studio"
{
	studio "v_galilcraft"
}

$collisionmodel "v_galilcraft.smd"
{
	$mass 9
}

$CDMaterials "models\weapons\tfa_cso\galilcraft"

$attachment "0" "root" -0.20 -17.20 0.10 rotate -0 0 0

$Sequence "idle" {
	"anims\idle.smd"
	fps 30
}