// Created by Crowbar 0.49.0.0

$modelname "weapons/tfa_cso/c_m2_v6.mdl"

$Include "csonline_gmod.qci"

$bodygroup "weapon"
{
	studio "v_m2"
}

$CDMaterials "models\weapons\tfa_cso\m2_v6\"

$attachment 0 "Bone02" 6.2 -37 0
//$attachment 1 "Bone02" 7 0 -2


$sequence "idleA" {
	"v_m2_anims\idleA"
	fps 30
	loop
	activity "ACT_VM_IDLE" 1
	snap
}
$sequence "idleB" {
	"v_m2_anims\idleB"
	fps 30
	loop
}
$sequence "drawA" {
	"v_m2_anims\drawA"
	fps 30
	activity "ACT_VM_DRAW" 1
	snap
}
$sequence "draw_empty" {
	"v_m2_anims\draw_empty"
	fps 30
}
$sequence "changeA" {
	"v_m2_anims\changeA"
	{ event 5004 75 "weapons/m2_clipin2.wav" }
	{ event 5004 110 "weapons/m2_draw.wav" }
	fps 30
}
$sequence "changeA_empty" {
	"v_m2_anims\changeA_empty"
	{ event 5004 75 "weapons/m2_clipin2.wav" }
	{ event 5004 110 "weapons/m2_draw.wav" }
	fps 30
}
$sequence "changeB" {
	"v_m2_anims\changeB"
	{ event 5004 3 "weapons/m2_draw.wav" }
	{ event 5004 67 "weapons/m2_clipin2.wav" }
	fps 30
}
$sequence "changeB_empty" {
	"v_m2_anims\changeB_empty"
	{ event 5004 3 "weapons/m2_draw.wav" }
	{ event 5004 67 "weapons/m2_clipin2.wav" }
	fps 30
}
$sequence "reloadA" {
	"v_m2_anims\reloadA"
	{ event 5004 36 "M2.Open" }
	{ event 5004 62 "M2.ClipOut" }
	{ event 5004 100 "M2.ClipIn" }
	{ event 5004 131 "M2.Close" }
	{ event 5004 143 "M2.ClipLock" }
	fps 30
	activity "ACT_VM_RELOAD" 1
	snap
}
$sequence "reloadB" {
	"v_m2_anims\reloadB"
	{ event 5004 10 "weapons/m2_open.wav" }
	{ event 5004 33 "weapons/m2_clipout.wav" }
	{ event 5004 69 "weapons/m2_clipin.wav" }
	{ event 5004 100 "weapons/m2_close.wav" }
	{ event 5004 116 "weapons/m2_foley1.wav" }
	{ event 5004 131 "weapons/m2_foley2.wav" }
	{ event 5004 152 "weapons/m2_draw.wav" }
	fps 30
}
$sequence "shootA" {
	"v_m2_anims\shootA"
	{ event 5001 0 "31" }
	fps 30
	activity "ACT_VM_PRIMARYATTACK" 1
	snap
}
$sequence "shootB" {
	"v_m2_anims\shootB"
	{ event 5001 0 "31" }
	fps 30
}
$sequence "idleA_empty" {
	"v_m2_anims\idleA_empty"
	fps 30
	loop
}
$sequence "idleB_empty" {
	"v_m2_anims\idleB_empty"
	fps 30
	loop
}
