version 1
nodes
  0 "Bone01" -1
  1 "Bone_Lefthand" 0
  2 "Bone_USAS" 1
  3 "Bone_Cover" 2
  4 "Bone_Reload" 2
  5 "Bone_Magazine" 2
  6 "Bone_Trigger" 2
  7 "Bone4" 1
  8 "Bone13" 7
  9 "Bone14" 8
  10 "Bone15" 9
  11 "Bone17" 7
  12 "Bone18" 11
  13 "Bone19" 12
  14 "Bone21" 7
  15 "Bone22" 14
  16 "Bone23" 15
  17 "Bone05" 7
  18 "Bone06" 17
  19 "Bone07" 18
  20 "Bone09" 7
  21 "Bone10" 20
  22 "Bone11" 21
  23 "Bone04" -1
  24 "Bone_Righthand" 23
  25 "Bone26" 24
  26 "Bone35" 25
  27 "Bone36" 26
  28 "Bone37" 27
  29 "Bone31" 25
  30 "Bone32" 29
  31 "Bone33" 30
  32 "Bone39" 25
  33 "Bone40" 32
  34 "Bone41" 33
  35 "Bone43" 25
  36 "Bone44" 35
  37 "Bone45" 36
  38 "Bone27" 25
  39 "Bone28" 38
  40 "Bone29" 39
end
skeleton
  time 0
    0 8.808327 3.061990 -7.530708 0.220126 -2.016452 -0.239183
    1 -0.021280 -8.563255 -0.000751 0.036500 0.294783 -0.102582
    2 0.259136 -2.632766 1.783422 0.291602 1.732586 0.285179
    3 0.697652 -4.251642 3.687078 0.000000 0.000000 0.000000
    4 0.999999 -13.266332 3.484482 0.000000 0.000000 0.000000
    5 1.000000 -5.088155 2.193883 -0.065377 0.000000 0.000000
    6 1.000000 -1.827746 1.296098 -0.312151 0.000000 0.000000
    7 -0.003480 -0.404828 0.000000 -0.000001 0.000000 0.000000
    8 -0.519309 -2.501154 -0.278957 -0.879568 -0.036235 -0.324918
    9 -0.010598 -1.208185 -0.000002 -1.185576 0.000000 0.000000
    10 -0.000001 -0.763066 0.000000 -0.741497 0.000000 0.000000
    11 0.105981 -2.607134 -0.278958 -0.872556 -0.035899 -0.258089
    12 0.000000 -1.250579 0.000000 -0.794537 0.000000 0.000000
    13 -0.000001 -0.932634 0.000000 -1.567302 0.000000 0.000000
    14 0.763064 -2.490556 -0.278958 -0.313873 0.040172 0.012324
    15 -0.012322 -1.280917 0.000000 0.039083 0.000000 0.000000
    16 -0.001696 -0.738090 0.129481 -0.814848 0.000000 0.000000
    17 0.354567 0.016267 0.318133 0.308709 -0.503867 -0.874878
    18 1.887165 0.012877 0.000000 -0.095972 -0.113059 -1.028586
    19 1.001874 -0.000270 0.000000 0.000000 0.000000 -0.250165
    20 -1.123359 -2.195093 -0.278957 -1.061907 0.026409 -0.326972
    21 0.010772 -0.963791 0.000001 -0.810998 0.000000 0.000000
    22 -0.010413 -0.631916 0.000000 -0.691889 0.000000 0.000000
    23 1.925654 -12.791969 -10.813391 5.508890 0.355887 0.488823
    24 0.089929 -8.543165 0.000003 0.374995 -0.703673 0.095606
    25 0.000000 -0.359714 0.000000 0.000000 0.000000 0.000000
    26 -0.170479 -2.636148 -0.277655 -1.050456 -0.102575 0.176833
    27 0.010599 -1.261177 0.000001 -0.391089 0.000000 0.000000
    28 -0.000001 -0.943234 -0.000001 -0.651632 0.000000 0.000000
    29 -0.827561 -2.508971 -0.277655 -0.652116 -0.046319 0.035345
    30 0.000001 -1.292971 0.000000 -0.708413 0.000000 0.000000
    31 -0.000002 -0.752465 -0.000001 -0.777553 -0.248766 0.191906
    32 0.444213 -2.561961 -0.277655 -1.339790 -0.042325 0.216626
    33 0.021023 -1.208187 0.000000 -0.024681 0.000000 0.000000
    34 0.010596 -0.741866 -0.000002 -0.686572 0.000000 0.000000
    35 1.047446 -2.222821 -0.277655 -1.342479 -0.050027 0.240249
    36 -0.000001 -0.996223 -0.000002 0.018465 -0.000010 0.000000
    37 -0.000001 -0.614691 0.000000 -0.825953 -0.000010 -0.000006
    38 -0.308256 -0.007813 0.307165 -0.179435 -0.200623 -2.505595
    39 1.978378 0.019543 0.000000 0.066814 0.008433 0.118455
    40 0.980610 0.058420 -0.012628 0.223859 0.027636 -0.077199
  time 1
    0 8.808327 3.061990 -7.530708 0.220126 -2.016452 -0.239183
    1 -0.021280 -8.563255 -0.000751 0.036500 0.294783 -0.102582
    2 0.259136 -2.632766 1.783422 0.291602 1.732586 0.285179
    3 0.697652 -4.251642 3.687078 0.000000 0.000000 0.000000
    4 0.999999 -13.266332 3.484482 0.000000 0.000000 0.000000
    5 1.000000 -5.088155 2.193883 -0.065377 0.000000 0.000000
    6 1.000000 -1.827746 1.296098 -0.312151 0.000000 0.000000
    7 -0.003480 -0.404828 0.000000 -0.000001 0.000000 0.000000
    8 -0.519309 -2.501154 -0.278957 -0.879568 -0.036235 -0.324918
    9 -0.010598 -1.208185 -0.000002 -1.185576 0.000000 0.000000
    10 -0.000001 -0.763066 0.000000 -0.741497 0.000000 0.000000
    11 0.105981 -2.607134 -0.278958 -0.872556 -0.035899 -0.258089
    12 0.000000 -1.250579 0.000000 -0.794537 0.000000 0.000000
    13 -0.000001 -0.932634 0.000000 -1.567302 0.000000 0.000000
    14 0.763064 -2.490556 -0.278958 -0.313873 0.040172 0.012324
    15 -0.012322 -1.280917 0.000000 0.039083 0.000000 0.000000
    16 -0.001696 -0.738090 0.129481 -0.814848 0.000000 0.000000
    17 0.354567 0.016267 0.318133 0.308709 -0.503867 -0.874878
    18 1.887165 0.012877 0.000000 -0.095972 -0.113059 -1.028586
    19 1.001874 -0.000270 0.000000 0.000000 0.000000 -0.250165
    20 -1.123359 -2.195093 -0.278957 -1.061907 0.026409 -0.326972
    21 0.010772 -0.963791 0.000001 -0.810998 0.000000 0.000000
    22 -0.010413 -0.631916 0.000000 -0.691889 0.000000 0.000000
    23 1.925654 -12.791969 -10.813391 5.508890 0.355887 0.488823
    24 0.089929 -8.543165 0.000003 0.374995 -0.703673 0.095606
    25 0.000000 -0.359714 0.000000 0.000000 0.000000 0.000000
    26 -0.170479 -2.636148 -0.277655 -1.050456 -0.102575 0.176833
    27 0.010599 -1.261177 0.000001 -0.391089 0.000000 0.000000
    28 -0.000001 -0.943234 -0.000001 -0.651632 0.000000 0.000000
    29 -0.827561 -2.508971 -0.277655 -0.652116 -0.046319 0.035345
    30 0.000001 -1.292971 0.000000 -0.708413 0.000000 0.000000
    31 -0.000002 -0.752465 -0.000001 -0.777553 -0.248766 0.191906
    32 0.444213 -2.561961 -0.277655 -1.339790 -0.042325 0.216626
    33 0.021023 -1.208187 0.000000 -0.024681 0.000000 0.000000
    34 0.010596 -0.741866 -0.000002 -0.686572 0.000000 0.000000
    35 1.047446 -2.222821 -0.277655 -1.342479 -0.050027 0.240249
    36 -0.000001 -0.996223 -0.000002 0.018465 -0.000010 0.000000
    37 -0.000001 -0.614691 0.000000 -0.825953 -0.000010 -0.000006
    38 -0.308256 -0.007813 0.307165 -0.179435 -0.200623 -2.505595
    39 1.978378 0.019543 0.000000 0.066814 0.008433 0.118455
    40 0.980610 0.058420 -0.012628 0.223859 0.027636 -0.077199
end
