// Created by Crowbar 0.34.0.0

$ModelName "weapons/tfa_cso/w_xm2010_v8.mdl"

$BodyGroup "studio"
{
	studio "v_xm2010_v_ref"
}

$collisionmodel "v_xm2010_v_ref.smd"
{
	$mass 9
}

$CDMaterials "models\weapons\tfa_cso\xm2010_v8"

$attachment "0" "root" 0.10 -15.50 0.40 rotate -0 0 0

$Sequence "idle" {
	"anims\idle.smd"
	fps 30
}