// Created by Crowbar 0.34.0.0

$ModelName "weapons/tfa_cso/w_bouncer.mdl"

$BodyGroup "studio"
{
	studio "v_bouncer01"
}

$collisionmodel "v_bouncer01.smd"
{
	$mass 9
}

$CDMaterials "models\weapons\tfa_cso\bouncer"

$attachment "0" "root" 0.50 -10.00 -0.20 rotate -0 0 0

$Sequence "idle" {
	"anims\idle.smd"
	fps 30
}