version 1
nodes
  0 "pp2000_root" -1
  1 "trigger" 0
  2 "relo1" 0
  3 "relo2" 2
  4 "megazine" 0
  5 "sh" 0
  6 "root" -1
  7 "Bone01" 6
  8 "Bone_L_Upper" 7
  9 "Bone_Lefthand" 7
  10 "Bone13" 9
  11 "Bone14" 10
  12 "Bone15" 11
  13 "Bone17" 9
  14 "Bone18" 13
  15 "Bone19" 14
  16 "Bone21" 9
  17 "Bone22" 16
  18 "Bone23" 17
  19 "Bone09" 9
  20 "Bone10" 19
  21 "Bone11" 20
  22 "Bone05" 9
  23 "Bone06" 22
  24 "Bone07" 23
  25 "Bone_Se_Hand-L" 9
  26 "Bone04" 6
  27 "Bone_Righthand" 26
  28 "Bone39" 27
  29 "Bone40" 28
  30 "Bone41" 29
  31 "Bone35" 27
  32 "Bone36" 31
  33 "Bone37" 32
  34 "Bone31" 27
  35 "Bone32" 34
  36 "Bone33" 35
  37 "Bone43" 27
  38 "Bone44" 37
  39 "Bone45" 38
  40 "Bone27" 27
  41 "Bone28" 40
  42 "Bone29" 41
  43 "Bone_Se_Hand-R" 27
  44 "Bone_R_Upper" 26
end
skeleton
  time 0
    0 3.463803 -7.758049 -10.509191 0.571217 -2.125027 0.367000
    1 0.919767 -0.005082 3.117851 0.000001 0.000000 -3.141592
    2 2.436037 0.000002 2.287674 0.000002 -1.570806 0.000000
    3 3.918048 -0.005082 -0.000895 1.570796 0.000001 0.000049
    4 0.799494 0.000001 1.443456 0.000002 -3.141592 0.000000
    5 1.483066 0.339569 -4.630651 0.000000 0.000000 0.000000
    6 0.130064 -1.833352 -0.913471 0.000000 -0.090508 0.123359
    7 8.481953 -0.186177 -7.163263 5.687387 -2.358688 -0.197725
    8 8.073794 0.445925 -0.380282 1.569807 -3.115911 0.132569
    9 -0.056296 -8.471392 -0.100228 -0.173546 0.437294 0.245943
    10 -0.488518 -2.755602 -0.228260 -0.838448 0.133809 -0.215377
    11 0.039887 -1.542292 0.018135 -1.742879 -0.008845 0.039095
    12 0.028786 -1.122607 -0.101236 -0.693211 -0.012776 0.013075
    13 0.250027 -2.820665 -0.238396 -0.624963 0.091350 -0.090574
    14 -0.049759 -1.594604 0.022352 -1.677306 -0.002373 -0.044105
    15 -0.034142 -1.163937 0.053531 -0.915481 0.008245 -0.023538
    16 0.957766 -2.746780 -0.090302 0.110786 -0.129475 0.117505
    17 -0.033420 -1.393223 -0.022976 -0.682927 0.008090 -0.033534
    18 -0.022360 -0.965249 -0.008561 -1.143045 -0.000108 -0.054818
    19 -1.180681 -2.507217 -0.193859 -0.465165 0.213844 -0.104451
    20 -0.024967 -1.127840 0.017597 -1.105955 0.001834 -0.047194
    21 -0.020057 -0.906594 0.041341 -1.353410 -0.002493 -0.054913
    22 0.626480 -1.197277 0.185379 0.479847 -0.970146 -0.342538
    23 1.434361 -0.263200 0.083136 0.088083 -0.256362 -0.978160
    24 1.038269 -0.155634 0.036197 0.050907 -0.204807 -0.841460
    25 0.120153 -0.050270 -0.054489 0.287569 3.110905 1.561085
    26 -4.985757 0.171249 -9.407820 -0.794720 -4.197035 -0.486149
    27 0.096944 -8.516827 -0.001552 0.167160 -0.287579 -0.245659
    28 0.447953 -2.798986 -0.200443 -0.394863 -0.157986 0.146902
    29 -0.032909 -1.491923 0.012753 -0.684159 0.015496 -0.008375
    30 -0.027022 -1.084733 -0.024116 -0.250542 0.006951 -0.001786
    31 -0.249534 -2.846964 -0.174213 -0.126475 -0.088284 0.023231
    32 0.043235 -1.668316 0.092106 -0.529843 -0.007795 -0.001737
    33 0.031729 -1.153017 0.058838 -0.457658 -0.004056 0.005819
    34 -0.963866 -2.785145 -0.085350 0.004974 0.125100 -0.104704
    35 0.028479 -1.403067 -0.005448 -0.420684 -0.006951 -0.018217
    36 0.021413 -0.953875 0.020046 -0.274340 -0.003703 -0.011973
    37 1.164475 -2.543940 -0.170330 -0.463736 -0.174427 0.250315
    38 0.024032 -1.132948 0.002182 -0.613866 0.000575 0.033007
    39 0.014898 -0.887895 -0.019848 -0.379236 -0.002469 0.017653
    40 -0.586770 -1.264477 0.200161 -0.302666 -0.773428 -2.502054
    41 1.534554 0.046962 0.016848 -0.004558 0.000560 0.318225
    42 1.117947 0.048424 -0.005766 -0.010082 -0.032041 0.440644
    43 -0.030021 -0.365612 -0.130139 0.353701 0.248194 1.595393
    44 -8.213991 1.374106 -0.466002 1.568304 -0.035380 -0.244642
  time 1
    0 3.100511 -7.968993 -9.712292 0.648705 -2.006982 0.265152
    1 0.919767 -0.005082 3.117851 0.000001 0.000000 -3.141592
    2 2.436037 0.000002 2.287674 0.000002 -1.570806 0.000000
    3 3.918048 -0.005082 -0.000895 1.570796 0.000001 0.000049
    4 0.799494 0.000001 1.443456 0.000002 -3.141592 0.000000
    5 1.483066 0.339569 -4.630651 0.000000 0.000000 0.000000
    6 0.130064 -1.833352 -0.913471 0.000000 -0.090508 0.123359
    7 8.392107 -0.397121 -7.155450 5.791264 -2.335256 -0.300262
    8 8.058169 0.133415 -0.384189 1.570286 -3.115243 0.094201
    9 -0.048483 -8.479205 -0.092415 -0.147432 0.484934 0.300375
    10 -0.488518 -2.755602 -0.228260 -0.838448 0.133809 -0.215377
    11 0.039887 -1.542292 0.018135 -1.742879 -0.008845 0.039095
    12 0.028786 -1.122607 -0.101236 -0.693211 -0.012776 0.013075
    13 0.250027 -2.820665 -0.238396 -0.624963 0.091350 -0.090574
    14 -0.049759 -1.594604 0.022352 -1.677306 -0.002373 -0.044105
    15 -0.034142 -1.163937 0.053531 -0.915481 0.008245 -0.023538
    16 0.957766 -2.746780 -0.090302 0.110786 -0.129475 0.117505
    17 -0.033420 -1.393223 -0.022976 -0.682927 0.008090 -0.033534
    18 -0.022360 -0.965249 -0.008561 -1.143045 -0.000108 -0.054818
    19 -1.180681 -2.507217 -0.193859 -0.465165 0.213844 -0.104451
    20 -0.024967 -1.127840 0.017597 -1.105955 0.001834 -0.047194
    21 -0.020057 -0.906594 0.041341 -1.353410 -0.002493 -0.054913
    22 0.626480 -1.197277 0.185379 0.479847 -0.970146 -0.342538
    23 1.434361 -0.263200 0.083136 0.088083 -0.256362 -0.978160
    24 1.038269 -0.155634 0.036197 0.050907 -0.204807 -0.841460
    25 0.120153 -0.050270 -0.054489 0.287569 3.110905 1.561085
    26 -5.610776 0.261095 -8.985932 -0.484555 -4.165039 -0.190486
    27 0.100850 -8.512920 -0.005459 0.220175 -0.270873 -0.178740
    28 0.447953 -2.798986 -0.200443 -0.366337 -0.148770 0.147669
    29 -0.032909 -1.491923 0.008846 -0.678984 0.015400 -0.008267
    30 -0.027022 -1.084733 -0.024116 -0.248260 0.006891 -0.001762
    31 -0.249534 -2.846964 -0.174213 -0.103646 -0.087864 0.023303
    32 0.043235 -1.668316 0.092106 -0.513283 -0.007472 -0.001773
    33 0.031729 -1.153017 0.058838 -0.454477 -0.004020 0.005831
    34 -0.963866 -2.785145 -0.085350 -0.033122 0.125771 -0.116281
    35 0.028479 -1.403067 -0.005448 -0.416068 -0.006843 -0.018049
    36 0.021413 -0.953875 0.020046 -0.269779 -0.003619 -0.011793
    37 1.164475 -2.543940 -0.170330 -0.424063 -0.174043 0.249080
    38 0.024032 -1.132948 0.002182 -0.610973 0.000527 0.032851
    39 0.014898 -0.887895 -0.019848 -0.375769 -0.002469 0.017462
    40 -0.586770 -1.264477 0.200161 -0.270680 -0.753719 -2.556776
    41 1.534554 0.046962 0.016848 -0.004510 0.000608 0.316199
    42 1.117947 0.048424 -0.005766 -0.009986 -0.032005 0.437474
    43 -0.030021 -0.365612 -0.130139 0.353701 0.248194 1.595393
    44 -8.210084 0.022502 -0.477722 1.564325 -0.037238 -0.080472
  time 2
    0 2.745031 -8.066652 -8.856797 0.803869 -1.889374 0.072751
    1 0.919767 -0.005082 3.117851 0.000001 0.000000 -3.141592
    2 2.436037 0.000002 2.287674 0.000002 -1.571142 0.000000
    3 3.918048 -0.005082 -0.000895 1.570796 0.000001 0.000049
    4 0.799494 0.000001 1.443456 0.000002 -3.141592 0.000000
    5 1.483066 0.339569 -4.630651 0.000000 0.000000 0.000000
    6 0.130064 -1.833352 -0.913471 0.000000 -0.090508 0.123359
    7 8.302260 -0.611971 -7.128105 5.906056 -2.320345 -0.418310
    8 8.023011 -0.222064 -0.392002 -1.570562 -0.026983 -3.091147
    9 -0.036764 -8.487017 -0.084602 -0.115863 0.531567 0.365116
    10 -0.488518 -2.755602 -0.228260 -0.838448 0.133809 -0.215377
    11 0.039887 -1.542292 0.018135 -1.742879 -0.008845 0.039095
    12 0.028786 -1.122607 -0.101236 -0.693211 -0.012776 0.013075
    13 0.250027 -2.820665 -0.238396 -0.624963 0.091350 -0.090574
    14 -0.049759 -1.594604 0.022352 -1.677306 -0.002373 -0.044105
    15 -0.034142 -1.163937 0.053531 -0.915481 0.008245 -0.023538
    16 0.957766 -2.746780 -0.090302 0.110786 -0.129475 0.117505
    17 -0.033420 -1.393223 -0.022976 -0.682927 0.008090 -0.033534
    18 -0.022360 -0.965249 -0.008561 -1.143045 -0.000108 -0.054818
    19 -1.180681 -2.507217 -0.193859 -0.465165 0.213844 -0.104451
    20 -0.024967 -1.127840 0.017597 -1.105955 0.001834 -0.047194
    21 -0.020057 -0.906594 0.041341 -1.353410 -0.002493 -0.054913
    22 0.626480 -1.197277 0.185379 0.479847 -0.970146 -0.342538
    23 1.434361 -0.263200 0.083136 0.088083 -0.256362 -0.978160
    24 1.038269 -0.155634 0.036197 0.050907 -0.204807 -0.841460
    25 0.120153 -0.050270 -0.054489 0.287569 3.110905 1.561085
    26 -6.224076 0.425163 -8.431228 -0.225221 -4.068469 0.048197
    27 0.100850 -8.509014 -0.005459 0.270014 -0.260902 -0.113994
    28 0.447953 -2.798986 -0.200443 -0.331053 -0.138511 0.148915
    29 -0.032909 -1.491923 0.008846 -0.665640 0.015137 -0.007992
    30 -0.027022 -1.084733 -0.024116 -0.242434 0.006735 -0.001702
    31 -0.249534 -2.846964 -0.174213 -0.073952 -0.087325 0.023411
    32 0.043235 -1.672222 0.092106 -0.486139 -0.006932 -0.001821
    33 0.031729 -1.153017 0.058838 -0.446338 -0.003924 0.005867
    34 -0.963866 -2.785145 -0.085350 -0.071500 0.126418 -0.129068
    35 0.028479 -1.403067 -0.005448 -0.404319 -0.006556 -0.017593
    36 0.021413 -0.953875 0.020046 -0.258075 -0.003404 -0.011313
    37 1.164475 -2.543940 -0.170330 -0.378151 -0.172497 0.249055
    38 0.024032 -1.132948 0.002182 -0.603566 0.000407 0.032443
    39 0.014898 -0.887895 -0.019848 -0.366868 -0.002469 0.016958
    40 -0.586770 -1.264477 0.200161 -0.237470 -0.729927 -2.615740
    41 1.534554 0.046962 0.016848 -0.004415 0.000704 0.310988
    42 1.117947 0.048424 -0.005766 -0.009747 -0.031897 0.429370
    43 -0.030021 -0.365612 -0.130139 0.353701 0.248194 1.595393
    44 -7.983515 -1.325196 -0.481628 1.560047 -0.038424 0.085853
  time 3
    0 2.432522 -8.074465 -8.009115 1.120158 -1.792234 -0.286398
    1 0.919767 -0.005082 3.117851 0.000001 0.000000 -3.141592
    2 2.436037 0.000002 2.287674 0.000002 -1.570806 0.000000
    3 3.918048 -0.005082 -0.000895 1.570796 0.000001 0.000049
    4 0.799494 0.000001 1.443456 0.000002 -3.141592 0.000000
    5 1.483066 0.339569 -4.630651 0.000000 0.000000 0.000000
    6 0.130064 -1.833352 -0.913471 0.000000 -0.090508 0.123359
    7 8.212414 -0.826821 -7.089042 6.023336 -2.316006 -0.539804
    8 7.976135 -0.573638 -0.395908 -1.569987 -0.027651 -3.134969
    9 -0.025045 -8.494830 -0.080696 -0.079849 0.576253 0.433448
    10 -0.488518 -2.755602 -0.228260 -0.838448 0.133809 -0.215377
    11 0.039887 -1.542292 0.018135 -1.742879 -0.008845 0.039095
    12 0.028786 -1.122607 -0.101236 -0.693211 -0.012776 0.013075
    13 0.250027 -2.820665 -0.238396 -0.624963 0.091350 -0.090574
    14 -0.049759 -1.594604 0.022352 -1.677306 -0.002373 -0.044105
    15 -0.034142 -1.163937 0.053531 -0.915481 0.008245 -0.023538
    16 0.957766 -2.746780 -0.090302 0.110786 -0.129475 0.117505
    17 -0.033420 -1.393223 -0.022976 -0.682927 0.008090 -0.033534
    18 -0.022360 -0.965249 -0.008561 -1.143045 -0.000108 -0.054818
    19 -1.180681 -2.507217 -0.193859 -0.465165 0.213844 -0.104451
    20 -0.024967 -1.127840 0.017597 -1.105955 0.001834 -0.047194
    21 -0.020057 -0.906594 0.041341 -1.353410 -0.002493 -0.054913
    22 0.626480 -1.197277 0.185379 0.479847 -0.970146 -0.342538
    23 1.434361 -0.263200 0.083136 0.088083 -0.256362 -0.978160
    24 1.038269 -0.155634 0.036197 0.050907 -0.204807 -0.841460
    25 0.120153 -0.050270 -0.054489 0.287569 3.110905 1.561085
    26 -6.735810 0.632200 -7.802303 -0.046968 -3.926813 0.195981
    27 0.096944 -8.505108 -0.005459 0.305663 -0.262294 -0.053431
    28 0.447953 -2.798986 -0.200443 -0.291902 -0.127689 0.150701
    29 -0.032909 -1.491923 0.008846 -0.647678 0.014765 -0.007632
    30 -0.027022 -1.084733 -0.024116 -0.234565 0.006520 -0.001618
    31 -0.249534 -2.846964 -0.174213 -0.040287 -0.086714 0.023555
    32 0.043235 -1.672222 0.092106 -0.452915 -0.006273 -0.001869
    33 0.031729 -1.153017 0.058838 -0.435330 -0.003780 0.005903
    34 -0.963866 -2.785145 -0.085350 -0.110042 0.126826 -0.142539
    35 0.028479 -1.403067 -0.005448 -0.388514 -0.006172 -0.016994
    36 0.021413 -0.953875 0.020046 -0.242306 -0.003116 -0.010654
    37 1.164475 -2.543940 -0.170330 -0.328669 -0.170364 0.249806
    38 0.024032 -1.132948 0.002182 -0.593530 0.000240 0.031904
    39 0.014898 -0.887895 -0.019848 -0.354875 -0.002481 0.016287
    40 -0.586770 -1.264477 0.200161 -0.205148 -0.703046 -2.675711
    41 1.534554 0.046962 0.016848 -0.004271 0.000847 0.303991
    42 1.117947 0.048424 -0.005766 -0.009423 -0.031742 0.418426
    43 -0.030021 -0.365612 -0.130139 0.353701 0.248194 1.595393
    44 -7.585065 -2.497106 -0.477722 1.556056 -0.038879 0.236126
  time 4
    0 2.194233 -8.043214 -7.220028 -1.472599 -1.396692 -4.016972
    1 0.919767 -0.005082 3.117851 0.000001 0.000000 -3.141592
    2 2.436037 0.000002 2.287674 0.000002 -1.571142 0.000000
    3 3.918048 -0.005082 -0.000895 1.570796 0.000001 0.000049
    4 0.799494 0.000001 1.443456 0.000002 -3.141592 0.000000
    5 1.483066 0.339569 -4.630651 0.000000 0.000000 0.000000
    6 0.130064 -1.833352 -0.913471 0.000000 -0.090508 0.123359
    7 8.122567 -1.026046 -7.046072 6.133915 -2.321450 -0.651820
    8 7.917539 -0.882241 -0.399814 -1.569316 -0.028128 -3.173401
    9 -0.013325 -8.498736 -0.076789 -0.041352 0.618689 0.497975
    10 -0.488518 -2.755602 -0.228260 -0.838448 0.133809 -0.215377
    11 0.039887 -1.542292 0.018135 -1.742879 -0.008845 0.039095
    12 0.028786 -1.122607 -0.101236 -0.693211 -0.012776 0.013075
    13 0.250027 -2.820665 -0.238396 -0.624963 0.091350 -0.090574
    14 -0.049759 -1.594604 0.022352 -1.677306 -0.002373 -0.044105
    15 -0.034142 -1.163937 0.053531 -0.915481 0.008245 -0.023538
    16 0.957766 -2.746780 -0.090302 0.110786 -0.129475 0.117505
    17 -0.033420 -1.393223 -0.022976 -0.682927 0.008090 -0.033534
    18 -0.022360 -0.965249 -0.008561 -1.143045 -0.000108 -0.054818
    19 -1.180681 -2.507217 -0.193859 -0.465165 0.213844 -0.104451
    20 -0.024967 -1.127840 0.017597 -1.105955 0.001834 -0.047194
    21 -0.020057 -0.906594 0.041341 -1.353410 -0.002493 -0.054913
    22 0.626480 -1.197277 0.185379 0.479847 -0.970146 -0.342538
    23 1.434361 -0.263200 0.083136 0.088083 -0.256362 -0.978160
    24 1.038269 -0.155634 0.036197 0.050907 -0.204807 -0.841460
    25 0.120153 -0.050270 -0.054489 0.287569 3.110905 1.561085
    26 -7.110821 0.823612 -7.196815 0.072223 -3.765088 0.273065
    27 0.096944 -8.497295 -0.001552 0.319364 -0.276474 0.001225
    28 0.447953 -2.798986 -0.200443 -0.251838 -0.116795 0.152954
    29 -0.032909 -1.491923 0.008846 -0.628600 0.014382 -0.007261
    30 -0.027022 -1.084733 -0.024116 -0.226216 0.006304 -0.001534
    31 -0.249534 -2.846964 -0.174213 -0.005675 -0.086090 0.023723
    32 0.043235 -1.672222 0.096012 -0.418172 -0.005590 -0.001893
    33 0.031729 -1.156924 0.058838 -0.423635 -0.003636 0.005951
    34 -0.963866 -2.785145 -0.085350 -0.148607 0.126766 -0.156201
    35 0.028479 -1.403067 -0.001542 -0.371636 -0.005777 -0.016335
    36 0.021413 -0.953875 0.020046 -0.225511 -0.002816 -0.009959
    37 1.164475 -2.543940 -0.170330 -0.278316 -0.168111 0.250848
    38 0.024032 -1.132948 0.002182 -0.582880 0.000060 0.031329
    39 0.014898 -0.887895 -0.019848 -0.342102 -0.002469 0.015568
    40 -0.586770 -1.264477 0.200161 -0.175270 -0.674333 -2.734004
    41 1.534554 0.046962 0.016848 -0.004115 0.001003 0.296561
    42 1.117947 0.048424 -0.005766 -0.009088 -0.031586 0.406824
    43 -0.030021 -0.365612 -0.130139 0.353701 0.248194 1.595393
    44 -7.159271 -3.356508 -0.473815 1.552940 -0.038820 0.352732
  time 5
    0 2.045791 -8.035401 -6.536414 -0.930659 -1.385022 -4.587188
    1 0.919767 -0.005082 3.117851 0.000001 0.000000 -3.141592
    2 2.436037 0.000002 2.287674 0.000002 -1.571142 0.000000
    3 3.918048 -0.005082 -0.000895 1.570796 0.000001 0.000049
    4 0.799494 0.000001 1.443456 0.000002 -3.141592 0.000000
    5 1.483066 0.339569 -4.630651 0.000000 0.000000 0.000000
    6 0.130064 -1.833352 -0.913471 0.000000 -0.090508 0.123359
    7 8.032721 -1.205739 -7.014821 6.230515 -2.332968 -0.742677
    8 7.870663 -1.100998 -0.399814 -1.568932 -0.028510 -3.200925
    9 -0.001606 -8.498736 -0.072883 -0.003284 0.659245 0.550627
    10 -0.488518 -2.755602 -0.228260 -0.838448 0.133809 -0.215377
    11 0.039887 -1.542292 0.018135 -1.742879 -0.008845 0.039095
    12 0.028786 -1.122607 -0.101236 -0.693211 -0.012776 0.013075
    13 0.250027 -2.820665 -0.238396 -0.624963 0.091350 -0.090574
    14 -0.049759 -1.594604 0.022352 -1.677306 -0.002373 -0.044105
    15 -0.034142 -1.163937 0.053531 -0.915481 0.008245 -0.023538
    16 0.957766 -2.746780 -0.090302 0.110786 -0.129475 0.117505
    17 -0.033420 -1.393223 -0.022976 -0.682927 0.008090 -0.033534
    18 -0.022360 -0.965249 -0.008561 -1.143045 -0.000108 -0.054818
    19 -1.180681 -2.507217 -0.193859 -0.465165 0.213844 -0.104451
    20 -0.024967 -1.127840 0.017597 -1.105955 0.001834 -0.047194
    21 -0.020057 -0.906594 0.041341 -1.353410 -0.002493 -0.054913
    22 0.626480 -1.197277 0.185379 0.479847 -0.970146 -0.342538
    23 1.434361 -0.263200 0.083136 0.088083 -0.256362 -0.978160
    24 1.038269 -0.155634 0.036197 0.050907 -0.204807 -0.841460
    25 0.120153 -0.050270 -0.054489 0.287569 3.110905 1.561085
    26 -7.395986 0.862676 -6.685081 0.156833 -3.605616 0.311178
    27 0.093038 -8.489482 0.002354 0.311203 -0.300109 0.049546
    28 0.447953 -2.798986 -0.200443 -0.213752 -0.106285 0.155531
    29 -0.032909 -1.491923 0.008846 -0.611806 0.014022 -0.006925
    30 -0.027022 -1.084733 -0.024116 -0.218858 0.006100 -0.001462
    31 -0.249534 -2.846964 -0.174213 0.026990 -0.085503 0.023902
    32 0.043235 -1.672222 0.096012 -0.386469 -0.004967 -0.001893
    33 0.031729 -1.156924 0.058838 -0.413344 -0.003517 0.005999
    34 -0.963866 -2.785145 -0.085350 -0.187102 0.126083 -0.169492
    35 0.028479 -1.403067 -0.001542 -0.356810 -0.005441 -0.015760
    36 0.021413 -0.953875 0.020046 -0.210767 -0.002565 -0.009336
    37 1.164475 -2.543940 -0.170330 -0.229763 -0.166205 0.251623
    38 0.024032 -1.132948 0.006088 -0.573500 -0.000072 0.030825
    39 0.014898 -0.887895 -0.019848 -0.330890 -0.002457 0.014933
    40 -0.586770 -1.264477 0.200161 -0.148928 -0.645293 -2.788354
    41 1.534554 0.046962 0.016848 -0.003995 0.001135 0.290023
    42 1.117947 0.048424 -0.005766 -0.008800 -0.031442 0.396597
    43 -0.030021 -0.365612 -0.130139 0.353701 0.248194 1.595393
    44 -6.874106 -3.821365 -0.469909 1.551178 -0.038616 0.419024
  time 6
    0 1.995009 -8.117435 -5.985616 -0.603395 -1.355248 1.362700
    1 0.919767 -0.005082 3.117851 0.000001 0.000000 -3.141592
    2 2.436037 0.000002 2.287674 0.000002 -1.571142 0.000000
    3 3.918048 -0.005082 -0.000895 1.570796 0.000001 0.000049
    4 0.799494 0.000001 1.443456 0.000002 -3.141592 0.000000
    5 1.483066 0.339569 -4.630651 0.000000 0.000000 0.000000
    6 0.130064 -1.833352 -0.913471 0.000000 -0.090508 0.123359
    7 7.938968 -1.358087 -7.003102 0.025283 -2.345039 -0.803089
    8 7.851131 -1.190844 -0.403721 -1.568741 -0.028700 -3.212087
    9 0.006206 -8.502643 -0.068977 0.030645 0.698962 0.582599
    10 -0.488518 -2.755602 -0.228260 -0.838448 0.133809 -0.215377
    11 0.039887 -1.542292 0.018135 -1.742879 -0.008845 0.039095
    12 0.028786 -1.122607 -0.101236 -0.693211 -0.012776 0.013075
    13 0.250027 -2.820665 -0.238396 -0.624963 0.091350 -0.090574
    14 -0.049759 -1.594604 0.022352 -1.677306 -0.002373 -0.044105
    15 -0.034142 -1.163937 0.053531 -0.915481 0.008245 -0.023538
    16 0.957766 -2.746780 -0.090302 0.110786 -0.129475 0.117505
    17 -0.033420 -1.393223 -0.022976 -0.682927 0.008090 -0.033534
    18 -0.022360 -0.965249 -0.008561 -1.143045 -0.000108 -0.054818
    19 -1.180681 -2.507217 -0.193859 -0.465165 0.213844 -0.104451
    20 -0.024967 -1.127840 0.017597 -1.105955 0.001834 -0.047194
    21 -0.020057 -0.906594 0.041341 -1.353410 -0.002493 -0.054913
    22 0.626480 -1.197277 0.185379 0.479847 -0.970146 -0.342538
    23 1.434361 -0.263200 0.083136 0.088083 -0.256362 -0.978160
    24 1.038269 -0.155634 0.036197 0.050907 -0.204807 -0.841460
    25 0.120153 -0.050270 -0.054489 0.287569 3.110905 1.561085
    26 -7.677245 0.624388 -6.271006 0.213863 -3.468833 0.337285
    27 0.085225 -8.477763 0.006260 0.291514 -0.326883 0.090192
    28 0.447953 -2.798986 -0.200443 -0.180477 -0.096613 0.158167
    29 -0.032909 -1.491923 0.008846 -0.600795 0.013794 -0.006721
    30 -0.027022 -1.084733 -0.024116 -0.214023 0.005980 -0.001414
    31 -0.249534 -2.846964 -0.174213 0.054712 -0.085012 0.024070
    32 0.043235 -1.672222 0.096012 -0.362364 -0.004488 -0.001881
    33 0.031729 -1.156924 0.058838 -0.406608 -0.003433 0.006023
    34 -0.963866 -2.785145 -0.085350 -0.225386 0.124656 -0.181884
    35 0.028479 -1.403067 -0.001542 -0.347112 -0.005225 -0.015376
    36 0.021413 -0.953875 0.020046 -0.201080 -0.002409 -0.008929
    37 1.164475 -2.543940 -0.170330 -0.185679 -0.165019 0.251539
    38 0.024032 -1.132948 0.006088 -0.567365 -0.000156 0.030490
    39 0.014898 -0.887895 -0.019848 -0.323550 -0.002445 0.014525
    40 -0.586770 -1.264477 0.200161 -0.126649 -0.617562 -2.836904
    41 1.534554 0.046962 0.016848 -0.003899 0.001219 0.285729
    42 1.117947 0.048424 -0.005766 -0.008608 -0.031334 0.389899
    43 -0.030021 -0.365612 -0.130139 0.353701 0.248194 1.595393
    44 -6.866293 -3.833085 -0.469909 1.551130 -0.038616 0.420882
  time 7
    0 2.057510 -8.359630 -5.555915 -0.369797 -1.343578 1.152208
    1 0.919767 -0.005082 3.117851 0.000001 0.000000 -3.141592
    2 2.436037 0.000002 2.287674 0.000002 -1.570806 0.000000
    3 3.918048 -0.005082 -0.000895 1.570796 0.000001 0.000049
    4 0.799494 0.000001 1.443456 0.000002 -3.141592 0.000000
    5 1.483066 0.339569 -4.630651 0.000000 0.000000 0.000000
    6 0.130064 -1.833352 -0.913471 0.000000 -0.090508 0.123359
    7 7.841309 -1.490904 -7.018727 0.084354 -2.351982 -0.829513
    8 7.866757 -1.120529 -0.399814 -1.568836 -0.028605 -3.203271
    9 0.021832 -8.498736 -0.065070 0.058568 0.745931 0.588736
    10 -0.488518 -2.755602 -0.228260 -0.838448 0.133809 -0.215377
    11 0.039887 -1.542292 0.018135 -1.742879 -0.008845 0.039095
    12 0.028786 -1.122607 -0.101236 -0.693211 -0.012776 0.013075
    13 0.250027 -2.820665 -0.238396 -0.624963 0.091350 -0.090574
    14 -0.049759 -1.594604 0.022352 -1.677306 -0.002373 -0.044105
    15 -0.034142 -1.163937 0.053531 -0.915481 0.008245 -0.023538
    16 0.957766 -2.746780 -0.090302 0.110786 -0.129475 0.117505
    17 -0.033420 -1.393223 -0.022976 -0.682927 0.008090 -0.033534
    18 -0.022360 -0.965249 -0.008561 -1.143045 -0.000108 -0.054818
    19 -1.180681 -2.507217 -0.193859 -0.465165 0.213844 -0.104451
    20 -0.024967 -1.127840 0.017597 -1.105955 0.001834 -0.047194
    21 -0.020057 -0.906594 0.041341 -1.353410 -0.002493 -0.054913
    22 0.626480 -1.197277 0.185379 0.479847 -0.970146 -0.342538
    23 1.434361 -0.263200 0.083136 0.088083 -0.256362 -0.978160
    24 1.038269 -0.155634 0.036197 0.050907 -0.204807 -0.841460
    25 0.120153 -0.050270 -0.054489 0.287569 3.110905 1.561085
    26 -7.974129 0.007181 -5.888182 0.243473 -3.367536 0.369491
    27 0.081319 -8.469950 0.010167 0.264815 -0.350129 0.125966
    28 0.447953 -2.798986 -0.200443 -0.154965 -0.088188 0.160564
    29 -0.032909 -1.491923 0.008846 -0.599019 0.013758 -0.006685
    30 -0.027022 -1.084733 -0.024116 -0.213272 0.005956 -0.001414
    31 -0.249534 -2.846964 -0.174213 0.074569 -0.084664 0.024190
    32 0.043235 -1.676128 0.096012 -0.350363 -0.004248 -0.001869
    33 0.031729 -1.156924 0.058838 -0.405548 -0.003421 0.006035
    34 -0.963866 -2.785145 -0.085350 -0.263341 0.122403 -0.192814
    35 0.028479 -1.403067 -0.001542 -0.345573 -0.005189 -0.015316
    36 0.021413 -0.953875 0.020046 -0.199559 -0.002385 -0.008869
    37 1.164475 -2.543940 -0.170330 -0.148735 -0.164911 0.249976
    38 0.024032 -1.132948 0.006088 -0.566400 -0.000180 0.030442
    39 0.014898 -0.887895 -0.019848 -0.322395 -0.002433 0.014453
    40 -0.586770 -1.264477 0.200161 -0.108696 -0.592919 -2.878083
    41 1.534554 0.046962 0.016848 -0.003887 0.001231 0.285053
    42 1.117947 0.048424 -0.005766 -0.008572 -0.031322 0.388852
    43 -0.030021 -0.365612 -0.130139 0.353701 0.248194 1.595393
    44 -7.155365 -3.368227 -0.473815 1.552904 -0.038808 0.354292
  time 8
    0 2.225484 -8.734642 -5.212155 -0.117277 -1.349504 0.946788
    1 0.919767 -0.005082 3.117851 0.000001 0.000000 -3.141592
    2 2.436037 0.000002 2.287674 0.000002 -1.571142 0.000000
    3 3.918048 -0.005082 -0.000895 1.570796 0.000001 0.000049
    4 0.799494 0.000001 1.443456 0.000002 -3.141592 0.000000
    5 1.483066 0.339569 -4.630651 0.000000 0.000000 0.000000
    6 0.130064 -1.833352 -0.913471 0.000000 -0.090508 0.123359
    7 7.735837 -1.608095 -7.053884 0.130022 -2.351824 -0.829609
    8 7.909727 -0.921305 -0.399814 -1.569316 -0.028223 -3.178031
    9 0.033551 -8.494830 -0.065070 0.080667 0.802099 0.573333
    10 -0.488518 -2.755602 -0.228260 -0.838448 0.133809 -0.215377
    11 0.039887 -1.542292 0.018135 -1.742879 -0.008845 0.039095
    12 0.028786 -1.122607 -0.101236 -0.693211 -0.012776 0.013075
    13 0.250027 -2.820665 -0.238396 -0.624963 0.091350 -0.090574
    14 -0.049759 -1.594604 0.022352 -1.677306 -0.002373 -0.044105
    15 -0.034142 -1.163937 0.053531 -0.915481 0.008245 -0.023538
    16 0.957766 -2.746780 -0.090302 0.110786 -0.129475 0.117505
    17 -0.033420 -1.393223 -0.022976 -0.682927 0.008090 -0.033534
    18 -0.022360 -0.965249 -0.008561 -1.143045 -0.000108 -0.054818
    19 -1.180681 -2.507217 -0.193859 -0.465165 0.213844 -0.104451
    20 -0.024967 -1.127840 0.017597 -1.105955 0.001834 -0.047194
    21 -0.020057 -0.906594 0.041341 -1.353410 -0.002493 -0.054913
    22 0.626480 -1.197277 0.185379 0.479847 -0.970146 -0.342538
    23 1.434361 -0.263200 0.083136 0.088083 -0.256362 -0.978160
    24 1.038269 -0.155634 0.036197 0.050907 -0.204807 -0.841460
    25 0.120153 -0.050270 -0.054489 0.287569 3.110905 1.561085
    26 -8.169447 -0.891284 -5.517077 0.251491 -3.302671 0.406366
    27 0.073506 -8.462138 0.010167 0.233045 -0.366543 0.153497
    28 0.447953 -2.798986 -0.200443 -0.140078 -0.081381 0.162338
    29 -0.032909 -1.491923 0.008846 -0.610030 0.013986 -0.006901
    30 -0.027022 -1.084733 -0.024116 -0.218107 0.006088 -0.001462
    31 -0.249534 -2.846964 -0.174213 0.083616 -0.084509 0.024250
    32 0.043235 -1.676128 0.096012 -0.355027 -0.004344 -0.001869
    33 0.031729 -1.156924 0.058838 -0.412284 -0.003505 0.005999
    34 -0.963866 -2.785145 -0.085350 -0.300852 0.119299 -0.201731
    35 0.028479 -1.403067 -0.001542 -0.355271 -0.005405 -0.015700
    36 0.021413 -0.953875 0.020046 -0.209247 -0.002541 -0.009276
    37 1.164475 -2.543940 -0.170330 -0.121571 -0.166193 0.246306
    38 0.024032 -1.132948 0.006088 -0.572536 -0.000084 0.030777
    39 0.014898 -0.887895 -0.019848 -0.329734 -0.002457 0.014873
    40 -0.586770 -1.264477 0.200161 -0.095117 -0.573158 -2.910429
    41 1.534554 0.046962 0.016848 -0.003971 0.001147 0.289348
    42 1.117947 0.048424 -0.005766 -0.008764 -0.031418 0.395520
    43 -0.030021 -0.365612 -0.130139 0.353701 0.248194 1.595393
    44 -7.585065 -2.497106 -0.477722 1.556056 -0.038879 0.236200
  time 9
    0 2.475492 -9.199499 -4.946521 0.178765 -1.358665 0.714184
    1 0.919767 -0.005082 3.117851 0.000001 0.000000 -3.141592
    2 2.436037 0.000002 2.287674 0.000002 -1.570806 0.000000
    3 3.918048 -0.005082 -0.000895 1.570796 0.000001 0.000049
    4 0.799494 0.000001 1.443456 0.000002 -3.141592 0.000000
    5 1.483066 0.339569 -4.630651 0.000000 0.000000 0.000000
    6 0.130064 -1.833352 -0.913471 0.000000 -0.090508 0.123359
    7 7.626458 -1.713567 -7.104667 0.166211 -2.344724 -0.812663
    8 7.964416 -0.632233 -0.395908 -1.569891 -0.027746 -3.141945
    9 0.049176 -8.490924 -0.061164 0.094888 0.859341 0.540410
    10 -0.488518 -2.755602 -0.228260 -0.838448 0.133809 -0.215377
    11 0.039887 -1.542292 0.018135 -1.742879 -0.008845 0.039095
    12 0.028786 -1.122607 -0.101236 -0.693211 -0.012776 0.013075
    13 0.250027 -2.820665 -0.238396 -0.624963 0.091350 -0.090574
    14 -0.049759 -1.594604 0.022352 -1.677306 -0.002373 -0.044105
    15 -0.034142 -1.163937 0.053531 -0.915481 0.008245 -0.023538
    16 0.957766 -2.746780 -0.090302 0.110786 -0.129475 0.117505
    17 -0.033420 -1.393223 -0.022976 -0.682927 0.008090 -0.033534
    18 -0.022360 -0.965249 -0.008561 -1.143045 -0.000108 -0.054818
    19 -1.180681 -2.507217 -0.193859 -0.465165 0.213844 -0.104451
    20 -0.024967 -1.127840 0.017597 -1.105955 0.001834 -0.047194
    21 -0.020057 -0.906594 0.041341 -1.353410 -0.002493 -0.054913
    22 0.626480 -1.197277 0.185379 0.479847 -0.970146 -0.342538
    23 1.434361 -0.263200 0.083136 0.088083 -0.256362 -0.978160
    24 1.038269 -0.155634 0.036197 0.050907 -0.204807 -0.841460
    25 0.120153 -0.050270 -0.054489 0.287569 3.110905 1.561085
    26 -8.157728 -1.930378 -5.208473 0.246467 -3.273293 0.440096
    27 0.073506 -8.458231 0.010167 0.202787 -0.375932 0.165252
    28 0.447953 -2.798986 -0.200443 -0.138739 -0.076599 0.163117
    29 -0.032909 -1.491923 0.008846 -0.637277 0.014561 -0.007428
    30 -0.027022 -1.084733 -0.024116 -0.230000 0.006400 -0.001570
    31 -0.249534 -2.846964 -0.174213 0.078882 -0.084592 0.024226
    32 0.043235 -1.672222 0.096012 -0.380914 -0.004847 -0.001893
    33 0.031729 -1.153017 0.058838 -0.428968 -0.003708 0.005939
    34 -0.963866 -2.785145 -0.085350 -0.337776 0.115356 -0.208083
    35 0.028479 -1.403067 -0.001542 -0.379282 -0.005956 -0.016635
    36 0.021413 -0.953875 0.020046 -0.233149 -0.002948 -0.010271
    37 1.164475 -2.543940 -0.170330 -0.106828 -0.169249 0.239910
    38 0.024032 -1.132948 0.002182 -0.587701 0.000144 0.031592
    39 0.014898 -0.887895 -0.019848 -0.347911 -0.002469 0.015892
    40 -0.586770 -1.264477 0.200161 -0.085889 -0.560058 -2.932505
    41 1.534554 0.046962 0.016848 -0.004187 0.000931 0.299938
    42 1.117947 0.048424 -0.005766 -0.009243 -0.031658 0.412087
    43 -0.030021 -0.365612 -0.130139 0.353701 0.248194 1.595393
    44 -7.983515 -1.321289 -0.481628 1.560059 -0.038424 0.085481
  time 10
    0 2.776282 -9.687796 -4.743390 0.488148 -1.359719 0.477176
    1 0.919767 -0.005082 3.117851 0.000001 0.000000 -3.141592
    2 2.436037 0.000002 2.287674 0.000002 -1.570806 0.000000
    3 3.918048 -0.005082 -0.000895 1.570796 0.000001 0.000049
    4 0.799494 0.000001 1.443456 0.000002 -3.141592 0.000000
    5 1.483066 0.339569 -4.630651 0.000000 0.000000 0.000000
    6 0.130064 -1.833352 -0.913471 0.000000 -0.090508 0.123359
    7 7.520986 -1.811226 -7.155450 0.196177 -2.332179 -0.786909
    8 8.015199 -0.296286 -0.392002 -1.570466 -0.027079 -3.100469
    9 0.060896 -8.483111 -0.061164 0.099823 0.909197 0.494139
    10 -0.488518 -2.755602 -0.228260 -0.838448 0.133809 -0.215377
    11 0.039887 -1.542292 0.018135 -1.742879 -0.008845 0.039095
    12 0.028786 -1.122607 -0.101236 -0.693211 -0.012776 0.013075
    13 0.250027 -2.820665 -0.238396 -0.624963 0.091350 -0.090574
    14 -0.049759 -1.594604 0.022352 -1.677306 -0.002373 -0.044105
    15 -0.034142 -1.163937 0.053531 -0.915481 0.008245 -0.023538
    16 0.957766 -2.746780 -0.090302 0.110786 -0.129475 0.117505
    17 -0.033420 -1.393223 -0.022976 -0.682927 0.008090 -0.033534
    18 -0.022360 -0.965249 -0.008561 -1.143045 -0.000108 -0.054818
    19 -1.180681 -2.507217 -0.193859 -0.465165 0.213844 -0.104451
    20 -0.024967 -1.127840 0.017597 -1.105955 0.001834 -0.047194
    21 -0.020057 -0.906594 0.041341 -1.353410 -0.002493 -0.054913
    22 0.626480 -1.197277 0.185379 0.479847 -0.970146 -0.342538
    23 1.434361 -0.263200 0.083136 0.088083 -0.256362 -0.978160
    24 1.038269 -0.155634 0.036197 0.050907 -0.204807 -0.841460
    25 0.120153 -0.050270 -0.054489 0.287569 3.110905 1.561085
    26 -7.903814 -2.973378 -5.032687 0.239037 -3.277656 0.467156
    27 0.073506 -8.454325 0.010167 0.177708 -0.376353 0.162633
    28 0.447953 -2.798986 -0.200443 -0.153808 -0.074250 0.162566
    29 -0.032909 -1.491923 0.012753 -0.684159 0.015496 -0.008375
    30 -0.027022 -1.084733 -0.024116 -0.250542 0.006951 -0.001786
    31 -0.249534 -2.846964 -0.174213 0.057447 -0.084964 0.024082
    32 0.043235 -1.672222 0.096012 -0.432531 -0.005878 -0.001881
    33 0.031729 -1.153017 0.058838 -0.457658 -0.004056 0.005819
    34 -0.963866 -2.785145 -0.085350 -0.374020 0.110610 -0.211307
    35 0.028479 -1.403067 -0.005448 -0.420684 -0.006951 -0.018217
    36 0.021413 -0.953875 0.020046 -0.274340 -0.003703 -0.011973
    37 1.164475 -2.543940 -0.170330 -0.107205 -0.174535 0.230267
    38 0.024032 -1.132948 0.002182 -0.613866 0.000575 0.033007
    39 0.014898 -0.887895 -0.019848 -0.379236 -0.002469 0.017653
    40 -0.586770 -1.264477 0.200161 -0.081119 -0.555373 -2.942716
    41 1.534554 0.046962 0.016848 -0.004558 0.000560 0.318225
    42 1.117947 0.048424 -0.005766 -0.010082 -0.032041 0.440644
    43 -0.030021 -0.365612 -0.130139 0.353701 0.248194 1.595393
    44 -8.210084 0.026408 -0.477722 1.564337 -0.037238 -0.080770
  time 11
    0 3.088792 -10.148747 -4.583229 0.740763 -1.351939 0.298942
    1 0.919767 -0.005082 3.117851 0.000001 0.000000 -3.141592
    2 2.436037 0.000002 2.287674 0.000002 -1.571142 0.000000
    3 3.918048 -0.005082 -0.000895 1.570796 0.000001 0.000049
    4 0.799494 0.000001 1.443456 0.000002 -3.141592 0.000000
    5 1.483066 0.339569 -4.630651 0.000000 0.000000 0.000000
    6 0.130064 -1.833352 -0.913471 0.000000 -0.090508 0.123359
    7 7.419421 -1.904979 -7.198420 0.223367 -2.316874 -0.760485
    8 8.050356 0.039662 -0.388095 1.570478 -3.115052 0.082405
    9 0.068708 -8.479205 -0.061164 0.096298 0.942905 0.440505
    10 -0.488518 -2.755602 -0.228260 -0.838448 0.133809 -0.215377
    11 0.039887 -1.542292 0.018135 -1.742879 -0.008845 0.039095
    12 0.028786 -1.122607 -0.101236 -0.693211 -0.012776 0.013075
    13 0.250027 -2.820665 -0.238396 -0.624963 0.091350 -0.090574
    14 -0.049759 -1.594604 0.022352 -1.677306 -0.002373 -0.044105
    15 -0.034142 -1.163937 0.053531 -0.915481 0.008245 -0.023538
    16 0.957766 -2.746780 -0.090302 0.110786 -0.129475 0.117505
    17 -0.033420 -1.393223 -0.022976 -0.682927 0.008090 -0.033534
    18 -0.022360 -0.965249 -0.008561 -1.143045 -0.000108 -0.054818
    19 -1.180681 -2.507217 -0.193859 -0.465165 0.213844 -0.104451
    20 -0.024967 -1.127840 0.017597 -1.105955 0.001834 -0.047194
    21 -0.020057 -0.906594 0.041341 -1.353410 -0.002493 -0.054913
    22 0.626480 -1.197277 0.185379 0.479847 -0.970146 -0.342538
    23 1.434361 -0.263200 0.083136 0.088083 -0.256362 -0.978160
    24 1.038269 -0.155634 0.036197 0.050907 -0.204807 -0.841460
    25 0.120153 -0.050270 -0.054489 0.287569 3.110905 1.561085
    26 -7.392080 -3.907001 -5.196754 0.258546 -3.346739 0.504412
    27 0.077412 -8.450418 0.006260 0.157699 -0.340675 0.171891
    28 0.447953 -2.798986 -0.200443 -0.209338 -0.077701 0.158899
    29 -0.032909 -1.495829 0.012753 -0.781324 0.017306 -0.010461
    30 -0.027022 -1.084733 -0.024116 -0.293099 0.008066 -0.002253
    31 -0.249534 -2.846964 -0.174213 -0.005518 -0.086090 0.023723
    32 0.043235 -1.668316 0.092106 -0.549284 -0.008179 -0.001677
    33 0.031729 -1.153017 0.058838 -0.517160 -0.004799 0.005628
    34 -0.963866 -2.785145 -0.085350 -0.411015 0.104187 -0.207376
    35 0.028479 -1.403067 -0.005448 -0.506425 -0.009228 -0.021369
    36 0.021413 -0.953875 0.020046 -0.359657 -0.005501 -0.015400
    37 1.164475 -2.543940 -0.170330 -0.143743 -0.186148 0.212473
    38 0.024032 -1.132948 0.002182 -0.668080 0.001606 0.035871
    39 0.014898 -0.891802 -0.019848 -0.444135 -0.002277 0.021297
    40 -0.586770 -1.264477 0.200161 -0.086153 -0.570855 -2.925649
    41 1.538460 0.043056 0.016848 -0.005337 -0.000171 0.356077
    42 1.114041 0.048424 -0.005766 -0.011832 -0.032760 0.499762
    43 -0.030021 -0.365612 -0.130139 0.353701 0.248194 1.595393
    44 -8.221803 1.299885 -0.469909 1.568088 -0.035500 -0.235650
  time 12
    0 3.354425 -10.527665 -4.438693 0.877288 -1.345214 0.231745
    1 0.919767 -0.005082 3.117851 0.000001 0.000000 -3.141592
    2 2.436037 0.000002 2.287674 0.000002 -1.570806 0.000000
    3 3.918048 -0.005082 -0.000895 1.570796 0.000001 0.000049
    4 0.799494 0.000001 1.443456 0.000002 -3.141592 0.000000
    5 1.483066 0.339569 -4.630651 0.000000 0.000000 0.000000
    6 0.130064 -1.833352 -0.913471 0.000000 -0.090508 0.123359
    7 7.325668 -2.002638 -7.229671 0.251514 -2.302357 -0.741337
    8 8.069888 0.328734 -0.384189 1.569999 -3.115624 0.118046
    9 0.072615 -8.479205 -0.061164 0.088728 0.951936 0.388681
    10 -0.488518 -2.755602 -0.228260 -0.838448 0.133809 -0.215377
    11 0.039887 -1.542292 0.018135 -1.742879 -0.008845 0.039095
    12 0.028786 -1.122607 -0.101236 -0.693211 -0.012776 0.013075
    13 0.250027 -2.820665 -0.238396 -0.624963 0.091350 -0.090574
    14 -0.049759 -1.594604 0.022352 -1.677306 -0.002373 -0.044105
    15 -0.034142 -1.163937 0.053531 -0.915481 0.008245 -0.023538
    16 0.957766 -2.746780 -0.090302 0.110786 -0.129475 0.117505
    17 -0.033420 -1.393223 -0.022976 -0.682927 0.008090 -0.033534
    18 -0.022360 -0.965249 -0.008561 -1.143045 -0.000108 -0.054818
    19 -1.180681 -2.507217 -0.193859 -0.465165 0.213844 -0.104451
    20 -0.024967 -1.127840 0.017597 -1.105955 0.001834 -0.047194
    21 -0.020057 -0.906594 0.041341 -1.353410 -0.002493 -0.054913
    22 0.626480 -1.197277 0.185379 0.479847 -0.970146 -0.342538
    23 1.434361 -0.263200 0.083136 0.088083 -0.256362 -0.978160
    24 1.038269 -0.155634 0.036197 0.050907 -0.204807 -0.841460
    25 0.120153 -0.050270 -0.054489 0.287569 3.110905 1.561085
    26 -6.642057 -4.633585 -5.696770 0.321830 -3.490285 0.569013
    27 0.093038 -8.442606 -0.009365 0.156336 -0.255754 0.201067
    28 0.447953 -2.798986 -0.200443 -0.313091 -0.088583 0.152343
    29 -0.032909 -1.495829 0.016659 -0.938463 0.019775 -0.014200
    30 -0.027022 -1.088639 -0.028023 -0.361904 0.009827 -0.003116
    31 -0.249534 -2.846964 -0.174213 -0.118033 -0.088128 0.023255
    32 0.043235 -1.664409 0.088199 -0.743803 -0.011906 -0.000754
    33 0.031729 -1.153017 0.058838 -0.613335 -0.006021 0.005400
    34 -0.963866 -2.785145 -0.085350 -0.449017 0.096229 -0.194852
    35 0.028479 -1.403067 -0.013261 -0.645037 -0.013435 -0.026007
    36 0.021413 -0.949968 0.020046 -0.497656 -0.008988 -0.020566
    37 1.164475 -2.543940 -0.170330 -0.223349 -0.206845 0.186065
    38 0.024032 -1.132948 -0.001725 -0.755779 0.003583 0.040389
    39 0.014898 -0.891802 -0.019848 -0.549072 -0.001462 0.027145
    40 -0.586770 -1.264477 0.200161 -0.104849 -0.609893 -2.874523
    41 1.542367 0.043056 0.016848 -0.006668 -0.001298 0.417282
    42 1.114041 0.048424 -0.005766 -0.014756 -0.033719 0.595362
    43 -0.030021 -0.365612 -0.130139 0.353701 0.248194 1.595393
    44 -8.092893 2.284290 -0.458190 1.570809 -0.033762 -0.356343
  time 13
    0 3.549744 -10.847987 -4.372285 0.838497 -1.370044 0.348813
    1 0.919767 -0.005082 3.117851 0.000001 0.000000 -3.141592
    2 2.436037 0.000002 2.287674 0.000002 -1.571142 0.000000
    3 3.918048 -0.005082 -0.000895 1.570796 0.000001 0.000049
    4 0.799494 0.000001 1.443456 0.000002 -3.141592 0.000000
    5 1.483066 0.339569 -4.630651 0.000000 0.000000 0.000000
    6 0.130064 -1.833352 -0.913471 0.000000 -0.090508 0.123359
    7 7.239728 -2.088578 -7.253109 0.277077 -2.287289 -0.724295
    8 8.077701 0.594367 -0.380282 1.569520 -3.116197 0.150834
    9 0.060896 -8.479205 -0.061164 0.074261 0.906511 0.331518
    10 -0.488518 -2.755602 -0.228260 -0.838448 0.133809 -0.215377
    11 0.039887 -1.542292 0.018135 -1.742879 -0.008845 0.039095
    12 0.028786 -1.122607 -0.101236 -0.693211 -0.012776 0.013075
    13 0.250027 -2.820665 -0.238396 -0.624963 0.091350 -0.090574
    14 -0.049759 -1.594604 0.022352 -1.677306 -0.002373 -0.044105
    15 -0.034142 -1.163937 0.053531 -0.915481 0.008245 -0.023538
    16 0.957766 -2.746780 -0.090302 0.110786 -0.129475 0.117505
    17 -0.033420 -1.393223 -0.022976 -0.682927 0.008090 -0.033534
    18 -0.022360 -0.965249 -0.008561 -1.143045 -0.000108 -0.054818
    19 -1.180681 -2.507217 -0.193859 -0.465165 0.213844 -0.104451
    20 -0.024967 -1.127840 0.017597 -1.105955 0.001834 -0.047194
    21 -0.020057 -0.906594 0.041341 -1.353410 -0.002493 -0.054913
    22 0.626480 -1.197277 0.185379 0.479847 -0.970146 -0.342538
    23 1.434361 -0.263200 0.083136 0.088083 -0.256362 -0.978160
    24 1.038269 -0.155634 0.036197 0.050907 -0.204807 -0.841460
    25 0.120153 -0.050270 -0.054489 0.287569 3.110905 1.561085
    26 -5.673277 -5.153132 -6.302257 0.407081 -3.682189 0.654482
    27 0.104757 -8.446512 -0.021084 0.200124 -0.167628 0.195544
    28 0.447953 -2.798986 -0.200443 -0.443786 -0.104547 0.145763
    29 -0.032909 -1.499736 0.020565 -1.127820 0.021932 -0.019125
    30 -0.027022 -1.092546 -0.028023 -0.444825 0.011865 -0.004314
    31 -0.249534 -2.846964 -0.174213 -0.257927 -0.090729 0.022992
    32 0.043235 -1.660503 0.080387 -0.980401 -0.016089 0.001307
    33 0.031729 -1.149111 0.058838 -0.729188 -0.007520 0.005292
    34 -0.963866 -2.785145 -0.085350 -0.486106 0.088067 -0.177163
    35 0.028479 -1.403067 -0.017167 -0.812042 -0.019307 -0.030752
    36 0.021413 -0.946062 0.016140 -0.663870 -0.014094 -0.026078
    37 1.164475 -2.543940 -0.170330 -0.327421 -0.234697 0.157247
    38 0.024032 -1.136855 -0.001725 -0.861360 0.006484 0.045566
    39 0.014898 -0.895708 -0.019848 -0.675496 0.000312 0.034012
    40 -0.586770 -1.264477 0.200161 -0.136105 -0.661194 -2.799919
    41 1.546273 0.039149 0.016848 -0.008357 -0.002544 0.491055
    42 1.114041 0.044518 -0.005766 -0.018376 -0.034474 0.710548
    43 -0.030021 -0.365612 -0.130139 0.353701 0.248194 1.595393
    44 -7.870230 3.159316 -0.446471 1.573074 -0.031904 -0.466187
  time 14
    0 3.702092 -11.160497 -4.419162 0.561472 -1.421632 0.718587
    1 0.919767 -0.005082 3.117851 0.000001 0.000000 -3.141592
    2 2.436037 0.000002 2.287674 0.000002 -1.571142 0.000000
    3 3.918048 -0.005082 -0.000895 1.570796 0.000001 0.000049
    4 0.799494 0.000001 1.443456 0.000002 -3.141592 0.000000
    5 1.483066 0.339569 -4.630651 0.000000 0.000000 0.000000
    6 0.130064 -1.833352 -0.913471 0.000000 -0.090508 0.123359
    7 7.161600 -2.166706 -7.280454 0.295267 -2.269537 -0.702275
    8 8.077701 0.871719 -0.376376 1.569136 -3.116769 0.184636
    9 0.037457 -8.483111 -0.065070 0.059303 0.809821 0.270888
    10 -0.488518 -2.755602 -0.228260 -0.838448 0.133809 -0.215377
    11 0.039887 -1.542292 0.018135 -1.742879 -0.008845 0.039095
    12 0.028786 -1.122607 -0.101236 -0.693211 -0.012776 0.013075
    13 0.250027 -2.820665 -0.238396 -0.624963 0.091350 -0.090574
    14 -0.049759 -1.594604 0.022352 -1.677306 -0.002373 -0.044105
    15 -0.034142 -1.163937 0.053531 -0.915481 0.008245 -0.023538
    16 0.957766 -2.746780 -0.090302 0.110786 -0.129475 0.117505
    17 -0.033420 -1.393223 -0.022976 -0.682927 0.008090 -0.033534
    18 -0.022360 -0.965249 -0.008561 -1.143045 -0.000108 -0.054818
    19 -1.180681 -2.507217 -0.193859 -0.465165 0.213844 -0.104451
    20 -0.024967 -1.127840 0.017597 -1.105955 0.001834 -0.047194
    21 -0.020057 -0.906594 0.041341 -1.353410 -0.002493 -0.054913
    22 0.626480 -1.197277 0.185379 0.479847 -0.970146 -0.342538
    23 1.434361 -0.263200 0.083136 0.088083 -0.256362 -0.978160
    24 1.038269 -0.155634 0.036197 0.050907 -0.204807 -0.841460
    25 0.120153 -0.050270 -0.054489 0.287569 3.110905 1.561085
    26 -4.559962 -5.496893 -6.771021 0.495218 -3.890600 0.747383
    27 0.120382 -8.462138 -0.028897 0.260681 -0.113690 0.137539
    28 0.447953 -2.798986 -0.200443 -0.580114 -0.122524 0.141221
    29 -0.032909 -1.499736 0.024472 -1.321592 0.023142 -0.024506
    30 -0.027022 -1.096452 -0.028023 -0.529638 0.013842 -0.005705
    31 -0.249534 -2.846964 -0.174213 -0.402977 -0.093425 0.023111
    32 0.043235 -1.656596 0.076480 -1.223497 -0.019756 0.004399
    33 0.031729 -1.145205 0.058838 -0.847755 -0.009042 0.005352
    34 -0.963866 -2.785145 -0.085350 -0.520310 0.080733 -0.157783
    35 0.028479 -1.403067 -0.021074 -0.982918 -0.026043 -0.034540
    36 0.021413 -0.946062 0.016140 -0.833939 -0.020182 -0.030776
    37 1.164475 -2.543940 -0.170330 -0.437500 -0.266193 0.131240
    38 0.024032 -1.140761 -0.005631 -0.969395 0.010007 0.050516
    39 0.014898 -0.899614 -0.019848 -0.804826 0.003008 0.040760
    40 -0.586770 -1.264477 0.200161 -0.176984 -0.713725 -2.713546
    41 1.550180 0.039149 0.016848 -0.010179 -0.003683 0.566518
    42 1.114041 0.044518 -0.005766 -0.022151 -0.034822 0.828395
    43 -0.030021 -0.365612 -0.130139 0.353701 0.248194 1.595393
    44 -7.506938 4.124189 -0.430845 1.575399 -0.029496 -0.591265
  time 15
    0 3.842721 -11.445662 -4.520727 0.003543 -1.448825 1.365476
    1 0.919767 -0.005082 3.117851 0.000001 0.000000 -3.141592
    2 2.436037 0.000002 2.287674 0.000002 -1.571142 0.000000
    3 3.918048 -0.005082 -0.000895 1.570796 0.000001 0.000049
    4 0.799494 0.000001 1.443456 0.000002 -3.141592 0.000000
    5 1.483066 0.339569 -4.630651 0.000000 0.000000 0.000000
    6 0.130064 -1.833352 -0.913471 0.000000 -0.090508 0.123359
    7 7.095192 -2.229208 -7.303892 0.308192 -2.251786 -0.680542
    8 8.069888 1.121727 -0.372470 1.568753 -3.117342 0.215458
    9 0.014019 -8.487017 -0.068977 0.052928 0.703864 0.220813
    10 -0.488518 -2.755602 -0.228260 -0.838448 0.133809 -0.215377
    11 0.039887 -1.542292 0.018135 -1.742879 -0.008845 0.039095
    12 0.028786 -1.122607 -0.101236 -0.693211 -0.012776 0.013075
    13 0.250027 -2.820665 -0.238396 -0.624963 0.091350 -0.090574
    14 -0.049759 -1.594604 0.022352 -1.677306 -0.002373 -0.044105
    15 -0.034142 -1.163937 0.053531 -0.915481 0.008245 -0.023538
    16 0.957766 -2.746780 -0.090302 0.110786 -0.129475 0.117505
    17 -0.033420 -1.393223 -0.022976 -0.682927 0.008090 -0.033534
    18 -0.022360 -0.965249 -0.008561 -1.143045 -0.000108 -0.054818
    19 -1.180681 -2.507217 -0.193859 -0.465165 0.213844 -0.104451
    20 -0.024967 -1.127840 0.017597 -1.105955 0.001834 -0.047194
    21 -0.020057 -0.906594 0.041341 -1.353410 -0.002493 -0.054913
    22 0.626480 -1.197277 0.185379 0.479847 -0.970146 -0.342538
    23 1.434361 -0.263200 0.083136 0.088083 -0.256362 -0.978160
    24 1.038269 -0.155634 0.036197 0.050907 -0.204807 -0.841460
    25 0.120153 -0.050270 -0.054489 0.287569 3.110905 1.561085
    26 -3.556025 -5.700024 -6.954620 0.580897 -4.072323 0.841046
    27 0.128195 -8.481669 -0.032803 0.303233 -0.093099 0.062479
    28 0.447953 -2.798986 -0.200443 -0.700702 -0.138919 0.139316
    29 -0.032909 -1.499736 0.032285 -1.491922 0.023322 -0.029348
    30 -0.027022 -1.100358 -0.028023 -0.604240 0.015472 -0.007071
    31 -0.249534 -2.846964 -0.174213 -0.530957 -0.095774 0.023543
    32 0.043235 -1.656596 0.068667 -1.437458 -0.022285 0.007779
    33 0.031729 -1.145205 0.058838 -0.952007 -0.010384 0.005568
    34 -0.963866 -2.785145 -0.085350 -0.549615 0.074896 -0.140346
    35 0.028479 -1.406973 -0.024980 -1.133139 -0.032418 -0.036877
    36 0.021413 -0.942156 0.012233 -0.983429 -0.026126 -0.034000
    37 1.164475 -2.543940 -0.170330 -0.535245 -0.296058 0.111398
    38 0.024032 -1.140761 -0.005631 -1.064413 0.013519 0.054543
    39 0.014898 -0.899614 -0.015942 -0.918508 0.006088 0.046368
    40 -0.586770 -1.264477 0.200161 -0.220200 -0.757894 -2.630733
    41 1.550180 0.039149 0.016848 -0.011845 -0.004570 0.632861
    42 1.114041 0.044518 -0.005766 -0.025471 -0.034762 0.932039
    43 -0.030021 -0.365612 -0.130139 0.353701 0.248194 1.595393
    44 -7.010829 5.053905 -0.411313 1.577448 -0.026751 -0.719242
  time 16
    0 3.975538 -11.672231 -4.587135 -0.407169 -1.441627 -4.440351
    1 0.919767 -0.005082 3.117851 0.000001 0.000000 -3.141592
    2 2.436037 0.000002 2.287674 0.000002 -1.571142 0.000000
    3 3.918048 -0.005082 -0.000895 1.570796 0.000001 0.000049
    4 0.799494 0.000001 1.443456 0.000002 -3.141592 0.000000
    5 1.483066 0.339569 -4.630651 0.000000 0.000000 0.000000
    6 0.130064 -1.833352 -0.913471 0.000000 -0.090508 0.123359
    7 7.044409 -2.279991 -7.319517 0.318723 -2.237348 -0.664457
    8 8.058169 1.313139 -0.368563 1.568465 -3.117723 0.239303
    9 -0.001606 -8.487017 -0.072883 0.053265 0.631111 0.186141
    10 -0.488518 -2.755602 -0.228260 -0.838448 0.133809 -0.215377
    11 0.039887 -1.542292 0.018135 -1.742879 -0.008845 0.039095
    12 0.028786 -1.122607 -0.101236 -0.693211 -0.012776 0.013075
    13 0.250027 -2.820665 -0.238396 -0.624963 0.091350 -0.090574
    14 -0.049759 -1.594604 0.022352 -1.677306 -0.002373 -0.044105
    15 -0.034142 -1.163937 0.053531 -0.915481 0.008245 -0.023538
    16 0.957766 -2.746780 -0.090302 0.110786 -0.129475 0.117505
    17 -0.033420 -1.393223 -0.022976 -0.682927 0.008090 -0.033534
    18 -0.022360 -0.965249 -0.008561 -1.143045 -0.000108 -0.054818
    19 -1.180681 -2.507217 -0.193859 -0.465165 0.213844 -0.104451
    20 -0.024967 -1.127840 0.017597 -1.105955 0.001834 -0.047194
    21 -0.020057 -0.906594 0.041341 -1.353410 -0.002493 -0.054913
    22 0.626480 -1.197277 0.185379 0.479847 -0.970146 -0.342538
    23 1.434361 -0.263200 0.083136 0.088083 -0.256362 -0.978160
    24 1.038269 -0.155634 0.036197 0.050907 -0.204807 -0.841460
    25 0.120153 -0.050270 -0.054489 0.287569 3.110905 1.561085
    26 -2.864598 -5.825028 -6.911650 0.644341 -4.193690 0.913937
    27 0.128195 -8.497295 -0.032803 0.322262 -0.089894 0.006463
    28 0.447953 -2.798986 -0.200443 -0.784087 -0.150052 0.139112
    29 -0.032909 -1.499736 0.032285 -1.611057 0.022962 -0.032728
    30 -0.027022 -1.104265 -0.028023 -0.656407 0.016551 -0.008090
    31 -0.249534 -2.846964 -0.174213 -0.619644 -0.097356 0.024010
    32 0.043235 -1.656596 0.064761 -1.586648 -0.023591 0.010427
    33 0.031729 -1.145205 0.058838 -1.024918 -0.011295 0.005783
    34 -0.963866 -2.785145 -0.085350 -0.571934 0.070977 -0.128493
    35 0.028479 -1.410880 -0.024980 -1.238228 -0.037056 -0.037931
    36 0.021413 -0.942156 0.012233 -1.088016 -0.030537 -0.035714
    37 1.164475 -2.543940 -0.170330 -0.602082 -0.317918 0.099030
    38 0.024032 -1.144668 -0.005631 -1.130812 0.016203 0.057144
    39 0.014898 -0.903521 -0.015942 -0.998023 0.008617 0.050060
    40 -0.586770 -1.264477 0.200161 -0.253122 -0.786188 -2.571541
    41 1.554086 0.035243 0.016848 -0.013031 -0.005121 0.679277
    42 1.114041 0.044518 -0.005766 -0.027796 -0.034510 1.004493
    43 -0.030021 -0.365612 -0.130139 0.353701 0.248194 1.595393
    44 -6.491282 5.796116 -0.391781 1.578910 -0.024210 -0.829159
  time 17
    0 4.069291 -11.785516 -4.579323 -0.451353 -1.445117 -4.369134
    1 0.919767 -0.005082 3.117851 0.000001 0.000000 -3.141592
    2 2.436037 0.000002 2.287674 0.000002 -1.571142 0.000000
    3 3.918048 -0.005082 -0.000895 1.570796 0.000001 0.000049
    4 0.799494 0.000001 1.443456 0.000002 -3.141592 0.000000
    5 1.483066 0.339569 -4.630651 0.000000 0.000000 0.000000
    6 0.130064 -1.833352 -0.913471 0.000000 -0.090508 0.123359
    7 7.017065 -2.307335 -7.323424 0.325042 -2.230169 -0.657468
    8 8.050356 1.410798 -0.364657 1.568273 -3.117914 0.251036
    9 -0.005513 -8.487017 -0.072883 0.055533 0.618118 0.171689
    10 -0.488518 -2.755602 -0.228260 -0.838448 0.133809 -0.215377
    11 0.039887 -1.542292 0.018135 -1.742879 -0.008845 0.039095
    12 0.028786 -1.122607 -0.101236 -0.693211 -0.012776 0.013075
    13 0.250027 -2.820665 -0.238396 -0.624963 0.091350 -0.090574
    14 -0.049759 -1.594604 0.022352 -1.677306 -0.002373 -0.044105
    15 -0.034142 -1.163937 0.053531 -0.915481 0.008245 -0.023538
    16 0.957766 -2.746780 -0.090302 0.110786 -0.129475 0.117505
    17 -0.033420 -1.393223 -0.022976 -0.682927 0.008090 -0.033534
    18 -0.022360 -0.965249 -0.008561 -1.143045 -0.000108 -0.054818
    19 -1.180681 -2.507217 -0.193859 -0.465165 0.213844 -0.104451
    20 -0.024967 -1.127840 0.017597 -1.105955 0.001834 -0.047194
    21 -0.020057 -0.906594 0.041341 -1.353410 -0.002493 -0.054913
    22 0.626480 -1.197277 0.185379 0.479847 -0.970146 -0.342538
    23 1.434361 -0.263200 0.083136 0.088083 -0.256362 -0.978160
    24 1.038269 -0.155634 0.036197 0.050907 -0.204807 -0.841460
    25 0.120153 -0.050270 -0.054489 0.287569 3.110905 1.561085
    26 -2.567714 -5.887530 -6.833523 0.678548 -4.242848 0.953861
    27 0.132101 -8.497295 -0.032803 0.325799 -0.078271 -0.003100
    28 0.447953 -2.798986 -0.200443 -0.820924 -0.154738 0.139280
    29 -0.032909 -1.499736 0.036191 -1.664993 0.022675 -0.034238
    30 -0.027022 -1.104265 -0.028023 -0.680012 0.017018 -0.008569
    31 -0.249534 -2.846964 -0.174213 -0.659042 -0.098039 0.024262
    32 0.043235 -1.656596 0.060855 -1.653828 -0.024058 0.011674
    33 0.031729 -1.141298 0.058838 -1.057912 -0.011702 0.005915
    34 -0.963866 -2.785145 -0.085350 -0.583515 0.069192 -0.123448
    35 0.028479 -1.410880 -0.024980 -1.285784 -0.039178 -0.038255
    36 0.021413 -0.942156 0.008327 -1.135359 -0.032586 -0.036325
    37 1.164475 -2.543940 -0.170330 -0.630958 -0.327997 0.093700
    38 0.024032 -1.144668 -0.005631 -1.160877 0.017474 0.058270
    39 0.014898 -0.903521 -0.015942 -1.034001 0.009851 0.051666
    40 -0.586770 -1.264477 0.200161 -0.267875 -0.797809 -2.545798
    41 1.554086 0.035243 0.016848 -0.013583 -0.005361 0.700290
    42 1.114041 0.040611 -0.005766 -0.028826 -0.034342 1.037297
    43 -0.030021 -0.365612 -0.130139 0.353701 0.248194 1.595393
    44 -6.213930 6.132063 -0.380062 1.579522 -0.022928 -0.882074
  time 18
    0 4.112261 -11.801141 -4.548072 -0.302717 -1.458059 -4.519513
    1 0.919767 -0.005082 3.117851 0.000001 0.000000 -3.141592
    2 2.436037 0.000002 2.287674 0.000002 -1.571142 0.000000
    3 3.918048 -0.005082 -0.000895 1.570796 0.000001 0.000049
    4 0.799494 0.000001 1.443456 0.000002 -3.141592 0.000000
    5 1.483066 0.339569 -4.630651 0.000000 0.000000 0.000000
    6 0.130064 -1.833352 -0.913471 0.000000 -0.090508 0.123359
    7 7.013158 -2.311242 -7.323424 0.325999 -2.229065 -0.656415
    8 8.050356 1.422517 -0.364657 1.568273 -3.118009 0.252812
    9 0.002300 -8.487017 -0.072883 0.057311 0.639303 0.171904
    10 -0.488518 -2.755602 -0.228260 -0.838448 0.133809 -0.215377
    11 0.039887 -1.542292 0.018135 -1.742879 -0.008845 0.039095
    12 0.028786 -1.122607 -0.101236 -0.693211 -0.012776 0.013075
    13 0.250027 -2.820665 -0.238396 -0.624963 0.091350 -0.090562
    14 -0.049759 -1.594604 0.022352 -1.677306 -0.002373 -0.044105
    15 -0.034142 -1.163937 0.053531 -0.915481 0.008245 -0.023538
    16 0.957766 -2.746780 -0.090302 0.110786 -0.129475 0.117505
    17 -0.033420 -1.393223 -0.022976 -0.682927 0.008090 -0.033534
    18 -0.022360 -0.965249 -0.008561 -1.143045 -0.000108 -0.054818
    19 -1.180681 -2.507217 -0.193859 -0.465165 0.213844 -0.104451
    20 -0.024967 -1.127840 0.017597 -1.105955 0.001834 -0.047194
    21 -0.020057 -0.906594 0.041341 -1.353410 -0.002493 -0.054913
    22 0.626480 -1.197277 0.185379 0.479847 -0.970146 -0.342538
    23 1.434361 -0.263200 0.083136 0.088083 -0.256362 -0.978160
    24 1.038269 -0.155634 0.036197 0.050907 -0.204807 -0.841460
    25 0.120153 -0.050270 -0.054489 0.287569 3.110905 1.561085
    26 -2.536463 -5.895343 -6.817898 0.691911 -4.245320 0.967963
    27 0.132101 -8.493389 -0.036710 0.321942 -0.059914 0.016127
    28 0.447953 -2.798986 -0.200443 -0.825521 -0.155326 0.139316
    29 -0.032909 -1.499736 0.036191 -1.671741 0.022627 -0.034418
    30 -0.027022 -1.104265 -0.028023 -0.682956 0.017078 -0.008629
    31 -0.249534 -2.846964 -0.174213 -0.663987 -0.098123 0.024298
    32 0.043235 -1.656596 0.060855 -1.662213 -0.024106 0.011830
    33 0.031729 -1.141298 0.058838 -1.062060 -0.011750 0.005927
    34 -0.963866 -2.785145 -0.085350 -0.584969 0.068964 -0.122824
    35 0.028479 -1.410880 -0.028886 -1.291752 -0.039453 -0.038279
    36 0.021413 -0.942156 0.008327 -1.141264 -0.032838 -0.036397
    37 1.164475 -2.543940 -0.170330 -0.634586 -0.329268 0.093046
    38 0.024032 -1.144668 -0.005631 -1.164646 0.017629 0.058402
    39 0.014898 -0.903521 -0.015942 -1.038499 0.010007 0.051857
    40 -0.586770 -1.264477 0.200161 -0.269769 -0.799235 -2.542550
    41 1.557992 0.035243 0.016848 -0.013655 -0.005385 0.702919
    42 1.114041 0.040611 -0.005766 -0.028958 -0.034318 1.041423
    43 -0.030021 -0.365612 -0.130139 0.353701 0.248194 1.595393
    44 -6.210023 6.139876 -0.380062 1.579534 -0.022904 -0.883338
  time 19
    0 4.123980 -11.789422 -4.520727 -0.152094 -1.465076 -4.676976
    1 0.919767 -0.005082 3.117851 0.000001 0.000000 -3.141592
    2 2.436037 0.000002 2.287674 0.000002 -1.570806 0.000000
    3 3.918048 -0.005082 -0.000895 1.570796 0.000001 0.000049
    4 0.799494 0.000001 1.443456 0.000002 -3.141592 0.000000
    5 1.483066 0.339569 -4.630651 0.000000 0.000000 0.000000
    6 0.130064 -1.833352 -0.913471 0.000000 -0.090508 0.123359
    7 7.017065 -2.307335 -7.323424 0.325425 -2.229696 -0.657085
    8 8.050356 1.414704 -0.364657 1.568273 -3.118009 0.251797
    9 0.006206 -8.487017 -0.068977 0.058261 0.658809 0.175095
    10 -0.488518 -2.755602 -0.228260 -0.838448 0.133809 -0.215377
    11 0.039887 -1.542292 0.018135 -1.742879 -0.008845 0.039095
    12 0.028786 -1.122607 -0.101236 -0.693211 -0.012776 0.013075
    13 0.250027 -2.820665 -0.238396 -0.624963 0.091350 -0.090574
    14 -0.049759 -1.594604 0.022352 -1.677306 -0.002373 -0.044105
    15 -0.034142 -1.163937 0.053531 -0.915481 0.008245 -0.023538
    16 0.957766 -2.746780 -0.090302 0.110786 -0.129475 0.117505
    17 -0.033420 -1.393223 -0.022976 -0.682927 0.008090 -0.033534
    18 -0.022360 -0.965249 -0.008561 -1.143045 -0.000108 -0.054818
    19 -1.180681 -2.507217 -0.193859 -0.465165 0.213844 -0.104451
    20 -0.024967 -1.127840 0.017597 -1.105955 0.001834 -0.047194
    21 -0.020057 -0.906594 0.041341 -1.353410 -0.002493 -0.054913
    22 0.626480 -1.197277 0.185379 0.479847 -0.970146 -0.342538
    23 1.434361 -0.263200 0.083136 0.088083 -0.256362 -0.978160
    24 1.038269 -0.155634 0.036197 0.050907 -0.204807 -0.841460
    25 0.120153 -0.050270 -0.054489 0.287569 3.110905 1.561085
    26 -2.606778 -5.907062 -6.798366 0.674059 -4.228813 0.949382
    27 0.136008 -8.489482 -0.040616 0.312886 -0.053698 0.028776
    28 0.447953 -2.798986 -0.200443 -0.811700 -0.153576 0.139220
    29 -0.032909 -1.499736 0.036191 -1.651496 0.022759 -0.033854
    30 -0.027022 -1.104265 -0.028023 -0.674126 0.016898 -0.008449
    31 -0.249534 -2.846964 -0.174213 -0.649206 -0.097871 0.024202
    32 0.043235 -1.656596 0.060855 -1.637007 -0.023951 0.011362
    33 0.031729 -1.141298 0.058838 -1.049679 -0.011594 0.005879
    34 -0.963866 -2.785145 -0.085350 -0.580608 0.069635 -0.124718
    35 0.028479 -1.410880 -0.024980 -1.273895 -0.038650 -0.038183
    36 0.021413 -0.942156 0.008327 -1.123515 -0.032071 -0.036181
    37 1.164475 -2.543940 -0.170330 -0.623732 -0.325457 0.095008
    38 0.024032 -1.144668 -0.005631 -1.153383 0.017150 0.057994
    39 0.014898 -0.903521 -0.015942 -1.025007 0.009528 0.051258
    40 -0.586770 -1.264477 0.200161 -0.264136 -0.794930 -2.552294
    41 1.554086 0.035243 0.016848 -0.013451 -0.005301 0.695031
    42 1.114041 0.040611 -0.005766 -0.028575 -0.034390 1.029103
    43 -0.030021 -0.365612 -0.130139 0.353701 0.248194 1.595393
    44 -6.237368 6.104719 -0.383969 1.579474 -0.023036 -0.877987
  time 20
    0 4.100542 -11.762078 -4.520727 -0.119264 -1.464603 1.565727
    1 0.919767 -0.005082 3.117851 0.000001 0.000000 -3.141592
    2 2.436037 0.000002 2.287674 0.000002 -1.571142 0.000000
    3 3.918048 -0.005082 -0.000895 1.570796 0.000001 0.000049
    4 0.799494 0.000001 1.443456 0.000002 -3.141592 0.000000
    5 1.483066 0.339569 -4.630651 0.000000 0.000000 0.000000
    6 0.130064 -1.833352 -0.913471 0.000000 -0.090508 0.123359
    7 7.020971 -2.299522 -7.323424 0.323797 -2.231589 -0.658809
    8 8.054262 1.391266 -0.368563 1.568369 -3.117914 0.248816
    9 0.006206 -8.487017 -0.068977 0.057832 0.664751 0.179023
    10 -0.488518 -2.755602 -0.228260 -0.838448 0.133809 -0.215377
    11 0.039887 -1.542292 0.018135 -1.742879 -0.008845 0.039095
    12 0.028786 -1.122607 -0.101236 -0.693211 -0.012776 0.013075
    13 0.250027 -2.820665 -0.238396 -0.624963 0.091350 -0.090574
    14 -0.049759 -1.594604 0.022352 -1.677306 -0.002373 -0.044105
    15 -0.034142 -1.163937 0.053531 -0.915481 0.008245 -0.023538
    16 0.957766 -2.746780 -0.090302 0.110786 -0.129475 0.117505
    17 -0.033420 -1.393223 -0.022976 -0.682927 0.008090 -0.033534
    18 -0.022360 -0.965249 -0.008561 -1.143045 -0.000108 -0.054818
    19 -1.180681 -2.507217 -0.193859 -0.465165 0.213844 -0.104451
    20 -0.024967 -1.127840 0.017597 -1.105955 0.001834 -0.047194
    21 -0.020057 -0.906594 0.041341 -1.353410 -0.002493 -0.054913
    22 0.626480 -1.197277 0.185379 0.479847 -0.970146 -0.342538
    23 1.434361 -0.263200 0.083136 0.088083 -0.256362 -0.978160
    24 1.038269 -0.155634 0.036197 0.050907 -0.204807 -0.841460
    25 0.120153 -0.050270 -0.054489 0.287569 3.110905 1.561085
    26 -2.720062 -5.907062 -6.794459 0.648510 -4.207797 0.922227
    27 0.132101 -8.489482 -0.036710 0.306408 -0.060562 0.029568
    28 0.447953 -2.798986 -0.200443 -0.793281 -0.151227 0.139136
    29 -0.032909 -1.499736 0.032285 -1.624554 0.022903 -0.033099
    30 -0.027022 -1.104265 -0.028023 -0.662293 0.016671 -0.008209
    31 -0.249534 -2.846964 -0.174213 -0.629480 -0.097524 0.024070
    32 0.043235 -1.656596 0.064761 -1.603469 -0.023723 0.010739
    33 0.031729 -1.145205 0.058838 -1.033151 -0.011391 0.005819
    34 -0.963866 -2.785145 -0.085350 -0.574818 0.070534 -0.127235
    35 0.028479 -1.410880 -0.024980 -1.250117 -0.037584 -0.038027
    36 0.021413 -0.942156 0.012233 -1.099825 -0.031040 -0.035870
    37 1.164475 -2.543940 -0.170330 -0.609308 -0.320423 0.097673
    38 0.024032 -1.144668 -0.005631 -1.138350 0.016515 0.057431
    39 0.014898 -0.903521 -0.015942 -1.007017 0.008917 0.050467
    40 -0.586770 -1.264477 0.200161 -0.256753 -0.789119 -2.565153
    41 1.554086 0.035243 0.016848 -0.013175 -0.005181 0.684536
    42 1.114041 0.044518 -0.005766 -0.028047 -0.034474 1.012717
    43 -0.030021 -0.365612 -0.130139 0.353701 0.248194 1.595393
    44 -6.292057 6.042217 -0.383969 1.579354 -0.023288 -0.867656
  time 21
    0 4.053665 -11.707389 -4.524634 -0.117844 -1.461440 1.551560
    1 0.919767 -0.005082 3.117851 0.000001 0.000000 -3.141592
    2 2.436037 0.000002 2.287674 0.000002 -1.570806 0.000000
    3 3.918048 -0.005082 -0.000895 1.570796 0.000001 0.000049
    4 0.799494 0.000001 1.443456 0.000002 -3.141592 0.000000
    5 1.483066 0.339569 -4.630651 0.000000 0.000000 0.000000
    6 0.130064 -1.833352 -0.913471 0.000000 -0.090508 0.123359
    7 7.036597 -2.287803 -7.319517 0.320734 -2.235139 -0.662255
    8 8.058169 1.344390 -0.368563 1.568369 -3.117818 0.243045
    9 0.006206 -8.487017 -0.068977 0.056637 0.668982 0.185865
    10 -0.488518 -2.755602 -0.228260 -0.838448 0.133809 -0.215377
    11 0.039887 -1.542292 0.018135 -1.742879 -0.008845 0.039095
    12 0.028786 -1.122607 -0.101236 -0.693211 -0.012776 0.013075
    13 0.250027 -2.820665 -0.238396 -0.624963 0.091350 -0.090574
    14 -0.049759 -1.594604 0.022352 -1.677306 -0.002373 -0.044105
    15 -0.034142 -1.163937 0.053531 -0.915481 0.008245 -0.023538
    16 0.957766 -2.746780 -0.090302 0.110786 -0.129475 0.117505
    17 -0.033420 -1.393223 -0.022976 -0.682927 0.008090 -0.033534
    18 -0.022360 -0.965249 -0.008561 -1.143045 -0.000108 -0.054818
    19 -1.180681 -2.507217 -0.193859 -0.465165 0.213844 -0.104451
    20 -0.024967 -1.127840 0.017597 -1.105955 0.001834 -0.047194
    21 -0.020057 -0.906594 0.041341 -1.353410 -0.002493 -0.054913
    22 0.626480 -1.197277 0.185379 0.479847 -0.970146 -0.342538
    23 1.434361 -0.263200 0.083136 0.088083 -0.256362 -0.978160
    24 1.038269 -0.155634 0.036197 0.050907 -0.204807 -0.841460
    25 0.120153 -0.050270 -0.054489 0.287569 3.110905 1.561085
    26 -2.829441 -5.860185 -6.856961 0.649045 -4.191654 0.920035
    27 0.132101 -8.489482 -0.036710 0.308944 -0.062763 0.036816
    28 0.447953 -2.798986 -0.200443 -0.784087 -0.150052 0.139112
    29 -0.032909 -1.499736 0.032285 -1.611057 0.022962 -0.032728
    30 -0.027022 -1.104265 -0.028023 -0.656407 0.016551 -0.008090
    31 -0.249534 -2.846964 -0.174213 -0.619644 -0.097356 0.024010
    32 0.043235 -1.656596 0.064761 -1.586648 -0.023591 0.010427
    33 0.031729 -1.145205 0.058838 -1.024918 -0.011295 0.005783
    34 -0.963866 -2.785145 -0.085350 -0.571934 0.070977 -0.128493
    35 0.028479 -1.410880 -0.024980 -1.238228 -0.037056 -0.037931
    36 0.021413 -0.942156 0.012233 -1.088016 -0.030537 -0.035714
    37 1.164475 -2.543940 -0.170330 -0.602082 -0.317918 0.099030
    38 0.024032 -1.144668 -0.005631 -1.130812 0.016203 0.057144
    39 0.014898 -0.903521 -0.015942 -0.998023 0.008617 0.050060
    40 -0.586770 -1.264477 0.200161 -0.253122 -0.786188 -2.571541
    41 1.554086 0.035243 0.016848 -0.013031 -0.005121 0.679277
    42 1.114041 0.044518 -0.005766 -0.027796 -0.034510 1.004493
    43 -0.030021 -0.365612 -0.130139 0.353701 0.248194 1.595393
    44 -6.444405 5.854711 -0.387875 1.579018 -0.023995 -0.838300
  time 22
    0 4.018508 -11.672231 -4.528540 -0.121251 -1.459223 1.546774
    1 0.919767 -0.005082 3.117851 0.000001 0.000000 -3.141592
    2 2.436037 0.000002 2.287674 0.000002 -1.571142 0.000000
    3 3.918048 -0.005082 -0.000895 1.570796 0.000001 0.000049
    4 0.799494 0.000001 1.443456 0.000002 -3.141592 0.000000
    5 1.483066 0.339569 -4.630651 0.000000 0.000000 0.000000
    6 0.130064 -1.833352 -0.913471 0.000000 -0.090508 0.123359
    7 7.044409 -2.279991 -7.319517 0.318723 -2.237348 -0.664457
    8 8.058169 1.313139 -0.368563 1.568465 -3.117723 0.239303
    9 0.006206 -8.487017 -0.068977 0.055809 0.671231 0.190283
    10 -0.488518 -2.755602 -0.228260 -0.838448 0.133809 -0.215377
    11 0.039887 -1.542292 0.018135 -1.742879 -0.008845 0.039095
    12 0.028786 -1.122607 -0.101236 -0.693211 -0.012776 0.013075
    13 0.250027 -2.820665 -0.238396 -0.624963 0.091350 -0.090574
    14 -0.049759 -1.594604 0.022352 -1.677306 -0.002373 -0.044105
    15 -0.034142 -1.163937 0.053531 -0.915481 0.008245 -0.023538
    16 0.957766 -2.746780 -0.090302 0.110786 -0.129475 0.117505
    17 -0.033420 -1.393223 -0.022976 -0.682927 0.008090 -0.033534
    18 -0.022360 -0.965249 -0.008561 -1.143045 -0.000108 -0.054818
    19 -1.180681 -2.507217 -0.193859 -0.465165 0.213844 -0.104451
    20 -0.024967 -1.127840 0.017597 -1.105955 0.001834 -0.047194
    21 -0.020057 -0.906594 0.041341 -1.353410 -0.002493 -0.054913
    22 0.626480 -1.197277 0.185379 0.479847 -0.970146 -0.342538
    23 1.434361 -0.263200 0.083136 0.088083 -0.256362 -0.978160
    24 1.038269 -0.155634 0.036197 0.050907 -0.204807 -0.841460
    25 0.120153 -0.050270 -0.054489 0.287569 3.110905 1.561085
    26 -2.876317 -5.821122 -6.907744 0.660162 -4.186709 0.929373
    27 0.132101 -8.485576 -0.036710 0.313781 -0.060756 0.043719
    28 0.447953 -2.798986 -0.200443 -0.784087 -0.150052 0.139112
    29 -0.032909 -1.499736 0.032285 -1.611057 0.022962 -0.032728
    30 -0.027022 -1.104265 -0.028023 -0.656407 0.016551 -0.008090
    31 -0.249534 -2.846964 -0.174213 -0.619644 -0.097356 0.024010
    32 0.043235 -1.656596 0.064761 -1.586648 -0.023591 0.010427
    33 0.031729 -1.145205 0.058838 -1.024918 -0.011295 0.005783
    34 -0.963866 -2.785145 -0.085350 -0.571934 0.070977 -0.128493
    35 0.028479 -1.410880 -0.024980 -1.238228 -0.037056 -0.037931
    36 0.021413 -0.942156 0.012233 -1.088016 -0.030537 -0.035714
    37 1.164475 -2.543940 -0.170330 -0.602082 -0.317918 0.099030
    38 0.024032 -1.144668 -0.005631 -1.130812 0.016203 0.057144
    39 0.014898 -0.903521 -0.015942 -0.998023 0.008617 0.050060
    40 -0.586770 -1.264477 0.200161 -0.253122 -0.786188 -2.571541
    41 1.554086 0.035243 0.016848 -0.013031 -0.005133 0.679277
    42 1.114041 0.044518 -0.005766 -0.027796 -0.034510 1.004493
    43 -0.030021 -0.365612 -0.130139 0.353701 0.248194 1.595393
    44 -6.553784 5.717988 -0.391781 1.578767 -0.024498 -0.817045
  time 23
    0 4.014601 -11.664418 -4.532446 -0.119169 -1.458859 1.542658
    1 0.919767 -0.005082 3.117851 0.000001 0.000000 -3.141592
    2 2.436037 0.000002 2.287674 0.000002 -1.571142 0.000000
    3 3.918048 -0.005082 -0.000895 1.570796 0.000001 0.000049
    4 0.799494 0.000001 1.443456 0.000002 -3.141592 0.000000
    5 1.483066 0.339569 -4.630651 0.000000 0.000000 0.000000
    6 0.130064 -1.833352 -0.913471 0.000000 -0.090508 0.123359
    7 7.044409 -2.276084 -7.319517 0.318245 -2.237901 -0.665032
    8 8.058169 1.309232 -0.368563 1.568465 -3.117723 0.238479
    9 0.010113 -8.487017 -0.068977 0.055656 0.672104 0.191327
    10 -0.488518 -2.755602 -0.228260 -0.838448 0.133809 -0.215377
    11 0.039887 -1.542292 0.018135 -1.742879 -0.008845 0.039095
    12 0.028786 -1.122607 -0.101236 -0.693211 -0.012776 0.013075
    13 0.250027 -2.820665 -0.238396 -0.624963 0.091350 -0.090574
    14 -0.049759 -1.594604 0.022352 -1.677306 -0.002373 -0.044105
    15 -0.034142 -1.163937 0.053531 -0.915481 0.008245 -0.023538
    16 0.957766 -2.746780 -0.090302 0.110786 -0.129475 0.117505
    17 -0.033420 -1.393223 -0.022976 -0.682927 0.008090 -0.033534
    18 -0.022360 -0.965249 -0.008561 -1.143045 -0.000108 -0.054818
    19 -1.180681 -2.507217 -0.193859 -0.465165 0.213844 -0.104451
    20 -0.024967 -1.127840 0.017597 -1.105955 0.001834 -0.047194
    21 -0.020057 -0.906594 0.041341 -1.353410 -0.002493 -0.054913
    22 0.626480 -1.197277 0.185379 0.479847 -0.970146 -0.342538
    23 1.434361 -0.263200 0.083136 0.088083 -0.256362 -0.978160
    24 1.038269 -0.155634 0.036197 0.050907 -0.204807 -0.841460
    25 0.120153 -0.050270 -0.054489 0.287569 3.110905 1.561085
    26 -2.888036 -5.813309 -6.919463 0.662834 -4.185473 0.931660
    27 0.132101 -8.485576 -0.036710 0.314846 -0.060044 0.045627
    28 0.447953 -2.798986 -0.200443 -0.784087 -0.150052 0.139112
    29 -0.032909 -1.499736 0.032285 -1.611057 0.022962 -0.032728
    30 -0.027022 -1.104265 -0.028023 -0.656407 0.016551 -0.008090
    31 -0.249534 -2.846964 -0.174213 -0.619644 -0.097356 0.024010
    32 0.043235 -1.656596 0.064761 -1.586648 -0.023591 0.010427
    33 0.031729 -1.145205 0.058838 -1.024918 -0.011295 0.005783
    34 -0.963866 -2.785145 -0.085350 -0.571934 0.070977 -0.128493
    35 0.028479 -1.410880 -0.024980 -1.238228 -0.037056 -0.037931
    36 0.021413 -0.942156 0.012233 -1.088016 -0.030537 -0.035714
    37 1.164475 -2.543940 -0.170330 -0.602082 -0.317918 0.099030
    38 0.024032 -1.144668 -0.005631 -1.130812 0.016203 0.057144
    39 0.014898 -0.903521 -0.015942 -0.998023 0.008617 0.050060
    40 -0.586770 -1.264477 0.200161 -0.253122 -0.786188 -2.571541
    41 1.554086 0.035243 0.016848 -0.013031 -0.005121 0.679277
    42 1.114041 0.044518 -0.005766 -0.027796 -0.034510 1.004493
    43 -0.030021 -0.365612 -0.130139 0.353701 0.248194 1.595393
    44 -6.577222 5.682831 -0.395688 1.578707 -0.024618 -0.812066
  time 24
    0 4.010695 -11.660512 -4.532446 -0.118223 -1.458641 1.540839
    1 0.919767 -0.005082 3.117851 0.000001 0.000000 -3.141592
    2 2.436037 0.000002 2.287674 0.000002 -1.571142 0.000000
    3 3.918048 -0.005082 -0.000895 1.570796 0.000001 0.000049
    4 0.799494 0.000001 1.443456 0.000002 -3.141592 0.000000
    5 1.483066 0.339569 -4.630651 0.000000 0.000000 0.000000
    6 0.130064 -1.833352 -0.913471 0.000000 -0.090508 0.123359
    7 7.048316 -2.276084 -7.315611 0.318053 -2.238137 -0.665223
    8 8.058169 1.305326 -0.368563 1.568465 -3.117723 0.238035
    9 0.010113 -8.487017 -0.068977 0.055595 0.672507 0.191848
    10 -0.488518 -2.755602 -0.228260 -0.838448 0.133809 -0.215377
    11 0.039887 -1.542292 0.018135 -1.742879 -0.008845 0.039095
    12 0.028786 -1.122607 -0.101236 -0.693211 -0.012776 0.013075
    13 0.250027 -2.820665 -0.238396 -0.624963 0.091350 -0.090574
    14 -0.049759 -1.594604 0.022352 -1.677306 -0.002373 -0.044105
    15 -0.034142 -1.163937 0.053531 -0.915481 0.008245 -0.023538
    16 0.957766 -2.746780 -0.090302 0.110786 -0.129475 0.117505
    17 -0.033420 -1.393223 -0.022976 -0.682927 0.008090 -0.033534
    18 -0.022360 -0.965249 -0.008561 -1.143045 -0.000108 -0.054818
    19 -1.180681 -2.507217 -0.193859 -0.465165 0.213844 -0.104451
    20 -0.024967 -1.127840 0.017597 -1.105955 0.001834 -0.047194
    21 -0.020057 -0.906594 0.041341 -1.353410 -0.002493 -0.054913
    22 0.626480 -1.197277 0.185379 0.479847 -0.970146 -0.342538
    23 1.434361 -0.263200 0.083136 0.088083 -0.256362 -0.978160
    24 1.038269 -0.155634 0.036197 0.050907 -0.204807 -0.841460
    25 0.120153 -0.050270 -0.054489 0.287569 3.110905 1.561085
    26 -2.895849 -5.809402 -6.927276 0.664064 -4.184964 0.932708
    27 0.132101 -8.485576 -0.036710 0.315336 -0.059688 0.046521
    28 0.447953 -2.798986 -0.200443 -0.784087 -0.150052 0.139112
    29 -0.032909 -1.499736 0.032285 -1.611057 0.022962 -0.032728
    30 -0.027022 -1.104265 -0.028023 -0.656407 0.016551 -0.008090
    31 -0.249534 -2.846964 -0.174213 -0.619644 -0.097356 0.024010
    32 0.043235 -1.656596 0.064761 -1.586648 -0.023591 0.010427
    33 0.031729 -1.145205 0.058838 -1.024918 -0.011295 0.005783
    34 -0.963866 -2.785145 -0.085350 -0.571934 0.070977 -0.128493
    35 0.028479 -1.410880 -0.024980 -1.238228 -0.037056 -0.037931
    36 0.021413 -0.942156 0.012233 -1.088016 -0.030537 -0.035714
    37 1.164475 -2.543940 -0.170330 -0.602082 -0.317918 0.099030
    38 0.024032 -1.144668 -0.005631 -1.130812 0.016203 0.057144
    39 0.014898 -0.903521 -0.015942 -0.998023 0.008617 0.050060
    40 -0.586770 -1.264477 0.200161 -0.253122 -0.786188 -2.571541
    41 1.554086 0.035243 0.016848 -0.013031 -0.005121 0.679277
    42 1.114041 0.044518 -0.005766 -0.027796 -0.034510 1.004493
    43 -0.030021 -0.365612 -0.130139 0.353701 0.248194 1.595393
    44 -6.588941 5.667205 -0.395688 1.578671 -0.024678 -0.809762
  time 25
    0 4.010695 -11.660512 -4.532446 -0.118128 -1.458641 1.540552
    1 0.919767 -0.005082 3.117851 0.000001 0.000000 -3.141592
    2 2.436037 0.000002 2.287674 0.000002 -1.570806 0.000000
    3 3.918048 -0.005082 -0.000895 1.570796 0.000001 0.000049
    4 0.799494 0.000001 1.443456 0.000002 -3.141592 0.000000
    5 1.483066 0.339569 -4.630651 0.000000 0.000000 0.000000
    6 0.130064 -1.833352 -0.913471 0.000000 -0.090508 0.123359
    7 7.048316 -2.276084 -7.315611 0.317957 -2.238216 -0.665319
    8 8.058169 1.305326 -0.368563 1.568465 -3.117723 0.237971
    9 0.010113 -8.487017 -0.068977 0.055564 0.672540 0.191910
    10 -0.488518 -2.755602 -0.228260 -0.838448 0.133809 -0.215377
    11 0.039887 -1.542292 0.018135 -1.742879 -0.008845 0.039095
    12 0.028786 -1.122607 -0.101236 -0.693211 -0.012776 0.013075
    13 0.250027 -2.820665 -0.238396 -0.624963 0.091350 -0.090574
    14 -0.049759 -1.594604 0.022352 -1.677306 -0.002373 -0.044105
    15 -0.034142 -1.163937 0.053531 -0.915481 0.008245 -0.023538
    16 0.957766 -2.746780 -0.090302 0.110786 -0.129475 0.117505
    17 -0.033420 -1.393223 -0.022976 -0.682927 0.008090 -0.033534
    18 -0.022360 -0.965249 -0.008561 -1.143045 -0.000108 -0.054818
    19 -1.180681 -2.507217 -0.193859 -0.465165 0.213844 -0.104451
    20 -0.024967 -1.127840 0.017597 -1.105955 0.001834 -0.047194
    21 -0.020057 -0.906594 0.041341 -1.353410 -0.002493 -0.054913
    22 0.626480 -1.197277 0.185379 0.479847 -0.970146 -0.342538
    23 1.434361 -0.263200 0.083136 0.088083 -0.256362 -0.978160
    24 1.038269 -0.155634 0.036197 0.050907 -0.204807 -0.841460
    25 0.120153 -0.050270 -0.054489 0.287569 3.110905 1.561085
    26 -2.895849 -5.809402 -6.927276 0.664224 -4.184891 0.932803
    27 0.132101 -8.485576 -0.036710 0.315400 -0.059655 0.046643
    28 0.447953 -2.798986 -0.200443 -0.784087 -0.150052 0.139112
    29 -0.032909 -1.499736 0.032285 -1.611057 0.022962 -0.032728
    30 -0.027022 -1.104265 -0.028023 -0.656407 0.016551 -0.008090
    31 -0.249534 -2.846964 -0.174213 -0.619644 -0.097356 0.024010
    32 0.043235 -1.656596 0.064761 -1.586648 -0.023591 0.010427
    33 0.031729 -1.145205 0.058838 -1.024918 -0.011295 0.005783
    34 -0.963866 -2.785145 -0.085350 -0.571934 0.070977 -0.128493
    35 0.028479 -1.410880 -0.024980 -1.238228 -0.037056 -0.037931
    36 0.021413 -0.942156 0.012233 -1.088016 -0.030537 -0.035714
    37 1.164475 -2.543940 -0.170330 -0.602082 -0.317918 0.099030
    38 0.024032 -1.144668 -0.005631 -1.130812 0.016203 0.057144
    39 0.014898 -0.903521 -0.015942 -0.998023 0.008617 0.050060
    40 -0.586770 -1.264477 0.200161 -0.253122 -0.786188 -2.571541
    41 1.554086 0.035243 0.016848 -0.013031 -0.005121 0.679277
    42 1.114041 0.044518 -0.005766 -0.027796 -0.034510 1.004493
    43 -0.030021 -0.365612 -0.130139 0.353701 0.248194 1.595393
    44 -6.592847 5.667205 -0.395688 1.578671 -0.024678 -0.809465
  time 26
    0 4.010695 -11.660512 -4.532446 -0.118601 -1.458714 1.541413
    1 0.919767 -0.005082 3.117851 0.000001 0.000000 -3.141592
    2 2.436037 0.000002 2.287674 0.000002 -1.571142 0.000000
    3 3.918048 -0.005082 -0.000895 1.570796 0.000001 0.000049
    4 0.799494 0.000001 1.443456 0.000002 -3.141592 0.000000
    5 1.483066 0.339569 -4.630651 0.000000 0.000000 0.000000
    6 0.130064 -1.833352 -0.913471 0.000000 -0.090508 0.123359
    7 7.048316 -2.276084 -7.315611 0.318053 -2.238059 -0.665128
    8 8.058169 1.305326 -0.368563 1.568465 -3.117723 0.238225
    9 0.010113 -8.487017 -0.068977 0.055625 0.672372 0.191664
    10 -0.488518 -2.755602 -0.228260 -0.838448 0.133809 -0.215377
    11 0.039887 -1.542292 0.018135 -1.742879 -0.008845 0.039095
    12 0.028786 -1.122607 -0.101236 -0.693211 -0.012776 0.013075
    13 0.250027 -2.820665 -0.238396 -0.624963 0.091350 -0.090574
    14 -0.049759 -1.594604 0.022352 -1.677306 -0.002373 -0.044105
    15 -0.034142 -1.163937 0.053531 -0.915481 0.008245 -0.023538
    16 0.957766 -2.746780 -0.090302 0.110786 -0.129475 0.117505
    17 -0.033420 -1.393223 -0.022976 -0.682927 0.008090 -0.033534
    18 -0.022360 -0.965249 -0.008561 -1.143045 -0.000108 -0.054818
    19 -1.180681 -2.507217 -0.193859 -0.465165 0.213844 -0.104451
    20 -0.024967 -1.127840 0.017597 -1.105955 0.001834 -0.047194
    21 -0.020057 -0.906594 0.041341 -1.353410 -0.002493 -0.054913
    22 0.626480 -1.197277 0.185379 0.479847 -0.970146 -0.342538
    23 1.434361 -0.263200 0.083136 0.088083 -0.256362 -0.978160
    24 1.038269 -0.155634 0.036197 0.050907 -0.204807 -0.841460
    25 0.120153 -0.050270 -0.054489 0.287569 3.110905 1.561085
    26 -2.891943 -5.809402 -6.923370 0.663636 -4.185109 0.932327
    27 0.132101 -8.485576 -0.036710 0.315166 -0.059817 0.046216
    28 0.447953 -2.798986 -0.200443 -0.784087 -0.150052 0.139112
    29 -0.032909 -1.499736 0.032285 -1.611057 0.022962 -0.032728
    30 -0.027022 -1.104265 -0.028023 -0.656407 0.016551 -0.008090
    31 -0.249534 -2.846964 -0.174213 -0.619644 -0.097356 0.024010
    32 0.043235 -1.656596 0.064761 -1.586648 -0.023591 0.010427
    33 0.031729 -1.145205 0.058838 -1.024918 -0.011295 0.005783
    34 -0.963866 -2.785145 -0.085350 -0.571934 0.070977 -0.128493
    35 0.028479 -1.410880 -0.024980 -1.238228 -0.037056 -0.037931
    36 0.021413 -0.942156 0.012233 -1.088016 -0.030537 -0.035714
    37 1.164475 -2.543940 -0.170330 -0.602082 -0.317918 0.099030
    38 0.024032 -1.144668 -0.005631 -1.130812 0.016203 0.057144
    39 0.014898 -0.903521 -0.015942 -0.998023 0.008617 0.050060
    40 -0.586770 -1.264477 0.200161 -0.253122 -0.786188 -2.571541
    41 1.554086 0.035243 0.016848 -0.013031 -0.005121 0.679277
    42 1.114041 0.044518 -0.005766 -0.027796 -0.034510 1.004493
    43 -0.030021 -0.365612 -0.130139 0.353701 0.248194 1.595393
    44 -6.585035 5.675018 -0.395688 1.578683 -0.024654 -0.810580
  time 27
    0 4.014601 -11.664418 -4.532446 -0.119358 -1.458859 1.543041
    1 0.919767 -0.005082 3.117851 0.000001 0.000000 -3.141592
    2 2.436037 0.000002 2.287674 0.000002 -1.571142 0.000000
    3 3.918048 -0.005082 -0.000895 1.570796 0.000001 0.000049
    4 0.799494 0.000001 1.443456 0.000002 -3.141592 0.000000
    5 1.483066 0.339569 -4.630651 0.000000 0.000000 0.000000
    6 0.130064 -1.833352 -0.913471 0.000000 -0.090508 0.123359
    7 7.044409 -2.276084 -7.319517 0.318245 -2.237901 -0.664936
    8 8.058169 1.309232 -0.368563 1.568465 -3.117723 0.238542
    9 0.010113 -8.487017 -0.068977 0.055687 0.672037 0.191265
    10 -0.488518 -2.755602 -0.228260 -0.838448 0.133809 -0.215377
    11 0.039887 -1.542292 0.018135 -1.742879 -0.008845 0.039095
    12 0.028786 -1.122607 -0.101236 -0.693211 -0.012776 0.013075
    13 0.250027 -2.820665 -0.238396 -0.624963 0.091350 -0.090574
    14 -0.049759 -1.594604 0.022352 -1.677306 -0.002373 -0.044105
    15 -0.034142 -1.163937 0.053531 -0.915481 0.008245 -0.023538
    16 0.957766 -2.746780 -0.090302 0.110786 -0.129475 0.117505
    17 -0.033420 -1.393223 -0.022976 -0.682927 0.008090 -0.033534
    18 -0.022360 -0.965249 -0.008561 -1.143045 -0.000108 -0.054818
    19 -1.180681 -2.507217 -0.193859 -0.465165 0.213844 -0.104451
    20 -0.024967 -1.127840 0.017597 -1.105955 0.001834 -0.047194
    21 -0.020057 -0.906594 0.041341 -1.353410 -0.002493 -0.054913
    22 0.626480 -1.197277 0.185379 0.479847 -0.970146 -0.342538
    23 1.434361 -0.263200 0.083136 0.088083 -0.256362 -0.978160
    24 1.038269 -0.155634 0.036197 0.050907 -0.204807 -0.841460
    25 0.120153 -0.050270 -0.054489 0.287569 3.110905 1.561085
    26 -2.888036 -5.813309 -6.919463 0.662621 -4.185618 0.931469
    27 0.132101 -8.485576 -0.036710 0.314761 -0.060076 0.045485
    28 0.447953 -2.798986 -0.200443 -0.784087 -0.150052 0.139112
    29 -0.032909 -1.499736 0.032285 -1.611057 0.022962 -0.032728
    30 -0.027022 -1.104265 -0.028023 -0.656407 0.016551 -0.008090
    31 -0.249534 -2.846964 -0.174213 -0.619644 -0.097356 0.024010
    32 0.043235 -1.656596 0.064761 -1.586648 -0.023591 0.010427
    33 0.031729 -1.145205 0.058838 -1.024918 -0.011295 0.005783
    34 -0.963866 -2.785145 -0.085350 -0.571934 0.070977 -0.128493
    35 0.028479 -1.410880 -0.024980 -1.238228 -0.037056 -0.037931
    36 0.021413 -0.942156 0.012233 -1.088016 -0.030537 -0.035714
    37 1.164475 -2.543940 -0.170330 -0.602082 -0.317918 0.099030
    38 0.024032 -1.144668 -0.005631 -1.130812 0.016203 0.057144
    39 0.014898 -0.903521 -0.015942 -0.998023 0.008617 0.050060
    40 -0.586770 -1.264477 0.200161 -0.253122 -0.786188 -2.571541
    41 1.554086 0.035243 0.016848 -0.013031 -0.005121 0.679277
    42 1.114041 0.044518 -0.005766 -0.027796 -0.034510 1.004493
    43 -0.030021 -0.365612 -0.130139 0.353701 0.248194 1.595393
    44 -6.577222 5.686737 -0.395688 1.578707 -0.024606 -0.812437
  time 28
    0 4.018508 -11.668325 -4.532446 -0.120210 -1.459041 1.544764
    1 0.919767 -0.005082 3.117851 0.000001 0.000000 -3.141592
    2 2.436037 0.000002 2.287674 0.000002 -1.570806 0.000000
    3 3.918048 -0.005082 -0.000895 1.570796 0.000001 0.000049
    4 0.799494 0.000001 1.443456 0.000002 -3.141592 0.000000
    5 1.483066 0.339569 -4.630651 0.000000 0.000000 0.000000
    6 0.130064 -1.833352 -0.913471 0.000000 -0.090508 0.123359
    7 7.044409 -2.276084 -7.319517 0.318436 -2.237664 -0.664745
    8 8.058169 1.313139 -0.368563 1.568465 -3.117723 0.238923
    9 0.010113 -8.487017 -0.068977 0.055748 0.671667 0.190805
    10 -0.488518 -2.755602 -0.228260 -0.838448 0.133809 -0.215377
    11 0.039887 -1.542292 0.018135 -1.742879 -0.008845 0.039095
    12 0.028786 -1.122607 -0.101236 -0.693211 -0.012776 0.013075
    13 0.250027 -2.820665 -0.238396 -0.624963 0.091350 -0.090574
    14 -0.049759 -1.594604 0.022352 -1.677306 -0.002373 -0.044105
    15 -0.034142 -1.163937 0.053531 -0.915481 0.008245 -0.023538
    16 0.957766 -2.746780 -0.090302 0.110786 -0.129475 0.117505
    17 -0.033420 -1.393223 -0.022976 -0.682927 0.008090 -0.033534
    18 -0.022360 -0.965249 -0.008561 -1.143045 -0.000108 -0.054818
    19 -1.180681 -2.507217 -0.193859 -0.465165 0.213844 -0.104451
    20 -0.024967 -1.127840 0.017597 -1.105955 0.001834 -0.047194
    21 -0.020057 -0.906594 0.041341 -1.353410 -0.002493 -0.054913
    22 0.626480 -1.197277 0.185379 0.479847 -0.970146 -0.342538
    23 1.434361 -0.263200 0.083136 0.088083 -0.256362 -0.978160
    24 1.038269 -0.155634 0.036197 0.050907 -0.204807 -0.841460
    25 0.120153 -0.050270 -0.054489 0.287569 3.110905 1.561085
    26 -2.884130 -5.817215 -6.915557 0.661498 -4.186127 0.930516
    27 0.132101 -8.485576 -0.036710 0.314292 -0.060400 0.044653
    28 0.447953 -2.798986 -0.200443 -0.784087 -0.150052 0.139112
    29 -0.032909 -1.499736 0.032285 -1.611057 0.022962 -0.032728
    30 -0.027022 -1.104265 -0.028023 -0.656407 0.016551 -0.008090
    31 -0.249534 -2.846964 -0.174213 -0.619644 -0.097356 0.024010
    32 0.043235 -1.656596 0.064761 -1.586648 -0.023591 0.010427
    33 0.031729 -1.145205 0.058838 -1.024918 -0.011295 0.005783
    34 -0.963866 -2.785145 -0.085350 -0.571934 0.070977 -0.128493
    35 0.028479 -1.410880 -0.024980 -1.238228 -0.037056 -0.037931
    36 0.021413 -0.942156 0.012233 -1.088016 -0.030537 -0.035714
    37 1.164475 -2.543940 -0.170330 -0.602082 -0.317918 0.099030
    38 0.024032 -1.144668 -0.005631 -1.130812 0.016203 0.057144
    39 0.014898 -0.903521 -0.015942 -0.998023 0.008617 0.050060
    40 -0.586770 -1.264477 0.200161 -0.253122 -0.786188 -2.571541
    41 1.554086 0.035243 0.016848 -0.013031 -0.005133 0.679277
    42 1.114041 0.044518 -0.005766 -0.027796 -0.034510 1.004493
    43 -0.030021 -0.365612 -0.130139 0.353701 0.248194 1.595393
    44 -6.565503 5.702363 -0.391781 1.578731 -0.024558 -0.814593
  time 29
    0 4.018508 -11.672231 -4.528540 -0.120967 -1.459186 1.546200
    1 0.919767 -0.005082 3.117851 0.000001 0.000000 -3.141592
    2 2.436037 0.000002 2.287674 0.000002 -1.570806 0.000000
    3 3.918048 -0.005082 -0.000895 1.570796 0.000001 0.000049
    4 0.799494 0.000001 1.443456 0.000002 -3.141592 0.000000
    5 1.483066 0.339569 -4.630651 0.000000 0.000000 0.000000
    6 0.130064 -1.833352 -0.913471 0.000000 -0.090508 0.123359
    7 7.044409 -2.276084 -7.319517 0.318627 -2.237427 -0.664553
    8 8.058169 1.313139 -0.368563 1.568465 -3.117723 0.239176
    9 0.010113 -8.487017 -0.068977 0.055809 0.671365 0.190437
    10 -0.488518 -2.755602 -0.228260 -0.838448 0.133809 -0.215377
    11 0.039887 -1.542292 0.018135 -1.742879 -0.008845 0.039095
    12 0.028786 -1.122607 -0.101236 -0.693211 -0.012776 0.013075
    13 0.250027 -2.820665 -0.238396 -0.624963 0.091350 -0.090574
    14 -0.049759 -1.594604 0.022352 -1.677306 -0.002373 -0.044105
    15 -0.034142 -1.163937 0.053531 -0.915481 0.008245 -0.023538
    16 0.957766 -2.746780 -0.090302 0.110786 -0.129475 0.117505
    17 -0.033420 -1.393223 -0.022976 -0.682927 0.008090 -0.033534
    18 -0.022360 -0.965249 -0.008561 -1.143045 -0.000108 -0.054818
    19 -1.180681 -2.507217 -0.193859 -0.465165 0.213844 -0.104451
    20 -0.024967 -1.127840 0.017597 -1.105955 0.001834 -0.047194
    21 -0.020057 -0.906594 0.041341 -1.353410 -0.002493 -0.054913
    22 0.626480 -1.197277 0.185379 0.479847 -0.970146 -0.342538
    23 1.434361 -0.263200 0.083136 0.088083 -0.256362 -0.978160
    24 1.038269 -0.155634 0.036197 0.050907 -0.204807 -0.841460
    25 0.120153 -0.050270 -0.054489 0.287569 3.110905 1.561085
    26 -2.880224 -5.821122 -6.911650 0.660536 -4.186564 0.929754
    27 0.132101 -8.485576 -0.036710 0.313930 -0.060659 0.044003
    28 0.447953 -2.798986 -0.200443 -0.784087 -0.150052 0.139112
    29 -0.032909 -1.499736 0.032285 -1.611057 0.022962 -0.032728
    30 -0.027022 -1.104265 -0.028023 -0.656407 0.016551 -0.008090
    31 -0.249534 -2.846964 -0.174213 -0.619644 -0.097356 0.024010
    32 0.043235 -1.656596 0.064761 -1.586648 -0.023591 0.010427
    33 0.031729 -1.145205 0.058838 -1.024918 -0.011295 0.005783
    34 -0.963866 -2.785145 -0.085350 -0.571934 0.070977 -0.128493
    35 0.028479 -1.410880 -0.024980 -1.238228 -0.037056 -0.037931
    36 0.021413 -0.942156 0.012233 -1.088016 -0.030537 -0.035714
    37 1.164475 -2.543940 -0.170330 -0.602082 -0.317918 0.099030
    38 0.024032 -1.144668 -0.005631 -1.130812 0.016203 0.057144
    39 0.014898 -0.903521 -0.015942 -0.998023 0.008617 0.050060
    40 -0.586770 -1.264477 0.200161 -0.253122 -0.786188 -2.571541
    41 1.554086 0.035243 0.016848 -0.013031 -0.005121 0.679277
    42 1.114041 0.044518 -0.005766 -0.027796 -0.034510 1.004493
    43 -0.030021 -0.365612 -0.130139 0.353701 0.248194 1.595393
    44 -6.557690 5.710175 -0.391781 1.578755 -0.024522 -0.816302
  time 30
    0 4.018508 -11.672231 -4.528540 -0.121251 -1.459223 1.546774
    1 0.919767 -0.005082 3.117851 0.000001 0.000000 -3.141592
    2 2.436037 0.000002 2.287674 0.000002 -1.571142 0.000000
    3 3.918048 -0.005082 -0.000895 1.570796 0.000001 0.000049
    4 0.799494 0.000001 1.443456 0.000002 -3.141592 0.000000
    5 1.483066 0.339569 -4.630651 0.000000 0.000000 0.000000
    6 0.130064 -1.833352 -0.913471 0.000000 -0.090508 0.123359
    7 7.044409 -2.279991 -7.319517 0.318723 -2.237348 -0.664457
    8 8.058169 1.313139 -0.368563 1.568465 -3.117723 0.239303
    9 0.006206 -8.487017 -0.068977 0.055809 0.671231 0.190283
    10 -0.488518 -2.755602 -0.228260 -0.838448 0.133809 -0.215377
    11 0.039887 -1.542292 0.018135 -1.742879 -0.008845 0.039095
    12 0.028786 -1.122607 -0.101236 -0.693211 -0.012776 0.013075
    13 0.250027 -2.820665 -0.238396 -0.624963 0.091350 -0.090574
    14 -0.049759 -1.594604 0.022352 -1.677306 -0.002373 -0.044105
    15 -0.034142 -1.163937 0.053531 -0.915481 0.008245 -0.023538
    16 0.957766 -2.746780 -0.090302 0.110786 -0.129475 0.117505
    17 -0.033420 -1.393223 -0.022976 -0.682927 0.008090 -0.033534
    18 -0.022360 -0.965249 -0.008561 -1.143045 -0.000108 -0.054818
    19 -1.180681 -2.507217 -0.193859 -0.465165 0.213844 -0.104451
    20 -0.024967 -1.127840 0.017597 -1.105955 0.001834 -0.047194
    21 -0.020057 -0.906594 0.041341 -1.353410 -0.002493 -0.054913
    22 0.626480 -1.197277 0.185379 0.479847 -0.970146 -0.342538
    23 1.434361 -0.263200 0.083136 0.088083 -0.256362 -0.978160
    24 1.038269 -0.155634 0.036197 0.050907 -0.204807 -0.841460
    25 0.120153 -0.050270 -0.054489 0.287569 3.110905 1.561085
    26 -2.876317 -5.821122 -6.907744 0.660162 -4.186709 0.929373
    27 0.132101 -8.485576 -0.036710 0.313781 -0.060756 0.043719
    28 0.447953 -2.798986 -0.200443 -0.784087 -0.150052 0.139112
    29 -0.032909 -1.499736 0.032285 -1.611057 0.022962 -0.032728
    30 -0.027022 -1.104265 -0.028023 -0.656407 0.016551 -0.008090
    31 -0.249534 -2.846964 -0.174213 -0.619644 -0.097356 0.024010
    32 0.043235 -1.656596 0.064761 -1.586648 -0.023591 0.010427
    33 0.031729 -1.145205 0.058838 -1.024918 -0.011295 0.005783
    34 -0.963866 -2.785145 -0.085350 -0.571934 0.070977 -0.128493
    35 0.028479 -1.410880 -0.024980 -1.238228 -0.037056 -0.037931
    36 0.021413 -0.942156 0.012233 -1.088016 -0.030537 -0.035714
    37 1.164475 -2.543940 -0.170330 -0.602082 -0.317918 0.099030
    38 0.024032 -1.144668 -0.005631 -1.130812 0.016203 0.057144
    39 0.014898 -0.903521 -0.015942 -0.998023 0.008617 0.050060
    40 -0.586770 -1.264477 0.200161 -0.253122 -0.786188 -2.571541
    41 1.554086 0.035243 0.016848 -0.013031 -0.005133 0.679277
    42 1.114041 0.044518 -0.005766 -0.027796 -0.034510 1.004493
    43 -0.030021 -0.365612 -0.130139 0.353701 0.248194 1.595393
    44 -6.553784 5.717988 -0.391781 1.578767 -0.024498 -0.817045
end
