version 1
nodes
  0 "Bone01" -1
  1 "Bone_Lefthand" 0
  2 "BONE_SteyrTMP" 1
  3 "Bone03" 2
  4 "BONE_Magazine" 3
  5 "BONE_Trigger" 3
  6 "BONE_Ejector" 3
  7 "Bone 04" 1
  8 "Bone13" 7
  9 "Bone14" 8
  10 "Bone15" 9
  11 "Bone17" 7
  12 "Bone18" 11
  13 "Bone19" 12
  14 "Bone21" 7
  15 "Bone22" 14
  16 "Bone23" 15
  17 "Bone05" 7
  18 "Bone06" 17
  19 "Bone07" 18
  20 "Bone09" 7
  21 "Bone10" 20
  22 "Bone11" 21
  23 "Bone04" -1
  24 "Bone_Righthand" 23
  25 "Bone26" 24
  26 "Bone35" 25
  27 "Bone36" 26
  28 "Bone37" 27
  29 "Bone31" 25
  30 "Bone32" 29
  31 "Bone33" 30
  32 "Bone39" 25
  33 "Bone40" 32
  34 "Bone41" 33
  35 "Bone43" 25
  36 "Bone44" 35
  37 "Bone45" 36
  38 "Bone27" 25
  39 "Bone28" 38
  40 "Bone29" 39
end
skeleton
  time 0
    0 8.106566 1.165595 -7.444036 -0.774334 -1.331388 0.567253
    1 0.000001 -8.563286 0.000002 0.347149 -0.117022 -0.166593
    2 -0.369222 -3.628151 0.519134 -1.186399 1.434476 -1.173754
    3 0.000000 2.607914 0.629496 0.000000 0.000000 0.000000
    4 0.000000 -1.303957 1.019184 0.000000 0.000000 0.000000
    5 -0.000001 -2.877697 1.453836 0.000000 0.000000 0.000000
    6 -0.000001 -0.239809 2.158269 0.000000 0.000000 0.000000
    7 -0.003480 -0.404830 0.000001 0.000000 0.000000 0.000000
    8 -0.519308 -2.501153 -0.278957 -1.003564 0.000000 -0.122173
    9 -0.010598 -1.208185 0.000001 -1.221727 0.000000 0.000000
    10 0.000000 -0.763067 0.000000 -1.178108 0.000000 0.000000
    11 0.105981 -2.607133 -0.278957 -0.890118 0.000000 -0.148353
    12 0.000001 -1.250579 0.000000 -1.300264 0.000000 0.000000
    13 0.000000 -0.932634 0.000000 -1.274094 0.000000 0.000000
    14 0.763064 -2.490556 -0.278957 -0.295638 0.025479 0.214361
    15 -0.012322 -1.280917 0.000001 -0.785372 0.000000 0.000000
    16 -0.001697 -0.749371 0.000000 -0.593412 0.000000 0.000000
    17 0.354567 0.016268 0.318133 0.342077 -0.443527 -1.083976
    18 1.887165 0.012878 0.000000 -0.301502 -0.049640 -0.559682
    19 1.001874 -0.000270 0.000000 0.000000 0.000000 -0.759198
    20 -1.123358 -2.195092 -0.278957 -0.864264 0.002816 -0.081154
    21 0.010772 -0.963791 0.000001 -0.575966 0.000000 0.000000
    22 -0.010412 -0.631916 -0.000001 -1.431159 0.000000 0.000000
    23 -0.577655 -5.615167 -9.483005 -1.556752 1.210529 -0.901018
    24 0.089932 -8.543163 0.000002 0.025661 0.088295 0.284334
    25 0.000000 -0.359713 0.000000 0.000000 0.000000 0.000000
    26 -0.170479 -2.636148 -0.277654 -1.160687 0.000000 0.000000
    27 0.010599 -1.261177 0.000001 -0.881370 0.000000 0.000000
    28 -0.000001 -0.943233 0.000000 -0.916292 0.000000 0.000000
    29 -0.827562 -2.508974 -0.277655 -1.239206 0.000000 0.000000
    30 0.000000 -1.292971 0.000000 -0.811549 0.000000 0.000000
    31 0.000000 -0.752466 0.000000 -1.160644 0.000000 0.000000
    32 0.444214 -2.561961 -0.277654 -1.116425 -0.047988 -0.024479
    33 0.021022 -1.208186 0.000000 -0.733035 0.000000 0.000000
    34 0.010598 -0.741867 -0.000001 -0.846473 0.000000 0.000000
    35 1.047446 -2.222822 -0.277654 -0.854492 -0.053779 -0.039460
    36 0.000000 -0.996223 -0.000002 -0.584707 0.000000 0.000000
    37 -0.000001 -0.614690 0.000000 -0.916284 0.000000 0.000000
    38 -0.308253 -0.007814 0.307165 0.078469 -0.558446 -2.106404
    39 1.978378 0.019544 -0.000001 -0.000002 -0.000010 0.567231
    40 0.982426 0.003186 0.000000 0.000000 0.000000 0.593405
  time 1
    0 8.106566 1.165595 -7.444036 -0.774334 -1.331388 0.567253
    1 0.000001 -8.563286 0.000002 0.347149 -0.117022 -0.166593
    2 -0.369222 -3.628151 0.519134 -1.186399 1.434476 -1.173754
    3 0.000000 2.607914 0.629496 0.000000 0.000000 0.000000
    4 0.000000 -1.303957 1.019184 0.000000 0.000000 0.000000
    5 -0.000001 -2.877697 1.453836 0.000000 0.000000 0.000000
    6 -0.000001 -0.239809 2.158269 0.000000 0.000000 0.000000
    7 -0.003480 -0.404830 0.000001 0.000000 0.000000 0.000000
    8 -0.519308 -2.501153 -0.278957 -1.003564 0.000000 -0.122173
    9 -0.010598 -1.208185 0.000001 -1.221727 0.000000 0.000000
    10 0.000000 -0.763067 0.000000 -1.178108 0.000000 0.000000
    11 0.105981 -2.607133 -0.278957 -0.890118 0.000000 -0.148353
    12 0.000001 -1.250579 0.000000 -1.300264 0.000000 0.000000
    13 0.000000 -0.932634 0.000000 -1.274094 0.000000 0.000000
    14 0.763064 -2.490556 -0.278957 -0.295638 0.025479 0.214361
    15 -0.012322 -1.280917 0.000001 -0.785372 0.000000 0.000000
    16 -0.001697 -0.749371 0.000000 -0.593412 0.000000 0.000000
    17 0.354567 0.016268 0.318133 0.342077 -0.443527 -1.083976
    18 1.887165 0.012878 0.000000 -0.301502 -0.049640 -0.559682
    19 1.001874 -0.000270 0.000000 0.000000 0.000000 -0.759198
    20 -1.123358 -2.195092 -0.278957 -0.864264 0.002816 -0.081154
    21 0.010772 -0.963791 0.000001 -0.575966 0.000000 0.000000
    22 -0.010412 -0.631916 -0.000001 -1.431159 0.000000 0.000000
    23 -0.577655 -5.615167 -9.483005 -1.556752 1.210529 -0.901018
    24 0.089932 -8.543163 0.000002 0.025661 0.088295 0.284334
    25 0.000000 -0.359713 0.000000 0.000000 0.000000 0.000000
    26 -0.170479 -2.636148 -0.277654 -1.160687 0.000000 0.000000
    27 0.010599 -1.261177 0.000001 -0.881370 0.000000 0.000000
    28 -0.000001 -0.943233 0.000000 -0.916292 0.000000 0.000000
    29 -0.827562 -2.508974 -0.277655 -1.239206 0.000000 0.000000
    30 0.000000 -1.292971 0.000000 -0.811549 0.000000 0.000000
    31 0.000000 -0.752466 0.000000 -1.160644 0.000000 0.000000
    32 0.444214 -2.561961 -0.277654 -1.116425 -0.047988 -0.024479
    33 0.021022 -1.208186 0.000000 -0.733035 0.000000 0.000000
    34 0.010598 -0.741867 -0.000001 -0.846473 0.000000 0.000000
    35 1.047446 -2.222822 -0.277654 -0.854492 -0.053779 -0.039460
    36 0.000000 -0.996223 -0.000002 -0.584707 0.000000 0.000000
    37 -0.000001 -0.614690 0.000000 -0.916284 0.000000 0.000000
    38 -0.308253 -0.007814 0.307165 0.078469 -0.558446 -2.106404
    39 1.978378 0.019544 -0.000001 -0.000002 -0.000010 0.567231
    40 0.982426 0.003186 0.000000 0.000000 0.000000 0.593405
  time 2
    0 8.106566 1.165595 -7.444036 -0.774334 -1.331388 0.567253
    1 0.000001 -8.563286 0.000002 0.347149 -0.117022 -0.166593
    2 -0.369222 -3.628151 0.519134 -1.186399 1.434476 -1.173754
    3 0.000000 2.607914 0.629496 0.000000 0.000000 0.000000
    4 0.000000 -1.303957 1.019184 0.000000 0.000000 0.000000
    5 -0.000001 -2.877697 1.453836 0.000000 0.000000 0.000000
    6 -0.000001 -0.239809 2.158269 0.000000 0.000000 0.000000
    7 -0.003480 -0.404830 0.000001 0.000000 0.000000 0.000000
    8 -0.519308 -2.501153 -0.278957 -1.003564 0.000000 -0.122173
    9 -0.010598 -1.208185 0.000001 -1.221727 0.000000 0.000000
    10 0.000000 -0.763067 0.000000 -1.178108 0.000000 0.000000
    11 0.105981 -2.607133 -0.278957 -0.890118 0.000000 -0.148353
    12 0.000001 -1.250579 0.000000 -1.300264 0.000000 0.000000
    13 0.000000 -0.932634 0.000000 -1.274094 0.000000 0.000000
    14 0.763064 -2.490556 -0.278957 -0.295638 0.025479 0.214361
    15 -0.012322 -1.280917 0.000001 -0.785372 0.000000 0.000000
    16 -0.001697 -0.749371 0.000000 -0.593412 0.000000 0.000000
    17 0.354567 0.016268 0.318133 0.342077 -0.443527 -1.083976
    18 1.887165 0.012878 0.000000 -0.301502 -0.049640 -0.559682
    19 1.001874 -0.000270 0.000000 0.000000 0.000000 -0.759198
    20 -1.123358 -2.195092 -0.278957 -0.864264 0.002816 -0.081154
    21 0.010772 -0.963791 0.000001 -0.575966 0.000000 0.000000
    22 -0.010412 -0.631916 -0.000001 -1.431159 0.000000 0.000000
    23 -0.577655 -5.615167 -9.483005 -1.556752 1.210529 -0.901018
    24 0.089932 -8.543163 0.000002 0.025661 0.088295 0.284334
    25 0.000000 -0.359713 0.000000 0.000000 0.000000 0.000000
    26 -0.170479 -2.636148 -0.277654 -1.160687 0.000000 0.000000
    27 0.010599 -1.261177 0.000001 -0.881370 0.000000 0.000000
    28 -0.000001 -0.943233 0.000000 -0.916292 0.000000 0.000000
    29 -0.827562 -2.508974 -0.277655 -1.239206 0.000000 0.000000
    30 0.000000 -1.292971 0.000000 -0.811549 0.000000 0.000000
    31 0.000000 -0.752466 0.000000 -1.160644 0.000000 0.000000
    32 0.444214 -2.561961 -0.277654 -1.116425 -0.047988 -0.024479
    33 0.021022 -1.208186 0.000000 -0.733035 0.000000 0.000000
    34 0.010598 -0.741867 -0.000001 -0.846473 0.000000 0.000000
    35 1.047446 -2.222822 -0.277654 -0.854492 -0.053779 -0.039460
    36 0.000000 -0.996223 -0.000002 -0.584707 0.000000 0.000000
    37 -0.000001 -0.614690 0.000000 -0.916284 0.000000 0.000000
    38 -0.308253 -0.007814 0.307165 0.078469 -0.558446 -2.106404
    39 1.978378 0.019544 -0.000001 -0.000002 -0.000010 0.567231
    40 0.982426 0.003186 0.000000 0.000000 0.000000 0.593405
  time 3
    0 8.106566 1.165595 -7.444036 -0.774334 -1.331388 0.567253
    1 0.000001 -8.563286 0.000002 0.347149 -0.117022 -0.166593
    2 -0.369222 -3.628151 0.519134 -1.186399 1.434476 -1.173754
    3 0.000000 2.607914 0.629496 0.000000 0.000000 0.000000
    4 0.000000 -1.303957 1.019184 0.000000 0.000000 0.000000
    5 -0.000001 -2.877697 1.453836 0.000000 0.000000 0.000000
    6 -0.000001 -0.239809 2.158269 0.000000 0.000000 0.000000
    7 -0.003480 -0.404830 0.000001 0.000000 0.000000 0.000000
    8 -0.519308 -2.501153 -0.278957 -1.003564 0.000000 -0.122173
    9 -0.010598 -1.208185 0.000001 -1.221727 0.000000 0.000000
    10 0.000000 -0.763067 0.000000 -1.178108 0.000000 0.000000
    11 0.105981 -2.607133 -0.278957 -0.890118 0.000000 -0.148353
    12 0.000001 -1.250579 0.000000 -1.300264 0.000000 0.000000
    13 0.000000 -0.932634 0.000000 -1.274094 0.000000 0.000000
    14 0.763064 -2.490556 -0.278957 -0.295638 0.025479 0.214361
    15 -0.012322 -1.280917 0.000001 -0.785372 0.000000 0.000000
    16 -0.001697 -0.749371 0.000000 -0.593412 0.000000 0.000000
    17 0.354567 0.016268 0.318133 0.342077 -0.443527 -1.083976
    18 1.887165 0.012878 0.000000 -0.301502 -0.049640 -0.559682
    19 1.001874 -0.000270 0.000000 0.000000 0.000000 -0.759198
    20 -1.123358 -2.195092 -0.278957 -0.864264 0.002816 -0.081154
    21 0.010772 -0.963791 0.000001 -0.575966 0.000000 0.000000
    22 -0.010412 -0.631916 -0.000001 -1.431159 0.000000 0.000000
    23 -0.577655 -5.615167 -9.483005 -1.556752 1.210529 -0.901018
    24 0.089932 -8.543163 0.000002 0.025661 0.088295 0.284334
    25 0.000000 -0.359713 0.000000 0.000000 0.000000 0.000000
    26 -0.170479 -2.636148 -0.277654 -1.160687 0.000000 0.000000
    27 0.010599 -1.261177 0.000001 -0.881370 0.000000 0.000000
    28 -0.000001 -0.943233 0.000000 -0.916292 0.000000 0.000000
    29 -0.827562 -2.508974 -0.277655 -1.239206 0.000000 0.000000
    30 0.000000 -1.292971 0.000000 -0.811549 0.000000 0.000000
    31 0.000000 -0.752466 0.000000 -1.160644 0.000000 0.000000
    32 0.444214 -2.561961 -0.277654 -1.116425 -0.047988 -0.024479
    33 0.021022 -1.208186 0.000000 -0.733035 0.000000 0.000000
    34 0.010598 -0.741867 -0.000001 -0.846473 0.000000 0.000000
    35 1.047446 -2.222822 -0.277654 -0.854492 -0.053779 -0.039460
    36 0.000000 -0.996223 -0.000002 -0.584707 0.000000 0.000000
    37 -0.000001 -0.614690 0.000000 -0.916284 0.000000 0.000000
    38 -0.308253 -0.007814 0.307165 0.078469 -0.558446 -2.106404
    39 1.978378 0.019544 -0.000001 -0.000002 -0.000010 0.567231
    40 0.982426 0.003186 0.000000 0.000000 0.000000 0.593405
  time 4
    0 8.106566 1.165595 -7.444036 -0.774334 -1.331388 0.567253
    1 0.000001 -8.563286 0.000002 0.347149 -0.117022 -0.166593
    2 -0.369222 -3.628151 0.519134 -1.186399 1.434476 -1.173754
    3 0.000000 2.607914 0.629496 0.000000 0.000000 0.000000
    4 0.000000 -1.303957 1.019184 0.000000 0.000000 0.000000
    5 -0.000001 -2.877697 1.453836 0.000000 0.000000 0.000000
    6 -0.000001 -0.239809 2.158269 0.000000 0.000000 0.000000
    7 -0.003480 -0.404830 0.000001 0.000000 0.000000 0.000000
    8 -0.519308 -2.501153 -0.278957 -1.003564 0.000000 -0.122173
    9 -0.010598 -1.208185 0.000001 -1.221727 0.000000 0.000000
    10 0.000000 -0.763067 0.000000 -1.178108 0.000000 0.000000
    11 0.105981 -2.607133 -0.278957 -0.890118 0.000000 -0.148353
    12 0.000001 -1.250579 0.000000 -1.300264 0.000000 0.000000
    13 0.000000 -0.932634 0.000000 -1.274094 0.000000 0.000000
    14 0.763064 -2.490556 -0.278957 -0.295638 0.025479 0.214361
    15 -0.012322 -1.280917 0.000001 -0.785372 0.000000 0.000000
    16 -0.001697 -0.749371 0.000000 -0.593412 0.000000 0.000000
    17 0.354567 0.016268 0.318133 0.342077 -0.443527 -1.083976
    18 1.887165 0.012878 0.000000 -0.301502 -0.049640 -0.559682
    19 1.001874 -0.000270 0.000000 0.000000 0.000000 -0.759198
    20 -1.123358 -2.195092 -0.278957 -0.864264 0.002816 -0.081154
    21 0.010772 -0.963791 0.000001 -0.575966 0.000000 0.000000
    22 -0.010412 -0.631916 -0.000001 -1.431159 0.000000 0.000000
    23 -0.577655 -5.615167 -9.483005 -1.556752 1.210529 -0.901018
    24 0.089932 -8.543163 0.000002 0.025661 0.088295 0.284334
    25 0.000000 -0.359713 0.000000 0.000000 0.000000 0.000000
    26 -0.170479 -2.636148 -0.277654 -1.160687 0.000000 0.000000
    27 0.010599 -1.261177 0.000001 -0.881370 0.000000 0.000000
    28 -0.000001 -0.943233 0.000000 -0.916292 0.000000 0.000000
    29 -0.827562 -2.508974 -0.277655 -1.239206 0.000000 0.000000
    30 0.000000 -1.292971 0.000000 -0.811549 0.000000 0.000000
    31 0.000000 -0.752466 0.000000 -1.160644 0.000000 0.000000
    32 0.444214 -2.561961 -0.277654 -1.116425 -0.047988 -0.024479
    33 0.021022 -1.208186 0.000000 -0.733035 0.000000 0.000000
    34 0.010598 -0.741867 -0.000001 -0.846473 0.000000 0.000000
    35 1.047446 -2.222822 -0.277654 -0.854492 -0.053779 -0.039460
    36 0.000000 -0.996223 -0.000002 -0.584707 0.000000 0.000000
    37 -0.000001 -0.614690 0.000000 -0.916284 0.000000 0.000000
    38 -0.308253 -0.007814 0.307165 0.078469 -0.558446 -2.106404
    39 1.978378 0.019544 -0.000001 -0.000002 -0.000010 0.567231
    40 0.982426 0.003186 0.000000 0.000000 0.000000 0.593405
  time 5
    0 8.106566 1.165595 -7.444036 -0.774334 -1.331388 0.567253
    1 0.000001 -8.563286 0.000002 0.347149 -0.117022 -0.166593
    2 -0.369222 -3.628151 0.519134 -1.186399 1.434476 -1.173754
    3 0.000000 2.607914 0.629496 0.000000 0.000000 0.000000
    4 0.000000 -1.303957 1.019184 0.000000 0.000000 0.000000
    5 -0.000001 -2.877697 1.453836 0.000000 0.000000 0.000000
    6 -0.000001 -0.239809 2.158269 0.000000 0.000000 0.000000
    7 -0.003480 -0.404830 0.000001 0.000000 0.000000 0.000000
    8 -0.519308 -2.501153 -0.278957 -1.003564 0.000000 -0.122173
    9 -0.010598 -1.208185 0.000001 -1.221727 0.000000 0.000000
    10 0.000000 -0.763067 0.000000 -1.178108 0.000000 0.000000
    11 0.105981 -2.607133 -0.278957 -0.890118 0.000000 -0.148353
    12 0.000001 -1.250579 0.000000 -1.300264 0.000000 0.000000
    13 0.000000 -0.932634 0.000000 -1.274094 0.000000 0.000000
    14 0.763064 -2.490556 -0.278957 -0.295638 0.025479 0.214361
    15 -0.012322 -1.280917 0.000001 -0.785372 0.000000 0.000000
    16 -0.001697 -0.749371 0.000000 -0.593412 0.000000 0.000000
    17 0.354567 0.016268 0.318133 0.342077 -0.443527 -1.083976
    18 1.887165 0.012878 0.000000 -0.301502 -0.049640 -0.559682
    19 1.001874 -0.000270 0.000000 0.000000 0.000000 -0.759198
    20 -1.123358 -2.195092 -0.278957 -0.864264 0.002816 -0.081154
    21 0.010772 -0.963791 0.000001 -0.575966 0.000000 0.000000
    22 -0.010412 -0.631916 -0.000001 -1.431159 0.000000 0.000000
    23 -0.577655 -5.615167 -9.483005 -1.556752 1.210529 -0.901018
    24 0.089932 -8.543163 0.000002 0.025661 0.088295 0.284334
    25 0.000000 -0.359713 0.000000 0.000000 0.000000 0.000000
    26 -0.170479 -2.636148 -0.277654 -1.160687 0.000000 0.000000
    27 0.010599 -1.261177 0.000001 -0.881370 0.000000 0.000000
    28 -0.000001 -0.943233 0.000000 -0.916292 0.000000 0.000000
    29 -0.827562 -2.508974 -0.277655 -1.239206 0.000000 0.000000
    30 0.000000 -1.292971 0.000000 -0.811549 0.000000 0.000000
    31 0.000000 -0.752466 0.000000 -1.160644 0.000000 0.000000
    32 0.444214 -2.561961 -0.277654 -1.116425 -0.047988 -0.024479
    33 0.021022 -1.208186 0.000000 -0.733035 0.000000 0.000000
    34 0.010598 -0.741867 -0.000001 -0.846473 0.000000 0.000000
    35 1.047446 -2.222822 -0.277654 -0.854492 -0.053779 -0.039460
    36 0.000000 -0.996223 -0.000002 -0.584707 0.000000 0.000000
    37 -0.000001 -0.614690 0.000000 -0.916284 0.000000 0.000000
    38 -0.308253 -0.007814 0.307165 0.078469 -0.558446 -2.106404
    39 1.978378 0.019544 -0.000001 -0.000002 -0.000010 0.567231
    40 0.982426 0.003186 0.000000 0.000000 0.000000 0.593405
  time 6
    0 8.106566 1.165595 -7.444036 -0.774334 -1.331388 0.567253
    1 0.000001 -8.563286 0.000002 0.347149 -0.117022 -0.166593
    2 -0.369222 -3.628151 0.519134 -1.186399 1.434476 -1.173754
    3 0.000000 2.607914 0.629496 0.000000 0.000000 0.000000
    4 0.000000 -1.303957 1.019184 0.000000 0.000000 0.000000
    5 -0.000001 -2.877697 1.453836 0.000000 0.000000 0.000000
    6 -0.000001 -0.239809 2.158269 0.000000 0.000000 0.000000
    7 -0.003480 -0.404830 0.000001 0.000000 0.000000 0.000000
    8 -0.519308 -2.501153 -0.278957 -1.003564 0.000000 -0.122173
    9 -0.010598 -1.208185 0.000001 -1.221727 0.000000 0.000000
    10 0.000000 -0.763067 0.000000 -1.178108 0.000000 0.000000
    11 0.105981 -2.607133 -0.278957 -0.890118 0.000000 -0.148353
    12 0.000001 -1.250579 0.000000 -1.300264 0.000000 0.000000
    13 0.000000 -0.932634 0.000000 -1.274094 0.000000 0.000000
    14 0.763064 -2.490556 -0.278957 -0.295638 0.025479 0.214361
    15 -0.012322 -1.280917 0.000001 -0.785372 0.000000 0.000000
    16 -0.001697 -0.749371 0.000000 -0.593412 0.000000 0.000000
    17 0.354567 0.016268 0.318133 0.342077 -0.443527 -1.083976
    18 1.887165 0.012878 0.000000 -0.301502 -0.049640 -0.559682
    19 1.001874 -0.000270 0.000000 0.000000 0.000000 -0.759198
    20 -1.123358 -2.195092 -0.278957 -0.864264 0.002816 -0.081154
    21 0.010772 -0.963791 0.000001 -0.575966 0.000000 0.000000
    22 -0.010412 -0.631916 -0.000001 -1.431159 0.000000 0.000000
    23 -0.577655 -5.615167 -9.483005 -1.556752 1.210529 -0.901018
    24 0.089932 -8.543163 0.000002 0.025661 0.088295 0.284334
    25 0.000000 -0.359713 0.000000 0.000000 0.000000 0.000000
    26 -0.170479 -2.636148 -0.277654 -1.160687 0.000000 0.000000
    27 0.010599 -1.261177 0.000001 -0.881370 0.000000 0.000000
    28 -0.000001 -0.943233 0.000000 -0.916292 0.000000 0.000000
    29 -0.827562 -2.508974 -0.277655 -1.239206 0.000000 0.000000
    30 0.000000 -1.292971 0.000000 -0.811549 0.000000 0.000000
    31 0.000000 -0.752466 0.000000 -1.160644 0.000000 0.000000
    32 0.444214 -2.561961 -0.277654 -1.116425 -0.047988 -0.024479
    33 0.021022 -1.208186 0.000000 -0.733035 0.000000 0.000000
    34 0.010598 -0.741867 -0.000001 -0.846473 0.000000 0.000000
    35 1.047446 -2.222822 -0.277654 -0.854492 -0.053779 -0.039460
    36 0.000000 -0.996223 -0.000002 -0.584707 0.000000 0.000000
    37 -0.000001 -0.614690 0.000000 -0.916284 0.000000 0.000000
    38 -0.308253 -0.007814 0.307165 0.078469 -0.558446 -2.106404
    39 1.978378 0.019544 -0.000001 -0.000002 -0.000010 0.567231
    40 0.982426 0.003186 0.000000 0.000000 0.000000 0.593405
  time 7
    0 8.106566 1.165595 -7.444036 -0.774334 -1.331388 0.567253
    1 0.000001 -8.563286 0.000002 0.347149 -0.117022 -0.166593
    2 -0.369222 -3.628151 0.519134 -1.186399 1.434476 -1.173754
    3 0.000000 2.607914 0.629496 0.000000 0.000000 0.000000
    4 0.000000 -1.303957 1.019184 0.000000 0.000000 0.000000
    5 -0.000001 -2.877697 1.453836 0.000000 0.000000 0.000000
    6 -0.000001 -0.239809 2.158269 0.000000 0.000000 0.000000
    7 -0.003480 -0.404830 0.000001 0.000000 0.000000 0.000000
    8 -0.519308 -2.501153 -0.278957 -1.003564 0.000000 -0.122173
    9 -0.010598 -1.208185 0.000001 -1.221727 0.000000 0.000000
    10 0.000000 -0.763067 0.000000 -1.178108 0.000000 0.000000
    11 0.105981 -2.607133 -0.278957 -0.890118 0.000000 -0.148353
    12 0.000001 -1.250579 0.000000 -1.300264 0.000000 0.000000
    13 0.000000 -0.932634 0.000000 -1.274094 0.000000 0.000000
    14 0.763064 -2.490556 -0.278957 -0.295638 0.025479 0.214361
    15 -0.012322 -1.280917 0.000001 -0.785372 0.000000 0.000000
    16 -0.001697 -0.749371 0.000000 -0.593412 0.000000 0.000000
    17 0.354567 0.016268 0.318133 0.342077 -0.443527 -1.083976
    18 1.887165 0.012878 0.000000 -0.301502 -0.049640 -0.559682
    19 1.001874 -0.000270 0.000000 0.000000 0.000000 -0.759198
    20 -1.123358 -2.195092 -0.278957 -0.864264 0.002816 -0.081154
    21 0.010772 -0.963791 0.000001 -0.575966 0.000000 0.000000
    22 -0.010412 -0.631916 -0.000001 -1.431159 0.000000 0.000000
    23 -0.577655 -5.615167 -9.483005 -1.556752 1.210529 -0.901018
    24 0.089932 -8.543163 0.000002 0.025661 0.088295 0.284334
    25 0.000000 -0.359713 0.000000 0.000000 0.000000 0.000000
    26 -0.170479 -2.636148 -0.277654 -1.160687 0.000000 0.000000
    27 0.010599 -1.261177 0.000001 -0.881370 0.000000 0.000000
    28 -0.000001 -0.943233 0.000000 -0.916292 0.000000 0.000000
    29 -0.827562 -2.508974 -0.277655 -1.239206 0.000000 0.000000
    30 0.000000 -1.292971 0.000000 -0.811549 0.000000 0.000000
    31 0.000000 -0.752466 0.000000 -1.160644 0.000000 0.000000
    32 0.444214 -2.561961 -0.277654 -1.116425 -0.047988 -0.024479
    33 0.021022 -1.208186 0.000000 -0.733035 0.000000 0.000000
    34 0.010598 -0.741867 -0.000001 -0.846473 0.000000 0.000000
    35 1.047446 -2.222822 -0.277654 -0.854492 -0.053779 -0.039460
    36 0.000000 -0.996223 -0.000002 -0.584707 0.000000 0.000000
    37 -0.000001 -0.614690 0.000000 -0.916284 0.000000 0.000000
    38 -0.308253 -0.007814 0.307165 0.078469 -0.558446 -2.106404
    39 1.978378 0.019544 -0.000001 -0.000002 -0.000010 0.567231
    40 0.982426 0.003186 0.000000 0.000000 0.000000 0.593405
  time 8
    0 8.106566 1.165595 -7.444036 -0.774334 -1.331388 0.567253
    1 0.000001 -8.563286 0.000002 0.347149 -0.117022 -0.166593
    2 -0.369222 -3.628151 0.519134 -1.186399 1.434476 -1.173754
    3 0.000000 2.607914 0.629496 0.000000 0.000000 0.000000
    4 0.000000 -1.303957 1.019184 0.000000 0.000000 0.000000
    5 -0.000001 -2.877697 1.453836 0.000000 0.000000 0.000000
    6 -0.000001 -0.239809 2.158269 0.000000 0.000000 0.000000
    7 -0.003480 -0.404830 0.000001 0.000000 0.000000 0.000000
    8 -0.519308 -2.501153 -0.278957 -1.003564 0.000000 -0.122173
    9 -0.010598 -1.208185 0.000001 -1.221727 0.000000 0.000000
    10 0.000000 -0.763067 0.000000 -1.178108 0.000000 0.000000
    11 0.105981 -2.607133 -0.278957 -0.890118 0.000000 -0.148353
    12 0.000001 -1.250579 0.000000 -1.300264 0.000000 0.000000
    13 0.000000 -0.932634 0.000000 -1.274094 0.000000 0.000000
    14 0.763064 -2.490556 -0.278957 -0.295638 0.025479 0.214361
    15 -0.012322 -1.280917 0.000001 -0.785372 0.000000 0.000000
    16 -0.001697 -0.749371 0.000000 -0.593412 0.000000 0.000000
    17 0.354567 0.016268 0.318133 0.342077 -0.443527 -1.083976
    18 1.887165 0.012878 0.000000 -0.301502 -0.049640 -0.559682
    19 1.001874 -0.000270 0.000000 0.000000 0.000000 -0.759198
    20 -1.123358 -2.195092 -0.278957 -0.864264 0.002816 -0.081154
    21 0.010772 -0.963791 0.000001 -0.575966 0.000000 0.000000
    22 -0.010412 -0.631916 -0.000001 -1.431159 0.000000 0.000000
    23 -0.577655 -5.615167 -9.483005 -1.556752 1.210529 -0.901018
    24 0.089932 -8.543163 0.000002 0.025661 0.088295 0.284334
    25 0.000000 -0.359713 0.000000 0.000000 0.000000 0.000000
    26 -0.170479 -2.636148 -0.277654 -1.160687 0.000000 0.000000
    27 0.010599 -1.261177 0.000001 -0.881370 0.000000 0.000000
    28 -0.000001 -0.943233 0.000000 -0.916292 0.000000 0.000000
    29 -0.827562 -2.508974 -0.277655 -1.239206 0.000000 0.000000
    30 0.000000 -1.292971 0.000000 -0.811549 0.000000 0.000000
    31 0.000000 -0.752466 0.000000 -1.160644 0.000000 0.000000
    32 0.444214 -2.561961 -0.277654 -1.116425 -0.047988 -0.024479
    33 0.021022 -1.208186 0.000000 -0.733035 0.000000 0.000000
    34 0.010598 -0.741867 -0.000001 -0.846473 0.000000 0.000000
    35 1.047446 -2.222822 -0.277654 -0.854492 -0.053779 -0.039460
    36 0.000000 -0.996223 -0.000002 -0.584707 0.000000 0.000000
    37 -0.000001 -0.614690 0.000000 -0.916284 0.000000 0.000000
    38 -0.308253 -0.007814 0.307165 0.078469 -0.558446 -2.106404
    39 1.978378 0.019544 -0.000001 -0.000002 -0.000010 0.567231
    40 0.982426 0.003186 0.000000 0.000000 0.000000 0.593405
end
