// Created by Crowbar 0.34.0.0

$ModelName "weapons/tfa_cso/w_s1451.mdl"

$BodyGroup "studio"
{
	studio "v_blocksmg1_v_blocksmg_l.smd"
}

$collisionmodel "v_blocksmg1_v_blocksmg_l.smd"
{
	$mass 3
}

$CDMaterials "models\weapons\tfa_cso\s1451"

$attachment "0" "root" 0.00 9.00 -0.25 rotate 0 0 -0
$attachment "1" "root" -20.00 -2.00 1.60 rotate -0 0 0
$attachment "2" "root" -20.00 -2.00 1.60 rotate -0 0 0
$attachment "3" "root" -20.00 -2.00 1.60 rotate -0 0 0
$attachment "4" "root" -20.00 -2.00 1.60 rotate -0 0 0
$attachment "5" "root" -20.00 -2.00 1.60 rotate -0 0 0

$Sequence "idle" {
	"anims\idle.smd"
	fps 30
}