version 1
nodes
  0 "uzi_root_l" -1
  1 "triger01" 0
  2 "reloader01" 0
  3 "megazine01" 0
  4 "Hb01" 0
  5 "bone02" 0
  6 "bone03" 0
  7 "bone05" 0
  8 "uzi_root_r" -1
  9 "triger" 8
  10 "reloader" 8
  11 "Hb" 8
  12 "megazine" 8
  13 "bone01" 8
  14 "bone04" 8
  15 "bone06" 8
  16 "root" -1
  17 "Bone01" 16
  18 "Bone_L_Upper" 17
  19 "Bone_Lefthand" 17
  20 "Bone13" 19
  21 "Bone14" 20
  22 "Bone15" 21
  23 "Bone17" 19
  24 "Bone18" 23
  25 "Bone19" 24
  26 "Bone21" 19
  27 "Bone22" 26
  28 "Bone23" 27
  29 "Bone09" 19
  30 "Bone10" 29
  31 "Bone11" 30
  32 "Bone05" 19
  33 "Bone06" 32
  34 "Bone07" 33
  35 "Bone_Se_Hand-L" 19
  36 "Bone04" 16
  37 "Bone_Righthand" 36
  38 "Bone39" 37
  39 "Bone40" 38
  40 "Bone41" 39
  41 "Bone35" 37
  42 "Bone36" 41
  43 "Bone37" 42
  44 "Bone31" 37
  45 "Bone32" 44
  46 "Bone33" 45
  47 "Bone43" 37
  48 "Bone44" 47
  49 "Bone45" 48
  50 "Bone27" 37
  51 "Bone28" 50
  52 "Bone29" 51
  53 "Bone_Se_Hand-R" 37
  54 "Bone_R_Upper" 36
end
skeleton
  time 0
    0 -5.193768 -7.112443 -4.273053 -0.085238 -0.061039 -1.574653
    1 2.999629 0.000000 1.353195 0.000000 0.000000 1.570798
    2 3.594184 0.000000 3.113281 0.000000 0.000000 1.570798
    3 1.661240 -0.000001 1.206648 0.000000 0.000000 1.570798
    4 -1.922007 -0.370809 2.041211 0.000000 0.000000 3.141589
    5 6.542123 0.000005 2.151215 1.570796 0.000000 0.000001
    6 -38.455750 -0.000043 2.151239 1.570796 0.000000 0.000001
    7 -38.280617 -0.000043 2.151239 1.570796 0.000000 0.000001
    8 6.062945 -7.191700 -4.370057 0.073403 -0.050369 -1.501639
    9 2.999630 0.000001 1.353195 0.783485 0.000000 1.570798
    10 3.572902 0.000003 3.113282 0.000000 0.000000 1.570798
    11 -1.949019 0.369309 1.958547 0.000000 0.000000 3.141589
    12 1.598420 0.000000 1.206649 0.000000 0.000000 1.570798
    13 6.485002 0.000008 2.091607 1.570797 0.000000 0.000001
    14 8.817085 -0.000033 2.091637 1.570797 0.000000 0.000001
    15 8.998429 -0.000032 2.091636 1.570797 0.000000 0.000001
    16 -0.002752 8.717751 -1.784592 0.000000 0.000000 0.000000
    17 8.142099 -6.479337 -6.319487 0.505433 -2.304704 -0.539047
    18 7.882382 2.516300 -0.349031 1.566880 -3.120565 0.388504
    19 -0.048483 -8.463579 -0.096321 0.072018 0.373551 -0.120882
    20 -0.488518 -2.755602 -0.228260 -0.434640 0.150360 -0.257287
    21 0.039887 -1.526666 0.010322 -1.357338 -0.013111 0.029747
    22 0.028786 -1.243705 -0.128581 -1.636554 -0.011673 0.037428
    23 0.250027 -2.820665 -0.238396 -0.156970 0.124643 -0.222596
    24 -0.049759 -1.598510 0.041883 -1.435791 0.002613 -0.039072
    25 -0.034142 -1.179563 0.045718 -1.374047 0.003919 -0.036193
    26 0.957766 -2.746780 -0.090302 0.163303 0.113141 0.005479
    27 -0.033420 -1.397129 -0.026882 -0.877200 0.006064 -0.043122
    28 -0.022360 -0.961342 -0.008561 -1.055454 0.002133 -0.051006
    29 -1.180681 -2.507217 -0.193859 -0.415008 0.237226 -0.226934
    30 -0.024967 -1.123934 0.017597 -0.746625 0.007047 -0.031734
    31 -0.020057 -0.902687 0.025715 -0.835949 0.007299 -0.033713
    32 0.587416 -1.197277 0.185379 0.202761 -0.629696 -0.509768
    33 1.477332 -0.220230 0.071417 0.050655 -0.216957 -0.777967
    34 1.007018 -0.182979 0.044010 0.086801 -0.241947 -1.032056
    35 0.038119 -0.319809 -0.031051 0.239633 3.240644 1.548104
    36 -6.817844 -6.282073 -5.255350 0.664151 -4.319668 0.766778
    37 0.132101 -8.466044 -0.040616 0.136328 -0.072492 0.031565
    38 0.447953 -2.798986 -0.200443 -0.104509 -0.192370 0.258718
    39 -0.032909 -1.499736 0.036191 -1.759234 0.021968 -0.036827
    40 -0.027022 -1.115984 -0.028023 -0.994634 0.022100 -0.015916
    41 -0.249534 -2.846964 -0.174213 0.009452 -0.070702 0.196948
    42 0.043235 -1.656596 0.056948 -1.763160 -0.024622 0.013759
    43 0.031729 -1.141298 0.054932 -1.121697 -0.012481 0.006191
    44 -0.963866 -2.785145 -0.085350 0.260077 0.028696 0.046770
    45 0.028479 -1.403067 -0.009354 -0.545233 -0.010343 -0.022723
    46 0.021413 -0.942156 0.012233 -0.969120 -0.025539 -0.033725
    47 1.164475 -2.543940 -0.170330 -0.244500 -0.299426 0.130841
    48 0.024032 -1.144668 -0.005631 -1.178629 0.018241 0.058905
    49 0.014898 -0.903521 -0.015942 -1.054822 0.010594 0.052564
    50 -0.586770 -1.264477 0.200161 -0.480709 -0.775212 -2.389081
    51 1.565805 0.035243 0.016848 -0.018844 -0.006943 0.893522
    52 1.114041 0.040611 -0.005766 -0.030624 -0.033971 1.094330
    53 -0.002676 -0.502335 -0.044199 0.290547 0.059634 1.643451
    54 -8.237429 0.991281 -0.469909 1.567201 -0.035967 -0.198067
  time 1
    0 -5.193768 -7.112443 -4.273053 -0.085238 -0.061456 -1.574567
    1 2.999629 0.000000 1.353195 0.000000 0.000000 1.570798
    2 3.594184 0.000000 3.113281 0.000000 0.000000 1.570798
    3 1.661240 -0.000001 1.206648 0.000000 0.000000 1.570798
    4 -1.922007 -0.370809 2.041211 0.000000 0.000000 3.141589
    5 6.542123 0.000005 2.151215 1.570796 0.000000 0.000001
    6 -38.455750 -0.000043 2.151239 1.570796 0.000000 0.000001
    7 -38.280617 -0.000043 2.151239 1.570796 0.000000 0.000001
    8 5.812937 -6.969036 -4.217709 0.051627 -0.053339 -1.523438
    9 2.999630 0.000001 1.353195 0.783485 0.000000 1.570798
    10 2.748658 0.000003 3.113282 0.000000 0.000000 1.570798
    11 -1.949019 0.369309 1.958547 0.000000 0.000000 3.141589
    12 1.598420 0.000000 1.206649 0.000000 0.000000 1.570798
    13 6.485002 0.000008 2.091607 1.570797 0.000000 0.000001
    14 38.778937 -1.531330 0.654093 1.570797 0.000000 0.000001
    15 8.998429 -0.000032 2.091636 1.570797 0.000000 0.000001
    16 -0.002752 8.717751 -1.784592 0.000000 0.000000 0.000000
    17 8.149912 -6.342615 -6.264798 0.513855 -2.314465 -0.573709
    18 8.073794 1.027974 -0.372470 1.568893 -3.117113 0.203999
    19 -0.044576 -8.463579 -0.092415 0.079938 0.398737 -0.127725
    20 -0.488518 -2.755602 -0.228260 -0.434640 0.150360 -0.257287
    21 0.039887 -1.526666 0.010322 -1.357338 -0.013111 0.029747
    22 0.028786 -1.243705 -0.128581 -1.636554 -0.011673 0.037428
    23 0.250027 -2.820665 -0.238396 -0.156970 0.124643 -0.222596
    24 -0.049759 -1.598510 0.041883 -1.435791 0.002613 -0.039072
    25 -0.034142 -1.179563 0.045718 -1.374047 0.003919 -0.036193
    26 0.957766 -2.746780 -0.090302 0.163303 0.113141 0.005479
    27 -0.033420 -1.397129 -0.026882 -0.877200 0.006064 -0.043122
    28 -0.022360 -0.961342 -0.008561 -1.038062 0.002529 -0.050227
    29 -1.180681 -2.507217 -0.193859 -0.415008 0.237226 -0.226934
    30 -0.024967 -1.123934 0.017597 -0.746625 0.007047 -0.031734
    31 -0.020057 -0.902687 0.025715 -0.835949 0.007299 -0.033713
    32 0.587416 -1.197277 0.185379 0.202761 -0.629696 -0.509768
    33 1.477332 -0.220230 0.071417 0.050655 -0.216957 -0.777967
    34 1.007018 -0.182979 0.044010 0.086801 -0.241947 -1.032056
    35 0.038119 -0.319809 -0.031051 0.239633 3.240644 1.548104
    36 -6.817844 -6.282073 -5.255350 0.664740 -4.319408 0.767251
    37 0.132101 -8.466044 -0.040616 0.136283 -0.072460 0.031389
    38 0.447953 -2.798986 -0.200443 -0.104509 -0.192370 0.258718
    39 -0.032909 -1.499736 0.036191 -1.759234 0.021968 -0.036827
    40 -0.027022 -1.115984 -0.028023 -0.994634 0.022100 -0.015916
    41 -0.249534 -2.846964 -0.174213 0.009452 -0.070702 0.196948
    42 0.043235 -1.656596 0.056948 -1.763160 -0.024622 0.013759
    43 0.031729 -1.141298 0.054932 -1.121697 -0.012481 0.006191
    44 -0.963866 -2.785145 -0.085350 0.260077 0.028696 0.046770
    45 0.028479 -1.403067 -0.009354 -0.545233 -0.010343 -0.022723
    46 0.021413 -0.942156 0.012233 -0.969120 -0.025539 -0.033725
    47 1.164475 -2.543940 -0.170330 -0.244500 -0.299426 0.130841
    48 0.024032 -1.144668 -0.005631 -1.178629 0.018241 0.058905
    49 0.014898 -0.903521 -0.015942 -1.054822 0.010594 0.052564
    50 -0.586770 -1.264477 0.200161 -0.480709 -0.775212 -2.389081
    51 1.565805 0.035243 0.016848 -0.018844 -0.006943 0.893522
    52 1.114041 0.040611 -0.005766 -0.030624 -0.033971 1.094330
    53 -0.002676 -0.502335 -0.044199 0.290547 0.059634 1.643451
    54 -8.237429 0.987375 -0.469909 1.567201 -0.035979 -0.197877
  time 2
    0 -5.193768 -7.112443 -4.269147 -0.085238 -0.061873 -1.574481
    1 2.999629 0.000000 1.353195 0.000000 0.000000 1.570798
    2 3.594184 0.000000 3.113281 0.000000 0.000000 1.570798
    3 1.661240 -0.000001 1.206648 0.000000 0.000000 1.570798
    4 -1.922007 -0.370809 2.041211 0.000000 0.000000 3.141589
    5 6.542123 0.000005 2.151215 1.570796 0.000000 0.000001
    6 -38.455750 -0.000043 2.151239 1.570796 0.000000 0.000001
    7 -38.280617 -0.000043 2.151239 1.570796 0.000000 0.000001
    8 5.758248 -6.871377 -4.151300 0.047950 -0.055542 -1.526457
    9 2.999630 0.000001 1.353195 0.776240 0.000000 1.570798
    10 3.240861 0.000003 3.113282 0.000000 0.000000 1.570798
    11 -1.949019 0.369309 1.958547 0.000000 0.000000 3.141589
    12 1.598420 0.000000 1.206649 0.000000 0.000000 1.570798
    13 6.485002 0.000008 2.091607 1.570797 0.000000 0.000001
    14 8.817085 -0.000033 2.091637 1.570797 0.000000 0.000001
    15 8.998429 -0.000032 2.091636 1.570797 0.000000 0.000001
    16 -0.002752 8.717751 -1.784592 0.000000 0.000000 0.000000
    17 8.142099 -6.276206 -6.260891 0.521129 -2.319108 -0.584287
    18 8.081607 0.742809 -0.376376 1.569277 -3.116538 0.169013
    19 -0.044576 -8.463579 -0.092415 0.080223 0.403303 -0.132590
    20 -0.488518 -2.755602 -0.228260 -0.434640 0.150360 -0.257287
    21 0.039887 -1.526666 0.010322 -1.357338 -0.013111 0.029747
    22 0.028786 -1.243705 -0.128581 -1.636554 -0.011673 0.037428
    23 0.250027 -2.820665 -0.238396 -0.156970 0.124643 -0.222596
    24 -0.049759 -1.598510 0.041883 -1.435791 0.002613 -0.039072
    25 -0.034142 -1.179563 0.045718 -1.374047 0.003919 -0.036193
    26 0.957766 -2.746780 -0.090302 0.163303 0.113141 0.005479
    27 -0.033420 -1.397129 -0.026882 -0.886865 0.005920 -0.043589
    28 -0.022360 -0.961342 -0.004654 -1.020702 0.002924 -0.049436
    29 -1.180681 -2.507217 -0.193859 -0.415008 0.237226 -0.226934
    30 -0.024967 -1.123934 0.017597 -0.746625 0.007047 -0.031734
    31 -0.020057 -0.902687 0.025715 -0.835949 0.007299 -0.033713
    32 0.587416 -1.197277 0.185379 0.202761 -0.629696 -0.509768
    33 1.477332 -0.220230 0.071417 0.050655 -0.216957 -0.777967
    34 1.007018 -0.182979 0.044010 0.086801 -0.241947 -1.032056
    35 0.038119 -0.319809 -0.031051 0.239633 3.240644 1.548104
    36 -6.817844 -6.282073 -5.251444 0.665246 -4.319277 0.767724
    37 0.132101 -8.466044 -0.040616 0.136283 -0.072460 0.031248
    38 0.447953 -2.798986 -0.200443 -0.104509 -0.192370 0.258718
    39 -0.032909 -1.499736 0.036191 -1.759234 0.021968 -0.036827
    40 -0.027022 -1.115984 -0.028023 -0.994634 0.022100 -0.015916
    41 -0.249534 -2.846964 -0.174213 0.009452 -0.070702 0.196948
    42 0.043235 -1.656596 0.056948 -1.763160 -0.024622 0.013759
    43 0.031729 -1.141298 0.054932 -1.121697 -0.012481 0.006191
    44 -0.963866 -2.785145 -0.085350 0.260077 0.028696 0.046770
    45 0.028479 -1.403067 -0.009354 -0.545233 -0.010343 -0.022723
    46 0.021413 -0.942156 0.012233 -0.969120 -0.025539 -0.033725
    47 1.164475 -2.543940 -0.170330 -0.244500 -0.299426 0.130841
    48 0.024032 -1.144668 -0.005631 -1.178629 0.018241 0.058905
    49 0.014898 -0.903521 -0.015942 -1.054822 0.010594 0.052564
    50 -0.586770 -1.264477 0.200161 -0.480709 -0.775212 -2.389081
    51 1.565805 0.035243 0.016848 -0.018844 -0.006943 0.893522
    52 1.114041 0.040611 -0.005766 -0.030624 -0.033971 1.094330
    53 -0.002676 -0.502335 -0.044199 0.290547 0.059634 1.643451
    54 -8.237429 0.987375 -0.469909 1.567201 -0.035979 -0.197734
  time 3
    0 -5.193768 -7.112443 -4.265240 -0.085238 -0.062206 -1.574395
    1 2.999629 0.000000 1.353195 0.000000 0.000000 1.570798
    2 3.594184 0.000000 3.113281 0.000000 0.000000 1.570798
    3 1.661240 -0.000001 1.206648 0.000000 0.000000 1.570798
    4 -1.922007 -0.370809 2.041211 0.000000 0.000000 3.141589
    5 6.542123 0.000005 2.151215 1.570796 0.000000 0.000001
    6 -38.455750 -0.000043 2.151239 1.570796 0.000000 0.000001
    7 -38.280617 -0.000043 2.151239 1.570796 0.000000 0.000001
    8 5.769967 -6.808875 -4.123956 0.048233 -0.057458 -1.525702
    9 2.999630 0.000001 1.353195 0.756538 0.000000 1.570798
    10 4.151045 0.000003 3.113282 0.000000 0.000000 1.570798
    11 -1.949019 0.369309 1.958547 0.000000 0.000000 3.141589
    12 1.598420 0.000000 1.206649 0.000000 0.000000 1.570798
    13 6.485002 0.000008 2.091607 1.570797 0.000000 0.000001
    14 8.817085 -0.000033 2.091637 1.570797 0.000000 0.000001
    15 8.998429 -0.000032 2.091636 1.570797 0.000000 0.000001
    16 -0.002752 8.717751 -1.784592 0.000000 0.000000 0.000000
    17 8.161631 -6.233236 -6.280423 0.527637 -2.323088 -0.589859
    18 8.081607 0.692026 -0.376376 1.569373 -3.116346 0.162756
    19 -0.044576 -8.463579 -0.092415 0.079083 0.403726 -0.137172
    20 -0.488518 -2.755602 -0.228260 -0.434640 0.150360 -0.257287
    21 0.039887 -1.526666 0.010322 -1.357338 -0.013111 0.029747
    22 0.028786 -1.243705 -0.128581 -1.636554 -0.011673 0.037428
    23 0.250027 -2.820665 -0.238396 -0.156970 0.124643 -0.222596
    24 -0.049759 -1.598510 0.041883 -1.435791 0.002613 -0.039072
    25 -0.034142 -1.179563 0.045718 -1.374047 0.003919 -0.036193
    26 0.957766 -2.746780 -0.090302 0.163303 0.113141 0.005479
    27 -0.033420 -1.397129 -0.026882 -0.897981 0.005741 -0.044116
    28 -0.022360 -0.961342 -0.004654 -1.003310 0.003308 -0.048645
    29 -1.180681 -2.507217 -0.193859 -0.415008 0.237226 -0.226934
    30 -0.024967 -1.123934 0.017597 -0.746625 0.007047 -0.031734
    31 -0.020057 -0.902687 0.025715 -0.835949 0.007299 -0.033713
    32 0.587416 -1.197277 0.185379 0.202761 -0.629696 -0.509768
    33 1.477332 -0.220230 0.071417 0.050655 -0.216957 -0.777967
    34 1.007018 -0.182979 0.044010 0.086801 -0.241947 -1.032056
    35 0.038119 -0.319809 -0.031051 0.239633 3.240644 1.548104
    36 -6.817844 -6.282073 -5.251444 0.665667 -4.319082 0.768197
    37 0.132101 -8.466044 -0.040616 0.136239 -0.072460 0.031178
    38 0.447953 -2.798986 -0.200443 -0.104509 -0.192370 0.258718
    39 -0.032909 -1.499736 0.036191 -1.759234 0.021968 -0.036827
    40 -0.027022 -1.115984 -0.028023 -0.994634 0.022100 -0.015916
    41 -0.249534 -2.846964 -0.174213 0.009452 -0.070702 0.196948
    42 0.043235 -1.656596 0.056948 -1.763160 -0.024622 0.013759
    43 0.031729 -1.141298 0.054932 -1.121697 -0.012481 0.006191
    44 -0.963866 -2.785145 -0.085350 0.260077 0.028696 0.046770
    45 0.028479 -1.403067 -0.009354 -0.545233 -0.010343 -0.022723
    46 0.021413 -0.942156 0.012233 -0.969120 -0.025539 -0.033725
    47 1.164475 -2.543940 -0.170330 -0.244500 -0.299426 0.130841
    48 0.024032 -1.144668 -0.005631 -1.178629 0.018241 0.058905
    49 0.014898 -0.903521 -0.015942 -1.054822 0.010594 0.052564
    50 -0.586770 -1.264477 0.200161 -0.480709 -0.775212 -2.389081
    51 1.565805 0.035243 0.016848 -0.018844 -0.006943 0.893522
    52 1.114041 0.040611 -0.005766 -0.030624 -0.033971 1.094330
    53 -0.002676 -0.502335 -0.044199 0.290547 0.059634 1.643451
    54 -8.237429 0.987375 -0.469909 1.567189 -0.035979 -0.197591
  time 4
    0 -5.193768 -7.112443 -4.265240 -0.085238 -0.062456 -1.574395
    1 2.999629 0.000000 1.353195 0.000000 0.000000 1.570798
    2 3.594184 0.000000 3.113281 0.000000 0.000000 1.570798
    3 1.661240 -0.000001 1.206648 0.000000 0.000000 1.570798
    4 -1.922007 -0.370809 2.041211 0.000000 0.000000 3.141589
    5 6.542123 0.000005 2.151215 1.570796 0.000000 0.000001
    6 -38.455750 -0.000043 2.151239 1.570796 0.000000 0.000001
    7 -38.280617 -0.000043 2.151239 1.570796 0.000000 0.000001
    8 5.785593 -6.797156 -4.116143 0.052098 -0.056309 -1.522305
    9 2.999630 0.000001 1.353195 0.727319 0.000000 1.570798
    10 4.643247 0.000003 3.113282 0.000000 0.000000 1.570798
    11 -1.949019 0.369309 1.958547 0.000000 0.000000 3.141589
    12 1.598420 0.000000 1.206649 0.000000 0.000000 1.570798
    13 6.485002 0.000008 2.091607 1.570797 0.000000 0.000001
    14 8.817085 -0.000033 2.091637 1.570797 0.000000 0.000001
    15 8.998429 -0.000032 2.091636 1.570797 0.000000 0.000001
    16 -0.002752 8.717751 -1.784592 0.000000 0.000000 0.000000
    17 8.169444 -6.229330 -6.288236 0.531369 -2.325173 -0.592031
    18 8.081607 0.715464 -0.376376 1.569373 -3.116442 0.165695
    19 -0.044576 -8.463579 -0.092415 0.077744 0.400098 -0.142979
    20 -0.488518 -2.755602 -0.228260 -0.434640 0.150360 -0.257287
    21 0.039887 -1.526666 0.010322 -1.357338 -0.013111 0.029747
    22 0.028786 -1.243705 -0.128581 -1.636554 -0.011673 0.037428
    23 0.250027 -2.820665 -0.238396 -0.156970 0.124643 -0.222596
    24 -0.049759 -1.598510 0.041883 -1.435791 0.002613 -0.039072
    25 -0.034142 -1.179563 0.045718 -1.374047 0.003919 -0.036193
    26 0.957766 -2.746780 -0.090302 0.163303 0.113141 0.005479
    27 -0.033420 -1.397129 -0.026882 -0.903322 0.005657 -0.044368
    28 -0.022360 -0.961342 -0.004654 -0.985950 0.003667 -0.047842
    29 -1.180681 -2.507217 -0.193859 -0.415008 0.237226 -0.226934
    30 -0.024967 -1.123934 0.017597 -0.746625 0.007047 -0.031734
    31 -0.020057 -0.902687 0.025715 -0.835949 0.007299 -0.033713
    32 0.587416 -1.197277 0.185379 0.202761 -0.629696 -0.509768
    33 1.477332 -0.220230 0.071417 0.050655 -0.216957 -0.777967
    34 1.007018 -0.182979 0.044010 0.086801 -0.241947 -1.032056
    35 0.038119 -0.319809 -0.031051 0.239633 3.240644 1.548104
    36 -6.817844 -6.282073 -5.251444 0.666004 -4.318952 0.768481
    37 0.132101 -8.466044 -0.040616 0.136239 -0.072428 0.031107
    38 0.447953 -2.798986 -0.200443 -0.104509 -0.192370 0.258718
    39 -0.032909 -1.499736 0.036191 -1.759234 0.021968 -0.036827
    40 -0.027022 -1.115984 -0.028023 -0.994634 0.022100 -0.015916
    41 -0.249534 -2.846964 -0.174213 0.009452 -0.070702 0.196948
    42 0.043235 -1.656596 0.056948 -1.763160 -0.024622 0.013759
    43 0.031729 -1.141298 0.054932 -1.121697 -0.012481 0.006191
    44 -0.963866 -2.785145 -0.085350 0.260077 0.028696 0.046770
    45 0.028479 -1.403067 -0.009354 -0.545233 -0.010343 -0.022723
    46 0.021413 -0.942156 0.012233 -0.969120 -0.025539 -0.033725
    47 1.164475 -2.543940 -0.170330 -0.244500 -0.299426 0.130841
    48 0.024032 -1.144668 -0.005631 -1.178629 0.018241 0.058905
    49 0.014898 -0.903521 -0.015942 -1.054822 0.010594 0.052564
    50 -0.586770 -1.264477 0.200161 -0.480709 -0.775212 -2.389081
    51 1.565805 0.035243 0.016848 -0.018844 -0.006943 0.893522
    52 1.114041 0.040611 -0.005766 -0.030624 -0.033971 1.094330
    53 -0.002676 -0.502335 -0.044199 0.290547 0.059634 1.643451
    54 -8.237429 0.987375 -0.469909 1.567189 -0.035979 -0.197496
  time 5
    0 -5.193768 -7.112443 -4.261334 -0.085238 -0.062623 -1.574395
    1 2.999629 0.000000 1.353195 0.000000 0.000000 1.570798
    2 3.594184 0.000000 3.113281 0.000000 0.000000 1.570798
    3 1.661240 -0.000001 1.206648 0.000000 0.000000 1.570798
    4 -1.922007 -0.370809 2.041211 0.000000 0.000000 3.141589
    5 6.542123 0.000005 2.151215 1.570796 0.000000 0.000001
    6 -38.455750 -0.000043 2.151239 1.570796 0.000000 0.000001
    7 -38.280617 -0.000043 2.151239 1.570796 0.000000 0.000001
    8 5.777780 -6.840126 -4.112237 0.059828 -0.050752 -1.516266
    9 2.999630 0.000001 1.353195 0.691548 0.000000 1.570798
    10 4.108075 0.000003 3.113282 0.000000 0.000000 1.570798
    11 -1.949019 0.369309 1.958547 0.000000 0.000000 3.141589
    12 1.598420 0.000000 1.206649 0.000000 0.000000 1.570798
    13 6.485002 0.000008 2.091607 1.570797 0.000000 0.000001
    14 8.817085 -0.000033 2.091637 1.570797 0.000000 0.000001
    15 8.998429 -0.000032 2.091636 1.570797 0.000000 0.000001
    16 -0.002752 8.717751 -1.784592 0.000000 0.000000 0.000000
    17 8.157724 -6.260581 -6.276517 0.532327 -2.325552 -0.592409
    18 8.081607 0.731090 -0.376376 1.569373 -3.116442 0.167686
    19 -0.044576 -8.459673 -0.092415 0.076661 0.392025 -0.151924
    20 -0.488518 -2.755602 -0.228260 -0.434640 0.150360 -0.257287
    21 0.039887 -1.526666 0.010322 -1.357338 -0.013111 0.029747
    22 0.028786 -1.243705 -0.128581 -1.636554 -0.011673 0.037428
    23 0.250027 -2.820665 -0.238396 -0.156970 0.124643 -0.222596
    24 -0.049759 -1.598510 0.041883 -1.435791 0.002613 -0.039072
    25 -0.034142 -1.179563 0.045718 -1.374047 0.003919 -0.036193
    26 0.957766 -2.746780 -0.090302 0.163303 0.113141 0.005479
    27 -0.033420 -1.397129 -0.026882 -0.906282 0.005609 -0.044512
    28 -0.022360 -0.961342 -0.004654 -0.968558 0.004015 -0.047040
    29 -1.180681 -2.507217 -0.193859 -0.415008 0.237226 -0.226934
    30 -0.024967 -1.123934 0.017597 -0.746625 0.007047 -0.031734
    31 -0.020057 -0.902687 0.025715 -0.835949 0.007299 -0.033713
    32 0.587416 -1.197277 0.185379 0.202761 -0.629696 -0.509768
    33 1.477332 -0.220230 0.071417 0.050655 -0.216957 -0.777967
    34 1.007018 -0.182979 0.044010 0.086801 -0.241947 -1.032056
    35 0.038119 -0.319809 -0.031051 0.239633 3.240644 1.548104
    36 -6.817844 -6.285980 -5.251444 0.666257 -4.318887 0.768670
    37 0.132101 -8.466044 -0.040616 0.136239 -0.072428 0.031072
    38 0.447953 -2.798986 -0.200443 -0.104509 -0.192370 0.258718
    39 -0.032909 -1.499736 0.036191 -1.759234 0.021968 -0.036827
    40 -0.027022 -1.115984 -0.028023 -0.994634 0.022100 -0.015916
    41 -0.249534 -2.846964 -0.174213 0.009452 -0.070702 0.196948
    42 0.043235 -1.656596 0.056948 -1.763160 -0.024622 0.013759
    43 0.031729 -1.141298 0.054932 -1.121697 -0.012481 0.006191
    44 -0.963866 -2.785145 -0.085350 0.260077 0.028696 0.046770
    45 0.028479 -1.403067 -0.009354 -0.545233 -0.010343 -0.022723
    46 0.021413 -0.942156 0.012233 -0.969120 -0.025539 -0.033725
    47 1.164475 -2.543940 -0.170330 -0.244500 -0.299426 0.130841
    48 0.024032 -1.144668 -0.005631 -1.178629 0.018241 0.058905
    49 0.014898 -0.903521 -0.015942 -1.054822 0.010594 0.052564
    50 -0.586770 -1.264477 0.200161 -0.480709 -0.775212 -2.389081
    51 1.565805 0.035243 0.016848 -0.018844 -0.006943 0.893522
    52 1.114041 0.040611 -0.005766 -0.030624 -0.033971 1.094330
    53 -0.002676 -0.502335 -0.044199 0.290547 0.059634 1.643451
    54 -8.237429 0.983469 -0.469909 1.567189 -0.035979 -0.197449
  time 6
    0 -5.193768 -7.112443 -4.261334 -0.085238 -0.062707 -1.574395
    1 2.999629 0.000000 1.353195 0.000000 0.000000 1.570798
    2 3.594184 0.000000 3.113281 0.000000 0.000000 1.570798
    3 1.661240 -0.000001 1.206648 0.000000 0.000000 1.570798
    4 -1.922007 -0.370809 2.041211 0.000000 0.000000 3.141589
    5 6.542123 0.000005 2.151215 1.570796 0.000000 0.000001
    6 -38.455750 -0.000043 2.151239 1.570796 0.000000 0.000001
    7 -38.280617 -0.000043 2.151239 1.570796 0.000000 0.000001
    8 5.769967 -6.906535 -4.116143 0.070575 -0.042896 -1.508151
    9 2.999630 0.000001 1.353195 0.652191 0.000000 1.570798
    10 3.572902 0.000003 3.113282 0.000000 0.000000 1.570798
    11 -1.949019 0.369309 1.958547 0.000000 0.000000 3.141589
    12 1.598420 0.000000 1.206649 0.000000 0.000000 1.570798
    13 6.485002 0.000008 2.091607 1.570797 0.000000 0.000001
    14 8.817085 -0.000033 2.091637 1.570797 0.000000 0.000001
    15 8.998429 -0.000032 2.091636 1.570797 0.000000 0.000001
    16 -0.002752 8.717751 -1.784592 0.000000 0.000000 0.000000
    17 8.138193 -6.311364 -6.253079 0.532135 -2.325268 -0.591748
    18 8.081607 0.770153 -0.376376 1.569277 -3.116538 0.172237
    19 -0.048483 -8.459673 -0.096321 0.075493 0.380838 -0.163067
    20 -0.488518 -2.755602 -0.228260 -0.434640 0.150360 -0.257287
    21 0.039887 -1.526666 0.010322 -1.357338 -0.013111 0.029747
    22 0.028786 -1.243705 -0.128581 -1.636554 -0.011673 0.037428
    23 0.250027 -2.820665 -0.238396 -0.156970 0.124643 -0.222596
    24 -0.049759 -1.598510 0.041883 -1.435791 0.002613 -0.039072
    25 -0.034142 -1.179563 0.045718 -1.374047 0.003919 -0.036193
    26 0.957766 -2.746780 -0.090302 0.163303 0.113141 0.005479
    27 -0.033420 -1.397129 -0.026882 -0.911158 0.005525 -0.044751
    28 -0.022360 -0.961342 -0.004654 -0.951199 0.004350 -0.046237
    29 -1.180681 -2.507217 -0.193859 -0.415008 0.237226 -0.226934
    30 -0.024967 -1.123934 0.017597 -0.746625 0.007047 -0.031734
    31 -0.020057 -0.902687 0.025715 -0.835949 0.007299 -0.033713
    32 0.587416 -1.197277 0.185379 0.202761 -0.629696 -0.509768
    33 1.477332 -0.220230 0.071417 0.050655 -0.216957 -0.777967
    34 1.007018 -0.182979 0.044010 0.086801 -0.241947 -1.032056
    35 0.038119 -0.319809 -0.031051 0.239633 3.240644 1.548104
    36 -6.817844 -6.285980 -5.251444 0.666426 -4.318821 0.768859
    37 0.132101 -8.466044 -0.040616 0.136239 -0.072428 0.031072
    38 0.447953 -2.798986 -0.200443 -0.104509 -0.192370 0.258718
    39 -0.032909 -1.499736 0.036191 -1.759234 0.021968 -0.036827
    40 -0.027022 -1.115984 -0.028023 -0.994634 0.022100 -0.015916
    41 -0.249534 -2.846964 -0.174213 0.009452 -0.070702 0.196948
    42 0.043235 -1.656596 0.056948 -1.763160 -0.024622 0.013759
    43 0.031729 -1.141298 0.054932 -1.121697 -0.012481 0.006191
    44 -0.963866 -2.785145 -0.085350 0.260077 0.028696 0.046770
    45 0.028479 -1.403067 -0.009354 -0.545233 -0.010343 -0.022723
    46 0.021413 -0.942156 0.012233 -0.969120 -0.025539 -0.033725
    47 1.164475 -2.543940 -0.170330 -0.244500 -0.299426 0.130841
    48 0.024032 -1.144668 -0.005631 -1.178629 0.018241 0.058905
    49 0.014898 -0.903521 -0.015942 -1.054822 0.010594 0.052564
    50 -0.586770 -1.264477 0.200161 -0.480709 -0.775212 -2.389081
    51 1.565805 0.035243 0.016848 -0.018844 -0.006943 0.893522
    52 1.114041 0.040611 -0.005766 -0.030624 -0.033971 1.094330
    53 -0.002676 -0.502335 -0.044199 0.290547 0.059634 1.643451
    54 -8.237429 0.983469 -0.469909 1.567189 -0.035979 -0.197354
  time 7
    0 -5.193768 -7.112443 -4.261334 -0.085238 -0.062707 -1.574395
    1 2.999629 0.000000 1.353195 0.000000 0.000000 1.570798
    2 3.594184 0.000000 3.113281 0.000000 0.000000 1.570798
    3 1.661240 -0.000001 1.206648 0.000000 0.000000 1.570798
    4 -1.922007 -0.370809 2.041211 0.000000 0.000000 3.141589
    5 6.542123 0.000005 2.151215 1.570796 0.000000 0.000001
    6 -38.455750 -0.000043 2.151239 1.570796 0.000000 0.000001
    7 -38.280617 -0.000043 2.151239 1.570796 0.000000 0.000001
    8 5.766061 -6.992475 -4.127862 0.081699 -0.034562 -1.499563
    9 2.999630 0.000001 1.353195 0.612188 0.000000 1.570798
    10 3.572902 0.000003 3.113282 0.000000 0.000000 1.570798
    11 -1.949019 0.369309 1.958547 0.000000 0.000000 3.141589
    12 1.598420 0.000000 1.206649 0.000000 0.000000 1.570798
    13 6.485002 0.000008 2.091607 1.570797 0.000000 0.000001
    14 8.817085 -0.000033 2.091637 1.570797 0.000000 0.000001
    15 8.998429 -0.000032 2.091636 1.570797 0.000000 0.000001
    16 -0.002752 8.717751 -1.784592 0.000000 0.000000 0.000000
    17 8.118661 -6.373865 -6.229640 0.530987 -2.324320 -0.589765
    18 8.077701 0.836562 -0.376376 1.569181 -3.116730 0.180486
    19 -0.048483 -8.455766 -0.096321 0.074496 0.368985 -0.173644
    20 -0.488518 -2.755602 -0.228260 -0.434640 0.150360 -0.257287
    21 0.039887 -1.526666 0.010322 -1.357338 -0.013111 0.029747
    22 0.028786 -1.243705 -0.128581 -1.636554 -0.011673 0.037428
    23 0.250027 -2.820665 -0.238396 -0.156970 0.124643 -0.222596
    24 -0.049759 -1.598510 0.041883 -1.435791 0.002613 -0.039072
    25 -0.034142 -1.179563 0.045718 -1.374047 0.003919 -0.036193
    26 0.957766 -2.746780 -0.090302 0.163303 0.113141 0.005479
    27 -0.033420 -1.397129 -0.026882 -0.911942 0.005513 -0.044787
    28 -0.022360 -0.961342 -0.004654 -0.933839 0.004674 -0.045410
    29 -1.180681 -2.507217 -0.193859 -0.415008 0.237226 -0.226934
    30 -0.024967 -1.123934 0.017597 -0.746625 0.007047 -0.031734
    31 -0.020057 -0.902687 0.025715 -0.835949 0.007299 -0.033713
    32 0.587416 -1.197277 0.185379 0.202761 -0.629696 -0.509768
    33 1.477332 -0.220230 0.071417 0.050655 -0.216957 -0.777967
    34 1.007018 -0.182979 0.044010 0.086801 -0.241947 -1.032056
    35 0.038119 -0.319809 -0.031051 0.239633 3.240644 1.548104
    36 -6.817844 -6.285980 -5.251444 0.666552 -4.318756 0.768954
    37 0.132101 -8.466044 -0.040616 0.136239 -0.072428 0.031072
    38 0.447953 -2.798986 -0.200443 -0.104509 -0.192370 0.258718
    39 -0.032909 -1.499736 0.036191 -1.759234 0.021968 -0.036827
    40 -0.027022 -1.115984 -0.028023 -0.994634 0.022100 -0.015916
    41 -0.249534 -2.846964 -0.174213 0.009452 -0.070702 0.196948
    42 0.043235 -1.656596 0.056948 -1.763160 -0.024622 0.013759
    43 0.031729 -1.141298 0.054932 -1.121697 -0.012481 0.006191
    44 -0.963866 -2.785145 -0.085350 0.260077 0.028696 0.046770
    45 0.028479 -1.403067 -0.009354 -0.545233 -0.010343 -0.022723
    46 0.021413 -0.942156 0.012233 -0.969120 -0.025539 -0.033725
    47 1.164475 -2.543940 -0.170330 -0.244500 -0.299426 0.130841
    48 0.024032 -1.144668 -0.005631 -1.178629 0.018241 0.058905
    49 0.014898 -0.903521 -0.015942 -1.054822 0.010594 0.052564
    50 -0.586770 -1.264477 0.200161 -0.480709 -0.775212 -2.389081
    51 1.565805 0.035243 0.016848 -0.018844 -0.006943 0.893522
    52 1.114041 0.040611 -0.005766 -0.030624 -0.033971 1.094330
    53 -0.002676 -0.502335 -0.044199 0.290547 0.059634 1.643451
    54 -8.237429 0.983469 -0.469909 1.567189 -0.035979 -0.197354
  time 8
    0 -5.193768 -7.112443 -4.261334 -0.085238 -0.062707 -1.574395
    1 2.999629 0.000000 1.353195 0.000000 0.000000 1.570798
    2 3.594184 0.000000 3.113281 0.000000 0.000000 1.570798
    3 1.661240 -0.000001 1.206648 0.000000 0.000000 1.570798
    4 -1.922007 -0.370809 2.041211 0.000000 0.000000 3.141589
    5 6.542123 0.000005 2.151215 1.570796 0.000000 0.000001
    6 -38.455750 -0.000043 2.151239 1.570796 0.000000 0.000001
    7 -38.280617 -0.000043 2.151239 1.570796 0.000000 0.000001
    8 5.773874 -7.070602 -4.147394 0.091126 -0.027951 -1.492297
    9 2.999630 0.000001 1.353195 0.574529 0.000000 1.570798
    10 3.572902 0.000003 3.113282 0.000000 0.000000 1.570798
    11 -1.949019 0.369309 1.958547 0.000000 0.000000 3.141589
    12 1.598420 0.000000 1.206649 0.000000 0.000000 1.570798
    13 6.485002 0.000008 2.091607 1.570797 0.000000 0.000001
    14 8.817085 -0.000033 2.091637 1.570797 0.000000 0.000001
    15 8.998429 -0.000032 2.091636 1.570797 0.000000 0.000001
    16 -0.002752 8.717751 -1.784592 0.000000 0.000000 0.000000
    17 8.106942 -6.432461 -6.214015 0.529073 -2.322899 -0.586554
    18 8.077701 0.942034 -0.372470 1.568989 -3.116922 0.193570
    19 -0.048483 -8.455766 -0.096321 0.073699 0.358977 -0.181051
    20 -0.488518 -2.755602 -0.228260 -0.434640 0.150360 -0.257287
    21 0.039887 -1.526666 0.010322 -1.357338 -0.013111 0.029747
    22 0.028786 -1.243705 -0.128581 -1.636554 -0.011673 0.037428
    23 0.250027 -2.820665 -0.238396 -0.156970 0.124643 -0.222596
    24 -0.049759 -1.598510 0.041883 -1.435791 0.002613 -0.039072
    25 -0.034142 -1.179563 0.045718 -1.374047 0.003919 -0.036193
    26 0.957766 -2.746780 -0.090302 0.163303 0.113141 0.005479
    27 -0.033420 -1.397129 -0.026882 -0.902625 0.005669 -0.044344
    28 -0.022360 -0.961342 -0.004654 -0.916447 0.004986 -0.044595
    29 -1.180681 -2.507217 -0.193859 -0.415008 0.237226 -0.226934
    30 -0.024967 -1.123934 0.017597 -0.746625 0.007047 -0.031734
    31 -0.020057 -0.902687 0.025715 -0.835949 0.007299 -0.033713
    32 0.587416 -1.197277 0.185379 0.202761 -0.629696 -0.509768
    33 1.477332 -0.220230 0.071417 0.050655 -0.216957 -0.777967
    34 1.007018 -0.182979 0.044010 0.086801 -0.241947 -1.032056
    35 0.038119 -0.319809 -0.031051 0.239633 3.240644 1.548104
    36 -6.817844 -6.285980 -5.251444 0.666594 -4.318756 0.769049
    37 0.132101 -8.466044 -0.040616 0.136239 -0.072428 0.031143
    38 0.447953 -2.798986 -0.200443 -0.104509 -0.192370 0.258718
    39 -0.032909 -1.499736 0.036191 -1.759234 0.021968 -0.036827
    40 -0.027022 -1.115984 -0.028023 -0.994634 0.022100 -0.015916
    41 -0.249534 -2.846964 -0.174213 0.009452 -0.070702 0.196948
    42 0.043235 -1.656596 0.056948 -1.763160 -0.024622 0.013759
    43 0.031729 -1.141298 0.054932 -1.121697 -0.012481 0.006191
    44 -0.963866 -2.785145 -0.085350 0.260077 0.028696 0.046770
    45 0.028479 -1.403067 -0.009354 -0.545233 -0.010343 -0.022723
    46 0.021413 -0.942156 0.012233 -0.969120 -0.025539 -0.033725
    47 1.164475 -2.543940 -0.170330 -0.244500 -0.299426 0.130841
    48 0.024032 -1.144668 -0.005631 -1.178629 0.018241 0.058905
    49 0.014898 -0.903521 -0.015942 -1.054822 0.010594 0.052564
    50 -0.586770 -1.264477 0.200161 -0.480709 -0.775212 -2.389081
    51 1.565805 0.035243 0.016848 -0.018844 -0.006943 0.893522
    52 1.114041 0.040611 -0.005766 -0.030624 -0.033971 1.094330
    53 -0.002676 -0.502335 -0.044199 0.290547 0.059634 1.643451
    54 -8.237429 0.983469 -0.469909 1.567189 -0.035979 -0.197306
  time 9
    0 -5.193768 -7.112443 -4.261334 -0.085238 -0.062707 -1.574395
    1 2.999629 0.000000 1.353195 0.000000 0.000000 1.570798
    2 3.594184 0.000000 3.113281 0.000000 0.000000 1.570798
    3 1.661240 -0.000001 1.206648 0.000000 0.000000 1.570798
    4 -1.922007 -0.370809 2.041211 0.000000 0.000000 3.141589
    5 6.542123 0.000005 2.151215 1.570796 0.000000 0.000001
    6 -38.455750 -0.000043 2.151239 1.570796 0.000000 0.000001
    7 -38.280617 -0.000043 2.151239 1.570796 0.000000 0.000001
    8 5.805125 -7.129198 -4.178645 0.096311 -0.024886 -1.488051
    9 2.999630 0.000001 1.353195 0.542177 0.000000 1.570798
    10 3.572902 0.000003 3.113282 0.000000 0.000000 1.570798
    11 -1.949019 0.369309 1.958547 0.000000 0.000000 3.141589
    12 1.598420 0.000000 1.206649 0.000000 0.000000 1.570798
    13 6.485002 0.000008 2.091607 1.570797 0.000000 0.000001
    14 8.817085 -0.000033 2.091637 1.570797 0.000000 0.000001
    15 8.998429 -0.000032 2.091636 1.570797 0.000000 0.000001
    16 -0.002752 8.717751 -1.784592 0.000000 0.000000 0.000000
    17 8.106942 -6.475431 -6.214015 0.526680 -2.321098 -0.581926
    18 8.069888 1.098288 -0.372470 1.568798 -3.117305 0.212437
    19 -0.052389 -8.455766 -0.096321 0.073072 0.353293 -0.182589
    20 -0.488518 -2.755602 -0.228260 -0.434640 0.150360 -0.257287
    21 0.039887 -1.526666 0.010322 -1.357338 -0.013111 0.029747
    22 0.028786 -1.243705 -0.128581 -1.636554 -0.011673 0.037428
    23 0.250027 -2.820665 -0.238396 -0.156970 0.124643 -0.222596
    24 -0.049759 -1.598510 0.041883 -1.435791 0.002613 -0.039072
    25 -0.034142 -1.179563 0.045718 -1.374047 0.003919 -0.036193
    26 0.957766 -2.746780 -0.090302 0.163303 0.113141 0.005479
    27 -0.033420 -1.397129 -0.026882 -0.877200 0.006064 -0.043122
    28 -0.022360 -0.961342 -0.004654 -0.899087 0.005273 -0.043768
    29 -1.180681 -2.507217 -0.193859 -0.415008 0.237226 -0.226934
    30 -0.024967 -1.123934 0.017597 -0.746625 0.007047 -0.031734
    31 -0.020057 -0.902687 0.025715 -0.835949 0.007299 -0.033713
    32 0.587416 -1.197277 0.185379 0.202761 -0.629696 -0.509768
    33 1.477332 -0.220230 0.071417 0.050655 -0.216957 -0.777967
    34 1.007018 -0.182979 0.044010 0.086801 -0.241947 -1.032056
    35 0.038119 -0.319809 -0.031051 0.239633 3.240644 1.548104
    36 -6.817844 -6.285980 -5.251444 0.666594 -4.318756 0.769049
    37 0.132101 -8.466044 -0.040616 0.136239 -0.072460 0.031178
    38 0.447953 -2.798986 -0.200443 -0.104509 -0.192370 0.258718
    39 -0.032909 -1.499736 0.036191 -1.759234 0.021968 -0.036827
    40 -0.027022 -1.115984 -0.028023 -0.994634 0.022100 -0.015916
    41 -0.249534 -2.846964 -0.174213 0.009452 -0.070702 0.196948
    42 0.043235 -1.656596 0.056948 -1.763160 -0.024622 0.013759
    43 0.031729 -1.141298 0.054932 -1.121697 -0.012481 0.006191
    44 -0.963866 -2.785145 -0.085350 0.260077 0.028696 0.046770
    45 0.028479 -1.403067 -0.009354 -0.545233 -0.010343 -0.022723
    46 0.021413 -0.942156 0.012233 -0.969120 -0.025539 -0.033725
    47 1.164475 -2.543940 -0.170330 -0.244500 -0.299426 0.130841
    48 0.024032 -1.144668 -0.005631 -1.178629 0.018241 0.058905
    49 0.014898 -0.903521 -0.015942 -1.054822 0.010594 0.052564
    50 -0.586770 -1.264477 0.200161 -0.480709 -0.775212 -2.389081
    51 1.565805 0.035243 0.016848 -0.018844 -0.006943 0.893522
    52 1.114041 0.040611 -0.005766 -0.030624 -0.033971 1.094330
    53 -0.002676 -0.502335 -0.044199 0.290547 0.059634 1.643451
    54 -8.237429 0.983469 -0.469909 1.567189 -0.035979 -0.197306
  time 10
    0 -5.193768 -7.112443 -4.261334 -0.085238 -0.062623 -1.574481
    1 2.999629 0.000000 1.353195 0.000000 0.000000 1.570798
    2 3.594184 0.000000 3.113281 0.000000 0.000000 1.570798
    3 1.661240 -0.000001 1.206648 0.000000 0.000000 1.570798
    4 -1.922007 -0.370809 2.041211 0.000000 0.000000 3.141589
    5 6.542123 0.000005 2.151215 1.570796 0.000000 0.000001
    6 -38.455750 -0.000043 2.151239 1.570796 0.000000 0.000001
    7 -38.280617 -0.000043 2.151239 1.570796 0.000000 0.000001
    8 5.863720 -7.168261 -4.217709 0.095745 -0.026802 -1.487957
    9 2.999630 0.000001 1.353195 0.510065 0.000000 1.570798
    10 3.572902 0.000003 3.113282 0.000000 0.000000 1.570798
    11 -1.949019 0.369309 1.958547 0.000000 0.000000 3.141589
    12 1.598420 0.000000 1.206649 0.000000 0.000000 1.570798
    13 6.485002 0.000008 2.091607 1.570797 0.000000 0.000001
    14 8.817085 -0.000033 2.091637 1.570797 0.000000 0.000001
    15 8.998429 -0.000032 2.091636 1.570797 0.000000 0.000001
    16 -0.002752 8.717751 -1.784592 0.000000 0.000000 0.000000
    17 8.130380 -6.494963 -6.233547 0.523139 -2.318350 -0.574653
    18 8.058169 1.340483 -0.368563 1.568414 -3.117785 0.242493
    19 -0.052389 -8.455766 -0.096321 0.072587 0.353384 -0.175684
    20 -0.488518 -2.755602 -0.228260 -0.434640 0.150360 -0.257287
    21 0.039887 -1.526666 0.010322 -1.357338 -0.013111 0.029747
    22 0.028786 -1.243705 -0.128581 -1.636554 -0.011673 0.037428
    23 0.250027 -2.820665 -0.238396 -0.156970 0.124643 -0.222596
    24 -0.049759 -1.598510 0.041883 -1.435791 0.002613 -0.039072
    25 -0.034142 -1.179563 0.045718 -1.374047 0.003919 -0.036193
    26 0.957766 -2.746780 -0.090302 0.163303 0.113141 0.005479
    27 -0.033420 -1.397129 -0.026882 -0.825072 0.006795 -0.040593
    28 -0.022360 -0.961342 -0.004654 -0.881695 0.005549 -0.042929
    29 -1.180681 -2.507217 -0.193859 -0.415008 0.237226 -0.226934
    30 -0.024967 -1.123934 0.017597 -0.746625 0.007047 -0.031734
    31 -0.020057 -0.902687 0.025715 -0.835949 0.007299 -0.033713
    32 0.587416 -1.197277 0.185379 0.202761 -0.629696 -0.509768
    33 1.477332 -0.220230 0.071417 0.050655 -0.216957 -0.777967
    34 1.007018 -0.182979 0.044010 0.086801 -0.241947 -1.032056
    35 0.038119 -0.319809 -0.031051 0.239633 3.240644 1.548104
    36 -6.817844 -6.285980 -5.251444 0.666552 -4.318756 0.768954
    37 0.132101 -8.466044 -0.040616 0.136283 -0.072460 0.031248
    38 0.447953 -2.798986 -0.200443 -0.104509 -0.192370 0.258718
    39 -0.032909 -1.499736 0.036191 -1.759234 0.021968 -0.036827
    40 -0.027022 -1.115984 -0.028023 -0.994634 0.022100 -0.015916
    41 -0.249534 -2.846964 -0.174213 0.009452 -0.070702 0.196948
    42 0.043235 -1.656596 0.056948 -1.763160 -0.024622 0.013759
    43 0.031729 -1.141298 0.054932 -1.121697 -0.012481 0.006191
    44 -0.963866 -2.785145 -0.085350 0.260077 0.028696 0.046770
    45 0.028479 -1.403067 -0.009354 -0.545233 -0.010343 -0.022723
    46 0.021413 -0.942156 0.012233 -0.969120 -0.025539 -0.033725
    47 1.164475 -2.543940 -0.170330 -0.244500 -0.299426 0.130841
    48 0.024032 -1.144668 -0.005631 -1.178629 0.018241 0.058905
    49 0.014898 -0.903521 -0.015942 -1.054822 0.010594 0.052564
    50 -0.586770 -1.264477 0.200161 -0.480709 -0.775212 -2.389081
    51 1.565805 0.035243 0.016848 -0.018844 -0.006943 0.893522
    52 1.114041 0.040611 -0.005766 -0.030624 -0.033971 1.094330
    53 -0.002676 -0.502335 -0.044199 0.290547 0.059634 1.643451
    54 -8.237429 0.983469 -0.469909 1.567189 -0.035979 -0.197354
  time 11
    0 -5.193768 -7.112443 -4.261334 -0.085238 -0.062456 -1.574481
    1 2.999629 0.000000 1.353195 0.000000 0.000000 1.570798
    2 3.594184 0.000000 3.113281 0.000000 0.000000 1.570798
    3 1.661240 -0.000001 1.206648 0.000000 0.000000 1.570798
    4 -1.922007 -0.370809 2.041211 0.000000 0.000000 3.141589
    5 6.542123 0.000005 2.151215 1.570796 0.000000 0.000001
    6 -38.455750 -0.000043 2.151239 1.570796 0.000000 0.000001
    7 -38.280617 -0.000043 2.151239 1.570796 0.000000 0.000001
    8 5.937941 -7.187793 -4.268492 0.090937 -0.032263 -1.490882
    9 2.999630 0.000001 1.353195 0.475012 0.000000 1.570798
    10 3.572902 0.000003 3.113282 0.000000 0.000000 1.570798
    11 -1.949019 0.369309 1.958547 0.000000 0.000000 3.141589
    12 1.598420 0.000000 1.206649 0.000000 0.000000 1.570798
    13 6.485002 0.000008 2.091607 1.570797 0.000000 0.000001
    14 8.817085 -0.000033 2.091637 1.570797 0.000000 0.000001
    15 8.998429 -0.000032 2.091636 1.570797 0.000000 0.000001
    16 -0.002752 8.717751 -1.784592 0.000000 0.000000 0.000000
    17 8.149912 -6.502776 -6.264798 0.518258 -2.314654 -0.564831
    18 8.026918 1.668618 -0.360751 1.567935 -3.118552 0.282788
    19 -0.052389 -8.459673 -0.096321 0.072189 0.357617 -0.162031
    20 -0.488518 -2.755602 -0.228260 -0.434640 0.150360 -0.257287
    21 0.039887 -1.526666 0.010322 -1.357338 -0.013111 0.029747
    22 0.028786 -1.243705 -0.128581 -1.636554 -0.011673 0.037428
    23 0.250027 -2.820665 -0.238396 -0.156970 0.124643 -0.222596
    24 -0.049759 -1.598510 0.041883 -1.435791 0.002613 -0.039072
    25 -0.034142 -1.179563 0.045718 -1.374047 0.003919 -0.036193
    26 0.957766 -2.746780 -0.090302 0.163303 0.113141 0.005479
    27 -0.033420 -1.393223 -0.022976 -0.750277 0.007598 -0.036902
    28 -0.022360 -0.961342 -0.004654 -0.864335 0.005813 -0.042090
    29 -1.180681 -2.507217 -0.193859 -0.415008 0.237226 -0.226934
    30 -0.024967 -1.123934 0.017597 -0.746625 0.007047 -0.031734
    31 -0.020057 -0.902687 0.025715 -0.835949 0.007299 -0.033713
    32 0.587416 -1.197277 0.185379 0.202761 -0.629696 -0.509768
    33 1.477332 -0.220230 0.071417 0.050655 -0.216957 -0.777967
    34 1.007018 -0.182979 0.044010 0.086801 -0.241947 -1.032056
    35 0.038119 -0.319809 -0.031051 0.239633 3.240644 1.548104
    36 -6.817844 -6.285980 -5.251444 0.666426 -4.318821 0.768859
    37 0.132101 -8.466044 -0.040616 0.136283 -0.072460 0.031318
    38 0.447953 -2.798986 -0.200443 -0.104509 -0.192370 0.258718
    39 -0.032909 -1.499736 0.036191 -1.759234 0.021968 -0.036827
    40 -0.027022 -1.115984 -0.028023 -0.994634 0.022100 -0.015916
    41 -0.249534 -2.846964 -0.174213 0.009452 -0.070702 0.196948
    42 0.043235 -1.656596 0.056948 -1.763160 -0.024622 0.013759
    43 0.031729 -1.141298 0.054932 -1.121697 -0.012481 0.006191
    44 -0.963866 -2.785145 -0.085350 0.260077 0.028696 0.046770
    45 0.028479 -1.403067 -0.009354 -0.545233 -0.010343 -0.022723
    46 0.021413 -0.942156 0.012233 -0.969120 -0.025539 -0.033725
    47 1.164475 -2.543940 -0.170330 -0.244500 -0.299426 0.130841
    48 0.024032 -1.144668 -0.005631 -1.178629 0.018241 0.058905
    49 0.014898 -0.903521 -0.015942 -1.054822 0.010594 0.052564
    50 -0.586770 -1.264477 0.200161 -0.480709 -0.775212 -2.389081
    51 1.565805 0.035243 0.016848 -0.018844 -0.006943 0.893522
    52 1.114041 0.040611 -0.005766 -0.030624 -0.033971 1.094330
    53 -0.002676 -0.502335 -0.044199 0.290547 0.059634 1.643451
    54 -8.237429 0.983469 -0.469909 1.567189 -0.035979 -0.197354
  time 12
    0 -5.193768 -7.112443 -4.261334 -0.085238 -0.062290 -1.574481
    1 2.999629 0.000000 1.353195 0.000000 0.000000 1.570798
    2 3.594184 0.000000 3.113281 0.000000 0.000000 1.570798
    3 1.661240 -0.000001 1.206648 0.000000 0.000000 1.570798
    4 -1.922007 -0.370809 2.041211 0.000000 0.000000 3.141589
    5 6.542123 0.000005 2.151215 1.570796 0.000000 0.000001
    6 -38.455750 -0.000043 2.151239 1.570796 0.000000 0.000001
    7 -38.280617 -0.000043 2.151239 1.570796 0.000000 0.000001
    8 6.004350 -7.195606 -4.315368 0.084056 -0.039352 -1.495128
    9 2.999630 0.000001 1.353195 0.442828 0.000000 1.570798
    10 3.572902 0.000003 3.113282 0.000000 0.000000 1.570798
    11 -1.949019 0.369309 1.958547 0.000000 0.000000 3.141589
    12 1.598420 0.000000 1.206649 0.000000 0.000000 1.570798
    13 6.485002 0.000008 2.091607 1.570797 0.000000 0.000001
    14 8.817085 -0.000033 2.091637 1.570797 0.000000 0.000001
    15 8.998429 -0.000032 2.091636 1.570797 0.000000 0.000001
    16 -0.002752 8.717751 -1.784592 0.000000 0.000000 0.000000
    17 8.161631 -6.494963 -6.292142 0.513089 -2.310674 -0.554348
    18 7.976135 2.012379 -0.356844 1.567551 -3.119319 0.325738
    19 -0.052389 -8.459673 -0.096321 0.072018 0.363815 -0.145647
    20 -0.488518 -2.755602 -0.228260 -0.434640 0.150360 -0.257287
    21 0.039887 -1.526666 0.010322 -1.357338 -0.013111 0.029747
    22 0.028786 -1.243705 -0.128581 -1.636554 -0.011673 0.037428
    23 0.250027 -2.820665 -0.238396 -0.156970 0.124643 -0.222596
    24 -0.049759 -1.598510 0.041883 -1.435791 0.002613 -0.039072
    25 -0.034142 -1.179563 0.045718 -1.374047 0.003919 -0.036193
    26 0.957766 -2.746780 -0.090302 0.163303 0.113141 0.005479
    27 -0.033420 -1.393223 -0.022976 -0.668661 0.008173 -0.032815
    28 -0.022360 -0.957436 -0.000748 -0.846943 0.006064 -0.041251
    29 -1.180681 -2.507217 -0.193859 -0.415008 0.237226 -0.226934
    30 -0.024967 -1.123934 0.017597 -0.746625 0.007047 -0.031734
    31 -0.020057 -0.902687 0.025715 -0.835949 0.007299 -0.033713
    32 0.587416 -1.197277 0.185379 0.202761 -0.629696 -0.509768
    33 1.477332 -0.220230 0.071417 0.050655 -0.216957 -0.777967
    34 1.007018 -0.182979 0.044010 0.086801 -0.241947 -1.032056
    35 0.038119 -0.319809 -0.031051 0.239633 3.240644 1.548104
    36 -6.817844 -6.285980 -5.251444 0.666299 -4.318887 0.768765
    37 0.132101 -8.466044 -0.040616 0.136283 -0.072460 0.031389
    38 0.447953 -2.798986 -0.200443 -0.104509 -0.192370 0.258718
    39 -0.032909 -1.499736 0.036191 -1.759234 0.021968 -0.036827
    40 -0.027022 -1.115984 -0.028023 -0.994634 0.022100 -0.015916
    41 -0.249534 -2.846964 -0.174213 0.009452 -0.070702 0.196948
    42 0.043235 -1.656596 0.056948 -1.763160 -0.024622 0.013759
    43 0.031729 -1.141298 0.054932 -1.121697 -0.012481 0.006191
    44 -0.963866 -2.785145 -0.085350 0.260077 0.028696 0.046770
    45 0.028479 -1.403067 -0.009354 -0.545233 -0.010343 -0.022723
    46 0.021413 -0.942156 0.012233 -0.969120 -0.025539 -0.033725
    47 1.164475 -2.543940 -0.170330 -0.244500 -0.299426 0.130841
    48 0.024032 -1.144668 -0.005631 -1.178629 0.018241 0.058905
    49 0.014898 -0.903521 -0.015942 -1.054822 0.010594 0.052564
    50 -0.586770 -1.264477 0.200161 -0.480709 -0.775212 -2.389081
    51 1.565805 0.035243 0.016848 -0.018844 -0.006943 0.893522
    52 1.114041 0.040611 -0.005766 -0.030624 -0.033971 1.094330
    53 -0.002676 -0.502335 -0.044199 0.290547 0.059634 1.643451
    54 -8.237429 0.983469 -0.469909 1.567189 -0.035979 -0.197401
  time 13
    0 -5.193768 -7.112443 -4.265240 -0.085238 -0.062123 -1.574567
    1 2.999629 0.000000 1.353195 0.000000 0.000000 1.570798
    2 3.594184 0.000000 3.113281 0.000000 0.000000 1.570798
    3 1.661240 -0.000001 1.206648 0.000000 0.000000 1.570798
    4 -1.922007 -0.370809 2.041211 0.000000 0.000000 3.141589
    5 6.542123 0.000005 2.151215 1.570796 0.000000 0.000001
    6 -38.455750 -0.000043 2.151239 1.570796 0.000000 0.000001
    7 -38.280617 -0.000043 2.151239 1.570796 0.000000 0.000001
    8 6.043413 -7.195606 -4.350525 0.077457 -0.046154 -1.499186
    9 2.999630 0.000001 1.353195 0.419276 0.000000 1.570798
    10 3.572902 0.000003 3.113282 0.000000 0.000000 1.570798
    11 -1.949019 0.369309 1.958547 0.000000 0.000000 3.141589
    12 1.598420 0.000000 1.206649 0.000000 0.000000 1.570798
    13 6.485002 0.000008 2.091607 1.570797 0.000000 0.000001
    14 8.817085 -0.000033 2.091637 1.570797 0.000000 0.000001
    15 8.998429 -0.000032 2.091636 1.570797 0.000000 0.000001
    16 -0.002752 8.717751 -1.784592 0.000000 0.000000 0.000000
    17 8.153818 -6.483244 -6.307768 0.508495 -2.307073 -0.545186
    18 7.921446 2.317075 -0.352938 1.567168 -3.120086 0.363568
    19 -0.052389 -8.463579 -0.096321 0.071989 0.369832 -0.130581
    20 -0.488518 -2.755602 -0.228260 -0.434640 0.150360 -0.257287
    21 0.039887 -1.526666 0.010322 -1.357338 -0.013111 0.029747
    22 0.028786 -1.243705 -0.128581 -1.636554 -0.011673 0.037428
    23 0.250027 -2.820665 -0.238396 -0.156970 0.124643 -0.222596
    24 -0.049759 -1.598510 0.041883 -1.435791 0.002613 -0.039072
    25 -0.034142 -1.179563 0.045718 -1.374047 0.003919 -0.036193
    26 0.957766 -2.746780 -0.090302 0.163303 0.113141 0.005479
    27 -0.033420 -1.393223 -0.019070 -0.596071 0.008389 -0.029160
    28 -0.022360 -0.957436 -0.000748 -0.829584 0.006304 -0.040412
    29 -1.180681 -2.507217 -0.193859 -0.415008 0.237226 -0.226934
    30 -0.024967 -1.123934 0.017597 -0.746625 0.007047 -0.031734
    31 -0.020057 -0.902687 0.025715 -0.835949 0.007299 -0.033713
    32 0.587416 -1.197277 0.185379 0.202761 -0.629696 -0.509768
    33 1.477332 -0.220230 0.071417 0.050655 -0.216957 -0.777967
    34 1.007018 -0.182979 0.044010 0.086801 -0.241947 -1.032056
    35 0.038119 -0.319809 -0.031051 0.239633 3.240644 1.548104
    36 -6.817844 -6.282073 -5.251444 0.666089 -4.318952 0.768576
    37 0.132101 -8.466044 -0.040616 0.136328 -0.072492 0.031459
    38 0.447953 -2.798986 -0.200443 -0.104509 -0.192370 0.258718
    39 -0.032909 -1.499736 0.036191 -1.759234 0.021968 -0.036827
    40 -0.027022 -1.115984 -0.028023 -0.994634 0.022100 -0.015916
    41 -0.249534 -2.846964 -0.174213 0.009452 -0.070702 0.196948
    42 0.043235 -1.656596 0.056948 -1.763160 -0.024622 0.013759
    43 0.031729 -1.141298 0.054932 -1.121697 -0.012481 0.006191
    44 -0.963866 -2.785145 -0.085350 0.260077 0.028696 0.046770
    45 0.028479 -1.403067 -0.009354 -0.545233 -0.010343 -0.022723
    46 0.021413 -0.942156 0.012233 -0.969120 -0.025539 -0.033725
    47 1.164475 -2.543940 -0.170330 -0.244500 -0.299426 0.130841
    48 0.024032 -1.144668 -0.005631 -1.178629 0.018241 0.058905
    49 0.014898 -0.903521 -0.015942 -1.054822 0.010594 0.052564
    50 -0.586770 -1.264477 0.200161 -0.480709 -0.775212 -2.389081
    51 1.565805 0.035243 0.016848 -0.018844 -0.006943 0.893522
    52 1.114041 0.040611 -0.005766 -0.030624 -0.033971 1.094330
    53 -0.002676 -0.502335 -0.044199 0.290547 0.059634 1.643451
    54 -8.237429 0.983469 -0.469909 1.567189 -0.035979 -0.197449
  time 14
    0 -5.193768 -7.112443 -4.265240 -0.085238 -0.061956 -1.574567
    1 2.999629 0.000000 1.353195 0.000000 0.000000 1.570798
    2 3.594184 0.000000 3.113281 0.000000 0.000000 1.570798
    3 1.661240 -0.000001 1.206648 0.000000 0.000000 1.570798
    4 -1.922007 -0.370809 2.041211 0.000000 0.000000 3.141589
    5 6.542123 0.000005 2.151215 1.570796 0.000000 0.000001
    6 -38.455750 -0.000043 2.151239 1.570796 0.000000 0.000001
    7 -38.280617 -0.000043 2.151239 1.570796 0.000000 0.000001
    8 6.062945 -7.191700 -4.370057 0.073403 -0.050369 -1.501639
    9 2.999630 0.000001 1.353195 0.410118 0.000000 1.570798
    10 3.572902 0.000003 3.113282 0.000000 0.000000 1.570798
    11 -1.949019 0.369309 1.958547 0.000000 0.000000 3.141589
    12 1.598420 0.000000 1.206649 0.000000 0.000000 1.570798
    13 6.485002 0.000008 2.091607 1.570797 0.000000 0.000001
    14 8.817085 -0.000033 2.091637 1.570797 0.000000 0.000001
    15 8.998429 -0.000032 2.091636 1.570797 0.000000 0.000001
    16 -0.002752 8.717751 -1.784592 0.000000 0.000000 0.000000
    17 8.142099 -6.479337 -6.319487 0.505433 -2.304704 -0.539047
    18 7.882382 2.516300 -0.349031 1.566880 -3.120565 0.388504
    19 -0.048483 -8.463579 -0.096321 0.072018 0.373551 -0.120882
    20 -0.488518 -2.755602 -0.228260 -0.434640 0.150360 -0.257287
    21 0.039887 -1.526666 0.010322 -1.357338 -0.013111 0.029747
    22 0.028786 -1.243705 -0.128581 -1.636554 -0.011673 0.037428
    23 0.250027 -2.820665 -0.238396 -0.156970 0.124643 -0.222596
    24 -0.049759 -1.598510 0.041883 -1.435791 0.002613 -0.039072
    25 -0.034142 -1.179563 0.045718 -1.374047 0.003919 -0.036193
    26 0.957766 -2.746780 -0.090302 0.163303 0.113141 0.005479
    27 -0.033420 -1.393223 -0.019070 -0.548442 0.008389 -0.026751
    28 -0.022360 -0.957436 -0.000748 -0.812192 0.006520 -0.039561
    29 -1.180681 -2.507217 -0.193859 -0.415008 0.237226 -0.226934
    30 -0.024967 -1.123934 0.017597 -0.746625 0.007047 -0.031734
    31 -0.020057 -0.902687 0.025715 -0.835949 0.007299 -0.033713
    32 0.587416 -1.197277 0.185379 0.202761 -0.629696 -0.509768
    33 1.477332 -0.220230 0.071417 0.050655 -0.216957 -0.777967
    34 1.007018 -0.182979 0.044010 0.086801 -0.241947 -1.032056
    35 0.038119 -0.319809 -0.031051 0.239633 3.240644 1.548104
    36 -6.817844 -6.282073 -5.251444 0.665878 -4.319017 0.768386
    37 0.132101 -8.466044 -0.040616 0.136328 -0.072492 0.031529
    38 0.447953 -2.798986 -0.200443 -0.104509 -0.192370 0.258718
    39 -0.032909 -1.499736 0.036191 -1.759234 0.021968 -0.036827
    40 -0.027022 -1.115984 -0.028023 -0.994634 0.022100 -0.015916
    41 -0.249534 -2.846964 -0.174213 0.009452 -0.070702 0.196948
    42 0.043235 -1.656596 0.056948 -1.763160 -0.024622 0.013759
    43 0.031729 -1.141298 0.054932 -1.121697 -0.012481 0.006191
    44 -0.963866 -2.785145 -0.085350 0.260077 0.028696 0.046770
    45 0.028479 -1.403067 -0.009354 -0.545233 -0.010343 -0.022723
    46 0.021413 -0.942156 0.012233 -0.969120 -0.025539 -0.033725
    47 1.164475 -2.543940 -0.170330 -0.244500 -0.299426 0.130841
    48 0.024032 -1.144668 -0.005631 -1.178629 0.018241 0.058905
    49 0.014898 -0.903521 -0.015942 -1.054822 0.010594 0.052564
    50 -0.586770 -1.264477 0.200161 -0.480709 -0.775212 -2.389081
    51 1.565805 0.035243 0.016848 -0.018844 -0.006943 0.893522
    52 1.114041 0.040611 -0.005766 -0.030624 -0.033971 1.094330
    53 -0.002676 -0.502335 -0.044199 0.290547 0.059634 1.643451
    54 -8.237429 0.987375 -0.469909 1.567189 -0.035979 -0.197544
  time 15
    0 -5.193768 -7.112443 -4.265240 -0.085238 -0.061789 -1.574653
    1 2.999629 0.000000 1.353195 0.000000 0.000000 1.570798
    2 3.594184 0.000000 3.113281 0.000000 0.000000 1.570798
    3 1.661240 -0.000001 1.206648 0.000000 0.000000 1.570798
    4 -1.922007 -0.370809 2.041211 0.000000 0.000000 3.141589
    5 6.542123 0.000005 2.151215 1.570796 0.000000 0.000001
    6 -38.455750 -0.000043 2.151239 1.570796 0.000000 0.000001
    7 -38.280617 -0.000043 2.151239 1.570796 0.000000 0.000001
    8 6.070758 -7.195606 -4.377870 0.071989 -0.051998 -1.502489
    9 2.999630 0.000001 1.353195 0.410118 0.000000 1.570798
    10 3.572902 0.000003 3.113282 0.000000 0.000000 1.570798
    11 -1.949019 0.369309 1.958547 0.000000 0.000000 3.141589
    12 1.598420 0.000000 1.206649 0.000000 0.000000 1.570798
    13 6.485002 0.000008 2.091607 1.570797 0.000000 0.000001
    14 8.817085 -0.000033 2.091637 1.570797 0.000000 0.000001
    15 8.998429 -0.000032 2.091636 1.570797 0.000000 0.000001
    16 -0.002752 8.717751 -1.784592 0.000000 0.000000 0.000000
    17 8.134286 -6.475431 -6.319487 0.504093 -2.303567 -0.536308
    18 7.858944 2.610053 -0.345125 1.566785 -3.120757 0.400165
    19 -0.048483 -8.463579 -0.096321 0.071989 0.374760 -0.116896
    20 -0.488518 -2.755602 -0.228260 -0.434640 0.150360 -0.257287
    21 0.039887 -1.526666 0.010322 -1.357338 -0.013111 0.029747
    22 0.028786 -1.243705 -0.128581 -1.636554 -0.011673 0.037428
    23 0.250027 -2.820665 -0.238396 -0.156970 0.124643 -0.222596
    24 -0.049759 -1.598510 0.041883 -1.435791 0.002613 -0.039072
    25 -0.034142 -1.179563 0.045718 -1.374047 0.003919 -0.036193
    26 0.957766 -2.746780 -0.090302 0.163303 0.113141 0.005479
    27 -0.033420 -1.393223 -0.019070 -0.527690 0.008365 -0.025708
    28 -0.022360 -0.957436 -0.000748 -0.794832 0.006723 -0.038698
    29 -1.180681 -2.507217 -0.193859 -0.415008 0.237226 -0.226934
    30 -0.024967 -1.123934 0.017597 -0.746625 0.007047 -0.031734
    31 -0.020057 -0.902687 0.025715 -0.835949 0.007299 -0.033713
    32 0.587416 -1.197277 0.185379 0.202761 -0.629696 -0.509768
    33 1.477332 -0.220230 0.071417 0.050655 -0.216957 -0.777967
    34 1.007018 -0.182979 0.044010 0.086801 -0.241947 -1.032056
    35 0.038119 -0.319809 -0.031051 0.239633 3.240644 1.548104
    36 -6.817844 -6.282073 -5.251444 0.665625 -4.319082 0.768103
    37 0.132101 -8.466044 -0.040616 0.136328 -0.072492 0.031600
    38 0.447953 -2.798986 -0.200443 -0.104509 -0.192370 0.258718
    39 -0.032909 -1.499736 0.036191 -1.759234 0.021968 -0.036827
    40 -0.027022 -1.115984 -0.028023 -0.994634 0.022100 -0.015916
    41 -0.249534 -2.846964 -0.174213 0.009452 -0.070702 0.196948
    42 0.043235 -1.656596 0.056948 -1.763160 -0.024622 0.013759
    43 0.031729 -1.141298 0.054932 -1.121697 -0.012481 0.006191
    44 -0.963866 -2.785145 -0.085350 0.260077 0.028696 0.046770
    45 0.028479 -1.403067 -0.009354 -0.545233 -0.010343 -0.022723
    46 0.021413 -0.942156 0.012233 -0.969120 -0.025539 -0.033725
    47 1.164475 -2.543940 -0.170330 -0.244500 -0.299426 0.130841
    48 0.024032 -1.144668 -0.005631 -1.178629 0.018241 0.058905
    49 0.014898 -0.903521 -0.015942 -1.054822 0.010594 0.052564
    50 -0.586770 -1.264477 0.200161 -0.480709 -0.775212 -2.389081
    51 1.565805 0.035243 0.016848 -0.018844 -0.006943 0.893522
    52 1.114041 0.040611 -0.005766 -0.030624 -0.033971 1.094330
    53 -0.002676 -0.502335 -0.044199 0.290547 0.059634 1.643451
    54 -8.237429 0.987375 -0.469909 1.567189 -0.035979 -0.197591
  time 16
    0 -5.193768 -7.112443 -4.269147 -0.085238 -0.061623 -1.574653
    1 2.999629 0.000000 1.353195 0.000000 0.000000 1.570798
    2 3.594184 0.000000 3.113281 0.000000 0.000000 1.570798
    3 1.661240 -0.000001 1.206648 0.000000 0.000000 1.570798
    4 -1.922007 -0.370809 2.041211 0.000000 0.000000 3.141589
    5 6.542123 0.000005 2.151215 1.570796 0.000000 0.000001
    6 -38.455750 -0.000043 2.151239 1.570796 0.000000 0.000001
    7 -38.280617 -0.000043 2.151239 1.570796 0.000000 0.000001
    8 6.074664 -7.195606 -4.377870 0.071706 -0.052668 -1.502677
    9 2.999630 0.000001 1.353195 0.410118 0.000000 1.570798
    10 3.572902 0.000003 3.113282 0.000000 0.000000 1.570798
    11 -1.949019 0.369309 1.958547 0.000000 0.000000 3.141589
    12 1.598420 0.000000 1.206649 0.000000 0.000000 1.570798
    13 6.485002 0.000008 2.091607 1.570797 0.000000 0.000001
    14 8.817085 -0.000033 2.091637 1.570797 0.000000 0.000001
    15 8.998429 -0.000032 2.091636 1.570797 0.000000 0.000001
    16 -0.002752 8.717751 -1.784592 0.000000 0.000000 0.000000
    17 8.130380 -6.475431 -6.319487 0.503710 -2.303188 -0.535364
    18 7.851131 2.641304 -0.345125 1.566785 -3.120853 0.404337
    19 -0.048483 -8.463579 -0.096321 0.071961 0.374972 -0.115578
    20 -0.488518 -2.755602 -0.228260 -0.434640 0.150360 -0.257287
    21 0.039887 -1.526666 0.010322 -1.357338 -0.013111 0.029747
    22 0.028786 -1.243705 -0.128581 -1.636554 -0.011673 0.037428
    23 0.250027 -2.820665 -0.238396 -0.156970 0.124643 -0.222596
    24 -0.049759 -1.598510 0.041883 -1.435791 0.002613 -0.039072
    25 -0.034142 -1.179563 0.045718 -1.374047 0.003919 -0.036193
    26 0.957766 -2.746780 -0.090302 0.163303 0.113141 0.005479
    27 -0.033420 -1.393223 -0.019070 -0.521856 0.008341 -0.025408
    28 -0.022360 -0.957436 -0.000748 -0.777440 0.006915 -0.037847
    29 -1.180681 -2.507217 -0.193859 -0.415008 0.237226 -0.226934
    30 -0.024967 -1.123934 0.017597 -0.746625 0.007047 -0.031734
    31 -0.020057 -0.902687 0.025715 -0.835949 0.007299 -0.033713
    32 0.587416 -1.197277 0.185379 0.202761 -0.629696 -0.509768
    33 1.477332 -0.220230 0.071417 0.050655 -0.216957 -0.777967
    34 1.007018 -0.182979 0.044010 0.086801 -0.241947 -1.032056
    35 0.038119 -0.319809 -0.031051 0.239633 3.240644 1.548104
    36 -6.817844 -6.282073 -5.251444 0.665372 -4.319212 0.767914
    37 0.132101 -8.466044 -0.040616 0.136328 -0.072492 0.031635
    38 0.447953 -2.798986 -0.200443 -0.104509 -0.192370 0.258718
    39 -0.032909 -1.499736 0.036191 -1.759234 0.021968 -0.036827
    40 -0.027022 -1.115984 -0.028023 -0.994634 0.022100 -0.015916
    41 -0.249534 -2.846964 -0.174213 0.009452 -0.070702 0.196948
    42 0.043235 -1.656596 0.056948 -1.763160 -0.024622 0.013759
    43 0.031729 -1.141298 0.054932 -1.121697 -0.012481 0.006191
    44 -0.963866 -2.785145 -0.085350 0.260077 0.028696 0.046770
    45 0.028479 -1.403067 -0.009354 -0.545233 -0.010343 -0.022723
    46 0.021413 -0.942156 0.012233 -0.969120 -0.025539 -0.033725
    47 1.164475 -2.543940 -0.170330 -0.244500 -0.299426 0.130841
    48 0.024032 -1.144668 -0.005631 -1.178629 0.018241 0.058905
    49 0.014898 -0.903521 -0.015942 -1.054822 0.010594 0.052564
    50 -0.586770 -1.264477 0.200161 -0.480709 -0.775212 -2.389081
    51 1.565805 0.035243 0.016848 -0.018844 -0.006943 0.893522
    52 1.114041 0.040611 -0.005766 -0.030624 -0.033971 1.094330
    53 -0.002676 -0.502335 -0.044199 0.290547 0.059634 1.643451
    54 -8.237429 0.987375 -0.469909 1.567189 -0.035979 -0.197686
  time 17
    0 -5.193768 -7.112443 -4.269147 -0.085238 -0.061456 -1.574653
    1 2.999629 0.000000 1.353195 0.000000 0.000000 1.570798
    2 3.594184 0.000000 3.113281 0.000000 0.000000 1.570798
    3 1.661240 -0.000001 1.206648 0.000000 0.000000 1.570798
    4 -1.922007 -0.370809 2.041211 0.000000 0.000000 3.141589
    5 6.542123 0.000005 2.151215 1.570796 0.000000 0.000001
    6 -38.455750 -0.000043 2.151239 1.570796 0.000000 0.000001
    7 -38.280617 -0.000043 2.151239 1.570796 0.000000 0.000001
    8 6.074664 -7.195606 -4.377870 0.072083 -0.052477 -1.502489
    9 2.999630 0.000001 1.353195 0.410118 0.000000 1.570798
    10 3.572902 0.000003 3.113282 0.000000 0.000000 1.570798
    11 -1.949019 0.369309 1.958547 0.000000 0.000000 3.141589
    12 1.598420 0.000000 1.206649 0.000000 0.000000 1.570798
    13 6.485002 0.000008 2.091607 1.570797 0.000000 0.000001
    14 8.817085 -0.000033 2.091637 1.570797 0.000000 0.000001
    15 8.998429 -0.000032 2.091636 1.570797 0.000000 0.000001
    16 -0.002752 8.717751 -1.784592 0.000000 0.000000 0.000000
    17 8.134286 -6.475431 -6.319487 0.503902 -2.303377 -0.535742
    18 7.855038 2.633491 -0.345125 1.566785 -3.120853 0.403105
    19 -0.048483 -8.463579 -0.096321 0.071932 0.374579 -0.116143
    20 -0.488518 -2.755602 -0.228260 -0.434640 0.150360 -0.257287
    21 0.039887 -1.526666 0.010322 -1.357338 -0.013111 0.029747
    22 0.028786 -1.243705 -0.128581 -1.636554 -0.011673 0.037428
    23 0.250027 -2.820665 -0.238396 -0.156970 0.124643 -0.222596
    24 -0.049759 -1.598510 0.041883 -1.435791 0.002613 -0.039072
    25 -0.034142 -1.179563 0.045718 -1.374047 0.003919 -0.036193
    26 0.957766 -2.746780 -0.090302 0.163303 0.113141 0.005479
    27 -0.033420 -1.393223 -0.019070 -0.526036 0.008353 -0.025612
    28 -0.022360 -0.957436 -0.000748 -0.760080 0.007095 -0.036984
    29 -1.180681 -2.507217 -0.193859 -0.415008 0.237226 -0.226934
    30 -0.024967 -1.123934 0.017597 -0.746625 0.007047 -0.031734
    31 -0.020057 -0.902687 0.025715 -0.835949 0.007299 -0.033713
    32 0.587416 -1.197277 0.185379 0.202761 -0.629696 -0.509768
    33 1.477332 -0.220230 0.071417 0.050655 -0.216957 -0.777967
    34 1.007018 -0.182979 0.044010 0.086801 -0.241947 -1.032056
    35 0.038119 -0.319809 -0.031051 0.239633 3.240644 1.548104
    36 -6.817844 -6.282073 -5.255350 0.665077 -4.319343 0.767630
    37 0.132101 -8.466044 -0.040616 0.136328 -0.072492 0.031670
    38 0.447953 -2.798986 -0.200443 -0.104509 -0.192370 0.258718
    39 -0.032909 -1.499736 0.036191 -1.759234 0.021968 -0.036827
    40 -0.027022 -1.115984 -0.028023 -0.994634 0.022100 -0.015916
    41 -0.249534 -2.846964 -0.174213 0.009452 -0.070702 0.196948
    42 0.043235 -1.656596 0.056948 -1.763160 -0.024622 0.013759
    43 0.031729 -1.141298 0.054932 -1.121697 -0.012481 0.006191
    44 -0.963866 -2.785145 -0.085350 0.260077 0.028696 0.046770
    45 0.028479 -1.403067 -0.009354 -0.545233 -0.010343 -0.022723
    46 0.021413 -0.942156 0.012233 -0.969120 -0.025539 -0.033725
    47 1.164475 -2.543940 -0.170330 -0.244500 -0.299426 0.130841
    48 0.024032 -1.144668 -0.005631 -1.178629 0.018241 0.058905
    49 0.014898 -0.903521 -0.015942 -1.054822 0.010594 0.052564
    50 -0.586770 -1.264477 0.200161 -0.480709 -0.775212 -2.389081
    51 1.565805 0.035243 0.016848 -0.018844 -0.006943 0.893522
    52 1.114041 0.040611 -0.005766 -0.030624 -0.033971 1.094330
    53 -0.002676 -0.502335 -0.044199 0.290547 0.059634 1.643451
    54 -8.237429 0.987375 -0.469909 1.567201 -0.035979 -0.197782
  time 18
    0 -5.193768 -7.112443 -4.273053 -0.085238 -0.061289 -1.574653
    1 2.999629 0.000000 1.353195 0.000000 0.000000 1.570798
    2 3.594184 0.000000 3.113281 0.000000 0.000000 1.570798
    3 1.661240 -0.000001 1.206648 0.000000 0.000000 1.570798
    4 -1.922007 -0.370809 2.041211 0.000000 0.000000 3.141589
    5 6.542123 0.000005 2.151215 1.570796 0.000000 0.000001
    6 -38.455750 -0.000043 2.151239 1.570796 0.000000 0.000001
    7 -38.280617 -0.000043 2.151239 1.570796 0.000000 0.000001
    8 6.070758 -7.195606 -4.373963 0.072837 -0.051806 -1.502111
    9 2.999630 0.000001 1.353195 0.410118 0.000000 1.570798
    10 3.572902 0.000003 3.113282 0.000000 0.000000 1.570798
    11 -1.949019 0.369309 1.958547 0.000000 0.000000 3.141589
    12 1.598420 0.000000 1.206649 0.000000 0.000000 1.570798
    13 6.485002 0.000008 2.091607 1.570797 0.000000 0.000001
    14 8.817085 -0.000033 2.091637 1.570797 0.000000 0.000001
    15 8.998429 -0.000032 2.091636 1.570797 0.000000 0.000001
    16 -0.002752 8.717751 -1.784592 0.000000 0.000000 0.000000
    17 8.134286 -6.479337 -6.319487 0.504476 -2.303851 -0.536781
    18 7.862850 2.598334 -0.345125 1.566880 -3.120757 0.398743
    19 -0.048483 -8.463579 -0.096321 0.071932 0.373944 -0.117744
    20 -0.488518 -2.755602 -0.228260 -0.434640 0.150360 -0.257287
    21 0.039887 -1.526666 0.010322 -1.357338 -0.013111 0.029747
    22 0.028786 -1.243705 -0.128581 -1.636554 -0.011673 0.037428
    23 0.250027 -2.820665 -0.238396 -0.156970 0.124643 -0.222596
    24 -0.049759 -1.598510 0.041883 -1.435791 0.002613 -0.039072
    25 -0.034142 -1.179563 0.045718 -1.374047 0.003919 -0.036193
    26 0.957766 -2.746780 -0.090302 0.163303 0.113141 0.005479
    27 -0.033420 -1.393223 -0.019070 -0.535149 0.008377 -0.026079
    28 -0.022360 -0.957436 -0.000748 -0.742688 0.007251 -0.036122
    29 -1.180681 -2.507217 -0.193859 -0.415008 0.237226 -0.226934
    30 -0.024967 -1.123934 0.017597 -0.746625 0.007047 -0.031734
    31 -0.020057 -0.902687 0.025715 -0.835949 0.007299 -0.033713
    32 0.587416 -1.197277 0.185379 0.202761 -0.629696 -0.509768
    33 1.477332 -0.220230 0.071417 0.050655 -0.216957 -0.777967
    34 1.007018 -0.182979 0.044010 0.086801 -0.241947 -1.032056
    35 0.038119 -0.319809 -0.031051 0.239633 3.240644 1.548104
    36 -6.817844 -6.282073 -5.255350 0.664783 -4.319408 0.767346
    37 0.132101 -8.466044 -0.040616 0.136328 -0.072524 0.031670
    38 0.447953 -2.798986 -0.200443 -0.104509 -0.192370 0.258718
    39 -0.032909 -1.499736 0.036191 -1.759234 0.021968 -0.036827
    40 -0.027022 -1.115984 -0.028023 -0.994634 0.022100 -0.015916
    41 -0.249534 -2.846964 -0.174213 0.009452 -0.070702 0.196948
    42 0.043235 -1.656596 0.056948 -1.763160 -0.024622 0.013759
    43 0.031729 -1.141298 0.054932 -1.121697 -0.012481 0.006191
    44 -0.963866 -2.785145 -0.085350 0.260077 0.028696 0.046770
    45 0.028479 -1.403067 -0.009354 -0.545233 -0.010343 -0.022723
    46 0.021413 -0.942156 0.012233 -0.969120 -0.025539 -0.033725
    47 1.164475 -2.543940 -0.170330 -0.244500 -0.299426 0.130841
    48 0.024032 -1.144668 -0.005631 -1.178629 0.018241 0.058905
    49 0.014898 -0.903521 -0.015942 -1.054822 0.010594 0.052564
    50 -0.586770 -1.264477 0.200161 -0.480709 -0.775212 -2.389081
    51 1.565805 0.035243 0.016848 -0.018844 -0.006943 0.893522
    52 1.114041 0.040611 -0.005766 -0.030624 -0.033971 1.094330
    53 -0.002676 -0.502335 -0.044199 0.290547 0.059634 1.643451
    54 -8.237429 0.987375 -0.469909 1.567201 -0.035979 -0.197877
  time 19
    0 -5.193768 -7.112443 -4.273053 -0.085238 -0.061122 -1.574653
    1 2.999629 0.000000 1.353195 0.000000 0.000000 1.570798
    2 3.594184 0.000000 3.113281 0.000000 0.000000 1.570798
    3 1.661240 -0.000001 1.206648 0.000000 0.000000 1.570798
    4 -1.922007 -0.370809 2.041211 0.000000 0.000000 3.141589
    5 6.542123 0.000005 2.151215 1.570796 0.000000 0.000001
    6 -38.455750 -0.000043 2.151239 1.570796 0.000000 0.000001
    7 -38.280617 -0.000043 2.151239 1.570796 0.000000 0.000001
    8 6.066851 -7.195606 -4.370057 0.073403 -0.050944 -1.501734
    9 2.999630 0.000001 1.353195 0.410118 0.000000 1.570798
    10 3.572902 0.000003 3.113282 0.000000 0.000000 1.570798
    11 -1.949019 0.369309 1.958547 0.000000 0.000000 3.141589
    12 1.598420 0.000000 1.206649 0.000000 0.000000 1.570798
    13 6.485002 0.000008 2.091607 1.570797 0.000000 0.000001
    14 8.817085 -0.000033 2.091637 1.570797 0.000000 0.000001
    15 8.998429 -0.000032 2.091636 1.570797 0.000000 0.000001
    16 -0.002752 8.717751 -1.784592 0.000000 0.000000 0.000000
    17 8.138193 -6.479337 -6.319487 0.505146 -2.304325 -0.538103
    18 7.874569 2.551458 -0.345125 1.566880 -3.120661 0.393149
    19 -0.048483 -8.463579 -0.096321 0.071961 0.373460 -0.119627
    20 -0.488518 -2.755602 -0.228260 -0.434640 0.150360 -0.257287
    21 0.039887 -1.526666 0.010322 -1.357338 -0.013111 0.029747
    22 0.028786 -1.243705 -0.128581 -1.636554 -0.011673 0.037428
    23 0.250027 -2.820665 -0.238396 -0.156970 0.124643 -0.222596
    24 -0.049759 -1.598510 0.041883 -1.435791 0.002613 -0.039072
    25 -0.034142 -1.179563 0.045718 -1.374047 0.003919 -0.036193
    26 0.957766 -2.746780 -0.090302 0.163303 0.113141 0.005479
    27 -0.033420 -1.393223 -0.019070 -0.544292 0.008389 -0.026535
    28 -0.022360 -0.957436 -0.000748 -0.725328 0.007394 -0.035259
    29 -1.180681 -2.507217 -0.193859 -0.415008 0.237226 -0.226934
    30 -0.024967 -1.123934 0.017597 -0.746625 0.007047 -0.031734
    31 -0.020057 -0.902687 0.025715 -0.835949 0.007299 -0.033713
    32 0.587416 -1.197277 0.185379 0.202761 -0.629696 -0.509768
    33 1.477332 -0.220230 0.071417 0.050655 -0.216957 -0.777967
    34 1.007018 -0.182979 0.044010 0.086801 -0.241947 -1.032056
    35 0.038119 -0.319809 -0.031051 0.239633 3.240644 1.548104
    36 -6.817844 -6.282073 -5.255350 0.664488 -4.319538 0.767062
    37 0.132101 -8.466044 -0.040616 0.136328 -0.072492 0.031635
    38 0.447953 -2.798986 -0.200443 -0.104509 -0.192370 0.258718
    39 -0.032909 -1.499736 0.036191 -1.759234 0.021968 -0.036827
    40 -0.027022 -1.115984 -0.028023 -0.994634 0.022100 -0.015916
    41 -0.249534 -2.846964 -0.174213 0.009452 -0.070702 0.196948
    42 0.043235 -1.656596 0.056948 -1.763160 -0.024622 0.013759
    43 0.031729 -1.141298 0.054932 -1.121697 -0.012481 0.006191
    44 -0.963866 -2.785145 -0.085350 0.260077 0.028696 0.046770
    45 0.028479 -1.403067 -0.009354 -0.545233 -0.010343 -0.022723
    46 0.021413 -0.942156 0.012233 -0.969120 -0.025539 -0.033725
    47 1.164475 -2.543940 -0.170330 -0.244500 -0.299426 0.130841
    48 0.024032 -1.144668 -0.005631 -1.178629 0.018241 0.058905
    49 0.014898 -0.903521 -0.015942 -1.054822 0.010594 0.052564
    50 -0.586770 -1.264477 0.200161 -0.480709 -0.775212 -2.389081
    51 1.565805 0.035243 0.016848 -0.018844 -0.006943 0.893522
    52 1.114041 0.040611 -0.005766 -0.030624 -0.033971 1.094330
    53 -0.002676 -0.502335 -0.044199 0.290547 0.059634 1.643451
    54 -8.237429 0.991281 -0.469909 1.567201 -0.035967 -0.197972
  time 20
    0 -5.193768 -7.112443 -4.273053 -0.085238 -0.061039 -1.574653
    1 2.999629 0.000000 1.353195 0.000000 0.000000 1.570798
    2 3.594184 0.000000 3.113281 0.000000 0.000000 1.570798
    3 1.661240 -0.000001 1.206648 0.000000 0.000000 1.570798
    4 -1.922007 -0.370809 2.041211 0.000000 0.000000 3.141589
    5 6.542123 0.000005 2.151215 1.570796 0.000000 0.000001
    6 -38.455750 -0.000043 2.151239 1.570796 0.000000 0.000001
    7 -38.280617 -0.000043 2.151239 1.570796 0.000000 0.000001
    8 6.062945 -7.191700 -4.370057 0.073403 -0.050369 -1.501639
    9 2.999630 0.000001 1.353195 0.410118 0.000000 1.570798
    10 3.572902 0.000003 3.113282 0.000000 0.000000 1.570798
    11 -1.949019 0.369309 1.958547 0.000000 0.000000 3.141589
    12 1.598420 0.000000 1.206649 0.000000 0.000000 1.570798
    13 6.485002 0.000008 2.091607 1.570797 0.000000 0.000001
    14 8.817085 -0.000033 2.091637 1.570797 0.000000 0.000001
    15 8.998429 -0.000032 2.091636 1.570797 0.000000 0.000001
    16 -0.002752 8.717751 -1.784592 0.000000 0.000000 0.000000
    17 8.142099 -6.479337 -6.319487 0.505433 -2.304704 -0.539047
    18 7.882382 2.516300 -0.349031 1.566880 -3.120565 0.388504
    19 -0.048483 -8.463579 -0.096321 0.072018 0.373551 -0.120882
    20 -0.488518 -2.755602 -0.228260 -0.434640 0.150360 -0.257287
    21 0.039887 -1.526666 0.010322 -1.357338 -0.013111 0.029747
    22 0.028786 -1.243705 -0.128581 -1.636554 -0.011673 0.037428
    23 0.250027 -2.820665 -0.238396 -0.156970 0.124643 -0.222596
    24 -0.049759 -1.598510 0.041883 -1.435791 0.002613 -0.039072
    25 -0.034142 -1.179563 0.045718 -1.374047 0.003919 -0.036193
    26 0.957766 -2.746780 -0.090302 0.163303 0.113141 0.005479
    27 -0.033420 -1.393223 -0.019070 -0.548442 0.008389 -0.026751
    28 -0.022360 -0.957436 -0.000748 -0.707936 0.007526 -0.034384
    29 -1.180681 -2.507217 -0.193859 -0.415008 0.237226 -0.226934
    30 -0.024967 -1.123934 0.017597 -0.746625 0.007047 -0.031734
    31 -0.020057 -0.902687 0.025715 -0.835949 0.007299 -0.033713
    32 0.587416 -1.197277 0.185379 0.202761 -0.629696 -0.509768
    33 1.477332 -0.220230 0.071417 0.050655 -0.216957 -0.777967
    34 1.007018 -0.182979 0.044010 0.086801 -0.241947 -1.032056
    35 0.038119 -0.319809 -0.031051 0.239633 3.240644 1.548104
    36 -6.817844 -6.282073 -5.255350 0.664151 -4.319668 0.766778
    37 0.132101 -8.466044 -0.040616 0.136328 -0.072492 0.031565
    38 0.447953 -2.798986 -0.200443 -0.104509 -0.192370 0.258718
    39 -0.032909 -1.499736 0.036191 -1.759234 0.021968 -0.036827
    40 -0.027022 -1.115984 -0.028023 -0.994634 0.022100 -0.015916
    41 -0.249534 -2.846964 -0.174213 0.009452 -0.070702 0.196948
    42 0.043235 -1.656596 0.056948 -1.763160 -0.024622 0.013759
    43 0.031729 -1.141298 0.054932 -1.121697 -0.012481 0.006191
    44 -0.963866 -2.785145 -0.085350 0.260077 0.028696 0.046770
    45 0.028479 -1.403067 -0.009354 -0.545233 -0.010343 -0.022723
    46 0.021413 -0.942156 0.012233 -0.969120 -0.025539 -0.033725
    47 1.164475 -2.543940 -0.170330 -0.244500 -0.299426 0.130841
    48 0.024032 -1.144668 -0.005631 -1.178629 0.018241 0.058905
    49 0.014898 -0.903521 -0.015942 -1.054822 0.010594 0.052564
    50 -0.586770 -1.264477 0.200161 -0.480709 -0.775212 -2.389081
    51 1.565805 0.035243 0.016848 -0.018844 -0.006943 0.893522
    52 1.114041 0.040611 -0.005766 -0.030624 -0.033971 1.094330
    53 -0.002676 -0.502335 -0.044199 0.290547 0.059634 1.643451
    54 -8.237429 0.991281 -0.469909 1.567201 -0.035967 -0.198067
end
