// Created by Crowbar 0.49.0.0

$modelname "weapons/tfa_cso/w_ak47.mdl"

$bodygroup "studio"
{
	studio "p_ak47_reference_pmodel_ak47"
}

$collisionmodel "p_ak47_reference_pmodel_ak47.smd"
{
	$mass 9
}

$CDMaterials "models\weapons\tfa_cso\ak47"

$attachment 0 "flash" 0 0 0

$sequence "idle" {
	"p_ak47_anims\idle"
	fps 30
}
