// Created by Crowbar 0.49.0.0

$modelname "weapons/tfa_cso/c_m16a4.mdl"

$Include "csonline_gmod.qci"

$bodygroup "weapon"
{
	studio "v_m16a4_v_ref"
}

$CDMaterials "models\weapons\tfa_cso\m16a4"

$attachment 0 "m16a4_root" -10.5 16.4 0
//$attachment 1 "m16a4_root" -2 1 0.5


$sequence "idle" {
	"v_m16a4_anims\idle"
	fps 16
	activity "ACT_VM_IDLE" 1
	snap
	loop
}
$sequence "shoot1" {
	"v_m16a4_anims\shoot1"
	{ event 5001 0 "22" }
	fps 20
	activity "ACT_VM_PRIMARYATTACK" 1
	snap
}
$sequence "shoot2" {
	"v_m16a4_anims\shoot2"
	{ event 5001 0 "22" }
	fps 20
	activity "ACT_VM_PRIMARYATTACK" 2
	snap
}
$sequence "shoot3" {
	"v_m16a4_anims\shoot3"
	{ event 5001 0 "22" }
	fps 20
	activity "ACT_VM_PRIMARYATTACK" 3
	snap
}
$sequence "reload" {
	"v_m16a4_anims\reload"
	{ event 5004 10 "M16A4.ClipOut" }
	{ event 5004 26 "M16A4.ClipIn" }
	{ event 5004 50 "M16A4.Draw" }
	fps 37
	activity "ACT_VM_RELOAD" 1
	snap
}
$sequence "draw" {
	"v_m16a4_anims\draw"
	{ event 5004 18 "M16A4.Draw" }
	fps 40
	activity "ACT_VM_DRAW" 1
	snap
}
