// Created by Crowbar 0.49.0.0

$modelname "weapons/tfa_cso/c_k1a.mdl"

$bodygroup "waepon"
{
	studio "v_k1a_f_k1a_template"
}
$bodygroup "hands"
{
	studio "v_k1a_f_k1a_Male_hand_Low"
}

$CDMaterials "models\weapons\tfa_cso\k1a\"

$attachment 0 "Bone_Reload" 0 -15.951 -0.827
//$attachment 1 "Bone_Reload" -0.334 0.688 -0.283

$definebone "Bip01 L Forearm" "" 7.741788 -2.908743 -10.620364 11.827167 -112.487719 -58.226721 -0.000000 0.000000 0.000000 -0.000000 0.000000 0.000000
$definebone "Bip01 L Hand" "Bip01 L Forearm" 8.499672 0.000001 -0.000001 9.286099 19.392215 -102.734263 0.000000 0.000000 0.000000 -0.000003 0.000002 0.000002
$definebone "Bone_K1A" "Bip01 L Hand" 2.483044 0.746120 -0.242963 -0.905593 -100.516999 -176.597494 -0.000000 0.000000 0.000000 -0.000005 -0.000000 0.000001
$definebone "Bone_Reload" "Bone_K1A" 0.000001 -6.072899 3.966897 -0.000005 -0.000000 0.000001 0.000000 0.000000 0.000000 -0.000005 -0.000000 0.000001
$definebone "Bone_Magazine" "Bone_K1A" -0.000000 -5.306969 -0.748579 -0.000005 -0.000000 0.000001 0.000000 0.000000 0.000000 -0.000005 -0.000000 0.000001
$definebone "Bone_SlidingStick" "Bone_K1A" 0.000001 -0.815638 3.073854 -0.000005 -0.000000 89.999983 0.000000 0.000000 0.000000 -0.000000 0.000005 -0.000002
$definebone "Bone_Trigger" "Bone_K1A" 0.000000 -2.562485 1.686583 -0.000005 -0.000000 -21.523443 -0.000000 0.000000 0.000000 -0.000005 -0.000003 0.000004
$definebone "Bone_Magazine_Botten" "Bone_K1A" -0.469865 -4.004091 2.092577 -89.999976 0.000000 0.000000 0.000000 0.000002 0.000000 0.000005 0.000002 0.000001
$definebone "Bip01 R Forearm" "" 3.016756 -1.217443 -14.077072 -24.885938 -123.255464 -133.143802 0.000000 -0.000000 0.000001 0.000001 0.000002 -0.000003
$definebone "Bip01 R Hand" "Bip01 R Forearm" 8.499672 0.000000 0.000001 8.342384 14.570834 156.052107 0.000000 0.000000 0.000001 -0.000002 -0.000005 -0.000004
$definebone "Bip01 R Finger0" "Bip01 R Hand" 1.066141 0.161472 0.665475 -40.551257 50.367581 -125.454785 0.000000 0.000000 -0.000000 -0.000002 -0.000002 -0.000007
$definebone "Bip01 R Finger01" "Bip01 R Finger0" 1.535968 -0.000001 -0.000001 0.000001 20.057761 -0.000010 -0.000000 0.000000 0.000000 0.000001 -0.000001 -0.000010
$definebone "Bip01 R Finger02" "Bip01 R Finger01" 1.100830 -0.000001 0.000000 0.000005 26.442287 -0.000009 0.000000 0.000000 0.000000 0.000005 -0.000003 -0.000009
$definebone "Bip01 R Finger1" "Bip01 R Hand" 2.725987 -0.106123 1.020465 3.839506 22.317964 2.997825 -0.000000 0.000000 0.000000 -0.000003 0.000000 -0.000005
$definebone "Bip01 R Finger11" "Bip01 R Finger1" 1.397574 -0.000000 -0.000001 0.000006 58.348196 -0.000004 -0.000000 0.000000 0.000000 0.000006 0.000009 -0.000004
$definebone "Bip01 R Finger12" "Bip01 R Finger11" 0.957878 0.000000 -0.000001 0.000008 41.361939 0.000001 0.000000 0.000000 0.000000 0.000008 0.000001 0.000001
$definebone "Bip01 R Finger2" "Bip01 R Hand" 2.818702 -0.176451 0.444442 6.618868 45.291634 14.358665 -0.000000 0.000000 0.000000 0.000002 0.000007 -0.000007
$definebone "Bip01 R Finger21" "Bip01 R Finger2" 1.684281 -0.000001 0.000001 0.000007 66.980845 0.000000 0.000000 0.000000 0.000000 0.000007 0.000000 0.000000
$definebone "Bip01 R Finger22" "Bip01 R Finger21" 1.151941 0.000000 -0.000002 0.000005 33.543971 0.000004 0.000000 0.000000 -0.000001 0.000005 -0.000011 0.000004
$definebone "Bip01 R Finger3" "Bip01 R Hand" 2.804605 -0.069565 -0.290473 6.770359 52.671674 11.670345 0.000000 0.000000 0.000001 0.000001 0.000004 -0.000003
$definebone "Bip01 R Finger31" "Bip01 R Finger3" 1.480628 0.000000 -0.000001 0.000002 60.844801 -0.000001 0.000000 -0.000000 0.000000 0.000002 0.000007 -0.000001
$definebone "Bip01 R Finger32" "Bip01 R Finger31" 1.076366 0.000000 -0.000002 0.000002 34.978154 0.000002 0.000000 0.000000 0.000000 0.000002 -0.000001 0.000002
$definebone "Bip01 R Finger4" "Bip01 R Hand" 2.637186 0.041572 -0.929336 10.544660 55.381070 19.655432 0.000000 0.000000 0.000000 0.000003 0.000003 -0.000009
$definebone "Bip01 R Finger41" "Bip01 R Finger4" 1.124349 -0.000001 0.000000 0.000009 57.194369 -0.000001 0.000000 0.000000 0.000000 0.000009 0.000005 -0.000001
$definebone "Bip01 R Finger42" "Bip01 R Finger41" 0.891246 0.000001 0.000000 0.000010 22.140579 0.000002 0.000000 0.000000 0.000000 0.000010 -0.000001 0.000002
$definebone "Bone_Se_Hand-R" "Bip01 R Hand" 0.077142 -0.333578 0.116334 9.429262 -161.527501 97.540492 -0.000000 0.000001 0.000000 -0.000007 0.000002 -0.000001
$definebone "Bip01 R ForeTwist2" "Bip01 R Forearm" 2.428478 -0.000002 0.000000 0.000001 0.000002 24.286305 0.000000 0.000000 0.000000 0.000002 0.000000 -0.000003
$definebone "Bip01 L Finger0" "Bip01 L Hand" 1.066140 0.161472 -0.665474 40.387852 59.971377 136.044420 0.000000 0.000000 0.000000 0.000003 -0.000001 0.000002
$definebone "Bip01 L Finger01" "Bip01 L Finger0" 1.535968 -0.000002 0.000001 -0.000002 67.635840 0.000004 -0.000001 0.000000 0.000000 -0.000002 0.000003 0.000004
$definebone "Bip01 L Finger02" "Bip01 L Finger01" 1.100828 0.000000 -0.000001 -0.000003 24.845799 0.000005 -0.000002 0.000000 0.000000 -0.000003 0.000001 0.000005
$definebone "Bip01 L Finger1" "Bip01 L Hand" 2.725985 -0.106123 -1.020463 -1.578845 -7.377403 -3.881101 0.000000 0.000000 0.000000 -0.000001 0.000001 0.000003
$definebone "Bip01 L Finger11" "Bip01 L Finger1" 1.397573 0.000000 0.000002 -0.000003 12.485271 0.000003 -0.000002 0.000000 0.000000 -0.000003 0.000002 0.000003
$definebone "Bip01 L Finger12" "Bip01 L Finger11" 0.957878 -0.000001 -0.000000 -0.000005 49.887094 -0.000003 -0.000001 0.000000 0.000000 -0.000005 0.000001 -0.000003
$definebone "Bip01 L Finger2" "Bip01 L Hand" 2.818703 -0.176450 -0.444441 -5.224288 34.840703 -11.263433 0.000001 0.000000 0.000000 -0.000003 -0.000009 -0.000002
$definebone "Bip01 L Finger21" "Bip01 L Finger2" 1.684282 -0.000001 -0.000001 0.000004 103.189878 -0.000003 0.000002 0.000000 0.000000 0.000004 0.000009 -0.000003
$definebone "Bip01 L Finger22" "Bip01 L Finger21" 1.151943 0.000000 0.000001 0.000007 38.670817 -0.000003 0.000000 -0.000000 0.000000 0.000007 0.000004 -0.000003
$definebone "Bip01 L Finger3" "Bip01 L Hand" 2.804605 -0.069563 0.290473 -3.365557 46.765671 -16.631876 -0.000000 0.000000 -0.000000 -0.000003 -0.000005 0.000001
$definebone "Bip01 L Finger31" "Bip01 L Finger3" 1.480628 0.000000 0.000001 -0.000000 93.853023 -0.000002 0.000000 0.000000 0.000000 -0.000000 0.000003 -0.000002
$definebone "Bip01 L Finger32" "Bip01 L Finger31" 1.076366 0.000000 -0.000000 0.000003 16.178154 -0.000003 -0.000002 0.000000 -0.000000 0.000003 0.000002 -0.000003
$definebone "Bip01 L Finger4" "Bip01 L Hand" 2.637186 0.041572 0.929337 -2.505661 52.611565 -24.378212 0.000000 0.000000 -0.000000 -0.000002 -0.000003 0.000000
$definebone "Bip01 L Finger41" "Bip01 L Finger4" 1.124350 0.000002 -0.000000 -0.000001 73.662498 -0.000003 0.000002 0.000000 -0.000000 -0.000001 0.000003 -0.000003
$definebone "Bip01 L Finger42" "Bip01 L Finger41" 0.891247 0.000002 -0.000001 0.000000 29.675834 -0.000002 -0.000002 0.000000 -0.000000 0.000000 0.000000 -0.000002
$definebone "Bone_Se_Hand-L" "Bip01 L Hand" 0.050302 -0.068011 -0.113034 0.620913 0.652258 98.808584 0.000000 0.000000 0.000000 0.000003 0.000002 -0.000003
$definebone "Bip01 L ForeTwist2" "Bip01 L Forearm" 2.428478 0.000001 0.000000 -0.000000 0.000000 -5.051024 0.000000 0.000000 0.000000 -0.000000 -0.000002 0.000002

$sequence "k1a_idle" {
	"v_k1a_anims\k1a_idle"
	fps 16
	activity "ACT_VM_IDLE" 1
	snap
	loop
}
$sequence "k1a_reload" {
	"v_k1a_anims\k1a_reload"
	{ event 5004 13 "K1A.ClipOut" }
	{ event 5004 40 "K1A.ClipIn" }
	{ event 5004 71 "K1A.Draw" }
	fps 30
	activity "ACT_VM_RELOAD" 1
	snap
}
$sequence "k1a_draw" {
	"v_k1a_anims\k1a_draw"
	{ event 5004 5 "K1A.Foley1" }
	{ event 5004 21 "K1A.Draw" }
	fps 30
	activity "ACT_VM_DRAW" 1
	snap
}
$sequence "k1a_shoot_1" {
	"v_k1a_anims\k1a_shoot_1"
	{ event 5001 0 "22" }
	fps 25
	activity "ACT_VM_PRIMARYATTACK" 1
	snap
}
$sequence "k1a_shoot_2" {
	"v_k1a_anims\k1a_shoot_2"
	{ event 5001 0 "22" }
	fps 25
	activity "ACT_VM_PRIMARYATTACK" 2
	snap
}
$sequence "k1a_shoot_3" {
	"v_k1a_anims\k1a_shoot_3"
	{ event 5001 0 "22" }
	fps 25
	activity "ACT_VM_PRIMARYATTACK" 3
	snap
}
