version 1
nodes
  0 "Bone01" -1
  1 "Bone_Lefthand" 0
  2 "Bone02" 1
  3 "Bone03" 2
  4 "Bone52" 3
  5 "Bone48" 3
  6 "Bone25" 3
  7 "Bone50" 3
  8 "Bone54" 3
  9 "Bone 04" 1
  10 "Bone13" 9
  11 "Bone14" 10
  12 "Bone15" 11
  13 "Bone17" 9
  14 "Bone18" 13
  15 "Bone19" 14
  16 "Bone21" 9
  17 "Bone22" 16
  18 "Bone23" 17
  19 "Bone05" 9
  20 "Bone06" 19
  21 "Bone07" 20
  22 "Bone09" 9
  23 "Bone10" 22
  24 "Bone11" 23
  25 "Bone04" -1
  26 "Bone_Righthand" 25
  27 "Bone26" 26
  28 "Bone35" 27
  29 "Bone36" 28
  30 "Bone37" 29
  31 "Bone31" 27
  32 "Bone32" 31
  33 "Bone33" 32
  34 "Bone39" 27
  35 "Bone40" 34
  36 "Bone41" 35
  37 "Bone43" 27
  38 "Bone44" 37
  39 "Bone45" 38
  40 "Bone27" 27
  41 "Bone28" 40
  42 "Bone29" 41
end
skeleton
  time 0
    0 6.606241 2.166441 -6.193456 5.508827 -1.331365 -5.715892
    1 -0.001604 -8.561233 -0.002570 0.347136 -0.117010 -0.166581
    2 -0.365922 -3.554516 0.712018 -1.186454 1.434443 -1.173803
    3 0.000000 2.617617 0.665016 0.000000 0.000000 0.000000
    4 -0.000001 -1.655465 2.278034 0.000000 0.000000 0.000000
    5 -0.000001 -1.796958 1.330032 0.000000 0.000000 0.000000
    6 -0.000002 -2.886455 1.471525 0.183244 0.000000 0.000000
    7 0.000000 -0.778212 1.774024 -0.000021 0.000000 0.000000
    8 -0.000001 -1.598867 0.580120 0.000000 0.000000 0.000000
    9 -0.003480 -0.404829 0.000000 0.000000 0.000000 0.000000
    10 -0.519309 -2.501155 -0.278957 -1.003564 0.000000 -0.122173
    11 -0.010598 -1.208185 -0.000001 -1.090831 0.000000 0.000000
    12 0.000000 -0.763066 0.000000 -1.343903 0.000000 0.000000
    13 0.105981 -2.607133 -0.278957 -0.890118 0.000000 -0.148353
    14 0.000000 -1.250578 -0.000001 -1.213004 0.000000 0.000000
    15 0.000000 -0.932634 0.000000 -1.483530 0.000000 0.000000
    16 0.763063 -2.490556 -0.278957 -0.347773 0.030405 0.214564
    17 -0.012322 -1.280917 0.000000 -1.228681 0.000000 0.000000
    18 -0.001697 -0.749371 -0.000001 -1.075078 0.000000 0.000000
    19 0.354567 0.016267 0.318133 0.342077 -0.443527 -1.083976
    20 1.887164 0.012877 0.000000 -0.305433 0.000000 -0.401426
    21 1.001874 -0.000270 -0.000001 0.000000 0.000000 -0.488692
    22 -1.123358 -2.195093 -0.278957 -0.933751 0.000000 -0.087266
    23 0.010772 -0.963791 0.000000 -0.610865 0.000000 0.000000
    24 -0.010412 -0.631916 0.000000 -1.213004 0.000000 0.000000
    25 -1.144079 -0.861116 -10.260372 -0.375299 0.000024 0.602091
    26 0.089930 -8.543163 -0.000001 0.079776 -0.284690 0.455199
    27 0.000000 -0.359712 0.000000 0.000000 0.000000 0.000000
    28 -0.170479 -2.636146 -0.277655 -0.820355 0.000000 0.000000
    29 0.010599 -1.261176 0.000002 -0.584675 0.000000 0.000000
    30 -0.000001 -0.943232 -0.000001 -0.532326 0.000000 0.000000
    31 -0.827563 -2.508973 -0.277656 -0.942512 0.000000 0.000000
    32 0.000000 -1.292971 0.000000 -0.287979 0.000000 0.000000
    33 0.000000 -0.752466 0.000000 -0.445059 0.000000 0.000000
    34 0.444213 -2.561960 -0.277655 -1.081559 -0.046226 -0.024599
    35 0.021022 -1.208186 0.000000 -0.427606 0.000000 0.000000
    36 0.010597 -0.741867 -0.000001 -0.453786 0.000000 0.000000
    37 1.047444 -2.222821 -0.277655 -1.019673 -0.066950 -0.041090
    38 0.000000 -0.996223 -0.000002 -0.584707 0.000000 0.000000
    39 -0.000001 -0.614690 0.000000 -0.523599 0.000000 0.000000
    40 -0.308254 -0.007814 0.307166 -0.318048 -0.539817 -2.424633
    41 1.978377 0.019543 0.000001 -0.000002 -0.000010 0.549776
    42 0.982426 0.003186 0.000000 0.000000 0.000000 0.593405
  time 1
    0 6.606241 2.166441 -6.193456 5.413650 -1.304917 -5.617505
    1 -0.001604 -8.561233 -0.002570 0.348420 -0.140122 0.135329
    2 -0.365922 -3.554516 0.712018 -1.186454 1.434443 -1.173803
    3 0.000000 2.617617 0.665016 0.000000 0.000000 0.000000
    4 -0.000001 -0.842940 2.278034 0.000000 0.000000 0.000000
    5 -0.000001 -1.796958 1.330032 0.000000 0.000000 0.000000
    6 -0.000002 -2.886455 1.471525 0.187427 0.000000 0.000000
    7 0.000000 -0.778212 1.774024 -0.308952 0.000000 0.000000
    8 -0.000001 -1.598867 0.580120 0.000000 0.000000 0.000000
    9 -0.003480 -0.404829 0.000000 0.000000 0.000000 0.000000
    10 -0.519309 -2.501155 -0.278957 -1.003564 0.000000 -0.122173
    11 -0.010598 -1.208185 -0.000001 -1.090831 0.000000 0.000000
    12 0.000000 -0.763066 0.000000 -1.343903 0.000000 0.000000
    13 0.105981 -2.607133 -0.278957 -0.890118 0.000000 -0.148353
    14 0.000000 -1.250578 -0.000001 -1.213004 0.000000 0.000000
    15 0.000000 -0.932634 0.000000 -1.483530 0.000000 0.000000
    16 0.763063 -2.490556 -0.278957 -0.347773 0.030405 0.214564
    17 -0.012322 -1.280917 0.000000 -1.239090 0.000000 0.000000
    18 -0.001697 -0.749371 -0.000001 -1.078625 0.000000 0.000000
    19 0.354567 0.016267 0.318133 0.342077 -0.443527 -1.083976
    20 1.887164 0.012877 0.000000 -0.305433 0.000000 -0.401426
    21 1.001874 -0.000270 -0.000001 0.000000 0.000000 -0.488692
    22 -1.123358 -2.195093 -0.278957 -0.933751 0.000000 -0.087266
    23 0.010772 -0.963791 0.000000 -0.610865 0.000000 0.000000
    24 -0.010412 -0.631916 0.000000 -1.213004 0.000000 0.000000
    25 -0.796412 -1.583794 -9.838484 -0.430640 0.074234 0.565729
    26 0.089930 -8.543163 -0.000001 0.004021 -0.095156 0.449253
    27 0.000000 -0.359712 0.000000 0.000000 0.000000 0.000000
    28 -0.170479 -2.636146 -0.277655 -0.820355 0.000000 0.000000
    29 0.010599 -1.261176 0.000002 -0.584675 0.000000 0.000000
    30 -0.000001 -0.943232 -0.000001 -0.532326 0.000000 0.000000
    31 -0.827563 -2.508973 -0.277656 -0.942512 0.000000 0.000000
    32 0.000000 -1.292971 0.000000 -0.287979 0.000000 0.000000
    33 0.000000 -0.752466 0.000000 -0.445059 0.000000 0.000000
    34 0.444213 -2.561960 -0.277655 -1.081559 -0.046226 -0.024599
    35 0.021022 -1.208186 0.000000 -0.427606 0.000000 0.000000
    36 0.010597 -0.741867 -0.000001 -0.453786 0.000000 0.000000
    37 1.047444 -2.222821 -0.277655 -1.019673 -0.066950 -0.041090
    38 0.000000 -0.996223 -0.000002 -0.584707 0.000000 0.000000
    39 -0.000001 -0.614690 0.000000 -0.523599 0.000000 0.000000
    40 -0.308254 -0.007814 0.307166 -0.318048 -0.539817 -2.424633
    41 1.978377 0.019543 0.000001 -0.000002 -0.000010 0.549776
    42 0.982426 0.003186 0.000000 0.000000 0.000000 0.593405
  time 2
    0 6.606241 2.166441 -6.193456 5.323826 -1.270975 -5.523968
    1 -0.001604 -8.561233 -0.002570 0.350145 -0.145710 0.278103
    2 -0.365922 -3.554516 0.712018 -1.186454 1.434443 -1.173803
    3 0.000000 2.617617 0.665016 0.000000 0.000000 0.000000
    4 -0.000001 -0.030415 2.278034 0.000000 0.000000 0.000000
    5 -0.000001 -1.796958 1.330032 0.000000 0.000000 0.000000
    6 -0.000002 -2.886455 1.471525 0.195804 0.000000 0.000000
    7 0.000000 -0.778212 1.774024 -0.617862 0.000000 0.000000
    8 -0.000001 -1.598867 0.580120 0.000000 0.000000 0.000000
    9 -0.003480 -0.404829 0.000000 0.000000 0.000000 0.000000
    10 -0.519309 -2.501155 -0.278957 -1.003564 0.000000 -0.122173
    11 -0.010598 -1.208185 -0.000001 -1.090831 0.000000 0.000000
    12 0.000000 -0.763066 0.000000 -1.343903 0.000000 0.000000
    13 0.105981 -2.607133 -0.278957 -0.890118 0.000000 -0.148353
    14 0.000000 -1.250578 -0.000001 -1.213004 0.000000 0.000000
    15 0.000000 -0.932634 0.000000 -1.483530 0.000000 0.000000
    16 0.763063 -2.490556 -0.278957 -0.347773 0.030405 0.214564
    17 -0.012322 -1.280917 0.000000 -1.259908 0.000000 0.000000
    18 -0.001697 -0.749371 -0.000001 -1.085690 0.000000 0.000000
    19 0.354567 0.016267 0.318133 0.342077 -0.443527 -1.083976
    20 1.887164 0.012877 0.000000 -0.305433 0.000000 -0.401426
    21 1.001874 -0.000270 -0.000001 0.000000 0.000000 -0.488692
    22 -1.123358 -2.195093 -0.278957 -0.933751 0.000000 -0.087266
    23 0.010772 -0.963791 0.000000 -0.610865 0.000000 0.000000
    24 -0.010412 -0.631916 0.000000 -1.213004 0.000000 0.000000
    25 -0.526872 -1.923648 -9.483005 -0.479158 0.130354 0.534718
    26 0.089930 -8.543163 -0.000001 -0.059174 0.049780 0.434931
    27 0.000000 -0.359712 0.000000 0.000000 0.000000 0.000000
    28 -0.170479 -2.636146 -0.277655 -0.820355 0.000000 0.000000
    29 0.010599 -1.261176 0.000002 -0.584675 0.000000 0.000000
    30 -0.000001 -0.943232 -0.000001 -0.532326 0.000000 0.000000
    31 -0.827563 -2.508973 -0.277656 -0.942512 0.000000 0.000000
    32 0.000000 -1.292971 0.000000 -0.287979 0.000000 0.000000
    33 0.000000 -0.752466 0.000000 -0.445059 0.000000 0.000000
    34 0.444213 -2.561960 -0.277655 -1.081559 -0.046226 -0.024599
    35 0.021022 -1.208186 0.000000 -0.427606 0.000000 0.000000
    36 0.010597 -0.741867 -0.000001 -0.453786 0.000000 0.000000
    37 1.047444 -2.222821 -0.277655 -1.019673 -0.066950 -0.041090
    38 0.000000 -0.996223 -0.000002 -0.584707 0.000000 0.000000
    39 -0.000001 -0.614690 0.000000 -0.523599 0.000000 0.000000
    40 -0.308254 -0.007814 0.307166 -0.318048 -0.539817 -2.424633
    41 1.978377 0.019543 0.000001 -0.000002 -0.000010 0.549776
    42 0.982426 0.003186 0.000000 0.000000 0.000000 0.593405
  time 3
    0 6.625772 2.635205 -6.123141 5.262129 -1.240339 -5.459061
    1 -0.001604 -8.561233 -0.002570 0.359295 -0.129903 0.249192
    2 -0.365922 -3.554516 0.712018 -1.186454 1.434443 -1.173803
    3 0.000000 2.617617 0.665016 0.000000 0.000000 0.000000
    4 -0.000001 -0.842940 2.278034 0.000000 0.000000 0.000000
    5 -0.000001 -1.796958 1.330032 0.000000 0.000000 0.000000
    6 -0.000002 -2.886455 1.471525 0.202096 0.000000 0.000000
    7 0.000000 -0.778212 1.774024 -0.926752 0.000000 0.000000
    8 -0.000001 -1.598867 0.580120 0.000000 0.000000 0.000000
    9 -0.003480 -0.404829 0.000000 0.000000 0.000000 0.000000
    10 -0.519309 -2.501155 -0.278957 -1.003564 0.000000 -0.122173
    11 -0.010598 -1.208185 -0.000001 -1.090831 0.000000 0.000000
    12 0.000000 -0.763066 0.000000 -1.343903 0.000000 0.000000
    13 0.105981 -2.607133 -0.278957 -0.890118 0.000000 -0.148353
    14 0.000000 -1.250578 -0.000001 -1.213004 0.000000 0.000000
    15 0.000000 -0.932634 0.000000 -1.483530 0.000000 0.000000
    16 0.763063 -2.490556 -0.278957 -0.347773 0.030405 0.214564
    17 -0.012322 -1.280917 0.000000 -1.275538 0.000000 0.000000
    18 -0.001697 -0.749371 -0.000001 -1.091011 0.000000 0.000000
    19 0.354567 0.016267 0.318133 0.342077 -0.443527 -1.083976
    20 1.887164 0.012877 0.000000 -0.305433 0.000000 -0.401426
    21 1.001874 -0.000270 -0.000001 0.000000 0.000000 -0.488692
    22 -1.123358 -2.195093 -0.278957 -0.933751 0.000000 -0.087266
    23 0.010772 -0.963791 0.000000 -0.610865 0.000000 0.000000
    24 -0.010412 -0.631916 0.000000 -1.213004 0.000000 0.000000
    25 -0.331554 -1.802551 -9.193933 -0.505204 0.137959 0.529917
    26 0.089930 -8.543163 -0.000001 -0.098152 0.068774 0.436541
    27 0.000000 -0.359712 0.000000 0.000000 0.000000 0.000000
    28 -0.170479 -2.636146 -0.277655 -0.820355 0.000000 0.000000
    29 0.010599 -1.261176 0.000002 -0.584675 0.000000 0.000000
    30 -0.000001 -0.943232 -0.000001 -0.532326 0.000000 0.000000
    31 -0.827563 -2.508973 -0.277656 -0.942512 0.000000 0.000000
    32 0.000000 -1.292971 0.000000 -0.287979 0.000000 0.000000
    33 0.000000 -0.752466 0.000000 -0.445059 0.000000 0.000000
    34 0.444213 -2.561960 -0.277655 -1.081559 -0.046226 -0.024599
    35 0.021022 -1.208186 0.000000 -0.427606 0.000000 0.000000
    36 0.010597 -0.741867 -0.000001 -0.453786 0.000000 0.000000
    37 1.047444 -2.222821 -0.277655 -1.019673 -0.066950 -0.041090
    38 0.000000 -0.996223 -0.000002 -0.584707 0.000000 0.000000
    39 -0.000001 -0.614690 0.000000 -0.523599 0.000000 0.000000
    40 -0.308254 -0.007814 0.307166 -0.318048 -0.539817 -2.424633
    41 1.978377 0.019543 0.000001 -0.000002 -0.000010 0.549776
    42 0.982426 0.003186 0.000000 0.000000 0.000000 0.593405
  time 4
    0 6.637491 2.971153 -6.072358 5.215312 -1.211334 -5.409354
    1 -0.001604 -8.561233 -0.002570 0.373538 -0.096899 0.151436
    2 -0.365922 -3.554516 0.712018 -1.186454 1.434443 -1.173803
    3 0.000000 2.617617 0.665016 0.000000 0.000000 0.000000
    4 -0.000001 -1.655465 2.278034 0.000000 0.000000 0.000000
    5 -0.000001 -1.796958 1.330032 0.000000 0.000000 0.000000
    6 -0.000002 -2.886455 1.471525 0.200011 0.000000 0.000000
    7 0.000000 -0.778212 1.774024 -0.926752 0.000000 0.000000
    8 -0.000001 -1.598867 0.580120 0.000000 0.000000 0.000000
    9 -0.003480 -0.404829 0.000000 0.000000 0.000000 0.000000
    10 -0.519309 -2.501155 -0.278957 -1.003564 0.000000 -0.122173
    11 -0.010598 -1.208185 -0.000001 -1.090831 0.000000 0.000000
    12 0.000000 -0.763066 0.000000 -1.343903 0.000000 0.000000
    13 0.105981 -2.607133 -0.278957 -0.890118 0.000000 -0.148353
    14 0.000000 -1.250578 -0.000001 -1.213004 0.000000 0.000000
    15 0.000000 -0.932634 0.000000 -1.483530 0.000000 0.000000
    16 0.763063 -2.490556 -0.278957 -0.347773 0.030405 0.214564
    17 -0.012322 -1.280917 0.000000 -1.270317 0.000000 0.000000
    18 -0.001697 -0.749371 -0.000001 -1.089238 0.000000 0.000000
    19 0.354567 0.016267 0.318133 0.342077 -0.443527 -1.083976
    20 1.887164 0.012877 0.000000 -0.305433 0.000000 -0.401426
    21 1.001874 -0.000270 -0.000001 0.000000 0.000000 -0.488692
    22 -1.123358 -2.195093 -0.278957 -0.933751 0.000000 -0.087266
    23 0.010772 -0.963791 0.000000 -0.610865 0.000000 0.000000
    24 -0.010412 -0.631916 0.000000 -1.213004 0.000000 0.000000
    25 -0.218269 -1.466603 -8.986896 -0.508670 0.128065 0.535899
    26 0.089930 -8.543163 -0.000001 -0.093352 0.033614 0.436640
    27 0.000000 -0.359712 0.000000 0.000000 0.000000 0.000000
    28 -0.170479 -2.636146 -0.277655 -0.820355 0.000000 0.000000
    29 0.010599 -1.261176 0.000002 -0.584675 0.000000 0.000000
    30 -0.000001 -0.943232 -0.000001 -0.532326 0.000000 0.000000
    31 -0.827563 -2.508973 -0.277656 -0.942512 0.000000 0.000000
    32 0.000000 -1.292971 0.000000 -0.287979 0.000000 0.000000
    33 0.000000 -0.752466 0.000000 -0.445059 0.000000 0.000000
    34 0.444213 -2.561960 -0.277655 -1.081559 -0.046226 -0.024599
    35 0.021022 -1.208186 0.000000 -0.427606 0.000000 0.000000
    36 0.010597 -0.741867 -0.000001 -0.453786 0.000000 0.000000
    37 1.047444 -2.222821 -0.277655 -1.019673 -0.066950 -0.041090
    38 0.000000 -0.996223 -0.000002 -0.584707 0.000000 0.000000
    39 -0.000001 -0.614690 0.000000 -0.523599 0.000000 0.000000
    40 -0.308254 -0.007814 0.307166 -0.318048 -0.539817 -2.424633
    41 1.978377 0.019543 0.000001 -0.000002 -0.000010 0.549776
    42 0.982426 0.003186 0.000000 0.000000 0.000000 0.593405
  time 5
    0 6.645304 3.174284 -6.041107 5.183737 -1.188236 -5.375595
    1 -0.001604 -8.561233 -0.002570 0.383654 -0.058807 0.020639
    2 -0.365922 -3.554516 0.712018 -1.186454 1.434443 -1.173803
    3 0.000000 2.617617 0.665016 0.000000 0.000000 0.000000
    4 -0.000001 -1.655465 2.278034 0.000000 0.000000 0.000000
    5 -0.000001 -1.796958 1.330032 0.000000 0.000000 0.000000
    6 -0.000002 -2.886455 1.471525 0.183244 0.000000 0.000000
    7 0.000000 -0.778212 1.774024 -0.926752 0.000000 0.000000
    8 -0.000001 -1.598867 0.580120 0.000000 0.000000 0.000000
    9 -0.003480 -0.404829 0.000000 0.000000 0.000000 0.000000
    10 -0.519309 -2.501155 -0.278957 -1.003564 0.000000 -0.122173
    11 -0.010598 -1.208185 -0.000001 -1.090831 0.000000 0.000000
    12 0.000000 -0.763066 0.000000 -1.343903 0.000000 0.000000
    13 0.105981 -2.607133 -0.278957 -0.890118 0.000000 -0.148353
    14 0.000000 -1.250578 -0.000001 -1.213004 0.000000 0.000000
    15 0.000000 -0.932634 0.000000 -1.483530 0.000000 0.000000
    16 0.763063 -2.490556 -0.278957 -0.347773 0.030405 0.214564
    17 -0.012322 -1.280917 0.000000 -1.228681 0.000000 0.000000
    18 -0.001697 -0.749371 -0.000001 -1.075078 0.000000 0.000000
    19 0.354567 0.016267 0.318133 0.342077 -0.443527 -1.083976
    20 1.887164 0.012877 0.000000 -0.305433 0.000000 -0.401426
    21 1.001874 -0.000270 -0.000001 0.000000 0.000000 -0.488692
    22 -1.123358 -2.195093 -0.278957 -0.933751 0.000000 -0.087266
    23 0.010772 -0.963791 0.000000 -0.610865 0.000000 0.000000
    24 -0.010412 -0.631916 0.000000 -1.213004 0.000000 0.000000
    25 -0.261239 -1.122843 -8.865798 -0.492046 0.123487 0.540385
    26 0.089930 -8.543163 -0.000001 -0.029471 -0.003928 0.414795
    27 0.000000 -0.359712 0.000000 0.000000 0.000000 0.000000
    28 -0.170479 -2.636146 -0.277655 -0.820355 0.000000 0.000000
    29 0.010599 -1.261176 0.000002 -0.584675 0.000000 0.000000
    30 -0.000001 -0.943232 -0.000001 -0.532326 0.000000 0.000000
    31 -0.827563 -2.508973 -0.277656 -0.942512 0.000000 0.000000
    32 0.000000 -1.292971 0.000000 -0.287979 0.000000 0.000000
    33 0.000000 -0.752466 0.000000 -0.445059 0.000000 0.000000
    34 0.444213 -2.561960 -0.277655 -1.081559 -0.046226 -0.024599
    35 0.021022 -1.208186 0.000000 -0.427606 0.000000 0.000000
    36 0.010597 -0.741867 -0.000001 -0.453786 0.000000 0.000000
    37 1.047444 -2.222821 -0.277655 -1.019673 -0.066950 -0.041090
    38 0.000000 -0.996223 -0.000002 -0.584707 0.000000 0.000000
    39 -0.000001 -0.614690 0.000000 -0.523599 0.000000 0.000000
    40 -0.308254 -0.007814 0.307166 -0.318048 -0.539817 -2.424633
    41 1.978377 0.019543 0.000001 -0.000002 -0.000010 0.549776
    42 0.982426 0.003186 0.000000 0.000000 0.000000 0.593405
  time 6
    0 6.649211 3.240692 -6.033295 5.180290 -1.185415 -5.371678
    1 -0.001604 -8.561233 -0.002570 0.386856 -0.026737 -0.106313
    2 -0.365922 -3.554516 0.712018 -1.186454 1.434443 -1.173803
    3 0.000000 2.617617 0.665016 0.000000 0.000000 0.000000
    4 -0.000001 -1.655465 2.278034 0.000000 0.000000 0.000000
    5 -0.000001 -1.796958 1.330032 0.000000 0.000000 0.000000
    6 -0.000002 -2.886455 1.471525 0.087607 0.000000 0.000000
    7 0.000000 -0.778212 1.774024 -0.926752 0.000000 0.000000
    8 -0.000001 -1.598867 0.580120 0.000000 0.000000 0.000000
    9 -0.003480 -0.404829 0.000000 0.000000 0.000000 0.000000
    10 -0.519309 -2.501155 -0.278957 -1.003564 0.000000 -0.122173
    11 -0.010598 -1.208185 -0.000001 -1.090831 0.000000 0.000000
    12 0.000000 -0.763066 0.000000 -1.343903 0.000000 0.000000
    13 0.105981 -2.607133 -0.278957 -0.890118 0.000000 -0.148353
    14 0.000000 -1.250578 -0.000001 -1.213004 0.000000 0.000000
    15 0.000000 -0.932634 0.000000 -1.483530 0.000000 0.000000
    16 0.763063 -2.490556 -0.278957 -0.347773 0.030405 0.214564
    17 -0.012322 -1.280917 0.000000 -0.990953 0.000000 0.000000
    18 -0.001697 -0.749371 -0.000001 -1.033632 0.000000 0.000000
    19 0.354567 0.016267 0.318133 0.342077 -0.443527 -1.083976
    20 1.887164 0.012877 0.000000 -0.305433 0.000000 -0.401426
    21 1.001874 -0.000270 -0.000001 0.000000 0.000000 -0.488692
    22 -1.123358 -2.195093 -0.278957 -0.933751 0.000000 -0.087266
    23 0.010772 -0.963791 0.000000 -0.610865 0.000000 0.000000
    24 -0.010412 -0.631916 0.000000 -1.213004 0.000000 0.000000
    25 -0.429213 -0.708767 -8.826735 -0.467028 0.118170 0.546288
    26 0.089930 -8.543163 -0.000001 0.059240 -0.048316 0.382784
    27 0.000000 -0.359712 0.000000 0.000000 0.000000 0.000000
    28 -0.170479 -2.636146 -0.277655 -0.820355 0.000000 0.000000
    29 0.010599 -1.261176 0.000002 -0.584675 0.000000 0.000000
    30 -0.000001 -0.943232 -0.000001 -0.532326 0.000000 0.000000
    31 -0.827563 -2.508973 -0.277656 -0.942512 0.000000 0.000000
    32 0.000000 -1.292971 0.000000 -0.287979 0.000000 0.000000
    33 0.000000 -0.752466 0.000000 -0.445059 0.000000 0.000000
    34 0.444213 -2.561960 -0.277655 -1.081559 -0.046226 -0.024599
    35 0.021022 -1.208186 0.000000 -0.427606 0.000000 0.000000
    36 0.010597 -0.741867 -0.000001 -0.453786 0.000000 0.000000
    37 1.047444 -2.222821 -0.277655 -1.019673 -0.066950 -0.041090
    38 0.000000 -0.996223 -0.000002 -0.584707 0.000000 0.000000
    39 -0.000001 -0.614690 0.000000 -0.523599 0.000000 0.000000
    40 -0.308254 -0.007814 0.307166 -0.318048 -0.539817 -2.424633
    41 1.978377 0.019543 0.000001 -0.000002 -0.000010 0.549776
    42 0.982426 0.003186 0.000000 0.000000 0.000000 0.593405
  time 7
    0 6.649211 3.217254 -6.056733 5.184372 -1.188633 -5.376155
    1 -0.001604 -8.561233 -0.002570 0.385338 -0.012148 -0.192950
    2 -0.365922 -3.554516 0.712018 -1.186454 1.434443 -1.173803
    3 0.000000 2.617617 0.665016 0.000000 0.000000 0.000000
    4 -0.000001 -1.655465 2.278034 0.000000 0.000000 0.000000
    5 -0.000001 -1.796958 1.330032 0.000000 0.000000 0.000000
    6 -0.000002 -2.886455 1.471525 0.000000 0.000000 0.000000
    7 0.000000 -0.778212 1.774024 -0.926752 0.000000 0.000000
    8 -0.000001 -1.598867 0.580120 0.000000 0.000000 0.000000
    9 -0.003480 -0.404829 0.000000 0.000000 0.000000 0.000000
    10 -0.519309 -2.501155 -0.278957 -1.003564 0.000000 -0.122173
    11 -0.010598 -1.208185 -0.000001 -1.090831 0.000000 0.000000
    12 0.000000 -0.763066 0.000000 -1.343903 0.000000 0.000000
    13 0.105981 -2.607133 -0.278957 -0.890118 0.000000 -0.148353
    14 0.000000 -1.250578 -0.000001 -1.213004 0.000000 0.000000
    15 0.000000 -0.932634 0.000000 -1.483530 0.000000 0.000000
    16 0.763063 -2.490556 -0.278957 -0.347773 0.030405 0.214564
    17 -0.012322 -1.280917 0.000000 -0.773156 0.000000 0.000000
    18 -0.001697 -0.749371 -0.000001 -0.970103 0.000000 0.000000
    19 0.354567 0.016267 0.318133 0.342077 -0.443527 -1.083976
    20 1.887164 0.012877 0.000000 -0.305433 0.000000 -0.401426
    21 1.001874 -0.000270 -0.000001 0.000000 0.000000 -0.488692
    22 -1.123358 -2.195093 -0.278957 -0.933751 0.000000 -0.087266
    23 0.010772 -0.963791 0.000000 -0.610865 0.000000 0.000000
    24 -0.010412 -0.631916 0.000000 -1.213004 0.000000 0.000000
    25 -0.608906 -0.310318 -8.861892 -0.439954 0.111524 0.550617
    26 0.089930 -8.543163 -0.000001 0.147934 -0.086979 0.347472
    27 0.000000 -0.359712 0.000000 0.000000 0.000000 0.000000
    28 -0.170479 -2.636146 -0.277655 -0.820355 0.000000 0.000000
    29 0.010599 -1.261176 0.000002 -0.584675 0.000000 0.000000
    30 -0.000001 -0.943232 -0.000001 -0.532326 0.000000 0.000000
    31 -0.827563 -2.508973 -0.277656 -0.942512 0.000000 0.000000
    32 0.000000 -1.292971 0.000000 -0.287979 0.000000 0.000000
    33 0.000000 -0.752466 0.000000 -0.445059 0.000000 0.000000
    34 0.444213 -2.561960 -0.277655 -1.081559 -0.046226 -0.024599
    35 0.021022 -1.208186 0.000000 -0.427606 0.000000 0.000000
    36 0.010597 -0.741867 -0.000001 -0.453786 0.000000 0.000000
    37 1.047444 -2.222821 -0.277655 -1.019673 -0.066950 -0.041090
    38 0.000000 -0.996223 -0.000002 -0.584707 0.000000 0.000000
    39 -0.000001 -0.614690 0.000000 -0.523599 0.000000 0.000000
    40 -0.308254 -0.007814 0.307166 -0.318048 -0.539817 -2.424633
    41 1.978377 0.019543 0.000001 -0.000002 -0.000010 0.549776
    42 0.982426 0.003186 0.000000 0.000000 0.000000 0.593405
  time 8
    0 6.649211 3.162565 -6.115328 5.201067 -1.201284 -5.394060
    1 -0.001604 -8.561233 -0.002570 0.382053 -0.018519 -0.236221
    2 -0.365922 -3.554516 0.712018 -1.186454 1.434443 -1.173803
    3 0.000000 2.617617 0.665016 0.000000 0.000000 0.000000
    4 -0.000001 -1.655465 2.278034 0.000000 0.000000 0.000000
    5 -0.000001 -1.796958 1.330032 0.000000 0.000000 0.000000
    6 -0.000002 -2.886455 1.471525 -0.008941 0.000000 0.000000
    7 0.000000 -0.778212 1.774024 -0.926752 0.000000 0.000000
    8 -0.000001 -1.598867 0.580120 0.000000 0.000000 0.000000
    9 -0.003480 -0.404829 0.000000 0.000000 0.000000 0.000000
    10 -0.519309 -2.501155 -0.278957 -1.003564 0.000000 -0.122173
    11 -0.010598 -1.208185 -0.000001 -1.090831 0.000000 0.000000
    12 0.000000 -0.763066 0.000000 -1.343903 0.000000 0.000000
    13 0.105981 -2.607133 -0.278957 -0.890118 0.000000 -0.148353
    14 0.000000 -1.250578 -0.000001 -1.213004 0.000000 0.000000
    15 0.000000 -0.932634 0.000000 -1.483530 0.000000 0.000000
    16 0.763063 -2.490556 -0.278957 -0.347773 0.030405 0.214564
    17 -0.012322 -1.280917 0.000000 -0.750946 0.000000 0.000000
    18 -0.001697 -0.749371 -0.000001 -0.909294 0.000000 0.000000
    19 0.354567 0.016267 0.318133 0.342077 -0.443527 -1.083976
    20 1.887164 0.012877 0.000000 -0.305433 0.000000 -0.401426
    21 1.001874 -0.000270 -0.000001 0.000000 0.000000 -0.488692
    22 -1.123358 -2.195093 -0.278957 -0.933751 0.000000 -0.087266
    23 0.010772 -0.963791 0.000000 -0.610865 0.000000 0.000000
    24 -0.010412 -0.631916 0.000000 -1.213004 0.000000 0.000000
    25 -0.690940 -0.025153 -8.947832 -0.416886 0.103254 0.550696
    26 0.089930 -8.543163 -0.000001 0.210299 -0.110388 0.319583
    27 0.000000 -0.359712 0.000000 0.000000 0.000000 0.000000
    28 -0.170479 -2.636146 -0.277655 -0.820355 0.000000 0.000000
    29 0.010599 -1.261176 0.000002 -0.584675 0.000000 0.000000
    30 -0.000001 -0.943232 -0.000001 -0.532326 0.000000 0.000000
    31 -0.827563 -2.508973 -0.277656 -0.942512 0.000000 0.000000
    32 0.000000 -1.292971 0.000000 -0.287979 0.000000 0.000000
    33 0.000000 -0.752466 0.000000 -0.445059 0.000000 0.000000
    34 0.444213 -2.561960 -0.277655 -1.081559 -0.046226 -0.024599
    35 0.021022 -1.208186 0.000000 -0.427606 0.000000 0.000000
    36 0.010597 -0.741867 -0.000001 -0.453786 0.000000 0.000000
    37 1.047444 -2.222821 -0.277655 -1.019673 -0.066950 -0.041090
    38 0.000000 -0.996223 -0.000002 -0.584707 0.000000 0.000000
    39 -0.000001 -0.614690 0.000000 -0.523599 0.000000 0.000000
    40 -0.308254 -0.007814 0.307166 -0.318048 -0.539817 -2.424633
    41 1.978377 0.019543 0.000001 -0.000002 -0.000010 0.549776
    42 0.982426 0.003186 0.000000 0.000000 0.000000 0.593405
  time 9
    0 6.645304 3.084437 -6.201269 5.230464 -1.221429 -5.425581
    1 -0.001604 -8.561233 -0.002570 0.377775 -0.037956 -0.264941
    2 -0.365922 -3.554516 0.712018 -1.186454 1.434443 -1.173803
    3 0.000000 2.617617 0.665016 0.000000 0.000000 0.000000
    4 -0.000001 -1.655465 2.278034 0.000000 0.000000 0.000000
    5 -0.000001 -1.796958 1.330032 0.000000 0.000000 0.000000
    6 -0.000002 -2.886455 1.471525 -0.015580 0.000000 0.000000
    7 0.000000 -0.778212 1.774024 -0.926752 0.000000 0.000000
    8 -0.000001 -1.598867 0.580120 0.000000 0.000000 0.000000
    9 -0.003480 -0.404829 0.000000 0.000000 0.000000 0.000000
    10 -0.519309 -2.501155 -0.278957 -1.003564 0.000000 -0.122173
    11 -0.010598 -1.208185 -0.000001 -1.090831 0.000000 0.000000
    12 0.000000 -0.763066 0.000000 -1.343903 0.000000 0.000000
    13 0.105981 -2.607133 -0.278957 -0.890118 0.000000 -0.148353
    14 0.000000 -1.250578 -0.000001 -1.213004 0.000000 0.000000
    15 0.000000 -0.932634 0.000000 -1.483530 0.000000 0.000000
    16 0.763063 -2.490556 -0.278957 -0.347773 0.030405 0.214564
    17 -0.012322 -1.280917 0.000000 -0.734431 0.000000 0.000000
    18 -0.001697 -0.749371 -0.000001 -0.876155 0.000000 0.000000
    19 0.354567 0.016267 0.318133 0.342077 -0.443527 -1.083976
    20 1.887164 0.012877 0.000000 -0.305433 0.000000 -0.401426
    21 1.001874 -0.000270 -0.000001 0.000000 0.000000 -0.488692
    22 -1.123358 -2.195093 -0.278957 -0.933751 0.000000 -0.087266
    23 0.010772 -0.963791 0.000000 -0.610865 0.000000 0.000000
    24 -0.010412 -0.631916 0.000000 -1.213004 0.000000 0.000000
    25 -0.628438 0.099851 -9.092368 -0.396688 0.093286 0.545344
    26 0.089930 -8.543163 -0.000001 0.247833 -0.119499 0.299250
    27 0.000000 -0.359712 0.000000 0.000000 0.000000 0.000000
    28 -0.170479 -2.636146 -0.277655 -0.820355 0.000000 0.000000
    29 0.010599 -1.261176 0.000002 -0.584675 0.000000 0.000000
    30 -0.000001 -0.943232 -0.000001 -0.532326 0.000000 0.000000
    31 -0.827563 -2.508973 -0.277656 -0.942512 0.000000 0.000000
    32 0.000000 -1.292971 0.000000 -0.287979 0.000000 0.000000
    33 0.000000 -0.752466 0.000000 -0.445059 0.000000 0.000000
    34 0.444213 -2.561960 -0.277655 -1.081559 -0.046226 -0.024599
    35 0.021022 -1.208186 0.000000 -0.427606 0.000000 0.000000
    36 0.010597 -0.741867 -0.000001 -0.453786 0.000000 0.000000
    37 1.047444 -2.222821 -0.277655 -1.019673 -0.066950 -0.041090
    38 0.000000 -0.996223 -0.000002 -0.584707 0.000000 0.000000
    39 -0.000001 -0.614690 0.000000 -0.523599 0.000000 0.000000
    40 -0.308254 -0.007814 0.307166 -0.318048 -0.539817 -2.424633
    41 1.978377 0.019543 0.000001 -0.000002 -0.000010 0.549776
    42 0.982426 0.003186 0.000000 0.000000 0.000000 0.593405
  time 10
    0 6.645304 2.986778 -6.302834 5.270204 -1.244747 -5.467640
    1 -0.001604 -8.561233 -0.002570 0.373289 -0.064634 -0.281842
    2 -0.365922 -3.554516 0.712018 -1.186454 1.434443 -1.173803
    3 0.000000 2.617617 0.665016 0.000000 0.000000 0.000000
    4 -0.000001 -1.655465 2.278034 0.000000 0.000000 0.000000
    5 -0.000001 -1.796958 1.330032 0.000000 0.000000 0.000000
    6 -0.000002 -2.886455 1.471525 -0.020146 0.000000 0.000000
    7 0.000000 -0.778212 1.774024 -0.926752 0.000000 0.000000
    8 -0.000001 -1.598867 0.580120 0.000000 0.000000 0.000000
    9 -0.003480 -0.404829 0.000000 0.000000 0.000000 0.000000
    10 -0.519309 -2.501155 -0.278957 -1.003564 0.000000 -0.122173
    11 -0.010598 -1.208185 -0.000001 -1.090831 0.000000 0.000000
    12 0.000000 -0.763066 0.000000 -1.343903 0.000000 0.000000
    13 0.105981 -2.607133 -0.278957 -0.890118 0.000000 -0.148353
    14 0.000000 -1.250578 -0.000001 -1.213004 0.000000 0.000000
    15 0.000000 -0.932634 0.000000 -1.483530 0.000000 0.000000
    16 0.763063 -2.490556 -0.278957 -0.347773 0.030405 0.214564
    17 -0.012322 -1.280917 0.000000 -0.723073 0.000000 0.000000
    18 -0.001697 -0.749371 -0.000001 -0.866636 0.000000 0.000000
    19 0.354567 0.016267 0.318133 0.342077 -0.443527 -1.083976
    20 1.887164 0.012877 0.000000 -0.305433 0.000000 -0.401426
    21 1.001874 -0.000270 -0.000001 0.000000 0.000000 -0.488692
    22 -1.123358 -2.195093 -0.278957 -0.933751 0.000000 -0.087266
    23 0.010772 -0.963791 0.000000 -0.610865 0.000000 0.000000
    24 -0.010412 -0.631916 0.000000 -1.213004 0.000000 0.000000
    25 -0.542498 0.205323 -9.283780 -0.375191 0.082209 0.536528
    26 0.089930 -8.543163 -0.000001 0.279828 -0.121905 0.279426
    27 0.000000 -0.359712 0.000000 0.000000 0.000000 0.000000
    28 -0.170479 -2.636146 -0.277655 -0.820355 0.000000 0.000000
    29 0.010599 -1.261176 0.000002 -0.584675 0.000000 0.000000
    30 -0.000001 -0.943232 -0.000001 -0.532326 0.000000 0.000000
    31 -0.827563 -2.508973 -0.277656 -0.942512 0.000000 0.000000
    32 0.000000 -1.292971 0.000000 -0.287979 0.000000 0.000000
    33 0.000000 -0.752466 0.000000 -0.445059 0.000000 0.000000
    34 0.444213 -2.561960 -0.277655 -1.081559 -0.046226 -0.024599
    35 0.021022 -1.208186 0.000000 -0.427606 0.000000 0.000000
    36 0.010597 -0.741867 -0.000001 -0.453786 0.000000 0.000000
    37 1.047444 -2.222821 -0.277655 -1.019673 -0.066950 -0.041090
    38 0.000000 -0.996223 -0.000002 -0.584707 0.000000 0.000000
    39 -0.000001 -0.614690 0.000000 -0.523599 0.000000 0.000000
    40 -0.308254 -0.007814 0.307166 -0.318048 -0.539817 -2.424633
    41 1.978377 0.019543 0.000001 -0.000002 -0.000010 0.549776
    42 0.982426 0.003186 0.000000 0.000000 0.000000 0.593405
  time 11
    0 6.645304 2.885213 -6.412212 5.319743 -1.269168 -5.519678
    1 -0.001604 -8.561233 -0.002570 0.368983 -0.092681 -0.289785
    2 -0.365922 -3.554516 0.712018 -1.186454 1.434443 -1.173803
    3 0.000000 2.617617 0.665016 0.000000 0.000000 0.000000
    4 -0.000001 -1.655465 2.278034 0.000000 0.000000 0.000000
    5 -0.000001 -1.796958 1.330032 0.000000 0.000000 0.000000
    6 -0.000002 -2.886455 1.471525 -0.022903 0.000000 0.000000
    7 0.000000 -0.778212 1.774024 -0.926752 0.000000 0.000000
    8 -0.000001 -1.598867 0.580120 0.000000 0.000000 0.000000
    9 -0.003480 -0.404829 0.000000 0.000000 0.000000 0.000000
    10 -0.519309 -2.501155 -0.278957 -1.003564 0.000000 -0.122173
    11 -0.010598 -1.208185 -0.000001 -1.090831 0.000000 0.000000
    12 0.000000 -0.763066 0.000000 -1.343903 0.000000 0.000000
    13 0.105981 -2.607133 -0.278957 -0.890118 0.000000 -0.148353
    14 0.000000 -1.250578 -0.000001 -1.213004 0.000000 0.000000
    15 0.000000 -0.932634 0.000000 -1.483530 0.000000 0.000000
    16 0.763063 -2.490556 -0.278957 -0.347773 0.030405 0.214564
    17 -0.012322 -1.280917 0.000000 -0.716239 0.000000 0.000000
    18 -0.001697 -0.749371 -0.000001 -0.859925 0.000000 0.000000
    19 0.354567 0.016267 0.318133 0.342077 -0.443527 -1.083976
    20 1.887164 0.012877 0.000000 -0.305433 0.000000 -0.401426
    21 1.001874 -0.000270 -0.000001 0.000000 0.000000 -0.488692
    22 -1.123358 -2.195093 -0.278957 -0.933751 0.000000 -0.087266
    23 0.010772 -0.963791 0.000000 -0.610865 0.000000 0.000000
    24 -0.010412 -0.631916 0.000000 -1.213004 0.000000 0.000000
    25 -0.487809 0.400641 -9.514256 -0.353693 0.070764 0.525824
    26 0.089930 -8.543163 -0.000001 0.305633 -0.120247 0.261704
    27 0.000000 -0.359712 0.000000 0.000000 0.000000 0.000000
    28 -0.170479 -2.636146 -0.277655 -0.820355 0.000000 0.000000
    29 0.010599 -1.261176 0.000002 -0.584675 0.000000 0.000000
    30 -0.000001 -0.943232 -0.000001 -0.532326 0.000000 0.000000
    31 -0.827563 -2.508973 -0.277656 -0.942512 0.000000 0.000000
    32 0.000000 -1.292971 0.000000 -0.287979 0.000000 0.000000
    33 0.000000 -0.752466 0.000000 -0.445059 0.000000 0.000000
    34 0.444213 -2.561960 -0.277655 -1.081559 -0.046226 -0.024599
    35 0.021022 -1.208186 0.000000 -0.427606 0.000000 0.000000
    36 0.010597 -0.741867 -0.000001 -0.453786 0.000000 0.000000
    37 1.047444 -2.222821 -0.277655 -1.019673 -0.066950 -0.041090
    38 0.000000 -0.996223 -0.000002 -0.584707 0.000000 0.000000
    39 -0.000001 -0.614690 0.000000 -0.523599 0.000000 0.000000
    40 -0.308254 -0.007814 0.307166 -0.318048 -0.539817 -2.424633
    41 1.978377 0.019543 0.000001 -0.000002 -0.000010 0.549776
    42 0.982426 0.003186 0.000000 0.000000 0.000000 0.593405
  time 12
    0 6.645304 2.791460 -6.513778 5.377630 -1.292530 -5.580109
    1 -0.001604 -8.561233 -0.002570 0.365188 -0.116227 -0.291596
    2 -0.365922 -3.554516 0.712018 -1.186454 1.434443 -1.173803
    3 0.000000 2.617617 0.665016 0.000000 0.000000 0.000000
    4 -0.000001 -1.655465 2.278034 0.000000 0.000000 0.000000
    5 -0.000001 -1.796958 1.330032 0.000000 0.000000 0.000000
    6 -0.000002 -2.886455 1.471525 -0.024041 0.000000 0.000000
    7 0.000000 -0.778212 1.774024 -0.926752 0.000000 0.000000
    8 -0.000001 -1.598867 0.580120 0.000000 0.000000 0.000000
    9 -0.003480 -0.404829 0.000000 0.000000 0.000000 0.000000
    10 -0.519309 -2.501155 -0.278957 -1.003564 0.000000 -0.122173
    11 -0.010598 -1.208185 -0.000001 -1.090831 0.000000 0.000000
    12 0.000000 -0.763066 0.000000 -1.343903 0.000000 0.000000
    13 0.105981 -2.607133 -0.278957 -0.890118 0.000000 -0.148353
    14 0.000000 -1.250578 -0.000001 -1.213004 0.000000 0.000000
    15 0.000000 -0.932634 0.000000 -1.483530 0.000000 0.000000
    16 0.763063 -2.490556 -0.278957 -0.347773 0.030405 0.214564
    17 -0.012322 -1.280917 0.000000 -0.713360 0.000000 0.000000
    18 -0.001697 -0.749371 -0.000001 -0.855698 0.000000 0.000000
    19 0.354567 0.016267 0.318133 0.342077 -0.443527 -1.083976
    20 1.887164 0.012877 0.000000 -0.305433 0.000000 -0.401426
    21 1.001874 -0.000270 -0.000001 0.000000 0.000000 -0.488692
    22 -1.123358 -2.195093 -0.278957 -0.933751 0.000000 -0.087266
    23 0.010772 -0.963791 0.000000 -0.610865 0.000000 0.000000
    24 -0.010412 -0.631916 0.000000 -1.213004 0.000000 0.000000
    25 -0.440932 0.580334 -9.752544 -0.333658 0.059466 0.515041
    26 0.089930 -8.543163 -0.000001 0.324743 -0.117233 0.247448
    27 0.000000 -0.359712 0.000000 0.000000 0.000000 0.000000
    28 -0.170479 -2.636146 -0.277655 -0.820355 0.000000 0.000000
    29 0.010599 -1.261176 0.000002 -0.584675 0.000000 0.000000
    30 -0.000001 -0.943232 -0.000001 -0.532326 0.000000 0.000000
    31 -0.827563 -2.508973 -0.277656 -0.942512 0.000000 0.000000
    32 0.000000 -1.292971 0.000000 -0.287979 0.000000 0.000000
    33 0.000000 -0.752466 0.000000 -0.445059 0.000000 0.000000
    34 0.444213 -2.561960 -0.277655 -1.081559 -0.046226 -0.024599
    35 0.021022 -1.208186 0.000000 -0.427606 0.000000 0.000000
    36 0.010597 -0.741867 -0.000001 -0.453786 0.000000 0.000000
    37 1.047444 -2.222821 -0.277655 -1.019673 -0.066950 -0.041090
    38 0.000000 -0.996223 -0.000002 -0.584707 0.000000 0.000000
    39 -0.000001 -0.614690 0.000000 -0.523599 0.000000 0.000000
    40 -0.308254 -0.007814 0.307166 -0.318048 -0.539817 -2.424633
    41 1.978377 0.019543 0.000001 -0.000002 -0.000010 0.549776
    42 0.982426 0.003186 0.000000 0.000000 0.000000 0.593405
  time 13
    0 6.641398 2.709426 -6.599718 5.440234 -1.313116 -5.645016
    1 -0.001604 -8.561233 -0.002570 0.362400 -0.129468 -0.290293
    2 -0.365922 -3.554516 0.712018 -1.186454 1.434443 -1.173803
    3 0.000000 2.617617 0.665016 0.000000 0.000000 0.000000
    4 -0.000001 -1.655465 2.278034 0.000000 0.000000 0.000000
    5 -0.000001 -1.796958 1.330032 0.000000 0.000000 0.000000
    6 -0.000002 -2.886455 1.471525 -0.023849 0.000000 0.000000
    7 0.000000 -0.778212 1.774024 -0.926752 0.000000 0.000000
    8 -0.000001 -1.598867 0.580120 0.000000 0.000000 0.000000
    9 -0.003480 -0.404829 0.000000 0.000000 0.000000 0.000000
    10 -0.519309 -2.501155 -0.278957 -1.003564 0.000000 -0.122173
    11 -0.010598 -1.208185 -0.000001 -1.090831 0.000000 0.000000
    12 0.000000 -0.763066 0.000000 -1.343903 0.000000 0.000000
    13 0.105981 -2.607133 -0.278957 -0.890118 0.000000 -0.148353
    14 0.000000 -1.250578 -0.000001 -1.213004 0.000000 0.000000
    15 0.000000 -0.932634 0.000000 -1.483530 0.000000 0.000000
    16 0.763063 -2.490556 -0.278957 -0.347773 0.030405 0.214564
    17 -0.012322 -1.280917 0.000000 -0.713866 0.000000 0.000000
    18 -0.001697 -0.749371 -0.000001 -0.853599 0.000000 0.000000
    19 0.354567 0.016267 0.318133 0.342077 -0.443527 -1.083976
    20 1.887164 0.012877 0.000000 -0.305433 0.000000 -0.401426
    21 1.001874 -0.000270 -0.000001 0.000000 0.000000 -0.488692
    22 -1.123358 -2.195093 -0.278957 -0.933751 0.000000 -0.087266
    23 0.010772 -0.963791 0.000000 -0.610865 0.000000 0.000000
    24 -0.010412 -0.631916 0.000000 -1.213004 0.000000 0.000000
    25 -0.394056 0.677994 -9.979114 -0.316601 0.048907 0.505911
    26 0.089930 -8.543163 -0.000001 0.336761 -0.115551 0.237922
    27 0.000000 -0.359712 0.000000 0.000000 0.000000 0.000000
    28 -0.170479 -2.636146 -0.277655 -0.820355 0.000000 0.000000
    29 0.010599 -1.261176 0.000002 -0.584675 0.000000 0.000000
    30 -0.000001 -0.943232 -0.000001 -0.532326 0.000000 0.000000
    31 -0.827563 -2.508973 -0.277656 -0.942512 0.000000 0.000000
    32 0.000000 -1.292971 0.000000 -0.287979 0.000000 0.000000
    33 0.000000 -0.752466 0.000000 -0.445059 0.000000 0.000000
    34 0.444213 -2.561960 -0.277655 -1.081559 -0.046226 -0.024599
    35 0.021022 -1.208186 0.000000 -0.427606 0.000000 0.000000
    36 0.010597 -0.741867 -0.000001 -0.453786 0.000000 0.000000
    37 1.047444 -2.222821 -0.277655 -1.019673 -0.066950 -0.041090
    38 0.000000 -0.996223 -0.000002 -0.584707 0.000000 0.000000
    39 -0.000001 -0.614690 0.000000 -0.523599 0.000000 0.000000
    40 -0.308254 -0.007814 0.307166 -0.318048 -0.539817 -2.424633
    41 1.978377 0.019543 0.000001 -0.000002 -0.000010 0.549776
    42 0.982426 0.003186 0.000000 0.000000 0.000000 0.593405
  time 14
    0 6.641398 2.654737 -6.658314 5.500298 -1.329293 -5.707125
    1 -0.001604 -8.561233 -0.002570 0.361503 -0.131903 -0.289054
    2 -0.365922 -3.554516 0.712018 -1.186454 1.434443 -1.173803
    3 0.000000 2.617617 0.665016 0.000000 0.000000 0.000000
    4 -0.000001 -1.655465 2.278034 0.000000 0.000000 0.000000
    5 -0.000001 -1.796958 1.330032 0.000000 0.000000 0.000000
    6 -0.000002 -2.886455 1.471525 -0.022531 0.000000 0.000000
    7 0.000000 -0.778212 1.774024 -0.926752 0.000000 0.000000
    8 -0.000001 -1.598867 0.580120 0.000000 0.000000 0.000000
    9 -0.003480 -0.404829 0.000000 0.000000 0.000000 0.000000
    10 -0.519309 -2.501155 -0.278957 -1.003564 0.000000 -0.122173
    11 -0.010598 -1.208185 -0.000001 -1.090831 0.000000 0.000000
    12 0.000000 -0.763066 0.000000 -1.343903 0.000000 0.000000
    13 0.105981 -2.607133 -0.278957 -0.890118 0.000000 -0.148353
    14 0.000000 -1.250578 -0.000001 -1.213004 0.000000 0.000000
    15 0.000000 -0.932634 0.000000 -1.483530 0.000000 0.000000
    16 0.763063 -2.490556 -0.278957 -0.347773 0.030405 0.214564
    17 -0.012322 -1.280917 0.000000 -0.717125 0.000000 0.000000
    18 -0.001697 -0.749371 -0.000001 -0.853304 0.000000 0.000000
    19 0.354567 0.016267 0.318133 0.342077 -0.443527 -1.083976
    20 1.887164 0.012877 0.000000 -0.305433 0.000000 -0.401426
    21 1.001874 -0.000270 -0.000001 0.000000 0.000000 -0.488692
    22 -1.123358 -2.195093 -0.278957 -0.933751 0.000000 -0.087266
    23 0.010772 -0.963791 0.000000 -0.610865 0.000000 0.000000
    24 -0.010412 -0.631916 0.000000 -1.213004 0.000000 0.000000
    25 -0.362805 0.717057 -10.186151 -0.303984 0.039455 0.500323
    26 0.089930 -8.543163 -0.000001 0.341399 -0.117910 0.234210
    27 0.000000 -0.359712 0.000000 0.000000 0.000000 0.000000
    28 -0.170479 -2.636146 -0.277655 -0.820355 0.000000 0.000000
    29 0.010599 -1.261176 0.000002 -0.584675 0.000000 0.000000
    30 -0.000001 -0.943232 -0.000001 -0.532326 0.000000 0.000000
    31 -0.827563 -2.508973 -0.277656 -0.942512 0.000000 0.000000
    32 0.000000 -1.292971 0.000000 -0.287979 0.000000 0.000000
    33 0.000000 -0.752466 0.000000 -0.445059 0.000000 0.000000
    34 0.444213 -2.561960 -0.277655 -1.081559 -0.046226 -0.024599
    35 0.021022 -1.208186 0.000000 -0.427606 0.000000 0.000000
    36 0.010597 -0.741867 -0.000001 -0.453786 0.000000 0.000000
    37 1.047444 -2.222821 -0.277655 -1.019673 -0.066950 -0.041090
    38 0.000000 -0.996223 -0.000002 -0.584707 0.000000 0.000000
    39 -0.000001 -0.614690 0.000000 -0.523599 0.000000 0.000000
    40 -0.308254 -0.007814 0.307166 -0.318048 -0.539817 -2.424633
    41 1.978377 0.019543 0.000001 -0.000002 -0.000010 0.549776
    42 0.982426 0.003186 0.000000 0.000000 0.000000 0.593405
  time 15
    0 6.641398 2.635205 -6.681752 5.547569 -1.340093 -5.755713
    1 -0.001604 -8.561233 -0.002570 0.359516 -0.135295 -0.283050
    2 -0.365922 -3.554516 0.712018 -1.186454 1.434443 -1.173803
    3 0.000000 2.617617 0.665016 0.000000 0.000000 0.000000
    4 -0.000001 -1.655465 2.278034 0.000000 0.000000 0.000000
    5 -0.000001 -1.796958 1.330032 0.000000 0.000000 0.000000
    6 -0.000002 -2.886455 1.471525 -0.020362 0.000000 0.000000
    7 0.000000 -0.778212 1.774024 -0.926752 0.000000 0.000000
    8 -0.000001 -1.598867 0.580120 0.000000 0.000000 0.000000
    9 -0.003480 -0.404829 0.000000 0.000000 0.000000 0.000000
    10 -0.519309 -2.501155 -0.278957 -1.003564 0.000000 -0.122173
    11 -0.010598 -1.208185 -0.000001 -1.090831 0.000000 0.000000
    12 0.000000 -0.763066 0.000000 -1.343903 0.000000 0.000000
    13 0.105981 -2.607133 -0.278957 -0.890118 0.000000 -0.148353
    14 0.000000 -1.250578 -0.000001 -1.213004 0.000000 0.000000
    15 0.000000 -0.932634 0.000000 -1.483530 0.000000 0.000000
    16 0.763063 -2.490556 -0.278957 -0.347773 0.030405 0.214564
    17 -0.012322 -1.280917 0.000000 -0.722567 0.000000 0.000000
    18 -0.001697 -0.749371 -0.000001 -0.854516 0.000000 0.000000
    19 0.354567 0.016267 0.318133 0.342077 -0.443527 -1.083976
    20 1.887164 0.012877 0.000000 -0.305433 0.000000 -0.401426
    21 1.001874 -0.000270 -0.000001 0.000000 0.000000 -0.488692
    22 -1.123358 -2.195093 -0.278957 -0.933751 0.000000 -0.087266
    23 0.010772 -0.963791 0.000000 -0.610865 0.000000 0.000000
    24 -0.010412 -0.631916 0.000000 -1.213004 0.000000 0.000000
    25 -0.358898 0.677994 -10.315061 -0.297432 0.031554 0.500087
    26 0.089930 -8.543163 -0.000001 0.338223 -0.126835 0.237577
    27 0.000000 -0.359712 0.000000 0.000000 0.000000 0.000000
    28 -0.170479 -2.636146 -0.277655 -0.820355 0.000000 0.000000
    29 0.010599 -1.261176 0.000002 -0.584675 0.000000 0.000000
    30 -0.000001 -0.943232 -0.000001 -0.532326 0.000000 0.000000
    31 -0.827563 -2.508973 -0.277656 -0.942512 0.000000 0.000000
    32 0.000000 -1.292971 0.000000 -0.287979 0.000000 0.000000
    33 0.000000 -0.752466 0.000000 -0.445059 0.000000 0.000000
    34 0.444213 -2.561960 -0.277655 -1.081559 -0.046226 -0.024599
    35 0.021022 -1.208186 0.000000 -0.427606 0.000000 0.000000
    36 0.010597 -0.741867 -0.000001 -0.453786 0.000000 0.000000
    37 1.047444 -2.222821 -0.277655 -1.019673 -0.066950 -0.041090
    38 0.000000 -0.996223 -0.000002 -0.584707 0.000000 0.000000
    39 -0.000001 -0.614690 0.000000 -0.523599 0.000000 0.000000
    40 -0.308254 -0.007814 0.307166 -0.318048 -0.539817 -2.424633
    41 1.978377 0.019543 0.000001 -0.000002 -0.000010 0.549776
    42 0.982426 0.003186 0.000000 0.000000 0.000000 0.593405
  time 16
    0 6.633585 2.525827 -6.568467 5.572247 -1.345118 -5.780985
    1 -0.001604 -8.561233 -0.002570 0.357625 -0.135926 -0.273233
    2 -0.365922 -3.554516 0.712018 -1.186454 1.434443 -1.173803
    3 0.000000 2.617617 0.665016 0.000000 0.000000 0.000000
    4 -0.000001 -1.655465 2.278034 0.000000 0.000000 0.000000
    5 -0.000001 -1.796958 1.330032 0.000000 0.000000 0.000000
    6 -0.000002 -2.886455 1.471525 -0.017521 0.000000 0.000000
    7 0.000000 -0.778212 1.774024 -0.926752 0.000000 0.000000
    8 -0.000001 -1.598867 0.580120 0.000000 0.000000 0.000000
    9 -0.003480 -0.404829 0.000000 0.000000 0.000000 0.000000
    10 -0.519309 -2.501155 -0.278957 -1.003564 0.000000 -0.122173
    11 -0.010598 -1.208185 -0.000001 -1.090831 0.000000 0.000000
    12 0.000000 -0.763066 0.000000 -1.343903 0.000000 0.000000
    13 0.105981 -2.607133 -0.278957 -0.890118 0.000000 -0.148353
    14 0.000000 -1.250578 -0.000001 -1.213004 0.000000 0.000000
    15 0.000000 -0.932634 0.000000 -1.483530 0.000000 0.000000
    16 0.763063 -2.490556 -0.278957 -0.347773 0.030405 0.214564
    17 -0.012322 -1.280917 0.000000 -0.729590 0.000000 0.000000
    18 -0.001697 -0.749371 -0.000001 -0.856821 0.000000 0.000000
    19 0.354567 0.016267 0.318133 0.342077 -0.443527 -1.083976
    20 1.887164 0.012877 0.000000 -0.305433 0.000000 -0.401426
    21 1.001874 -0.000270 -0.000001 0.000000 0.000000 -0.488692
    22 -1.123358 -2.195093 -0.278957 -0.933751 0.000000 -0.087266
    23 0.010772 -0.963791 0.000000 -0.610865 0.000000 0.000000
    24 -0.010412 -0.631916 0.000000 -1.213004 0.000000 0.000000
    25 -0.390149 0.541271 -10.361938 -0.297432 0.025204 0.505439
    26 0.089930 -8.543163 -0.000001 0.325663 -0.142090 0.248959
    27 0.000000 -0.359712 0.000000 0.000000 0.000000 0.000000
    28 -0.170479 -2.636146 -0.277655 -0.820355 0.000000 0.000000
    29 0.010599 -1.261176 0.000002 -0.584675 0.000000 0.000000
    30 -0.000001 -0.943232 -0.000001 -0.532326 0.000000 0.000000
    31 -0.827563 -2.508973 -0.277656 -0.942512 0.000000 0.000000
    32 0.000000 -1.292971 0.000000 -0.287979 0.000000 0.000000
    33 0.000000 -0.752466 0.000000 -0.445059 0.000000 0.000000
    34 0.444213 -2.561960 -0.277655 -1.081559 -0.046226 -0.024599
    35 0.021022 -1.208186 0.000000 -0.427606 0.000000 0.000000
    36 0.010597 -0.741867 -0.000001 -0.453786 0.000000 0.000000
    37 1.047444 -2.222821 -0.277655 -1.019673 -0.066950 -0.041090
    38 0.000000 -0.996223 -0.000002 -0.584707 0.000000 0.000000
    39 -0.000001 -0.614690 0.000000 -0.523599 0.000000 0.000000
    40 -0.308254 -0.007814 0.307166 -0.318048 -0.539817 -2.424633
    41 1.978377 0.019543 0.000001 -0.000002 -0.000010 0.549776
    42 0.982426 0.003186 0.000000 0.000000 0.000000 0.593405
  time 17
    0 6.625772 2.428167 -6.470808 5.581230 -1.346882 -5.790218
    1 -0.001604 -8.561233 -0.002570 0.355914 -0.134230 -0.260366
    2 -0.365922 -3.554516 0.712018 -1.186454 1.434443 -1.173803
    3 0.000000 2.617617 0.665016 0.000000 0.000000 0.000000
    4 -0.000001 -1.655465 2.278034 0.000000 0.000000 0.000000
    5 -0.000001 -1.796958 1.330032 0.000000 0.000000 0.000000
    6 -0.000002 -2.886455 1.471525 -0.014310 0.000000 0.000000
    7 0.000000 -0.778212 1.774024 -0.926752 0.000000 0.000000
    8 -0.000001 -1.598867 0.580120 0.000000 0.000000 0.000000
    9 -0.003480 -0.404829 0.000000 0.000000 0.000000 0.000000
    10 -0.519309 -2.501155 -0.278957 -1.003564 0.000000 -0.122173
    11 -0.010598 -1.208185 -0.000001 -1.090831 0.000000 0.000000
    12 0.000000 -0.763066 0.000000 -1.343903 0.000000 0.000000
    13 0.105981 -2.607133 -0.278957 -0.890118 0.000000 -0.148353
    14 0.000000 -1.250578 -0.000001 -1.213004 0.000000 0.000000
    15 0.000000 -0.932634 0.000000 -1.483530 0.000000 0.000000
    16 0.763063 -2.490556 -0.278957 -0.347773 0.030405 0.214564
    17 -0.012322 -1.280917 0.000000 -0.737595 0.000000 0.000000
    18 -0.001697 -0.749371 -0.000001 -0.859925 0.000000 0.000000
    19 0.354567 0.016267 0.318133 0.342077 -0.443527 -1.083976
    20 1.887164 0.012877 0.000000 -0.305433 0.000000 -0.401426
    21 1.001874 -0.000270 -0.000001 0.000000 0.000000 -0.488692
    22 -1.123358 -2.195093 -0.278957 -0.933751 0.000000 -0.087266
    23 0.010772 -0.963791 0.000000 -0.610865 0.000000 0.000000
    24 -0.010412 -0.631916 0.000000 -1.213004 0.000000 0.000000
    25 -0.456558 0.353765 -10.334593 -0.302522 0.019961 0.514569
    26 0.089930 -8.543163 -0.000001 0.303612 -0.161060 0.267617
    27 0.000000 -0.359712 0.000000 0.000000 0.000000 0.000000
    28 -0.170479 -2.636146 -0.277655 -0.820355 0.000000 0.000000
    29 0.010599 -1.261176 0.000002 -0.584675 0.000000 0.000000
    30 -0.000001 -0.943232 -0.000001 -0.532326 0.000000 0.000000
    31 -0.827563 -2.508973 -0.277656 -0.942512 0.000000 0.000000
    32 0.000000 -1.292971 0.000000 -0.287979 0.000000 0.000000
    33 0.000000 -0.752466 0.000000 -0.445059 0.000000 0.000000
    34 0.444213 -2.561960 -0.277655 -1.081559 -0.046226 -0.024599
    35 0.021022 -1.208186 0.000000 -0.427606 0.000000 0.000000
    36 0.010597 -0.741867 -0.000001 -0.453786 0.000000 0.000000
    37 1.047444 -2.222821 -0.277655 -1.019673 -0.066950 -0.041090
    38 0.000000 -0.996223 -0.000002 -0.584707 0.000000 0.000000
    39 -0.000001 -0.614690 0.000000 -0.523599 0.000000 0.000000
    40 -0.308254 -0.007814 0.307166 -0.318048 -0.539817 -2.424633
    41 1.978377 0.019543 0.000001 -0.000002 -0.000010 0.549776
    42 0.982426 0.003186 0.000000 0.000000 0.000000 0.593405
  time 18
    0 6.617960 2.350040 -6.384868 5.577691 -1.346220 -5.786581
    1 -0.001604 -8.561233 -0.002570 0.354368 -0.130838 -0.245307
    2 -0.365922 -3.554516 0.712018 -1.186454 1.434443 -1.173803
    3 0.000000 2.617617 0.665016 0.000000 0.000000 0.000000
    4 -0.000001 -1.655465 2.278034 0.000000 0.000000 0.000000
    5 -0.000001 -1.796958 1.330032 0.000000 0.000000 0.000000
    6 -0.000002 -2.886455 1.471525 -0.010930 0.000000 0.000000
    7 0.000000 -0.778212 1.774024 -0.926752 0.000000 0.000000
    8 -0.000001 -1.598867 0.580120 0.000000 0.000000 0.000000
    9 -0.003480 -0.404829 0.000000 0.000000 0.000000 0.000000
    10 -0.519309 -2.501155 -0.278957 -1.003564 0.000000 -0.122173
    11 -0.010598 -1.208185 -0.000001 -1.090831 0.000000 0.000000
    12 0.000000 -0.763066 0.000000 -1.343903 0.000000 0.000000
    13 0.105981 -2.607133 -0.278957 -0.890118 0.000000 -0.148353
    14 0.000000 -1.250578 -0.000001 -1.213004 0.000000 0.000000
    15 0.000000 -0.932634 0.000000 -1.483530 0.000000 0.000000
    16 0.763063 -2.490556 -0.278957 -0.347773 0.030405 0.214564
    17 -0.012322 -1.280917 0.000000 -0.746010 0.000000 0.000000
    18 -0.001697 -0.749371 -0.000001 -0.863473 0.000000 0.000000
    19 0.354567 0.016267 0.318133 0.342077 -0.443527 -1.083976
    20 1.887164 0.012877 0.000000 -0.305433 0.000000 -0.401426
    21 1.001874 -0.000270 -0.000001 0.000000 0.000000 -0.488692
    22 -1.123358 -2.195093 -0.278957 -0.933751 0.000000 -0.087266
    23 0.010772 -0.963791 0.000000 -0.610865 0.000000 0.000000
    24 -0.010412 -0.631916 0.000000 -1.213004 0.000000 0.000000
    25 -0.589374 0.142821 -10.213496 -0.311565 0.015531 0.526847
    26 0.089930 -8.543163 -0.000001 0.273855 -0.182365 0.292319
    27 0.000000 -0.359712 0.000000 0.000000 0.000000 0.000000
    28 -0.170479 -2.636146 -0.277655 -0.820355 0.000000 0.000000
    29 0.010599 -1.261176 0.000002 -0.584675 0.000000 0.000000
    30 -0.000001 -0.943232 -0.000001 -0.532326 0.000000 0.000000
    31 -0.827563 -2.508973 -0.277656 -0.942512 0.000000 0.000000
    32 0.000000 -1.292971 0.000000 -0.287979 0.000000 0.000000
    33 0.000000 -0.752466 0.000000 -0.445059 0.000000 0.000000
    34 0.444213 -2.561960 -0.277655 -1.081559 -0.046226 -0.024599
    35 0.021022 -1.208186 0.000000 -0.427606 0.000000 0.000000
    36 0.010597 -0.741867 -0.000001 -0.453786 0.000000 0.000000
    37 1.047444 -2.222821 -0.277655 -1.019673 -0.066950 -0.041090
    38 0.000000 -0.996223 -0.000002 -0.584707 0.000000 0.000000
    39 -0.000001 -0.614690 0.000000 -0.523599 0.000000 0.000000
    40 -0.308254 -0.007814 0.307166 -0.318048 -0.539817 -2.424633
    41 1.978377 0.019543 0.000001 -0.000002 -0.000010 0.549776
    42 0.982426 0.003186 0.000000 0.000000 0.000000 0.593405
  time 19
    0 6.614053 2.283632 -6.318460 5.565533 -1.343796 -5.774084
    1 -0.001604 -8.561233 -0.002570 0.352974 -0.126316 -0.228818
    2 -0.365922 -3.554516 0.712018 -1.186454 1.434443 -1.173803
    3 0.000000 2.617617 0.665016 0.000000 0.000000 0.000000
    4 -0.000001 -1.655465 2.278034 0.000000 0.000000 0.000000
    5 -0.000001 -1.796958 1.330032 0.000000 0.000000 0.000000
    6 -0.000002 -2.886455 1.471525 -0.007622 0.000000 0.000000
    7 0.000000 -0.778212 1.774024 -0.926752 0.000000 0.000000
    8 -0.000001 -1.598867 0.580120 0.000000 0.000000 0.000000
    9 -0.003480 -0.404829 0.000000 0.000000 0.000000 0.000000
    10 -0.519309 -2.501155 -0.278957 -1.003564 0.000000 -0.122173
    11 -0.010598 -1.208185 -0.000001 -1.090831 0.000000 0.000000
    12 0.000000 -0.763066 0.000000 -1.343903 0.000000 0.000000
    13 0.105981 -2.607133 -0.278957 -0.890118 0.000000 -0.148353
    14 0.000000 -1.250578 -0.000001 -1.213004 0.000000 0.000000
    15 0.000000 -0.932634 0.000000 -1.483530 0.000000 0.000000
    16 0.763063 -2.490556 -0.278957 -0.347773 0.030405 0.214564
    17 -0.012322 -1.280917 0.000000 -0.754205 0.000000 0.000000
    18 -0.001697 -0.749371 -0.000001 -0.867139 0.000000 0.000000
    19 0.354567 0.016267 0.318133 0.342077 -0.443527 -1.083976
    20 1.887164 0.012877 0.000000 -0.305433 0.000000 -0.401426
    21 1.001874 -0.000270 -0.000001 0.000000 0.000000 -0.488692
    22 -1.123358 -2.195093 -0.278957 -0.933751 0.000000 -0.087266
    23 0.010772 -0.963791 0.000000 -0.610865 0.000000 0.000000
    24 -0.010412 -0.631916 0.000000 -1.213004 0.000000 0.000000
    25 -0.733910 -0.087655 -10.088492 -0.323424 0.011839 0.541172
    26 0.089930 -8.543163 -0.000001 0.238287 -0.204723 0.321784
    27 0.000000 -0.359712 0.000000 0.000000 0.000000 0.000000
    28 -0.170479 -2.636146 -0.277655 -0.820355 0.000000 0.000000
    29 0.010599 -1.261176 0.000002 -0.584675 0.000000 0.000000
    30 -0.000001 -0.943232 -0.000001 -0.532326 0.000000 0.000000
    31 -0.827563 -2.508973 -0.277656 -0.942512 0.000000 0.000000
    32 0.000000 -1.292971 0.000000 -0.287979 0.000000 0.000000
    33 0.000000 -0.752466 0.000000 -0.445059 0.000000 0.000000
    34 0.444213 -2.561960 -0.277655 -1.081559 -0.046226 -0.024599
    35 0.021022 -1.208186 0.000000 -0.427606 0.000000 0.000000
    36 0.010597 -0.741867 -0.000001 -0.453786 0.000000 0.000000
    37 1.047444 -2.222821 -0.277655 -1.019673 -0.066950 -0.041090
    38 0.000000 -0.996223 -0.000002 -0.584707 0.000000 0.000000
    39 -0.000001 -0.614690 0.000000 -0.523599 0.000000 0.000000
    40 -0.308254 -0.007814 0.307166 -0.318048 -0.539817 -2.424633
    41 1.978377 0.019543 0.000001 -0.000002 -0.000010 0.549776
    42 0.982426 0.003186 0.000000 0.000000 0.000000 0.593405
  time 20
    0 6.610147 2.232849 -6.263770 5.548657 -1.340314 -5.756832
    1 -0.001604 -8.561233 -0.002570 0.351690 -0.121272 -0.211694
    2 -0.365922 -3.554516 0.712018 -1.186454 1.434443 -1.173803
    3 0.000000 2.617617 0.665016 0.000000 0.000000 0.000000
    4 -0.000001 -1.655465 2.278034 0.000000 0.000000 0.000000
    5 -0.000001 -1.796958 1.330032 0.000000 0.000000 0.000000
    6 -0.000002 -2.886455 1.471525 -0.004638 0.000000 0.000000
    7 0.000000 -0.778212 1.774024 -0.926752 0.000000 0.000000
    8 -0.000001 -1.598867 0.580120 0.000000 0.000000 0.000000
    9 -0.003480 -0.404829 0.000000 0.000000 0.000000 0.000000
    10 -0.519309 -2.501155 -0.278957 -1.003564 0.000000 -0.122173
    11 -0.010598 -1.208185 -0.000001 -1.090831 0.000000 0.000000
    12 0.000000 -0.763066 0.000000 -1.343903 0.000000 0.000000
    13 0.105981 -2.607133 -0.278957 -0.890118 0.000000 -0.148353
    14 0.000000 -1.250578 -0.000001 -1.213004 0.000000 0.000000
    15 0.000000 -0.932634 0.000000 -1.483530 0.000000 0.000000
    16 0.763063 -2.490556 -0.278957 -0.347773 0.030405 0.214564
    17 -0.012322 -1.280917 0.000000 -0.761608 0.000000 0.000000
    18 -0.001697 -0.749371 -0.000001 -0.870568 0.000000 0.000000
    19 0.354567 0.016267 0.318133 0.342077 -0.443527 -1.083976
    20 1.887164 0.012877 0.000000 -0.305433 0.000000 -0.401426
    21 1.001874 -0.000270 -0.000001 0.000000 0.000000 -0.488692
    22 -1.123358 -2.195093 -0.278957 -0.933751 0.000000 -0.087266
    23 0.010772 -0.963791 0.000000 -0.610865 0.000000 0.000000
    24 -0.010412 -0.631916 0.000000 -1.213004 0.000000 0.000000
    25 -0.827663 -0.353288 -10.092398 -0.336907 0.008737 0.556835
    26 0.089930 -8.543163 -0.000001 0.198858 -0.226963 0.354534
    27 0.000000 -0.359712 0.000000 0.000000 0.000000 0.000000
    28 -0.170479 -2.636146 -0.277655 -0.820355 0.000000 0.000000
    29 0.010599 -1.261176 0.000002 -0.584675 0.000000 0.000000
    30 -0.000001 -0.943232 -0.000001 -0.532326 0.000000 0.000000
    31 -0.827563 -2.508973 -0.277656 -0.942512 0.000000 0.000000
    32 0.000000 -1.292971 0.000000 -0.287979 0.000000 0.000000
    33 0.000000 -0.752466 0.000000 -0.445059 0.000000 0.000000
    34 0.444213 -2.561960 -0.277655 -1.081559 -0.046226 -0.024599
    35 0.021022 -1.208186 0.000000 -0.427606 0.000000 0.000000
    36 0.010597 -0.741867 -0.000001 -0.453786 0.000000 0.000000
    37 1.047444 -2.222821 -0.277655 -1.019673 -0.066950 -0.041090
    38 0.000000 -0.996223 -0.000002 -0.584707 0.000000 0.000000
    39 -0.000001 -0.614690 0.000000 -0.523599 0.000000 0.000000
    40 -0.308254 -0.007814 0.307166 -0.318048 -0.539817 -2.424633
    41 1.978377 0.019543 0.000001 -0.000002 -0.000010 0.549776
    42 0.982426 0.003186 0.000000 0.000000 0.000000 0.593405
  time 21
    0 6.606241 2.193785 -6.224707 5.531237 -1.336523 -5.738926
    1 -0.001604 -8.561233 -0.002570 0.350504 -0.116271 -0.194634
    2 -0.365922 -3.554516 0.712018 -1.186454 1.434443 -1.173803
    3 0.000000 2.617617 0.665016 0.000000 0.000000 0.000000
    4 -0.000001 -1.655465 2.278034 0.000000 0.000000 0.000000
    5 -0.000001 -1.796958 1.330032 0.000000 0.000000 0.000000
    6 -0.000002 -2.886455 1.471525 -0.002205 0.000000 0.000000
    7 0.000000 -0.778212 1.774024 -0.926752 0.000000 0.000000
    8 -0.000001 -1.598867 0.580120 0.000000 0.000000 0.000000
    9 -0.003480 -0.404829 0.000000 0.000000 0.000000 0.000000
    10 -0.519309 -2.501155 -0.278957 -1.003564 0.000000 -0.122173
    11 -0.010598 -1.208185 -0.000001 -1.090831 0.000000 0.000000
    12 0.000000 -0.763066 0.000000 -1.343903 0.000000 0.000000
    13 0.105981 -2.607133 -0.278957 -0.890118 0.000000 -0.148353
    14 0.000000 -1.250578 -0.000001 -1.213004 0.000000 0.000000
    15 0.000000 -0.932634 0.000000 -1.483530 0.000000 0.000000
    16 0.763063 -2.490556 -0.278957 -0.347773 0.030405 0.214564
    17 -0.012322 -1.280917 0.000000 -0.767651 0.000000 0.000000
    18 -0.001697 -0.749371 -0.000001 -0.873435 0.000000 0.000000
    19 0.354567 0.016267 0.318133 0.342077 -0.443527 -1.083976
    20 1.887164 0.012877 0.000000 -0.305433 0.000000 -0.401426
    21 1.001874 -0.000270 -0.000001 0.000000 0.000000 -0.488692
    22 -1.123358 -2.195093 -0.278957 -0.933751 0.000000 -0.087266
    23 0.010772 -0.963791 0.000000 -0.610865 0.000000 0.000000
    24 -0.010412 -0.631916 0.000000 -1.213004 0.000000 0.000000
    25 -0.909696 -0.595483 -10.143181 -0.350823 0.005931 0.572734
    26 0.089930 -8.543163 -0.000001 0.157732 -0.248105 0.388943
    27 0.000000 -0.359712 0.000000 0.000000 0.000000 0.000000
    28 -0.170479 -2.636146 -0.277655 -0.820355 0.000000 0.000000
    29 0.010599 -1.261176 0.000002 -0.584675 0.000000 0.000000
    30 -0.000001 -0.943232 -0.000001 -0.532326 0.000000 0.000000
    31 -0.827563 -2.508973 -0.277656 -0.942512 0.000000 0.000000
    32 0.000000 -1.292971 0.000000 -0.287979 0.000000 0.000000
    33 0.000000 -0.752466 0.000000 -0.445059 0.000000 0.000000
    34 0.444213 -2.561960 -0.277655 -1.081559 -0.046226 -0.024599
    35 0.021022 -1.208186 0.000000 -0.427606 0.000000 0.000000
    36 0.010597 -0.741867 -0.000001 -0.453786 0.000000 0.000000
    37 1.047444 -2.222821 -0.277655 -1.019673 -0.066950 -0.041090
    38 0.000000 -0.996223 -0.000002 -0.584707 0.000000 0.000000
    39 -0.000001 -0.614690 0.000000 -0.523599 0.000000 0.000000
    40 -0.308254 -0.007814 0.307166 -0.318048 -0.539817 -2.424633
    41 1.978377 0.019543 0.000001 -0.000002 -0.000010 0.549776
    42 0.982426 0.003186 0.000000 0.000000 0.000000 0.593405
  time 22
    0 6.606241 2.174253 -6.201269 5.516720 -1.333217 -5.723912
    1 -0.001604 -8.561233 -0.002570 0.349317 -0.111922 -0.178495
    2 -0.365922 -3.554516 0.712018 -1.186454 1.434443 -1.173803
    3 0.000000 2.617617 0.665016 0.000000 0.000000 0.000000
    4 -0.000001 -1.655465 2.278034 0.000000 0.000000 0.000000
    5 -0.000001 -1.796958 1.330032 0.000000 0.000000 0.000000
    6 -0.000002 -2.886455 1.471525 -0.000575 0.000000 0.000000
    7 0.000000 -0.778212 1.774024 -0.926752 0.000000 0.000000
    8 -0.000001 -1.598867 0.580120 0.000000 0.000000 0.000000
    9 -0.003480 -0.404829 0.000000 0.000000 0.000000 0.000000
    10 -0.519309 -2.501155 -0.278957 -1.003564 0.000000 -0.122173
    11 -0.010598 -1.208185 -0.000001 -1.090831 0.000000 0.000000
    12 0.000000 -0.763066 0.000000 -1.343903 0.000000 0.000000
    13 0.105981 -2.607133 -0.278957 -0.890118 0.000000 -0.148353
    14 0.000000 -1.250578 -0.000001 -1.213004 0.000000 0.000000
    15 0.000000 -0.932634 0.000000 -1.483530 0.000000 0.000000
    16 0.763063 -2.490556 -0.278957 -0.347773 0.030405 0.214564
    17 -0.012322 -1.280917 0.000000 -0.771701 0.000000 0.000000
    18 -0.001697 -0.749371 -0.000001 -0.875416 0.000000 0.000000
    19 0.354567 0.016267 0.318133 0.342077 -0.443527 -1.083976
    20 1.887164 0.012877 0.000000 -0.305433 0.000000 -0.401426
    21 1.001874 -0.000270 -0.000001 0.000000 0.000000 -0.488692
    22 -1.123358 -2.195093 -0.278957 -0.933751 0.000000 -0.087266
    23 0.010772 -0.963791 0.000000 -0.610865 0.000000 0.000000
    24 -0.010412 -0.631916 0.000000 -1.213004 0.000000 0.000000
    25 -1.019075 -0.755644 -10.193964 -0.364036 0.003125 0.588081
    26 0.089930 -8.543163 -0.000001 0.117202 -0.267472 0.423155
    27 0.000000 -0.359712 0.000000 0.000000 0.000000 0.000000
    28 -0.170479 -2.636146 -0.277655 -0.820355 0.000000 0.000000
    29 0.010599 -1.261176 0.000002 -0.584675 0.000000 0.000000
    30 -0.000001 -0.943232 -0.000001 -0.532326 0.000000 0.000000
    31 -0.827563 -2.508973 -0.277656 -0.942512 0.000000 0.000000
    32 0.000000 -1.292971 0.000000 -0.287979 0.000000 0.000000
    33 0.000000 -0.752466 0.000000 -0.445059 0.000000 0.000000
    34 0.444213 -2.561960 -0.277655 -1.081559 -0.046226 -0.024599
    35 0.021022 -1.208186 0.000000 -0.427606 0.000000 0.000000
    36 0.010597 -0.741867 -0.000001 -0.453786 0.000000 0.000000
    37 1.047444 -2.222821 -0.277655 -1.019673 -0.066950 -0.041090
    38 0.000000 -0.996223 -0.000002 -0.584707 0.000000 0.000000
    39 -0.000001 -0.614690 0.000000 -0.523599 0.000000 0.000000
    40 -0.308254 -0.007814 0.307166 -0.318048 -0.539817 -2.424633
    41 1.978377 0.019543 0.000001 -0.000002 -0.000010 0.549776
    42 0.982426 0.003186 0.000000 0.000000 0.000000 0.593405
  time 23
    0 6.606241 2.166441 -6.193456 5.508010 -1.331189 -5.714959
    1 -0.001604 -8.561233 -0.002570 0.348019 -0.108835 -0.164071
    2 -0.365922 -3.554516 0.712018 -1.186454 1.434443 -1.173803
    3 0.000000 2.617617 0.665016 0.000000 0.000000 0.000000
    4 -0.000001 -1.655465 2.278034 0.000000 0.000000 0.000000
    5 -0.000001 -1.796958 1.330032 0.000000 0.000000 0.000000
    6 -0.000002 -2.886455 1.471525 0.000000 0.000000 0.000000
    7 0.000000 -0.778212 1.774024 -0.926752 0.000000 0.000000
    8 -0.000001 -1.598867 0.580120 0.000000 0.000000 0.000000
    9 -0.003480 -0.404829 0.000000 0.000000 0.000000 0.000000
    10 -0.519309 -2.501155 -0.278957 -1.003564 0.000000 -0.122173
    11 -0.010598 -1.208185 -0.000001 -1.090831 0.000000 0.000000
    12 0.000000 -0.763066 0.000000 -1.343903 0.000000 0.000000
    13 0.105981 -2.607133 -0.278957 -0.890118 0.000000 -0.148353
    14 0.000000 -1.250578 -0.000001 -1.213004 0.000000 0.000000
    15 0.000000 -0.932634 0.000000 -1.483530 0.000000 0.000000
    16 0.763063 -2.490556 -0.278957 -0.347773 0.030405 0.214564
    17 -0.012322 -1.280917 0.000000 -0.773156 0.000000 0.000000
    18 -0.001697 -0.749371 -0.000001 -0.876155 0.000000 0.000000
    19 0.354567 0.016267 0.318133 0.342077 -0.443527 -1.083976
    20 1.887164 0.012877 0.000000 -0.305433 0.000000 -0.401426
    21 1.001874 -0.000270 -0.000001 0.000000 0.000000 -0.488692
    22 -1.123358 -2.195093 -0.278957 -0.933751 0.000000 -0.087266
    23 0.010772 -0.963791 0.000000 -0.610865 0.000000 0.000000
    24 -0.010412 -0.631916 0.000000 -1.213004 0.000000 0.000000
    25 -1.144079 -0.861116 -10.260372 -0.375299 0.000024 0.602091
    26 0.089930 -8.543163 -0.000001 0.079776 -0.284690 0.455199
    27 0.000000 -0.359712 0.000000 0.000000 0.000000 0.000000
    28 -0.170479 -2.636146 -0.277655 -0.820355 0.000000 0.000000
    29 0.010599 -1.261176 0.000002 -0.584675 0.000000 0.000000
    30 -0.000001 -0.943232 -0.000001 -0.532326 0.000000 0.000000
    31 -0.827563 -2.508973 -0.277656 -0.942512 0.000000 0.000000
    32 0.000000 -1.292971 0.000000 -0.287979 0.000000 0.000000
    33 0.000000 -0.752466 0.000000 -0.445059 0.000000 0.000000
    34 0.444213 -2.561960 -0.277655 -1.081559 -0.046226 -0.024599
    35 0.021022 -1.208186 0.000000 -0.427606 0.000000 0.000000
    36 0.010597 -0.741867 -0.000001 -0.453786 0.000000 0.000000
    37 1.047444 -2.222821 -0.277655 -1.019673 -0.066950 -0.041090
    38 0.000000 -0.996223 -0.000002 -0.584707 0.000000 0.000000
    39 -0.000001 -0.614690 0.000000 -0.523599 0.000000 0.000000
    40 -0.308254 -0.007814 0.307166 -0.318048 -0.539817 -2.424633
    41 1.978377 0.019543 0.000001 -0.000002 -0.000010 0.549776
    42 0.982426 0.003186 0.000000 0.000000 0.000000 0.593405
end
