// Created by Crowbar 0.49.0.0

$modelname "weapons/tfa_cso/c_qbz95b.mdl"

$Include "csonline_gmod.qci"

$bodygroup "weapon"
{
	studio "v_qbz95b_v_ref"
}

$CDMaterials "models\weapons\tfa_cso\qbz95b"

$attachment 0 "Bone_QBZ95B" -1.3 13.000001 0
//$attachment 1 "Bone_QBZ95B" -1.5 -4.000001 0

$definebone "root" "" 0.000003 9.357254 -11.880043 0.000000 0.000000 0.000000 0.000000 0.000000 0.000000 -0.000000 0.000000 0.000000
$definebone "Bone01" "root" 0.497700 0.449558 0.147753 -0.012834 -89.771431 179.847612 0.000000 0.000000 -0.000001 0.000000 0.000000 -0.000000
$definebone "Bone_Lefthand" "Bone01" -0.071919 -8.498729 -0.104136 16.477755 0.853593 -1.435030 0.000000 0.000000 -0.000001 0.000005 0.000000 -0.000000
$definebone "Bone_QBZ95B" "Bone_Lefthand" 20.881634 8.844955 -1.523415 -73.432451 -174.633637 83.822637 0.000000 0.000000 0.000000 0.000000 -0.000002 0.000000
$definebone "Bone_Trigger" "Bone_QBZ95B" -0.815617 2.114319 -0.000001 0.000000 -0.000002 0.000058 0.000000 0.000000 0.000000 0.000000 -0.000002 0.000000
$definebone "Bone_Bullet_Case" "Bone_QBZ95B" -1.521637 -4.592964 0.466992 -0.000000 -179.999911 0.000057 0.000000 0.000000 0.000000 -0.000000 -0.000002 -0.000000
$definebone "Bone_Magazine" "Bone_QBZ95B" 0.704241 -4.909328 0.000002 0.000000 -0.000002 0.000058 0.000000 0.000000 0.000000 0.000000 -0.000002 0.000000
$definebone "Bone_Bullet_Clip" "Bone_QBZ95B" -2.562689 2.867152 -0.000002 -0.000000 -179.999966 0.000057 0.000000 0.000000 -0.000000 -0.000000 -0.000002 -0.000000

$sequence "idle" {
	"v_qbz95b_anims\idle"
	fps 30
	activity "ACT_VM_IDLE" 1
	snap
	loop
}
$sequence "reload" {
	"v_qbz95b_anims\reload"
	{ event 5004 12 "Qbz95b.ClipOut" }
	{ event 5004 30 "Qbz95b.ClipIn" }
	{ event 5004 49 "Qbz95b.BoltPull" }
	fps 30
	activity "ACT_VM_RELOAD" 1
	snap
}
$sequence "draw" {
	"v_qbz95b_anims\draw"
	{ event 5004 10 "Qbz95b.BoltPull" }
	fps 30
	activity "ACT_VM_DRAW" 1
	snap
}
$sequence "shoot1" {
	"v_qbz95b_anims\shoot1"
	{ event 5001 0 "22" }
	fps 30
	activity "ACT_VM_PRIMARYATTACK" 1
	snap
}
$sequence "shoot2" {
	"v_qbz95b_anims\shoot2"
	{ event 5001 0 "22" }
	fps 30
	activity "ACT_VM_PRIMARYATTACK" 2
	snap
}
$sequence "shoot3" {
	"v_qbz95b_anims\shoot3"
	{ event 5001 0 "22" }
	fps 30
	activity "ACT_VM_PRIMARYATTACK" 3
	snap
}
