// Created by Crowbar 0.34.0.0

$ModelName "weapons/tfa_cso/w_bizon.mdl"

$BodyGroup "studio"
{
	studio "v_bison"
}

$collisionmodel "v_bison.smd"
{
	$mass 9
}

$CDMaterials "models\weapons\tfa_cso\bizon"

$attachment "0" "root" 0.00 -11.00 0.20 rotate -0 0 0

$Sequence "idle" {
	"anims\idle.smd"
	fps 30
}