// Created by Crowbar 0.49.0.0

$modelname "weapons/tfa_cso/c_mg36g.mdl"

$Include "csonline_gmod.qci"

$bodygroup "weapon"
{
	studio "v_mg36g_v_ref"
}

$CDMaterials "models\weapons\tfa_cso\mg36g\"

$attachment 0 "MG36_magazine" -1 19.5 0
//$attachment 1 "MG36_magazine" -1.2 0 0.3

$definebone "root" "" 0.001265 -0.569176 -22.619883 0.000000 0.000000 0.000000 0.000000 0.000000 0.000000 -0.000000 0.000000 0.000000
$definebone "Bone01" "root" 9.310103 -5.299614 -12.557959 -0.012834 -89.771431 179.846260 0.000000 -0.000001 -0.000004 0.000000 0.000000 -0.000000
$definebone "Bone_Lefthand" "Bone01" -0.071921 -8.498735 -0.104134 16.477753 0.853593 -1.435030 0.000000 0.000000 0.000000 0.000002 0.000000 -0.000000
$definebone "MG36_root" "Bone_Lefthand" -1.424129 19.030399 -38.972080 -46.715885 -178.686808 87.433014 0.000000 0.000000 0.000000 0.000000 0.000003 -0.000000
$definebone "MG36_magazine" "MG36_root" -1.613795 3.251793 0.000001 0.000000 26.792367 -0.000000 0.000000 0.000000 0.000000 0.000000 0.000000 -0.000000
$definebone "MG36_charging" "MG36_root" -3.112814 0.806303 0.000001 0.000000 116.713796 0.000000 0.000000 0.000000 0.000000 0.000000 -0.000000 0.000000
$definebone "MG36_cocking handle" "MG36_charging" 3.839096 -0.031378 -0.000000 0.000000 0.030768 0.000000 0.000000 0.000000 0.000000 0.000000 0.000000 0.000000
$definebone "MG36_trigger" "MG36_root" -0.521923 1.011392 -0.000000 0.000000 41.654497 0.000114 0.000000 0.000000 0.000000 0.000000 -0.000003 -0.000000
$definebone "Bone04" "root" -9.310107 -5.231260 -12.513384 -0.574537 90.226281 -179.714451 0.000000 0.000000 0.000000 0.000000 -0.000000 0.000000
$definebone "Bone_Righthand" "Bone04" 0.096944 -8.450418 -0.009369 -17.068815 -0.267170 -1.888755 0.000000 0.000000 0.000000 -0.000001 0.000000 0.000000
$definebone "MG36_magazine01" "Bone_Righthand" 17.991779 19.301662 29.975201 -73.446084 -5.371536 96.182377 -0.000008 0.000000 -0.000000 0.000000 0.000000 -0.000000

$sequence "idle1" {
	"v_mg36g_anims\idle1"
	fps 16
	loop
	activity "ACT_VM_IDLE" 1
	snap
}
$sequence "shoot1" {
	"v_mg36g_anims\shoot1"
	{ event 5001 0 "23" }
	fps 30
	activity "ACT_VM_PRIMARYATTACK" 1
	snap
}
$sequence "shoot2" {
	"v_mg36g_anims\shoot2"
	{ event 5001 0 "22" }
	fps 30
	activity "ACT_VM_PRIMARYATTACK" 2
	snap
}
$sequence "shoot3" {
	"v_mg36g_anims\shoot3"
	{ event 5001 0 "22" }
	fps 30
	activity "ACT_VM_PRIMARYATTACK" 3
	snap
}
$sequence "reload" {
	"v_mg36g_anims\reload"
	{ event 5004 30 "MG36.ClipOut" }
	{ event 5004 58 "MG36.ClipIn" }
	{ event 5004 86 "MG36.BoltFull" }
	fps 30
	activity "ACT_VM_RELOAD" 1
	snap
}
$sequence "draw" {
	"v_mg36g_anims\draw"
	{ event 5004 5 "MG36.Draw" }
	fps 30
	activity "ACT_VM_DRAW" 1
	snap
}
