// Created by Crowbar 0.49.0.0

$modelname "weapons/tfa_cso/c_infinityex1.mdl"

$Include "csonline_gmod.qci"

$bodygroup "weapon"
{
	studio "v_infinityex1_NEXON_CSO_Infinity_windleo_RED"
}

$CDMaterials "models\weapons\tfa_cso\infinityex1\"

//$attachment 2 "NEXON_CSO_infi_Root_L" -0.168 -7.983 2.343
//$attachment 3 "NEXON_CSO_infi_Root_R" 0 -7.936 2.304
$attachment "1" "NEXON_CSO_infi_Magazine_R" 0.00 -9.80 2.80 rotate -0 0 0
$attachment "0" "NEXON_CSO_infi_Bullet_L" -0.00 -9.50 1.50 rotate 0 0 0


$sequence "idle" {
	"v_infinityex1_anims\idle"
	fps 16
	activity "ACT_VM_IDLE" 1
	snap
	loop
}
$sequence "idle_leftempty" {
	"v_infinityex1_anims\idle_leftempty"
	fps 16
}
$sequence "shoot_left" {
	"v_infinityex1_anims\shoot_left"
	{ event 5001 0 "21" }
	fps 30
}
$sequence "shoot_leftlast" {
	"v_infinityex1_anims\shoot_leftlast"
	{ event 5001 0 "21" }
	fps 30
}
$sequence "shoot_right" {
	"v_infinityex1_anims\shoot_right"
	{ event 5011 0 "21" }
	fps 30
}
$sequence "shoot_rightlast" {
	"v_infinityex1_anims\shoot_rightlast"
	{ event 5011 0 "21" }
	fps 30
}
$sequence "SP_shoot_left1" {
	"v_infinityex1_anims\SP_shoot_left1"
	{ event 5001 0 "21" }
	fps 30
	activity "ACT_VM_PRIMARYATTACK" 1
	snap
}
$sequence "SP_shoot_left2" {
	"v_infinityex1_anims\SP_shoot_left2"
	{ event 5001 0 "21" }
	fps 20
	activity "ACT_VM_PRIMARYATTACK" 1
	snap
}
$sequence "SP_shoot_right1" {
	"v_infinityex1_anims\SP_shoot_right1"
	{ event 5011 0 "21" }
	fps 30
	activity "ACT_VM_SECONDARYATTACK" 1
	snap
}
$sequence "SP_shoot_right2" {
	"v_infinityex1_anims\SP_shoot_right2"
	{ event 5011 0 "21" }
	fps 20
	activity "ACT_VM_SECONDARYATTACK" 1
	snap
}
$sequence "sp_shoot_leftlast" {
	"v_infinityex1_anims\sp_shoot_leftlast"
	{ event 5001 0 "21" }
	fps 20
}
$sequence "sp_shoot_rightlast" {
	"v_infinityex1_anims\sp_shoot_rightlast"
	{ event 5011 0 "21" }
	fps 20
}
$sequence "reload" {
	"v_infinityex1_anims\reload"
	{ event 5004 1 "DUALINFINITE.ClipOut" }
	{ event 5004 45 "DUALINFINITE.ClipIn" }
	{ event 5004 79 "DUALINFINITE.ClipIn" }
	{ event 5004 108 "DUALINFINITE.ClipOn" }
	fps 30
	activity "ACT_VM_RELOAD" 1
	snap
}
$sequence "draw" {
	"v_infinityex1_anims\draw"
	{ event 5004 1 "DUALINFINITE.Draw" }
	fps 30
	activity "ACT_VM_DRAW" 1
	snap
}
