// Created by Crowbar 0.49.0.0

$modelname "weapons/tfa_cso/c_uts15g.mdl"

$Include "csonline_gmod.qci"

$bodygroup "weapon"
{
	studio "v_uts15g_v_ref"
}

$CDMaterials "models\weapons\tfa_cso\uts15g"

$attachment 0 "uts15_root" -1.4 20 0
//$attachment 1 "uts15_root" -1 0.5 0

$definebone "root" "" 0.000000 0.000000 0.000000 0.000000 0.000000 0.000000 0.000000 0.000000 0.000000 -0.000000 0.000000 0.000000
$definebone "Bone01" "root" 7.744019 5.728283 -6.644898 -87.234009 100.646151 -106.895167 0.000000 0.000000 0.000000 -0.000000 0.000000 0.000000
$definebone "Bone_Lefthand" "Bone01" -0.071918 -8.498689 -0.104136 13.175682 1.564977 13.365158 0.000000 0.000000 -0.000000 0.000001 -0.000000 0.000000
$definebone "uts15_root" "Bone_Lefthand" 1.519834 -2.041238 1.521770 12.993078 178.702613 6.471387 0.000000 0.000000 0.000000 -0.000002 0.000000 -0.000000
$definebone "trigger" "uts15_root" 0.600319 2.058404 0.000000 -0.000002 0.000000 -0.000000 0.000000 0.000000 0.000000 -0.000002 0.000000 -0.000000
$definebone "reload" "uts15_root" -0.067739 10.600758 -0.000006 0.000000 90.000038 89.999525 0.000000 0.000000 0.000000 -0.000000 -0.000000 0.000002
$definebone "magazine3" "uts15_root" -0.754633 -3.610986 0.631773 0.000057 89.999983 -0.000002 0.000000 0.000000 0.000000 0.000000 0.000000 -0.000002
$definebone "bone_bullet1" "uts15_root" 17.082584 -18.096552 0.000031 0.000057 89.999928 -0.000002 0.000000 0.000000 0.000000 0.000000 0.000000 -0.000002
$definebone "bone_bullet2" "uts15_root" 17.861027 -18.096235 0.000031 0.000057 89.999983 -0.000002 0.000000 0.000000 0.000000 0.000000 0.000000 -0.000002
$definebone "bone_bullet3" "uts15_root" 18.639465 -18.096235 0.000031 0.000057 89.999983 -0.000002 0.000000 0.000000 0.000000 0.000000 0.000000 -0.000002
$definebone "magazine1" "uts15_root" -2.170493 -0.230590 1.064516 0.000057 89.999983 -0.000002 0.000000 0.000000 0.000000 0.000000 0.000000 -0.000002
$definebone "magazine2" "uts15_root" -2.377869 -0.175295 -0.000004 0.000057 89.999983 -0.000002 0.000000 0.000000 0.000000 0.000000 0.000000 -0.000002

$sequence "idle" {
	"v_uts15g_anims\idle"
	fps 30
	loop
	activity "ACT_VM_IDLE" 1
	snap
}
$sequence "shoot1" {
	"v_uts15g_anims\shoot1"
	{ event 5001 0 "#I6 S0.2 R1.5 F0 P30 T0.03 A1 L0 O0" }
	{ event 5001 0 "#I12 S0.2 R1.5 F0 P30 T0.5 A1 L0 O0" }
	fps 30
	activity "ACT_VM_PRIMARYATTACK" 1
	snap
}
$sequence "shoot2" {
	"v_uts15g_anims\shoot2"
	{ event 5001 0 "#I6 S0.2 R1.5 F0 P30 T0.03 A1 L0 O0" }
	{ event 5001 0 "#I12 S0.2 R1.5 F0 P30 T0.5 A1 L0 O0" }
	fps 30
	activity "ACT_VM_PRIMARYATTACK" 2
	snap
}
$sequence "insert" {
	"v_uts15g_anims\insert"
	{ event 5004 4 "UTS15.Insert" }
	fps 30
	activity "ACT_VM_RELOAD" 1
	snap
}
$sequence "after_reload" {
	"v_uts15g_anims\after_reload"
	{ event 5004 6 "UTS15.Reload" }
	fps 30
	activity "ACT_SHOTGUN_RELOAD_FINISH" 1
	snap
}
$sequence "start_reload" {
	"v_uts15g_anims\start_reload"
	fps 30
	activity "ACT_SHOTGUN_RELOAD_START" 1
	snap
}
$sequence "draw" {
	"v_uts15g_anims\draw"
	{ event 5004 12 "UTS15.Draw" }
	fps 30
	activity "ACT_VM_DRAW" 1
	snap
}
