version 1
nodes
  0 "Bone_Root" -1
  1 "Bone01" 0
  2 "Bone_Lefthand" 1
  3 "wa2000_root" 2
  4 "trigger" 3
  5 "load" 3
  6 "magazine" 3
  7 "Bone04" 0
  8 "Bone_Righthand" 7
  9 "Bone39" 8
  10 "Bone40" 9
  11 "Bone41" 10
  12 "Bone35" 8
  13 "Bone36" 12
  14 "Bone37" 13
  15 "Bone31" 8
  16 "Bone32" 15
  17 "Bone33" 16
  18 "Bone43" 8
  19 "Bone44" 18
  20 "Bone45" 19
  21 "Bone27" 8
  22 "Bone28" 21
  23 "Bone29" 22
  24 "Bone_Se_Hand-R" 8
  25 "Bone13" 2
  26 "Bone14" 25
  27 "Bone15" 26
  28 "Bone17" 2
  29 "Bone18" 28
  30 "Bone19" 29
  31 "Bone21" 2
  32 "Bone22" 31
  33 "Bone23" 32
  34 "Bone09" 2
  35 "Bone10" 34
  36 "Bone11" 35
  37 "Bone05" 2
  38 "Bone06" 37
  39 "Bone07" 38
  40 "Bone_Se_Hand-L" 2
end
skeleton
  time 0
    0 0.000000 0.000000 0.000000 0.000000 0.000000 -0.000015
    1 6.208814 4.865604 -6.974305 6.073715 -1.608779 0.168997
    2 -0.071918 -8.498732 -0.104137 0.000815 0.288635 0.105900
    3 2.305589 -2.755951 1.800741 -0.057826 0.286072 -3.251386
    4 0.822732 1.600163 0.000001 0.000002 0.000000 -0.024500
    5 -0.135229 4.811260 0.000000 0.000000 0.000000 1.558216
    6 -0.114076 -2.997109 0.000000 0.000000 0.000000 -0.019284
    7 -1.055155 -7.031262 -7.666015 -0.126097 -6.210308 0.489245
    8 0.096944 -8.450418 -0.009364 -0.135218 -0.268259 0.357727
    9 0.447952 -2.798983 -0.200442 -0.766175 -0.010396 0.265094
    10 -0.032910 -1.480206 0.004936 -0.491709 0.000000 0.000002
    11 -0.027022 -1.076919 -0.020212 -1.394127 0.000000 0.000000
    12 -0.249534 -2.846962 -0.174215 -0.219885 -0.000125 -0.008396
    13 0.043235 -1.683940 0.096014 -1.114670 0.002823 -0.000167
    14 0.031729 -1.160831 0.058836 -0.912818 0.000642 0.008372
    15 -0.963866 -2.785142 -0.085346 0.070022 0.162276 -0.191556
    16 0.028479 -1.403069 0.006271 -0.596895 0.000000 0.000000
    17 0.021413 -0.957782 0.020047 -0.432482 0.000000 0.000000
    18 1.164474 -2.543938 -0.170328 -0.702390 -0.013294 0.477915
    19 0.024033 -1.129042 0.017806 -0.803472 0.000000 0.000001
    20 0.014896 -0.883989 -0.019845 -0.584392 0.000000 0.000000
    21 -0.586770 -1.264475 0.200164 -0.286523 -0.333668 -2.448911
    22 1.522835 0.058681 0.016850 -0.077532 -0.420682 0.144516
    23 1.117948 0.048424 -0.005764 -0.000243 -0.025198 0.065422
    24 -0.139399 -0.111697 0.014397 0.285382 -0.030687 1.580508
    25 -0.488517 -2.755600 -0.228261 -1.119640 -0.066262 -0.107564
    26 0.039888 -1.479789 0.029853 -1.451658 0.000000 0.000000
    27 0.028786 -1.075730 -0.023111 -0.870565 0.000000 0.000000
    28 0.250028 -2.820664 -0.238396 -0.916633 -0.083577 -0.024886
    29 -0.049759 -1.680545 0.100480 -1.550922 0.000000 -0.000002
    30 -0.034141 -1.148312 0.084779 -1.087312 0.000000 0.000000
    31 0.957766 -2.746776 -0.090301 -0.432128 -0.184437 0.072455
    32 -0.033419 -1.397128 -0.011255 -0.247860 0.000000 -0.000001
    33 -0.022361 -0.957434 0.018783 -0.956086 0.000000 0.000000
    34 -1.180680 -2.507215 -0.193861 -0.747365 0.130011 -0.054388
    35 -0.024966 -1.123935 0.017594 -1.414285 0.000000 0.000001
    36 -0.020057 -0.890966 0.010091 -0.846171 0.000000 0.000000
    37 0.583510 -1.197274 0.185377 0.631272 -1.323162 -0.918160
    38 1.535926 0.010244 0.005008 -0.124883 0.065220 -0.956765
    39 1.100770 0.004526 -0.010676 -0.014685 0.006877 -0.956472
    40 0.120152 -0.050266 -0.054488 0.287568 3.110905 1.561085
  time 1
    0 0.000000 0.000000 0.000000 0.045324 0.000000 -0.000015
    1 7.021339 5.892979 -6.974305 6.046385 -1.608779 0.168997
    2 -0.071918 -8.498732 -0.104137 0.000815 0.288635 0.105900
    3 2.305589 -2.755951 1.800741 -0.057826 0.286072 -3.251386
    4 0.822732 1.600163 0.000001 0.000002 0.000000 -0.024500
    5 -0.178199 1.233026 0.000000 0.000000 0.000000 1.558216
    6 -0.114076 -2.997109 0.000000 0.000000 0.000000 -0.019284
    7 -1.055155 -6.093734 -7.666015 -0.124567 -6.207748 0.510112
    8 0.096944 -8.450418 -0.009364 -0.139646 -0.268259 0.357727
    9 0.447952 -2.798983 -0.200442 -0.766175 -0.010396 0.265094
    10 -0.032910 -1.480206 0.004936 -0.491709 0.000000 0.000002
    11 -0.027022 -1.076919 -0.020212 -1.394127 0.000000 0.000000
    12 -0.249534 -2.846962 -0.174215 -0.219885 -0.000125 -0.008396
    13 0.043235 -1.683940 0.096014 -1.114670 0.002823 -0.000167
    14 0.031729 -1.160831 0.058836 -0.912818 0.000642 0.008372
    15 -0.963866 -2.785142 -0.085346 0.070022 0.162276 -0.191556
    16 0.028479 -1.403069 0.006271 -0.596895 0.000000 0.000000
    17 0.021413 -0.957782 0.020047 -0.432482 0.000000 0.000000
    18 1.164474 -2.543938 -0.170328 -0.702390 -0.013294 0.477915
    19 0.024033 -1.129042 0.017806 -0.803472 0.000000 0.000001
    20 0.014896 -0.883989 -0.019845 -0.584392 0.000000 0.000000
    21 -0.586770 -1.264475 0.200164 -0.286523 -0.333668 -2.448911
    22 1.522835 0.058681 0.016850 0.006775 -0.427294 -0.059809
    23 1.117948 0.048424 -0.005764 -0.007410 -0.024097 0.354585
    24 -0.139399 -0.111697 0.014397 0.285382 -0.030687 1.580508
    25 -0.488517 -2.755600 -0.228261 -1.119640 -0.066262 -0.107564
    26 0.039888 -1.479789 0.029853 -1.451658 0.000000 0.000000
    27 0.028786 -1.075730 -0.023111 -0.870565 0.000000 0.000000
    28 0.250028 -2.820664 -0.238396 -0.916633 -0.083577 -0.024886
    29 -0.049759 -1.680545 0.100480 -1.550922 0.000000 -0.000002
    30 -0.034141 -1.148312 0.084779 -1.087312 0.000000 0.000000
    31 0.957766 -2.746776 -0.090301 -0.432128 -0.184437 0.072455
    32 -0.033419 -1.397128 -0.011255 -0.247860 0.000000 -0.000001
    33 -0.022361 -0.957434 0.018783 -0.956086 0.000000 0.000000
    34 -1.180680 -2.507215 -0.193861 -0.747365 0.130011 -0.054388
    35 -0.024966 -1.123935 0.017594 -1.414285 0.000000 0.000001
    36 -0.020057 -0.890966 0.010091 -0.846171 0.000000 0.000000
    37 0.583510 -1.197274 0.185377 0.631272 -1.323162 -0.918177
    38 1.535926 0.010244 0.005008 -0.124883 0.065220 -0.956765
    39 1.100770 0.004526 -0.010676 -0.014685 0.006877 -0.956472
    40 0.120152 -0.050266 -0.054488 0.287568 3.110905 1.561085
  time 2
    0 0.000000 0.000000 0.000000 0.030342 0.000000 -0.000015
    1 6.993994 5.857821 -6.974305 6.047337 -1.608779 0.168997
    2 -0.071918 -8.498732 -0.104137 0.000960 0.288433 0.110256
    3 2.305589 -2.755951 1.800741 -0.057826 0.286072 -3.251386
    4 0.822732 1.600163 0.000001 0.000002 0.000000 -0.024500
    5 -0.174293 1.498659 0.000000 0.000000 0.000000 1.558216
    6 -0.114076 -2.997109 0.000000 0.000000 0.000000 -0.019284
    7 -1.055155 -6.124985 -7.666015 -0.127690 -6.207843 0.509255
    8 0.096944 -8.450418 -0.009364 -0.151484 -0.268259 0.357727
    9 0.447952 -2.798983 -0.200442 -0.766175 -0.010396 0.265094
    10 -0.032910 -1.480206 0.004936 -0.491709 0.000000 0.000002
    11 -0.027022 -1.076919 -0.020212 -1.394127 0.000000 0.000000
    12 -0.249534 -2.846962 -0.174215 -0.219885 -0.000125 -0.008396
    13 0.043235 -1.683940 0.096014 -1.114670 0.002823 -0.000167
    14 0.031729 -1.160831 0.058836 -0.912818 0.000642 0.008372
    15 -0.963866 -2.785142 -0.085346 0.070022 0.162276 -0.191556
    16 0.028479 -1.403069 0.006271 -0.596895 0.000000 0.000000
    17 0.021413 -0.957782 0.020047 -0.432482 0.000000 0.000000
    18 1.164474 -2.543938 -0.170328 -0.702390 -0.013294 0.477915
    19 0.024033 -1.129042 0.017806 -0.803472 0.000000 0.000001
    20 0.014896 -0.883989 -0.019845 -0.584392 0.000000 0.000000
    21 -0.586770 -1.264475 0.200164 -0.286523 -0.333668 -2.448911
    22 1.522835 0.058681 0.016850 -0.005564 -0.426046 -0.029717
    23 1.117948 0.048424 -0.005764 -0.007901 -0.023858 0.376032
    24 -0.139399 -0.111697 0.014397 0.285382 -0.030687 1.580508
    25 -0.488517 -2.755600 -0.228261 -1.119640 -0.066262 -0.107564
    26 0.039888 -1.479789 0.029853 -1.451658 0.000000 0.000000
    27 0.028786 -1.075730 -0.023111 -0.870565 0.000000 0.000000
    28 0.250028 -2.820664 -0.238396 -0.916633 -0.083577 -0.024886
    29 -0.049759 -1.680545 0.100480 -1.550922 0.000000 -0.000002
    30 -0.034141 -1.148312 0.084779 -1.087312 0.000000 0.000000
    31 0.957766 -2.746776 -0.090301 -0.432128 -0.184437 0.072455
    32 -0.033419 -1.397128 -0.011255 -0.247860 0.000000 -0.000001
    33 -0.022361 -0.957434 0.018783 -0.956086 0.000000 0.000000
    34 -1.180680 -2.507215 -0.193861 -0.747365 0.130011 -0.054388
    35 -0.024966 -1.123935 0.017594 -1.414285 0.000000 0.000001
    36 -0.020057 -0.890966 0.010091 -0.846171 0.000000 0.000000
    37 0.583510 -1.197274 0.185377 0.631272 -1.323162 -0.918160
    38 1.535926 0.010244 0.005008 -0.124883 0.065220 -0.956765
    39 1.100770 0.004526 -0.010676 -0.014685 0.006877 -0.956472
    40 0.120152 -0.050266 -0.054488 0.287568 3.110905 1.561085
  time 3
    0 0.000000 0.000000 0.000000 0.002511 0.000000 -0.000015
    1 6.915867 5.764069 -6.974305 6.049813 -1.608779 0.168997
    2 -0.071918 -8.498732 -0.104137 0.001322 0.287921 0.121496
    3 2.305589 -2.755951 1.800741 -0.057826 0.286072 -3.251386
    4 0.822732 1.600163 0.000001 0.000002 0.000000 -0.024500
    5 -0.166480 2.158836 0.000000 0.000000 0.000000 1.558216
    6 -0.114076 -2.997109 0.000000 0.000000 0.000000 -0.019284
    7 -1.055155 -6.210925 -7.666015 -0.135719 -6.208127 0.507063
    8 0.096944 -8.450418 -0.009364 -0.168606 -0.268259 0.357727
    9 0.447952 -2.798983 -0.200442 -0.766175 -0.010396 0.265094
    10 -0.032910 -1.480206 0.004936 -0.491709 0.000000 0.000002
    11 -0.027022 -1.076919 -0.020212 -1.394127 0.000000 0.000000
    12 -0.249534 -2.846962 -0.174215 -0.219885 -0.000125 -0.008396
    13 0.043235 -1.683940 0.096014 -1.114670 0.002823 -0.000167
    14 0.031729 -1.160831 0.058836 -0.912818 0.000642 0.008372
    15 -0.963866 -2.785142 -0.085346 0.070022 0.162276 -0.191556
    16 0.028479 -1.403069 0.006271 -0.596895 0.000000 0.000000
    17 0.021413 -0.957782 0.020047 -0.432482 0.000000 0.000000
    18 1.164474 -2.543938 -0.170328 -0.702390 -0.013294 0.477915
    19 0.024033 -1.129042 0.017806 -0.803472 0.000000 0.000001
    20 0.014896 -0.883989 -0.019845 -0.584392 0.000000 0.000000
    21 -0.586770 -1.264475 0.200164 -0.286523 -0.333668 -2.448911
    22 1.522835 0.058681 0.016850 -0.032893 -0.423285 0.036891
    23 1.117948 0.048424 -0.005764 -0.008333 -0.023714 0.394931
    24 -0.139399 -0.111697 0.014397 0.285382 -0.030687 1.580508
    25 -0.488517 -2.755600 -0.228261 -1.119640 -0.066262 -0.107564
    26 0.039888 -1.479789 0.029853 -1.451658 0.000000 0.000000
    27 0.028786 -1.075730 -0.023111 -0.870565 0.000000 0.000000
    28 0.250028 -2.820664 -0.238396 -0.916633 -0.083577 -0.024886
    29 -0.049759 -1.680545 0.100480 -1.550922 0.000000 -0.000002
    30 -0.034141 -1.148312 0.084779 -1.087312 0.000000 0.000000
    31 0.957766 -2.746776 -0.090301 -0.432128 -0.184437 0.072455
    32 -0.033419 -1.397128 -0.011255 -0.247860 0.000000 -0.000001
    33 -0.022361 -0.957434 0.018783 -0.956086 0.000000 0.000000
    34 -1.180680 -2.507215 -0.193861 -0.747365 0.130011 -0.054388
    35 -0.024966 -1.123935 0.017594 -1.414285 0.000000 0.000001
    36 -0.020057 -0.890966 0.010091 -0.846171 0.000000 0.000000
    37 0.583510 -1.197274 0.185377 0.631272 -1.323162 -0.918177
    38 1.535926 0.010244 0.005008 -0.124883 0.065220 -0.956765
    39 1.100770 0.004526 -0.010676 -0.014685 0.006877 -0.956472
    40 0.120152 -0.050266 -0.054488 0.287568 3.110905 1.561085
  time 4
    0 0.000000 0.000000 0.000000 -0.012441 0.000000 -0.000015
    1 6.810395 5.627346 -6.974305 6.053527 -1.608779 0.168997
    2 -0.071918 -8.498732 -0.104137 0.001805 0.287243 0.136849
    3 2.305589 -2.755951 1.800741 -0.057826 0.286072 -3.251386
    4 0.822732 1.600163 0.000001 0.000002 0.000000 -0.024500
    5 -0.154761 3.022143 0.000000 0.000000 0.000000 1.558216
    6 -0.114076 -2.997109 0.000000 0.000000 0.000000 -0.019284
    7 -1.055155 -6.335929 -7.666015 -0.146871 -6.208506 0.504014
    8 0.096944 -8.450418 -0.009364 -0.188835 -0.268259 0.357727
    9 0.447952 -2.798983 -0.200442 -0.766175 -0.010396 0.265094
    10 -0.032910 -1.480206 0.004936 -0.491709 0.000000 0.000002
    11 -0.027022 -1.076919 -0.020212 -1.394127 0.000000 0.000000
    12 -0.249534 -2.846962 -0.174215 -0.219885 -0.000125 -0.008396
    13 0.043235 -1.683940 0.096014 -1.114670 0.002823 -0.000167
    14 0.031729 -1.160831 0.058836 -0.912818 0.000642 0.008372
    15 -0.963866 -2.785142 -0.085346 0.070022 0.162276 -0.191556
    16 0.028479 -1.403069 0.006271 -0.596895 0.000000 0.000000
    17 0.021413 -0.957782 0.020047 -0.432482 0.000000 0.000000
    18 1.164474 -2.543938 -0.170328 -0.702390 -0.013294 0.477915
    19 0.024033 -1.129042 0.017806 -0.803472 0.000000 0.000001
    20 0.014896 -0.883989 -0.019845 -0.584392 0.000000 0.000000
    21 -0.586770 -1.264475 0.200164 -0.286523 -0.333668 -2.448911
    22 1.522835 0.058681 0.016850 -0.060648 -0.420523 0.104445
    23 1.117948 0.048424 -0.005764 -0.008704 -0.023523 0.410987
    24 -0.139399 -0.111697 0.014397 0.285382 -0.030687 1.580508
    25 -0.488517 -2.755600 -0.228261 -1.119640 -0.066262 -0.107564
    26 0.039888 -1.479789 0.029853 -1.451658 0.000000 0.000000
    27 0.028786 -1.075730 -0.023111 -0.870565 0.000000 0.000000
    28 0.250028 -2.820664 -0.238396 -0.916633 -0.083577 -0.024886
    29 -0.049759 -1.680545 0.100480 -1.550922 0.000000 -0.000002
    30 -0.034141 -1.148312 0.084779 -1.087312 0.000000 0.000000
    31 0.957766 -2.746776 -0.090301 -0.432128 -0.184437 0.072455
    32 -0.033419 -1.397128 -0.011255 -0.247860 0.000000 -0.000001
    33 -0.022361 -0.957434 0.018783 -0.956086 0.000000 0.000000
    34 -1.180680 -2.507215 -0.193861 -0.747365 0.130011 -0.054388
    35 -0.024966 -1.123935 0.017594 -1.414285 0.000000 0.000001
    36 -0.020057 -0.890966 0.010091 -0.846171 0.000000 0.000000
    37 0.583510 -1.197274 0.185377 0.631272 -1.323162 -0.918160
    38 1.535926 0.010244 0.005008 -0.124883 0.065220 -0.956794
    39 1.100770 0.004526 -0.010676 -0.014685 0.006877 -0.956472
    40 0.120152 -0.050266 -0.054488 0.287568 3.110905 1.561085
  time 5
    0 0.000000 0.000000 0.000000 -0.011506 0.000000 -0.000015
    1 6.681484 5.467185 -6.974305 6.057812 -1.608779 0.168997
    2 -0.071918 -8.498732 -0.104137 0.002361 0.286474 0.153596
    3 2.305589 -2.755951 1.800741 -0.057826 0.286072 -3.251386
    4 0.822732 1.600163 0.000001 0.000002 0.000000 -0.024500
    5 -0.143042 3.885451 0.000000 0.000000 0.000000 1.558216
    6 -0.114076 -2.997109 0.000000 0.000000 0.000000 -0.019284
    7 -1.055155 -6.484371 -7.666015 -0.159297 -6.208886 0.500774
    8 0.096944 -8.450418 -0.009364 -0.210029 -0.268259 0.357727
    9 0.447952 -2.798983 -0.200442 -0.766175 -0.010396 0.265094
    10 -0.032910 -1.480206 0.004936 -0.491709 0.000000 0.000002
    11 -0.027022 -1.076919 -0.020212 -1.394127 0.000000 0.000000
    12 -0.249534 -2.846962 -0.174215 -0.219885 -0.000125 -0.008396
    13 0.043235 -1.683940 0.096014 -1.114670 0.002823 -0.000167
    14 0.031729 -1.160831 0.058836 -0.912818 0.000642 0.008372
    15 -0.963866 -2.785142 -0.085346 0.070022 0.162276 -0.191556
    16 0.028479 -1.403069 0.006271 -0.596895 0.000000 0.000000
    17 0.021413 -0.957782 0.020047 -0.432482 0.000000 0.000000
    18 1.164474 -2.543938 -0.170328 -0.702390 -0.013294 0.477915
    19 0.024033 -1.129042 0.017806 -0.803472 0.000000 0.000001
    20 0.014896 -0.883989 -0.019845 -0.584392 0.000000 0.000000
    21 -0.586770 -1.264475 0.200164 -0.286523 -0.333668 -2.448911
    22 1.522835 0.058681 0.016850 -0.074234 -0.419275 0.137258
    23 1.117948 0.048424 -0.005764 -0.009016 -0.023427 0.423938
    24 -0.139399 -0.111697 0.014397 0.285382 -0.030687 1.580508
    25 -0.488517 -2.755600 -0.228261 -1.119640 -0.066262 -0.107564
    26 0.039888 -1.479789 0.029853 -1.451658 0.000000 0.000000
    27 0.028786 -1.075730 -0.023111 -0.870565 0.000000 0.000000
    28 0.250028 -2.820664 -0.238396 -0.916633 -0.083577 -0.024886
    29 -0.049759 -1.680545 0.100480 -1.550922 0.000000 -0.000002
    30 -0.034141 -1.148312 0.084779 -1.087312 0.000000 0.000000
    31 0.957766 -2.746776 -0.090301 -0.432128 -0.184437 0.072455
    32 -0.033419 -1.397128 -0.011255 -0.247860 0.000000 -0.000001
    33 -0.022361 -0.957434 0.018783 -0.956086 0.000000 0.000000
    34 -1.180680 -2.507215 -0.193861 -0.747365 0.130011 -0.054388
    35 -0.024966 -1.123935 0.017594 -1.414285 0.000000 0.000001
    36 -0.020057 -0.890966 0.010091 -0.846171 0.000000 0.000000
    37 0.583510 -1.197274 0.185377 0.631272 -1.323162 -0.918177
    38 1.535926 0.010244 0.005008 -0.124883 0.065220 -0.956765
    39 1.100770 0.004526 -0.010676 -0.014685 0.006877 -0.956472
    40 0.120152 -0.050266 -0.054488 0.287568 3.110905 1.561085
  time 6
    0 0.000000 0.000000 0.000000 -0.009199 0.000000 -0.000015
    1 6.548668 5.295304 -6.974305 6.062383 -1.608779 0.168997
    2 -0.071918 -8.498732 -0.104137 0.002844 0.285778 0.168949
    3 2.305589 -2.755951 1.800741 -0.057826 0.286072 -3.251386
    4 0.822732 1.600163 0.000001 0.000002 0.000000 -0.024500
    5 -0.135229 4.549533 0.000000 0.000000 0.000000 1.558216
    6 -0.114076 -2.997109 0.000000 0.000000 0.000000 -0.019284
    7 -1.055155 -6.640625 -7.666015 -0.171214 -6.209265 0.497916
    8 0.096944 -8.450418 -0.009364 -0.230026 -0.268259 0.357727
    9 0.447952 -2.798983 -0.200442 -0.766175 -0.010396 0.265094
    10 -0.032910 -1.480206 0.004936 -0.491709 0.000000 0.000002
    11 -0.027022 -1.076919 -0.020212 -1.394127 0.000000 0.000000
    12 -0.249534 -2.846962 -0.174215 -0.219885 -0.000125 -0.008396
    13 0.043235 -1.683940 0.096014 -1.114670 0.002823 -0.000167
    14 0.031729 -1.160831 0.058836 -0.912818 0.000642 0.008372
    15 -0.963866 -2.785142 -0.085346 0.070022 0.162276 -0.191556
    16 0.028479 -1.403069 0.006271 -0.596895 0.000000 0.000000
    17 0.021413 -0.957782 0.020047 -0.432482 0.000000 0.000000
    18 1.164474 -2.543938 -0.170328 -0.702390 -0.013294 0.477915
    19 0.024033 -1.129042 0.017806 -0.803472 0.000000 0.000001
    20 0.014896 -0.883989 -0.019845 -0.584392 0.000000 0.000000
    21 -0.586770 -1.264475 0.200164 -0.286523 -0.333668 -2.448911
    22 1.522835 0.058681 0.016850 -0.075638 -0.419435 0.140358
    23 1.117948 0.048424 -0.005764 -0.009231 -0.023331 0.433548
    24 -0.139399 -0.111697 0.014397 0.285382 -0.030687 1.580508
    25 -0.488517 -2.755600 -0.228261 -1.119640 -0.066262 -0.107564
    26 0.039888 -1.479789 0.029853 -1.451658 0.000000 0.000000
    27 0.028786 -1.075730 -0.023111 -0.870565 0.000000 0.000000
    28 0.250028 -2.820664 -0.238396 -0.916633 -0.083577 -0.024886
    29 -0.049759 -1.680545 0.100480 -1.550922 0.000000 -0.000002
    30 -0.034141 -1.148312 0.084779 -1.087312 0.000000 0.000000
    31 0.957766 -2.746776 -0.090301 -0.432128 -0.184437 0.072455
    32 -0.033419 -1.397128 -0.011255 -0.247860 0.000000 -0.000001
    33 -0.022361 -0.957434 0.018783 -0.956086 0.000000 0.000000
    34 -1.180680 -2.507215 -0.193861 -0.747365 0.130011 -0.054388
    35 -0.024966 -1.123935 0.017594 -1.414285 0.000000 0.000001
    36 -0.020057 -0.890966 0.010091 -0.846171 0.000000 0.000000
    37 0.583510 -1.197274 0.185377 0.631272 -1.323162 -0.918160
    38 1.535926 0.010244 0.005008 -0.124883 0.065220 -0.956765
    39 1.100770 0.004526 -0.010676 -0.014685 0.006877 -0.956472
    40 0.120152 -0.050266 -0.054488 0.287568 3.110905 1.561085
  time 7
    0 0.000000 0.000000 0.000000 -0.006220 0.000000 -0.000015
    1 6.419758 5.135143 -6.974305 6.066668 -1.608779 0.168997
    2 -0.071918 -8.498732 -0.104137 0.003206 0.285247 0.180189
    3 2.305589 -2.755951 1.800741 -0.057826 0.286072 -3.251386
    4 0.822732 1.600163 0.000001 0.000002 0.000000 -0.024500
    5 -0.135229 4.811260 0.000000 0.000000 0.000000 1.558216
    6 -0.114076 -2.997109 0.000000 0.000000 0.000000 -0.019284
    7 -1.055155 -6.789067 -7.666015 -0.188993 -6.209644 0.495057
    8 0.096944 -8.450418 -0.009364 -0.262075 -0.268259 0.357727
    9 0.447952 -2.798983 -0.200442 -0.766175 -0.010396 0.265094
    10 -0.032910 -1.480206 0.004936 -0.491709 0.000000 0.000002
    11 -0.027022 -1.076919 -0.020212 -1.394127 0.000000 0.000000
    12 -0.249534 -2.846962 -0.174215 -0.219885 -0.000125 -0.008396
    13 0.043235 -1.683940 0.096014 -1.114670 0.002823 -0.000167
    14 0.031729 -1.160831 0.058836 -0.912818 0.000642 0.008372
    15 -0.963866 -2.785142 -0.085346 0.070022 0.162276 -0.191556
    16 0.028479 -1.403069 0.006271 -0.596895 0.000000 0.000000
    17 0.021413 -0.957782 0.020047 -0.432482 0.000000 0.000000
    18 1.164474 -2.543938 -0.170328 -0.702390 -0.013294 0.477915
    19 0.024033 -1.129042 0.017806 -0.803472 0.000000 0.000001
    20 0.014896 -0.883989 -0.019845 -0.584392 0.000000 0.000000
    21 -0.586770 -1.264475 0.200164 -0.286523 -0.333668 -2.448911
    22 1.522835 0.058681 0.016850 -0.076585 -0.419780 0.142437
    23 1.117948 0.048424 -0.005764 -0.009375 -0.023283 0.439496
    24 -0.139399 -0.111697 0.014397 0.285382 -0.030687 1.580508
    25 -0.488517 -2.755600 -0.228261 -1.119640 -0.066262 -0.107564
    26 0.039888 -1.479789 0.029853 -1.451658 0.000000 0.000000
    27 0.028786 -1.075730 -0.023111 -0.870565 0.000000 0.000000
    28 0.250028 -2.820664 -0.238396 -0.916633 -0.083577 -0.024886
    29 -0.049759 -1.680545 0.100480 -1.550922 0.000000 -0.000002
    30 -0.034141 -1.148312 0.084779 -1.087312 0.000000 0.000000
    31 0.957766 -2.746776 -0.090301 -0.432128 -0.184437 0.072455
    32 -0.033419 -1.397128 -0.011255 -0.247860 0.000000 -0.000001
    33 -0.022361 -0.957434 0.018783 -0.956086 0.000000 0.000000
    34 -1.180680 -2.507215 -0.193861 -0.747365 0.130011 -0.054388
    35 -0.024966 -1.123935 0.017594 -1.414285 0.000000 0.000001
    36 -0.020057 -0.890966 0.010091 -0.846171 0.000000 0.000000
    37 0.583510 -1.197274 0.185377 0.631272 -1.323162 -0.918177
    38 1.535926 0.010244 0.005008 -0.124883 0.065220 -0.956765
    39 1.100770 0.004526 -0.010676 -0.014685 0.006877 -0.956472
    40 0.120152 -0.050266 -0.054488 0.287568 3.110905 1.561085
  time 8
    0 0.000000 0.000000 0.000000 -0.003212 0.000000 -0.000015
    1 6.310379 4.998420 -6.974305 6.070287 -1.608779 0.168997
    2 -0.071918 -8.498732 -0.104137 0.003351 0.285064 0.184546
    3 2.305589 -2.755951 1.800741 -0.057826 0.286072 -3.251386
    4 0.822732 1.600163 0.000001 0.000002 0.000000 -0.024500
    5 -0.135229 4.811260 0.000000 0.000000 0.000000 1.558216
    6 -0.114076 -2.997109 0.000000 0.000000 0.000000 -0.019284
    7 -1.055155 -6.910165 -7.666015 -0.201356 -6.209929 0.492389
    8 0.096944 -8.450418 -0.009364 -0.284786 -0.268259 0.357727
    9 0.447952 -2.798983 -0.200442 -0.766175 -0.010396 0.265094
    10 -0.032910 -1.480206 0.004936 -0.491709 0.000000 0.000002
    11 -0.027022 -1.076919 -0.020212 -1.394127 0.000000 0.000000
    12 -0.249534 -2.846962 -0.174215 -0.219885 -0.000125 -0.008396
    13 0.043235 -1.683940 0.096014 -1.114670 0.002823 -0.000167
    14 0.031729 -1.160831 0.058836 -0.912818 0.000642 0.008372
    15 -0.963866 -2.785142 -0.085346 0.070022 0.162276 -0.191556
    16 0.028479 -1.403069 0.006271 -0.596895 0.000000 0.000000
    17 0.021413 -0.957782 0.020047 -0.432482 0.000000 0.000000
    18 1.164474 -2.543938 -0.170328 -0.702390 -0.013294 0.477915
    19 0.024033 -1.129042 0.017806 -0.803472 0.000000 0.000001
    20 0.014896 -0.883989 -0.019845 -0.584392 0.000000 0.000000
    21 -0.586770 -1.264475 0.200164 -0.286523 -0.333668 -2.448911
    22 1.522835 0.058681 0.016850 -0.077169 -0.420178 0.143685
    23 1.117948 0.048424 -0.005764 -0.009423 -0.023283 0.441547
    24 -0.139399 -0.111697 0.014397 0.285382 -0.030687 1.580508
    25 -0.488517 -2.755600 -0.228261 -1.119640 -0.066262 -0.107564
    26 0.039888 -1.479789 0.029853 -1.451658 0.000000 0.000000
    27 0.028786 -1.075730 -0.023111 -0.870565 0.000000 0.000000
    28 0.250028 -2.820664 -0.238396 -0.916633 -0.083577 -0.024886
    29 -0.049759 -1.680545 0.100480 -1.550922 0.000000 -0.000002
    30 -0.034141 -1.148312 0.084779 -1.087312 0.000000 0.000000
    31 0.957766 -2.746776 -0.090301 -0.432128 -0.184437 0.072455
    32 -0.033419 -1.397128 -0.011255 -0.247860 0.000000 -0.000001
    33 -0.022361 -0.957434 0.018783 -0.956086 0.000000 0.000000
    34 -1.180680 -2.507215 -0.193861 -0.747365 0.130011 -0.054388
    35 -0.024966 -1.123935 0.017594 -1.414285 0.000000 0.000001
    36 -0.020057 -0.890966 0.010091 -0.846171 0.000000 0.000000
    37 0.583510 -1.197274 0.185377 0.631272 -1.323162 -0.918160
    38 1.535926 0.010244 0.005008 -0.124883 0.065220 -0.956765
    39 1.100770 0.004526 -0.010676 -0.014685 0.006877 -0.956472
    40 0.120152 -0.050266 -0.054488 0.287568 3.110905 1.561085
  time 9
    0 0.000000 0.000000 0.000000 -0.000905 0.000000 -0.000015
    1 6.236158 4.900761 -6.974305 6.072762 -1.608779 0.168997
    2 -0.071918 -8.498732 -0.104137 0.003061 0.285449 0.175606
    3 2.305589 -2.755951 1.800741 -0.057826 0.286072 -3.251386
    4 0.822732 1.600163 0.000001 0.000002 0.000000 -0.024500
    5 -0.135229 4.811260 0.000000 0.000000 0.000000 1.558216
    6 -0.114076 -2.997109 0.000000 0.000000 0.000000 -0.019284
    7 -1.055155 -6.996105 -7.666015 -0.186508 -6.210214 0.490293
    8 0.096944 -8.450418 -0.009364 -0.239632 -0.268259 0.357727
    9 0.447952 -2.798983 -0.200442 -0.766175 -0.010396 0.265094
    10 -0.032910 -1.480206 0.004936 -0.491709 0.000000 0.000002
    11 -0.027022 -1.076919 -0.020212 -1.394127 0.000000 0.000000
    12 -0.249534 -2.846962 -0.174215 -0.219885 -0.000125 -0.008396
    13 0.043235 -1.683940 0.096014 -1.114670 0.002823 -0.000167
    14 0.031729 -1.160831 0.058836 -0.912818 0.000642 0.008372
    15 -0.963866 -2.785142 -0.085346 0.070022 0.162276 -0.191556
    16 0.028479 -1.403069 0.006271 -0.596895 0.000000 0.000000
    17 0.021413 -0.957782 0.020047 -0.432482 0.000000 0.000000
    18 1.164474 -2.543938 -0.170328 -0.702390 -0.013294 0.477915
    19 0.024033 -1.129042 0.017806 -0.803472 0.000000 0.000001
    20 0.014896 -0.883989 -0.019845 -0.584392 0.000000 0.000000
    21 -0.586770 -1.264475 0.200164 -0.286523 -0.333668 -2.448911
    22 1.522835 0.058681 0.016850 -0.077453 -0.420523 0.144327
    23 1.117948 0.048424 -0.005764 -0.004833 -0.024241 0.253470
    24 -0.139399 -0.111697 0.014397 0.285382 -0.030687 1.580508
    25 -0.488517 -2.755600 -0.228261 -1.119640 -0.066262 -0.107564
    26 0.039888 -1.479789 0.029853 -1.451658 0.000000 0.000000
    27 0.028786 -1.075730 -0.023111 -0.870565 0.000000 0.000000
    28 0.250028 -2.820664 -0.238396 -0.916633 -0.083577 -0.024886
    29 -0.049759 -1.680545 0.100480 -1.550922 0.000000 -0.000002
    30 -0.034141 -1.148312 0.084779 -1.087312 0.000000 0.000000
    31 0.957766 -2.746776 -0.090301 -0.432128 -0.184437 0.072455
    32 -0.033419 -1.397128 -0.011255 -0.247860 0.000000 -0.000001
    33 -0.022361 -0.957434 0.018783 -0.956086 0.000000 0.000000
    34 -1.180680 -2.507215 -0.193861 -0.747365 0.130011 -0.054388
    35 -0.024966 -1.123935 0.017594 -1.414285 0.000000 0.000001
    36 -0.020057 -0.890966 0.010091 -0.846171 0.000000 0.000000
    37 0.583510 -1.197274 0.185377 0.631272 -1.323162 -0.918160
    38 1.535926 0.010244 0.005008 -0.124883 0.065220 -0.956765
    39 1.100770 0.004526 -0.010676 -0.014685 0.006877 -0.956472
    40 0.120152 -0.050266 -0.054488 0.287568 3.110905 1.561085
  time 10
    0 0.000000 0.000000 0.000000 0.000000 0.000000 -0.000015
    1 6.208814 4.865604 -6.974305 6.073715 -1.608779 0.168997
    2 -0.071918 -8.498732 -0.104137 0.002312 0.286456 0.153248
    3 2.305589 -2.755951 1.800741 -0.057826 0.286072 -3.251386
    4 0.822732 1.600163 0.000001 0.000002 0.000000 -0.024500
    5 -0.135229 4.811260 0.000000 0.000000 0.000000 1.558216
    6 -0.114076 -2.997109 0.000000 0.000000 0.000000 -0.019284
    7 -1.055155 -7.031262 -7.666015 -0.162356 -6.210308 0.489245
    8 0.096944 -8.450418 -0.009364 -0.188246 -0.268259 0.357727
    9 0.447952 -2.798983 -0.200442 -0.766175 -0.010396 0.265094
    10 -0.032910 -1.480206 0.004936 -0.491709 0.000000 0.000002
    11 -0.027022 -1.076919 -0.020212 -1.394127 0.000000 0.000000
    12 -0.249534 -2.846962 -0.174215 -0.219885 -0.000125 -0.008396
    13 0.043235 -1.683940 0.096014 -1.114670 0.002823 -0.000167
    14 0.031729 -1.160831 0.058836 -0.912818 0.000642 0.008372
    15 -0.963866 -2.785142 -0.085346 0.070022 0.162276 -0.191556
    16 0.028479 -1.403069 0.006271 -0.596895 0.000000 0.000000
    17 0.021413 -0.957782 0.020047 -0.432482 0.000000 0.000000
    18 1.164474 -2.543938 -0.170328 -0.702390 -0.013294 0.477915
    19 0.024033 -1.129042 0.017806 -0.803472 0.000000 0.000001
    20 0.014896 -0.883989 -0.019845 -0.584392 0.000000 0.000000
    21 -0.586770 -1.264475 0.200164 -0.286523 -0.333668 -2.448911
    22 1.522835 0.058681 0.016850 -0.077532 -0.420682 0.144516
    23 1.117948 0.048424 -0.005764 -0.000243 -0.025198 0.065422
    24 -0.139399 -0.111697 0.014397 0.285382 -0.030687 1.580508
    25 -0.488517 -2.755600 -0.228261 -1.119640 -0.066262 -0.107564
    26 0.039888 -1.479789 0.029853 -1.451658 0.000000 0.000000
    27 0.028786 -1.075730 -0.023111 -0.870565 0.000000 0.000000
    28 0.250028 -2.820664 -0.238396 -0.916633 -0.083577 -0.024886
    29 -0.049759 -1.680545 0.100480 -1.550922 0.000000 -0.000002
    30 -0.034141 -1.148312 0.084779 -1.087312 0.000000 0.000000
    31 0.957766 -2.746776 -0.090301 -0.432128 -0.184437 0.072455
    32 -0.033419 -1.397128 -0.011255 -0.247860 0.000000 -0.000001
    33 -0.022361 -0.957434 0.018783 -0.956086 0.000000 0.000000
    34 -1.180680 -2.507215 -0.193861 -0.747365 0.130011 -0.054388
    35 -0.024966 -1.123935 0.017594 -1.414285 0.000000 0.000001
    36 -0.020057 -0.890966 0.010091 -0.846171 0.000000 0.000000
    37 0.583510 -1.197274 0.185377 0.631272 -1.323162 -0.918160
    38 1.535926 0.010244 0.005008 -0.124883 0.065220 -0.956765
    39 1.100770 0.004526 -0.010676 -0.014685 0.006877 -0.956472
    40 0.120152 -0.050266 -0.054488 0.287568 3.110905 1.561085
  time 11
    0 0.000000 0.000000 0.000000 0.000000 0.000000 -0.000015
    1 6.208814 4.865604 -6.974305 6.073715 -1.608779 0.168997
    2 -0.071918 -8.498732 -0.104137 0.001346 0.287738 0.124198
    3 2.305589 -2.755951 1.800741 -0.057826 0.286072 -3.251386
    4 0.822732 1.600163 0.000001 0.000002 0.000000 -0.024500
    5 -0.135229 4.811260 0.000000 0.000000 0.000000 1.558216
    6 -0.114076 -2.997109 0.000000 0.000000 0.000000 -0.019284
    7 -1.055155 -7.031262 -7.666015 -0.140881 -6.210308 0.489245
    8 0.096944 -8.450418 -0.009364 -0.176677 -0.268259 0.357727
    9 0.447952 -2.798983 -0.200442 -0.766175 -0.010396 0.265094
    10 -0.032910 -1.480206 0.004936 -0.491709 0.000000 0.000002
    11 -0.027022 -1.076919 -0.020212 -1.394127 0.000000 0.000000
    12 -0.249534 -2.846962 -0.174215 -0.219885 -0.000125 -0.008396
    13 0.043235 -1.683940 0.096014 -1.114670 0.002823 -0.000167
    14 0.031729 -1.160831 0.058836 -0.912818 0.000642 0.008372
    15 -0.963866 -2.785142 -0.085346 0.070022 0.162276 -0.191556
    16 0.028479 -1.403069 0.006271 -0.596895 0.000000 0.000000
    17 0.021413 -0.957782 0.020047 -0.432482 0.000000 0.000000
    18 1.164474 -2.543938 -0.170328 -0.702390 -0.013294 0.477915
    19 0.024033 -1.129042 0.017806 -0.803472 0.000000 0.000001
    20 0.014896 -0.883989 -0.019845 -0.584392 0.000000 0.000000
    21 -0.586770 -1.264475 0.200164 -0.286523 -0.333668 -2.448911
    22 1.522835 0.058681 0.016850 -0.077532 -0.420682 0.144516
    23 1.117948 0.048424 -0.005764 -0.000243 -0.025198 0.065422
    24 -0.139399 -0.111697 0.014397 0.285382 -0.030687 1.580508
    25 -0.488517 -2.755600 -0.228261 -1.119640 -0.066262 -0.107564
    26 0.039888 -1.479789 0.029853 -1.451658 0.000000 0.000000
    27 0.028786 -1.075730 -0.023111 -0.870565 0.000000 0.000000
    28 0.250028 -2.820664 -0.238396 -0.916633 -0.083577 -0.024886
    29 -0.049759 -1.680545 0.100480 -1.550922 0.000000 -0.000002
    30 -0.034141 -1.148312 0.084779 -1.087312 0.000000 0.000000
    31 0.957766 -2.746776 -0.090301 -0.432128 -0.184437 0.072455
    32 -0.033419 -1.397128 -0.011255 -0.247860 0.000000 -0.000001
    33 -0.022361 -0.957434 0.018783 -0.956086 0.000000 0.000000
    34 -1.180680 -2.507215 -0.193861 -0.747365 0.130011 -0.054388
    35 -0.024966 -1.123935 0.017594 -1.414285 0.000000 0.000001
    36 -0.020057 -0.890966 0.010091 -0.846171 0.000000 0.000000
    37 0.583510 -1.197274 0.185377 0.631272 -1.323162 -0.918160
    38 1.535926 0.010244 0.005008 -0.124883 0.065220 -0.956765
    39 1.100770 0.004526 -0.010676 -0.014685 0.006877 -0.956472
    40 0.120152 -0.050266 -0.054488 0.287568 3.110905 1.561085
  time 12
    0 0.000000 0.000000 0.000000 0.000000 0.000000 -0.000015
    1 6.208814 4.865604 -6.974305 6.073715 -1.608779 0.168997
    2 -0.071918 -8.498732 -0.104137 0.000381 0.289038 0.095147
    3 2.305589 -2.755951 1.800741 -0.057826 0.286072 -3.251386
    4 0.822732 1.600163 0.000001 0.000002 0.000000 -0.024500
    5 -0.135229 4.811260 0.000000 0.000000 0.000000 1.558216
    6 -0.114076 -2.997109 0.000000 0.000000 0.000000 -0.019284
    7 -1.055155 -7.031262 -7.666015 -0.116602 -6.210308 0.489245
    8 0.096944 -8.450418 -0.009364 -0.166785 -0.268259 0.357727
    9 0.447952 -2.798983 -0.200442 -0.766175 -0.010396 0.265094
    10 -0.032910 -1.480206 0.004936 -0.491709 0.000000 0.000002
    11 -0.027022 -1.076919 -0.020212 -1.394127 0.000000 0.000000
    12 -0.249534 -2.846962 -0.174215 -0.219885 -0.000125 -0.008396
    13 0.043235 -1.683940 0.096014 -1.114670 0.002823 -0.000167
    14 0.031729 -1.160831 0.058836 -0.912818 0.000642 0.008372
    15 -0.963866 -2.785142 -0.085346 0.070022 0.162276 -0.191556
    16 0.028479 -1.403069 0.006271 -0.596895 0.000000 0.000000
    17 0.021413 -0.957782 0.020047 -0.432482 0.000000 0.000000
    18 1.164474 -2.543938 -0.170328 -0.702390 -0.013294 0.477915
    19 0.024033 -1.129042 0.017806 -0.803472 0.000000 0.000001
    20 0.014896 -0.883989 -0.019845 -0.584392 0.000000 0.000000
    21 -0.586770 -1.264475 0.200164 -0.286523 -0.333668 -2.448911
    22 1.522835 0.058681 0.016850 -0.077532 -0.420682 0.144516
    23 1.117948 0.048424 -0.005764 -0.000243 -0.025198 0.065422
    24 -0.139399 -0.111697 0.014397 0.285382 -0.030687 1.580508
    25 -0.488517 -2.755600 -0.228261 -1.119640 -0.066262 -0.107564
    26 0.039888 -1.479789 0.029853 -1.451658 0.000000 0.000000
    27 0.028786 -1.075730 -0.023111 -0.870565 0.000000 0.000000
    28 0.250028 -2.820664 -0.238396 -0.916633 -0.083577 -0.024886
    29 -0.049759 -1.680545 0.100480 -1.550922 0.000000 -0.000002
    30 -0.034141 -1.148312 0.084779 -1.087312 0.000000 0.000000
    31 0.957766 -2.746776 -0.090301 -0.432128 -0.184437 0.072455
    32 -0.033419 -1.397128 -0.011255 -0.247860 0.000000 -0.000001
    33 -0.022361 -0.957434 0.018783 -0.956086 0.000000 0.000000
    34 -1.180680 -2.507215 -0.193861 -0.747365 0.130011 -0.054388
    35 -0.024966 -1.123935 0.017594 -1.414285 0.000000 0.000001
    36 -0.020057 -0.890966 0.010091 -0.846171 0.000000 0.000000
    37 0.583510 -1.197274 0.185377 0.631272 -1.323162 -0.918160
    38 1.535926 0.010244 0.005008 -0.124883 0.065220 -0.956765
    39 1.100770 0.004526 -0.010676 -0.014685 0.006877 -0.956472
    40 0.120152 -0.050266 -0.054488 0.287568 3.110905 1.561085
  time 13
    0 0.000000 0.000000 0.000000 0.000000 0.000000 -0.000015
    1 6.208814 4.865604 -6.974305 6.073715 -1.608779 0.168997
    2 -0.071918 -8.498732 -0.104137 -0.000368 0.290026 0.072789
    3 2.305589 -2.755951 1.800741 -0.057826 0.286072 -3.251386
    4 0.822732 1.600163 0.000001 0.000002 0.000000 -0.024500
    5 -0.135229 4.811260 0.000000 0.000000 0.000000 1.558216
    6 -0.114076 -2.997109 0.000000 0.000000 0.000000 -0.019284
    7 -1.055155 -7.031262 -7.666015 -0.093916 -6.210308 0.489245
    8 0.096944 -8.450418 -0.009364 -0.158483 -0.268259 0.357727
    9 0.447952 -2.798983 -0.200442 -0.766175 -0.010396 0.265094
    10 -0.032910 -1.480206 0.004936 -0.491709 0.000000 0.000002
    11 -0.027022 -1.076919 -0.020212 -1.394127 0.000000 0.000000
    12 -0.249534 -2.846962 -0.174215 -0.219885 -0.000125 -0.008396
    13 0.043235 -1.683940 0.096014 -1.114670 0.002823 -0.000167
    14 0.031729 -1.160831 0.058836 -0.912818 0.000642 0.008372
    15 -0.963866 -2.785142 -0.085346 0.070022 0.162276 -0.191556
    16 0.028479 -1.403069 0.006271 -0.596895 0.000000 0.000000
    17 0.021413 -0.957782 0.020047 -0.432482 0.000000 0.000000
    18 1.164474 -2.543938 -0.170328 -0.702390 -0.013294 0.477915
    19 0.024033 -1.129042 0.017806 -0.803472 0.000000 0.000001
    20 0.014896 -0.883989 -0.019845 -0.584392 0.000000 0.000000
    21 -0.586770 -1.264475 0.200164 -0.286523 -0.333668 -2.448911
    22 1.522835 0.058681 0.016850 -0.077532 -0.420682 0.144516
    23 1.117948 0.048424 -0.005764 -0.000243 -0.025198 0.065422
    24 -0.139399 -0.111697 0.014397 0.285382 -0.030687 1.580508
    25 -0.488517 -2.755600 -0.228261 -1.119640 -0.066262 -0.107564
    26 0.039888 -1.479789 0.029853 -1.451658 0.000000 0.000000
    27 0.028786 -1.075730 -0.023111 -0.870565 0.000000 0.000000
    28 0.250028 -2.820664 -0.238396 -0.916633 -0.083577 -0.024886
    29 -0.049759 -1.680545 0.100480 -1.550922 0.000000 -0.000002
    30 -0.034141 -1.148312 0.084779 -1.087312 0.000000 0.000000
    31 0.957766 -2.746776 -0.090301 -0.432128 -0.184437 0.072455
    32 -0.033419 -1.397128 -0.011255 -0.247860 0.000000 -0.000001
    33 -0.022361 -0.957434 0.018783 -0.956086 0.000000 0.000000
    34 -1.180680 -2.507215 -0.193861 -0.747365 0.130011 -0.054388
    35 -0.024966 -1.123935 0.017594 -1.414285 0.000000 0.000001
    36 -0.020057 -0.890966 0.010091 -0.846171 0.000000 0.000000
    37 0.583510 -1.197274 0.185377 0.631272 -1.323162 -0.918160
    38 1.535926 0.010244 0.005008 -0.124883 0.065220 -0.956765
    39 1.100770 0.004526 -0.010676 -0.014685 0.006877 -0.956472
    40 0.120152 -0.050266 -0.054488 0.287568 3.110905 1.561085
  time 14
    0 0.000000 0.000000 0.000000 0.000000 0.000000 -0.000015
    1 6.208814 4.865604 -6.974305 6.073715 -1.608779 0.168997
    2 -0.071918 -8.498732 -0.104137 -0.000682 0.290429 0.063849
    3 2.305589 -2.755951 1.800741 -0.057826 0.286072 -3.251386
    4 0.822732 1.600163 0.000001 0.000002 0.000000 -0.024500
    5 -0.135229 4.811260 0.000000 0.000000 0.000000 1.558216
    6 -0.114076 -2.997109 0.000000 0.000000 0.000000 -0.019284
    7 -1.055155 -7.031262 -7.666015 -0.077156 -6.210308 0.489245
    8 0.096944 -8.450418 -0.009364 -0.151644 -0.268259 0.357727
    9 0.447952 -2.798983 -0.200442 -0.766175 -0.010396 0.265094
    10 -0.032910 -1.480206 0.004936 -0.491709 0.000000 0.000002
    11 -0.027022 -1.076919 -0.020212 -1.394127 0.000000 0.000000
    12 -0.249534 -2.846962 -0.174215 -0.219885 -0.000125 -0.008396
    13 0.043235 -1.683940 0.096014 -1.114670 0.002823 -0.000167
    14 0.031729 -1.160831 0.058836 -0.912818 0.000642 0.008372
    15 -0.963866 -2.785142 -0.085346 0.070022 0.162276 -0.191556
    16 0.028479 -1.403069 0.006271 -0.596895 0.000000 0.000000
    17 0.021413 -0.957782 0.020047 -0.432482 0.000000 0.000000
    18 1.164474 -2.543938 -0.170328 -0.702390 -0.013294 0.477915
    19 0.024033 -1.129042 0.017806 -0.803472 0.000000 0.000001
    20 0.014896 -0.883989 -0.019845 -0.584392 0.000000 0.000000
    21 -0.586770 -1.264475 0.200164 -0.286523 -0.333668 -2.448911
    22 1.522835 0.058681 0.016850 -0.077532 -0.420682 0.144516
    23 1.117948 0.048424 -0.005764 -0.000243 -0.025198 0.065422
    24 -0.139399 -0.111697 0.014397 0.285382 -0.030687 1.580508
    25 -0.488517 -2.755600 -0.228261 -1.119640 -0.066262 -0.107564
    26 0.039888 -1.479789 0.029853 -1.451658 0.000000 0.000000
    27 0.028786 -1.075730 -0.023111 -0.870565 0.000000 0.000000
    28 0.250028 -2.820664 -0.238396 -0.916633 -0.083577 -0.024886
    29 -0.049759 -1.680545 0.100480 -1.550922 0.000000 -0.000002
    30 -0.034141 -1.148312 0.084779 -1.087312 0.000000 0.000000
    31 0.957766 -2.746776 -0.090301 -0.432128 -0.184437 0.072455
    32 -0.033419 -1.397128 -0.011255 -0.247860 0.000000 -0.000001
    33 -0.022361 -0.957434 0.018783 -0.956086 0.000000 0.000000
    34 -1.180680 -2.507215 -0.193861 -0.747365 0.130011 -0.054388
    35 -0.024966 -1.123935 0.017594 -1.414285 0.000000 0.000001
    36 -0.020057 -0.890966 0.010091 -0.846171 0.000000 0.000000
    37 0.583510 -1.197274 0.185377 0.631272 -1.323162 -0.918160
    38 1.535926 0.010244 0.005008 -0.124883 0.065220 -0.956765
    39 1.100770 0.004526 -0.010676 -0.014685 0.006877 -0.956472
    40 0.120152 -0.050266 -0.054488 0.287568 3.110905 1.561085
  time 15
    0 0.000000 0.000000 0.000000 0.000000 0.000000 -0.000015
    1 6.208814 4.865604 -6.974305 6.073715 -1.608779 0.168997
    2 -0.071918 -8.498732 -0.104137 -0.000561 0.290301 0.066969
    3 2.305589 -2.755951 1.800741 -0.057826 0.286072 -3.251386
    4 0.822732 1.600163 0.000001 0.000002 0.000000 -0.024500
    5 -0.135229 4.811260 0.000000 0.000000 0.000000 1.558216
    6 -0.114076 -2.997109 0.000000 0.000000 0.000000 -0.019284
    7 -1.055155 -7.031262 -7.666015 -0.070593 -6.210308 0.489245
    8 0.096944 -8.450418 -0.009364 -0.146163 -0.268259 0.357727
    9 0.447952 -2.798983 -0.200442 -0.766175 -0.010396 0.265094
    10 -0.032910 -1.480206 0.004936 -0.491709 0.000000 0.000002
    11 -0.027022 -1.076919 -0.020212 -1.394127 0.000000 0.000000
    12 -0.249534 -2.846962 -0.174215 -0.219885 -0.000125 -0.008396
    13 0.043235 -1.683940 0.096014 -1.114670 0.002823 -0.000167
    14 0.031729 -1.160831 0.058836 -0.912818 0.000642 0.008372
    15 -0.963866 -2.785142 -0.085346 0.070022 0.162276 -0.191556
    16 0.028479 -1.403069 0.006271 -0.596895 0.000000 0.000000
    17 0.021413 -0.957782 0.020047 -0.432482 0.000000 0.000000
    18 1.164474 -2.543938 -0.170328 -0.702390 -0.013294 0.477915
    19 0.024033 -1.129042 0.017806 -0.803472 0.000000 0.000001
    20 0.014896 -0.883989 -0.019845 -0.584392 0.000000 0.000000
    21 -0.586770 -1.264475 0.200164 -0.286523 -0.333668 -2.448911
    22 1.522835 0.058681 0.016850 -0.077532 -0.420682 0.144516
    23 1.117948 0.048424 -0.005764 -0.000243 -0.025198 0.065422
    24 -0.139399 -0.111697 0.014397 0.285382 -0.030687 1.580508
    25 -0.488517 -2.755600 -0.228261 -1.119640 -0.066262 -0.107564
    26 0.039888 -1.479789 0.029853 -1.451658 0.000000 0.000000
    27 0.028786 -1.075730 -0.023111 -0.870565 0.000000 0.000000
    28 0.250028 -2.820664 -0.238396 -0.916633 -0.083577 -0.024886
    29 -0.049759 -1.680545 0.100480 -1.550922 0.000000 -0.000002
    30 -0.034141 -1.148312 0.084779 -1.087312 0.000000 0.000000
    31 0.957766 -2.746776 -0.090301 -0.432128 -0.184437 0.072455
    32 -0.033419 -1.397128 -0.011255 -0.247860 0.000000 -0.000001
    33 -0.022361 -0.957434 0.018783 -0.956086 0.000000 0.000000
    34 -1.180680 -2.507215 -0.193861 -0.747365 0.130011 -0.054388
    35 -0.024966 -1.123935 0.017594 -1.414285 0.000000 0.000001
    36 -0.020057 -0.890966 0.010091 -0.846171 0.000000 0.000000
    37 0.583510 -1.197274 0.185377 0.631272 -1.323162 -0.918160
    38 1.535926 0.010244 0.005008 -0.124883 0.065220 -0.956765
    39 1.100770 0.004526 -0.010676 -0.014685 0.006877 -0.956472
    40 0.120152 -0.050266 -0.054488 0.287568 3.110905 1.561085
  time 16
    0 0.000000 0.000000 0.000000 0.000000 0.000000 -0.000015
    1 6.208814 4.865604 -6.974305 6.073715 -1.608779 0.168997
    2 -0.071918 -8.498732 -0.104137 -0.000296 0.289972 0.074758
    3 2.305589 -2.755951 1.800741 -0.057826 0.286072 -3.251386
    4 0.822732 1.600163 0.000001 0.000002 0.000000 -0.024500
    5 -0.135229 4.811260 0.000000 0.000000 0.000000 1.558216
    6 -0.114076 -2.997109 0.000000 0.000000 0.000000 -0.019284
    7 -1.055155 -7.031262 -7.666015 -0.076328 -6.210308 0.489245
    8 0.096944 -8.450418 -0.009364 -0.141914 -0.268259 0.357727
    9 0.447952 -2.798983 -0.200442 -0.766175 -0.010396 0.265094
    10 -0.032910 -1.480206 0.004936 -0.491709 0.000000 0.000002
    11 -0.027022 -1.076919 -0.020212 -1.394127 0.000000 0.000000
    12 -0.249534 -2.846962 -0.174215 -0.219885 -0.000125 -0.008396
    13 0.043235 -1.683940 0.096014 -1.114670 0.002823 -0.000167
    14 0.031729 -1.160831 0.058836 -0.912818 0.000642 0.008372
    15 -0.963866 -2.785142 -0.085346 0.070022 0.162276 -0.191556
    16 0.028479 -1.403069 0.006271 -0.596895 0.000000 0.000000
    17 0.021413 -0.957782 0.020047 -0.432482 0.000000 0.000000
    18 1.164474 -2.543938 -0.170328 -0.702390 -0.013294 0.477915
    19 0.024033 -1.129042 0.017806 -0.803472 0.000000 0.000001
    20 0.014896 -0.883989 -0.019845 -0.584392 0.000000 0.000000
    21 -0.586770 -1.264475 0.200164 -0.286523 -0.333668 -2.448911
    22 1.522835 0.058681 0.016850 -0.077532 -0.420682 0.144516
    23 1.117948 0.048424 -0.005764 -0.000243 -0.025198 0.065422
    24 -0.139399 -0.111697 0.014397 0.285382 -0.030687 1.580508
    25 -0.488517 -2.755600 -0.228261 -1.119640 -0.066262 -0.107564
    26 0.039888 -1.479789 0.029853 -1.451658 0.000000 0.000000
    27 0.028786 -1.075730 -0.023111 -0.870565 0.000000 0.000000
    28 0.250028 -2.820664 -0.238396 -0.916633 -0.083577 -0.024886
    29 -0.049759 -1.680545 0.100480 -1.550922 0.000000 -0.000002
    30 -0.034141 -1.148312 0.084779 -1.087312 0.000000 0.000000
    31 0.957766 -2.746776 -0.090301 -0.432128 -0.184437 0.072455
    32 -0.033419 -1.397128 -0.011255 -0.247860 0.000000 -0.000001
    33 -0.022361 -0.957434 0.018783 -0.956086 0.000000 0.000000
    34 -1.180680 -2.507215 -0.193861 -0.747365 0.130011 -0.054388
    35 -0.024966 -1.123935 0.017594 -1.414285 0.000000 0.000001
    36 -0.020057 -0.890966 0.010091 -0.846171 0.000000 0.000000
    37 0.583510 -1.197274 0.185377 0.631272 -1.323162 -0.918160
    38 1.535926 0.010244 0.005008 -0.124883 0.065220 -0.956765
    39 1.100770 0.004526 -0.010676 -0.014685 0.006877 -0.956472
    40 0.120152 -0.050266 -0.054488 0.287568 3.110905 1.561085
  time 17
    0 0.000000 0.000000 0.000000 0.000000 0.000000 -0.000015
    1 6.208814 4.865604 -6.974305 6.073715 -1.608779 0.168997
    2 -0.071918 -8.498732 -0.104137 0.000067 0.289532 0.084883
    3 2.305589 -2.755951 1.800741 -0.057826 0.286072 -3.251386
    4 0.822732 1.600163 0.000001 0.000002 0.000000 -0.024500
    5 -0.135229 4.811260 0.000000 0.000000 0.000000 1.558216
    6 -0.114076 -2.997109 0.000000 0.000000 0.000000 -0.019284
    7 -1.055155 -7.031262 -7.666015 -0.090092 -6.210308 0.489245
    8 0.096944 -8.450418 -0.009364 -0.138825 -0.268259 0.357727
    9 0.447952 -2.798983 -0.200442 -0.766175 -0.010396 0.265094
    10 -0.032910 -1.480206 0.004936 -0.491709 0.000000 0.000002
    11 -0.027022 -1.076919 -0.020212 -1.394127 0.000000 0.000000
    12 -0.249534 -2.846962 -0.174215 -0.219885 -0.000125 -0.008396
    13 0.043235 -1.683940 0.096014 -1.114670 0.002823 -0.000167
    14 0.031729 -1.160831 0.058836 -0.912818 0.000642 0.008372
    15 -0.963866 -2.785142 -0.085346 0.070022 0.162276 -0.191556
    16 0.028479 -1.403069 0.006271 -0.596895 0.000000 0.000000
    17 0.021413 -0.957782 0.020047 -0.432482 0.000000 0.000000
    18 1.164474 -2.543938 -0.170328 -0.702390 -0.013294 0.477915
    19 0.024033 -1.129042 0.017806 -0.803472 0.000000 0.000001
    20 0.014896 -0.883989 -0.019845 -0.584392 0.000000 0.000000
    21 -0.586770 -1.264475 0.200164 -0.286523 -0.333668 -2.448911
    22 1.522835 0.058681 0.016850 -0.077532 -0.420682 0.144516
    23 1.117948 0.048424 -0.005764 -0.000243 -0.025198 0.065422
    24 -0.139399 -0.111697 0.014397 0.285382 -0.030687 1.580508
    25 -0.488517 -2.755600 -0.228261 -1.119640 -0.066262 -0.107564
    26 0.039888 -1.479789 0.029853 -1.451658 0.000000 0.000000
    27 0.028786 -1.075730 -0.023111 -0.870565 0.000000 0.000000
    28 0.250028 -2.820664 -0.238396 -0.916633 -0.083577 -0.024886
    29 -0.049759 -1.680545 0.100480 -1.550922 0.000000 -0.000002
    30 -0.034141 -1.148312 0.084779 -1.087312 0.000000 0.000000
    31 0.957766 -2.746776 -0.090301 -0.432128 -0.184437 0.072455
    32 -0.033419 -1.397128 -0.011255 -0.247860 0.000000 -0.000001
    33 -0.022361 -0.957434 0.018783 -0.956086 0.000000 0.000000
    34 -1.180680 -2.507215 -0.193861 -0.747365 0.130011 -0.054388
    35 -0.024966 -1.123935 0.017594 -1.414285 0.000000 0.000001
    36 -0.020057 -0.890966 0.010091 -0.846171 0.000000 0.000000
    37 0.583510 -1.197274 0.185377 0.631272 -1.323162 -0.918160
    38 1.535926 0.010244 0.005008 -0.124883 0.065220 -0.956765
    39 1.100770 0.004526 -0.010676 -0.014685 0.006877 -0.956472
    40 0.120152 -0.050266 -0.054488 0.287568 3.110905 1.561085
  time 18
    0 0.000000 0.000000 0.000000 0.000000 0.000000 -0.000015
    1 6.208814 4.865604 -6.974305 6.073715 -1.608779 0.168997
    2 -0.071918 -8.498732 -0.104137 0.000429 0.289111 0.095008
    3 2.305589 -2.755951 1.800741 -0.057826 0.286072 -3.251386
    4 0.822732 1.600163 0.000001 0.000002 0.000000 -0.024500
    5 -0.135229 4.811260 0.000000 0.000000 0.000000 1.558216
    6 -0.114076 -2.997109 0.000000 0.000000 0.000000 -0.019284
    7 -1.055155 -7.031262 -7.666015 -0.106533 -6.210308 0.489245
    8 0.096944 -8.450418 -0.009364 -0.136754 -0.268259 0.357727
    9 0.447952 -2.798983 -0.200442 -0.766175 -0.010396 0.265094
    10 -0.032910 -1.480206 0.004936 -0.491709 0.000000 0.000002
    11 -0.027022 -1.076919 -0.020212 -1.394127 0.000000 0.000000
    12 -0.249534 -2.846962 -0.174215 -0.219885 -0.000125 -0.008396
    13 0.043235 -1.683940 0.096014 -1.114670 0.002823 -0.000167
    14 0.031729 -1.160831 0.058836 -0.912818 0.000642 0.008372
    15 -0.963866 -2.785142 -0.085346 0.070022 0.162276 -0.191556
    16 0.028479 -1.403069 0.006271 -0.596895 0.000000 0.000000
    17 0.021413 -0.957782 0.020047 -0.432482 0.000000 0.000000
    18 1.164474 -2.543938 -0.170328 -0.702390 -0.013294 0.477915
    19 0.024033 -1.129042 0.017806 -0.803472 0.000000 0.000001
    20 0.014896 -0.883989 -0.019845 -0.584392 0.000000 0.000000
    21 -0.586770 -1.264475 0.200164 -0.286523 -0.333668 -2.448911
    22 1.522835 0.058681 0.016850 -0.077532 -0.420682 0.144516
    23 1.117948 0.048424 -0.005764 -0.000243 -0.025198 0.065422
    24 -0.139399 -0.111697 0.014397 0.285382 -0.030687 1.580508
    25 -0.488517 -2.755600 -0.228261 -1.119640 -0.066262 -0.107564
    26 0.039888 -1.479789 0.029853 -1.451658 0.000000 0.000000
    27 0.028786 -1.075730 -0.023111 -0.870565 0.000000 0.000000
    28 0.250028 -2.820664 -0.238396 -0.916633 -0.083577 -0.024886
    29 -0.049759 -1.680545 0.100480 -1.550922 0.000000 -0.000002
    30 -0.034141 -1.148312 0.084779 -1.087312 0.000000 0.000000
    31 0.957766 -2.746776 -0.090301 -0.432128 -0.184437 0.072455
    32 -0.033419 -1.397128 -0.011255 -0.247860 0.000000 -0.000001
    33 -0.022361 -0.957434 0.018783 -0.956086 0.000000 0.000000
    34 -1.180680 -2.507215 -0.193861 -0.747365 0.130011 -0.054388
    35 -0.024966 -1.123935 0.017594 -1.414285 0.000000 0.000001
    36 -0.020057 -0.890966 0.010091 -0.846171 0.000000 0.000000
    37 0.583510 -1.197274 0.185377 0.631272 -1.323162 -0.918160
    38 1.535926 0.010244 0.005008 -0.124883 0.065220 -0.956765
    39 1.100770 0.004526 -0.010676 -0.014685 0.006877 -0.956472
    40 0.120152 -0.050266 -0.054488 0.287568 3.110905 1.561085
  time 19
    0 0.000000 0.000000 0.000000 0.000000 0.000000 -0.000015
    1 6.208814 4.865604 -6.974305 6.073715 -1.608779 0.168997
    2 -0.071918 -8.498732 -0.104137 0.000719 0.288763 0.102798
    3 2.305589 -2.755951 1.800741 -0.057826 0.286072 -3.251386
    4 0.822732 1.600163 0.000001 0.000002 0.000000 -0.024500
    5 -0.135229 4.811260 0.000000 0.000000 0.000000 1.558216
    6 -0.114076 -2.997109 0.000000 0.000000 0.000000 -0.019284
    7 -1.055155 -7.031262 -7.666015 -0.120362 -6.210308 0.489245
    8 0.096944 -8.450418 -0.009364 -0.135575 -0.268259 0.357727
    9 0.447952 -2.798983 -0.200442 -0.766175 -0.010396 0.265094
    10 -0.032910 -1.480206 0.004936 -0.491709 0.000000 0.000002
    11 -0.027022 -1.076919 -0.020212 -1.394127 0.000000 0.000000
    12 -0.249534 -2.846962 -0.174215 -0.219885 -0.000125 -0.008396
    13 0.043235 -1.683940 0.096014 -1.114670 0.002823 -0.000167
    14 0.031729 -1.160831 0.058836 -0.912818 0.000642 0.008372
    15 -0.963866 -2.785142 -0.085346 0.070022 0.162276 -0.191556
    16 0.028479 -1.403069 0.006271 -0.596895 0.000000 0.000000
    17 0.021413 -0.957782 0.020047 -0.432482 0.000000 0.000000
    18 1.164474 -2.543938 -0.170328 -0.702390 -0.013294 0.477915
    19 0.024033 -1.129042 0.017806 -0.803472 0.000000 0.000001
    20 0.014896 -0.883989 -0.019845 -0.584392 0.000000 0.000000
    21 -0.586770 -1.264475 0.200164 -0.286523 -0.333668 -2.448911
    22 1.522835 0.058681 0.016850 -0.077532 -0.420682 0.144516
    23 1.117948 0.048424 -0.005764 -0.000243 -0.025198 0.065422
    24 -0.139399 -0.111697 0.014397 0.285382 -0.030687 1.580508
    25 -0.488517 -2.755600 -0.228261 -1.119640 -0.066262 -0.107564
    26 0.039888 -1.479789 0.029853 -1.451658 0.000000 0.000000
    27 0.028786 -1.075730 -0.023111 -0.870565 0.000000 0.000000
    28 0.250028 -2.820664 -0.238396 -0.916633 -0.083577 -0.024886
    29 -0.049759 -1.680545 0.100480 -1.550922 0.000000 -0.000002
    30 -0.034141 -1.148312 0.084779 -1.087312 0.000000 0.000000
    31 0.957766 -2.746776 -0.090301 -0.432128 -0.184437 0.072455
    32 -0.033419 -1.397128 -0.011255 -0.247860 0.000000 -0.000001
    33 -0.022361 -0.957434 0.018783 -0.956086 0.000000 0.000000
    34 -1.180680 -2.507215 -0.193861 -0.747365 0.130011 -0.054388
    35 -0.024966 -1.123935 0.017594 -1.414285 0.000000 0.000001
    36 -0.020057 -0.890966 0.010091 -0.846171 0.000000 0.000000
    37 0.583510 -1.197274 0.185377 0.631272 -1.323162 -0.918177
    38 1.535926 0.010244 0.005008 -0.124883 0.065220 -0.956765
    39 1.100770 0.004526 -0.010676 -0.014685 0.006877 -0.956472
    40 0.120152 -0.050266 -0.054488 0.287568 3.110905 1.561085
  time 20
    0 0.000000 0.000000 0.000000 0.000000 0.000000 -0.000015
    1 6.208814 4.865604 -6.974305 6.073715 -1.608779 0.168997
    2 -0.071918 -8.498732 -0.104137 0.000815 0.288635 0.105900
    3 2.305589 -2.755951 1.800741 -0.057826 0.286072 -3.251386
    4 0.822732 1.600163 0.000001 0.000002 0.000000 -0.024500
    5 -0.135229 4.811260 0.000000 0.000000 0.000000 1.558216
    6 -0.114076 -2.997109 0.000000 0.000000 0.000000 -0.019284
    7 -1.055155 -7.031262 -7.666015 -0.126097 -6.210308 0.489245
    8 0.096944 -8.450418 -0.009364 -0.135218 -0.268259 0.357727
    9 0.447952 -2.798983 -0.200442 -0.766175 -0.010396 0.265094
    10 -0.032910 -1.480206 0.004936 -0.491709 0.000000 0.000002
    11 -0.027022 -1.076919 -0.020212 -1.394127 0.000000 0.000000
    12 -0.249534 -2.846962 -0.174215 -0.219885 -0.000125 -0.008396
    13 0.043235 -1.683940 0.096014 -1.114670 0.002823 -0.000167
    14 0.031729 -1.160831 0.058836 -0.912818 0.000642 0.008372
    15 -0.963866 -2.785142 -0.085346 0.070022 0.162276 -0.191556
    16 0.028479 -1.403069 0.006271 -0.596895 0.000000 0.000000
    17 0.021413 -0.957782 0.020047 -0.432482 0.000000 0.000000
    18 1.164474 -2.543938 -0.170328 -0.702390 -0.013294 0.477915
    19 0.024033 -1.129042 0.017806 -0.803472 0.000000 0.000001
    20 0.014896 -0.883989 -0.019845 -0.584392 0.000000 0.000000
    21 -0.586770 -1.264475 0.200164 -0.286523 -0.333668 -2.448911
    22 1.522835 0.058681 0.016850 -0.077532 -0.420682 0.144516
    23 1.117948 0.048424 -0.005764 -0.000243 -0.025198 0.065422
    24 -0.139399 -0.111697 0.014397 0.285382 -0.030687 1.580508
    25 -0.488517 -2.755600 -0.228261 -1.119640 -0.066262 -0.107564
    26 0.039888 -1.479789 0.029853 -1.451658 0.000000 0.000000
    27 0.028786 -1.075730 -0.023111 -0.870565 0.000000 0.000000
    28 0.250028 -2.820664 -0.238396 -0.916633 -0.083577 -0.024886
    29 -0.049759 -1.680545 0.100480 -1.550922 0.000000 -0.000002
    30 -0.034141 -1.148312 0.084779 -1.087312 0.000000 0.000000
    31 0.957766 -2.746776 -0.090301 -0.432128 -0.184437 0.072455
    32 -0.033419 -1.397128 -0.011255 -0.247860 0.000000 -0.000001
    33 -0.022361 -0.957434 0.018783 -0.956086 0.000000 0.000000
    34 -1.180680 -2.507215 -0.193861 -0.747365 0.130011 -0.054388
    35 -0.024966 -1.123935 0.017594 -1.414285 0.000000 0.000001
    36 -0.020057 -0.890966 0.010091 -0.846171 0.000000 0.000000
    37 0.583510 -1.197274 0.185377 0.631272 -1.323162 -0.918160
    38 1.535926 0.010244 0.005008 -0.124883 0.065220 -0.956765
    39 1.100770 0.004526 -0.010676 -0.014685 0.006877 -0.956472
    40 0.120152 -0.050266 -0.054488 0.287568 3.110905 1.561085
end
