// Created by Crowbar 0.49.0.0

$modelname "weapons/tfa_cso/c_m1garand.mdl"

$Include "csonline_gmod.qci"

$bodygroup "weapon"
{
	studio "v_m1garand"
}

$CDMaterials "models\weapons\tfa_cso\m1garand\"

$attachment 0 "Bone02" 30 0 0
//$attachment 1 "Bone02" 5 0 0


$sequence "idleA" {
	"v_m1garand_anims\idleA"
	fps 30
	loop
	activity "ACT_VM_IDLE" 1
	snap
}
$sequence "idleA_empty" {
	"v_m1garand_anims\idleA_empty"
	fps 30
	loop
	activity "ACT_VM_IDLE_EMPTY" 1
	snap
}
$sequence "idleB" {
	"v_m1garand_anims\idleB"
	fps 30
	loop
}
$sequence "idleB_empty" {
	"v_m1garand_anims\idleB_empty"
	fps 30
	loop
}
$sequence "drawA" {
	"v_m1garand_anims\drawA"
	fps 30
	activity "ACT_VM_DRAW" 1
	snap
}
$sequence "drawA_empty" {
	"v_m1garand_anims\drawA_empty"
	fps 30
	activity "ACT_VM_DRAW_EMPTY" 1
	snap
}
$sequence "change1" {
	"v_m1garand_anims\change1"
	fps 30
}
$sequence "change1_empty" {
	"v_m1garand_anims\change1_empty"
	fps 30
}
$sequence "change2" {
	"v_m1garand_anims\change2"
	fps 30
}
$sequence "change2_empty" {
	"v_m1garand_anims\change2_empty"
	fps 30
}
$sequence "reload" {
	"v_m1garand_anims\reload"
	{ event 5004 10 "GARAND.ClipIn1" }
	{ event 5004 46 "GARAND.ClipIn2" }
	fps 30
	activity "ACT_VM_RELOAD" 1
	snap
}
$sequence "shootA" {
	"v_m1garand_anims\shootA"
	{ event 5001 0 "21" }
	fps 30
	activity "ACT_VM_PRIMARYATTACK" 1
	snap
}
$sequence "shootA_empty" {
	"v_m1garand_anims\shootA_empty"
	{ event 5001 0 "21" }
	{ event 5004 1 "GARAND.Empty" }
	fps 30
	activity "ACT_VM_PRIMARYATTACK_EMPTY" 1
	snap
}
$sequence "shootB" {
	"v_m1garand_anims\shootB"
	{ event 5001 0 "21" }
	fps 30
}
$sequence "shootB_empty" {
	"v_m1garand_anims\shootB_empty"
	{ event 5001 0 "21" }
	{ event 5004 1 "GARAND.Empty" }
	fps 30
}
