// Created by Crowbar 0.49.0.0

$modelname "weapons/tfa_cso/c_skull_3_b.mdl"

$Include "csonline_gmod.qci"

$bodygroup "weapon"
{
	studio "v_skull3L"
}
$bodygroup "weapon"
{
	studio "v_skull3R"
}

$CDMaterials "models\weapons\tfa_cso\skull_3\"

//$attachment 0 "skull3L_root" -1 4.5 1
$attachment 2 "skull3R_root" -0.5 -18 1.5
$attachment 1 "skull3L_root" -0.5 18 0
//$attachment 3 "skull3R_root" -1 -4.5 -0.5

$definebone "root" "" 0.000000 0.000000 0.000000 0.000000 0.000000 0.000000 0.000000 0.000000 0.000000 -0.000000 0.000000 0.000000
$definebone "Bone01" "root" 9.310103 0.168160 -0.149880 -0.012834 -89.771431 179.846260 0.000000 0.000000 0.000000 0.000000 0.000000 -0.000000
$definebone "Bone_Lefthand" "Bone01" -0.071918 -8.498729 -0.104137 16.111920 3.785016 8.977678 0.000000 0.000000 0.000000 0.000002 -0.000000 0.000000
$definebone "skull3L_root" "Bone_Lefthand" 6.490099 8.328846 5.946309 -71.668745 152.078631 115.661482 0.000000 0.000000 0.000000 -0.000000 -0.000002 0.000001
$definebone "Bone04" "root" -9.310107 0.236513 -0.105301 -0.574537 90.226281 -179.714451 0.000000 0.000000 0.000000 0.000000 -0.000000 0.000000
$definebone "Bone_Righthand" "Bone04" 0.096944 -8.450418 -0.009364 -17.068815 -0.267170 -1.888755 0.000000 0.000000 0.000000 -0.000001 0.000000 0.000000
$definebone "skull3R_root" "Bone_Righthand" -6.192626 17.475700 7.623898 -73.510889 -3.187421 -81.777583 0.000000 0.000000 0.000000 0.000000 0.000002 -0.000001
$definebone "magazine_L" "skull3L_root" 0.249077 5.246641 -0.000013 -0.000000 13.000007 -0.000056 0.000000 0.000000 0.000000 -0.000000 -0.000005 0.000001
$definebone "scope_L" "skull3L_root" -2.197709 3.248276 -0.000006 0.000000 179.999966 0.000056 0.000000 0.000000 -0.000001 0.000000 -0.000002 -0.000001
$definebone "trigger_L" "skull3L_root" 1.111351 2.047761 0.000000 -0.000000 -0.000002 0.000001 0.000000 0.000000 -0.000001 -0.000000 -0.000002 0.000001
$definebone "reload_L" "skull3L_root" -1.583560 10.474714 0.386643 -89.999983 90.000038 0.000000 0.000000 0.000000 0.000000 0.000001 -0.000000 -0.000002
$definebone "silencer_L" "skull3L_root" -0.609616 11.483509 -0.000013 0.000056 89.999983 -0.000000 0.000000 0.000000 0.000000 -0.000001 0.000002 -0.000000
$definebone "scope_R" "skull3R_root" -2.196302 -3.238963 0.258082 -0.624352 179.977386 4.133662 0.000000 0.000000 0.000000 0.000000 0.000002 0.000001
$definebone "reload_R" "skull3R_root" -1.583563 -10.474722 0.386644 89.999983 91.059380 0.000000 -0.000000 0.000000 0.000000 -0.000001 -0.000000 -0.000003
$definebone "magazine_R" "skull3R_root" 0.251131 -5.233088 0.375461 -0.320627 -12.988378 -4.168211 0.000000 0.000000 0.000000 0.000000 0.000002 0.000000
$definebone "silencer_R" "skull3R_root" -0.605068 -11.453403 0.834369 -4.133432 -89.977409 -0.626014 0.000000 0.000000 0.000000 -0.000000 -0.000002 -0.000000
$definebone "trigger_R" "skull3R_root" 1.112089 -2.042871 0.135495 0.624352 -0.022515 -4.133719 0.000000 0.000000 0.000000 0.000000 0.000002 -0.000000

$sequence "idle1" {
	"v_skull3_anims\idle1"
	fps 12
}
$sequence "reload1" {
	"v_skull3_anims\reload1"
	{ event 5004 16 "weapons/skull3_clipout.wav" }
	{ event 5004 50 "weapons/skull3_clipin.wav" }
	{ event 5004 75 "weapons/skull3_boltpull.wav" }
	fps 33
}
$sequence "draw1" {
	"v_skull3_anims\draw1"
	fps 30
}
$sequence "shoot1" {
	"v_skull3_anims\shoot1"
	{ event 5011 0 "31" }
	{ event 5011 0 "21" }
	fps 30
}
$sequence "shoot2" {
	"v_skull3_anims\shoot2"
	{ event 5011 0 "11" }
	{ event 5011 0 "11" }
	fps 30
}
$sequence "shoot3" {
	"v_skull3_anims\shoot3"
	{ event 5011 0 "31" }
	{ event 5011 0 "21" }
	fps 30
}
$sequence "idle" {
	"v_skull3_anims\idle"
	{ event 5004 183 "SKULL3.DualIdle" }
	{ event 5004 215 "SKULL3.DualIdle" }
	fps 30
	loop
	activity "ACT_VM_IDLE" 1
	snap
}
$sequence "idle_leftempty" {
	"v_skull3_anims\idle_leftempty"
	fps 30
}
$sequence "shoot_left1" {
	"v_skull3_anims\shoot_left1"
	{ event 5011 0 "31" }
	{ event 5011 0 "21" }
	fps 30
	activity "ACT_VM_PRIMARYATTACK" 1
	snap
}
$sequence "shoot_left2" {
	"v_skull3_anims\shoot_left2"
	{ event 5011 0 "21" }
	{ event 5011 0 "11" }
	fps 30
	activity "ACT_VM_PRIMARYATTACK" 1
	snap
}
$sequence "shoot_leftlast" {
	"v_skull3_anims\shoot_leftlast"
	{ event 5011 0 "31" }
	{ event 5011 0 "21" }
	fps 30
}
$sequence "shoot_right1" {
	"v_skull3_anims\shoot_right1"
	{ event 5021 0 "31" }
	{ event 5021 0 "21" }
	fps 30
	activity "ACT_VM_SECONDARYATTACK" 1
	snap
}
$sequence "shoot_right2" {
	"v_skull3_anims\shoot_right2"
	{ event 5021 0 "21" }
	{ event 5021 0 "11" }
	fps 30
	activity "ACT_VM_SECONDARYATTACK" 1
	snap
}
$sequence "shoot_rightlast" {
	"v_skull3_anims\shoot_rightlast"
	{ event 5021 0 "31" }
	{ event 5021 0 "21" }
	fps 30
}
$sequence "reload" {
	"v_skull3_anims\reload"
	{ event 5004 12 }
	{ event 5004 45 }
	{ event 5004 67 }
	fps 30
	activity "ACT_VM_RELOAD" 1
	snap
}
$sequence "draw2" {
	"v_skull3_anims\draw2"
	fps 30
	activity "ACT_VM_DRAW" 1
	snap
}
$sequence "draw3" {
	"v_skull3_anims\draw3"
	{ event 5004 78 "weapons/skull3_idle.wav" }
	fps 30
}
$sequence "draw4" {
	"v_skull3_anims\draw4"
	{ event 5004 75 "weapons/skull3_idle.wav" }
	fps 30
}
