// Created by Crowbar 0.34.0.0

$ModelName "weapons/tfa_cso/w_m24.mdl"

$BodyGroup "studio"
{
	studio "v_m24_NEXON_CSO_M24_Ref"
}

$collisionmodel "v_m24_NEXON_CSO_M24_Ref.smd"
{
	$mass 9
}

$CDMaterials "models\weapons\tfa_cso\m24"

$attachment "0" "root" -0.10 -22.00 -0.10 rotate -0 0 0

$Sequence "idle" {
	"anims\idle.smd"
	fps 30
}