// Created by Crowbar 0.49.0.0

$modelname "weapons/tfa_cso/c_kingcobra_v8.mdl"

$Include "csonline_gmod.qci"

$bodygroup "weapon"
{
	studio "v_kingcobra_v_ref_part1"
}
$bodygroup "weapon"
{
	studio "v_kingcobra_v_ref_part2"
}

$CDMaterials "models\weapons\tfa_cso\kingcobra_v8"

$attachment 0 "kingcobra_root" -6.5 8.5 0

$definebone "root" "" -0.210473 8.571821 -5.575703 0.000000 0.000000 0.000000 0.000000 0.000000 0.000000 -0.000000 0.000000 0.000000
$definebone "Bone01" "root" 9.520576 0.109563 -0.077451 -0.012834 -89.771431 179.846260 0.000000 0.000000 0.000000 0.000000 0.000000 -0.000000
$definebone "Bone_Lefthand" "Bone01" -0.071918 -8.498732 -0.104136 16.477753 0.853593 -1.435030 0.000000 0.000000 0.000000 0.000002 0.000000 -0.000000
$definebone "kingcobra_root" "Bone_Lefthand" 9.338124 17.820900 -3.045296 -42.125978 -178.963936 87.627134 0.000000 0.000000 0.000000 -0.000000 -0.000003 -0.000000
$definebone "kingcobra_rullet_root" "kingcobra_root" -1.657692 2.973032 0.164169 -0.000000 -58.626977 0.000057 0.000000 0.000000 0.000000 -0.000000 0.000010 -0.000000
$definebone "kingcobra_rullet" "kingcobra_rullet_root" 0.604844 -0.902698 -0.164169 -0.000000 0.000010 0.000114 0.000000 0.000000 0.000000 -0.000000 0.000010 -0.000000
$definebone "kingcobra_bullet01" "kingcobra_rullet" 1.714401 -0.237725 0.490262 0.001375 -179.999433 0.000000 0.000000 -0.000000 0.000000 0.000000 0.000010 0.000000
$definebone "kingcobra_bullet06" "kingcobra_rullet" 1.714236 0.522888 0.125190 -0.000687 -179.999911 0.000000 0.000000 0.000000 0.000000 0.000000 0.000010 0.000000
$definebone "kingcobra_bullet02" "kingcobra_rullet" 1.714236 -0.526998 0.124570 -0.000687 -179.999911 0.000000 0.000000 -0.000000 0.000000 0.000000 0.000010 0.000000
$definebone "kingcobra_bullet03" "kingcobra_rullet" 1.714231 -0.416098 -0.325441 -0.000687 -179.999911 0.000000 0.000000 0.000000 0.000000 0.000000 0.000010 0.000000
$definebone "kingcobra_bullet07" "kingcobra_rullet" 1.714241 0.238124 0.488730 -0.000687 -179.999911 0.000000 0.000000 0.000000 0.000000 0.000000 0.000010 0.000000
$definebone "kingcobra_bullet05" "kingcobra_rullet" 1.714230 0.412034 -0.322158 -0.000687 -179.999911 0.000000 0.000000 0.000000 0.000000 0.000000 0.000010 0.000000
$definebone "kingcobra_bullet04" "kingcobra_rullet" 1.714229 -0.001262 -0.525064 -0.000687 -179.999911 0.000000 0.000000 -0.000000 0.000000 0.000000 0.000010 0.000000
$definebone "kingcobra_trigger" "kingcobra_root" -0.501995 0.916654 -0.000000 0.000000 44.437679 -0.000000 0.000000 0.000000 0.000000 0.000000 -0.000009 -0.000000
$definebone "kingcobra_" "kingcobra_root" -0.607995 0.430350 -0.000000 -0.000000 -108.939852 0.000000 0.000000 0.000000 0.000000 -0.000000 -0.000003 0.000000
$definebone "kingcobra_rullet02" "kingcobra_root" 2.834129 -6.128996 0.056661 -0.000000 -58.626977 -0.000000 0.000000 0.000000 0.000000 -0.000000 0.000010 -0.000000
$definebone "kingcobra_bullet_reload" "kingcobra_rullet02" -0.296788 0.002450 -0.030843 0.000000 179.999966 0.000000 0.000000 -0.000000 0.000000 0.000000 0.000010 0.000000

$sequence "idle1" {
	"v_kingcobra_anims\idle1"
	fps 30
	loop
	activity "ACT_VM_IDLE" 1
	snap
}
$sequence "shoot1" {
	"v_kingcobra_anims\shoot1"
	{ event 5001 0 "#I1 S0.14 R2 F0 P30 T0.01 A1 L0 O0" }
	fps 30
	activity "ACT_VM_PRIMARYATTACK" 1
	snap
}
$sequence "shoot2" {
	"v_kingcobra_anims\shoot2"
	{ event 5001 0 "#I2 S0.14 R2 F0 P30 T0.01 A1 L0 O0" }
	fps 30
	activity "ACT_VM_PRIMARYATTACK" 2
	snap
}
$sequence "shoot_empty" {
	"v_kingcobra_anims\shoot_empty"
	fps 30
}
$sequence "reload" {
	"v_kingcobra_anims\reload"
	{ event 5004 17 "KingCobra.ClipOut" }
	{ event 5004 65 "KingCobra.ClipIn" }
	fps 30
	activity "ACT_VM_RELOAD" 1
	snap
}
$sequence "draw" {
	"v_kingcobra_anims\draw"
	{ event 5004 10 "KingCobra.Draw" }
	fps 30
	activity "ACT_VM_DRAW" 1
	snap
}
