// Created by Crowbar 0.49.0.0

$modelname "weapons/tfa_cso/c_g11g.mdl"

$Include "csonline_gmod.qci"

$bodygroup "weapon"
{
	studio "v_g11g_v_ref"
}

$CDMaterials "models\weapons\tfa_cso\g11g\"

$attachment 0 "hk-g11_root" -6.3 11 0

$definebone "root" "" 1.167522 7.992100 -11.957611 0.000000 0.000000 0.000000 0.000000 0.000000 0.000000 -0.000000 0.000000 0.000000
$definebone "Bone01" "root" 9.310102 0.826757 0.648823 -0.012834 -89.771431 179.846260 0.000000 0.000000 0.000001 0.000000 0.000000 -0.000000
$definebone "Bone_Lefthand" "Bone01" -0.071920 -8.498735 -0.104136 16.477753 0.853593 -1.435030 0.000000 0.000000 0.000000 0.000002 0.000000 -0.000000
$definebone "hk-g11_root" "Bone_Lefthand" 18.700277 18.767208 1.217421 -51.121590 -178.372359 87.195869 0.000000 0.000000 0.000000 -0.000000 0.000005 0.000000
$definebone "hk-g11_bullet" "hk-g11_root" -4.694042 4.765072 0.000002 -0.000000 112.368320 -0.000000 0.000000 0.000000 0.000000 -0.000000 0.000000 -0.000000
$definebone "hk-g11_handle01" "hk-g11_root" 0.471630 -4.176224 -0.013908 -89.999983 22.368276 0.000000 -0.000000 0.000000 0.000000 0.000000 0.000000 -0.000000
$definebone "hk-g11_handle02" "hk-g11_handle01" 0.798002 0.010359 -0.002600 89.999983 -0.000115 0.000000 -0.000000 0.000000 0.000000 -0.000000 0.000000 0.000000
$definebone "hk-g11_trigger" "hk-g11_root" -0.633172 1.164522 0.000000 -0.000000 31.089953 0.000000 0.000000 0.000000 0.000000 -0.000000 -0.000003 0.000000

$sequence "idle" {
	"v_g11g_anims\idle"
	fps 30
	loop
	activity "ACT_VM_IDLE" 1
	snap
}
$sequence "reload" {
	"v_g11g_anims\reload"
	{ event 5004 20 "G11.ClipOut" }
	{ event 5004 45 "G11.ClipIn1" }
	{ event 5004 65 "G11.ClipIn2" }
	fps 30
	activity "ACT_VM_RELOAD" 1
	snap
}
$sequence "draw" {
	"v_g11g_anims\draw"
	{ event 5004 2 "G11.Draw" }
	fps 30
	activity "ACT_VM_DRAW" 1
	snap
}
$sequence "shoot1" {
	"v_g11g_anims\shoot1"
	{ event 5001 0 "#I2 S0.15 R2 F0 P30 T0.01 A1 L0 O0" }
	fps 30
	activity "ACT_VM_PRIMARYATTACK" 1
	snap
}
$sequence "shoot2" {
	"v_g11g_anims\shoot2"
	{ event 5001 0 "#I2 S0.15 R2 F0 P30 T0.01 A1 L0 O0" }
	fps 30
	activity "ACT_VM_PRIMARYATTACK" 2
	snap
}
$sequence "shoot3" {
	"v_g11g_anims\shoot3"
	{ event 5001 0 "#I2 S0.15 R2 F0 P30 T0.01 A1 L0 O0" }
	fps 30
	activity "ACT_VM_PRIMARYATTACK" 3
	snap
}
