version 1
nodes
  0 "Bone01" -1
  1 "Bone_Lefthand" 0
  2 "Bone_SL8" 1
  3 "Bone_Magazine" 2
  4 "Bone_Bullet_HoTo" 3
  5 "Bone_Nori" 2
  6 "Bone_Nori_T" 5
  7 "Bone_Trigger" 2
  8 "Bone_bullet_Cover" 2
  9 "Bone_Magazine_Trigger" 2
  10 "Bone04" -1
  11 "Bone_Righthand" 10
  12 "Bone27" 11
  13 "Bone28" 12
  14 "Bone29" 13
  15 "Bone31" 11
  16 "Bone32" 15
  17 "Bone33" 16
  18 "Bone35" 11
  19 "Bone36" 18
  20 "Bone37" 19
  21 "Bone39" 11
  22 "Bone40" 21
  23 "Bone41" 22
  24 "Bone43" 11
  25 "Bone44" 24
  26 "Bone45" 25
  27 "Bone_Se_Hand-R" 11
  28 "Bone05" 1
  29 "Bone06" 28
  30 "Bone07" 29
  31 "Bone21" 1
  32 "Bone22" 31
  33 "Bone23" 32
  34 "Bone17" 1
  35 "Bone18" 34
  36 "Bone19" 35
  37 "Bone13" 1
  38 "Bone14" 37
  39 "Bone15" 38
  40 "Bone09" 1
  41 "Bone10" 40
  42 "Bone11" 41
  43 "Bone_Se_Hand-L" 1
end
skeleton
  time 0
    0 9.190849 4.323711 -10.883529 0.915349 -2.133901 -1.356482
    1 -0.071918 -8.498731 -0.104136 0.366629 0.460867 -0.343313
    2 1.231110 -1.646805 1.167199 0.283770 1.487099 0.248230
    3 -0.018918 -5.204151 1.209771 0.000000 0.000000 0.000000
    4 -0.106210 -0.041607 0.105814 0.000000 -1.570796 0.000000
    5 -0.006608 -3.612262 2.875793 0.000000 0.000000 0.000000
    6 0.000031 -0.420787 -0.134254 0.000000 0.000000 0.000000
    7 -0.086616 -2.846228 0.453552 0.538779 0.000000 0.000000
    8 -0.086616 -3.664953 1.961809 0.000000 0.000000 0.000000
    9 -0.086616 -4.262175 -0.301127 0.000000 0.000000 0.000000
    10 -1.843318 -6.974583 -8.748608 -0.533650 0.489833 0.410190
    11 0.096947 -8.450419 -0.009363 0.499771 -0.512172 0.095318
    12 -0.586768 -1.264477 0.200164 -0.205127 -0.520466 -2.473499
    13 1.522834 0.058679 0.016851 0.289929 -0.037404 0.121639
    14 1.117947 0.048425 -0.005765 0.224879 -0.014513 0.107011
    15 -0.963867 -2.785143 -0.085346 -0.534770 -0.046320 0.035343
    16 0.028478 -1.403067 0.006271 -1.585394 0.000000 0.000000
    17 0.021414 -0.957781 0.020047 -1.007036 -0.248776 0.191909
    18 -0.249534 -2.846963 -0.174215 -0.881820 -0.052696 0.090280
    19 0.043234 -1.683940 0.096014 -1.837724 0.000000 0.000000
    20 0.031729 -1.160831 0.058836 -1.246304 0.000000 0.000000
    21 0.447952 -2.798983 -0.200441 -1.144028 0.037894 0.168005
    22 -0.032909 -1.480207 0.004936 -1.659992 0.000000 0.000000
    23 -0.027022 -1.076920 -0.020212 -0.972712 0.000000 0.000000
    24 1.164474 -2.543939 -0.170327 -1.340445 -0.035155 0.207255
    25 0.024032 -1.129040 0.017805 -1.441949 0.000000 0.000000
    26 0.014896 -0.883992 -0.019845 -0.763542 0.000000 0.000000
    27 -0.130622 -0.116383 -0.021176 0.289586 0.093244 1.456062
    28 0.583509 -1.197274 0.185379 0.167141 -0.668981 -0.728004
    29 1.535926 0.010247 0.005008 -0.097416 -0.205560 -1.019483
    30 1.100770 0.004528 -0.010675 0.000000 0.000000 -0.250166
    31 0.957766 -2.746777 -0.090301 -0.334120 0.035355 0.063678
    32 -0.033419 -1.397127 -0.011256 -0.768690 0.000000 0.000000
    33 -0.022361 -0.957434 0.018783 -1.041346 0.000000 0.000000
    34 0.250029 -2.820664 -0.238397 -0.618475 0.127049 -0.341497
    35 -0.049759 -1.680544 0.100479 -1.815466 0.077876 -0.019415
    36 -0.034141 -1.148310 0.084779 -0.997595 -0.031376 -0.015448
    37 -0.488517 -2.755600 -0.228262 -0.877258 0.177036 -0.438099
    38 0.039889 -1.479791 0.029854 -1.520913 0.000000 0.000000
    39 0.028786 -1.075733 -0.023111 -1.058310 0.000000 0.000000
    40 -1.180679 -2.507216 -0.193861 -1.019141 0.319461 -0.426610
    41 -0.024967 -1.123934 0.017594 -0.936346 0.000000 0.000000
    42 -0.020058 -0.890964 0.010091 -1.193241 0.000000 0.000000
    43 0.092807 -0.054173 -0.097459 3.122270 6.118195 -1.569909
  time 1
    0 9.190849 4.515123 -10.942124 0.925108 -2.139918 -1.364636
    1 -0.071918 -8.498731 -0.104136 0.370058 0.457049 -0.332162
    2 1.231110 -1.646805 1.167199 0.283770 1.487099 0.248230
    3 -0.018918 -5.204151 1.209771 0.000000 0.000000 0.000000
    4 -0.106210 -0.041607 0.422229 0.000000 -1.570796 0.000000
    5 -0.006608 -4.002899 2.875793 0.000000 0.000000 0.000000
    6 0.000031 -0.420787 -0.134254 0.000000 0.000000 0.000000
    7 -0.086616 -2.846228 0.453552 0.512437 0.000000 0.000000
    8 -0.086616 -3.664953 1.961809 0.000000 0.000000 0.000000
    9 -0.086616 -4.262175 -0.301127 0.000000 0.000000 0.000000
    10 -2.437086 -7.392565 -8.748608 -0.577056 0.526157 0.480977
    11 0.096947 -8.450419 -0.009363 0.588577 -0.481461 -0.018221
    12 -0.586768 -1.264477 0.200164 -0.185741 -0.527482 -2.512431
    13 1.522834 0.058679 0.016851 0.289450 -0.041186 0.134322
    14 1.117947 0.048425 -0.005765 0.223812 -0.024940 0.152801
    15 -0.963867 -2.785143 -0.085346 -0.534770 -0.046320 0.035343
    16 0.028478 -1.403067 0.006271 -1.585394 0.000000 0.000000
    17 0.021414 -0.957781 0.020047 -1.007036 -0.248776 0.191909
    18 -0.249534 -2.846963 -0.174215 -0.881820 -0.052696 0.090280
    19 0.043234 -1.683940 0.096014 -1.837724 0.000000 0.000000
    20 0.031729 -1.160831 0.058836 -1.246304 0.000000 0.000000
    21 0.447952 -2.798983 -0.200441 -1.144028 0.037894 0.167993
    22 -0.032909 -1.480207 0.004936 -1.659992 0.000000 0.000000
    23 -0.027022 -1.076920 -0.020212 -0.972663 0.000000 0.000000
    24 1.164474 -2.543939 -0.170327 -1.340445 -0.035155 0.207255
    25 0.024032 -1.129040 0.017805 -1.441949 0.000000 0.000000
    26 0.014896 -0.883992 -0.019845 -0.763542 0.000000 0.000000
    27 -0.130622 -0.116383 -0.021176 0.289586 0.093244 1.456062
    28 0.583509 -1.197274 0.185379 0.167141 -0.668981 -0.728004
    29 1.535926 0.010247 0.005008 -0.097416 -0.205560 -1.019483
    30 1.100770 0.004528 -0.010675 0.000000 0.000000 -0.250166
    31 0.957766 -2.746777 -0.090301 -0.334120 0.035355 0.063678
    32 -0.033419 -1.397127 -0.011256 -0.762716 0.000000 0.000000
    33 -0.022361 -0.957434 0.018783 -1.076439 0.000000 0.000000
    34 0.250029 -2.820664 -0.238397 -0.618475 0.127049 -0.341497
    35 -0.049759 -1.680544 0.100479 -1.815466 0.077876 -0.019415
    36 -0.034141 -1.148310 0.084779 -0.997595 -0.031376 -0.015448
    37 -0.488517 -2.755600 -0.228262 -0.877258 0.177036 -0.438099
    38 0.039889 -1.479791 0.029854 -1.520913 0.000000 0.000000
    39 0.028786 -1.075733 -0.023111 -1.058310 0.000000 0.000000
    40 -1.180679 -2.507216 -0.193861 -1.019141 0.319461 -0.426610
    41 -0.024967 -1.123934 0.017594 -0.936346 0.000000 0.000000
    42 -0.020058 -0.890964 0.010091 -1.193241 0.000000 0.000000
    43 0.092807 -0.054173 -0.097459 3.122270 6.118195 -1.569909
  time 2
    0 9.194756 4.835445 -11.004626 0.935043 -2.146151 -1.373061
    1 -0.071918 -8.498731 -0.104136 0.364339 0.464208 -0.352194
    2 1.231110 -1.646805 1.167199 0.283770 1.487099 0.248230
    3 -0.018918 -5.204151 1.209771 0.000000 0.000000 0.000000
    4 -0.106210 -0.041607 0.734739 0.000000 -1.570796 0.000000
    5 -0.006608 -4.831049 2.875793 0.000000 0.000000 0.000000
    6 0.000031 -0.420787 -0.134254 0.000000 0.000000 0.000000
    7 -0.086616 -2.846228 0.453552 0.445907 0.000000 0.000000
    8 -0.086616 -4.500916 1.961809 0.000000 0.000000 0.000000
    9 -0.086616 -4.262175 -0.301127 0.000000 0.000000 0.000000
    10 -2.284738 -7.091774 -8.732983 -0.565519 0.522515 0.474802
    11 0.096947 -8.450419 -0.009363 0.577130 -0.480763 0.011037
    12 -0.586768 -1.264477 0.200164 -0.190798 -0.525597 -2.502266
    13 1.522834 0.058679 0.016851 0.289689 -0.039367 0.128258
    14 1.117947 0.048425 -0.005765 0.222134 -0.034336 0.194418
    15 -0.963867 -2.785143 -0.085346 -0.534770 -0.046320 0.035343
    16 0.028478 -1.403067 0.006271 -1.585394 0.000000 0.000000
    17 0.021414 -0.957781 0.020047 -1.007036 -0.248776 0.191909
    18 -0.249534 -2.846963 -0.174215 -0.881820 -0.052696 0.090280
    19 0.043234 -1.683940 0.096014 -1.837724 0.000000 0.000000
    20 0.031729 -1.160831 0.058836 -1.246304 0.000000 0.000000
    21 0.447952 -2.798983 -0.200441 -1.144028 0.037894 0.167993
    22 -0.032909 -1.480207 0.004936 -1.659992 0.000000 0.000000
    23 -0.027022 -1.076920 -0.020212 -0.972712 0.000000 0.000000
    24 1.164474 -2.543939 -0.170327 -1.340445 -0.035155 0.207255
    25 0.024032 -1.129040 0.017805 -1.441949 0.000000 0.000000
    26 0.014896 -0.883992 -0.019845 -0.763542 0.000000 0.000000
    27 -0.130622 -0.116383 -0.021176 0.289586 0.093244 1.456062
    28 0.583509 -1.197274 0.185379 0.167141 -0.668981 -0.728004
    29 1.535926 0.010247 0.005008 -0.097416 -0.205560 -1.019483
    30 1.100770 0.004528 -0.010675 0.000000 0.000000 -0.250166
    31 0.957766 -2.746777 -0.090301 -0.334120 0.035355 0.063678
    32 -0.033419 -1.397127 -0.011256 -0.740063 0.000000 0.000000
    33 -0.022361 -0.957434 0.018783 -1.096379 0.000000 0.000000
    34 0.250029 -2.820664 -0.238397 -0.618475 0.127049 -0.341497
    35 -0.049759 -1.680544 0.100479 -1.815466 0.077876 -0.019415
    36 -0.034141 -1.148310 0.084779 -0.997595 -0.031376 -0.015448
    37 -0.488517 -2.755600 -0.228262 -0.877258 0.177036 -0.438099
    38 0.039889 -1.479791 0.029854 -1.520913 0.000000 0.000000
    39 0.028786 -1.075733 -0.023111 -1.058310 0.000000 0.000000
    40 -1.180679 -2.507216 -0.193861 -1.019141 0.319461 -0.426610
    41 -0.024967 -1.123934 0.017594 -0.936346 0.000000 0.000000
    42 -0.020058 -0.890964 0.010091 -1.193241 0.000000 0.000000
    43 0.092807 -0.054173 -0.097459 3.122270 6.118195 -1.569909
  time 3
    0 9.190849 5.124517 -11.059315 0.942780 -2.150944 -1.379545
    1 -0.071918 -8.498731 -0.104136 0.359233 0.470254 -0.369899
    2 1.231110 -1.646805 1.167199 0.283770 1.487099 0.248230
    3 -0.018918 -5.204151 1.209771 0.000000 0.000000 0.000000
    4 -0.106210 -0.041607 0.680050 0.000000 -1.570796 0.000000
    5 -0.006608 -6.049836 2.875793 0.000000 0.000000 0.000000
    6 0.000031 -0.420787 -0.134254 0.000000 0.000000 0.000000
    7 -0.086616 -2.846228 0.453552 0.358035 0.000000 0.000000
    8 -0.086616 -5.297815 1.961809 0.000000 0.000000 0.000000
    9 -0.086616 -4.262175 -0.301127 0.000000 0.000000 0.000000
    10 -1.769097 -6.427692 -8.717357 -0.540885 0.492133 0.414600
    11 0.096947 -8.450419 -0.009363 0.519136 -0.494402 0.108792
    12 -0.586768 -1.264477 0.200164 -0.202822 -0.521132 -2.478041
    13 1.522834 0.058679 0.016851 0.290253 -0.035207 0.114252
    14 1.117947 0.048425 -0.005765 0.221008 -0.039753 0.218550
    15 -0.963867 -2.785143 -0.085346 -0.534770 -0.046320 0.035343
    16 0.028478 -1.403067 0.006271 -1.585394 0.000000 0.000000
    17 0.021414 -0.957781 0.020047 -1.007036 -0.248776 0.191909
    18 -0.249534 -2.846963 -0.174215 -0.881820 -0.052696 0.090280
    19 0.043234 -1.683940 0.096014 -1.837724 0.000000 0.000000
    20 0.031729 -1.160831 0.058836 -1.246304 0.000000 0.000000
    21 0.447952 -2.798983 -0.200441 -1.144028 0.037894 0.167993
    22 -0.032909 -1.480207 0.004936 -1.659992 0.000000 0.000000
    23 -0.027022 -1.076920 -0.020212 -0.972712 0.000000 0.000000
    24 1.164474 -2.543939 -0.170327 -1.340445 -0.035155 0.207255
    25 0.024032 -1.129040 0.017805 -1.441949 0.000000 0.000000
    26 0.014896 -0.883992 -0.019845 -0.763542 0.000000 0.000000
    27 -0.130622 -0.116383 -0.021176 0.289586 0.093244 1.456062
    28 0.583509 -1.197274 0.185379 0.167141 -0.668981 -0.728004
    29 1.535926 0.010247 0.005008 -0.097416 -0.205560 -1.019483
    30 1.100770 0.004528 -0.010675 0.000000 0.000000 -0.250166
    31 0.957766 -2.746777 -0.090301 -0.334120 0.035355 0.063678
    32 -0.033419 -1.397127 -0.011256 -0.693685 0.000000 0.000000
    33 -0.022361 -0.957434 0.018783 -1.102702 0.000000 0.000000
    34 0.250029 -2.820664 -0.238397 -0.618475 0.127049 -0.341497
    35 -0.049759 -1.680544 0.100479 -1.815466 0.077876 -0.019415
    36 -0.034141 -1.148310 0.084779 -0.997595 -0.031376 -0.015448
    37 -0.488517 -2.755600 -0.228262 -0.877258 0.177036 -0.438099
    38 0.039889 -1.479791 0.029854 -1.520913 0.000000 0.000000
    39 0.028786 -1.075733 -0.023111 -1.058310 0.000000 0.000000
    40 -1.180679 -2.507216 -0.193861 -1.019141 0.319461 -0.426610
    41 -0.024967 -1.123934 0.017594 -0.936346 0.000000 0.000000
    42 -0.020058 -0.890964 0.010091 -1.193241 0.000000 0.000000
    43 0.092807 -0.054173 -0.097459 3.122270 6.118195 -1.569909
  time 4
    0 9.179130 5.319835 -11.098379 0.946209 -2.152997 -1.382457
    1 -0.071918 -8.498731 -0.104136 0.358720 0.470095 -0.372618
    2 1.231110 -1.646805 1.167199 0.283770 1.487099 0.248230
    3 -0.018918 -5.204151 1.209771 0.000000 0.000000 0.000000
    4 -0.106210 -0.041607 0.707394 0.000000 -1.570796 0.000000
    5 -0.006608 -7.116275 2.875793 0.000000 0.000000 0.000000
    6 0.000031 -0.420787 -0.134254 0.000000 0.000000 0.000000
    7 -0.086616 -2.846228 0.453552 0.267597 0.000000 0.000000
    8 -0.086616 -5.961898 1.961809 0.000000 0.000000 0.000000
    9 -0.086616 -4.262175 -0.301127 0.000000 0.000000 0.000000
    10 -1.343303 -5.904238 -8.748608 -0.533339 0.463380 0.355868
    11 0.096947 -8.450419 -0.009363 0.480646 -0.506491 0.181832
    12 -0.586768 -1.264477 0.200164 -0.217150 -0.515780 -2.449112
    13 1.522834 0.058679 0.016851 0.290852 -0.030561 0.098624
    14 1.117947 0.048425 -0.005765 0.221260 -0.039645 0.218005
    15 -0.963867 -2.785143 -0.085346 -0.534770 -0.046320 0.035343
    16 0.028478 -1.403067 0.006271 -1.585394 0.000000 0.000000
    17 0.021414 -0.957781 0.020047 -1.007036 -0.248776 0.191909
    18 -0.249534 -2.846963 -0.174215 -0.881820 -0.052696 0.090280
    19 0.043234 -1.683940 0.096014 -1.837724 0.000000 0.000000
    20 0.031729 -1.160831 0.058836 -1.246304 0.000000 0.000000
    21 0.447952 -2.798983 -0.200441 -1.144028 0.037894 0.167993
    22 -0.032909 -1.480207 0.004936 -1.659992 0.000000 0.000000
    23 -0.027022 -1.076920 -0.020212 -0.972712 0.000000 0.000000
    24 1.164474 -2.543939 -0.170327 -1.340445 -0.035155 0.207255
    25 0.024032 -1.129040 0.017805 -1.441949 0.000000 0.000000
    26 0.014896 -0.883992 -0.019845 -0.763542 0.000000 0.000000
    27 -0.130622 -0.116383 -0.021176 0.289586 0.093244 1.456062
    28 0.583509 -1.197274 0.185379 0.167141 -0.668981 -0.728004
    29 1.535926 0.010247 0.005008 -0.097416 -0.205560 -1.019483
    30 1.100770 0.004528 -0.010675 0.000000 0.000000 -0.250166
    31 0.957766 -2.746777 -0.090301 -0.334120 0.035355 0.063678
    32 -0.033419 -1.397127 -0.011256 -0.616505 0.000000 0.000000
    33 -0.022361 -0.957434 0.018783 -1.058144 0.000000 0.000000
    34 0.250029 -2.820664 -0.238397 -0.618475 0.127049 -0.341497
    35 -0.049759 -1.680544 0.100479 -1.815466 0.077876 -0.019415
    36 -0.034141 -1.148310 0.084779 -0.997595 -0.031376 -0.015448
    37 -0.488517 -2.755600 -0.228262 -0.877258 0.177036 -0.438099
    38 0.039889 -1.479791 0.029854 -1.520913 0.000000 0.000000
    39 0.028786 -1.075733 -0.023111 -1.058310 0.000000 0.000000
    40 -1.180679 -2.507216 -0.193861 -1.019141 0.319461 -0.426610
    41 -0.024967 -1.123934 0.017594 -0.936346 0.000000 0.000000
    42 -0.020058 -0.890964 0.010091 -1.193241 0.000000 0.000000
    43 0.092807 -0.054173 -0.097459 3.122270 6.118195 -1.569909
  time 5
    0 9.155692 5.460464 -11.129630 0.945593 -2.152493 -1.381952
    1 -0.071918 -8.498731 -0.104136 0.359946 0.467072 -0.370681
    2 1.231110 -1.646805 1.167199 0.283770 1.487099 0.248230
    3 -0.018918 -5.204151 1.209771 0.000000 0.000000 0.000000
    4 -0.106210 -0.041607 0.734739 0.000000 -1.570796 0.000000
    5 -0.006608 -7.276436 2.875793 0.000000 0.000000 0.000000
    6 0.000031 -0.420787 -0.134254 0.000000 0.000000 0.000000
    7 -0.086616 -2.846228 0.453552 0.144865 0.000000 0.000000
    8 -0.086616 -6.239250 1.961809 0.000000 0.000000 0.000000
    9 -0.086616 -4.262175 -0.301127 0.000000 0.000000 0.000000
    10 -1.198767 -5.740171 -8.865799 -0.546497 0.450921 0.331685
    11 0.096947 -8.450419 -0.009363 0.491575 -0.511443 0.191603
    12 -0.586768 -1.264477 0.200164 -0.229174 -0.511287 -2.424887
    13 1.522834 0.058679 0.016851 0.291212 -0.027320 0.087777
    14 1.117947 0.048425 -0.005765 0.221799 -0.039262 0.216097
    15 -0.963867 -2.785143 -0.085346 -0.534770 -0.046320 0.035343
    16 0.028478 -1.403067 0.006271 -1.585394 0.000000 0.000000
    17 0.021414 -0.957781 0.020047 -1.007036 -0.248776 0.191909
    18 -0.249534 -2.846963 -0.174215 -0.881820 -0.052696 0.090280
    19 0.043234 -1.683940 0.096014 -1.837724 0.000000 0.000000
    20 0.031729 -1.160831 0.058836 -1.246304 0.000000 0.000000
    21 0.447952 -2.798983 -0.200441 -1.144028 0.037894 0.167993
    22 -0.032909 -1.480207 0.004936 -1.659992 0.000000 0.000000
    23 -0.027022 -1.076920 -0.020212 -0.972712 0.000000 0.000000
    24 1.164474 -2.543939 -0.170327 -1.340445 -0.035155 0.207255
    25 0.024032 -1.129040 0.017805 -1.441949 0.000000 0.000000
    26 0.014896 -0.883992 -0.019845 -0.763542 0.000000 0.000000
    27 -0.130622 -0.116383 -0.021176 0.289586 0.093244 1.456062
    28 0.583509 -1.197274 0.185379 0.167141 -0.668981 -0.728004
    29 1.535926 0.010247 0.005008 -0.097416 -0.205560 -1.019483
    30 1.100770 0.004528 -0.010675 0.000000 0.000000 -0.250166
    31 0.957766 -2.746777 -0.090301 -0.334120 0.035355 0.063678
    32 -0.033419 -1.397127 -0.011256 -0.441529 0.000000 0.000000
    33 -0.022361 -0.957434 0.018783 -0.946731 0.000000 0.000000
    34 0.250029 -2.820664 -0.238397 -0.618475 0.127049 -0.341497
    35 -0.049759 -1.680544 0.100479 -1.815466 0.077876 -0.019415
    36 -0.034141 -1.148310 0.084779 -0.997595 -0.031376 -0.015448
    37 -0.488517 -2.755600 -0.228262 -0.877258 0.177036 -0.438099
    38 0.039889 -1.479791 0.029854 -1.520913 0.000000 0.000000
    39 0.028786 -1.075733 -0.023111 -1.058310 0.000000 0.000000
    40 -1.180679 -2.507216 -0.193861 -1.019141 0.319461 -0.426610
    41 -0.024967 -1.123934 0.017594 -0.936346 0.000000 0.000000
    42 -0.020058 -0.890964 0.010091 -1.193241 0.000000 0.000000
    43 0.092807 -0.054173 -0.097459 3.122270 6.118195 -1.569909
  time 6
    0 9.124441 5.554217 -11.149162 0.941813 -2.149935 -1.378846
    1 -0.071918 -8.498731 -0.104136 0.362424 0.461981 -0.365067
    2 1.231110 -1.646805 1.167199 0.283770 1.487099 0.248230
    3 -0.018918 -5.204151 1.209771 0.000000 0.000000 0.000000
    4 -0.106210 -0.041607 0.734739 0.000000 -1.570796 0.000000
    5 -0.006608 -7.147526 2.875793 0.000000 0.000000 0.000000
    6 0.000031 -0.420787 -0.134254 0.000000 0.000000 0.000000
    7 -0.086616 -2.846228 0.453552 0.006446 0.000000 0.000000
    8 -0.086616 -6.239250 1.961809 0.000000 0.000000 0.000000
    9 -0.086616 -4.262175 -0.301127 0.000000 0.000000 0.000000
    10 -1.175329 -5.767515 -9.053305 -0.574187 0.444308 0.321026
    11 0.096947 -8.450419 -0.009363 0.521988 -0.514845 0.176685
    12 -0.586768 -1.264477 0.200164 -0.234231 -0.509402 -2.414721
    13 1.522834 0.058679 0.016851 0.291044 -0.027356 0.088034
    14 1.117947 0.048425 -0.005765 0.222266 -0.038542 0.212512
    15 -0.963867 -2.785143 -0.085346 -0.534770 -0.046320 0.035343
    16 0.028478 -1.403067 0.006271 -1.585394 0.000000 0.000000
    17 0.021414 -0.957781 0.020047 -1.007036 -0.248776 0.191909
    18 -0.249534 -2.846963 -0.174215 -0.881820 -0.052696 0.090280
    19 0.043234 -1.683940 0.096014 -1.837724 0.000000 0.000000
    20 0.031729 -1.160831 0.058836 -1.246304 0.000000 0.000000
    21 0.447952 -2.798983 -0.200441 -1.144028 0.037894 0.168005
    22 -0.032909 -1.480207 0.004936 -1.659992 0.000000 0.000000
    23 -0.027022 -1.076920 -0.020212 -0.972712 0.000000 0.000000
    24 1.164474 -2.543939 -0.170327 -1.340445 -0.035155 0.207255
    25 0.024032 -1.129040 0.017805 -1.441949 0.000000 0.000000
    26 0.014896 -0.883992 -0.019845 -0.763542 0.000000 0.000000
    27 -0.130622 -0.116383 -0.021176 0.289586 0.093244 1.456062
    28 0.583509 -1.197274 0.185379 0.167141 -0.668981 -0.728004
    29 1.535926 0.010247 0.005008 -0.097416 -0.205560 -1.019483
    30 1.100770 0.004528 -0.010675 0.000000 0.000000 -0.250166
    31 0.957766 -2.746777 -0.090301 -0.334120 0.035355 0.063678
    32 -0.033419 -1.397127 -0.011256 -0.216032 0.000000 0.000000
    33 -0.022361 -0.957434 0.018783 -0.801872 0.000000 0.000000
    34 0.250029 -2.820664 -0.238397 -0.618475 0.127049 -0.341497
    35 -0.049759 -1.680544 0.100479 -1.815466 0.077876 -0.019415
    36 -0.034141 -1.148310 0.084779 -0.997595 -0.031376 -0.015448
    37 -0.488517 -2.755600 -0.228262 -0.877258 0.177036 -0.438099
    38 0.039889 -1.479791 0.029854 -1.520913 0.000000 0.000000
    39 0.028786 -1.075733 -0.023111 -1.058310 0.000000 0.000000
    40 -1.180679 -2.507216 -0.193861 -1.019141 0.319461 -0.426610
    41 -0.024967 -1.123934 0.017594 -0.936346 0.000000 0.000000
    42 -0.020058 -0.890964 0.010091 -1.193241 0.000000 0.000000
    43 0.092807 -0.054173 -0.097459 3.122270 6.118195 -1.569909
  time 7
    0 9.085377 5.605000 -11.156975 0.935834 -2.146007 -1.373838
    1 -0.071918 -8.498731 -0.104136 0.365665 0.455578 -0.356831
    2 1.231110 -1.646805 1.167199 0.283770 1.487099 0.248230
    3 -0.018918 -5.204151 1.209771 0.000000 0.000000 0.000000
    4 -0.106210 -0.041607 0.734739 0.000000 -1.570796 0.000000
    5 -0.006608 -7.135807 2.875793 0.000000 0.000000 0.000000
    6 0.000031 -0.420787 -0.134254 0.000000 0.000000 0.000000
    7 -0.086616 -2.846228 0.453552 -0.059311 0.000000 0.000000
    8 -0.086616 -6.239250 1.961809 0.000000 0.000000 0.000000
    9 -0.086616 -4.262175 -0.301127 0.000000 0.000000 0.000000
    10 -1.226112 -5.908145 -9.272061 -0.609111 0.440953 0.317865
    11 0.096947 -8.450419 -0.009363 0.548033 -0.517427 0.159665
    12 -0.586768 -1.264477 0.200164 -0.232991 -0.509845 -2.417227
    13 1.522834 0.058679 0.016851 0.290157 -0.031876 0.103406
    14 1.117947 0.048425 -0.005765 0.222590 -0.036865 0.204670
    15 -0.963867 -2.785143 -0.085346 -0.534770 -0.046320 0.035343
    16 0.028478 -1.403067 0.006271 -1.585394 0.000000 0.000000
    17 0.021414 -0.957781 0.020047 -1.007036 -0.248776 0.191909
    18 -0.249534 -2.846963 -0.174215 -0.881820 -0.052696 0.090280
    19 0.043234 -1.683940 0.096014 -1.837724 0.000000 0.000000
    20 0.031729 -1.160831 0.058836 -1.246304 0.000000 0.000000
    21 0.447952 -2.798983 -0.200441 -1.144028 0.037894 0.167993
    22 -0.032909 -1.480207 0.004936 -1.659992 0.000000 0.000000
    23 -0.027022 -1.076920 -0.020212 -0.972712 0.000000 0.000000
    24 1.164474 -2.543939 -0.170327 -1.340445 -0.035155 0.207255
    25 0.024032 -1.129040 0.017805 -1.441949 0.000000 0.000000
    26 0.014896 -0.883992 -0.019845 -0.763542 0.000000 0.000000
    27 -0.130622 -0.116383 -0.021176 0.289586 0.093244 1.456062
    28 0.583509 -1.197274 0.185379 0.167141 -0.668981 -0.728004
    29 1.535926 0.010247 0.005008 -0.097416 -0.205560 -1.019483
    30 1.100770 0.004528 -0.010675 0.000000 0.000000 -0.250166
    31 0.957766 -2.746777 -0.090301 -0.334120 0.035355 0.063678
    32 -0.033419 -1.397127 -0.011256 -0.104320 0.000000 0.000000
    33 -0.022361 -0.957434 0.018783 -0.657013 0.000000 0.000000
    34 0.250029 -2.820664 -0.238397 -0.618475 0.127049 -0.341497
    35 -0.049759 -1.680544 0.100479 -1.815466 0.077876 -0.019415
    36 -0.034141 -1.148310 0.084779 -0.997595 -0.031376 -0.015448
    37 -0.488517 -2.755600 -0.228262 -0.877258 0.177036 -0.438099
    38 0.039889 -1.479791 0.029854 -1.520913 0.000000 0.000000
    39 0.028786 -1.075733 -0.023111 -1.058310 0.000000 0.000000
    40 -1.180679 -2.507216 -0.193861 -1.019141 0.319461 -0.426610
    41 -0.024967 -1.123934 0.017594 -0.936346 0.000000 0.000000
    42 -0.020058 -0.890964 0.010091 -1.193241 0.000000 0.000000
    43 0.092807 -0.054173 -0.097459 3.122270 6.118195 -1.569909
  time 8
    0 9.038501 5.620626 -11.156975 0.928361 -2.141215 -1.367625
    1 -0.071918 -8.498731 -0.104136 0.369220 0.448538 -0.346951
    2 1.231110 -1.646805 1.167199 0.283770 1.487099 0.248230
    3 -0.018918 -5.204151 1.209771 0.000000 0.000000 0.000000
    4 -0.106210 -0.041607 0.734739 0.000000 -1.570796 0.000000
    5 -0.006608 -7.116275 2.875793 0.000000 0.000000 0.000000
    6 0.000031 -0.420787 -0.134254 0.000000 0.000000 0.000000
    7 -0.086616 -2.846228 0.453552 -0.058982 0.000000 0.000000
    8 -0.086616 -6.239250 1.961809 0.000000 0.000000 0.000000
    9 -0.086616 -4.262175 -0.301127 0.000000 0.000000 0.000000
    10 -1.300333 -6.072212 -9.486912 -0.643412 0.438366 0.316248
    11 0.096947 -8.450419 -0.009363 0.560996 -0.519401 0.146875
    12 -0.586768 -1.264477 0.200164 -0.229570 -0.511121 -2.424076
    13 1.522834 0.058679 0.016851 0.288731 -0.039601 0.129710
    14 1.117947 0.048425 -0.005765 0.222925 -0.033856 0.191147
    15 -0.963867 -2.785143 -0.085346 -0.534770 -0.046320 0.035343
    16 0.028478 -1.403067 0.006271 -1.585394 0.000000 0.000000
    17 0.021414 -0.957781 0.020047 -1.007036 -0.248776 0.191909
    18 -0.249534 -2.846963 -0.174215 -0.881820 -0.052696 0.090280
    19 0.043234 -1.683940 0.096014 -1.837724 0.000000 0.000000
    20 0.031729 -1.160831 0.058836 -1.246304 0.000000 0.000000
    21 0.447952 -2.798983 -0.200441 -1.144028 0.037894 0.167993
    22 -0.032909 -1.480207 0.004936 -1.659992 0.000000 0.000000
    23 -0.027022 -1.076920 -0.020212 -0.972712 0.000000 0.000000
    24 1.164474 -2.543939 -0.170327 -1.340445 -0.035155 0.207255
    25 0.024032 -1.129040 0.017805 -1.441949 0.000000 0.000000
    26 0.014896 -0.883992 -0.019845 -0.763542 0.000000 0.000000
    27 -0.130622 -0.116383 -0.021176 0.289586 0.093244 1.456062
    28 0.583509 -1.197274 0.185379 0.167141 -0.668981 -0.728004
    29 1.535926 0.010247 0.005008 -0.097416 -0.205560 -1.019483
    30 1.100770 0.004528 -0.010675 0.000000 0.000000 -0.250166
    31 0.957766 -2.746777 -0.090301 -0.334120 0.035355 0.063678
    32 -0.033419 -1.397127 -0.011256 -0.104320 0.000000 0.000000
    33 -0.022361 -0.957434 0.018783 -0.545600 0.000000 0.000000
    34 0.250029 -2.820664 -0.238397 -0.618475 0.127049 -0.341497
    35 -0.049759 -1.680544 0.100479 -1.815466 0.077876 -0.019415
    36 -0.034141 -1.148310 0.084779 -0.997595 -0.031376 -0.015448
    37 -0.488517 -2.755600 -0.228262 -0.877258 0.177036 -0.438099
    38 0.039889 -1.479791 0.029854 -1.520913 0.000000 0.000000
    39 0.028786 -1.075733 -0.023111 -1.058310 0.000000 0.000000
    40 -1.180679 -2.507216 -0.193861 -1.019141 0.319461 -0.426610
    41 -0.024967 -1.123934 0.017594 -0.936346 0.000000 0.000000
    42 -0.020058 -0.890964 0.010091 -1.193241 0.000000 0.000000
    43 0.092807 -0.054173 -0.097459 3.122270 6.118195 -1.569909
  time 9
    0 8.987718 5.601094 -11.149162 0.920448 -2.136207 -1.360947
    1 -0.071918 -8.498731 -0.104136 0.372574 0.441657 -0.336427
    2 1.231110 -1.646805 1.167199 0.283770 1.487099 0.248230
    3 -0.018918 -5.204151 1.209771 0.000000 0.000000 0.000000
    4 -0.106210 -0.041607 0.734739 0.000000 -1.570796 0.000000
    5 -0.006608 -7.104556 2.875793 0.000000 0.000000 0.000000
    6 0.000031 -0.420787 -0.134254 0.000000 0.000000 0.000000
    7 -0.086616 -2.846228 0.453552 -0.058045 0.000000 0.000000
    8 -0.086616 -6.239250 1.961809 0.000000 0.000000 0.000000
    9 -0.086616 -4.262175 -0.301127 0.000000 0.000000 0.000000
    10 -1.343303 -6.173778 -9.658792 -0.668794 0.433574 0.310074
    11 0.096947 -8.450419 -0.009363 0.571047 -0.520525 0.134452
    12 -0.586768 -1.264477 0.200164 -0.224463 -0.512979 -2.434350
    13 1.522834 0.058679 0.016851 0.287077 -0.048767 0.160839
    14 1.117947 0.048425 -0.005765 0.223285 -0.029818 0.173284
    15 -0.963867 -2.785143 -0.085346 -0.534770 -0.046320 0.035343
    16 0.028478 -1.403067 0.006271 -1.585394 0.000000 0.000000
    17 0.021414 -0.957781 0.020047 -1.007036 -0.248776 0.191909
    18 -0.249534 -2.846963 -0.174215 -0.881820 -0.052696 0.090280
    19 0.043234 -1.683940 0.096014 -1.837724 0.000000 0.000000
    20 0.031729 -1.160831 0.058836 -1.246304 0.000000 0.000000
    21 0.447952 -2.798983 -0.200441 -1.144028 0.037894 0.167993
    22 -0.032909 -1.480207 0.004936 -1.659992 0.000000 0.000000
    23 -0.027022 -1.076920 -0.020212 -0.972712 0.000000 0.000000
    24 1.164474 -2.543939 -0.170327 -1.340445 -0.035155 0.207255
    25 0.024032 -1.129040 0.017805 -1.441949 0.000000 0.000000
    26 0.014896 -0.883992 -0.019845 -0.763542 0.000000 0.000000
    27 -0.130622 -0.116383 -0.021176 0.289586 0.093244 1.456062
    28 0.583509 -1.197274 0.185379 0.167141 -0.668981 -0.728004
    29 1.535926 0.010247 0.005008 -0.097416 -0.205560 -1.019483
    30 1.100770 0.004528 -0.010675 0.000000 0.000000 -0.250166
    31 0.957766 -2.746777 -0.090301 -0.334120 0.035355 0.063678
    32 -0.033419 -1.397127 -0.011256 -0.104320 0.000000 0.000000
    33 -0.022361 -0.957434 0.018783 -0.501042 0.000000 0.000000
    34 0.250029 -2.820664 -0.238397 -0.618475 0.127049 -0.341497
    35 -0.049759 -1.680544 0.100479 -1.815466 0.077876 -0.019415
    36 -0.034141 -1.148310 0.084779 -0.997595 -0.031376 -0.015448
    37 -0.488517 -2.755600 -0.228262 -0.877258 0.177036 -0.438099
    38 0.039889 -1.479791 0.029854 -1.520913 0.000000 0.000000
    39 0.028786 -1.075733 -0.023111 -1.058310 0.000000 0.000000
    40 -1.180679 -2.507216 -0.193861 -1.019141 0.319461 -0.426610
    41 -0.024967 -1.123934 0.017594 -0.936346 0.000000 0.000000
    42 -0.020058 -0.890964 0.010091 -1.193241 0.000000 0.000000
    43 0.092807 -0.054173 -0.097459 3.122270 6.118195 -1.569909
  time 10
    0 8.933029 5.550311 -11.137443 0.912887 -2.131559 -1.354541
    1 -0.071918 -8.498731 -0.104136 0.375252 0.435691 -0.326293
    2 1.231110 -1.646805 1.167199 0.283770 1.487099 0.248230
    3 -0.018918 -5.204151 1.209771 0.000000 0.000000 0.000000
    4 -0.106210 -0.041607 0.734739 0.000000 -1.570796 0.000000
    5 -0.006608 -7.092837 2.875793 0.000000 0.000000 0.000000
    6 0.000031 -0.420787 -0.134254 0.000000 0.000000 0.000000
    7 -0.086616 -2.846228 0.453552 -0.056548 0.000000 0.000000
    8 -0.086616 -6.239250 1.961809 0.000000 0.000000 0.000000
    9 -0.086616 -4.262175 -0.301127 0.000000 0.000000 0.000000
    10 -1.366741 -6.220654 -9.779889 -0.684697 0.427727 0.301767
    11 0.096947 -8.450419 -0.009363 0.580560 -0.520039 0.127781
    12 -0.586768 -1.264477 0.200164 -0.218167 -0.515308 -2.447021
    13 1.522834 0.058679 0.016851 0.285495 -0.057573 0.190729
    14 1.117947 0.048425 -0.005765 0.223632 -0.025084 0.152465
    15 -0.963867 -2.785143 -0.085346 -0.534770 -0.046320 0.035343
    16 0.028478 -1.403067 0.006271 -1.585394 0.000000 0.000000
    17 0.021414 -0.957781 0.020047 -1.007036 -0.248776 0.191909
    18 -0.249534 -2.846963 -0.174215 -0.881820 -0.052696 0.090280
    19 0.043234 -1.683940 0.096014 -1.837724 0.000000 0.000000
    20 0.031729 -1.160831 0.058836 -1.246304 0.000000 0.000000
    21 0.447952 -2.798983 -0.200441 -1.144028 0.037894 0.167993
    22 -0.032909 -1.480207 0.004936 -1.659992 0.000000 0.000000
    23 -0.027022 -1.076920 -0.020212 -0.972712 0.000000 0.000000
    24 1.164474 -2.543939 -0.170327 -1.340445 -0.035155 0.207255
    25 0.024032 -1.129040 0.017805 -1.441949 0.000000 0.000000
    26 0.014896 -0.883992 -0.019845 -0.763542 0.000000 0.000000
    27 -0.130622 -0.116383 -0.021176 0.289586 0.093244 1.456062
    28 0.583509 -1.197274 0.185379 0.167141 -0.668981 -0.728004
    29 1.535926 0.010247 0.005008 -0.097416 -0.205560 -1.019483
    30 1.100770 0.004528 -0.010675 0.000000 0.000000 -0.250166
    31 0.957766 -2.746777 -0.090301 -0.334120 0.035355 0.063678
    32 -0.033419 -1.397127 -0.011256 -0.104320 0.000000 0.000000
    33 -0.022361 -0.957434 0.018783 -0.515296 0.000000 0.000000
    34 0.250029 -2.820664 -0.238397 -0.618475 0.127049 -0.341497
    35 -0.049759 -1.680544 0.100479 -1.815466 0.077876 -0.019415
    36 -0.034141 -1.148310 0.084779 -0.997595 -0.031376 -0.015448
    37 -0.488517 -2.755600 -0.228262 -0.877258 0.177036 -0.438099
    38 0.039889 -1.479791 0.029854 -1.520913 0.000000 0.000000
    39 0.028786 -1.075733 -0.023111 -1.058310 0.000000 0.000000
    40 -1.180679 -2.507216 -0.193861 -1.019141 0.319461 -0.426610
    41 -0.024967 -1.123934 0.017594 -0.936346 0.000000 0.000000
    42 -0.020058 -0.890964 0.010091 -1.193241 0.000000 0.000000
    43 0.092807 -0.054173 -0.097459 3.122270 6.118195 -1.569909
  time 11
    0 8.870527 5.483903 -11.117911 0.906469 -2.127848 -1.349106
    1 -0.071918 -8.498731 -0.104136 0.376791 0.431356 -0.317568
    2 1.231110 -1.646805 1.167199 0.283770 1.487099 0.248230
    3 -0.018918 -5.204151 1.209771 0.000000 0.000000 0.000000
    4 -0.106210 -0.041607 0.734739 0.000000 -1.570796 0.000000
    5 -0.006608 -7.081118 2.875793 0.000000 0.000000 0.000000
    6 0.000031 -0.420787 -0.134254 0.000000 0.000000 0.000000
    7 -0.086616 -2.846228 0.453552 -0.054559 0.000000 0.000000
    8 -0.086616 -6.239250 1.961809 0.000000 0.000000 0.000000
    9 -0.086616 -4.262175 -0.301127 0.000000 0.000000 0.000000
    10 -1.401898 -6.263624 -9.861923 -0.696609 0.423798 0.296475
    11 0.096947 -8.450419 -0.009363 0.588936 -0.517488 0.126599
    12 -0.586768 -1.264477 0.200164 -0.211151 -0.517887 -2.461152
    13 1.522834 0.058679 0.016851 0.284308 -0.064236 0.213361
    14 1.117947 0.048425 -0.005765 0.223980 -0.019954 0.130032
    15 -0.963867 -2.785143 -0.085346 -0.534770 -0.046320 0.035343
    16 0.028478 -1.403067 0.006271 -1.585394 0.000000 0.000000
    17 0.021414 -0.957781 0.020047 -1.007036 -0.248776 0.191909
    18 -0.249534 -2.846963 -0.174215 -0.881820 -0.052696 0.090280
    19 0.043234 -1.683940 0.096014 -1.837724 0.000000 0.000000
    20 0.031729 -1.160831 0.058836 -1.246304 0.000000 0.000000
    21 0.447952 -2.798983 -0.200441 -1.144028 0.037894 0.167993
    22 -0.032909 -1.480207 0.004936 -1.659992 0.000000 0.000000
    23 -0.027022 -1.076920 -0.020212 -0.972663 0.000000 0.000000
    24 1.164474 -2.543939 -0.170327 -1.340445 -0.035155 0.207255
    25 0.024032 -1.129040 0.017805 -1.441949 0.000000 0.000000
    26 0.014896 -0.883992 -0.019845 -0.763542 0.000000 0.000000
    27 -0.130622 -0.116383 -0.021176 0.289586 0.093244 1.456062
    28 0.583509 -1.197274 0.185379 0.167141 -0.668981 -0.728004
    29 1.535926 0.010247 0.005008 -0.097416 -0.205560 -1.019483
    30 1.100770 0.004528 -0.010675 0.000000 0.000000 -0.250166
    31 0.957766 -2.746777 -0.090301 -0.334120 0.035355 0.063678
    32 -0.033419 -1.397127 -0.011256 -0.104320 0.000000 0.000000
    33 -0.022361 -0.957434 0.018783 -0.549266 0.000000 0.000000
    34 0.250029 -2.820664 -0.238397 -0.618475 0.127049 -0.341497
    35 -0.049759 -1.680544 0.100479 -1.815466 0.077876 -0.019415
    36 -0.034141 -1.148310 0.084779 -0.997595 -0.031376 -0.015448
    37 -0.488517 -2.755600 -0.228262 -0.877258 0.177036 -0.438099
    38 0.039889 -1.479791 0.029854 -1.520913 0.000000 0.000000
    39 0.028786 -1.075733 -0.023111 -1.058310 0.000000 0.000000
    40 -1.180679 -2.507216 -0.193861 -1.019141 0.319461 -0.426610
    41 -0.024967 -1.123934 0.017594 -0.936346 0.000000 0.000000
    42 -0.020058 -0.890964 0.010091 -1.193241 0.000000 0.000000
    43 0.092807 -0.054173 -0.097459 3.122270 6.118195 -1.569909
  time 12
    0 8.808025 5.394056 -11.094473 0.902249 -2.125686 -1.345378
    1 -0.071918 -8.498731 -0.104136 0.376691 0.429367 -0.311229
    2 1.231110 -1.646805 1.167199 0.283770 1.487099 0.248230
    3 -0.018918 -5.204151 1.209771 0.000000 0.000000 0.000000
    4 -0.106210 -0.041607 0.734739 0.000000 -1.570796 0.000000
    5 -0.006608 -7.077211 2.875793 0.000000 0.000000 0.000000
    6 0.000031 -0.420787 -0.134254 0.000000 0.000000 0.000000
    7 -0.086616 -2.846228 0.453552 -0.052125 0.000000 0.000000
    8 -0.086616 -6.239250 1.961809 0.000000 0.000000 0.000000
    9 -0.086616 -4.262175 -0.301127 0.000000 0.000000 0.000000
    10 -1.452681 -6.302688 -9.912706 -0.705153 0.420922 0.292726
    11 0.096947 -8.450419 -0.009363 0.596056 -0.513448 0.129777
    12 -0.586768 -1.264477 0.200164 -0.203888 -0.520550 -2.475770
    13 1.522834 0.058679 0.016851 0.283529 -0.068648 0.228306
    14 1.117947 0.048425 -0.005765 0.224304 -0.014741 0.107326
    15 -0.963867 -2.785143 -0.085346 -0.534770 -0.046320 0.035343
    16 0.028478 -1.403067 0.006271 -1.585394 0.000000 0.000000
    17 0.021414 -0.957781 0.020047 -1.007036 -0.248776 0.191909
    18 -0.249534 -2.846963 -0.174215 -0.881820 -0.052696 0.090280
    19 0.043234 -1.683940 0.096014 -1.837724 0.000000 0.000000
    20 0.031729 -1.160831 0.058836 -1.246304 0.000000 0.000000
    21 0.447952 -2.798983 -0.200441 -1.144028 0.037894 0.168005
    22 -0.032909 -1.480207 0.004936 -1.659992 0.000000 0.000000
    23 -0.027022 -1.076920 -0.020212 -0.972712 0.000000 0.000000
    24 1.164474 -2.543939 -0.170327 -1.340445 -0.035155 0.207255
    25 0.024032 -1.129040 0.017805 -1.441949 0.000000 0.000000
    26 0.014896 -0.883992 -0.019845 -0.763542 0.000000 0.000000
    27 -0.130622 -0.116383 -0.021176 0.289586 0.093244 1.456062
    28 0.583509 -1.197274 0.185379 0.167141 -0.668981 -0.728004
    29 1.535926 0.010247 0.005008 -0.097416 -0.205560 -1.019483
    30 1.100770 0.004528 -0.010675 0.000000 0.000000 -0.250166
    31 0.957766 -2.746777 -0.090301 -0.334120 0.035355 0.063678
    32 -0.033419 -1.397127 -0.011256 -0.104320 0.000000 0.000000
    33 -0.022361 -0.957434 0.018783 -0.589821 0.000000 0.000000
    34 0.250029 -2.820664 -0.238397 -0.618475 0.127049 -0.341497
    35 -0.049759 -1.680544 0.100479 -1.815466 0.077876 -0.019415
    36 -0.034141 -1.148310 0.084779 -0.997595 -0.031376 -0.015448
    37 -0.488517 -2.755600 -0.228262 -0.877258 0.177036 -0.438099
    38 0.039889 -1.479791 0.029854 -1.520913 0.000000 0.000000
    39 0.028786 -1.075733 -0.023111 -1.058310 0.000000 0.000000
    40 -1.180679 -2.507216 -0.193861 -1.019141 0.319461 -0.426610
    41 -0.024967 -1.123934 0.017594 -0.936346 0.000000 0.000000
    42 -0.020058 -0.890964 0.010091 -1.193241 0.000000 0.000000
    43 0.092807 -0.054173 -0.097459 3.122270 6.118195 -1.569909
  time 13
    0 8.737710 5.296397 -11.071035 0.899436 -2.124857 -1.342893
    1 -0.071918 -8.498731 -0.104136 0.374488 0.430561 -0.308314
    2 1.231110 -1.646805 1.167199 0.283770 1.487099 0.248230
    3 -0.018918 -5.204151 1.209771 0.000000 0.000000 0.000000
    4 -0.106210 -0.041607 0.734739 0.000000 -1.570796 0.000000
    5 -0.006608 -7.069398 2.875793 0.000000 0.000000 0.000000
    6 0.000031 -0.420787 -0.134254 0.000000 0.000000 0.000000
    7 -0.086616 -2.846228 0.453552 -0.049313 0.000000 0.000000
    8 -0.086616 -6.239250 1.961809 0.000000 0.000000 0.000000
    9 -0.086616 -4.262175 -0.301127 0.000000 0.000000 0.000000
    10 -1.515183 -6.337845 -9.936144 -0.708583 0.418718 0.289492
    11 0.096947 -8.450419 -0.009363 0.601740 -0.508344 0.136133
    12 -0.586768 -1.264477 0.200164 -0.196872 -0.523129 -2.489901
    13 1.522834 0.058679 0.016851 0.282966 -0.071998 0.239622
    14 1.117947 0.048425 -0.005765 0.224603 -0.009779 0.085710
    15 -0.963867 -2.785143 -0.085346 -0.534770 -0.046320 0.035343
    16 0.028478 -1.403067 0.006271 -1.585394 0.000000 0.000000
    17 0.021414 -0.957781 0.020047 -1.007036 -0.248776 0.191909
    18 -0.249534 -2.846963 -0.174215 -0.881820 -0.052696 0.090280
    19 0.043234 -1.683940 0.096014 -1.837724 0.000000 0.000000
    20 0.031729 -1.160831 0.058836 -1.246304 0.000000 0.000000
    21 0.447952 -2.798983 -0.200441 -1.144028 0.037894 0.167993
    22 -0.032909 -1.480207 0.004936 -1.659992 0.000000 0.000000
    23 -0.027022 -1.076920 -0.020212 -0.972712 0.000000 0.000000
    24 1.164474 -2.543939 -0.170327 -1.340445 -0.035155 0.207255
    25 0.024032 -1.129040 0.017805 -1.441949 0.000000 0.000000
    26 0.014896 -0.883992 -0.019845 -0.763542 0.000000 0.000000
    27 -0.130622 -0.116383 -0.021176 0.289586 0.093244 1.456062
    28 0.583509 -1.197274 0.185379 0.167141 -0.668981 -0.728004
    29 1.535926 0.010247 0.005008 -0.097416 -0.205560 -1.019483
    30 1.100770 0.004528 -0.010675 0.000000 0.000000 -0.250166
    31 0.957766 -2.746777 -0.090301 -0.334120 0.035355 0.063678
    32 -0.033419 -1.397127 -0.011256 -0.104320 0.000000 0.000000
    33 -0.022361 -0.957434 0.018783 -0.623791 0.000000 0.000000
    34 0.250029 -2.820664 -0.238397 -0.618475 0.127049 -0.341497
    35 -0.049759 -1.680544 0.100479 -1.815466 0.077876 -0.019415
    36 -0.034141 -1.148310 0.084779 -0.997595 -0.031376 -0.015448
    37 -0.488517 -2.755600 -0.228262 -0.877258 0.177036 -0.438099
    38 0.039889 -1.479791 0.029854 -1.520913 0.000000 0.000000
    39 0.028786 -1.075733 -0.023111 -1.058310 0.000000 0.000000
    40 -1.180679 -2.507216 -0.193861 -1.019141 0.319461 -0.426610
    41 -0.024967 -1.123934 0.017594 -0.936346 0.000000 0.000000
    42 -0.020058 -0.890964 0.010091 -1.193241 0.000000 0.000000
    43 0.092807 -0.054173 -0.097459 3.122270 6.118195 -1.569909
  time 14
    0 8.671302 5.190925 -11.043690 0.897062 -2.124569 -1.340680
    1 -0.071918 -8.498731 -0.104136 0.369482 0.435453 -0.308451
    2 1.231110 -1.646805 1.167199 0.283770 1.487099 0.248230
    3 -0.018918 -5.204151 1.209771 0.000000 0.000000 0.000000
    4 -0.106210 -0.041607 0.734739 0.000000 -1.570796 0.000000
    5 -0.006608 -7.069398 2.875793 0.000000 0.000000 0.000000
    6 0.000031 -0.420787 -0.134254 0.000000 0.000000 0.000000
    7 -0.086616 -2.846228 0.453552 -0.046173 0.000000 0.000000
    8 -0.086616 -6.239250 1.961809 0.000000 0.000000 0.000000
    9 -0.086616 -4.262175 -0.301127 0.000000 0.000000 0.000000
    10 -1.589404 -6.373003 -9.932238 -0.706151 0.416034 0.284787
    11 0.096947 -8.450419 -0.009363 0.605848 -0.502634 0.144537
    12 -0.586768 -1.264477 0.200164 -0.190575 -0.525458 -2.502572
    13 1.522834 0.058679 0.016851 0.282583 -0.074411 0.247650
    14 1.117947 0.048425 -0.005765 0.224855 -0.005369 0.066547
    15 -0.963867 -2.785143 -0.085346 -0.534770 -0.046320 0.035343
    16 0.028478 -1.403067 0.006271 -1.585394 0.000000 0.000000
    17 0.021414 -0.957781 0.020047 -1.007036 -0.248776 0.191909
    18 -0.249534 -2.846963 -0.174215 -0.881820 -0.052696 0.090280
    19 0.043234 -1.683940 0.096014 -1.837724 0.000000 0.000000
    20 0.031729 -1.160831 0.058836 -1.246304 0.000000 0.000000
    21 0.447952 -2.798983 -0.200441 -1.144028 0.037894 0.167993
    22 -0.032909 -1.480207 0.004936 -1.659992 0.000000 0.000000
    23 -0.027022 -1.076920 -0.020212 -0.972712 0.000000 0.000000
    24 1.164474 -2.543939 -0.170327 -1.340445 -0.035155 0.207255
    25 0.024032 -1.129040 0.017805 -1.441949 0.000000 0.000000
    26 0.014896 -0.883992 -0.019845 -0.763542 0.000000 0.000000
    27 -0.130622 -0.116383 -0.021176 0.289586 0.093244 1.456062
    28 0.583509 -1.197274 0.185379 0.167141 -0.668981 -0.728004
    29 1.535926 0.010247 0.005008 -0.097416 -0.205560 -1.019483
    30 1.100770 0.004528 -0.010675 0.000000 0.000000 -0.250166
    31 0.957766 -2.746777 -0.090301 -0.334120 0.035355 0.063678
    32 -0.033419 -1.397127 -0.011256 -0.104320 0.000000 0.000000
    33 -0.022361 -0.957434 0.018783 -0.638045 0.000000 0.000000
    34 0.250029 -2.820664 -0.238397 -0.618475 0.127049 -0.341497
    35 -0.049759 -1.680544 0.100479 -1.815466 0.077876 -0.019415
    36 -0.034141 -1.148310 0.084779 -0.997595 -0.031376 -0.015448
    37 -0.488517 -2.755600 -0.228262 -0.877258 0.177036 -0.438099
    38 0.039889 -1.479791 0.029854 -1.520913 0.000000 0.000000
    39 0.028786 -1.075733 -0.023111 -1.058310 0.000000 0.000000
    40 -1.180679 -2.507216 -0.193861 -1.019141 0.319461 -0.426610
    41 -0.024967 -1.123934 0.017594 -0.936346 0.000000 0.000000
    42 -0.020058 -0.890964 0.010091 -1.193241 0.000000 0.000000
    43 0.092807 -0.054173 -0.097459 3.122270 6.118195 -1.569909
  time 15
    0 8.600987 5.081547 -11.016345 0.894952 -2.124785 -1.338739
    1 -0.071918 -8.498731 -0.104136 0.361961 0.443526 -0.310329
    2 1.231110 -1.646805 1.167199 0.283770 1.487099 0.248230
    3 -0.018918 -5.204151 1.209771 0.000000 0.000000 0.000000
    4 -0.106210 -0.041607 0.734739 0.000000 -1.570796 0.000000
    5 -0.006608 -7.065492 2.875793 0.000000 0.000000 0.000000
    6 0.000031 -0.420787 -0.134254 0.000000 0.000000 0.000000
    7 -0.086616 -2.846228 0.453552 -0.042769 0.000000 0.000000
    8 -0.086616 -6.239250 1.961809 0.000000 0.000000 0.000000
    9 -0.086616 -4.262175 -0.301127 0.000000 0.000000 0.000000
    10 -1.667531 -6.400347 -9.900987 -0.699727 0.411913 0.277363
    11 0.096947 -8.450419 -0.009363 0.608241 -0.496832 0.153809
    12 -0.586768 -1.264477 0.200164 -0.185468 -0.527344 -2.512846
    13 1.522834 0.058679 0.016851 0.282355 -0.075960 0.252902
    14 1.117947 0.048425 -0.005765 0.225059 -0.001834 0.051179
    15 -0.963867 -2.785143 -0.085346 -0.534770 -0.046320 0.035343
    16 0.028478 -1.403067 0.006271 -1.585394 0.000000 0.000000
    17 0.021414 -0.957781 0.020047 -1.007036 -0.248776 0.191909
    18 -0.249534 -2.846963 -0.174215 -0.881820 -0.052696 0.090280
    19 0.043234 -1.683940 0.096014 -1.837724 0.000000 0.000000
    20 0.031729 -1.160831 0.058836 -1.246304 0.000000 0.000000
    21 0.447952 -2.798983 -0.200441 -1.144028 0.037894 0.168005
    22 -0.032909 -1.480207 0.004936 -1.659992 0.000000 0.000000
    23 -0.027022 -1.076920 -0.020212 -0.972712 0.000000 0.000000
    24 1.164474 -2.543939 -0.170327 -1.340445 -0.035155 0.207255
    25 0.024032 -1.129040 0.017805 -1.441949 0.000000 0.000000
    26 0.014896 -0.883992 -0.019845 -0.763542 0.000000 0.000000
    27 -0.130622 -0.116383 -0.021176 0.289586 0.093244 1.456062
    28 0.583509 -1.197274 0.185379 0.167141 -0.668981 -0.728004
    29 1.535926 0.010247 0.005008 -0.097416 -0.205560 -1.019483
    30 1.100770 0.004528 -0.010675 0.000000 0.000000 -0.250166
    31 0.957766 -2.746777 -0.090301 -0.334120 0.035355 0.063678
    32 -0.033419 -1.397127 -0.011256 -0.104320 0.000000 0.000000
    33 -0.022361 -0.957434 0.018783 -0.638045 0.000000 0.000000
    34 0.250029 -2.820664 -0.238397 -0.618475 0.127049 -0.341497
    35 -0.049759 -1.680544 0.100479 -1.815466 0.077876 -0.019415
    36 -0.034141 -1.148310 0.084779 -0.997595 -0.031376 -0.015448
    37 -0.488517 -2.755600 -0.228262 -0.877258 0.177036 -0.438099
    38 0.039889 -1.479791 0.029854 -1.520913 0.000000 0.000000
    39 0.028786 -1.075733 -0.023111 -1.058310 0.000000 0.000000
    40 -1.180679 -2.507216 -0.193861 -1.019141 0.319461 -0.426610
    41 -0.024967 -1.123934 0.017594 -0.936346 0.000000 0.000000
    42 -0.020058 -0.890964 0.010091 -1.193241 0.000000 0.000000
    43 0.092807 -0.054173 -0.097459 3.122270 6.118195 -1.569909
  time 16
    0 8.530673 4.976075 -10.989001 0.893281 -2.125254 -1.337070
    1 -0.071918 -8.498731 -0.104136 0.352838 0.453668 -0.313557
    2 1.231110 -1.646805 1.167199 0.283770 1.487099 0.248230
    3 -0.018918 -5.204151 1.209771 0.000000 0.000000 0.000000
    4 -0.106210 -0.041607 0.734739 0.000000 -1.570796 0.000000
    5 -0.006608 -7.065492 2.875793 0.000000 0.000000 0.000000
    6 0.000031 -0.420787 -0.134254 0.000000 0.000000 0.000000
    7 -0.086616 -2.846228 0.453552 -0.039168 0.000000 0.000000
    8 -0.086616 -6.239250 1.961809 0.000000 0.000000 0.000000
    9 -0.086616 -4.262175 -0.301127 0.000000 0.000000 0.000000
    10 -1.757378 -6.427692 -9.854110 -0.690248 0.407409 0.268616
    11 0.096947 -8.450419 -0.009363 0.608799 -0.491425 0.162791
    12 -0.586768 -1.264477 0.200164 -0.182072 -0.528592 -2.519695
    13 1.522834 0.058679 0.016851 0.282235 -0.076824 0.255720
    14 1.117947 0.048425 -0.005765 0.225190 0.000515 0.040968
    15 -0.963867 -2.785143 -0.085346 -0.534770 -0.046320 0.035343
    16 0.028478 -1.403067 0.006271 -1.585394 0.000000 0.000000
    17 0.021414 -0.957781 0.020047 -1.007036 -0.248776 0.191909
    18 -0.249534 -2.846963 -0.174215 -0.881820 -0.052696 0.090280
    19 0.043234 -1.683940 0.096014 -1.837724 0.000000 0.000000
    20 0.031729 -1.160831 0.058836 -1.246304 0.000000 0.000000
    21 0.447952 -2.798983 -0.200441 -1.144028 0.037894 0.167993
    22 -0.032909 -1.480207 0.004936 -1.659992 0.000000 0.000000
    23 -0.027022 -1.076920 -0.020212 -0.972712 0.000000 0.000000
    24 1.164474 -2.543939 -0.170327 -1.340445 -0.035155 0.207255
    25 0.024032 -1.129040 0.017805 -1.441949 0.000000 0.000000
    26 0.014896 -0.883992 -0.019845 -0.763542 0.000000 0.000000
    27 -0.130622 -0.116383 -0.021176 0.289586 0.093244 1.456062
    28 0.583509 -1.197274 0.185379 0.167141 -0.668981 -0.728004
    29 1.535926 0.010247 0.005008 -0.097416 -0.205560 -1.019483
    30 1.100770 0.004528 -0.010675 0.000000 0.000000 -0.250166
    31 0.957766 -2.746777 -0.090301 -0.334120 0.035355 0.063678
    32 -0.033419 -1.397127 -0.011256 -0.104320 0.000000 0.000000
    33 -0.022361 -0.957434 0.018783 -0.638045 0.000000 0.000000
    34 0.250029 -2.820664 -0.238397 -0.618475 0.127049 -0.341497
    35 -0.049759 -1.680544 0.100479 -1.815466 0.077876 -0.019415
    36 -0.034141 -1.148310 0.084779 -0.997595 -0.031376 -0.015448
    37 -0.488517 -2.755600 -0.228262 -0.877258 0.177036 -0.438099
    38 0.039889 -1.479791 0.029854 -1.520913 0.000000 0.000000
    39 0.028786 -1.075733 -0.023111 -1.058310 0.000000 0.000000
    40 -1.180679 -2.507216 -0.193861 -1.019141 0.319461 -0.426610
    41 -0.024967 -1.123934 0.017594 -0.936346 0.000000 0.000000
    42 -0.020058 -0.890964 0.010091 -1.193241 0.000000 0.000000
    43 0.092807 -0.054173 -0.097459 3.122270 6.118195 -1.569909
  time 17
    0 8.464265 4.878415 -10.965563 0.891875 -2.125938 -1.335633
    1 -0.071918 -8.498731 -0.104136 0.343026 0.464845 -0.317685
    2 1.231110 -1.646805 1.167199 0.283770 1.487099 0.248230
    3 -0.018918 -5.204151 1.209771 0.000000 0.000000 0.000000
    4 -0.106210 -0.041607 0.734739 0.000000 -1.570796 0.000000
    5 -0.006608 -7.069398 2.875793 0.000000 0.000000 0.000000
    6 0.000031 -0.420787 -0.134254 0.000000 0.000000 0.000000
    7 -0.086616 -2.846228 0.453552 -0.035419 0.000000 0.000000
    8 -0.086616 -6.239250 1.961809 0.000000 0.000000 0.000000
    9 -0.086616 -4.262175 -0.301127 0.000000 0.000000 0.000000
    10 -1.851131 -6.451130 -9.787702 -0.678523 0.403383 0.260383
    11 0.096947 -8.450419 -0.009363 0.607343 -0.486899 0.170355
    12 -0.586768 -1.264477 0.200164 -0.180833 -0.529035 -2.522201
    13 1.522834 0.058679 0.016851 0.282211 -0.077076 0.256574
    14 1.117947 0.048425 -0.005765 0.225262 0.001366 0.037278
    15 -0.963867 -2.785143 -0.085346 -0.534770 -0.046320 0.035343
    16 0.028478 -1.403067 0.006271 -1.585394 0.000000 0.000000
    17 0.021414 -0.957781 0.020047 -1.007036 -0.248776 0.191909
    18 -0.249534 -2.846963 -0.174215 -0.881820 -0.052696 0.090280
    19 0.043234 -1.683940 0.096014 -1.837724 0.000000 0.000000
    20 0.031729 -1.160831 0.058836 -1.246304 0.000000 0.000000
    21 0.447952 -2.798983 -0.200441 -1.144028 0.037894 0.167993
    22 -0.032909 -1.480207 0.004936 -1.659992 0.000000 0.000000
    23 -0.027022 -1.076920 -0.020212 -0.972712 0.000000 0.000000
    24 1.164474 -2.543939 -0.170327 -1.340445 -0.035155 0.207255
    25 0.024032 -1.129040 0.017805 -1.441949 0.000000 0.000000
    26 0.014896 -0.883992 -0.019845 -0.763542 0.000000 0.000000
    27 -0.130622 -0.116383 -0.021176 0.289586 0.093244 1.456062
    28 0.583509 -1.197274 0.185379 0.167141 -0.668981 -0.728004
    29 1.535926 0.010247 0.005008 -0.097416 -0.205560 -1.019483
    30 1.100770 0.004528 -0.010675 0.000000 0.000000 -0.250166
    31 0.957766 -2.746777 -0.090301 -0.334120 0.035355 0.063678
    32 -0.033419 -1.397127 -0.011256 -0.104320 0.000000 0.000000
    33 -0.022361 -0.957434 0.018783 -0.638045 0.000000 0.000000
    34 0.250029 -2.820664 -0.238397 -0.618475 0.127049 -0.341497
    35 -0.049759 -1.680544 0.100479 -1.815466 0.077876 -0.019415
    36 -0.034141 -1.148310 0.084779 -0.997595 -0.031376 -0.015448
    37 -0.488517 -2.755600 -0.228262 -0.877258 0.177036 -0.438099
    38 0.039889 -1.479791 0.029854 -1.520913 0.000000 0.000000
    39 0.028786 -1.075733 -0.023111 -1.058310 0.000000 0.000000
    40 -1.180679 -2.507216 -0.193861 -1.019141 0.319461 -0.426610
    41 -0.024967 -1.123934 0.017594 -0.936346 0.000000 0.000000
    42 -0.020058 -0.890964 0.010091 -1.193241 0.000000 0.000000
    43 0.092807 -0.054173 -0.097459 3.122270 6.118195 -1.569909
  time 18
    0 8.393950 4.796382 -10.946031 0.890907 -2.126659 -1.334468
    1 -0.071918 -8.498731 -0.104136 0.333452 0.476021 -0.322341
    2 1.231110 -1.646805 1.167199 0.283770 1.487099 0.248230
    3 -0.018918 -5.204151 1.209771 0.000000 0.000000 0.000000
    4 -0.106210 -0.041607 0.734739 0.000000 -1.570796 0.000000
    5 -0.006608 -7.069398 2.875793 0.000000 0.000000 0.000000
    6 0.000031 -0.420787 -0.134254 0.000000 0.000000 0.000000
    7 -0.086616 -2.846228 0.453552 -0.031587 0.000000 0.000000
    8 -0.086616 -6.239250 1.961809 0.000000 0.000000 0.000000
    9 -0.086616 -4.262175 -0.301127 0.000000 0.000000 0.000000
    10 -1.944884 -6.474568 -9.709575 -0.665177 0.401275 0.254797
    11 0.096947 -8.450419 -0.009363 0.603734 -0.483709 0.175345
    12 -0.586768 -1.264477 0.200164 -0.181552 -0.528786 -2.520741
    13 1.522834 0.058679 0.016851 0.282343 -0.076338 0.254098
    14 1.117947 0.048425 -0.005765 0.225286 0.001210 0.037970
    15 -0.963867 -2.785143 -0.085346 -0.534770 -0.046320 0.035343
    16 0.028478 -1.403067 0.006271 -1.585394 0.000000 0.000000
    17 0.021414 -0.957781 0.020047 -1.007036 -0.248776 0.191909
    18 -0.249534 -2.846963 -0.174215 -0.881820 -0.052696 0.090280
    19 0.043234 -1.683940 0.096014 -1.837724 0.000000 0.000000
    20 0.031729 -1.160831 0.058836 -1.246304 0.000000 0.000000
    21 0.447952 -2.798983 -0.200441 -1.144028 0.037894 0.167993
    22 -0.032909 -1.480207 0.004936 -1.659992 0.000000 0.000000
    23 -0.027022 -1.076920 -0.020212 -0.972712 0.000000 0.000000
    24 1.164474 -2.543939 -0.170327 -1.340445 -0.035155 0.207255
    25 0.024032 -1.129040 0.017805 -1.441949 0.000000 0.000000
    26 0.014896 -0.883992 -0.019845 -0.763542 0.000000 0.000000
    27 -0.130622 -0.116383 -0.021176 0.289586 0.093244 1.456062
    28 0.583509 -1.197274 0.185379 0.167141 -0.668981 -0.728004
    29 1.535926 0.010247 0.005008 -0.097416 -0.205560 -1.019483
    30 1.100770 0.004528 -0.010675 0.000000 0.000000 -0.250166
    31 0.957766 -2.746777 -0.090301 -0.334120 0.035355 0.063678
    32 -0.033419 -1.397127 -0.011256 -0.104320 0.000000 0.000000
    33 -0.022361 -0.957434 0.018783 -0.638045 0.000000 0.000000
    34 0.250029 -2.820664 -0.238397 -0.618475 0.127049 -0.341497
    35 -0.049759 -1.680544 0.100479 -1.815466 0.077876 -0.019415
    36 -0.034141 -1.148310 0.084779 -0.997595 -0.031376 -0.015448
    37 -0.488517 -2.755600 -0.228262 -0.877258 0.177036 -0.438099
    38 0.039889 -1.479791 0.029854 -1.520913 0.000000 0.000000
    39 0.028786 -1.075733 -0.023111 -1.058310 0.000000 0.000000
    40 -1.180679 -2.507216 -0.193861 -1.019141 0.319461 -0.426610
    41 -0.024967 -1.123934 0.017594 -0.936346 0.000000 0.000000
    42 -0.020058 -0.890964 0.010091 -1.193241 0.000000 0.000000
    43 0.092807 -0.054173 -0.097459 3.122270 6.118195 -1.569909
  time 19
    0 8.331448 4.733880 -10.926499 0.890292 -2.127236 -1.333536
    1 -0.071918 -8.498731 -0.104136 0.325042 0.486123 -0.327075
    2 1.231110 -1.646805 1.167199 0.283770 1.487099 0.248230
    3 -0.018918 -5.204151 1.209771 0.000000 0.000000 0.000000
    4 -0.106210 -0.041607 0.734739 0.000000 -1.570796 0.000000
    5 -0.006608 -7.073305 2.875793 0.000000 0.000000 0.000000
    6 0.000031 -0.420787 -0.134254 0.000000 0.000000 0.000000
    7 -0.086616 -2.846228 0.453552 -0.027723 0.000000 0.000000
    8 -0.086616 -6.239250 1.961809 0.000000 0.000000 0.000000
    9 -0.086616 -4.262175 -0.301127 0.000000 0.000000 0.000000
    10 -2.046449 -6.494100 -9.615822 -0.650833 0.402233 0.254208
    11 0.096947 -8.450419 -0.009363 0.597851 -0.482342 0.176580
    12 -0.586768 -1.264477 0.200164 -0.183609 -0.528065 -2.516631
    13 1.522834 0.058679 0.016851 0.282726 -0.074303 0.247180
    14 1.117947 0.048425 -0.005765 0.225310 0.000767 0.039899
    15 -0.963867 -2.785143 -0.085346 -0.534770 -0.046320 0.035343
    16 0.028478 -1.403067 0.006271 -1.585394 0.000000 0.000000
    17 0.021414 -0.957781 0.020047 -1.007036 -0.248776 0.191909
    18 -0.249534 -2.846963 -0.174215 -0.881820 -0.052696 0.090280
    19 0.043234 -1.683940 0.096014 -1.837724 0.000000 0.000000
    20 0.031729 -1.160831 0.058836 -1.246304 0.000000 0.000000
    21 0.447952 -2.798983 -0.200441 -1.144028 0.037894 0.167993
    22 -0.032909 -1.480207 0.004936 -1.659992 0.000000 0.000000
    23 -0.027022 -1.076920 -0.020212 -0.972712 0.000000 0.000000
    24 1.164474 -2.543939 -0.170327 -1.340445 -0.035155 0.207255
    25 0.024032 -1.129040 0.017805 -1.441949 0.000000 0.000000
    26 0.014896 -0.883992 -0.019845 -0.763542 0.000000 0.000000
    27 -0.130622 -0.116383 -0.021176 0.289586 0.093244 1.456062
    28 0.583509 -1.197274 0.185379 0.167141 -0.668981 -0.728004
    29 1.535926 0.010247 0.005008 -0.097416 -0.205560 -1.019483
    30 1.100770 0.004528 -0.010675 0.000000 0.000000 -0.250166
    31 0.957766 -2.746777 -0.090301 -0.334120 0.035355 0.063678
    32 -0.033419 -1.397127 -0.011256 -0.104320 0.000000 0.000000
    33 -0.022361 -0.957434 0.018783 -0.638045 0.000000 0.000000
    34 0.250029 -2.820664 -0.238397 -0.618475 0.127049 -0.341497
    35 -0.049759 -1.680544 0.100479 -1.815466 0.077876 -0.019415
    36 -0.034141 -1.148310 0.084779 -0.997595 -0.031376 -0.015448
    37 -0.488517 -2.755600 -0.228262 -0.877258 0.177036 -0.438099
    38 0.039889 -1.479791 0.029854 -1.520913 0.000000 0.000000
    39 0.028786 -1.075733 -0.023111 -1.058310 0.000000 0.000000
    40 -1.180679 -2.507216 -0.193861 -1.019141 0.319461 -0.426610
    41 -0.024967 -1.123934 0.017594 -0.936346 0.000000 0.000000
    42 -0.020058 -0.890964 0.010091 -1.193241 0.000000 0.000000
    43 0.092807 -0.054173 -0.097459 3.122270 6.118195 -1.569909
  time 20
    0 8.268946 4.690910 -10.914780 0.890116 -2.127632 -1.332799
    1 -0.071918 -8.498731 -0.104136 0.318722 0.494117 -0.331477
    2 1.231110 -1.646805 1.167199 0.283770 1.487099 0.248230
    3 -0.018918 -5.204151 1.209771 0.000000 0.000000 0.000000
    4 -0.106210 -0.041607 0.734739 0.000000 -1.570796 0.000000
    5 -0.006608 -7.077211 2.875793 0.000000 0.000000 0.000000
    6 0.000031 -0.420787 -0.134254 0.000000 0.000000 0.000000
    7 -0.086616 -2.846228 0.453552 -0.023876 0.000000 0.000000
    8 -0.086616 -6.239250 1.961809 0.000000 0.000000 0.000000
    9 -0.086616 -4.262175 -0.301127 0.000000 0.000000 0.000000
    10 -2.144108 -6.509725 -9.518163 -0.635741 0.406259 0.258913
    11 0.096947 -8.450419 -0.009363 0.589335 -0.482281 0.174006
    12 -0.586768 -1.264477 0.200164 -0.186733 -0.526928 -2.510359
    13 1.522834 0.058679 0.016851 0.283314 -0.071205 0.236633
    14 1.117947 0.048425 -0.005765 0.225322 0.000096 0.042876
    15 -0.963867 -2.785143 -0.085346 -0.534770 -0.046320 0.035343
    16 0.028478 -1.403067 0.006271 -1.585394 0.000000 0.000000
    17 0.021414 -0.957781 0.020047 -1.007036 -0.248776 0.191909
    18 -0.249534 -2.846963 -0.174215 -0.881820 -0.052696 0.090280
    19 0.043234 -1.683940 0.096014 -1.837724 0.000000 0.000000
    20 0.031729 -1.160831 0.058836 -1.246304 0.000000 0.000000
    21 0.447952 -2.798983 -0.200441 -1.144028 0.037894 0.167993
    22 -0.032909 -1.480207 0.004936 -1.659992 0.000000 0.000000
    23 -0.027022 -1.076920 -0.020212 -0.972663 0.000000 0.000000
    24 1.164474 -2.543939 -0.170327 -1.340445 -0.035155 0.207255
    25 0.024032 -1.129040 0.017805 -1.441949 0.000000 0.000000
    26 0.014896 -0.883992 -0.019845 -0.763542 0.000000 0.000000
    27 -0.130622 -0.116383 -0.021176 0.289586 0.093244 1.456062
    28 0.583509 -1.197274 0.185379 0.167141 -0.668981 -0.728004
    29 1.535926 0.010247 0.005008 -0.097416 -0.205560 -1.019483
    30 1.100770 0.004528 -0.010675 0.000000 0.000000 -0.250166
    31 0.957766 -2.746777 -0.090301 -0.334120 0.035355 0.063678
    32 -0.033419 -1.397127 -0.011256 -0.104320 0.000000 0.000000
    33 -0.022361 -0.957434 0.018783 -0.638045 0.000000 0.000000
    34 0.250029 -2.820664 -0.238397 -0.618475 0.127049 -0.341497
    35 -0.049759 -1.680544 0.100479 -1.815466 0.077876 -0.019415
    36 -0.034141 -1.148310 0.084779 -0.997595 -0.031376 -0.015448
    37 -0.488517 -2.755600 -0.228262 -0.877258 0.177036 -0.438099
    38 0.039889 -1.479791 0.029854 -1.520913 0.000000 0.000000
    39 0.028786 -1.075733 -0.023111 -1.058310 0.000000 0.000000
    40 -1.180679 -2.507216 -0.193861 -1.019141 0.319461 -0.426610
    41 -0.024967 -1.123934 0.017594 -0.936346 0.000000 0.000000
    42 -0.020058 -0.890964 0.010091 -1.193241 0.000000 0.000000
    43 0.092807 -0.054173 -0.097459 3.122270 6.118195 -1.569909
  time 21
    0 8.202538 4.663565 -10.906967 0.890644 -2.127812 -1.332294
    1 -0.071918 -8.498731 -0.104136 0.315406 0.498930 -0.335135
    2 1.231110 -1.646805 1.167199 0.283770 1.487099 0.248230
    3 -0.018918 -5.204151 1.209771 0.000000 0.000000 0.000000
    4 -0.106210 -0.041607 0.734739 0.000000 -1.570796 0.000000
    5 -0.006608 -7.085024 2.875793 0.000000 0.000000 0.000000
    6 0.000031 -0.420787 -0.134254 0.000000 0.000000 0.000000
    7 -0.086616 -2.846228 0.453552 -0.020127 0.000000 0.000000
    8 -0.086616 -6.239250 1.961809 0.000000 0.000000 0.000000
    9 -0.086616 -4.262175 -0.301127 0.000000 0.000000 0.000000
    10 -2.241768 -6.525351 -9.412691 -0.619776 0.412201 0.266999
    11 0.096947 -8.450419 -0.009363 0.578287 -0.482798 0.169173
    12 -0.586768 -1.264477 0.200164 -0.190674 -0.525513 -2.502428
    13 1.522834 0.058679 0.016851 0.284057 -0.067262 0.223268
    14 1.117947 0.048425 -0.005765 0.225334 -0.000743 0.046629
    15 -0.963867 -2.785143 -0.085346 -0.534770 -0.046320 0.035343
    16 0.028478 -1.403067 0.006271 -1.585394 0.000000 0.000000
    17 0.021414 -0.957781 0.020047 -1.007036 -0.248776 0.191909
    18 -0.249534 -2.846963 -0.174215 -0.881820 -0.052696 0.090280
    19 0.043234 -1.683940 0.096014 -1.837724 0.000000 0.000000
    20 0.031729 -1.160831 0.058836 -1.246304 0.000000 0.000000
    21 0.447952 -2.798983 -0.200441 -1.144028 0.037894 0.167993
    22 -0.032909 -1.480207 0.004936 -1.659992 0.000000 0.000000
    23 -0.027022 -1.076920 -0.020212 -0.972712 0.000000 0.000000
    24 1.164474 -2.543939 -0.170327 -1.340445 -0.035155 0.207255
    25 0.024032 -1.129040 0.017805 -1.441949 0.000000 0.000000
    26 0.014896 -0.883992 -0.019845 -0.763542 0.000000 0.000000
    27 -0.130622 -0.116383 -0.021176 0.289586 0.093244 1.456062
    28 0.583509 -1.197274 0.185379 0.167141 -0.668981 -0.728004
    29 1.535926 0.010247 0.005008 -0.097416 -0.205560 -1.019483
    30 1.100770 0.004528 -0.010675 0.000000 0.000000 -0.250166
    31 0.957766 -2.746777 -0.090301 -0.334120 0.035355 0.063678
    32 -0.033419 -1.397127 -0.011256 -0.104320 0.000000 0.000000
    33 -0.022361 -0.957434 0.018783 -0.638045 0.000000 0.000000
    34 0.250029 -2.820664 -0.238397 -0.618475 0.127049 -0.341497
    35 -0.049759 -1.680544 0.100479 -1.815466 0.077876 -0.019415
    36 -0.034141 -1.148310 0.084779 -0.997595 -0.031376 -0.015448
    37 -0.488517 -2.755600 -0.228262 -0.877258 0.177036 -0.438099
    38 0.039889 -1.479791 0.029854 -1.520913 0.000000 0.000000
    39 0.028786 -1.075733 -0.023111 -1.058310 0.000000 0.000000
    40 -1.180679 -2.507216 -0.193861 -1.019141 0.319461 -0.426610
    41 -0.024967 -1.123934 0.017594 -0.936346 0.000000 0.000000
    42 -0.020058 -0.890964 0.010091 -1.193241 0.000000 0.000000
    43 0.092807 -0.054173 -0.097459 3.122270 6.118195 -1.569909
  time 22
    0 8.124410 4.628408 -10.895248 0.891962 -2.128028 -1.331828
    1 -0.071918 -8.498731 -0.104136 0.315794 0.500123 -0.338539
    2 1.231110 -1.646805 1.167199 0.283770 1.487099 0.248230
    3 -0.018918 -5.204151 1.209771 0.000000 0.000000 0.000000
    4 -0.106210 -0.041607 0.734739 0.000000 -1.570796 0.000000
    5 -0.006608 -7.088930 2.875793 0.000000 0.000000 0.000000
    6 0.000031 -0.420787 -0.134254 0.000000 0.000000 0.000000
    7 -0.086616 -2.846228 0.453552 -0.016525 0.000000 0.000000
    8 -0.086616 -6.239250 1.961809 0.000000 0.000000 0.000000
    9 -0.086616 -4.262175 -0.301127 0.000000 0.000000 0.000000
    10 -2.335521 -6.537070 -9.307219 -0.601940 0.419676 0.277951
    11 0.096947 -8.450419 -0.009363 0.565304 -0.484013 0.163290
    12 -0.586768 -1.264477 0.200164 -0.195236 -0.523905 -2.493289
    13 1.522834 0.058679 0.016851 0.284908 -0.062724 0.207853
    14 1.117947 0.048425 -0.005765 0.225346 -0.001726 0.050948
    15 -0.963867 -2.785143 -0.085346 -0.534770 -0.046320 0.035343
    16 0.028478 -1.403067 0.006271 -1.585394 0.000000 0.000000
    17 0.021414 -0.957781 0.020047 -1.007036 -0.248776 0.191909
    18 -0.249534 -2.846963 -0.174215 -0.881820 -0.052696 0.090280
    19 0.043234 -1.683940 0.096014 -1.837724 0.000000 0.000000
    20 0.031729 -1.160831 0.058836 -1.246304 0.000000 0.000000
    21 0.447952 -2.798983 -0.200441 -1.144028 0.037894 0.167993
    22 -0.032909 -1.480207 0.004936 -1.659992 0.000000 0.000000
    23 -0.027022 -1.076920 -0.020212 -0.972712 0.000000 0.000000
    24 1.164474 -2.543939 -0.170327 -1.340445 -0.035155 0.207255
    25 0.024032 -1.129040 0.017805 -1.441949 0.000000 0.000000
    26 0.014896 -0.883992 -0.019845 -0.763542 0.000000 0.000000
    27 -0.130622 -0.116383 -0.021176 0.289586 0.093244 1.456062
    28 0.583509 -1.197274 0.185379 0.167141 -0.668981 -0.728004
    29 1.535926 0.010247 0.005008 -0.097416 -0.205560 -1.019483
    30 1.100770 0.004528 -0.010675 0.000000 0.000000 -0.250166
    31 0.957766 -2.746777 -0.090301 -0.334120 0.035355 0.063678
    32 -0.033419 -1.397127 -0.011256 -0.104320 0.000000 0.000000
    33 -0.022361 -0.957434 0.018783 -0.638045 0.000000 0.000000
    34 0.250029 -2.820664 -0.238397 -0.618475 0.127049 -0.341497
    35 -0.049759 -1.680544 0.100479 -1.815466 0.077876 -0.019415
    36 -0.034141 -1.148310 0.084779 -0.997595 -0.031376 -0.015448
    37 -0.488517 -2.755600 -0.228262 -0.877258 0.177036 -0.438099
    38 0.039889 -1.479791 0.029854 -1.520913 0.000000 0.000000
    39 0.028786 -1.075733 -0.023111 -1.058310 0.000000 0.000000
    40 -1.180679 -2.507216 -0.193861 -1.019141 0.319461 -0.426610
    41 -0.024967 -1.123934 0.017594 -0.936346 0.000000 0.000000
    42 -0.020058 -0.890964 0.010091 -1.193241 0.000000 0.000000
    43 0.092807 -0.054173 -0.097459 3.122270 6.118195 -1.569909
  time 23
    0 8.034564 4.589344 -10.887435 0.893985 -2.128280 -1.331479
    1 -0.071918 -8.498731 -0.104136 0.319411 0.498452 -0.342295
    2 1.231110 -1.646805 1.167199 0.283770 1.487099 0.248230
    3 -0.018918 -5.204151 1.209771 0.000000 0.000000 0.000000
    4 -0.106210 -0.041607 0.734739 0.000000 -1.570796 0.000000
    5 -0.006608 -7.092837 2.875793 0.000000 0.000000 0.000000
    6 0.000031 -0.420787 -0.134254 0.000000 0.000000 0.000000
    7 -0.086616 -2.846228 0.453552 -0.013138 0.000000 0.000000
    8 -0.086616 -6.239250 1.961809 0.000000 0.000000 0.000000
    9 -0.086616 -4.262175 -0.301127 0.000000 0.000000 0.000000
    10 -2.425367 -6.548789 -9.201747 -0.582170 0.428302 0.291550
    11 0.096947 -8.450419 -0.009363 0.550925 -0.486078 0.157591
    12 -0.586768 -1.264477 0.200164 -0.200144 -0.522158 -2.483430
    13 1.522834 0.058679 0.016851 0.285830 -0.057843 0.191285
    14 1.117947 0.048425 -0.005765 0.225358 -0.002792 0.055603
    15 -0.963867 -2.785143 -0.085346 -0.534770 -0.046320 0.035343
    16 0.028478 -1.403067 0.006271 -1.585394 0.000000 0.000000
    17 0.021414 -0.957781 0.020047 -1.007036 -0.248776 0.191909
    18 -0.249534 -2.846963 -0.174215 -0.881820 -0.052696 0.090280
    19 0.043234 -1.683940 0.096014 -1.837724 0.000000 0.000000
    20 0.031729 -1.160831 0.058836 -1.246304 0.000000 0.000000
    21 0.447952 -2.798983 -0.200441 -1.144028 0.037894 0.168005
    22 -0.032909 -1.480207 0.004936 -1.659992 0.000000 0.000000
    23 -0.027022 -1.076920 -0.020212 -0.972663 0.000000 0.000000
    24 1.164474 -2.543939 -0.170327 -1.340445 -0.035155 0.207255
    25 0.024032 -1.129040 0.017805 -1.441949 0.000000 0.000000
    26 0.014896 -0.883992 -0.019845 -0.763542 0.000000 0.000000
    27 -0.130622 -0.116383 -0.021176 0.289586 0.093244 1.456062
    28 0.583509 -1.197274 0.185379 0.167141 -0.668981 -0.728004
    29 1.535926 0.010247 0.005008 -0.097416 -0.205560 -1.019483
    30 1.100770 0.004528 -0.010675 0.000000 0.000000 -0.250166
    31 0.957766 -2.746777 -0.090301 -0.334120 0.035355 0.063678
    32 -0.033419 -1.397127 -0.011256 -0.104320 0.000000 0.000000
    33 -0.022361 -0.957434 0.018783 -0.638045 0.000000 0.000000
    34 0.250029 -2.820664 -0.238397 -0.618475 0.127049 -0.341497
    35 -0.049759 -1.680544 0.100479 -1.815466 0.077876 -0.019415
    36 -0.034141 -1.148310 0.084779 -0.997595 -0.031376 -0.015448
    37 -0.488517 -2.755600 -0.228262 -0.877258 0.177036 -0.438099
    38 0.039889 -1.479791 0.029854 -1.520913 0.000000 0.000000
    39 0.028786 -1.075733 -0.023111 -1.058310 0.000000 0.000000
    40 -1.180679 -2.507216 -0.193861 -1.019141 0.319461 -0.426610
    41 -0.024967 -1.123934 0.017594 -0.936346 0.000000 0.000000
    42 -0.020058 -0.890964 0.010091 -1.193241 0.000000 0.000000
    43 0.092807 -0.054173 -0.097459 3.122270 6.118195 -1.569909
  time 24
    0 7.944717 4.550280 -10.875716 0.896358 -2.128497 -1.331246
    1 -0.071918 -8.498731 -0.104136 0.325355 0.494595 -0.346208
    2 1.231110 -1.646805 1.167199 0.283770 1.487099 0.248230
    3 -0.018918 -5.204151 1.209771 0.000000 0.000000 0.000000
    4 -0.106210 -0.041607 0.734739 0.000000 -1.570796 0.000000
    5 -0.006608 -7.100649 2.875793 0.000000 0.000000 0.000000
    6 0.000031 -0.420787 -0.134254 0.000000 0.000000 0.000000
    7 -0.086616 -2.846228 0.453552 -0.009997 0.000000 0.000000
    8 -0.086616 -6.239250 1.961809 0.000000 0.000000 0.000000
    9 -0.086616 -4.262175 -0.301127 0.000000 0.000000 0.000000
    10 -2.507401 -6.560508 -9.100181 -0.561777 0.437503 0.306766
    11 0.096947 -8.450419 -0.009363 0.535709 -0.489177 0.153283
    12 -0.586768 -1.264477 0.200164 -0.205177 -0.520355 -2.473336
    13 1.522834 0.058679 0.016851 0.286777 -0.052855 0.174290
    14 1.117947 0.048425 -0.005765 0.225370 -0.003871 0.060383
    15 -0.963867 -2.785143 -0.085346 -0.534770 -0.046320 0.035343
    16 0.028478 -1.403067 0.006271 -1.585394 0.000000 0.000000
    17 0.021414 -0.957781 0.020047 -1.007036 -0.248776 0.191909
    18 -0.249534 -2.846963 -0.174215 -0.881820 -0.052696 0.090280
    19 0.043234 -1.683940 0.096014 -1.837724 0.000000 0.000000
    20 0.031729 -1.160831 0.058836 -1.246304 0.000000 0.000000
    21 0.447952 -2.798983 -0.200441 -1.144028 0.037894 0.167993
    22 -0.032909 -1.480207 0.004936 -1.659992 0.000000 0.000000
    23 -0.027022 -1.076920 -0.020212 -0.972712 0.000000 0.000000
    24 1.164474 -2.543939 -0.170327 -1.340445 -0.035155 0.207255
    25 0.024032 -1.129040 0.017805 -1.441949 0.000000 0.000000
    26 0.014896 -0.883992 -0.019845 -0.763542 0.000000 0.000000
    27 -0.130622 -0.116383 -0.021176 0.289586 0.093244 1.456062
    28 0.583509 -1.197274 0.185379 0.167141 -0.668981 -0.728004
    29 1.535926 0.010247 0.005008 -0.097416 -0.205560 -1.019483
    30 1.100770 0.004528 -0.010675 0.000000 0.000000 -0.250166
    31 0.957766 -2.746777 -0.090301 -0.334120 0.035355 0.063678
    32 -0.033419 -1.397127 -0.011256 -0.104320 0.000000 0.000000
    33 -0.022361 -0.957434 0.018783 -0.638045 0.000000 0.000000
    34 0.250029 -2.820664 -0.238397 -0.618475 0.127049 -0.341497
    35 -0.049759 -1.680544 0.100479 -1.815466 0.077876 -0.019415
    36 -0.034141 -1.148310 0.084779 -0.997595 -0.031376 -0.015448
    37 -0.488517 -2.755600 -0.228262 -0.877258 0.177036 -0.438099
    38 0.039889 -1.479791 0.029854 -1.520913 0.000000 0.000000
    39 0.028786 -1.075733 -0.023111 -1.058310 0.000000 0.000000
    40 -1.180679 -2.507216 -0.193861 -1.019141 0.319461 -0.426610
    41 -0.024967 -1.123934 0.017594 -0.936346 0.000000 0.000000
    42 -0.020058 -0.890964 0.010091 -1.193241 0.000000 0.000000
    43 0.092807 -0.054173 -0.097459 3.122270 6.118195 -1.569909
  time 25
    0 7.854871 4.511217 -10.863997 0.899084 -2.128677 -1.331013
    1 -0.071918 -8.498731 -0.104136 0.332776 0.489345 -0.350062
    2 1.231110 -1.646805 1.167199 0.283770 1.487099 0.248230
    3 -0.018918 -5.204151 1.209771 0.000000 0.000000 0.000000
    4 -0.106210 -0.041607 0.734739 0.000000 -1.570796 0.000000
    5 -0.006608 -7.104556 2.875793 0.000000 0.000000 0.000000
    6 0.000031 -0.420787 -0.134254 0.000000 0.000000 0.000000
    7 -0.086616 -2.846228 0.453552 -0.007186 0.000000 0.000000
    8 -0.086616 -6.239250 1.961809 0.000000 0.000000 0.000000
    9 -0.086616 -4.262175 -0.301127 0.000000 0.000000 0.000000
    10 -2.581622 -6.564415 -9.006428 -0.541882 0.446512 0.322570
    11 0.096947 -8.450419 -0.009363 0.520213 -0.493430 0.151550
    12 -0.586768 -1.264477 0.200164 -0.210085 -0.518581 -2.463495
    13 1.522834 0.058679 0.016851 0.287700 -0.047975 0.157679
    14 1.117947 0.048425 -0.005765 0.225370 -0.004938 0.065037
    15 -0.963867 -2.785143 -0.085346 -0.534770 -0.046320 0.035343
    16 0.028478 -1.403067 0.006271 -1.585394 0.000000 0.000000
    17 0.021414 -0.957781 0.020047 -1.007036 -0.248776 0.191909
    18 -0.249534 -2.846963 -0.174215 -0.881820 -0.052696 0.090280
    19 0.043234 -1.683940 0.096014 -1.837724 0.000000 0.000000
    20 0.031729 -1.160831 0.058836 -1.246304 0.000000 0.000000
    21 0.447952 -2.798983 -0.200441 -1.144028 0.037894 0.167993
    22 -0.032909 -1.480207 0.004936 -1.659992 0.000000 0.000000
    23 -0.027022 -1.076920 -0.020212 -0.972712 0.000000 0.000000
    24 1.164474 -2.543939 -0.170327 -1.340445 -0.035155 0.207255
    25 0.024032 -1.129040 0.017805 -1.441949 0.000000 0.000000
    26 0.014896 -0.883992 -0.019845 -0.763542 0.000000 0.000000
    27 -0.130622 -0.116383 -0.021176 0.289586 0.093244 1.456062
    28 0.583509 -1.197274 0.185379 0.167141 -0.668981 -0.728004
    29 1.535926 0.010247 0.005008 -0.097416 -0.205560 -1.019483
    30 1.100770 0.004528 -0.010675 0.000000 0.000000 -0.250166
    31 0.957766 -2.746777 -0.090301 -0.334120 0.035355 0.063678
    32 -0.033419 -1.397127 -0.011256 -0.104320 0.000000 0.000000
    33 -0.022361 -0.957434 0.018783 -0.638045 0.000000 0.000000
    34 0.250029 -2.820664 -0.238397 -0.618475 0.127049 -0.341497
    35 -0.049759 -1.680544 0.100479 -1.815466 0.077876 -0.019415
    36 -0.034141 -1.148310 0.084779 -0.997595 -0.031376 -0.015448
    37 -0.488517 -2.755600 -0.228262 -0.877258 0.177036 -0.438099
    38 0.039889 -1.479791 0.029854 -1.520913 0.000000 0.000000
    39 0.028786 -1.075733 -0.023111 -1.058310 0.000000 0.000000
    40 -1.180679 -2.507216 -0.193861 -1.019141 0.319461 -0.426610
    41 -0.024967 -1.123934 0.017594 -0.936346 0.000000 0.000000
    42 -0.020058 -0.890964 0.010091 -1.193241 0.000000 0.000000
    43 0.092807 -0.054173 -0.097459 3.122270 6.118195 -1.569909
  time 26
    0 7.772837 4.476059 -10.856184 0.901721 -2.128893 -1.330896
    1 -0.071918 -8.498731 -0.104136 0.340798 0.483418 -0.353681
    2 1.231110 -1.646805 1.167199 0.283770 1.487099 0.248230
    3 -0.018918 -5.204151 1.209771 0.000000 0.000000 0.000000
    4 -0.106210 -0.041607 0.734739 0.000000 -1.570796 0.000000
    5 -0.006608 -7.108462 2.875793 0.000000 0.000000 0.000000
    6 0.000031 -0.420787 -0.134254 0.000000 0.000000 0.000000
    7 -0.086616 -2.846228 0.453552 -0.004752 0.000000 0.000000
    8 -0.086616 -6.239250 1.961809 0.000000 0.000000 0.000000
    9 -0.086616 -4.262175 -0.301127 0.000000 0.000000 0.000000
    10 -2.648030 -6.572227 -8.920488 -0.523672 0.454755 0.337859
    11 0.096947 -8.450419 -0.009363 0.500709 -0.501054 0.155647
    12 -0.586768 -1.264477 0.200164 -0.214647 -0.516972 -2.454375
    13 1.522834 0.058679 0.016851 0.288551 -0.043437 0.142307
    14 1.117947 0.048425 -0.005765 0.225382 -0.005920 0.069356
    15 -0.963867 -2.785143 -0.085346 -0.534770 -0.046320 0.035343
    16 0.028478 -1.403067 0.006271 -1.585394 0.000000 0.000000
    17 0.021414 -0.957781 0.020047 -1.007036 -0.248776 0.191909
    18 -0.249534 -2.846963 -0.174215 -0.881820 -0.052696 0.090280
    19 0.043234 -1.683940 0.096014 -1.837724 0.000000 0.000000
    20 0.031729 -1.160831 0.058836 -1.246304 0.000000 0.000000
    21 0.447952 -2.798983 -0.200441 -1.144028 0.037894 0.167993
    22 -0.032909 -1.480207 0.004936 -1.659992 0.000000 0.000000
    23 -0.027022 -1.076920 -0.020212 -0.972712 0.000000 0.000000
    24 1.164474 -2.543939 -0.170327 -1.340445 -0.035155 0.207255
    25 0.024032 -1.129040 0.017805 -1.441949 0.000000 0.000000
    26 0.014896 -0.883992 -0.019845 -0.763542 0.000000 0.000000
    27 -0.130622 -0.116383 -0.021176 0.289586 0.093244 1.456062
    28 0.583509 -1.197274 0.185379 0.167141 -0.668981 -0.728004
    29 1.535926 0.010247 0.005008 -0.097416 -0.205560 -1.019483
    30 1.100770 0.004528 -0.010675 0.000000 0.000000 -0.250166
    31 0.957766 -2.746777 -0.090301 -0.334120 0.035355 0.063678
    32 -0.033419 -1.397127 -0.011256 -0.104320 0.000000 0.000000
    33 -0.022361 -0.957434 0.018783 -0.638045 0.000000 0.000000
    34 0.250029 -2.820664 -0.238397 -0.618475 0.127049 -0.341497
    35 -0.049759 -1.680544 0.100479 -1.815466 0.077876 -0.019415
    36 -0.034141 -1.148310 0.084779 -0.997595 -0.031376 -0.015448
    37 -0.488517 -2.755600 -0.228262 -0.877258 0.177036 -0.438099
    38 0.039889 -1.479791 0.029854 -1.520913 0.000000 0.000000
    39 0.028786 -1.075733 -0.023111 -1.058310 0.000000 0.000000
    40 -1.180679 -2.507216 -0.193861 -1.019141 0.319461 -0.426610
    41 -0.024967 -1.123934 0.017594 -0.936346 0.000000 0.000000
    42 -0.020058 -0.890964 0.010091 -1.193241 0.000000 0.000000
    43 0.092807 -0.054173 -0.097459 3.122270 6.118195 -1.569909
  time 27
    0 7.698616 4.444808 -10.848372 0.904095 -2.129037 -1.330819
    1 -0.071918 -8.498731 -0.104136 0.348545 0.477492 -0.356831
    2 1.231110 -1.646805 1.167199 0.283770 1.487099 0.248230
    3 -0.018918 -5.204151 1.209771 0.000000 0.000000 0.000000
    4 -0.106210 -0.041607 0.734739 0.000000 -1.570796 0.000000
    5 -0.006608 -7.112368 2.875793 0.000000 0.000000 0.000000
    6 0.000031 -0.420787 -0.134254 0.000000 0.000000 0.000000
    7 -0.086616 -2.846228 0.453552 -0.002762 0.000000 0.000000
    8 -0.086616 -6.239250 1.961809 0.000000 0.000000 0.000000
    9 -0.086616 -4.262175 -0.301127 0.000000 0.000000 0.000000
    10 -2.698813 -6.576134 -8.850174 -0.508081 0.461751 0.351458
    11 0.096947 -8.450419 -0.009363 0.476578 -0.512081 0.165391
    12 -0.586768 -1.264477 0.200164 -0.218588 -0.515558 -2.446426
    13 1.522834 0.058679 0.016851 0.289294 -0.039511 0.128941
    14 1.117947 0.048425 -0.005765 0.225382 -0.006771 0.073109
    15 -0.963867 -2.785143 -0.085346 -0.534770 -0.046320 0.035343
    16 0.028478 -1.403067 0.006271 -1.585394 0.000000 0.000000
    17 0.021414 -0.957781 0.020047 -1.007036 -0.248776 0.191909
    18 -0.249534 -2.846963 -0.174215 -0.881820 -0.052696 0.090280
    19 0.043234 -1.683940 0.096014 -1.837724 0.000000 0.000000
    20 0.031729 -1.160831 0.058836 -1.246304 0.000000 0.000000
    21 0.447952 -2.798983 -0.200441 -1.144028 0.037894 0.167993
    22 -0.032909 -1.480207 0.004936 -1.659992 0.000000 0.000000
    23 -0.027022 -1.076920 -0.020212 -0.972712 0.000000 0.000000
    24 1.164474 -2.543939 -0.170327 -1.340445 -0.035155 0.207255
    25 0.024032 -1.129040 0.017805 -1.441949 0.000000 0.000000
    26 0.014896 -0.883992 -0.019845 -0.763542 0.000000 0.000000
    27 -0.130622 -0.116383 -0.021176 0.289586 0.093244 1.456062
    28 0.583509 -1.197274 0.185379 0.167141 -0.668981 -0.728004
    29 1.535926 0.010247 0.005008 -0.097416 -0.205560 -1.019483
    30 1.100770 0.004528 -0.010675 0.000000 0.000000 -0.250166
    31 0.957766 -2.746777 -0.090301 -0.334120 0.035355 0.063678
    32 -0.033419 -1.397127 -0.011256 -0.104320 0.000000 0.000000
    33 -0.022361 -0.957434 0.018783 -0.638045 0.000000 0.000000
    34 0.250029 -2.820664 -0.238397 -0.618475 0.127049 -0.341497
    35 -0.049759 -1.680544 0.100479 -1.815466 0.077876 -0.019415
    36 -0.034141 -1.148310 0.084779 -0.997595 -0.031376 -0.015448
    37 -0.488517 -2.755600 -0.228262 -0.877258 0.177036 -0.438099
    38 0.039889 -1.479791 0.029854 -1.520913 0.000000 0.000000
    39 0.028786 -1.075733 -0.023111 -1.058310 0.000000 0.000000
    40 -1.180679 -2.507216 -0.193861 -1.019141 0.319461 -0.426610
    41 -0.024967 -1.123934 0.017594 -0.936346 0.000000 0.000000
    42 -0.020058 -0.890964 0.010091 -1.193241 0.000000 0.000000
    43 0.092807 -0.054173 -0.097459 3.122270 6.118195 -1.569909
  time 28
    0 7.640021 4.417464 -10.840559 0.906117 -2.129145 -1.330741
    1 -0.071918 -8.498731 -0.104136 0.355153 0.472401 -0.359354
    2 1.231110 -1.646805 1.167199 0.283770 1.487099 0.248230
    3 -0.018918 -5.204151 1.209771 0.000000 0.000000 0.000000
    4 -0.106210 -0.041607 0.734739 0.000000 -1.570796 0.000000
    5 -0.006608 -7.116275 2.875793 0.000000 0.000000 0.000000
    6 0.000031 -0.420787 -0.134254 0.000000 0.000000 0.000000
    7 -0.086616 -2.846228 0.453552 -0.001266 0.000000 0.000000
    8 -0.086616 -6.239250 1.961809 0.000000 0.000000 0.000000
    9 -0.086616 -4.262175 -0.301127 0.000000 0.000000 0.000000
    10 -2.741783 -6.580040 -8.795484 -0.496045 0.467214 0.362410
    11 0.096947 -8.450419 -0.009363 0.452965 -0.523593 0.177026
    12 -0.586768 -1.264477 0.200164 -0.221712 -0.514449 -2.440172
    13 1.522834 0.058679 0.016851 0.289881 -0.036396 0.118394
    14 1.117947 0.048425 -0.005765 0.225382 -0.007454 0.076065
    15 -0.963867 -2.785143 -0.085346 -0.534770 -0.046320 0.035343
    16 0.028478 -1.403067 0.006271 -1.585394 0.000000 0.000000
    17 0.021414 -0.957781 0.020047 -1.007036 -0.248776 0.191909
    18 -0.249534 -2.846963 -0.174215 -0.881820 -0.052696 0.090280
    19 0.043234 -1.683940 0.096014 -1.837724 0.000000 0.000000
    20 0.031729 -1.160831 0.058836 -1.246304 0.000000 0.000000
    21 0.447952 -2.798983 -0.200441 -1.144028 0.037894 0.167993
    22 -0.032909 -1.480207 0.004936 -1.659992 0.000000 0.000000
    23 -0.027022 -1.076920 -0.020212 -0.972712 0.000000 0.000000
    24 1.164474 -2.543939 -0.170327 -1.340445 -0.035155 0.207255
    25 0.024032 -1.129040 0.017805 -1.441949 0.000000 0.000000
    26 0.014896 -0.883992 -0.019845 -0.763542 0.000000 0.000000
    27 -0.130622 -0.116383 -0.021176 0.289586 0.093244 1.456062
    28 0.583509 -1.197274 0.185379 0.167141 -0.668981 -0.728004
    29 1.535926 0.010247 0.005008 -0.097416 -0.205560 -1.019483
    30 1.100770 0.004528 -0.010675 0.000000 0.000000 -0.250166
    31 0.957766 -2.746777 -0.090301 -0.334120 0.035355 0.063678
    32 -0.033419 -1.397127 -0.011256 -0.104320 0.000000 0.000000
    33 -0.022361 -0.957434 0.018783 -0.638045 0.000000 0.000000
    34 0.250029 -2.820664 -0.238397 -0.618475 0.127049 -0.341497
    35 -0.049759 -1.680544 0.100479 -1.815466 0.077876 -0.019415
    36 -0.034141 -1.148310 0.084779 -0.997595 -0.031376 -0.015448
    37 -0.488517 -2.755600 -0.228262 -0.877258 0.177036 -0.438099
    38 0.039889 -1.479791 0.029854 -1.520913 0.000000 0.000000
    39 0.028786 -1.075733 -0.023111 -1.058310 0.000000 0.000000
    40 -1.180679 -2.507216 -0.193861 -1.019141 0.319461 -0.426610
    41 -0.024967 -1.123934 0.017594 -0.936346 0.000000 0.000000
    42 -0.020058 -0.890964 0.010091 -1.193241 0.000000 0.000000
    43 0.092807 -0.054173 -0.097459 3.122270 6.118195 -1.569909
  time 29
    0 7.604863 4.401838 -10.836652 0.907436 -2.129253 -1.330741
    1 -0.071918 -8.498731 -0.104136 0.359758 0.468782 -0.360998
    2 1.231110 -1.646805 1.167199 0.283770 1.487099 0.248230
    3 -0.018918 -5.204151 1.209771 0.000000 0.000000 0.000000
    4 -0.106210 -0.041607 0.734739 0.000000 -1.570796 0.000000
    5 -0.006608 -7.116275 2.875793 0.000000 0.000000 0.000000
    6 0.000031 -0.420787 -0.134254 0.000000 0.000000 0.000000
    7 -0.086616 -2.846228 0.453552 -0.000312 0.000000 0.000000
    8 -0.086616 -6.239250 1.961809 0.000000 0.000000 0.000000
    9 -0.086616 -4.262175 -0.301127 0.000000 0.000000 0.000000
    10 -2.765221 -6.580040 -8.760327 -0.488249 0.470760 0.369688
    11 0.096947 -8.450419 -0.009363 0.435017 -0.532676 0.186744
    12 -0.586768 -1.264477 0.200164 -0.223769 -0.513700 -2.436062
    13 1.522834 0.058679 0.016851 0.290265 -0.034361 0.111476
    14 1.117947 0.048425 -0.005765 0.225382 -0.007886 0.078015
    15 -0.963867 -2.785143 -0.085346 -0.534770 -0.046320 0.035343
    16 0.028478 -1.403067 0.006271 -1.585394 0.000000 0.000000
    17 0.021414 -0.957781 0.020047 -1.007036 -0.248776 0.191909
    18 -0.249534 -2.846963 -0.174215 -0.881820 -0.052696 0.090280
    19 0.043234 -1.683940 0.096014 -1.837724 0.000000 0.000000
    20 0.031729 -1.160831 0.058836 -1.246304 0.000000 0.000000
    21 0.447952 -2.798983 -0.200441 -1.144028 0.037894 0.167993
    22 -0.032909 -1.480207 0.004936 -1.659992 0.000000 0.000000
    23 -0.027022 -1.076920 -0.020212 -0.972712 0.000000 0.000000
    24 1.164474 -2.543939 -0.170327 -1.340445 -0.035155 0.207255
    25 0.024032 -1.129040 0.017805 -1.441949 0.000000 0.000000
    26 0.014896 -0.883992 -0.019845 -0.763542 0.000000 0.000000
    27 -0.130622 -0.116383 -0.021176 0.289586 0.093244 1.456062
    28 0.583509 -1.197274 0.185379 0.167141 -0.668981 -0.728004
    29 1.535926 0.010247 0.005008 -0.097416 -0.205560 -1.019483
    30 1.100770 0.004528 -0.010675 0.000000 0.000000 -0.250166
    31 0.957766 -2.746777 -0.090301 -0.334120 0.035355 0.063678
    32 -0.033419 -1.397127 -0.011256 -0.104320 0.000000 0.000000
    33 -0.022361 -0.957434 0.018783 -0.638045 0.000000 0.000000
    34 0.250029 -2.820664 -0.238397 -0.618475 0.127049 -0.341497
    35 -0.049759 -1.680544 0.100479 -1.815466 0.077876 -0.019415
    36 -0.034141 -1.148310 0.084779 -0.997595 -0.031376 -0.015448
    37 -0.488517 -2.755600 -0.228262 -0.877258 0.177036 -0.438099
    38 0.039889 -1.479791 0.029854 -1.520913 0.000000 0.000000
    39 0.028786 -1.075733 -0.023111 -1.058310 0.000000 0.000000
    40 -1.180679 -2.507216 -0.193861 -1.019141 0.319461 -0.426610
    41 -0.024967 -1.123934 0.017594 -0.936346 0.000000 0.000000
    42 -0.020058 -0.890964 0.010091 -1.193241 0.000000 0.000000
    43 0.092807 -0.054173 -0.097459 3.122270 6.118195 -1.569909
  time 30
    0 7.589238 4.397932 -10.832746 0.907964 -2.129253 -1.330741
    1 -0.071918 -8.498731 -0.104136 0.361485 0.467430 -0.361585
    2 1.231110 -1.646805 1.167199 0.283770 1.487099 0.248230
    3 -0.018918 -5.204151 1.209771 0.000000 0.000000 0.000000
    4 -0.106210 -0.041607 0.734739 0.000000 -1.570796 0.000000
    5 -0.006608 -7.116275 2.875793 0.000000 0.000000 0.000000
    6 0.000031 -0.420787 -0.134254 0.000000 0.000000 0.000000
    7 -0.086616 -2.846228 0.453552 0.000000 0.000000 0.000000
    8 -0.086616 -6.239250 1.961809 0.000000 0.000000 0.000000
    9 -0.086616 -4.262175 -0.301127 0.000000 0.000000 0.000000
    10 -2.773034 -6.580040 -8.748608 -0.485505 0.472102 0.372334
    11 0.096947 -8.450419 -0.009363 0.427877 -0.536382 0.190841
    12 -0.586768 -1.264477 0.200164 -0.224488 -0.513450 -2.434584
    13 1.522834 0.058679 0.016851 0.290409 -0.033622 0.109000
    14 1.117947 0.048425 -0.005765 0.225382 -0.008054 0.078707
    15 -0.963867 -2.785143 -0.085346 -0.534770 -0.046320 0.035343
    16 0.028478 -1.403067 0.006271 -1.585394 0.000000 0.000000
    17 0.021414 -0.957781 0.020047 -1.007036 -0.248776 0.191909
    18 -0.249534 -2.846963 -0.174215 -0.881820 -0.052696 0.090280
    19 0.043234 -1.683940 0.096014 -1.837724 0.000000 0.000000
    20 0.031729 -1.160831 0.058836 -1.246304 0.000000 0.000000
    21 0.447952 -2.798983 -0.200441 -1.144028 0.037894 0.167993
    22 -0.032909 -1.480207 0.004936 -1.659992 0.000000 0.000000
    23 -0.027022 -1.076920 -0.020212 -0.972712 0.000000 0.000000
    24 1.164474 -2.543939 -0.170327 -1.340445 -0.035155 0.207255
    25 0.024032 -1.129040 0.017805 -1.441949 0.000000 0.000000
    26 0.014896 -0.883992 -0.019845 -0.763542 0.000000 0.000000
    27 -0.130622 -0.116383 -0.021176 0.289586 0.093244 1.456062
    28 0.583509 -1.197274 0.185379 0.167141 -0.668981 -0.728004
    29 1.535926 0.010247 0.005008 -0.097416 -0.205560 -1.019483
    30 1.100770 0.004528 -0.010675 0.000000 0.000000 -0.250166
    31 0.957766 -2.746777 -0.090301 -0.334120 0.035355 0.063678
    32 -0.033419 -1.397127 -0.011256 -0.104320 0.000000 0.000000
    33 -0.022361 -0.957434 0.018783 -0.638045 0.000000 0.000000
    34 0.250029 -2.820664 -0.238397 -0.618475 0.127049 -0.341497
    35 -0.049759 -1.680544 0.100479 -1.815466 0.077876 -0.019415
    36 -0.034141 -1.148310 0.084779 -0.997595 -0.031376 -0.015448
    37 -0.488517 -2.755600 -0.228262 -0.877258 0.177036 -0.438099
    38 0.039889 -1.479791 0.029854 -1.520913 0.000000 0.000000
    39 0.028786 -1.075733 -0.023111 -1.058310 0.000000 0.000000
    40 -1.180679 -2.507216 -0.193861 -1.019141 0.319461 -0.426610
    41 -0.024967 -1.123934 0.017594 -0.936346 0.000000 0.000000
    42 -0.020058 -0.890964 0.010091 -1.193241 0.000000 0.000000
    43 0.092807 -0.054173 -0.097459 3.122270 6.118195 -1.569909
end
