version 1
nodes
  0 "crow5_root" -1
  1 "megazine" 0
  2 "light" 0
  3 "light01" 0
  4 "light02" 0
  5 "lightning" 0
  6 "trigger" 0
  7 "reloader" 0
  8 "root" -1
  9 "Bone01" 8
  10 "Bone_L_Upper" 9
  11 "Bone_Lefthand" 9
  12 "Bone13" 11
  13 "Bone14" 12
  14 "Bone15" 13
  15 "Bone17" 11
  16 "Bone18" 15
  17 "Bone19" 16
  18 "Bone21" 11
  19 "Bone22" 18
  20 "Bone23" 19
  21 "Bone09" 11
  22 "Bone10" 21
  23 "Bone11" 22
  24 "Bone05" 11
  25 "Bone06" 24
  26 "Bone07" 25
  27 "Bone_Se_Hand-L" 11
  28 "Bone04" 8
  29 "Bone_Righthand" 28
  30 "Bone39" 29
  31 "Bone40" 30
  32 "Bone41" 31
  33 "Bone35" 29
  34 "Bone36" 33
  35 "Bone37" 34
  36 "Bone31" 29
  37 "Bone32" 36
  38 "Bone33" 37
  39 "Bone43" 29
  40 "Bone44" 39
  41 "Bone45" 40
  42 "Bone27" 29
  43 "Bone28" 42
  44 "Bone29" 43
  45 "Bone_Se_Hand-R" 29
  46 "Bone_R_Upper" 28
end
skeleton
  time 0
    0 5.484505 -11.473002 -6.138118 -0.628326 -1.475809 -4.196970
    1 0.661211 -0.000004 -2.641094 0.000000 -3.141592 0.000000
    2 3.247482 -0.000005 -1.130647 0.000000 0.000000 -0.000001
    3 3.260927 1.355822 2.192472 2.208361 -1.542144 -1.139077
    4 3.261963 1.374206 1.040803 -2.040361 -1.570796 0.000000
    5 2.531871 -0.036995 -2.070253 0.000000 0.000000 -0.000001
    6 1.073001 -0.000003 4.918042 0.000000 -3.141592 0.000000
    7 2.916357 0.664625 10.775771 -3.048099 0.000000 1.570796
    8 0.923057 -2.001326 -3.726057 -0.062488 -0.333819 0.188710
    9 4.587303 -3.072984 -7.479679 1.102189 -1.885206 -1.302764
    10 7.683157 3.242885 -0.333406 1.566162 -3.122440 0.481097
    11 -0.028951 -8.393264 -0.108040 -0.386113 0.454446 -0.203685
    12 -0.488518 -2.755602 -0.228260 -0.926864 0.104123 -0.205670
    13 0.039887 -1.530573 0.014229 -1.473570 -0.012212 0.032731
    14 0.028786 -1.169484 -0.124675 -1.082413 -0.015161 0.023166
    15 0.250027 -2.820665 -0.238396 -0.656416 0.070401 -0.070751
    16 -0.049759 -1.594604 0.026258 -1.644847 -0.001630 -0.043494
    17 -0.034142 -1.156125 0.057437 -0.778245 0.008377 -0.019511
    18 0.957766 -2.746780 -0.090302 0.192366 -0.212660 0.232006
    19 -0.033420 -1.397129 -0.026882 -0.840549 0.006592 -0.041348
    20 -0.022360 -0.957436 -0.000748 -0.702856 0.007562 -0.034132
    21 -1.180681 -2.507217 -0.193859 -1.000921 0.270987 -0.298350
    22 -0.024967 -1.127840 0.017597 -0.956758 0.004674 -0.041010
    23 -0.020057 -0.906594 0.033528 -1.043762 0.004698 -0.042809
    24 0.603042 -1.205090 0.189285 0.170717 -0.910476 -0.421804
    25 1.485144 -0.208511 0.067511 0.044099 -0.208064 -0.737596
    26 0.975767 -0.198604 0.051823 0.125211 -0.269176 -1.206668
    27 0.120153 -0.050270 -0.054489 0.287569 3.110905 1.561085
    28 -4.907629 -8.512610 -6.103032 0.456406 -4.085026 0.805668
    29 -0.172595 -8.442606 0.025792 -0.621861 -1.363805 0.750355
    30 0.447953 -2.798986 -0.200443 -1.080608 -0.116016 0.286451
    31 -0.032909 -1.495829 0.016659 -0.937501 0.019763 -0.014176
    32 -0.027022 -1.096452 -0.028023 -0.513425 0.013471 -0.005429
    33 -0.249534 -2.846964 -0.174213 -0.688709 -0.073099 0.004763
    34 0.043235 -1.660503 0.080387 -1.014688 -0.016652 0.001691
    35 0.031729 -1.153017 0.058838 -0.444953 -0.003900 0.005867
    36 -0.963866 -2.785145 -0.085350 -0.359784 0.157230 -0.206201
    37 0.028479 -1.403067 -0.013261 -0.774906 -0.017929 -0.029782
    38 0.021413 -0.957781 0.020046 -0.175941 -0.002013 -0.007862
    39 1.164475 -2.543940 -0.170330 -1.269961 -0.216253 0.419838
    40 0.024032 -1.136855 -0.001725 -0.773654 0.004039 0.041288
    41 0.014898 -0.895708 -0.019848 -0.595607 -0.000911 0.029698
    42 -0.586770 -1.264477 0.200161 -0.073069 -0.460710 -2.781506
    43 1.557992 0.035243 0.016848 -0.014170 -0.005588 0.722307
    44 1.117947 0.048424 -0.005766 0.002681 -0.021758 -0.075216
    45 -0.037833 -0.131230 -0.106700 0.756922 0.202509 1.380917
    46 -6.776447 5.413291 -0.399594 1.578216 -0.025492 -0.771279
  time 1
    0 5.472786 -9.308874 -6.009208 -0.638143 -1.455715 -4.178867
    1 0.661211 -0.000004 -2.641094 0.000000 -3.141592 0.000000
    2 3.247482 -0.000005 -1.130647 0.000000 0.000000 -0.000001
    3 3.260927 1.355822 2.192472 2.208361 -1.542144 -1.139077
    4 3.261963 1.374206 1.040803 -2.040361 -1.570796 0.000000
    5 2.531871 -0.036995 -2.070253 0.000000 0.000000 -0.000001
    6 1.073001 -0.000003 4.918042 0.000000 -3.916668 0.000000
    7 2.549158 0.664625 6.853776 -3.048099 0.000000 1.570796
    8 0.923057 -2.001326 -3.726057 -0.062488 -0.333819 0.188710
    9 5.013097 -1.248709 -8.151574 1.206413 -1.981828 -1.404214
    10 8.003480 -0.393945 -0.392002 -1.570274 -0.027231 -3.112478
    11 -0.017232 -8.381545 -0.108040 -0.381980 0.445926 -0.293573
    12 -0.488518 -2.755602 -0.228260 -0.926864 0.104123 -0.205670
    13 0.039887 -1.530573 0.014229 -1.473570 -0.012212 0.032731
    14 0.028786 -1.169484 -0.124675 -1.082413 -0.015161 0.023166
    15 0.250027 -2.820665 -0.238396 -0.656416 0.070401 -0.070751
    16 -0.049759 -1.594604 0.026258 -1.644847 -0.001630 -0.043494
    17 -0.034142 -1.156125 0.057437 -0.778245 0.008377 -0.019511
    18 0.957766 -2.746780 -0.090302 0.191682 -0.110288 0.253974
    19 -0.033420 -1.397129 -0.034695 -1.363418 -0.006615 -0.063879
    20 -0.022360 -0.957436 -0.000748 -0.754936 0.007143 -0.036733
    21 -1.180681 -2.507217 -0.193859 -1.000921 0.270987 -0.298350
    22 -0.024967 -1.127840 0.017597 -0.956758 0.004674 -0.041010
    23 -0.020057 -0.906594 0.033528 -1.043762 0.004698 -0.042809
    24 0.603042 -1.205090 0.189285 0.170717 -0.910476 -0.421804
    25 1.485144 -0.208511 0.067511 0.044099 -0.208064 -0.737596
    26 0.975767 -0.198604 0.051823 0.125211 -0.269176 -1.206668
    27 0.120153 -0.050270 -0.054489 0.287569 3.110905 1.561085
    28 -5.415457 -7.422733 -7.005403 0.636115 -4.001931 1.107853
    29 -0.180408 -8.469950 0.029699 -0.324877 -1.383317 0.640329
    30 0.447953 -2.798986 -0.200443 -1.080608 -0.116016 0.286451
    31 -0.032909 -1.495829 0.016659 -0.937501 0.019763 -0.014176
    32 -0.027022 -1.096452 -0.028023 -0.513425 0.013471 -0.005429
    33 -0.249534 -2.846964 -0.174213 -0.688709 -0.073099 0.004763
    34 0.043235 -1.660503 0.080387 -1.014688 -0.016652 0.001691
    35 0.031729 -1.153017 0.058838 -0.444953 -0.003900 0.005867
    36 -0.963866 -2.785145 -0.085350 -0.359784 0.157230 -0.206201
    37 0.028479 -1.403067 -0.013261 -0.774906 -0.017929 -0.029782
    38 0.021413 -0.957781 0.020046 -0.175941 -0.002013 -0.007862
    39 1.164475 -2.543940 -0.170330 -1.269961 -0.216253 0.419838
    40 0.024032 -1.136855 -0.001725 -0.773654 0.004039 0.041288
    41 0.014898 -0.895708 -0.019848 -0.595607 -0.000911 0.029698
    42 -0.586770 -1.264477 0.200161 -0.073069 -0.460710 -2.781506
    43 1.557992 0.035243 0.016848 -0.014170 -0.005588 0.722307
    44 1.117947 0.048424 -0.005766 0.002681 -0.021758 -0.075216
    45 -0.037833 -0.131230 -0.106700 0.756922 0.202509 1.380917
    46 -8.159302 1.881934 -0.462096 1.569781 -0.034483 -0.306657
  time 2
    0 5.578258 -9.215121 -5.919361 -0.440219 -1.441851 -4.385757
    1 0.661211 -0.000004 -2.641094 0.000000 -3.141592 0.000000
    2 3.247482 -0.000005 -1.130647 0.000000 0.000000 -0.000001
    3 3.260927 1.355822 2.192472 2.208361 -1.542144 -1.139077
    4 3.261963 1.374206 1.040803 -2.040361 -1.570796 0.000000
    5 2.531871 -0.036995 -2.070253 0.000000 0.000000 -0.000001
    6 1.073001 -0.000003 4.918042 0.000000 -3.916645 0.000000
    7 2.674162 0.664625 8.162410 -3.048099 0.000000 1.570796
    8 0.923057 -2.001326 -3.726057 -0.062488 -0.333819 0.188710
    9 5.056067 -1.213552 -8.151574 1.204658 -1.989002 -1.391954
    10 7.987854 -0.495510 -0.392002 -1.570083 -0.027422 -3.125084
    11 -0.017232 -8.385452 -0.108040 -0.391118 0.466387 -0.277978
    12 -0.488518 -2.755602 -0.228260 -0.926864 0.104123 -0.205670
    13 0.039887 -1.530573 0.014229 -1.473570 -0.012212 0.032731
    14 0.028786 -1.169484 -0.124675 -1.082413 -0.015161 0.023166
    15 0.250027 -2.820665 -0.238396 -0.656416 0.070401 -0.070751
    16 -0.049759 -1.594604 0.026258 -1.644847 -0.001630 -0.043494
    17 -0.034142 -1.156125 0.057437 -0.778245 0.008377 -0.019511
    18 0.957766 -2.746780 -0.090302 0.191742 -0.098902 0.256395
    19 -0.033420 -1.397129 -0.034695 -1.421461 -0.008761 -0.065880
    20 -0.022360 -0.957436 -0.000748 -0.760746 0.007083 -0.037020
    21 -1.180681 -2.507217 -0.193859 -1.000921 0.270987 -0.298350
    22 -0.024967 -1.127840 0.017597 -0.956758 0.004674 -0.041010
    23 -0.020057 -0.906594 0.033528 -1.043762 0.004698 -0.042809
    24 0.603042 -1.205090 0.189285 0.170717 -0.910476 -0.421804
    25 1.485144 -0.208511 0.067511 0.044099 -0.208064 -0.737596
    26 0.975767 -0.198604 0.051823 0.125211 -0.269176 -1.206668
    27 0.120153 -0.050270 -0.054489 0.287569 3.110905 1.561085
    28 -5.352955 -7.489141 -6.935089 0.660490 -3.983444 1.141410
    29 -0.172595 -8.473857 0.033605 -0.261894 -1.360155 0.597051
    30 0.447953 -2.798986 -0.200443 -1.080608 -0.116016 0.286451
    31 -0.032909 -1.495829 0.016659 -0.937501 0.019763 -0.014176
    32 -0.027022 -1.096452 -0.028023 -0.513425 0.013471 -0.005429
    33 -0.249534 -2.846964 -0.174213 -0.688709 -0.073099 0.004763
    34 0.043235 -1.660503 0.080387 -1.014688 -0.016652 0.001691
    35 0.031729 -1.153017 0.058838 -0.444953 -0.003900 0.005867
    36 -0.963866 -2.785145 -0.085350 -0.359784 0.157230 -0.206201
    37 0.028479 -1.403067 -0.013261 -0.774906 -0.017929 -0.029782
    38 0.021413 -0.957781 0.020046 -0.175941 -0.002013 -0.007862
    39 1.164475 -2.543940 -0.170330 -1.269961 -0.216253 0.419838
    40 0.024032 -1.136855 -0.001725 -0.773654 0.004039 0.041288
    41 0.014898 -0.895708 -0.019848 -0.595607 -0.000911 0.029698
    42 -0.586770 -1.264477 0.200161 -0.073069 -0.460710 -2.781506
    43 1.557992 0.035243 0.016848 -0.014170 -0.005588 0.722307
    44 1.117947 0.048424 -0.005766 0.002681 -0.021758 -0.075216
    45 -0.037833 -0.131230 -0.106700 0.756922 0.202509 1.380917
    46 -8.171021 1.803806 -0.462096 1.569494 -0.034578 -0.297109
  time 3
    0 5.742326 -9.531537 -5.876391 -0.248777 -1.423993 -4.589009
    1 0.661211 -0.000004 -2.641094 0.000000 -3.141592 0.000000
    2 3.247482 -0.000005 -1.130647 0.000000 0.000000 -0.000001
    3 3.260927 1.355822 2.192472 2.208361 -1.542144 -1.139077
    4 3.261963 1.374206 1.040803 -2.040361 -1.570796 0.000000
    5 2.531871 -0.036995 -2.070253 0.000000 0.000000 -0.000001
    6 1.073001 -0.000003 4.918042 0.000000 -3.916645 0.000000
    7 2.795260 0.664625 9.471044 -3.048099 0.000000 1.570796
    8 0.923057 -2.001326 -3.726057 -0.062488 -0.333819 0.188710
    9 5.036536 -1.529968 -8.085166 1.190059 -1.978852 -1.365109
    10 8.054262 0.063100 -0.388095 1.570476 -3.115081 0.085621
    11 -0.017232 -8.385452 -0.104134 -0.402139 0.492200 -0.243311
    12 -0.488518 -2.755602 -0.228260 -0.926864 0.104123 -0.205670
    13 0.039887 -1.530573 0.014229 -1.473570 -0.012212 0.032731
    14 0.028786 -1.169484 -0.124675 -1.082413 -0.015161 0.023166
    15 0.250027 -2.820665 -0.238396 -0.656416 0.070401 -0.070751
    16 -0.049759 -1.594604 0.026258 -1.644847 -0.001630 -0.043494
    17 -0.034142 -1.156125 0.057437 -0.778245 0.008377 -0.019511
    18 0.957766 -2.746780 -0.090302 0.191706 -0.104595 0.255184
    19 -0.033420 -1.397129 -0.034695 -1.392462 -0.007670 -0.064898
    20 -0.022360 -0.957436 -0.000748 -0.757829 0.007107 -0.036877
    21 -1.180681 -2.507217 -0.193859 -1.000921 0.270987 -0.298350
    22 -0.024967 -1.127840 0.017597 -0.956758 0.004674 -0.041010
    23 -0.020057 -0.906594 0.033528 -1.043762 0.004698 -0.042809
    24 0.603042 -1.205090 0.189285 0.170717 -0.910476 -0.421804
    25 1.485144 -0.208511 0.067511 0.044099 -0.208064 -0.737596
    26 0.975767 -0.198604 0.051823 0.125211 -0.269176 -1.206668
    27 0.120153 -0.050270 -0.054489 0.287569 3.110905 1.561085
    28 -5.188888 -7.754774 -6.728051 0.659558 -3.982420 1.128682
    29 -0.164783 -8.466044 0.033605 -0.248435 -1.329693 0.569882
    30 0.447953 -2.798986 -0.200443 -1.080608 -0.116016 0.286451
    31 -0.032909 -1.495829 0.016659 -0.937501 0.019763 -0.014176
    32 -0.027022 -1.096452 -0.028023 -0.513425 0.013471 -0.005429
    33 -0.249534 -2.846964 -0.174213 -0.688709 -0.073099 0.004763
    34 0.043235 -1.660503 0.080387 -1.014688 -0.016652 0.001691
    35 0.031729 -1.153017 0.058838 -0.444953 -0.003900 0.005867
    36 -0.963866 -2.785145 -0.085350 -0.359784 0.157230 -0.206201
    37 0.028479 -1.403067 -0.013261 -0.774906 -0.017929 -0.029782
    38 0.021413 -0.957781 0.020046 -0.175941 -0.002013 -0.007862
    39 1.164475 -2.543940 -0.170330 -1.269961 -0.216253 0.419838
    40 0.024032 -1.136855 -0.001725 -0.773654 0.004039 0.041288
    41 0.014898 -0.895708 -0.019848 -0.595607 -0.000911 0.029698
    42 -0.586770 -1.264477 0.200161 -0.073069 -0.460710 -2.781506
    43 1.557992 0.035243 0.016848 -0.014170 -0.005588 0.722307
    44 1.117947 0.048424 -0.005766 0.002681 -0.021758 -0.075216
    45 -0.037833 -0.131230 -0.106700 0.756922 0.202509 1.380917
    46 -8.073361 2.374136 -0.458190 1.571123 -0.033526 -0.367562
  time 4
    0 5.867330 -9.801076 -5.849046 -0.128003 -1.414989 1.563888
    1 0.661211 -0.000004 -2.641094 0.000000 -3.141592 0.000000
    2 3.247482 -0.000005 -1.130647 0.000000 0.000000 -0.000001
    3 3.260927 1.355822 2.192472 2.208361 -1.542144 -1.139077
    4 3.261963 1.374206 1.040803 -2.040361 -1.570796 0.000000
    5 2.531871 -0.036995 -2.070253 0.000000 0.000000 -0.000001
    6 1.073001 -0.000003 4.918042 0.000000 -3.916668 0.000000
    7 2.916357 0.664625 10.775771 -3.048099 0.000000 1.570796
    8 0.923057 -2.001326 -3.726057 -0.062488 -0.333819 0.188710
    9 5.013097 -1.791694 -8.014851 1.177216 -1.967404 -1.343633
    10 8.077701 0.551397 -0.380282 1.569613 -3.116133 0.145626
    11 -0.013325 -8.389358 -0.104134 -0.413251 0.512624 -0.221632
    12 -0.488518 -2.755602 -0.228260 -0.926864 0.104123 -0.205670
    13 0.039887 -1.530573 0.014229 -1.473570 -0.012212 0.032731
    14 0.028786 -1.169484 -0.124675 -1.082413 -0.015161 0.023166
    15 0.250027 -2.820665 -0.238396 -0.656416 0.070401 -0.070751
    16 -0.049759 -1.594604 0.026258 -1.644847 -0.001630 -0.043494
    17 -0.034142 -1.156125 0.057437 -0.778245 0.008377 -0.019511
    18 0.957766 -2.746780 -0.090302 0.191682 -0.110288 0.253974
    19 -0.033420 -1.397129 -0.034695 -1.363418 -0.006615 -0.063879
    20 -0.022360 -0.957436 -0.000748 -0.754936 0.007143 -0.036733
    21 -1.180681 -2.507217 -0.193859 -1.000921 0.270987 -0.298350
    22 -0.024967 -1.127840 0.017597 -0.956758 0.004674 -0.041010
    23 -0.020057 -0.906594 0.033528 -1.043762 0.004698 -0.042809
    24 0.603042 -1.205090 0.189285 0.170717 -0.910476 -0.421804
    25 1.485144 -0.208511 0.067511 0.044099 -0.208064 -0.737596
    26 0.975767 -0.198604 0.051823 0.125211 -0.269176 -1.206668
    27 0.120153 -0.050270 -0.054489 0.287569 3.110905 1.561085
    28 -5.071697 -7.942280 -6.571796 0.652144 -3.986910 1.110498
    29 -0.160876 -8.466044 0.037511 -0.242236 -1.308441 0.552521
    30 0.447953 -2.798986 -0.200443 -1.080608 -0.116016 0.286451
    31 -0.032909 -1.495829 0.016659 -0.937501 0.019763 -0.014176
    32 -0.027022 -1.096452 -0.028023 -0.513425 0.013471 -0.005429
    33 -0.249534 -2.846964 -0.174213 -0.688709 -0.073099 0.004763
    34 0.043235 -1.660503 0.080387 -1.014688 -0.016652 0.001691
    35 0.031729 -1.153017 0.058838 -0.444953 -0.003900 0.005867
    36 -0.963866 -2.785145 -0.085350 -0.359784 0.157230 -0.206201
    37 0.028479 -1.403067 -0.013261 -0.774906 -0.017929 -0.029782
    38 0.021413 -0.957781 0.020046 -0.175941 -0.002013 -0.007862
    39 1.164475 -2.543940 -0.170330 -1.269961 -0.216253 0.419838
    40 0.024032 -1.136855 -0.001725 -0.773654 0.004039 0.041288
    41 0.014898 -0.895708 -0.019848 -0.595607 -0.000911 0.029698
    42 -0.586770 -1.264477 0.200161 -0.073069 -0.460710 -2.781506
    43 1.557992 0.035243 0.016848 -0.014170 -0.005588 0.722307
    44 1.117947 0.048424 -0.005766 0.002681 -0.021758 -0.075216
    45 -0.037833 -0.131230 -0.106700 0.756922 0.202509 1.380917
    46 -7.960077 2.850713 -0.450377 1.572369 -0.032570 -0.427170
  time 5
    0 5.918112 -9.875297 -5.864672 -0.054557 -1.427750 1.485059
    1 0.661211 -0.000004 -2.641094 0.000000 -3.141592 0.000000
    2 3.247482 -0.000005 -1.130647 0.000000 0.000000 -0.000001
    3 3.260927 1.355822 2.192472 2.208361 -1.542144 -1.139077
    4 3.261963 1.374206 1.040803 -2.040361 -1.570796 0.000000
    5 2.531871 -0.036995 -2.070253 0.000000 0.000000 -0.000001
    6 1.073001 -0.000003 4.918042 0.000000 -3.916645 0.000000
    7 2.861668 0.664625 10.178097 -3.048099 0.000000 1.570796
    8 0.923057 -2.001326 -3.726057 -0.062488 -0.333819 0.188710
    9 5.009191 -1.842477 -8.003132 1.169547 -1.959313 -1.334578
    10 8.081607 0.695932 -0.376376 1.569422 -3.116419 0.163131
    11 -0.013325 -8.385452 -0.104134 -0.425925 0.523983 -0.228279
    12 -0.488518 -2.755602 -0.228260 -0.926864 0.104123 -0.205670
    13 0.039887 -1.530573 0.014229 -1.473570 -0.012212 0.032731
    14 0.028786 -1.169484 -0.124675 -1.082413 -0.015161 0.023166
    15 0.250027 -2.820665 -0.238396 -0.656416 0.070401 -0.070751
    16 -0.049759 -1.594604 0.026258 -1.644847 -0.001630 -0.043494
    17 -0.034142 -1.156125 0.057437 -0.778245 0.008377 -0.019511
    18 0.957766 -2.746780 -0.090302 0.191694 -0.106489 0.254789
    19 -0.033420 -1.397129 -0.034695 -1.382780 -0.007323 -0.064562
    20 -0.022360 -0.957436 -0.000748 -0.756873 0.007119 -0.036829
    21 -1.180681 -2.507217 -0.193859 -1.000921 0.270987 -0.298350
    22 -0.024967 -1.127840 0.017597 -0.956758 0.004674 -0.041010
    23 -0.020057 -0.906594 0.033528 -1.043762 0.004698 -0.042809
    24 0.603042 -1.205090 0.189285 0.170717 -0.910476 -0.421804
    25 1.485144 -0.208511 0.067511 0.044099 -0.208064 -0.737596
    26 0.975767 -0.198604 0.051823 0.125211 -0.269176 -1.206668
    27 0.120153 -0.050270 -0.054489 0.287569 3.110905 1.561085
    28 -5.071697 -7.942280 -6.579609 0.642718 -3.993678 1.098265
    29 -0.160876 -8.466044 0.037511 -0.234347 -1.304040 0.551768
    30 0.447953 -2.798986 -0.200443 -1.080608 -0.116016 0.286451
    31 -0.032909 -1.495829 0.016659 -0.937501 0.019763 -0.014176
    32 -0.027022 -1.096452 -0.028023 -0.513425 0.013471 -0.005429
    33 -0.249534 -2.846964 -0.174213 -0.688709 -0.073099 0.004763
    34 0.043235 -1.660503 0.080387 -1.014688 -0.016652 0.001691
    35 0.031729 -1.153017 0.058838 -0.444953 -0.003900 0.005867
    36 -0.963866 -2.785145 -0.085350 -0.359784 0.157230 -0.206201
    37 0.028479 -1.403067 -0.013261 -0.774906 -0.017929 -0.029782
    38 0.021413 -0.957781 0.020046 -0.175941 -0.002013 -0.007862
    39 1.164475 -2.543940 -0.170330 -1.269961 -0.216253 0.419838
    40 0.024032 -1.136855 -0.001725 -0.773654 0.004039 0.041288
    41 0.014898 -0.895708 -0.019848 -0.595607 -0.000911 0.029698
    42 -0.586770 -1.264477 0.200161 -0.073069 -0.460710 -2.781506
    43 1.557992 0.035243 0.016848 -0.014170 -0.005588 0.722307
    44 1.117947 0.048424 -0.005766 0.002681 -0.021758 -0.075216
    45 -0.037833 -0.131230 -0.106700 0.756922 0.202509 1.380917
    46 -7.940545 2.928841 -0.450377 1.572561 -0.032378 -0.436903
  time 6
    0 5.933738 -9.918267 -5.915455 0.014443 -1.453687 1.412838
    1 0.661211 -0.000004 -2.641094 0.000000 -3.141592 0.000000
    2 3.247482 -0.000005 -1.130647 0.000000 0.000000 -0.000001
    3 3.260927 1.355822 2.192472 2.208361 -1.542144 -1.139077
    4 3.261963 1.374206 1.040803 -2.040361 -1.570796 0.000000
    5 2.531871 -0.036995 -2.070253 0.000000 0.000000 -0.000001
    6 1.073001 -0.000003 4.918042 0.000000 -3.916668 0.000000
    7 2.889012 0.664625 10.478887 -3.048099 0.000000 1.570796
    8 0.923057 -2.001326 -3.726057 -0.062488 -0.333819 0.188710
    9 4.997472 -1.838571 -8.014851 1.162247 -1.950155 -1.329850
    10 8.081607 0.762341 -0.376376 1.569326 -3.116515 0.171415
    11 -0.009419 -8.385452 -0.104134 -0.439747 0.529372 -0.248220
    12 -0.488518 -2.755602 -0.228260 -0.926864 0.104123 -0.205670
    13 0.039887 -1.530573 0.014229 -1.473570 -0.012212 0.032731
    14 0.028786 -1.169484 -0.124675 -1.082413 -0.015161 0.023166
    15 0.250027 -2.820665 -0.238396 -0.656416 0.070401 -0.070751
    16 -0.049759 -1.594604 0.026258 -1.644847 -0.001630 -0.043494
    17 -0.034142 -1.156125 0.057437 -0.778245 0.008377 -0.019511
    18 0.957766 -2.746780 -0.090302 0.191718 -0.102702 0.255592
    19 -0.033420 -1.397129 -0.034695 -1.402143 -0.008042 -0.065221
    20 -0.022360 -0.957436 -0.000748 -0.758809 0.007107 -0.036925
    21 -1.180681 -2.507217 -0.193859 -1.000921 0.270987 -0.298350
    22 -0.024967 -1.127840 0.017597 -0.956758 0.004674 -0.041010
    23 -0.020057 -0.906594 0.033528 -1.043762 0.004698 -0.042809
    24 0.603042 -1.205090 0.189285 0.170717 -0.910476 -0.421804
    25 1.485144 -0.208511 0.067511 0.044099 -0.208064 -0.737596
    26 0.975767 -0.198604 0.051823 0.125211 -0.269176 -1.206668
    27 0.120153 -0.050270 -0.054489 0.287569 3.110905 1.561085
    28 -5.130292 -7.871965 -6.661643 0.626664 -4.005134 1.079667
    29 -0.160876 -8.466044 0.037511 -0.233253 -1.309601 0.561013
    30 0.447953 -2.798986 -0.200443 -1.080608 -0.116016 0.286451
    31 -0.032909 -1.495829 0.016659 -0.937501 0.019763 -0.014176
    32 -0.027022 -1.096452 -0.028023 -0.513425 0.013471 -0.005429
    33 -0.249534 -2.846964 -0.174213 -0.688709 -0.073099 0.004763
    34 0.043235 -1.660503 0.080387 -1.014688 -0.016652 0.001691
    35 0.031729 -1.153017 0.058838 -0.444953 -0.003900 0.005867
    36 -0.963866 -2.785145 -0.085350 -0.359784 0.157230 -0.206201
    37 0.028479 -1.403067 -0.013261 -0.774906 -0.017929 -0.029782
    38 0.021413 -0.957781 0.020046 -0.175941 -0.002013 -0.007862
    39 1.164475 -2.543940 -0.170330 -1.269961 -0.216253 0.419838
    40 0.024032 -1.136855 -0.001725 -0.773654 0.004039 0.041288
    41 0.014898 -0.895708 -0.019848 -0.595607 -0.000911 0.029698
    42 -0.586770 -1.264477 0.200161 -0.073069 -0.460710 -2.781506
    43 1.557992 0.035243 0.016848 -0.014170 -0.005588 0.722307
    44 1.117947 0.048424 -0.005766 0.002681 -0.021758 -0.075216
    45 -0.037833 -0.131230 -0.106700 0.756922 0.202509 1.380917
    46 -7.948358 2.901496 -0.450377 1.572465 -0.032474 -0.433102
  time 7
    0 5.929832 -9.961237 -5.966238 0.048063 -1.478522 1.377686
    1 0.661211 -0.000004 -2.641094 0.000000 -3.141592 0.000000
    2 3.247482 -0.000005 -1.130647 0.000000 0.000000 -0.000001
    3 3.260927 1.355822 2.192472 2.208361 -1.542144 -1.139077
    4 3.261963 1.374206 1.040803 -2.040361 -1.570796 0.000000
    5 2.531871 -0.036995 -2.070253 0.000000 0.000000 -0.000001
    6 1.073001 -0.000003 4.918042 0.000000 -3.916645 0.000000
    7 2.916357 0.664625 10.775771 -3.048099 0.000000 1.570796
    8 0.923057 -2.001326 -3.726057 -0.062488 -0.333819 0.188710
    9 4.985753 -1.842477 -8.018758 1.156519 -1.942752 -1.326805
    10 8.077701 0.828749 -0.376376 1.569134 -3.116706 0.179627
    11 -0.005513 -8.381545 -0.104134 -0.451411 0.527733 -0.268110
    12 -0.488518 -2.755602 -0.228260 -0.926864 0.104123 -0.205670
    13 0.039887 -1.530573 0.014229 -1.473570 -0.012212 0.032731
    14 0.028786 -1.169484 -0.124675 -1.082413 -0.015161 0.023166
    15 0.250027 -2.820665 -0.238396 -0.656416 0.070401 -0.070751
    16 -0.049759 -1.594604 0.026258 -1.644847 -0.001630 -0.043494
    17 -0.034142 -1.156125 0.057437 -0.778245 0.008377 -0.019511
    18 0.957766 -2.746780 -0.090302 0.191682 -0.110288 0.253974
    19 -0.033420 -1.397129 -0.034695 -1.363418 -0.006615 -0.063879
    20 -0.022360 -0.957436 -0.000748 -0.754936 0.007143 -0.036733
    21 -1.180681 -2.507217 -0.193859 -1.000921 0.270987 -0.298350
    22 -0.024967 -1.127840 0.017597 -0.956758 0.004674 -0.041010
    23 -0.020057 -0.906594 0.033528 -1.043762 0.004698 -0.042809
    24 0.603042 -1.205090 0.189285 0.170717 -0.910476 -0.421804
    25 1.485144 -0.208511 0.067511 0.044099 -0.208064 -0.737596
    26 0.975767 -0.198604 0.051823 0.125211 -0.269176 -1.206668
    27 0.120153 -0.050270 -0.054489 0.287569 3.110905 1.561085
    28 -5.184981 -7.805557 -6.735864 0.609383 -4.016820 1.059334
    29 -0.164783 -8.469950 0.037511 -0.236037 -1.320380 0.568346
    30 0.447953 -2.798986 -0.200443 -1.080608 -0.116016 0.286451
    31 -0.032909 -1.495829 0.016659 -0.937501 0.019763 -0.014176
    32 -0.027022 -1.096452 -0.028023 -0.513425 0.013471 -0.005429
    33 -0.249534 -2.846964 -0.174213 -0.688709 -0.073099 0.004763
    34 0.043235 -1.660503 0.080387 -1.014688 -0.016652 0.001691
    35 0.031729 -1.153017 0.058838 -0.444953 -0.003900 0.005867
    36 -0.963866 -2.785145 -0.085350 -0.359784 0.157230 -0.206201
    37 0.028479 -1.403067 -0.013261 -0.774906 -0.017929 -0.029782
    38 0.021413 -0.957781 0.020046 -0.175941 -0.002013 -0.007862
    39 1.164475 -2.543940 -0.170330 -1.269961 -0.216253 0.419838
    40 0.024032 -1.136855 -0.001725 -0.773654 0.004039 0.041288
    41 0.014898 -0.895708 -0.019848 -0.595607 -0.000911 0.029698
    42 -0.586770 -1.264477 0.200161 -0.073069 -0.460710 -2.781506
    43 1.557992 0.035243 0.016848 -0.014170 -0.005588 0.722307
    44 1.117947 0.048424 -0.005766 0.002681 -0.021758 -0.075216
    45 -0.037833 -0.131230 -0.106700 0.756922 0.202509 1.380917
    46 -7.952264 2.885870 -0.450377 1.572465 -0.032474 -0.431527
  time 8
    0 5.918112 -10.000301 -5.993582 -0.064931 -1.501002 1.490422
    1 0.661211 -0.000004 -2.641094 0.000000 -3.141592 0.000000
    2 3.247482 -0.000005 -1.130647 0.000000 0.000000 -0.000001
    3 3.260927 1.355822 2.192472 2.208361 -1.542144 -1.139077
    4 3.261963 1.374206 1.040803 -2.040361 -1.570796 0.000000
    5 2.531871 -0.036995 -2.070253 0.000000 0.000000 -0.000001
    6 1.073001 -0.000003 4.918042 0.000000 -3.658302 0.000000
    7 2.916357 0.664625 10.775771 -3.048099 0.000000 1.570796
    8 0.923057 -2.001326 -3.726057 -0.062488 -0.333819 0.188710
    9 4.977940 -1.850290 -8.018758 1.154116 -1.939623 -1.325522
    10 8.077701 0.867813 -0.376376 1.569134 -3.116802 0.184598
    11 -0.005513 -8.377639 -0.108040 -0.461743 0.515136 -0.288511
    12 -0.488518 -2.755602 -0.228260 -0.926864 0.104123 -0.205670
    13 0.039887 -1.530573 0.014229 -1.473570 -0.012212 0.032731
    14 0.028786 -1.169484 -0.124675 -1.082413 -0.015161 0.023166
    15 0.250027 -2.820665 -0.238396 -0.656416 0.070401 -0.070751
    16 -0.049759 -1.594604 0.026258 -1.644847 -0.001630 -0.043494
    17 -0.034142 -1.156125 0.057437 -0.778245 0.008377 -0.019511
    18 0.957766 -2.746780 -0.090302 0.191646 -0.141568 0.247310
    19 -0.033420 -1.397129 -0.030789 -1.203658 -0.001342 -0.057767
    20 -0.022360 -0.957436 -0.000748 -0.739023 0.007287 -0.035942
    21 -1.180681 -2.507217 -0.193859 -1.000921 0.270987 -0.298350
    22 -0.024967 -1.127840 0.017597 -0.956758 0.004674 -0.041010
    23 -0.020057 -0.906594 0.033528 -1.043762 0.004698 -0.042809
    24 0.603042 -1.205090 0.189285 0.170717 -0.910476 -0.421804
    25 1.485144 -0.208511 0.067511 0.044099 -0.208064 -0.737596
    26 0.975767 -0.198604 0.051823 0.125211 -0.269176 -1.206668
    27 0.120153 -0.050270 -0.054489 0.287569 3.110905 1.561085
    28 -5.227951 -7.746962 -6.802272 0.592568 -4.027649 1.040324
    29 -0.168689 -8.469950 0.033605 -0.235706 -1.339756 0.565369
    30 0.447953 -2.798986 -0.200443 -1.080608 -0.116016 0.286451
    31 -0.032909 -1.495829 0.016659 -0.937501 0.019763 -0.014176
    32 -0.027022 -1.096452 -0.028023 -0.513425 0.013471 -0.005429
    33 -0.249534 -2.846964 -0.174213 -0.688709 -0.073099 0.004763
    34 0.043235 -1.660503 0.080387 -1.014688 -0.016652 0.001691
    35 0.031729 -1.153017 0.058838 -0.444953 -0.003900 0.005867
    36 -0.963866 -2.785145 -0.085350 -0.359784 0.157230 -0.206201
    37 0.028479 -1.403067 -0.013261 -0.774906 -0.017929 -0.029782
    38 0.021413 -0.957781 0.020046 -0.175941 -0.002013 -0.007862
    39 1.164475 -2.543940 -0.170330 -1.269961 -0.216253 0.419838
    40 0.024032 -1.136855 -0.001725 -0.773654 0.004039 0.041288
    41 0.014898 -0.895708 -0.019848 -0.595607 -0.000911 0.029698
    42 -0.586770 -1.264477 0.200161 -0.073069 -0.460710 -2.781506
    43 1.557992 0.035243 0.016848 -0.014170 -0.005588 0.722307
    44 1.117947 0.048424 -0.005766 0.002681 -0.021758 -0.075216
    45 -0.037833 -0.131230 -0.106700 0.756922 0.202509 1.380917
    46 -7.952264 2.885870 -0.450377 1.572465 -0.032474 -0.431156
  time 9
    0 5.890768 -10.043271 -6.017020 -0.402431 -1.518711 -4.453763
    1 0.661211 -0.000004 -2.641094 0.000000 -3.141592 0.000000
    2 3.247482 -0.000005 -1.130647 0.000000 0.000000 -0.000001
    3 3.260927 1.355822 2.192472 2.208361 -1.542144 -1.139077
    4 3.261963 1.374206 1.040803 -2.040361 -1.570796 0.000000
    5 2.531871 -0.036995 -2.070253 0.000000 0.000000 -0.000001
    6 1.073001 -0.000003 4.918042 0.000000 -3.399935 0.000000
    7 2.916357 0.664625 10.775771 -3.048099 0.000000 1.570796
    8 0.923057 -2.001326 -3.726057 -0.062488 -0.333819 0.188710
    9 4.970127 -1.869822 -8.010945 1.153562 -1.938249 -1.326244
    10 8.077701 0.910783 -0.372470 1.569038 -3.116897 0.189496
    11 -0.009419 -8.373733 -0.111947 -0.469136 0.495659 -0.308247
    12 -0.488518 -2.755602 -0.228260 -0.926864 0.104123 -0.205670
    13 0.039887 -1.530573 0.014229 -1.473570 -0.012212 0.032731
    14 0.028786 -1.169484 -0.124675 -1.082413 -0.015161 0.023166
    15 0.250027 -2.820665 -0.238396 -0.656416 0.070401 -0.070751
    16 -0.049759 -1.594604 0.026258 -1.644847 -0.001630 -0.043494
    17 -0.034142 -1.156125 0.057437 -0.778268 0.008377 -0.019511
    18 0.957766 -2.746780 -0.090302 0.191946 -0.184221 0.238154
    19 -0.033420 -1.397129 -0.026882 -0.985810 0.004135 -0.048251
    20 -0.022360 -0.957436 -0.000748 -0.717322 0.007454 -0.034851
    21 -1.180681 -2.507217 -0.193859 -1.000921 0.270987 -0.298350
    22 -0.024967 -1.127840 0.017597 -0.956758 0.004674 -0.041010
    23 -0.020057 -0.906594 0.033528 -1.043762 0.004698 -0.042809
    24 0.603042 -1.205090 0.189285 0.170717 -0.910476 -0.421804
    25 1.485144 -0.208511 0.067511 0.044099 -0.208064 -0.737596
    26 0.975767 -0.198604 0.051823 0.125211 -0.269176 -1.206668
    27 0.120153 -0.050270 -0.054489 0.287569 3.110905 1.561085
    28 -5.267015 -7.692272 -6.864774 0.574256 -4.038840 1.019578
    29 -0.172595 -8.473857 0.033605 -0.238921 -1.364385 0.560042
    30 0.447953 -2.798986 -0.200443 -1.080608 -0.116016 0.286451
    31 -0.032909 -1.495829 0.016659 -0.937501 0.019763 -0.014176
    32 -0.027022 -1.096452 -0.028023 -0.513425 0.013471 -0.005429
    33 -0.249534 -2.846964 -0.174213 -0.688709 -0.073099 0.004763
    34 0.043235 -1.660503 0.080387 -1.014688 -0.016652 0.001691
    35 0.031729 -1.153017 0.058838 -0.444953 -0.003900 0.005867
    36 -0.963866 -2.785145 -0.085350 -0.359784 0.157230 -0.206201
    37 0.028479 -1.403067 -0.013261 -0.774906 -0.017929 -0.029782
    38 0.021413 -0.957781 0.020046 -0.175941 -0.002013 -0.007862
    39 1.164475 -2.543940 -0.170330 -1.269961 -0.216253 0.419838
    40 0.024032 -1.136855 -0.001725 -0.773654 0.004039 0.041288
    41 0.014898 -0.895708 -0.019848 -0.595607 -0.000911 0.029698
    42 -0.586770 -1.264477 0.200161 -0.073069 -0.460710 -2.781506
    43 1.557992 0.035243 0.016848 -0.014170 -0.005588 0.722307
    44 1.117947 0.048424 -0.005766 0.002681 -0.021758 -0.075216
    45 -0.037833 -0.131230 -0.106700 0.756922 0.202509 1.380917
    46 -7.948358 2.901496 -0.450377 1.572465 -0.032474 -0.433381
  time 10
    0 5.851704 -10.168275 -6.048271 -0.721129 -1.521216 -4.131933
    1 0.661211 -0.000004 -2.641094 0.000000 -3.141592 0.000000
    2 3.247482 -0.000005 -1.130647 0.000000 0.000000 -0.000001
    3 3.260927 1.355822 2.192472 2.208361 -1.542144 -1.139077
    4 3.261963 1.374206 1.040803 -2.040361 -1.570796 0.000000
    5 2.531871 -0.036995 -2.070253 0.000000 0.000000 -0.000001
    6 1.073001 -0.000003 4.918042 0.000000 -3.141592 0.000000
    7 2.916357 0.664625 10.775771 -3.048099 0.000000 1.570796
    8 0.923057 -2.001326 -3.726057 -0.062488 -0.333819 0.188710
    9 4.938876 -1.971387 -7.979694 1.150975 -1.933899 -1.326324
    10 8.069888 1.094382 -0.372470 1.568751 -3.117280 0.212260
    11 -0.009419 -8.373733 -0.111947 -0.467161 0.480768 -0.312491
    12 -0.488518 -2.755602 -0.228260 -0.926864 0.104123 -0.205670
    13 0.039887 -1.530573 0.014229 -1.473570 -0.012212 0.032731
    14 0.028786 -1.169484 -0.124675 -1.082413 -0.015161 0.023166
    15 0.250027 -2.820665 -0.238396 -0.656416 0.070401 -0.070751
    16 -0.049759 -1.594604 0.026258 -1.644847 -0.001630 -0.043494
    17 -0.034142 -1.156125 0.057437 -0.778245 0.008377 -0.019511
    18 0.957766 -2.746780 -0.090302 0.192366 -0.212660 0.232006
    19 -0.033420 -1.397129 -0.026882 -0.840549 0.006592 -0.041348
    20 -0.022360 -0.957436 -0.000748 -0.702856 0.007562 -0.034132
    21 -1.180681 -2.507217 -0.193859 -1.000921 0.270987 -0.298350
    22 -0.024967 -1.127840 0.017597 -0.956758 0.004674 -0.041010
    23 -0.020057 -0.906594 0.033528 -1.043762 0.004698 -0.042809
    24 0.603042 -1.205090 0.189285 0.170717 -0.910476 -0.421804
    25 1.485144 -0.208511 0.067511 0.044099 -0.208064 -0.737596
    26 0.975767 -0.198604 0.051823 0.125211 -0.269176 -1.206668
    27 0.120153 -0.050270 -0.054489 0.287569 3.110905 1.561085
    28 -5.263109 -7.719617 -6.856961 0.555527 -4.048744 0.992963
    29 -0.176502 -8.469950 0.029699 -0.269385 -1.379803 0.571919
    30 0.447953 -2.798986 -0.200443 -1.080608 -0.116016 0.286451
    31 -0.032909 -1.495829 0.016659 -0.937501 0.019763 -0.014176
    32 -0.027022 -1.096452 -0.028023 -0.513425 0.013471 -0.005429
    33 -0.249534 -2.846964 -0.174213 -0.688709 -0.073099 0.004763
    34 0.043235 -1.660503 0.080387 -1.014688 -0.016652 0.001691
    35 0.031729 -1.153017 0.058838 -0.444953 -0.003900 0.005867
    36 -0.963866 -2.785145 -0.085350 -0.359784 0.157230 -0.206201
    37 0.028479 -1.403067 -0.013261 -0.774906 -0.017929 -0.029782
    38 0.021413 -0.957781 0.020046 -0.175941 -0.002013 -0.007862
    39 1.164475 -2.543940 -0.170330 -1.269961 -0.216253 0.419838
    40 0.024032 -1.136855 -0.001725 -0.773654 0.004039 0.041288
    41 0.014898 -0.895708 -0.019848 -0.595607 -0.000911 0.029698
    42 -0.586770 -1.264477 0.200161 -0.073069 -0.460710 -2.781506
    43 1.557992 0.035243 0.016848 -0.014170 -0.005588 0.722307
    44 1.117947 0.048424 -0.005766 0.002681 -0.021758 -0.075216
    45 -0.037833 -0.131230 -0.106700 0.756922 0.202509 1.380917
    46 -7.893668 3.089002 -0.446471 1.572944 -0.031996 -0.457298
  time 11
    0 5.797015 -10.422189 -6.083429 -0.778275 -1.515014 -4.069483
    1 0.661211 -0.000004 -2.641094 0.000000 -3.141592 0.000000
    2 3.247482 -0.000005 -1.130647 0.000000 0.000000 -0.000001
    3 3.260927 1.355822 2.192472 2.208361 -1.542144 -1.139077
    4 3.261963 1.374206 1.040803 -2.040361 -1.570796 0.000000
    5 2.531871 -0.036995 -2.070253 0.000000 0.000000 -0.000001
    6 1.073001 -0.000003 4.918042 0.000000 -3.141592 0.000000
    7 2.916357 0.664625 10.775771 -3.048099 0.000000 1.570796
    8 0.923057 -2.001326 -3.726057 -0.062488 -0.333819 0.188710
    9 4.880281 -2.178425 -7.909379 1.144230 -1.924587 -1.324160
    10 8.042543 1.492832 -0.364657 1.568175 -3.118140 0.261100
    11 -0.013325 -8.373733 -0.111947 -0.454166 0.473086 -0.297050
    12 -0.488518 -2.755602 -0.228260 -0.926864 0.104123 -0.205670
    13 0.039887 -1.530573 0.014229 -1.473570 -0.012212 0.032731
    14 0.028786 -1.169484 -0.124675 -1.082413 -0.015161 0.023166
    15 0.250027 -2.820665 -0.238396 -0.656416 0.070401 -0.070751
    16 -0.049759 -1.594604 0.026258 -1.644847 -0.001630 -0.043494
    17 -0.034142 -1.156125 0.057437 -0.778245 0.008377 -0.019511
    18 0.957766 -2.746780 -0.090302 0.192521 -0.220846 0.230220
    19 -0.033420 -1.393223 -0.022976 -0.798715 0.007107 -0.039298
    20 -0.022360 -0.957436 -0.000748 -0.698679 0.007586 -0.033928
    21 -1.180681 -2.507217 -0.193859 -1.000921 0.270987 -0.298350
    22 -0.024967 -1.127840 0.017597 -0.956758 0.004674 -0.041010
    23 -0.020057 -0.906594 0.033528 -1.043762 0.004698 -0.042809
    24 0.603042 -1.205090 0.189285 0.170717 -0.910476 -0.421804
    25 1.485144 -0.208511 0.067511 0.044099 -0.208064 -0.737596
    26 0.975767 -0.198604 0.051823 0.125211 -0.269176 -1.206668
    27 0.120153 -0.050270 -0.054489 0.287569 3.110905 1.561085
    28 -5.208420 -7.856340 -6.755396 0.535030 -4.057658 0.956430
    29 -0.176502 -8.466044 0.029699 -0.338932 -1.382327 0.609774
    30 0.447953 -2.798986 -0.200443 -1.080608 -0.116016 0.286451
    31 -0.032909 -1.495829 0.016659 -0.937501 0.019763 -0.014176
    32 -0.027022 -1.096452 -0.028023 -0.513425 0.013471 -0.005429
    33 -0.249534 -2.846964 -0.174213 -0.688709 -0.073099 0.004763
    34 0.043235 -1.660503 0.080387 -1.014688 -0.016652 0.001691
    35 0.031729 -1.153017 0.058838 -0.444953 -0.003900 0.005867
    36 -0.963866 -2.785145 -0.085350 -0.359784 0.157230 -0.206201
    37 0.028479 -1.403067 -0.013261 -0.774906 -0.017929 -0.029782
    38 0.021413 -0.957781 0.020046 -0.175941 -0.002013 -0.007862
    39 1.164475 -2.543940 -0.170330 -1.269961 -0.216253 0.419838
    40 0.024032 -1.136855 -0.001725 -0.773654 0.004039 0.041288
    41 0.014898 -0.895708 -0.019848 -0.595607 -0.000911 0.029698
    42 -0.586770 -1.264477 0.200161 -0.073069 -0.460710 -2.781506
    43 1.557992 0.035243 0.016848 -0.014170 -0.005588 0.722307
    44 1.117947 0.048424 -0.005766 0.002681 -0.021758 -0.075216
    45 -0.037833 -0.131230 -0.106700 0.756922 0.202509 1.380917
    46 -7.753039 3.514796 -0.438658 1.573999 -0.031039 -0.511714
  time 12
    0 5.718888 -10.734699 -6.110773 -0.744098 -1.504967 -4.097164
    1 0.661211 -0.000004 -2.641094 0.000000 -3.141592 0.000000
    2 3.247482 -0.000005 -1.130647 0.000000 0.000000 -0.000001
    3 3.260927 1.355822 2.192472 2.208361 -1.542144 -1.139077
    4 3.261963 1.374206 1.040803 -2.040361 -1.570796 0.000000
    5 2.531871 -0.036995 -2.070253 0.000000 0.000000 -0.000001
    6 1.073001 -0.000003 4.918042 0.000000 -3.141592 0.000000
    7 2.916357 0.664625 10.775771 -3.048099 0.000000 1.570796
    8 0.923057 -2.001326 -3.726057 -0.062488 -0.333819 0.188710
    9 4.798247 -2.444058 -7.803907 1.134158 -1.912910 -1.319993
    10 7.980041 2.004566 -0.356844 1.567504 -3.119287 0.324419
    11 -0.017232 -8.377639 -0.111947 -0.435201 0.466897 -0.271945
    12 -0.488518 -2.755602 -0.228260 -0.926864 0.104123 -0.205670
    13 0.039887 -1.530573 0.014229 -1.473570 -0.012212 0.032731
    14 0.028786 -1.169484 -0.124675 -1.082413 -0.015161 0.023166
    15 0.250027 -2.820665 -0.238396 -0.656416 0.070401 -0.070751
    16 -0.049759 -1.594604 0.026258 -1.644847 -0.001630 -0.043494
    17 -0.034142 -1.156125 0.057437 -0.778268 0.008377 -0.019511
    18 0.957766 -2.746780 -0.090302 0.192545 -0.221864 0.230005
    19 -0.033420 -1.393223 -0.022976 -0.793458 0.007167 -0.039035
    20 -0.022360 -0.957436 -0.000748 -0.698166 0.007598 -0.033904
    21 -1.180681 -2.507217 -0.193859 -1.000921 0.270987 -0.298350
    22 -0.024967 -1.127840 0.017597 -0.956758 0.004674 -0.041010
    23 -0.020057 -0.906594 0.033528 -1.043762 0.004698 -0.042809
    24 0.603042 -1.205090 0.189285 0.170717 -0.910476 -0.421804
    25 1.485144 -0.208511 0.067511 0.044099 -0.208064 -0.737596
    26 0.975767 -0.198604 0.051823 0.125211 -0.269176 -1.206668
    27 0.120153 -0.050270 -0.054489 0.287569 3.110905 1.561085
    28 -5.126386 -8.043846 -6.591328 0.511980 -4.066473 0.912705
    29 -0.176502 -8.458231 0.029699 -0.427043 -1.379496 0.657408
    30 0.447953 -2.798986 -0.200443 -1.080608 -0.116016 0.286451
    31 -0.032909 -1.495829 0.016659 -0.937501 0.019763 -0.014176
    32 -0.027022 -1.096452 -0.028023 -0.513425 0.013471 -0.005429
    33 -0.249534 -2.846964 -0.174213 -0.688709 -0.073099 0.004763
    34 0.043235 -1.660503 0.080387 -1.014688 -0.016652 0.001691
    35 0.031729 -1.153017 0.058838 -0.444953 -0.003900 0.005867
    36 -0.963866 -2.785145 -0.085350 -0.359784 0.157230 -0.206201
    37 0.028479 -1.403067 -0.013261 -0.774906 -0.017929 -0.029782
    38 0.021413 -0.957781 0.020046 -0.175941 -0.002013 -0.007862
    39 1.164475 -2.543940 -0.170330 -1.269961 -0.216253 0.419838
    40 0.024032 -1.136855 -0.001725 -0.773654 0.004039 0.041288
    41 0.014898 -0.895708 -0.019848 -0.595607 -0.000911 0.029698
    42 -0.586770 -1.264477 0.200161 -0.073069 -0.460710 -2.781506
    43 1.557992 0.035243 0.016848 -0.014170 -0.005588 0.722307
    44 1.117947 0.048424 -0.005766 0.002681 -0.021758 -0.075216
    45 -0.037833 -0.131230 -0.106700 0.756922 0.202509 1.380917
    46 -7.530376 4.069500 -0.430845 1.575341 -0.029604 -0.584114
  time 13
    0 5.629041 -11.051114 -6.130305 -0.688528 -1.493310 -4.145917
    1 0.661211 -0.000004 -2.641094 0.000000 -3.141592 0.000000
    2 3.247482 -0.000005 -1.130647 0.000000 0.000000 -0.000001
    3 3.260927 1.355822 2.192472 2.208361 -1.542144 -1.139077
    4 3.261963 1.374206 1.040803 -2.040361 -1.570796 0.000000
    5 2.531871 -0.036995 -2.070253 0.000000 0.000000 -0.000001
    6 1.073001 -0.000003 4.918042 0.000000 -3.141592 0.000000
    7 2.916357 0.664625 10.775771 -3.048099 0.000000 1.570796
    8 0.923057 -2.001326 -3.726057 -0.062488 -0.333819 0.188710
    9 4.712307 -2.713598 -7.674997 1.122147 -1.901157 -1.314063
    10 7.878476 2.528019 -0.349031 1.566929 -3.120625 0.390116
    11 -0.021138 -8.385452 -0.108040 -0.414767 0.461727 -0.243772
    12 -0.488518 -2.755602 -0.228260 -0.926864 0.104123 -0.205670
    13 0.039887 -1.530573 0.014229 -1.473570 -0.012212 0.032731
    14 0.028786 -1.169484 -0.124675 -1.082413 -0.015161 0.023166
    15 0.250027 -2.820665 -0.238396 -0.656416 0.070401 -0.070751
    16 -0.049759 -1.594604 0.026258 -1.644847 -0.001630 -0.043494
    17 -0.034142 -1.156125 0.057437 -0.778245 0.008377 -0.019511
    18 0.957766 -2.746780 -0.090302 0.192485 -0.218796 0.230676
    19 -0.033420 -1.393223 -0.022976 -0.809184 0.006987 -0.039814
    20 -0.022360 -0.957436 -0.000748 -0.699729 0.007586 -0.033976
    21 -1.180681 -2.507217 -0.193859 -1.000921 0.270987 -0.298350
    22 -0.024967 -1.127840 0.017597 -0.956758 0.004674 -0.041010
    23 -0.020057 -0.906594 0.033528 -1.043762 0.004698 -0.042809
    24 0.603042 -1.205090 0.189285 0.170717 -0.910476 -0.421804
    25 1.485144 -0.208511 0.067511 0.044099 -0.208064 -0.737596
    26 0.975767 -0.198604 0.051823 0.125211 -0.269176 -1.206668
    27 0.120153 -0.050270 -0.054489 0.287569 3.110905 1.561085
    28 -5.036539 -8.243070 -6.399916 0.489004 -4.074462 0.868237
    29 -0.176502 -8.450418 0.025792 -0.512800 -1.373629 0.700967
    30 0.447953 -2.798986 -0.200443 -1.080608 -0.116016 0.286451
    31 -0.032909 -1.495829 0.016659 -0.937501 0.019763 -0.014176
    32 -0.027022 -1.096452 -0.028023 -0.513425 0.013471 -0.005429
    33 -0.249534 -2.846964 -0.174213 -0.688709 -0.073099 0.004763
    34 0.043235 -1.660503 0.080387 -1.014688 -0.016652 0.001691
    35 0.031729 -1.153017 0.058838 -0.444953 -0.003900 0.005867
    36 -0.963866 -2.785145 -0.085350 -0.359784 0.157230 -0.206201
    37 0.028479 -1.403067 -0.013261 -0.774906 -0.017929 -0.029782
    38 0.021413 -0.957781 0.020046 -0.175941 -0.002013 -0.007862
    39 1.164475 -2.543940 -0.170330 -1.269961 -0.216253 0.419838
    40 0.024032 -1.136855 -0.001725 -0.773654 0.004039 0.041288
    41 0.014898 -0.895708 -0.019848 -0.595607 -0.000911 0.029698
    42 -0.586770 -1.264477 0.200161 -0.073069 -0.460710 -2.781506
    43 1.557992 0.035243 0.016848 -0.014170 -0.005588 0.722307
    44 1.117947 0.048424 -0.005766 0.002681 -0.021758 -0.075216
    45 -0.037833 -0.131230 -0.106700 0.756922 0.202509 1.380917
    46 -7.249117 4.639830 -0.419126 1.576587 -0.027978 -0.661242
  time 14
    0 5.543101 -11.316748 -6.138118 -0.645646 -1.482607 -4.183081
    1 0.661211 -0.000004 -2.641094 0.000000 -3.141592 0.000000
    2 3.247482 -0.000005 -1.130647 0.000000 0.000000 -0.000001
    3 3.260927 1.355822 2.192472 2.208361 -1.542144 -1.139077
    4 3.261963 1.374206 1.040803 -2.040361 -1.570796 0.000000
    5 2.531871 -0.036995 -2.070253 0.000000 0.000000 -0.000001
    6 1.073001 -0.000003 4.918042 0.000000 -3.141592 0.000000
    7 2.916357 0.664625 10.775771 -3.048099 0.000000 1.570796
    8 0.923057 -2.001326 -3.726057 -0.062488 -0.333819 0.188710
    9 4.634179 -2.936261 -7.557806 1.110227 -1.891235 -1.307492
    10 7.765191 2.973346 -0.337312 1.566450 -3.121676 0.446376
    11 -0.025045 -8.389358 -0.108040 -0.396996 0.457504 -0.218871
    12 -0.488518 -2.755602 -0.228260 -0.926864 0.104123 -0.205670
    13 0.039887 -1.530573 0.014229 -1.473570 -0.012212 0.032731
    14 0.028786 -1.169484 -0.124675 -1.082413 -0.015161 0.023166
    15 0.250027 -2.820665 -0.238396 -0.656416 0.070401 -0.070751
    16 -0.049759 -1.594604 0.026258 -1.644847 -0.001630 -0.043494
    17 -0.034142 -1.156125 0.057437 -0.778245 0.008377 -0.019511
    18 0.957766 -2.746780 -0.090302 0.192401 -0.214710 0.231563
    19 -0.033420 -1.397129 -0.026882 -0.830080 0.006723 -0.040833
    20 -0.022360 -0.957436 -0.000748 -0.701806 0.007574 -0.034084
    21 -1.180681 -2.507217 -0.193859 -1.000921 0.270987 -0.298350
    22 -0.024967 -1.127840 0.017597 -0.956758 0.004674 -0.041010
    23 -0.020057 -0.906594 0.033528 -1.043762 0.004698 -0.042809
    24 0.603042 -1.205090 0.189285 0.170717 -0.910476 -0.421804
    25 1.485144 -0.208511 0.067511 0.044099 -0.208064 -0.737596
    26 0.975767 -0.198604 0.051823 0.125211 -0.269176 -1.206668
    27 0.120153 -0.050270 -0.054489 0.287569 3.110905 1.561085
    28 -4.954506 -8.411044 -6.220223 0.469219 -4.080966 0.829968
    29 -0.176502 -8.446512 0.025792 -0.581088 -1.367489 0.732618
    30 0.447953 -2.798986 -0.200443 -1.080608 -0.116016 0.286451
    31 -0.032909 -1.495829 0.016659 -0.937501 0.019763 -0.014176
    32 -0.027022 -1.096452 -0.028023 -0.513425 0.013471 -0.005429
    33 -0.249534 -2.846964 -0.174213 -0.688709 -0.073099 0.004763
    34 0.043235 -1.660503 0.080387 -1.014688 -0.016652 0.001691
    35 0.031729 -1.153017 0.058838 -0.444953 -0.003900 0.005867
    36 -0.963866 -2.785145 -0.085350 -0.359784 0.157230 -0.206201
    37 0.028479 -1.403067 -0.013261 -0.774906 -0.017929 -0.029782
    38 0.021413 -0.957781 0.020046 -0.175941 -0.002013 -0.007862
    39 1.164475 -2.543940 -0.170330 -1.269961 -0.216253 0.419838
    40 0.024032 -1.136855 -0.001725 -0.773654 0.004039 0.041288
    41 0.014898 -0.895708 -0.019848 -0.595607 -0.000911 0.029698
    42 -0.586770 -1.264477 0.200161 -0.073069 -0.460710 -2.781506
    43 1.557992 0.035243 0.016848 -0.014170 -0.005588 0.722307
    44 1.117947 0.048424 -0.005766 0.002681 -0.021758 -0.075216
    45 -0.037833 -0.131230 -0.106700 0.756922 0.202509 1.380917
    46 -6.967859 5.120314 -0.407407 1.577641 -0.026544 -0.728822
  time 15
    0 5.484505 -11.473002 -6.138118 -0.628326 -1.475809 -4.196970
    1 0.661211 -0.000004 -2.641094 0.000000 -3.141592 0.000000
    2 3.247482 -0.000005 -1.130647 0.000000 0.000000 -0.000001
    3 3.260927 1.355822 2.192472 2.208361 -1.542144 -1.139077
    4 3.261963 1.374206 1.040803 -2.040361 -1.570796 0.000000
    5 2.531871 -0.036995 -2.070253 0.000000 0.000000 -0.000001
    6 1.073001 -0.000003 4.918042 0.000000 -3.141592 0.000000
    7 2.916357 0.664625 10.775771 -3.048099 0.000000 1.570796
    8 0.923057 -2.001326 -3.726057 -0.062488 -0.333819 0.188710
    9 4.587303 -3.072984 -7.479679 1.102189 -1.885206 -1.302764
    10 7.683157 3.242885 -0.333406 1.566162 -3.122440 0.481097
    11 -0.028951 -8.393264 -0.108040 -0.386113 0.454446 -0.203685
    12 -0.488518 -2.755602 -0.228260 -0.926864 0.104123 -0.205670
    13 0.039887 -1.530573 0.014229 -1.473570 -0.012212 0.032731
    14 0.028786 -1.169484 -0.124675 -1.082413 -0.015161 0.023166
    15 0.250027 -2.820665 -0.238396 -0.656416 0.070401 -0.070751
    16 -0.049759 -1.594604 0.026258 -1.644847 -0.001630 -0.043494
    17 -0.034142 -1.156125 0.057437 -0.778245 0.008377 -0.019511
    18 0.957766 -2.746780 -0.090302 0.192366 -0.212660 0.232006
    19 -0.033420 -1.397129 -0.026882 -0.840549 0.006592 -0.041348
    20 -0.022360 -0.957436 -0.000748 -0.702856 0.007562 -0.034132
    21 -1.180681 -2.507217 -0.193859 -1.000921 0.270987 -0.298350
    22 -0.024967 -1.127840 0.017597 -0.956758 0.004674 -0.041010
    23 -0.020057 -0.906594 0.033528 -1.043762 0.004698 -0.042809
    24 0.603042 -1.205090 0.189285 0.170717 -0.910476 -0.421804
    25 1.485144 -0.208511 0.067511 0.044099 -0.208064 -0.737596
    26 0.975767 -0.198604 0.051823 0.125211 -0.269176 -1.206668
    27 0.120153 -0.050270 -0.054489 0.287569 3.110905 1.561085
    28 -4.907629 -8.512610 -6.103032 0.456406 -4.085026 0.805668
    29 -0.172595 -8.442606 0.025792 -0.621861 -1.363805 0.750355
    30 0.447953 -2.798986 -0.200443 -1.080608 -0.116016 0.286451
    31 -0.032909 -1.495829 0.016659 -0.937501 0.019763 -0.014176
    32 -0.027022 -1.096452 -0.028023 -0.513425 0.013471 -0.005429
    33 -0.249534 -2.846964 -0.174213 -0.688709 -0.073099 0.004763
    34 0.043235 -1.660503 0.080387 -1.014688 -0.016652 0.001691
    35 0.031729 -1.153017 0.058838 -0.444953 -0.003900 0.005867
    36 -0.963866 -2.785145 -0.085350 -0.359784 0.157230 -0.206201
    37 0.028479 -1.403067 -0.013261 -0.774906 -0.017929 -0.029782
    38 0.021413 -0.957781 0.020046 -0.175941 -0.002013 -0.007862
    39 1.164475 -2.543940 -0.170330 -1.269961 -0.216253 0.419838
    40 0.024032 -1.136855 -0.001725 -0.773654 0.004039 0.041288
    41 0.014898 -0.895708 -0.019848 -0.595607 -0.000911 0.029698
    42 -0.586770 -1.264477 0.200161 -0.073069 -0.460710 -2.781506
    43 1.557992 0.035243 0.016848 -0.014170 -0.005588 0.722307
    44 1.117947 0.048424 -0.005766 0.002681 -0.021758 -0.075216
    45 -0.037833 -0.131230 -0.106700 0.756922 0.202509 1.380917
    46 -6.776447 5.413291 -0.399594 1.578216 -0.025492 -0.771279
  time 16
    0 5.461067 -11.543317 -6.138118 -0.626751 -1.472858 -4.196970
    1 0.661211 -0.000004 -2.641094 0.000000 -3.141592 0.000000
    2 3.247482 -0.000005 -1.130647 0.000000 0.000000 -0.000001
    3 3.260927 1.355822 2.192472 2.208361 -1.542144 -1.139077
    4 3.261963 1.374206 1.040803 -2.040361 -1.570796 0.000000
    5 2.531871 -0.036995 -2.070253 0.000000 0.000000 -0.000001
    6 1.073001 -0.000003 4.918042 0.000000 -3.141592 0.000000
    7 2.916357 0.664625 10.775771 -3.048099 0.000000 1.570796
    8 0.923057 -2.001326 -3.726057 -0.062488 -0.333819 0.188710
    9 4.567771 -3.131579 -7.444521 1.098493 -1.882611 -1.300681
    10 7.644094 3.360076 -0.329500 1.566066 -3.122727 0.496080
    11 -0.028951 -8.393264 -0.108040 -0.381475 0.452662 -0.197396
    12 -0.488518 -2.755602 -0.228260 -0.926864 0.104123 -0.205670
    13 0.039887 -1.530573 0.014229 -1.473570 -0.012212 0.032731
    14 0.028786 -1.169484 -0.124675 -1.082413 -0.015161 0.023166
    15 0.250027 -2.820665 -0.238396 -0.656416 0.070401 -0.070751
    16 -0.049759 -1.594604 0.026258 -1.644847 -0.001630 -0.043494
    17 -0.034142 -1.156125 0.057437 -0.778245 0.008377 -0.019511
    18 0.957766 -2.746780 -0.090302 0.192366 -0.212660 0.232006
    19 -0.033420 -1.397129 -0.026882 -0.840549 0.006592 -0.041348
    20 -0.022360 -0.957436 -0.000748 -0.702856 0.007562 -0.034132
    21 -1.180681 -2.507217 -0.193859 -1.000921 0.270987 -0.298350
    22 -0.024967 -1.127840 0.017597 -0.956758 0.004674 -0.041010
    23 -0.020057 -0.906594 0.033528 -1.043762 0.004698 -0.042809
    24 0.603042 -1.205090 0.189285 0.170717 -0.910476 -0.421804
    25 1.485144 -0.208511 0.067511 0.044099 -0.208064 -0.737596
    26 0.975767 -0.198604 0.051823 0.125211 -0.269176 -1.206668
    27 0.120153 -0.050270 -0.054489 0.287569 3.110905 1.561085
    28 -4.888097 -8.551674 -6.052249 0.450539 -4.086842 0.794757
    29 -0.172595 -8.442606 0.025792 -0.639927 -1.362645 0.758252
    30 0.447953 -2.798986 -0.200443 -1.080608 -0.116016 0.286451
    31 -0.032909 -1.495829 0.016659 -0.937501 0.019763 -0.014176
    32 -0.027022 -1.096452 -0.028023 -0.513425 0.013471 -0.005429
    33 -0.249534 -2.846964 -0.174213 -0.688709 -0.073099 0.004763
    34 0.043235 -1.660503 0.080387 -1.014688 -0.016652 0.001691
    35 0.031729 -1.153017 0.058838 -0.444953 -0.003900 0.005867
    36 -0.963866 -2.785145 -0.085350 -0.359784 0.157230 -0.206201
    37 0.028479 -1.403067 -0.013261 -0.774906 -0.017929 -0.029782
    38 0.021413 -0.957781 0.020046 -0.175941 -0.002013 -0.007862
    39 1.164475 -2.543940 -0.170330 -1.269961 -0.216253 0.419838
    40 0.024032 -1.136855 -0.001725 -0.773654 0.004039 0.041288
    41 0.014898 -0.895708 -0.019848 -0.595607 -0.000911 0.029698
    42 -0.586770 -1.264477 0.200161 -0.073069 -0.460710 -2.781506
    43 1.557992 0.035243 0.016848 -0.014170 -0.005588 0.722307
    44 1.117947 0.048424 -0.005766 0.002681 -0.021758 -0.075216
    45 -0.037833 -0.131230 -0.106700 0.756922 0.202509 1.380917
    46 -6.686600 5.534389 -0.399594 1.578504 -0.025109 -0.789634
  time 17
    0 5.445442 -11.570662 -6.138118 -0.625270 -1.471307 -4.197832
    1 0.661211 -0.000004 -2.641094 0.000000 -3.141592 0.000000
    2 3.247482 -0.000005 -1.130647 0.000000 0.000000 -0.000001
    3 3.260927 1.355822 2.192472 2.208361 -1.542144 -1.139077
    4 3.261963 1.374206 1.040803 -2.040361 -1.570796 0.000000
    5 2.531871 -0.036995 -2.070253 0.000000 0.000000 -0.000001
    6 1.073001 -0.000003 4.918042 0.000000 -3.141592 0.000000
    7 2.916357 0.664625 10.775771 -3.048099 0.000000 1.570796
    8 0.923057 -2.001326 -3.726057 -0.062488 -0.333819 0.188710
    9 4.556052 -3.155017 -7.428896 1.097014 -1.881618 -1.299959
    10 7.628468 3.406953 -0.329500 1.566066 -3.122823 0.502347
    11 -0.028951 -8.393264 -0.108040 -0.379317 0.451824 -0.194482
    12 -0.488518 -2.755602 -0.228260 -0.926864 0.104123 -0.205670
    13 0.039887 -1.530573 0.014229 -1.473570 -0.012212 0.032731
    14 0.028786 -1.169484 -0.124675 -1.082413 -0.015161 0.023166
    15 0.250027 -2.820665 -0.238396 -0.656416 0.070401 -0.070751
    16 -0.049759 -1.594604 0.026258 -1.644847 -0.001630 -0.043494
    17 -0.034142 -1.156125 0.057437 -0.778245 0.008377 -0.019511
    18 0.957766 -2.746780 -0.090302 0.192366 -0.212660 0.232006
    19 -0.033420 -1.397129 -0.026882 -0.840549 0.006592 -0.041348
    20 -0.022360 -0.957436 -0.000748 -0.702856 0.007562 -0.034132
    21 -1.180681 -2.507217 -0.193859 -1.000921 0.270987 -0.298350
    22 -0.024967 -1.127840 0.017597 -0.956758 0.004674 -0.041010
    23 -0.020057 -0.906594 0.033528 -1.043762 0.004698 -0.042809
    24 0.603042 -1.205090 0.189285 0.170717 -0.910476 -0.421804
    25 1.485144 -0.208511 0.067511 0.044099 -0.208064 -0.737596
    26 0.975767 -0.198604 0.051823 0.125211 -0.269176 -1.206668
    27 0.120153 -0.050270 -0.054489 0.287569 3.110905 1.561085
    28 -4.876378 -8.571205 -6.028811 0.448305 -4.087535 0.790377
    29 -0.172595 -8.438699 0.025792 -0.647485 -1.362099 0.761386
    30 0.447953 -2.798986 -0.200443 -1.080608 -0.116016 0.286451
    31 -0.032909 -1.495829 0.016659 -0.937501 0.019763 -0.014176
    32 -0.027022 -1.096452 -0.028023 -0.513425 0.013471 -0.005429
    33 -0.249534 -2.846964 -0.174213 -0.688709 -0.073099 0.004763
    34 0.043235 -1.660503 0.080387 -1.014688 -0.016652 0.001691
    35 0.031729 -1.153017 0.058838 -0.444953 -0.003900 0.005867
    36 -0.963866 -2.785145 -0.085350 -0.359784 0.157230 -0.206201
    37 0.028479 -1.403067 -0.013261 -0.774906 -0.017929 -0.029782
    38 0.021413 -0.957781 0.020046 -0.175941 -0.002013 -0.007862
    39 1.164475 -2.543940 -0.170330 -1.269961 -0.216253 0.419838
    40 0.024032 -1.136855 -0.001725 -0.773654 0.004039 0.041288
    41 0.014898 -0.895708 -0.019848 -0.595607 -0.000911 0.029698
    42 -0.586770 -1.264477 0.200161 -0.073069 -0.460710 -2.781506
    43 1.557992 0.035243 0.016848 -0.014170 -0.005588 0.722307
    44 1.117947 0.048424 -0.005766 0.002681 -0.021758 -0.075216
    45 -0.037833 -0.131230 -0.106700 0.756922 0.202509 1.380917
    46 -6.651443 5.585172 -0.395688 1.578599 -0.024918 -0.797328
  time 18
    0 5.445442 -11.566755 -6.138118 -0.623788 -1.470860 -4.199460
    1 0.661211 -0.000004 -2.641094 0.000000 -3.141592 0.000000
    2 3.247482 -0.000005 -1.130647 0.000000 0.000000 -0.000001
    3 3.260927 1.355822 2.192472 2.208361 -1.542144 -1.139077
    4 3.261963 1.374206 1.040803 -2.040361 -1.570796 0.000000
    5 2.531871 -0.036995 -2.070253 0.000000 0.000000 -0.000001
    6 1.073001 -0.000003 4.918042 0.000000 -3.141592 0.000000
    7 2.916357 0.664625 10.775771 -3.048099 0.000000 1.570796
    8 0.923057 -2.001326 -3.726057 -0.062488 -0.333819 0.188710
    9 4.556052 -3.151111 -7.428896 1.097292 -1.881771 -1.300280
    10 7.628468 3.403046 -0.329500 1.566066 -3.122823 0.501987
    11 -0.028951 -8.393264 -0.108040 -0.378995 0.451679 -0.194073
    12 -0.488518 -2.755602 -0.228260 -0.926864 0.104123 -0.205670
    13 0.039887 -1.530573 0.014229 -1.473570 -0.012212 0.032731
    14 0.028786 -1.169484 -0.124675 -1.082413 -0.015161 0.023166
    15 0.250027 -2.820665 -0.238396 -0.656416 0.070401 -0.070751
    16 -0.049759 -1.594604 0.026258 -1.644847 -0.001630 -0.043494
    17 -0.034142 -1.156125 0.057437 -0.778245 0.008377 -0.019511
    18 0.957766 -2.746780 -0.090302 0.192366 -0.212660 0.232006
    19 -0.033420 -1.397129 -0.026882 -0.840549 0.006592 -0.041348
    20 -0.022360 -0.957436 -0.000748 -0.702856 0.007562 -0.034132
    21 -1.180681 -2.507217 -0.193859 -1.000921 0.270987 -0.298350
    22 -0.024967 -1.127840 0.017597 -0.956758 0.004674 -0.041010
    23 -0.020057 -0.906594 0.033528 -1.043762 0.004698 -0.042809
    24 0.603042 -1.205090 0.189285 0.170717 -0.910476 -0.421804
    25 1.485144 -0.208511 0.067511 0.044099 -0.208064 -0.737596
    26 0.975767 -0.198604 0.051823 0.125211 -0.269176 -1.206668
    27 0.120153 -0.050270 -0.054489 0.287569 3.110905 1.561085
    28 -4.880285 -8.567299 -6.028811 0.448894 -4.087304 0.790873
    29 -0.172595 -8.438699 0.025792 -0.647187 -1.361997 0.761041
    30 0.447953 -2.798986 -0.200443 -1.080608 -0.116016 0.286451
    31 -0.032909 -1.495829 0.016659 -0.937501 0.019763 -0.014176
    32 -0.027022 -1.096452 -0.028023 -0.513425 0.013471 -0.005429
    33 -0.249534 -2.846964 -0.174213 -0.688709 -0.073099 0.004763
    34 0.043235 -1.660503 0.080387 -1.014688 -0.016652 0.001691
    35 0.031729 -1.153017 0.058838 -0.444953 -0.003900 0.005867
    36 -0.963866 -2.785145 -0.085350 -0.359784 0.157230 -0.206201
    37 0.028479 -1.403067 -0.013261 -0.774906 -0.017929 -0.029782
    38 0.021413 -0.957781 0.020046 -0.175941 -0.002013 -0.007862
    39 1.164475 -2.543940 -0.170330 -1.269961 -0.216253 0.419838
    40 0.024032 -1.136855 -0.001725 -0.773654 0.004039 0.041288
    41 0.014898 -0.895708 -0.019848 -0.595607 -0.000911 0.029698
    42 -0.586770 -1.264477 0.200161 -0.073069 -0.460710 -2.781506
    43 1.557992 0.035243 0.016848 -0.014170 -0.005588 0.722307
    44 1.117947 0.048424 -0.005766 0.002681 -0.021758 -0.075216
    45 -0.037833 -0.131230 -0.106700 0.756922 0.202509 1.380917
    46 -6.655349 5.581265 -0.395688 1.578504 -0.024918 -0.796679
  time 19
    0 5.453254 -11.547223 -6.138118 -0.622213 -1.471218 -4.201471
    1 0.661211 -0.000004 -2.641094 0.000000 -3.141592 0.000000
    2 3.247482 -0.000005 -1.130647 0.000000 0.000000 -0.000001
    3 3.260927 1.355822 2.192472 2.208361 -1.542144 -1.139077
    4 3.261963 1.374206 1.040803 -2.040361 -1.570796 0.000000
    5 2.531871 -0.036995 -2.070253 0.000000 0.000000 -0.000001
    6 1.073001 -0.000003 4.918042 0.000000 -3.141592 0.000000
    7 2.916357 0.664625 10.775771 -3.048099 0.000000 1.570796
    8 0.923057 -2.001326 -3.726057 -0.062488 -0.333819 0.188710
    9 4.563865 -3.135485 -7.440615 1.098678 -1.882687 -1.301402
    10 7.640187 3.367889 -0.329500 1.566066 -3.122727 0.497017
    11 -0.028951 -8.393264 -0.108040 -0.380051 0.452115 -0.195504
    12 -0.488518 -2.755602 -0.228260 -0.926864 0.104123 -0.205670
    13 0.039887 -1.530573 0.014229 -1.473570 -0.012212 0.032731
    14 0.028786 -1.169484 -0.124675 -1.082413 -0.015161 0.023166
    15 0.250027 -2.820665 -0.238396 -0.656416 0.070401 -0.070751
    16 -0.049759 -1.594604 0.026258 -1.644847 -0.001630 -0.043494
    17 -0.034142 -1.156125 0.057437 -0.778268 0.008377 -0.019511
    18 0.957766 -2.746780 -0.090302 0.192366 -0.212660 0.232006
    19 -0.033420 -1.397129 -0.026882 -0.840549 0.006592 -0.041348
    20 -0.022360 -0.957436 -0.000748 -0.702856 0.007562 -0.034132
    21 -1.180681 -2.507217 -0.193859 -1.000921 0.270987 -0.298350
    22 -0.024967 -1.127840 0.017597 -0.956758 0.004674 -0.041010
    23 -0.020057 -0.906594 0.033528 -1.043762 0.004698 -0.042809
    24 0.603042 -1.205090 0.189285 0.170717 -0.910476 -0.421804
    25 1.485144 -0.208511 0.067511 0.044099 -0.208064 -0.737596
    26 0.975767 -0.198604 0.051823 0.125211 -0.269176 -1.206668
    27 0.120153 -0.050270 -0.054489 0.287569 3.110905 1.561085
    28 -4.888097 -8.555580 -6.044436 0.451373 -4.086512 0.794923
    29 -0.172595 -8.438699 0.025792 -0.641419 -1.362270 0.758315
    30 0.447953 -2.798986 -0.200443 -1.080608 -0.116016 0.286451
    31 -0.032909 -1.495829 0.016659 -0.937501 0.019763 -0.014176
    32 -0.027022 -1.096452 -0.028023 -0.513425 0.013471 -0.005429
    33 -0.249534 -2.846964 -0.174213 -0.688709 -0.073099 0.004763
    34 0.043235 -1.660503 0.080387 -1.014688 -0.016652 0.001691
    35 0.031729 -1.153017 0.058838 -0.444953 -0.003900 0.005867
    36 -0.963866 -2.785145 -0.085350 -0.359784 0.157230 -0.206201
    37 0.028479 -1.403067 -0.013261 -0.774906 -0.017929 -0.029782
    38 0.021413 -0.957781 0.020046 -0.175941 -0.002013 -0.007862
    39 1.164475 -2.543940 -0.170330 -1.269961 -0.216253 0.419838
    40 0.024032 -1.136855 -0.001725 -0.773654 0.004039 0.041288
    41 0.014898 -0.895708 -0.019848 -0.595607 -0.000911 0.029698
    42 -0.586770 -1.264477 0.200161 -0.073069 -0.460710 -2.781506
    43 1.557992 0.035243 0.016848 -0.014170 -0.005588 0.722307
    44 1.117947 0.048424 -0.005766 0.002681 -0.021758 -0.075216
    45 -0.037833 -0.131230 -0.106700 0.756922 0.202509 1.380917
    46 -6.682694 5.542202 -0.399594 1.578504 -0.025109 -0.790468
  time 20
    0 5.461067 -11.512066 -6.142024 -0.620824 -1.472023 -4.203579
    1 0.661211 -0.000004 -2.641094 0.000000 -3.141592 0.000000
    2 3.247482 -0.000005 -1.130647 0.000000 0.000000 -0.000001
    3 3.260927 1.355822 2.192472 2.208361 -1.542144 -1.139077
    4 3.261963 1.374206 1.040803 -2.040361 -1.570796 0.000000
    5 2.531871 -0.036995 -2.070253 0.000000 0.000000 -0.000001
    6 1.073001 -0.000003 4.918042 0.000000 -3.141592 0.000000
    7 2.916357 0.664625 10.775771 -3.048099 0.000000 1.570796
    8 0.923057 -2.001326 -3.726057 -0.062488 -0.333819 0.188710
    9 4.571678 -3.108141 -7.456240 1.100710 -1.884061 -1.302844
    10 7.659719 3.309293 -0.333406 1.566162 -3.122536 0.489597
    11 -0.028951 -8.393264 -0.108040 -0.381842 0.452807 -0.197908
    12 -0.488518 -2.755602 -0.228260 -0.926864 0.104123 -0.205670
    13 0.039887 -1.530573 0.014229 -1.473570 -0.012212 0.032731
    14 0.028786 -1.169484 -0.124675 -1.082413 -0.015161 0.023166
    15 0.250027 -2.820665 -0.238396 -0.656416 0.070401 -0.070751
    16 -0.049759 -1.594604 0.026258 -1.644847 -0.001630 -0.043494
    17 -0.034142 -1.156125 0.057437 -0.778245 0.008377 -0.019511
    18 0.957766 -2.746780 -0.090302 0.192366 -0.212660 0.232006
    19 -0.033420 -1.397129 -0.026882 -0.840549 0.006592 -0.041348
    20 -0.022360 -0.957436 -0.000748 -0.702856 0.007562 -0.034132
    21 -1.180681 -2.507217 -0.193859 -1.000921 0.270987 -0.298350
    22 -0.024967 -1.127840 0.017597 -0.956758 0.004674 -0.041010
    23 -0.020057 -0.906594 0.033528 -1.043762 0.004698 -0.042809
    24 0.603042 -1.205090 0.189285 0.170717 -0.910476 -0.421804
    25 1.485144 -0.208511 0.067511 0.044099 -0.208064 -0.737596
    26 0.975767 -0.198604 0.051823 0.125211 -0.269176 -1.206668
    27 0.120153 -0.050270 -0.054489 0.287569 3.110905 1.561085
    28 -4.895910 -8.536048 -6.071781 0.454835 -4.085389 0.800709
    29 -0.172595 -8.442606 0.025792 -0.632668 -1.362679 0.754241
    30 0.447953 -2.798986 -0.200443 -1.080608 -0.116016 0.286451
    31 -0.032909 -1.495829 0.016659 -0.937501 0.019763 -0.014176
    32 -0.027022 -1.096452 -0.028023 -0.513425 0.013471 -0.005429
    33 -0.249534 -2.846964 -0.174213 -0.688709 -0.073099 0.004763
    34 0.043235 -1.660503 0.080387 -1.014688 -0.016652 0.001691
    35 0.031729 -1.153017 0.058838 -0.444953 -0.003900 0.005867
    36 -0.963866 -2.785145 -0.085350 -0.359784 0.157230 -0.206201
    37 0.028479 -1.403067 -0.013261 -0.774906 -0.017929 -0.029782
    38 0.021413 -0.957781 0.020046 -0.175941 -0.002013 -0.007862
    39 1.164475 -2.543940 -0.170330 -1.269961 -0.216253 0.419838
    40 0.024032 -1.136855 -0.001725 -0.773654 0.004039 0.041288
    41 0.014898 -0.895708 -0.019848 -0.595607 -0.000911 0.029698
    42 -0.586770 -1.264477 0.200161 -0.073069 -0.460710 -2.781506
    43 1.557992 0.035243 0.016848 -0.014170 -0.005588 0.722307
    44 1.117947 0.048424 -0.005766 0.002681 -0.021758 -0.075216
    45 -0.037833 -0.131230 -0.106700 0.756922 0.202509 1.380917
    46 -6.729570 5.479700 -0.399594 1.578312 -0.025300 -0.781105
  time 21
    0 5.472786 -11.476909 -6.142024 -0.619805 -1.473007 -4.205494
    1 0.661211 -0.000004 -2.641094 0.000000 -3.141592 0.000000
    2 3.247482 -0.000005 -1.130647 0.000000 0.000000 -0.000001
    3 3.260927 1.355822 2.192472 2.208361 -1.542144 -1.139077
    4 3.261963 1.374206 1.040803 -2.040361 -1.570796 0.000000
    5 2.531871 -0.036995 -2.070253 0.000000 0.000000 -0.000001
    6 1.073001 -0.000003 4.918042 0.000000 -3.141592 0.000000
    7 2.916357 0.664625 10.775771 -3.048099 0.000000 1.570796
    8 0.923057 -2.001326 -3.726057 -0.062488 -0.333819 0.188710
    9 4.583397 -3.076890 -7.475772 1.102743 -1.885511 -1.304207
    10 7.679251 3.246791 -0.333406 1.566162 -3.122440 0.481673
    11 -0.028951 -8.393264 -0.108040 -0.383817 0.453572 -0.200617
    12 -0.488518 -2.755602 -0.228260 -0.926864 0.104123 -0.205670
    13 0.039887 -1.530573 0.014229 -1.473570 -0.012212 0.032731
    14 0.028786 -1.169484 -0.124675 -1.082413 -0.015161 0.023166
    15 0.250027 -2.820665 -0.238396 -0.656416 0.070401 -0.070751
    16 -0.049759 -1.594604 0.026258 -1.644847 -0.001630 -0.043494
    17 -0.034142 -1.156125 0.057437 -0.778245 0.008377 -0.019511
    18 0.957766 -2.746780 -0.090302 0.192366 -0.212660 0.232006
    19 -0.033420 -1.397129 -0.026882 -0.840549 0.006592 -0.041348
    20 -0.022360 -0.957436 -0.000748 -0.702856 0.007562 -0.034132
    21 -1.180681 -2.507217 -0.193859 -1.000921 0.270987 -0.298350
    22 -0.024967 -1.127840 0.017597 -0.956758 0.004674 -0.041010
    23 -0.020057 -0.906594 0.033528 -1.043762 0.004698 -0.042809
    24 0.603042 -1.205090 0.189285 0.170717 -0.910476 -0.421804
    25 1.485144 -0.208511 0.067511 0.044099 -0.208064 -0.737596
    26 0.975767 -0.198604 0.051823 0.125211 -0.269176 -1.206668
    27 0.120153 -0.050270 -0.054489 0.287569 3.110905 1.561085
    28 -4.907629 -8.516516 -6.095219 0.458394 -4.084234 0.806742
    29 -0.172595 -8.442606 0.025792 -0.623320 -1.363157 0.749885
    30 0.447953 -2.798986 -0.200443 -1.080608 -0.116016 0.286451
    31 -0.032909 -1.495829 0.016659 -0.937501 0.019763 -0.014176
    32 -0.027022 -1.096452 -0.028023 -0.513425 0.013471 -0.005429
    33 -0.249534 -2.846964 -0.174213 -0.688709 -0.073099 0.004763
    34 0.043235 -1.660503 0.080387 -1.014688 -0.016652 0.001691
    35 0.031729 -1.153017 0.058838 -0.444953 -0.003900 0.005867
    36 -0.963866 -2.785145 -0.085350 -0.359784 0.157230 -0.206201
    37 0.028479 -1.403067 -0.013261 -0.774906 -0.017929 -0.029782
    38 0.021413 -0.957781 0.020046 -0.175941 -0.002013 -0.007862
    39 1.164475 -2.543940 -0.170330 -1.269961 -0.216253 0.419838
    40 0.024032 -1.136855 -0.001725 -0.773654 0.004039 0.041288
    41 0.014898 -0.895708 -0.019848 -0.595607 -0.000911 0.029698
    42 -0.586770 -1.264477 0.200161 -0.073069 -0.460710 -2.781506
    43 1.557992 0.035243 0.016848 -0.014170 -0.005588 0.722307
    44 1.117947 0.048424 -0.005766 0.002681 -0.021758 -0.075216
    45 -0.037833 -0.131230 -0.106700 0.756922 0.202509 1.380917
    46 -6.776447 5.413291 -0.399594 1.578216 -0.025492 -0.771372
  time 22
    0 5.484505 -11.445658 -6.142024 -0.619064 -1.473812 -4.206835
    1 0.661211 -0.000004 -2.641094 0.000000 -3.141592 0.000000
    2 3.247482 -0.000005 -1.130647 0.000000 0.000000 -0.000001
    3 3.260927 1.355822 2.192472 2.208361 -1.542144 -1.139077
    4 3.261963 1.374206 1.040803 -2.040361 -1.570796 0.000000
    5 2.531871 -0.036995 -2.070253 0.000000 0.000000 -0.000001
    6 1.073001 -0.000003 4.918042 0.000000 -3.141592 0.000000
    7 2.916357 0.664625 10.775771 -3.048099 0.000000 1.570796
    8 0.923057 -2.001326 -3.726057 -0.062488 -0.333819 0.188710
    9 4.591209 -3.053452 -7.491398 1.104314 -1.886656 -1.305328
    10 7.694876 3.199915 -0.333406 1.566258 -3.122249 0.475406
    11 -0.028951 -8.393264 -0.108040 -0.385424 0.454191 -0.202816
    12 -0.488518 -2.755602 -0.228260 -0.926864 0.104123 -0.205670
    13 0.039887 -1.530573 0.014229 -1.473570 -0.012212 0.032731
    14 0.028786 -1.169484 -0.124675 -1.082413 -0.015161 0.023166
    15 0.250027 -2.820665 -0.238396 -0.656416 0.070401 -0.070751
    16 -0.049759 -1.594604 0.026258 -1.644847 -0.001630 -0.043494
    17 -0.034142 -1.156125 0.057437 -0.778245 0.008377 -0.019511
    18 0.957766 -2.746780 -0.090302 0.192366 -0.212660 0.232006
    19 -0.033420 -1.397129 -0.026882 -0.840549 0.006592 -0.041348
    20 -0.022360 -0.957436 -0.000748 -0.702856 0.007562 -0.034132
    21 -1.180681 -2.507217 -0.193859 -1.000921 0.270987 -0.298350
    22 -0.024967 -1.127840 0.017597 -0.956758 0.004674 -0.041010
    23 -0.020057 -0.906594 0.033528 -1.043762 0.004698 -0.042809
    24 0.603042 -1.205090 0.189285 0.170717 -0.910476 -0.421804
    25 1.485144 -0.208511 0.067511 0.044099 -0.208064 -0.737596
    26 0.975767 -0.198604 0.051823 0.125211 -0.269176 -1.206668
    27 0.120153 -0.050270 -0.054489 0.287569 3.110905 1.561085
    28 -4.915442 -8.496984 -6.114751 0.461143 -4.083343 0.811454
    29 -0.172595 -8.442606 0.025792 -0.615861 -1.363532 0.746438
    30 0.447953 -2.798986 -0.200443 -1.080608 -0.116016 0.286451
    31 -0.032909 -1.495829 0.016659 -0.937501 0.019763 -0.014176
    32 -0.027022 -1.096452 -0.028023 -0.513425 0.013471 -0.005429
    33 -0.249534 -2.846964 -0.174213 -0.688709 -0.073099 0.004763
    34 0.043235 -1.660503 0.080387 -1.014688 -0.016652 0.001691
    35 0.031729 -1.153017 0.058838 -0.444953 -0.003900 0.005867
    36 -0.963866 -2.785145 -0.085350 -0.359784 0.157230 -0.206201
    37 0.028479 -1.403067 -0.013261 -0.774906 -0.017929 -0.029782
    38 0.021413 -0.957781 0.020046 -0.175941 -0.002013 -0.007862
    39 1.164475 -2.543940 -0.170330 -1.269961 -0.216253 0.419838
    40 0.024032 -1.136855 -0.001725 -0.773654 0.004039 0.041288
    41 0.014898 -0.895708 -0.019848 -0.595607 -0.000911 0.029698
    42 -0.586770 -1.264477 0.200161 -0.073069 -0.460710 -2.781506
    43 1.557992 0.035243 0.016848 -0.014170 -0.005588 0.722307
    44 1.117947 0.048424 -0.005766 0.002681 -0.021758 -0.075216
    45 -0.037833 -0.131230 -0.106700 0.756922 0.202509 1.380917
    46 -6.811604 5.358602 -0.403501 1.578120 -0.025683 -0.763585
  time 23
    0 5.488412 -11.433939 -6.142024 -0.618786 -1.474170 -4.207314
    1 0.661211 -0.000004 -2.641094 0.000000 -3.141592 0.000000
    2 3.247482 -0.000005 -1.130647 0.000000 0.000000 -0.000001
    3 3.260927 1.355822 2.192472 2.208361 -1.542144 -1.139077
    4 3.261963 1.374206 1.040803 -2.040361 -1.570796 0.000000
    5 2.531871 -0.036995 -2.070253 0.000000 0.000000 -0.000001
    6 1.073001 -0.000003 4.918042 0.000000 -3.141592 0.000000
    7 2.916357 0.664625 10.775771 -3.048099 0.000000 1.570796
    8 0.923057 -2.001326 -3.726057 -0.062488 -0.333819 0.188710
    9 4.595116 -3.041733 -7.495304 1.104961 -1.887114 -1.305729
    10 7.702689 3.180383 -0.333406 1.566258 -3.122249 0.472885
    11 -0.028951 -8.393264 -0.108040 -0.386113 0.454446 -0.203685
    12 -0.488518 -2.755602 -0.228260 -0.926864 0.104123 -0.205670
    13 0.039887 -1.530573 0.014229 -1.473570 -0.012212 0.032731
    14 0.028786 -1.169484 -0.124675 -1.082413 -0.015161 0.023166
    15 0.250027 -2.820665 -0.238396 -0.656416 0.070401 -0.070751
    16 -0.049759 -1.594604 0.026258 -1.644847 -0.001630 -0.043494
    17 -0.034142 -1.156125 0.057437 -0.778245 0.008377 -0.019511
    18 0.957766 -2.746780 -0.090302 0.192366 -0.212660 0.232006
    19 -0.033420 -1.397129 -0.026882 -0.840549 0.006592 -0.041348
    20 -0.022360 -0.957436 -0.000748 -0.702856 0.007562 -0.034132
    21 -1.180681 -2.507217 -0.193859 -1.000921 0.270987 -0.298350
    22 -0.024967 -1.127840 0.017597 -0.956758 0.004674 -0.041010
    23 -0.020057 -0.906594 0.033528 -1.043762 0.004698 -0.042809
    24 0.603042 -1.205090 0.189285 0.170717 -0.910476 -0.421804
    25 1.485144 -0.208511 0.067511 0.044099 -0.208064 -0.737596
    26 0.975767 -0.198604 0.051823 0.125211 -0.269176 -1.206668
    27 0.120153 -0.050270 -0.054489 0.287569 3.110905 1.561085
    28 -4.919348 -8.493078 -6.122564 0.462272 -4.082979 0.813437
    29 -0.172595 -8.442606 0.025792 -0.612845 -1.363668 0.745028
    30 0.447953 -2.798986 -0.200443 -1.080608 -0.116016 0.286451
    31 -0.032909 -1.495829 0.016659 -0.937501 0.019763 -0.014176
    32 -0.027022 -1.096452 -0.028023 -0.513425 0.013471 -0.005429
    33 -0.249534 -2.846964 -0.174213 -0.688709 -0.073099 0.004763
    34 0.043235 -1.660503 0.080387 -1.014688 -0.016652 0.001691
    35 0.031729 -1.153017 0.058838 -0.444953 -0.003900 0.005867
    36 -0.963866 -2.785145 -0.085350 -0.359784 0.157230 -0.206201
    37 0.028479 -1.403067 -0.013261 -0.774906 -0.017929 -0.029782
    38 0.021413 -0.957781 0.020046 -0.175941 -0.002013 -0.007862
    39 1.164475 -2.543940 -0.170330 -1.269961 -0.216253 0.419838
    40 0.024032 -1.136855 -0.001725 -0.773654 0.004039 0.041288
    41 0.014898 -0.895708 -0.019848 -0.595607 -0.000911 0.029698
    42 -0.586770 -1.264477 0.200161 -0.073069 -0.460710 -2.781506
    43 1.557992 0.035243 0.016848 -0.014170 -0.005588 0.722307
    44 1.117947 0.048424 -0.005766 0.002681 -0.021758 -0.075216
    45 -0.037833 -0.131230 -0.106700 0.756922 0.202509 1.380917
    46 -6.827230 5.339070 -0.403501 1.578024 -0.025779 -0.760433
  time 24
    0 5.488412 -11.437845 -6.142024 -0.619157 -1.474229 -4.206931
    1 0.661211 -0.000004 -2.641094 0.000000 -3.141592 0.000000
    2 3.247482 -0.000005 -1.130647 0.000000 0.000000 -0.000001
    3 3.260927 1.355822 2.192472 2.208361 -1.542144 -1.139077
    4 3.261963 1.374206 1.040803 -2.040361 -1.570796 0.000000
    5 2.531871 -0.036995 -2.070253 0.000000 0.000000 -0.000001
    6 1.073001 -0.000003 4.918042 0.000000 -3.141592 0.000000
    7 2.916357 0.664625 10.775771 -3.048099 0.000000 1.570796
    8 0.923057 -2.001326 -3.726057 -0.062488 -0.333819 0.188710
    9 4.595116 -3.045639 -7.495304 1.104868 -1.887037 -1.305649
    10 7.702689 3.180383 -0.333406 1.566258 -3.122249 0.473173
    11 -0.028951 -8.393264 -0.108040 -0.386113 0.454446 -0.203685
    12 -0.488518 -2.755602 -0.228260 -0.926864 0.104123 -0.205670
    13 0.039887 -1.530573 0.014229 -1.473570 -0.012212 0.032731
    14 0.028786 -1.169484 -0.124675 -1.082413 -0.015161 0.023166
    15 0.250027 -2.820665 -0.238396 -0.656416 0.070401 -0.070751
    16 -0.049759 -1.594604 0.026258 -1.644847 -0.001630 -0.043494
    17 -0.034142 -1.156125 0.057437 -0.778245 0.008377 -0.019511
    18 0.957766 -2.746780 -0.090302 0.192366 -0.212660 0.232006
    19 -0.033420 -1.397129 -0.026882 -0.840549 0.006592 -0.041348
    20 -0.022360 -0.957436 -0.000748 -0.702856 0.007562 -0.034132
    21 -1.180681 -2.507217 -0.193859 -1.000921 0.270987 -0.298350
    22 -0.024967 -1.127840 0.017597 -0.956758 0.004674 -0.041010
    23 -0.020057 -0.906594 0.033528 -1.043762 0.004698 -0.042809
    24 0.603042 -1.205090 0.189285 0.170717 -0.910476 -0.421804
    25 1.485144 -0.208511 0.067511 0.044099 -0.208064 -0.737596
    26 0.975767 -0.198604 0.051823 0.125211 -0.269176 -1.206668
    27 0.120153 -0.050270 -0.054489 0.287569 3.110905 1.561085
    28 -4.919348 -8.493078 -6.122564 0.462027 -4.083045 0.813107
    29 -0.172595 -8.442606 0.025792 -0.613176 -1.363668 0.745247
    30 0.447953 -2.798986 -0.200443 -1.080608 -0.116016 0.286451
    31 -0.032909 -1.495829 0.016659 -0.937501 0.019763 -0.014176
    32 -0.027022 -1.096452 -0.028023 -0.513425 0.013471 -0.005429
    33 -0.249534 -2.846964 -0.174213 -0.688709 -0.073099 0.004763
    34 0.043235 -1.660503 0.080387 -1.014688 -0.016652 0.001691
    35 0.031729 -1.153017 0.058838 -0.444953 -0.003900 0.005867
    36 -0.963866 -2.785145 -0.085350 -0.359784 0.157230 -0.206201
    37 0.028479 -1.403067 -0.013261 -0.774906 -0.017929 -0.029782
    38 0.021413 -0.957781 0.020046 -0.175941 -0.002013 -0.007862
    39 1.164475 -2.543940 -0.170330 -1.269961 -0.216253 0.419838
    40 0.024032 -1.136855 -0.001725 -0.773654 0.004039 0.041288
    41 0.014898 -0.895708 -0.019848 -0.595607 -0.000911 0.029698
    42 -0.586770 -1.264477 0.200161 -0.073069 -0.460710 -2.781506
    43 1.557992 0.035243 0.016848 -0.014170 -0.005588 0.722307
    44 1.117947 0.048424 -0.005766 0.002681 -0.021758 -0.075216
    45 -0.037833 -0.131230 -0.106700 0.756922 0.202509 1.380917
    46 -6.823323 5.342977 -0.403501 1.578120 -0.025779 -0.760896
  time 25
    0 5.488412 -11.441751 -6.138118 -0.620083 -1.474408 -4.205877
    1 0.661211 -0.000004 -2.641094 0.000000 -3.141592 0.000000
    2 3.247482 -0.000005 -1.130647 0.000000 0.000000 -0.000001
    3 3.260927 1.355822 2.192472 2.208361 -1.542144 -1.139077
    4 3.261963 1.374206 1.040803 -2.040361 -1.570796 0.000000
    5 2.531871 -0.036995 -2.070253 0.000000 0.000000 -0.000001
    6 1.073001 -0.000003 4.918042 0.000000 -3.141592 0.000000
    7 2.916357 0.664625 10.775771 -3.048099 0.000000 1.570796
    8 0.923057 -2.001326 -3.726057 -0.062488 -0.333819 0.188710
    9 4.595116 -3.045639 -7.491398 1.104591 -1.886808 -1.305328
    10 7.698783 3.188196 -0.333406 1.566258 -3.122249 0.474037
    11 -0.028951 -8.393264 -0.108040 -0.386113 0.454446 -0.203685
    12 -0.488518 -2.755602 -0.228260 -0.926864 0.104123 -0.205670
    13 0.039887 -1.530573 0.014229 -1.473570 -0.012212 0.032731
    14 0.028786 -1.169484 -0.124675 -1.082413 -0.015161 0.023166
    15 0.250027 -2.820665 -0.238396 -0.656416 0.070401 -0.070751
    16 -0.049759 -1.594604 0.026258 -1.644847 -0.001630 -0.043494
    17 -0.034142 -1.156125 0.057437 -0.778268 0.008377 -0.019511
    18 0.957766 -2.746780 -0.090302 0.192366 -0.212660 0.232006
    19 -0.033420 -1.397129 -0.026882 -0.840549 0.006592 -0.041348
    20 -0.022360 -0.957436 -0.000748 -0.702856 0.007562 -0.034132
    21 -1.180681 -2.507217 -0.193859 -1.000921 0.270987 -0.298350
    22 -0.024967 -1.127840 0.017597 -0.956758 0.004674 -0.041010
    23 -0.020057 -0.906594 0.033528 -1.043762 0.004698 -0.042809
    24 0.603042 -1.205090 0.189285 0.170717 -0.910476 -0.421804
    25 1.485144 -0.208511 0.067511 0.044099 -0.208064 -0.737596
    26 0.975767 -0.198604 0.051823 0.125211 -0.269176 -1.206668
    27 0.120153 -0.050270 -0.054489 0.287569 3.110905 1.561085
    28 -4.919348 -8.493078 -6.122564 0.461438 -4.083243 0.812363
    29 -0.172595 -8.442606 0.025792 -0.614104 -1.363702 0.745780
    30 0.447953 -2.798986 -0.200443 -1.080608 -0.116016 0.286451
    31 -0.032909 -1.495829 0.016659 -0.937501 0.019763 -0.014176
    32 -0.027022 -1.096452 -0.028023 -0.513425 0.013471 -0.005429
    33 -0.249534 -2.846964 -0.174213 -0.688709 -0.073099 0.004763
    34 0.043235 -1.660503 0.080387 -1.014688 -0.016652 0.001691
    35 0.031729 -1.153017 0.058838 -0.444953 -0.003900 0.005867
    36 -0.963866 -2.785145 -0.085350 -0.359784 0.157230 -0.206201
    37 0.028479 -1.403067 -0.013261 -0.774906 -0.017929 -0.029782
    38 0.021413 -0.957781 0.020046 -0.175941 -0.002013 -0.007862
    39 1.164475 -2.543940 -0.170330 -1.269961 -0.216253 0.419838
    40 0.024032 -1.136855 -0.001725 -0.773654 0.004039 0.041288
    41 0.014898 -0.895708 -0.019848 -0.595607 -0.000911 0.029698
    42 -0.586770 -1.264477 0.200161 -0.073069 -0.460710 -2.781506
    43 1.557992 0.035243 0.016848 -0.014170 -0.005588 0.722307
    44 1.117947 0.048424 -0.005766 0.002681 -0.021758 -0.075216
    45 -0.037833 -0.131230 -0.106700 0.756922 0.202509 1.380917
    46 -6.819417 5.346883 -0.403501 1.578120 -0.025779 -0.762009
  time 26
    0 5.488412 -11.445658 -6.138118 -0.621472 -1.474647 -4.204345
    1 0.661211 -0.000004 -2.641094 0.000000 -3.141592 0.000000
    2 3.247482 -0.000005 -1.130647 0.000000 0.000000 -0.000001
    3 3.260927 1.355822 2.192472 2.208361 -1.542144 -1.139077
    4 3.261963 1.374206 1.040803 -2.040361 -1.570796 0.000000
    5 2.531871 -0.036995 -2.070253 0.000000 0.000000 -0.000001
    6 1.073001 -0.000003 4.918042 0.000000 -3.141592 0.000000
    7 2.916357 0.664625 10.775771 -3.048099 0.000000 1.570796
    8 0.923057 -2.001326 -3.726057 -0.062488 -0.333819 0.188710
    9 4.591209 -3.049545 -7.491398 1.104221 -1.886503 -1.304848
    10 7.694876 3.196009 -0.333406 1.566258 -3.122249 0.475262
    11 -0.028951 -8.393264 -0.108040 -0.386113 0.454446 -0.203685
    12 -0.488518 -2.755602 -0.228260 -0.926864 0.104123 -0.205670
    13 0.039887 -1.530573 0.014229 -1.473570 -0.012212 0.032731
    14 0.028786 -1.169484 -0.124675 -1.082413 -0.015161 0.023166
    15 0.250027 -2.820665 -0.238396 -0.656416 0.070401 -0.070751
    16 -0.049759 -1.594604 0.026258 -1.644847 -0.001630 -0.043494
    17 -0.034142 -1.156125 0.057437 -0.778245 0.008377 -0.019511
    18 0.957766 -2.746780 -0.090302 0.192366 -0.212660 0.232006
    19 -0.033420 -1.397129 -0.026882 -0.840549 0.006592 -0.041348
    20 -0.022360 -0.957436 -0.000748 -0.702856 0.007562 -0.034132
    21 -1.180681 -2.507217 -0.193859 -1.000921 0.270987 -0.298350
    22 -0.024967 -1.127840 0.017597 -0.956758 0.004674 -0.041010
    23 -0.020057 -0.906594 0.033528 -1.043762 0.004698 -0.042809
    24 0.603042 -1.205090 0.189285 0.170717 -0.910476 -0.421804
    25 1.485144 -0.208511 0.067511 0.044099 -0.208064 -0.737596
    26 0.975767 -0.198604 0.051823 0.125211 -0.269176 -1.206668
    27 0.120153 -0.050270 -0.054489 0.287569 3.110905 1.561085
    28 -4.915442 -8.496984 -6.118657 0.460579 -4.083574 0.811206
    29 -0.172595 -8.442606 0.025792 -0.615430 -1.363736 0.746563
    30 0.447953 -2.798986 -0.200443 -1.080608 -0.116016 0.286451
    31 -0.032909 -1.495829 0.016659 -0.937501 0.019763 -0.014176
    32 -0.027022 -1.096452 -0.028023 -0.513425 0.013471 -0.005429
    33 -0.249534 -2.846964 -0.174213 -0.688709 -0.073099 0.004763
    34 0.043235 -1.660503 0.080387 -1.014688 -0.016652 0.001691
    35 0.031729 -1.153017 0.058838 -0.444953 -0.003900 0.005867
    36 -0.963866 -2.785145 -0.085350 -0.359784 0.157230 -0.206201
    37 0.028479 -1.403067 -0.013261 -0.774906 -0.017929 -0.029782
    38 0.021413 -0.957781 0.020046 -0.175941 -0.002013 -0.007862
    39 1.164475 -2.543940 -0.170330 -1.269961 -0.216253 0.419838
    40 0.024032 -1.136855 -0.001725 -0.773654 0.004039 0.041288
    41 0.014898 -0.895708 -0.019848 -0.595607 -0.000911 0.029698
    42 -0.586770 -1.264477 0.200161 -0.073069 -0.460710 -2.781506
    43 1.557992 0.035243 0.016848 -0.014170 -0.005588 0.722307
    44 1.117947 0.048424 -0.005766 0.002681 -0.021758 -0.075216
    45 -0.037833 -0.131230 -0.106700 0.756922 0.202509 1.380917
    46 -6.811604 5.358602 -0.403501 1.578120 -0.025683 -0.763585
  time 27
    0 5.488412 -11.453471 -6.138118 -0.623232 -1.474945 -4.202525
    1 0.661211 -0.000004 -2.641094 0.000000 -3.141592 0.000000
    2 3.247482 -0.000005 -1.130647 0.000000 0.000000 -0.000001
    3 3.260927 1.355822 2.192472 2.208361 -1.542144 -1.139077
    4 3.261963 1.374206 1.040803 -2.040361 -1.570796 0.000000
    5 2.531871 -0.036995 -2.070253 0.000000 0.000000 -0.000001
    6 1.073001 -0.000003 4.918042 0.000000 -3.141592 0.000000
    7 2.916357 0.664625 10.775771 -3.048099 0.000000 1.570796
    8 0.923057 -2.001326 -3.726057 -0.062488 -0.333819 0.188710
    9 4.591209 -3.057358 -7.487491 1.103667 -1.886198 -1.304367
    10 7.690970 3.207728 -0.333406 1.566258 -3.122345 0.476703
    11 -0.028951 -8.393264 -0.108040 -0.386113 0.454446 -0.203685
    12 -0.488518 -2.755602 -0.228260 -0.926864 0.104123 -0.205670
    13 0.039887 -1.530573 0.014229 -1.473570 -0.012212 0.032731
    14 0.028786 -1.169484 -0.124675 -1.082413 -0.015161 0.023166
    15 0.250027 -2.820665 -0.238396 -0.656416 0.070401 -0.070751
    16 -0.049759 -1.594604 0.026258 -1.644847 -0.001630 -0.043494
    17 -0.034142 -1.156125 0.057437 -0.778245 0.008377 -0.019511
    18 0.957766 -2.746780 -0.090302 0.192366 -0.212660 0.232006
    19 -0.033420 -1.397129 -0.026882 -0.840549 0.006592 -0.041348
    20 -0.022360 -0.957436 -0.000748 -0.702856 0.007562 -0.034132
    21 -1.180681 -2.507217 -0.193859 -1.000921 0.270987 -0.298350
    22 -0.024967 -1.127840 0.017597 -0.956758 0.004674 -0.041010
    23 -0.020057 -0.906594 0.033528 -1.043762 0.004698 -0.042809
    24 0.603042 -1.205090 0.189285 0.170717 -0.910476 -0.421804
    25 1.485144 -0.208511 0.067511 0.044099 -0.208064 -0.737596
    26 0.975767 -0.198604 0.051823 0.125211 -0.269176 -1.206668
    27 0.120153 -0.050270 -0.054489 0.287569 3.110905 1.561085
    28 -4.915442 -8.500891 -6.114751 0.459523 -4.083937 0.809801
    29 -0.172595 -8.442606 0.025792 -0.617021 -1.363736 0.747503
    30 0.447953 -2.798986 -0.200443 -1.080608 -0.116016 0.286451
    31 -0.032909 -1.495829 0.016659 -0.937501 0.019763 -0.014176
    32 -0.027022 -1.096452 -0.028023 -0.513425 0.013471 -0.005429
    33 -0.249534 -2.846964 -0.174213 -0.688709 -0.073099 0.004763
    34 0.043235 -1.660503 0.080387 -1.014688 -0.016652 0.001691
    35 0.031729 -1.153017 0.058838 -0.444953 -0.003900 0.005867
    36 -0.963866 -2.785145 -0.085350 -0.359784 0.157230 -0.206201
    37 0.028479 -1.403067 -0.013261 -0.774906 -0.017929 -0.029782
    38 0.021413 -0.957781 0.020046 -0.175941 -0.002013 -0.007862
    39 1.164475 -2.543940 -0.170330 -1.269961 -0.216253 0.419838
    40 0.024032 -1.136855 -0.001725 -0.773654 0.004039 0.041288
    41 0.014898 -0.895708 -0.019848 -0.595607 -0.000911 0.029698
    42 -0.586770 -1.264477 0.200161 -0.073069 -0.460710 -2.781506
    43 1.557992 0.035243 0.016848 -0.014170 -0.005588 0.722307
    44 1.117947 0.048424 -0.005766 0.002681 -0.021758 -0.075216
    45 -0.037833 -0.131230 -0.106700 0.756922 0.202509 1.380917
    46 -6.803791 5.374228 -0.403501 1.578120 -0.025683 -0.765532
  time 28
    0 5.484505 -11.461283 -6.138118 -0.624992 -1.475243 -4.200609
    1 0.661211 -0.000004 -2.641094 0.000000 -3.141592 0.000000
    2 3.247482 -0.000005 -1.130647 0.000000 0.000000 -0.000001
    3 3.260927 1.355822 2.192472 2.208361 -1.542144 -1.139077
    4 3.261963 1.374206 1.040803 -2.040361 -1.570796 0.000000
    5 2.531871 -0.036995 -2.070253 0.000000 0.000000 -0.000001
    6 1.073001 -0.000003 4.918042 0.000000 -3.141592 0.000000
    7 2.916357 0.664625 10.775771 -3.048099 0.000000 1.570796
    8 0.923057 -2.001326 -3.726057 -0.062488 -0.333819 0.188710
    9 4.591209 -3.061264 -7.483585 1.103113 -1.885816 -1.303806
    10 7.687064 3.219447 -0.333406 1.566258 -3.122345 0.478287
    11 -0.028951 -8.393264 -0.108040 -0.386113 0.454446 -0.203685
    12 -0.488518 -2.755602 -0.228260 -0.926864 0.104123 -0.205670
    13 0.039887 -1.530573 0.014229 -1.473570 -0.012212 0.032731
    14 0.028786 -1.169484 -0.124675 -1.082413 -0.015161 0.023166
    15 0.250027 -2.820665 -0.238396 -0.656416 0.070401 -0.070751
    16 -0.049759 -1.594604 0.026258 -1.644847 -0.001630 -0.043494
    17 -0.034142 -1.156125 0.057437 -0.778245 0.008377 -0.019511
    18 0.957766 -2.746780 -0.090302 0.192366 -0.212660 0.232006
    19 -0.033420 -1.397129 -0.026882 -0.840549 0.006592 -0.041348
    20 -0.022360 -0.957436 -0.000748 -0.702856 0.007562 -0.034132
    21 -1.180681 -2.507217 -0.193859 -1.000921 0.270987 -0.298350
    22 -0.024967 -1.127840 0.017597 -0.956758 0.004674 -0.041010
    23 -0.020057 -0.906594 0.033528 -1.043762 0.004698 -0.042809
    24 0.603042 -1.205090 0.189285 0.170717 -0.910476 -0.421804
    25 1.485144 -0.208511 0.067511 0.044099 -0.208064 -0.737596
    26 0.975767 -0.198604 0.051823 0.125211 -0.269176 -1.206668
    27 0.120153 -0.050270 -0.054489 0.287569 3.110905 1.561085
    28 -4.911536 -8.504797 -6.110845 0.458418 -4.084333 0.808313
    29 -0.172595 -8.442606 0.025792 -0.618745 -1.363771 0.748538
    30 0.447953 -2.798986 -0.200443 -1.080608 -0.116016 0.286451
    31 -0.032909 -1.495829 0.016659 -0.937501 0.019763 -0.014176
    32 -0.027022 -1.096452 -0.028023 -0.513425 0.013471 -0.005429
    33 -0.249534 -2.846964 -0.174213 -0.688709 -0.073099 0.004763
    34 0.043235 -1.660503 0.080387 -1.014688 -0.016652 0.001691
    35 0.031729 -1.153017 0.058838 -0.444953 -0.003900 0.005867
    36 -0.963866 -2.785145 -0.085350 -0.359784 0.157230 -0.206201
    37 0.028479 -1.403067 -0.013261 -0.774906 -0.017929 -0.029782
    38 0.021413 -0.957781 0.020046 -0.175941 -0.002013 -0.007862
    39 1.164475 -2.543940 -0.170330 -1.269961 -0.216253 0.419838
    40 0.024032 -1.136855 -0.001725 -0.773654 0.004039 0.041288
    41 0.014898 -0.895708 -0.019848 -0.595607 -0.000911 0.029698
    42 -0.586770 -1.264477 0.200161 -0.073069 -0.460710 -2.781506
    43 1.557992 0.035243 0.016848 -0.014170 -0.005588 0.722307
    44 1.117947 0.048424 -0.005766 0.002681 -0.021758 -0.075216
    45 -0.037833 -0.131230 -0.106700 0.756922 0.202509 1.380917
    46 -6.792072 5.385947 -0.403501 1.578120 -0.025587 -0.767571
  time 29
    0 5.484505 -11.469096 -6.138118 -0.626751 -1.475571 -4.198694
    1 0.661211 -0.000004 -2.641094 0.000000 -3.141592 0.000000
    2 3.247482 -0.000005 -1.130647 0.000000 0.000000 -0.000001
    3 3.260927 1.355822 2.192472 2.208361 -1.542144 -1.139077
    4 3.261963 1.374206 1.040803 -2.040361 -1.570796 0.000000
    5 2.531871 -0.036995 -2.070253 0.000000 0.000000 -0.000001
    6 1.073001 -0.000003 4.918042 0.000000 -3.141592 0.000000
    7 2.916357 0.664625 10.775771 -3.048099 0.000000 1.570796
    8 0.923057 -2.001326 -3.726057 -0.062488 -0.333819 0.188710
    9 4.587303 -3.069077 -7.479679 1.102651 -1.885511 -1.303245
    10 7.683157 3.231166 -0.333406 1.566162 -3.122345 0.479800
    11 -0.028951 -8.393264 -0.108040 -0.386113 0.454446 -0.203685
    12 -0.488518 -2.755602 -0.228260 -0.926864 0.104123 -0.205670
    13 0.039887 -1.530573 0.014229 -1.473570 -0.012212 0.032731
    14 0.028786 -1.169484 -0.124675 -1.082413 -0.015161 0.023166
    15 0.250027 -2.820665 -0.238396 -0.656416 0.070401 -0.070751
    16 -0.049759 -1.594604 0.026258 -1.644847 -0.001630 -0.043494
    17 -0.034142 -1.156125 0.057437 -0.778245 0.008377 -0.019511
    18 0.957766 -2.746780 -0.090302 0.192366 -0.212660 0.232006
    19 -0.033420 -1.397129 -0.026882 -0.840549 0.006592 -0.041348
    20 -0.022360 -0.957436 -0.000748 -0.702856 0.007562 -0.034132
    21 -1.180681 -2.507217 -0.193859 -1.000921 0.270987 -0.298350
    22 -0.024967 -1.127840 0.017597 -0.956758 0.004674 -0.041010
    23 -0.020057 -0.906594 0.033528 -1.043762 0.004698 -0.042809
    24 0.603042 -1.205090 0.189285 0.170717 -0.910476 -0.421804
    25 1.485144 -0.208511 0.067511 0.044099 -0.208064 -0.737596
    26 0.975767 -0.198604 0.051823 0.125211 -0.269176 -1.206668
    27 0.120153 -0.050270 -0.054489 0.287569 3.110905 1.561085
    28 -4.907629 -8.508704 -6.106938 0.457338 -4.084696 0.806908
    29 -0.172595 -8.442606 0.025792 -0.620403 -1.363805 0.749509
    30 0.447953 -2.798986 -0.200443 -1.080608 -0.116016 0.286451
    31 -0.032909 -1.495829 0.016659 -0.937501 0.019763 -0.014176
    32 -0.027022 -1.096452 -0.028023 -0.513425 0.013471 -0.005429
    33 -0.249534 -2.846964 -0.174213 -0.688709 -0.073099 0.004763
    34 0.043235 -1.660503 0.080387 -1.014688 -0.016652 0.001691
    35 0.031729 -1.153017 0.058838 -0.444953 -0.003900 0.005867
    36 -0.963866 -2.785145 -0.085350 -0.359784 0.157230 -0.206201
    37 0.028479 -1.403067 -0.013261 -0.774906 -0.017929 -0.029782
    38 0.021413 -0.957781 0.020046 -0.175941 -0.002013 -0.007862
    39 1.164475 -2.543940 -0.170330 -1.269961 -0.216253 0.419838
    40 0.024032 -1.136855 -0.001725 -0.773654 0.004039 0.041288
    41 0.014898 -0.895708 -0.019848 -0.595607 -0.000911 0.029698
    42 -0.586770 -1.264477 0.200161 -0.073069 -0.460710 -2.781506
    43 1.557992 0.035243 0.016848 -0.014170 -0.005588 0.722307
    44 1.117947 0.048424 -0.005766 0.002681 -0.021758 -0.075216
    45 -0.037833 -0.131230 -0.106700 0.756922 0.202509 1.380917
    46 -6.784260 5.401572 -0.399594 1.578216 -0.025587 -0.769518
  time 30
    0 5.484505 -11.473002 -6.138118 -0.628326 -1.475809 -4.196970
    1 0.661211 -0.000004 -2.641094 0.000000 -3.141592 0.000000
    2 3.247482 -0.000005 -1.130647 0.000000 0.000000 -0.000001
    3 3.260927 1.355822 2.192472 2.208361 -1.542144 -1.139077
    4 3.261963 1.374206 1.040803 -2.040361 -1.570796 0.000000
    5 2.531871 -0.036995 -2.070253 0.000000 0.000000 -0.000001
    6 1.073001 -0.000003 4.918042 0.000000 -3.141592 0.000000
    7 2.916357 0.664625 10.775771 -3.048099 0.000000 1.570796
    8 0.923057 -2.001326 -3.726057 -0.062488 -0.333819 0.188710
    9 4.587303 -3.072984 -7.479679 1.102189 -1.885206 -1.302764
    10 7.683157 3.242885 -0.333406 1.566162 -3.122440 0.481097
    11 -0.028951 -8.393264 -0.108040 -0.386113 0.454446 -0.203685
    12 -0.488518 -2.755602 -0.228260 -0.926864 0.104123 -0.205670
    13 0.039887 -1.530573 0.014229 -1.473570 -0.012212 0.032731
    14 0.028786 -1.169484 -0.124675 -1.082413 -0.015161 0.023166
    15 0.250027 -2.820665 -0.238396 -0.656416 0.070401 -0.070751
    16 -0.049759 -1.594604 0.026258 -1.644847 -0.001630 -0.043494
    17 -0.034142 -1.156125 0.057437 -0.778245 0.008377 -0.019511
    18 0.957766 -2.746780 -0.090302 0.192366 -0.212660 0.232006
    19 -0.033420 -1.397129 -0.026882 -0.840549 0.006592 -0.041348
    20 -0.022360 -0.957436 -0.000748 -0.702856 0.007562 -0.034132
    21 -1.180681 -2.507217 -0.193859 -1.000921 0.270987 -0.298350
    22 -0.024967 -1.127840 0.017597 -0.956758 0.004674 -0.041010
    23 -0.020057 -0.906594 0.033528 -1.043762 0.004698 -0.042809
    24 0.603042 -1.205090 0.189285 0.170717 -0.910476 -0.421804
    25 1.485144 -0.208511 0.067511 0.044099 -0.208064 -0.737596
    26 0.975767 -0.198604 0.051823 0.125211 -0.269176 -1.206668
    27 0.120153 -0.050270 -0.054489 0.287569 3.110905 1.561085
    28 -4.907629 -8.512610 -6.103032 0.456406 -4.085026 0.805668
    29 -0.172595 -8.442606 0.025792 -0.621861 -1.363805 0.750355
    30 0.447953 -2.798986 -0.200443 -1.080608 -0.116016 0.286451
    31 -0.032909 -1.495829 0.016659 -0.937501 0.019763 -0.014176
    32 -0.027022 -1.096452 -0.028023 -0.513425 0.013471 -0.005429
    33 -0.249534 -2.846964 -0.174213 -0.688709 -0.073099 0.004763
    34 0.043235 -1.660503 0.080387 -1.014688 -0.016652 0.001691
    35 0.031729 -1.153017 0.058838 -0.444953 -0.003900 0.005867
    36 -0.963866 -2.785145 -0.085350 -0.359784 0.157230 -0.206201
    37 0.028479 -1.403067 -0.013261 -0.774906 -0.017929 -0.029782
    38 0.021413 -0.957781 0.020046 -0.175941 -0.002013 -0.007862
    39 1.164475 -2.543940 -0.170330 -1.269961 -0.216253 0.419838
    40 0.024032 -1.136855 -0.001725 -0.773654 0.004039 0.041288
    41 0.014898 -0.895708 -0.019848 -0.595607 -0.000911 0.029698
    42 -0.586770 -1.264477 0.200161 -0.073069 -0.460710 -2.781506
    43 1.557992 0.035243 0.016848 -0.014170 -0.005588 0.722307
    44 1.117947 0.048424 -0.005766 0.002681 -0.021758 -0.075216
    45 -0.037833 -0.131230 -0.106700 0.756922 0.202509 1.380917
    46 -6.776447 5.413291 -0.399594 1.578216 -0.025492 -0.771279
end
