version 1
nodes
  0 "Bone01" -1
  1 "Bone_Lefthand" 0
  2 "Bone03" 1
  3 "Bone56" 2
  4 "Bone54" 3
  5 "Bone25" 3
  6 "Bone48" 3
  7 "Bone50" 3
  8 "Bone52" 3
  9 "Bone 04" 1
  10 "Bone13" 9
  11 "Bone14" 10
  12 "Bone15" 11
  13 "Bone17" 9
  14 "Bone18" 13
  15 "Bone19" 14
  16 "Bone21" 9
  17 "Bone22" 16
  18 "Bone23" 17
  19 "Bone05" 9
  20 "Bone06" 19
  21 "Bone07" 20
  22 "Bone09" 9
  23 "Bone10" 22
  24 "Bone11" 23
  25 "Bone04" -1
  26 "Bone_Righthand" 25
  27 "Bone26" 26
  28 "Bone35" 27
  29 "Bone36" 28
  30 "Bone37" 29
  31 "Bone31" 27
  32 "Bone32" 31
  33 "Bone33" 32
  34 "Bone39" 27
  35 "Bone40" 34
  36 "Bone41" 35
  37 "Bone43" 27
  38 "Bone44" 37
  39 "Bone45" 38
  40 "Bone27" 27
  41 "Bone28" 40
  42 "Bone29" 41
end
skeleton
  time 0
    0 7.608110 2.668900 -8.194058 -0.774287 -1.331381 0.567287
    1 0.000000 -8.563286 -0.000001 0.347509 -0.125220 -0.169570
    2 -0.435132 -3.043622 0.895601 -1.247037 1.437608 -1.233844
    3 0.000000 2.000727 0.853750 0.000000 0.000000 0.000000
    4 0.021120 -3.993921 3.201528 0.000000 0.000000 0.000000
    5 0.021119 -2.845553 1.084931 0.000000 0.000000 0.000000
    6 0.021120 -4.827047 0.994863 0.000000 0.000000 0.000000
    7 0.021120 -5.547590 1.535272 0.000000 0.000000 0.000000
    8 0.021120 -9.375481 3.809488 0.000000 0.000000 0.000000
    9 -0.003480 -0.404829 0.000001 0.000000 0.000000 0.000000
    10 -0.519309 -2.501156 -0.278957 -1.404591 -0.161672 -0.219512
    11 -0.010598 -1.208185 0.000001 -0.740030 0.000000 0.000000
    12 0.000000 -0.763066 0.000000 -1.343903 0.000000 0.000000
    13 0.105981 -2.607135 -0.278957 -1.135143 -0.167988 -0.238861
    14 0.000000 -1.250579 -0.000001 -0.966912 0.000000 0.000000
    15 0.000000 -0.932634 0.000000 -1.431181 0.000000 0.000000
    16 0.763063 -2.490557 -0.278957 -0.388796 -0.041323 0.031656
    17 -0.012322 -1.280917 0.000000 -0.689389 0.000000 0.000000
    18 -0.001697 -0.749371 0.000000 -0.593412 0.000000 0.000000
    19 0.354566 0.016267 0.318133 0.271703 -0.487906 -0.927541
    20 1.887165 0.012877 0.000000 -0.271037 -0.142581 -0.874135
    21 1.001873 -0.000270 0.000000 0.000000 0.000000 -0.902335
    22 -1.123359 -2.195094 -0.278957 -1.253823 -0.147135 -0.327965
    23 0.010772 -0.963791 0.000000 -0.542804 0.000000 0.000000
    24 -0.010412 -0.631916 -0.000001 -1.165881 0.000000 0.000000
    25 -0.799091 -9.331829 -10.486943 -0.726008 0.255020 0.648689
    26 0.089929 -8.543162 0.000001 0.570471 -0.049153 0.181509
    27 -0.000001 -0.359713 0.000000 0.000000 0.000000 0.000000
    28 -0.170479 -2.636147 -0.277655 -1.326477 0.000000 0.000000
    29 0.010598 -1.261177 0.000000 -0.687615 0.000000 0.000000
    30 -0.000001 -0.943233 -0.000001 -0.532326 0.000000 0.000000
    31 -0.827564 -2.508973 -0.277657 -0.851729 0.000000 0.000000
    32 -0.000001 -1.292971 0.000000 -1.167601 0.000000 0.000000
    33 0.000000 -0.752465 0.000000 -0.445059 0.000000 0.000000
    34 0.444212 -2.561960 -0.277655 -1.570265 -0.041073 -0.026169
    35 0.021022 -1.208186 0.000000 -0.427606 0.000000 0.000000
    36 0.010596 -0.741866 -0.000001 -0.453786 0.000000 0.000000
    37 1.047445 -2.222820 -0.277655 -1.508123 -0.078971 -0.038609
    38 -0.000001 -0.996223 -0.000002 -0.623094 0.000000 0.000000
    39 -0.000001 -0.614690 0.000001 -0.523599 0.000000 0.000000
    40 -0.308255 -0.007814 0.307166 0.124627 -0.099943 -2.491818
    41 1.978378 0.019544 0.000000 -0.098060 -0.036791 0.192024
    42 0.982426 0.003186 0.000001 0.000000 0.000000 0.383988
end
triangles
CSO_mp5.bmp
  3 5.686277 -18.396525 -1.975565 0.000000 1.000000 0.000000 0.601594 0.362550
  3 5.776277 -18.396529 -1.905565 0.000000 1.000000 0.000000 0.593625 0.370518
  3 5.706277 -18.396526 -2.025564 0.000000 1.000000 0.000000 0.601594 0.358566
CSO_mp5.bmp
  3 5.706277 -18.396526 -2.025564 0.000000 1.000000 0.000000 0.601594 0.358566
  3 5.776277 -18.396529 -1.905565 0.000000 1.000000 0.000000 0.593625 0.370518
  3 5.816277 -18.396531 -1.945565 0.000000 1.000000 0.000000 0.589641 0.366534
CSO_mp5.bmp
  3 5.776277 -18.396529 -1.905565 0.000000 1.000000 0.000000 0.593625 0.370518
  3 5.846277 -18.396532 -1.755564 0.000000 1.000000 0.000000 0.585657 0.382470
  3 5.816277 -18.396531 -1.945565 0.000000 1.000000 0.000000 0.589641 0.366534
CSO_mp5.bmp
  3 5.816277 -18.396531 -1.945565 0.000000 1.000000 0.000000 0.589641 0.366534
  3 5.846277 -18.396532 -1.755564 0.000000 1.000000 0.000000 0.585657 0.382470
  3 5.906277 -18.396535 -1.765565 0.000000 1.000000 0.000000 0.581673 0.382470
CSO_mp5.bmp
  3 5.846277 -18.396532 -1.755564 0.000000 1.000000 0.000000 0.585657 0.382470
  3 5.826278 -18.396531 -1.605564 0.000000 1.000000 0.000000 0.589641 0.398406
  3 5.906277 -18.396535 -1.765565 0.000000 1.000000 0.000000 0.581673 0.382470
CSO_mp5.bmp
  3 5.906277 -18.396535 -1.765565 0.000000 1.000000 0.000000 0.581673 0.382470
  3 5.826278 -18.396531 -1.605564 0.000000 1.000000 0.000000 0.589641 0.398406
  3 5.876278 -18.396533 -1.575565 0.000000 1.000000 0.000000 0.585657 0.398406
CSO_mp5.bmp
  3 5.826278 -18.396531 -1.605564 0.000000 1.000000 0.000000 0.589641 0.398406
  3 5.726278 -18.396527 -1.475565 0.000000 1.000000 0.000000 0.597610 0.406375
  3 5.876278 -18.396533 -1.575565 0.000000 1.000000 0.000000 0.585657 0.398406
CSO_mp5.bmp
  3 5.876278 -18.396533 -1.575565 0.000000 1.000000 0.000000 0.585657 0.398406
  3 5.726278 -18.396527 -1.475565 0.000000 1.000000 0.000000 0.597610 0.406375
  3 5.756278 -18.396528 -1.435565 0.000000 1.000000 0.000000 0.597610 0.410359
CSO_mp5.bmp
  3 5.726278 -18.396527 -1.475565 0.000000 1.000000 0.000000 0.597610 0.406375
  3 5.566278 -18.396520 -1.435565 0.000000 1.000000 0.000000 0.613546 0.410359
  3 5.756278 -18.396528 -1.435565 0.000000 1.000000 0.000000 0.597610 0.410359
CSO_mp5.bmp
  3 5.756278 -18.396528 -1.435565 0.000000 1.000000 0.000000 0.597610 0.410359
  3 5.566278 -18.396520 -1.435565 0.000000 1.000000 0.000000 0.613546 0.410359
  3 5.566278 -18.396520 -1.375565 0.000000 1.000000 0.000000 0.613546 0.418327
CSO_mp5.bmp
  3 5.566278 -18.396520 -1.435565 0.000000 1.000000 0.000000 0.613546 0.410359
  3 5.426278 -18.396513 -1.475565 0.000000 1.000000 0.000000 0.625498 0.406375
  3 5.566278 -18.396520 -1.375565 0.000000 1.000000 0.000000 0.613546 0.418327
CSO_mp5.bmp
  3 5.566278 -18.396520 -1.375565 0.000000 1.000000 0.000000 0.613546 0.418327
  3 5.426278 -18.396513 -1.475565 0.000000 1.000000 0.000000 0.625498 0.406375
  3 5.396278 -18.396512 -1.425564 0.000000 1.000000 0.000000 0.629482 0.410359
CSO_mp5.bmp
  3 5.426278 -18.396513 -1.475565 0.000000 1.000000 0.000000 0.625498 0.406375
  3 5.316278 -18.396508 -1.595565 0.000000 1.000000 0.000000 0.637450 0.398406
  3 5.396278 -18.396512 -1.425564 0.000000 1.000000 0.000000 0.629482 0.410359
CSO_mp5.bmp
  3 5.396278 -18.396512 -1.425564 0.000000 1.000000 0.000000 0.629482 0.410359
  3 5.316278 -18.396508 -1.595565 0.000000 1.000000 0.000000 0.637450 0.398406
  3 5.266278 -18.396506 -1.565564 0.000000 1.000000 0.000000 0.641434 0.398406
CSO_mp5.bmp
  3 5.316278 -18.396508 -1.595565 0.000000 1.000000 0.000000 0.637450 0.398406
  3 5.296277 -18.396507 -1.755564 0.000000 1.000000 0.000000 0.641434 0.382470
  3 5.266278 -18.396506 -1.565564 0.000000 1.000000 0.000000 0.641434 0.398406
CSO_mp5.bmp
  3 5.266278 -18.396506 -1.565564 0.000000 1.000000 0.000000 0.641434 0.398406
  3 5.296277 -18.396507 -1.755564 0.000000 1.000000 0.000000 0.641434 0.382470
  3 5.236277 -18.396505 -1.755564 0.000000 1.000000 0.000000 0.645418 0.382470
CSO_mp5.bmp
  3 5.296277 -18.396507 -1.755564 0.000000 1.000000 0.000000 0.641434 0.382470
  3 5.356277 -18.396510 -1.895565 0.000000 1.000000 0.000000 0.633466 0.370518
  3 5.236277 -18.396505 -1.755564 0.000000 1.000000 0.000000 0.645418 0.382470
CSO_mp5.bmp
  3 5.236277 -18.396505 -1.755564 0.000000 1.000000 0.000000 0.645418 0.382470
  3 5.356277 -18.396510 -1.895565 0.000000 1.000000 0.000000 0.633466 0.370518
  3 5.316277 -18.396508 -1.935565 0.000000 1.000000 0.000000 0.637450 0.366534
CSO_mp5.bmp
  3 5.356277 -18.396510 -1.895565 0.000000 1.000000 0.000000 0.633466 0.370518
  3 5.446277 -18.396514 -1.965564 0.000000 1.000000 0.000000 0.625498 0.366534
  3 5.316277 -18.396508 -1.935565 0.000000 1.000000 0.000000 0.637450 0.366534
CSO_mp5.bmp
  3 5.316277 -18.396508 -1.935565 0.000000 1.000000 0.000000 0.637450 0.366534
  3 5.446277 -18.396514 -1.965564 0.000000 1.000000 0.000000 0.625498 0.366534
  3 5.426277 -18.396513 -2.025564 0.000000 1.000000 0.000000 0.629482 0.358566
CSO_mp5.bmp
  3 5.446277 -18.396514 -1.965564 0.000000 1.000000 0.000000 0.625498 0.366534
  3 5.686277 -18.396525 -1.975565 0.000000 1.000000 0.000000 0.601594 0.362550
  3 5.426277 -18.396513 -2.025564 0.000000 1.000000 0.000000 0.629482 0.358566
CSO_mp5.bmp
  3 5.426277 -18.396513 -2.025564 0.000000 1.000000 0.000000 0.629482 0.358566
  3 5.686277 -18.396525 -1.975565 0.000000 1.000000 0.000000 0.601594 0.362550
  3 5.706277 -18.396526 -2.025564 0.000000 1.000000 0.000000 0.601594 0.358566
CSO_mp5.bmp
  3 5.986853 -5.586538 -3.885563 0.583571 0.808460 -0.076396 0.549801 0.087649
  3 5.746860 -5.426528 -4.025563 0.260706 0.914121 -0.310507 0.569721 0.083665
  3 5.986853 -5.586539 -3.265563 0.703292 0.665192 0.250797 0.549801 0.179283
CSO_mp5.bmp
  3 5.986853 -5.586539 -3.265563 0.703292 0.665192 0.250797 0.549801 0.179283
  3 5.746860 -5.426528 -4.025563 0.260706 0.914121 -0.310507 0.569721 0.083665
  3 5.746861 -5.426528 -3.115563 0.309090 0.881570 0.356788 0.569721 0.191235
CSO_mp5.bmp
  3 5.746860 -5.426528 -4.025563 0.260706 0.914121 -0.310507 0.569721 0.083665
  3 5.446860 -5.436514 -3.125563 -0.328707 0.872918 0.360508 0.589641 0.179283
  3 5.746861 -5.426528 -3.115563 0.309090 0.881570 0.356788 0.569721 0.191235
CSO_mp5.bmp
  3 5.746861 -5.426528 -3.115563 0.309090 0.881570 0.356788 0.569721 0.191235
  3 5.446860 -5.436514 -3.125563 -0.328707 0.872918 0.360508 0.589641 0.179283
  3 5.596828 -6.166521 -2.265563 -0.047001 0.398607 0.915917 0.677291 0.298805
CSO_mp5.bmp
  3 5.446860 -5.436514 -3.125563 -0.328707 0.872918 0.360508 0.589641 0.179283
  3 5.396824 -6.236512 -2.395563 -0.733188 0.223096 0.642389 0.689243 0.266932
  3 5.596828 -6.166521 -2.265563 -0.047001 0.398607 0.915917 0.677291 0.298805
CSO_mp5.bmp
  3 5.596828 -6.166521 -2.265563 -0.047001 0.398607 0.915917 0.677291 0.298805
  3 5.396824 -6.236512 -2.395563 -0.733188 0.223096 0.642389 0.689243 0.266932
  3 5.396783 -7.146512 -2.385563 -0.761982 0.004200 0.647585 0.780876 0.266932
CSO_mp5.bmp
  3 5.396824 -6.236512 -2.395563 -0.733188 0.223096 0.642389 0.689243 0.266932
  3 5.196818 -6.366503 -2.925563 -0.856552 -0.206889 0.472774 0.697211 0.211155
  3 5.396783 -7.146512 -2.385563 -0.761982 0.004200 0.647585 0.780876 0.266932
CSO_mp5.bmp
  3 5.396783 -7.146512 -2.385563 -0.761982 0.004200 0.647585 0.780876 0.266932
  3 5.196818 -6.366503 -2.925563 -0.856552 -0.206889 0.472774 0.697211 0.211155
  3 5.206783 -7.146504 -2.925563 -0.882007 -0.005600 0.471204 0.780876 0.211155
CSO_mp5.bmp
  3 5.196818 -6.366503 -2.925563 -0.856552 -0.206889 0.472774 0.697211 0.211155
  3 4.936824 -6.236491 -3.255563 -0.952755 0.137594 0.270787 0.689243 0.171315
  3 5.206783 -7.146504 -2.925563 -0.882007 -0.005600 0.471204 0.780876 0.211155
CSO_mp5.bmp
  3 5.206783 -7.146504 -2.925563 -0.882007 -0.005600 0.471204 0.780876 0.211155
  3 4.936824 -6.236491 -3.255563 -0.952755 0.137594 0.270787 0.689243 0.171315
  3 4.956783 -7.146492 -3.265563 -0.955678 -0.031799 0.292693 0.780876 0.167331
CSO_mp5.bmp
  3 4.936824 -6.236491 -3.255563 -0.952755 0.137594 0.270787 0.689243 0.171315
  3 4.936825 -6.226491 -3.885563 -0.972330 0.121704 -0.199406 0.689243 0.103586
  3 4.956783 -7.146492 -3.265563 -0.955678 -0.031799 0.292693 0.780876 0.167331
CSO_mp5.bmp
  3 4.956783 -7.146492 -3.265563 -0.955678 -0.031799 0.292693 0.780876 0.167331
  3 4.936825 -6.226491 -3.885563 -0.972330 0.121704 -0.199406 0.689243 0.103586
  3 4.946783 -7.146492 -3.885563 -0.970025 0.000000 -0.243006 0.780876 0.103586
CSO_mp5.bmp
  3 4.936825 -6.226491 -3.885563 -0.972330 0.121704 -0.199406 0.689243 0.103586
  3 5.096846 -5.746498 -4.155563 -0.798091 0.502094 -0.333096 0.637450 0.079681
  3 4.946783 -7.146492 -3.885563 -0.970025 0.000000 -0.243006 0.780876 0.103586
CSO_mp5.bmp
  3 4.946783 -7.146492 -3.885563 -0.970025 0.000000 -0.243006 0.780876 0.103586
  3 5.096846 -5.746498 -4.155563 -0.798091 0.502094 -0.333096 0.637450 0.079681
  3 5.096783 -7.146498 -4.155563 -0.952578 0.000400 -0.304293 0.780876 0.079681
CSO_mp5.bmp
  3 5.096846 -5.746498 -4.155563 -0.798091 0.502094 -0.333096 0.637450 0.079681
  3 5.166820 -6.326501 -4.865563 -0.687482 0.256793 -0.679283 0.701195 0.011952
  3 5.096783 -7.146498 -4.155563 -0.952578 0.000400 -0.304293 0.780876 0.079681
CSO_mp5.bmp
  3 5.096783 -7.146498 -4.155563 -0.952578 0.000400 -0.304293 0.780876 0.079681
  3 5.166820 -6.326501 -4.865563 -0.687482 0.256793 -0.679283 0.701195 0.011952
  3 5.176783 -7.146502 -4.875563 -0.664362 0.009000 -0.747357 0.780876 0.011952
CSO_mp5.bmp
  3 5.166820 -6.326501 -4.865563 -0.687482 0.256793 -0.679283 0.701195 0.011952
  3 6.046783 -7.146541 -4.875563 0.000000 0.000000 -1.000000 0.780876 0.011952
  3 5.176783 -7.146502 -4.875563 -0.664362 0.009000 -0.747357 0.780876 0.011952
CSO_mp5.bmp
  3 5.876278 -18.396533 -1.575565 0.756823 0.000000 0.653620 0.924303 0.912351
  3 5.756278 -18.396528 -1.435565 0.552305 0.007600 0.833607 0.924303 0.932271
  3 5.756258 -18.826528 -1.425565 0.582400 0.001900 0.812900 0.976096 0.932271
CSO_mp5.bmp
  3 5.756258 -18.826528 -1.425565 0.582400 0.001900 0.812900 0.976096 0.932271
  3 5.756278 -18.396528 -1.435565 0.552305 0.007600 0.833607 0.924303 0.932271
  3 5.566259 -18.806520 -1.375565 0.000000 0.000000 1.000000 0.972112 0.952191
CSO_mp5.bmp
  3 5.756278 -18.396528 -1.435565 0.552305 0.007600 0.833607 0.924303 0.932271
  3 5.566278 -18.396520 -1.375565 0.000000 0.000000 1.000000 0.924303 0.952191
  3 5.566259 -18.806520 -1.375565 0.000000 0.000000 1.000000 0.972112 0.952191
CSO_mp5.bmp
  3 5.566259 -18.806520 -1.375565 0.000000 0.000000 1.000000 0.972112 0.952191
  3 5.566278 -18.396520 -1.375565 0.000000 0.000000 1.000000 0.924303 0.952191
  3 5.396258 -18.826512 -1.425565 -0.573684 0.000000 0.819077 0.976096 0.932271
CSO_mp5.bmp
  3 5.566278 -18.396520 -1.375565 0.000000 0.000000 1.000000 0.924303 0.952191
  3 5.396278 -18.396512 -1.425564 -0.534180 0.002000 0.845368 0.924303 0.932271
  3 5.396258 -18.826512 -1.425565 -0.573684 0.000000 0.819077 0.976096 0.932271
CSO_mp5.bmp
  3 5.396258 -18.826512 -1.425565 -0.573684 0.000000 0.819077 0.976096 0.932271
  3 5.396278 -18.396512 -1.425564 -0.534180 0.002000 0.845368 0.924303 0.932271
  3 5.266256 -18.866506 -1.575565 -0.917638 0.000000 0.397417 0.980080 0.912351
CSO_mp5.bmp
  3 5.396278 -18.396512 -1.425564 -0.534180 0.002000 0.845368 0.924303 0.932271
  3 5.266278 -18.396506 -1.565564 -0.902093 -0.006200 0.431497 0.924303 0.912351
  3 5.266256 -18.866506 -1.575565 -0.917638 0.000000 0.397417 0.980080 0.912351
CSO_mp5.bmp
  3 5.266256 -18.866506 -1.575565 -0.917638 0.000000 0.397417 0.980080 0.912351
  3 5.266278 -18.396506 -1.565564 -0.902093 -0.006200 0.431497 0.924303 0.912351
  3 5.236254 -18.916505 -1.755564 -0.985148 -0.000800 -0.171708 0.988048 0.892430
CSO_mp5.bmp
  3 5.266278 -18.396506 -1.565564 -0.902093 -0.006200 0.431497 0.924303 0.912351
  3 5.236277 -18.396505 -1.755564 -0.991749 0.000000 -0.128193 0.924303 0.892430
  3 5.236254 -18.916505 -1.755564 -0.985148 -0.000800 -0.171708 0.988048 0.892430
CSO_mp5.bmp
  3 5.236254 -18.916505 -1.755564 -0.985148 -0.000800 -0.171708 0.988048 0.892430
  3 5.236277 -18.396505 -1.755564 -0.991749 0.000000 -0.128193 0.924303 0.892430
  3 5.316252 -18.956509 -1.935565 -0.777669 0.000000 -0.628675 0.992032 0.872510
CSO_mp5.bmp
  3 5.236277 -18.396505 -1.755564 -0.991749 0.000000 -0.128193 0.924303 0.892430
  3 5.316277 -18.396508 -1.935565 -0.802345 -0.001500 -0.596859 0.924303 0.872510
  3 5.316252 -18.956509 -1.935565 -0.777669 0.000000 -0.628675 0.992032 0.872510
CSO_mp5.bmp
  3 5.316252 -18.956509 -1.935565 -0.777669 0.000000 -0.628675 0.992032 0.872510
  3 5.316277 -18.396508 -1.935565 -0.802345 -0.001500 -0.596859 0.924303 0.872510
  3 5.426252 -18.956514 -2.025564 -0.664362 0.009000 -0.747357 0.992032 0.860558
CSO_mp5.bmp
  3 5.316277 -18.396508 -1.935565 -0.802345 -0.001500 -0.596859 0.924303 0.872510
  3 5.426277 -18.396513 -2.025564 -0.664362 0.009000 -0.747357 0.924303 0.860558
  3 5.426252 -18.956514 -2.025564 -0.664362 0.009000 -0.747357 0.992032 0.860558
CSO_mp5.bmp
  3 5.376804 -6.696511 -2.985563 -0.839134 -0.001600 0.543922 0.015936 0.840637
  3 5.376621 -10.756511 -2.985563 -0.988897 0.000000 0.148600 0.569721 0.840637
  3 5.456803 -6.706515 -2.765563 -0.573684 0.000000 0.819077 0.015936 0.872510
CSO_mp5.bmp
  3 5.456803 -6.706515 -2.765563 -0.573684 0.000000 0.819077 0.015936 0.872510
  3 5.376621 -10.756511 -2.985563 -0.988897 0.000000 0.148600 0.569721 0.840637
  3 5.456517 -13.066515 -2.765564 -0.573684 0.000000 0.819077 0.876494 0.872510
CSO_mp5.bmp
  3 5.376621 -10.756511 -2.985563 -0.988897 0.000000 0.148600 0.569721 0.840637
  3 5.386571 -11.856512 -2.985563 -0.988897 0.000000 0.148600 0.713147 0.840637
  3 5.456517 -13.066515 -2.765564 -0.573684 0.000000 0.819077 0.876494 0.872510
CSO_mp5.bmp
  3 5.456517 -13.066515 -2.765564 -0.573684 0.000000 0.819077 0.876494 0.872510
  3 5.386571 -11.856512 -2.985563 -0.988897 0.000000 0.148600 0.713147 0.840637
  3 5.376517 -13.066511 -2.985564 -0.839134 -0.001600 0.543922 0.876494 0.840637
CSO_mp5.bmp
  3 5.386571 -11.856512 -2.985563 -0.988897 0.000000 0.148600 0.713147 0.840637
  3 5.046571 -11.856496 -3.315564 -0.968660 -0.025399 0.247090 0.717131 0.780876
  3 5.376517 -13.066511 -2.985564 -0.839134 -0.001600 0.543922 0.876494 0.840637
CSO_mp5.bmp
  3 5.376517 -13.066511 -2.985564 -0.839134 -0.001600 0.543922 0.876494 0.840637
  3 5.046571 -11.856496 -3.315564 -0.968660 -0.025399 0.247090 0.717131 0.780876
  3 5.036517 -13.066496 -3.315564 -0.917638 0.000000 0.397417 0.876494 0.780876
CSO_mp5.bmp
  3 5.046571 -11.856496 -3.315564 -0.968660 -0.025399 0.247090 0.717131 0.780876
  3 5.046571 -11.866496 -3.475563 -0.924281 0.243095 -0.294294 0.717131 0.764940
  3 5.036517 -13.066496 -3.315564 -0.917638 0.000000 0.397417 0.876494 0.780876
CSO_mp5.bmp
  3 5.036517 -13.066496 -3.315564 -0.917638 0.000000 0.397417 0.876494 0.780876
  3 5.046571 -11.866496 -3.475563 -0.924281 0.243095 -0.294294 0.717131 0.764940
  3 5.036517 -13.066496 -3.795564 -0.970025 0.000000 -0.243006 0.876494 0.717131
CSO_mp5.bmp
  3 5.046571 -11.866496 -3.475563 -0.924281 0.243095 -0.294294 0.717131 0.764940
  3 5.056571 -11.866497 -3.665563 -0.926806 0.242201 0.287002 0.717131 0.729084
  3 5.036517 -13.066496 -3.795564 -0.970025 0.000000 -0.243006 0.876494 0.717131
CSO_mp5.bmp
  3 5.036517 -13.066496 -3.795564 -0.970025 0.000000 -0.243006 0.876494 0.717131
  3 5.056571 -11.866497 -3.665563 -0.926806 0.242201 0.287002 0.717131 0.729084
  3 5.046803 -6.706496 -3.795563 -0.952578 0.000400 -0.304293 0.015936 0.717131
CSO_mp5.bmp
  3 5.056571 -11.866497 -3.665563 -0.926806 0.242201 0.287002 0.717131 0.729084
  3 5.036803 -6.706496 -3.665563 -0.839134 -0.001600 0.543922 0.015936 0.729084
  3 5.046803 -6.706496 -3.795563 -0.952578 0.000400 -0.304293 0.015936 0.717131
CSO_mp5.bmp
  3 5.686253 -18.946525 -1.975565 -0.319586 0.000000 0.947557 0.693227 0.382470
  3 5.776253 -18.946529 -1.905565 -0.761982 0.004200 0.647585 0.693227 0.394422
  3 5.776277 -18.396529 -1.905565 -0.761982 0.004200 0.647585 0.657371 0.394422
CSO_mp5.bmp
  3 5.776277 -18.396529 -1.905565 -0.761982 0.004200 0.647585 0.657371 0.394422
  3 5.776253 -18.946529 -1.905565 -0.761982 0.004200 0.647585 0.693227 0.394422
  3 5.846277 -18.396532 -1.755564 -0.988897 0.000000 0.148600 0.657371 0.406375
CSO_mp5.bmp
  3 5.776253 -18.946529 -1.905565 -0.761982 0.004200 0.647585 0.693227 0.394422
  3 5.846254 -18.916533 -1.755565 -0.980321 0.001500 0.197404 0.693227 0.406375
  3 5.846277 -18.396532 -1.755564 -0.988897 0.000000 0.148600 0.657371 0.406375
CSO_mp5.bmp
  3 5.846277 -18.396532 -1.755564 -0.988897 0.000000 0.148600 0.657371 0.406375
  3 5.846254 -18.916533 -1.755565 -0.980321 0.001500 0.197404 0.693227 0.406375
  3 5.826278 -18.396531 -1.605564 -0.914250 0.004900 -0.405122 0.657371 0.418327
CSO_mp5.bmp
  3 5.846254 -18.916533 -1.755565 -0.980321 0.001500 0.197404 0.693227 0.406375
  3 5.826256 -18.876532 -1.605564 -0.936678 0.000900 -0.350192 0.689243 0.418327
  3 5.826278 -18.396531 -1.605564 -0.914250 0.004900 -0.405122 0.657371 0.418327
CSO_mp5.bmp
  3 5.826278 -18.396531 -1.605564 -0.914250 0.004900 -0.405122 0.657371 0.418327
  3 5.826256 -18.876532 -1.605564 -0.936678 0.000900 -0.350192 0.689243 0.418327
  3 5.726278 -18.396527 -1.475565 -0.556522 0.000200 -0.830833 0.657371 0.430279
CSO_mp5.bmp
  3 5.826256 -18.876532 -1.605564 -0.936678 0.000900 -0.350192 0.689243 0.418327
  3 5.726258 -18.836527 -1.475565 -0.594096 0.000000 -0.804394 0.685259 0.430279
  3 5.726278 -18.396527 -1.475565 -0.556522 0.000200 -0.830833 0.657371 0.430279
CSO_mp5.bmp
  3 5.726278 -18.396527 -1.475565 -0.556522 0.000200 -0.830833 0.657371 0.430279
  3 5.726258 -18.836527 -1.475565 -0.594096 0.000000 -0.804394 0.685259 0.430279
  3 5.566278 -18.396520 -1.435565 0.000000 0.000000 -1.000000 0.657371 0.442231
CSO_mp5.bmp
  3 5.726258 -18.836527 -1.475565 -0.594096 0.000000 -0.804394 0.685259 0.430279
  3 5.566258 -18.826520 -1.435565 0.000000 0.000000 -1.000000 0.685259 0.442231
  3 5.566278 -18.396520 -1.435565 0.000000 0.000000 -1.000000 0.657371 0.442231
CSO_mp5.bmp
  3 5.566278 -18.396520 -1.435565 0.000000 0.000000 -1.000000 0.657371 0.442231
  3 5.566258 -18.826520 -1.435565 0.000000 0.000000 -1.000000 0.685259 0.442231
  3 5.426278 -18.396513 -1.475565 0.265105 -0.001800 -0.964218 0.657371 0.430279
CSO_mp5.bmp
  3 5.566258 -18.826520 -1.435565 0.000000 0.000000 -1.000000 0.685259 0.442231
  3 5.426258 -18.836514 -1.475565 0.265105 -0.001800 -0.964218 0.685259 0.430279
  3 5.426278 -18.396513 -1.475565 0.265105 -0.001800 -0.964218 0.657371 0.430279
CSO_mp5.bmp
  3 5.266679 -9.446506 -4.795563 -0.194106 -0.760523 0.619619 0.836653 0.565737
  3 5.266690 -9.216506 -4.515563 -0.273906 -0.249906 0.928721 0.820717 0.649402
  3 5.066682 -9.396497 -4.795563 -0.818506 -0.442903 0.365903 0.816733 0.569721
CSO_mp5.bmp
  3 5.066682 -9.396497 -4.795563 -0.818506 -0.442903 0.365903 0.816733 0.569721
  3 5.266690 -9.216506 -4.515563 -0.273906 -0.249906 0.928721 0.820717 0.649402
  3 5.066690 -9.206497 -4.575563 -0.703374 -0.187393 0.685674 0.804781 0.625498
CSO_mp5.bmp
  3 5.266690 -9.216506 -4.515563 -0.273906 -0.249906 0.928721 0.820717 0.649402
  3 5.056727 -8.386496 -4.865563 -0.746559 0.567369 0.347481 0.705179 0.609562
  3 5.066690 -9.206497 -4.575563 -0.703374 -0.187393 0.685674 0.804781 0.625498
CSO_mp5.bmp
  3 5.066690 -9.206497 -4.575563 -0.703374 -0.187393 0.685674 0.804781 0.625498
  3 5.056727 -8.386496 -4.865563 -0.746559 0.567369 0.347481 0.705179 0.609562
  3 5.056707 -8.836496 -4.965563 -0.851733 0.210308 -0.479918 0.752988 0.569721
CSO_mp5.bmp
  3 5.056727 -8.386496 -4.865563 -0.746559 0.567369 0.347481 0.705179 0.609562
  3 5.056725 -8.426496 -4.975563 -0.720893 0.325797 -0.611694 0.701195 0.589641
  3 5.056707 -8.836496 -4.965563 -0.851733 0.210308 -0.479918 0.752988 0.569721
CSO_mp5.bmp
  3 5.056707 -8.836496 -4.965563 -0.851733 0.210308 -0.479918 0.752988 0.569721
  3 5.056725 -8.426496 -4.975563 -0.720893 0.325797 -0.611694 0.701195 0.589641
  3 5.256730 -8.326506 -5.005563 -0.379705 0.610108 -0.695409 0.685259 0.577689
CSO_mp5.bmp
  3 5.056725 -8.426496 -4.975563 -0.720893 0.325797 -0.611694 0.701195 0.589641
  3 5.056727 -8.386496 -4.865563 -0.746559 0.567369 0.347481 0.705179 0.609562
  3 5.256730 -8.326506 -5.005563 -0.379705 0.610108 -0.695409 0.685259 0.577689
CSO_mp5.bmp
  3 5.256730 -8.326506 -5.005563 -0.379705 0.610108 -0.695409 0.685259 0.577689
  3 5.056727 -8.386496 -4.865563 -0.746559 0.567369 0.347481 0.705179 0.609562
  3 5.256732 -8.286505 -4.845563 -0.446121 0.809439 0.381818 0.689243 0.641434
CSO_mp5.bmp
  3 5.056727 -8.386496 -4.865563 -0.746559 0.567369 0.347481 0.705179 0.609562
  3 5.266690 -9.216506 -4.515563 -0.273906 -0.249906 0.928721 0.820717 0.649402
  3 5.256732 -8.286505 -4.845563 -0.446121 0.809439 0.381818 0.689243 0.641434
CSO_mp5.bmp
  3 6.036820 -6.326541 -4.865563 0.176199 0.378697 -0.908594 0.633466 0.011952
  3 5.596829 -6.126521 -4.875563 0.001700 0.751795 -0.659395 0.661355 0.011952
  3 6.116846 -5.746544 -4.155563 0.434693 0.730289 -0.526992 0.561753 0.071713
CSO_mp5.bmp
  3 6.116846 -5.746544 -4.155563 0.434693 0.730289 -0.526992 0.561753 0.071713
  3 5.596829 -6.126521 -4.875563 0.001700 0.751795 -0.659395 0.661355 0.011952
  3 5.746860 -5.426528 -4.025563 0.260706 0.914121 -0.310507 0.569721 0.083665
CSO_mp5.bmp
  3 5.596829 -6.126521 -4.875563 0.001700 0.751795 -0.659395 0.661355 0.011952
  3 5.446860 -5.436514 -4.035563 -0.267788 0.905061 -0.330386 0.597610 0.083665
  3 5.746860 -5.426528 -4.025563 0.260706 0.914121 -0.310507 0.569721 0.083665
CSO_mp5.bmp
  3 5.746860 -5.426528 -4.025563 0.260706 0.914121 -0.310507 0.569721 0.083665
  3 5.446860 -5.436514 -4.035563 -0.267788 0.905061 -0.330386 0.597610 0.083665
  3 5.446860 -5.436514 -3.125563 -0.328707 0.872918 0.360508 0.589641 0.179283
CSO_mp5.bmp
  3 5.446860 -5.436514 -4.035563 -0.267788 0.905061 -0.330386 0.597610 0.083665
  3 5.186853 -5.586503 -3.885563 -0.744484 0.665486 -0.053599 0.613546 0.107570
  3 5.446860 -5.436514 -3.125563 -0.328707 0.872918 0.360508 0.589641 0.179283
CSO_mp5.bmp
  3 5.446860 -5.436514 -3.125563 -0.328707 0.872918 0.360508 0.589641 0.179283
  3 5.186853 -5.586503 -3.885563 -0.744484 0.665486 -0.053599 0.613546 0.107570
  3 5.186853 -5.586503 -3.265563 -0.761893 0.607994 0.223298 0.613546 0.167331
CSO_mp5.bmp
  3 5.186853 -5.586503 -3.885563 -0.744484 0.665486 -0.053599 0.613546 0.107570
  3 4.936824 -6.236491 -3.255563 -0.952755 0.137594 0.270787 0.689243 0.171315
  3 5.186853 -5.586503 -3.265563 -0.761893 0.607994 0.223298 0.613546 0.167331
CSO_mp5.bmp
  3 5.186853 -5.586503 -3.265563 -0.761893 0.607994 0.223298 0.613546 0.167331
  3 4.936824 -6.236491 -3.255563 -0.952755 0.137594 0.270787 0.689243 0.171315
  3 5.396824 -6.236512 -2.395563 -0.733188 0.223096 0.642389 0.689243 0.266932
CSO_mp5.bmp
  3 4.936824 -6.236491 -3.255563 -0.952755 0.137594 0.270787 0.689243 0.171315
  3 5.196818 -6.366503 -2.925563 -0.856552 -0.206889 0.472774 0.697211 0.211155
  3 5.396824 -6.236512 -2.395563 -0.733188 0.223096 0.642389 0.689243 0.266932
CSO_mp5.bmp
  3 5.376804 -6.696511 -2.985563 -0.839134 -0.001600 0.543922 0.015936 0.840637
  3 5.036803 -6.696496 -3.315563 -0.917638 0.000000 0.397417 0.015936 0.780876
  3 5.376621 -10.756511 -2.985563 -0.988897 0.000000 0.148600 0.569721 0.840637
CSO_mp5.bmp
  3 5.376621 -10.756511 -2.985563 -0.988897 0.000000 0.148600 0.569721 0.840637
  3 5.036803 -6.696496 -3.315563 -0.917638 0.000000 0.397417 0.015936 0.780876
  3 5.036621 -10.756496 -3.315563 -0.968660 -0.025399 0.247090 0.569721 0.780876
CSO_mp5.bmp
  3 5.036803 -6.696496 -3.315563 -0.917638 0.000000 0.397417 0.015936 0.780876
  3 5.036803 -6.706496 -3.475563 -0.777669 0.000000 -0.628675 0.015936 0.764940
  3 5.036621 -10.756496 -3.315563 -0.968660 -0.025399 0.247090 0.569721 0.780876
CSO_mp5.bmp
  3 5.036621 -10.756496 -3.315563 -0.968660 -0.025399 0.247090 0.569721 0.780876
  3 5.036803 -6.706496 -3.475563 -0.777669 0.000000 -0.628675 0.015936 0.764940
  3 5.046571 -11.866496 -3.475563 -0.924281 0.243095 -0.294294 0.717131 0.764940
CSO_mp5.bmp
  3 5.036803 -6.706496 -3.475563 -0.777669 0.000000 -0.628675 0.015936 0.764940
  3 5.186571 -11.866502 -3.505564 -0.628301 0.589301 -0.507901 0.697211 0.756972
  3 5.046571 -11.866496 -3.475563 -0.924281 0.243095 -0.294294 0.717131 0.764940
CSO_mp5.bmp
  3 5.046571 -11.866496 -3.475563 -0.924281 0.243095 -0.294294 0.717131 0.764940
  3 5.186571 -11.866502 -3.505564 -0.628301 0.589301 -0.507901 0.697211 0.756972
  3 5.056571 -11.866497 -3.665563 -0.926806 0.242201 0.287002 0.717131 0.729084
CSO_mp5.bmp
  3 5.186571 -11.866502 -3.505564 -0.628301 0.589301 -0.507901 0.697211 0.756972
  3 5.186571 -11.866502 -3.625564 -0.646613 0.594312 0.478210 0.697211 0.745020
  3 5.056571 -11.866497 -3.665563 -0.926806 0.242201 0.287002 0.717131 0.729084
CSO_mp5.bmp
  3 5.056571 -11.866497 -3.665563 -0.926806 0.242201 0.287002 0.717131 0.729084
  3 5.186571 -11.866502 -3.625564 -0.646613 0.594312 0.478210 0.697211 0.745020
  3 5.176803 -6.706502 -3.615563 -0.803586 0.000000 0.595189 0.015936 0.745020
CSO_mp5.bmp
  3 5.186571 -11.866502 -3.625564 -0.646613 0.594312 0.478210 0.697211 0.745020
  3 5.176803 -6.706502 -3.505563 -0.777669 0.000000 -0.628675 0.015936 0.752988
  3 5.176803 -6.706502 -3.615563 -0.803586 0.000000 0.595189 0.015936 0.745020
CSO_mp5.bmp
  3 5.856278 -18.386533 -2.755565 0.000000 1.000000 0.000000 0.585657 0.294821
  3 5.856278 -18.386533 -2.415565 0.000000 1.000000 0.000000 0.585657 0.326693
  3 5.906278 -18.386535 -2.585565 0.000000 1.000000 0.000000 0.581673 0.310757
CSO_mp5.bmp
  3 5.856278 -18.386533 -2.755565 0.000000 1.000000 0.000000 0.585657 0.294821
  3 5.736278 -18.386528 -2.285565 0.000000 1.000000 0.000000 0.597610 0.334661
  3 5.856278 -18.386533 -2.415565 0.000000 1.000000 0.000000 0.585657 0.326693
CSO_mp5.bmp
  3 5.856278 -18.386533 -2.755565 0.000000 1.000000 0.000000 0.585657 0.294821
  3 5.406278 -18.386513 -2.285565 0.000000 1.000000 0.000000 0.629482 0.334661
  3 5.736278 -18.386528 -2.285565 0.000000 1.000000 0.000000 0.597610 0.334661
CSO_mp5.bmp
  3 5.856278 -18.386533 -2.755565 0.000000 1.000000 0.000000 0.585657 0.294821
  3 5.286278 -18.386508 -2.415564 0.000000 1.000000 0.000000 0.641434 0.326693
  3 5.406278 -18.386513 -2.285565 0.000000 1.000000 0.000000 0.629482 0.334661
CSO_mp5.bmp
  3 5.856278 -18.386533 -2.755565 0.000000 1.000000 0.000000 0.585657 0.294821
  3 5.236278 -18.386505 -2.585564 0.000000 1.000000 0.000000 0.645418 0.310757
  3 5.286278 -18.386508 -2.415564 0.000000 1.000000 0.000000 0.641434 0.326693
CSO_mp5.bmp
  3 5.856278 -18.386533 -2.755565 0.000000 1.000000 0.000000 0.585657 0.294821
  3 5.286278 -18.386507 -2.755565 0.000000 1.000000 0.000000 0.641434 0.294821
  3 5.236278 -18.386505 -2.585564 0.000000 1.000000 0.000000 0.645418 0.310757
CSO_mp5.bmp
  3 5.856278 -18.386533 -2.755565 0.000000 1.000000 0.000000 0.585657 0.294821
  3 5.406278 -18.386513 -2.875564 0.000000 1.000000 0.000000 0.629482 0.286853
  3 5.286278 -18.386507 -2.755565 0.000000 1.000000 0.000000 0.641434 0.294821
CSO_mp5.bmp
  3 5.856278 -18.386533 -2.755565 0.000000 1.000000 0.000000 0.585657 0.294821
  3 5.566278 -18.386520 -2.925564 0.000000 1.000000 0.000000 0.613546 0.282869
  3 5.406278 -18.386513 -2.875564 0.000000 1.000000 0.000000 0.629482 0.286853
CSO_mp5.bmp
  3 5.856278 -18.386533 -2.755565 0.000000 1.000000 0.000000 0.585657 0.294821
  3 5.736278 -18.386528 -2.875565 0.000000 1.000000 0.000000 0.597610 0.286853
  3 5.566278 -18.386520 -2.925564 0.000000 1.000000 0.000000 0.613546 0.282869
CSO_mp5.bmp
  3 5.416277 -18.406513 -3.155564 -0.707107 0.000000 0.707107 0.924303 0.721116
  3 5.296277 -18.406507 -3.275565 -0.865136 0.004000 0.501521 0.924303 0.705179
  3 5.296250 -19.006508 -3.275565 -0.882007 -0.005600 0.471204 0.996016 0.705179
CSO_mp5.bmp
  3 5.296250 -19.006508 -3.275565 -0.882007 -0.005600 0.471204 0.996016 0.705179
  3 5.296277 -18.406507 -3.275565 -0.865136 0.004000 0.501521 0.924303 0.705179
  3 5.256250 -19.006506 -3.435564 -0.998744 0.000000 -0.050102 0.996016 0.685259
CSO_mp5.bmp
  3 5.296277 -18.406507 -3.275565 -0.865136 0.004000 0.501521 0.924303 0.705179
  3 5.256277 -18.406506 -3.435564 -0.998744 0.000000 -0.050102 0.924303 0.685259
  3 5.256250 -19.006506 -3.435564 -0.998744 0.000000 -0.050102 0.996016 0.685259
CSO_mp5.bmp
  3 5.256250 -19.006506 -3.435564 -0.998744 0.000000 -0.050102 0.996016 0.685259
  3 5.256277 -18.406506 -3.435564 -0.998744 0.000000 -0.050102 0.924303 0.685259
  3 5.356250 -19.006510 -3.655565 -0.707107 0.000000 -0.707107 0.996016 0.657371
CSO_mp5.bmp
  3 5.256277 -18.406506 -3.435564 -0.998744 0.000000 -0.050102 0.924303 0.685259
  3 5.356277 -18.406510 -3.655564 -0.707107 0.000000 -0.707107 0.924303 0.657371
  3 5.356250 -19.006510 -3.655565 -0.707107 0.000000 -0.707107 0.996016 0.657371
CSO_mp5.bmp
  3 5.356250 -19.006510 -3.655565 -0.707107 0.000000 -0.707107 0.996016 0.657371
  3 5.356277 -18.406510 -3.655564 -0.707107 0.000000 -0.707107 0.924303 0.657371
  3 5.566250 -19.006520 -3.765565 -0.056799 0.000000 -0.998386 0.996016 0.629482
CSO_mp5.bmp
  3 5.356277 -18.406510 -3.655564 -0.707107 0.000000 -0.707107 0.924303 0.657371
  3 5.566277 -18.406519 -3.765565 -0.056799 0.000000 -0.998386 0.924303 0.629482
  3 5.566250 -19.006520 -3.765565 -0.056799 0.000000 -0.998386 0.996016 0.629482
CSO_mp5.bmp
  3 5.566250 -19.006520 -3.765565 -0.056799 0.000000 -0.998386 0.996016 0.629482
  3 5.566277 -18.406519 -3.765565 -0.056799 0.000000 -0.998386 0.924303 0.629482
  3 5.806250 -19.006531 -3.685565 0.315508 0.000000 -0.948923 0.996016 0.657371
CSO_mp5.bmp
  3 5.566277 -18.406519 -3.765565 -0.056799 0.000000 -0.998386 0.924303 0.629482
  3 5.806277 -18.406530 -3.685565 0.315508 0.000000 -0.948923 0.924303 0.657371
  3 5.806250 -19.006531 -3.685565 0.315508 0.000000 -0.948923 0.996016 0.657371
CSO_mp5.bmp
  3 5.756803 -6.706528 -2.805563 0.000000 0.000000 -1.000000 0.003984 0.884462
  3 5.446257 -18.846515 -2.805565 -0.594096 0.000000 -0.804394 0.912351 0.884462
  3 5.436804 -6.696514 -2.805563 -0.594096 0.000000 -0.804394 0.003984 0.884462
CSO_mp5.bmp
  3 5.436804 -6.696514 -2.805563 -0.594096 0.000000 -0.804394 0.003984 0.884462
  3 5.446257 -18.846515 -2.805565 -0.594096 0.000000 -0.804394 0.912351 0.884462
  3 5.356803 -6.706510 -2.545563 -0.960758 0.000000 0.277388 0.003984 0.944223
CSO_mp5.bmp
  3 5.446257 -18.846515 -2.805565 -0.594096 0.000000 -0.804394 0.912351 0.884462
  3 5.366257 -18.846511 -2.545565 -0.955678 -0.031799 0.292693 0.912351 0.944223
  3 5.356803 -6.706510 -2.545563 -0.960758 0.000000 0.277388 0.003984 0.944223
CSO_mp5.bmp
  3 5.356803 -6.706510 -2.545563 -0.960758 0.000000 0.277388 0.003984 0.944223
  3 5.366257 -18.846511 -2.545565 -0.955678 -0.031799 0.292693 0.912351 0.944223
  3 5.586803 -6.706521 -2.345563 0.000000 0.000000 1.000000 0.003984 1.000000
CSO_mp5.bmp
  3 5.366257 -18.846511 -2.545565 -0.955678 -0.031799 0.292693 0.912351 0.944223
  3 5.596257 -18.846521 -2.355564 0.000000 0.000000 1.000000 0.912351 1.000000
  3 5.586803 -6.706521 -2.345563 0.000000 0.000000 1.000000 0.003984 1.000000
CSO_mp5.bmp
  3 5.586803 -6.706521 -2.345563 0.000000 0.000000 1.000000 0.003984 1.000000
  3 5.596257 -18.846521 -2.355564 0.000000 0.000000 1.000000 0.912351 1.000000
  3 5.816803 -6.706531 -2.545563 0.655874 -0.000600 0.754870 0.003984 0.944223
CSO_mp5.bmp
  3 5.596257 -18.846521 -2.355564 0.000000 0.000000 1.000000 0.912351 1.000000
  3 5.826257 -18.846532 -2.545565 0.655874 -0.000600 0.754870 0.912351 0.944223
  3 5.816803 -6.706531 -2.545563 0.655874 -0.000600 0.754870 0.003984 0.944223
CSO_mp5.bmp
  3 5.406278 -18.386513 -2.285565 -0.707107 0.000000 0.707107 0.924303 0.828685
  3 5.286278 -18.386508 -2.415564 -0.882007 -0.005600 0.471204 0.924303 0.812749
  3 5.286249 -19.026507 -2.415565 -0.882007 -0.005600 0.471204 1.000000 0.812749
CSO_mp5.bmp
  3 5.286249 -19.026507 -2.415565 -0.882007 -0.005600 0.471204 1.000000 0.812749
  3 5.286278 -18.386508 -2.415564 -0.882007 -0.005600 0.471204 0.924303 0.812749
  3 5.236249 -19.026505 -2.585565 -1.000000 0.000000 0.000000 1.000000 0.792829
CSO_mp5.bmp
  3 5.286278 -18.386508 -2.415564 -0.882007 -0.005600 0.471204 0.924303 0.812749
  3 5.236278 -18.386505 -2.585564 -1.000000 0.000000 0.000000 0.924303 0.792829
  3 5.236249 -19.026505 -2.585565 -1.000000 0.000000 0.000000 1.000000 0.792829
CSO_mp5.bmp
  3 5.236249 -19.026505 -2.585565 -1.000000 0.000000 0.000000 1.000000 0.792829
  3 5.236278 -18.386505 -2.585564 -1.000000 0.000000 0.000000 0.924303 0.792829
  3 5.286249 -19.026507 -2.755565 -0.862707 0.000000 -0.505704 1.000000 0.772908
CSO_mp5.bmp
  3 5.236278 -18.386505 -2.585564 -1.000000 0.000000 0.000000 0.924303 0.792829
  3 5.286278 -18.386507 -2.755565 -0.862707 0.000000 -0.505704 0.924303 0.772908
  3 5.286249 -19.026507 -2.755565 -0.862707 0.000000 -0.505704 1.000000 0.772908
CSO_mp5.bmp
  3 5.286249 -19.026507 -2.755565 -0.862707 0.000000 -0.505704 1.000000 0.772908
  3 5.286278 -18.386507 -2.755565 -0.862707 0.000000 -0.505704 0.924303 0.772908
  3 5.406249 -19.026512 -2.875565 -0.707107 0.000000 -0.707107 1.000000 0.752988
CSO_mp5.bmp
  3 5.286278 -18.386507 -2.755565 -0.862707 0.000000 -0.505704 0.924303 0.772908
  3 5.406278 -18.386513 -2.875564 -0.707107 0.000000 -0.707107 0.924303 0.752988
  3 5.406249 -19.026512 -2.875565 -0.707107 0.000000 -0.707107 1.000000 0.752988
CSO_mp5.bmp
  3 5.416616 -10.856513 -5.335563 -1.000000 0.000000 0.000000 0.402390 0.239044
  3 5.416634 -10.456512 -6.545563 -1.000000 0.000000 0.000000 0.346614 0.203187
  3 5.416604 -11.126513 -5.335564 -1.000000 0.000000 0.000000 0.414343 0.231076
CSO_mp5.bmp
  3 5.416604 -11.126513 -5.335564 -1.000000 0.000000 0.000000 0.414343 0.231076
  3 5.416634 -10.456512 -6.545563 -1.000000 0.000000 0.000000 0.346614 0.203187
  3 5.416629 -10.566512 -6.665563 -1.000000 0.000000 0.000000 0.350598 0.195219
CSO_mp5.bmp
  3 5.416634 -10.456512 -6.545563 -1.000000 0.000000 0.000000 0.346614 0.203187
  3 5.426688 -9.236513 -6.555563 -1.000000 0.000000 0.000000 0.286853 0.203187
  3 5.416629 -10.566512 -6.665563 -1.000000 0.000000 0.000000 0.350598 0.195219
CSO_mp5.bmp
  3 5.416629 -10.566512 -6.665563 -1.000000 0.000000 0.000000 0.350598 0.195219
  3 5.426688 -9.236513 -6.555563 -1.000000 0.000000 0.000000 0.286853 0.203187
  3 5.426692 -9.156513 -6.665563 -1.000000 0.000000 0.000000 0.282869 0.195219
CSO_mp5.bmp
  3 5.426688 -9.236513 -6.555563 -1.000000 0.000000 0.000000 0.286853 0.203187
  3 5.416711 -8.736512 -6.175563 -1.000000 0.000000 0.000000 0.262948 0.231076
  3 5.426692 -9.156513 -6.665563 -1.000000 0.000000 0.000000 0.282869 0.195219
CSO_mp5.bmp
  3 5.426692 -9.156513 -6.665563 -1.000000 0.000000 0.000000 0.282869 0.195219
  3 5.416711 -8.736512 -6.175563 -1.000000 0.000000 0.000000 0.262948 0.231076
  3 5.416718 -8.586512 -6.415563 -1.000000 0.000000 0.000000 0.258964 0.211155
CSO_mp5.bmp
  3 5.806761 -7.646531 -1.795563 0.000000 0.000000 1.000000 0.099602 0.247012
  3 5.806745 -7.996531 -1.795563 0.000000 0.000000 1.000000 0.139442 0.247012
  3 5.896761 -7.646535 -1.795563 0.000000 0.000000 1.000000 0.099602 0.258964
CSO_mp5.bmp
  3 5.896761 -7.646535 -1.795563 0.000000 0.000000 1.000000 0.099602 0.258964
  3 5.806745 -7.996531 -1.795563 0.000000 0.000000 1.000000 0.139442 0.247012
  3 5.896741 -8.086535 -1.795563 0.000000 0.000000 1.000000 0.151394 0.258964
CSO_mp5.bmp
  3 5.806745 -7.996531 -1.795563 0.000000 0.000000 1.000000 0.139442 0.247012
  3 5.426745 -7.996514 -1.795563 0.000000 0.000000 1.000000 0.139442 0.179283
  3 5.896741 -8.086535 -1.795563 0.000000 0.000000 1.000000 0.151394 0.258964
CSO_mp5.bmp
  3 5.896741 -8.086535 -1.795563 0.000000 0.000000 1.000000 0.151394 0.258964
  3 5.426745 -7.996514 -1.795563 0.000000 0.000000 1.000000 0.139442 0.179283
  3 5.306741 -8.086508 -1.795563 0.000000 0.000000 1.000000 0.151394 0.163347
CSO_mp5.bmp
  3 5.426745 -7.996514 -1.795563 0.000000 0.000000 1.000000 0.139442 0.179283
  3 5.306761 -7.646508 -1.795563 0.000000 0.000000 1.000000 0.099602 0.163347
  3 5.306741 -8.086508 -1.795563 0.000000 0.000000 1.000000 0.151394 0.163347
CSO_mp5.bmp
  8 5.207469 -16.801984 -2.196076 -0.643015 -0.416010 0.643015 0.402390 0.067729
  8 5.207483 -16.501984 -2.196076 -0.643015 0.416010 0.643015 0.430279 0.067729
  8 5.087483 -16.501979 -2.316076 -0.643015 0.416010 0.643015 0.418327 0.055777
CSO_mp5.bmp
  8 5.087483 -16.501979 -2.316076 -0.643015 0.416010 0.643015 0.418327 0.055777
  8 5.207483 -16.501984 -2.196076 -0.643015 0.416010 0.643015 0.430279 0.067729
  8 5.177488 -16.391983 -2.406076 -0.126596 0.983373 0.130196 0.430279 0.039841
CSO_mp5.bmp
  8 5.207483 -16.501984 -2.196076 -0.643015 0.416010 0.643015 0.430279 0.067729
  8 5.297488 -16.391988 -2.286076 -0.126596 0.983373 0.130196 0.442231 0.047809
  8 5.177488 -16.391983 -2.406076 -0.126596 0.983373 0.130196 0.430279 0.039841
CSO_mp5.bmp
  8 5.177488 -16.391983 -2.406076 -0.126596 0.983373 0.130196 0.430279 0.039841
  8 5.297488 -16.391988 -2.286076 -0.126596 0.983373 0.130196 0.442231 0.047809
  8 5.417482 -16.511994 -2.616076 0.261606 0.935420 -0.237805 0.426295 0.003984
CSO_mp5.bmp
  8 5.297488 -16.391988 -2.286076 -0.126596 0.983373 0.130196 0.442231 0.047809
  8 5.507482 -16.511998 -2.516076 0.261606 0.935420 -0.237805 0.434263 0.019920
  8 5.417482 -16.511994 -2.616076 0.261606 0.935420 -0.237805 0.426295 0.003984
CSO_mp5.bmp
  7 5.297604 -13.764096 -9.810292 0.000000 0.826111 -0.563507 0.872510 0.015936
  7 5.307657 -12.584097 -8.080292 0.000000 0.892055 -0.451928 0.872510 0.135458
  7 5.897658 -12.574124 -8.080292 0.000000 0.892055 -0.451928 0.796813 0.135458
CSO_mp5.bmp
  7 5.897658 -12.574124 -8.080292 0.000000 0.892055 -0.451928 0.796813 0.135458
  7 5.307657 -12.584097 -8.080292 0.000000 0.892055 -0.451928 0.872510 0.135458
  7 5.897688 -11.924124 -6.210292 0.000000 0.973453 -0.228889 0.796813 0.274900
CSO_mp5.bmp
  7 5.307657 -12.584097 -8.080292 0.000000 0.892055 -0.451928 0.872510 0.135458
  7 5.307687 -11.934097 -6.210292 0.000000 0.973453 -0.228889 0.872510 0.274900
  7 5.897688 -11.924124 -6.210292 0.000000 0.973453 -0.228889 0.796813 0.274900
CSO_mp5.bmp
  7 5.897688 -11.924124 -6.210292 0.000000 0.973453 -0.228889 0.796813 0.274900
  7 5.307687 -11.934097 -6.210292 0.000000 0.973453 -0.228889 0.872510 0.274900
  7 5.887699 -11.674124 -4.190292 0.000000 0.992505 -0.122201 0.796813 0.418327
CSO_mp5.bmp
  7 5.307687 -11.934097 -6.210292 0.000000 0.973453 -0.228889 0.872510 0.274900
  7 5.307699 -11.684098 -4.190292 0.000000 0.992505 -0.122201 0.872510 0.418327
  7 5.887699 -11.674124 -4.190292 0.000000 0.992505 -0.122201 0.796813 0.418327
CSO_mp5.bmp
  7 5.307699 -11.684098 -4.190292 -1.000000 0.000000 0.000000 0.872510 0.418327
  7 5.307687 -11.934097 -6.210292 -1.000000 0.000000 0.000000 0.872510 0.274900
  7 5.307645 -12.864097 -5.960292 -1.000000 0.000000 0.000000 1.000000 0.274900
CSO_mp5.bmp
  7 5.307645 -12.864097 -5.960292 -1.000000 0.000000 0.000000 1.000000 0.274900
  7 5.307687 -11.934097 -6.210292 -1.000000 0.000000 0.000000 0.872510 0.274900
  7 5.297618 -13.454097 -7.630292 -1.000000 0.000000 0.000000 1.000000 0.135458
CSO_mp5.bmp
  7 5.307687 -11.934097 -6.210292 -1.000000 0.000000 0.000000 0.872510 0.274900
  7 5.307657 -12.584097 -8.080292 -1.000000 0.000000 0.000000 0.872510 0.135458
  7 5.297618 -13.454097 -7.630292 -1.000000 0.000000 0.000000 1.000000 0.135458
CSO_mp5.bmp
  7 5.297618 -13.454097 -7.630292 -1.000000 0.000000 0.000000 1.000000 0.135458
  7 5.307657 -12.584097 -8.080292 -1.000000 0.000000 0.000000 0.872510 0.135458
  7 5.307569 -14.554097 -9.220292 -1.000000 0.000000 0.000000 1.000000 0.015936
CSO_mp5.bmp
  7 5.307657 -12.584097 -8.080292 -1.000000 0.000000 0.000000 0.872510 0.135458
  7 5.297604 -13.764096 -9.810292 -1.000000 0.000000 0.000000 0.872510 0.015936
  7 5.307569 -14.554097 -9.220292 -1.000000 0.000000 0.000000 1.000000 0.015936
CSO_mp5.bmp
  3 5.516300 -17.876517 -3.615564 -0.339589 -0.002800 -0.940570 0.848606 0.474104
  3 5.356207 -19.956510 -3.325565 -0.998174 0.000000 0.060398 1.000000 0.509960
  3 5.356301 -17.876510 -3.325564 -0.998174 0.000000 0.060398 0.848606 0.509960
CSO_mp5.bmp
  3 5.356301 -17.876510 -3.325564 -0.998174 0.000000 0.060398 0.848606 0.509960
  3 5.356207 -19.956510 -3.325565 -0.998174 0.000000 0.060398 1.000000 0.509960
  3 5.516301 -17.876518 -3.115564 -0.319586 0.000000 0.947557 0.848606 0.537849
CSO_mp5.bmp
  3 5.356207 -19.956510 -3.325565 -0.998174 0.000000 0.060398 1.000000 0.509960
  3 5.506207 -19.956517 -3.115565 -0.319586 0.000000 0.947557 1.000000 0.537849
  3 5.516301 -17.876518 -3.115564 -0.319586 0.000000 0.947557 0.848606 0.537849
CSO_mp5.bmp
  3 5.516301 -17.876518 -3.115564 -0.319586 0.000000 0.947557 0.848606 0.537849
  3 5.506207 -19.956517 -3.115565 -0.319586 0.000000 0.947557 1.000000 0.537849
  3 5.806301 -17.876531 -3.195564 0.265900 0.000000 0.964001 0.844622 0.525896
CSO_mp5.bmp
  3 5.506207 -19.956517 -3.115565 -0.319586 0.000000 0.947557 1.000000 0.537849
  3 5.796207 -19.956530 -3.195565 0.265900 0.000000 0.964001 1.000000 0.525896
  3 5.806301 -17.876531 -3.195564 0.265900 0.000000 0.964001 0.844622 0.525896
CSO_mp5.bmp
  3 5.246530 -12.766505 -4.115564 -1.000000 0.000000 0.000000 0.673307 0.637450
  3 5.256575 -11.766506 -4.115564 -1.000000 0.000000 0.000000 0.553785 0.637450
  3 5.256575 -11.766505 -5.535564 -1.000000 0.000000 0.000000 0.553785 0.478088
CSO_mp5.bmp
  3 5.256575 -11.766505 -5.535564 -1.000000 0.000000 0.000000 0.553785 0.478088
  3 5.256575 -11.766506 -4.115564 -1.000000 0.000000 0.000000 0.553785 0.637450
  3 5.256691 -9.176505 -5.535563 -1.000000 0.000000 0.000000 0.254980 0.478088
CSO_mp5.bmp
  3 5.256575 -11.766506 -4.115564 -1.000000 0.000000 0.000000 0.553785 0.637450
  3 5.256691 -9.186506 -4.115563 -1.000000 0.000000 0.000000 0.254980 0.641434
  3 5.256691 -9.176505 -5.535563 -1.000000 0.000000 0.000000 0.254980 0.478088
CSO_mp5.bmp
  3 5.256691 -9.176505 -5.535563 -1.000000 0.000000 0.000000 0.254980 0.478088
  3 5.256691 -9.186506 -4.115563 -1.000000 0.000000 0.000000 0.254980 0.641434
  3 5.256747 -7.936506 -5.085563 -1.000000 0.000000 0.000000 0.115538 0.529880
CSO_mp5.bmp
  3 5.256691 -9.186506 -4.115563 -1.000000 0.000000 0.000000 0.254980 0.641434
  3 5.256770 -7.426505 -4.785563 -1.000000 0.000000 0.000000 0.059761 0.561753
  3 5.256747 -7.936506 -5.085563 -1.000000 0.000000 0.000000 0.115538 0.529880
CSO_mp5.bmp
  3 5.936789 -7.006536 -4.115563 0.000000 0.000000 1.000000 0.007968 0.641434
  3 5.256691 -9.186506 -4.115563 0.000000 0.000000 1.000000 0.254980 0.641434
  3 5.936691 -9.186536 -4.115563 0.000000 0.000000 1.000000 0.254980 0.641434
CSO_mp5.bmp
  3 5.936691 -9.186536 -4.115563 0.000000 0.000000 1.000000 0.254980 0.641434
  3 5.256691 -9.186506 -4.115563 0.000000 0.000000 1.000000 0.254980 0.641434
  3 5.936575 -11.766536 -4.115564 0.000000 0.000000 1.000000 0.553785 0.637450
CSO_mp5.bmp
  3 5.256691 -9.186506 -4.115563 0.000000 0.000000 1.000000 0.254980 0.641434
  3 5.256575 -11.766506 -4.115564 0.000000 0.000000 1.000000 0.553785 0.637450
  3 5.936575 -11.766536 -4.115564 0.000000 0.000000 1.000000 0.553785 0.637450
CSO_mp5.bmp
  3 5.936575 -11.766536 -4.115564 0.000000 0.000000 1.000000 0.553785 0.637450
  3 5.256575 -11.766506 -4.115564 0.000000 0.000000 1.000000 0.553785 0.637450
  3 5.926530 -12.766536 -4.115564 0.000000 0.000000 1.000000 0.673307 0.637450
CSO_mp5.bmp
  3 5.256575 -11.766506 -4.115564 0.000000 0.000000 1.000000 0.553785 0.637450
  3 5.246530 -12.766505 -4.115564 0.000000 0.000000 1.000000 0.673307 0.637450
  3 5.926530 -12.766536 -4.115564 0.000000 0.000000 1.000000 0.673307 0.637450
CSO_mp5.bmp
  3 5.056707 -8.836496 -4.965563 -0.851733 0.210308 -0.479918 0.752988 0.569721
  3 5.066686 -9.296497 -5.085563 -1.000000 0.000000 0.000000 0.808765 0.525896
  3 5.066690 -9.206497 -4.575563 -0.703374 -0.187393 0.685674 0.804781 0.625498
CSO_mp5.bmp
  3 5.056707 -8.836496 -4.965563 -0.851733 0.210308 -0.479918 0.752988 0.569721
  3 5.066699 -9.016497 -5.165563 -0.809579 0.430289 -0.399290 0.768924 0.529880
  3 5.066686 -9.296497 -5.085563 -1.000000 0.000000 0.000000 0.808765 0.525896
CSO_mp5.bmp
  3 5.056707 -8.836496 -4.965563 -0.851733 0.210308 -0.479918 0.752988 0.569721
  3 5.266699 -9.006506 -5.215563 -0.165107 0.735029 -0.657626 0.756972 0.498008
  3 5.066699 -9.016497 -5.165563 -0.809579 0.430289 -0.399290 0.768924 0.529880
CSO_mp5.bmp
  3 5.056707 -8.836496 -4.965563 -0.851733 0.210308 -0.479918 0.752988 0.569721
  3 5.256708 -8.816505 -4.995563 -0.139802 0.400405 -0.905611 0.737052 0.549801
  3 5.266699 -9.006506 -5.215563 -0.165107 0.735029 -0.657626 0.756972 0.498008
CSO_mp5.bmp
  3 5.056707 -8.836496 -4.965563 -0.851733 0.210308 -0.479918 0.752988 0.569721
  3 5.256730 -8.326506 -5.005563 -0.379705 0.610108 -0.695409 0.685259 0.577689
  3 5.256708 -8.816505 -4.995563 -0.139802 0.400405 -0.905611 0.737052 0.549801
CSO_mp5.bmp
  3 6.146803 -6.696546 -3.315563 0.717923 0.000000 0.696122 0.015936 0.780876
  3 5.826804 -6.696531 -2.985563 0.804228 0.000000 0.594321 0.015936 0.840637
  3 6.146621 -10.756546 -3.315564 0.717923 0.000000 0.696122 0.569721 0.780876
CSO_mp5.bmp
  3 6.146621 -10.756546 -3.315564 0.717923 0.000000 0.696122 0.569721 0.780876
  3 5.826804 -6.696531 -2.985563 0.804228 0.000000 0.594321 0.015936 0.840637
  3 5.826621 -10.756532 -2.985563 0.968455 0.000000 0.249188 0.569721 0.840637
CSO_mp5.bmp
  3 5.826804 -6.696531 -2.985563 0.804228 0.000000 0.594321 0.015936 0.840637
  3 5.706803 -6.706526 -2.765563 0.516803 0.000000 0.856105 0.015936 0.872510
  3 5.826621 -10.756532 -2.985563 0.968455 0.000000 0.249188 0.569721 0.840637
CSO_mp5.bmp
  3 5.826621 -10.756532 -2.985563 0.968455 0.000000 0.249188 0.569721 0.840637
  3 5.706803 -6.706526 -2.765563 0.516803 0.000000 0.856105 0.015936 0.872510
  3 5.706517 -13.066526 -2.765564 0.058400 0.000000 0.998293 0.876494 0.872510
CSO_mp5.bmp
  3 5.706803 -6.706526 -2.765563 0.516803 0.000000 0.856105 0.015936 0.872510
  3 5.456517 -13.066515 -2.765564 -0.573684 0.000000 0.819077 0.876494 0.872510
  3 5.706517 -13.066526 -2.765564 0.058400 0.000000 0.998293 0.876494 0.872510
CSO_mp5.bmp
  8 5.177464 -16.911983 -2.406076 -0.688518 0.000000 -0.725219 0.430279 0.039841
  8 5.417482 -16.511994 -2.616076 -0.688518 0.000000 -0.725219 0.398406 0.003984
  8 5.417469 -16.811994 -2.616076 -0.688518 0.000000 -0.725219 0.418327 0.003984
CSO_mp5.bmp
  8 5.177464 -16.911983 -2.406076 -0.688518 0.000000 -0.725219 0.430279 0.039841
  8 5.177488 -16.391983 -2.406076 -0.688518 0.000000 -0.725219 0.382470 0.039841
  8 5.417482 -16.511994 -2.616076 -0.688518 0.000000 -0.725219 0.398406 0.003984
CSO_mp5.bmp
  8 5.177464 -16.911983 -2.406076 -0.688518 0.000000 -0.725219 0.430279 0.039841
  8 5.087483 -16.501979 -2.316076 -0.688518 0.000000 -0.725219 0.398406 0.055777
  8 5.177488 -16.391983 -2.406076 -0.688518 0.000000 -0.725219 0.382470 0.039841
CSO_mp5.bmp
  8 5.177464 -16.911983 -2.406076 -0.688518 0.000000 -0.725219 0.430279 0.039841
  8 5.087469 -16.801979 -2.316076 -0.688518 0.000000 -0.725219 0.418327 0.055777
  8 5.087483 -16.501979 -2.316076 -0.688518 0.000000 -0.725219 0.398406 0.055777
CSO_mp5.bmp
  8 5.297464 -16.911988 -2.286076 0.716395 0.000000 0.697695 0.430279 0.039841
  8 5.207483 -16.501984 -2.196076 0.716395 0.000000 0.697695 0.398406 0.055777
  8 5.207469 -16.801984 -2.196076 0.716395 0.000000 0.697695 0.418327 0.055777
CSO_mp5.bmp
  8 5.297464 -16.911988 -2.286076 0.716395 0.000000 0.697695 0.430279 0.039841
  8 5.297488 -16.391988 -2.286076 0.716395 0.000000 0.697695 0.382470 0.039841
  8 5.207483 -16.501984 -2.196076 0.716395 0.000000 0.697695 0.398406 0.055777
CSO_mp5.bmp
  8 5.297464 -16.911988 -2.286076 0.716395 0.000000 0.697695 0.430279 0.039841
  8 5.507482 -16.511998 -2.516076 0.716395 0.000000 0.697695 0.398406 0.003984
  8 5.297488 -16.391988 -2.286076 0.716395 0.000000 0.697695 0.382470 0.039841
CSO_mp5.bmp
  8 5.297464 -16.911988 -2.286076 0.716395 0.000000 0.697695 0.430279 0.039841
  8 5.507469 -16.811998 -2.516076 0.716395 0.000000 0.697695 0.418327 0.003984
  8 5.507482 -16.511998 -2.516076 0.716395 0.000000 0.697695 0.398406 0.003984
CSO_mp5.bmp
  3 5.246730 -8.326505 -3.725563 -0.998744 0.000000 -0.050102 0.223108 0.023904
  3 5.447028 -1.706514 -3.945562 -0.739908 0.000000 -0.672708 0.000000 0.000000
  3 5.446730 -8.326514 -3.945563 -0.739908 0.000000 -0.672708 0.223108 0.000000
CSO_mp5.bmp
  3 5.246730 -8.326505 -3.725563 -0.998744 0.000000 -0.050102 0.223108 0.023904
  3 5.247028 -1.706505 -3.725562 -0.998744 0.000000 -0.050102 0.000000 0.023904
  3 5.447028 -1.706514 -3.945562 -0.739908 0.000000 -0.672708 0.000000 0.000000
CSO_mp5.bmp
  3 5.246730 -8.326505 -3.725563 -0.998744 0.000000 -0.050102 0.223108 0.023904
  3 5.447028 -1.706514 -3.455562 -0.803586 0.000000 0.595189 0.000000 0.047809
  3 5.247028 -1.706505 -3.725562 -0.998744 0.000000 -0.050102 0.000000 0.023904
CSO_mp5.bmp
  3 5.246730 -8.326505 -3.725563 -0.998744 0.000000 -0.050102 0.223108 0.023904
  3 5.446730 -8.326514 -3.455563 -0.803586 0.000000 0.595189 0.223108 0.047809
  3 5.447028 -1.706514 -3.455562 -0.803586 0.000000 0.595189 0.000000 0.047809
CSO_mp5.bmp
  3 5.426692 -9.156513 -6.665563 0.000000 0.205204 -0.978719 0.282869 0.195219
  3 5.766629 -10.566528 -6.665563 0.000000 0.000000 -1.000000 0.350598 0.195219
  3 5.416629 -10.566512 -6.665563 0.000000 0.000000 -1.000000 0.350598 0.195219
CSO_mp5.bmp
  3 5.426692 -9.156513 -6.665563 0.000000 0.205204 -0.978719 0.282869 0.195219
  3 5.776692 -9.156529 -6.665563 0.000000 0.205204 -0.978719 0.282869 0.195219
  3 5.766629 -10.566528 -6.665563 0.000000 0.000000 -1.000000 0.350598 0.195219
CSO_mp5.bmp
  3 5.426692 -9.156513 -6.665563 0.000000 0.205204 -0.978719 0.282869 0.195219
  3 5.766718 -8.586528 -6.415563 0.000000 0.378621 -0.925552 0.258964 0.211155
  3 5.776692 -9.156529 -6.665563 0.000000 0.205204 -0.978719 0.282869 0.195219
CSO_mp5.bmp
  3 5.426692 -9.156513 -6.665563 0.000000 0.205204 -0.978719 0.282869 0.195219
  3 5.416718 -8.586512 -6.415563 0.000000 0.378621 -0.925552 0.258964 0.211155
  3 5.766718 -8.586528 -6.415563 0.000000 0.378621 -0.925552 0.258964 0.211155
CSO_mp5.bmp
  3 5.466851 -5.626515 -4.775563 -1.000000 0.000000 0.000000 0.434263 0.075697
  3 5.466847 -5.716515 -4.625563 -1.000000 0.000000 0.000000 0.446215 0.095618
  3 5.466867 -5.286515 -4.775563 -1.000000 0.000000 0.000000 0.406375 0.075697
CSO_mp5.bmp
  3 5.466867 -5.286515 -4.775563 -1.000000 0.000000 0.000000 0.406375 0.075697
  3 5.466847 -5.716515 -4.625563 -1.000000 0.000000 0.000000 0.446215 0.095618
  3 5.466871 -5.196515 -4.635563 -1.000000 0.000000 0.000000 0.398406 0.095618
CSO_mp5.bmp
  3 5.466847 -5.716515 -4.625563 -1.000000 0.000000 0.000000 0.446215 0.095618
  3 5.466860 -5.426515 -4.215563 -1.000000 0.000000 0.000000 0.418327 0.139442
  3 5.466871 -5.196515 -4.635563 -1.000000 0.000000 0.000000 0.398406 0.095618
CSO_mp5.bmp
  3 5.466871 -5.196515 -4.635563 -1.000000 0.000000 0.000000 0.398406 0.095618
  3 5.466860 -5.426515 -4.215563 -1.000000 0.000000 0.000000 0.418327 0.139442
  3 5.466861 -5.426515 -3.725563 -1.000000 0.000000 0.000000 0.418327 0.195219
CSO_mp5.bmp
  3 4.936824 -6.236491 -3.255563 -0.952755 0.137594 0.270787 0.689243 0.171315
  3 5.186853 -5.586503 -3.885563 -0.744484 0.665486 -0.053599 0.613546 0.107570
  3 4.936825 -6.226491 -3.885563 -0.972330 0.121704 -0.199406 0.689243 0.103586
CSO_mp5.bmp
  3 4.936825 -6.226491 -3.885563 -0.972330 0.121704 -0.199406 0.689243 0.103586
  3 5.186853 -5.586503 -3.885563 -0.744484 0.665486 -0.053599 0.613546 0.107570
  3 5.096846 -5.746498 -4.155563 -0.798091 0.502094 -0.333096 0.637450 0.079681
CSO_mp5.bmp
  3 5.186853 -5.586503 -3.885563 -0.744484 0.665486 -0.053599 0.613546 0.107570
  3 5.446860 -5.436514 -4.035563 -0.267788 0.905061 -0.330386 0.597610 0.083665
  3 5.096846 -5.746498 -4.155563 -0.798091 0.502094 -0.333096 0.637450 0.079681
CSO_mp5.bmp
  3 5.096846 -5.746498 -4.155563 -0.798091 0.502094 -0.333096 0.637450 0.079681
  3 5.446860 -5.436514 -4.035563 -0.267788 0.905061 -0.330386 0.597610 0.083665
  3 5.596829 -6.126521 -4.875563 0.001700 0.751795 -0.659395 0.661355 0.011952
CSO_mp5.bmp
  3 5.596828 -6.166521 -2.265563 -0.047001 0.398607 0.915917 0.677291 0.298805
  3 5.866824 -6.236533 -2.395563 0.698915 0.264206 0.664615 0.685259 0.322709
  3 5.746861 -5.426528 -3.115563 0.309090 0.881570 0.356788 0.569721 0.191235
CSO_mp5.bmp
  3 5.596828 -6.166521 -2.265563 -0.047001 0.398607 0.915917 0.677291 0.298805
  3 5.886783 -7.146534 -2.385563 0.617519 0.007000 0.786525 0.780876 0.322709
  3 5.866824 -6.236533 -2.395563 0.698915 0.264206 0.664615 0.685259 0.322709
CSO_mp5.bmp
  3 5.596828 -6.166521 -2.265563 -0.047001 0.398607 0.915917 0.677291 0.298805
  3 5.606783 -7.146522 -2.265563 -0.047199 0.000000 0.998885 0.780876 0.294821
  3 5.886783 -7.146534 -2.385563 0.617519 0.007000 0.786525 0.780876 0.322709
CSO_mp5.bmp
  3 5.596828 -6.166521 -2.265563 -0.047001 0.398607 0.915917 0.677291 0.298805
  3 5.396783 -7.146512 -2.385563 -0.761982 0.004200 0.647585 0.780876 0.266932
  3 5.606783 -7.146522 -2.265563 -0.047199 0.000000 0.998885 0.780876 0.294821
CSO_mp5.bmp
  3 5.226517 -13.066504 -4.145564 -0.511684 0.000800 -0.859173 0.876494 0.657371
  3 5.906803 -6.696535 -4.145563 0.000000 0.000000 -1.000000 0.015936 0.657371
  3 5.906517 -13.066535 -4.145564 0.000000 0.000000 -1.000000 0.876494 0.657371
CSO_mp5.bmp
  3 5.226517 -13.066504 -4.145564 -0.511684 0.000800 -0.859173 0.876494 0.657371
  3 5.226803 -6.696504 -4.145563 -0.511684 0.000800 -0.859173 0.015936 0.657371
  3 5.906803 -6.696535 -4.145563 0.000000 0.000000 -1.000000 0.015936 0.657371
CSO_mp5.bmp
  3 5.226517 -13.066504 -4.145564 -0.511684 0.000800 -0.859173 0.876494 0.657371
  3 5.046803 -6.706496 -3.795563 -0.952578 0.000400 -0.304293 0.015936 0.717131
  3 5.226803 -6.696504 -4.145563 -0.511684 0.000800 -0.859173 0.015936 0.657371
CSO_mp5.bmp
  3 5.226517 -13.066504 -4.145564 -0.511684 0.000800 -0.859173 0.876494 0.657371
  3 5.036517 -13.066496 -3.795564 -0.970025 0.000000 -0.243006 0.876494 0.717131
  3 5.046803 -6.706496 -3.795563 -0.952578 0.000400 -0.304293 0.015936 0.717131
CSO_mp5.bmp
  3 5.306773 -7.386508 -2.465563 -1.000000 0.000000 0.000000 0.071713 0.055777
  3 5.296714 -8.686508 -2.465563 -1.000000 0.000000 0.000000 0.219124 0.055777
  3 5.306773 -7.386508 -2.075563 -1.000000 0.000000 0.000000 0.071713 0.119522
CSO_mp5.bmp
  3 5.306773 -7.386508 -2.075563 -1.000000 0.000000 0.000000 0.071713 0.119522
  3 5.296714 -8.686508 -2.465563 -1.000000 0.000000 0.000000 0.219124 0.055777
  3 5.306761 -7.646508 -1.795563 -1.000000 0.000000 0.000000 0.099602 0.163347
CSO_mp5.bmp
  3 5.296714 -8.686508 -2.465563 -1.000000 0.000000 0.000000 0.219124 0.055777
  3 5.306741 -8.086508 -1.795563 -1.000000 0.000000 0.000000 0.151394 0.163347
  3 5.306761 -7.646508 -1.795563 -1.000000 0.000000 0.000000 0.099602 0.163347
CSO_mp5.bmp
  3 5.426773 -7.386514 -2.075563 0.000000 1.000000 0.000000 0.055777 0.119522
  3 5.806773 -7.386531 -2.075563 0.000000 1.000000 0.000000 0.015936 0.119522
  3 5.306773 -7.386508 -2.465563 0.000000 1.000000 0.000000 0.071713 0.055777
CSO_mp5.bmp
  3 5.306773 -7.386508 -2.465563 0.000000 1.000000 0.000000 0.071713 0.055777
  3 5.806773 -7.386531 -2.075563 0.000000 1.000000 0.000000 0.015936 0.119522
  3 5.896773 -7.386535 -2.465563 0.000000 1.000000 0.000000 0.000000 0.055777
CSO_mp5.bmp
  3 5.806773 -7.386531 -2.075563 0.000000 1.000000 0.000000 0.015936 0.119522
  3 5.896773 -7.386535 -2.075563 0.000000 1.000000 0.000000 0.000000 0.119522
  3 5.896773 -7.386535 -2.465563 0.000000 1.000000 0.000000 0.000000 0.055777
CSO_mp5.bmp
  3 5.356722 -8.516510 -1.865563 0.007200 -0.492687 0.870177 0.729084 0.446215
  3 5.596713 -8.716521 -1.975563 0.007200 -0.492687 0.870177 0.760956 0.414343
  3 5.456731 -8.306515 -1.745563 0.007200 -0.492687 0.870177 0.741036 0.478088
CSO_mp5.bmp
  3 5.456731 -8.306515 -1.745563 0.007200 -0.492687 0.870177 0.741036 0.478088
  3 5.596713 -8.716521 -1.975563 0.007200 -0.492687 0.870177 0.760956 0.414343
  3 5.726731 -8.306527 -1.745563 0.007200 -0.492687 0.870177 0.776892 0.478088
CSO_mp5.bmp
  3 5.596713 -8.716521 -1.975563 0.007200 -0.492687 0.870177 0.760956 0.414343
  3 5.846721 -8.526532 -1.875563 0.007200 -0.492687 0.870177 0.792829 0.446215
  3 5.726731 -8.306527 -1.745563 0.007200 -0.492687 0.870177 0.776892 0.478088
CSO_mp5.bmp
  3 5.846734 -8.256532 -2.265563 0.000000 0.491025 -0.871145 0.741036 0.330677
  3 5.596725 -8.456521 -2.375563 0.000000 0.491025 -0.871145 0.780876 0.330677
  3 5.736743 -8.046527 -2.145563 0.000000 0.491025 -0.871145 0.701195 0.330677
CSO_mp5.bmp
  3 5.736743 -8.046527 -2.145563 0.000000 0.491025 -0.871145 0.701195 0.330677
  3 5.596725 -8.456521 -2.375563 0.000000 0.491025 -0.871145 0.780876 0.330677
  3 5.466743 -8.046515 -2.145563 0.000000 0.491025 -0.871145 0.701195 0.330677
CSO_mp5.bmp
  3 5.596725 -8.456521 -2.375563 0.000000 0.491025 -0.871145 0.780876 0.330677
  3 5.356734 -8.256510 -2.265563 0.000000 0.491025 -0.871145 0.741036 0.330677
  3 5.466743 -8.046515 -2.145563 0.000000 0.491025 -0.871145 0.701195 0.330677
CSO_mp5.bmp
  3 5.136520 -12.986500 -4.395564 -0.298805 -0.136402 -0.944516 0.179283 0.262948
  3 5.066278 -18.376497 -3.435564 -0.984050 -0.071496 -0.162892 0.573705 0.330677
  3 4.746520 -12.986482 -4.125564 -0.918557 -0.101695 -0.381982 0.179283 0.282869
CSO_mp5.bmp
  3 4.746520 -12.986482 -4.125564 -0.918557 -0.101695 -0.381982 0.179283 0.282869
  3 5.066278 -18.376497 -3.435564 -0.984050 -0.071496 -0.162892 0.573705 0.330677
  3 5.106521 -12.986499 -2.685564 -0.968660 -0.025399 0.247090 0.179283 0.382470
CSO_mp5.bmp
  3 5.066278 -18.376497 -3.435564 -0.984050 -0.071496 -0.162892 0.573705 0.330677
  3 5.296278 -18.386508 -2.685564 -0.955678 -0.031799 0.292693 0.573705 0.382470
  3 5.106521 -12.986499 -2.685564 -0.968660 -0.025399 0.247090 0.179283 0.382470
CSO_mp5.bmp
  3 5.066278 -18.376497 -3.435564 -0.984050 -0.071496 -0.162892 0.573705 0.330677
  3 5.136520 -12.986500 -4.395564 -0.298805 -0.136402 -0.944516 0.179283 0.266932
  3 5.286277 -18.386507 -3.715564 -0.439591 -0.123397 -0.889681 0.573705 0.310757
CSO_mp5.bmp
  3 5.286277 -18.386507 -3.715564 -0.439591 -0.123397 -0.889681 0.573705 0.310757
  3 5.136520 -12.986500 -4.395564 -0.298805 -0.136402 -0.944516 0.179283 0.266932
  3 5.916277 -18.386536 -3.715565 0.000000 -0.124896 -0.992170 0.573705 0.286853
CSO_mp5.bmp
  3 5.136520 -12.986500 -4.395564 -0.298805 -0.136402 -0.944516 0.179283 0.266932
  3 6.016520 -12.986540 -4.395564 0.000000 -0.124896 -0.992170 0.179283 0.239044
  3 5.916277 -18.386536 -3.715565 0.000000 -0.124896 -0.992170 0.573705 0.286853
CSO_mp5.bmp
  3 5.136520 -12.986500 -4.395564 0.000000 1.000000 0.000000 0.171315 0.270916
  3 4.746520 -12.986482 -4.125564 0.000000 1.000000 0.000000 0.179283 0.282869
  3 6.386520 -12.986556 -4.125564 0.000000 1.000000 0.000000 0.147410 0.290837
CSO_mp5.bmp
  3 6.386520 -12.986556 -4.125564 0.000000 1.000000 0.000000 0.147410 0.290837
  3 4.746520 -12.986482 -4.125564 0.000000 1.000000 0.000000 0.179283 0.282869
  3 6.096521 -12.986543 -2.685564 0.000000 1.000000 0.000000 0.159363 0.382470
CSO_mp5.bmp
  3 4.746520 -12.986482 -4.125564 0.000000 1.000000 0.000000 0.179283 0.282869
  3 5.106521 -12.986499 -2.685564 0.000000 1.000000 0.000000 0.179283 0.382470
  3 6.096521 -12.986543 -2.685564 0.000000 1.000000 0.000000 0.159363 0.382470
CSO_mp5.bmp
  5 5.457798 -9.462067 -5.270632 -1.000000 0.000000 0.000000 0.338645 0.151394
  5 5.457796 -9.482067 -6.110632 -1.000000 0.000000 0.000000 0.338645 0.071713
  5 5.457785 -9.742067 -5.270632 -1.000000 0.000000 0.000000 0.366534 0.151394
CSO_mp5.bmp
  5 5.457785 -9.742067 -5.270632 -1.000000 0.000000 0.000000 0.366534 0.151394
  5 5.457796 -9.482067 -6.110632 -1.000000 0.000000 0.000000 0.338645 0.071713
  5 5.457790 -9.632067 -6.030632 -1.000000 0.000000 0.000000 0.354582 0.075697
CSO_mp5.bmp
  5 5.457796 -9.482067 -6.110632 -1.000000 0.000000 0.000000 0.338645 0.071713
  5 5.457781 -9.822067 -6.440632 -1.000000 0.000000 0.000000 0.374502 0.035857
  5 5.457790 -9.632067 -6.030632 -1.000000 0.000000 0.000000 0.354582 0.075697
CSO_mp5.bmp
  3 5.546815 -6.426518 -7.595563 0.000000 0.378621 -0.925552 0.000000 0.342629
  3 5.926805 -6.646535 -7.685563 0.000000 0.458179 -0.888860 0.023904 0.330677
  3 5.246805 -6.646505 -7.685563 0.000000 0.458179 -0.888860 0.023904 0.330677
CSO_mp5.bmp
  3 5.246805 -6.646505 -7.685563 0.000000 0.458179 -0.888860 0.023904 0.330677
  3 5.926805 -6.646535 -7.685563 0.000000 0.458179 -0.888860 0.023904 0.330677
  3 5.256744 -7.986505 -8.435563 0.000000 0.491025 -0.871145 0.103586 0.286853
CSO_mp5.bmp
  3 5.926805 -6.646535 -7.685563 0.000000 0.458179 -0.888860 0.023904 0.330677
  3 5.936744 -7.986536 -8.435563 0.000000 0.491025 -0.871145 0.103586 0.286853
  3 5.256744 -7.986505 -8.435563 0.000000 0.491025 -0.871145 0.103586 0.286853
CSO_mp5.bmp
  3 5.256744 -7.986505 -8.435563 -1.000000 0.000000 0.000000 0.103586 0.286853
  3 5.256744 -7.986505 -8.125563 -1.000000 0.000000 0.000000 0.103586 0.302789
  3 5.246805 -6.646505 -7.685563 -1.000000 0.000000 0.000000 0.023904 0.330677
CSO_mp5.bmp
  3 5.246805 -6.646505 -7.685563 -1.000000 0.000000 0.000000 0.023904 0.330677
  3 5.256744 -7.986505 -8.125563 -1.000000 0.000000 0.000000 0.103586 0.302789
  3 5.256747 -7.946505 -5.535563 -1.000000 0.000000 0.000000 0.103586 0.462151
CSO_mp5.bmp
  3 5.256744 -7.986505 -8.125563 -1.000000 0.000000 0.000000 0.103586 0.302789
  3 5.256691 -9.176505 -5.535563 -1.000000 0.000000 0.000000 0.175299 0.462151
  3 5.256747 -7.946505 -5.535563 -1.000000 0.000000 0.000000 0.103586 0.462151
CSO_mp5.bmp
  3 5.296254 -18.916508 -1.745565 0.915469 0.000900 0.402387 0.693227 0.406375
  3 5.356253 -18.946510 -1.895565 0.804228 0.000000 0.594321 0.693227 0.394422
  3 5.356277 -18.396510 -1.895565 0.804228 0.000000 0.594321 0.657371 0.394422
CSO_mp5.bmp
  3 5.356277 -18.396510 -1.895565 0.804228 0.000000 0.594321 0.657371 0.394422
  3 5.356253 -18.946510 -1.895565 0.804228 0.000000 0.594321 0.693227 0.394422
  3 5.446277 -18.396514 -1.965564 0.348502 -0.001900 0.937306 0.657371 0.382470
CSO_mp5.bmp
  3 5.356253 -18.946510 -1.895565 0.804228 0.000000 0.594321 0.693227 0.394422
  3 5.446253 -18.946514 -1.975565 0.655874 -0.000600 0.754870 0.693227 0.382470
  3 5.446277 -18.396514 -1.965564 0.348502 -0.001900 0.937306 0.657371 0.382470
CSO_mp5.bmp
  3 5.296714 -8.686508 -2.465563 0.000000 0.000000 -1.000000 0.219124 0.055777
  3 5.306773 -7.386508 -2.465563 0.000000 0.000000 -1.000000 0.071713 0.055777
  3 5.886714 -8.686534 -2.465563 0.000000 0.000000 -1.000000 0.219124 0.055777
CSO_mp5.bmp
  3 5.886714 -8.686534 -2.465563 0.000000 0.000000 -1.000000 0.219124 0.055777
  3 5.306773 -7.386508 -2.465563 0.000000 0.000000 -1.000000 0.071713 0.055777
  3 5.896773 -7.386535 -2.465563 0.000000 0.000000 -1.000000 0.071713 0.055777
CSO_mp5.bmp
  3 5.806773 -7.386531 -2.075563 0.000000 0.000000 1.000000 0.031873 0.179283
  3 5.426773 -7.386514 -2.075563 0.000000 0.000000 1.000000 0.031873 0.239044
  3 5.806746 -7.986531 -2.075563 0.000000 0.000000 1.000000 0.099602 0.179283
CSO_mp5.bmp
  3 5.806746 -7.986531 -2.075563 0.000000 0.000000 1.000000 0.099602 0.179283
  3 5.426773 -7.386514 -2.075563 0.000000 0.000000 1.000000 0.031873 0.239044
  3 5.426746 -7.986514 -2.075563 0.000000 0.000000 1.000000 0.099602 0.239044
CSO_mp5.bmp
  3 5.806745 -7.996531 -1.795563 -1.000000 0.000000 0.000000 0.063745 0.171315
  3 5.806761 -7.646531 -1.795563 -1.000000 0.000000 0.000000 0.031873 0.171315
  3 5.806746 -7.986531 -2.075563 -1.000000 0.000000 0.000000 0.063745 0.127490
CSO_mp5.bmp
  3 5.806746 -7.986531 -2.075563 -1.000000 0.000000 0.000000 0.063745 0.127490
  3 5.806761 -7.646531 -1.795563 -1.000000 0.000000 0.000000 0.031873 0.171315
  3 5.806773 -7.386531 -2.075563 -1.000000 0.000000 0.000000 0.000000 0.127490
CSO_mp5.bmp
  3 5.806745 -7.996531 -1.795563 0.000000 0.999363 0.035699 0.139442 0.179283
  3 5.806746 -7.986531 -2.075563 0.000000 0.999363 0.035699 0.099602 0.179283
  3 5.426745 -7.996514 -1.795563 0.000000 0.999363 0.035699 0.139442 0.239044
CSO_mp5.bmp
  3 5.426745 -7.996514 -1.795563 0.000000 0.999363 0.035699 0.139442 0.239044
  3 5.806746 -7.986531 -2.075563 0.000000 0.999363 0.035699 0.099602 0.179283
  3 5.426746 -7.986514 -2.075563 0.000000 0.999363 0.035699 0.099602 0.239044
CSO_mp5.bmp
  3 5.426761 -7.646514 -1.795563 0.000000 0.732772 0.680474 0.099602 0.179283
  3 5.426773 -7.386514 -2.075563 0.000000 0.732772 0.680474 0.071713 0.179283
  3 5.306761 -7.646508 -1.795563 0.000000 0.732772 0.680474 0.099602 0.163347
CSO_mp5.bmp
  3 5.306761 -7.646508 -1.795563 0.000000 0.732772 0.680474 0.099602 0.163347
  3 5.426773 -7.386514 -2.075563 0.000000 0.732772 0.680474 0.071713 0.179283
  3 5.306773 -7.386508 -2.075563 0.000000 0.732772 0.680474 0.071713 0.163347
CSO_mp5.bmp
  3 5.896773 -7.386535 -2.075563 0.000000 0.732772 0.680474 0.071713 0.258964
  3 5.806773 -7.386531 -2.075563 0.000000 0.732772 0.680474 0.071713 0.247012
  3 5.896761 -7.646535 -1.795563 0.000000 0.732772 0.680474 0.099602 0.258964
CSO_mp5.bmp
  3 5.896761 -7.646535 -1.795563 0.000000 0.732772 0.680474 0.099602 0.258964
  3 5.806773 -7.386531 -2.075563 0.000000 0.732772 0.680474 0.071713 0.247012
  3 5.806761 -7.646531 -1.795563 0.000000 0.732772 0.680474 0.099602 0.247012
CSO_mp5.bmp
  3 5.306741 -8.086508 -1.795563 0.000000 -0.744982 0.667084 0.215139 0.163347
  3 5.296714 -8.686508 -2.465563 0.000000 -0.744982 0.667084 0.282869 0.055777
  3 5.896741 -8.086535 -1.795563 0.000000 -0.744982 0.667084 0.151394 0.163347
CSO_mp5.bmp
  3 5.896741 -8.086535 -1.795563 0.000000 -0.744982 0.667084 0.151394 0.163347
  3 5.296714 -8.686508 -2.465563 0.000000 -0.744982 0.667084 0.282869 0.055777
  3 5.886714 -8.686534 -2.465563 0.000000 -0.744982 0.667084 0.219124 0.055777
CSO_mp5.bmp
  3 5.356722 -8.516510 -1.865563 -0.923911 0.320804 0.208502 0.741036 0.406375
  3 5.456731 -8.306515 -1.745563 -0.923911 0.320804 0.208502 0.701195 0.406375
  3 5.356734 -8.256510 -2.265563 -0.923911 0.320804 0.208502 0.741036 0.330677
CSO_mp5.bmp
  3 5.356734 -8.256510 -2.265563 -0.923911 0.320804 0.208502 0.741036 0.330677
  3 5.456731 -8.306515 -1.745563 -0.923911 0.320804 0.208502 0.701195 0.406375
  3 5.466743 -8.046515 -2.145563 -0.923911 0.320804 0.208502 0.701195 0.330677
CSO_mp5.bmp
  3 5.456731 -8.306515 -1.745563 0.000000 0.838425 0.545017 0.701195 0.406375
  3 5.726731 -8.306527 -1.745563 0.000000 0.838425 0.545017 0.741036 0.406375
  3 5.466743 -8.046515 -2.145563 0.000000 0.838425 0.545017 0.701195 0.330677
CSO_mp5.bmp
  3 5.466743 -8.046515 -2.145563 0.000000 0.838425 0.545017 0.701195 0.330677
  3 5.726731 -8.306527 -1.745563 0.000000 0.838425 0.545017 0.741036 0.406375
  3 5.736743 -8.046527 -2.145563 0.000000 0.838425 0.545017 0.741036 0.330677
CSO_mp5.bmp
  3 5.726731 -8.306527 -1.745563 0.901827 0.359911 0.239107 0.701195 0.406375
  3 5.846721 -8.526532 -1.875563 0.901827 0.359911 0.239107 0.741036 0.406375
  3 5.736743 -8.046527 -2.145563 0.901827 0.359911 0.239107 0.701195 0.330677
CSO_mp5.bmp
  3 5.736743 -8.046527 -2.145563 0.901827 0.359911 0.239107 0.701195 0.330677
  3 5.846721 -8.526532 -1.875563 0.901827 0.359911 0.239107 0.741036 0.406375
  3 5.846734 -8.256532 -2.265563 0.901827 0.359911 0.239107 0.741036 0.330677
CSO_mp5.bmp
  3 5.356734 -8.256510 -2.265563 -0.673294 -0.619894 -0.402996 0.741036 0.330677
  3 5.596725 -8.456521 -2.375563 -0.673294 -0.619894 -0.402996 0.780876 0.330677
  3 5.356722 -8.516510 -1.865563 -0.673294 -0.619894 -0.402996 0.741036 0.406375
CSO_mp5.bmp
  3 5.356722 -8.516510 -1.865563 -0.673294 -0.619894 -0.402996 0.741036 0.406375
  3 5.596725 -8.456521 -2.375563 -0.673294 -0.619894 -0.402996 0.780876 0.330677
  3 5.596713 -8.716521 -1.975563 -0.673294 -0.619894 -0.402996 0.780876 0.406375
CSO_mp5.bmp
  3 6.096521 -12.986543 -2.685564 0.000000 0.000000 1.000000 0.179283 0.446215
  3 5.106521 -12.986499 -2.685564 0.000000 0.000000 1.000000 0.179283 0.382470
  3 5.926278 -18.386536 -2.685565 0.000000 0.000000 1.000000 0.573705 0.426295
CSO_mp5.bmp
  3 5.926278 -18.386536 -2.685565 0.000000 0.000000 1.000000 0.573705 0.426295
  3 5.106521 -12.986499 -2.685564 0.000000 0.000000 1.000000 0.179283 0.382470
  3 5.296278 -18.386508 -2.685564 0.000000 0.000000 1.000000 0.573705 0.382470
CSO_mp5.bmp
  8 5.207469 -16.801984 -2.196076 -0.643015 -0.416010 0.643015 0.418327 0.055777
  8 5.087469 -16.801979 -2.316076 -0.643015 -0.416010 0.643015 0.418327 0.055777
  8 5.297464 -16.911988 -2.286076 -0.462384 -0.756573 0.462384 0.430279 0.039841
CSO_mp5.bmp
  8 5.297464 -16.911988 -2.286076 -0.462384 -0.756573 0.462384 0.430279 0.039841
  8 5.087469 -16.801979 -2.316076 -0.643015 -0.416010 0.643015 0.418327 0.055777
  8 5.177464 -16.911983 -2.406076 -0.462384 -0.756573 0.462384 0.430279 0.039841
CSO_mp5.bmp
  3 5.786730 -8.326530 -3.455563 -1.000000 0.000000 0.000000 0.370518 0.027888
  3 5.787028 -1.706530 -3.455562 -1.000000 0.000000 0.000000 0.231076 0.027888
  3 5.786730 -8.326529 -3.945563 -1.000000 0.000000 0.000000 0.370518 0.000000
CSO_mp5.bmp
  3 5.786730 -8.326529 -3.945563 -1.000000 0.000000 0.000000 0.370518 0.000000
  3 5.787028 -1.706530 -3.455562 -1.000000 0.000000 0.000000 0.231076 0.027888
  3 5.787028 -1.706529 -3.945562 -1.000000 0.000000 0.000000 0.231076 0.000000
CSO_mp5.bmp
  7 5.887699 -11.674124 -4.190292 0.000000 0.000000 1.000000 0.872510 0.466135
  7 5.307699 -11.684098 -4.190292 0.000000 0.000000 1.000000 0.872510 0.418327
  7 5.887656 -12.634124 -4.190292 0.000000 0.000000 1.000000 1.000000 0.466135
CSO_mp5.bmp
  7 5.887656 -12.634124 -4.190292 0.000000 0.000000 1.000000 1.000000 0.466135
  7 5.307699 -11.684098 -4.190292 0.000000 0.000000 1.000000 0.872510 0.418327
  7 5.307656 -12.644098 -4.190292 0.000000 0.000000 1.000000 1.000000 0.418327
CSO_mp5.bmp
  3 5.786730 -8.326530 -3.455563 0.756823 0.000000 0.653620 0.223108 0.047809
  3 5.976730 -8.326538 -3.675563 0.756823 0.000000 0.653620 0.223108 0.023904
  3 5.787028 -1.706530 -3.455562 0.756823 0.000000 0.653620 0.000000 0.047809
CSO_mp5.bmp
  3 5.787028 -1.706530 -3.455562 0.756823 0.000000 0.653620 0.000000 0.047809
  3 5.976730 -8.326538 -3.675563 0.756823 0.000000 0.653620 0.223108 0.023904
  3 5.977028 -1.706538 -3.675562 0.756823 0.000000 0.653620 0.000000 0.023904
CSO_mp5.bmp
  4 5.177690 -11.880423 -3.314035 -0.776774 0.000000 0.629779 1.000000 0.549801
  4 5.477690 -11.880437 -2.954036 -0.776774 0.000000 0.629779 1.000000 0.613546
  4 5.177742 -10.740423 -3.314035 -0.776774 0.000000 0.629779 0.844622 0.549801
CSO_mp5.bmp
  4 5.177742 -10.740423 -3.314035 -0.776774 0.000000 0.629779 0.844622 0.549801
  4 5.477690 -11.880437 -2.954036 -0.776774 0.000000 0.629779 1.000000 0.613546
  4 5.477742 -10.740437 -2.954035 -0.776774 0.000000 0.629779 0.844622 0.613546
CSO_mp5.bmp
  4 5.177742 -10.740423 -3.314035 0.000000 1.000000 0.000000 0.844622 0.549801
  4 5.477742 -10.740437 -2.954035 0.000000 1.000000 0.000000 0.844622 0.613546
  4 6.047742 -10.740462 -3.314036 0.000000 1.000000 0.000000 0.844622 0.549801
CSO_mp5.bmp
  4 6.047742 -10.740462 -3.314036 0.000000 1.000000 0.000000 0.844622 0.549801
  4 5.477742 -10.740437 -2.954035 0.000000 1.000000 0.000000 0.844622 0.613546
  4 5.757742 -10.740449 -2.954035 0.000000 1.000000 0.000000 0.844622 0.613546
CSO_mp5.bmp
  4 5.477690 -11.880437 -2.954036 0.000000 0.000000 1.000000 1.000000 0.613546
  4 5.757690 -11.880449 -2.954036 0.000000 0.000000 1.000000 1.000000 0.613546
  4 5.477742 -10.740437 -2.954035 0.000000 0.000000 1.000000 0.844622 0.613546
CSO_mp5.bmp
  4 5.477742 -10.740437 -2.954035 0.000000 0.000000 1.000000 0.844622 0.613546
  4 5.757690 -11.880449 -2.954036 0.000000 0.000000 1.000000 1.000000 0.613546
  4 5.757742 -10.740449 -2.954035 0.000000 0.000000 1.000000 0.844622 0.613546
CSO_mp5.bmp
  4 6.047742 -10.740462 -3.314036 0.000000 0.000000 -1.000000 0.844622 0.549801
  4 6.047690 -11.890462 -3.314036 0.000000 0.000000 -1.000000 1.000000 0.549801
  4 5.177742 -10.740423 -3.314035 0.000000 0.000000 -1.000000 0.844622 0.549801
CSO_mp5.bmp
  4 5.177742 -10.740423 -3.314035 0.000000 0.000000 -1.000000 0.844622 0.549801
  4 6.047690 -11.890462 -3.314036 0.000000 0.000000 -1.000000 1.000000 0.549801
  4 5.177690 -11.880423 -3.314035 0.000000 0.000000 -1.000000 1.000000 0.549801
CSO_mp5.bmp
  3 5.546815 -6.426518 -7.595563 -0.603183 0.678381 0.419488 0.000000 0.342629
  3 5.246805 -6.646505 -7.685563 -0.603183 0.678381 0.419488 0.023904 0.330677
  3 5.556758 -7.696519 -5.535563 -0.613694 0.757692 0.221998 0.075697 0.462151
CSO_mp5.bmp
  3 5.556758 -7.696519 -5.535563 -0.613694 0.757692 0.221998 0.075697 0.462151
  3 5.246805 -6.646505 -7.685563 -0.603183 0.678381 0.419488 0.023904 0.330677
  3 5.256747 -7.946505 -5.535563 -0.621691 0.762489 0.179197 0.103586 0.462151
CSO_mp5.bmp
  3 5.256770 -7.426505 -4.785563 0.000000 0.778385 -0.627788 0.059761 0.561753
  3 5.936770 -7.426536 -4.785563 0.180900 0.645301 -0.742201 0.059761 0.561753
  3 5.556759 -7.676519 -5.095563 0.180900 0.645301 -0.742201 0.063745 0.525896
CSO_mp5.bmp
  3 5.556759 -7.676519 -5.095563 0.180900 0.645301 -0.742201 0.063745 0.525896
  3 5.936770 -7.426536 -4.785563 0.180900 0.645301 -0.742201 0.059761 0.561753
  3 5.936747 -7.936536 -5.085563 0.346688 0.475584 -0.808472 0.115538 0.529880
CSO_mp5.bmp
  3 5.936789 -7.006536 -4.115563 0.000000 0.999363 0.035699 0.007968 0.641434
  3 5.936790 -6.986536 -4.795563 0.000000 1.000000 0.000000 0.007968 0.565737
  3 5.256790 -6.986506 -4.105563 0.000000 1.000000 0.000000 0.007968 0.641434
CSO_mp5.bmp
  3 5.256790 -6.986506 -4.105563 0.000000 1.000000 0.000000 0.007968 0.641434
  3 5.936790 -6.986536 -4.795563 0.000000 1.000000 0.000000 0.007968 0.565737
  3 5.256790 -6.986505 -4.795563 0.000000 1.000000 0.000000 0.007968 0.565737
CSO_mp5.bmp
  3 5.766711 -8.736528 -6.175563 0.000000 0.857493 0.514496 0.262948 0.231076
  3 5.766718 -8.586528 -6.415563 0.000000 0.857493 0.514496 0.258964 0.211155
  3 5.416711 -8.736512 -6.175563 0.000000 0.857493 0.514496 0.262948 0.231076
CSO_mp5.bmp
  3 5.416711 -8.736512 -6.175563 0.000000 0.857493 0.514496 0.262948 0.231076
  3 5.766718 -8.586528 -6.415563 0.000000 0.857493 0.514496 0.258964 0.211155
  3 5.416718 -8.586512 -6.415563 0.000000 0.857493 0.514496 0.258964 0.211155
CSO_mp5.bmp
  3 5.426688 -9.236513 -6.555563 0.000000 0.000000 1.000000 0.286853 0.203187
  3 5.416634 -10.456512 -6.545563 0.000000 0.000000 1.000000 0.346614 0.203187
  3 5.776688 -9.236529 -6.555563 0.000000 0.000000 1.000000 0.286853 0.215139
CSO_mp5.bmp
  3 5.776688 -9.236529 -6.555563 0.000000 0.000000 1.000000 0.286853 0.215139
  3 5.416634 -10.456512 -6.545563 0.000000 0.000000 1.000000 0.346614 0.203187
  3 5.766634 -10.456528 -6.545563 0.000000 0.000000 1.000000 0.346614 0.215139
CSO_mp5.bmp
  3 5.766634 -10.456528 -6.545563 0.000000 0.950212 0.311604 0.346614 0.215139
  3 5.416634 -10.456512 -6.545563 0.000000 0.950212 0.311604 0.346614 0.203187
  3 5.766616 -10.856528 -5.335564 0.000000 0.950212 0.311604 0.402390 0.254980
CSO_mp5.bmp
  3 5.766616 -10.856528 -5.335564 0.000000 0.950212 0.311604 0.402390 0.254980
  3 5.416634 -10.456512 -6.545563 0.000000 0.950212 0.311604 0.346614 0.203187
  3 5.416616 -10.856513 -5.335563 0.000000 0.950212 0.311604 0.402390 0.239044
CSO_mp5.bmp
  3 5.766616 -10.856528 -5.335564 0.000000 0.000000 1.000000 0.402390 0.239044
  3 5.416616 -10.856513 -5.335563 0.000000 0.000000 1.000000 0.402390 0.239044
  3 5.766604 -11.126528 -5.335564 0.000000 0.000000 1.000000 0.414343 0.231076
CSO_mp5.bmp
  3 5.766604 -11.126528 -5.335564 0.000000 0.000000 1.000000 0.414343 0.231076
  3 5.416616 -10.856513 -5.335563 0.000000 0.000000 1.000000 0.402390 0.239044
  3 5.416604 -11.126513 -5.335564 0.000000 0.000000 1.000000 0.414343 0.231076
CSO_mp5.bmp
  6 5.717709 -11.453573 -6.050701 0.000000 0.996243 0.086604 0.258964 0.119522
  6 5.457709 -11.453561 -6.050701 0.000000 0.996243 0.086604 0.286853 0.119522
  6 5.717706 -11.513573 -5.370701 0.000000 0.996243 0.086604 0.262948 0.179283
CSO_mp5.bmp
  6 5.717706 -11.513573 -5.370701 0.000000 0.996243 0.086604 0.262948 0.179283
  6 5.457709 -11.453561 -6.050701 0.000000 0.996243 0.086604 0.286853 0.119522
  6 5.457706 -11.513561 -5.370701 0.000000 0.996243 0.086604 0.294821 0.179283
CSO_mp5.bmp
  6 5.717706 -11.513573 -5.370701 0.000000 0.000000 1.000000 0.294821 0.179283
  6 5.457706 -11.513561 -5.370701 0.000000 0.000000 1.000000 0.294821 0.179283
  6 5.727700 -11.653573 -5.370701 0.000000 0.000000 1.000000 0.310757 0.179283
CSO_mp5.bmp
  6 5.727700 -11.653573 -5.370701 0.000000 0.000000 1.000000 0.310757 0.179283
  6 5.457706 -11.513561 -5.370701 0.000000 0.000000 1.000000 0.294821 0.179283
  6 5.467700 -11.653562 -5.370701 0.000000 0.000000 1.000000 0.310757 0.179283
CSO_mp5.bmp
  5 5.737798 -9.462080 -5.270632 0.000000 0.999724 -0.023501 0.306773 0.151394
  5 5.727796 -9.482079 -6.110632 0.000000 0.999724 -0.023501 0.310757 0.071713
  5 5.457798 -9.462067 -5.270632 0.000000 0.999724 -0.023501 0.338645 0.151394
CSO_mp5.bmp
  5 5.457798 -9.462067 -5.270632 0.000000 0.999724 -0.023501 0.338645 0.151394
  5 5.727796 -9.482079 -6.110632 0.000000 0.999724 -0.023501 0.310757 0.071713
  5 5.457796 -9.482067 -6.110632 0.000000 0.999724 -0.023501 0.338645 0.071713
CSO_mp5.bmp
  5 5.737798 -9.462080 -5.270632 0.000000 0.000000 1.000000 0.338645 0.151394
  5 5.457798 -9.462067 -5.270632 0.000000 0.000000 1.000000 0.338645 0.151394
  5 5.737785 -9.742080 -5.270632 0.000000 0.000000 1.000000 0.366534 0.151394
CSO_mp5.bmp
  5 5.737785 -9.742080 -5.270632 0.000000 0.000000 1.000000 0.366534 0.151394
  5 5.457798 -9.462067 -5.270632 0.000000 0.000000 1.000000 0.338645 0.151394
  5 5.457785 -9.742067 -5.270632 0.000000 0.000000 1.000000 0.366534 0.151394
CSO_mp5.bmp
  5 5.457796 -9.482067 -6.110632 0.000000 0.686001 -0.727601 0.338645 0.071713
  5 5.727796 -9.482079 -6.110632 0.000000 0.686001 -0.727601 0.310757 0.071713
  5 5.457781 -9.822067 -6.440632 0.000000 0.686001 -0.727601 0.374502 0.035857
CSO_mp5.bmp
  5 5.457781 -9.822067 -6.440632 0.000000 0.686001 -0.727601 0.374502 0.035857
  5 5.727796 -9.482079 -6.110632 0.000000 0.686001 -0.727601 0.310757 0.071713
  5 5.727781 -9.822079 -6.440632 0.000000 0.686001 -0.727601 0.346614 0.035857
CSO_mp5.bmp
  3 5.256747 -7.936506 -5.085563 -0.642822 0.765827 -0.017001 0.115538 0.529880
  3 5.556759 -7.676519 -5.095563 -0.642822 0.765827 -0.017001 0.063745 0.525896
  3 5.256747 -7.946505 -5.535563 -0.621691 0.762489 0.179197 0.115538 0.478088
CSO_mp5.bmp
  3 5.256747 -7.946505 -5.535563 -0.621691 0.762489 0.179197 0.115538 0.478088
  3 5.556759 -7.676519 -5.095563 -0.642822 0.765827 -0.017001 0.063745 0.525896
  3 5.556758 -7.696519 -5.535563 -0.613694 0.757692 0.221998 0.067729 0.474104
CSO_mp5.bmp
  3 5.546815 -6.426518 -7.595563 0.521395 0.726193 0.448096 0.000000 0.342629
  3 5.556758 -7.696519 -5.535563 0.536403 0.811104 0.233201 0.075697 0.462151
  3 5.926805 -6.646535 -7.685563 0.521395 0.726193 0.448096 0.023904 0.330677
CSO_mp5.bmp
  3 5.926805 -6.646535 -7.685563 0.521395 0.726193 0.448096 0.023904 0.330677
  3 5.556758 -7.696519 -5.535563 0.536403 0.811104 0.233201 0.075697 0.462151
  3 5.936747 -7.946536 -5.535563 0.543633 0.816449 0.194612 0.103586 0.462151
CSO_mp5.bmp
  3 5.556758 -7.696519 -5.535563 0.536403 0.811104 0.233201 0.067729 0.474104
  3 5.556759 -7.676519 -5.095563 0.557085 0.829977 -0.028199 0.063745 0.525896
  3 5.936747 -7.946536 -5.535563 0.543633 0.816449 0.194612 0.115538 0.478088
CSO_mp5.bmp
  3 5.936747 -7.946536 -5.535563 0.543633 0.816449 0.194612 0.115538 0.478088
  3 5.556759 -7.676519 -5.095563 0.557085 0.829977 -0.028199 0.063745 0.525896
  3 5.936747 -7.936536 -5.085563 0.557085 0.829977 -0.028199 0.115538 0.529880
CSO_mp5.bmp
  3 5.256575 -11.766505 -5.535564 0.000000 0.000000 -1.000000 0.553785 0.478088
  3 5.256691 -9.176505 -5.535563 0.000000 0.000000 -1.000000 0.254980 0.478088
  3 5.936575 -11.766536 -5.535564 0.000000 0.000000 -1.000000 0.553785 0.454183
CSO_mp5.bmp
  3 5.936575 -11.766536 -5.535564 0.000000 0.000000 -1.000000 0.553785 0.454183
  3 5.256691 -9.176505 -5.535563 0.000000 0.000000 -1.000000 0.254980 0.478088
  3 5.936691 -9.176536 -5.535563 0.000000 0.000000 -1.000000 0.258964 0.454183
CSO_mp5.bmp
  3 5.256790 -6.986505 -4.795563 -1.000000 0.000000 0.000000 0.007968 0.565737
  3 5.256770 -7.426505 -4.785563 -1.000000 0.000000 0.000000 0.059761 0.561753
  3 5.256790 -6.986506 -4.105563 -1.000000 0.000000 0.000000 0.007968 0.641434
CSO_mp5.bmp
  3 5.256790 -6.986506 -4.105563 -1.000000 0.000000 0.000000 0.007968 0.641434
  3 5.256770 -7.426505 -4.785563 -1.000000 0.000000 0.000000 0.059761 0.561753
  3 5.256691 -9.186506 -4.115563 -1.000000 0.000000 0.000000 0.254980 0.641434
CSO_mp5.bmp
  3 5.986853 -5.586539 -3.265563 0.703292 0.665192 0.250797 0.613546 0.167331
  3 5.866824 -6.236533 -2.395563 0.698915 0.264206 0.664615 0.689243 0.266932
  3 6.216824 -6.236549 -3.255563 0.903237 0.221409 0.367615 0.689243 0.171315
CSO_mp5.bmp
  3 6.216824 -6.236549 -3.255563 0.903237 0.221409 0.367615 0.689243 0.171315
  3 5.866824 -6.236533 -2.395563 0.698915 0.264206 0.664615 0.689243 0.266932
  3 5.886783 -7.146534 -2.385563 0.617519 0.007000 0.786525 0.780876 0.266932
CSO_mp5.bmp
  3 5.466861 -5.426515 -3.725563 0.000000 0.000000 1.000000 0.418327 0.195219
  3 5.716861 -5.426526 -3.725563 0.000000 0.000000 1.000000 0.418327 0.195219
  3 5.466871 -5.196515 -3.725563 0.000000 0.000000 1.000000 0.398406 0.195219
CSO_mp5.bmp
  3 5.466871 -5.196515 -3.725563 0.000000 0.000000 1.000000 0.398406 0.195219
  3 5.716861 -5.426526 -3.725563 0.000000 0.000000 1.000000 0.418327 0.195219
  3 5.716871 -5.196526 -3.725563 0.000000 0.000000 1.000000 0.398406 0.195219
CSO_mp5.bmp
  3 5.466867 -5.286515 -4.775563 0.000000 0.000000 -1.000000 0.406375 0.075697
  3 5.716867 -5.286526 -4.775563 0.000000 0.000000 -1.000000 0.406375 0.075697
  3 5.466851 -5.626515 -4.775563 0.000000 0.000000 -1.000000 0.434263 0.075697
CSO_mp5.bmp
  3 5.466851 -5.626515 -4.775563 0.000000 0.000000 -1.000000 0.434263 0.075697
  3 5.716867 -5.286526 -4.775563 0.000000 0.000000 -1.000000 0.406375 0.075697
  3 5.716851 -5.626526 -4.775563 0.000000 0.000000 -1.000000 0.434263 0.075697
CSO_mp5.bmp
  3 5.466871 -5.196515 -4.635563 0.000000 0.841166 -0.540778 0.398406 0.095618
  3 5.716871 -5.196526 -4.635563 0.000000 0.841166 -0.540778 0.374502 0.095618
  3 5.466867 -5.286515 -4.775563 0.000000 0.841166 -0.540778 0.406375 0.075697
CSO_mp5.bmp
  3 5.466867 -5.286515 -4.775563 0.000000 0.841166 -0.540778 0.406375 0.075697
  3 5.716871 -5.196526 -4.635563 0.000000 0.841166 -0.540778 0.374502 0.095618
  3 5.716867 -5.286526 -4.775563 0.000000 0.841166 -0.540778 0.386454 0.075697
CSO_mp5.bmp
  3 5.466871 -5.196515 -3.725563 0.000000 1.000000 0.000000 0.398406 0.195219
  3 5.716871 -5.196526 -3.725563 0.000000 1.000000 0.000000 0.374502 0.195219
  3 5.466871 -5.196515 -4.635563 0.000000 1.000000 0.000000 0.398406 0.095618
CSO_mp5.bmp
  3 5.466871 -5.196515 -4.635563 0.000000 1.000000 0.000000 0.398406 0.095618
  3 5.716871 -5.196526 -3.725563 0.000000 1.000000 0.000000 0.374502 0.195219
  3 5.716871 -5.196526 -4.635563 0.000000 1.000000 0.000000 0.374502 0.095618
CSO_mp5.bmp
  3 5.836571 -11.866532 -2.985564 0.933152 0.000000 -0.359482 0.713147 0.840637
  3 5.386571 -11.856512 -2.985563 -0.988897 0.000000 0.148600 0.713147 0.840637
  3 5.826621 -10.756532 -2.985563 0.968455 0.000000 0.249188 0.569721 0.840637
CSO_mp5.bmp
  3 5.826621 -10.756532 -2.985563 0.968455 0.000000 0.249188 0.569721 0.840637
  3 5.386571 -11.856512 -2.985563 -0.988897 0.000000 0.148600 0.713147 0.840637
  3 5.376621 -10.756511 -2.985563 -0.988897 0.000000 0.148600 0.569721 0.840637
CSO_mp5.bmp
  3 5.186571 -11.866502 -3.625564 -0.646613 0.594312 0.478210 0.697211 0.745020
  3 5.186571 -11.866502 -3.505564 -0.628301 0.589301 -0.507901 0.697211 0.756972
  3 5.176803 -6.706502 -3.505563 -0.777669 0.000000 -0.628675 0.015936 0.752988
CSO_mp5.bmp
  3 5.176803 -6.706502 -3.505563 -0.777669 0.000000 -0.628675 0.015936 0.752988
  3 5.186571 -11.866502 -3.505564 -0.628301 0.589301 -0.507901 0.697211 0.756972
  3 5.036803 -6.706496 -3.475563 -0.777669 0.000000 -0.628675 0.015936 0.764940
CSO_mp5.bmp
  3 6.146621 -10.756546 -3.315564 0.000000 0.000000 1.000000 0.840637 0.434263
  3 5.036621 -10.756496 -3.315563 0.000000 0.000000 1.000000 0.808765 0.434263
  3 6.156571 -11.856546 -3.315564 0.000000 0.000000 1.000000 0.840637 0.462151
CSO_mp5.bmp
  3 6.156571 -11.856546 -3.315564 0.000000 0.000000 1.000000 0.840637 0.462151
  3 5.036621 -10.756496 -3.315563 0.000000 0.000000 1.000000 0.808765 0.434263
  3 5.046571 -11.856496 -3.315564 0.000000 0.000000 1.000000 0.808765 0.462151
CSO_mp5.bmp
  3 5.386571 -11.856512 -2.985563 0.000000 1.000000 0.000000 0.808765 0.490040
  3 5.836571 -11.866532 -2.985564 0.000000 1.000000 0.000000 0.840637 0.490040
  3 5.046571 -11.856496 -3.315564 0.000000 1.000000 0.000000 0.808765 0.462151
CSO_mp5.bmp
  3 5.046571 -11.856496 -3.315564 0.000000 1.000000 0.000000 0.808765 0.462151
  3 5.836571 -11.866532 -2.985564 0.000000 1.000000 0.000000 0.840637 0.490040
  3 6.156571 -11.856546 -3.315564 0.000000 1.000000 0.000000 0.840637 0.462151
CSO_mp5.bmp
  3 5.836571 -11.866532 -2.985564 0.933152 0.000000 -0.359482 0.713147 0.840637
  3 5.826517 -13.066532 -2.985564 0.717923 0.000000 0.696122 0.876494 0.840637
  3 6.156571 -11.856546 -3.315564 0.717923 0.000000 0.696122 0.717131 0.780876
CSO_mp5.bmp
  3 6.156571 -11.856546 -3.315564 0.717923 0.000000 0.696122 0.717131 0.780876
  3 5.826517 -13.066532 -2.985564 0.717923 0.000000 0.696122 0.876494 0.840637
  3 6.146517 -13.066546 -3.315564 0.717923 0.000000 0.696122 0.876494 0.780876
CSO_mp5.bmp
  3 5.406278 -18.386513 -2.875564 -1.000000 0.000000 0.000000 0.924303 0.752988
  3 5.416277 -18.406513 -3.155564 -1.000000 0.000000 0.000000 0.924303 0.721116
  3 5.406249 -19.026512 -2.875565 -1.000000 0.000000 0.000000 1.000000 0.752988
CSO_mp5.bmp
  3 5.406249 -19.026512 -2.875565 -1.000000 0.000000 0.000000 1.000000 0.752988
  3 5.416277 -18.406513 -3.155564 -1.000000 0.000000 0.000000 0.924303 0.721116
  3 5.416250 -19.006513 -3.155565 -1.000000 0.000000 0.000000 0.996016 0.721116
CSO_mp5.bmp
  3 5.856249 -19.026533 -2.415565 0.717923 0.000000 0.696122 1.000000 0.812749
  3 5.856278 -18.386533 -2.415565 0.717923 0.000000 0.696122 0.924303 0.812749
  3 5.736249 -19.026527 -2.285565 0.717923 0.000000 0.696122 1.000000 0.828685
CSO_mp5.bmp
  3 5.736249 -19.026527 -2.285565 0.717923 0.000000 0.696122 1.000000 0.828685
  3 5.856278 -18.386533 -2.415565 0.717923 0.000000 0.696122 0.924303 0.812749
  3 5.736278 -18.386528 -2.285565 0.717923 0.000000 0.696122 0.924303 0.828685
CSO_mp5.bmp
  3 5.426277 -18.396513 -2.025564 0.000000 1.000000 0.000000 0.629482 0.358566
  3 5.706277 -18.396526 -2.025564 0.000000 1.000000 0.000000 0.601594 0.358566
  3 5.406278 -18.386513 -2.285565 0.000000 1.000000 0.000000 0.629482 0.334661
CSO_mp5.bmp
  3 5.406278 -18.386513 -2.285565 0.000000 1.000000 0.000000 0.629482 0.334661
  3 5.706277 -18.396526 -2.025564 0.000000 1.000000 0.000000 0.601594 0.358566
  3 5.736278 -18.386528 -2.285565 0.000000 1.000000 0.000000 0.597610 0.334661
CSO_mp5.bmp
  3 5.426277 -18.396513 -2.025564 -0.998174 0.000000 0.060398 0.924303 0.860558
  3 5.406278 -18.386513 -2.285565 -0.998174 0.000000 0.060398 0.924303 0.828685
  3 5.426252 -18.956514 -2.025564 -0.998174 0.000000 0.060398 0.992032 0.860558
CSO_mp5.bmp
  3 5.426252 -18.956514 -2.025564 -0.998174 0.000000 0.060398 0.992032 0.860558
  3 5.406278 -18.386513 -2.285565 -0.998174 0.000000 0.060398 0.924303 0.828685
  3 5.406249 -19.026512 -2.285565 -0.998174 0.000000 0.060398 1.000000 0.828685
CSO_mp5.bmp
  3 5.446277 -18.396514 -1.965564 0.348502 -0.001900 0.937306 0.693227 0.382470
  3 5.446253 -18.946514 -1.975565 0.000000 0.000000 1.000000 0.657371 0.382470
  3 5.686277 -18.396525 -1.975565 -0.319586 0.000000 0.947557 0.693227 0.366534
CSO_mp5.bmp
  3 5.686277 -18.396525 -1.975565 -0.319586 0.000000 0.947557 0.693227 0.366534
  3 5.446253 -18.946514 -1.975565 0.000000 0.000000 1.000000 0.657371 0.382470
  3 5.686253 -18.946525 -1.975565 -0.319586 0.000000 0.947557 0.657371 0.366534
CSO_mp5.bmp
  3 5.426745 -7.996514 -1.795563 0.000000 0.000000 1.000000 0.139442 0.179283
  3 5.426761 -7.646514 -1.795563 0.000000 0.000000 1.000000 0.099602 0.179283
  3 5.306761 -7.646508 -1.795563 0.000000 0.000000 1.000000 0.099602 0.163347
CSO_mp5.bmp
  3 5.426773 -7.386514 -2.075563 0.000000 1.000000 0.000000 0.055777 0.119522
  3 5.306773 -7.386508 -2.465563 0.000000 1.000000 0.000000 0.071713 0.055777
  3 5.306773 -7.386508 -2.075563 0.000000 1.000000 0.000000 0.071713 0.119522
CSO_mp5.bmp
  3 5.136520 -12.986500 -4.395564 0.000000 1.000000 0.000000 0.171315 0.270916
  3 6.386520 -12.986556 -4.125564 0.000000 1.000000 0.000000 0.147410 0.290837
  3 6.016520 -12.986540 -4.395564 0.000000 1.000000 0.000000 0.155378 0.270916
CSO_mp5.bmp
  8 5.207469 -16.801984 -2.196076 -0.643015 -0.416010 0.643015 0.402390 0.067729
  8 5.087483 -16.501979 -2.316076 -0.643015 0.416010 0.643015 0.418327 0.055777
  8 5.087469 -16.801979 -2.316076 -0.643015 -0.416010 0.643015 0.398406 0.055777
CSO_mp5.bmp
  7 5.297604 -13.764096 -9.810292 0.000000 0.826111 -0.563507 0.872510 0.015936
  7 5.897658 -12.574124 -8.080292 0.000000 0.892055 -0.451928 0.796813 0.135458
  7 5.887604 -13.754123 -9.810292 0.000000 0.826111 -0.563507 0.796813 0.015936
CSO_mp5.bmp
  7 5.307699 -11.684098 -4.190292 -1.000000 0.000000 0.000000 0.872510 0.418327
  7 5.307645 -12.864097 -5.960292 -1.000000 0.000000 0.000000 1.000000 0.274900
  7 5.307656 -12.644098 -4.190292 -1.000000 0.000000 0.000000 1.000000 0.418327
CSO_mp5.bmp
  3 5.766257 -18.846529 -2.805565 0.000000 0.000000 -1.000000 0.912351 0.884462
  3 5.446257 -18.846515 -2.805565 -0.594096 0.000000 -0.804394 0.912351 0.884462
  3 5.756803 -6.706528 -2.805563 0.000000 0.000000 -1.000000 0.003984 0.884462
CSO_mp5.bmp
  3 5.826207 -19.956531 -3.455565 0.435573 -0.004300 -0.900143 1.000000 0.494024
  3 5.516300 -17.876517 -3.615564 -0.339589 -0.002800 -0.940570 0.848606 0.474104
  3 5.826300 -17.876531 -3.465564 0.435573 -0.004300 -0.900143 0.848606 0.494024
CSO_mp5.bmp
  3 5.516207 -19.956517 -3.615565 -0.862707 0.000000 -0.505704 1.000000 0.474104
  3 5.356207 -19.956510 -3.325565 -0.998174 0.000000 0.060398 1.000000 0.509960
  3 5.516300 -17.876517 -3.615564 -0.339589 -0.002800 -0.940570 0.848606 0.474104
CSO_mp5.bmp
  3 5.256770 -7.426505 -4.785563 -0.412689 0.461887 -0.785078 0.059761 0.561753
  3 5.556759 -7.676519 -5.095563 -0.412689 0.461887 -0.785078 0.063745 0.525896
  3 5.256747 -7.936506 -5.085563 -0.412689 0.461887 -0.785078 0.115538 0.529880
CSO_mp5.bmp
  3 5.256691 -9.186506 -4.115563 0.000000 0.000000 1.000000 0.254980 0.641434
  3 5.936789 -7.006536 -4.115563 0.000000 0.000000 1.000000 0.007968 0.641434
  3 5.256790 -6.986506 -4.105563 0.000000 0.000000 1.000000 0.007968 0.641434
CSO_mp5.bmp
  3 5.066686 -9.296497 -5.085563 -1.000000 0.000000 0.000000 0.808765 0.525896
  3 5.066682 -9.396497 -4.795563 -0.818506 -0.442903 0.365903 0.816733 0.569721
  3 5.066690 -9.206497 -4.575563 -0.703374 -0.187393 0.685674 0.804781 0.625498
CSO_mp5.bmp
  6 5.457709 -11.453561 -6.050701 -1.000000 0.000000 0.000000 0.286853 0.119522
  6 5.467700 -11.653562 -5.370701 -1.000000 0.000000 0.000000 0.310757 0.179283
  6 5.457706 -11.513561 -5.370701 -1.000000 0.000000 0.000000 0.294821 0.179283
CSO_mp5.bmp
  3 5.256770 -7.426505 -4.785563 0.000000 0.000000 -1.000000 0.059761 0.561753
  3 5.256790 -6.986505 -4.795563 0.000000 0.000000 -1.000000 0.007968 0.565737
  3 5.936790 -6.986536 -4.795563 0.000000 0.000000 -1.000000 0.007968 0.482072
CSO_mp5.bmp
  3 5.246527 -12.836505 -4.935564 -1.000000 0.000000 0.000000 0.681275 0.549801
  3 5.246530 -12.766505 -4.115564 -1.000000 0.000000 0.000000 0.673307 0.637450
  3 5.256575 -11.766505 -5.535564 -1.000000 0.000000 0.000000 0.553785 0.478088
CSO_mp5.bmp
  3 5.256747 -7.936506 -5.085563 -1.000000 0.000000 0.000000 0.115538 0.529880
  3 5.256747 -7.946505 -5.535563 -1.000000 0.000000 0.000000 0.115538 0.478088
  3 5.256691 -9.176505 -5.535563 -1.000000 0.000000 0.000000 0.254980 0.478088
CSO_mp5.bmp
  3 5.186853 -5.586503 -3.265563 -0.761893 0.607994 0.223298 0.613546 0.167331
  3 5.396824 -6.236512 -2.395563 -0.733188 0.223096 0.642389 0.689243 0.266932
  3 5.446860 -5.436514 -3.125563 -0.328707 0.872918 0.360508 0.589641 0.179283
CSO_mp5.bmp
  3 5.986853 -5.586539 -3.265563 0.703292 0.665192 0.250797 0.549801 0.179283
  3 5.746861 -5.426528 -3.115563 0.309090 0.881570 0.356788 0.569721 0.191235
  3 5.866824 -6.236533 -2.395563 0.698915 0.264206 0.664615 0.685259 0.322709
CSO_mp5.bmp
  3 5.986853 -5.586538 -3.885563 0.583571 0.808460 -0.076396 0.549801 0.087649
  3 6.116846 -5.746544 -4.155563 0.434693 0.730289 -0.526992 0.561753 0.071713
  3 5.746860 -5.426528 -4.025563 0.260706 0.914121 -0.310507 0.569721 0.083665
CSO_mp5.bmp
  3 5.596829 -6.126521 -4.875563 0.001700 0.751795 -0.659395 0.661355 0.011952
  3 5.166820 -6.326501 -4.865563 -0.687482 0.256793 -0.679283 0.701195 0.011952
  3 5.096846 -5.746498 -4.155563 -0.798091 0.502094 -0.333096 0.637450 0.079681
CSO_mp5.bmp
  3 5.466871 -5.196515 -3.725563 -1.000000 0.000000 0.000000 0.398406 0.195219
  3 5.466871 -5.196515 -4.635563 -1.000000 0.000000 0.000000 0.398406 0.095618
  3 5.466861 -5.426515 -3.725563 -1.000000 0.000000 0.000000 0.418327 0.195219
CSO_mp5.bmp
  3 6.046783 -7.146541 -4.875563 0.000000 0.000000 -1.000000 0.780876 0.011952
  3 5.166820 -6.326501 -4.865563 -0.687482 0.256793 -0.679283 0.701195 0.011952
  3 6.036820 -6.326541 -4.865563 0.176199 0.378697 -0.908594 0.701195 0.011952
CSO_mp5.bmp
  3 5.176803 -6.706502 -3.615563 -0.803586 0.000000 0.595189 0.015936 0.745020
  3 5.036803 -6.706496 -3.665563 -0.839134 -0.001600 0.543922 0.015936 0.729084
  3 5.056571 -11.866497 -3.665563 -0.926806 0.242201 0.287002 0.717131 0.729084
CSO_mp5.bmp
  3 5.046571 -11.856496 -3.315564 -0.968660 -0.025399 0.247090 0.717131 0.780876
  3 5.036621 -10.756496 -3.315563 -0.968660 -0.025399 0.247090 0.569721 0.780876
  3 5.046571 -11.866496 -3.475563 -0.924281 0.243095 -0.294294 0.717131 0.764940
CSO_mp5.bmp
  3 5.456803 -6.706515 -2.765563 -0.573684 0.000000 0.819077 0.015936 0.872510
  3 5.456517 -13.066515 -2.765564 -0.573684 0.000000 0.819077 0.876494 0.872510
  3 5.706803 -6.706526 -2.765563 0.516803 0.000000 0.856105 0.015936 0.872510
CSO_mp5.bmp
  3 5.686253 -18.946525 -1.975565 -0.319586 0.000000 0.947557 0.693227 0.382470
  3 5.776277 -18.396529 -1.905565 -0.761982 0.004200 0.647585 0.657371 0.394422
  3 5.686277 -18.396525 -1.975565 -0.319586 0.000000 0.947557 0.657371 0.382470
CSO_mp5.bmp
  3 5.296254 -18.916508 -1.745565 0.915469 0.000900 0.402387 0.693227 0.406375
  3 5.356277 -18.396510 -1.895565 0.804228 0.000000 0.594321 0.657371 0.394422
  3 5.296277 -18.396507 -1.755564 0.915469 0.000900 0.402387 0.657371 0.406375
CSO_mp5.bmp
  3 5.876278 -18.396533 -1.575565 0.756823 0.000000 0.653620 0.924303 0.912351
  3 5.756258 -18.826528 -1.425565 0.582400 0.001900 0.812900 0.976096 0.932271
  3 5.876256 -18.866534 -1.585564 0.804228 0.000000 0.594321 0.980080 0.912351
CSO_mp5.bmp
  3 5.416277 -18.406513 -3.155564 -0.707107 0.000000 0.707107 0.924303 0.721116
  3 5.296250 -19.006508 -3.275565 -0.882007 -0.005600 0.471204 0.996016 0.705179
  3 5.416250 -19.006513 -3.155565 -0.707107 0.000000 0.707107 0.996016 0.721116
CSO_mp5.bmp
  3 5.406278 -18.386513 -2.285565 -0.707107 0.000000 0.707107 0.924303 0.828685
  3 5.286249 -19.026507 -2.415565 -0.882007 -0.005600 0.471204 1.000000 0.812749
  3 5.406249 -19.026512 -2.285565 -0.707107 0.000000 0.707107 1.000000 0.828685
end
