version 1
nodes
  0 "Bone01" -1
  1 "Bone_Lefthand" 0
  2 "Bone02" 1
  3 "Bone 04" 1
  4 "Bone13" 3
  5 "Bone14" 4
  6 "Bone15" 5
  7 "Bone17" 3
  8 "Bone18" 7
  9 "Bone19" 8
  10 "Bone21" 3
  11 "Bone22" 10
  12 "Bone23" 11
  13 "Bone05" 3
  14 "Bone06" 13
  15 "Bone07" 14
  16 "Bone09" 3
  17 "Bone10" 16
  18 "Bone11" 17
  19 "Bone04" -1
  20 "Bone_Righthand" 19
  21 "Bone26" 20
  22 "Bone35" 21
  23 "Bone36" 22
  24 "Bone37" 23
  25 "Bone31" 21
  26 "Bone32" 25
  27 "Bone33" 26
  28 "Bone39" 21
  29 "Bone40" 28
  30 "Bone41" 29
  31 "Bone43" 21
  32 "Bone44" 31
  33 "Bone45" 32
  34 "Bone27" 21
  35 "Bone28" 34
  36 "Bone29" 35
end
skeleton
  time 0
    0 7.606550 1.165596 -6.193997 1.122454 -1.938838 -1.314986
    1 0.000000 -8.563282 0.000001 0.011360 0.045153 -0.172443
    2 2.329044 -3.206966 1.345590 -1.323699 1.268421 -1.465555
    3 -0.003480 -0.404830 0.000000 0.000000 0.000000 0.000000
    4 -0.519309 -2.501153 -0.278956 -0.390517 0.037668 -0.005934
    5 -0.010598 -1.208185 0.000000 -1.055925 0.000000 0.000000
    6 0.000000 -0.763066 -0.000001 -0.602148 0.000000 0.000000
    7 0.105981 -2.607132 -0.278957 -0.537311 0.054194 -0.010195
    8 0.000000 -1.250579 0.000000 -0.776677 0.000000 0.000000
    9 -0.000001 -0.932634 0.000000 -1.230461 0.000000 0.000000
    10 0.763064 -2.490553 -0.278957 -0.349065 0.000000 0.130900
    11 -0.012322 -1.280917 0.000000 -0.750491 0.000000 0.000000
    12 -0.001697 -0.749371 -0.000001 -0.907564 0.000000 0.000000
    13 0.354567 0.016268 0.318133 0.743986 -0.762908 -1.122494
    14 1.887164 0.012878 0.000000 -0.040082 -0.219749 -0.583100
    15 1.001874 -0.000270 0.000000 0.000000 0.000000 -0.532315
    16 -1.123359 -2.195091 -0.278957 -0.156504 0.013626 -0.001073
    17 0.010771 -0.963790 0.000000 -0.698121 0.000000 0.000000
    18 -0.010411 -0.631916 0.000000 -0.907581 0.000000 0.000000
    19 -4.066042 2.892905 -8.100151 0.797770 1.270890 0.558474
    20 0.089928 -8.543162 0.000000 0.079760 -0.284688 0.455199
    21 0.000000 -0.359714 0.000001 0.000000 0.000000 0.000000
    22 -0.170480 -2.636147 -0.277655 -0.200714 0.000000 0.000000
    23 0.010599 -1.261177 0.000001 -0.226910 0.000000 0.000000
    24 -0.000001 -0.943232 0.000001 -0.261812 0.000000 0.000000
    25 -0.827563 -2.508973 -0.277656 -0.322898 0.000000 0.000000
    26 0.000000 -1.292970 0.000000 0.069799 0.000000 0.000000
    27 0.000000 -0.752466 0.000001 -0.174560 0.000000 0.000000
    28 0.444212 -2.561960 -0.277654 -0.462944 -0.016288 -0.016713
    29 0.021022 -1.208186 -0.000001 -0.069824 0.000000 0.000000
    30 0.010597 -0.741867 -0.000002 -0.183272 0.000000 0.000000
    31 1.047444 -2.222821 -0.277654 -0.402674 -0.021025 -0.024371
    32 0.000000 -0.996222 -0.000001 -0.226904 0.000000 0.000000
    33 -0.000001 -0.614690 0.000000 -0.253085 0.000000 0.000000
    34 -0.308254 -0.007814 0.307167 -0.448560 -0.441228 -2.149287
    35 1.978377 0.019543 0.000001 -0.000002 -0.000010 0.357796
    36 0.982426 0.003186 0.000000 0.000000 0.000000 0.174539
  time 1
    0 7.743273 1.337476 -6.217435 0.981137 -1.953980 -1.191391
    1 0.000000 -8.563282 0.000001 0.140699 0.083911 -0.128832
    2 2.329044 -3.206966 1.345590 -1.323699 1.268421 -1.465555
    3 -0.003480 -0.404830 0.000000 0.000000 0.000000 0.000000
    4 -0.519309 -2.501153 -0.278956 -0.390517 0.037668 -0.005934
    5 -0.010598 -1.208185 0.000000 -1.055925 0.000000 0.000000
    6 0.000000 -0.763066 -0.000001 -0.602148 0.000000 0.000000
    7 0.105981 -2.607132 -0.278957 -0.537311 0.054194 -0.010195
    8 0.000000 -1.250579 0.000000 -0.776677 0.000000 0.000000
    9 -0.000001 -0.932634 0.000000 -1.230461 0.000000 0.000000
    10 0.763064 -2.490553 -0.278957 -0.349065 0.000000 0.130900
    11 -0.012322 -1.280917 0.000000 -0.750491 0.000000 0.000000
    12 -0.001697 -0.749371 -0.000001 -0.907564 0.000000 0.000000
    13 0.354567 0.016268 0.318133 0.743986 -0.762908 -1.122494
    14 1.887164 0.012878 0.000000 -0.040082 -0.219749 -0.583100
    15 1.001874 -0.000270 0.000000 0.000000 0.000000 -0.532315
    16 -1.123359 -2.195091 -0.278957 -0.156504 0.013626 -0.001073
    17 0.010771 -0.963790 0.000000 -0.698121 0.000000 0.000000
    18 -0.010411 -0.631916 0.000000 -0.907581 0.000000 0.000000
    19 -4.902005 2.361639 -8.100151 0.790237 1.318993 0.567375
    20 0.089928 -8.543162 0.000000 0.074211 -0.238799 0.423256
    21 0.000000 -0.359714 0.000001 0.000000 0.000000 0.000000
    22 -0.170480 -2.636147 -0.277655 -0.192357 0.000000 0.000000
    23 0.010599 -1.261177 0.000001 -0.221065 0.000000 0.000000
    24 -0.000001 -0.943232 0.000001 -0.255841 0.000000 0.000000
    25 -0.827563 -2.508973 -0.277656 -0.328185 0.000000 0.000000
    26 0.000000 -1.292970 0.000000 0.049251 0.000000 0.000000
    27 0.000000 -0.752466 0.000001 -0.205919 0.000000 0.000000
    28 0.444212 -2.561960 -0.277654 -0.454578 -0.016312 -0.016701
    29 0.021022 -1.208186 -0.000001 -0.064000 0.000000 0.000000
    30 0.010597 -0.741867 -0.000002 -0.177301 0.000000 0.000000
    31 1.047444 -2.222821 -0.277654 -0.394308 -0.021049 -0.024348
    32 0.000000 -0.996222 -0.000001 -0.221080 0.000000 0.000000
    33 -0.000001 -0.614690 0.000000 -0.247115 0.000000 0.000000
    34 -0.308254 -0.007814 0.307167 -0.441441 -0.448347 -2.165826
    35 1.978377 0.019543 0.000001 -0.000002 -0.000010 0.311030
    36 0.982426 0.003186 0.000000 0.000000 0.000000 0.133699
  time 2
    0 7.868277 1.497638 -6.236967 0.845666 -1.976394 -1.074796
    1 0.000000 -8.563282 0.000001 0.272114 0.116677 -0.080395
    2 2.329044 -3.206966 1.345590 -1.323699 1.268421 -1.465555
    3 -0.003480 -0.404830 0.000000 0.000000 0.000000 0.000000
    4 -0.519309 -2.501153 -0.278956 -0.390517 0.037668 -0.005934
    5 -0.010598 -1.208185 0.000000 -1.055925 0.000000 0.000000
    6 0.000000 -0.763066 -0.000001 -0.602148 0.000000 0.000000
    7 0.105981 -2.607132 -0.278957 -0.537311 0.054194 -0.010195
    8 0.000000 -1.250579 0.000000 -0.776677 0.000000 0.000000
    9 -0.000001 -0.932634 0.000000 -1.230461 0.000000 0.000000
    10 0.763064 -2.490553 -0.278957 -0.349065 0.000000 0.130900
    11 -0.012322 -1.280917 0.000000 -0.750491 0.000000 0.000000
    12 -0.001697 -0.749371 -0.000001 -0.907564 0.000000 0.000000
    13 0.354567 0.016268 0.318133 0.743986 -0.762908 -1.122494
    14 1.887164 0.012878 0.000000 -0.040082 -0.219749 -0.583100
    15 1.001874 -0.000270 0.000000 0.000000 0.000000 -0.532315
    16 -1.123359 -2.195091 -0.278957 -0.156504 0.013626 -0.001073
    17 0.010771 -0.963790 0.000000 -0.698121 0.000000 0.000000
    18 -0.010411 -0.631916 0.000000 -0.907581 0.000000 0.000000
    19 -5.652028 1.885062 -8.100151 0.771608 1.463527 0.597600
    20 0.089928 -8.543162 0.000000 0.062550 -0.190713 0.390258
    21 0.000000 -0.359714 0.000001 0.000000 0.000000 0.000000
    22 -0.170480 -2.636147 -0.277655 -0.170982 0.000000 0.000000
    23 0.010599 -1.261177 0.000001 -0.206185 0.000000 0.000000
    24 -0.000001 -0.943232 0.000001 -0.240576 0.000000 0.000000
    25 -0.827563 -2.508973 -0.277656 -0.328223 0.000000 0.000000
    26 0.000000 -1.292970 0.000000 0.032780 0.000000 0.000000
    27 0.000000 -0.752466 0.000001 -0.230535 0.000000 0.000000
    28 0.444212 -2.561960 -0.277654 -0.433190 -0.016348 -0.016653
    29 0.021022 -1.208186 -0.000001 -0.049100 0.000000 0.000000
    30 0.010597 -0.741867 -0.000002 -0.162036 0.000000 0.000000
    31 1.047444 -2.222821 -0.277654 -0.372923 -0.021133 -0.024288
    32 0.000000 -0.996222 -0.000001 -0.206180 0.000000 0.000000
    33 -0.000001 -0.614690 0.000000 -0.231849 0.000000 0.000000
    34 -0.308254 -0.007814 0.307167 -0.433603 -0.455897 -2.183779
    35 1.978377 0.019543 0.000001 -0.000002 -0.000010 0.257583
    36 0.982426 0.003186 0.000000 0.000000 0.000000 0.082227
  time 3
    0 7.981562 1.646080 -6.252592 0.721722 -2.005267 -0.970450
    1 0.000000 -8.563282 0.000001 0.324549 0.127847 -0.058902
    2 2.329044 -3.206966 1.345590 -1.323699 1.268421 -1.465555
    3 -0.003480 -0.404830 0.000000 0.000000 0.000000 0.000000
    4 -0.519309 -2.501153 -0.278956 -0.390517 0.037668 -0.005934
    5 -0.010598 -1.208185 0.000000 -1.055925 0.000000 0.000000
    6 0.000000 -0.763066 -0.000001 -0.602148 0.000000 0.000000
    7 0.105981 -2.607132 -0.278957 -0.537311 0.054194 -0.010195
    8 0.000000 -1.250579 0.000000 -0.776677 0.000000 0.000000
    9 -0.000001 -0.932634 0.000000 -1.230461 0.000000 0.000000
    10 0.763064 -2.490553 -0.278957 -0.349065 0.000000 0.130900
    11 -0.012322 -1.280917 0.000000 -0.750491 0.000000 0.000000
    12 -0.001697 -0.749371 -0.000001 -0.907564 0.000000 0.000000
    13 0.354567 0.016268 0.318133 0.743986 -0.762908 -1.122494
    14 1.887164 0.012878 0.000000 -0.040082 -0.219749 -0.583100
    15 1.001874 -0.000270 0.000000 0.000000 0.000000 -0.532315
    16 -1.123359 -2.195091 -0.278957 -0.156504 0.013626 -0.001073
    17 0.010771 -0.963790 0.000000 -0.698121 0.000000 0.000000
    18 -0.010411 -0.631916 0.000000 -0.907581 0.000000 0.000000
    19 -6.312205 1.467080 -8.100151 0.714790 1.687285 0.615835
    20 0.089928 -8.543162 0.000000 0.046254 -0.141509 0.356132
    21 0.000000 -0.359714 0.000001 0.000000 0.000000 0.000000
    22 -0.170480 -2.636147 -0.277655 -0.142136 0.000000 0.000000
    23 0.010599 -1.261177 0.000001 -0.186098 0.000000 0.000000
    24 -0.000001 -0.943232 0.000001 -0.219995 0.000000 0.000000
    25 -0.827563 -2.508973 -0.277656 -0.325275 0.000000 0.000000
    26 0.000000 -1.292970 0.000000 0.018854 0.000000 0.000000
    27 0.000000 -0.752466 0.000001 -0.251324 0.000000 0.000000
    28 0.444212 -2.561960 -0.277654 -0.404377 -0.016408 -0.016605
    29 0.021022 -1.208186 -0.000001 -0.029014 0.000000 0.000000
    30 0.010597 -0.741867 -0.000002 -0.141455 0.000000 0.000000
    31 1.047444 -2.222821 -0.277654 -0.344088 -0.021229 -0.024204
    32 0.000000 -0.996222 -0.000001 -0.186094 0.000000 0.000000
    33 -0.000001 -0.614690 0.000000 -0.211268 0.000000 0.000000
    34 -0.308254 -0.007814 0.307167 -0.425250 -0.463627 -2.202606
    35 1.978377 0.019543 0.000001 -0.000002 -0.000010 0.200296
    36 0.982426 0.003186 0.000000 0.000000 0.000000 0.024695
  time 4
    0 8.087034 1.786709 -6.260405 0.612143 -2.039102 -0.880655
    1 0.000000 -8.563282 0.000001 0.293036 0.121363 -0.069711
    2 2.329044 -3.206966 1.345590 -1.323699 1.268421 -1.465555
    3 -0.003480 -0.404830 0.000000 0.000000 0.000000 0.000000
    4 -0.519309 -2.501153 -0.278956 -0.390517 0.037668 -0.005934
    5 -0.010598 -1.208185 0.000000 -1.055925 0.000000 0.000000
    6 0.000000 -0.763066 -0.000001 -0.602148 0.000000 0.000000
    7 0.105981 -2.607132 -0.278957 -0.537311 0.054194 -0.010195
    8 0.000000 -1.250579 0.000000 -0.776677 0.000000 0.000000
    9 -0.000001 -0.932634 0.000000 -1.230461 0.000000 0.000000
    10 0.763064 -2.490553 -0.278957 -0.349065 0.000000 0.130900
    11 -0.012322 -1.280917 0.000000 -0.750491 0.000000 0.000000
    12 -0.001697 -0.749371 -0.000001 -0.907564 0.000000 0.000000
    13 0.354567 0.016268 0.318133 0.743986 -0.762908 -1.122494
    14 1.887164 0.012878 0.000000 -0.040082 -0.219749 -0.583100
    15 1.001874 -0.000270 0.000000 0.000000 0.000000 -0.532315
    16 -1.123359 -2.195091 -0.278957 -0.156504 0.013626 -0.001073
    17 0.010771 -0.963790 0.000000 -0.698121 0.000000 0.000000
    18 -0.010411 -0.631916 0.000000 -0.907581 0.000000 0.000000
    19 -6.886441 1.103788 -8.100151 0.681638 1.918525 0.661328
    20 0.089928 -8.543162 0.000000 0.026796 -0.092139 0.320938
    21 0.000000 -0.359714 0.000001 0.000000 0.000000 0.000000
    22 -0.170480 -2.636147 -0.277655 -0.111467 0.000000 0.000000
    23 0.010599 -1.261177 0.000001 -0.164736 0.000000 0.000000
    24 -0.000001 -0.943232 0.000001 -0.198078 0.000000 0.000000
    25 -0.827563 -2.508973 -0.277656 -0.321586 0.000000 0.000000
    26 0.000000 -1.292970 0.000000 0.005965 0.000000 0.000000
    27 0.000000 -0.752466 0.000001 -0.271164 0.000000 0.000000
    28 0.444212 -2.561960 -0.277654 -0.373682 -0.016480 -0.016545
    29 0.021022 -1.208186 -0.000001 -0.007652 0.000000 0.000000
    30 0.010597 -0.741867 -0.000002 -0.119538 0.000000 0.000000
    31 1.047444 -2.222821 -0.277654 -0.313420 -0.021337 -0.024132
    32 0.000000 -0.996222 -0.000001 -0.164732 0.000000 0.000000
    33 -0.000001 -0.614690 0.000000 -0.189351 0.000000 0.000000
    34 -0.308254 -0.007814 0.307167 -0.416609 -0.471285 -2.221770
    35 1.978377 0.019543 0.000001 -0.000002 -0.000010 0.142050
    36 0.982426 0.003186 0.000000 0.000000 0.000000 -0.034329
  time 5
    0 8.180787 1.911713 -6.264312 0.517431 -2.076231 -0.805688
    1 0.000000 -8.563282 0.000001 0.234214 0.108156 -0.091516
    2 2.329044 -3.206966 1.345590 -1.323699 1.268421 -1.465555
    3 -0.003480 -0.404830 0.000000 0.000000 0.000000 0.000000
    4 -0.519309 -2.501153 -0.278956 -0.390517 0.037668 -0.005934
    5 -0.010598 -1.208185 0.000000 -1.055925 0.000000 0.000000
    6 0.000000 -0.763066 -0.000001 -0.602148 0.000000 0.000000
    7 0.105981 -2.607132 -0.278957 -0.537311 0.054194 -0.010195
    8 0.000000 -1.250579 0.000000 -0.776677 0.000000 0.000000
    9 -0.000001 -0.932634 0.000000 -1.230461 0.000000 0.000000
    10 0.763064 -2.490553 -0.278957 -0.349065 0.000000 0.130900
    11 -0.012322 -1.280917 0.000000 -0.750491 0.000000 0.000000
    12 -0.001697 -0.749371 -0.000001 -0.907564 0.000000 0.000000
    13 0.354567 0.016268 0.318133 0.743986 -0.762908 -1.122494
    14 1.887164 0.012878 0.000000 -0.040082 -0.219749 -0.583100
    15 1.001874 -0.000270 0.000000 0.000000 0.000000 -0.532315
    16 -1.123359 -2.195091 -0.278957 -0.156504 0.013626 -0.001073
    17 0.010771 -0.963790 0.000000 -0.698121 0.000000 0.000000
    18 -0.010411 -0.631916 0.000000 -0.907581 0.000000 0.000000
    19 -7.370831 0.795185 -8.100151 0.641938 2.149166 0.703607
    20 0.089928 -8.543162 0.000000 0.005705 -0.043494 0.284898
    21 0.000000 -0.359714 0.000001 0.000000 0.000000 0.000000
    22 -0.170480 -2.636147 -0.277655 -0.084496 0.000000 0.000000
    23 0.010599 -1.261177 0.000001 -0.145946 0.000000 0.000000
    24 -0.000001 -0.943232 0.000001 -0.178832 0.000000 0.000000
    25 -0.827563 -2.508973 -0.277656 -0.319380 0.000000 0.000000
    26 0.000000 -1.292970 0.000000 -0.007443 0.000000 0.000000
    27 0.000000 -0.752466 0.000001 -0.292901 0.000000 0.000000
    28 0.444212 -2.561960 -0.277654 -0.346725 -0.016528 -0.016497
    29 0.021022 -1.208186 -0.000001 0.011137 0.000000 0.000000
    30 0.010597 -0.741867 -0.000002 -0.100292 0.000000 0.000000
    31 1.047444 -2.222821 -0.277654 -0.286465 -0.021433 -0.024060
    32 0.000000 -0.996222 -0.000001 -0.145942 0.000000 0.000000
    33 -0.000001 -0.614690 0.000000 -0.170105 0.000000 0.000000
    34 -0.308254 -0.007814 0.307167 -0.407944 -0.478656 -2.240706
    35 1.978377 0.019543 0.000001 -0.000002 -0.000010 0.085723
    36 0.982426 0.003186 0.000000 0.000000 0.000000 -0.090346
  time 6
    0 8.262820 2.028904 -6.260405 0.436917 -2.114899 -0.744351
    1 0.000000 -8.563282 0.000001 0.158072 0.089041 -0.118914
    2 2.329044 -3.206966 1.345590 -1.323699 1.268421 -1.465555
    3 -0.003480 -0.404830 0.000000 0.000000 0.000000 0.000000
    4 -0.519309 -2.501153 -0.278956 -0.390517 0.037668 -0.005934
    5 -0.010598 -1.208185 0.000000 -1.055925 0.000000 0.000000
    6 0.000000 -0.763066 -0.000001 -0.602148 0.000000 0.000000
    7 0.105981 -2.607132 -0.278957 -0.537311 0.054194 -0.010195
    8 0.000000 -1.250579 0.000000 -0.776677 0.000000 0.000000
    9 -0.000001 -0.932634 0.000000 -1.230461 0.000000 0.000000
    10 0.763064 -2.490553 -0.278957 -0.349065 0.000000 0.130900
    11 -0.012322 -1.280917 0.000000 -0.750491 0.000000 0.000000
    12 -0.001697 -0.749371 -0.000001 -0.907564 0.000000 0.000000
    13 0.354567 0.016268 0.318133 0.743986 -0.762908 -1.122494
    14 1.887164 0.012878 0.000000 -0.040082 -0.219749 -0.583100
    15 1.001874 -0.000270 0.000000 0.000000 0.000000 -0.532315
    16 -1.123359 -2.195091 -0.278957 -0.156504 0.013626 -0.001073
    17 0.010771 -0.963790 0.000000 -0.698121 0.000000 0.000000
    18 -0.010411 -0.631916 0.000000 -0.907581 0.000000 0.000000
    19 -7.769280 0.545177 -8.100151 0.598590 2.378909 0.748049
    20 0.089928 -8.543162 0.000000 -0.015491 0.003700 0.248404
    21 0.000000 -0.359714 0.000001 0.000000 0.000000 0.000000
    22 -0.170480 -2.636147 -0.277655 -0.066818 0.000000 0.000000
    23 0.010599 -1.261177 0.000001 -0.133638 0.000000 0.000000
    24 -0.000001 -0.943232 0.000001 -0.166211 0.000000 0.000000
    25 -0.827563 -2.508973 -0.277656 -0.320939 0.000000 0.000000
    26 0.000000 -1.292970 0.000000 -0.022900 0.000000 0.000000
    27 0.000000 -0.752466 0.000001 -0.319449 0.000000 0.000000
    28 0.444212 -2.561960 -0.277654 -0.329075 -0.016576 -0.016461
    29 0.021022 -1.208186 -0.000001 0.023444 0.000000 0.000000
    30 0.010597 -0.741867 -0.000002 -0.087671 0.000000 0.000000
    31 1.047444 -2.222821 -0.277654 -0.268792 -0.021504 -0.024024
    32 0.000000 -0.996222 -0.000001 -0.133636 0.000000 0.000000
    33 -0.000001 -0.614690 0.000000 -0.157484 0.000000 0.000000
    34 -0.308254 -0.007814 0.307167 -0.399543 -0.485511 -2.258826
    35 1.978377 0.019543 0.000001 -0.000002 -0.000010 0.034176
    36 0.982426 0.003186 0.000000 0.000000 0.000000 -0.138787
  time 7
    0 8.337041 2.138282 -6.252592 0.369182 -2.153397 -0.694711
    1 0.000000 -8.563282 0.000001 0.074413 0.065611 -0.146717
    2 2.329044 -3.206966 1.345590 -1.323699 1.268421 -1.465555
    3 -0.003480 -0.404830 0.000000 0.000000 0.000000 0.000000
    4 -0.519309 -2.501153 -0.278956 -0.390517 0.037668 -0.005934
    5 -0.010598 -1.208185 0.000000 -1.055925 0.000000 0.000000
    6 0.000000 -0.763066 -0.000001 -0.602148 0.000000 0.000000
    7 0.105981 -2.607132 -0.278957 -0.537311 0.054194 -0.010195
    8 0.000000 -1.250579 0.000000 -0.776677 0.000000 0.000000
    9 -0.000001 -0.932634 0.000000 -1.230461 0.000000 0.000000
    10 0.763064 -2.490553 -0.278957 -0.349065 0.000000 0.130900
    11 -0.012322 -1.280917 0.000000 -0.750491 0.000000 0.000000
    12 -0.001697 -0.749371 -0.000001 -0.907564 0.000000 0.000000
    13 0.354567 0.016268 0.318133 0.743986 -0.762908 -1.122494
    14 1.887164 0.012878 0.000000 -0.040082 -0.219749 -0.583100
    15 1.001874 -0.000270 0.000000 0.000000 0.000000 -0.532315
    16 -1.123359 -2.195091 -0.278957 -0.156504 0.013626 -0.001073
    17 0.010771 -0.963790 0.000000 -0.698121 0.000000 0.000000
    18 -0.010411 -0.631916 0.000000 -0.907581 0.000000 0.000000
    19 -8.077883 0.349859 -8.100151 0.550492 2.607081 0.796756
    20 0.089928 -8.543162 0.000000 -0.035072 0.048844 0.212070
    21 0.000000 -0.359714 0.000001 0.000000 0.000000 0.000000
    22 -0.170480 -2.636147 -0.277655 -0.064032 0.000000 0.000000
    23 0.010599 -1.261177 0.000001 -0.131704 0.000000 0.000000
    24 -0.000001 -0.943232 0.000001 -0.164221 0.000000 0.000000
    25 -0.827563 -2.508973 -0.277656 -0.328451 0.000000 0.000000
    26 0.000000 -1.292970 0.000000 -0.041916 0.000000 0.000000
    27 0.000000 -0.752466 0.000001 -0.353687 0.000000 0.000000
    28 0.444212 -2.561960 -0.277654 -0.326278 -0.016576 -0.016461
    29 0.021022 -1.208186 -0.000001 0.025379 0.000000 0.000000
    30 0.010597 -0.741867 -0.000002 -0.085681 0.000000 0.000000
    31 1.047444 -2.222821 -0.277654 -0.265996 -0.021516 -0.024012
    32 0.000000 -0.996222 -0.000001 -0.131701 0.000000 0.000000
    33 -0.000001 -0.614690 0.000000 -0.155494 0.000000 0.000000
    34 -0.308254 -0.007814 0.307167 -0.391705 -0.491671 -2.275533
    35 1.978377 0.019543 0.000001 -0.000002 -0.000010 -0.009711
    36 0.982426 0.003186 0.000000 0.000000 0.000000 -0.175081
  time 8
    0 8.399543 2.232035 -6.236967 0.312805 -2.190140 -0.655109
    1 0.000000 -8.563282 0.000001 -0.007301 0.040659 -0.170506
    2 2.329044 -3.206966 1.345590 -1.323699 1.268421 -1.465555
    3 -0.003480 -0.404830 0.000000 0.000000 0.000000 0.000000
    4 -0.519309 -2.501153 -0.278956 -0.390517 0.037668 -0.005934
    5 -0.010598 -1.208185 0.000000 -1.055925 0.000000 0.000000
    6 0.000000 -0.763066 -0.000001 -0.602148 0.000000 0.000000
    7 0.105981 -2.607132 -0.278957 -0.537311 0.054194 -0.010195
    8 0.000000 -1.250579 0.000000 -0.776677 0.000000 0.000000
    9 -0.000001 -0.932634 0.000000 -1.230461 0.000000 0.000000
    10 0.763064 -2.490553 -0.278957 -0.349065 0.000000 0.130900
    11 -0.012322 -1.280917 0.000000 -0.750491 0.000000 0.000000
    12 -0.001697 -0.749371 -0.000001 -0.907564 0.000000 0.000000
    13 0.354567 0.016268 0.318133 0.743986 -0.762908 -1.122494
    14 1.887164 0.012878 0.000000 -0.040082 -0.219749 -0.583100
    15 1.001874 -0.000270 0.000000 0.000000 0.000000 -0.532315
    16 -1.123359 -2.195091 -0.278957 -0.156504 0.013626 -0.001073
    17 0.010771 -0.963790 0.000000 -0.698121 0.000000 0.000000
    18 -0.010411 -0.631916 0.000000 -0.907581 0.000000 0.000000
    19 -8.296640 0.209229 -8.100151 0.495539 2.832934 0.852139
    20 0.089928 -8.543162 0.000000 -0.051333 0.091481 0.176643
    21 0.000000 -0.359714 0.000001 0.000000 0.000000 0.000000
    22 -0.170480 -2.636147 -0.277655 -0.081710 0.000000 0.000000
    23 0.010599 -1.261177 0.000001 -0.143991 0.000000 0.000000
    24 -0.000001 -0.943232 0.000001 -0.176842 0.000000 0.000000
    25 -0.827563 -2.508973 -0.277656 -0.344216 0.000000 0.000000
    26 0.000000 -1.292970 0.000000 -0.066045 0.000000 0.000000
    27 0.000000 -0.752466 0.000001 -0.398530 0.000000 0.000000
    28 0.444212 -2.561960 -0.277654 -0.343952 -0.016540 -0.016497
    29 0.021022 -1.208186 -0.000001 0.013072 0.000000 0.000000
    30 0.010597 -0.741867 -0.000002 -0.098302 0.000000 0.000000
    31 1.047444 -2.222821 -0.277654 -0.283668 -0.021445 -0.024060
    32 0.000000 -0.996222 -0.000001 -0.144008 0.000000 0.000000
    33 -0.000001 -0.614690 0.000000 -0.168115 0.000000 0.000000
    34 -0.308254 -0.007814 0.307167 -0.384742 -0.496956 -2.290202
    35 1.978377 0.019543 0.000001 -0.000002 -0.000010 -0.043115
    36 0.982426 0.003186 0.000000 0.000000 0.000000 -0.194708
  time 9
    0 8.450326 2.317975 -6.217435 0.266619 -2.223676 -0.623704
    1 0.000000 -8.563282 0.000001 -0.078134 0.018032 -0.186782
    2 2.329044 -3.206966 1.345590 -1.323699 1.268421 -1.465555
    3 -0.003480 -0.404830 0.000000 0.000000 0.000000 0.000000
    4 -0.519309 -2.501153 -0.278956 -0.390517 0.037668 -0.005934
    5 -0.010598 -1.208185 0.000000 -1.055925 0.000000 0.000000
    6 0.000000 -0.763066 -0.000001 -0.602148 0.000000 0.000000
    7 0.105981 -2.607132 -0.278957 -0.537311 0.054194 -0.010195
    8 0.000000 -1.250579 0.000000 -0.776677 0.000000 0.000000
    9 -0.000001 -0.932634 0.000000 -1.230461 0.000000 0.000000
    10 0.763064 -2.490553 -0.278957 -0.349065 0.000000 0.130900
    11 -0.012322 -1.280917 0.000000 -0.750491 0.000000 0.000000
    12 -0.001697 -0.749371 -0.000001 -0.907564 0.000000 0.000000
    13 0.354567 0.016268 0.318133 0.743986 -0.762908 -1.122494
    14 1.887164 0.012878 0.000000 -0.040082 -0.219749 -0.583100
    15 1.001874 -0.000270 0.000000 0.000000 0.000000 -0.532315
    16 -1.123359 -2.195091 -0.278957 -0.156504 0.013626 -0.001073
    17 0.010771 -0.963790 0.000000 -0.698121 0.000000 0.000000
    18 -0.010411 -0.631916 0.000000 -0.907581 0.000000 0.000000
    19 -8.429457 0.127195 -8.100151 0.430661 3.055421 0.917350
    20 0.089928 -8.543162 0.000000 -0.062396 0.131279 0.143056
    21 0.000000 -0.359714 0.000001 0.000000 0.000000 0.000000
    22 -0.170480 -2.636147 -0.277655 -0.125422 0.000000 0.000000
    23 0.010599 -1.261177 0.000001 -0.174450 0.000000 0.000000
    24 -0.000001 -0.943232 0.000001 -0.208028 0.000000 0.000000
    25 -0.827563 -2.508973 -0.277656 -0.370440 0.000000 0.000000
    26 0.000000 -1.292970 0.000000 -0.096843 0.000000 0.000000
    27 0.000000 -0.752466 0.000001 -0.456753 0.000000 0.000000
    28 0.444212 -2.561960 -0.277654 -0.387643 -0.016444 -0.016569
    29 0.021022 -1.208186 -0.000001 -0.017366 0.000000 0.000000
    30 0.010597 -0.741867 -0.000002 -0.129488 0.000000 0.000000
    31 1.047444 -2.222821 -0.277654 -0.327355 -0.021289 -0.024168
    32 0.000000 -0.996222 -0.000001 -0.174446 0.000000 0.000000
    33 -0.000001 -0.614690 0.000000 -0.199301 0.000000 0.000000
    34 -0.308254 -0.007814 0.307167 -0.378990 -0.501199 -2.302234
    35 1.978377 0.019543 0.000001 -0.000002 -0.000010 -0.063120
    36 0.982426 0.003186 0.000000 0.000000 0.000000 -0.193145
  time 10
    0 8.493296 2.392196 -6.193997 0.229702 -2.252592 -0.599206
    1 0.000000 -8.563282 0.000001 -0.129307 0.002176 -0.193014
    2 2.329044 -3.206966 1.345590 -1.323699 1.268421 -1.465555
    3 -0.003480 -0.404830 0.000000 0.000000 0.000000 0.000000
    4 -0.519309 -2.501153 -0.278956 -0.390517 0.037668 -0.005934
    5 -0.010598 -1.208185 0.000000 -1.055925 0.000000 0.000000
    6 0.000000 -0.763066 -0.000001 -0.602148 0.000000 0.000000
    7 0.105981 -2.607132 -0.278957 -0.537311 0.054194 -0.010195
    8 0.000000 -1.250579 0.000000 -0.776677 0.000000 0.000000
    9 -0.000001 -0.932634 0.000000 -1.230461 0.000000 0.000000
    10 0.763064 -2.490553 -0.278957 -0.349065 0.000000 0.130900
    11 -0.012322 -1.280917 0.000000 -0.750491 0.000000 0.000000
    12 -0.001697 -0.749371 -0.000001 -0.907564 0.000000 0.000000
    13 0.354567 0.016268 0.318133 0.743986 -0.762908 -1.122494
    14 1.887164 0.012878 0.000000 -0.040082 -0.219749 -0.583100
    15 1.001874 -0.000270 0.000000 0.000000 0.000000 -0.532315
    16 -1.123359 -2.195091 -0.278957 -0.156504 0.013626 -0.001073
    17 0.010771 -0.963790 0.000000 -0.698121 0.000000 0.000000
    18 -0.010411 -0.631916 0.000000 -0.907581 0.000000 0.000000
    19 -8.472427 0.095945 -8.100151 0.351108 3.272745 0.997148
    20 0.089928 -8.543162 0.000000 -0.066277 0.168011 0.112401
    21 0.000000 -0.359714 0.000001 0.000000 0.000000 0.000000
    22 -0.170480 -2.636147 -0.277655 -0.200714 0.000000 0.000000
    23 0.010599 -1.261177 0.000001 -0.226910 0.000000 0.000000
    24 -0.000001 -0.943232 0.000001 -0.261812 0.000000 0.000000
    25 -0.827563 -2.508973 -0.277656 -0.409367 0.000000 0.000000
    26 0.000000 -1.292970 0.000000 -0.135793 0.000000 0.000000
    27 0.000000 -0.752466 0.000001 -0.531374 0.000000 0.000000
    28 0.444212 -2.561960 -0.277654 -0.462944 -0.016288 -0.016713
    29 0.021022 -1.208186 -0.000001 -0.069824 0.000000 0.000000
    30 0.010597 -0.741867 -0.000002 -0.183272 0.000000 0.000000
    31 1.047444 -2.222821 -0.277654 -0.402674 -0.021025 -0.024371
    32 0.000000 -0.996222 -0.000001 -0.226904 0.000000 0.000000
    33 -0.000001 -0.614690 0.000000 -0.253085 0.000000 0.000000
    34 -0.308254 -0.007814 0.307167 -0.374771 -0.504231 -2.310983
    35 1.978377 0.019543 0.000001 -0.000002 -0.000010 -0.066903
    36 0.982426 0.003186 0.000000 0.000000 0.000000 -0.165797
  time 11
    0 8.520641 2.466417 -6.162746 0.205231 -2.269488 -0.581247
    1 0.000000 -8.563282 0.000001 -0.160978 -0.005302 -0.187235
    2 2.329044 -3.206966 1.345590 -1.323699 1.268421 -1.465555
    3 -0.003480 -0.404830 0.000000 0.000000 0.000000 0.000000
    4 -0.519309 -2.501153 -0.278956 -0.390517 0.037668 -0.005934
    5 -0.010598 -1.208185 0.000000 -1.055925 0.000000 0.000000
    6 0.000000 -0.763066 -0.000001 -0.602148 0.000000 0.000000
    7 0.105981 -2.607132 -0.278957 -0.537311 0.054194 -0.010195
    8 0.000000 -1.250579 0.000000 -0.776677 0.000000 0.000000
    9 -0.000001 -0.932634 0.000000 -1.230461 0.000000 0.000000
    10 0.763064 -2.490553 -0.278957 -0.349065 0.000000 0.130900
    11 -0.012322 -1.280917 0.000000 -0.750491 0.000000 0.000000
    12 -0.001697 -0.749371 -0.000001 -0.907564 0.000000 0.000000
    13 0.354567 0.016268 0.318133 0.743986 -0.762908 -1.122494
    14 1.887164 0.012878 0.000000 -0.040082 -0.219749 -0.583100
    15 1.001874 -0.000270 0.000000 0.000000 0.000000 -0.532315
    16 -1.123359 -2.195091 -0.278957 -0.156504 0.013626 -0.001073
    17 0.010771 -0.963790 0.000000 -0.698121 0.000000 0.000000
    18 -0.010411 -0.631916 0.000000 -0.907581 0.000000 0.000000
    19 -8.183355 -0.064217 -8.143121 0.346799 3.273119 0.998013
    20 0.089928 -8.543162 0.000000 -0.060939 0.201491 0.085905
    21 0.000000 -0.359714 0.000001 0.000000 0.000000 0.000000
    22 -0.170480 -2.636147 -0.277655 -0.435571 0.000000 0.000000
    23 0.010599 -1.261177 0.000001 -0.366529 0.000000 0.000000
    24 -0.000001 -0.943232 0.000001 -0.371447 0.000000 0.000000
    25 -0.827563 -2.508973 -0.277656 -0.511277 0.000000 0.000000
    26 0.000000 -1.292970 0.000000 -0.184452 0.000000 0.000000
    27 0.000000 -0.752466 0.000001 -0.654491 0.000000 0.000000
    28 0.444212 -2.561960 -0.277654 -0.700230 -0.015917 -0.017049
    29 0.021022 -1.208186 -0.000001 -0.209459 0.000000 0.000000
    30 0.010597 -0.741867 -0.000002 -0.292907 0.000000 0.000000
    31 1.047444 -2.222821 -0.277654 -0.652531 -0.020342 -0.024851
    32 0.000000 -0.996222 -0.000001 -0.366539 0.000000 0.000000
    33 -0.000001 -0.614690 0.000000 -0.362720 0.000000 0.000000
    34 -0.308254 -0.007814 0.307167 -0.377575 -0.502217 -2.305159
    35 1.978377 0.019543 0.000001 -0.000002 -0.000010 -0.022263
    36 0.982426 0.003186 0.000000 0.000000 0.000000 -0.080990
  time 12
    0 8.528454 2.540638 -6.123682 0.193455 -2.271626 -0.568998
    1 0.000000 -8.563282 0.000001 -0.180690 -0.006668 -0.171865
    2 2.329044 -3.206966 1.345590 -1.323699 1.268421 -1.465555
    3 -0.003480 -0.404830 0.000000 0.000000 0.000000 0.000000
    4 -0.519309 -2.501153 -0.278956 -0.390517 0.037668 -0.005934
    5 -0.010598 -1.208185 0.000000 -1.055925 0.000000 0.000000
    6 0.000000 -0.763066 -0.000001 -0.602148 0.000000 0.000000
    7 0.105981 -2.607132 -0.278957 -0.537311 0.054194 -0.010195
    8 0.000000 -1.250579 0.000000 -0.776677 0.000000 0.000000
    9 -0.000001 -0.932634 0.000000 -1.230461 0.000000 0.000000
    10 0.763064 -2.490553 -0.278957 -0.349065 0.000000 0.130900
    11 -0.012322 -1.280917 0.000000 -0.750491 0.000000 0.000000
    12 -0.001697 -0.749371 -0.000001 -0.907564 0.000000 0.000000
    13 0.354567 0.016268 0.318133 0.743986 -0.762908 -1.122494
    14 1.887164 0.012878 0.000000 -0.040082 -0.219749 -0.583100
    15 1.001874 -0.000270 0.000000 0.000000 0.000000 -0.532315
    16 -1.123359 -2.195091 -0.278957 -0.156504 0.013626 -0.001073
    17 0.010771 -0.963790 0.000000 -0.698121 0.000000 0.000000
    18 -0.010411 -0.631916 0.000000 -0.907581 0.000000 0.000000
    19 -7.933348 -0.208752 -8.182185 0.333871 3.274242 1.000733
    20 0.089928 -8.543162 0.000000 -0.044273 0.231510 0.064867
    21 0.000000 -0.359714 0.000001 0.000000 0.000000 0.000000
    22 -0.170480 -2.636147 -0.277655 -0.842439 0.000000 0.000000
    23 0.010599 -1.261177 0.000001 -0.606911 0.000000 0.000000
    24 -0.000001 -0.943232 0.000001 -0.547749 0.000000 0.000000
    25 -0.827563 -2.508973 -0.277656 -0.681571 0.000000 0.000000
    26 0.000000 -1.292970 0.000000 -0.287071 0.000000 0.000000
    27 0.000000 -0.752466 0.000001 -0.835620 0.000000 0.000000
    28 0.444212 -2.561960 -0.277654 -1.111171 -0.015498 -0.017816
    29 0.021022 -1.208186 -0.000001 -0.449832 0.000000 0.000000
    30 0.010597 -0.741867 -0.000002 -0.469209 0.000000 0.000000
    31 1.047444 -2.222821 -0.277654 -1.084445 -0.019515 -0.026073
    32 0.000000 -0.996222 -0.000001 -0.606912 0.000000 0.000000
    33 -0.000001 -0.614690 0.000000 -0.539022 0.000000 0.000000
    34 -0.308254 -0.007814 0.307167 -0.388254 -0.494320 -2.282831
    35 1.978377 0.019543 0.000001 -0.000002 -0.000010 0.080811
    36 0.982426 0.003186 0.000000 0.000000 0.000000 0.071548
  time 13
    0 8.520641 2.607046 -6.080712 0.190448 -2.264825 -0.561170
    1 0.000000 -8.563282 0.000001 -0.190625 -0.003457 -0.151122
    2 2.329044 -3.206966 1.345590 -1.323699 1.268421 -1.465555
    3 -0.003480 -0.404830 0.000000 0.000000 0.000000 0.000000
    4 -0.519309 -2.501153 -0.278956 -0.390517 0.037668 -0.005934
    5 -0.010598 -1.208185 0.000000 -1.055925 0.000000 0.000000
    6 0.000000 -0.763066 -0.000001 -0.602148 0.000000 0.000000
    7 0.105981 -2.607132 -0.278957 -0.537311 0.054194 -0.010195
    8 0.000000 -1.250579 0.000000 -0.776677 0.000000 0.000000
    9 -0.000001 -0.932634 0.000000 -1.230461 0.000000 0.000000
    10 0.763064 -2.490553 -0.278957 -0.349065 0.000000 0.130900
    11 -0.012322 -1.280917 0.000000 -0.750491 0.000000 0.000000
    12 -0.001697 -0.749371 -0.000001 -0.907564 0.000000 0.000000
    13 0.354567 0.016268 0.318133 0.743986 -0.762908 -1.122494
    14 1.887164 0.012878 0.000000 -0.040082 -0.219749 -0.583100
    15 1.001874 -0.000270 0.000000 0.000000 0.000000 -0.532315
    16 -1.123359 -2.195091 -0.278957 -0.156504 0.013626 -0.001073
    17 0.010771 -0.963790 0.000000 -0.698121 0.000000 0.000000
    18 -0.010411 -0.631916 0.000000 -0.907581 0.000000 0.000000
    19 -7.722404 -0.325943 -8.217342 0.317295 3.275588 1.004195
    20 0.089928 -8.543162 0.000000 0.004546 0.255895 0.053238
    21 0.000000 -0.359714 0.000001 0.000000 0.000000 0.000000
    22 -0.170480 -2.636147 -0.277655 -1.253915 0.000000 0.000000
    23 0.010599 -1.261177 0.000001 -0.874644 0.000000 0.000000
    24 -0.000001 -0.943232 0.000001 -0.761050 0.000000 0.000000
    25 -0.827563 -2.508973 -0.277656 -0.855288 0.000000 0.000000
    26 0.000000 -1.292970 0.000000 -0.450390 0.000000 0.000000
    27 0.000000 -0.752466 0.000001 -1.043401 0.000000 0.000000
    28 0.444212 -2.561960 -0.277654 -1.523437 -0.015474 -0.018942
    29 0.021022 -1.208186 -0.000001 -0.717557 0.000000 0.000000
    30 0.010597 -0.741867 -0.000002 -0.682510 0.000000 0.000000
    31 1.047444 -2.222821 -0.277654 -1.500849 -0.019359 -0.027895
    32 0.000000 -0.996222 -0.000001 -0.874637 0.000000 0.000000
    33 -0.000001 -0.614690 0.000000 -0.752323 0.000000 0.000000
    34 -0.308254 -0.007814 0.307167 -0.400238 -0.484960 -2.257352
    35 1.978377 0.019543 0.000001 -0.000002 -0.000010 0.212002
    36 0.982426 0.003186 0.000000 0.000000 0.000000 0.264229
  time 14
    0 8.512828 2.657829 -6.029929 0.192786 -2.255158 -0.557301
    1 0.000000 -8.563282 0.000001 -0.192938 0.002572 -0.129020
    2 2.329044 -3.206966 1.345590 -1.323699 1.268421 -1.465555
    3 -0.003480 -0.404830 0.000000 0.000000 0.000000 0.000000
    4 -0.519309 -2.501153 -0.278956 -0.390517 0.037668 -0.005934
    5 -0.010598 -1.208185 0.000000 -1.055925 0.000000 0.000000
    6 0.000000 -0.763066 -0.000001 -0.602148 0.000000 0.000000
    7 0.105981 -2.607132 -0.278957 -0.537311 0.054194 -0.010195
    8 0.000000 -1.250579 0.000000 -0.776677 0.000000 0.000000
    9 -0.000001 -0.932634 0.000000 -1.230461 0.000000 0.000000
    10 0.763064 -2.490553 -0.278957 -0.349065 0.000000 0.130900
    11 -0.012322 -1.280917 0.000000 -0.750491 0.000000 0.000000
    12 -0.001697 -0.749371 -0.000001 -0.907564 0.000000 0.000000
    13 0.354567 0.016268 0.318133 0.743986 -0.762908 -1.122494
    14 1.887164 0.012878 0.000000 -0.040082 -0.219749 -0.583100
    15 1.001874 -0.000270 0.000000 0.000000 0.000000 -0.532315
    16 -1.123359 -2.195091 -0.278957 -0.156504 0.013626 -0.001073
    17 0.010771 -0.963790 0.000000 -0.698121 0.000000 0.000000
    18 -0.010411 -0.631916 0.000000 -0.907581 0.000000 0.000000
    19 -7.546617 -0.423603 -8.244687 0.300720 3.276935 1.007718
    20 0.089928 -8.543162 0.000000 0.095161 0.273236 0.053618
    21 0.000000 -0.359714 0.000001 0.000000 0.000000 0.000000
    22 -0.170480 -2.636147 -0.277655 -1.502467 0.000000 0.000000
    23 0.010599 -1.261177 0.000001 -1.096277 0.000000 0.000000
    24 -0.000001 -0.943232 0.000001 -0.981682 0.000000 0.000000
    25 -0.827563 -2.508973 -0.277656 -0.967486 0.000000 0.000000
    26 0.000000 -1.292970 0.000000 -0.619812 0.000000 0.000000
    27 0.000000 -0.752466 0.000001 -1.246653 0.000000 0.000000
    28 0.444212 -2.561960 -0.277654 -1.764581 -0.015869 -0.020093
    29 0.021022 -1.208186 -0.000001 -0.939202 0.000000 0.000000
    30 0.010597 -0.741867 -0.000002 -0.903142 0.000000 0.000000
    31 1.047444 -2.222821 -0.277654 -1.704175 -0.019875 -0.029609
    32 0.000000 -0.996222 -0.000001 -1.096282 0.000000 0.000000
    33 -0.000001 -0.614690 0.000000 -0.972955 0.000000 0.000000
    34 -0.308254 -0.007814 0.307167 -0.407513 -0.479015 -2.241652
    35 1.978377 0.019543 0.000001 -0.000002 -0.000010 0.340991
    36 0.982426 0.003186 0.000000 0.000000 0.000000 0.469441
  time 15
    0 8.501109 2.685174 -5.975240 0.197631 -2.248656 -0.556933
    1 0.000000 -8.563282 0.000001 -0.189889 0.009667 -0.109557
    2 2.329044 -3.206966 1.345590 -1.323699 1.268421 -1.465555
    3 -0.003480 -0.404830 0.000000 0.000000 0.000000 0.000000
    4 -0.519309 -2.501153 -0.278956 -0.390517 0.037668 -0.005934
    5 -0.010598 -1.208185 0.000000 -1.055925 0.000000 0.000000
    6 0.000000 -0.763066 -0.000001 -0.602148 0.000000 0.000000
    7 0.105981 -2.607132 -0.278957 -0.537311 0.054194 -0.010195
    8 0.000000 -1.250579 0.000000 -0.776677 0.000000 0.000000
    9 -0.000001 -0.932634 0.000000 -1.230461 0.000000 0.000000
    10 0.763064 -2.490553 -0.278957 -0.349065 0.000000 0.130900
    11 -0.012322 -1.280917 0.000000 -0.750491 0.000000 0.000000
    12 -0.001697 -0.749371 -0.000001 -0.907564 0.000000 0.000000
    13 0.354567 0.016268 0.318133 0.743986 -0.762908 -1.122494
    14 1.887164 0.012878 0.000000 -0.040082 -0.219749 -0.583100
    15 1.001874 -0.000270 0.000000 0.000000 0.000000 -0.532315
    16 -1.123359 -2.195091 -0.278957 -0.156504 0.013626 -0.001073
    17 0.010771 -0.963790 0.000000 -0.698121 0.000000 0.000000
    18 -0.010411 -0.631916 0.000000 -0.907581 0.000000 0.000000
    19 -7.413801 -0.501730 -8.268125 0.284127 3.278207 1.011241
    20 0.089928 -8.543162 0.000000 0.212556 0.283760 0.064119
    21 0.000000 -0.359714 0.000001 0.000000 0.000000 0.000000
    22 -0.170480 -2.636147 -0.277655 -1.593744 0.000000 0.000000
    23 0.010599 -1.261177 0.000001 -1.198398 0.000000 0.000000
    24 -0.000001 -0.943232 0.000001 -1.179900 0.000000 0.000000
    25 -0.827563 -2.508973 -0.277656 -1.020276 0.000000 0.000000
    26 0.000000 -1.292970 0.000000 -0.740598 0.000000 0.000000
    27 0.000000 -0.752466 0.000001 -1.414051 0.000000 0.000000
    28 0.444212 -2.561960 -0.277654 -1.839063 -0.016348 -0.021195
    29 0.021022 -1.208186 -0.000001 -1.041320 0.000000 0.000000
    30 0.010597 -0.741867 -0.000002 -1.101360 0.000000 0.000000
    31 1.047444 -2.222821 -0.277654 -1.723633 -0.020462 -0.031191
    32 0.000000 -0.996222 -0.000001 -1.198400 0.000000 0.000000
    33 -0.000001 -0.614690 0.000000 -1.171173 0.000000 0.000000
    34 -0.308254 -0.007814 0.307167 -0.410593 -0.476439 -2.234965
    35 1.978377 0.019543 0.000001 -0.000002 -0.000010 0.437440
    36 0.982426 0.003186 0.000000 0.000000 0.000000 0.659524
  time 16
    0 8.493296 2.669548 -5.912738 0.201723 -2.251479 -0.559696
    1 0.000000 -8.563282 0.000001 -0.183871 0.016222 -0.096702
    2 2.329044 -3.206966 1.345590 -1.323699 1.268421 -1.465555
    3 -0.003480 -0.404830 0.000000 0.000000 0.000000 0.000000
    4 -0.519309 -2.501153 -0.278956 -0.390517 0.037668 -0.005934
    5 -0.010598 -1.208185 0.000000 -1.055925 0.000000 0.000000
    6 0.000000 -0.763066 -0.000001 -0.602148 0.000000 0.000000
    7 0.105981 -2.607132 -0.278957 -0.537311 0.054194 -0.010195
    8 0.000000 -1.250579 0.000000 -0.776677 0.000000 0.000000
    9 -0.000001 -0.932634 0.000000 -1.230461 0.000000 0.000000
    10 0.763064 -2.490553 -0.278957 -0.349065 0.000000 0.130900
    11 -0.012322 -1.280917 0.000000 -0.750491 0.000000 0.000000
    12 -0.001697 -0.749371 -0.000001 -0.907564 0.000000 0.000000
    13 0.354567 0.016268 0.318133 0.743986 -0.762908 -1.122494
    14 1.887164 0.012878 0.000000 -0.040082 -0.219749 -0.583100
    15 1.001874 -0.000270 0.000000 0.000000 0.000000 -0.532315
    16 -1.123359 -2.195091 -0.278957 -0.156504 0.013626 -0.001073
    17 0.010771 -0.963790 0.000000 -0.698121 0.000000 0.000000
    18 -0.010411 -0.631916 0.000000 -0.907581 0.000000 0.000000
    19 -7.316141 -0.556419 -8.279844 0.267517 3.279403 1.014826
    20 0.089928 -8.543162 0.000000 0.341138 0.287634 0.081783
    21 0.000000 -0.359714 0.000001 0.000000 0.000000 0.000000
    22 -0.170480 -2.636147 -0.277655 -1.648833 0.000000 0.000000
    23 0.010599 -1.261177 0.000001 -1.206136 0.000000 0.000000
    24 -0.000001 -0.943232 0.000001 -1.326011 0.000000 0.000000
    25 -0.827563 -2.508973 -0.277656 -1.060249 0.000000 0.000000
    26 0.000000 -1.292970 0.000000 -0.818664 0.000000 0.000000
    27 0.000000 -0.752466 0.000001 -1.514343 0.000000 0.000000
    28 0.444212 -2.561960 -0.277654 -1.871638 -0.016876 -0.022382
    29 0.021022 -1.208186 -0.000001 -1.049058 0.000000 0.000000
    30 0.010597 -0.741867 -0.000002 -1.247471 0.000000 0.000000
    31 1.047444 -2.222821 -0.277654 -1.721988 -0.021097 -0.032952
    32 0.000000 -0.996222 -0.000001 -1.206138 0.000000 0.000000
    33 -0.000001 -0.614690 0.000000 -1.317284 0.000000 0.000000
    34 -0.308254 -0.007814 0.307167 -0.413553 -0.473922 -2.228493
    35 1.978377 0.019543 0.000001 -0.000002 -0.000010 0.506564
    36 0.982426 0.003186 0.000000 0.000000 0.000000 0.806987
  time 17
    0 8.497203 2.610953 -5.854143 0.209490 -2.263841 -0.571024
    1 0.000000 -8.563282 0.000001 -0.165762 0.030364 -0.093235
    2 2.329044 -3.206966 1.345590 -1.323699 1.268421 -1.465555
    3 -0.003480 -0.404830 0.000000 0.000000 0.000000 0.000000
    4 -0.519309 -2.501153 -0.278956 -0.390517 0.037668 -0.005934
    5 -0.010598 -1.208185 0.000000 -1.055925 0.000000 0.000000
    6 0.000000 -0.763066 -0.000001 -0.602148 0.000000 0.000000
    7 0.105981 -2.607132 -0.278957 -0.537311 0.054194 -0.010195
    8 0.000000 -1.250579 0.000000 -0.776677 0.000000 0.000000
    9 -0.000001 -0.932634 0.000000 -1.230461 0.000000 0.000000
    10 0.763064 -2.490553 -0.278957 -0.349065 0.000000 0.130900
    11 -0.012322 -1.280917 0.000000 -0.750491 0.000000 0.000000
    12 -0.001697 -0.749371 -0.000001 -0.907564 0.000000 0.000000
    13 0.354567 0.016268 0.318133 0.743986 -0.762908 -1.122494
    14 1.887164 0.012878 0.000000 -0.040082 -0.219749 -0.583100
    15 1.001874 -0.000270 0.000000 0.000000 0.000000 -0.532315
    16 -1.123359 -2.195091 -0.278957 -0.156504 0.013626 -0.001073
    17 0.010771 -0.963790 0.000000 -0.698121 0.000000 0.000000
    18 -0.010411 -0.631916 0.000000 -0.907581 0.000000 0.000000
    19 -7.257546 -0.587670 -8.291563 0.250925 3.280600 1.018349
    20 0.089928 -8.543162 0.000000 0.465137 0.285977 0.103336
    21 0.000000 -0.359714 0.000001 0.000000 0.000000 0.000000
    22 -0.170480 -2.636147 -0.277655 -1.673410 0.000000 0.000000
    23 0.010599 -1.261177 0.000001 -1.195373 0.000000 0.000000
    24 -0.000001 -0.943232 0.000001 -1.390347 0.000000 0.000000
    25 -0.827563 -2.508973 -0.277656 -1.089078 0.000000 0.000000
    26 0.000000 -1.292970 0.000000 -0.893149 0.000000 0.000000
    27 0.000000 -0.752466 0.000001 -1.541312 0.000000 0.000000
    28 0.444212 -2.561960 -0.277654 -1.870360 -0.017379 -0.023628
    29 0.021022 -1.208186 -0.000001 -1.038295 0.000000 0.000000
    30 0.010597 -0.741867 -0.000002 -1.311807 0.000000 0.000000
    31 1.047444 -2.222821 -0.277654 -1.701989 -0.021732 -0.034858
    32 0.000000 -0.996222 -0.000001 -1.195375 0.000000 0.000000
    33 -0.000001 -0.614690 0.000000 -1.381620 0.000000 0.000000
    34 -0.308254 -0.007814 0.307167 -0.416094 -0.471729 -2.222896
    35 1.978377 0.019543 0.000001 -0.000002 -0.000010 0.572339
    36 0.982426 0.003186 0.000000 0.000000 0.000000 0.884146
  time 18
    0 8.516734 2.493762 -5.791641 0.223772 -2.281080 -0.591746
    1 0.000000 -8.563282 0.000001 -0.132224 0.051649 -0.096249
    2 2.329044 -3.206966 1.345590 -1.323699 1.268421 -1.465555
    3 -0.003480 -0.404830 0.000000 0.000000 0.000000 0.000000
    4 -0.519309 -2.501153 -0.278956 -0.390517 0.037668 -0.005934
    5 -0.010598 -1.208185 0.000000 -1.055925 0.000000 0.000000
    6 0.000000 -0.763066 -0.000001 -0.602148 0.000000 0.000000
    7 0.105981 -2.607132 -0.278957 -0.537311 0.054194 -0.010195
    8 0.000000 -1.250579 0.000000 -0.776677 0.000000 0.000000
    9 -0.000001 -0.932634 0.000000 -1.230461 0.000000 0.000000
    10 0.763064 -2.490553 -0.278957 -0.349065 0.000000 0.130900
    11 -0.012322 -1.280917 0.000000 -0.750491 0.000000 0.000000
    12 -0.001697 -0.749371 -0.000001 -0.907564 0.000000 0.000000
    13 0.354567 0.016268 0.318133 0.743986 -0.762908 -1.122494
    14 1.887164 0.012878 0.000000 -0.040082 -0.219749 -0.583100
    15 1.001874 -0.000270 0.000000 0.000000 0.000000 -0.532315
    16 -1.123359 -2.195091 -0.278957 -0.156504 0.013626 -0.001073
    17 0.010771 -0.963790 0.000000 -0.698121 0.000000 0.000000
    18 -0.010411 -0.631916 0.000000 -0.907581 0.000000 0.000000
    19 -7.238014 -0.599389 -8.295470 0.234315 3.281648 1.021996
    20 0.089928 -8.543162 0.000000 0.568940 0.281233 0.125956
    21 0.000000 -0.359714 0.000001 0.000000 0.000000 0.000000
    22 -0.170480 -2.636147 -0.277655 -1.673072 0.000000 0.000000
    23 0.010599 -1.261177 0.000001 -1.168741 0.000000 0.000000
    24 -0.000001 -0.943232 0.000001 -1.387650 0.000000 0.000000
    25 -0.827563 -2.508973 -0.277656 -1.108532 0.000000 0.000000
    26 0.000000 -1.292970 0.000000 -0.959315 0.000000 0.000000
    27 0.000000 -0.752466 0.000001 -1.518732 0.000000 0.000000
    28 0.444212 -2.561960 -0.277654 -1.843403 -0.017811 -0.024911
    29 0.021022 -1.208186 -0.000001 -1.011664 0.000000 0.000000
    30 0.010597 -0.741867 -0.000002 -1.309110 0.000000 0.000000
    31 1.047444 -2.222821 -0.277654 -1.666363 -0.022283 -0.036883
    32 0.000000 -0.996222 -0.000001 -1.168744 0.000000 0.000000
    33 -0.000001 -0.614690 0.000000 -1.378923 0.000000 0.000000
    34 -0.308254 -0.007814 0.307167 -0.417940 -0.470135 -2.218846
    35 1.978377 0.019543 0.000001 -0.000002 -0.000010 0.632580
    36 0.982426 0.003186 0.000000 0.000000 0.000000 0.839650
  time 19
    0 8.544079 2.329694 -5.736952 0.239307 -2.301783 -0.614862
    1 0.000000 -8.563282 0.000001 -0.094456 0.065755 -0.101951
    2 2.329044 -3.206966 1.345590 -1.323699 1.268421 -1.465555
    3 -0.003480 -0.404830 0.000000 0.000000 0.000000 0.000000
    4 -0.519309 -2.501153 -0.278956 -0.390517 0.037668 -0.005934
    5 -0.010598 -1.208185 0.000000 -1.055925 0.000000 0.000000
    6 0.000000 -0.763066 -0.000001 -0.602148 0.000000 0.000000
    7 0.105981 -2.607132 -0.278957 -0.537311 0.054194 -0.010195
    8 0.000000 -1.250579 0.000000 -0.776677 0.000000 0.000000
    9 -0.000001 -0.932634 0.000000 -1.230461 0.000000 0.000000
    10 0.763064 -2.490553 -0.278957 -0.349065 0.000000 0.130900
    11 -0.012322 -1.280917 0.000000 -0.750491 0.000000 0.000000
    12 -0.001697 -0.749371 -0.000001 -0.907564 0.000000 0.000000
    13 0.354567 0.016268 0.318133 0.743986 -0.762908 -1.122494
    14 1.887164 0.012878 0.000000 -0.040082 -0.219749 -0.583100
    15 1.001874 -0.000270 0.000000 0.000000 0.000000 -0.532315
    16 -1.123359 -2.195091 -0.278957 -0.156504 0.013626 -0.001073
    17 0.010771 -0.963790 0.000000 -0.698121 0.000000 0.000000
    18 -0.010411 -0.631916 0.000000 -0.907581 0.000000 0.000000
    19 -7.343486 -0.755644 -8.315001 0.242730 3.281648 1.021996
    20 0.089928 -8.543162 0.000000 0.637270 0.277048 0.147607
    21 0.000000 -0.359714 0.000001 0.000000 0.000000 0.000000
    22 -0.170480 -2.636147 -0.277655 -1.653494 0.000000 0.000000
    23 0.010599 -1.261177 0.000001 -1.128938 0.000000 0.000000
    24 -0.000001 -0.943232 0.000001 -1.355914 0.000000 0.000000
    25 -0.827563 -2.508973 -0.277656 -1.120323 0.000000 0.000000
    26 0.000000 -1.292970 0.000000 -1.012380 0.000000 0.000000
    27 0.000000 -0.752466 0.000001 -1.460299 0.000000 0.000000
    28 0.444212 -2.561960 -0.277654 -1.798844 -0.018158 -0.026229
    29 0.021022 -1.208186 -0.000001 -0.971863 0.000000 0.000000
    30 0.010597 -0.741867 -0.000002 -1.277374 0.000000 0.000000
    31 1.047444 -2.222821 -0.277654 -1.617905 -0.022727 -0.038981
    32 0.000000 -0.996222 -0.000001 -1.128943 0.000000 0.000000
    33 -0.000001 -0.614690 0.000000 -1.347187 0.000000 0.000000
    34 -0.308254 -0.007814 0.307167 -0.418778 -0.469392 -2.216976
    35 1.978377 0.019543 0.000001 -0.000002 -0.000010 0.685048
    36 0.982426 0.003186 0.000000 0.000000 0.000000 0.684995
  time 20
    0 8.575330 2.138282 -5.670543 0.251334 -2.324325 -0.634019
    1 0.000000 -8.563282 0.000001 -0.063468 0.058132 -0.107917
    2 2.329044 -3.206966 1.345590 -1.323699 1.268421 -1.465555
    3 -0.003480 -0.404830 0.000000 0.000000 0.000000 0.000000
    4 -0.519309 -2.501153 -0.278956 -0.390517 0.037668 -0.005934
    5 -0.010598 -1.208185 0.000000 -1.055925 0.000000 0.000000
    6 0.000000 -0.763066 -0.000001 -0.602148 0.000000 0.000000
    7 0.105981 -2.607132 -0.278957 -0.537311 0.054194 -0.010195
    8 0.000000 -1.250579 0.000000 -0.776677 0.000000 0.000000
    9 -0.000001 -0.932634 0.000000 -1.230461 0.000000 0.000000
    10 0.763064 -2.490553 -0.278957 -0.349065 0.000000 0.130900
    11 -0.012322 -1.280917 0.000000 -0.750491 0.000000 0.000000
    12 -0.001697 -0.749371 -0.000001 -0.907564 0.000000 0.000000
    13 0.354567 0.016268 0.318133 0.743986 -0.762908 -1.122494
    14 1.887164 0.012878 0.000000 -0.040082 -0.219749 -0.583100
    15 1.001874 -0.000270 0.000000 0.000000 0.000000 -0.532315
    16 -1.123359 -2.195091 -0.278957 -0.156504 0.013626 -0.001073
    17 0.010771 -0.963790 0.000000 -0.698121 0.000000 0.000000
    18 -0.010411 -0.631916 0.000000 -0.907581 0.000000 0.000000
    19 -7.421613 -0.876741 -8.330627 0.267178 3.281648 1.021996
    20 0.089928 -8.543162 0.000000 0.655164 0.277980 0.166743
    21 0.000000 -0.359714 0.000001 0.000000 0.000000 0.000000
    22 -0.170480 -2.636147 -0.277655 -1.620352 0.000000 0.000000
    23 0.010599 -1.261177 0.000001 -1.078639 0.000000 0.000000
    24 -0.000001 -0.943232 0.000001 -1.300167 0.000000 0.000000
    25 -0.827563 -2.508973 -0.277656 -1.126161 0.000000 0.000000
    26 0.000000 -1.292970 0.000000 -1.047561 0.000000 0.000000
    27 0.000000 -0.752466 0.000001 -1.379743 0.000000 0.000000
    28 0.444212 -2.561960 -0.277654 -1.744785 -0.018410 -0.027499
    29 0.021022 -1.208186 -0.000001 -0.921545 0.000000 0.000000
    30 0.010597 -0.741867 -0.000002 -1.221627 0.000000 0.000000
    31 1.047444 -2.222821 -0.277654 -1.559318 -0.022991 -0.041114
    32 0.000000 -0.996222 -0.000001 -1.078625 0.000000 0.000000
    33 -0.000001 -0.614690 0.000000 -1.291440 0.000000 0.000000
    34 -0.308254 -0.007814 0.307167 -0.418335 -0.469775 -2.217947
    35 1.978377 0.019543 0.000001 -0.000002 -0.000010 0.727581
    36 0.982426 0.003186 0.000000 0.000000 0.000000 0.487023
  time 21
    0 8.594862 1.946870 -5.588510 0.256095 -2.346867 -0.643781
    1 0.000000 -8.563282 0.000001 -0.043230 -0.004367 -0.129723
    2 2.329044 -3.206966 1.345590 -1.323699 1.268421 -1.465555
    3 -0.003480 -0.404830 0.000000 0.000000 0.000000 0.000000
    4 -0.519309 -2.501153 -0.278956 -0.390517 0.037668 -0.005934
    5 -0.010598 -1.208185 0.000000 -1.055925 0.000000 0.000000
    6 0.000000 -0.763066 -0.000001 -0.602148 0.000000 0.000000
    7 0.105981 -2.607132 -0.278957 -0.537311 0.054194 -0.010195
    8 0.000000 -1.250579 0.000000 -0.776677 0.000000 0.000000
    9 -0.000001 -0.932634 0.000000 -1.230461 0.000000 0.000000
    10 0.763064 -2.490553 -0.278957 -0.349065 0.000000 0.130900
    11 -0.012322 -1.280917 0.000000 -0.750491 0.000000 0.000000
    12 -0.001697 -0.749371 -0.000001 -0.907564 0.000000 0.000000
    13 0.354567 0.016268 0.318133 0.743986 -0.762908 -1.122494
    14 1.887164 0.012878 0.000000 -0.040082 -0.219749 -0.583100
    15 1.001874 -0.000270 0.000000 0.000000 0.000000 -0.532315
    16 -1.123359 -2.195091 -0.278957 -0.156504 0.013626 -0.001073
    17 0.010771 -0.963790 0.000000 -0.698121 0.000000 0.000000
    18 -0.010411 -0.631916 0.000000 -0.907581 0.000000 0.000000
    19 -7.480209 -0.962682 -8.342346 0.295511 3.281648 1.021996
    20 0.089928 -8.543162 0.000000 0.599162 0.286909 0.187057
    21 0.000000 -0.359714 0.000001 0.000000 0.000000 0.000000
    22 -0.170480 -2.636147 -0.277655 -1.579243 0.000000 0.000000
    23 0.010599 -1.261177 0.000001 -1.020478 0.000000 0.000000
    24 -0.000001 -0.943232 0.000001 -1.225436 0.000000 0.000000
    25 -0.827563 -2.508973 -0.277656 -1.127758 0.000000 0.000000
    26 0.000000 -1.292970 0.000000 -1.060096 0.000000 0.000000
    27 0.000000 -0.752466 0.000001 -1.290829 0.000000 0.000000
    28 0.444212 -2.561960 -0.277654 -1.689327 -0.018578 -0.028710
    29 0.021022 -1.208186 -0.000001 -0.863407 0.000000 0.000000
    30 0.010597 -0.741867 -0.000002 -1.146896 0.000000 0.000000
    31 1.047444 -2.222821 -0.277654 -1.493353 -0.023074 -0.043235
    32 0.000000 -0.996222 -0.000001 -1.020487 0.000000 0.000000
    33 -0.000001 -0.614690 0.000000 -1.216709 0.000000 0.000000
    34 -0.308254 -0.007814 0.307167 -0.416310 -0.471549 -2.222429
    35 1.978377 0.019543 0.000001 -0.000002 -0.000010 0.757936
    36 0.982426 0.003186 0.000000 0.000000 0.000000 0.312453
  time 22
    0 8.602675 1.771083 -5.479131 0.250248 -2.367613 -0.638900
    1 0.000000 -8.563282 0.000001 -0.026093 -0.096745 -0.156027
    2 2.329044 -3.206966 1.345590 -1.323699 1.268421 -1.465555
    3 -0.003480 -0.404830 0.000000 0.000000 0.000000 0.000000
    4 -0.519309 -2.501153 -0.278956 -0.390517 0.037668 -0.005934
    5 -0.010598 -1.208185 0.000000 -1.055925 0.000000 0.000000
    6 0.000000 -0.763066 -0.000001 -0.602148 0.000000 0.000000
    7 0.105981 -2.607132 -0.278957 -0.537311 0.054194 -0.010195
    8 0.000000 -1.250579 0.000000 -0.776677 0.000000 0.000000
    9 -0.000001 -0.932634 0.000000 -1.230461 0.000000 0.000000
    10 0.763064 -2.490553 -0.278957 -0.349065 0.000000 0.130900
    11 -0.012322 -1.280917 0.000000 -0.750491 0.000000 0.000000
    12 -0.001697 -0.749371 -0.000001 -0.907564 0.000000 0.000000
    13 0.354567 0.016268 0.318133 0.743986 -0.762908 -1.122494
    14 1.887164 0.012878 0.000000 -0.040082 -0.219749 -0.583100
    15 1.001874 -0.000270 0.000000 0.000000 0.000000 -0.532315
    16 -1.123359 -2.195091 -0.278957 -0.156504 0.013626 -0.001073
    17 0.010771 -0.963790 0.000000 -0.698121 0.000000 0.000000
    18 -0.010411 -0.631916 0.000000 -0.907581 0.000000 0.000000
    19 -7.515366 -1.013464 -8.350159 0.323844 3.281648 1.021996
    20 0.089928 -8.543162 0.000000 0.473654 0.303235 0.210156
    21 0.000000 -0.359714 0.000001 0.000000 0.000000 0.000000
    22 -0.170480 -2.636147 -0.277655 -1.535870 0.000000 0.000000
    23 0.010599 -1.261177 0.000001 -0.957152 0.000000 0.000000
    24 -0.000001 -0.943232 0.000001 -1.136800 0.000000 0.000000
    25 -0.827563 -2.508973 -0.277656 -1.126883 0.000000 0.000000
    26 0.000000 -1.292970 0.000000 -1.045228 0.000000 0.000000
    27 0.000000 -0.752466 0.000001 -1.207218 0.000000 0.000000
    28 0.444212 -2.561960 -0.277654 -1.640621 -0.018721 -0.029800
    29 0.021022 -1.208186 -0.000001 -0.800082 0.000000 0.000000
    30 0.010597 -0.741867 -0.000002 -1.058260 0.000000 0.000000
    31 1.047444 -2.222821 -0.277654 -1.422757 -0.022955 -0.045309
    32 0.000000 -0.996222 -0.000001 -0.957162 0.000000 0.000000
    33 -0.000001 -0.614690 0.000000 -1.128073 0.000000 0.000000
    34 -0.308254 -0.007814 0.307167 -0.412355 -0.474940 -2.231106
    35 1.978377 0.019543 0.000001 -0.000002 -0.000010 0.773933
    36 0.982426 0.003186 0.000000 0.000000 0.000000 0.228103
  time 23
    0 8.587049 1.595297 -5.318970 0.224190 -2.388231 -0.606113
    1 0.000000 -8.563282 0.000001 -0.012636 -0.147487 -0.142781
    2 2.329044 -3.206966 1.345590 -1.323699 1.268421 -1.465555
    3 -0.003480 -0.404830 0.000000 0.000000 0.000000 0.000000
    4 -0.519309 -2.501153 -0.278956 -0.390517 0.037668 -0.005934
    5 -0.010598 -1.208185 0.000000 -1.055925 0.000000 0.000000
    6 0.000000 -0.763066 -0.000001 -0.602148 0.000000 0.000000
    7 0.105981 -2.607132 -0.278957 -0.537311 0.054194 -0.010195
    8 0.000000 -1.250579 0.000000 -0.776677 0.000000 0.000000
    9 -0.000001 -0.932634 0.000000 -1.230461 0.000000 0.000000
    10 0.763064 -2.490553 -0.278957 -0.349065 0.000000 0.130900
    11 -0.012322 -1.280917 0.000000 -0.750491 0.000000 0.000000
    12 -0.001697 -0.749371 -0.000001 -0.907564 0.000000 0.000000
    13 0.354567 0.016268 0.318133 0.743986 -0.762908 -1.122494
    14 1.887164 0.012878 0.000000 -0.040082 -0.219749 -0.583100
    15 1.001874 -0.000270 0.000000 0.000000 0.000000 -0.532315
    16 -1.123359 -2.195091 -0.278957 -0.156504 0.013626 -0.001073
    17 0.010771 -0.963790 0.000000 -0.698121 0.000000 0.000000
    18 -0.010411 -0.631916 0.000000 -0.907581 0.000000 0.000000
    19 -7.527085 -1.032996 -8.350159 0.352177 3.281648 1.021996
    20 0.089928 -8.543162 0.000000 0.305542 0.325692 0.231206
    21 0.000000 -0.359714 0.000001 0.000000 0.000000 0.000000
    22 -0.170480 -2.636147 -0.277655 -1.472606 0.000000 0.000000
    23 0.010599 -1.261177 0.000001 -0.891335 0.000000 0.000000
    24 -0.000001 -0.943232 0.000001 -1.039315 0.000000 0.000000
    25 -0.827563 -2.508973 -0.277656 -1.118687 0.000000 0.000000
    26 0.000000 -1.292970 0.000000 -0.991974 0.000000 0.000000
    27 0.000000 -0.752466 0.000001 -1.113563 0.000000 0.000000
    28 0.444212 -2.561960 -0.277654 -1.582825 -0.018829 -0.030939
    29 0.021022 -1.208186 -0.000001 -0.734247 0.000000 0.000000
    30 0.010597 -0.741867 -0.000002 -0.960775 0.000000 0.000000
    31 1.047444 -2.222821 -0.277654 -1.350282 -0.022667 -0.047250
    32 0.000000 -0.996222 -0.000001 -0.891327 0.000000 0.000000
    33 -0.000001 -0.614690 0.000000 -1.030588 0.000000 0.000000
    34 -0.308254 -0.007814 0.307167 -0.404864 -0.481208 -2.247381
    35 1.978377 0.019543 0.000001 -0.000002 -0.000010 0.773199
    36 0.982426 0.003186 0.000000 0.000000 0.000000 0.228752
  time 24
    0 8.559705 1.415604 -5.115839 0.181595 -2.411073 -0.549657
    1 0.000000 -8.563282 0.000001 -0.008825 -0.074609 -0.020290
    2 2.329044 -3.206966 1.345590 -1.323699 1.268421 -1.465555
    3 -0.003480 -0.404830 0.000000 0.000000 0.000000 0.000000
    4 -0.519309 -2.501153 -0.278956 -0.390517 0.037668 -0.005934
    5 -0.010598 -1.208185 0.000000 -1.055925 0.000000 0.000000
    6 0.000000 -0.763066 -0.000001 -0.602148 0.000000 0.000000
    7 0.105981 -2.607132 -0.278957 -0.537311 0.054194 -0.010195
    8 0.000000 -1.250579 0.000000 -0.776677 0.000000 0.000000
    9 -0.000001 -0.932634 0.000000 -1.230461 0.000000 0.000000
    10 0.763064 -2.490553 -0.278957 -0.349065 0.000000 0.130900
    11 -0.012322 -1.280917 0.000000 -0.750491 0.000000 0.000000
    12 -0.001697 -0.749371 -0.000001 -0.907564 0.000000 0.000000
    13 0.354567 0.016268 0.318133 0.743986 -0.762908 -1.122494
    14 1.887164 0.012878 0.000000 -0.040082 -0.219749 -0.583100
    15 1.001874 -0.000270 0.000000 0.000000 0.000000 -0.532315
    16 -1.123359 -2.195091 -0.278957 -0.156504 0.013626 -0.001073
    17 0.010771 -0.963790 0.000000 -0.698121 0.000000 0.000000
    18 -0.010411 -0.631916 0.000000 -0.907581 0.000000 0.000000
    19 -6.706748 -0.841584 -7.764203 0.380510 3.281648 1.021996
    20 0.089928 -8.543162 0.000000 0.121819 0.350926 0.246723
    21 0.000000 -0.359714 0.000001 0.000000 0.000000 0.000000
    22 -0.170480 -2.636147 -0.277655 -1.376512 0.000000 0.000000
    23 0.010599 -1.261177 0.000001 -0.825683 0.000000 0.000000
    24 -0.000001 -0.943232 0.000001 -0.937980 0.000000 0.000000
    25 -0.827563 -2.508973 -0.277656 -1.099518 0.000000 0.000000
    26 0.000000 -1.292970 0.000000 -0.901160 0.000000 0.000000
    27 0.000000 -0.752466 0.000001 -0.993958 0.000000 0.000000
    28 0.444212 -2.561960 -0.277654 -1.501519 -0.018805 -0.032209
    29 0.021022 -1.208186 -0.000001 -0.668597 0.000000 0.000000
    30 0.010597 -0.741867 -0.000002 -0.859440 0.000000 0.000000
    31 1.047444 -2.222821 -0.277654 -1.278676 -0.022224 -0.049036
    32 0.000000 -0.996222 -0.000001 -0.825677 0.000000 0.000000
    33 -0.000001 -0.614690 0.000000 -0.929253 0.000000 0.000000
    34 -0.308254 -0.007814 0.307167 -0.393251 -0.490472 -2.272249
    35 1.978377 0.019543 0.000001 -0.000002 -0.000010 0.757372
    36 0.982426 0.003186 0.000000 0.000000 0.000000 0.259707
  time 25
    0 8.528454 1.259349 -4.928333 0.138080 -2.434342 -0.490715
    1 0.000000 -8.563282 0.000001 0.007286 0.023928 0.138002
    2 2.329044 -3.206966 1.345590 -1.323699 1.268421 -1.465555
    3 -0.003480 -0.404830 0.000000 0.000000 0.000000 0.000000
    4 -0.519309 -2.501153 -0.278956 -0.390517 0.037668 -0.005934
    5 -0.010598 -1.208185 0.000000 -1.055925 0.000000 0.000000
    6 0.000000 -0.763066 -0.000001 -0.602148 0.000000 0.000000
    7 0.105981 -2.607132 -0.278957 -0.537311 0.054194 -0.010195
    8 0.000000 -1.250579 0.000000 -0.776677 0.000000 0.000000
    9 -0.000001 -0.932634 0.000000 -1.230461 0.000000 0.000000
    10 0.763064 -2.490553 -0.278957 -0.349065 0.000000 0.130900
    11 -0.012322 -1.280917 0.000000 -0.750491 0.000000 0.000000
    12 -0.001697 -0.749371 -0.000001 -0.907564 0.000000 0.000000
    13 0.354567 0.016268 0.318133 0.743986 -0.762908 -1.122494
    14 1.887164 0.012878 0.000000 -0.040082 -0.219749 -0.583100
    15 1.001874 -0.000270 0.000000 0.000000 0.000000 -0.532315
    16 -1.123359 -2.195091 -0.278957 -0.156504 0.013626 -0.001073
    17 0.010771 -0.963790 0.000000 -0.698121 0.000000 0.000000
    18 -0.010411 -0.631916 0.000000 -0.907581 0.000000 0.000000
    19 -6.433302 -0.779082 -7.568885 0.408843 3.281648 1.021996
    20 0.089928 -8.543162 0.000000 -0.049928 0.374089 0.255801
    21 0.000000 -0.359714 0.000001 0.000000 0.000000 0.000000
    22 -0.170480 -2.636147 -0.277655 -1.260268 0.000000 0.000000
    23 0.010599 -1.261177 0.000001 -0.762850 0.000000 0.000000
    24 -0.000001 -0.943232 0.000001 -0.837876 0.000000 0.000000
    25 -0.827563 -2.508973 -0.277656 -1.072724 0.000000 0.000000
    26 0.000000 -1.292970 0.000000 -0.785628 0.000000 0.000000
    27 0.000000 -0.752466 0.000001 -0.861114 0.000000 0.000000
    28 0.444212 -2.561960 -0.277654 -1.406711 -0.018614 -0.033480
    29 0.021022 -1.208186 -0.000001 -0.605766 0.000000 0.000000
    30 0.010597 -0.741867 -0.000002 -0.759336 0.000000 0.000000
    31 1.047444 -2.222821 -0.277654 -1.210666 -0.021684 -0.050630
    32 0.000000 -0.996222 -0.000001 -0.762846 0.000000 0.000000
    33 -0.000001 -0.614690 0.000000 -0.829149 0.000000 0.000000
    34 -0.308254 -0.007814 0.307167 -0.378774 -0.501354 -2.302690
    35 1.978377 0.019543 0.000001 -0.000002 -0.000010 0.730272
    36 0.982426 0.003186 0.000000 0.000000 0.000000 0.313463
  time 26
    0 8.508922 1.169503 -4.811142 0.106927 -2.453976 -0.447706
    1 0.000000 -8.563282 0.000001 0.032202 0.038478 0.292388
    2 2.329044 -3.206966 1.345590 -1.323699 1.268421 -1.465555
    3 -0.003480 -0.404830 0.000000 0.000000 0.000000 0.000000
    4 -0.519309 -2.501153 -0.278956 -0.390517 0.037668 -0.005934
    5 -0.010598 -1.208185 0.000000 -1.055925 0.000000 0.000000
    6 0.000000 -0.763066 -0.000001 -0.602148 0.000000 0.000000
    7 0.105981 -2.607132 -0.278957 -0.537311 0.054194 -0.010195
    8 0.000000 -1.250579 0.000000 -0.776677 0.000000 0.000000
    9 -0.000001 -0.932634 0.000000 -1.230461 0.000000 0.000000
    10 0.763064 -2.490553 -0.278957 -0.349065 0.000000 0.130900
    11 -0.012322 -1.280917 0.000000 -0.750491 0.000000 0.000000
    12 -0.001697 -0.749371 -0.000001 -0.907564 0.000000 0.000000
    13 0.354567 0.016268 0.318133 0.743986 -0.762908 -1.122494
    14 1.887164 0.012878 0.000000 -0.040082 -0.219749 -0.583100
    15 1.001874 -0.000270 0.000000 0.000000 0.000000 -0.532315
    16 -1.123359 -2.195091 -0.278957 -0.156504 0.013626 -0.001073
    17 0.010771 -0.963790 0.000000 -0.698121 0.000000 0.000000
    18 -0.010411 -0.631916 0.000000 -0.907581 0.000000 0.000000
    19 -6.378613 -0.767363 -7.143091 0.413339 3.335212 0.991709
    20 0.089928 -8.543162 0.000000 -0.181127 0.390000 0.260548
    21 0.000000 -0.359714 0.000001 0.000000 0.000000 0.000000
    22 -0.170480 -2.636147 -0.277655 -1.136552 0.000000 0.000000
    23 0.010599 -1.261177 0.000001 -0.705533 0.000000 0.000000
    24 -0.000001 -0.943232 0.000001 -0.744029 0.000000 0.000000
    25 -0.827563 -2.508973 -0.277656 -1.041689 0.000000 0.000000
    26 0.000000 -1.292970 0.000000 -0.658267 0.000000 0.000000
    27 0.000000 -0.752466 0.000001 -0.727813 0.000000 0.000000
    28 0.444212 -2.561960 -0.277654 -1.308455 -0.018290 -0.034642
    29 0.021022 -1.208186 -0.000001 -0.548451 0.000000 0.000000
    30 0.010597 -0.741867 -0.000002 -0.665489 0.000000 0.000000
    31 1.047444 -2.222821 -0.277654 -1.149048 -0.021085 -0.051984
    32 0.000000 -0.996222 -0.000001 -0.705531 0.000000 0.000000
    33 -0.000001 -0.614690 0.000000 -0.735303 0.000000 0.000000
    34 -0.308254 -0.007814 0.307167 -0.362786 -0.512536 -2.335600
    35 1.978377 0.019543 0.000001 -0.000002 -0.000010 0.695681
    36 0.982426 0.003186 0.000000 0.000000 0.000000 0.382613
  time 27
    0 8.473764 1.142158 -4.736921 0.111938 -2.461419 -0.463546
    1 0.000000 -8.563282 0.000001 0.048551 0.031299 0.339357
    2 2.329044 -3.206966 1.345590 -1.323699 1.268421 -1.465555
    3 -0.003480 -0.404830 0.000000 0.000000 0.000000 0.000000
    4 -0.519309 -2.501153 -0.278956 -0.390517 0.037668 -0.005934
    5 -0.010598 -1.208185 0.000000 -1.055925 0.000000 0.000000
    6 0.000000 -0.763066 -0.000001 -0.602148 0.000000 0.000000
    7 0.105981 -2.607132 -0.278957 -0.537311 0.054194 -0.010195
    8 0.000000 -1.250579 0.000000 -0.776677 0.000000 0.000000
    9 -0.000001 -0.932634 0.000000 -1.230461 0.000000 0.000000
    10 0.763064 -2.490553 -0.278957 -0.349065 0.000000 0.130900
    11 -0.012322 -1.280917 0.000000 -0.750491 0.000000 0.000000
    12 -0.001697 -0.749371 -0.000001 -0.907564 0.000000 0.000000
    13 0.354567 0.016268 0.318133 0.743986 -0.762908 -1.122494
    14 1.887164 0.012878 0.000000 -0.040082 -0.219749 -0.583100
    15 1.001874 -0.000270 0.000000 0.000000 0.000000 -0.532315
    16 -1.123359 -2.195091 -0.278957 -0.156504 0.013626 -0.001073
    17 0.010771 -0.963790 0.000000 -0.698121 0.000000 0.000000
    18 -0.010411 -0.631916 0.000000 -0.907581 0.000000 0.000000
    19 -6.362987 -0.763457 -6.998555 0.419583 3.388627 0.960803
    20 0.089928 -8.543162 0.000000 -0.242379 0.394164 0.264658
    21 0.000000 -0.359714 0.000001 0.000000 0.000000 0.000000
    22 -0.170480 -2.636147 -0.277655 -1.018016 0.000000 0.000000
    23 0.010599 -1.261177 0.000001 -0.656386 0.000000 0.000000
    24 -0.000001 -0.943232 0.000001 -0.661521 0.000000 0.000000
    25 -0.827563 -2.508973 -0.277656 -1.009760 0.000000 0.000000
    26 0.000000 -1.292970 0.000000 -0.531943 0.000000 0.000000
    27 0.000000 -0.752466 0.000001 -0.606768 0.000000 0.000000
    28 0.444212 -2.561960 -0.277654 -1.216805 -0.017870 -0.035553
    29 0.021022 -1.208186 -0.000001 -0.499306 0.000000 0.000000
    30 0.010597 -0.741867 -0.000002 -0.582981 0.000000 0.000000
    31 1.047444 -2.222821 -0.277654 -1.096501 -0.020522 -0.053087
    32 0.000000 -0.996222 -0.000001 -0.656386 0.000000 0.000000
    33 -0.000001 -0.614690 0.000000 -0.652794 0.000000 0.000000
    34 -0.308254 -0.007814 0.307167 -0.346895 -0.522879 -2.367706
    35 1.978377 0.019543 0.000001 -0.000002 -0.000010 0.657421
    36 0.982426 0.003186 0.000000 0.000000 0.000000 0.459628
  time 28
    0 8.508922 1.169503 -4.775985 0.106927 -2.453976 -0.447706
    1 0.000000 -8.563282 0.000001 0.043163 0.035913 0.067291
    2 2.329044 -3.206966 1.345590 -1.323699 1.268421 -1.465555
    3 -0.003480 -0.404830 0.000000 0.000000 0.000000 0.000000
    4 -0.519309 -2.501153 -0.278956 -0.390517 0.037668 -0.005934
    5 -0.010598 -1.208185 0.000000 -1.055925 0.000000 0.000000
    6 0.000000 -0.763066 -0.000001 -0.602148 0.000000 0.000000
    7 0.105981 -2.607132 -0.278957 -0.537311 0.054194 -0.010195
    8 0.000000 -1.250579 0.000000 -0.776677 0.000000 0.000000
    9 -0.000001 -0.932634 0.000000 -1.230461 0.000000 0.000000
    10 0.763064 -2.490553 -0.278957 -0.349065 0.000000 0.130900
    11 -0.012322 -1.280917 0.000000 -0.750491 0.000000 0.000000
    12 -0.001697 -0.749371 -0.000001 -0.907564 0.000000 0.000000
    13 0.354567 0.016268 0.318133 0.743986 -0.762908 -1.122494
    14 1.887164 0.012878 0.000000 -0.040082 -0.219749 -0.583100
    15 1.001874 -0.000270 0.000000 0.000000 0.000000 -0.532315
    16 -1.123359 -2.195091 -0.278957 -0.156504 0.013626 -0.001073
    17 0.010771 -0.963790 0.000000 -0.698121 0.000000 0.000000
    18 -0.010411 -0.631916 0.000000 -0.907581 0.000000 0.000000
    19 -8.488052 -0.704861 -9.135339 0.427625 3.441817 0.929156
    20 0.089928 -8.543162 0.000000 -0.211226 0.380117 0.272214
    21 0.000000 -0.359714 0.000001 0.000000 0.000000 0.000000
    22 -0.170480 -2.636147 -0.277655 -0.917367 0.000000 0.000000
    23 0.010599 -1.261177 0.000001 -0.618086 0.000000 0.000000
    24 -0.000001 -0.943232 0.000001 -0.595353 0.000000 0.000000
    25 -0.827563 -2.508973 -0.277656 -0.980341 0.000000 0.000000
    26 0.000000 -1.292970 0.000000 -0.419545 0.000000 0.000000
    27 0.000000 -0.752466 0.000001 -0.510796 0.000000 0.000000
    28 0.444212 -2.561960 -0.277654 -1.141817 -0.017475 -0.036128
    29 0.021022 -1.208186 -0.000001 -0.461007 0.000000 0.000000
    30 0.010597 -0.741867 -0.000002 -0.516813 0.000000 0.000000
    31 1.047444 -2.222821 -0.277654 -1.055798 -0.020042 -0.053937
    32 0.000000 -0.996222 -0.000001 -0.618087 0.000000 0.000000
    33 -0.000001 -0.614690 0.000000 -0.586626 0.000000 0.000000
    34 -0.308254 -0.007814 0.307167 -0.332861 -0.531412 -2.395606
    35 1.978377 0.019543 0.000001 -0.000002 -0.000010 0.619256
    36 0.982426 0.003186 0.000000 0.000000 0.000000 0.537051
  time 29
    0 8.708147 1.259349 -5.025993 0.054810 -2.439432 -0.333045
    1 0.000000 -8.563282 0.000001 0.031177 0.036932 -0.235703
    2 2.329044 -3.206966 1.345590 -1.323699 1.268421 -1.465555
    3 -0.003480 -0.404830 0.000000 0.000000 0.000000 0.000000
    4 -0.519309 -2.501153 -0.278956 -0.390517 0.037668 -0.005934
    5 -0.010598 -1.208185 0.000000 -1.055925 0.000000 0.000000
    6 0.000000 -0.763066 -0.000001 -0.602148 0.000000 0.000000
    7 0.105981 -2.607132 -0.278957 -0.537311 0.054194 -0.010195
    8 0.000000 -1.250579 0.000000 -0.776677 0.000000 0.000000
    9 -0.000001 -0.932634 0.000000 -1.230461 0.000000 0.000000
    10 0.763064 -2.490553 -0.278957 -0.349065 0.000000 0.130900
    11 -0.012322 -1.280917 0.000000 -0.750491 0.000000 0.000000
    12 -0.001697 -0.749371 -0.000001 -0.907564 0.000000 0.000000
    13 0.354567 0.016268 0.318133 0.743986 -0.762908 -1.122494
    14 1.887164 0.012878 0.000000 -0.040082 -0.219749 -0.583100
    15 1.001874 -0.000270 0.000000 0.000000 0.000000 -0.532315
    16 -1.123359 -2.195091 -0.278957 -0.156504 0.013626 -0.001073
    17 0.010771 -0.963790 0.000000 -0.698121 0.000000 0.000000
    18 -0.010411 -0.631916 0.000000 -0.907581 0.000000 0.000000
    19 -10.226387 -0.654078 -10.885392 0.437601 3.494708 0.896396
    20 0.089928 -8.543162 0.000000 -0.106281 0.348503 0.280163
    21 0.000000 -0.359714 0.000001 0.000000 0.000000 0.000000
    22 -0.170480 -2.636147 -0.277655 -0.847230 0.000000 0.000000
    23 0.010599 -1.261177 0.000001 -0.593286 0.000000 0.000000
    24 -0.000001 -0.943232 0.000001 -0.550603 0.000000 0.000000
    25 -0.827563 -2.508973 -0.277656 -0.956780 0.000000 0.000000
    26 0.000000 -1.292970 0.000000 -0.333915 0.000000 0.000000
    27 0.000000 -0.752466 0.000001 -0.452644 0.000000 0.000000
    28 0.444212 -2.561960 -0.277654 -1.093497 -0.017211 -0.036308
    29 0.021022 -1.208186 -0.000001 -0.436208 0.000000 0.000000
    30 0.010597 -0.741867 -0.000002 -0.472063 0.000000 0.000000
    31 1.047444 -2.222821 -0.277654 -1.029689 -0.019719 -0.054513
    32 0.000000 -0.996222 -0.000001 -0.593288 0.000000 0.000000
    33 -0.000001 -0.614690 0.000000 -0.541876 0.000000 0.000000
    34 -0.308254 -0.007814 0.307167 -0.322590 -0.537308 -2.415776
    35 1.978377 0.019543 0.000001 -0.000002 -0.000010 0.585023
    36 0.982426 0.003186 0.000000 0.000000 0.000000 0.607379
  time 30
    0 9.036282 1.407791 -5.455693 -0.013927 -2.427926 -0.186150
    1 0.000000 -8.563282 0.000001 0.026920 0.036980 -0.341872
    2 2.329044 -3.206966 1.345590 -1.323699 1.268421 -1.465555
    3 -0.003480 -0.404830 0.000000 0.000000 0.000000 0.000000
    4 -0.519309 -2.501153 -0.278956 -0.390517 0.037668 -0.005934
    5 -0.010598 -1.208185 0.000000 -1.055925 0.000000 0.000000
    6 0.000000 -0.763066 -0.000001 -0.602148 0.000000 0.000000
    7 0.105981 -2.607132 -0.278957 -0.537311 0.054194 -0.010195
    8 0.000000 -1.250579 0.000000 -0.776677 0.000000 0.000000
    9 -0.000001 -0.932634 0.000000 -1.230461 0.000000 0.000000
    10 0.763064 -2.490553 -0.278957 -0.349065 0.000000 0.130900
    11 -0.012322 -1.280917 0.000000 -0.750491 0.000000 0.000000
    12 -0.001697 -0.749371 -0.000001 -0.907564 0.000000 0.000000
    13 0.354567 0.016268 0.318133 0.743986 -0.762908 -1.122494
    14 1.887164 0.012878 0.000000 -0.040082 -0.219749 -0.583100
    15 1.001874 -0.000270 0.000000 0.000000 0.000000 -0.532315
    16 -1.123359 -2.195091 -0.278957 -0.156504 0.013626 -0.001073
    17 0.010771 -0.963790 0.000000 -0.698121 0.000000 0.000000
    18 -0.010411 -0.631916 0.000000 -0.907581 0.000000 0.000000
    19 -11.577990 -0.618921 -12.244809 0.449680 3.547300 0.862400
    20 0.089928 -8.543162 0.000000 0.040423 0.306694 0.280923
    21 0.000000 -0.359714 0.000001 0.000000 0.000000 0.000000
    22 -0.170480 -2.636147 -0.277655 -0.820310 0.000000 0.000000
    23 0.010599 -1.261177 0.000001 -0.584684 0.000000 0.000000
    24 -0.000001 -0.943232 0.000001 -0.532326 0.000000 0.000000
    25 -0.827563 -2.508973 -0.277656 -0.942498 0.000000 0.000000
    26 0.000000 -1.292970 0.000000 -0.287990 0.000000 0.000000
    27 0.000000 -0.752466 0.000001 -0.445059 0.000000 0.000000
    28 0.444212 -2.561960 -0.277654 -1.081923 -0.017163 -0.036008
    29 0.021022 -1.208186 -0.000001 -0.427606 0.000000 0.000000
    30 0.010597 -0.741867 -0.000002 -0.453786 0.000000 0.000000
    31 1.047444 -2.222821 -0.277654 -1.020924 -0.019611 -0.054824
    32 0.000000 -0.996222 -0.000001 -0.584686 0.000000 0.000000
    33 -0.000001 -0.614690 0.000000 -0.523599 0.000000 0.000000
    34 -0.308254 -0.007814 0.307167 -0.318048 -0.539825 -2.424621
    35 1.978377 0.019543 0.000001 -0.000002 -0.000010 0.558506
    36 0.982426 0.003186 0.000000 0.000000 0.000000 0.663204
  time 31
    0 9.501140 1.618735 -6.065087 -0.090432 -2.424247 -0.025532
    1 0.000000 -8.563282 0.000001 0.024265 0.036968 -0.389215
    2 2.329044 -3.206966 1.345590 -1.323699 1.268421 -1.465555
    3 -0.003480 -0.404830 0.000000 0.000000 0.000000 0.000000
    4 -0.519309 -2.501153 -0.278956 -0.390517 0.037668 -0.005934
    5 -0.010598 -1.208185 0.000000 -1.055925 0.000000 0.000000
    6 0.000000 -0.763066 -0.000001 -0.602148 0.000000 0.000000
    7 0.105981 -2.607132 -0.278957 -0.537311 0.054194 -0.010195
    8 0.000000 -1.250579 0.000000 -0.776677 0.000000 0.000000
    9 -0.000001 -0.932634 0.000000 -1.230461 0.000000 0.000000
    10 0.763064 -2.490553 -0.278957 -0.349065 0.000000 0.130900
    11 -0.012322 -1.280917 0.000000 -0.750491 0.000000 0.000000
    12 -0.001697 -0.749371 -0.000001 -0.907564 0.000000 0.000000
    13 0.354567 0.016268 0.318133 0.743986 -0.762908 -1.122494
    14 1.887164 0.012878 0.000000 -0.040082 -0.219749 -0.583100
    15 1.001874 -0.000270 0.000000 0.000000 0.000000 -0.532315
    16 -1.123359 -2.195091 -0.278957 -0.156504 0.013626 -0.001073
    17 0.010771 -0.963790 0.000000 -0.698121 0.000000 0.000000
    18 -0.010411 -0.631916 0.000000 -0.907581 0.000000 0.000000
    19 -12.546770 -0.591576 -13.217495 0.464033 3.599443 0.826920
    20 0.089928 -8.543162 0.000000 0.198736 0.263830 0.270325
    21 0.000000 -0.359714 0.000001 0.000000 0.000000 0.000000
    22 -0.170480 -2.636147 -0.277655 -0.861523 0.000000 0.000000
    23 0.010599 -1.261177 0.000001 -0.622305 0.000000 0.000000
    24 -0.000001 -0.943232 0.000001 -0.577730 0.000000 0.000000
    25 -0.827563 -2.508973 -0.277656 -0.940406 0.000000 0.000000
    26 0.000000 -1.292970 0.000000 -0.299960 0.000000 0.000000
    27 0.000000 -0.752466 0.000001 -0.524632 0.000000 0.000000
    28 0.444212 -2.561960 -0.277654 -1.130967 -0.017475 -0.034798
    29 0.021022 -1.208186 -0.000001 -0.465226 0.000000 0.000000
    30 0.010597 -0.741867 -0.000002 -0.499190 0.000000 0.000000
    31 1.047444 -2.222821 -0.277654 -1.063530 -0.020138 -0.053710
    32 0.000000 -0.996222 -0.000001 -0.622306 0.000000 0.000000
    33 -0.000001 -0.614690 0.000000 -0.569003 0.000000 0.000000
    34 -0.308254 -0.007814 0.307167 -0.322626 -0.537284 -2.415705
    35 1.978377 0.019543 0.000001 -0.000002 -0.000010 0.538595
    36 0.982426 0.003186 0.000000 0.000000 0.000000 0.707821
  time 32
    0 10.094908 1.892181 -6.850267 -0.163846 -2.429508 0.128823
    1 0.000000 -8.563282 0.000001 0.021610 0.036824 -0.436544
    2 2.329044 -3.206966 1.345590 -1.323699 1.268421 -1.465555
    3 -0.003480 -0.404830 0.000000 0.000000 0.000000 0.000000
    4 -0.519309 -2.501153 -0.278956 -0.390517 0.037668 -0.005934
    5 -0.010598 -1.208185 0.000000 -1.055925 0.000000 0.000000
    6 0.000000 -0.763066 -0.000001 -0.602148 0.000000 0.000000
    7 0.105981 -2.607132 -0.278957 -0.537311 0.054194 -0.010195
    8 0.000000 -1.250579 0.000000 -0.776677 0.000000 0.000000
    9 -0.000001 -0.932634 0.000000 -1.230461 0.000000 0.000000
    10 0.763064 -2.490553 -0.278957 -0.349065 0.000000 0.130900
    11 -0.012322 -1.280917 0.000000 -0.750491 0.000000 0.000000
    12 -0.001697 -0.749371 -0.000001 -0.907564 0.000000 0.000000
    13 0.354567 0.016268 0.318133 0.743986 -0.762908 -1.122494
    14 1.887164 0.012878 0.000000 -0.040082 -0.219749 -0.583100
    15 1.001874 -0.000270 0.000000 0.000000 0.000000 -0.532315
    16 -1.123359 -2.195091 -0.278957 -0.156504 0.013626 -0.001073
    17 0.010771 -0.963790 0.000000 -0.698121 0.000000 0.000000
    18 -0.010411 -0.631916 0.000000 -0.907581 0.000000 0.000000
    19 -13.124913 -0.575951 -13.803450 0.480762 3.650688 0.789833
    20 0.089928 -8.543162 0.000000 0.340190 0.229314 0.249373
    21 0.000000 -0.359714 0.000001 0.000000 0.000000 0.000000
    22 -0.170480 -2.636147 -0.277655 -0.969280 0.000000 0.000000
    23 0.010599 -1.261177 0.000001 -0.718396 0.000000 0.000000
    24 -0.000001 -0.943232 0.000001 -0.699803 0.000000 0.000000
    25 -0.827563 -2.508973 -0.277656 -0.948659 0.000000 0.000000
    26 0.000000 -1.292970 0.000000 -0.365490 0.000000 0.000000
    27 0.000000 -0.752466 0.000001 -0.694243 0.000000 0.000000
    28 0.444212 -2.561960 -0.277654 -1.240965 -0.017954 -0.032557
    29 0.021022 -1.208186 -0.000001 -0.561314 0.000000 0.000000
    30 0.010597 -0.741867 -0.000002 -0.621263 0.000000 0.000000
    31 1.047444 -2.222821 -0.277654 -1.171796 -0.021241 -0.050474
    32 0.000000 -0.996222 -0.000001 -0.718394 0.000000 0.000000
    33 -0.000001 -0.614690 0.000000 -0.691077 0.000000 0.000000
    34 -0.308254 -0.007814 0.307167 -0.335845 -0.529650 -2.389722
    35 1.978377 0.019543 0.000001 -0.000002 -0.000010 0.521432
    36 0.982426 0.003186 0.000000 0.000000 0.000000 0.749238
  time 33
    0 10.821492 2.220316 -7.815140 -0.163846 -2.429508 0.128823
    1 0.000000 -8.563282 0.000001 0.021610 0.036824 -0.436544
    2 2.329044 -3.206966 1.345590 -1.323699 1.268421 -1.465555
    3 -0.003480 -0.404830 0.000000 0.000000 0.000000 0.000000
    4 -0.519309 -2.501153 -0.278956 -0.390517 0.037668 -0.005934
    5 -0.010598 -1.208185 0.000000 -1.055925 0.000000 0.000000
    6 0.000000 -0.763066 -0.000001 -0.602148 0.000000 0.000000
    7 0.105981 -2.607132 -0.278957 -0.537311 0.054194 -0.010195
    8 0.000000 -1.250579 0.000000 -0.776677 0.000000 0.000000
    9 -0.000001 -0.932634 0.000000 -1.230461 0.000000 0.000000
    10 0.763064 -2.490553 -0.278957 -0.349065 0.000000 0.130900
    11 -0.012322 -1.280917 0.000000 -0.750491 0.000000 0.000000
    12 -0.001697 -0.749371 -0.000001 -0.907564 0.000000 0.000000
    13 0.354567 0.016268 0.318133 0.743986 -0.762908 -1.122494
    14 1.887164 0.012878 0.000000 -0.040082 -0.219749 -0.583100
    15 1.001874 -0.000270 0.000000 0.000000 0.000000 -0.532315
    16 -1.123359 -2.195091 -0.278957 -0.156504 0.013626 -0.001073
    17 0.010771 -0.963790 0.000000 -0.698121 0.000000 0.000000
    18 -0.010411 -0.631916 0.000000 -0.907581 0.000000 0.000000
    19 -13.316325 -0.568138 -13.994862 0.497287 3.694228 0.756270
    20 0.089928 -8.543162 0.000000 0.436565 0.210731 0.223232
    21 0.000000 -0.359714 0.000001 0.000000 0.000000 0.000000
    22 -0.170480 -2.636147 -0.277655 -1.116271 0.000000 0.000000
    23 0.010599 -1.261177 0.000001 -0.848877 0.000000 0.000000
    24 -0.000001 -0.943232 0.000001 -0.867098 0.000000 0.000000
    25 -0.827563 -2.508973 -0.277656 -0.963378 0.000000 0.000000
    26 0.000000 -1.292970 0.000000 -0.463397 0.000000 0.000000
    27 0.000000 -0.752466 0.000001 -0.915965 0.000000 0.000000
    28 0.444212 -2.561960 -0.277654 -1.386505 -0.018206 -0.029680
    29 0.021022 -1.208186 -0.000001 -0.691811 0.000000 0.000000
    30 0.010597 -0.741867 -0.000002 -0.788558 0.000000 0.000000
    31 1.047444 -2.222821 -0.277654 -1.318721 -0.022152 -0.045848
    32 0.000000 -0.996222 -0.000001 -0.848891 0.000000 0.000000
    33 -0.000001 -0.614690 0.000000 -0.858371 0.000000 0.000000
    34 -0.308254 -0.007814 0.307167 -0.353726 -0.518528 -2.353972
    35 1.978377 0.019543 0.000001 -0.000002 -0.000010 0.506715
    36 0.982426 0.003186 0.000000 0.000000 0.000000 0.786928
  time 34
    0 10.821492 2.220316 -7.815140 -0.163846 -2.429508 0.128823
    1 0.000000 -8.563282 0.000001 0.021610 0.036824 -0.436544
    2 2.329044 -3.206966 1.345590 -1.323699 1.268421 -1.465555
    3 -0.003480 -0.404830 0.000000 0.000000 0.000000 0.000000
    4 -0.519309 -2.501153 -0.278956 -0.390517 0.037668 -0.005934
    5 -0.010598 -1.208185 0.000000 -1.055925 0.000000 0.000000
    6 0.000000 -0.763066 -0.000001 -0.602148 0.000000 0.000000
    7 0.105981 -2.607132 -0.278957 -0.537311 0.054194 -0.010195
    8 0.000000 -1.250579 0.000000 -0.776677 0.000000 0.000000
    9 -0.000001 -0.932634 0.000000 -1.230461 0.000000 0.000000
    10 0.763064 -2.490553 -0.278957 -0.349065 0.000000 0.130900
    11 -0.012322 -1.280917 0.000000 -0.750491 0.000000 0.000000
    12 -0.001697 -0.749371 -0.000001 -0.907564 0.000000 0.000000
    13 0.354567 0.016268 0.318133 0.743986 -0.762908 -1.122494
    14 1.887164 0.012878 0.000000 -0.040082 -0.219749 -0.583100
    15 1.001874 -0.000270 0.000000 0.000000 0.000000 -0.532315
    16 -1.123359 -2.195091 -0.278957 -0.156504 0.013626 -0.001073
    17 0.010771 -0.963790 0.000000 -0.698121 0.000000 0.000000
    18 -0.010411 -0.631916 0.000000 -0.907581 0.000000 0.000000
    19 -13.574145 -0.536887 -14.205806 0.511674 3.727743 0.728949
    20 0.089928 -8.543162 0.000000 0.444257 0.232940 0.174815
    21 0.000000 -0.359714 0.000001 0.000000 0.000000 0.000000
    22 -0.170480 -2.636147 -0.277655 -1.275290 0.000000 0.000000
    23 0.010599 -1.261177 0.000001 -0.989710 0.000000 0.000000
    24 -0.000001 -0.943232 0.000001 -1.048191 0.000000 0.000000
    25 -0.827563 -2.508973 -0.277656 -0.980588 0.000000 0.000000
    26 0.000000 -1.292970 0.000000 -0.572473 0.000000 0.000000
    27 0.000000 -0.752466 0.000001 -1.151805 0.000000 0.000000
    28 0.444212 -2.561960 -0.277654 -1.542196 -0.018026 -0.026648
    29 0.021022 -1.208186 -0.000001 -0.832640 0.000000 0.000000
    30 0.010597 -0.741867 -0.000002 -0.969651 0.000000 0.000000
    31 1.047444 -2.222821 -0.277654 -1.477372 -0.022367 -0.040742
    32 0.000000 -0.996222 -0.000001 -0.989720 0.000000 0.000000
    33 -0.000001 -0.614690 0.000000 -1.039464 0.000000 0.000000
    34 -0.308254 -0.007814 0.307167 -0.372554 -0.505801 -2.315561
    35 1.978377 0.019543 0.000001 -0.000002 -0.000010 0.494162
    36 0.982426 0.003186 0.000000 0.000000 0.000000 0.820456
  time 35
    0 10.821492 2.220316 -7.815140 -0.163846 -2.429508 0.128823
    1 0.000000 -8.563282 0.000001 0.021610 0.036824 -0.436544
    2 2.329044 -3.206966 1.345590 -1.323699 1.268421 -1.465555
    3 -0.003480 -0.404830 0.000000 0.000000 0.000000 0.000000
    4 -0.519309 -2.501153 -0.278956 -0.390517 0.037668 -0.005934
    5 -0.010598 -1.208185 0.000000 -1.055925 0.000000 0.000000
    6 0.000000 -0.763066 -0.000001 -0.602148 0.000000 0.000000
    7 0.105981 -2.607132 -0.278957 -0.537311 0.054194 -0.010195
    8 0.000000 -1.250579 0.000000 -0.776677 0.000000 0.000000
    9 -0.000001 -0.932634 0.000000 -1.230461 0.000000 0.000000
    10 0.763064 -2.490553 -0.278957 -0.349065 0.000000 0.130900
    11 -0.012322 -1.280917 0.000000 -0.750491 0.000000 0.000000
    12 -0.001697 -0.749371 -0.000001 -0.907564 0.000000 0.000000
    13 0.354567 0.016268 0.318133 0.743986 -0.762908 -1.122494
    14 1.887164 0.012878 0.000000 -0.040082 -0.219749 -0.583100
    15 1.001874 -0.000270 0.000000 0.000000 0.000000 -0.532315
    16 -1.123359 -2.195091 -0.278957 -0.156504 0.013626 -0.001073
    17 0.010771 -0.963790 0.000000 -0.698121 0.000000 0.000000
    18 -0.010411 -0.631916 0.000000 -0.907581 0.000000 0.000000
    19 -14.234321 -0.450947 -14.744885 0.522837 3.751458 0.708737
    20 0.089928 -8.543162 0.000000 0.386094 0.276509 0.111383
    21 0.000000 -0.359714 0.000001 0.000000 0.000000 0.000000
    22 -0.170480 -2.636147 -0.277655 -1.419079 0.000000 0.000000
    23 0.010599 -1.261177 0.000001 -1.116816 0.000000 0.000000
    24 -0.000001 -0.943232 0.000001 -1.211636 0.000000 0.000000
    25 -0.827563 -2.508973 -0.277656 -0.996410 0.000000 0.000000
    26 0.000000 -1.292970 0.000000 -0.671604 0.000000 0.000000
    27 0.000000 -0.752466 0.000001 -1.363941 0.000000 0.000000
    28 0.444212 -2.561960 -0.277654 -1.682624 -0.017475 -0.024000
    29 0.021022 -1.208186 -0.000001 -0.959741 0.000000 0.000000
    30 0.010597 -0.741867 -0.000002 -1.133096 0.000000 0.000000
    31 1.047444 -2.222821 -0.277654 -1.620772 -0.021852 -0.036128
    32 0.000000 -0.996222 -0.000001 -1.116821 0.000000 0.000000
    33 -0.000001 -0.614690 0.000000 -1.202909 0.000000 0.000000
    34 -0.308254 -0.007814 0.307167 -0.388997 -0.493744 -2.281249
    35 1.978377 0.019543 0.000001 -0.000002 -0.000010 0.483492
    36 0.982426 0.003186 0.000000 0.000000 0.000000 0.849295
  time 36
    0 10.821492 2.220316 -7.815140 -0.163846 -2.429508 0.128823
    1 0.000000 -8.563282 0.000001 0.021610 0.036824 -0.436544
    2 2.329044 -3.206966 1.345590 -1.323699 1.268421 -1.465555
    3 -0.003480 -0.404830 0.000000 0.000000 0.000000 0.000000
    4 -0.519309 -2.501153 -0.278956 -0.390517 0.037668 -0.005934
    5 -0.010598 -1.208185 0.000000 -1.055925 0.000000 0.000000
    6 0.000000 -0.763066 -0.000001 -0.602148 0.000000 0.000000
    7 0.105981 -2.607132 -0.278957 -0.537311 0.054194 -0.010195
    8 0.000000 -1.250579 0.000000 -0.776677 0.000000 0.000000
    9 -0.000001 -0.932634 0.000000 -1.230461 0.000000 0.000000
    10 0.763064 -2.490553 -0.278957 -0.349065 0.000000 0.130900
    11 -0.012322 -1.280917 0.000000 -0.750491 0.000000 0.000000
    12 -0.001697 -0.749371 -0.000001 -0.907564 0.000000 0.000000
    13 0.354567 0.016268 0.318133 0.743986 -0.762908 -1.122494
    14 1.887164 0.012878 0.000000 -0.040082 -0.219749 -0.583100
    15 1.001874 -0.000270 0.000000 0.000000 0.000000 -0.532315
    16 -1.123359 -2.195091 -0.278957 -0.156504 0.013626 -0.001073
    17 0.010771 -0.963790 0.000000 -0.698121 0.000000 0.000000
    18 -0.010411 -0.631916 0.000000 -0.907581 0.000000 0.000000
    19 -15.136693 -0.333756 -15.483189 0.529895 3.765597 0.696251
    20 0.089928 -8.543162 0.000000 0.341138 0.287634 0.081771
    21 0.000000 -0.359714 0.000001 0.000000 0.000000 0.000000
    22 -0.170480 -2.636147 -0.277655 -1.520353 0.000000 0.000000
    23 0.010599 -1.261177 0.000001 -1.206136 0.000000 0.000000
    24 -0.000001 -0.943232 0.000001 -1.326011 0.000000 0.000000
    25 -0.827563 -2.508973 -0.277656 -1.006888 0.000000 0.000000
    26 0.000000 -1.292970 0.000000 -0.739562 0.000000 0.000000
    27 0.000000 -0.752466 0.000001 -1.514343 0.000000 0.000000
    28 0.444212 -2.561960 -0.277654 -1.782424 -0.016840 -0.022130
    29 0.021022 -1.208186 -0.000001 -1.049058 0.000000 0.000000
    30 0.010597 -0.741867 -0.000002 -1.247471 0.000000 0.000000
    31 1.047444 -2.222821 -0.277654 -1.721941 -0.021109 -0.032964
    32 0.000000 -0.996222 -0.000001 -1.206138 0.000000 0.000000
    33 -0.000001 -0.614690 0.000000 -1.317284 0.000000 0.000000
    34 -0.308254 -0.007814 0.307167 -0.400178 -0.485008 -2.257472
    35 1.978377 0.019543 0.000001 -0.000002 -0.000010 0.474383
    36 0.982426 0.003186 0.000000 0.000000 0.000000 0.873010
  time 37
    0 10.821492 2.220316 -7.815140 -0.163846 -2.429508 0.128823
    1 0.000000 -8.563282 0.000001 0.021610 0.036824 -0.436544
    2 2.329044 -3.206966 1.345590 -1.323699 1.268421 -1.465555
    3 -0.003480 -0.404830 0.000000 0.000000 0.000000 0.000000
    4 -0.519309 -2.501153 -0.278956 -0.390517 0.037668 -0.005934
    5 -0.010598 -1.208185 0.000000 -1.055925 0.000000 0.000000
    6 0.000000 -0.763066 -0.000001 -0.602148 0.000000 0.000000
    7 0.105981 -2.607132 -0.278957 -0.537311 0.054194 -0.010195
    8 0.000000 -1.250579 0.000000 -0.776677 0.000000 0.000000
    9 -0.000001 -0.932634 0.000000 -1.230461 0.000000 0.000000
    10 0.763064 -2.490553 -0.278957 -0.349065 0.000000 0.130900
    11 -0.012322 -1.280917 0.000000 -0.750491 0.000000 0.000000
    12 -0.001697 -0.749371 -0.000001 -0.907564 0.000000 0.000000
    13 0.354567 0.016268 0.318133 0.743986 -0.762908 -1.122494
    14 1.887164 0.012878 0.000000 -0.040082 -0.219749 -0.583100
    15 1.001874 -0.000270 0.000000 0.000000 0.000000 -0.532315
    16 -1.123359 -2.195091 -0.278957 -0.156504 0.013626 -0.001073
    17 0.010771 -0.963790 0.000000 -0.698121 0.000000 0.000000
    18 -0.010411 -0.631916 0.000000 -0.907581 0.000000 0.000000
    19 -16.117191 -0.208752 -16.287901 0.532321 3.770236 0.692048
    20 0.089928 -8.543162 0.000000 0.331550 0.267165 0.088665
    21 0.000000 -0.359714 0.000001 0.000000 0.000000 0.000000
    22 -0.170480 -2.636147 -0.277655 -1.572084 0.000000 0.000000
    23 0.010599 -1.261177 0.000001 -1.249294 0.000000 0.000000
    24 -0.000001 -0.943232 0.000001 -1.378983 0.000000 0.000000
    25 -0.827563 -2.508973 -0.277656 -1.015997 0.000000 0.000000
    26 0.000000 -1.292970 0.000000 -0.771679 0.000000 0.000000
    27 0.000000 -0.752466 0.000001 -1.584961 0.000000 0.000000
    28 0.444212 -2.561960 -0.277654 -1.834168 -0.016540 -0.021387
    29 0.021022 -1.208186 -0.000001 -1.092214 0.000000 0.000000
    30 0.010597 -0.741867 -0.000002 -1.300443 0.000000 0.000000
    31 1.047444 -2.222821 -0.277654 -1.773713 -0.020749 -0.031742
    32 0.000000 -0.996222 -0.000001 -1.249294 0.000000 0.000000
    33 -0.000001 -0.614690 0.000000 -1.370256 0.000000 0.000000
    34 -0.308254 -0.007814 0.307167 -0.404229 -0.481724 -2.248759
    35 1.978377 0.019543 0.000001 -0.000002 -0.000010 0.470487
    36 0.982426 0.003186 0.000000 0.000000 0.000000 0.889726
  time 38
    0 10.821492 2.220316 -7.815140 -0.163846 -2.429508 0.128823
    1 0.000000 -8.563282 0.000001 0.021610 0.036824 -0.436544
    2 2.329044 -3.206966 1.345590 -1.323699 1.268421 -1.465555
    3 -0.003480 -0.404830 0.000000 0.000000 0.000000 0.000000
    4 -0.519309 -2.501153 -0.278956 -0.390517 0.037668 -0.005934
    5 -0.010598 -1.208185 0.000000 -1.055925 0.000000 0.000000
    6 0.000000 -0.763066 -0.000001 -0.602148 0.000000 0.000000
    7 0.105981 -2.607132 -0.278957 -0.537311 0.054194 -0.010195
    8 0.000000 -1.250579 0.000000 -0.776677 0.000000 0.000000
    9 -0.000001 -0.932634 0.000000 -1.230461 0.000000 0.000000
    10 0.763064 -2.490553 -0.278957 -0.349065 0.000000 0.130900
    11 -0.012322 -1.280917 0.000000 -0.750491 0.000000 0.000000
    12 -0.001697 -0.749371 -0.000001 -0.907564 0.000000 0.000000
    13 0.354567 0.016268 0.318133 0.743986 -0.762908 -1.122494
    14 1.887164 0.012878 0.000000 -0.040082 -0.219749 -0.583100
    15 1.001874 -0.000270 0.000000 0.000000 0.000000 -0.532315
    16 -1.123359 -2.195091 -0.278957 -0.156504 0.013626 -0.001073
    17 0.010771 -0.963790 0.000000 -0.698121 0.000000 0.000000
    18 -0.010411 -0.631916 0.000000 -0.907581 0.000000 0.000000
    19 -17.019563 -0.091561 -17.026205 0.554156 3.662957 0.668869
    20 0.089928 -8.543162 0.000000 0.322278 0.245909 0.096773
    21 0.000000 -0.359714 0.000001 0.000000 0.000000 0.000000
    22 -0.170480 -2.636147 -0.277655 -1.588121 0.000000 0.000000
    23 0.010599 -1.261177 0.000001 -1.259049 0.000000 0.000000
    24 -0.000001 -0.943232 0.000001 -1.387859 0.000000 0.000000
    25 -0.827563 -2.508973 -0.277656 -1.024745 0.000000 0.000000
    26 0.000000 -1.292970 0.000000 -0.780020 0.000000 0.000000
    27 0.000000 -0.752466 0.000001 -1.595742 0.000000 0.000000
    28 0.444212 -2.561960 -0.277654 -1.850202 -0.016588 -0.021447
    29 0.021022 -1.208186 -0.000001 -1.101969 0.000000 0.000000
    30 0.010597 -0.741867 -0.000002 -1.309319 0.000000 0.000000
    31 1.047444 -2.222821 -0.277654 -1.789740 -0.020821 -0.031862
    32 0.000000 -0.996222 -0.000001 -1.259049 0.000000 0.000000
    33 -0.000001 -0.614690 0.000000 -1.379133 0.000000 0.000000
    34 -0.308254 -0.007814 0.307167 -0.403450 -0.482359 -2.250437
    35 1.978377 0.019543 0.000001 -0.000002 -0.000010 0.472426
    36 0.982426 0.003186 0.000000 0.000000 0.000000 0.896605
  time 39
    0 10.821492 2.220316 -7.815140 -0.163846 -2.429508 0.128823
    1 0.000000 -8.563282 0.000001 0.021610 0.036824 -0.436544
    2 2.329044 -3.206966 1.345590 -1.323699 1.268421 -1.465555
    3 -0.003480 -0.404830 0.000000 0.000000 0.000000 0.000000
    4 -0.519309 -2.501153 -0.278956 -0.390517 0.037668 -0.005934
    5 -0.010598 -1.208185 0.000000 -1.055925 0.000000 0.000000
    6 0.000000 -0.763066 -0.000001 -0.602148 0.000000 0.000000
    7 0.105981 -2.607132 -0.278957 -0.537311 0.054194 -0.010195
    8 0.000000 -1.250579 0.000000 -0.776677 0.000000 0.000000
    9 -0.000001 -0.932634 0.000000 -1.230461 0.000000 0.000000
    10 0.763064 -2.490553 -0.278957 -0.349065 0.000000 0.130900
    11 -0.012322 -1.280917 0.000000 -0.750491 0.000000 0.000000
    12 -0.001697 -0.749371 -0.000001 -0.907564 0.000000 0.000000
    13 0.354567 0.016268 0.318133 0.743986 -0.762908 -1.122494
    14 1.887164 0.012878 0.000000 -0.040082 -0.219749 -0.583100
    15 1.001874 -0.000270 0.000000 0.000000 0.000000 -0.532315
    16 -1.123359 -2.195091 -0.278957 -0.156504 0.013626 -0.001073
    17 0.010771 -0.963790 0.000000 -0.698121 0.000000 0.000000
    18 -0.010411 -0.631916 0.000000 -0.907581 0.000000 0.000000
    19 -17.679739 -0.009527 -17.565284 0.572123 3.555230 0.649522
    20 0.089928 -8.543162 0.000000 0.313286 0.223949 0.106022
    21 0.000000 -0.359714 0.000001 0.000000 0.000000 0.000000
    22 -0.170480 -2.636147 -0.277655 -1.572656 0.000000 0.000000
    23 0.010599 -1.261177 0.000001 -1.242976 0.000000 0.000000
    24 -0.000001 -0.943232 0.000001 -1.365838 0.000000 0.000000
    25 -0.827563 -2.508973 -0.277656 -1.024726 0.000000 0.000000
    26 0.000000 -1.292970 0.000000 -0.768592 0.000000 0.000000
    27 0.000000 -0.752466 0.000001 -1.565788 0.000000 0.000000
    28 0.444212 -2.561960 -0.277654 -1.834723 -0.016756 -0.021807
    29 0.021022 -1.208186 -0.000001 -1.085896 0.000000 0.000000
    30 0.010597 -0.741867 -0.000002 -1.287298 0.000000 0.000000
    31 1.047444 -2.222821 -0.277654 -1.774253 -0.021013 -0.032437
    32 0.000000 -0.996222 -0.000001 -1.242976 0.000000 0.000000
    33 -0.000001 -0.614690 0.000000 -1.357111 0.000000 0.000000
    34 -0.308254 -0.007814 0.307167 -0.401305 -0.484109 -2.255075
    35 1.978377 0.019543 0.000001 -0.000002 -0.000010 0.475343
    36 0.982426 0.003186 0.000000 0.000000 0.000000 0.891698
  time 40
    0 10.821492 2.220316 -7.815140 -0.163846 -2.429508 0.128823
    1 0.000000 -8.563282 0.000001 0.021610 0.036824 -0.436544
    2 2.329044 -3.206966 1.345590 -1.323699 1.268421 -1.465555
    3 -0.003480 -0.404830 0.000000 0.000000 0.000000 0.000000
    4 -0.519309 -2.501153 -0.278956 -0.390517 0.037668 -0.005934
    5 -0.010598 -1.208185 0.000000 -1.055925 0.000000 0.000000
    6 0.000000 -0.763066 -0.000001 -0.602148 0.000000 0.000000
    7 0.105981 -2.607132 -0.278957 -0.537311 0.054194 -0.010195
    8 0.000000 -1.250579 0.000000 -0.776677 0.000000 0.000000
    9 -0.000001 -0.932634 0.000000 -1.230461 0.000000 0.000000
    10 0.763064 -2.490553 -0.278957 -0.349065 0.000000 0.130900
    11 -0.012322 -1.280917 0.000000 -0.750491 0.000000 0.000000
    12 -0.001697 -0.749371 -0.000001 -0.907564 0.000000 0.000000
    13 0.354567 0.016268 0.318133 0.743986 -0.762908 -1.122494
    14 1.887164 0.012878 0.000000 -0.040082 -0.219749 -0.583100
    15 1.001874 -0.000270 0.000000 0.000000 0.000000 -0.532315
    16 -1.123359 -2.195091 -0.278957 -0.156504 0.013626 -0.001073
    17 0.010771 -0.963790 0.000000 -0.698121 0.000000 0.000000
    18 -0.010411 -0.631916 0.000000 -0.907581 0.000000 0.000000
    19 -17.937559 0.025630 -17.776228 0.587189 3.447278 0.632956
    20 0.089928 -8.543162 0.000000 0.304453 0.201325 0.116339
    21 0.000000 -0.359714 0.000001 0.000000 0.000000 0.000000
    22 -0.170480 -2.636147 -0.277655 -1.529934 0.000000 0.000000
    23 0.010599 -1.261177 0.000001 -1.208729 0.000000 0.000000
    24 -0.000001 -0.943232 0.000001 -1.326011 0.000000 0.000000
    25 -0.827563 -2.508973 -0.277656 -1.007573 0.000000 0.000000
    26 0.000000 -1.292970 0.000000 -0.741400 0.000000 0.000000
    27 0.000000 -0.752466 0.000001 -1.514343 0.000000 0.000000
    28 0.444212 -2.561960 -0.277654 -1.791996 -0.016756 -0.021926
    29 0.021022 -1.208186 -0.000001 -1.051651 0.000000 0.000000
    30 0.010597 -0.741867 -0.000002 -1.247471 0.000000 0.000000
    31 1.047444 -2.222821 -0.277654 -1.731506 -0.021001 -0.032617
    32 0.000000 -0.996222 -0.000001 -1.208731 0.000000 0.000000
    33 -0.000001 -0.614690 0.000000 -1.317284 0.000000 0.000000
    34 -0.308254 -0.007814 0.307167 -0.401233 -0.484157 -2.255207
    35 1.978377 0.019543 0.000001 -0.000002 -0.000010 0.474383
    36 0.982426 0.003186 0.000000 0.000000 0.000000 0.873010
end
