// Created by Crowbar 0.49.0.0

$modelname "weapons/tfa_cso/c_balrog_1.mdl"

$Include "csonline_gmod.qci"

$bodygroup "weapon"
{
	studio "v_balrog1_balrog1_v"
}

$CDMaterials "models\weapons\tfa_cso\balrog_1"

$attachment 0 "Bone16" 0.5 -4 0
//$attachment 1 "Bone42" 0 0 0

$definebone "root" "" -1.000000 1.629157 0.541027 0.000000 0.000000 0.000000 0.000000 0.000000 0.000000 -0.000000 0.000000 0.000000
$definebone "Bone01" "root" 9.213061 0.689384 -5.936781 -87.597498 177.381763 171.407643 0.000000 -0.000000 0.000000 -0.000000 0.000000 -0.000001
$definebone "Bone_Lefthand" "Bone01" -0.071918 -8.498732 -0.104136 16.186515 3.297717 8.666100 0.000000 0.000000 0.000000 0.000001 0.000000 -0.000000
$definebone "Bone02" "Bone_Lefthand" 2.750566 -2.322580 1.442985 3.042464 -90.105639 14.104674 0.000000 0.000000 0.000000 0.000000 -0.000000 0.000003
$definebone "Dummy01" "Bone02" 7.779880 -0.500198 -0.000001 -0.000003 90.000038 0.000000 0.000000 0.000000 0.000000 -0.000003 0.000000 0.000000
$definebone "Bone16" "Dummy01" 0.000000 -0.000002 0.000000 -0.000003 0.000000 0.000057 0.000000 0.000000 0.000000 -0.000003 0.000000 0.000000
$definebone "Dummy02" "Bone02" 0.312579 -2.903538 -0.000000 0.000003 -89.999983 -0.000000 0.000000 0.000000 -0.000000 0.000003 0.000000 -0.000000
$definebone "Bone34" "Dummy02" 0.000000 0.000001 0.000000 0.000003 0.000000 0.000057 0.000000 0.000000 -0.000000 0.000003 0.000000 -0.000000
$definebone "Bone47" "Bone02" -0.129933 -0.918509 0.000000 -0.000002 129.215979 -0.000001 0.000000 -0.000000 0.000000 -0.000002 -0.000000 -0.000001
$definebone "Bone49" "Bone02" 2.141897 -1.979656 -0.000001 0.000003 -89.999983 -0.000000 0.000000 0.000000 -0.000000 0.000003 0.000000 -0.000000
$definebone "Bone42" "Dummy01" 0.463798 5.344958 -0.000003 0.000055 0.000000 0.000115 0.000000 0.000000 0.000000 -0.000003 0.000000 0.000000
$definebone "Dummy03" "Bone02" 6.942804 -2.364603 -0.000002 0.000003 -89.999983 -0.000000 0.000000 0.000000 0.000000 0.000003 0.000000 -0.000000
$definebone "Bone24" "Dummy03" 0.000000 0.000000 0.000000 0.000003 0.000000 -0.000000 0.000000 0.000000 0.000000 0.000003 0.000000 -0.000000
$definebone "Bone20" "Bone24" -0.228198 -2.184753 0.548634 -89.999983 0.000057 0.000000 0.000000 0.000000 0.000000 -0.000003 -0.000000 -0.000000

$sequence "idleA" {
	"v_balrog1_anims\idleA"
	fps 30
	activity "ACT_VM_IDLE" 1
	snap
}
$sequence "idleB" {
	"v_balrog1_anims\idleB"
	fps 30
}
$sequence "shootA" {
	"v_balrog1_anims\shootA"
	{ event 5001 0 "21" }
	fps 30
	activity "ACT_VM_PRIMARYATTACK" 1
	snap
}
$sequence "shootB" {
	"v_balrog1_anims\shootB"
	{ event 5001 0 "21" }
	fps 30
}
$sequence "reload" {
	"v_balrog1_anims\reload"
	{ event 5004 14 "BALROG1.Reload" }
	fps 30
	activity "ACT_VM_RELOAD" 1
	snap
}
$sequence "draw" {
	"v_balrog1_anims\draw"
	{ event 5004 6 "BALROG1.Draw" }
	fps 30
	activity "ACT_VM_DRAW" 1
	snap
}
$sequence "changeA" {
	"v_balrog1_anims\changeA"
	{ event 5004 12 "weapons/balrog1_changeA.wav" }
	fps 30
}
$sequence "changeB" {
	"v_balrog1_anims\changeB"
	{ event 5004 6 "weapons/balrog1_changeB.wav" }
	fps 30
}
$sequence "reloadB" {
	"v_balrog1_anims\reloadB"
	{ event 5004 14 "weapons/balrog1_reloadB.wav" }
	{ event 5004 37 "weapons/balrog1_reload.wav" }
	fps 30
}
