// Created by Crowbar 0.49.0.0

$modelname "weapons/tfa_cso/c_xm1014red.mdl"



$bodygroup "weapon"
{
	studio "v_xm1014red_v_ref"
}

$CDMaterials "models\weapons\tfa_cso\xm1014_red\"

$attachment 0 "Bone 04" 3.25 -21.200001 2.95
//$attachment 1 "Bone52" 0 -2.5 0


$sequence "idle" {
	"v_xm1014red_anims\idle"
	fps 12
	loop
	activity "ACT_VM_IDLE" 1
	snap
}
$sequence "shoot1" {
	"v_xm1014red_anims\shoot1"
	{ event 5001 0 "21" }
	fps 40
	activity "ACT_VM_PRIMARYATTACK" 1
	snap
}
$sequence "shoot2" {
	"v_xm1014red_anims\shoot2"
	{ event 5001 0 "21" }
	fps 40
	activity "ACT_VM_PRIMARYATTACK" 2
	snap
}
$sequence "insert" {
	"v_xm1014red_anims\insert"
	fps 90
	activity "ACT_VM_RELOAD" 1
	snap
}
$sequence "after_reload" {
	"v_xm1014red_anims\after_reload"
	fps 30
}
$sequence "start_reload" {
	"v_xm1014red_anims\start_reload"
	{ event 5004 20 "items/cliprelease1.wav" }
	fps 30
}
$sequence "draw" {
	"v_xm1014red_anims\draw"
	{ event 5004 1 "weapons/de_deploy.wav" }
	fps 30
}
