version 1
nodes
  0 "root" -1
  1 "Bone01" 0
  2 "Bone_Lefthand" 1
  3 "Bone02" 2
  4 "Dummy01" 3
  5 "Bone08" 4
  6 "Bone16" 3
  7 "Bone_L_Upper" 1
  8 "Bone13" 2
  9 "Bone14" 8
  10 "Bone15" 9
  11 "Bone17" 2
  12 "Bone18" 11
  13 "Bone19" 12
  14 "Bone21" 2
  15 "Bone22" 14
  16 "Bone23" 15
  17 "Bone09" 2
  18 "Bone10" 17
  19 "Bone11" 18
  20 "Bone05" 2
  21 "Bone06" 20
  22 "Bone07" 21
  23 "Bone_Se_Hand-L" 2
  24 "Bone04" 0
  25 "Bone_Righthand" 24
  26 "Bone39" 25
  27 "Bone40" 26
  28 "Bone41" 27
  29 "Bone35" 25
  30 "Bone36" 29
  31 "Bone37" 30
  32 "Bone31" 25
  33 "Bone32" 32
  34 "Bone33" 33
  35 "Bone43" 25
  36 "Bone44" 35
  37 "Bone45" 36
  38 "Bone27" 25
  39 "Bone28" 38
  40 "Bone29" 39
  41 "Bone_Se_Hand-R" 25
  42 "Bone_R_Upper" 24
end
skeleton
  time 0
    0 -0.368931 1.166145 1.199636 0.000000 0.000000 0.000000
    1 10.081810 -1.965432 -9.752672 0.939192 -1.798513 -1.371829
    2 -0.071918 -8.498730 -0.104136 0.145499 0.011305 0.090328
    3 5.233845 1.354622 1.688628 -0.065772 2.858007 1.272336
    4 19.997025 0.102143 0.000001 0.000000 0.000000 0.000000
    5 -16.915008 105.266426 -1.648488 0.000000 0.000000 0.000000
    6 6.506417 1.675302 0.000001 0.000000 0.000000 1.835919
    7 1.257180 8.762585 -0.153713 -1.570562 0.002683 -1.566807
    8 -0.488518 -2.755602 -0.228260 -0.636863 -0.077551 -0.298478
    9 0.039887 -1.479790 0.029854 -2.230118 0.000000 0.000001
    10 0.028786 -1.075731 -0.023109 -0.271941 0.000000 0.000000
    11 0.250027 -2.820665 -0.238396 -0.437192 -0.061406 -0.314674
    12 -0.049759 -1.680544 0.100479 -2.308624 0.000000 -0.000002
    13 -0.034142 -1.148312 0.084782 -0.535851 0.000000 0.000000
    14 0.957766 -2.746780 -0.090302 0.398790 -0.132819 0.006168
    15 -0.033420 -1.397129 -0.011257 -1.455196 0.000000 -0.000001
    16 -0.022360 -0.957436 0.018784 -1.068231 0.000000 0.000000
    17 -1.180681 -2.507217 -0.193859 -0.535961 0.112898 -0.284556
    18 -0.024967 -1.123934 0.017597 -1.884509 0.000000 0.000001
    19 -0.020057 -0.890968 0.010090 -0.772262 0.000000 0.000000
    20 0.583510 -1.197277 0.185379 0.385373 -0.553917 -0.837084
    21 1.535927 0.010246 0.005009 -0.002964 -0.012979 -0.682290
    22 1.100771 0.004527 -0.010679 -0.016147 -0.001453 -1.484153
    23 0.120153 -0.050270 -0.054489 0.287569 3.110905 1.561085
    24 -0.153578 1.397849 -12.040713 0.502817 -3.175164 0.708939
    25 0.096944 -8.450418 -0.009365 -0.763037 -1.346425 1.363381
    26 0.447953 -2.798986 -0.200443 -1.456960 0.099071 0.252834
    27 -0.032909 -1.480204 0.004940 -1.601340 0.000000 0.000002
    28 -0.027022 -1.076920 -0.020210 -0.353735 0.000000 0.000000
    29 -0.249534 -2.846964 -0.174213 -1.241183 0.075210 0.132159
    30 0.043235 -1.683941 0.096012 -1.813709 0.002823 -0.000167
    31 0.031729 -1.160830 0.058838 -0.456154 0.000642 0.008372
    32 -0.963866 -2.785145 -0.085350 -1.148608 0.139589 0.121877
    33 0.028479 -1.403067 0.006271 -1.391232 0.000000 0.000000
    34 0.021413 -0.957781 0.020046 -0.471322 0.000000 0.000000
    35 1.164475 -2.543940 -0.170330 -1.423710 -0.066254 0.446863
    36 0.024032 -1.129042 0.017807 -1.462507 0.000000 0.000001
    37 0.014898 -0.883989 -0.019848 -0.549408 0.000000 0.000000
    38 -0.586770 -1.264477 0.200161 0.313906 -0.927915 -2.922977
    39 1.522835 0.058681 0.016848 0.001410 0.008985 1.029593
    40 1.117947 0.048424 -0.005766 -0.023469 -0.009175 1.254246
    41 -0.139399 -0.111698 0.014397 0.407653 0.171241 1.393752
    42 -6.260806 6.983652 -0.294122 1.580804 -0.005023 -0.912799
  time 1
    0 -0.368931 1.166145 1.199636 0.000000 0.000000 0.000000
    1 10.249784 0.858873 -9.752672 0.976186 -1.813539 -1.416845
    2 -0.071918 -8.498730 -0.104136 0.155458 0.044298 0.090939
    3 5.233845 1.354622 1.688628 -0.065772 2.858007 1.272336
    4 19.997025 0.102143 0.000001 0.000000 0.000000 0.000000
    5 -16.915008 105.266426 -1.648488 0.000000 0.000000 0.000000
    6 6.506417 1.675302 0.000001 0.000000 0.000000 1.841444
    7 1.257180 8.762585 -0.153713 -1.570562 0.002683 -1.566807
    8 -0.488518 -2.755602 -0.228260 -0.636863 -0.077551 -0.298478
    9 0.039887 -1.479790 0.029854 -2.230118 0.000000 0.000001
    10 0.028786 -1.075731 -0.023109 -0.271941 0.000000 0.000000
    11 0.250027 -2.820665 -0.238396 -0.437192 -0.061406 -0.314674
    12 -0.049759 -1.680544 0.100479 -2.308624 0.000000 -0.000002
    13 -0.034142 -1.148312 0.084782 -0.535851 0.000000 0.000000
    14 0.957766 -2.746780 -0.090302 0.398790 -0.132819 0.006168
    15 -0.033420 -1.397129 -0.011257 -1.455196 0.000000 -0.000001
    16 -0.022360 -0.957436 0.018784 -1.068231 0.000000 0.000000
    17 -1.180681 -2.507217 -0.193859 -0.535961 0.112898 -0.284556
    18 -0.024967 -1.123934 0.017597 -1.884509 0.000000 0.000001
    19 -0.020057 -0.890968 0.010090 -0.772262 0.000000 0.000000
    20 0.583510 -1.197277 0.185379 0.385373 -0.553917 -0.837084
    21 1.535927 0.010246 0.005009 -0.002964 -0.012979 -0.682290
    22 1.100771 0.004527 -0.010679 -0.016147 -0.001453 -1.484153
    23 0.120153 -0.050270 -0.054489 0.287569 3.110905 1.561085
    24 -0.083263 4.331532 -11.669608 0.480480 -3.144994 0.699718
    25 0.096944 -8.450418 -0.009365 -0.763037 -1.346425 1.363381
    26 0.447953 -2.798986 -0.200443 -1.456960 0.099071 0.252834
    27 -0.032909 -1.480204 0.004940 -1.601340 0.000000 0.000002
    28 -0.027022 -1.076920 -0.020210 -0.353735 0.000000 0.000000
    29 -0.249534 -2.846964 -0.174213 -1.241183 0.075210 0.132159
    30 0.043235 -1.683941 0.096012 -1.813709 0.002823 -0.000167
    31 0.031729 -1.160830 0.058838 -0.456154 0.000642 0.008372
    32 -0.963866 -2.785145 -0.085350 -1.148608 0.139589 0.121877
    33 0.028479 -1.403067 0.006271 -1.391232 0.000000 0.000000
    34 0.021413 -0.957781 0.020046 -0.471322 0.000000 0.000000
    35 1.164475 -2.543940 -0.170330 -1.423710 -0.066254 0.446863
    36 0.024032 -1.129042 0.017807 -1.462507 0.000000 0.000001
    37 0.014898 -0.883989 -0.019848 -0.549408 0.000000 0.000000
    38 -0.586770 -1.264477 0.200161 0.313906 -0.927915 -2.922977
    39 1.522835 0.058681 0.016848 0.001410 0.008985 1.029593
    40 1.117947 0.048424 -0.005766 -0.023469 -0.009175 1.254246
    41 -0.139399 -0.111698 0.014397 0.407653 0.171241 1.393752
    42 -6.260806 6.983652 -0.294122 1.580804 -0.005023 -0.912799
  time 2
    0 -0.368931 1.166145 1.199636 0.000000 0.000000 0.000000
    1 10.378694 1.050285 -9.737047 0.956791 -1.809050 -1.403858
    2 -0.071918 -8.498730 -0.104136 0.161558 0.062587 0.090699
    3 5.233845 1.354622 1.688628 -0.065772 2.858007 1.272336
    4 19.997025 0.102143 0.000001 0.000000 0.000000 0.000000
    5 -16.915008 105.266426 -1.648488 0.000000 0.000000 0.000000
    6 6.506417 1.675302 0.000001 0.000000 0.000000 1.850648
    7 1.257180 8.762585 -0.153713 -1.570562 0.002683 -1.566807
    8 -0.488518 -2.755602 -0.228260 -0.636863 -0.077551 -0.298478
    9 0.039887 -1.479790 0.029854 -2.230118 0.000000 0.000001
    10 0.028786 -1.075731 -0.023109 -0.271941 0.000000 0.000000
    11 0.250027 -2.820665 -0.238396 -0.437192 -0.061406 -0.314674
    12 -0.049759 -1.680544 0.100479 -2.308624 0.000000 -0.000002
    13 -0.034142 -1.148312 0.084782 -0.535851 0.000000 0.000000
    14 0.957766 -2.746780 -0.090302 0.398790 -0.132819 0.006168
    15 -0.033420 -1.397129 -0.011257 -1.455196 0.000000 -0.000001
    16 -0.022360 -0.957436 0.018784 -1.068231 0.000000 0.000000
    17 -1.180681 -2.507217 -0.193859 -0.535961 0.112898 -0.284556
    18 -0.024967 -1.123934 0.017597 -1.884509 0.000000 0.000001
    19 -0.020057 -0.890968 0.010090 -0.772262 0.000000 0.000000
    20 0.583510 -1.197277 0.185379 0.385373 -0.553917 -0.837084
    21 1.535927 0.010246 0.005009 -0.002964 -0.012979 -0.682290
    22 1.100771 0.004527 -0.010679 -0.016147 -0.001453 -1.484153
    23 0.120153 -0.050270 -0.054489 0.287569 3.110905 1.561085
    24 0.006583 4.616697 -11.466477 0.461354 -3.143424 0.694394
    25 0.096944 -8.450418 -0.009365 -0.763037 -1.346425 1.363381
    26 0.447953 -2.798986 -0.200443 -1.456960 0.099071 0.252834
    27 -0.032909 -1.480204 0.004940 -1.601340 0.000000 0.000002
    28 -0.027022 -1.076920 -0.020210 -0.353735 0.000000 0.000000
    29 -0.249534 -2.846964 -0.174213 -1.241183 0.075210 0.132159
    30 0.043235 -1.683941 0.096012 -1.813709 0.002823 -0.000167
    31 0.031729 -1.160830 0.058838 -0.456154 0.000642 0.008372
    32 -0.963866 -2.785145 -0.085350 -1.148608 0.139589 0.121877
    33 0.028479 -1.403067 0.006271 -1.391232 0.000000 0.000000
    34 0.021413 -0.957781 0.020046 -0.471322 0.000000 0.000000
    35 1.164475 -2.543940 -0.170330 -1.423710 -0.066254 0.446863
    36 0.024032 -1.129042 0.017807 -1.462507 0.000000 0.000001
    37 0.014898 -0.883989 -0.019848 -0.549408 0.000000 0.000000
    38 -0.586770 -1.264477 0.200161 0.313906 -0.927915 -2.922977
    39 1.522835 0.058681 0.016848 0.001410 0.008985 1.029593
    40 1.117947 0.048424 -0.005766 -0.023469 -0.009175 1.254246
    41 -0.139399 -0.111698 0.014397 0.407653 0.171241 1.393752
    42 -6.260806 6.983652 -0.294122 1.580804 -0.005023 -0.912799
  time 3
    0 -0.368931 1.166145 1.199636 0.000000 0.000000 0.000000
    1 10.507604 0.878404 -9.709702 0.925903 -1.800376 -1.379112
    2 -0.071918 -8.498730 -0.104136 0.158358 0.043016 0.089585
    3 5.233845 1.354622 1.688628 -0.065772 2.858007 1.272336
    4 19.997025 0.102143 0.000001 0.000000 0.000000 0.000000
    5 -16.915008 105.266426 -1.648488 0.000000 0.000000 0.000000
    6 6.506417 1.675302 0.000001 0.000000 0.000000 1.852494
    7 1.257180 8.762585 -0.153713 -1.570562 0.002683 -1.566807
    8 -0.488518 -2.755602 -0.228260 -0.636863 -0.077551 -0.298478
    9 0.039887 -1.479790 0.029854 -2.230118 0.000000 0.000001
    10 0.028786 -1.075731 -0.023109 -0.271941 0.000000 0.000000
    11 0.250027 -2.820665 -0.238396 -0.437192 -0.061406 -0.314674
    12 -0.049759 -1.680544 0.100479 -2.308624 0.000000 -0.000002
    13 -0.034142 -1.148312 0.084782 -0.535851 0.000000 0.000000
    14 0.957766 -2.746780 -0.090302 0.398790 -0.132819 0.006168
    15 -0.033420 -1.397129 -0.011257 -1.455196 0.000000 -0.000001
    16 -0.022360 -0.957436 0.018784 -1.068231 0.000000 0.000000
    17 -1.180681 -2.507217 -0.193859 -0.535961 0.112898 -0.284556
    18 -0.024967 -1.123934 0.017597 -1.884509 0.000000 0.000001
    19 -0.020057 -0.890968 0.010090 -0.772262 0.000000 0.000000
    20 0.583510 -1.197277 0.185379 0.385373 -0.553917 -0.837084
    21 1.535927 0.010246 0.005009 -0.002964 -0.012979 -0.682290
    22 1.100771 0.004527 -0.010679 -0.016147 -0.001453 -1.484153
    23 0.120153 -0.050270 -0.054489 0.287569 3.110905 1.561085
    24 0.197995 4.472161 -11.673514 0.474863 -3.162869 0.691827
    25 0.096944 -8.450418 -0.009365 -0.763037 -1.346425 1.363381
    26 0.447953 -2.798986 -0.200443 -1.456960 0.099071 0.252834
    27 -0.032909 -1.480204 0.004940 -1.601340 0.000000 0.000002
    28 -0.027022 -1.076920 -0.020210 -0.353735 0.000000 0.000000
    29 -0.249534 -2.846964 -0.174213 -1.241183 0.075210 0.132159
    30 0.043235 -1.683941 0.096012 -1.813709 0.002823 -0.000167
    31 0.031729 -1.160830 0.058838 -0.456154 0.000642 0.008372
    32 -0.963866 -2.785145 -0.085350 -1.148608 0.139589 0.121877
    33 0.028479 -1.403067 0.006271 -1.391232 0.000000 0.000000
    34 0.021413 -0.957781 0.020046 -0.471322 0.000000 0.000000
    35 1.164475 -2.543940 -0.170330 -1.423710 -0.066254 0.446863
    36 0.024032 -1.129042 0.017807 -1.462507 0.000000 0.000001
    37 0.014898 -0.883989 -0.019848 -0.549408 0.000000 0.000000
    38 -0.586770 -1.264477 0.200161 0.313906 -0.927915 -2.922977
    39 1.522835 0.058681 0.016848 0.001410 0.008985 1.029593
    40 1.117947 0.048424 -0.005766 -0.023469 -0.009175 1.254246
    41 -0.139399 -0.111698 0.014397 0.407653 0.171241 1.393752
    42 -6.260806 6.983652 -0.294122 1.580804 -0.005023 -0.912799
  time 4
    0 -0.368931 1.166145 1.199636 0.000000 0.000000 0.000000
    1 10.620889 0.534644 -9.705796 0.896811 -1.794757 -1.356209
    2 -0.071918 -8.498730 -0.104136 0.151755 0.010370 0.087643
    3 5.233845 1.354622 1.688628 -0.065772 2.858007 1.272336
    4 19.997025 0.102143 0.000001 0.000000 0.000000 0.000000
    5 -16.915008 105.266426 -1.648488 0.000000 0.000000 0.000000
    6 6.506417 1.675302 0.000001 0.000000 0.000000 1.835919
    7 1.257180 8.762585 -0.153713 -1.570562 0.002683 -1.566807
    8 -0.488518 -2.755602 -0.228260 -0.636863 -0.077551 -0.298478
    9 0.039887 -1.479790 0.029854 -2.230118 0.000000 0.000001
    10 0.028786 -1.075731 -0.023109 -0.271941 0.000000 0.000000
    11 0.250027 -2.820665 -0.238396 -0.437192 -0.061406 -0.314674
    12 -0.049759 -1.680544 0.100479 -2.308695 0.000000 -0.000002
    13 -0.034142 -1.148312 0.084782 -0.535851 0.000000 0.000000
    14 0.957766 -2.746780 -0.090302 0.398790 -0.132819 0.006168
    15 -0.033420 -1.397129 -0.011257 -1.455196 0.000000 -0.000001
    16 -0.022360 -0.957436 0.018784 -1.068231 0.000000 0.000000
    17 -1.180681 -2.507217 -0.193859 -0.535942 0.112898 -0.284556
    18 -0.024967 -1.123934 0.017597 -1.884509 0.000000 0.000001
    19 -0.020057 -0.890968 0.010090 -0.772262 0.000000 0.000000
    20 0.583510 -1.197277 0.185379 0.385373 -0.553917 -0.837084
    21 1.535927 0.010246 0.005009 -0.002964 -0.012979 -0.682290
    22 1.100771 0.004527 -0.010679 -0.016147 -0.001453 -1.484153
    23 0.120153 -0.050270 -0.054489 0.287569 3.110905 1.561085
    24 0.428471 4.136214 -12.040713 0.502483 -3.186675 0.689736
    25 0.096944 -8.450418 -0.009365 -0.763037 -1.346425 1.363381
    26 0.447953 -2.798986 -0.200443 -1.456960 0.099071 0.252834
    27 -0.032909 -1.480204 0.004940 -1.601340 0.000000 0.000002
    28 -0.027022 -1.076920 -0.020210 -0.353735 0.000000 0.000000
    29 -0.249534 -2.846964 -0.174213 -1.241183 0.075210 0.132159
    30 0.043235 -1.683941 0.096012 -1.813709 0.002823 -0.000167
    31 0.031729 -1.160830 0.058838 -0.456154 0.000642 0.008372
    32 -0.963866 -2.785145 -0.085350 -1.148608 0.139589 0.121877
    33 0.028479 -1.403067 0.006271 -1.391232 0.000000 0.000000
    34 0.021413 -0.957781 0.020046 -0.471322 0.000000 0.000000
    35 1.164475 -2.543940 -0.170330 -1.423710 -0.066254 0.446863
    36 0.024032 -1.129042 0.017807 -1.462507 0.000000 0.000001
    37 0.014898 -0.883989 -0.019848 -0.549408 0.000000 0.000000
    38 -0.586770 -1.264477 0.200161 0.313906 -0.927915 -2.922977
    39 1.522835 0.058681 0.016848 0.001410 0.008985 1.029593
    40 1.117947 0.048424 -0.005766 -0.023469 -0.009175 1.254246
    41 -0.139399 -0.111698 0.014397 0.407653 0.171241 1.393752
    42 -6.260806 6.983652 -0.294122 1.580804 -0.005023 -0.912799
  time 5
    0 -0.368931 1.166145 1.199636 0.000000 0.000000 0.000000
    1 10.706829 0.202603 -9.752672 0.886575 -1.799063 -1.353137
    2 -0.071918 -8.498730 -0.104136 0.147129 -0.007595 0.080800
    3 5.233845 1.354622 1.688628 -0.065772 2.858007 1.272336
    4 19.997025 0.102143 0.000001 0.000000 0.000000 0.000000
    5 -16.915008 105.266426 -1.648488 0.000000 0.000000 0.000000
    6 6.506417 1.675302 0.000001 0.000000 0.000000 1.792151
    7 1.257180 8.762585 -0.153713 -1.570562 0.002683 -1.566807
    8 -0.488518 -2.755602 -0.228260 -0.636863 -0.077551 -0.298478
    9 0.039887 -1.479790 0.029854 -2.230118 0.000000 0.000001
    10 0.028786 -1.075731 -0.023109 -0.271941 0.000000 0.000000
    11 0.250027 -2.820665 -0.238396 -0.437192 -0.061406 -0.314674
    12 -0.049759 -1.680544 0.100479 -2.308695 0.000000 -0.000002
    13 -0.034142 -1.148312 0.084782 -0.535851 0.000000 0.000000
    14 0.957766 -2.746780 -0.090302 0.398790 -0.132819 0.006168
    15 -0.033420 -1.397129 -0.011257 -1.383683 0.000000 -0.000001
    16 -0.022360 -0.957436 0.018784 -0.996679 0.000000 0.000000
    17 -1.180681 -2.507217 -0.193859 -0.535961 0.112898 -0.284556
    18 -0.024967 -1.123934 0.017597 -1.884509 0.000000 0.000001
    19 -0.020057 -0.890968 0.010090 -0.772262 0.000000 0.000000
    20 0.583510 -1.197277 0.185379 0.385373 -0.553917 -0.837084
    21 1.535927 0.010246 0.005009 -0.002964 -0.012979 -0.682290
    22 1.100771 0.004527 -0.010679 -0.016147 -0.001453 -1.484153
    23 0.120153 -0.050270 -0.054489 0.287569 3.110905 1.561085
    24 0.604258 3.851049 -12.279002 0.521409 -3.200626 0.685077
    25 0.096944 -8.450418 -0.009365 -0.763037 -1.346425 1.363381
    26 0.447953 -2.798986 -0.200443 -1.456960 0.099071 0.252834
    27 -0.032909 -1.480204 0.004940 -1.601340 0.000000 0.000002
    28 -0.027022 -1.076920 -0.020210 -0.353735 0.000000 0.000000
    29 -0.249534 -2.846964 -0.174213 -1.241183 0.075210 0.132159
    30 0.043235 -1.683941 0.096012 -1.813709 0.002823 -0.000167
    31 0.031729 -1.160830 0.058838 -0.456154 0.000642 0.008372
    32 -0.963866 -2.785145 -0.085350 -1.148608 0.139589 0.121877
    33 0.028479 -1.403067 0.006271 -1.391232 0.000000 0.000000
    34 0.021413 -0.957781 0.020046 -0.471322 0.000000 0.000000
    35 1.164475 -2.543940 -0.170330 -1.423710 -0.066254 0.446863
    36 0.024032 -1.129042 0.017807 -1.462507 0.000000 0.000001
    37 0.014898 -0.883989 -0.019848 -0.549408 0.000000 0.000000
    38 -0.586770 -1.264477 0.200161 0.313906 -0.927915 -2.922977
    39 1.522835 0.058681 0.016848 0.001410 0.008985 1.029593
    40 1.117947 0.048424 -0.005766 -0.023469 -0.009175 1.254246
    41 -0.139399 -0.111698 0.014397 0.407653 0.171241 1.393752
    42 -6.260806 6.983652 -0.294122 1.580804 -0.005023 -0.912799
  time 6
    0 -0.368931 1.166145 1.199636 0.000000 0.000000 0.000000
    1 10.722455 -0.137251 -9.889395 0.898607 -1.814944 -1.372794
    2 -0.071918 -8.498730 -0.104136 0.146697 0.006247 0.066418
    3 5.233845 1.354622 1.688628 -0.065772 2.858007 1.272336
    4 19.997025 0.102143 0.000001 0.000000 0.000000 0.000000
    5 -16.915008 105.266426 -1.648488 0.000000 0.000000 0.000000
    6 6.506417 1.675302 0.000001 0.000000 0.000000 1.729340
    7 1.257180 8.762585 -0.153713 -1.570562 0.002683 -1.566807
    8 -0.488518 -2.755602 -0.228260 -0.636863 -0.077551 -0.298478
    9 0.039887 -1.479790 0.029854 -2.230118 0.000000 0.000001
    10 0.028786 -1.075731 -0.023109 -0.271941 0.000000 0.000000
    11 0.250027 -2.820665 -0.238396 -0.437192 -0.061406 -0.314674
    12 -0.049759 -1.680544 0.100479 -2.308624 0.000000 -0.000002
    13 -0.034142 -1.148312 0.084782 -0.535851 0.000000 0.000000
    14 0.957766 -2.746780 -0.090302 0.398790 -0.132819 0.006168
    15 -0.033420 -1.397129 -0.011257 -1.213129 0.000000 -0.000001
    16 -0.022360 -0.957436 0.018784 -0.826091 0.000000 0.000000
    17 -1.180681 -2.507217 -0.193859 -0.535961 0.112898 -0.284556
    18 -0.024967 -1.123934 0.017597 -1.884509 0.000000 0.000001
    19 -0.020057 -0.890968 0.010090 -0.772262 0.000000 0.000000
    20 0.583510 -1.197277 0.185379 0.385373 -0.553917 -0.837084
    21 1.535927 0.010246 0.005009 -0.002964 -0.012979 -0.682290
    22 1.100771 0.004527 -0.010679 -0.016147 -0.001453 -1.484153
    23 0.120153 -0.050270 -0.054489 0.287569 3.110905 1.561085
    24 0.651134 3.640105 -12.239938 0.515992 -3.198795 0.674905
    25 0.096944 -8.450418 -0.009365 -0.763037 -1.346425 1.363381
    26 0.447953 -2.798986 -0.200443 -1.456960 0.099071 0.252834
    27 -0.032909 -1.480204 0.004940 -1.601340 0.000000 0.000002
    28 -0.027022 -1.076920 -0.020210 -0.353735 0.000000 0.000000
    29 -0.249534 -2.846964 -0.174213 -1.241183 0.075210 0.132159
    30 0.043235 -1.683941 0.096012 -1.813709 0.002823 -0.000167
    31 0.031729 -1.160830 0.058838 -0.456154 0.000642 0.008372
    32 -0.963866 -2.785145 -0.085350 -1.148608 0.139589 0.121877
    33 0.028479 -1.403067 0.006271 -1.391232 0.000000 0.000000
    34 0.021413 -0.957781 0.020046 -0.471322 0.000000 0.000000
    35 1.164475 -2.543940 -0.170330 -1.423710 -0.066254 0.446863
    36 0.024032 -1.129042 0.017807 -1.462507 0.000000 0.000001
    37 0.014898 -0.883989 -0.019848 -0.549408 0.000000 0.000000
    38 -0.586770 -1.264477 0.200161 0.313906 -0.927915 -2.922977
    39 1.522835 0.058681 0.016848 0.001410 0.008985 1.029593
    40 1.117947 0.048424 -0.005766 -0.023469 -0.009175 1.254246
    41 -0.139399 -0.111698 0.014397 0.407653 0.171241 1.393752
    42 -6.260806 6.983652 -0.294122 1.580804 -0.005023 -0.912799
  time 7
    0 -0.368931 1.166145 1.199636 0.000000 0.000000 0.000000
    1 10.695110 -0.563046 -10.100339 0.918810 -1.837514 -1.400875
    2 -0.071918 -8.498730 -0.104136 0.147632 0.034819 0.046967
    3 5.233845 1.354622 1.688628 -0.065772 2.858007 1.272336
    4 19.997025 0.102143 0.000001 0.000000 0.000000 0.000000
    5 -16.915008 105.266426 -1.648488 0.000000 0.000000 0.000000
    6 6.506417 1.675302 0.000001 0.000000 0.000000 1.661903
    7 1.257180 8.762585 -0.153713 -1.570562 0.002683 -1.566807
    8 -0.488518 -2.755602 -0.228260 -0.636863 -0.077551 -0.298478
    9 0.039887 -1.479790 0.029854 -2.230118 0.000000 0.000001
    10 0.028786 -1.075731 -0.023109 -0.271941 0.000000 0.000000
    11 0.250027 -2.820665 -0.238396 -0.437192 -0.061406 -0.314674
    12 -0.049759 -1.680544 0.100479 -2.308695 0.000000 -0.000002
    13 -0.034142 -1.148312 0.084782 -0.535851 0.000000 0.000000
    14 0.957766 -2.746780 -0.090302 0.398790 -0.132819 0.006168
    15 -0.033420 -1.397129 -0.011257 -1.009531 0.000000 -0.000001
    16 -0.022360 -0.957436 0.018784 -0.622492 0.000000 0.000000
    17 -1.180681 -2.507217 -0.193859 -0.535961 0.112898 -0.284556
    18 -0.024967 -1.123934 0.017597 -1.884509 0.000000 0.000001
    19 -0.020057 -0.890968 0.010090 -0.772262 0.000000 0.000000
    20 0.583510 -1.197277 0.185379 0.385373 -0.553917 -0.837084
    21 1.535927 0.010246 0.005009 -0.002964 -0.012979 -0.682290
    22 1.100771 0.004527 -0.010679 -0.016147 -0.001453 -1.484153
    23 0.120153 -0.050270 -0.054489 0.287569 3.110905 1.561085
    24 0.631602 3.386191 -12.087590 0.499741 -3.190163 0.662166
    25 0.096944 -8.450418 -0.009365 -0.763037 -1.346425 1.363381
    26 0.447953 -2.798986 -0.200443 -1.456960 0.099071 0.252834
    27 -0.032909 -1.480204 0.004940 -1.601340 0.000000 0.000002
    28 -0.027022 -1.076920 -0.020210 -0.353735 0.000000 0.000000
    29 -0.249534 -2.846964 -0.174213 -1.241183 0.075210 0.132159
    30 0.043235 -1.683941 0.096012 -1.813709 0.002823 -0.000167
    31 0.031729 -1.160830 0.058838 -0.456154 0.000642 0.008372
    32 -0.963866 -2.785145 -0.085350 -1.148608 0.139589 0.121877
    33 0.028479 -1.403067 0.006271 -1.391232 0.000000 0.000000
    34 0.021413 -0.957781 0.020046 -0.471322 0.000000 0.000000
    35 1.164475 -2.543940 -0.170330 -1.423710 -0.066254 0.446863
    36 0.024032 -1.129042 0.017807 -1.462507 0.000000 0.000001
    37 0.014898 -0.883989 -0.019848 -0.549408 0.000000 0.000000
    38 -0.586770 -1.264477 0.200161 0.313906 -0.927915 -2.922977
    39 1.522835 0.058681 0.016848 0.001410 0.008985 1.029593
    40 1.117947 0.048424 -0.005766 -0.023469 -0.009175 1.254246
    41 -0.139399 -0.111698 0.014397 0.407653 0.171241 1.393752
    42 -6.260806 6.983652 -0.294122 1.580804 -0.005023 -0.912799
  time 8
    0 -0.368931 1.166145 1.199636 0.000000 0.000000 0.000000
    1 10.699016 -0.957589 -10.303470 0.939641 -1.863810 -1.429833
    2 -0.071918 -8.498730 -0.104136 0.148207 0.054569 0.025539
    3 5.233845 1.354622 1.688628 -0.065772 2.858007 1.272336
    4 19.997025 0.102143 0.000001 0.000000 0.000000 0.000000
    5 -16.915008 105.266426 -1.648488 0.000000 0.000000 0.000000
    6 6.506417 1.675302 0.000001 0.000000 0.000000 1.604257
    7 1.257180 8.762585 -0.153713 -1.570562 0.002683 -1.566807
    8 -0.488518 -2.755602 -0.228260 -0.636863 -0.077551 -0.298478
    9 0.039887 -1.479790 0.029854 -2.230118 0.000000 0.000001
    10 0.028786 -1.075731 -0.023109 -0.271941 0.000000 0.000000
    11 0.250027 -2.820665 -0.238396 -0.437192 -0.061406 -0.314674
    12 -0.049759 -1.680544 0.100479 -2.308624 0.000000 -0.000002
    13 -0.034142 -1.148312 0.084782 -0.535851 0.000000 0.000000
    14 0.957766 -2.746780 -0.090302 0.398790 -0.132819 0.006168
    15 -0.033420 -1.397129 -0.011257 -0.838931 0.000000 -0.000001
    16 -0.022360 -0.957436 0.018784 -0.451938 0.000000 0.000000
    17 -1.180681 -2.507217 -0.193859 -0.535961 0.112898 -0.284556
    18 -0.024967 -1.123934 0.017597 -1.884509 0.000000 0.000001
    19 -0.020057 -0.890968 0.010090 -0.772262 0.000000 0.000000
    20 0.583510 -1.197277 0.185379 0.385373 -0.553917 -0.837084
    21 1.535927 0.010246 0.005009 -0.002964 -0.012979 -0.682290
    22 1.100771 0.004527 -0.010679 -0.016147 -0.001453 -1.484153
    23 0.120153 -0.050270 -0.054489 0.287569 3.110905 1.561085
    24 0.651134 3.143996 -12.013369 0.493187 -3.183971 0.651994
    25 0.096944 -8.450418 -0.009365 -0.763037 -1.346425 1.363381
    26 0.447953 -2.798986 -0.200443 -1.456960 0.099071 0.252834
    27 -0.032909 -1.480204 0.004940 -1.601340 0.000000 0.000002
    28 -0.027022 -1.076920 -0.020210 -0.353735 0.000000 0.000000
    29 -0.249534 -2.846964 -0.174213 -1.241183 0.075210 0.132159
    30 0.043235 -1.683941 0.096012 -1.813709 0.002823 -0.000167
    31 0.031729 -1.160830 0.058838 -0.456154 0.000642 0.008372
    32 -0.963866 -2.785145 -0.085350 -1.148608 0.139589 0.121877
    33 0.028479 -1.403067 0.006271 -1.391232 0.000000 0.000000
    34 0.021413 -0.957781 0.020046 -0.471322 0.000000 0.000000
    35 1.164475 -2.543940 -0.170330 -1.423710 -0.066254 0.446863
    36 0.024032 -1.129042 0.017807 -1.462507 0.000000 0.000001
    37 0.014898 -0.883989 -0.019848 -0.549408 0.000000 0.000000
    38 -0.586770 -1.264477 0.200161 0.313906 -0.927915 -2.922977
    39 1.522835 0.058681 0.016848 0.001410 0.008985 1.029593
    40 1.117947 0.048424 -0.005766 -0.023469 -0.009175 1.254246
    41 -0.139399 -0.111698 0.014397 0.407653 0.171241 1.393752
    42 -6.260806 6.983652 -0.294122 1.580804 -0.005023 -0.912799
  time 9
    0 -0.368931 1.166145 1.199636 0.000000 0.000000 0.000000
    1 10.745893 -1.316975 -10.498789 0.956701 -1.890626 -1.455193
    2 -0.071918 -8.498730 -0.104136 0.148243 0.061664 0.003248
    3 5.233845 1.354622 1.688628 -0.065772 2.858007 1.272336
    4 19.997025 0.102143 0.000001 0.000000 0.000000 0.000000
    5 -16.915008 105.266426 -1.648488 0.000000 0.000000 0.000000
    6 6.506417 1.675302 0.000001 0.000000 0.000000 1.570796
    7 1.257180 8.762585 -0.153713 -1.570562 0.002683 -1.566807
    8 -0.488518 -2.755602 -0.228260 -0.636863 -0.077551 -0.298478
    9 0.039887 -1.479790 0.029854 -2.230118 0.000000 0.000001
    10 0.028786 -1.075731 -0.023109 -0.271941 0.000000 0.000000
    11 0.250027 -2.820665 -0.238396 -0.437192 -0.061406 -0.314674
    12 -0.049759 -1.680544 0.100479 -2.308695 0.000000 -0.000002
    13 -0.034142 -1.148312 0.084782 -0.535851 0.000000 0.000000
    14 0.957766 -2.746780 -0.090302 0.398790 -0.132819 0.006168
    15 -0.033420 -1.397129 -0.011257 -0.767419 0.000000 -0.000001
    16 -0.022360 -0.957436 0.018784 -0.380385 0.000000 0.000000
    17 -1.180681 -2.507217 -0.193859 -0.535961 0.112898 -0.284556
    18 -0.024967 -1.123934 0.017597 -1.884509 0.000000 0.000001
    19 -0.020057 -0.890968 0.010090 -0.772262 0.000000 0.000000
    20 0.583510 -1.197277 0.185379 0.385373 -0.553917 -0.837084
    21 1.535927 0.010246 0.005009 -0.002964 -0.012979 -0.682290
    22 1.100771 0.004527 -0.010679 -0.016147 -0.001453 -1.484153
    23 0.120153 -0.050270 -0.054489 0.287569 3.110905 1.561085
    24 0.729262 2.901801 -12.071964 0.498069 -3.183274 0.645150
    25 0.096944 -8.450418 -0.009365 -0.763037 -1.346425 1.363381
    26 0.447953 -2.798986 -0.200443 -1.456960 0.099071 0.252834
    27 -0.032909 -1.480204 0.004940 -1.601340 0.000000 0.000002
    28 -0.027022 -1.076920 -0.020210 -0.353735 0.000000 0.000000
    29 -0.249534 -2.846964 -0.174213 -1.241183 0.075210 0.132159
    30 0.043235 -1.683941 0.096012 -1.813709 0.002823 -0.000167
    31 0.031729 -1.160830 0.058838 -0.456154 0.000642 0.008372
    32 -0.963866 -2.785145 -0.085350 -1.148608 0.139589 0.121877
    33 0.028479 -1.403067 0.006271 -1.391232 0.000000 0.000000
    34 0.021413 -0.957781 0.020046 -0.471322 0.000000 0.000000
    35 1.164475 -2.543940 -0.170330 -1.423710 -0.066254 0.446863
    36 0.024032 -1.129042 0.017807 -1.462507 0.000000 0.000001
    37 0.014898 -0.883989 -0.019848 -0.549408 0.000000 0.000000
    38 -0.586770 -1.264477 0.200161 0.313906 -0.927915 -2.922977
    39 1.522835 0.058681 0.016848 0.001410 0.008985 1.029593
    40 1.117947 0.048424 -0.005766 -0.023469 -0.009175 1.254246
    41 -0.139399 -0.111698 0.014397 0.407653 0.171241 1.393752
    42 -6.260806 6.983652 -0.294122 1.580804 -0.005023 -0.912799
  time 10
    0 -0.368931 1.166145 1.199636 0.000000 0.000000 0.000000
    1 10.812301 -1.676361 -10.709733 0.967655 -1.914753 -1.474762
    2 -0.071918 -8.498730 -0.104136 0.148171 0.068028 -0.020530
    3 5.233845 1.354622 1.688628 -0.065772 2.858007 1.272336
    4 19.997025 0.102143 0.000001 0.000000 0.000000 0.000000
    5 -16.915008 105.266426 -1.648488 0.000000 0.000000 0.000000
    6 6.506417 1.675302 0.000001 0.000000 0.000000 1.557110
    7 1.257180 8.762585 -0.153713 -1.570562 0.002683 -1.566807
    8 -0.488518 -2.755602 -0.228260 -0.636863 -0.077551 -0.298478
    9 0.039887 -1.479790 0.029854 -2.230118 0.000000 0.000001
    10 0.028786 -1.075731 -0.023109 -0.271941 0.000000 0.000000
    11 0.250027 -2.820665 -0.238396 -0.437192 -0.061406 -0.314674
    12 -0.049759 -1.680544 0.100479 -2.308695 0.000000 -0.000002
    13 -0.034142 -1.148312 0.084782 -0.535851 0.000000 0.000000
    14 0.957766 -2.746780 -0.090302 0.398790 -0.132819 0.006168
    15 -0.033420 -1.397129 -0.011257 -0.767419 0.000000 -0.000001
    16 -0.022360 -0.957436 0.018784 -0.380385 0.000000 0.000000
    17 -1.180681 -2.507217 -0.193859 -0.535961 0.112898 -0.284556
    18 -0.024967 -1.123934 0.017597 -1.884509 0.000000 0.000001
    19 -0.020057 -0.890968 0.010090 -0.772262 0.000000 0.000000
    20 0.583510 -1.197277 0.185379 0.385373 -0.553917 -0.837084
    21 1.535927 0.010246 0.005009 -0.002964 -0.012979 -0.682269
    22 1.100771 0.004527 -0.010679 -0.016147 -0.001453 -1.484153
    23 0.120153 -0.050270 -0.054489 0.287569 3.110905 1.561085
    24 0.823014 2.667419 -12.134466 0.501145 -3.186413 0.638780
    25 0.096944 -8.450418 -0.009365 -0.763037 -1.346425 1.363381
    26 0.447953 -2.798986 -0.200443 -1.456960 0.099071 0.252834
    27 -0.032909 -1.480204 0.004940 -1.601340 0.000000 0.000002
    28 -0.027022 -1.076920 -0.020210 -0.353735 0.000000 0.000000
    29 -0.249534 -2.846964 -0.174213 -1.241183 0.075210 0.132159
    30 0.043235 -1.683941 0.096012 -1.813709 0.002823 -0.000167
    31 0.031729 -1.160830 0.058838 -0.456154 0.000642 0.008372
    32 -0.963866 -2.785145 -0.085350 -1.148608 0.139589 0.121877
    33 0.028479 -1.403067 0.006271 -1.391232 0.000000 0.000000
    34 0.021413 -0.957781 0.020046 -0.471322 0.000000 0.000000
    35 1.164475 -2.543940 -0.170330 -1.423710 -0.066254 0.446863
    36 0.024032 -1.129042 0.017807 -1.462507 0.000000 0.000001
    37 0.014898 -0.883989 -0.019848 -0.549408 0.000000 0.000000
    38 -0.586770 -1.264477 0.200161 0.313906 -0.927915 -2.922977
    39 1.522835 0.058681 0.016848 0.001410 0.008985 1.029593
    40 1.117947 0.048424 -0.005766 -0.023469 -0.009175 1.254246
    41 -0.139399 -0.111698 0.014397 0.407653 0.171241 1.393752
    42 -6.260806 6.983652 -0.294122 1.580804 -0.005023 -0.912799
  time 11
    0 -0.368931 1.166145 1.199636 0.000000 0.000000 0.000000
    1 10.902148 -1.981058 -10.877706 0.971247 -1.932925 -1.487223
    2 -0.071918 -8.498730 -0.104136 0.147980 0.073721 -0.045326
    3 5.233845 1.354622 1.688628 -0.065772 2.858007 1.272336
    4 19.997025 0.102143 0.000001 0.000000 0.000000 0.000000
    5 -16.915008 105.266426 -1.648488 0.000000 0.000000 0.000000
    6 6.506417 1.675302 0.000001 0.000000 0.000000 1.548613
    7 1.257180 8.762585 -0.153713 -1.570562 0.002683 -1.566807
    8 -0.488518 -2.755602 -0.228260 -0.636863 -0.077551 -0.298478
    9 0.039887 -1.479790 0.029854 -2.230118 0.000000 0.000001
    10 0.028786 -1.075731 -0.023109 -0.271941 0.000000 0.000000
    11 0.250027 -2.820665 -0.238396 -0.437192 -0.061406 -0.314674
    12 -0.049759 -1.680544 0.100479 -2.308695 0.000000 -0.000002
    13 -0.034142 -1.148312 0.084782 -0.535851 0.000000 0.000000
    14 0.957766 -2.746780 -0.090302 0.398790 -0.132819 0.006168
    15 -0.033420 -1.397129 -0.011257 -0.767419 0.000000 -0.000001
    16 -0.022360 -0.957436 0.018784 -0.380385 0.000000 0.000000
    17 -1.180681 -2.507217 -0.193859 -0.535961 0.112898 -0.284556
    18 -0.024967 -1.123934 0.017597 -1.884509 0.000000 0.000001
    19 -0.020057 -0.890968 0.010090 -0.772262 0.000000 0.000000
    20 0.583510 -1.197277 0.185379 0.385373 -0.553917 -0.837084
    21 1.535927 0.010246 0.005009 -0.002964 -0.012979 -0.682290
    22 1.100771 0.004527 -0.010679 -0.016147 -0.001453 -1.484153
    23 0.120153 -0.050270 -0.054489 0.287569 3.110905 1.561085
    24 0.936299 2.503351 -12.146185 0.500343 -3.195743 0.632981
    25 0.096944 -8.450418 -0.009365 -0.763037 -1.346425 1.363381
    26 0.447953 -2.798986 -0.200443 -1.456960 0.099071 0.252834
    27 -0.032909 -1.480204 0.004940 -1.601340 0.000000 0.000002
    28 -0.027022 -1.076920 -0.020210 -0.353735 0.000000 0.000000
    29 -0.249534 -2.846964 -0.174213 -1.241183 0.075210 0.132159
    30 0.043235 -1.683941 0.096012 -1.813709 0.002823 -0.000167
    31 0.031729 -1.160830 0.058838 -0.456154 0.000642 0.008372
    32 -0.963866 -2.785145 -0.085350 -1.148608 0.139589 0.121877
    33 0.028479 -1.403067 0.006271 -1.391232 0.000000 0.000000
    34 0.021413 -0.957781 0.020046 -0.471322 0.000000 0.000000
    35 1.164475 -2.543940 -0.170330 -1.423710 -0.066254 0.446863
    36 0.024032 -1.129042 0.017807 -1.462507 0.000000 0.000001
    37 0.014898 -0.883989 -0.019848 -0.549408 0.000000 0.000000
    38 -0.586770 -1.264477 0.200161 0.313906 -0.927915 -2.922977
    39 1.522835 0.058681 0.016848 0.001410 0.008985 1.029593
    40 1.117947 0.048424 -0.005766 -0.023469 -0.009175 1.254246
    41 -0.139399 -0.111698 0.014397 0.407653 0.171241 1.393752
    42 -6.260806 6.983652 -0.294122 1.580804 -0.005023 -0.912799
  time 12
    0 -0.368931 1.166145 1.199636 0.000000 0.000000 0.000000
    1 11.015432 -2.168563 -10.940208 0.966219 -1.941904 -1.491259
    2 -0.071918 -8.498730 -0.104136 0.147692 0.078802 -0.070709
    3 5.233845 1.354622 1.688628 -0.065772 2.858007 1.272336
    4 19.997025 0.102143 0.000001 0.000000 0.000000 0.000000
    5 -16.915008 105.266426 -1.648488 0.000000 0.000000 0.000000
    6 6.506417 1.675302 0.000001 0.000000 0.000000 1.544514
    7 1.257180 8.762585 -0.153713 -1.570562 0.002683 -1.566807
    8 -0.488518 -2.755602 -0.228260 -0.636863 -0.077551 -0.298478
    9 0.039887 -1.479790 0.029854 -2.230118 0.000000 0.000001
    10 0.028786 -1.075731 -0.023109 -0.271941 0.000000 0.000000
    11 0.250027 -2.820665 -0.238396 -0.437192 -0.061406 -0.314674
    12 -0.049759 -1.680544 0.100479 -2.308695 0.000000 -0.000002
    13 -0.034142 -1.148312 0.084782 -0.535851 0.000000 0.000000
    14 0.957766 -2.746780 -0.090302 0.398790 -0.132819 0.006168
    15 -0.033420 -1.397129 -0.011257 -0.767419 0.000000 -0.000001
    16 -0.022360 -0.957436 0.018784 -0.380385 0.000000 0.000000
    17 -1.180681 -2.507217 -0.193859 -0.535961 0.112898 -0.284556
    18 -0.024967 -1.123934 0.017597 -1.884509 0.000000 0.000001
    19 -0.020057 -0.890968 0.010090 -0.772262 0.000000 0.000000
    20 0.583510 -1.197277 0.185379 0.385373 -0.553917 -0.837084
    21 1.535927 0.010246 0.005009 -0.002964 -0.012979 -0.682290
    22 1.100771 0.004527 -0.010679 -0.016147 -0.001453 -1.484153
    23 0.120153 -0.050270 -0.054489 0.287569 3.110905 1.561085
    24 1.080835 2.456475 -12.036807 0.493588 -3.213096 0.627467
    25 0.096944 -8.450418 -0.009365 -0.763037 -1.346425 1.363381
    26 0.447953 -2.798986 -0.200443 -1.456960 0.099071 0.252834
    27 -0.032909 -1.480204 0.004940 -1.601340 0.000000 0.000002
    28 -0.027022 -1.076920 -0.020210 -0.353735 0.000000 0.000000
    29 -0.249534 -2.846964 -0.174213 -1.241183 0.075210 0.132159
    30 0.043235 -1.683941 0.096012 -1.813709 0.002823 -0.000167
    31 0.031729 -1.160830 0.058838 -0.456154 0.000642 0.008372
    32 -0.963866 -2.785145 -0.085350 -1.148608 0.139589 0.121877
    33 0.028479 -1.403067 0.006271 -1.391232 0.000000 0.000000
    34 0.021413 -0.957781 0.020046 -0.471322 0.000000 0.000000
    35 1.164475 -2.543940 -0.170330 -1.423710 -0.066254 0.446863
    36 0.024032 -1.129042 0.017807 -1.462507 0.000000 0.000001
    37 0.014898 -0.883989 -0.019848 -0.549408 0.000000 0.000000
    38 -0.586770 -1.264477 0.200161 0.313906 -0.927915 -2.922977
    39 1.522835 0.058681 0.016848 0.001410 0.008985 1.029593
    40 1.117947 0.048424 -0.005766 -0.023469 -0.009175 1.254246
    41 -0.139399 -0.111698 0.014397 0.407653 0.171241 1.393752
    42 -6.260806 6.983652 -0.294122 1.580804 -0.005023 -0.912799
  time 13
    0 -0.368931 1.166145 1.199636 0.000000 0.000000 0.000000
    1 11.156062 -2.262316 -10.908957 0.951852 -1.941263 -1.486521
    2 -0.071918 -8.498730 -0.104136 0.147321 0.083320 -0.096224
    3 5.233845 1.354622 1.688628 -0.065772 2.858007 1.272336
    4 19.997025 0.102143 0.000001 0.000000 0.000000 0.000000
    5 -16.915008 105.266426 -1.648488 0.000000 0.000000 0.000000
    6 6.506417 1.675302 0.000001 0.000000 0.000000 1.543963
    7 1.257180 8.762585 -0.153713 -1.570562 0.002683 -1.566807
    8 -0.488518 -2.755602 -0.228260 -0.636863 -0.077551 -0.298478
    9 0.039887 -1.479790 0.029854 -2.230118 0.000000 0.000001
    10 0.028786 -1.075731 -0.023109 -0.271941 0.000000 0.000000
    11 0.250027 -2.820665 -0.238396 -0.437192 -0.061406 -0.314674
    12 -0.049759 -1.680544 0.100479 -2.308695 0.000000 -0.000002
    13 -0.034142 -1.148312 0.084782 -0.535851 0.000000 0.000000
    14 0.957766 -2.746780 -0.090302 0.398790 -0.132819 0.006168
    15 -0.033420 -1.397129 -0.011257 -0.767419 0.000000 -0.000001
    16 -0.022360 -0.957436 0.018784 -0.380385 0.000000 0.000000
    17 -1.180681 -2.507217 -0.193859 -0.535961 0.112898 -0.284556
    18 -0.024967 -1.123934 0.017597 -1.884509 0.000000 0.000001
    19 -0.020057 -0.890968 0.010090 -0.772262 0.000000 0.000000
    20 0.583510 -1.197277 0.185379 0.385373 -0.553917 -0.837084
    21 1.535927 0.010246 0.005009 -0.002964 -0.012979 -0.682290
    22 1.100771 0.004527 -0.010679 -0.016147 -0.001453 -1.484153
    23 0.120153 -0.050270 -0.054489 0.287569 3.110905 1.561085
    24 1.248809 2.511164 -11.814144 0.480815 -3.238732 0.621573
    25 0.096944 -8.450418 -0.009365 -0.763037 -1.346425 1.363381
    26 0.447953 -2.798986 -0.200443 -1.456960 0.099071 0.252834
    27 -0.032909 -1.480204 0.004940 -1.601340 0.000000 0.000002
    28 -0.027022 -1.076920 -0.020210 -0.353735 0.000000 0.000000
    29 -0.249534 -2.846964 -0.174213 -1.241183 0.075210 0.132159
    30 0.043235 -1.683941 0.096012 -1.813709 0.002823 -0.000167
    31 0.031729 -1.160830 0.058838 -0.456154 0.000642 0.008372
    32 -0.963866 -2.785145 -0.085350 -1.148608 0.139589 0.121877
    33 0.028479 -1.403067 0.006271 -1.391232 0.000000 0.000000
    34 0.021413 -0.957781 0.020046 -0.471322 0.000000 0.000000
    35 1.164475 -2.543940 -0.170330 -1.423710 -0.066254 0.446863
    36 0.024032 -1.129042 0.017807 -1.462507 0.000000 0.000001
    37 0.014898 -0.883989 -0.019848 -0.549408 0.000000 0.000000
    38 -0.586770 -1.264477 0.200161 0.313906 -0.927915 -2.922977
    39 1.522835 0.058681 0.016848 0.001410 0.008985 1.029593
    40 1.117947 0.048424 -0.005766 -0.023469 -0.009175 1.254246
    41 -0.139399 -0.111698 0.014397 0.407653 0.171241 1.393752
    42 -6.260806 6.983652 -0.294122 1.580804 -0.005023 -0.912799
  time 14
    0 -0.368931 1.166145 1.199636 0.000000 0.000000 0.000000
    1 11.316223 -2.317006 -10.838643 0.929764 -1.933963 -1.475025
    2 -0.071918 -8.498730 -0.104136 0.146877 0.087335 -0.121428
    3 5.233845 1.354622 1.688628 -0.065772 2.858007 1.272336
    4 19.997025 0.102143 0.000001 0.000000 0.000000 0.000000
    5 -16.915008 105.266426 -1.648488 0.000000 0.000000 0.000000
    6 6.506417 1.675302 0.000001 0.000000 0.000000 1.546156
    7 1.257180 8.762585 -0.153713 -1.570562 0.002683 -1.566807
    8 -0.488518 -2.755602 -0.228260 -0.636863 -0.077551 -0.298478
    9 0.039887 -1.479790 0.029854 -2.230118 0.000000 0.000001
    10 0.028786 -1.075731 -0.023109 -0.271941 0.000000 0.000000
    11 0.250027 -2.820665 -0.238396 -0.437192 -0.061406 -0.314674
    12 -0.049759 -1.680544 0.100479 -2.308624 0.000000 -0.000002
    13 -0.034142 -1.148312 0.084782 -0.535851 0.000000 0.000000
    14 0.957766 -2.746780 -0.090302 0.398790 -0.132819 0.006168
    15 -0.033420 -1.397129 -0.011257 -0.767419 0.000000 -0.000001
    16 -0.022360 -0.957436 0.018784 -0.380385 0.000000 0.000000
    17 -1.180681 -2.507217 -0.193859 -0.535961 0.112898 -0.284556
    18 -0.024967 -1.123934 0.017597 -1.884509 0.000000 0.000001
    19 -0.020057 -0.890968 0.010090 -0.772262 0.000000 0.000000
    20 0.583510 -1.197277 0.185379 0.385373 -0.553917 -0.837084
    21 1.535927 0.010246 0.005009 -0.002964 -0.012979 -0.682290
    22 1.100771 0.004527 -0.010679 -0.016147 -0.001453 -1.484153
    23 0.120153 -0.050270 -0.054489 0.287569 3.110905 1.561085
    24 1.440221 2.604917 -11.548511 0.464229 -3.270037 0.614824
    25 0.096944 -8.450418 -0.009365 -0.763037 -1.346425 1.363381
    26 0.447953 -2.798986 -0.200443 -1.456960 0.099071 0.252834
    27 -0.032909 -1.480204 0.004940 -1.601340 0.000000 0.000002
    28 -0.027022 -1.076920 -0.020210 -0.353735 0.000000 0.000000
    29 -0.249534 -2.846964 -0.174213 -1.241183 0.075210 0.132159
    30 0.043235 -1.683941 0.096012 -1.813709 0.002823 -0.000167
    31 0.031729 -1.160830 0.058838 -0.456154 0.000642 0.008372
    32 -0.963866 -2.785145 -0.085350 -1.148608 0.139589 0.121877
    33 0.028479 -1.403067 0.006271 -1.391232 0.000000 0.000000
    34 0.021413 -0.957781 0.020046 -0.471322 0.000000 0.000000
    35 1.164475 -2.543940 -0.170330 -1.423710 -0.066254 0.446863
    36 0.024032 -1.129042 0.017807 -1.462507 0.000000 0.000001
    37 0.014898 -0.883989 -0.019848 -0.549408 0.000000 0.000000
    38 -0.586770 -1.264477 0.200161 0.313906 -0.927915 -2.922977
    39 1.522835 0.058681 0.016848 0.001410 0.008985 1.029593
    40 1.117947 0.048424 -0.005766 -0.023469 -0.009175 1.254246
    41 -0.139399 -0.111698 0.014397 0.407653 0.171241 1.393752
    42 -6.260806 6.983652 -0.294122 1.580804 -0.005023 -0.912799
  time 15
    0 -0.368931 1.166145 1.199636 0.000000 0.000000 0.000000
    1 11.488103 -2.348256 -10.740983 0.901390 -1.921869 -1.457475
    2 -0.071918 -8.498730 -0.104136 0.146386 0.090895 -0.145853
    3 5.233845 1.354622 1.688628 -0.065772 2.858007 1.272336
    4 19.997025 0.102143 0.000001 0.000000 0.000000 0.000000
    5 -16.915008 105.266426 -1.648488 0.000000 0.000000 0.000000
    6 6.506417 1.675302 0.000001 0.000000 0.000000 1.550254
    7 1.257180 8.762585 -0.153713 -1.570562 0.002683 -1.566807
    8 -0.488518 -2.755602 -0.228260 -0.636863 -0.077551 -0.298478
    9 0.039887 -1.479790 0.029854 -2.230118 0.000000 0.000001
    10 0.028786 -1.075731 -0.023109 -0.271941 0.000000 0.000000
    11 0.250027 -2.820665 -0.238396 -0.437192 -0.061406 -0.314674
    12 -0.049759 -1.680544 0.100479 -2.308624 0.000000 -0.000002
    13 -0.034142 -1.148312 0.084782 -0.535851 0.000000 0.000000
    14 0.957766 -2.746780 -0.090302 0.398790 -0.132819 0.006168
    15 -0.033420 -1.397129 -0.011257 -0.767419 0.000000 -0.000001
    16 -0.022360 -0.957436 0.018784 -0.380385 0.000000 0.000000
    17 -1.180681 -2.507217 -0.193859 -0.535961 0.112898 -0.284556
    18 -0.024967 -1.123934 0.017597 -1.884509 0.000000 0.000001
    19 -0.020057 -0.890968 0.010090 -0.772262 0.000000 0.000000
    20 0.583510 -1.197277 0.185379 0.385373 -0.553917 -0.837084
    21 1.535927 0.010246 0.005009 -0.002964 -0.012979 -0.682290
    22 1.100771 0.004527 -0.010679 -0.016147 -0.001453 -1.484153
    23 0.120153 -0.050270 -0.054489 0.287569 3.110905 1.561085
    24 1.639446 2.714295 -11.251627 0.444902 -3.304829 0.607123
    25 0.096944 -8.450418 -0.009365 -0.763037 -1.346425 1.363381
    26 0.447953 -2.798986 -0.200443 -1.456960 0.099071 0.252834
    27 -0.032909 -1.480204 0.004940 -1.601340 0.000000 0.000002
    28 -0.027022 -1.076920 -0.020210 -0.353735 0.000000 0.000000
    29 -0.249534 -2.846964 -0.174213 -1.241183 0.075210 0.132159
    30 0.043235 -1.683941 0.096012 -1.813709 0.002823 -0.000167
    31 0.031729 -1.160830 0.058838 -0.456154 0.000642 0.008372
    32 -0.963866 -2.785145 -0.085350 -1.148608 0.139589 0.121877
    33 0.028479 -1.403067 0.006271 -1.391232 0.000000 0.000000
    34 0.021413 -0.957781 0.020046 -0.471322 0.000000 0.000000
    35 1.164475 -2.543940 -0.170330 -1.423710 -0.066254 0.446863
    36 0.024032 -1.129042 0.017807 -1.462507 0.000000 0.000001
    37 0.014898 -0.883989 -0.019848 -0.549408 0.000000 0.000000
    38 -0.586770 -1.264477 0.200161 0.313906 -0.927915 -2.922977
    39 1.522835 0.058681 0.016848 0.001410 0.008985 1.029593
    40 1.117947 0.048424 -0.005766 -0.023469 -0.009175 1.254246
    41 -0.139399 -0.111698 0.014397 0.407653 0.171241 1.393752
    42 -6.260806 6.983652 -0.294122 1.580804 -0.005023 -0.912799
  time 16
    0 -0.368931 1.166145 1.199636 0.000000 0.000000 0.000000
    1 11.663890 -2.352163 -10.623792 0.867809 -1.906843 -1.434747
    2 -0.071918 -8.498730 -0.104136 0.145858 0.094082 -0.169067
    3 5.233845 1.354622 1.688628 -0.065772 2.858007 1.272336
    4 19.997025 0.102143 0.000001 0.000000 0.000000 0.000000
    5 -16.915008 105.266426 -1.648488 0.000000 0.000000 0.000000
    6 6.506417 1.675302 0.000001 0.000000 0.000000 1.555468
    7 1.257180 8.762585 -0.153713 -1.570562 0.002683 -1.566807
    8 -0.488518 -2.755602 -0.228260 -0.636863 -0.077551 -0.298478
    9 0.039887 -1.479790 0.029854 -2.230118 0.000000 0.000001
    10 0.028786 -1.075731 -0.023109 -0.271941 0.000000 0.000000
    11 0.250027 -2.820665 -0.238396 -0.437192 -0.061406 -0.314674
    12 -0.049759 -1.680544 0.100479 -2.308624 0.000000 -0.000002
    13 -0.034142 -1.148312 0.084782 -0.535851 0.000000 0.000000
    14 0.957766 -2.746780 -0.090302 0.398790 -0.132819 0.006168
    15 -0.033420 -1.397129 -0.011257 -0.767419 0.000000 -0.000001
    16 -0.022360 -0.957436 0.018784 -0.380385 0.000000 0.000000
    17 -1.180681 -2.507217 -0.193859 -0.535961 0.112898 -0.284556
    18 -0.024967 -1.123934 0.017597 -1.884509 0.000000 0.000001
    19 -0.020057 -0.890968 0.010090 -0.772262 0.000000 0.000000
    20 0.583510 -1.197277 0.185379 0.385373 -0.553917 -0.837084
    21 1.535927 0.010246 0.005009 -0.002964 -0.012979 -0.682290
    22 1.100771 0.004527 -0.010679 -0.016147 -0.001453 -1.484153
    23 0.120153 -0.050270 -0.054489 0.287569 3.110905 1.561085
    24 1.838670 2.835393 -10.935211 0.423969 -3.341191 0.598472
    25 0.096944 -8.450418 -0.009365 -0.763037 -1.346425 1.363381
    26 0.447953 -2.798986 -0.200443 -1.456960 0.099071 0.252834
    27 -0.032909 -1.480204 0.004940 -1.601340 0.000000 0.000002
    28 -0.027022 -1.076920 -0.020210 -0.353735 0.000000 0.000000
    29 -0.249534 -2.846964 -0.174213 -1.241183 0.075210 0.132159
    30 0.043235 -1.683941 0.096012 -1.813709 0.002823 -0.000167
    31 0.031729 -1.160830 0.058838 -0.456154 0.000642 0.008372
    32 -0.963866 -2.785145 -0.085350 -1.148608 0.139589 0.121877
    33 0.028479 -1.403067 0.006271 -1.391232 0.000000 0.000000
    34 0.021413 -0.957781 0.020046 -0.471322 0.000000 0.000000
    35 1.164475 -2.543940 -0.170330 -1.423710 -0.066254 0.446863
    36 0.024032 -1.129042 0.017807 -1.462507 0.000000 0.000001
    37 0.014898 -0.883989 -0.019848 -0.549408 0.000000 0.000000
    38 -0.586770 -1.264477 0.200161 0.313906 -0.927915 -2.922977
    39 1.522835 0.058681 0.016848 0.001410 0.008985 1.029593
    40 1.117947 0.048424 -0.005766 -0.023469 -0.009175 1.254246
    41 -0.139399 -0.111698 0.014397 0.407653 0.171241 1.393752
    42 -6.260806 6.983652 -0.294122 1.580804 -0.005023 -0.912799
  time 17
    0 -0.368931 1.166145 1.199636 0.000000 0.000000 0.000000
    1 11.835770 -2.348256 -10.502695 0.830726 -1.890717 -1.408158
    2 -0.071918 -8.498730 -0.104136 0.145319 0.096947 -0.190603
    3 5.233845 1.354622 1.688628 -0.065772 2.858007 1.272336
    4 19.997025 0.102143 0.000001 0.000000 0.000000 0.000000
    5 -16.915008 105.266426 -1.648488 0.000000 0.000000 0.000000
    6 6.506417 1.675302 0.000001 0.000000 0.000000 1.560945
    7 1.257180 8.762585 -0.153713 -1.570562 0.002683 -1.566807
    8 -0.488518 -2.755602 -0.228260 -0.636863 -0.077551 -0.298478
    9 0.039887 -1.479790 0.029854 -2.230118 0.000000 0.000001
    10 0.028786 -1.075731 -0.023109 -0.271941 0.000000 0.000000
    11 0.250027 -2.820665 -0.238396 -0.437192 -0.061406 -0.314674
    12 -0.049759 -1.680544 0.100479 -2.308624 0.000000 -0.000002
    13 -0.034142 -1.148312 0.084782 -0.535851 0.000000 0.000000
    14 0.957766 -2.746780 -0.090302 0.398790 -0.132819 0.006168
    15 -0.033420 -1.397129 -0.011257 -0.767419 0.000000 -0.000001
    16 -0.022360 -0.957436 0.018784 -0.380385 0.000000 0.000000
    17 -1.180681 -2.507217 -0.193859 -0.535961 0.112898 -0.284556
    18 -0.024967 -1.123934 0.017597 -1.884509 0.000000 0.000001
    19 -0.020057 -0.890968 0.010090 -0.772262 0.000000 0.000000
    20 0.583510 -1.197277 0.185379 0.385373 -0.553917 -0.837084
    21 1.535927 0.010246 0.005009 -0.002964 -0.012979 -0.682290
    22 1.100771 0.004527 -0.010679 -0.016147 -0.001453 -1.484153
    23 0.120153 -0.050270 -0.054489 0.287569 3.110905 1.561085
    24 2.026176 2.952584 -10.622701 0.402702 -3.376942 0.589251
    25 0.096944 -8.450418 -0.009365 -0.763037 -1.346425 1.363381
    26 0.447953 -2.798986 -0.200443 -1.456960 0.099071 0.252834
    27 -0.032909 -1.480204 0.004940 -1.601340 0.000000 0.000002
    28 -0.027022 -1.076920 -0.020210 -0.353735 0.000000 0.000000
    29 -0.249534 -2.846964 -0.174213 -1.241183 0.075210 0.132159
    30 0.043235 -1.683941 0.096012 -1.813709 0.002823 -0.000167
    31 0.031729 -1.160830 0.058838 -0.456154 0.000642 0.008372
    32 -0.963866 -2.785145 -0.085350 -1.148608 0.139589 0.121877
    33 0.028479 -1.403067 0.006271 -1.391232 0.000000 0.000000
    34 0.021413 -0.957781 0.020046 -0.471322 0.000000 0.000000
    35 1.164475 -2.543940 -0.170330 -1.423710 -0.066254 0.446863
    36 0.024032 -1.129042 0.017807 -1.462507 0.000000 0.000001
    37 0.014898 -0.883989 -0.019848 -0.549408 0.000000 0.000000
    38 -0.586770 -1.264477 0.200161 0.313906 -0.927915 -2.922977
    39 1.522835 0.058681 0.016848 0.001410 0.008985 1.029593
    40 1.117947 0.048424 -0.005766 -0.023469 -0.009175 1.254246
    41 -0.139399 -0.111698 0.014397 0.407653 0.171241 1.393752
    42 -6.260806 6.983652 -0.294122 1.580804 -0.005023 -0.912799
  time 18
    0 -0.368931 1.166145 1.199636 0.000000 0.000000 0.000000
    1 11.995931 -2.336537 -10.385504 0.792655 -1.875202 -1.379902
    2 -0.071918 -8.498730 -0.104136 0.144768 0.099547 -0.210006
    3 5.233845 1.354622 1.688628 -0.065772 2.858007 1.272336
    4 19.997025 0.102143 0.000001 0.000000 0.000000 0.000000
    5 -16.915008 105.266426 -1.648488 0.000000 0.000000 0.000000
    6 6.506417 1.675302 0.000001 0.000000 0.000000 1.565870
    7 1.257180 8.762585 -0.153713 -1.570562 0.002683 -1.566807
    8 -0.488518 -2.755602 -0.228260 -0.636863 -0.077551 -0.298478
    9 0.039887 -1.479790 0.029854 -2.230118 0.000000 0.000001
    10 0.028786 -1.075731 -0.023109 -0.271941 0.000000 0.000000
    11 0.250027 -2.820665 -0.238396 -0.437192 -0.061406 -0.314674
    12 -0.049759 -1.680544 0.100479 -2.308624 0.000000 -0.000002
    13 -0.034142 -1.148312 0.084782 -0.535851 0.000000 0.000000
    14 0.957766 -2.746780 -0.090302 0.398790 -0.132819 0.006168
    15 -0.033420 -1.397129 -0.011257 -0.767419 0.000000 -0.000001
    16 -0.022360 -0.957436 0.018784 -0.380385 0.000000 0.000000
    17 -1.180681 -2.507217 -0.193859 -0.535961 0.112898 -0.284556
    18 -0.024967 -1.123934 0.017597 -1.884509 0.000000 0.000001
    19 -0.020057 -0.890968 0.010090 -0.772262 0.000000 0.000000
    20 0.583510 -1.197277 0.185379 0.385373 -0.553917 -0.837084
    21 1.535927 0.010246 0.005009 -0.002964 -0.012979 -0.682290
    22 1.100771 0.004527 -0.010679 -0.016147 -0.001453 -1.484153
    23 0.120153 -0.050270 -0.054489 0.287569 3.110905 1.561085
    24 2.201963 3.058056 -10.321911 0.382171 -3.410078 0.579744
    25 0.096944 -8.450418 -0.009365 -0.763037 -1.346425 1.363381
    26 0.447953 -2.798986 -0.200443 -1.456960 0.099071 0.252834
    27 -0.032909 -1.480204 0.004940 -1.601340 0.000000 0.000002
    28 -0.027022 -1.076920 -0.020210 -0.353735 0.000000 0.000000
    29 -0.249534 -2.846964 -0.174213 -1.241183 0.075210 0.132159
    30 0.043235 -1.683941 0.096012 -1.813709 0.002823 -0.000167
    31 0.031729 -1.160830 0.058838 -0.456154 0.000642 0.008372
    32 -0.963866 -2.785145 -0.085350 -1.148608 0.139589 0.121877
    33 0.028479 -1.403067 0.006271 -1.391232 0.000000 0.000000
    34 0.021413 -0.957781 0.020046 -0.471322 0.000000 0.000000
    35 1.164475 -2.543940 -0.170330 -1.423710 -0.066254 0.446863
    36 0.024032 -1.129042 0.017807 -1.462507 0.000000 0.000001
    37 0.014898 -0.883989 -0.019848 -0.549408 0.000000 0.000000
    38 -0.586770 -1.264477 0.200161 0.313906 -0.927915 -2.922977
    39 1.522835 0.058681 0.016848 0.001410 0.008985 1.029593
    40 1.117947 0.048424 -0.005766 -0.023469 -0.009175 1.254246
    41 -0.139399 -0.111698 0.014397 0.407653 0.171241 1.393752
    42 -6.260806 6.983652 -0.294122 1.580804 -0.005023 -0.912799
  time 19
    0 -0.368931 1.166145 1.199636 0.000000 0.000000 0.000000
    1 12.128747 -2.328725 -10.280032 0.757457 -1.861886 -1.353225
    2 -0.071918 -8.498730 -0.104136 0.144229 0.101944 -0.226833
    3 5.233845 1.354622 1.688628 -0.065772 2.858007 1.272336
    4 19.997025 0.102143 0.000001 0.000000 0.000000 0.000000
    5 -16.915008 105.266426 -1.648488 0.000000 0.000000 0.000000
    6 6.506417 1.675302 0.000001 0.000000 0.000000 1.569430
    7 1.257180 8.762585 -0.153713 -1.570562 0.002683 -1.566807
    8 -0.488518 -2.755602 -0.228260 -0.636863 -0.077551 -0.298478
    9 0.039887 -1.479790 0.029854 -2.230118 0.000000 0.000001
    10 0.028786 -1.075731 -0.023109 -0.271941 0.000000 0.000000
    11 0.250027 -2.820665 -0.238396 -0.437192 -0.061406 -0.314674
    12 -0.049759 -1.680544 0.100479 -2.308624 0.000000 -0.000002
    13 -0.034142 -1.148312 0.084782 -0.535851 0.000000 0.000000
    14 0.957766 -2.746780 -0.090302 0.398790 -0.132819 0.006168
    15 -0.033420 -1.397129 -0.011257 -0.767419 0.000000 -0.000001
    16 -0.022360 -0.957436 0.018784 -0.380385 0.000000 0.000000
    17 -1.180681 -2.507217 -0.193859 -0.535961 0.112898 -0.284556
    18 -0.024967 -1.123934 0.017597 -1.884509 0.000000 0.000001
    19 -0.020057 -0.890968 0.010090 -0.772262 0.000000 0.000000
    20 0.583510 -1.197277 0.185379 0.385373 -0.553917 -0.837084
    21 1.535927 0.010246 0.005009 -0.002964 -0.012979 -0.682290
    22 1.100771 0.004527 -0.010679 -0.016147 -0.001453 -1.484153
    23 0.120153 -0.050270 -0.054489 0.287569 3.110905 1.561085
    24 2.346498 3.140089 -10.052371 0.363780 -3.438504 0.570618
    25 0.096944 -8.450418 -0.009365 -0.763037 -1.346425 1.363381
    26 0.447953 -2.798986 -0.200443 -1.456960 0.099071 0.252834
    27 -0.032909 -1.480204 0.004940 -1.601340 0.000000 0.000002
    28 -0.027022 -1.076920 -0.020210 -0.353735 0.000000 0.000000
    29 -0.249534 -2.846964 -0.174213 -1.241183 0.075210 0.132159
    30 0.043235 -1.683941 0.096012 -1.813709 0.002823 -0.000167
    31 0.031729 -1.160830 0.058838 -0.456154 0.000642 0.008372
    32 -0.963866 -2.785145 -0.085350 -1.148608 0.139589 0.121877
    33 0.028479 -1.403067 0.006271 -1.391232 0.000000 0.000000
    34 0.021413 -0.957781 0.020046 -0.471322 0.000000 0.000000
    35 1.164475 -2.543940 -0.170330 -1.423710 -0.066254 0.446863
    36 0.024032 -1.129042 0.017807 -1.462507 0.000000 0.000001
    37 0.014898 -0.883989 -0.019848 -0.549408 0.000000 0.000000
    38 -0.586770 -1.264477 0.200161 0.313906 -0.927915 -2.922977
    39 1.522835 0.058681 0.016848 0.001410 0.008985 1.029593
    40 1.117947 0.048424 -0.005766 -0.023469 -0.009175 1.254246
    41 -0.139399 -0.111698 0.014397 0.407653 0.171241 1.393752
    42 -6.260806 6.983652 -0.294122 1.580804 -0.005023 -0.912799
  time 20
    0 -0.368931 1.166145 1.199636 0.000000 0.000000 0.000000
    1 12.238126 -2.328725 -10.197998 0.730251 -1.852296 -1.333042
    2 -0.071918 -8.498730 -0.104136 0.143713 0.104209 -0.240639
    3 5.233845 1.354622 1.688628 -0.065772 2.858007 1.272336
    4 19.997025 0.102143 0.000001 0.000000 0.000000 0.000000
    5 -16.915008 105.266426 -1.648488 0.000000 0.000000 0.000000
    6 6.506417 1.675302 0.000001 0.000000 0.000000 1.570796
    7 1.257180 8.762585 -0.153713 -1.570562 0.002683 -1.566807
    8 -0.488518 -2.755602 -0.228260 -0.636863 -0.077551 -0.298478
    9 0.039887 -1.479790 0.029854 -2.230118 0.000000 0.000001
    10 0.028786 -1.075731 -0.023109 -0.271941 0.000000 0.000000
    11 0.250027 -2.820665 -0.238396 -0.437192 -0.061406 -0.314674
    12 -0.049759 -1.680544 0.100479 -2.308695 0.000000 -0.000002
    13 -0.034142 -1.148312 0.084782 -0.535851 0.000000 0.000000
    14 0.957766 -2.746780 -0.090302 0.398790 -0.132819 0.006168
    15 -0.033420 -1.397129 -0.011257 -0.767419 0.000000 -0.000001
    16 -0.022360 -0.957436 0.018784 -0.380385 0.000000 0.000000
    17 -1.180681 -2.507217 -0.193859 -0.535961 0.112898 -0.284556
    18 -0.024967 -1.123934 0.017597 -1.884509 0.000000 0.000001
    19 -0.020057 -0.890968 0.010090 -0.772262 0.000000 0.000000
    20 0.583510 -1.197277 0.185379 0.385373 -0.553917 -0.837084
    21 1.535927 0.010246 0.005009 -0.002964 -0.012979 -0.682269
    22 1.100771 0.004527 -0.010679 -0.016147 -0.001453 -1.484153
    23 0.120153 -0.050270 -0.054489 0.287569 3.110905 1.561085
    24 2.459783 3.198685 -9.837521 0.348933 -3.460391 0.562632
    25 0.096944 -8.450418 -0.009365 -0.763037 -1.346425 1.363381
    26 0.447953 -2.798986 -0.200443 -1.456960 0.099071 0.252834
    27 -0.032909 -1.480204 0.004940 -1.601340 0.000000 0.000002
    28 -0.027022 -1.076920 -0.020210 -0.353735 0.000000 0.000000
    29 -0.249534 -2.846964 -0.174213 -1.241183 0.075210 0.132159
    30 0.043235 -1.683941 0.096012 -1.813709 0.002823 -0.000167
    31 0.031729 -1.160830 0.058838 -0.456154 0.000642 0.008372
    32 -0.963866 -2.785145 -0.085350 -1.148608 0.139589 0.121877
    33 0.028479 -1.403067 0.006271 -1.391232 0.000000 0.000000
    34 0.021413 -0.957781 0.020046 -0.471322 0.000000 0.000000
    35 1.164475 -2.543940 -0.170330 -1.423710 -0.066254 0.446863
    36 0.024032 -1.129042 0.017807 -1.462507 0.000000 0.000001
    37 0.014898 -0.883989 -0.019848 -0.549408 0.000000 0.000000
    38 -0.586770 -1.264477 0.200161 0.313906 -0.927915 -2.922977
    39 1.522835 0.058681 0.016848 0.001410 0.008985 1.029593
    40 1.117947 0.048424 -0.005766 -0.023469 -0.009175 1.254246
    41 -0.139399 -0.111698 0.014397 0.407653 0.171241 1.393752
    42 -6.260806 6.983652 -0.294122 1.580804 -0.005023 -0.912799
  time 21
    0 -0.368931 1.166145 1.199636 0.000000 0.000000 0.000000
    1 12.316253 -2.336537 -10.135496 0.710856 -1.845547 -1.319265
    2 -0.071918 -8.498730 -0.104136 0.143294 0.105995 -0.250466
    3 5.233845 1.354622 1.688628 -0.065772 2.858007 1.272336
    4 19.997025 0.102143 0.000001 0.000000 0.000000 0.000000
    5 -16.915008 105.266426 -1.648488 0.000000 0.000000 0.000000
    6 6.506417 1.675302 0.000001 0.000000 0.000000 1.570796
    7 1.257180 8.762585 -0.153713 -1.570562 0.002683 -1.566807
    8 -0.488518 -2.755602 -0.228260 -0.636863 -0.077551 -0.298478
    9 0.039887 -1.479790 0.029854 -2.230118 0.000000 0.000001
    10 0.028786 -1.075731 -0.023109 -0.271941 0.000000 0.000000
    11 0.250027 -2.820665 -0.238396 -0.437192 -0.061406 -0.314674
    12 -0.049759 -1.680544 0.100479 -2.308624 0.000000 -0.000002
    13 -0.034142 -1.148312 0.084782 -0.535851 0.000000 0.000000
    14 0.957766 -2.746780 -0.090302 0.398790 -0.132819 0.006168
    15 -0.033420 -1.397129 -0.011257 -0.767419 0.000000 -0.000001
    16 -0.022360 -0.957436 0.018784 -0.380385 0.000000 0.000000
    17 -1.180681 -2.507217 -0.193859 -0.535961 0.112898 -0.284556
    18 -0.024967 -1.123934 0.017597 -1.884509 0.000000 0.000001
    19 -0.020057 -0.890968 0.010090 -0.772262 0.000000 0.000000
    20 0.583510 -1.197277 0.185379 0.385373 -0.553917 -0.837084
    21 1.535927 0.010246 0.005009 -0.002964 -0.012979 -0.682290
    22 1.100771 0.004527 -0.010679 -0.016147 -0.001453 -1.484153
    23 0.120153 -0.050270 -0.054489 0.287569 3.110905 1.561085
    24 2.549630 3.233842 -9.669547 0.337898 -3.475564 0.555978
    25 0.096944 -8.450418 -0.009365 -0.763037 -1.346425 1.363381
    26 0.447953 -2.798986 -0.200443 -1.456960 0.099071 0.252834
    27 -0.032909 -1.480204 0.004940 -1.601340 0.000000 0.000002
    28 -0.027022 -1.076920 -0.020210 -0.353735 0.000000 0.000000
    29 -0.249534 -2.846964 -0.174213 -1.241183 0.075210 0.132159
    30 0.043235 -1.683941 0.096012 -1.813709 0.002823 -0.000167
    31 0.031729 -1.160830 0.058838 -0.456154 0.000642 0.008372
    32 -0.963866 -2.785145 -0.085350 -1.148608 0.139589 0.121877
    33 0.028479 -1.403067 0.006271 -1.391232 0.000000 0.000000
    34 0.021413 -0.957781 0.020046 -0.471322 0.000000 0.000000
    35 1.164475 -2.543940 -0.170330 -1.423710 -0.066254 0.446863
    36 0.024032 -1.129042 0.017807 -1.462507 0.000000 0.000001
    37 0.014898 -0.883989 -0.019848 -0.549408 0.000000 0.000000
    38 -0.586770 -1.264477 0.200161 0.313906 -0.927915 -2.922977
    39 1.522835 0.058681 0.016848 0.001410 0.008985 1.029593
    40 1.117947 0.048424 -0.005766 -0.023469 -0.009175 1.254246
    41 -0.139399 -0.111698 0.014397 0.407653 0.171241 1.393752
    42 -6.260806 6.983652 -0.294122 1.580804 -0.005023 -0.912799
  time 22
    0 -0.368931 1.166145 1.199636 0.000000 0.000000 0.000000
    1 12.386568 -2.344350 -10.076901 0.695233 -1.839652 -1.308296
    2 -0.071918 -8.498730 -0.104136 0.143042 0.107038 -0.256171
    3 5.233845 1.354622 1.688628 -0.065772 2.858007 1.272336
    4 19.997025 0.102143 0.000001 0.000000 0.000000 0.000000
    5 -16.915008 105.266426 -1.648488 0.000000 0.000000 0.000000
    6 6.506417 1.675302 0.000001 0.000000 0.000000 1.570796
    7 1.257180 8.762585 -0.153713 -1.570562 0.002683 -1.566807
    8 -0.488518 -2.755602 -0.228260 -0.636863 -0.077551 -0.298478
    9 0.039887 -1.479790 0.029854 -2.230118 0.000000 0.000001
    10 0.028786 -1.075731 -0.023109 -0.271941 0.000000 0.000000
    11 0.250027 -2.820665 -0.238396 -0.437192 -0.061406 -0.314674
    12 -0.049759 -1.680544 0.100479 -2.308624 0.000000 -0.000002
    13 -0.034142 -1.148312 0.084782 -0.535851 0.000000 0.000000
    14 0.957766 -2.746780 -0.090302 0.398790 -0.132819 0.006168
    15 -0.033420 -1.397129 -0.011257 -0.767419 0.000000 -0.000001
    16 -0.022360 -0.957436 0.018784 -0.380385 0.000000 0.000000
    17 -1.180681 -2.507217 -0.193859 -0.535961 0.112898 -0.284556
    18 -0.024967 -1.123934 0.017597 -1.884509 0.000000 0.000001
    19 -0.020057 -0.890968 0.010090 -0.772262 0.000000 0.000000
    20 0.583510 -1.197277 0.185379 0.385373 -0.553917 -0.837084
    21 1.535927 0.010246 0.005009 -0.002964 -0.012979 -0.682290
    22 1.100771 0.004527 -0.010679 -0.016147 -0.001453 -1.484153
    23 0.120153 -0.050270 -0.054489 0.287569 3.110905 1.561085
    24 2.627757 3.265093 -9.548450 0.329806 -3.485941 0.550179
    25 0.096944 -8.450418 -0.009365 -0.763037 -1.346425 1.363381
    26 0.447953 -2.798986 -0.200443 -1.456960 0.099071 0.252834
    27 -0.032909 -1.480204 0.004940 -1.601340 0.000000 0.000002
    28 -0.027022 -1.076920 -0.020210 -0.353735 0.000000 0.000000
    29 -0.249534 -2.846964 -0.174213 -1.241183 0.075210 0.132159
    30 0.043235 -1.683941 0.096012 -1.813709 0.002823 -0.000167
    31 0.031729 -1.160830 0.058838 -0.456154 0.000642 0.008372
    32 -0.963866 -2.785145 -0.085350 -1.148608 0.139589 0.121877
    33 0.028479 -1.403067 0.006271 -1.391232 0.000000 0.000000
    34 0.021413 -0.957781 0.020046 -0.471322 0.000000 0.000000
    35 1.164475 -2.543940 -0.170330 -1.423710 -0.066254 0.446863
    36 0.024032 -1.129042 0.017807 -1.462507 0.000000 0.000001
    37 0.014898 -0.883989 -0.019848 -0.549408 0.000000 0.000000
    38 -0.586770 -1.264477 0.200161 0.313906 -0.927915 -2.922977
    39 1.522835 0.058681 0.016848 0.001410 0.008985 1.029593
    40 1.117947 0.048424 -0.005766 -0.023469 -0.009175 1.254246
    41 -0.139399 -0.111698 0.014397 0.407653 0.171241 1.393752
    42 -6.260806 6.983652 -0.294122 1.580804 -0.005023 -0.912799
  time 23
    0 -0.368931 1.166145 1.199636 0.000000 0.000000 0.000000
    1 12.441257 -2.344350 -10.026118 0.682842 -1.834491 -1.299784
    2 -0.071918 -8.498730 -0.104136 0.142946 0.107457 -0.258472
    3 5.233845 1.354622 1.688628 -0.065772 2.858007 1.272336
    4 19.997025 0.102143 0.000001 0.000000 0.000000 0.000000
    5 -16.915008 105.266426 -1.648488 0.000000 0.000000 0.000000
    6 6.506417 1.675302 0.000001 0.000000 0.000000 1.570796
    7 1.257180 8.762585 -0.153713 -1.570562 0.002683 -1.566807
    8 -0.488518 -2.755602 -0.228260 -0.636863 -0.077551 -0.298478
    9 0.039887 -1.479790 0.029854 -2.230118 0.000000 0.000001
    10 0.028786 -1.075731 -0.023109 -0.271941 0.000000 0.000000
    11 0.250027 -2.820665 -0.238396 -0.437192 -0.061406 -0.314674
    12 -0.049759 -1.680544 0.100479 -2.308695 0.000000 -0.000002
    13 -0.034142 -1.148312 0.084782 -0.535851 0.000000 0.000000
    14 0.957766 -2.746780 -0.090302 0.398790 -0.132819 0.006168
    15 -0.033420 -1.397129 -0.011257 -0.767419 0.000000 -0.000001
    16 -0.022360 -0.957436 0.018784 -0.380385 0.000000 0.000000
    17 -1.180681 -2.507217 -0.193859 -0.535961 0.112898 -0.284556
    18 -0.024967 -1.123934 0.017597 -1.884509 0.000000 0.000001
    19 -0.020057 -0.890968 0.010090 -0.772262 0.000000 0.000000
    20 0.583510 -1.197277 0.185379 0.385373 -0.553917 -0.837084
    21 1.535927 0.010246 0.005009 -0.002964 -0.012979 -0.682290
    22 1.100771 0.004527 -0.010679 -0.016147 -0.001453 -1.484153
    23 0.120153 -0.050270 -0.054489 0.287569 3.110905 1.561085
    24 2.698072 3.292438 -9.458603 0.324055 -3.492393 0.545140
    25 0.096944 -8.450418 -0.009365 -0.763037 -1.346425 1.363381
    26 0.447953 -2.798986 -0.200443 -1.456960 0.099071 0.252834
    27 -0.032909 -1.480204 0.004940 -1.601340 0.000000 0.000002
    28 -0.027022 -1.076920 -0.020210 -0.353735 0.000000 0.000000
    29 -0.249534 -2.846964 -0.174213 -1.241183 0.075210 0.132159
    30 0.043235 -1.683941 0.096012 -1.813709 0.002823 -0.000167
    31 0.031729 -1.160830 0.058838 -0.456154 0.000642 0.008372
    32 -0.963866 -2.785145 -0.085350 -1.148608 0.139589 0.121877
    33 0.028479 -1.403067 0.006271 -1.391232 0.000000 0.000000
    34 0.021413 -0.957781 0.020046 -0.471322 0.000000 0.000000
    35 1.164475 -2.543940 -0.170330 -1.423710 -0.066254 0.446863
    36 0.024032 -1.129042 0.017807 -1.462507 0.000000 0.000001
    37 0.014898 -0.883989 -0.019848 -0.549408 0.000000 0.000000
    38 -0.586770 -1.264477 0.200161 0.313906 -0.927915 -2.922977
    39 1.522835 0.058681 0.016848 0.001410 0.008985 1.029593
    40 1.117947 0.048424 -0.005766 -0.023469 -0.009175 1.254246
    41 -0.139399 -0.111698 0.014397 0.407653 0.171241 1.393752
    42 -6.260806 6.983652 -0.294122 1.580804 -0.005023 -0.912799
  time 24
    0 -0.368931 1.166145 1.199636 0.000000 0.000000 0.000000
    1 12.484227 -2.348256 -9.975335 0.673055 -1.829818 -1.293290
    2 -0.071918 -8.498730 -0.104136 0.142958 0.107385 -0.258112
    3 5.233845 1.354622 1.688628 -0.065772 2.858007 1.272336
    4 19.997025 0.102143 0.000001 0.000000 0.000000 0.000000
    5 -16.915008 105.266426 -1.648488 0.000000 0.000000 0.000000
    6 6.506417 1.675302 0.000001 0.000000 0.000000 1.570796
    7 1.257180 8.762585 -0.153713 -1.570562 0.002683 -1.566807
    8 -0.488518 -2.755602 -0.228260 -0.636863 -0.077551 -0.298478
    9 0.039887 -1.479790 0.029854 -2.230118 0.000000 0.000001
    10 0.028786 -1.075731 -0.023109 -0.271941 0.000000 0.000000
    11 0.250027 -2.820665 -0.238396 -0.437192 -0.061406 -0.314674
    12 -0.049759 -1.680544 0.100479 -2.308624 0.000000 -0.000002
    13 -0.034142 -1.148312 0.084782 -0.535851 0.000000 0.000000
    14 0.957766 -2.746780 -0.090302 0.398790 -0.132819 0.006168
    15 -0.033420 -1.397129 -0.011257 -0.767419 0.000000 -0.000001
    16 -0.022360 -0.957436 0.018784 -0.380385 0.000000 0.000000
    17 -1.180681 -2.507217 -0.193859 -0.535961 0.112898 -0.284556
    18 -0.024967 -1.123934 0.017597 -1.884509 0.000000 0.000001
    19 -0.020057 -0.890968 0.010090 -0.772262 0.000000 0.000000
    20 0.583510 -1.197277 0.185379 0.385373 -0.553917 -0.837084
    21 1.535927 0.010246 0.005009 -0.002964 -0.012979 -0.682290
    22 1.100771 0.004527 -0.010679 -0.016147 -0.001453 -1.484153
    23 0.120153 -0.050270 -0.054489 0.287569 3.110905 1.561085
    24 2.760574 3.319782 -9.396101 0.320176 -3.495794 0.540862
    25 0.096944 -8.450418 -0.009365 -0.763037 -1.346425 1.363381
    26 0.447953 -2.798986 -0.200443 -1.456960 0.099071 0.252834
    27 -0.032909 -1.480204 0.004940 -1.601340 0.000000 0.000002
    28 -0.027022 -1.076920 -0.020210 -0.353735 0.000000 0.000000
    29 -0.249534 -2.846964 -0.174213 -1.241183 0.075210 0.132159
    30 0.043235 -1.683941 0.096012 -1.813709 0.002823 -0.000167
    31 0.031729 -1.160830 0.058838 -0.456154 0.000642 0.008372
    32 -0.963866 -2.785145 -0.085350 -1.148608 0.139589 0.121877
    33 0.028479 -1.403067 0.006271 -1.391232 0.000000 0.000000
    34 0.021413 -0.957781 0.020046 -0.471322 0.000000 0.000000
    35 1.164475 -2.543940 -0.170330 -1.423710 -0.066254 0.446863
    36 0.024032 -1.129042 0.017807 -1.462551 0.000000 0.000001
    37 0.014898 -0.883989 -0.019848 -0.549408 0.000000 0.000000
    38 -0.586770 -1.264477 0.200161 0.313906 -0.927915 -2.922977
    39 1.522835 0.058681 0.016848 0.001410 0.008985 1.029593
    40 1.117947 0.048424 -0.005766 -0.023469 -0.009175 1.254246
    41 -0.139399 -0.111698 0.014397 0.407653 0.171241 1.393752
    42 -6.260806 6.983652 -0.294122 1.580804 -0.005023 -0.912799
  time 25
    0 -0.368931 1.166145 1.199636 0.000000 0.000000 0.000000
    1 12.519384 -2.348256 -9.932365 0.665333 -1.825573 -1.288288
    2 -0.071918 -8.498730 -0.104136 0.143066 0.106966 -0.255799
    3 5.233845 1.354622 1.688628 -0.065772 2.858007 1.272336
    4 19.997025 0.102143 0.000001 0.000000 0.000000 0.000000
    5 -16.915008 105.266426 -1.648488 0.000000 0.000000 0.000000
    6 6.506417 1.675302 0.000001 0.000000 0.000000 1.570796
    7 1.257180 8.762585 -0.153713 -1.570562 0.002683 -1.566807
    8 -0.488518 -2.755602 -0.228260 -0.636863 -0.077551 -0.298478
    9 0.039887 -1.479790 0.029854 -2.230118 0.000000 0.000001
    10 0.028786 -1.075731 -0.023109 -0.271941 0.000000 0.000000
    11 0.250027 -2.820665 -0.238396 -0.437192 -0.061406 -0.314674
    12 -0.049759 -1.680544 0.100479 -2.308624 0.000000 -0.000002
    13 -0.034142 -1.148312 0.084782 -0.535851 0.000000 0.000000
    14 0.957766 -2.746780 -0.090302 0.398790 -0.132819 0.006168
    15 -0.033420 -1.397129 -0.011257 -0.767419 0.000000 -0.000001
    16 -0.022360 -0.957436 0.018784 -0.380385 0.000000 0.000000
    17 -1.180681 -2.507217 -0.193859 -0.535961 0.112898 -0.284556
    18 -0.024967 -1.123934 0.017597 -1.884509 0.000000 0.000001
    19 -0.020057 -0.890968 0.010090 -0.772262 0.000000 0.000000
    20 0.583510 -1.197277 0.185379 0.385373 -0.553917 -0.837084
    21 1.535927 0.010246 0.005009 -0.002964 -0.012979 -0.682290
    22 1.100771 0.004527 -0.010679 -0.016147 -0.001453 -1.484153
    23 0.120153 -0.050270 -0.054489 0.287569 3.110905 1.561085
    24 2.811356 3.339314 -9.353131 0.317768 -3.496840 0.537060
    25 0.096944 -8.450418 -0.009365 -0.763037 -1.346425 1.363381
    26 0.447953 -2.798986 -0.200443 -1.456960 0.099071 0.252834
    27 -0.032909 -1.480204 0.004940 -1.601340 0.000000 0.000002
    28 -0.027022 -1.076920 -0.020210 -0.353735 0.000000 0.000000
    29 -0.249534 -2.846964 -0.174213 -1.241183 0.075210 0.132159
    30 0.043235 -1.683941 0.096012 -1.813709 0.002823 -0.000167
    31 0.031729 -1.160830 0.058838 -0.456154 0.000642 0.008372
    32 -0.963866 -2.785145 -0.085350 -1.148608 0.139589 0.121877
    33 0.028479 -1.403067 0.006271 -1.391232 0.000000 0.000000
    34 0.021413 -0.957781 0.020046 -0.471322 0.000000 0.000000
    35 1.164475 -2.543940 -0.170330 -1.423710 -0.066254 0.446863
    36 0.024032 -1.129042 0.017807 -1.462507 0.000000 0.000001
    37 0.014898 -0.883989 -0.019848 -0.549408 0.000000 0.000000
    38 -0.586770 -1.264477 0.200161 0.313906 -0.927915 -2.922977
    39 1.522835 0.058681 0.016848 0.001410 0.008985 1.029593
    40 1.117947 0.048424 -0.005766 -0.023469 -0.009175 1.254246
    41 -0.139399 -0.111698 0.014397 0.407653 0.171241 1.393752
    42 -6.260806 6.983652 -0.294122 1.580804 -0.005023 -0.912799
  time 26
    0 -0.368931 1.166145 1.199636 0.000000 0.000000 0.000000
    1 12.546729 -2.344350 -9.893301 0.658778 -1.821541 -1.284339
    2 -0.071918 -8.498730 -0.104136 0.143222 0.106331 -0.252288
    3 5.233845 1.354622 1.688628 -0.065772 2.858007 1.272336
    4 19.997025 0.102143 0.000001 0.000000 0.000000 0.000000
    5 -16.915008 105.266426 -1.648488 0.000000 0.000000 0.000000
    6 6.506417 1.675302 0.000001 0.000000 0.000000 1.570796
    7 1.257180 8.762585 -0.153713 -1.570562 0.002683 -1.566807
    8 -0.488518 -2.755602 -0.228260 -0.636863 -0.077551 -0.298478
    9 0.039887 -1.479790 0.029854 -2.230118 0.000000 0.000001
    10 0.028786 -1.075731 -0.023109 -0.271941 0.000000 0.000000
    11 0.250027 -2.820665 -0.238396 -0.437192 -0.061406 -0.314674
    12 -0.049759 -1.680544 0.100479 -2.308624 0.000000 -0.000002
    13 -0.034142 -1.148312 0.084782 -0.535851 0.000000 0.000000
    14 0.957766 -2.746780 -0.090302 0.398790 -0.132819 0.006168
    15 -0.033420 -1.397129 -0.011257 -0.767419 0.000000 -0.000001
    16 -0.022360 -0.957436 0.018784 -0.380385 0.000000 0.000000
    17 -1.180681 -2.507217 -0.193859 -0.535961 0.112898 -0.284556
    18 -0.024967 -1.123934 0.017597 -1.884509 0.000000 0.000001
    19 -0.020057 -0.890968 0.010090 -0.772262 0.000000 0.000000
    20 0.583510 -1.197277 0.185379 0.385373 -0.553917 -0.837084
    21 1.535927 0.010246 0.005009 -0.002964 -0.012979 -0.682290
    22 1.100771 0.004527 -0.010679 -0.016147 -0.001453 -1.484153
    23 0.120153 -0.050270 -0.054489 0.287569 3.110905 1.561085
    24 2.858233 3.362752 -9.325787 0.316163 -3.496579 0.533542
    25 0.096944 -8.450418 -0.009365 -0.763037 -1.346425 1.363381
    26 0.447953 -2.798986 -0.200443 -1.456960 0.099071 0.252834
    27 -0.032909 -1.480204 0.004940 -1.601340 0.000000 0.000002
    28 -0.027022 -1.076920 -0.020210 -0.353735 0.000000 0.000000
    29 -0.249534 -2.846964 -0.174213 -1.241183 0.075210 0.132159
    30 0.043235 -1.683941 0.096012 -1.813709 0.002823 -0.000167
    31 0.031729 -1.160830 0.058838 -0.456154 0.000642 0.008372
    32 -0.963866 -2.785145 -0.085350 -1.148608 0.139589 0.121877
    33 0.028479 -1.403067 0.006271 -1.391232 0.000000 0.000000
    34 0.021413 -0.957781 0.020046 -0.471322 0.000000 0.000000
    35 1.164475 -2.543940 -0.170330 -1.423710 -0.066254 0.446863
    36 0.024032 -1.129042 0.017807 -1.462507 0.000000 0.000001
    37 0.014898 -0.883989 -0.019848 -0.549408 0.000000 0.000000
    38 -0.586770 -1.264477 0.200161 0.313906 -0.927915 -2.922977
    39 1.522835 0.058681 0.016848 0.001410 0.008985 1.029593
    40 1.117947 0.048424 -0.005766 -0.023469 -0.009175 1.254246
    41 -0.139399 -0.111698 0.014397 0.407653 0.171241 1.393752
    42 -6.260806 6.983652 -0.294122 1.580804 -0.005023 -0.912799
  time 27
    0 -0.368931 1.166145 1.199636 0.000000 0.000000 0.000000
    1 12.566261 -2.340444 -9.854238 0.652672 -1.817632 -1.280654
    2 -0.071918 -8.498730 -0.104136 0.143390 0.105600 -0.248285
    3 5.233845 1.354622 1.688628 -0.065772 2.858007 1.272336
    4 19.997025 0.102143 0.000001 0.000000 0.000000 0.000000
    5 -16.915008 105.266426 -1.648488 0.000000 0.000000 0.000000
    6 6.506417 1.675302 0.000001 0.000000 0.000000 1.570796
    7 1.257180 8.762585 -0.153713 -1.570562 0.002683 -1.566807
    8 -0.488518 -2.755602 -0.228260 -0.636863 -0.077551 -0.298478
    9 0.039887 -1.479790 0.029854 -2.230118 0.000000 0.000001
    10 0.028786 -1.075731 -0.023109 -0.271941 0.000000 0.000000
    11 0.250027 -2.820665 -0.238396 -0.437192 -0.061406 -0.314674
    12 -0.049759 -1.680544 0.100479 -2.308624 0.000000 -0.000002
    13 -0.034142 -1.148312 0.084782 -0.535851 0.000000 0.000000
    14 0.957766 -2.746780 -0.090302 0.398790 -0.132819 0.006168
    15 -0.033420 -1.397129 -0.011257 -0.767419 0.000000 -0.000001
    16 -0.022360 -0.957436 0.018784 -0.380385 0.000000 0.000000
    17 -1.180681 -2.507217 -0.193859 -0.535961 0.112898 -0.284556
    18 -0.024967 -1.123934 0.017597 -1.884509 0.000000 0.000001
    19 -0.020057 -0.890968 0.010090 -0.772262 0.000000 0.000000
    20 0.583510 -1.197277 0.185379 0.385373 -0.553917 -0.837084
    21 1.535927 0.010246 0.005009 -0.002964 -0.012979 -0.682290
    22 1.100771 0.004527 -0.010679 -0.016147 -0.001453 -1.484153
    23 0.120153 -0.050270 -0.054489 0.287569 3.110905 1.561085
    24 2.901203 3.386191 -9.306255 0.314960 -3.495707 0.530215
    25 0.096944 -8.450418 -0.009365 -0.763037 -1.346425 1.363381
    26 0.447953 -2.798986 -0.200443 -1.456960 0.099071 0.252834
    27 -0.032909 -1.480204 0.004940 -1.601340 0.000000 0.000002
    28 -0.027022 -1.076920 -0.020210 -0.353735 0.000000 0.000000
    29 -0.249534 -2.846964 -0.174213 -1.241183 0.075210 0.132159
    30 0.043235 -1.683941 0.096012 -1.813709 0.002823 -0.000167
    31 0.031729 -1.160830 0.058838 -0.456154 0.000642 0.008372
    32 -0.963866 -2.785145 -0.085350 -1.148608 0.139589 0.121877
    33 0.028479 -1.403067 0.006271 -1.391232 0.000000 0.000000
    34 0.021413 -0.957781 0.020046 -0.471322 0.000000 0.000000
    35 1.164475 -2.543940 -0.170330 -1.423710 -0.066254 0.446863
    36 0.024032 -1.129042 0.017807 -1.462507 0.000000 0.000001
    37 0.014898 -0.883989 -0.019848 -0.549408 0.000000 0.000000
    38 -0.586770 -1.264477 0.200161 0.313906 -0.927915 -2.922977
    39 1.522835 0.058681 0.016848 0.001410 0.008985 1.029593
    40 1.117947 0.048424 -0.005766 -0.023469 -0.009175 1.254246
    41 -0.139399 -0.111698 0.014397 0.407653 0.171241 1.393752
    42 -6.260806 6.983652 -0.294122 1.580804 -0.005023 -0.912799
  time 28
    0 -0.368931 1.166145 1.199636 0.000000 0.000000 0.000000
    1 12.585793 -2.336537 -9.819080 0.646118 -1.813662 -1.276530
    2 -0.071918 -8.498730 -0.104136 0.143557 0.104916 -0.244522
    3 5.233845 1.354622 1.688628 -0.065772 2.858007 1.272336
    4 19.997025 0.102143 0.000001 0.000000 0.000000 0.000000
    5 -16.915008 105.266426 -1.648488 0.000000 0.000000 0.000000
    6 6.506417 1.675302 0.000001 0.000000 0.000000 1.570796
    7 1.257180 8.762585 -0.153713 -1.570562 0.002683 -1.566807
    8 -0.488518 -2.755602 -0.228260 -0.636863 -0.077551 -0.298478
    9 0.039887 -1.479790 0.029854 -2.230118 0.000000 0.000001
    10 0.028786 -1.075731 -0.023109 -0.271941 0.000000 0.000000
    11 0.250027 -2.820665 -0.238396 -0.437192 -0.061406 -0.314674
    12 -0.049759 -1.680544 0.100479 -2.308624 0.000000 -0.000002
    13 -0.034142 -1.148312 0.084782 -0.535851 0.000000 0.000000
    14 0.957766 -2.746780 -0.090302 0.398790 -0.132819 0.006168
    15 -0.033420 -1.397129 -0.011257 -0.767419 0.000000 -0.000001
    16 -0.022360 -0.957436 0.018784 -0.380385 0.000000 0.000000
    17 -1.180681 -2.507217 -0.193859 -0.535961 0.112898 -0.284556
    18 -0.024967 -1.123934 0.017597 -1.884509 0.000000 0.000001
    19 -0.020057 -0.890968 0.010090 -0.772262 0.000000 0.000000
    20 0.583510 -1.197277 0.185379 0.385373 -0.553917 -0.837084
    21 1.535927 0.010246 0.005009 -0.002964 -0.012979 -0.682290
    22 1.100771 0.004527 -0.010679 -0.016147 -0.001453 -1.484153
    23 0.120153 -0.050270 -0.054489 0.287569 3.110905 1.561085
    24 2.936360 3.409629 -9.286723 0.313555 -3.495096 0.526887
    25 0.096944 -8.450418 -0.009365 -0.763037 -1.346425 1.363381
    26 0.447953 -2.798986 -0.200443 -1.456960 0.099071 0.252834
    27 -0.032909 -1.480204 0.004940 -1.601340 0.000000 0.000002
    28 -0.027022 -1.076920 -0.020210 -0.353735 0.000000 0.000000
    29 -0.249534 -2.846964 -0.174213 -1.241183 0.075210 0.132159
    30 0.043235 -1.683941 0.096012 -1.813709 0.002823 -0.000167
    31 0.031729 -1.160830 0.058838 -0.456154 0.000642 0.008372
    32 -0.963866 -2.785145 -0.085350 -1.148608 0.139589 0.121877
    33 0.028479 -1.403067 0.006271 -1.391232 0.000000 0.000000
    34 0.021413 -0.957781 0.020046 -0.471322 0.000000 0.000000
    35 1.164475 -2.543940 -0.170330 -1.423710 -0.066254 0.446863
    36 0.024032 -1.129042 0.017807 -1.462507 0.000000 0.000001
    37 0.014898 -0.883989 -0.019848 -0.549408 0.000000 0.000000
    38 -0.586770 -1.264477 0.200161 0.313906 -0.927915 -2.922977
    39 1.522835 0.058681 0.016848 0.001410 0.008985 1.029593
    40 1.117947 0.048424 -0.005766 -0.023469 -0.009175 1.254246
    41 -0.139399 -0.111698 0.014397 0.407653 0.171241 1.393752
    42 -6.260806 6.983652 -0.294122 1.580804 -0.005023 -0.912799
  time 29
    0 -0.368931 1.166145 1.199636 0.000000 0.000000 0.000000
    1 12.597512 -2.332631 -9.783923 0.638126 -1.809508 -1.271264
    2 -0.071918 -8.498730 -0.104136 0.143665 0.104401 -0.241729
    3 5.233845 1.354622 1.688628 -0.065772 2.858007 1.272336
    4 19.997025 0.102143 0.000001 0.000000 0.000000 0.000000
    5 -16.915008 105.266426 -1.648488 0.000000 0.000000 0.000000
    6 6.506417 1.675302 0.000001 0.000000 0.000000 1.570796
    7 1.257180 8.762585 -0.153713 -1.570562 0.002683 -1.566807
    8 -0.488518 -2.755602 -0.228260 -0.636863 -0.077551 -0.298478
    9 0.039887 -1.479790 0.029854 -2.230118 0.000000 0.000001
    10 0.028786 -1.075731 -0.023109 -0.271941 0.000000 0.000000
    11 0.250027 -2.820665 -0.238396 -0.437192 -0.061406 -0.314674
    12 -0.049759 -1.680544 0.100479 -2.308624 0.000000 -0.000002
    13 -0.034142 -1.148312 0.084782 -0.535851 0.000000 0.000000
    14 0.957766 -2.746780 -0.090302 0.398790 -0.132819 0.006168
    15 -0.033420 -1.397129 -0.011257 -0.767419 0.000000 -0.000001
    16 -0.022360 -0.957436 0.018784 -0.380385 0.000000 0.000000
    17 -1.180681 -2.507217 -0.193859 -0.535961 0.112898 -0.284556
    18 -0.024967 -1.123934 0.017597 -1.884509 0.000000 0.000001
    19 -0.020057 -0.890968 0.010090 -0.772262 0.000000 0.000000
    20 0.583510 -1.197277 0.185379 0.385373 -0.553917 -0.837084
    21 1.535927 0.010246 0.005009 -0.002964 -0.012979 -0.682290
    22 1.100771 0.004527 -0.010679 -0.016147 -0.001453 -1.484153
    23 0.120153 -0.050270 -0.054489 0.287569 3.110905 1.561085
    24 2.971518 3.436973 -9.255472 0.311415 -3.495620 0.523180
    25 0.096944 -8.450418 -0.009365 -0.763037 -1.346425 1.363381
    26 0.447953 -2.798986 -0.200443 -1.456960 0.099071 0.252834
    27 -0.032909 -1.480204 0.004940 -1.601340 0.000000 0.000002
    28 -0.027022 -1.076920 -0.020210 -0.353735 0.000000 0.000000
    29 -0.249534 -2.846964 -0.174213 -1.241183 0.075210 0.132159
    30 0.043235 -1.683941 0.096012 -1.813709 0.002823 -0.000167
    31 0.031729 -1.160830 0.058838 -0.456154 0.000642 0.008372
    32 -0.963866 -2.785145 -0.085350 -1.148608 0.139589 0.121877
    33 0.028479 -1.403067 0.006271 -1.391232 0.000000 0.000000
    34 0.021413 -0.957781 0.020046 -0.471322 0.000000 0.000000
    35 1.164475 -2.543940 -0.170330 -1.423710 -0.066254 0.446863
    36 0.024032 -1.129042 0.017807 -1.462507 0.000000 0.000001
    37 0.014898 -0.883989 -0.019848 -0.549408 0.000000 0.000000
    38 -0.586770 -1.264477 0.200161 0.313906 -0.927915 -2.922977
    39 1.522835 0.058681 0.016848 0.001410 0.008985 1.029593
    40 1.117947 0.048424 -0.005766 -0.023469 -0.009175 1.254246
    41 -0.139399 -0.111698 0.014397 0.407653 0.171241 1.393752
    42 -6.260806 6.983652 -0.294122 1.580804 -0.005023 -0.912799
  time 30
    0 -0.368931 1.166145 1.199636 0.000000 0.000000 0.000000
    1 12.609231 -2.328725 -9.752672 0.627801 -1.805080 -1.263981
    2 -0.071918 -8.498730 -0.104136 0.143713 0.104209 -0.240639
    3 5.233845 1.354622 1.688628 -0.065772 2.858007 1.272336
    4 19.997025 0.102143 0.000001 0.000000 0.000000 0.000000
    5 -16.915008 105.266426 -1.648488 0.000000 0.000000 0.000000
    6 6.506417 1.675302 0.000001 0.000000 0.000000 1.570796
    7 1.257180 8.762585 -0.153713 -1.570562 0.002683 -1.566807
    8 -0.488518 -2.755602 -0.228260 -0.636863 -0.077551 -0.298478
    9 0.039887 -1.479790 0.029854 -2.230118 0.000000 0.000001
    10 0.028786 -1.075731 -0.023109 -0.271941 0.000000 0.000000
    11 0.250027 -2.820665 -0.238396 -0.437192 -0.061406 -0.314674
    12 -0.049759 -1.680544 0.100479 -2.308624 0.000000 -0.000002
    13 -0.034142 -1.148312 0.084782 -0.535851 0.000000 0.000000
    14 0.957766 -2.746780 -0.090302 0.398790 -0.132819 0.006168
    15 -0.033420 -1.397129 -0.011257 -0.767419 0.000000 -0.000001
    16 -0.022360 -0.957436 0.018784 -0.380385 0.000000 0.000000
    17 -1.180681 -2.507217 -0.193859 -0.535961 0.112898 -0.284556
    18 -0.024967 -1.123934 0.017597 -1.884509 0.000000 0.000001
    19 -0.020057 -0.890968 0.010090 -0.772262 0.000000 0.000000
    20 0.583510 -1.197277 0.185379 0.385373 -0.553917 -0.837084
    21 1.535927 0.010246 0.005009 -0.002964 -0.012979 -0.682290
    22 1.100771 0.004527 -0.010679 -0.016147 -0.001453 -1.484153
    23 0.120153 -0.050270 -0.054489 0.287569 3.110905 1.561085
    24 2.998862 3.464318 -9.212502 0.308071 -3.498061 0.518997
    25 0.096944 -8.450418 -0.009365 -0.763037 -1.346425 1.363381
    26 0.447953 -2.798986 -0.200443 -1.456960 0.099071 0.252834
    27 -0.032909 -1.480204 0.004940 -1.601340 0.000000 0.000002
    28 -0.027022 -1.076920 -0.020210 -0.353735 0.000000 0.000000
    29 -0.249534 -2.846964 -0.174213 -1.241183 0.075210 0.132159
    30 0.043235 -1.683941 0.096012 -1.813709 0.002823 -0.000167
    31 0.031729 -1.160830 0.058838 -0.456154 0.000642 0.008372
    32 -0.963866 -2.785145 -0.085350 -1.148608 0.139589 0.121877
    33 0.028479 -1.403067 0.006271 -1.391232 0.000000 0.000000
    34 0.021413 -0.957781 0.020046 -0.471322 0.000000 0.000000
    35 1.164475 -2.543940 -0.170330 -1.423710 -0.066254 0.446863
    36 0.024032 -1.129042 0.017807 -1.462507 0.000000 0.000001
    37 0.014898 -0.883989 -0.019848 -0.549408 0.000000 0.000000
    38 -0.586770 -1.264477 0.200161 0.313906 -0.927915 -2.922977
    39 1.522835 0.058681 0.016848 0.001410 0.008985 1.029593
    40 1.117947 0.048424 -0.005766 -0.023469 -0.009175 1.254246
    41 -0.139399 -0.111698 0.014397 0.407653 0.171241 1.393752
    42 -6.260806 6.983652 -0.294122 1.580804 -0.005023 -0.912799
end
