version 1
nodes
0 "root" -1
end
skeleton
time 0
0 0 0 0 0 0 0
end
triangles
cso_combatknife.BMP
0  -2.458351 0.919035 -1.108054  0.244545 0.238014 -0.939940  0.008016 0.160000 0
0  -3.198251 1.278110 -1.369997  0.412091 0.299234 -0.860561  0.104208 0.160000 0
0  -3.274391 1.554791 -0.775648  0.251259 0.883694 0.394879  0.104208 0.238000 0
cso_combatknife.BMP
0  -3.274391 1.554791 -0.775648  0.251259 0.883694 0.394879  0.104208 0.238000 0
0  -3.198251 1.278110 -1.369997  0.412091 0.299234 -0.860561  0.104208 0.160000 0
0  -3.914967 1.798114 -0.970983  0.181829 0.911832 0.368053  0.186373 0.238000 0
cso_combatknife.BMP
0  -3.198251 1.278110 -1.369997  0.412091 0.299234 -0.860561  0.104208 0.160000 0
0  -3.838827 1.521433 -1.565331  0.341655 0.331034 -0.879574  0.186373 0.160000 0
0  -3.914967 1.798114 -0.970983  0.181829 0.911832 0.368053  0.186373 0.238000 0
cso_combatknife.BMP
0  -3.914967 1.798114 -0.970983  0.181829 0.911832 0.368053  0.186373 0.238000 0
0  -3.838827 1.521433 -1.565331  0.341655 0.331034 -0.879574  0.186373 0.160000 0
0  -4.530732 1.947243 -1.119288  0.082064 0.937040 0.339427  0.260521 0.238000 0
cso_combatknife.BMP
0  -3.838827 1.521433 -1.565331  0.341655 0.331034 -0.879574  0.186373 0.160000 0
0  -4.454592 1.670562 -1.713637  0.241035 0.359325 -0.901517  0.260521 0.160000 0
0  -4.530732 1.947243 -1.119288  0.082064 0.937040 0.339427  0.260521 0.238000 0
cso_combatknife.BMP
0  -4.530732 1.947243 -1.119288  0.082064 0.937040 0.339427  0.260521 0.238000 0
0  -4.454592 1.670562 -1.713637  0.241035 0.359325 -0.901517  0.260521 0.160000 0
0  -5.093743 1.994093 -1.213223  -0.043916 0.947996 0.315226  0.326653 0.238000 0
cso_combatknife.BMP
0  -4.454592 1.670562 -1.713637  0.241035 0.359325 -0.901517  0.260521 0.160000 0
0  -5.017603 1.717412 -1.807572  0.114414 0.372539 -0.920927  0.326653 0.160000 0
0  -5.093743 1.994093 -1.213223  -0.043916 0.947996 0.315226  0.326653 0.238000 0
cso_combatknife.BMP
0  -5.093743 1.994093 -1.213223  -0.043916 0.947996 0.315226  0.326653 0.238000 0
0  -5.017603 1.717412 -1.807572  0.114414 0.372539 -0.920927  0.326653 0.160000 0
0  -5.805133 1.929172 -1.274134  -0.247963 0.928159 0.277413  0.400802 0.238000 0
cso_combatknife.BMP
0  -5.017603 1.717412 -1.807572  0.114414 0.372539 -0.920927  0.326653 0.160000 0
0  -5.728993 1.652489 -1.868484  -0.093966 0.368480 -0.924863  0.400802 0.160000 0
0  -5.805133 1.929172 -1.274134  -0.247963 0.928159 0.277413  0.400802 0.238000 0
cso_combatknife.BMP
0  -5.805133 1.929172 -1.274134  -0.247963 0.928159 0.277413  0.400802 0.238000 0
0  -5.728993 1.652489 -1.868484  -0.093966 0.368480 -0.924863  0.400802 0.160000 0
0  -6.440001 1.639071 -1.220417  -0.635945 0.717826 0.283303  0.490982 0.238000 0
cso_combatknife.BMP
0  -5.728993 1.652489 -1.868484  -0.093966 0.368480 -0.924863  0.400802 0.160000 0
0  -6.363860 1.362390 -1.814766  -0.490707 0.190100 -0.850307  0.490982 0.160000 0
0  -6.440001 1.639071 -1.220417  -0.635945 0.717826 0.283303  0.490982 0.238000 0
cso_combatknife.BMP
0  -6.440001 1.639071 -1.220417  -0.635945 0.717826 0.283303  0.490982 0.238000 0
0  -6.363860 1.362390 -1.814766  -0.490707 0.190100 -0.850307  0.490982 0.160000 0
0  -6.553930 1.352967 -1.101825  -0.842433 0.051943 0.536271  0.523046 0.238000 0
cso_combatknife.BMP
0  -6.363860 1.362390 -1.814766  -0.490707 0.190100 -0.850307  0.490982 0.160000 0
0  -6.477790 1.076285 -1.696174  -0.703543 -0.452681 -0.547777  0.523046 0.160000 0
0  -6.553930 1.352967 -1.101825  -0.842433 0.051943 0.536271  0.523046 0.238000 0
cso_combatknife.BMP
0  -1.665978 1.785631 -0.677062  0.016205 0.988830 0.148106  0.985972 0.988000 0
0  -1.536380 1.380733 -0.471970  0.671407 0.342112 0.657369  0.985972 0.938000 0
0  -1.460240 1.104053 -1.066319  0.823206 -0.209510 -0.527604  0.913828 0.938000 0
cso_combatknife.BMP
0  -1.460240 1.104053 -1.066319  0.823206 -0.209510 -0.527604  0.913828 0.938000 0
0  -1.536380 1.380733 -0.471970  0.671407 0.342112 0.657369  0.985972 0.938000 0
0  -1.554898 0.657675 -0.870647  0.771477 -0.445418 -0.454299  0.913828 0.884000 0
cso_combatknife.BMP
0  -1.536380 1.380733 -0.471970  0.671407 0.342112 0.657369  0.985972 0.938000 0
0  -1.631037 0.934356 -0.276298  0.613453 0.128758 0.779138  0.985972 0.884000 0
0  -1.554898 0.657675 -0.870647  0.771477 -0.445418 -0.454299  0.913828 0.884000 0
cso_combatknife.BMP
0  -1.554898 0.657675 -0.870647  0.771477 -0.445418 -0.454299  0.913828 0.884000 0
0  -1.631037 0.934356 -0.276298  0.613453 0.128758 0.779138  0.985972 0.884000 0
0  -1.735790 0.255581 -0.706638  0.706168 -0.594409 -0.384686  0.913828 0.832000 0
cso_combatknife.BMP
0  -1.631037 0.934356 -0.276298  0.613453 0.128758 0.779138  0.985972 0.884000 0
0  -1.811930 0.532263 -0.112289  0.549944 -0.026704 0.834742  0.985972 0.832000 0
0  -1.735790 0.255581 -0.706638  0.706168 -0.594409 -0.384686  0.913828 0.832000 0
cso_combatknife.BMP
0  -1.735790 0.255581 -0.706638  0.706168 -0.594409 -0.384686  0.913828 0.832000 0
0  -1.811930 0.532263 -0.112289  0.549944 -0.026704 0.834742  0.985972 0.832000 0
0  -2.188229 -0.280664 -0.514965  0.564043 -0.762322 -0.317270  0.913828 0.758000 0
cso_combatknife.BMP
0  -1.811930 0.532263 -0.112289  0.549944 -0.026704 0.834742  0.985972 0.832000 0
0  -2.264369 -0.003983 0.079384  0.409375 -0.200262 0.890103  0.985972 0.758000 0
0  -2.188229 -0.280664 -0.514965  0.564043 -0.762322 -0.317270  0.913828 0.758000 0
cso_combatknife.BMP
0  -2.188229 -0.280664 -0.514965  0.564043 -0.762322 -0.317270  0.913828 0.758000 0
0  -2.264369 -0.003983 0.079384  0.409375 -0.200262 0.890103  0.985972 0.758000 0
0  -2.544323 -0.496714 -0.460007  0.384167 -0.872341 -0.302347  0.913828 0.708000 0
cso_combatknife.BMP
0  -2.264369 -0.003983 0.079384  0.409375 -0.200262 0.890103  0.985972 0.758000 0
0  -2.620463 -0.220032 0.134341  0.226722 -0.300272 0.926481  0.985972 0.708000 0
0  -2.544323 -0.496714 -0.460007  0.384167 -0.872341 -0.302347  0.913828 0.708000 0
cso_combatknife.BMP
0  -2.544323 -0.496714 -0.460007  0.384167 -0.872341 -0.302347  0.913828 0.708000 0
0  -2.620463 -0.220032 0.134341  0.226722 -0.300272 0.926481  0.985972 0.708000 0
0  -3.027359 -0.666371 -0.442908  -0.518723 -0.797784 -0.307291  0.913828 0.658000 0
cso_combatknife.BMP
0  -2.620463 -0.220032 0.134341  0.226722 -0.300272 0.926481  0.985972 0.708000 0
0  -3.103499 -0.389689 0.151440  -0.645924 -0.335521 0.685690  0.985972 0.658000 0
0  -3.027359 -0.666371 -0.442908  -0.518723 -0.797784 -0.307291  0.913828 0.658000 0
cso_combatknife.BMP
0  -3.200507 0.566558 -0.306140  -0.544053 -0.114170 0.831233  0.026052 0.148000 0
0  -3.708601 0.829568 -0.493667  -0.336497 -0.257546 0.905759  0.098196 0.148000 0
0  -3.632461 0.552886 -1.088016  -0.164251 -0.883450 -0.438734  0.098196 0.064000 0
cso_combatknife.BMP
0  -3.632461 0.552886 -1.088016  -0.164251 -0.883450 -0.438734  0.098196 0.064000 0
0  -3.708601 0.829568 -0.493667  -0.336497 -0.257546 0.905759  0.098196 0.148000 0
0  -4.287568 0.655385 -1.219655  -0.056734 -0.929167 -0.365215  0.182365 0.064000 0
cso_combatknife.BMP
0  -3.708601 0.829568 -0.493667  -0.336497 -0.257546 0.905759  0.098196 0.148000 0
0  -4.363708 0.932066 -0.625306  -0.220985 -0.332316 0.916898  0.182365 0.148000 0
0  -4.287568 0.655385 -1.219655  -0.056734 -0.929167 -0.365215  0.182365 0.064000 0
cso_combatknife.BMP
0  -4.287568 0.655385 -1.219655  -0.056734 -0.929167 -0.365215  0.182365 0.064000 0
0  -4.363708 0.932066 -0.625306  -0.220985 -0.332316 0.916898  0.182365 0.148000 0
0  -4.903010 0.727072 -1.331868  0.023286 -0.927244 -0.373699  0.258517 0.064000 0
cso_combatknife.BMP
0  -4.363708 0.932066 -0.625306  -0.220985 -0.332316 0.916898  0.182365 0.148000 0
0  -4.979150 1.003753 -0.737519  -0.144627 -0.316904 0.937346  0.258517 0.148000 0
0  -4.903010 0.727072 -1.331868  0.023286 -0.927244 -0.373699  0.258517 0.064000 0
cso_combatknife.BMP
0  -4.903010 0.727072 -1.331868  0.023286 -0.927244 -0.373699  0.258517 0.064000 0
0  -4.979150 1.003753 -0.737519  -0.144627 -0.316904 0.937346  0.258517 0.148000 0
0  -5.729620 0.685812 -1.418555  -0.068331 -0.949705 -0.305521  0.354709 0.064000 0
cso_combatknife.BMP
0  -4.979150 1.003753 -0.737519  -0.144627 -0.316904 0.937346  0.258517 0.148000 0
0  -5.805760 0.962494 -0.824206  -0.221870 -0.391827 0.892880  0.354709 0.148000 0
0  -5.729620 0.685812 -1.418555  -0.068331 -0.949705 -0.305521  0.354709 0.064000 0
cso_combatknife.BMP
0  -5.729620 0.685812 -1.418555  -0.068331 -0.949705 -0.305521  0.354709 0.064000 0
0  -5.805760 0.962494 -0.824206  -0.221870 -0.391827 0.892880  0.354709 0.148000 0
0  -6.188414 0.837874 -1.548117  -0.327342 -0.864467 -0.381420  0.426854 0.064000 0
cso_combatknife.BMP
0  -5.805760 0.962494 -0.824206  -0.221870 -0.391827 0.892880  0.354709 0.148000 0
0  -6.264553 1.114555 -0.953768  -0.481491 -0.304300 0.821894  0.426854 0.148000 0
0  -6.188414 0.837874 -1.548117  -0.327342 -0.864467 -0.381420  0.426854 0.064000 0
cso_combatknife.BMP
0  -6.188414 0.837874 -1.548117  -0.327342 -0.864467 -0.381420  0.426854 0.064000 0
0  -6.264553 1.114555 -0.953768  -0.481491 -0.304300 0.821894  0.426854 0.148000 0
0  -6.477790 1.076285 -1.696174  -0.703543 -0.452681 -0.547777  0.496994 0.064000 0
cso_combatknife.BMP
0  -6.264553 1.114555 -0.953768  -0.481491 -0.304300 0.821894  0.426854 0.148000 0
0  -6.553930 1.352967 -1.101825  -0.842433 0.051943 0.536271  0.496994 0.148000 0
0  -6.477790 1.076285 -1.696174  -0.703543 -0.452681 -0.547777  0.496994 0.064000 0
cso_combatknife.BMP
0  6.466015 -1.554704 1.553244  0.984069 -0.067721 0.164342  0.006012 1.000000 0
0  5.789794 -1.687812 1.528580  0.127812 -0.886776 0.444105  0.000000 0.910000 0
0  5.864509 -1.523726 1.384035  0.229896 -0.389935 -0.891659  0.024048 0.916000 0
cso_combatknife.BMP
0  5.864509 -1.523726 1.384035  0.229896 -0.389935 -0.891659  0.024048 0.916000 0
0  5.789794 -1.687812 1.528580  0.127812 -0.886776 0.444105  0.000000 0.910000 0
0  5.541363 -1.559793 1.348323  0.134434 -0.578295 -0.804651  0.030060 0.888000 0
cso_combatknife.BMP
0  5.789794 -1.687812 1.528580  0.127812 -0.886776 0.444105  0.000000 0.910000 0
0  5.408566 -1.732224 1.500417  0.034059 -0.900143 0.434217  0.002004 0.870000 0
0  5.541363 -1.559793 1.348323  0.134434 -0.578295 -0.804651  0.030060 0.888000 0
cso_combatknife.BMP
0  5.541363 -1.559793 1.348323  0.134434 -0.578295 -0.804651  0.030060 0.888000 0
0  5.408566 -1.732224 1.500417  0.034059 -0.900143 0.434217  0.002004 0.870000 0
0  4.952929 -1.557790 1.260903  0.112430 -0.554277 -0.824671  0.054108 0.820000 0
cso_combatknife.BMP
0  5.408566 -1.732224 1.500417  0.034059 -0.900143 0.434217  0.002004 0.870000 0
0  4.844835 -1.791520 1.455803  -0.028809 -0.907590 0.418806  0.020040 0.794000 0
0  4.952929 -1.557790 1.260903  0.112430 -0.554277 -0.824671  0.054108 0.820000 0
cso_combatknife.BMP
0  4.952929 -1.557790 1.260903  0.112430 -0.554277 -0.824671  0.054108 0.820000 0
0  4.844835 -1.791520 1.455803  -0.028809 -0.907590 0.418806  0.020040 0.794000 0
0  4.427174 -1.521718 1.176758  0.100894 -0.532090 -0.840632  0.084168 0.756000 0
cso_combatknife.BMP
0  4.844835 -1.791520 1.455803  -0.028809 -0.907590 0.418806  0.020040 0.794000 0
0  4.320446 -1.804186 1.394521  -0.091983 -0.907193 0.410504  0.052104 0.720000 0
0  4.427174 -1.521718 1.176758  0.100894 -0.532090 -0.840632  0.084168 0.756000 0
cso_combatknife.BMP
0  4.427174 -1.521718 1.176758  0.100894 -0.532090 -0.840632  0.084168 0.756000 0
0  4.320446 -1.804186 1.394521  -0.091983 -0.907193 0.410504  0.052104 0.720000 0
0  3.626819 -1.444880 1.038458  0.091708 -0.521989 -0.847957  0.144289 0.666000 0
cso_combatknife.BMP
0  4.320446 -1.804186 1.394521  -0.091983 -0.907193 0.410504  0.052104 0.720000 0
0  3.578383 -1.763549 1.280541  -0.177129 -0.900723 0.396588  0.108216 0.636000 0
0  3.626819 -1.444880 1.038458  0.091708 -0.521989 -0.847957  0.144289 0.666000 0
cso_combatknife.BMP
0  3.626819 -1.444880 1.038458  0.091708 -0.521989 -0.847957  0.144289 0.666000 0
0  3.578383 -1.763549 1.280541  -0.177129 -0.900723 0.396588  0.108216 0.636000 0
0  2.640405 -1.588887 1.079071  -0.330027 -0.871242 0.363292  0.196393 0.558000 0
cso_combatknife.BMP
0  3.578383 -1.763549 1.280541  -0.177129 -0.900723 0.396588  0.108216 0.636000 0
0  4.320446 -1.804186 1.394521  -0.091983 -0.907193 0.410504  0.052104 0.720000 0
0  3.606053 -1.369422 1.200553  -0.137394 0.310587 0.940550  0.144289 0.666000 0
cso_combatknife.BMP
0  3.606053 -1.369422 1.200553  -0.137394 0.310587 0.940550  0.144289 0.666000 0
0  4.320446 -1.804186 1.394521  -0.091983 -0.907193 0.410504  0.052104 0.720000 0
0  4.406409 -1.446259 1.338853  -0.127903 0.299356 0.945494  0.084168 0.756000 0
cso_combatknife.BMP
0  4.320446 -1.804186 1.394521  -0.091983 -0.907193 0.410504  0.052104 0.720000 0
0  4.844835 -1.791520 1.455803  -0.028809 -0.907590 0.418806  0.020040 0.794000 0
0  4.406409 -1.446259 1.338853  -0.127903 0.299356 0.945494  0.084168 0.756000 0
cso_combatknife.BMP
0  4.406409 -1.446259 1.338853  -0.127903 0.299356 0.945494  0.084168 0.756000 0
0  4.844835 -1.791520 1.455803  -0.028809 -0.907590 0.418806  0.020040 0.794000 0
0  4.932164 -1.482332 1.422998  -0.111576 0.275094 0.954894  0.054108 0.820000 0
cso_combatknife.BMP
0  4.844835 -1.791520 1.455803  -0.028809 -0.907590 0.418806  0.020040 0.794000 0
0  5.408566 -1.732224 1.500417  0.034059 -0.900143 0.434217  0.002004 0.870000 0
0  4.932164 -1.482332 1.422998  -0.111576 0.275094 0.954894  0.054108 0.820000 0
cso_combatknife.BMP
0  4.932164 -1.482332 1.422998  -0.111576 0.275094 0.954894  0.054108 0.820000 0
0  5.408566 -1.732224 1.500417  0.034059 -0.900143 0.434217  0.002004 0.870000 0
0  5.520606 -1.505581 1.486995  -0.086032 0.256050 0.962798  0.030060 0.888000 0
cso_combatknife.BMP
0  5.408566 -1.732224 1.500417  0.034059 -0.900143 0.434217  0.002004 0.870000 0
0  5.789794 -1.687812 1.528580  0.127812 -0.886776 0.444105  0.000000 0.910000 0
0  5.520606 -1.505581 1.486995  -0.086032 0.256050 0.962798  0.030060 0.888000 0
cso_combatknife.BMP
0  5.520606 -1.505581 1.486995  -0.086032 0.256050 0.962798  0.030060 0.888000 0
0  5.789794 -1.687812 1.528580  0.127812 -0.886776 0.444105  0.000000 0.910000 0
0  5.833293 -1.483874 1.505843  -0.020203 0.414014 0.910031  0.024048 0.916000 0
cso_combatknife.BMP
0  5.789794 -1.687812 1.528580  0.127812 -0.886776 0.444105  0.000000 0.910000 0
0  6.466015 -1.554704 1.553244  0.984069 -0.067721 0.164342  0.006012 1.000000 0
0  5.833293 -1.483874 1.505843  -0.020203 0.414014 0.910031  0.024048 0.916000 0
cso_combatknife.BMP
0  3.864714 -0.769220 0.754400  0.193548 -0.273995 -0.942045  0.204409 0.744000 0
0  4.715389 -0.864563 1.007702  0.438093 0.835109 -0.332621  0.136273 0.822000 0
0  4.638095 -1.070300 0.993634  0.202612 -0.234779 -0.950682  0.124248 0.804000 0
cso_combatknife.BMP
0  4.638095 -1.070300 0.993634  0.202612 -0.234779 -0.950682  0.124248 0.804000 0
0  4.715389 -0.864563 1.007702  0.438093 0.835109 -0.332621  0.136273 0.822000 0
0  5.123787 -1.259148 1.143767  0.217902 -0.224860 -0.949705  0.080160 0.848000 0
cso_combatknife.BMP
0  4.715389 -0.864563 1.007702  0.438093 0.835109 -0.332621  0.136273 0.822000 0
0  5.203490 -1.073446 1.167471  0.465346 0.825251 -0.319987  0.092184 0.860000 0
0  5.123787 -1.259148 1.143767  0.217902 -0.224860 -0.949705  0.080160 0.848000 0
cso_combatknife.BMP
0  5.123787 -1.259148 1.143767  0.217902 -0.224860 -0.949705  0.080160 0.848000 0
0  5.203490 -1.073446 1.167471  0.465346 0.825251 -0.319987  0.092184 0.860000 0
0  5.593149 -1.429746 1.294417  0.229652 -0.222724 -0.947417  0.042084 0.896000 0
cso_combatknife.BMP
0  5.203490 -1.073446 1.167471  0.465346 0.825251 -0.319987  0.092184 0.860000 0
0  5.648473 -1.260186 1.311407  0.456221 0.841273 -0.289987  0.056112 0.906000 0
0  5.593149 -1.429746 1.294417  0.229652 -0.222724 -0.947417  0.042084 0.896000 0
cso_combatknife.BMP
0  5.593149 -1.429746 1.294417  0.229652 -0.222724 -0.947417  0.042084 0.896000 0
0  5.648473 -1.260186 1.311407  0.456221 0.841273 -0.289987  0.056112 0.906000 0
0  5.864509 -1.523726 1.384035  0.229896 -0.389935 -0.891659  0.024048 0.916000 0
cso_combatknife.BMP
0  5.648473 -1.260186 1.311407  0.456221 0.841273 -0.289987  0.056112 0.906000 0
0  5.936162 -1.372417 1.400508  0.404096 0.865352 -0.296396  0.038076 0.930000 0
0  5.864509 -1.523726 1.384035  0.229896 -0.389935 -0.891659  0.024048 0.916000 0
cso_combatknife.BMP
0  5.864509 -1.523726 1.384035  0.229896 -0.389935 -0.891659  0.024048 0.916000 0
0  5.936162 -1.372417 1.400508  0.404096 0.865352 -0.296396  0.038076 0.930000 0
0  6.466015 -1.554704 1.553244  0.984069 -0.067721 0.164342  0.006012 1.000000 0
cso_combatknife.BMP
0  5.864509 -1.523726 1.384035  0.229896 -0.389935 -0.891659  0.024048 0.916000 0
0  5.541363 -1.559793 1.348323  0.134434 -0.578295 -0.804651  0.030060 0.888000 0
0  5.593149 -1.429746 1.294417  0.229652 -0.222724 -0.947417  0.042084 0.896000 0
cso_combatknife.BMP
0  5.593149 -1.429746 1.294417  0.229652 -0.222724 -0.947417  0.042084 0.896000 0
0  5.541363 -1.559793 1.348323  0.134434 -0.578295 -0.804651  0.030060 0.888000 0
0  5.123787 -1.259148 1.143767  0.217902 -0.224860 -0.949705  0.080160 0.848000 0
cso_combatknife.BMP
0  5.541363 -1.559793 1.348323  0.134434 -0.578295 -0.804651  0.030060 0.888000 0
0  4.952929 -1.557790 1.260903  0.112430 -0.554277 -0.824671  0.054108 0.820000 0
0  5.123787 -1.259148 1.143767  0.217902 -0.224860 -0.949705  0.080160 0.848000 0
cso_combatknife.BMP
0  5.123787 -1.259148 1.143767  0.217902 -0.224860 -0.949705  0.080160 0.848000 0
0  4.952929 -1.557790 1.260903  0.112430 -0.554277 -0.824671  0.054108 0.820000 0
0  4.638095 -1.070300 0.993634  0.202612 -0.234779 -0.950682  0.124248 0.804000 0
cso_combatknife.BMP
0  4.952929 -1.557790 1.260903  0.112430 -0.554277 -0.824671  0.054108 0.820000 0
0  4.427174 -1.521718 1.176758  0.100894 -0.532090 -0.840632  0.084168 0.756000 0
0  4.638095 -1.070300 0.993634  0.202612 -0.234779 -0.950682  0.124248 0.804000 0
cso_combatknife.BMP
0  4.638095 -1.070300 0.993634  0.202612 -0.234779 -0.950682  0.124248 0.804000 0
0  4.427174 -1.521718 1.176758  0.100894 -0.532090 -0.840632  0.084168 0.756000 0
0  3.864714 -0.769220 0.754400  0.193548 -0.273995 -0.942045  0.204409 0.744000 0
cso_combatknife.BMP
0  4.427174 -1.521718 1.176758  0.100894 -0.532090 -0.840632  0.084168 0.756000 0
0  3.626819 -1.444880 1.038458  0.091708 -0.521989 -0.847957  0.144289 0.666000 0
0  3.864714 -0.769220 0.754400  0.193548 -0.273995 -0.942045  0.204409 0.744000 0
cso_combatknife.BMP
0  3.864714 -0.769220 0.754400  0.193548 -0.273995 -0.942045  0.204409 0.744000 0
0  3.626819 -1.444880 1.038458  0.091708 -0.521989 -0.847957  0.144289 0.666000 0
0  2.745767 -1.257681 0.838444  0.075686 -0.513962 -0.854427  0.228457 0.592000 0
cso_combatknife.BMP
0  5.103021 -1.183690 1.305862  0.003204 0.588672 0.808344  0.080160 0.848000 0
0  4.715389 -0.864563 1.007702  0.438093 0.835109 -0.332621  0.136273 0.822000 0
0  4.617330 -0.994841 1.155729  -0.023011 0.585101 0.810602  0.124248 0.804000 0
cso_combatknife.BMP
0  4.617330 -0.994841 1.155729  -0.023011 0.585101 0.810602  0.124248 0.804000 0
0  4.715389 -0.864563 1.007702  0.438093 0.835109 -0.332621  0.136273 0.822000 0
0  3.843949 -0.693761 0.916495  -0.033815 0.552293 0.832942  0.204409 0.744000 0
cso_combatknife.BMP
0  4.715389 -0.864563 1.007702  0.438093 0.835109 -0.332621  0.136273 0.822000 0
0  3.934781 -0.503381 0.739564  0.485275 0.814783 -0.317118  0.220441 0.764000 0
0  3.843949 -0.693761 0.916495  -0.033815 0.552293 0.832942  0.204409 0.744000 0
cso_combatknife.BMP
0  3.843949 -0.693761 0.916495  -0.033815 0.552293 0.832942  0.204409 0.744000 0
0  3.934781 -0.503381 0.739564  0.485275 0.814783 -0.317118  0.220441 0.764000 0
0  3.179927 -0.404980 0.696996  -0.042238 0.518967 0.853725  0.284569 0.698000 0
cso_combatknife.BMP
0  3.934781 -0.503381 0.739564  0.485275 0.814783 -0.317118  0.220441 0.764000 0
0  3.341496 -0.167383 0.507146  0.608356 0.749504 -0.260933  0.302605 0.728000 0
0  3.179927 -0.404980 0.696996  -0.042238 0.518967 0.853725  0.284569 0.698000 0
cso_combatknife.BMP
0  3.179927 -0.404980 0.696996  -0.042238 0.518967 0.853725  0.284569 0.698000 0
0  3.341496 -0.167383 0.507146  0.608356 0.749504 -0.260933  0.302605 0.728000 0
0  2.648386 -0.096514 0.485305  -0.068514 0.437147 0.896756  0.356713 0.670000 0
cso_combatknife.BMP
0  3.341496 -0.167383 0.507146  0.608356 0.749504 -0.260933  0.302605 0.728000 0
0  2.647742 0.058371 0.413120  -0.244575 0.850246 0.466079  0.374749 0.682000 0
0  2.648386 -0.096514 0.485305  -0.068514 0.437147 0.896756  0.356713 0.670000 0
cso_combatknife.BMP
0  2.648386 -0.096514 0.485305  -0.068514 0.437147 0.896756  0.356713 0.670000 0
0  2.647742 0.058371 0.413120  -0.244575 0.850246 0.466079  0.374749 0.682000 0
0  2.454880 0.017477 0.407450  -0.081118 0.916684 0.391278  0.384770 0.660000 0
cso_combatknife.BMP
0  2.475645 -0.057981 0.245355  0.095828 0.292276 -0.951506  0.683367 0.416000 0
0  1.768523 -0.868620 0.532137  0.082888 -0.507401 -0.857692  0.625251 0.322000 0
0  2.019592 -0.024642 0.138098  0.329997 0.227058 -0.916257  0.693387 0.388000 0
cso_combatknife.BMP
0  2.019592 -0.024642 0.138098  0.329997 0.227058 -0.916257  0.693387 0.388000 0
0  1.768523 -0.868620 0.532137  0.082888 -0.507401 -0.857692  0.625251 0.322000 0
0  1.168968 0.395469 -0.166443  0.354137 0.347667 -0.868129  0.777555 0.340000 0
cso_combatknife.BMP
0  1.768523 -0.868620 0.532137  0.082888 -0.507401 -0.857692  0.625251 0.322000 0
0  0.491154 -0.471990 0.150544  0.083468 -0.521012 -0.849422  0.731463 0.238000 0
0  1.168968 0.395469 -0.166443  0.354137 0.347667 -0.868129  0.777555 0.340000 0
cso_combatknife.BMP
0  1.168968 0.395469 -0.166443  0.354137 0.347667 -0.868129  0.777555 0.340000 0
0  0.491154 -0.471990 0.150544  0.083468 -0.521012 -0.849422  0.731463 0.238000 0
0  -0.403080 0.647207 -0.485022  0.298746 0.293252 -0.908139  0.883768 0.220000 0
cso_combatknife.BMP
0  0.491154 -0.471990 0.150544  0.083468 -0.521012 -0.849422  0.731463 0.238000 0
0  -1.054319 -0.179598 -0.183555  0.077334 -0.525224 -0.847407  0.839679 0.122000 0
0  -0.403080 0.647207 -0.485022  0.298746 0.293252 -0.908139  0.883768 0.220000 0
cso_combatknife.BMP
0  -0.403080 0.647207 -0.485022  0.298746 0.293252 -0.908139  0.883768 0.220000 0
0  -1.054319 -0.179598 -0.183555  0.077334 -0.525224 -0.847407  0.839679 0.122000 0
0  -1.567647 1.061453 -0.827051  0.358898 0.271706 -0.892941  0.985972 0.146000 0
cso_combatknife.BMP
0  -1.054319 -0.179598 -0.183555  0.077334 -0.525224 -0.847407  0.839679 0.122000 0
0  -2.110571 0.193645 -0.492620  0.138493 -0.467666 -0.872951  0.931864 0.056000 0
0  -1.567647 1.061453 -0.827051  0.358898 0.271706 -0.892941  0.985972 0.146000 0
cso_combatknife.BMP
0  -1.594181 1.157872 -0.619929  0.190100 0.885128 0.424726  0.833667 0.046000 0
0  -0.429614 0.743627 -0.277901  0.130467 0.904752 0.405438  0.591182 0.046000 0
0  -0.403080 0.647207 -0.485022  0.298746 0.293252 -0.908139  0.591182 0.000000 0
cso_combatknife.BMP
0  -0.403080 0.647207 -0.485022  0.298746 0.293252 -0.908139  0.591182 0.000000 0
0  -0.429614 0.743627 -0.277901  0.130467 0.904752 0.405438  0.591182 0.046000 0
0  1.168968 0.395469 -0.166443  0.354137 0.347667 -0.868129  0.284569 0.000000 0
cso_combatknife.BMP
0  -0.429614 0.743627 -0.277901  0.130467 0.904752 0.405438  0.591182 0.046000 0
0  1.142435 0.491888 0.040678  0.197028 0.916044 0.349315  0.284569 0.046000 0
0  1.168968 0.395469 -0.166443  0.354137 0.347667 -0.868129  0.284569 0.000000 0
cso_combatknife.BMP
0  1.168968 0.395469 -0.166443  0.354137 0.347667 -0.868129  0.284569 0.000000 0
0  1.142435 0.491888 0.040678  0.197028 0.916044 0.349315  0.284569 0.046000 0
0  2.019592 -0.024642 0.138098  0.329997 0.227058 -0.916257  0.128257 0.000000 0
cso_combatknife.BMP
0  1.142435 0.491888 0.040678  0.197028 0.916044 0.349315  0.284569 0.046000 0
0  1.993059 0.071777 0.345219  0.147557 0.876736 0.457717  0.128257 0.046000 0
0  2.019592 -0.024642 0.138098  0.329997 0.227058 -0.916257  0.128257 0.000000 0
cso_combatknife.BMP
0  2.019592 -0.024642 0.138098  0.329997 0.227058 -0.916257  0.128257 0.000000 0
0  1.993059 0.071777 0.345219  0.147557 0.876736 0.457717  0.128257 0.046000 0
0  2.475645 -0.057981 0.245355  0.095828 0.292276 -0.951506  0.050100 0.000000 0
cso_combatknife.BMP
0  1.993059 0.071777 0.345219  0.147557 0.876736 0.457717  0.128257 0.046000 0
0  2.454880 0.017477 0.407450  -0.081118 0.916684 0.391278  0.050100 0.046000 0
0  2.475645 -0.057981 0.245355  0.095828 0.292276 -0.951506  0.050100 0.000000 0
cso_combatknife.BMP
0  -2.137104 0.290064 -0.285499  -0.093753 0.373394 0.922910  0.931864 0.056000 0
0  -1.080852 -0.083179 0.023566  -0.148717 0.315928 0.937040  0.839679 0.122000 0
0  -1.594181 1.157872 -0.619929  0.190100 0.885128 0.424726  0.985972 0.146000 0
cso_combatknife.BMP
0  -1.594181 1.157872 -0.619929  0.190100 0.885128 0.424726  0.985972 0.146000 0
0  -1.080852 -0.083179 0.023566  -0.148717 0.315928 0.937040  0.839679 0.122000 0
0  -0.429614 0.743627 -0.277901  0.130467 0.904752 0.405438  0.883768 0.220000 0
cso_combatknife.BMP
0  -1.080852 -0.083179 0.023566  -0.148717 0.315928 0.937040  0.839679 0.122000 0
0  0.464620 -0.375571 0.357666  -0.144780 0.320322 0.936155  0.731463 0.238000 0
0  -0.429614 0.743627 -0.277901  0.130467 0.904752 0.405438  0.883768 0.220000 0
cso_combatknife.BMP
0  -0.429614 0.743627 -0.277901  0.130467 0.904752 0.405438  0.883768 0.220000 0
0  0.464620 -0.375571 0.357666  -0.144780 0.320322 0.936155  0.731463 0.238000 0
0  1.142435 0.491888 0.040678  0.197028 0.916044 0.349315  0.777555 0.340000 0
cso_combatknife.BMP
0  0.464620 -0.375571 0.357666  -0.144780 0.320322 0.936155  0.731463 0.238000 0
0  1.747758 -0.793160 0.694232  -0.149113 0.329783 0.932188  0.625251 0.322000 0
0  1.142435 0.491888 0.040678  0.197028 0.916044 0.349315  0.777555 0.340000 0
cso_combatknife.BMP
0  1.142435 0.491888 0.040678  0.197028 0.916044 0.349315  0.777555 0.340000 0
0  1.747758 -0.793160 0.694232  -0.149113 0.329783 0.932188  0.625251 0.322000 0
0  1.993059 0.071777 0.345219  0.147557 0.876736 0.457717  0.693387 0.388000 0
cso_combatknife.BMP
0  1.747758 -0.793160 0.694232  -0.149113 0.329783 0.932188  0.625251 0.322000 0
0  2.454880 0.017477 0.407450  -0.081118 0.916684 0.391278  0.683367 0.416000 0
0  1.993059 0.071777 0.345219  0.147557 0.876736 0.457717  0.693387 0.388000 0
cso_combatknife.BMP
0  3.606053 -1.369422 1.200553  -0.137394 0.310587 0.940550  0.144289 0.666000 0
0  4.406409 -1.446259 1.338853  -0.127903 0.299356 0.945494  0.084168 0.756000 0
0  3.843949 -0.693761 0.916495  -0.033815 0.552293 0.832942  0.204409 0.744000 0
cso_combatknife.BMP
0  3.843949 -0.693761 0.916495  -0.033815 0.552293 0.832942  0.204409 0.744000 0
0  4.406409 -1.446259 1.338853  -0.127903 0.299356 0.945494  0.084168 0.756000 0
0  4.617330 -0.994841 1.155729  -0.023011 0.585101 0.810602  0.124248 0.804000 0
cso_combatknife.BMP
0  4.406409 -1.446259 1.338853  -0.127903 0.299356 0.945494  0.084168 0.756000 0
0  4.932164 -1.482332 1.422998  -0.111576 0.275094 0.954894  0.054108 0.820000 0
0  4.617330 -0.994841 1.155729  -0.023011 0.585101 0.810602  0.124248 0.804000 0
cso_combatknife.BMP
0  4.617330 -0.994841 1.155729  -0.023011 0.585101 0.810602  0.124248 0.804000 0
0  4.932164 -1.482332 1.422998  -0.111576 0.275094 0.954894  0.054108 0.820000 0
0  5.103021 -1.183690 1.305862  0.003204 0.588672 0.808344  0.080160 0.848000 0
cso_combatknife.BMP
0  4.932164 -1.482332 1.422998  -0.111576 0.275094 0.954894  0.054108 0.820000 0
0  5.520606 -1.505581 1.486995  -0.086032 0.256050 0.962798  0.030060 0.888000 0
0  5.103021 -1.183690 1.305862  0.003204 0.588672 0.808344  0.080160 0.848000 0
cso_combatknife.BMP
0  5.103021 -1.183690 1.305862  0.003204 0.588672 0.808344  0.080160 0.848000 0
0  5.520606 -1.505581 1.486995  -0.086032 0.256050 0.962798  0.030060 0.888000 0
0  5.572392 -1.375534 1.433090  0.001679 0.567217 0.823542  0.042084 0.896000 0
cso_combatknife.BMP
0  5.520606 -1.505581 1.486995  -0.086032 0.256050 0.962798  0.030060 0.888000 0
0  5.833293 -1.483874 1.505843  -0.020203 0.414014 0.910031  0.024048 0.916000 0
0  5.572392 -1.375534 1.433090  0.001679 0.567217 0.823542  0.042084 0.896000 0
cso_combatknife.BMP
0  -2.413223 -0.142492 -0.119508  -0.293466 -0.347453 0.890561  0.903808 0.008000 0
0  -1.449144 -0.512176 0.053942  -0.263344 -0.883328 0.387707  0.823647 0.070000 0
0  -2.137104 0.290064 -0.285499  -0.093753 0.373394 0.922910  0.931864 0.056000 0
cso_combatknife.BMP
0  -2.137104 0.290064 -0.285499  -0.093753 0.373394 0.922910  0.931864 0.056000 0
0  -1.449144 -0.512176 0.053942  -0.263344 -0.883328 0.387707  0.823647 0.070000 0
0  -1.080852 -0.083179 0.023566  -0.148717 0.315928 0.937040  0.839679 0.122000 0
cso_combatknife.BMP
0  -1.449144 -0.512176 0.053942  -0.263344 -0.883328 0.387707  0.823647 0.070000 0
0  0.190511 -0.802809 0.399288  -0.288766 -0.877468 0.382946  0.709419 0.192000 0
0  -1.080852 -0.083179 0.023566  -0.148717 0.315928 0.937040  0.839679 0.122000 0
cso_combatknife.BMP
0  -1.080852 -0.083179 0.023566  -0.148717 0.315928 0.937040  0.839679 0.122000 0
0  0.190511 -0.802809 0.399288  -0.288766 -0.877468 0.382946  0.709419 0.192000 0
0  0.464620 -0.375571 0.357666  -0.144780 0.320322 0.936155  0.731463 0.238000 0
cso_combatknife.BMP
0  0.190511 -0.802809 0.399288  -0.288766 -0.877468 0.382946  0.709419 0.192000 0
0  1.429268 -1.161169 0.724805  -0.350139 -0.864742 0.359935  0.611222 0.276000 0
0  0.464620 -0.375571 0.357666  -0.144780 0.320322 0.936155  0.731463 0.238000 0
cso_combatknife.BMP
0  0.464620 -0.375571 0.357666  -0.144780 0.320322 0.936155  0.731463 0.238000 0
0  1.429268 -1.161169 0.724805  -0.350139 -0.864742 0.359935  0.611222 0.276000 0
0  1.747758 -0.793160 0.694232  -0.149113 0.329783 0.932188  0.625251 0.322000 0
cso_combatknife.BMP
0  -2.458351 0.919035 -1.108054  0.244545 0.238014 -0.939940  0.200401 0.956000 0
0  -3.632461 0.552886 -1.088016  -0.164251 -0.883450 -0.438734  0.284569 0.810000 0
0  -3.198251 1.278110 -1.369997  0.412091 0.299234 -0.860561  0.314629 0.930000 0
cso_combatknife.BMP
0  -3.198251 1.278110 -1.369997  0.412091 0.299234 -0.860561  0.314629 0.930000 0
0  -3.632461 0.552886 -1.088016  -0.164251 -0.883450 -0.438734  0.284569 0.810000 0
0  -3.838827 1.521433 -1.565331  0.341655 0.331034 -0.879574  0.410822 0.900000 0
cso_combatknife.BMP
0  -3.632461 0.552886 -1.088016  -0.164251 -0.883450 -0.438734  0.284569 0.810000 0
0  -4.287568 0.655385 -1.219655  -0.056734 -0.929167 -0.365215  0.366733 0.762000 0
0  -3.838827 1.521433 -1.565331  0.341655 0.331034 -0.879574  0.410822 0.900000 0
cso_combatknife.BMP
0  -3.838827 1.521433 -1.565331  0.341655 0.331034 -0.879574  0.410822 0.900000 0
0  -4.287568 0.655385 -1.219655  -0.056734 -0.929167 -0.365215  0.366733 0.762000 0
0  -4.454592 1.670562 -1.713637  0.241035 0.359325 -0.901517  0.488978 0.860000 0
cso_combatknife.BMP
0  -4.287568 0.655385 -1.219655  -0.056734 -0.929167 -0.365215  0.366733 0.762000 0
0  -4.903010 0.727072 -1.331868  0.023286 -0.927244 -0.373699  0.438878 0.714000 0
0  -4.454592 1.670562 -1.713637  0.241035 0.359325 -0.901517  0.488978 0.860000 0
cso_combatknife.BMP
0  -4.454592 1.670562 -1.713637  0.241035 0.359325 -0.901517  0.488978 0.860000 0
0  -4.903010 0.727072 -1.331868  0.023286 -0.927244 -0.373699  0.438878 0.714000 0
0  -5.729620 0.685812 -1.418555  -0.068331 -0.949705 -0.305521  0.523046 0.636000 0
cso_combatknife.BMP
0  -1.631037 0.934356 -0.276298  0.613453 0.128758 0.779138  0.719439 0.634000 0
0  -3.200507 0.566558 -0.306140  -0.544053 -0.114170 0.831233  0.997996 0.460000 0
0  -1.811930 0.532263 -0.112289  0.549944 -0.026704 0.834742  0.721443 0.536000 0
cso_combatknife.BMP
0  -1.811930 0.532263 -0.112289  0.549944 -0.026704 0.834742  0.721443 0.536000 0
0  -3.200507 0.566558 -0.306140  -0.544053 -0.114170 0.831233  0.997996 0.460000 0
0  -2.264369 -0.003983 0.079384  0.409375 -0.200262 0.890103  0.769539 0.396000 0
cso_combatknife.BMP
0  -3.200507 0.566558 -0.306140  -0.544053 -0.114170 0.831233  0.997996 0.460000 0
0  -3.009808 0.289013 -0.152508  -0.699484 0.103641 0.707053  0.937876 0.414000 0
0  -2.264369 -0.003983 0.079384  0.409375 -0.200262 0.890103  0.769539 0.396000 0
cso_combatknife.BMP
0  -2.264369 -0.003983 0.079384  0.409375 -0.200262 0.890103  0.769539 0.396000 0
0  -3.009808 0.289013 -0.152508  -0.699484 0.103641 0.707053  0.937876 0.414000 0
0  -2.620463 -0.220032 0.134341  0.226722 -0.300272 0.926481  0.823647 0.328000 0
cso_combatknife.BMP
0  -3.009808 0.289013 -0.152508  -0.699484 0.103641 0.707053  0.937876 0.414000 0
0  -2.977124 -0.020168 -0.004390  -0.734733 0.347575 0.582507  0.909820 0.350000 0
0  -2.620463 -0.220032 0.134341  0.226722 -0.300272 0.926481  0.823647 0.328000 0
cso_combatknife.BMP
0  -2.620463 -0.220032 0.134341  0.226722 -0.300272 0.926481  0.823647 0.328000 0
0  -2.977124 -0.020168 -0.004390  -0.734733 0.347575 0.582507  0.909820 0.350000 0
0  -3.103499 -0.389689 0.151440  -0.645924 -0.335521 0.685690  0.903808 0.264000 0
cso_combatknife.BMP
0  1.768523 -0.868620 0.532137  0.082888 -0.507401 -0.857692  0.340681 0.518000 0
0  2.475645 -0.057981 0.245355  0.095828 0.292276 -0.951506  0.384770 0.660000 0
0  2.745767 -1.257681 0.838444  0.075686 -0.513962 -0.854427  0.228457 0.592000 0
cso_combatknife.BMP
0  2.745767 -1.257681 0.838444  0.075686 -0.513962 -0.854427  0.228457 0.592000 0
0  2.475645 -0.057981 0.245355  0.095828 0.292276 -0.951506  0.384770 0.660000 0
0  2.669152 -0.171972 0.323210  0.115360 -0.419202 -0.900510  0.356713 0.670000 0
cso_combatknife.BMP
0  2.475645 -0.057981 0.245355  0.095828 0.292276 -0.951506  0.384770 0.660000 0
0  2.668507 -0.017089 0.251025  -0.090854 0.175176 -0.980316  0.374749 0.682000 0
0  2.669152 -0.171972 0.323210  0.115360 -0.419202 -0.900510  0.356713 0.670000 0
cso_combatknife.BMP
0  2.669152 -0.171972 0.323210  0.115360 -0.419202 -0.900510  0.356713 0.670000 0
0  2.668507 -0.017089 0.251025  -0.090854 0.175176 -0.980316  0.374749 0.682000 0
0  3.200692 -0.480439 0.534901  0.191290 -0.322336 -0.927061  0.284569 0.698000 0
cso_combatknife.BMP
0  2.668507 -0.017089 0.251025  -0.090854 0.175176 -0.980316  0.374749 0.682000 0
0  3.341496 -0.167383 0.507146  0.608356 0.749504 -0.260933  0.302605 0.728000 0
0  3.200692 -0.480439 0.534901  0.191290 -0.322336 -0.927061  0.284569 0.698000 0
cso_combatknife.BMP
0  3.200692 -0.480439 0.534901  0.191290 -0.322336 -0.927061  0.284569 0.698000 0
0  3.341496 -0.167383 0.507146  0.608356 0.749504 -0.260933  0.302605 0.728000 0
0  3.934781 -0.503381 0.739564  0.485275 0.814783 -0.317118  0.220441 0.764000 0
cso_combatknife.BMP
0  -2.110571 0.193645 -0.492620  0.138493 -0.467666 -0.872951  0.931864 0.056000 0
0  -1.054319 -0.179598 -0.183555  0.077334 -0.525224 -0.847407  0.839679 0.122000 0
0  -1.449144 -0.512176 0.053942  -0.263344 -0.883328 0.387707  0.823647 0.070000 0
cso_combatknife.BMP
0  -1.449144 -0.512176 0.053942  -0.263344 -0.883328 0.387707  0.823647 0.070000 0
0  -1.054319 -0.179598 -0.183555  0.077334 -0.525224 -0.847407  0.839679 0.122000 0
0  0.190511 -0.802809 0.399288  -0.288766 -0.877468 0.382946  0.709419 0.192000 0
cso_combatknife.BMP
0  -1.054319 -0.179598 -0.183555  0.077334 -0.525224 -0.847407  0.839679 0.122000 0
0  0.491154 -0.471990 0.150544  0.083468 -0.521012 -0.849422  0.731463 0.238000 0
0  0.190511 -0.802809 0.399288  -0.288766 -0.877468 0.382946  0.709419 0.192000 0
cso_combatknife.BMP
0  0.190511 -0.802809 0.399288  -0.288766 -0.877468 0.382946  0.709419 0.192000 0
0  0.491154 -0.471990 0.150544  0.083468 -0.521012 -0.849422  0.731463 0.238000 0
0  1.429268 -1.161169 0.724805  -0.350139 -0.864742 0.359935  0.611222 0.276000 0
cso_combatknife.BMP
0  0.491154 -0.471990 0.150544  0.083468 -0.521012 -0.849422  0.731463 0.238000 0
0  1.768523 -0.868620 0.532137  0.082888 -0.507401 -0.857692  0.625251 0.322000 0
0  1.429268 -1.161169 0.724805  -0.350139 -0.864742 0.359935  0.611222 0.276000 0
cso_combatknife.BMP
0  -1.735790 0.255581 -0.706638  0.706168 -0.594409 -0.384686  0.721443 0.536000 0
0  -2.188229 -0.280664 -0.514965  0.564043 -0.762322 -0.317270  0.769539 0.396000 0
0  -3.124367 0.289877 -0.900489  -0.367901 -0.754265 -0.543748  0.997996 0.460000 0
cso_combatknife.BMP
0  -3.124367 0.289877 -0.900489  -0.367901 -0.754265 -0.543748  0.997996 0.460000 0
0  -2.188229 -0.280664 -0.514965  0.564043 -0.762322 -0.317270  0.769539 0.396000 0
0  -2.933668 0.012332 -0.746856  -0.523942 -0.534257 -0.663320  0.937876 0.414000 0
cso_combatknife.BMP
0  -2.188229 -0.280664 -0.514965  0.564043 -0.762322 -0.317270  0.769539 0.396000 0
0  -2.544323 -0.496714 -0.460007  0.384167 -0.872341 -0.302347  0.823647 0.328000 0
0  -2.933668 0.012332 -0.746856  -0.523942 -0.534257 -0.663320  0.937876 0.414000 0
cso_combatknife.BMP
0  -2.933668 0.012332 -0.746856  -0.523942 -0.534257 -0.663320  0.937876 0.414000 0
0  -2.544323 -0.496714 -0.460007  0.384167 -0.872341 -0.302347  0.823647 0.328000 0
0  -2.900984 -0.296849 -0.598739  -0.560503 -0.285470 -0.777367  0.909820 0.350000 0
cso_combatknife.BMP
0  -2.544323 -0.496714 -0.460007  0.384167 -0.872341 -0.302347  0.823647 0.328000 0
0  -3.027359 -0.666371 -0.442908  -0.518723 -0.797784 -0.307291  0.903808 0.264000 0
0  -2.900984 -0.296849 -0.598739  -0.560503 -0.285470 -0.777367  0.909820 0.350000 0
cso_combatknife.BMP
0  -1.589838 1.508950 -1.271410  0.142186 0.530992 -0.835322  0.791583 0.810000 0
0  -1.460240 1.104053 -1.066319  0.823206 -0.209510 -0.527604  0.735471 0.734000 0
0  -1.784863 1.149619 -1.129117  -0.402142 0.035188 -0.914884  0.801603 0.724000 0
cso_combatknife.BMP
0  -1.784863 1.149619 -1.129117  -0.402142 0.035188 -0.914884  0.801603 0.724000 0
0  -1.460240 1.104053 -1.066319  0.823206 -0.209510 -0.527604  0.735471 0.734000 0
0  -2.061948 0.949389 -1.071403  -0.112796 0.198035 -0.973662  0.841683 0.664000 0
cso_combatknife.BMP
0  -1.460240 1.104053 -1.066319  0.823206 -0.209510 -0.527604  0.735471 0.734000 0
0  -1.554898 0.657675 -0.870647  0.771477 -0.445418 -0.454299  0.719439 0.634000 0
0  -2.061948 0.949389 -1.071403  -0.112796 0.198035 -0.973662  0.841683 0.664000 0
cso_combatknife.BMP
0  -2.061948 0.949389 -1.071403  -0.112796 0.198035 -0.973662  0.841683 0.664000 0
0  -1.554898 0.657675 -0.870647  0.771477 -0.445418 -0.454299  0.719439 0.634000 0
0  -2.458351 0.919035 -1.108054  0.244545 0.238014 -0.939940  0.915832 0.634000 0
cso_combatknife.BMP
0  -1.554898 0.657675 -0.870647  0.771477 -0.445418 -0.454299  0.719439 0.634000 0
0  -3.124367 0.289877 -0.900489  -0.367901 -0.754265 -0.543748  0.997996 0.460000 0
0  -2.458351 0.919035 -1.108054  0.244545 0.238014 -0.939940  0.915832 0.634000 0
cso_combatknife.BMP
0  -4.454592 1.670562 -1.713637  0.241035 0.359325 -0.901517  0.488978 0.860000 0
0  -5.729620 0.685812 -1.418555  -0.068331 -0.949705 -0.305521  0.523046 0.636000 0
0  -5.017603 1.717412 -1.807572  0.114414 0.372539 -0.920927  0.555110 0.814000 0
cso_combatknife.BMP
0  -5.017603 1.717412 -1.807572  0.114414 0.372539 -0.920927  0.555110 0.814000 0
0  -5.729620 0.685812 -1.418555  -0.068331 -0.949705 -0.305521  0.523046 0.636000 0
0  -5.728993 1.652489 -1.868484  -0.093966 0.368480 -0.924863  0.625251 0.744000 0
cso_combatknife.BMP
0  -5.729620 0.685812 -1.418555  -0.068331 -0.949705 -0.305521  0.523046 0.636000 0
0  -6.188414 0.837874 -1.548117  -0.327342 -0.864467 -0.381420  0.587174 0.612000 0
0  -5.728993 1.652489 -1.868484  -0.093966 0.368480 -0.924863  0.625251 0.744000 0
cso_combatknife.BMP
0  -5.728993 1.652489 -1.868484  -0.093966 0.368480 -0.924863  0.625251 0.744000 0
0  -6.188414 0.837874 -1.548117  -0.327342 -0.864467 -0.381420  0.587174 0.612000 0
0  -6.363860 1.362390 -1.814766  -0.490707 0.190100 -0.850307  0.661323 0.654000 0
cso_combatknife.BMP
0  -6.188414 0.837874 -1.548117  -0.327342 -0.864467 -0.381420  0.587174 0.612000 0
0  -6.477790 1.076285 -1.696174  -0.703543 -0.452681 -0.547777  0.643287 0.612000 0
0  -6.363860 1.362390 -1.814766  -0.490707 0.190100 -0.850307  0.661323 0.654000 0
cso_combatknife.BMP
0  -3.103499 -0.389689 0.151440  -0.645924 -0.335521 0.685690  0.749499 0.898000 0
0  -2.977124 -0.020168 -0.004390  -0.734733 0.347575 0.582507  0.807615 0.898000 0
0  -2.900984 -0.296849 -0.598739  -0.560503 -0.285470 -0.777367  0.807615 0.990000 0
cso_combatknife.BMP
0  -2.900984 -0.296849 -0.598739  -0.560503 -0.285470 -0.777367  0.807615 0.990000 0
0  -2.977124 -0.020168 -0.004390  -0.734733 0.347575 0.582507  0.807615 0.898000 0
0  -2.933668 0.012332 -0.746856  -0.523942 -0.534257 -0.663320  0.851703 0.990000 0
cso_combatknife.BMP
0  -2.977124 -0.020168 -0.004390  -0.734733 0.347575 0.582507  0.807615 0.898000 0
0  -3.009808 0.289013 -0.152508  -0.699484 0.103641 0.707053  0.851703 0.898000 0
0  -2.933668 0.012332 -0.746856  -0.523942 -0.534257 -0.663320  0.851703 0.990000 0
cso_combatknife.BMP
0  -2.933668 0.012332 -0.746856  -0.523942 -0.534257 -0.663320  0.851703 0.990000 0
0  -3.009808 0.289013 -0.152508  -0.699484 0.103641 0.707053  0.851703 0.898000 0
0  -3.124367 0.289877 -0.900489  -0.367901 -0.754265 -0.543748  0.899800 0.990000 0
cso_combatknife.BMP
0  -3.009808 0.289013 -0.152508  -0.699484 0.103641 0.707053  0.851703 0.898000 0
0  -3.200507 0.566558 -0.306140  -0.544053 -0.114170 0.831233  0.899800 0.898000 0
0  -3.124367 0.289877 -0.900489  -0.367901 -0.754265 -0.543748  0.899800 0.990000 0
cso_combatknife.BMP
0  -2.534491 1.195716 -0.513705  0.065767 0.887692 0.455641  0.523046 0.864000 0
0  -2.138088 1.226070 -0.477054  -0.292947 0.852687 0.432539  0.581162 0.864000 0
0  -2.061948 0.949389 -1.071403  -0.112796 0.198035 -0.973662  0.581162 0.988000 0
cso_combatknife.BMP
0  -2.061948 0.949389 -1.071403  -0.112796 0.198035 -0.973662  0.581162 0.988000 0
0  -2.138088 1.226070 -0.477054  -0.292947 0.852687 0.432539  0.581162 0.864000 0
0  -1.784863 1.149619 -1.129117  -0.402142 0.035188 -0.914884  0.635271 0.988000 0
cso_combatknife.BMP
0  -2.138088 1.226070 -0.477054  -0.292947 0.852687 0.432539  0.581162 0.864000 0
0  -1.861002 1.426300 -0.534769  -0.578112 0.674703 0.458815  0.635271 0.864000 0
0  -1.784863 1.149619 -1.129117  -0.402142 0.035188 -0.914884  0.635271 0.988000 0
cso_combatknife.BMP
0  -1.784863 1.149619 -1.129117  -0.402142 0.035188 -0.914884  0.635271 0.988000 0
0  -1.861002 1.426300 -0.534769  -0.578112 0.674703 0.458815  0.635271 0.864000 0
0  -1.589838 1.508950 -1.271410  0.142186 0.530992 -0.835322  0.715431 0.988000 0
cso_combatknife.BMP
0  -1.861002 1.426300 -0.534769  -0.578112 0.674703 0.458815  0.635271 0.864000 0
0  -1.665978 1.785631 -0.677062  0.016205 0.988830 0.148106  0.715431 0.864000 0
0  -1.589838 1.508950 -1.271410  0.142186 0.530992 -0.835322  0.715431 0.988000 0
cso_combatknife.BMP
0  -3.200507 0.566558 -0.306140  -0.544053 -0.114170 0.831233  0.997996 0.460000 0
0  -1.631037 0.934356 -0.276298  0.613453 0.128758 0.779138  0.719439 0.634000 0
0  -2.534491 1.195716 -0.513705  0.065767 0.887692 0.455641  0.915832 0.634000 0
cso_combatknife.BMP
0  -2.534491 1.195716 -0.513705  0.065767 0.887692 0.455641  0.915832 0.634000 0
0  -1.631037 0.934356 -0.276298  0.613453 0.128758 0.779138  0.719439 0.634000 0
0  -2.138088 1.226070 -0.477054  -0.292947 0.852687 0.432539  0.841683 0.664000 0
cso_combatknife.BMP
0  -1.631037 0.934356 -0.276298  0.613453 0.128758 0.779138  0.719439 0.634000 0
0  -1.536380 1.380733 -0.471970  0.671407 0.342112 0.657369  0.735471 0.734000 0
0  -2.138088 1.226070 -0.477054  -0.292947 0.852687 0.432539  0.841683 0.664000 0
cso_combatknife.BMP
0  -2.138088 1.226070 -0.477054  -0.292947 0.852687 0.432539  0.841683 0.664000 0
0  -1.536380 1.380733 -0.471970  0.671407 0.342112 0.657369  0.735471 0.734000 0
0  -1.861002 1.426300 -0.534769  -0.578112 0.674703 0.458815  0.801603 0.724000 0
cso_combatknife.BMP
0  -1.536380 1.380733 -0.471970  0.671407 0.342112 0.657369  0.735471 0.734000 0
0  -1.665978 1.785631 -0.677062  0.016205 0.988830 0.148106  0.791583 0.810000 0
0  -1.861002 1.426300 -0.534769  -0.578112 0.674703 0.458815  0.801603 0.724000 0
cso_combatknife.BMP
0  -3.274391 1.554791 -0.775648  0.251259 0.883694 0.394879  0.314629 0.930000 0
0  -3.914967 1.798114 -0.970983  0.181829 0.911832 0.368053  0.410822 0.900000 0
0  -3.708601 0.829568 -0.493667  -0.336497 -0.257546 0.905759  0.284569 0.810000 0
cso_combatknife.BMP
0  -3.708601 0.829568 -0.493667  -0.336497 -0.257546 0.905759  0.284569 0.810000 0
0  -3.914967 1.798114 -0.970983  0.181829 0.911832 0.368053  0.410822 0.900000 0
0  -4.363708 0.932066 -0.625306  -0.220985 -0.332316 0.916898  0.366733 0.762000 0
cso_combatknife.BMP
0  -3.914967 1.798114 -0.970983  0.181829 0.911832 0.368053  0.410822 0.900000 0
0  -4.530732 1.947243 -1.119288  0.082064 0.937040 0.339427  0.488978 0.860000 0
0  -4.363708 0.932066 -0.625306  -0.220985 -0.332316 0.916898  0.366733 0.762000 0
cso_combatknife.BMP
0  -4.363708 0.932066 -0.625306  -0.220985 -0.332316 0.916898  0.366733 0.762000 0
0  -4.530732 1.947243 -1.119288  0.082064 0.937040 0.339427  0.488978 0.860000 0
0  -4.979150 1.003753 -0.737519  -0.144627 -0.316904 0.937346  0.438878 0.714000 0
cso_combatknife.BMP
0  -4.530732 1.947243 -1.119288  0.082064 0.937040 0.339427  0.488978 0.860000 0
0  -5.805760 0.962494 -0.824206  -0.221870 -0.391827 0.892880  0.523046 0.636000 0
0  -4.979150 1.003753 -0.737519  -0.144627 -0.316904 0.937346  0.438878 0.714000 0
cso_combatknife.BMP
0  -6.553930 1.352967 -1.101825  -0.842433 0.051943 0.536271  0.643287 0.612000 0
0  -6.264553 1.114555 -0.953768  -0.481491 -0.304300 0.821894  0.587174 0.612000 0
0  -6.440001 1.639071 -1.220417  -0.635945 0.717826 0.283303  0.661323 0.654000 0
cso_combatknife.BMP
0  -6.440001 1.639071 -1.220417  -0.635945 0.717826 0.283303  0.661323 0.654000 0
0  -6.264553 1.114555 -0.953768  -0.481491 -0.304300 0.821894  0.587174 0.612000 0
0  -5.805133 1.929172 -1.274134  -0.247963 0.928159 0.277413  0.625251 0.744000 0
cso_combatknife.BMP
0  -6.264553 1.114555 -0.953768  -0.481491 -0.304300 0.821894  0.587174 0.612000 0
0  -5.805760 0.962494 -0.824206  -0.221870 -0.391827 0.892880  0.523046 0.636000 0
0  -5.805133 1.929172 -1.274134  -0.247963 0.928159 0.277413  0.625251 0.744000 0
cso_combatknife.BMP
0  -5.805133 1.929172 -1.274134  -0.247963 0.928159 0.277413  0.625251 0.744000 0
0  -5.805760 0.962494 -0.824206  -0.221870 -0.391827 0.892880  0.523046 0.636000 0
0  -5.093743 1.994093 -1.213223  -0.043916 0.947996 0.315226  0.555110 0.814000 0
cso_combatknife.BMP
0  -5.805760 0.962494 -0.824206  -0.221870 -0.391827 0.892880  0.523046 0.636000 0
0  -4.530732 1.947243 -1.119288  0.082064 0.937040 0.339427  0.488978 0.860000 0
0  -5.093743 1.994093 -1.213223  -0.043916 0.947996 0.315226  0.555110 0.814000 0
cso_combatknife.BMP
0  2.731669 0.231411 0.243376  -0.265633 0.870663 -0.413953  0.014028 0.484000 0
0  2.726359 0.078295 0.258452  -0.336863 0.128452 -0.932737  0.050100 0.470000 0
0  2.715976 0.116024 0.339499  -0.531571 0.750847 0.391919  0.050100 0.498000 0
cso_combatknife.BMP
0  2.715976 0.116024 0.339499  -0.531571 0.750847 0.391919  0.050100 0.498000 0
0  2.726359 0.078295 0.258452  -0.336863 0.128452 -0.932737  0.050100 0.470000 0
0  2.647742 0.058371 0.413120  -0.244575 0.850246 0.466079  0.084168 0.512000 0
cso_combatknife.BMP
0  2.726359 0.078295 0.258452  -0.336863 0.128452 -0.932737  0.050100 0.470000 0
0  2.668507 -0.017089 0.251025  -0.090854 0.175176 -0.980316  0.084168 0.456000 0
0  2.647742 0.058371 0.413120  -0.244575 0.850246 0.466079  0.084168 0.512000 0
cso_combatknife.BMP
0  2.647742 0.058371 0.413120  -0.244575 0.850246 0.466079  0.084168 0.512000 0
0  2.668507 -0.017089 0.251025  -0.090854 0.175176 -0.980316  0.084168 0.456000 0
0  2.454880 0.017477 0.407450  -0.081118 0.916684 0.391278  0.134269 0.512000 0
cso_combatknife.BMP
0  2.668507 -0.017089 0.251025  -0.090854 0.175176 -0.980316  0.084168 0.456000 0
0  2.475645 -0.057981 0.245355  0.095828 0.292276 -0.951506  0.134269 0.456000 0
0  2.454880 0.017477 0.407450  -0.081118 0.916684 0.391278  0.134269 0.512000 0
cso_combatknife.BMP
0  5.103021 -1.183690 1.305862  0.003204 0.588672 0.808344  0.080160 0.848000 0
0  5.572392 -1.375534 1.433090  0.001679 0.567217 0.823542  0.042084 0.896000 0
0  5.203490 -1.073446 1.167471  0.465346 0.825251 -0.319987  0.092184 0.860000 0
cso_combatknife.BMP
0  5.203490 -1.073446 1.167471  0.465346 0.825251 -0.319987  0.092184 0.860000 0
0  5.572392 -1.375534 1.433090  0.001679 0.567217 0.823542  0.042084 0.896000 0
0  5.648473 -1.260186 1.311407  0.456221 0.841273 -0.289987  0.056112 0.906000 0
cso_combatknife.BMP
0  5.572392 -1.375534 1.433090  0.001679 0.567217 0.823542  0.042084 0.896000 0
0  5.833293 -1.483874 1.505843  -0.020203 0.414014 0.910031  0.024048 0.916000 0
0  5.648473 -1.260186 1.311407  0.456221 0.841273 -0.289987  0.056112 0.906000 0
cso_combatknife.BMP
0  5.648473 -1.260186 1.311407  0.456221 0.841273 -0.289987  0.056112 0.906000 0
0  5.833293 -1.483874 1.505843  -0.020203 0.414014 0.910031  0.024048 0.916000 0
0  5.936162 -1.372417 1.400508  0.404096 0.865352 -0.296396  0.038076 0.930000 0
cso_combatknife.BMP
0  5.833293 -1.483874 1.505843  -0.020203 0.414014 0.910031  0.024048 0.916000 0
0  6.466015 -1.554704 1.553244  0.984069 -0.067721 0.164342  0.006012 1.000000 0
0  5.936162 -1.372417 1.400508  0.404096 0.865352 -0.296396  0.038076 0.930000 0
cso_combatknife.BMP
0  2.725002 -1.182221 1.000539  -0.153569 0.319102 0.935179  0.228457 0.592000 0
0  2.648386 -0.096514 0.485305  -0.068514 0.437147 0.896756  0.356713 0.670000 0
0  1.747758 -0.793160 0.694232  -0.149113 0.329783 0.932188  0.340681 0.518000 0
cso_combatknife.BMP
0  2.725002 -1.182221 1.000539  -0.153569 0.319102 0.935179  0.228457 0.592000 0
0  3.179927 -0.404980 0.696996  -0.042238 0.518967 0.853725  0.284569 0.698000 0
0  2.648386 -0.096514 0.485305  -0.068514 0.437147 0.896756  0.356713 0.670000 0
cso_combatknife.BMP
0  2.725002 -1.182221 1.000539  -0.153569 0.319102 0.935179  0.228457 0.592000 0
0  3.843949 -0.693761 0.916495  -0.033815 0.552293 0.832942  0.204409 0.744000 0
0  3.179927 -0.404980 0.696996  -0.042238 0.518967 0.853725  0.284569 0.698000 0
cso_combatknife.BMP
0  2.725002 -1.182221 1.000539  -0.153569 0.319102 0.935179  0.228457 0.592000 0
0  3.606053 -1.369422 1.200553  -0.137394 0.310587 0.940550  0.144289 0.666000 0
0  3.843949 -0.693761 0.916495  -0.033815 0.552293 0.832942  0.204409 0.744000 0
cso_combatknife.BMP
0  1.768523 -0.868620 0.532137  0.082888 -0.507401 -0.857692  0.340681 0.518000 0
0  2.745767 -1.257681 0.838444  0.075686 -0.513962 -0.854427  0.228457 0.592000 0
0  1.429268 -1.161169 0.724805  -0.350139 -0.864742 0.359935  0.322645 0.474000 0
cso_combatknife.BMP
0  1.429268 -1.161169 0.724805  -0.350139 -0.864742 0.359935  0.322645 0.474000 0
0  2.745767 -1.257681 0.838444  0.075686 -0.513962 -0.854427  0.228457 0.592000 0
0  2.640405 -1.588887 1.079071  -0.330027 -0.871242 0.363292  0.196393 0.558000 0
cso_combatknife.BMP
0  2.745767 -1.257681 0.838444  0.075686 -0.513962 -0.854427  0.228457 0.592000 0
0  3.626819 -1.444880 1.038458  0.091708 -0.521989 -0.847957  0.144289 0.666000 0
0  2.640405 -1.588887 1.079071  -0.330027 -0.871242 0.363292  0.196393 0.558000 0
cso_combatknife.BMP
0  3.606053 -1.369422 1.200553  -0.137394 0.310587 0.940550  0.144289 0.666000 0
0  2.725002 -1.182221 1.000539  -0.153569 0.319102 0.935179  0.228457 0.592000 0
0  2.640405 -1.588887 1.079071  -0.330027 -0.871242 0.363292  0.196393 0.558000 0
cso_combatknife.BMP
0  2.640405 -1.588887 1.079071  -0.330027 -0.871242 0.363292  0.196393 0.558000 0
0  2.725002 -1.182221 1.000539  -0.153569 0.319102 0.935179  0.228457 0.592000 0
0  1.429268 -1.161169 0.724805  -0.350139 -0.864742 0.359935  0.322645 0.474000 0
cso_combatknife.BMP
0  2.725002 -1.182221 1.000539  -0.153569 0.319102 0.935179  0.228457 0.592000 0
0  1.747758 -0.793160 0.694232  -0.149113 0.329783 0.932188  0.340681 0.518000 0
0  1.429268 -1.161169 0.724805  -0.350139 -0.864742 0.359935  0.322645 0.474000 0
cso_combatknife.BMP
0  -3.274391 1.554791 -0.775648  0.251259 0.883694 0.394879  0.314629 0.930000 0
0  -3.708601 0.829568 -0.493667  -0.336497 -0.257546 0.905759  0.284569 0.810000 0
0  -2.534491 1.195716 -0.513705  0.065767 0.887692 0.455641  0.200401 0.956000 0
cso_combatknife.BMP
0  -2.534491 1.195716 -0.513705  0.065767 0.887692 0.455641  0.200401 0.956000 0
0  -3.708601 0.829568 -0.493667  -0.336497 -0.257546 0.905759  0.284569 0.810000 0
0  -3.200507 0.566558 -0.306140  -0.544053 -0.114170 0.831233  0.204409 0.826000 0
cso_combatknife.BMP
0  2.668507 -0.017089 0.251025  -0.090854 0.175176 -0.980316  0.374749 0.682000 0
0  2.726359 0.078295 0.258452  -0.336863 0.128452 -0.932737  0.378758 0.694000 0
0  3.341496 -0.167383 0.507146  0.608356 0.749504 -0.260933  0.302605 0.728000 0
cso_combatknife.BMP
0  3.341496 -0.167383 0.507146  0.608356 0.749504 -0.260933  0.302605 0.728000 0
0  2.726359 0.078295 0.258452  -0.336863 0.128452 -0.932737  0.378758 0.694000 0
0  2.731669 0.231411 0.243376  -0.265633 0.870663 -0.413953  0.390782 0.702000 0
cso_combatknife.BMP
0  4.715389 -0.864563 1.007702  0.438093 0.835109 -0.332621  0.136273 0.822000 0
0  3.864714 -0.769220 0.754400  0.193548 -0.273995 -0.942045  0.204409 0.744000 0
0  3.934781 -0.503381 0.739564  0.485275 0.814783 -0.317118  0.220441 0.764000 0
cso_combatknife.BMP
0  3.934781 -0.503381 0.739564  0.485275 0.814783 -0.317118  0.220441 0.764000 0
0  3.864714 -0.769220 0.754400  0.193548 -0.273995 -0.942045  0.204409 0.744000 0
0  3.200692 -0.480439 0.534901  0.191290 -0.322336 -0.927061  0.284569 0.698000 0
cso_combatknife.BMP
0  2.669152 -0.171972 0.323210  0.115360 -0.419202 -0.900510  0.356713 0.670000 0
0  3.200692 -0.480439 0.534901  0.191290 -0.322336 -0.927061  0.284569 0.698000 0
0  2.745767 -1.257681 0.838444  0.075686 -0.513962 -0.854427  0.228457 0.592000 0
cso_combatknife.BMP
0  2.745767 -1.257681 0.838444  0.075686 -0.513962 -0.854427  0.228457 0.592000 0
0  3.200692 -0.480439 0.534901  0.191290 -0.322336 -0.927061  0.284569 0.698000 0
0  3.864714 -0.769220 0.754400  0.193548 -0.273995 -0.942045  0.204409 0.744000 0
cso_combatknife.BMP
0  2.647742 0.058371 0.413120  -0.244575 0.850246 0.466079  0.374749 0.682000 0
0  3.341496 -0.167383 0.507146  0.608356 0.749504 -0.260933  0.302605 0.728000 0
0  2.715976 0.116024 0.339499  -0.531571 0.750847 0.391919  0.378758 0.694000 0
cso_combatknife.BMP
0  2.715976 0.116024 0.339499  -0.531571 0.750847 0.391919  0.378758 0.694000 0
0  3.341496 -0.167383 0.507146  0.608356 0.749504 -0.260933  0.302605 0.728000 0
0  2.731669 0.231411 0.243376  -0.265633 0.870663 -0.413953  0.390782 0.702000 0
cso_combatknife.BMP
0  -2.110571 0.193645 -0.492620  0.138493 -0.467666 -0.872951  0.931864 0.056000 0
0  -1.449144 -0.512176 0.053942  -0.263344 -0.883328 0.387707  0.823647 0.070000 0
0  -2.386689 -0.238912 -0.326629  -0.127201 -0.927152 -0.352336  0.903808 0.008000 0
cso_combatknife.BMP
0  -1.594181 1.157872 -0.619929  0.190100 0.885128 0.424726  0.833667 0.046000 0
0  -0.403080 0.647207 -0.485022  0.298746 0.293252 -0.908139  0.591182 0.000000 0
0  -1.567647 1.061453 -0.827051  0.358898 0.271706 -0.892941  0.833667 0.000000 0
cso_combatknife.BMP
0  -2.413223 -0.142492 -0.119508  -0.293466 -0.347453 0.890561  0.741483 0.118000 0
0  -2.386689 -0.238912 -0.326629  -0.127201 -0.927152 -0.352336  0.741483 0.072000 0
0  -1.449144 -0.512176 0.053942  -0.263344 -0.883328 0.387707  0.537074 0.096000 0
cso_combatknife.BMP
0  -3.124367 0.289877 -0.900489  -0.367901 -0.754265 -0.543748  0.997996 0.460000 0
0  -1.554898 0.657675 -0.870647  0.771477 -0.445418 -0.454299  0.719439 0.634000 0
0  -1.735790 0.255581 -0.706638  0.706168 -0.594409 -0.384686  0.721443 0.536000 0
cso_combatknife.BMP
0  -3.632461 0.552886 -1.088016  -0.164251 -0.883450 -0.438734  0.284569 0.810000 0
0  -2.458351 0.919035 -1.108054  0.244545 0.238014 -0.939940  0.200401 0.956000 0
0  -3.124367 0.289877 -0.900489  -0.367901 -0.754265 -0.543748  0.204409 0.826000 0
cso_combatknife.BMP
0  -1.665978 1.785631 -0.677062  0.016205 0.988830 0.148106  0.985972 0.988000 0
0  -1.460240 1.104053 -1.066319  0.823206 -0.209510 -0.527604  0.913828 0.938000 0
0  -1.589838 1.508950 -1.271410  0.142186 0.530992 -0.835322  0.913828 0.988000 0
cso_combatknife.BMP
0  -3.103499 -0.389689 0.151440  -0.645924 -0.335521 0.685690  0.749499 0.898000 0
0  -2.900984 -0.296849 -0.598739  -0.560503 -0.285470 -0.777367  0.807615 0.990000 0
0  -3.027359 -0.666371 -0.442908  -0.518723 -0.797784 -0.307291  0.749499 0.990000 0
cso_combatknife.BMP
0  -2.534491 1.195716 -0.513705  0.065767 0.887692 0.455641  0.523046 0.864000 0
0  -2.061948 0.949389 -1.071403  -0.112796 0.198035 -0.973662  0.581162 0.988000 0
0  -2.458351 0.919035 -1.108054  0.244545 0.238014 -0.939940  0.523046 0.988000 0
cso_combatknife.BMP
0  -3.200507 0.566558 -0.306140  -0.544053 -0.114170 0.831233  0.026052 0.148000 0
0  -3.632461 0.552886 -1.088016  -0.164251 -0.883450 -0.438734  0.098196 0.064000 0
0  -3.124367 0.289877 -0.900489  -0.367901 -0.754265 -0.543748  0.026052 0.064000 0
cso_combatknife.BMP
0  -2.458351 0.919035 -1.108054  0.244545 0.238014 -0.939940  0.008016 0.160000 0
0  -3.274391 1.554791 -0.775648  0.251259 0.883694 0.394879  0.104208 0.238000 0
0  -2.534491 1.195716 -0.513705  0.065767 0.887692 0.455641  0.008016 0.238000 0
cso_combatknife.BMP
0  4.715389 -0.864563 1.007702  0.438093 0.835109 -0.332621  0.136273 0.822000 0
0  5.103021 -1.183690 1.305862  0.003204 0.588672 0.808344  0.080160 0.848000 0
0  5.203490 -1.073446 1.167471  0.465346 0.825251 -0.319987  0.092184 0.860000 0
cso_combatknife.BMP
0  1.747758 -0.793160 0.694232  -0.149113 0.329783 0.932188  0.340681 0.518000 0
0  2.648386 -0.096514 0.485305  -0.068514 0.437147 0.896756  0.356713 0.670000 0
0  2.454880 0.017477 0.407450  -0.081118 0.916684 0.391278  0.384770 0.660000 0
cso_combatknife.BMP
0  3.606053 -1.369422 1.200553  -0.137394 0.310587 0.940550  0.144289 0.666000 0
0  2.640405 -1.588887 1.079071  -0.330027 -0.871242 0.363292  0.196393 0.558000 0
0  3.578383 -1.763549 1.280541  -0.177129 -0.900723 0.396588  0.108216 0.636000 0
end
