// Created by Crowbar 0.49.0.0

$modelname "weapons/tfa_cso/w_combatknife.mdl"

$bodygroup "studio"
{
	studio "v_combatknife_nexon_CSO_combat_Gibon_REF"
}

$collisionmodel "v_combatknife_nexon_CSO_combat_Gibon_REF.smd"
{
	$mass 9
}

$CDMaterials "models\weapons\tfa_cso\combatknife"

$Sequence "idle" {
	"anims\idle.smd"
	fps 30
}
