version 1
nodes
  0 "Bip01 L Forearm" -1
  1 "Bip01 L Hand" 0
  2 "Bone_QBB95" 1
  3 "Bone_Magazine" 2
  4 "Bone_Magazine_Clip" 2
  5 "Bone_Trigger" 2
  6 "Bone_Bullet_Case" 2
  7 "Bone_Bullet_Clip" 2
  8 "Bip01 L Finger0" 1
  9 "Bip01 L Finger01" 8
  10 "Bip01 L Finger02" 9
  11 "Bip01 L Finger1" 1
  12 "Bip01 L Finger11" 11
  13 "Bip01 L Finger12" 12
  14 "Bip01 L Finger2" 1
  15 "Bip01 L Finger21" 14
  16 "Bip01 L Finger22" 15
  17 "Bip01 L Finger3" 1
  18 "Bip01 L Finger31" 17
  19 "Bip01 L Finger32" 18
  20 "Bip01 L Finger4" 1
  21 "Bip01 L Finger41" 20
  22 "Bip01 L Finger42" 21
  23 "Bone_Se_Hand-L" 1
  24 "Bip01 L ForeTwist2" 0
  25 "Bip01 R Forearm" -1
  26 "Bip01 R Hand" 25
  27 "Bip01 R Finger0" 26
  28 "Bip01 R Finger01" 27
  29 "Bip01 R Finger02" 28
  30 "Bip01 R Finger1" 26
  31 "Bip01 R Finger11" 30
  32 "Bip01 R Finger12" 31
  33 "Bip01 R Finger2" 26
  34 "Bip01 R Finger21" 33
  35 "Bip01 R Finger22" 34
  36 "Bip01 R Finger3" 26
  37 "Bip01 R Finger31" 36
  38 "Bip01 R Finger32" 37
  39 "Bip01 R Finger4" 26
  40 "Bip01 R Finger41" 39
  41 "Bip01 R Finger42" 40
  42 "Bone_Se_Hand-R" 26
  43 "Bip01 R ForeTwist2" 25
end
skeleton
  time 0
    0 13.071409 -0.045064 -7.983203 -0.701880 -0.106259 -2.498959
    1 8.499672 0.000001 0.000000 -2.357509 -0.532641 0.614895
    2 2.592985 0.798230 -0.345491 0.168999 -3.019791 1.443832
    3 1.276064 4.913687 -1.758919 0.000000 0.000000 0.000000
    4 0.000003 6.776258 1.709933 0.000014 0.000000 0.000000
    5 0.000000 -2.155091 2.277095 0.657840 -0.000005 0.000000
    6 -0.531230 4.631600 3.001893 0.000000 -0.000003 0.000000
    7 -0.003905 -0.826052 4.262062 0.000000 0.000000 0.000000
    8 1.066141 0.161471 -0.665475 2.484768 0.749569 0.986721
    9 1.535968 -0.000001 0.000001 0.000000 0.000000 1.180468
    10 1.100831 0.000000 0.000000 0.000000 0.000000 0.433641
    11 2.725985 -0.106123 -1.020465 -0.355085 0.107536 -0.014378
    12 1.397574 0.000001 0.000001 0.000000 0.000000 0.947342
    13 0.957879 0.000000 0.000000 0.000000 0.000000 1.317524
    14 2.818702 -0.176450 -0.444443 -0.118789 0.036080 0.644560
    15 1.684281 0.000000 0.000000 0.000000 0.000000 1.861645
    16 1.151941 0.000000 0.000001 0.000000 0.000000 1.141487
    17 2.804605 -0.069563 0.290472 -0.211325 0.071354 0.840695
    18 1.480629 0.000000 0.000000 0.000000 0.000000 1.698687
    19 1.076366 0.000000 0.000000 0.000000 0.000000 0.748916
    20 2.637186 0.041571 0.929335 -0.346527 0.088471 0.924980
    21 1.124349 -0.000002 0.000000 0.000000 0.000000 1.346295
    22 0.891247 0.000001 0.000000 0.000000 0.000000 0.984495
    23 0.050302 -0.068010 -0.113033 1.724535 0.010837 0.011384
    24 2.428478 0.000000 0.000000 -0.247886 0.000000 0.000000
    25 -1.042173 -8.615613 -11.579073 -1.217381 -0.762342 -6.931488
    26 8.499673 0.000001 0.000000 2.437193 0.370066 0.505824
    27 1.066141 0.161471 0.665475 -2.170798 -0.946985 0.854373
    28 1.535968 -0.000001 0.000000 0.000000 0.000000 0.676951
    29 1.100830 -0.000001 0.000000 0.000000 0.000000 0.413347
    30 2.725985 -0.106123 1.020465 -0.033425 -0.053085 0.395659
    31 1.397574 0.000001 -0.000001 0.000000 0.000000 1.132799
    32 0.957878 0.000000 0.000000 0.000000 0.000000 0.541011
    33 2.818702 -0.176451 0.444443 0.119850 0.134871 0.640665
    34 1.684282 -0.000002 0.000000 0.000000 0.000000 1.240576
    35 1.151941 0.000000 -0.000001 0.000000 0.000000 1.239975
    36 2.804606 -0.069564 -0.290472 0.214145 0.097683 1.016406
    37 1.480629 0.000001 -0.000001 0.000000 0.000000 1.179371
    38 1.076367 0.000000 0.000000 0.000000 0.000000 1.048828
    39 2.637187 0.041571 -0.929335 0.296629 0.280618 0.784672
    40 1.124349 0.000001 0.000000 0.000000 0.000000 1.636871
    41 0.891247 0.000001 0.000000 0.000000 0.000000 1.427882
    42 0.128431 -0.294579 0.144269 -1.544453 3.090453 0.394401
    43 2.428478 0.000000 0.000000 0.297285 0.000000 0.000000
  time 1
    0 13.450327 1.154191 -7.983203 -0.687703 -0.122288 -2.580828
    1 8.499672 0.000001 0.000000 -2.366572 -0.598510 0.672246
    2 2.592985 0.798230 -0.345491 0.168999 -3.019791 1.443832
    3 1.276064 4.913687 -1.758919 0.000000 0.000000 0.000000
    4 0.000003 6.776258 1.709933 0.000014 0.000000 0.000000
    5 0.000000 -2.155091 2.277095 0.651295 -0.000005 0.000000
    6 -0.531230 4.631600 3.001893 0.000000 -0.000003 0.000000
    7 0.000001 0.349765 4.289406 0.000000 0.000000 0.000000
    8 1.066141 0.161471 -0.665475 2.484768 0.749569 0.986721
    9 1.535968 -0.000001 0.000001 0.000000 0.000000 1.180468
    10 1.100831 0.000000 0.000000 0.000000 0.000000 0.433641
    11 2.725985 -0.106123 -1.020465 -0.355085 0.107536 -0.014378
    12 1.397574 0.000001 0.000001 0.000000 0.000000 0.947342
    13 0.957879 0.000000 0.000000 0.000000 0.000000 1.317524
    14 2.818702 -0.176450 -0.444443 -0.118789 0.036080 0.644560
    15 1.684281 0.000000 0.000000 0.000000 0.000000 1.861645
    16 1.151941 0.000000 0.000001 0.000000 0.000000 1.141487
    17 2.804605 -0.069563 0.290472 -0.211325 0.071354 0.840695
    18 1.480629 0.000000 0.000000 0.000000 0.000000 1.698687
    19 1.076366 0.000000 0.000000 0.000000 0.000000 0.748916
    20 2.637186 0.041571 0.929335 -0.346527 0.088471 0.924980
    21 1.124349 -0.000002 0.000000 0.000000 0.000000 1.346295
    22 0.891247 0.000001 0.000000 0.000000 0.000000 0.984495
    23 0.050302 -0.068010 -0.113033 1.724535 0.010837 0.011384
    24 2.428478 0.000000 0.000000 -0.238778 0.000000 0.000000
    25 -1.245304 -8.342167 -11.676732 -1.384392 -0.861196 -6.678918
    26 8.499673 0.000001 0.000000 2.484144 0.529518 0.560124
    27 1.066141 0.161471 0.665475 -1.997410 -0.961849 0.663273
    28 1.535968 -0.000001 0.000000 0.000000 0.000000 0.674914
    29 1.100830 -0.000001 0.000000 0.000000 0.000000 0.230648
    30 2.725985 -0.106123 1.020465 -0.033425 -0.053085 0.395659
    31 1.397574 0.000001 -0.000001 0.000000 0.000000 1.132799
    32 0.957878 0.000000 0.000000 0.000000 0.000000 0.541011
    33 2.818702 -0.176451 0.444443 0.119850 0.134871 0.640665
    34 1.684282 -0.000002 0.000000 0.000000 0.000000 1.240576
    35 1.151941 0.000000 -0.000001 0.000000 0.000000 1.239975
    36 2.804606 -0.069564 -0.290472 0.214145 0.097683 1.016406
    37 1.480629 0.000001 -0.000001 0.000000 0.000000 1.179371
    38 1.076367 0.000000 0.000000 0.000000 0.000000 1.048828
    39 2.637187 0.041571 -0.929335 0.296629 0.280618 0.784672
    40 1.124349 0.000001 0.000000 0.000000 0.000000 1.636871
    41 0.891247 0.000001 0.000000 0.000000 0.000000 1.427882
    42 0.128431 -0.294579 0.144269 -1.544453 3.090453 0.394401
    43 2.428478 0.000000 0.000000 0.282052 0.000000 0.000000
  time 2
    0 13.153443 1.892495 -7.897263 -0.689788 -0.141079 -2.554839
    1 8.499672 0.000001 0.000000 -2.400958 -0.529553 0.710204
    2 2.592985 0.798230 -0.345491 0.168999 -3.019791 1.443832
    3 1.276064 4.913687 -1.758919 0.000000 0.000000 0.000000
    4 0.000003 6.776258 1.709933 0.000014 0.000000 0.000000
    5 0.000000 -2.155091 2.277095 0.632684 -0.000005 0.000000
    6 -0.531230 4.631600 3.001893 0.000000 -0.000003 0.000000
    7 0.000001 0.455237 4.273781 0.000000 0.000000 0.000000
    8 1.066141 0.161471 -0.665475 2.484768 0.749569 0.986721
    9 1.535968 -0.000001 0.000001 0.000000 0.000000 1.180468
    10 1.100831 0.000000 0.000000 0.000000 0.000000 0.433641
    11 2.725985 -0.106123 -1.020465 -0.355085 0.107536 -0.014378
    12 1.397574 0.000001 0.000001 0.000000 0.000000 0.947342
    13 0.957879 0.000000 0.000000 0.000000 0.000000 1.317524
    14 2.818702 -0.176450 -0.444443 -0.118789 0.036080 0.644560
    15 1.684281 0.000000 0.000000 0.000000 0.000000 1.861645
    16 1.151941 0.000000 0.000001 0.000000 0.000000 1.141487
    17 2.804605 -0.069563 0.290472 -0.211325 0.071354 0.840695
    18 1.480629 0.000000 0.000000 0.000000 0.000000 1.698687
    19 1.076366 0.000000 0.000000 0.000000 0.000000 0.748916
    20 2.637186 0.041571 0.929335 -0.346527 0.088471 0.924980
    21 1.124349 -0.000002 0.000000 0.000000 0.000000 1.346295
    22 0.891247 0.000001 0.000000 0.000000 0.000000 0.984495
    23 0.050302 -0.068010 -0.113033 1.724535 0.010837 0.011384
    24 2.428478 0.000000 0.000000 -0.262867 0.000000 0.000000
    25 -1.299993 -7.639020 -11.778298 -1.359682 -0.844828 -6.722398
    26 8.499673 0.000001 0.000000 2.539893 0.510196 0.614685
    27 1.066141 0.161471 0.665475 -1.893828 -0.963455 0.557230
    28 1.535968 -0.000001 0.000000 0.000000 0.000000 0.666412
    29 1.100830 -0.000001 0.000000 0.000000 0.000000 0.122971
    30 2.725985 -0.106123 1.020465 -0.033425 -0.053085 0.395659
    31 1.397574 0.000001 -0.000001 0.000000 0.000000 1.132799
    32 0.957878 0.000000 0.000000 0.000000 0.000000 0.541011
    33 2.818702 -0.176451 0.444443 0.119850 0.134871 0.640665
    34 1.684282 -0.000002 0.000000 0.000000 0.000000 1.240576
    35 1.151941 0.000000 -0.000001 0.000000 0.000000 1.239975
    36 2.804606 -0.069564 -0.290472 0.214145 0.097683 1.016406
    37 1.480629 0.000001 -0.000001 0.000000 0.000000 1.179371
    38 1.076367 0.000000 0.000000 0.000000 0.000000 1.048828
    39 2.637187 0.041571 -0.929335 0.296629 0.280618 0.784672
    40 1.124349 0.000001 0.000000 0.000000 0.000000 1.636871
    41 0.891247 0.000001 0.000000 0.000000 0.000000 1.427882
    42 0.128431 -0.294579 0.144269 -1.544453 3.090453 0.394401
    43 2.428478 0.000000 0.000000 0.301096 0.000000 0.000000
  time 3
    0 13.258915 1.908120 -7.940233 -0.688937 -0.131319 -2.560380
    1 8.499672 0.000001 0.000000 -2.373580 -0.546402 0.691370
    2 2.592985 0.798230 -0.345491 0.168999 -3.019791 1.443832
    3 1.276064 4.913687 -1.758919 0.000000 0.000000 0.000000
    4 0.000003 6.776258 1.709933 0.000014 0.000000 0.000000
    5 0.000000 -2.155091 2.277095 0.603612 -0.000005 0.000000
    6 -0.531230 4.631600 3.001893 0.000000 -0.000003 0.000000
    7 0.000001 -0.087749 4.273781 0.000000 0.000000 0.000000
    8 1.066141 0.161471 -0.665475 2.484768 0.749569 0.986721
    9 1.535968 -0.000001 0.000001 0.000000 0.000000 1.180468
    10 1.100831 0.000000 0.000000 0.000000 0.000000 0.433641
    11 2.725985 -0.106123 -1.020465 -0.281812 0.110328 -0.015001
    12 1.397574 0.000001 0.000001 0.000000 0.000000 0.823878
    13 0.957879 0.000000 0.000000 0.000000 0.000000 1.292532
    14 2.818702 -0.176450 -0.444443 -0.118789 0.036080 0.644560
    15 1.684281 0.000000 0.000000 0.000000 0.000000 1.861645
    16 1.151941 0.000000 0.000001 0.000000 0.000000 1.141487
    17 2.804605 -0.069563 0.290472 -0.211325 0.071354 0.840695
    18 1.480629 0.000000 0.000000 0.000000 0.000000 1.698687
    19 1.076366 0.000000 0.000000 0.000000 0.000000 0.748916
    20 2.637186 0.041571 0.929335 -0.346527 0.088471 0.924980
    21 1.124349 -0.000002 0.000000 0.000000 0.000000 1.346295
    22 0.891247 0.000001 0.000000 0.000000 0.000000 0.984495
    23 0.050302 -0.068010 -0.113033 1.724535 0.010837 0.011384
    24 2.428478 0.000000 0.000000 -0.251769 0.000000 0.000000
    25 -1.139832 -6.951499 -11.684545 -1.330591 -0.823282 -6.827994
    26 8.499673 0.000001 0.000000 2.525655 0.420562 0.573553
    27 1.066141 0.161471 0.665475 -1.970632 -0.971402 0.673914
    28 1.535968 -0.000001 0.000000 0.000000 0.000000 0.637053
    29 1.100830 -0.000001 0.000000 0.000000 0.000000 0.195486
    30 2.725985 -0.106123 1.020465 -0.033425 -0.053085 0.395659
    31 1.397574 0.000001 -0.000001 0.000000 0.000000 1.132799
    32 0.957878 0.000000 0.000000 0.000000 0.000000 0.541011
    33 2.818702 -0.176451 0.444443 0.119850 0.134871 0.640665
    34 1.684282 -0.000002 0.000000 0.000000 0.000000 1.240576
    35 1.151941 0.000000 -0.000001 0.000000 0.000000 1.239975
    36 2.804606 -0.069564 -0.290472 0.214145 0.097683 1.016406
    37 1.480629 0.000001 -0.000001 0.000000 0.000000 1.179371
    38 1.076367 0.000000 0.000000 0.000000 0.000000 1.048828
    39 2.637187 0.041571 -0.929335 0.296629 0.280618 0.784672
    40 1.124349 0.000001 0.000000 0.000000 0.000000 1.636871
    41 0.891247 0.000001 0.000000 0.000000 0.000000 1.427882
    42 0.128431 -0.294579 0.144269 -1.544453 3.090453 0.394401
    43 2.428478 0.000000 0.000000 0.315489 0.000000 0.000000
  time 4
    0 13.364387 1.892495 -7.971484 -0.690519 -0.114849 -2.557727
    1 8.499672 0.000001 0.000000 -2.344775 -0.567223 0.657858
    2 2.592985 0.798230 -0.345491 0.168999 -3.019791 1.443832
    3 1.276064 4.913687 -1.758919 0.000000 0.000000 0.000000
    4 0.000003 6.776258 1.709933 0.000014 0.000000 0.000000
    5 0.000000 -2.155091 2.277095 0.565727 -0.000005 0.000000
    6 -0.531230 4.631600 3.001893 0.000000 -0.000003 0.000000
    7 0.000001 -1.681547 4.277687 0.000000 0.000000 0.000000
    8 1.066141 0.161471 -0.665475 2.484768 0.749569 0.986721
    9 1.535968 -0.000001 0.000001 0.000000 0.000000 1.180468
    10 1.100831 0.000000 0.000000 0.000000 0.000000 0.433641
    11 2.725985 -0.106123 -1.020465 -0.220918 0.107536 -0.014378
    12 1.397574 0.000001 0.000001 0.000000 0.000000 0.684932
    13 0.957879 0.000000 0.000000 0.000000 0.000000 1.231713
    14 2.818702 -0.176450 -0.444443 -0.118789 0.036080 0.644560
    15 1.684281 0.000000 0.000000 0.000000 0.000000 1.861645
    16 1.151941 0.000000 0.000001 0.000000 0.000000 1.141487
    17 2.804605 -0.069563 0.290472 -0.211325 0.071354 0.840695
    18 1.480629 0.000000 0.000000 0.000000 0.000000 1.698687
    19 1.076366 0.000000 0.000000 0.000000 0.000000 0.748916
    20 2.637186 0.041571 0.929335 -0.346527 0.088471 0.924980
    21 1.124349 -0.000002 0.000000 0.000000 0.000000 1.346295
    22 0.891247 0.000001 0.000000 0.000000 0.000000 0.984495
    23 0.050302 -0.068010 -0.113033 1.724535 0.010837 0.011384
    24 2.428478 0.000000 0.000000 -0.239149 0.000000 0.000000
    25 -1.147645 -6.396795 -11.415006 -1.290810 -0.770202 -6.901768
    26 8.499673 0.000001 0.000000 2.487327 0.356908 0.491418
    27 1.066141 0.161471 0.665475 -2.115294 -0.968726 0.871712
    28 1.535968 -0.000001 0.000000 0.000000 0.000000 0.601931
    29 1.100830 -0.000001 0.000000 0.000000 0.000000 0.334684
    30 2.725985 -0.106123 1.020465 -0.033425 -0.053085 0.395659
    31 1.397574 0.000001 -0.000001 0.000000 0.000000 1.132799
    32 0.957878 0.000000 0.000000 0.000000 0.000000 0.541011
    33 2.818702 -0.176451 0.444443 0.119850 0.134871 0.640665
    34 1.684282 -0.000002 0.000000 0.000000 0.000000 1.240576
    35 1.151941 0.000000 -0.000001 0.000000 0.000000 1.239975
    36 2.804606 -0.069564 -0.290472 0.214145 0.097683 1.016406
    37 1.480629 0.000001 -0.000001 0.000000 0.000000 1.179371
    38 1.076367 0.000000 0.000000 0.000000 0.000000 1.048828
    39 2.637187 0.041571 -0.929335 0.296629 0.280618 0.784672
    40 1.124349 0.000001 0.000000 0.000000 0.000000 1.636871
    41 0.891247 0.000001 0.000000 0.000000 0.000000 1.427882
    42 0.128431 -0.294579 0.144269 -1.544453 3.090453 0.394401
    43 2.428478 0.000000 0.000000 0.314734 0.000000 0.000000
  time 5
    0 13.407357 1.818274 -7.983203 -0.693767 -0.109664 -2.548986
    1 8.499672 0.000001 0.000000 -2.346537 -0.562008 0.650106
    2 2.592985 0.798230 -0.345491 0.168999 -3.019791 1.443832
    3 1.276064 4.913687 -1.758919 0.000000 0.000000 0.000000
    4 0.000003 6.776258 1.709933 0.000014 0.000000 0.000000
    5 0.000000 -2.155091 2.277095 0.520594 -0.000005 0.000000
    6 -0.531230 4.631600 3.001893 0.000000 -0.000003 0.000000
    7 0.000001 -2.974555 4.273781 0.000000 0.000000 0.000000
    8 1.066141 0.161471 -0.665475 2.484768 0.749569 0.986721
    9 1.535968 -0.000001 0.000001 0.000000 0.000000 1.180468
    10 1.100831 0.000000 0.000000 0.000000 0.000000 0.433641
    11 2.725985 -0.106123 -1.020465 -0.215189 0.090686 -0.011178
    12 1.397574 0.000001 0.000001 0.000000 0.000000 0.557420
    13 0.957879 0.000000 0.000000 0.000000 0.000000 1.110448
    14 2.818702 -0.176450 -0.444443 -0.118789 0.036080 0.644560
    15 1.684281 0.000000 0.000000 0.000000 0.000000 1.861645
    16 1.151941 0.000000 0.000001 0.000000 0.000000 1.141487
    17 2.804605 -0.069563 0.290472 -0.211325 0.071354 0.840695
    18 1.480629 0.000000 0.000000 0.000000 0.000000 1.698687
    19 1.076366 0.000000 0.000000 0.000000 0.000000 0.748916
    20 2.637186 0.041571 0.929335 -0.346527 0.088471 0.924980
    21 1.124349 -0.000002 0.000000 0.000000 0.000000 1.346295
    22 0.891247 0.000001 0.000000 0.000000 0.000000 0.984495
    23 0.050302 -0.068010 -0.113033 1.724535 0.010837 0.011384
    24 2.428478 0.000000 0.000000 -0.240384 0.000000 0.000000
    25 -1.249210 -6.174132 -11.122028 -1.242003 -0.707043 -6.932730
    26 8.499673 0.000001 0.000000 2.446317 0.336057 0.428335
    27 1.066141 0.161471 0.665475 -2.211756 -0.956208 0.996508
    28 1.535968 -0.000001 0.000000 0.000000 0.000000 0.585755
    29 1.100830 -0.000001 0.000000 0.000000 0.000000 0.437545
    30 2.725985 -0.106123 1.020465 -0.033425 -0.053085 0.395659
    31 1.397574 0.000001 -0.000001 0.000000 0.000000 1.132799
    32 0.957878 0.000000 0.000000 0.000000 0.000000 0.541011
    33 2.818702 -0.176451 0.444443 0.119850 0.134871 0.640665
    34 1.684282 -0.000002 0.000000 0.000000 0.000000 1.240576
    35 1.151941 0.000000 -0.000001 0.000000 0.000000 1.239975
    36 2.804606 -0.069564 -0.290472 0.214145 0.097683 1.016406
    37 1.480629 0.000001 -0.000001 0.000000 0.000000 1.179371
    38 1.076367 0.000000 0.000000 0.000000 0.000000 1.048828
    39 2.637187 0.041571 -0.929335 0.296629 0.280618 0.784672
    40 1.124349 0.000001 0.000000 0.000000 0.000000 1.636871
    41 0.891247 0.000001 0.000000 0.000000 0.000000 1.427882
    42 0.128431 -0.294579 0.144269 -1.544453 3.090453 0.394401
    43 2.428478 0.000000 0.000000 0.304356 0.000000 0.000000
  time 6
    0 13.430795 1.708895 -7.987109 -0.697147 -0.106377 -2.537123
    1 8.499672 0.000001 0.000000 -2.356649 -0.550204 0.647268
    2 2.592985 0.798230 -0.345491 0.168999 -3.019791 1.443832
    3 1.276064 4.913687 -1.758919 0.000000 0.000000 0.000000
    4 0.000003 6.776258 1.709933 0.000014 0.000000 0.000000
    5 0.000000 -2.155091 2.277095 0.469860 -0.000005 0.000000
    6 -0.531230 4.631600 3.001893 0.000000 -0.000003 0.000000
    7 0.000001 -2.673765 4.273781 0.000000 0.000000 0.000000
    8 1.066141 0.161471 -0.665475 2.484768 0.749569 0.986721
    9 1.535968 -0.000001 0.000001 0.000000 0.000000 1.180468
    10 1.100831 0.000000 0.000000 0.000000 0.000000 0.433641
    11 2.725985 -0.106123 -1.020465 -0.226838 0.068262 -0.006696
    12 1.397574 0.000001 0.000001 0.000000 0.000000 0.426019
    13 0.957879 0.000000 0.000000 0.000000 0.000000 0.965635
    14 2.818702 -0.176450 -0.444443 -0.118789 0.036080 0.644560
    15 1.684281 0.000000 0.000000 0.000000 0.000000 1.861645
    16 1.151941 0.000000 0.000001 0.000000 0.000000 1.141487
    17 2.804605 -0.069563 0.290472 -0.211325 0.071354 0.840695
    18 1.480629 0.000000 0.000000 0.000000 0.000000 1.698687
    19 1.076366 0.000000 0.000000 0.000000 0.000000 0.748916
    20 2.637186 0.041571 0.929335 -0.346527 0.088471 0.924980
    21 1.124349 -0.000002 0.000000 0.000000 0.000000 1.346295
    22 0.891247 0.000001 0.000000 0.000000 0.000000 0.984495
    23 0.050302 -0.068010 -0.113033 1.724535 0.010837 0.011384
    24 2.428478 0.000000 0.000000 -0.245201 0.000000 0.000000
    25 -1.272648 -6.244447 -11.012650 -1.223515 -0.672550 -6.939419
    26 8.499673 0.000001 0.000000 2.434335 0.331963 0.406693
    27 1.066141 0.161471 0.665475 -2.226423 -0.949991 1.000973
    28 1.535968 -0.000001 0.000000 0.000000 0.000000 0.596836
    29 1.100830 -0.000001 0.000000 0.000000 0.000000 0.471297
    30 2.725985 -0.106123 1.020465 -0.033425 -0.053085 0.395659
    31 1.397574 0.000001 -0.000001 0.000000 0.000000 1.132799
    32 0.957878 0.000000 0.000000 0.000000 0.000000 0.541011
    33 2.818702 -0.176451 0.444443 0.119850 0.134871 0.640665
    34 1.684282 -0.000002 0.000000 0.000000 0.000000 1.240576
    35 1.151941 0.000000 -0.000001 0.000000 0.000000 1.239975
    36 2.804606 -0.069564 -0.290472 0.214145 0.097683 1.016406
    37 1.480629 0.000001 -0.000001 0.000000 0.000000 1.179371
    38 1.076367 0.000000 0.000000 0.000000 0.000000 1.048828
    39 2.637187 0.041571 -0.929335 0.296629 0.280618 0.784672
    40 1.124349 0.000001 0.000000 0.000000 0.000000 1.636871
    41 0.891247 0.000001 0.000000 0.000000 0.000000 1.427882
    42 0.128431 -0.294579 0.144269 -1.544453 3.090453 0.394401
    43 2.428478 0.000000 0.000000 0.300868 0.000000 0.000000
  time 7
    0 13.434701 1.564360 -7.991016 -0.699855 -0.104378 -2.525728
    1 8.499672 0.000001 0.000000 -2.368209 -0.538138 0.646174
    2 2.592985 0.798230 -0.345491 0.168999 -3.019791 1.443832
    3 1.276064 4.913687 -1.758919 0.000000 0.000000 0.000000
    4 0.000003 6.776258 1.709933 0.000014 0.000000 0.000000
    5 0.000000 -2.155091 2.277095 0.415090 -0.000005 0.000000
    6 -0.531230 4.631600 3.001893 0.000000 -0.000003 0.000000
    7 0.000001 -2.783143 4.273781 0.000000 0.000000 0.000000
    8 1.066141 0.161471 -0.665475 2.484768 0.749569 0.986721
    9 1.535968 -0.000001 0.000001 0.000000 0.000000 1.180468
    10 1.100831 0.000000 0.000000 0.000000 0.000000 0.433641
    11 2.725985 -0.106123 -1.020465 -0.239314 0.048692 -0.002489
    12 1.397574 0.000001 0.000001 0.000000 0.000000 0.311941
    13 0.957879 0.000000 0.000000 0.000000 0.000000 0.824867
    14 2.818702 -0.176450 -0.444443 -0.118789 0.036080 0.644560
    15 1.684281 0.000000 0.000000 0.000000 0.000000 1.861645
    16 1.151941 0.000000 0.000001 0.000000 0.000000 1.141487
    17 2.804605 -0.069563 0.290472 -0.211325 0.071354 0.840695
    18 1.480629 0.000000 0.000000 0.000000 0.000000 1.698687
    19 1.076366 0.000000 0.000000 0.000000 0.000000 0.748916
    20 2.637186 0.041571 0.929335 -0.346527 0.088471 0.924980
    21 1.124349 -0.000002 0.000000 0.000000 0.000000 1.346295
    22 0.891247 0.000001 0.000000 0.000000 0.000000 0.984495
    23 0.050302 -0.068010 -0.113033 1.724535 0.010837 0.011384
    24 2.428478 0.000000 0.000000 -0.250547 0.000000 0.000000
    25 -1.245304 -6.392889 -10.981399 -1.215804 -0.653131 -6.946109
    26 8.499673 0.000001 0.000000 2.434160 0.327375 0.404737
    27 1.066141 0.161471 0.665475 -2.210295 -0.946738 0.956397
    28 1.535968 -0.000001 0.000000 0.000000 0.000000 0.621450
    29 1.100830 -0.000001 0.000000 0.000000 0.000000 0.480381
    30 2.725985 -0.106123 1.020465 -0.033425 -0.053085 0.395659
    31 1.397574 0.000001 -0.000001 0.000000 0.000000 1.132799
    32 0.957878 0.000000 0.000000 0.000000 0.000000 0.541011
    33 2.818702 -0.176451 0.444443 0.119850 0.134871 0.640665
    34 1.684282 -0.000002 0.000000 0.000000 0.000000 1.240576
    35 1.151941 0.000000 -0.000001 0.000000 0.000000 1.239975
    36 2.804606 -0.069564 -0.290472 0.214145 0.097683 1.016406
    37 1.480629 0.000001 -0.000001 0.000000 0.000000 1.179371
    38 1.076367 0.000000 0.000000 0.000000 0.000000 1.048828
    39 2.637187 0.041571 -0.929335 0.296629 0.280618 0.784672
    40 1.124349 0.000001 0.000000 0.000000 0.000000 1.636871
    41 0.891247 0.000001 0.000000 0.000000 0.000000 1.427882
    42 0.128431 -0.294579 0.144269 -1.544453 3.090453 0.394401
    43 2.428478 0.000000 0.000000 0.301431 0.000000 0.000000
  time 8
    0 13.422982 1.388573 -7.994922 -0.701437 -0.103090 -2.518470
    1 8.499672 0.000001 0.000000 -2.374524 -0.532057 0.644006
    2 2.592985 0.798230 -0.345491 0.168999 -3.019791 1.443832
    3 1.276064 4.913687 -1.758919 0.000000 0.000000 0.000000
    4 0.000003 6.776258 1.709933 0.000014 0.000000 0.000000
    5 0.000000 -2.155091 2.277095 0.357911 -0.000005 0.000000
    6 -0.531230 4.631600 3.001893 0.000000 -0.000003 0.000000
    7 0.000001 -2.779237 4.273781 0.000000 0.000000 0.000000
    8 1.066141 0.161471 -0.665475 2.484768 0.749569 0.986721
    9 1.535968 -0.000001 0.000001 0.000000 0.000000 1.180468
    10 1.100831 0.000000 0.000000 0.000000 0.000000 0.433641
    11 2.725985 -0.106123 -1.020465 -0.235935 0.040255 -0.000907
    12 1.397574 0.000001 0.000001 0.000000 0.000000 0.236441
    13 0.957879 0.000000 0.000000 0.000000 0.000000 0.715716
    14 2.818702 -0.176450 -0.444443 -0.118789 0.036080 0.644560
    15 1.684281 0.000000 0.000000 0.000000 0.000000 1.861645
    16 1.151941 0.000000 0.000001 0.000000 0.000000 1.141487
    17 2.804605 -0.069563 0.290472 -0.211325 0.071354 0.840695
    18 1.480629 0.000000 0.000000 0.000000 0.000000 1.698687
    19 1.076366 0.000000 0.000000 0.000000 0.000000 0.748916
    20 2.637186 0.041571 0.929335 -0.346527 0.088471 0.924980
    21 1.124349 -0.000002 0.000000 0.000000 0.000000 1.346295
    22 0.891247 0.000001 0.000000 0.000000 0.000000 0.984495
    23 0.050302 -0.068010 -0.113033 1.724535 0.010837 0.011384
    24 2.428478 0.000000 0.000000 -0.253315 0.000000 0.000000
    25 -1.147645 -6.596020 -11.059526 -1.212562 -0.657939 -6.955282
    26 8.499673 0.000001 0.000000 2.437544 0.323731 0.421132
    27 1.066141 0.161471 0.665475 -2.184795 -0.945585 0.896493
    28 1.535968 -0.000001 0.000000 0.000000 0.000000 0.651000
    29 1.100830 -0.000001 0.000000 0.000000 0.000000 0.477522
    30 2.725985 -0.106123 1.020465 -0.033425 -0.053085 0.395659
    31 1.397574 0.000001 -0.000001 0.000000 0.000000 1.132799
    32 0.957878 0.000000 0.000000 0.000000 0.000000 0.541011
    33 2.818702 -0.176451 0.444443 0.119850 0.134871 0.640665
    34 1.684282 -0.000002 0.000000 0.000000 0.000000 1.240576
    35 1.151941 0.000000 -0.000001 0.000000 0.000000 1.239975
    36 2.804606 -0.069564 -0.290472 0.214145 0.097683 1.016406
    37 1.480629 0.000001 -0.000001 0.000000 0.000000 1.179371
    38 1.076367 0.000000 0.000000 0.000000 0.000000 1.048828
    39 2.637187 0.041571 -0.929335 0.296629 0.280618 0.784672
    40 1.124349 0.000001 0.000000 0.000000 0.000000 1.636871
    41 0.891247 0.000001 0.000000 0.000000 0.000000 1.427882
    42 0.128431 -0.294579 0.144269 -1.544453 3.090453 0.394401
    43 2.428478 0.000000 0.000000 0.303217 0.000000 0.000000
  time 9
    0 13.395638 1.193255 -7.994922 -0.702048 -0.102311 -2.515739
    1 8.499672 0.000001 0.000000 -2.374629 -0.532885 0.640231
    2 2.592985 0.798230 -0.345491 0.168999 -3.019791 1.443832
    3 1.276064 4.913687 -1.758919 0.000000 0.000000 0.000000
    4 0.000003 6.776258 1.709933 0.000014 0.000000 0.000000
    5 0.000000 -2.155091 2.277095 0.299929 -0.000005 0.000000
    6 -0.531230 4.631600 3.001893 0.000000 -0.000003 0.000000
    7 0.000001 -2.779237 4.273781 0.000000 0.000000 0.000000
    8 1.066141 0.161471 -0.665475 2.484768 0.749569 0.986721
    9 1.535968 -0.000001 0.000001 0.000000 0.000000 1.180468
    10 1.100831 0.000000 0.000000 0.000000 0.000000 0.433641
    11 2.725985 -0.106123 -1.020465 -0.213427 0.044042 -0.002405
    12 1.397574 0.000001 0.000001 0.000000 0.000000 0.199795
    13 0.957879 0.000000 0.000000 0.000000 0.000000 0.634342
    14 2.818702 -0.176450 -0.444443 -0.118789 0.036080 0.644560
    15 1.684281 0.000000 0.000000 0.000000 0.000000 1.861645
    16 1.151941 0.000000 0.000001 0.000000 0.000000 1.141487
    17 2.804605 -0.069563 0.290472 -0.211325 0.071354 0.840695
    18 1.480629 0.000000 0.000000 0.000000 0.000000 1.698687
    19 1.076366 0.000000 0.000000 0.000000 0.000000 0.748916
    20 2.637186 0.041571 0.929335 -0.346527 0.088471 0.924980
    21 1.124349 -0.000002 0.000000 0.000000 0.000000 1.346295
    22 0.891247 0.000001 0.000000 0.000000 0.000000 0.984495
    23 0.050302 -0.068010 -0.113033 1.724535 0.010837 0.011384
    24 2.428478 0.000000 0.000000 -0.253075 0.000000 0.000000
    25 -1.049985 -6.826496 -11.176717 -1.209232 -0.676249 -6.963501
    26 8.499673 0.000001 0.000000 2.437393 0.322876 0.441584
    27 1.066141 0.161471 0.665475 -2.170798 -0.946985 0.854373
    28 1.535968 -0.000001 0.000000 0.000000 0.000000 0.676951
    29 1.100830 -0.000001 0.000000 0.000000 0.000000 0.475447
    30 2.725985 -0.106123 1.020465 -0.033425 -0.053085 0.395659
    31 1.397574 0.000001 -0.000001 0.000000 0.000000 1.132799
    32 0.957878 0.000000 0.000000 0.000000 0.000000 0.541011
    33 2.818702 -0.176451 0.444443 0.119850 0.134871 0.640665
    34 1.684282 -0.000002 0.000000 0.000000 0.000000 1.240576
    35 1.151941 0.000000 -0.000001 0.000000 0.000000 1.239975
    36 2.804606 -0.069564 -0.290472 0.214145 0.097683 1.016406
    37 1.480629 0.000001 -0.000001 0.000000 0.000000 1.179371
    38 1.076367 0.000000 0.000000 0.000000 0.000000 1.048828
    39 2.637187 0.041571 -0.929335 0.296629 0.280618 0.784672
    40 1.124349 0.000001 0.000000 0.000000 0.000000 1.636871
    41 0.891247 0.000001 0.000000 0.000000 0.000000 1.427882
    42 0.128431 -0.294579 0.144269 -1.544453 3.090453 0.394401
    43 2.428478 0.000000 0.000000 0.303577 0.000000 0.000000
  time 10
    0 13.360480 0.990124 -7.994922 -0.702216 -0.102073 -2.514958
    1 8.499672 0.000001 0.000000 -2.372615 -0.536537 0.636254
    2 2.592985 0.798230 -0.345491 0.168999 -3.019791 1.443832
    3 1.276064 4.913687 -1.758919 0.000000 0.000000 0.000000
    4 0.000003 6.776258 1.709933 0.000014 0.000000 0.000000
    5 0.000000 -2.155091 2.277095 0.242750 -0.000005 0.000000
    6 -0.531230 4.631600 3.001893 0.000000 -0.000003 0.000000
    7 0.000001 -2.779237 4.273781 0.000000 0.000000 0.000000
    8 1.066141 0.161471 -0.665475 2.484768 0.749569 0.986721
    9 1.535968 -0.000001 0.000001 0.000000 0.000000 1.180468
    10 1.100831 0.000000 0.000000 0.000000 0.000000 0.433641
    11 2.725985 -0.106123 -1.020465 -0.182327 0.054073 -0.005150
    12 1.397574 0.000001 0.000001 0.000000 0.000000 0.183784
    13 0.957879 0.000000 0.000000 0.000000 0.000000 0.560254
    14 2.818702 -0.176450 -0.444443 -0.118789 0.036080 0.644560
    15 1.684281 0.000000 0.000000 0.000000 0.000000 1.861645
    16 1.151941 0.000000 0.000001 0.000000 0.000000 1.141487
    17 2.804605 -0.069563 0.290472 -0.211325 0.071354 0.840695
    18 1.480629 0.000000 0.000000 0.000000 0.000000 1.698687
    19 1.076366 0.000000 0.000000 0.000000 0.000000 0.748916
    20 2.637186 0.041571 0.929335 -0.346527 0.088471 0.924980
    21 1.124349 -0.000002 0.000000 0.000000 0.000000 1.346295
    22 0.891247 0.000001 0.000000 0.000000 0.000000 0.984495
    23 0.050302 -0.068010 -0.113033 1.724535 0.010837 0.011384
    24 2.428478 0.000000 0.000000 -0.251721 0.000000 0.000000
    25 -0.971858 -7.076503 -11.282189 -1.206866 -0.697148 -6.968566
    26 8.499673 0.000001 0.000000 2.435513 0.324293 0.460439
    27 1.066141 0.161471 0.665475 -2.177979 -0.957320 0.840457
    28 1.535968 -0.000001 0.000000 0.000000 0.000000 0.701438
    29 1.100830 -0.000001 0.000000 0.000000 0.000000 0.473255
    30 2.725985 -0.106123 1.020465 -0.033425 -0.053085 0.395659
    31 1.397574 0.000001 -0.000001 0.000000 0.000000 1.132799
    32 0.957878 0.000000 0.000000 0.000000 0.000000 0.541011
    33 2.818702 -0.176451 0.444443 0.119850 0.134871 0.640665
    34 1.684282 -0.000002 0.000000 0.000000 0.000000 1.240576
    35 1.151941 0.000000 -0.000001 0.000000 0.000000 1.239975
    36 2.804606 -0.069564 -0.290472 0.214145 0.097683 1.016406
    37 1.480629 0.000001 -0.000001 0.000000 0.000000 1.179371
    38 1.076367 0.000000 0.000000 0.000000 0.000000 1.048828
    39 2.637187 0.041571 -0.929335 0.296629 0.280618 0.784672
    40 1.124349 0.000001 0.000000 0.000000 0.000000 1.636871
    41 0.891247 0.000001 0.000000 0.000000 0.000000 1.427882
    42 0.128431 -0.294579 0.144269 -1.544453 3.090453 0.394401
    43 2.428478 0.000000 0.000000 0.303097 0.000000 0.000000
  time 11
    0 13.317510 0.783086 -7.994922 -0.702096 -0.102243 -2.515505
    1 8.499672 0.000001 0.000000 -2.369216 -0.541903 0.632210
    2 2.592985 0.798230 -0.345491 0.168999 -3.019791 1.443832
    3 1.276064 4.913687 -1.758919 0.000000 0.000000 0.000000
    4 0.000003 6.776258 1.709933 0.000014 0.000000 0.000000
    5 0.000000 -2.155091 2.277095 0.187980 -0.000005 0.000000
    6 -0.531230 4.631600 3.001893 0.000000 -0.000003 0.000000
    7 0.000001 -2.779237 4.273781 0.000000 0.000000 0.000000
    8 1.066141 0.161471 -0.665475 2.484768 0.749569 0.986721
    9 1.535968 -0.000001 0.000001 0.000000 0.000000 1.180468
    10 1.100831 0.000000 0.000000 0.000000 0.000000 0.433641
    11 2.725985 -0.106123 -1.020465 -0.146637 0.067939 -0.008266
    12 1.397574 0.000001 0.000001 0.000000 0.000000 0.181737
    13 0.957879 0.000000 0.000000 0.000000 0.000000 0.496133
    14 2.818702 -0.176450 -0.444443 -0.118789 0.036080 0.644560
    15 1.684281 0.000000 0.000000 0.000000 0.000000 1.861645
    16 1.151941 0.000000 0.000001 0.000000 0.000000 1.141487
    17 2.804605 -0.069563 0.290472 -0.211325 0.071354 0.840695
    18 1.480629 0.000000 0.000000 0.000000 0.000000 1.698687
    19 1.076366 0.000000 0.000000 0.000000 0.000000 0.748916
    20 2.637186 0.041571 0.929335 -0.346527 0.088471 0.924980
    21 1.124349 -0.000002 0.000000 0.000000 0.000000 1.346295
    22 0.891247 0.000001 0.000000 0.000000 0.000000 0.984495
    23 0.050302 -0.068010 -0.113033 1.724535 0.010837 0.011384
    24 2.428478 0.000000 0.000000 -0.249672 0.000000 0.000000
    25 -0.921075 -7.334324 -11.368129 -1.206954 -0.718139 -6.970095
    26 8.499673 0.000001 0.000000 2.433809 0.327127 0.476833
    27 1.066141 0.161471 0.665475 -2.192890 -0.973131 0.838299
    28 1.535968 -0.000001 0.000000 0.000000 0.000000 0.724620
    29 1.100830 -0.000001 0.000000 0.000000 0.000000 0.464914
    30 2.725985 -0.106123 1.020465 -0.033425 -0.053085 0.395659
    31 1.397574 0.000001 -0.000001 0.000000 0.000000 1.132799
    32 0.957878 0.000000 0.000000 0.000000 0.000000 0.541011
    33 2.818702 -0.176451 0.444443 0.119850 0.134871 0.640665
    34 1.684282 -0.000002 0.000000 0.000000 0.000000 1.240576
    35 1.151941 0.000000 -0.000001 0.000000 0.000000 1.239975
    36 2.804606 -0.069564 -0.290472 0.214145 0.097683 1.016406
    37 1.480629 0.000001 -0.000001 0.000000 0.000000 1.179371
    38 1.076367 0.000000 0.000000 0.000000 0.000000 1.048828
    39 2.637187 0.041571 -0.929335 0.296629 0.280618 0.784672
    40 1.124349 0.000001 0.000000 0.000000 0.000000 1.636871
    41 0.891247 0.000001 0.000000 0.000000 0.000000 1.427882
    42 0.128431 -0.294579 0.144269 -1.544453 3.090453 0.394401
    43 2.428478 0.000000 0.000000 0.302462 0.000000 0.000000
  time 12
    0 13.278447 0.583861 -7.994922 -0.701832 -0.102582 -2.516753
    1 8.499672 0.000001 0.000000 -2.365251 -0.547889 0.628345
    2 2.592985 0.798230 -0.345491 0.168999 -3.019791 1.443832
    3 1.276064 4.913687 -1.758919 0.000000 0.000000 0.000000
    4 0.000003 6.776258 1.709933 0.000014 0.000000 0.000000
    5 0.000000 -2.155091 2.277095 0.137246 -0.000005 0.000000
    6 -0.531230 4.631600 3.001893 0.000000 -0.000003 0.000000
    7 0.000001 -2.779237 4.273781 0.000000 0.000000 0.000000
    8 1.066141 0.161471 -0.665475 2.484768 0.749569 0.986721
    9 1.535968 -0.000001 0.000001 0.000000 0.000000 1.180468
    10 1.100831 0.000000 0.000000 0.000000 0.000000 0.433641
    11 2.725985 -0.106123 -1.020465 -0.110372 0.083159 -0.011070
    12 1.397574 0.000001 0.000001 0.000000 0.000000 0.187097
    13 0.957879 0.000000 0.000000 0.000000 0.000000 0.444643
    14 2.818702 -0.176450 -0.444443 -0.118789 0.036080 0.644560
    15 1.684281 0.000000 0.000000 0.000000 0.000000 1.861645
    16 1.151941 0.000000 0.000001 0.000000 0.000000 1.141487
    17 2.804605 -0.069563 0.290472 -0.211325 0.071354 0.840695
    18 1.480629 0.000000 0.000000 0.000000 0.000000 1.698687
    19 1.076366 0.000000 0.000000 0.000000 0.000000 0.748916
    20 2.637186 0.041571 0.929335 -0.346527 0.088471 0.924980
    21 1.124349 -0.000002 0.000000 0.000000 0.000000 1.346295
    22 0.891247 0.000001 0.000000 0.000000 0.000000 0.984495
    23 0.050302 -0.068010 -0.113033 1.724535 0.010837 0.011384
    24 2.428478 0.000000 0.000000 -0.247371 0.000000 0.000000
    25 -0.893731 -7.592144 -11.438444 -1.207129 -0.737281 -6.968566
    26 8.499673 0.000001 0.000000 2.430701 0.331828 0.489512
    27 1.066141 0.161471 0.665475 -2.201227 -0.981284 0.839639
    28 1.535968 -0.000001 0.000000 0.000000 0.000000 0.734937
    29 1.100830 -0.000001 0.000000 0.000000 0.000000 0.455791
    30 2.725985 -0.106123 1.020465 -0.033425 -0.053085 0.395659
    31 1.397574 0.000001 -0.000001 0.000000 0.000000 1.132799
    32 0.957878 0.000000 0.000000 0.000000 0.000000 0.541011
    33 2.818702 -0.176451 0.444443 0.119850 0.134871 0.640665
    34 1.684282 -0.000002 0.000000 0.000000 0.000000 1.240576
    35 1.151941 0.000000 -0.000001 0.000000 0.000000 1.239975
    36 2.804606 -0.069564 -0.290472 0.214145 0.097683 1.016406
    37 1.480629 0.000001 -0.000001 0.000000 0.000000 1.179371
    38 1.076367 0.000000 0.000000 0.000000 0.000000 1.048828
    39 2.637187 0.041571 -0.929335 0.296629 0.280618 0.784672
    40 1.124349 0.000001 0.000000 0.000000 0.000000 1.636871
    41 0.891247 0.000001 0.000000 0.000000 0.000000 1.427882
    42 0.128431 -0.294579 0.144269 -1.544453 3.090453 0.394401
    43 2.428478 0.000000 0.000000 0.301036 0.000000 0.000000
  time 13
    0 13.243289 0.404168 -7.994922 -0.701557 -0.102938 -2.517924
    1 8.499672 0.000001 0.000000 -2.361537 -0.553386 0.624837
    2 2.592985 0.798230 -0.345491 0.168999 -3.019791 1.443832
    3 1.276064 4.913687 -1.758919 0.000000 0.000000 0.000000
    4 0.000003 6.776258 1.709933 0.000014 0.000000 0.000000
    5 0.000000 -2.155091 2.277095 0.092113 -0.000005 0.000000
    6 -0.531230 4.631600 3.001893 0.000000 -0.000003 0.000000
    7 0.000001 -2.779237 4.273781 0.000000 0.000000 0.000000
    8 1.066141 0.161471 -0.665475 2.484768 0.749569 0.986721
    9 1.535968 -0.000001 0.000001 0.000000 0.000000 1.180468
    10 1.100831 0.000000 0.000000 0.000000 0.000000 0.433641
    11 2.725985 -0.106123 -1.020465 -0.077498 0.097217 -0.013156
    12 1.397574 0.000001 0.000001 0.000000 0.000000 0.193239
    13 0.957879 0.000000 0.000000 0.000000 0.000000 0.408486
    14 2.818702 -0.176450 -0.444443 -0.118789 0.036080 0.644560
    15 1.684281 0.000000 0.000000 0.000000 0.000000 1.861645
    16 1.151941 0.000000 0.000001 0.000000 0.000000 1.141487
    17 2.804605 -0.069563 0.290472 -0.211325 0.071354 0.840695
    18 1.480629 0.000000 0.000000 0.000000 0.000000 1.698687
    19 1.076366 0.000000 0.000000 0.000000 0.000000 0.748916
    20 2.637186 0.041571 0.929335 -0.346527 0.088471 0.924980
    21 1.124349 -0.000002 0.000000 0.000000 0.000000 1.346295
    22 0.891247 0.000001 0.000000 0.000000 0.000000 0.984495
    23 0.050302 -0.068010 -0.113033 1.724535 0.010837 0.011384
    24 2.428478 0.000000 0.000000 -0.245249 0.000000 0.000000
    25 -0.885918 -7.830432 -11.485320 -1.208005 -0.752724 -6.964361
    26 8.499673 0.000001 0.000000 2.427342 0.337721 0.498377
    27 1.066141 0.161471 0.665475 -2.199036 -0.978772 0.840681
    28 1.535968 -0.000001 0.000000 0.000000 0.000000 0.730765
    29 1.100830 -0.000001 0.000000 0.000000 0.000000 0.447764
    30 2.725985 -0.106123 1.020465 -0.033425 -0.053085 0.395659
    31 1.397574 0.000001 -0.000001 0.000000 0.000000 1.132799
    32 0.957878 0.000000 0.000000 0.000000 0.000000 0.541011
    33 2.818702 -0.176451 0.444443 0.119850 0.134871 0.640665
    34 1.684282 -0.000002 0.000000 0.000000 0.000000 1.240576
    35 1.151941 0.000000 -0.000001 0.000000 0.000000 1.239975
    36 2.804606 -0.069564 -0.290472 0.214145 0.097683 1.016406
    37 1.480629 0.000001 -0.000001 0.000000 0.000000 1.179371
    38 1.076367 0.000000 0.000000 0.000000 0.000000 1.048828
    39 2.637187 0.041571 -0.929335 0.296629 0.280618 0.784672
    40 1.124349 0.000001 0.000000 0.000000 0.000000 1.636871
    41 0.891247 0.000001 0.000000 0.000000 0.000000 1.427882
    42 0.128431 -0.294579 0.144269 -1.544453 3.090453 0.394401
    43 2.428478 0.000000 0.000000 0.299286 0.000000 0.000000
  time 14
    0 13.212038 0.251820 -7.994922 -0.701437 -0.103090 -2.518470
    1 8.499672 0.000001 0.000000 -2.358936 -0.557320 0.621955
    2 2.592985 0.798230 -0.345491 0.168999 -3.019791 1.443832
    3 1.276064 4.913687 -1.758919 0.000000 0.000000 0.000000
    4 0.000003 6.776258 1.709933 0.000014 0.000000 0.000000
    5 0.000000 -2.155091 2.277095 0.054228 -0.000005 0.000000
    6 -0.531230 4.631600 3.001893 0.000000 -0.000003 0.000000
    7 0.000001 -2.779237 4.273781 0.000000 0.000000 0.000000
    8 1.066141 0.161471 -0.665475 2.484768 0.749569 0.986721
    9 1.535968 -0.000001 0.000001 0.000000 0.000000 1.180468
    10 1.100831 0.000000 0.000000 0.000000 0.000000 0.433641
    11 2.725985 -0.106123 -1.020465 -0.052019 0.107536 -0.014378
    12 1.397574 0.000001 0.000001 0.000000 0.000000 0.193561
    13 0.957879 0.000000 0.000000 0.000000 0.000000 0.390325
    14 2.818702 -0.176450 -0.444443 -0.118789 0.036080 0.644560
    15 1.684281 0.000000 0.000000 0.000000 0.000000 1.861645
    16 1.151941 0.000000 0.000001 0.000000 0.000000 1.141487
    17 2.804605 -0.069563 0.290472 -0.211325 0.071354 0.840695
    18 1.480629 0.000000 0.000000 0.000000 0.000000 1.698687
    19 1.076366 0.000000 0.000000 0.000000 0.000000 0.748916
    20 2.637186 0.041571 0.929335 -0.346527 0.088471 0.924980
    21 1.124349 -0.000002 0.000000 0.000000 0.000000 1.346295
    22 0.891247 0.000001 0.000000 0.000000 0.000000 0.984495
    23 0.050302 -0.068010 -0.113033 1.724535 0.010837 0.011384
    24 2.428478 0.000000 0.000000 -0.243739 0.000000 0.000000
    25 -0.893731 -8.037470 -11.512665 -1.209495 -0.763266 -6.958340
    26 8.499673 0.000001 0.000000 2.424659 0.344087 0.503494
    27 1.066141 0.161471 0.665475 -2.193377 -0.972473 0.843360
    28 1.535968 -0.000001 0.000000 0.000000 0.000000 0.720098
    29 1.100830 -0.000001 0.000000 0.000000 0.000000 0.439346
    30 2.725985 -0.106123 1.020465 -0.033425 -0.053085 0.395659
    31 1.397574 0.000001 -0.000001 0.000000 0.000000 1.132799
    32 0.957878 0.000000 0.000000 0.000000 0.000000 0.541011
    33 2.818702 -0.176451 0.444443 0.119850 0.134871 0.640665
    34 1.684282 -0.000002 0.000000 0.000000 0.000000 1.240576
    35 1.151941 0.000000 -0.000001 0.000000 0.000000 1.239975
    36 2.804606 -0.069564 -0.290472 0.214145 0.097683 1.016406
    37 1.480629 0.000001 -0.000001 0.000000 0.000000 1.179371
    38 1.076367 0.000000 0.000000 0.000000 0.000000 1.048828
    39 2.637187 0.041571 -0.929335 0.296629 0.280618 0.784672
    40 1.124349 0.000001 0.000000 0.000000 0.000000 1.636871
    41 0.891247 0.000001 0.000000 0.000000 0.000000 1.427882
    42 0.128431 -0.294579 0.144269 -1.544453 3.090453 0.394401
    43 2.428478 0.000000 0.000000 0.297572 0.000000 0.000000
  time 15
    0 13.192506 0.134629 -7.994922 -0.701437 -0.103090 -2.518470
    1 8.499672 0.000001 0.000000 -2.358139 -0.558563 0.620838
    2 2.592985 0.798230 -0.345491 0.168999 -3.019791 1.443832
    3 1.276064 4.913687 -1.758919 0.000000 0.000000 0.000000
    4 0.000003 6.776258 1.709933 0.000014 0.000000 0.000000
    5 0.000000 -2.155091 2.277095 0.025156 -0.000005 0.000000
    6 -0.531230 4.631600 3.001893 0.000000 -0.000003 0.000000
    7 0.000001 -2.779237 4.273781 0.000000 0.000000 0.000000
    8 1.066141 0.161471 -0.665475 2.484768 0.749569 0.986721
    9 1.535968 -0.000001 0.000001 0.000000 0.000000 1.180468
    10 1.100831 0.000000 0.000000 0.000000 0.000000 0.433641
    11 2.725985 -0.106123 -1.020465 -0.042935 0.110904 -0.014714
    12 1.397574 0.000001 0.000001 0.000000 0.000000 0.191445
    13 0.957879 0.000000 0.000000 0.000000 0.000000 0.433127
    14 2.818702 -0.176450 -0.444443 -0.118789 0.036080 0.644560
    15 1.684281 0.000000 0.000000 0.000000 0.000000 1.861645
    16 1.151941 0.000000 0.000001 0.000000 0.000000 1.141487
    17 2.804605 -0.069563 0.290472 -0.211325 0.071354 0.840695
    18 1.480629 0.000000 0.000000 0.000000 0.000000 1.698687
    19 1.076366 0.000000 0.000000 0.000000 0.000000 0.748916
    20 2.637186 0.041571 0.929335 -0.346527 0.088471 0.924980
    21 1.124349 -0.000002 0.000000 0.000000 0.000000 1.346295
    22 0.891247 0.000001 0.000000 0.000000 0.000000 0.984495
    23 0.050302 -0.068010 -0.113033 1.724535 0.010837 0.011384
    24 2.428478 0.000000 0.000000 -0.243260 0.000000 0.000000
    25 -0.917169 -8.197631 -11.532197 -1.210809 -0.768075 -6.952129
    26 8.499673 0.000001 0.000000 2.423481 0.350115 0.505352
    27 1.066141 0.161471 0.665475 -2.185830 -0.963949 0.846932
    28 1.535968 -0.000001 0.000000 0.000000 0.000000 0.705705
    29 1.100830 -0.000001 0.000000 0.000000 0.000000 0.430654
    30 2.725985 -0.106123 1.020465 -0.033410 -0.053085 0.395659
    31 1.397574 0.000001 -0.000001 0.000000 0.000000 1.132799
    32 0.957878 0.000000 0.000000 0.000000 0.000000 0.541011
    33 2.818702 -0.176451 0.444443 0.119850 0.134871 0.640665
    34 1.684282 -0.000002 0.000000 0.000000 0.000000 1.240576
    35 1.151941 0.000000 -0.000001 0.000000 0.000000 1.239975
    36 2.804606 -0.069564 -0.290472 0.214145 0.097683 1.016406
    37 1.480629 0.000001 -0.000001 0.000000 0.000000 1.179371
    38 1.076367 0.000000 0.000000 0.000000 0.000000 1.048828
    39 2.637187 0.041571 -0.929335 0.296629 0.280618 0.784672
    40 1.124349 0.000001 0.000000 0.000000 0.000000 1.636871
    41 0.891247 0.000001 0.000000 0.000000 0.000000 1.427882
    42 0.128431 -0.294579 0.144269 -1.544453 3.090453 0.394401
    43 2.428478 0.000000 0.000000 0.296278 0.000000 0.000000
  time 16
    0 13.176881 0.060408 -7.994922 -0.701437 -0.103090 -2.518470
    1 8.499672 0.000001 0.000000 -2.358537 -0.557942 0.621397
    2 2.592985 0.798230 -0.345491 0.168999 -3.019791 1.443832
    3 1.276064 4.913687 -1.758919 0.000000 0.000000 0.000000
    4 0.000003 6.776258 1.709933 0.000014 0.000000 0.000000
    5 0.000000 -2.155091 2.277095 0.006545 -0.000005 0.000000
    6 -0.531230 4.631600 3.001893 0.000000 -0.000003 0.000000
    7 0.000001 -2.779237 4.273781 0.000000 0.000000 0.000000
    8 1.066141 0.161471 -0.665475 2.484768 0.749569 0.986721
    9 1.535968 -0.000001 0.000001 0.000000 0.000000 1.180468
    10 1.100831 0.000000 0.000000 0.000000 0.000000 0.433641
    11 2.725985 -0.106123 -1.020465 -0.047477 0.109214 -0.014546
    12 1.397574 0.000001 0.000001 0.000000 0.000000 0.192503
    13 0.957879 0.000000 0.000000 0.000000 0.000000 0.537222
    14 2.818702 -0.176450 -0.444443 -0.118789 0.036080 0.644560
    15 1.684281 0.000000 0.000000 0.000000 0.000000 1.861645
    16 1.151941 0.000000 0.000001 0.000000 0.000000 1.141487
    17 2.804605 -0.069563 0.290472 -0.211325 0.071354 0.840695
    18 1.480629 0.000000 0.000000 0.000000 0.000000 1.698687
    19 1.076366 0.000000 0.000000 0.000000 0.000000 0.748916
    20 2.637186 0.041571 0.929335 -0.346527 0.088471 0.924980
    21 1.124349 -0.000002 0.000000 0.000000 0.000000 1.346295
    22 0.891247 0.000001 0.000000 0.000000 0.000000 0.984495
    23 0.050302 -0.068010 -0.113033 1.724535 0.010837 0.011384
    24 2.428478 0.000000 0.000000 -0.243500 0.000000 0.000000
    25 -0.948420 -8.299197 -11.543916 -1.210634 -0.768722 -6.947446
    26 8.499673 0.000001 0.000000 2.422804 0.354928 0.504896
    27 1.066141 0.161471 0.665475 -2.177797 -0.954891 0.850876
    28 1.535968 -0.000001 0.000000 0.000000 0.000000 0.690389
    29 1.100830 -0.000001 0.000000 0.000000 0.000000 0.421961
    30 2.725985 -0.106123 1.020465 -0.033425 -0.053085 0.395659
    31 1.397574 0.000001 -0.000001 0.000000 0.000000 1.132799
    32 0.957878 0.000000 0.000000 0.000000 0.000000 0.541011
    33 2.818702 -0.176451 0.444443 0.119850 0.134871 0.640665
    34 1.684282 -0.000002 0.000000 0.000000 0.000000 1.240576
    35 1.151941 0.000000 -0.000001 0.000000 0.000000 1.239975
    36 2.804606 -0.069564 -0.290472 0.214145 0.097683 1.016406
    37 1.480629 0.000001 -0.000001 0.000000 0.000000 1.179371
    38 1.076367 0.000000 0.000000 0.000000 0.000000 1.048828
    39 2.637187 0.041571 -0.929335 0.296629 0.280618 0.784672
    40 1.124349 0.000001 0.000000 0.000000 0.000000 1.636871
    41 0.891247 0.000001 0.000000 0.000000 0.000000 1.427882
    42 0.128431 -0.294579 0.144269 -1.544453 3.090453 0.394401
    43 2.428478 0.000000 0.000000 0.295283 0.000000 0.000000
  time 17
    0 13.172975 0.033063 -7.994922 -0.701437 -0.103090 -2.518470
    1 8.499672 0.000001 0.000000 -2.358936 -0.557320 0.621955
    2 2.592985 0.798230 -0.345491 0.168999 -3.019791 1.443832
    3 1.276064 4.913687 -1.758919 0.000000 0.000000 0.000000
    4 0.000003 6.776258 1.709933 0.000014 0.000000 0.000000
    5 0.000000 -2.155091 2.277095 0.000000 -0.000005 0.000000
    6 -0.531230 4.631600 3.001893 0.000000 -0.000003 0.000000
    7 0.000001 -2.779237 4.273781 0.000000 0.000000 0.000000
    8 1.066141 0.161471 -0.665475 2.484768 0.749569 0.986721
    9 1.535968 -0.000001 0.000001 0.000000 0.000000 1.180468
    10 1.100831 0.000000 0.000000 0.000000 0.000000 0.433641
    11 2.725985 -0.106123 -1.020465 -0.052019 0.107536 -0.014378
    12 1.397574 0.000001 0.000001 0.000000 0.000000 0.193561
    13 0.957879 0.000000 0.000000 0.000000 0.000000 0.641297
    14 2.818702 -0.176450 -0.444443 -0.118789 0.036080 0.644560
    15 1.684281 0.000000 0.000000 0.000000 0.000000 1.861645
    16 1.151941 0.000000 0.000001 0.000000 0.000000 1.141487
    17 2.804605 -0.069563 0.290472 -0.211325 0.071354 0.840695
    18 1.480629 0.000000 0.000000 0.000000 0.000000 1.698687
    19 1.076366 0.000000 0.000000 0.000000 0.000000 0.748916
    20 2.637186 0.041571 0.929335 -0.346527 0.088471 0.924980
    21 1.124349 -0.000002 0.000000 0.000000 0.000000 1.346295
    22 0.891247 0.000001 0.000000 0.000000 0.000000 0.984495
    23 0.050302 -0.068010 -0.113033 1.724535 0.010837 0.011384
    24 2.428478 0.000000 0.000000 -0.243739 0.000000 0.000000
    25 -0.960139 -8.330448 -11.547822 -1.208005 -0.768168 -6.946013
    26 8.499673 0.000001 0.000000 2.420473 0.357718 0.503478
    27 1.066141 0.161471 0.665475 -2.170798 -0.946985 0.854373
    28 1.535968 -0.000001 0.000000 0.000000 0.000000 0.676951
    29 1.100830 -0.000001 0.000000 0.000000 0.000000 0.413347
    30 2.725985 -0.106123 1.020465 -0.033425 -0.053085 0.395659
    31 1.397574 0.000001 -0.000001 0.000000 0.000000 1.132799
    32 0.957878 0.000000 0.000000 0.000000 0.000000 0.541011
    33 2.818702 -0.176451 0.444443 0.119850 0.134871 0.640665
    34 1.684282 -0.000002 0.000000 0.000000 0.000000 1.240576
    35 1.151941 0.000000 -0.000001 0.000000 0.000000 1.239975
    36 2.804606 -0.069564 -0.290472 0.214145 0.097683 1.016406
    37 1.480629 0.000001 -0.000001 0.000000 0.000000 1.179371
    38 1.076367 0.000000 0.000000 0.000000 0.000000 1.048828
    39 2.637187 0.041571 -0.929335 0.296629 0.280618 0.784672
    40 1.124349 0.000001 0.000000 0.000000 0.000000 1.636871
    41 0.891247 0.000001 0.000000 0.000000 0.000000 1.427882
    42 0.128431 -0.294579 0.144269 -1.544453 3.090453 0.394401
    43 2.428478 0.000000 0.000000 0.294073 0.000000 0.000000
end
