version 1
nodes
  0 "Bip01" -1
  1 "Bip01 Pelvis" 0
  2 "Bip01 Spine" 1
  3 "Bip01 Spine1" 2
  4 "Bip01 Spine2" 3
  5 "Bip01 Spine3" 4
  6 "Bip01 Neck" 5
  7 "Bip01 L Clavicle" 6
  8 "Bip01 L UpperArm" 7
  9 "Bip01 L Forearm" 8
  10 "Bip01 L Hand" 9
  11 "CSO_TMP_shop" 10
end
skeleton
  time 0
    0 0.232777 -2.249536 38.192150 0.000000 0.000000 -1.570795
    1 -2.276920 0.000003 -1.238186 -1.570795 -1.570796 0.000000
    2 1.797145 0.711796 -0.000002 -0.000004 -0.000001 0.000739
    3 4.118605 -0.003279 0.000000 0.000000 0.000000 0.000035
    4 4.118601 -0.003280 0.000000 0.000000 0.000000 0.000049
    5 4.118600 -0.003280 0.000000 0.000000 0.000000 -0.000009
    6 4.118531 -0.003538 0.000000 0.000000 0.000000 -0.019437
    7 0.000007 0.003539 1.498853 -0.000040 -1.501696 -3.122911
    8 5.449906 0.000000 0.000001 0.293727 0.900068 -0.358301
    9 10.242682 0.000000 0.000001 0.000000 0.000000 -1.616559
    10 10.987489 0.000000 0.000001 -2.408088 0.507136 -0.659418
    11 2.707073 1.267026 0.048136 0.152883 3.066648 1.501104
  time 1
    0 0.232777 -2.249536 38.192150 0.000000 0.000000 -1.570795
    1 -2.276920 0.000003 -1.238186 -1.570795 -1.570796 0.000000
    2 1.797145 0.711796 -0.000002 -0.000004 -0.000001 0.000739
    3 4.118605 -0.003279 0.000000 0.000000 0.000000 0.000035
    4 4.118601 -0.003280 0.000000 0.000000 0.000000 0.000049
    5 4.118600 -0.003280 0.000000 0.000000 0.000000 -0.000009
    6 4.118531 -0.003538 0.000000 0.000000 0.000000 -0.019437
    7 0.000007 0.003539 1.498853 -0.000040 -1.501696 -3.122911
    8 5.449906 0.000000 0.000001 0.293727 0.900068 -0.358301
    9 10.242682 0.000000 0.000001 0.000000 0.000000 -1.616559
    10 10.987489 0.000000 0.000001 -2.408088 0.507136 -0.659418
    11 2.707073 1.267026 0.048136 0.152883 3.066648 1.501104
  time 2
    0 0.232777 -2.249536 38.192150 0.000000 0.000000 -1.570795
    1 -2.276920 0.000003 -1.238186 -1.570795 -1.570796 0.000000
    2 1.797145 0.711796 -0.000002 -0.000004 -0.000001 0.000739
    3 4.118605 -0.003279 0.000000 0.000000 0.000000 0.000035
    4 4.118601 -0.003280 0.000000 0.000000 0.000000 0.000049
    5 4.118600 -0.003280 0.000000 0.000000 0.000000 -0.000009
    6 4.118531 -0.003538 0.000000 0.000000 0.000000 -0.019437
    7 0.000007 0.003539 1.498853 -0.000040 -1.501696 -3.122911
    8 5.449906 0.000000 0.000001 0.293727 0.900068 -0.358301
    9 10.242682 0.000000 0.000001 0.000000 0.000000 -1.616559
    10 10.987489 0.000000 0.000001 -2.408088 0.507136 -0.659418
    11 2.707073 1.267026 0.048136 0.152883 3.066648 1.501104
  time 3
    0 0.232777 -2.249536 38.192150 0.000000 0.000000 -1.570795
    1 -2.276920 0.000003 -1.238186 -1.570795 -1.570796 0.000000
    2 1.797145 0.711796 -0.000002 -0.000004 -0.000001 0.000739
    3 4.118605 -0.003279 0.000000 0.000000 0.000000 0.000035
    4 4.118601 -0.003280 0.000000 0.000000 0.000000 0.000049
    5 4.118600 -0.003280 0.000000 0.000000 0.000000 -0.000009
    6 4.118531 -0.003538 0.000000 0.000000 0.000000 -0.019437
    7 0.000007 0.003539 1.498853 -0.000040 -1.501696 -3.122911
    8 5.449906 0.000000 0.000001 0.293727 0.900068 -0.358301
    9 10.242682 0.000000 0.000001 0.000000 0.000000 -1.616559
    10 10.987489 0.000000 0.000001 -2.408088 0.507136 -0.659418
    11 2.707073 1.267026 0.048136 0.152883 3.066648 1.501104
  time 4
    0 0.232777 -2.249536 38.192150 0.000000 0.000000 -1.570795
    1 -2.276920 0.000003 -1.238186 -1.570795 -1.570796 0.000000
    2 1.797145 0.711796 -0.000002 -0.000004 -0.000001 0.000739
    3 4.118605 -0.003279 0.000000 0.000000 0.000000 0.000035
    4 4.118601 -0.003280 0.000000 0.000000 0.000000 0.000049
    5 4.118600 -0.003280 0.000000 0.000000 0.000000 -0.000009
    6 4.118531 -0.003538 0.000000 0.000000 0.000000 -0.019437
    7 0.000007 0.003539 1.498853 -0.000040 -1.501696 -3.122911
    8 5.449906 0.000000 0.000001 0.293727 0.900068 -0.358301
    9 10.242682 0.000000 0.000001 0.000000 0.000000 -1.616559
    10 10.987489 0.000000 0.000001 -2.408088 0.507136 -0.659418
    11 2.707073 1.267026 0.048136 0.152883 3.066648 1.501104
  time 5
    0 0.232777 -2.249536 38.192150 0.000000 0.000000 -1.570795
    1 -2.276920 0.000003 -1.238186 -1.570795 -1.570796 0.000000
    2 1.797145 0.711796 -0.000002 -0.000004 -0.000001 0.000739
    3 4.118605 -0.003279 0.000000 0.000000 0.000000 0.000035
    4 4.118601 -0.003280 0.000000 0.000000 0.000000 0.000049
    5 4.118600 -0.003280 0.000000 0.000000 0.000000 -0.000009
    6 4.118531 -0.003538 0.000000 0.000000 0.000000 -0.019437
    7 0.000007 0.003539 1.498853 -0.000040 -1.501696 -3.122911
    8 5.449906 0.000000 0.000001 0.293727 0.900068 -0.358301
    9 10.242682 0.000000 0.000001 0.000000 0.000000 -1.616559
    10 10.987489 0.000000 0.000001 -2.408088 0.507136 -0.659418
    11 2.707073 1.267026 0.048136 0.152883 3.066648 1.501104
  time 6
    0 0.232777 -2.249536 38.192150 0.000000 0.000000 -1.570795
    1 -2.276920 0.000003 -1.238186 -1.570795 -1.570796 0.000000
    2 1.797145 0.711796 -0.000002 -0.000004 -0.000001 0.000739
    3 4.118605 -0.003279 0.000000 0.000000 0.000000 0.000035
    4 4.118601 -0.003280 0.000000 0.000000 0.000000 0.000049
    5 4.118600 -0.003280 0.000000 0.000000 0.000000 -0.000009
    6 4.118531 -0.003538 0.000000 0.000000 0.000000 -0.019437
    7 0.000007 0.003539 1.498853 -0.000040 -1.501696 -3.122911
    8 5.449906 0.000000 0.000001 0.293727 0.900068 -0.358301
    9 10.242682 0.000000 0.000001 0.000000 0.000000 -1.616559
    10 10.987489 0.000000 0.000001 -2.408088 0.507136 -0.659418
    11 2.707073 1.267026 0.048136 0.152883 3.066648 1.501104
  time 7
    0 0.232777 -2.249536 38.192150 0.000000 0.000000 -1.570795
    1 -2.276920 0.000003 -1.238186 -1.570795 -1.570796 0.000000
    2 1.797145 0.711796 -0.000002 -0.000004 -0.000001 0.000739
    3 4.118605 -0.003279 0.000000 0.000000 0.000000 0.000035
    4 4.118601 -0.003280 0.000000 0.000000 0.000000 0.000049
    5 4.118600 -0.003280 0.000000 0.000000 0.000000 -0.000009
    6 4.118531 -0.003538 0.000000 0.000000 0.000000 -0.019437
    7 0.000007 0.003539 1.498853 -0.000040 -1.501696 -3.122911
    8 5.449906 0.000000 0.000001 0.293727 0.900068 -0.358301
    9 10.242682 0.000000 0.000001 0.000000 0.000000 -1.616559
    10 10.987489 0.000000 0.000001 -2.408088 0.507136 -0.659418
    11 2.707073 1.267026 0.048136 0.152883 3.066648 1.501104
  time 8
    0 0.232777 -2.249536 38.192150 0.000000 0.000000 -1.570795
    1 -2.276920 0.000003 -1.238186 -1.570795 -1.570796 0.000000
    2 1.797145 0.711796 -0.000002 -0.000004 -0.000001 0.000739
    3 4.118605 -0.003279 0.000000 0.000000 0.000000 0.000035
    4 4.118601 -0.003280 0.000000 0.000000 0.000000 0.000049
    5 4.118600 -0.003280 0.000000 0.000000 0.000000 -0.000009
    6 4.118531 -0.003538 0.000000 0.000000 0.000000 -0.019437
    7 0.000007 0.003539 1.498853 -0.000040 -1.501696 -3.122911
    8 5.449906 0.000000 0.000001 0.293727 0.900068 -0.358301
    9 10.242682 0.000000 0.000001 0.000000 0.000000 -1.616559
    10 10.987489 0.000000 0.000001 -2.408088 0.507136 -0.659418
    11 2.707073 1.267026 0.048136 0.152883 3.066648 1.501104
  time 9
    0 0.232777 -2.249536 38.192150 0.000000 0.000000 -1.570795
    1 -2.276920 0.000003 -1.238186 -1.570795 -1.570796 0.000000
    2 1.797145 0.711796 -0.000002 -0.000004 -0.000001 0.000739
    3 4.118605 -0.003279 0.000000 0.000000 0.000000 0.000035
    4 4.118601 -0.003280 0.000000 0.000000 0.000000 0.000049
    5 4.118600 -0.003280 0.000000 0.000000 0.000000 -0.000009
    6 4.118531 -0.003538 0.000000 0.000000 0.000000 -0.019437
    7 0.000007 0.003539 1.498853 -0.000040 -1.501696 -3.122911
    8 5.449906 0.000000 0.000001 0.293727 0.900068 -0.358301
    9 10.242682 0.000000 0.000001 0.000000 0.000000 -1.616559
    10 10.987489 0.000000 0.000001 -2.408088 0.507136 -0.659418
    11 2.707073 1.267026 0.048136 0.152883 3.066648 1.501104
  time 10
    0 0.232777 -2.249536 38.192150 0.000000 0.000000 -1.570795
    1 -2.276920 0.000003 -1.238186 -1.570795 -1.570796 0.000000
    2 1.797145 0.711796 -0.000002 -0.000004 -0.000001 0.000739
    3 4.118605 -0.003279 0.000000 0.000000 0.000000 0.000035
    4 4.118601 -0.003280 0.000000 0.000000 0.000000 0.000049
    5 4.118600 -0.003280 0.000000 0.000000 0.000000 -0.000009
    6 4.118531 -0.003538 0.000000 0.000000 0.000000 -0.019437
    7 0.000007 0.003539 1.498853 -0.000040 -1.501696 -3.122911
    8 5.449906 0.000000 0.000001 0.293727 0.900068 -0.358301
    9 10.242682 0.000000 0.000001 0.000000 0.000000 -1.616559
    10 10.987489 0.000000 0.000001 -2.408088 0.507136 -0.659418
    11 2.707073 1.267026 0.048136 0.152883 3.066648 1.501104
  time 11
    0 0.232777 -2.249536 38.192150 0.000000 0.000000 -1.570795
    1 -2.276920 0.000003 -1.238186 -1.570795 -1.570796 0.000000
    2 1.797145 0.711796 -0.000002 -0.000004 -0.000001 0.000739
    3 4.118605 -0.003279 0.000000 0.000000 0.000000 0.000035
    4 4.118601 -0.003280 0.000000 0.000000 0.000000 0.000049
    5 4.118600 -0.003280 0.000000 0.000000 0.000000 -0.000009
    6 4.118531 -0.003538 0.000000 0.000000 0.000000 -0.019437
    7 0.000007 0.003539 1.498853 -0.000040 -1.501696 -3.122911
    8 5.449906 0.000000 0.000001 0.293727 0.900068 -0.358301
    9 10.242682 0.000000 0.000001 0.000000 0.000000 -1.616559
    10 10.987489 0.000000 0.000001 -2.408088 0.507136 -0.659418
    11 2.707073 1.267026 0.048136 0.152883 3.066648 1.501104
  time 12
    0 0.232777 -2.249536 38.192150 0.000000 0.000000 -1.570795
    1 -2.276920 0.000003 -1.238186 -1.570795 -1.570796 0.000000
    2 1.797145 0.711796 -0.000002 -0.000004 -0.000001 0.000739
    3 4.118605 -0.003279 0.000000 0.000000 0.000000 0.000035
    4 4.118601 -0.003280 0.000000 0.000000 0.000000 0.000049
    5 4.118600 -0.003280 0.000000 0.000000 0.000000 -0.000009
    6 4.118531 -0.003538 0.000000 0.000000 0.000000 -0.019437
    7 0.000007 0.003539 1.498853 -0.000040 -1.501696 -3.122911
    8 5.449906 0.000000 0.000001 0.293727 0.900068 -0.358301
    9 10.242682 0.000000 0.000001 0.000000 0.000000 -1.616559
    10 10.987489 0.000000 0.000001 -2.408088 0.507136 -0.659418
    11 2.707073 1.267026 0.048136 0.152883 3.066648 1.501104
  time 13
    0 0.232777 -2.249536 38.192150 0.000000 0.000000 -1.570795
    1 -2.276920 0.000003 -1.238186 -1.570795 -1.570796 0.000000
    2 1.797145 0.711796 -0.000002 -0.000004 -0.000001 0.000739
    3 4.118605 -0.003279 0.000000 0.000000 0.000000 0.000035
    4 4.118601 -0.003280 0.000000 0.000000 0.000000 0.000049
    5 4.118600 -0.003280 0.000000 0.000000 0.000000 -0.000009
    6 4.118531 -0.003538 0.000000 0.000000 0.000000 -0.019437
    7 0.000007 0.003539 1.498853 -0.000040 -1.501696 -3.122911
    8 5.449906 0.000000 0.000001 0.293727 0.900068 -0.358301
    9 10.242682 0.000000 0.000001 0.000000 0.000000 -1.616559
    10 10.987489 0.000000 0.000001 -2.408088 0.507136 -0.659418
    11 2.707073 1.267026 0.048136 0.152883 3.066648 1.501104
  time 14
    0 0.232777 -2.249536 38.192150 0.000000 0.000000 -1.570795
    1 -2.276920 0.000003 -1.238186 -1.570795 -1.570796 0.000000
    2 1.797145 0.711796 -0.000002 -0.000004 -0.000001 0.000739
    3 4.118605 -0.003279 0.000000 0.000000 0.000000 0.000035
    4 4.118601 -0.003280 0.000000 0.000000 0.000000 0.000049
    5 4.118600 -0.003280 0.000000 0.000000 0.000000 -0.000009
    6 4.118531 -0.003538 0.000000 0.000000 0.000000 -0.019437
    7 0.000007 0.003539 1.498853 -0.000040 -1.501696 -3.122911
    8 5.449906 0.000000 0.000001 0.293727 0.900068 -0.358301
    9 10.242682 0.000000 0.000001 0.000000 0.000000 -1.616559
    10 10.987489 0.000000 0.000001 -2.408088 0.507136 -0.659418
    11 2.707073 1.267026 0.048136 0.152883 3.066648 1.501104
  time 15
    0 0.232777 -2.249536 38.192150 0.000000 0.000000 -1.570795
    1 -2.276920 0.000003 -1.238186 -1.570795 -1.570796 0.000000
    2 1.797145 0.711796 -0.000002 -0.000004 -0.000001 0.000739
    3 4.118605 -0.003279 0.000000 0.000000 0.000000 0.000035
    4 4.118601 -0.003280 0.000000 0.000000 0.000000 0.000049
    5 4.118600 -0.003280 0.000000 0.000000 0.000000 -0.000009
    6 4.118531 -0.003538 0.000000 0.000000 0.000000 -0.019437
    7 0.000007 0.003539 1.498853 -0.000040 -1.501696 -3.122911
    8 5.449906 0.000000 0.000001 0.293727 0.900068 -0.358301
    9 10.242682 0.000000 0.000001 0.000000 0.000000 -1.616559
    10 10.987489 0.000000 0.000001 -2.408088 0.507136 -0.659418
    11 2.707073 1.267026 0.048136 0.152883 3.066648 1.501104
  time 16
    0 0.232777 -2.249536 38.192150 0.000000 0.000000 -1.570795
    1 -2.276920 0.000003 -1.238186 -1.570795 -1.570796 0.000000
    2 1.797145 0.711796 -0.000002 -0.000004 -0.000001 0.000739
    3 4.118605 -0.003279 0.000000 0.000000 0.000000 0.000035
    4 4.118601 -0.003280 0.000000 0.000000 0.000000 0.000049
    5 4.118600 -0.003280 0.000000 0.000000 0.000000 -0.000009
    6 4.118531 -0.003538 0.000000 0.000000 0.000000 -0.019437
    7 0.000007 0.003539 1.498853 -0.000040 -1.501696 -3.122911
    8 5.449906 0.000000 0.000001 0.293727 0.900068 -0.358301
    9 10.242682 0.000000 0.000001 0.000000 0.000000 -1.616559
    10 10.987489 0.000000 0.000001 -2.408088 0.507136 -0.659418
    11 2.707073 1.267026 0.048136 0.152883 3.066648 1.501104
  time 17
    0 0.232777 -2.249536 38.192150 0.000000 0.000000 -1.570795
    1 -2.276920 0.000003 -1.238186 -1.570795 -1.570796 0.000000
    2 1.797145 0.711796 -0.000002 -0.000004 -0.000001 0.000739
    3 4.118605 -0.003279 0.000000 0.000000 0.000000 0.000035
    4 4.118601 -0.003280 0.000000 0.000000 0.000000 0.000049
    5 4.118600 -0.003280 0.000000 0.000000 0.000000 -0.000009
    6 4.118531 -0.003538 0.000000 0.000000 0.000000 -0.019437
    7 0.000007 0.003539 1.498853 -0.000040 -1.501696 -3.122911
    8 5.449906 0.000000 0.000001 0.293727 0.900068 -0.358301
    9 10.242682 0.000000 0.000001 0.000000 0.000000 -1.616559
    10 10.987489 0.000000 0.000001 -2.408088 0.507136 -0.659418
    11 2.707073 1.267026 0.048136 0.152883 3.066648 1.501104
  time 18
    0 0.232777 -2.249536 38.192150 0.000000 0.000000 -1.570795
    1 -2.276920 0.000003 -1.238186 -1.570795 -1.570796 0.000000
    2 1.797145 0.711796 -0.000002 -0.000004 -0.000001 0.000739
    3 4.118605 -0.003279 0.000000 0.000000 0.000000 0.000035
    4 4.118601 -0.003280 0.000000 0.000000 0.000000 0.000049
    5 4.118600 -0.003280 0.000000 0.000000 0.000000 -0.000009
    6 4.118531 -0.003538 0.000000 0.000000 0.000000 -0.019437
    7 0.000007 0.003539 1.498853 -0.000040 -1.501696 -3.122911
    8 5.449906 0.000000 0.000001 0.293727 0.900068 -0.358301
    9 10.242682 0.000000 0.000001 0.000000 0.000000 -1.616559
    10 10.987489 0.000000 0.000001 -2.408088 0.507136 -0.659418
    11 2.707073 1.267026 0.048136 0.152883 3.066648 1.501104
  time 19
    0 0.232777 -2.249536 38.192150 0.000000 0.000000 -1.570795
    1 -2.276920 0.000003 -1.238186 -1.570795 -1.570796 0.000000
    2 1.797145 0.711796 -0.000002 -0.000004 -0.000001 0.000739
    3 4.118605 -0.003279 0.000000 0.000000 0.000000 0.000035
    4 4.118601 -0.003280 0.000000 0.000000 0.000000 0.000049
    5 4.118600 -0.003280 0.000000 0.000000 0.000000 -0.000009
    6 4.118531 -0.003538 0.000000 0.000000 0.000000 -0.019437
    7 0.000007 0.003539 1.498853 -0.000040 -1.501696 -3.122911
    8 5.449906 0.000000 0.000001 0.293727 0.900068 -0.358301
    9 10.242682 0.000000 0.000001 0.000000 0.000000 -1.616559
    10 10.987489 0.000000 0.000001 -2.408088 0.507136 -0.659418
    11 2.707073 1.267026 0.048136 0.152883 3.066648 1.501104
  time 20
    0 0.232777 -2.249536 38.192150 0.000000 0.000000 -1.570795
    1 -2.276920 0.000003 -1.238186 -1.570795 -1.570796 0.000000
    2 1.797145 0.711796 -0.000002 -0.000004 -0.000001 0.000739
    3 4.118605 -0.003279 0.000000 0.000000 0.000000 0.000035
    4 4.118601 -0.003280 0.000000 0.000000 0.000000 0.000049
    5 4.118600 -0.003280 0.000000 0.000000 0.000000 -0.000009
    6 4.118531 -0.003538 0.000000 0.000000 0.000000 -0.019437
    7 0.000007 0.003539 1.498853 -0.000040 -1.501696 -3.122911
    8 5.449906 0.000000 0.000001 0.293727 0.900068 -0.358301
    9 10.242682 0.000000 0.000001 0.000000 0.000000 -1.616559
    10 10.987489 0.000000 0.000001 -2.408088 0.507136 -0.659418
    11 2.707073 1.267026 0.048136 0.152883 3.066648 1.501104
  time 21
    0 0.232777 -2.249536 38.192150 0.000000 0.000000 -1.570795
    1 -2.276920 0.000003 -1.238186 -1.570795 -1.570796 0.000000
    2 1.797145 0.711796 -0.000002 -0.000004 -0.000001 0.000739
    3 4.118605 -0.003279 0.000000 0.000000 0.000000 0.000035
    4 4.118601 -0.003280 0.000000 0.000000 0.000000 0.000049
    5 4.118600 -0.003280 0.000000 0.000000 0.000000 -0.000009
    6 4.118531 -0.003538 0.000000 0.000000 0.000000 -0.019437
    7 0.000007 0.003539 1.498853 -0.000040 -1.501696 -3.122911
    8 5.449906 0.000000 0.000001 0.293727 0.900068 -0.358301
    9 10.242682 0.000000 0.000001 0.000000 0.000000 -1.616559
    10 10.987489 0.000000 0.000001 -2.408088 0.507136 -0.659418
    11 2.707073 1.267026 0.048136 0.152883 3.066648 1.501104
  time 22
    0 0.232777 -2.249536 38.192150 0.000000 0.000000 -1.570795
    1 -2.276920 0.000003 -1.238186 -1.570795 -1.570796 0.000000
    2 1.797145 0.711796 -0.000002 -0.000004 -0.000001 0.000739
    3 4.118605 -0.003279 0.000000 0.000000 0.000000 0.000035
    4 4.118601 -0.003280 0.000000 0.000000 0.000000 0.000049
    5 4.118600 -0.003280 0.000000 0.000000 0.000000 -0.000009
    6 4.118531 -0.003538 0.000000 0.000000 0.000000 -0.019437
    7 0.000007 0.003539 1.498853 -0.000040 -1.501696 -3.122911
    8 5.449906 0.000000 0.000001 0.293727 0.900068 -0.358301
    9 10.242682 0.000000 0.000001 0.000000 0.000000 -1.616559
    10 10.987489 0.000000 0.000001 -2.408088 0.507136 -0.659418
    11 2.707073 1.267026 0.048136 0.152883 3.066648 1.501104
  time 23
    0 0.232777 -2.249536 38.192150 0.000000 0.000000 -1.570795
    1 -2.276920 0.000003 -1.238186 -1.570795 -1.570796 0.000000
    2 1.797145 0.711796 -0.000002 -0.000004 -0.000001 0.000739
    3 4.118605 -0.003279 0.000000 0.000000 0.000000 0.000035
    4 4.118601 -0.003280 0.000000 0.000000 0.000000 0.000049
    5 4.118600 -0.003280 0.000000 0.000000 0.000000 -0.000009
    6 4.118531 -0.003538 0.000000 0.000000 0.000000 -0.019437
    7 0.000007 0.003539 1.498853 -0.000040 -1.501696 -3.122911
    8 5.449906 0.000000 0.000001 0.293727 0.900068 -0.358301
    9 10.242682 0.000000 0.000001 0.000000 0.000000 -1.616559
    10 10.987489 0.000000 0.000001 -2.408088 0.507136 -0.659418
    11 2.707073 1.267026 0.048136 0.152883 3.066648 1.501104
  time 24
    0 0.232777 -2.249536 38.192150 0.000000 0.000000 -1.570795
    1 -2.276920 0.000003 -1.238186 -1.570795 -1.570796 0.000000
    2 1.797145 0.711796 -0.000002 -0.000004 -0.000001 0.000739
    3 4.118605 -0.003279 0.000000 0.000000 0.000000 0.000035
    4 4.118601 -0.003280 0.000000 0.000000 0.000000 0.000049
    5 4.118600 -0.003280 0.000000 0.000000 0.000000 -0.000009
    6 4.118531 -0.003538 0.000000 0.000000 0.000000 -0.019437
    7 0.000007 0.003539 1.498853 -0.000040 -1.501696 -3.122911
    8 5.449906 0.000000 0.000001 0.293727 0.900068 -0.358301
    9 10.242682 0.000000 0.000001 0.000000 0.000000 -1.616559
    10 10.987489 0.000000 0.000001 -2.408088 0.507136 -0.659418
    11 2.707073 1.267026 0.048136 0.152883 3.066648 1.501104
  time 25
    0 0.232777 -2.249536 38.192150 0.000000 0.000000 -1.570795
    1 -2.276920 0.000003 -1.238186 -1.570795 -1.570796 0.000000
    2 1.797145 0.711796 -0.000002 -0.000004 -0.000001 0.000739
    3 4.118605 -0.003279 0.000000 0.000000 0.000000 0.000035
    4 4.118601 -0.003280 0.000000 0.000000 0.000000 0.000049
    5 4.118600 -0.003280 0.000000 0.000000 0.000000 -0.000009
    6 4.118531 -0.003538 0.000000 0.000000 0.000000 -0.019437
    7 0.000007 0.003539 1.498853 -0.000040 -1.501696 -3.122911
    8 5.449906 0.000000 0.000001 0.293727 0.900068 -0.358301
    9 10.242682 0.000000 0.000001 0.000000 0.000000 -1.616559
    10 10.987489 0.000000 0.000001 -2.408088 0.507136 -0.659418
    11 2.707073 1.267026 0.048136 0.152883 3.066648 1.501104
  time 26
    0 0.232777 -2.249536 38.192150 0.000000 0.000000 -1.570795
    1 -2.276920 0.000003 -1.238186 -1.570795 -1.570796 0.000000
    2 1.797145 0.711796 -0.000002 -0.000004 -0.000001 0.000739
    3 4.118605 -0.003279 0.000000 0.000000 0.000000 0.000035
    4 4.118601 -0.003280 0.000000 0.000000 0.000000 0.000049
    5 4.118600 -0.003280 0.000000 0.000000 0.000000 -0.000009
    6 4.118531 -0.003538 0.000000 0.000000 0.000000 -0.019437
    7 0.000007 0.003539 1.498853 -0.000040 -1.501696 -3.122911
    8 5.449906 0.000000 0.000001 0.293727 0.900068 -0.358301
    9 10.242682 0.000000 0.000001 0.000000 0.000000 -1.616559
    10 10.987489 0.000000 0.000001 -2.408088 0.507136 -0.659418
    11 2.707073 1.267026 0.048136 0.152883 3.066648 1.501104
  time 27
    0 0.232777 -2.249536 38.192150 0.000000 0.000000 -1.570795
    1 -2.276920 0.000003 -1.238186 -1.570795 -1.570796 0.000000
    2 1.797145 0.711796 -0.000002 -0.000004 -0.000001 0.000739
    3 4.118605 -0.003279 0.000000 0.000000 0.000000 0.000035
    4 4.118601 -0.003280 0.000000 0.000000 0.000000 0.000049
    5 4.118600 -0.003280 0.000000 0.000000 0.000000 -0.000009
    6 4.118531 -0.003538 0.000000 0.000000 0.000000 -0.019437
    7 0.000007 0.003539 1.498853 -0.000040 -1.501696 -3.122911
    8 5.449906 0.000000 0.000001 0.293727 0.900068 -0.358301
    9 10.242682 0.000000 0.000001 0.000000 0.000000 -1.616559
    10 10.987489 0.000000 0.000001 -2.408088 0.507136 -0.659418
    11 2.707073 1.267026 0.048136 0.152883 3.066648 1.501104
  time 28
    0 0.232777 -2.249536 38.192150 0.000000 0.000000 -1.570795
    1 -2.276920 0.000003 -1.238186 -1.570795 -1.570796 0.000000
    2 1.797145 0.711796 -0.000002 -0.000004 -0.000001 0.000739
    3 4.118605 -0.003279 0.000000 0.000000 0.000000 0.000035
    4 4.118601 -0.003280 0.000000 0.000000 0.000000 0.000049
    5 4.118600 -0.003280 0.000000 0.000000 0.000000 -0.000009
    6 4.118531 -0.003538 0.000000 0.000000 0.000000 -0.019437
    7 0.000007 0.003539 1.498853 -0.000040 -1.501696 -3.122911
    8 5.449906 0.000000 0.000001 0.293727 0.900068 -0.358301
    9 10.242682 0.000000 0.000001 0.000000 0.000000 -1.616559
    10 10.987489 0.000000 0.000001 -2.408088 0.507136 -0.659418
    11 2.707073 1.267026 0.048136 0.152883 3.066648 1.501104
  time 29
    0 0.232777 -2.249536 38.192150 0.000000 0.000000 -1.570795
    1 -2.276920 0.000003 -1.238186 -1.570795 -1.570796 0.000000
    2 1.797145 0.711796 -0.000002 -0.000004 -0.000001 0.000739
    3 4.118605 -0.003279 0.000000 0.000000 0.000000 0.000035
    4 4.118601 -0.003280 0.000000 0.000000 0.000000 0.000049
    5 4.118600 -0.003280 0.000000 0.000000 0.000000 -0.000009
    6 4.118531 -0.003538 0.000000 0.000000 0.000000 -0.019437
    7 0.000007 0.003539 1.498853 -0.000040 -1.501696 -3.122911
    8 5.449906 0.000000 0.000001 0.293727 0.900068 -0.358301
    9 10.242682 0.000000 0.000001 0.000000 0.000000 -1.616559
    10 10.987489 0.000000 0.000001 -2.408088 0.507136 -0.659418
    11 2.707073 1.267026 0.048136 0.152883 3.066648 1.501104
  time 30
    0 0.232777 -2.249536 38.192150 0.000000 0.000000 -1.570795
    1 -2.276920 0.000003 -1.238186 -1.570795 -1.570796 0.000000
    2 1.797145 0.711796 -0.000002 -0.000004 -0.000001 0.000739
    3 4.118605 -0.003279 0.000000 0.000000 0.000000 0.000035
    4 4.118601 -0.003280 0.000000 0.000000 0.000000 0.000049
    5 4.118600 -0.003280 0.000000 0.000000 0.000000 -0.000009
    6 4.118531 -0.003538 0.000000 0.000000 0.000000 -0.019437
    7 0.000007 0.003539 1.498853 -0.000040 -1.501696 -3.122911
    8 5.449906 0.000000 0.000001 0.293727 0.900068 -0.358301
    9 10.242682 0.000000 0.000001 0.000000 0.000000 -1.616559
    10 10.987489 0.000000 0.000001 -2.408088 0.507136 -0.659418
    11 2.707073 1.267026 0.048136 0.152883 3.066648 1.501104
  time 31
    0 0.232777 -2.249536 38.192150 0.000000 0.000000 -1.570795
    1 -2.276920 0.000003 -1.238186 -1.570795 -1.570796 0.000000
    2 1.797145 0.711796 -0.000002 -0.000004 -0.000001 0.000739
    3 4.118605 -0.003279 0.000000 0.000000 0.000000 0.000035
    4 4.118601 -0.003280 0.000000 0.000000 0.000000 0.000049
    5 4.118600 -0.003280 0.000000 0.000000 0.000000 -0.000009
    6 4.118531 -0.003538 0.000000 0.000000 0.000000 -0.019437
    7 0.000007 0.003539 1.498853 -0.000040 -1.501696 -3.122911
    8 5.449906 0.000000 0.000001 0.293727 0.900068 -0.358301
    9 10.242682 0.000000 0.000001 0.000000 0.000000 -1.616559
    10 10.987489 0.000000 0.000001 -2.408088 0.507136 -0.659418
    11 2.707073 1.267026 0.048136 0.152883 3.066648 1.501104
  time 32
    0 0.232777 -2.249536 38.192150 0.000000 0.000000 -1.570795
    1 -2.276920 0.000003 -1.238186 -1.570795 -1.570796 0.000000
    2 1.797145 0.711796 -0.000002 -0.000004 -0.000001 0.000739
    3 4.118605 -0.003279 0.000000 0.000000 0.000000 0.000035
    4 4.118601 -0.003280 0.000000 0.000000 0.000000 0.000049
    5 4.118600 -0.003280 0.000000 0.000000 0.000000 -0.000009
    6 4.118531 -0.003538 0.000000 0.000000 0.000000 -0.019437
    7 0.000007 0.003539 1.498853 -0.000040 -1.501696 -3.122911
    8 5.449906 0.000000 0.000001 0.293727 0.900068 -0.358301
    9 10.242682 0.000000 0.000001 0.000000 0.000000 -1.616559
    10 10.987489 0.000000 0.000001 -2.408088 0.507136 -0.659418
    11 2.707073 1.267026 0.048136 0.152883 3.066648 1.501104
  time 33
    0 0.232777 -2.249536 38.192150 0.000000 0.000000 -1.570795
    1 -2.276920 0.000003 -1.238186 -1.570795 -1.570796 0.000000
    2 1.797145 0.711796 -0.000002 -0.000004 -0.000001 0.000739
    3 4.118605 -0.003279 0.000000 0.000000 0.000000 0.000035
    4 4.118601 -0.003280 0.000000 0.000000 0.000000 0.000049
    5 4.118600 -0.003280 0.000000 0.000000 0.000000 -0.000009
    6 4.118531 -0.003538 0.000000 0.000000 0.000000 -0.019437
    7 0.000007 0.003539 1.498853 -0.000040 -1.501696 -3.122911
    8 5.449906 0.000000 0.000001 0.293727 0.900068 -0.358301
    9 10.242682 0.000000 0.000001 0.000000 0.000000 -1.616559
    10 10.987489 0.000000 0.000001 -2.408088 0.507136 -0.659418
    11 2.707073 1.267026 0.048136 0.152883 3.066648 1.501104
  time 34
    0 0.232777 -2.249536 38.192150 0.000000 0.000000 -1.570795
    1 -2.276920 0.000003 -1.238186 -1.570795 -1.570796 0.000000
    2 1.797145 0.711796 -0.000002 -0.000004 -0.000001 0.000739
    3 4.118605 -0.003279 0.000000 0.000000 0.000000 0.000035
    4 4.118601 -0.003280 0.000000 0.000000 0.000000 0.000049
    5 4.118600 -0.003280 0.000000 0.000000 0.000000 -0.000009
    6 4.118531 -0.003538 0.000000 0.000000 0.000000 -0.019437
    7 0.000007 0.003539 1.498853 -0.000040 -1.501696 -3.122911
    8 5.449906 0.000000 0.000001 0.293727 0.900068 -0.358301
    9 10.242682 0.000000 0.000001 0.000000 0.000000 -1.616559
    10 10.987489 0.000000 0.000001 -2.408088 0.507136 -0.659418
    11 2.707073 1.267026 0.048136 0.152883 3.066648 1.501104
  time 35
    0 0.232777 -2.249536 38.192150 0.000000 0.000000 -1.570795
    1 -2.276920 0.000003 -1.238186 -1.570795 -1.570796 0.000000
    2 1.797145 0.711796 -0.000002 -0.000004 -0.000001 0.000739
    3 4.118605 -0.003279 0.000000 0.000000 0.000000 0.000035
    4 4.118601 -0.003280 0.000000 0.000000 0.000000 0.000049
    5 4.118600 -0.003280 0.000000 0.000000 0.000000 -0.000009
    6 4.118531 -0.003538 0.000000 0.000000 0.000000 -0.019437
    7 0.000007 0.003539 1.498853 -0.000040 -1.501696 -3.122911
    8 5.449906 0.000000 0.000001 0.293727 0.900068 -0.358301
    9 10.242682 0.000000 0.000001 0.000000 0.000000 -1.616559
    10 10.987489 0.000000 0.000001 -2.408088 0.507136 -0.659418
    11 2.707073 1.267026 0.048136 0.152883 3.066648 1.501104
  time 36
    0 0.232777 -2.249536 38.192150 0.000000 0.000000 -1.570795
    1 -2.276920 0.000003 -1.238186 -1.570795 -1.570796 0.000000
    2 1.797145 0.711796 -0.000002 -0.000004 -0.000001 0.000739
    3 4.118605 -0.003279 0.000000 0.000000 0.000000 0.000035
    4 4.118601 -0.003280 0.000000 0.000000 0.000000 0.000049
    5 4.118600 -0.003280 0.000000 0.000000 0.000000 -0.000009
    6 4.118531 -0.003538 0.000000 0.000000 0.000000 -0.019437
    7 0.000007 0.003539 1.498853 -0.000040 -1.501696 -3.122911
    8 5.449906 0.000000 0.000001 0.293727 0.900068 -0.358301
    9 10.242682 0.000000 0.000001 0.000000 0.000000 -1.616559
    10 10.987489 0.000000 0.000001 -2.408088 0.507136 -0.659418
    11 2.707073 1.267026 0.048136 0.152883 3.066648 1.501104
  time 37
    0 0.232777 -2.249536 38.192150 0.000000 0.000000 -1.570795
    1 -2.276920 0.000003 -1.238186 -1.570795 -1.570796 0.000000
    2 1.797145 0.711796 -0.000002 -0.000004 -0.000001 0.000739
    3 4.118605 -0.003279 0.000000 0.000000 0.000000 0.000035
    4 4.118601 -0.003280 0.000000 0.000000 0.000000 0.000049
    5 4.118600 -0.003280 0.000000 0.000000 0.000000 -0.000009
    6 4.118531 -0.003538 0.000000 0.000000 0.000000 -0.019437
    7 0.000007 0.003539 1.498853 -0.000040 -1.501696 -3.122911
    8 5.449906 0.000000 0.000001 0.293727 0.900068 -0.358301
    9 10.242682 0.000000 0.000001 0.000000 0.000000 -1.616559
    10 10.987489 0.000000 0.000001 -2.408088 0.507136 -0.659418
    11 2.707073 1.267026 0.048136 0.152883 3.066648 1.501104
  time 38
    0 0.232777 -2.249536 38.192150 0.000000 0.000000 -1.570795
    1 -2.276920 0.000003 -1.238186 -1.570795 -1.570796 0.000000
    2 1.797145 0.711796 -0.000002 -0.000004 -0.000001 0.000739
    3 4.118605 -0.003279 0.000000 0.000000 0.000000 0.000035
    4 4.118601 -0.003280 0.000000 0.000000 0.000000 0.000049
    5 4.118600 -0.003280 0.000000 0.000000 0.000000 -0.000009
    6 4.118531 -0.003538 0.000000 0.000000 0.000000 -0.019437
    7 0.000007 0.003539 1.498853 -0.000040 -1.501696 -3.122911
    8 5.449906 0.000000 0.000001 0.293727 0.900068 -0.358301
    9 10.242682 0.000000 0.000001 0.000000 0.000000 -1.616559
    10 10.987489 0.000000 0.000001 -2.408088 0.507136 -0.659418
    11 2.707073 1.267026 0.048136 0.152883 3.066648 1.501104
  time 39
    0 0.232777 -2.249536 38.192150 0.000000 0.000000 -1.570795
    1 -2.276920 0.000003 -1.238186 -1.570795 -1.570796 0.000000
    2 1.797145 0.711796 -0.000002 -0.000004 -0.000001 0.000739
    3 4.118605 -0.003279 0.000000 0.000000 0.000000 0.000035
    4 4.118601 -0.003280 0.000000 0.000000 0.000000 0.000049
    5 4.118600 -0.003280 0.000000 0.000000 0.000000 -0.000009
    6 4.118531 -0.003538 0.000000 0.000000 0.000000 -0.019437
    7 0.000007 0.003539 1.498853 -0.000040 -1.501696 -3.122911
    8 5.449906 0.000000 0.000001 0.293727 0.900068 -0.358301
    9 10.242682 0.000000 0.000001 0.000000 0.000000 -1.616559
    10 10.987489 0.000000 0.000001 -2.408088 0.507136 -0.659418
    11 2.707073 1.267026 0.048136 0.152883 3.066648 1.501104
  time 40
    0 0.232777 -2.249536 38.192150 0.000000 0.000000 -1.570795
    1 -2.276920 0.000003 -1.238186 -1.570795 -1.570796 0.000000
    2 1.797145 0.711796 -0.000002 -0.000004 -0.000001 0.000739
    3 4.118605 -0.003279 0.000000 0.000000 0.000000 0.000035
    4 4.118601 -0.003280 0.000000 0.000000 0.000000 0.000049
    5 4.118600 -0.003280 0.000000 0.000000 0.000000 -0.000009
    6 4.118531 -0.003538 0.000000 0.000000 0.000000 -0.019437
    7 0.000007 0.003539 1.498853 -0.000040 -1.501696 -3.122911
    8 5.449906 0.000000 0.000001 0.293727 0.900068 -0.358301
    9 10.242682 0.000000 0.000001 0.000000 0.000000 -1.616559
    10 10.987489 0.000000 0.000001 -2.408088 0.507136 -0.659418
    11 2.707073 1.267026 0.048136 0.152883 3.066648 1.501104
  time 41
    0 0.232777 -2.249536 38.192150 0.000000 0.000000 -1.570795
    1 -2.276920 0.000003 -1.238186 -1.570795 -1.570796 0.000000
    2 1.797145 0.711796 -0.000002 -0.000004 -0.000001 0.000739
    3 4.118605 -0.003279 0.000000 0.000000 0.000000 0.000035
    4 4.118601 -0.003280 0.000000 0.000000 0.000000 0.000049
    5 4.118600 -0.003280 0.000000 0.000000 0.000000 -0.000009
    6 4.118531 -0.003538 0.000000 0.000000 0.000000 -0.019437
    7 0.000007 0.003539 1.498853 -0.000040 -1.501696 -3.122911
    8 5.449906 0.000000 0.000001 0.293727 0.900068 -0.358301
    9 10.242682 0.000000 0.000001 0.000000 0.000000 -1.616559
    10 10.987489 0.000000 0.000001 -2.408088 0.507136 -0.659418
    11 2.707073 1.267026 0.048136 0.152883 3.066648 1.501104
  time 42
    0 0.232777 -2.249536 38.192150 0.000000 0.000000 -1.570795
    1 -2.276920 0.000003 -1.238186 -1.570795 -1.570796 0.000000
    2 1.797145 0.711796 -0.000002 -0.000004 -0.000001 0.000739
    3 4.118605 -0.003279 0.000000 0.000000 0.000000 0.000035
    4 4.118601 -0.003280 0.000000 0.000000 0.000000 0.000049
    5 4.118600 -0.003280 0.000000 0.000000 0.000000 -0.000009
    6 4.118531 -0.003538 0.000000 0.000000 0.000000 -0.019437
    7 0.000007 0.003539 1.498853 -0.000040 -1.501696 -3.122911
    8 5.449906 0.000000 0.000001 0.293727 0.900068 -0.358301
    9 10.242682 0.000000 0.000001 0.000000 0.000000 -1.616559
    10 10.987489 0.000000 0.000001 -2.408088 0.507136 -0.659418
    11 2.707073 1.267026 0.048136 0.152883 3.066648 1.501104
  time 43
    0 0.232777 -2.249536 38.192150 0.000000 0.000000 -1.570795
    1 -2.276920 0.000003 -1.238186 -1.570795 -1.570796 0.000000
    2 1.797145 0.711796 -0.000002 -0.000004 -0.000001 0.000739
    3 4.118605 -0.003279 0.000000 0.000000 0.000000 0.000035
    4 4.118601 -0.003280 0.000000 0.000000 0.000000 0.000049
    5 4.118600 -0.003280 0.000000 0.000000 0.000000 -0.000009
    6 4.118531 -0.003538 0.000000 0.000000 0.000000 -0.019437
    7 0.000007 0.003539 1.498853 -0.000040 -1.501696 -3.122911
    8 5.449906 0.000000 0.000001 0.293727 0.900068 -0.358301
    9 10.242682 0.000000 0.000001 0.000000 0.000000 -1.616559
    10 10.987489 0.000000 0.000001 -2.408088 0.507136 -0.659418
    11 2.707073 1.267026 0.048136 0.152883 3.066648 1.501104
  time 44
    0 0.232777 -2.249536 38.192150 0.000000 0.000000 -1.570795
    1 -2.276920 0.000003 -1.238186 -1.570795 -1.570796 0.000000
    2 1.797145 0.711796 -0.000002 -0.000004 -0.000001 0.000739
    3 4.118605 -0.003279 0.000000 0.000000 0.000000 0.000035
    4 4.118601 -0.003280 0.000000 0.000000 0.000000 0.000049
    5 4.118600 -0.003280 0.000000 0.000000 0.000000 -0.000009
    6 4.118531 -0.003538 0.000000 0.000000 0.000000 -0.019437
    7 0.000007 0.003539 1.498853 -0.000040 -1.501696 -3.122911
    8 5.449906 0.000000 0.000001 0.293727 0.900068 -0.358301
    9 10.242682 0.000000 0.000001 0.000000 0.000000 -1.616559
    10 10.987489 0.000000 0.000001 -2.408088 0.507136 -0.659418
    11 2.707073 1.267026 0.048136 0.152883 3.066648 1.501104
  time 45
    0 0.232777 -2.249536 38.192150 0.000000 0.000000 -1.570795
    1 -2.276920 0.000003 -1.238186 -1.570795 -1.570796 0.000000
    2 1.797145 0.711796 -0.000002 -0.000004 -0.000001 0.000739
    3 4.118605 -0.003279 0.000000 0.000000 0.000000 0.000035
    4 4.118601 -0.003280 0.000000 0.000000 0.000000 0.000049
    5 4.118600 -0.003280 0.000000 0.000000 0.000000 -0.000009
    6 4.118531 -0.003538 0.000000 0.000000 0.000000 -0.019437
    7 0.000007 0.003539 1.498853 -0.000040 -1.501696 -3.122911
    8 5.449906 0.000000 0.000001 0.293727 0.900068 -0.358301
    9 10.242682 0.000000 0.000001 0.000000 0.000000 -1.616559
    10 10.987489 0.000000 0.000001 -2.408088 0.507136 -0.659418
    11 2.707073 1.267026 0.048136 0.152883 3.066648 1.501104
  time 46
    0 0.232777 -2.249536 38.192150 0.000000 0.000000 -1.570795
    1 -2.276920 0.000003 -1.238186 -1.570795 -1.570796 0.000000
    2 1.797145 0.711796 -0.000002 -0.000004 -0.000001 0.000739
    3 4.118605 -0.003279 0.000000 0.000000 0.000000 0.000035
    4 4.118601 -0.003280 0.000000 0.000000 0.000000 0.000049
    5 4.118600 -0.003280 0.000000 0.000000 0.000000 -0.000009
    6 4.118531 -0.003538 0.000000 0.000000 0.000000 -0.019437
    7 0.000007 0.003539 1.498853 -0.000040 -1.501696 -3.122911
    8 5.449906 0.000000 0.000001 0.293727 0.900068 -0.358301
    9 10.242682 0.000000 0.000001 0.000000 0.000000 -1.616559
    10 10.987489 0.000000 0.000001 -2.408088 0.507136 -0.659418
    11 2.707073 1.267026 0.048136 0.152883 3.066648 1.501104
  time 47
    0 0.232777 -2.249536 38.192150 0.000000 0.000000 -1.570795
    1 -2.276920 0.000003 -1.238186 -1.570795 -1.570796 0.000000
    2 1.797145 0.711796 -0.000002 -0.000004 -0.000001 0.000739
    3 4.118605 -0.003279 0.000000 0.000000 0.000000 0.000035
    4 4.118601 -0.003280 0.000000 0.000000 0.000000 0.000049
    5 4.118600 -0.003280 0.000000 0.000000 0.000000 -0.000009
    6 4.118531 -0.003538 0.000000 0.000000 0.000000 -0.019437
    7 0.000007 0.003539 1.498853 -0.000040 -1.501696 -3.122911
    8 5.449906 0.000000 0.000001 0.293727 0.900068 -0.358301
    9 10.242682 0.000000 0.000001 0.000000 0.000000 -1.616559
    10 10.987489 0.000000 0.000001 -2.408088 0.507136 -0.659418
    11 2.707073 1.267026 0.048136 0.152883 3.066648 1.501104
  time 48
    0 0.232777 -2.249536 38.192150 0.000000 0.000000 -1.570795
    1 -2.276920 0.000003 -1.238186 -1.570795 -1.570796 0.000000
    2 1.797145 0.711796 -0.000002 -0.000004 -0.000001 0.000739
    3 4.118605 -0.003279 0.000000 0.000000 0.000000 0.000035
    4 4.118601 -0.003280 0.000000 0.000000 0.000000 0.000049
    5 4.118600 -0.003280 0.000000 0.000000 0.000000 -0.000009
    6 4.118531 -0.003538 0.000000 0.000000 0.000000 -0.019437
    7 0.000007 0.003539 1.498853 -0.000040 -1.501696 -3.122911
    8 5.449906 0.000000 0.000001 0.293727 0.900068 -0.358301
    9 10.242682 0.000000 0.000001 0.000000 0.000000 -1.616559
    10 10.987489 0.000000 0.000001 -2.408088 0.507136 -0.659418
    11 2.707073 1.267026 0.048136 0.152883 3.066648 1.501104
  time 49
    0 0.232777 -2.249536 38.192150 0.000000 0.000000 -1.570795
    1 -2.276920 0.000003 -1.238186 -1.570795 -1.570796 0.000000
    2 1.797145 0.711796 -0.000002 -0.000004 -0.000001 0.000739
    3 4.118605 -0.003279 0.000000 0.000000 0.000000 0.000035
    4 4.118601 -0.003280 0.000000 0.000000 0.000000 0.000049
    5 4.118600 -0.003280 0.000000 0.000000 0.000000 -0.000009
    6 4.118531 -0.003538 0.000000 0.000000 0.000000 -0.019437
    7 0.000007 0.003539 1.498853 -0.000040 -1.501696 -3.122911
    8 5.449906 0.000000 0.000001 0.293727 0.900068 -0.358301
    9 10.242682 0.000000 0.000001 0.000000 0.000000 -1.616559
    10 10.987489 0.000000 0.000001 -2.408088 0.507136 -0.659418
    11 2.707073 1.267026 0.048136 0.152883 3.066648 1.501104
  time 50
    0 0.232777 -2.249536 38.192150 0.000000 0.000000 -1.570795
    1 -2.276920 0.000003 -1.238186 -1.570795 -1.570796 0.000000
    2 1.797145 0.711796 -0.000002 -0.000004 -0.000001 0.000739
    3 4.118605 -0.003279 0.000000 0.000000 0.000000 0.000035
    4 4.118601 -0.003280 0.000000 0.000000 0.000000 0.000049
    5 4.118600 -0.003280 0.000000 0.000000 0.000000 -0.000009
    6 4.118531 -0.003538 0.000000 0.000000 0.000000 -0.019437
    7 0.000007 0.003539 1.498853 -0.000040 -1.501696 -3.122911
    8 5.449906 0.000000 0.000001 0.293727 0.900068 -0.358301
    9 10.242682 0.000000 0.000001 0.000000 0.000000 -1.616559
    10 10.987489 0.000000 0.000001 -2.408088 0.507136 -0.659418
    11 2.707073 1.267026 0.048136 0.152883 3.066648 1.501104
  time 51
    0 0.232777 -2.249536 38.192150 0.000000 0.000000 -1.570795
    1 -2.276920 0.000003 -1.238186 -1.570795 -1.570796 0.000000
    2 1.797145 0.711796 -0.000002 -0.000004 -0.000001 0.000739
    3 4.118605 -0.003279 0.000000 0.000000 0.000000 0.000035
    4 4.118601 -0.003280 0.000000 0.000000 0.000000 0.000049
    5 4.118600 -0.003280 0.000000 0.000000 0.000000 -0.000009
    6 4.118531 -0.003538 0.000000 0.000000 0.000000 -0.019437
    7 0.000007 0.003539 1.498853 -0.000040 -1.501696 -3.122911
    8 5.449906 0.000000 0.000001 0.293727 0.900068 -0.358301
    9 10.242682 0.000000 0.000001 0.000000 0.000000 -1.616559
    10 10.987489 0.000000 0.000001 -2.408088 0.507136 -0.659418
    11 2.707073 1.267026 0.048136 0.152883 3.066648 1.501104
  time 52
    0 0.232777 -2.249536 38.192150 0.000000 0.000000 -1.570795
    1 -2.276920 0.000003 -1.238186 -1.570795 -1.570796 0.000000
    2 1.797145 0.711796 -0.000002 -0.000004 -0.000001 0.000739
    3 4.118605 -0.003279 0.000000 0.000000 0.000000 0.000035
    4 4.118601 -0.003280 0.000000 0.000000 0.000000 0.000049
    5 4.118600 -0.003280 0.000000 0.000000 0.000000 -0.000009
    6 4.118531 -0.003538 0.000000 0.000000 0.000000 -0.019437
    7 0.000007 0.003539 1.498853 -0.000040 -1.501696 -3.122911
    8 5.449906 0.000000 0.000001 0.293727 0.900068 -0.358301
    9 10.242682 0.000000 0.000001 0.000000 0.000000 -1.616559
    10 10.987489 0.000000 0.000001 -2.408088 0.507136 -0.659418
    11 2.707073 1.267026 0.048136 0.152883 3.066648 1.501104
  time 53
    0 0.232777 -2.249536 38.192150 0.000000 0.000000 -1.570795
    1 -2.276920 0.000003 -1.238186 -1.570795 -1.570796 0.000000
    2 1.797145 0.711796 -0.000002 -0.000004 -0.000001 0.000739
    3 4.118605 -0.003279 0.000000 0.000000 0.000000 0.000035
    4 4.118601 -0.003280 0.000000 0.000000 0.000000 0.000049
    5 4.118600 -0.003280 0.000000 0.000000 0.000000 -0.000009
    6 4.118531 -0.003538 0.000000 0.000000 0.000000 -0.019437
    7 0.000007 0.003539 1.498853 -0.000040 -1.501696 -3.122911
    8 5.449906 0.000000 0.000001 0.293727 0.900068 -0.358301
    9 10.242682 0.000000 0.000001 0.000000 0.000000 -1.616559
    10 10.987489 0.000000 0.000001 -2.408088 0.507136 -0.659418
    11 2.707073 1.267026 0.048136 0.152883 3.066648 1.501104
  time 54
    0 0.232777 -2.249536 38.192150 0.000000 0.000000 -1.570795
    1 -2.276920 0.000003 -1.238186 -1.570795 -1.570796 0.000000
    2 1.797145 0.711796 -0.000002 -0.000004 -0.000001 0.000739
    3 4.118605 -0.003279 0.000000 0.000000 0.000000 0.000035
    4 4.118601 -0.003280 0.000000 0.000000 0.000000 0.000049
    5 4.118600 -0.003280 0.000000 0.000000 0.000000 -0.000009
    6 4.118531 -0.003538 0.000000 0.000000 0.000000 -0.019437
    7 0.000007 0.003539 1.498853 -0.000040 -1.501696 -3.122911
    8 5.449906 0.000000 0.000001 0.293727 0.900068 -0.358301
    9 10.242682 0.000000 0.000001 0.000000 0.000000 -1.616559
    10 10.987489 0.000000 0.000001 -2.408088 0.507136 -0.659418
    11 2.707073 1.267026 0.048136 0.152883 3.066648 1.501104
  time 55
    0 0.232777 -2.249536 38.192150 0.000000 0.000000 -1.570795
    1 -2.276920 0.000003 -1.238186 -1.570795 -1.570796 0.000000
    2 1.797145 0.711796 -0.000002 -0.000004 -0.000001 0.000739
    3 4.118605 -0.003279 0.000000 0.000000 0.000000 0.000035
    4 4.118601 -0.003280 0.000000 0.000000 0.000000 0.000049
    5 4.118600 -0.003280 0.000000 0.000000 0.000000 -0.000009
    6 4.118531 -0.003538 0.000000 0.000000 0.000000 -0.019437
    7 0.000007 0.003539 1.498853 -0.000040 -1.501696 -3.122911
    8 5.449906 0.000000 0.000001 0.293727 0.900068 -0.358301
    9 10.242682 0.000000 0.000001 0.000000 0.000000 -1.616559
    10 10.987489 0.000000 0.000001 -2.408088 0.507136 -0.659418
    11 2.707073 1.267026 0.048136 0.152883 3.066648 1.501104
  time 56
    0 0.232777 -2.249536 38.192150 0.000000 0.000000 -1.570795
    1 -2.276920 0.000003 -1.238186 -1.570795 -1.570796 0.000000
    2 1.797145 0.711796 -0.000002 -0.000004 -0.000001 0.000739
    3 4.118605 -0.003279 0.000000 0.000000 0.000000 0.000035
    4 4.118601 -0.003280 0.000000 0.000000 0.000000 0.000049
    5 4.118600 -0.003280 0.000000 0.000000 0.000000 -0.000009
    6 4.118531 -0.003538 0.000000 0.000000 0.000000 -0.019437
    7 0.000007 0.003539 1.498853 -0.000040 -1.501696 -3.122911
    8 5.449906 0.000000 0.000001 0.293727 0.900068 -0.358301
    9 10.242682 0.000000 0.000001 0.000000 0.000000 -1.616559
    10 10.987489 0.000000 0.000001 -2.408088 0.507136 -0.659418
    11 2.707073 1.267026 0.048136 0.152883 3.066648 1.501104
  time 57
    0 0.232777 -2.249536 38.192150 0.000000 0.000000 -1.570795
    1 -2.276920 0.000003 -1.238186 -1.570795 -1.570796 0.000000
    2 1.797145 0.711796 -0.000002 -0.000004 -0.000001 0.000739
    3 4.118605 -0.003279 0.000000 0.000000 0.000000 0.000035
    4 4.118601 -0.003280 0.000000 0.000000 0.000000 0.000049
    5 4.118600 -0.003280 0.000000 0.000000 0.000000 -0.000009
    6 4.118531 -0.003538 0.000000 0.000000 0.000000 -0.019437
    7 0.000007 0.003539 1.498853 -0.000040 -1.501696 -3.122911
    8 5.449906 0.000000 0.000001 0.293727 0.900068 -0.358301
    9 10.242682 0.000000 0.000001 0.000000 0.000000 -1.616559
    10 10.987489 0.000000 0.000001 -2.408088 0.507136 -0.659418
    11 2.707073 1.267026 0.048136 0.152883 3.066648 1.501104
  time 58
    0 0.232777 -2.249536 38.192150 0.000000 0.000000 -1.570795
    1 -2.276920 0.000003 -1.238186 -1.570795 -1.570796 0.000000
    2 1.797145 0.711796 -0.000002 -0.000004 -0.000001 0.000739
    3 4.118605 -0.003279 0.000000 0.000000 0.000000 0.000035
    4 4.118601 -0.003280 0.000000 0.000000 0.000000 0.000049
    5 4.118600 -0.003280 0.000000 0.000000 0.000000 -0.000009
    6 4.118531 -0.003538 0.000000 0.000000 0.000000 -0.019437
    7 0.000007 0.003539 1.498853 -0.000040 -1.501696 -3.122911
    8 5.449906 0.000000 0.000001 0.293727 0.900068 -0.358301
    9 10.242682 0.000000 0.000001 0.000000 0.000000 -1.616559
    10 10.987489 0.000000 0.000001 -2.408088 0.507136 -0.659418
    11 2.707073 1.267026 0.048136 0.152883 3.066648 1.501104
  time 59
    0 0.232777 -2.249536 38.192150 0.000000 0.000000 -1.570795
    1 -2.276920 0.000003 -1.238186 -1.570795 -1.570796 0.000000
    2 1.797145 0.711796 -0.000002 -0.000004 -0.000001 0.000739
    3 4.118605 -0.003279 0.000000 0.000000 0.000000 0.000035
    4 4.118601 -0.003280 0.000000 0.000000 0.000000 0.000049
    5 4.118600 -0.003280 0.000000 0.000000 0.000000 -0.000009
    6 4.118531 -0.003538 0.000000 0.000000 0.000000 -0.019437
    7 0.000007 0.003539 1.498853 -0.000040 -1.501696 -3.122911
    8 5.449906 0.000000 0.000001 0.293727 0.900068 -0.358301
    9 10.242682 0.000000 0.000001 0.000000 0.000000 -1.616559
    10 10.987489 0.000000 0.000001 -2.408088 0.507136 -0.659418
    11 2.707073 1.267026 0.048136 0.152883 3.066648 1.501104
  time 60
    0 0.232777 -2.249536 38.192150 0.000000 0.000000 -1.570795
    1 -2.276920 0.000003 -1.238186 -1.570795 -1.570796 0.000000
    2 1.797145 0.711796 -0.000002 -0.000004 -0.000001 0.000739
    3 4.118605 -0.003279 0.000000 0.000000 0.000000 0.000035
    4 4.118601 -0.003280 0.000000 0.000000 0.000000 0.000049
    5 4.118600 -0.003280 0.000000 0.000000 0.000000 -0.000009
    6 4.118531 -0.003538 0.000000 0.000000 0.000000 -0.019437
    7 0.000007 0.003539 1.498853 -0.000040 -1.501696 -3.122911
    8 5.449906 0.000000 0.000001 0.293727 0.900068 -0.358301
    9 10.242682 0.000000 0.000001 0.000000 0.000000 -1.616559
    10 10.987489 0.000000 0.000001 -2.408088 0.507136 -0.659418
    11 2.707073 1.267026 0.048136 0.152883 3.066648 1.501104
  time 61
    0 0.232777 -2.249536 38.192150 0.000000 0.000000 -1.570795
    1 -2.276920 0.000003 -1.238186 -1.570795 -1.570796 0.000000
    2 1.797145 0.711796 -0.000002 -0.000004 -0.000001 0.000739
    3 4.118605 -0.003279 0.000000 0.000000 0.000000 0.000035
    4 4.118601 -0.003280 0.000000 0.000000 0.000000 0.000049
    5 4.118600 -0.003280 0.000000 0.000000 0.000000 -0.000009
    6 4.118531 -0.003538 0.000000 0.000000 0.000000 -0.019437
    7 0.000007 0.003539 1.498853 -0.000040 -1.501696 -3.122911
    8 5.449906 0.000000 0.000001 0.293727 0.900068 -0.358301
    9 10.242682 0.000000 0.000001 0.000000 0.000000 -1.616559
    10 10.987489 0.000000 0.000001 -2.408088 0.507136 -0.659418
    11 2.707073 1.267026 0.048136 0.152883 3.066648 1.501104
  time 62
    0 0.232777 -2.249536 38.192150 0.000000 0.000000 -1.570795
    1 -2.276920 0.000003 -1.238186 -1.570795 -1.570796 0.000000
    2 1.797145 0.711796 -0.000002 -0.000004 -0.000001 0.000739
    3 4.118605 -0.003279 0.000000 0.000000 0.000000 0.000035
    4 4.118601 -0.003280 0.000000 0.000000 0.000000 0.000049
    5 4.118600 -0.003280 0.000000 0.000000 0.000000 -0.000009
    6 4.118531 -0.003538 0.000000 0.000000 0.000000 -0.019437
    7 0.000007 0.003539 1.498853 -0.000040 -1.501696 -3.122911
    8 5.449906 0.000000 0.000001 0.293727 0.900068 -0.358301
    9 10.242682 0.000000 0.000001 0.000000 0.000000 -1.616559
    10 10.987489 0.000000 0.000001 -2.408088 0.507136 -0.659418
    11 2.707073 1.267026 0.048136 0.152883 3.066648 1.501104
  time 63
    0 0.232777 -2.249536 38.192150 0.000000 0.000000 -1.570795
    1 -2.276920 0.000003 -1.238186 -1.570795 -1.570796 0.000000
    2 1.797145 0.711796 -0.000002 -0.000004 -0.000001 0.000739
    3 4.118605 -0.003279 0.000000 0.000000 0.000000 0.000035
    4 4.118601 -0.003280 0.000000 0.000000 0.000000 0.000049
    5 4.118600 -0.003280 0.000000 0.000000 0.000000 -0.000009
    6 4.118531 -0.003538 0.000000 0.000000 0.000000 -0.019437
    7 0.000007 0.003539 1.498853 -0.000040 -1.501696 -3.122911
    8 5.449906 0.000000 0.000001 0.293727 0.900068 -0.358301
    9 10.242682 0.000000 0.000001 0.000000 0.000000 -1.616559
    10 10.987489 0.000000 0.000001 -2.408088 0.507136 -0.659418
    11 2.707073 1.267026 0.048136 0.152883 3.066648 1.501104
  time 64
    0 0.232777 -2.249536 38.192150 0.000000 0.000000 -1.570795
    1 -2.276920 0.000003 -1.238186 -1.570795 -1.570796 0.000000
    2 1.797145 0.711796 -0.000002 -0.000004 -0.000001 0.000739
    3 4.118605 -0.003279 0.000000 0.000000 0.000000 0.000035
    4 4.118601 -0.003280 0.000000 0.000000 0.000000 0.000049
    5 4.118600 -0.003280 0.000000 0.000000 0.000000 -0.000009
    6 4.118531 -0.003538 0.000000 0.000000 0.000000 -0.019437
    7 0.000007 0.003539 1.498853 -0.000040 -1.501696 -3.122911
    8 5.449906 0.000000 0.000001 0.293727 0.900068 -0.358301
    9 10.242682 0.000000 0.000001 0.000000 0.000000 -1.616559
    10 10.987489 0.000000 0.000001 -2.408088 0.507136 -0.659418
    11 2.707073 1.267026 0.048136 0.152883 3.066648 1.501104
  time 65
    0 0.232777 -2.249536 38.192150 0.000000 0.000000 -1.570795
    1 -2.276920 0.000003 -1.238186 -1.570795 -1.570796 0.000000
    2 1.797145 0.711796 -0.000002 -0.000004 -0.000001 0.000739
    3 4.118605 -0.003279 0.000000 0.000000 0.000000 0.000035
    4 4.118601 -0.003280 0.000000 0.000000 0.000000 0.000049
    5 4.118600 -0.003280 0.000000 0.000000 0.000000 -0.000009
    6 4.118531 -0.003538 0.000000 0.000000 0.000000 -0.019437
    7 0.000007 0.003539 1.498853 -0.000040 -1.501696 -3.122911
    8 5.449906 0.000000 0.000001 0.293727 0.900068 -0.358301
    9 10.242682 0.000000 0.000001 0.000000 0.000000 -1.616559
    10 10.987489 0.000000 0.000001 -2.408088 0.507136 -0.659418
    11 2.707073 1.267026 0.048136 0.152883 3.066648 1.501104
  time 66
    0 0.232777 -2.249536 38.192150 0.000000 0.000000 -1.570795
    1 -2.276920 0.000003 -1.238186 -1.570795 -1.570796 0.000000
    2 1.797145 0.711796 -0.000002 -0.000004 -0.000001 0.000739
    3 4.118605 -0.003279 0.000000 0.000000 0.000000 0.000035
    4 4.118601 -0.003280 0.000000 0.000000 0.000000 0.000049
    5 4.118600 -0.003280 0.000000 0.000000 0.000000 -0.000009
    6 4.118531 -0.003538 0.000000 0.000000 0.000000 -0.019437
    7 0.000007 0.003539 1.498853 -0.000040 -1.501696 -3.122911
    8 5.449906 0.000000 0.000001 0.293727 0.900068 -0.358301
    9 10.242682 0.000000 0.000001 0.000000 0.000000 -1.616559
    10 10.987489 0.000000 0.000001 -2.408088 0.507136 -0.659418
    11 2.707073 1.267026 0.048136 0.152883 3.066648 1.501104
  time 67
    0 0.232777 -2.249536 38.192150 0.000000 0.000000 -1.570795
    1 -2.276920 0.000003 -1.238186 -1.570795 -1.570796 0.000000
    2 1.797145 0.711796 -0.000002 -0.000004 -0.000001 0.000739
    3 4.118605 -0.003279 0.000000 0.000000 0.000000 0.000035
    4 4.118601 -0.003280 0.000000 0.000000 0.000000 0.000049
    5 4.118600 -0.003280 0.000000 0.000000 0.000000 -0.000009
    6 4.118531 -0.003538 0.000000 0.000000 0.000000 -0.019437
    7 0.000007 0.003539 1.498853 -0.000040 -1.501696 -3.122911
    8 5.449906 0.000000 0.000001 0.293727 0.900068 -0.358301
    9 10.242682 0.000000 0.000001 0.000000 0.000000 -1.616559
    10 10.987489 0.000000 0.000001 -2.408088 0.507136 -0.659418
    11 2.707073 1.267026 0.048136 0.152883 3.066648 1.501104
  time 68
    0 0.232777 -2.249536 38.192150 0.000000 0.000000 -1.570795
    1 -2.276920 0.000003 -1.238186 -1.570795 -1.570796 0.000000
    2 1.797145 0.711796 -0.000002 -0.000004 -0.000001 0.000739
    3 4.118605 -0.003279 0.000000 0.000000 0.000000 0.000035
    4 4.118601 -0.003280 0.000000 0.000000 0.000000 0.000049
    5 4.118600 -0.003280 0.000000 0.000000 0.000000 -0.000009
    6 4.118531 -0.003538 0.000000 0.000000 0.000000 -0.019437
    7 0.000007 0.003539 1.498853 -0.000040 -1.501696 -3.122911
    8 5.449906 0.000000 0.000001 0.293727 0.900068 -0.358301
    9 10.242682 0.000000 0.000001 0.000000 0.000000 -1.616559
    10 10.987489 0.000000 0.000001 -2.408088 0.507136 -0.659418
    11 2.707073 1.267026 0.048136 0.152883 3.066648 1.501104
  time 69
    0 0.232777 -2.249536 38.192150 0.000000 0.000000 -1.570795
    1 -2.276920 0.000003 -1.238186 -1.570795 -1.570796 0.000000
    2 1.797145 0.711796 -0.000002 -0.000004 -0.000001 0.000739
    3 4.118605 -0.003279 0.000000 0.000000 0.000000 0.000035
    4 4.118601 -0.003280 0.000000 0.000000 0.000000 0.000049
    5 4.118600 -0.003280 0.000000 0.000000 0.000000 -0.000009
    6 4.118531 -0.003538 0.000000 0.000000 0.000000 -0.019437
    7 0.000007 0.003539 1.498853 -0.000040 -1.501696 -3.122911
    8 5.449906 0.000000 0.000001 0.293727 0.900068 -0.358301
    9 10.242682 0.000000 0.000001 0.000000 0.000000 -1.616559
    10 10.987489 0.000000 0.000001 -2.408088 0.507136 -0.659418
    11 2.707073 1.267026 0.048136 0.152883 3.066648 1.501104
  time 70
    0 0.232777 -2.249536 38.192150 0.000000 0.000000 -1.570795
    1 -2.276920 0.000003 -1.238186 -1.570795 -1.570796 0.000000
    2 1.797145 0.711796 -0.000002 -0.000004 -0.000001 0.000739
    3 4.118605 -0.003279 0.000000 0.000000 0.000000 0.000035
    4 4.118601 -0.003280 0.000000 0.000000 0.000000 0.000049
    5 4.118600 -0.003280 0.000000 0.000000 0.000000 -0.000009
    6 4.118531 -0.003538 0.000000 0.000000 0.000000 -0.019437
    7 0.000007 0.003539 1.498853 -0.000040 -1.501696 -3.122911
    8 5.449906 0.000000 0.000001 0.293727 0.900068 -0.358301
    9 10.242682 0.000000 0.000001 0.000000 0.000000 -1.616559
    10 10.987489 0.000000 0.000001 -2.408088 0.507136 -0.659418
    11 2.707073 1.267026 0.048136 0.152883 3.066648 1.501104
  time 71
    0 0.232777 -2.249536 38.192150 0.000000 0.000000 -1.570795
    1 -2.276920 0.000003 -1.238186 -1.570795 -1.570796 0.000000
    2 1.797145 0.711796 -0.000002 -0.000004 -0.000001 0.000739
    3 4.118605 -0.003279 0.000000 0.000000 0.000000 0.000035
    4 4.118601 -0.003280 0.000000 0.000000 0.000000 0.000049
    5 4.118600 -0.003280 0.000000 0.000000 0.000000 -0.000009
    6 4.118531 -0.003538 0.000000 0.000000 0.000000 -0.019437
    7 0.000007 0.003539 1.498853 -0.000040 -1.501696 -3.122911
    8 5.449906 0.000000 0.000001 0.293727 0.900068 -0.358301
    9 10.242682 0.000000 0.000001 0.000000 0.000000 -1.616559
    10 10.987489 0.000000 0.000001 -2.408088 0.507136 -0.659418
    11 2.707073 1.267026 0.048136 0.152883 3.066648 1.501104
  time 72
    0 0.232777 -2.249536 38.192150 0.000000 0.000000 -1.570795
    1 -2.276920 0.000003 -1.238186 -1.570795 -1.570796 0.000000
    2 1.797145 0.711796 -0.000002 -0.000004 -0.000001 0.000739
    3 4.118605 -0.003279 0.000000 0.000000 0.000000 0.000035
    4 4.118601 -0.003280 0.000000 0.000000 0.000000 0.000049
    5 4.118600 -0.003280 0.000000 0.000000 0.000000 -0.000009
    6 4.118531 -0.003538 0.000000 0.000000 0.000000 -0.019437
    7 0.000007 0.003539 1.498853 -0.000040 -1.501696 -3.122911
    8 5.449906 0.000000 0.000001 0.293727 0.900068 -0.358301
    9 10.242682 0.000000 0.000001 0.000000 0.000000 -1.616559
    10 10.987489 0.000000 0.000001 -2.408088 0.507136 -0.659418
    11 2.707073 1.267026 0.048136 0.152883 3.066648 1.501104
  time 73
    0 0.232777 -2.249536 38.192150 0.000000 0.000000 -1.570795
    1 -2.276920 0.000003 -1.238186 -1.570795 -1.570796 0.000000
    2 1.797145 0.711796 -0.000002 -0.000004 -0.000001 0.000739
    3 4.118605 -0.003279 0.000000 0.000000 0.000000 0.000035
    4 4.118601 -0.003280 0.000000 0.000000 0.000000 0.000049
    5 4.118600 -0.003280 0.000000 0.000000 0.000000 -0.000009
    6 4.118531 -0.003538 0.000000 0.000000 0.000000 -0.019437
    7 0.000007 0.003539 1.498853 -0.000040 -1.501696 -3.122911
    8 5.449906 0.000000 0.000001 0.293727 0.900068 -0.358301
    9 10.242682 0.000000 0.000001 0.000000 0.000000 -1.616559
    10 10.987489 0.000000 0.000001 -2.408088 0.507136 -0.659418
    11 2.707073 1.267026 0.048136 0.152883 3.066648 1.501104
  time 74
    0 0.232777 -2.249536 38.192150 0.000000 0.000000 -1.570795
    1 -2.276920 0.000003 -1.238186 -1.570795 -1.570796 0.000000
    2 1.797145 0.711796 -0.000002 -0.000004 -0.000001 0.000739
    3 4.118605 -0.003279 0.000000 0.000000 0.000000 0.000035
    4 4.118601 -0.003280 0.000000 0.000000 0.000000 0.000049
    5 4.118600 -0.003280 0.000000 0.000000 0.000000 -0.000009
    6 4.118531 -0.003538 0.000000 0.000000 0.000000 -0.019437
    7 0.000007 0.003539 1.498853 -0.000040 -1.501696 -3.122911
    8 5.449906 0.000000 0.000001 0.293727 0.900068 -0.358301
    9 10.242682 0.000000 0.000001 0.000000 0.000000 -1.616559
    10 10.987489 0.000000 0.000001 -2.408088 0.507136 -0.659418
    11 2.707073 1.267026 0.048136 0.152883 3.066648 1.501104
  time 75
    0 0.232777 -2.249536 38.192150 0.000000 0.000000 -1.570795
    1 -2.276920 0.000003 -1.238186 -1.570795 -1.570796 0.000000
    2 1.797145 0.711796 -0.000002 -0.000004 -0.000001 0.000739
    3 4.118605 -0.003279 0.000000 0.000000 0.000000 0.000035
    4 4.118601 -0.003280 0.000000 0.000000 0.000000 0.000049
    5 4.118600 -0.003280 0.000000 0.000000 0.000000 -0.000009
    6 4.118531 -0.003538 0.000000 0.000000 0.000000 -0.019437
    7 0.000007 0.003539 1.498853 -0.000040 -1.501696 -3.122911
    8 5.449906 0.000000 0.000001 0.293727 0.900068 -0.358301
    9 10.242682 0.000000 0.000001 0.000000 0.000000 -1.616559
    10 10.987489 0.000000 0.000001 -2.408088 0.507136 -0.659418
    11 2.707073 1.267026 0.048136 0.152883 3.066648 1.501104
  time 76
    0 0.232777 -2.249536 38.192150 0.000000 0.000000 -1.570795
    1 -2.276920 0.000003 -1.238186 -1.570795 -1.570796 0.000000
    2 1.797145 0.711796 -0.000002 -0.000004 -0.000001 0.000739
    3 4.118605 -0.003279 0.000000 0.000000 0.000000 0.000035
    4 4.118601 -0.003280 0.000000 0.000000 0.000000 0.000049
    5 4.118600 -0.003280 0.000000 0.000000 0.000000 -0.000009
    6 4.118531 -0.003538 0.000000 0.000000 0.000000 -0.019437
    7 0.000007 0.003539 1.498853 -0.000040 -1.501696 -3.122911
    8 5.449906 0.000000 0.000001 0.293727 0.900068 -0.358301
    9 10.242682 0.000000 0.000001 0.000000 0.000000 -1.616559
    10 10.987489 0.000000 0.000001 -2.408088 0.507136 -0.659418
    11 2.707073 1.267026 0.048136 0.152883 3.066648 1.501104
  time 77
    0 0.232777 -2.249536 38.192150 0.000000 0.000000 -1.570795
    1 -2.276920 0.000003 -1.238186 -1.570795 -1.570796 0.000000
    2 1.797145 0.711796 -0.000002 -0.000004 -0.000001 0.000739
    3 4.118605 -0.003279 0.000000 0.000000 0.000000 0.000035
    4 4.118601 -0.003280 0.000000 0.000000 0.000000 0.000049
    5 4.118600 -0.003280 0.000000 0.000000 0.000000 -0.000009
    6 4.118531 -0.003538 0.000000 0.000000 0.000000 -0.019437
    7 0.000007 0.003539 1.498853 -0.000040 -1.501696 -3.122911
    8 5.449906 0.000000 0.000001 0.293727 0.900068 -0.358301
    9 10.242682 0.000000 0.000001 0.000000 0.000000 -1.616559
    10 10.987489 0.000000 0.000001 -2.408088 0.507136 -0.659418
    11 2.707073 1.267026 0.048136 0.152883 3.066648 1.501104
  time 78
    0 0.232777 -2.249536 38.192150 0.000000 0.000000 -1.570795
    1 -2.276920 0.000003 -1.238186 -1.570795 -1.570796 0.000000
    2 1.797145 0.711796 -0.000002 -0.000004 -0.000001 0.000739
    3 4.118605 -0.003279 0.000000 0.000000 0.000000 0.000035
    4 4.118601 -0.003280 0.000000 0.000000 0.000000 0.000049
    5 4.118600 -0.003280 0.000000 0.000000 0.000000 -0.000009
    6 4.118531 -0.003538 0.000000 0.000000 0.000000 -0.019437
    7 0.000007 0.003539 1.498853 -0.000040 -1.501696 -3.122911
    8 5.449906 0.000000 0.000001 0.293727 0.900068 -0.358301
    9 10.242682 0.000000 0.000001 0.000000 0.000000 -1.616559
    10 10.987489 0.000000 0.000001 -2.408088 0.507136 -0.659418
    11 2.707073 1.267026 0.048136 0.152883 3.066648 1.501104
  time 79
    0 0.232777 -2.249536 38.192150 0.000000 0.000000 -1.570795
    1 -2.276920 0.000003 -1.238186 -1.570795 -1.570796 0.000000
    2 1.797145 0.711796 -0.000002 -0.000004 -0.000001 0.000739
    3 4.118605 -0.003279 0.000000 0.000000 0.000000 0.000035
    4 4.118601 -0.003280 0.000000 0.000000 0.000000 0.000049
    5 4.118600 -0.003280 0.000000 0.000000 0.000000 -0.000009
    6 4.118531 -0.003538 0.000000 0.000000 0.000000 -0.019437
    7 0.000007 0.003539 1.498853 -0.000040 -1.501696 -3.122911
    8 5.449906 0.000000 0.000001 0.293727 0.900068 -0.358301
    9 10.242682 0.000000 0.000001 0.000000 0.000000 -1.616559
    10 10.987489 0.000000 0.000001 -2.408088 0.507136 -0.659418
    11 2.707073 1.267026 0.048136 0.152883 3.066648 1.501104
  time 80
    0 0.232777 -2.249536 38.192150 0.000000 0.000000 -1.570795
    1 -2.276920 0.000003 -1.238186 -1.570795 -1.570796 0.000000
    2 1.797145 0.711796 -0.000002 -0.000004 -0.000001 0.000739
    3 4.118605 -0.003279 0.000000 0.000000 0.000000 0.000035
    4 4.118601 -0.003280 0.000000 0.000000 0.000000 0.000049
    5 4.118600 -0.003280 0.000000 0.000000 0.000000 -0.000009
    6 4.118531 -0.003538 0.000000 0.000000 0.000000 -0.019437
    7 0.000007 0.003539 1.498853 -0.000040 -1.501696 -3.122911
    8 5.449906 0.000000 0.000001 0.293727 0.900068 -0.358301
    9 10.242682 0.000000 0.000001 0.000000 0.000000 -1.616559
    10 10.987489 0.000000 0.000001 -2.408088 0.507136 -0.659418
    11 2.707073 1.267026 0.048136 0.152883 3.066648 1.501104
  time 81
    0 0.232777 -2.249536 38.192150 0.000000 0.000000 -1.570795
    1 -2.276920 0.000003 -1.238186 -1.570795 -1.570796 0.000000
    2 1.797145 0.711796 -0.000002 -0.000004 -0.000001 0.000739
    3 4.118605 -0.003279 0.000000 0.000000 0.000000 0.000035
    4 4.118601 -0.003280 0.000000 0.000000 0.000000 0.000049
    5 4.118600 -0.003280 0.000000 0.000000 0.000000 -0.000009
    6 4.118531 -0.003538 0.000000 0.000000 0.000000 -0.019437
    7 0.000007 0.003539 1.498853 -0.000040 -1.501696 -3.122911
    8 5.449906 0.000000 0.000001 0.293727 0.900068 -0.358301
    9 10.242682 0.000000 0.000001 0.000000 0.000000 -1.616559
    10 10.987489 0.000000 0.000001 -2.408088 0.507136 -0.659418
    11 2.707073 1.267026 0.048136 0.152883 3.066648 1.501104
  time 82
    0 0.232777 -2.249536 38.192150 0.000000 0.000000 -1.570795
    1 -2.276920 0.000003 -1.238186 -1.570795 -1.570796 0.000000
    2 1.797145 0.711796 -0.000002 -0.000004 -0.000001 0.000739
    3 4.118605 -0.003279 0.000000 0.000000 0.000000 0.000035
    4 4.118601 -0.003280 0.000000 0.000000 0.000000 0.000049
    5 4.118600 -0.003280 0.000000 0.000000 0.000000 -0.000009
    6 4.118531 -0.003538 0.000000 0.000000 0.000000 -0.019437
    7 0.000007 0.003539 1.498853 -0.000040 -1.501696 -3.122911
    8 5.449906 0.000000 0.000001 0.293727 0.900068 -0.358301
    9 10.242682 0.000000 0.000001 0.000000 0.000000 -1.616559
    10 10.987489 0.000000 0.000001 -2.408088 0.507136 -0.659418
    11 2.707073 1.267026 0.048136 0.152883 3.066648 1.501104
  time 83
    0 0.232777 -2.249536 38.192150 0.000000 0.000000 -1.570795
    1 -2.276920 0.000003 -1.238186 -1.570795 -1.570796 0.000000
    2 1.797145 0.711796 -0.000002 -0.000004 -0.000001 0.000739
    3 4.118605 -0.003279 0.000000 0.000000 0.000000 0.000035
    4 4.118601 -0.003280 0.000000 0.000000 0.000000 0.000049
    5 4.118600 -0.003280 0.000000 0.000000 0.000000 -0.000009
    6 4.118531 -0.003538 0.000000 0.000000 0.000000 -0.019437
    7 0.000007 0.003539 1.498853 -0.000040 -1.501696 -3.122911
    8 5.449906 0.000000 0.000001 0.293727 0.900068 -0.358301
    9 10.242682 0.000000 0.000001 0.000000 0.000000 -1.616559
    10 10.987489 0.000000 0.000001 -2.408088 0.507136 -0.659418
    11 2.707073 1.267026 0.048136 0.152883 3.066648 1.501104
  time 84
    0 0.232777 -2.249536 38.192150 0.000000 0.000000 -1.570795
    1 -2.276920 0.000003 -1.238186 -1.570795 -1.570796 0.000000
    2 1.797145 0.711796 -0.000002 -0.000004 -0.000001 0.000739
    3 4.118605 -0.003279 0.000000 0.000000 0.000000 0.000035
    4 4.118601 -0.003280 0.000000 0.000000 0.000000 0.000049
    5 4.118600 -0.003280 0.000000 0.000000 0.000000 -0.000009
    6 4.118531 -0.003538 0.000000 0.000000 0.000000 -0.019437
    7 0.000007 0.003539 1.498853 -0.000040 -1.501696 -3.122911
    8 5.449906 0.000000 0.000001 0.293727 0.900068 -0.358301
    9 10.242682 0.000000 0.000001 0.000000 0.000000 -1.616559
    10 10.987489 0.000000 0.000001 -2.408088 0.507136 -0.659418
    11 2.707073 1.267026 0.048136 0.152883 3.066648 1.501104
  time 85
    0 0.232777 -2.249536 38.192150 0.000000 0.000000 -1.570795
    1 -2.276920 0.000003 -1.238186 -1.570795 -1.570796 0.000000
    2 1.797145 0.711796 -0.000002 -0.000004 -0.000001 0.000739
    3 4.118605 -0.003279 0.000000 0.000000 0.000000 0.000035
    4 4.118601 -0.003280 0.000000 0.000000 0.000000 0.000049
    5 4.118600 -0.003280 0.000000 0.000000 0.000000 -0.000009
    6 4.118531 -0.003538 0.000000 0.000000 0.000000 -0.019437
    7 0.000007 0.003539 1.498853 -0.000040 -1.501696 -3.122911
    8 5.449906 0.000000 0.000001 0.293727 0.900068 -0.358301
    9 10.242682 0.000000 0.000001 0.000000 0.000000 -1.616559
    10 10.987489 0.000000 0.000001 -2.408088 0.507136 -0.659418
    11 2.707073 1.267026 0.048136 0.152883 3.066648 1.501104
  time 86
    0 0.232777 -2.249536 38.192150 0.000000 0.000000 -1.570795
    1 -2.276920 0.000003 -1.238186 -1.570795 -1.570796 0.000000
    2 1.797145 0.711796 -0.000002 -0.000004 -0.000001 0.000739
    3 4.118605 -0.003279 0.000000 0.000000 0.000000 0.000035
    4 4.118601 -0.003280 0.000000 0.000000 0.000000 0.000049
    5 4.118600 -0.003280 0.000000 0.000000 0.000000 -0.000009
    6 4.118531 -0.003538 0.000000 0.000000 0.000000 -0.019437
    7 0.000007 0.003539 1.498853 -0.000040 -1.501696 -3.122911
    8 5.449906 0.000000 0.000001 0.293727 0.900068 -0.358301
    9 10.242682 0.000000 0.000001 0.000000 0.000000 -1.616559
    10 10.987489 0.000000 0.000001 -2.408088 0.507136 -0.659418
    11 2.707073 1.267026 0.048136 0.152883 3.066648 1.501104
  time 87
    0 0.232777 -2.249536 38.192150 0.000000 0.000000 -1.570795
    1 -2.276920 0.000003 -1.238186 -1.570795 -1.570796 0.000000
    2 1.797145 0.711796 -0.000002 -0.000004 -0.000001 0.000739
    3 4.118605 -0.003279 0.000000 0.000000 0.000000 0.000035
    4 4.118601 -0.003280 0.000000 0.000000 0.000000 0.000049
    5 4.118600 -0.003280 0.000000 0.000000 0.000000 -0.000009
    6 4.118531 -0.003538 0.000000 0.000000 0.000000 -0.019437
    7 0.000007 0.003539 1.498853 -0.000040 -1.501696 -3.122911
    8 5.449906 0.000000 0.000001 0.293727 0.900068 -0.358301
    9 10.242682 0.000000 0.000001 0.000000 0.000000 -1.616559
    10 10.987489 0.000000 0.000001 -2.408088 0.507136 -0.659418
    11 2.707073 1.267026 0.048136 0.152883 3.066648 1.501104
  time 88
    0 0.232777 -2.249536 38.192150 0.000000 0.000000 -1.570795
    1 -2.276920 0.000003 -1.238186 -1.570795 -1.570796 0.000000
    2 1.797145 0.711796 -0.000002 -0.000004 -0.000001 0.000739
    3 4.118605 -0.003279 0.000000 0.000000 0.000000 0.000035
    4 4.118601 -0.003280 0.000000 0.000000 0.000000 0.000049
    5 4.118600 -0.003280 0.000000 0.000000 0.000000 -0.000009
    6 4.118531 -0.003538 0.000000 0.000000 0.000000 -0.019437
    7 0.000007 0.003539 1.498853 -0.000040 -1.501696 -3.122911
    8 5.449906 0.000000 0.000001 0.293727 0.900068 -0.358301
    9 10.242682 0.000000 0.000001 0.000000 0.000000 -1.616559
    10 10.987489 0.000000 0.000001 -2.408088 0.507136 -0.659418
    11 2.707073 1.267026 0.048136 0.152883 3.066648 1.501104
  time 89
    0 0.232777 -2.249536 38.192150 0.000000 0.000000 -1.570795
    1 -2.276920 0.000003 -1.238186 -1.570795 -1.570796 0.000000
    2 1.797145 0.711796 -0.000002 -0.000004 -0.000001 0.000739
    3 4.118605 -0.003279 0.000000 0.000000 0.000000 0.000035
    4 4.118601 -0.003280 0.000000 0.000000 0.000000 0.000049
    5 4.118600 -0.003280 0.000000 0.000000 0.000000 -0.000009
    6 4.118531 -0.003538 0.000000 0.000000 0.000000 -0.019437
    7 0.000007 0.003539 1.498853 -0.000040 -1.501696 -3.122911
    8 5.449906 0.000000 0.000001 0.293727 0.900068 -0.358301
    9 10.242682 0.000000 0.000001 0.000000 0.000000 -1.616559
    10 10.987489 0.000000 0.000001 -2.408088 0.507136 -0.659418
    11 2.707073 1.267026 0.048136 0.152883 3.066648 1.501104
  time 90
    0 0.232777 -2.249536 38.192150 0.000000 0.000000 -1.570795
    1 -2.276920 0.000003 -1.238186 -1.570795 -1.570796 0.000000
    2 1.797145 0.711796 -0.000002 -0.000004 -0.000001 0.000739
    3 4.118605 -0.003279 0.000000 0.000000 0.000000 0.000035
    4 4.118601 -0.003280 0.000000 0.000000 0.000000 0.000049
    5 4.118600 -0.003280 0.000000 0.000000 0.000000 -0.000009
    6 4.118531 -0.003538 0.000000 0.000000 0.000000 -0.019437
    7 0.000007 0.003539 1.498853 -0.000040 -1.501696 -3.122911
    8 5.449906 0.000000 0.000001 0.293727 0.900068 -0.358301
    9 10.242682 0.000000 0.000001 0.000000 0.000000 -1.616559
    10 10.987489 0.000000 0.000001 -2.408088 0.507136 -0.659418
    11 2.707073 1.267026 0.048136 0.152883 3.066648 1.501104
  time 91
    0 0.232777 -2.249536 38.192150 0.000000 0.000000 -1.570795
    1 -2.276920 0.000003 -1.238186 -1.570795 -1.570796 0.000000
    2 1.797145 0.711796 -0.000002 -0.000004 -0.000001 0.000739
    3 4.118605 -0.003279 0.000000 0.000000 0.000000 0.000035
    4 4.118601 -0.003280 0.000000 0.000000 0.000000 0.000049
    5 4.118600 -0.003280 0.000000 0.000000 0.000000 -0.000009
    6 4.118531 -0.003538 0.000000 0.000000 0.000000 -0.019437
    7 0.000007 0.003539 1.498853 -0.000040 -1.501696 -3.122911
    8 5.449906 0.000000 0.000001 0.293727 0.900068 -0.358301
    9 10.242682 0.000000 0.000001 0.000000 0.000000 -1.616559
    10 10.987489 0.000000 0.000001 -2.408088 0.507136 -0.659418
    11 2.707073 1.267026 0.048136 0.152883 3.066648 1.501104
  time 92
    0 0.232777 -2.249536 38.192150 0.000000 0.000000 -1.570795
    1 -2.276920 0.000003 -1.238186 -1.570795 -1.570796 0.000000
    2 1.797145 0.711796 -0.000002 -0.000004 -0.000001 0.000739
    3 4.118605 -0.003279 0.000000 0.000000 0.000000 0.000035
    4 4.118601 -0.003280 0.000000 0.000000 0.000000 0.000049
    5 4.118600 -0.003280 0.000000 0.000000 0.000000 -0.000009
    6 4.118531 -0.003538 0.000000 0.000000 0.000000 -0.019437
    7 0.000007 0.003539 1.498853 -0.000040 -1.501696 -3.122911
    8 5.449906 0.000000 0.000001 0.293727 0.900068 -0.358301
    9 10.242682 0.000000 0.000001 0.000000 0.000000 -1.616559
    10 10.987489 0.000000 0.000001 -2.408088 0.507136 -0.659418
    11 2.707073 1.267026 0.048136 0.152883 3.066648 1.501104
  time 93
    0 0.232777 -2.249536 38.192150 0.000000 0.000000 -1.570795
    1 -2.276920 0.000003 -1.238186 -1.570795 -1.570796 0.000000
    2 1.797145 0.711796 -0.000002 -0.000004 -0.000001 0.000739
    3 4.118605 -0.003279 0.000000 0.000000 0.000000 0.000035
    4 4.118601 -0.003280 0.000000 0.000000 0.000000 0.000049
    5 4.118600 -0.003280 0.000000 0.000000 0.000000 -0.000009
    6 4.118531 -0.003538 0.000000 0.000000 0.000000 -0.019437
    7 0.000007 0.003539 1.498853 -0.000040 -1.501696 -3.122911
    8 5.449906 0.000000 0.000001 0.293727 0.900068 -0.358301
    9 10.242682 0.000000 0.000001 0.000000 0.000000 -1.616559
    10 10.987489 0.000000 0.000001 -2.408088 0.507136 -0.659418
    11 2.707073 1.267026 0.048136 0.152883 3.066648 1.501104
  time 94
    0 0.232777 -2.249536 38.192150 0.000000 0.000000 -1.570795
    1 -2.276920 0.000003 -1.238186 -1.570795 -1.570796 0.000000
    2 1.797145 0.711796 -0.000002 -0.000004 -0.000001 0.000739
    3 4.118605 -0.003279 0.000000 0.000000 0.000000 0.000035
    4 4.118601 -0.003280 0.000000 0.000000 0.000000 0.000049
    5 4.118600 -0.003280 0.000000 0.000000 0.000000 -0.000009
    6 4.118531 -0.003538 0.000000 0.000000 0.000000 -0.019437
    7 0.000007 0.003539 1.498853 -0.000040 -1.501696 -3.122911
    8 5.449906 0.000000 0.000001 0.293727 0.900068 -0.358301
    9 10.242682 0.000000 0.000001 0.000000 0.000000 -1.616559
    10 10.987489 0.000000 0.000001 -2.408088 0.507136 -0.659418
    11 2.707073 1.267026 0.048136 0.152883 3.066648 1.501104
  time 95
    0 0.232777 -2.249536 38.192150 0.000000 0.000000 -1.570795
    1 -2.276920 0.000003 -1.238186 -1.570795 -1.570796 0.000000
    2 1.797145 0.711796 -0.000002 -0.000004 -0.000001 0.000739
    3 4.118605 -0.003279 0.000000 0.000000 0.000000 0.000035
    4 4.118601 -0.003280 0.000000 0.000000 0.000000 0.000049
    5 4.118600 -0.003280 0.000000 0.000000 0.000000 -0.000009
    6 4.118531 -0.003538 0.000000 0.000000 0.000000 -0.019437
    7 0.000007 0.003539 1.498853 -0.000040 -1.501696 -3.122911
    8 5.449906 0.000000 0.000001 0.293727 0.900068 -0.358301
    9 10.242682 0.000000 0.000001 0.000000 0.000000 -1.616559
    10 10.987489 0.000000 0.000001 -2.408088 0.507136 -0.659418
    11 2.707073 1.267026 0.048136 0.152883 3.066648 1.501104
  time 96
    0 0.232777 -2.249536 38.192150 0.000000 0.000000 -1.570795
    1 -2.276920 0.000003 -1.238186 -1.570795 -1.570796 0.000000
    2 1.797145 0.711796 -0.000002 -0.000004 -0.000001 0.000739
    3 4.118605 -0.003279 0.000000 0.000000 0.000000 0.000035
    4 4.118601 -0.003280 0.000000 0.000000 0.000000 0.000049
    5 4.118600 -0.003280 0.000000 0.000000 0.000000 -0.000009
    6 4.118531 -0.003538 0.000000 0.000000 0.000000 -0.019437
    7 0.000007 0.003539 1.498853 -0.000040 -1.501696 -3.122911
    8 5.449906 0.000000 0.000001 0.293727 0.900068 -0.358301
    9 10.242682 0.000000 0.000001 0.000000 0.000000 -1.616559
    10 10.987489 0.000000 0.000001 -2.408088 0.507136 -0.659418
    11 2.707073 1.267026 0.048136 0.152883 3.066648 1.501104
  time 97
    0 0.232777 -2.249536 38.192150 0.000000 0.000000 -1.570795
    1 -2.276920 0.000003 -1.238186 -1.570795 -1.570796 0.000000
    2 1.797145 0.711796 -0.000002 -0.000004 -0.000001 0.000739
    3 4.118605 -0.003279 0.000000 0.000000 0.000000 0.000035
    4 4.118601 -0.003280 0.000000 0.000000 0.000000 0.000049
    5 4.118600 -0.003280 0.000000 0.000000 0.000000 -0.000009
    6 4.118531 -0.003538 0.000000 0.000000 0.000000 -0.019437
    7 0.000007 0.003539 1.498853 -0.000040 -1.501696 -3.122911
    8 5.449906 0.000000 0.000001 0.293727 0.900068 -0.358301
    9 10.242682 0.000000 0.000001 0.000000 0.000000 -1.616559
    10 10.987489 0.000000 0.000001 -2.408088 0.507136 -0.659418
    11 2.707073 1.267026 0.048136 0.152883 3.066648 1.501104
  time 98
    0 0.232777 -2.249536 38.192150 0.000000 0.000000 -1.570795
    1 -2.276920 0.000003 -1.238186 -1.570795 -1.570796 0.000000
    2 1.797145 0.711796 -0.000002 -0.000004 -0.000001 0.000739
    3 4.118605 -0.003279 0.000000 0.000000 0.000000 0.000035
    4 4.118601 -0.003280 0.000000 0.000000 0.000000 0.000049
    5 4.118600 -0.003280 0.000000 0.000000 0.000000 -0.000009
    6 4.118531 -0.003538 0.000000 0.000000 0.000000 -0.019437
    7 0.000007 0.003539 1.498853 -0.000040 -1.501696 -3.122911
    8 5.449906 0.000000 0.000001 0.293727 0.900068 -0.358301
    9 10.242682 0.000000 0.000001 0.000000 0.000000 -1.616559
    10 10.987489 0.000000 0.000001 -2.408088 0.507136 -0.659418
    11 2.707073 1.267026 0.048136 0.152883 3.066648 1.501104
  time 99
    0 0.232777 -2.249536 38.192150 0.000000 0.000000 -1.570795
    1 -2.276920 0.000003 -1.238186 -1.570795 -1.570796 0.000000
    2 1.797145 0.711796 -0.000002 -0.000004 -0.000001 0.000739
    3 4.118605 -0.003279 0.000000 0.000000 0.000000 0.000035
    4 4.118601 -0.003280 0.000000 0.000000 0.000000 0.000049
    5 4.118600 -0.003280 0.000000 0.000000 0.000000 -0.000009
    6 4.118531 -0.003538 0.000000 0.000000 0.000000 -0.019437
    7 0.000007 0.003539 1.498853 -0.000040 -1.501696 -3.122911
    8 5.449906 0.000000 0.000001 0.293727 0.900068 -0.358301
    9 10.242682 0.000000 0.000001 0.000000 0.000000 -1.616559
    10 10.987489 0.000000 0.000001 -2.408088 0.507136 -0.659418
    11 2.707073 1.267026 0.048136 0.152883 3.066648 1.501104
  time 100
    0 0.232777 -2.249536 38.192150 0.000000 0.000000 -1.570795
    1 -2.276920 0.000003 -1.238186 -1.570795 -1.570796 0.000000
    2 1.797145 0.711796 -0.000002 -0.000004 -0.000001 0.000739
    3 4.118605 -0.003279 0.000000 0.000000 0.000000 0.000035
    4 4.118601 -0.003280 0.000000 0.000000 0.000000 0.000049
    5 4.118600 -0.003280 0.000000 0.000000 0.000000 -0.000009
    6 4.118531 -0.003538 0.000000 0.000000 0.000000 -0.019437
    7 0.000007 0.003539 1.498853 -0.000040 -1.501696 -3.122911
    8 5.449906 0.000000 0.000001 0.293727 0.900068 -0.358301
    9 10.242682 0.000000 0.000001 0.000000 0.000000 -1.616559
    10 10.987489 0.000000 0.000001 -2.408088 0.507136 -0.659418
    11 2.707073 1.267026 0.048136 0.152883 3.066648 1.501104
end
