// Created by Crowbar 0.49.0.0

$modelname "weapons/tfa_cso/c_avalanche.mdl"

$Include "csonline_gmod.qci"

$bodygroup "weapon"
{
	studio "v_sfmg_sfmg_set"
}

$CDMaterials "models\weapons\tfa_cso\avalanche"

$attachment 0 "Bone03" 32 0 0
//$attachment 1 "Bone03" 9 0 1.5

$definebone "root" "" -0.349714 2.166272 -0.296488 0.000000 0.000000 0.000000 0.000000 0.000000 0.000000 -0.000000 0.000000 0.000000
$definebone "Bone01" "root" 11.755722 0.010682 -10.842323 -76.217481 70.092734 -90.018486 0.000000 0.000000 -0.000001 -0.000000 0.000000 0.000000
$definebone "Bone_Lefthand" "Bone01" -0.071918 -8.498731 -0.104137 5.089814 -13.452421 12.732268 -0.000001 0.000000 0.000000 -0.000000 -0.000000 -0.000001
$definebone "Bone03" "Bone_Lefthand" 3.965516 -3.507752 0.726128 7.144609 -88.567071 5.072453 0.000000 0.000000 0.000000 -0.000002 -0.000000 0.000000
$definebone "Dummy01" "Bone03" 8.966521 -4.010149 -0.007935 -0.000000 -75.523568 -179.999966 0.000000 -0.000001 0.000000 0.000000 -0.000003 0.000002
$definebone "Bone02" "Dummy01" -0.000001 -0.000001 0.000000 0.000000 -0.000003 0.000002 0.000000 -0.000001 0.000000 0.000000 -0.000003 0.000002
$definebone "Bone16" "Bone03" -8.520807 1.509796 -0.007930 -0.000000 89.999983 -179.999966 0.000000 0.000000 0.000000 0.000000 -0.000000 -0.000002
$definebone "Bone24" "Bone03" 10.877976 0.219202 -0.007934 -0.000000 89.999983 -179.999966 0.000000 0.000000 0.000000 0.000000 -0.000000 -0.000002
$definebone "Bone34" "Bone03" 12.303588 -3.220082 0.655519 -0.000000 90.000038 0.000055 0.000000 0.000000 0.000000 -0.000000 0.000000 -0.000002
$definebone "Bone26" "Bone34" 0.869225 3.303417 0.793734 -89.999983 -179.999966 0.000000 0.000000 0.000000 0.000000 -0.000000 0.000002 -0.000000
$definebone "Bone12" "Bone26" 1.809042 -1.766270 0.412229 -0.000000 -89.999983 0.000000 0.000000 0.000000 0.000000 -0.000000 -0.000002 0.000000
$definebone "Bone08" "Bone03" 0.877972 -1.780795 -0.007933 -0.000036 -90.000017 -180.000007 0.000000 0.000000 0.000000 -0.000000 -0.000000 0.000002
$definebone "Bone20" "Bone03" 1.460250 0.682891 -0.002611 -0.000000 89.999983 -179.999966 0.000000 0.000000 0.000000 0.000000 -0.000000 -0.000002

$sequence "idleA" {
	"v_sfmg_anims\idleA"
	fps 30
	loop
	activity "ACT_VM_IDLE" 1
	snap
}
$sequence "reloadA" {
	"v_sfmg_anims\reloadA"
	{ event 5004 17 "Avalanche.ClipOut" }
	{ event 5004 65 "Avalanche.ClipIn1" }
	{ event 5004 96 "Avalanche.ClipIn2" }
	fps 30
	activity "ACT_VM_RELOAD" 1
	snap
}
$sequence "drawA" {
	"v_sfmg_anims\drawA"
	fps 30
	activity "ACT_VM_DRAW" 1
	snap
}
$sequence "shootA1" {
	"v_sfmg_anims\shootA1"
	{ event 5001 0 "#I17 S0.18 R2 F0 P30 T0.01 A1 L0 O0" }
	fps 30
	activity "ACT_VM_PRIMARYATTACK" 1
	snap
}
$sequence "shootA2" {
	"v_sfmg_anims\shootA2"
	{ event 5001 0 "#I17 S0.18 R2 F0 P30 T0.01 A1 L0 O0" }
	fps 30
	activity "ACT_VM_PRIMARYATTACK" 2
	snap
}
$sequence "shootA3" {
	"v_sfmg_anims\shootA3"
	{ event 5001 0 "#I17 S0.18 R2 F0 P30 T0.01 A1 L0 O0" }
	fps 30
	activity "ACT_VM_PRIMARYATTACK" 3
	snap
}
$sequence "changeA" {
	"v_sfmg_anims\changeA"
	{ event 5004 9 "Avalanche.ChangeA" }
	fps 30
	activity "ACT_VM_ATTACH_SILENCER" 1
	snap
}
$sequence "idleB" {
	"v_sfmg_anims\idleB"
	fps 30
	activity "ACT_VM_IDLE_SILENCED" 1
	snap
	loop
}
$sequence "reloadB" {
	"v_sfmg_anims\reloadB"
	{ event 5004 17 "Avalanche.ClipOut" }
	{ event 5004 65 "Avalanche.ClipIn1" }
	{ event 5004 96 "Avalanche.ClipIn2" }
	fps 30
	activity "ACT_VM_RELOAD_SILENCED" 1
	snap
}
$sequence "drawB" {
	"v_sfmg_anims\drawB"
	fps 30
	activity "ACT_VM_DRAW_SILENCED" 1
	snap
}
$sequence "shootB1" {
	"v_sfmg_anims\shootB1"
	{ event 5001 0 "#I16 S0.16 R1 F0 P30 T0.01 A1 L0 O0" }
	fps 30
	activity "ACT_VM_PRIMARYATTACK_SILENCED" 1
	snap
}
$sequence "shootB2" {
	"v_sfmg_anims\shootB2"
	{ event 5001 0 "#I16 S0.16 R1 F0 P30 T0.01 A1 L0 O0" }
	fps 30
	activity "ACT_VM_PRIMARYATTACK_SILENCED" 2
	snap
}
$sequence "shootB3" {
	"v_sfmg_anims\shootB3"
	{ event 5001 0 "#I16 S0.16 R1 F0 P30 T0.01 A1 L0 O0" }
	fps 30
	activity "ACT_VM_PRIMARYATTACK_SILENCED" 3
	snap
}
$sequence "changeB" {
	"v_sfmg_anims\changeB"
	{ event 5004 9 "Avalanche.ChangeB" }
	fps 30
	activity "ACT_VM_DETACH_SILENCER" 1
	snap
}
