version 1
nodes
  0 "uzi_root_l" -1
  1 "triger01" 0
  2 "reloader01" 0
  3 "megazine01" 0
  4 "Hb01" 0
  5 "uzi_root_r" -1
  6 "triger" 5
  7 "reloader" 5
  8 "Hb" 5
  9 "megazine" 5
  10 "root" -1
  11 "Bone01" 10
  12 "Bone_L_Upper" 11
  13 "Bone_Lefthand" 11
  14 "Bone13" 13
  15 "Bone14" 14
  16 "Bone15" 15
  17 "Bone17" 13
  18 "Bone18" 17
  19 "Bone19" 18
  20 "Bone21" 13
  21 "Bone22" 20
  22 "Bone23" 21
  23 "Bone09" 13
  24 "Bone10" 23
  25 "Bone11" 24
  26 "Bone05" 13
  27 "Bone06" 26
  28 "Bone07" 27
  29 "Bone_Se_Hand-L" 13
  30 "Bone04" 10
  31 "Bone_Righthand" 30
  32 "Bone39" 31
  33 "Bone40" 32
  34 "Bone41" 33
  35 "Bone35" 31
  36 "Bone36" 35
  37 "Bone37" 36
  38 "Bone31" 31
  39 "Bone32" 38
  40 "Bone33" 39
  41 "Bone43" 31
  42 "Bone44" 41
  43 "Bone45" 42
  44 "Bone27" 31
  45 "Bone28" 44
  46 "Bone29" 45
  47 "Bone_Se_Hand-R" 31
  48 "Bone_R_Upper" 30
end
skeleton
  time 0
    0 -5.086093 -7.027772 -4.238411 -0.097784 -0.076355 -1.536802
    1 2.999629 0.000000 1.353194 0.000000 0.000000 1.570798
    2 3.639548 0.000000 3.113282 0.000000 0.000000 1.570798
    3 1.757773 0.000000 1.206649 0.000000 0.000000 1.570798
    4 -1.663432 -0.346000 1.941449 0.000000 0.000000 3.141589
    5 5.304849 -7.128910 -4.211066 0.074588 -0.034185 -1.546639
    6 2.999629 0.000000 1.353194 0.000000 0.000000 1.570798
    7 3.639548 0.000000 3.113282 0.000000 0.000000 1.570798
    8 -1.663432 0.346269 1.941449 0.000000 0.000000 3.141589
    9 1.757773 0.000000 1.206649 0.000000 0.000000 1.570798
    10 -0.002752 8.717751 -1.784592 0.000000 0.000000 0.000000
    11 7.931155 -6.596529 -6.331206 0.523755 -2.309922 -0.616048
    12 7.917539 2.356139 -0.349031 1.567100 -3.120134 0.368185
    13 -0.048483 -8.463579 -0.096321 0.070599 0.374442 -0.130691
    14 -0.488518 -2.755602 -0.228260 -0.434648 0.150360 -0.257287
    15 0.039887 -1.526666 0.010322 -1.357298 -0.013111 0.029747
    16 0.028786 -1.263237 -0.120768 -1.781379 -0.009516 0.040652
    17 0.250027 -2.820665 -0.238396 -0.156951 0.124643 -0.222602
    18 -0.049759 -1.598510 0.041883 -1.435809 0.002613 -0.039072
    19 -0.034142 -1.183469 0.041812 -1.449292 0.002673 -0.038027
    20 0.957766 -2.746780 -0.090302 0.163305 0.113141 0.005480
    21 -0.033420 -1.393223 -0.019070 -0.548424 0.008389 -0.026751
    22 -0.022360 -0.957436 -0.000748 -0.707945 0.007526 -0.034384
    23 -1.180681 -2.507217 -0.193859 -0.276772 0.235764 -0.220698
    24 -0.024967 -1.123934 0.017597 -0.793265 0.006687 -0.033843
    25 -0.020057 -0.906594 0.029622 -0.995434 0.005465 -0.040748
    26 0.583510 -1.193371 0.181473 0.313731 -0.595047 -0.692608
    27 1.516395 -0.153822 0.047979 0.016139 -0.157753 -0.527856
    28 1.007018 -0.182979 0.044010 0.086801 -0.241947 -1.032069
    29 0.038119 -0.319809 -0.031051 0.239607 3.240698 1.548022
    30 -6.751435 -6.692242 -5.126440 0.603585 -4.337667 0.701403
    31 -0.078843 -8.044156 -0.040616 0.111047 -0.074563 -0.056188
    32 0.447953 -2.798986 -0.200443 -0.117835 -0.183226 0.328409
    33 -0.032909 -1.499736 0.036191 -1.759219 0.021968 -0.036827
    34 -0.027022 -1.115984 -0.028023 -0.994625 0.022100 -0.015916
    35 -0.249534 -2.846964 -0.174213 0.009445 -0.070702 0.196948
    36 0.043235 -1.656596 0.056948 -1.763180 -0.024622 0.013759
    37 0.031729 -1.141298 0.054932 -1.121691 -0.012481 0.006191
    38 -0.963866 -2.785145 -0.085350 0.155044 0.028983 0.042035
    39 0.028479 -1.403067 -0.013261 -0.721813 -0.016035 -0.028308
    40 0.021413 -0.942156 0.012233 -1.001550 -0.026869 -0.034324
    41 1.164475 -2.543940 -0.170330 -0.286751 -0.269704 0.327293
    42 0.024032 -1.152480 -0.009538 -1.491828 0.033341 0.067846
    43 0.014898 -0.895708 -0.019848 -0.755705 0.001882 0.038243
    44 -0.586770 -1.264477 0.200161 -0.480709 -0.775215 -2.389088
    45 1.565805 0.035243 0.016848 -0.018844 -0.006943 0.893494
    46 1.110134 0.040611 -0.005766 -0.033752 -0.033060 1.195823
    47 -0.002676 -0.502335 -0.044199 0.290560 0.059641 1.643449
    48 -8.163208 1.670990 -0.469909 1.567286 -0.035897 -0.228424
  time 1
    0 -5.086093 -7.027772 -4.238411 -0.097784 -0.076917 -1.536706
    1 2.999629 0.000000 1.353194 0.000000 0.000000 1.570798
    2 3.639548 0.000000 3.113282 0.000000 0.000000 1.570798
    3 1.757773 0.000000 1.206649 0.000000 0.000000 1.570798
    4 -1.663432 -0.346000 1.941449 0.000000 0.000000 3.141589
    5 5.324381 -6.566393 -4.214972 0.074588 -0.025950 -1.557543
    6 2.999629 0.000000 1.353194 0.657603 0.000000 1.570798
    7 2.463731 0.000000 3.113282 0.000000 0.000000 1.570798
    8 -1.663432 0.346269 1.941449 0.000000 0.000000 3.141589
    9 1.757773 0.000000 1.206649 0.000000 0.000000 1.570798
    10 -0.002752 8.717751 -1.784592 0.000000 0.000000 0.000000
    11 8.071784 -6.135577 -6.518712 0.538588 -2.317793 -0.639268
    12 8.034731 1.590491 -0.364657 1.568059 -3.118409 0.273394
    13 -0.048483 -8.463579 -0.096321 0.070653 0.374390 -0.130317
    14 -0.488518 -2.755602 -0.228260 -0.434648 0.150360 -0.257287
    15 0.039887 -1.526666 0.010322 -1.357298 -0.013111 0.029747
    16 0.028786 -1.263237 -0.120768 -1.781379 -0.009516 0.040652
    17 0.250027 -2.820665 -0.238396 -0.156951 0.124643 -0.222602
    18 -0.049759 -1.598510 0.041883 -1.435809 0.002613 -0.039072
    19 -0.034142 -1.183469 0.041812 -1.449292 0.002673 -0.038027
    20 0.957766 -2.746780 -0.090302 0.163305 0.113141 0.005480
    21 -0.033420 -1.397129 -0.026882 -0.877176 0.006064 -0.043122
    22 -0.022360 -0.957436 -0.000748 -0.707945 0.007526 -0.034384
    23 -1.180681 -2.507217 -0.193859 -0.276772 0.235764 -0.220698
    24 -0.024967 -1.123934 0.017597 -0.793265 0.006687 -0.033843
    25 -0.020057 -0.906594 0.029622 -0.995434 0.005465 -0.040748
    26 0.583510 -1.193371 0.181473 0.313731 -0.595047 -0.692608
    27 1.516395 -0.153822 0.047979 0.016139 -0.157753 -0.527856
    28 1.007018 -0.182979 0.044010 0.086801 -0.241947 -1.032069
    29 0.038119 -0.319809 -0.031051 0.239607 3.240698 1.548022
    30 -6.751435 -6.692242 -5.126440 0.604256 -4.337389 0.702068
    31 -0.078843 -8.044156 -0.040616 0.111047 -0.074563 -0.056363
    32 0.447953 -2.798986 -0.200443 -0.117835 -0.183226 0.328409
    33 -0.032909 -1.499736 0.036191 -1.759219 0.021968 -0.036827
    34 -0.027022 -1.115984 -0.028023 -0.994625 0.022100 -0.015916
    35 -0.249534 -2.846964 -0.174213 0.009445 -0.070702 0.196948
    36 0.043235 -1.656596 0.056948 -1.763180 -0.024622 0.013759
    37 0.031729 -1.141298 0.054932 -1.121691 -0.012481 0.006191
    38 -0.963866 -2.785145 -0.085350 0.155044 0.028983 0.042035
    39 0.028479 -1.403067 -0.013261 -0.721813 -0.016035 -0.028308
    40 0.021413 -0.942156 0.012233 -1.001550 -0.026869 -0.034324
    41 1.164475 -2.543940 -0.170330 -0.286751 -0.269704 0.327293
    42 0.024032 -1.152480 -0.009538 -1.491828 0.033341 0.067846
    43 0.014898 -0.895708 -0.019848 -0.755705 0.001882 0.038243
    44 -0.586770 -1.264477 0.200161 -0.480709 -0.775215 -2.389088
    45 1.565805 0.035243 0.016848 -0.018844 -0.006943 0.893494
    46 1.110134 0.040611 -0.005766 -0.033752 -0.033060 1.195823
    47 -0.002676 -0.502335 -0.044199 0.290560 0.059641 1.643449
    48 -8.163208 1.670990 -0.469909 1.567286 -0.035897 -0.228233
  time 2
    0 -5.086093 -7.027772 -4.234504 -0.097784 -0.077291 -1.536611
    1 2.999629 0.000000 1.353194 0.000000 0.000000 1.570798
    2 3.639548 0.000000 3.113282 0.000000 0.000000 1.570798
    3 1.757773 0.000000 1.206649 0.000000 0.000000 1.570798
    4 -1.663432 -0.346000 1.941449 0.000000 0.000000 3.141589
    5 5.320475 -6.582018 -4.117313 0.076193 -0.044527 -1.562017
    6 2.999629 0.000000 1.353194 0.657603 0.000000 1.570798
    7 3.077031 0.000000 3.113282 0.000000 0.000000 1.570798
    8 -1.663432 0.346269 1.941449 0.000000 0.000000 3.141589
    9 1.757773 0.000000 1.206649 0.000000 0.000000 1.570798
    10 -0.002752 8.717751 -1.784592 0.000000 0.000000 0.000000
    11 8.071784 -6.186360 -6.483554 0.544904 -2.321966 -0.643028
    12 8.026918 1.649086 -0.360751 1.567963 -3.118505 0.280620
    13 -0.048483 -8.463579 -0.096321 0.072328 0.373314 -0.118344
    14 -0.488518 -2.755602 -0.228260 -0.434648 0.150360 -0.257287
    15 0.039887 -1.526666 0.010322 -1.357298 -0.013111 0.029747
    16 0.028786 -1.263237 -0.120768 -1.781379 -0.009516 0.040652
    17 0.250027 -2.820665 -0.238396 -0.156951 0.124643 -0.222602
    18 -0.049759 -1.598510 0.041883 -1.435809 0.002613 -0.039072
    19 -0.034142 -1.183469 0.041812 -1.449292 0.002673 -0.038027
    20 0.957766 -2.746780 -0.090302 0.163305 0.113141 0.005480
    21 -0.033420 -1.397129 -0.026882 -0.933825 0.005129 -0.045818
    22 -0.022360 -0.957436 -0.000748 -0.707945 0.007526 -0.034384
    23 -1.180681 -2.507217 -0.193859 -0.276772 0.235764 -0.220698
    24 -0.024967 -1.123934 0.017597 -0.793265 0.006687 -0.033843
    25 -0.020057 -0.906594 0.029622 -0.995434 0.005465 -0.040748
    26 0.583510 -1.193371 0.181473 0.313731 -0.595047 -0.692608
    27 1.516395 -0.153822 0.047979 0.016139 -0.157753 -0.527856
    28 1.007018 -0.182979 0.044010 0.086801 -0.241947 -1.032069
    29 0.038119 -0.319809 -0.031051 0.239607 3.240698 1.548022
    30 -6.751435 -6.692242 -5.126440 0.604736 -4.337205 0.702543
    31 -0.078843 -8.044156 -0.040616 0.111010 -0.074524 -0.056494
    32 0.447953 -2.798986 -0.200443 -0.117835 -0.183226 0.328409
    33 -0.032909 -1.499736 0.036191 -1.759219 0.021968 -0.036827
    34 -0.027022 -1.115984 -0.028023 -0.994625 0.022100 -0.015916
    35 -0.249534 -2.846964 -0.174213 0.009445 -0.070702 0.196948
    36 0.043235 -1.656596 0.056948 -1.763180 -0.024622 0.013759
    37 0.031729 -1.141298 0.054932 -1.121691 -0.012481 0.006191
    38 -0.963866 -2.785145 -0.085350 0.155044 0.028983 0.042035
    39 0.028479 -1.403067 -0.013261 -0.721813 -0.016035 -0.028308
    40 0.021413 -0.942156 0.012233 -1.001550 -0.026869 -0.034324
    41 1.164475 -2.543940 -0.170330 -0.286751 -0.269704 0.327293
    42 0.024032 -1.152480 -0.009538 -1.491828 0.033341 0.067846
    43 0.014898 -0.895708 -0.019848 -0.755705 0.001882 0.038243
    44 -0.586770 -1.264477 0.200161 -0.480709 -0.775215 -2.389088
    45 1.565805 0.035243 0.016848 -0.018844 -0.006943 0.893494
    46 1.110134 0.040611 -0.005766 -0.033752 -0.033060 1.195823
    47 -0.002676 -0.502335 -0.044199 0.290560 0.059641 1.643449
    48 -8.163208 1.670990 -0.469909 1.567190 -0.035897 -0.228138
  time 3
    0 -5.086093 -7.027772 -4.230598 -0.097879 -0.077572 -1.536611
    1 2.999629 0.000000 1.353194 0.000000 0.000000 1.570798
    2 3.639548 0.000000 3.113282 0.000000 0.000000 1.570798
    3 1.757773 0.000000 1.206649 0.000000 0.000000 1.570798
    4 -1.663432 -0.346000 1.941449 0.000000 0.000000 3.141589
    5 5.312662 -6.707022 -4.000122 0.077987 -0.066263 -1.565093
    6 2.999629 0.000000 1.353194 0.657603 0.000000 1.570798
    7 4.213784 0.000000 3.113282 0.000000 0.000000 1.570798
    8 -1.663432 0.346269 1.941449 0.000000 0.000000 3.141589
    9 1.757773 0.000000 1.206649 0.000000 0.000000 1.570798
    10 -0.002752 8.717751 -1.784592 0.000000 0.000000 0.000000
    11 8.044440 -6.330895 -6.401521 0.549689 -2.325096 -0.643216
    12 7.999573 1.860030 -0.360751 1.567675 -3.118984 0.306766
    13 -0.052389 -8.467485 -0.096321 0.074273 0.372032 -0.104688
    14 -0.488518 -2.755602 -0.228260 -0.434648 0.150360 -0.257287
    15 0.039887 -1.526666 0.010322 -1.357298 -0.013111 0.029747
    16 0.028786 -1.263237 -0.120768 -1.781379 -0.009516 0.040652
    17 0.250027 -2.820665 -0.238396 -0.156951 0.124643 -0.222602
    18 -0.049759 -1.598510 0.041883 -1.435809 0.002613 -0.039072
    19 -0.034142 -1.183469 0.041812 -1.449292 0.002673 -0.038027
    20 0.957766 -2.746780 -0.090302 0.163305 0.113141 0.005480
    21 -0.033420 -1.397129 -0.026882 -0.937097 0.005069 -0.045974
    22 -0.022360 -0.957436 -0.000748 -0.707945 0.007526 -0.034384
    23 -1.180681 -2.507217 -0.193859 -0.276772 0.235764 -0.220698
    24 -0.024967 -1.123934 0.017597 -0.793265 0.006687 -0.033843
    25 -0.020057 -0.906594 0.029622 -0.995434 0.005465 -0.040748
    26 0.583510 -1.193371 0.181473 0.313731 -0.595047 -0.692608
    27 1.516395 -0.153822 0.047979 0.016139 -0.157753 -0.527856
    28 1.007018 -0.182979 0.044010 0.086801 -0.241947 -1.032069
    29 0.038119 -0.319809 -0.031051 0.239607 3.240698 1.548022
    30 -6.751435 -6.692242 -5.122533 0.605215 -4.337112 0.703019
    31 -0.078843 -8.044156 -0.040616 0.111010 -0.074524 -0.056582
    32 0.447953 -2.798986 -0.200443 -0.117835 -0.183226 0.328409
    33 -0.032909 -1.499736 0.036191 -1.759219 0.021968 -0.036827
    34 -0.027022 -1.115984 -0.028023 -0.994625 0.022100 -0.015916
    35 -0.249534 -2.846964 -0.174213 0.009445 -0.070702 0.196948
    36 0.043235 -1.656596 0.056948 -1.763180 -0.024622 0.013759
    37 0.031729 -1.141298 0.054932 -1.121691 -0.012481 0.006191
    38 -0.963866 -2.785145 -0.085350 0.155044 0.028983 0.042035
    39 0.028479 -1.403067 -0.013261 -0.721813 -0.016035 -0.028308
    40 0.021413 -0.942156 0.012233 -1.001550 -0.026869 -0.034324
    41 1.164475 -2.543940 -0.170330 -0.286751 -0.269704 0.327293
    42 0.024032 -1.152480 -0.009538 -1.491828 0.033341 0.067846
    43 0.014898 -0.895708 -0.019848 -0.755705 0.001882 0.038243
    44 -0.586770 -1.264477 0.200161 -0.480709 -0.775215 -2.389088
    45 1.565805 0.035243 0.016848 -0.018844 -0.006943 0.893494
    46 1.110134 0.040611 -0.005766 -0.033752 -0.033060 1.195823
    47 -0.002676 -0.502335 -0.044199 0.290560 0.059641 1.643449
    48 -8.163208 1.667083 -0.469909 1.567190 -0.035897 -0.227948
  time 4
    0 -5.086093 -7.027772 -4.230598 -0.097879 -0.077853 -1.536515
    1 2.999629 0.000000 1.353194 0.000000 0.000000 1.570798
    2 3.639548 0.000000 3.113282 0.000000 0.000000 1.570798
    3 1.757773 0.000000 1.206649 0.000000 0.000000 1.570798
    4 -1.663432 -0.346000 1.941449 0.000000 0.000000 3.141589
    5 5.308756 -6.828120 -3.949339 0.078648 -0.078903 -1.565279
    6 2.999629 0.000000 1.353194 0.657603 0.000000 1.570798
    7 4.827084 0.000000 3.113282 0.000000 0.000000 1.570798
    8 -1.663432 0.346269 1.941449 0.000000 0.000000 3.141589
    9 1.757773 0.000000 1.206649 0.000000 0.000000 1.570798
    10 -0.002752 8.717751 -1.784592 0.000000 0.000000 0.000000
    11 8.017095 -6.448087 -6.339019 0.550359 -2.325665 -0.640772
    12 7.972229 2.047536 -0.356844 1.567484 -3.119463 0.329774
    13 -0.052389 -8.467485 -0.096321 0.075138 0.371417 -0.098562
    14 -0.488518 -2.755602 -0.228260 -0.434648 0.150360 -0.257287
    15 0.039887 -1.526666 0.010322 -1.357298 -0.013111 0.029747
    16 0.028786 -1.263237 -0.120768 -1.781379 -0.009516 0.040652
    17 0.250027 -2.820665 -0.238396 -0.156951 0.124643 -0.222602
    18 -0.049759 -1.598510 0.041883 -1.435809 0.002613 -0.039072
    19 -0.034142 -1.183469 0.041812 -1.449292 0.002673 -0.038027
    20 0.957766 -2.746780 -0.090302 0.163305 0.113141 0.005480
    21 -0.033420 -1.397129 -0.026882 -0.903302 0.005657 -0.044368
    22 -0.022360 -0.957436 -0.000748 -0.707945 0.007526 -0.034384
    23 -1.180681 -2.507217 -0.193859 -0.276772 0.235764 -0.220698
    24 -0.024967 -1.123934 0.017597 -0.793265 0.006687 -0.033843
    25 -0.020057 -0.906594 0.029622 -0.995434 0.005465 -0.040748
    26 0.583510 -1.193371 0.181473 0.313731 -0.595047 -0.692608
    27 1.516395 -0.153822 0.047979 0.016139 -0.157753 -0.527856
    28 1.007018 -0.182979 0.044010 0.086801 -0.241947 -1.032069
    29 0.038119 -0.319809 -0.031051 0.239607 3.240698 1.548022
    30 -6.751435 -6.692242 -5.122533 0.605598 -4.337020 0.703399
    31 -0.078843 -8.044156 -0.040616 0.110973 -0.074524 -0.056670
    32 0.447953 -2.798986 -0.200443 -0.117835 -0.183226 0.328409
    33 -0.032909 -1.499736 0.036191 -1.759219 0.021968 -0.036827
    34 -0.027022 -1.115984 -0.028023 -0.994625 0.022100 -0.015916
    35 -0.249534 -2.846964 -0.174213 0.009445 -0.070702 0.196948
    36 0.043235 -1.656596 0.056948 -1.763180 -0.024622 0.013759
    37 0.031729 -1.141298 0.054932 -1.121691 -0.012481 0.006191
    38 -0.963866 -2.785145 -0.085350 0.155044 0.028983 0.042035
    39 0.028479 -1.403067 -0.013261 -0.721813 -0.016035 -0.028308
    40 0.021413 -0.942156 0.012233 -1.001550 -0.026869 -0.034324
    41 1.164475 -2.543940 -0.170330 -0.286751 -0.269704 0.327293
    42 0.024032 -1.152480 -0.009538 -1.491828 0.033341 0.067846
    43 0.014898 -0.895708 -0.019848 -0.755705 0.001882 0.038243
    44 -0.586770 -1.264477 0.200161 -0.480709 -0.775215 -2.389088
    45 1.565805 0.035243 0.016848 -0.018844 -0.006943 0.893494
    46 1.110134 0.040611 -0.005766 -0.033752 -0.033060 1.195823
    47 -0.002676 -0.502335 -0.044199 0.290560 0.059641 1.643449
    48 -8.163208 1.667083 -0.469909 1.567190 -0.035897 -0.227853
  time 5
    0 -5.086093 -7.027772 -4.226691 -0.097879 -0.078040 -1.536515
    1 2.999629 0.000000 1.353194 0.000000 0.000000 1.570798
    2 3.639548 0.000000 3.113282 0.000000 0.000000 1.570798
    3 1.757773 0.000000 1.206649 0.000000 0.000000 1.570798
    4 -1.663432 -0.346000 1.941449 0.000000 0.000000 3.141589
    5 5.312662 -6.914060 -3.953246 0.075438 -0.080435 -1.562110
    6 2.999629 0.000000 1.353194 0.589219 0.000000 1.570798
    7 4.233316 0.000000 3.113282 0.000000 0.000000 1.570798
    8 -1.663432 0.346269 1.941449 0.000000 0.000000 3.141589
    9 1.757773 0.000000 1.206649 0.000000 0.000000 1.570798
    10 -0.002752 8.717751 -1.784592 0.000000 0.000000 0.000000
    11 7.997563 -6.510588 -6.311674 0.548636 -2.324621 -0.637857
    12 7.956603 2.149102 -0.352938 1.567388 -3.119655 0.342705
    13 -0.052389 -8.467485 -0.096321 0.076002 0.374390 -0.101321
    14 -0.488518 -2.755602 -0.228260 -0.434648 0.150360 -0.257287
    15 0.039887 -1.526666 0.010322 -1.357298 -0.013111 0.029747
    16 0.028786 -1.263237 -0.120768 -1.781379 -0.009516 0.040652
    17 0.250027 -2.820665 -0.238396 -0.156951 0.124643 -0.222602
    18 -0.049759 -1.598510 0.041883 -1.435809 0.002613 -0.039072
    19 -0.034142 -1.183469 0.041812 -1.449292 0.002673 -0.038027
    20 0.957766 -2.746780 -0.090302 0.163305 0.113141 0.005480
    21 -0.033420 -1.397129 -0.026882 -0.828093 0.006747 -0.040737
    22 -0.022360 -0.957436 -0.000748 -0.707945 0.007526 -0.034384
    23 -1.180681 -2.507217 -0.193859 -0.276772 0.235764 -0.220698
    24 -0.024967 -1.123934 0.017597 -0.793265 0.006687 -0.033843
    25 -0.020057 -0.906594 0.029622 -0.995434 0.005465 -0.040748
    26 0.583510 -1.193371 0.181473 0.313731 -0.595047 -0.692608
    27 1.516395 -0.153822 0.047979 0.016139 -0.157753 -0.527856
    28 1.007018 -0.182979 0.044010 0.086801 -0.241947 -1.032069
    29 0.038119 -0.319809 -0.031051 0.239607 3.240698 1.548022
    30 -6.751435 -6.692242 -5.122533 0.605886 -4.336927 0.703589
    31 -0.078843 -8.044156 -0.040616 0.110973 -0.074524 -0.056670
    32 0.447953 -2.798986 -0.200443 -0.117835 -0.183226 0.328409
    33 -0.032909 -1.499736 0.036191 -1.759219 0.021968 -0.036827
    34 -0.027022 -1.115984 -0.028023 -0.994625 0.022100 -0.015916
    35 -0.249534 -2.846964 -0.174213 0.009445 -0.070702 0.196948
    36 0.043235 -1.656596 0.056948 -1.763180 -0.024622 0.013759
    37 0.031729 -1.141298 0.054932 -1.121691 -0.012481 0.006191
    38 -0.963866 -2.785145 -0.085350 0.155044 0.028983 0.042035
    39 0.028479 -1.403067 -0.013261 -0.721813 -0.016035 -0.028308
    40 0.021413 -0.942156 0.012233 -1.001550 -0.026869 -0.034324
    41 1.164475 -2.543940 -0.170330 -0.286751 -0.269704 0.327293
    42 0.024032 -1.152480 -0.009538 -1.491828 0.033341 0.067846
    43 0.014898 -0.895708 -0.019848 -0.755705 0.001882 0.038243
    44 -0.586770 -1.264477 0.200161 -0.480709 -0.775215 -2.389088
    45 1.565805 0.035243 0.016848 -0.018844 -0.006943 0.893525
    46 1.110134 0.040611 -0.005766 -0.033752 -0.033060 1.195823
    47 -0.002676 -0.502335 -0.044199 0.290560 0.059641 1.643449
    48 -8.163208 1.667083 -0.469909 1.567190 -0.035897 -0.227757
  time 6
    0 -5.086093 -7.027772 -4.226691 -0.097879 -0.078133 -1.536515
    1 2.999629 0.000000 1.353194 0.000000 0.000000 1.570798
    2 3.639548 0.000000 3.113282 0.000000 0.000000 1.570798
    3 1.757773 0.000000 1.206649 0.000000 0.000000 1.570798
    4 -1.663432 -0.346000 1.941449 0.000000 0.000000 3.141589
    5 5.320475 -6.988281 -3.968871 0.069867 -0.073637 -1.556704
    6 2.999629 0.000000 1.353194 0.426134 0.000000 1.570798
    7 3.639548 0.000000 3.113282 0.000000 0.000000 1.570798
    8 -1.663432 0.346269 1.941449 0.000000 0.000000 3.141589
    9 1.757773 0.000000 1.206649 0.000000 0.000000 1.570798
    10 -0.002752 8.717751 -1.784592 0.000000 0.000000 0.000000
    11 7.978032 -6.557465 -6.292142 0.545478 -2.322725 -0.634097
    12 7.937071 2.238948 -0.352938 1.567196 -3.119847 0.353639
    13 -0.048483 -8.467485 -0.096321 0.077137 0.379466 -0.108336
    14 -0.488518 -2.755602 -0.228260 -0.434648 0.150360 -0.257287
    15 0.039887 -1.526666 0.010322 -1.357298 -0.013111 0.029747
    16 0.028786 -1.263237 -0.120768 -1.781379 -0.009516 0.040652
    17 0.250027 -2.820665 -0.238396 -0.156951 0.124643 -0.222602
    18 -0.049759 -1.598510 0.041883 -1.435809 0.002613 -0.039072
    19 -0.034142 -1.183469 0.041812 -1.449292 0.002673 -0.038027
    20 0.957766 -2.746780 -0.090302 0.163305 0.113141 0.005480
    21 -0.033420 -1.393223 -0.022976 -0.720111 0.007850 -0.035391
    22 -0.022360 -0.957436 -0.000748 -0.707945 0.007526 -0.034384
    23 -1.180681 -2.507217 -0.193859 -0.276772 0.235764 -0.220698
    24 -0.024967 -1.123934 0.017597 -0.793265 0.006687 -0.033843
    25 -0.020057 -0.906594 0.029622 -0.995434 0.005465 -0.040748
    26 0.583510 -1.193371 0.181473 0.313731 -0.595047 -0.692608
    27 1.516395 -0.153822 0.047979 0.016139 -0.157753 -0.527856
    28 1.007018 -0.182979 0.044010 0.086801 -0.241947 -1.032069
    29 0.038119 -0.319809 -0.031051 0.239607 3.240698 1.548022
    30 -6.751435 -6.696148 -5.122533 0.606078 -4.336835 0.703874
    31 -0.078843 -8.044156 -0.040616 0.110973 -0.074524 -0.056670
    32 0.447953 -2.798986 -0.200443 -0.117835 -0.183226 0.328409
    33 -0.032909 -1.499736 0.036191 -1.759219 0.021968 -0.036827
    34 -0.027022 -1.115984 -0.028023 -0.994625 0.022100 -0.015916
    35 -0.249534 -2.846964 -0.174213 0.009445 -0.070702 0.196948
    36 0.043235 -1.656596 0.056948 -1.763180 -0.024622 0.013759
    37 0.031729 -1.141298 0.054932 -1.121691 -0.012481 0.006191
    38 -0.963866 -2.785145 -0.085350 0.155044 0.028983 0.042035
    39 0.028479 -1.403067 -0.013261 -0.721813 -0.016035 -0.028308
    40 0.021413 -0.942156 0.012233 -1.001550 -0.026869 -0.034324
    41 1.164475 -2.543940 -0.170330 -0.286751 -0.269704 0.327293
    42 0.024032 -1.152480 -0.009538 -1.491828 0.033341 0.067846
    43 0.014898 -0.895708 -0.019848 -0.755705 0.001882 0.038243
    44 -0.586770 -1.264477 0.200161 -0.480709 -0.775215 -2.389088
    45 1.565805 0.035243 0.016848 -0.018844 -0.006943 0.893494
    46 1.110134 0.040611 -0.005766 -0.033752 -0.033060 1.195823
    47 -0.002676 -0.502335 -0.044199 0.290560 0.059641 1.643449
    48 -8.163208 1.667083 -0.469909 1.567190 -0.035897 -0.227757
  time 7
    0 -5.086093 -7.027772 -4.226691 -0.097879 -0.078133 -1.536515
    1 2.999629 0.000000 1.353194 0.000000 0.000000 1.570798
    2 3.639548 0.000000 3.113282 0.000000 0.000000 1.570798
    3 1.757773 0.000000 1.206649 0.000000 0.000000 1.570798
    4 -1.663432 -0.346000 1.941449 0.000000 0.000000 3.141589
    5 5.324381 -7.058596 -4.043092 0.067507 -0.057167 -1.550274
    6 2.999629 0.000000 1.353194 0.231469 0.000000 1.570798
    7 3.639548 0.000000 3.113282 0.000000 0.000000 1.570798
    8 -1.663432 0.346269 1.941449 0.000000 0.000000 3.141589
    9 1.757773 0.000000 1.206649 0.000000 0.000000 1.570798
    10 -0.002752 8.717751 -1.784592 0.000000 0.000000 0.000000
    11 7.962406 -6.588716 -6.292142 0.538014 -2.318267 -0.627329
    12 7.925352 2.313169 -0.352938 1.567196 -3.120038 0.363146
    13 -0.048483 -8.463579 -0.096321 0.075948 0.381466 -0.119607
    14 -0.488518 -2.755602 -0.228260 -0.434648 0.150360 -0.257287
    15 0.039887 -1.526666 0.010322 -1.357298 -0.013111 0.029747
    16 0.028786 -1.263237 -0.120768 -1.781379 -0.009516 0.040652
    17 0.250027 -2.820665 -0.238396 -0.156951 0.124643 -0.222602
    18 -0.049759 -1.598510 0.041883 -1.435809 0.002613 -0.039072
    19 -0.034142 -1.183469 0.041812 -1.449292 0.002673 -0.038027
    20 0.957766 -2.746780 -0.090302 0.163305 0.113141 0.005480
    21 -0.033420 -1.393223 -0.019070 -0.615043 0.008365 -0.030118
    22 -0.022360 -0.957436 -0.000748 -0.707945 0.007526 -0.034384
    23 -1.180681 -2.507217 -0.193859 -0.276772 0.235764 -0.220698
    24 -0.024967 -1.123934 0.017597 -0.793265 0.006687 -0.033843
    25 -0.020057 -0.906594 0.029622 -0.995434 0.005465 -0.040748
    26 0.583510 -1.193371 0.181473 0.313731 -0.595047 -0.692608
    27 1.516395 -0.153822 0.047979 0.016139 -0.157753 -0.527856
    28 1.007018 -0.182979 0.044010 0.086801 -0.241947 -1.032069
    29 0.038119 -0.319809 -0.031051 0.239607 3.240698 1.548022
    30 -6.751435 -6.696148 -5.122533 0.606173 -4.336742 0.703969
    31 -0.078843 -8.044156 -0.040616 0.110973 -0.074524 -0.056670
    32 0.447953 -2.798986 -0.200443 -0.117835 -0.183226 0.328409
    33 -0.032909 -1.499736 0.036191 -1.759219 0.021968 -0.036827
    34 -0.027022 -1.115984 -0.028023 -0.994625 0.022100 -0.015916
    35 -0.249534 -2.846964 -0.174213 0.009445 -0.070702 0.196948
    36 0.043235 -1.656596 0.056948 -1.763180 -0.024622 0.013759
    37 0.031729 -1.141298 0.054932 -1.121691 -0.012481 0.006191
    38 -0.963866 -2.785145 -0.085350 0.155044 0.028983 0.042035
    39 0.028479 -1.403067 -0.013261 -0.721813 -0.016035 -0.028308
    40 0.021413 -0.942156 0.012233 -1.001550 -0.026869 -0.034324
    41 1.164475 -2.543940 -0.170330 -0.286751 -0.269704 0.327293
    42 0.024032 -1.152480 -0.009538 -1.491828 0.033341 0.067846
    43 0.014898 -0.895708 -0.019848 -0.755705 0.001882 0.038243
    44 -0.586770 -1.264477 0.200161 -0.480709 -0.775215 -2.389088
    45 1.565805 0.035243 0.016848 -0.018844 -0.006943 0.893494
    46 1.110134 0.040611 -0.005766 -0.033752 -0.033060 1.195823
    47 -0.002676 -0.502335 -0.044199 0.290560 0.059641 1.643449
    48 -8.163208 1.667083 -0.469909 1.567190 -0.035897 -0.227662
  time 8
    0 -5.086093 -7.027772 -4.226691 -0.097879 -0.078133 -1.536515
    1 2.999629 0.000000 1.353194 0.000000 0.000000 1.570798
    2 3.639548 0.000000 3.113282 0.000000 0.000000 1.570798
    3 1.757773 0.000000 1.206649 0.000000 0.000000 1.570798
    4 -1.663432 -0.346000 1.941449 0.000000 0.000000 3.141589
    5 5.324381 -7.128910 -4.218879 0.074210 -0.030642 -1.544216
    6 2.999629 0.000000 1.353194 0.068384 0.000000 1.570798
    7 3.639548 0.000000 3.113282 0.000000 0.000000 1.570798
    8 -1.663432 0.346269 1.941449 0.000000 0.000000 3.141589
    9 1.757773 0.000000 1.206649 0.000000 0.000000 1.570798
    10 -0.002752 8.717751 -1.784592 0.000000 0.000000 0.000000
    11 7.942874 -6.584809 -6.323393 0.523085 -2.309542 -0.615108
    12 7.909727 2.383484 -0.349031 1.567100 -3.120230 0.371798
    13 -0.048483 -8.459673 -0.096321 0.070004 0.374852 -0.135087
    14 -0.488518 -2.755602 -0.228260 -0.434648 0.150360 -0.257287
    15 0.039887 -1.526666 0.010322 -1.357298 -0.013111 0.029747
    16 0.028786 -1.263237 -0.120768 -1.781379 -0.009516 0.040652
    17 0.250027 -2.820665 -0.238396 -0.156951 0.124643 -0.222602
    18 -0.049759 -1.598510 0.041883 -1.435809 0.002613 -0.039072
    19 -0.034142 -1.183469 0.041812 -1.449292 0.002673 -0.038027
    20 0.957766 -2.746780 -0.090302 0.163305 0.113141 0.005480
    21 -0.033420 -1.393223 -0.019070 -0.548424 0.008389 -0.026751
    22 -0.022360 -0.957436 -0.000748 -0.707945 0.007526 -0.034384
    23 -1.180681 -2.507217 -0.193859 -0.276772 0.235764 -0.220698
    24 -0.024967 -1.123934 0.017597 -0.793265 0.006687 -0.033843
    25 -0.020057 -0.906594 0.029622 -0.995434 0.005465 -0.040748
    26 0.583510 -1.193371 0.181473 0.313731 -0.595047 -0.692608
    27 1.516395 -0.153822 0.047979 0.016139 -0.157753 -0.527856
    28 1.007018 -0.182979 0.044010 0.086801 -0.241947 -1.032069
    29 0.038119 -0.319809 -0.031051 0.239607 3.240698 1.548022
    30 -6.751435 -6.696148 -5.122533 0.606269 -4.336742 0.703969
    31 -0.078843 -8.044156 -0.040616 0.110973 -0.074524 -0.056626
    32 0.447953 -2.798986 -0.200443 -0.117835 -0.183226 0.328409
    33 -0.032909 -1.499736 0.036191 -1.759219 0.021968 -0.036827
    34 -0.027022 -1.115984 -0.028023 -0.994625 0.022100 -0.015916
    35 -0.249534 -2.846964 -0.174213 0.009445 -0.070702 0.196948
    36 0.043235 -1.656596 0.056948 -1.763180 -0.024622 0.013759
    37 0.031729 -1.141298 0.054932 -1.121691 -0.012481 0.006191
    38 -0.963866 -2.785145 -0.085350 0.155044 0.028983 0.042035
    39 0.028479 -1.403067 -0.013261 -0.721813 -0.016035 -0.028308
    40 0.021413 -0.942156 0.012233 -1.001550 -0.026869 -0.034324
    41 1.164475 -2.543940 -0.170330 -0.286751 -0.269704 0.327293
    42 0.024032 -1.152480 -0.009538 -1.491828 0.033341 0.067846
    43 0.014898 -0.895708 -0.019848 -0.755705 0.001882 0.038243
    44 -0.586770 -1.264477 0.200161 -0.480709 -0.775215 -2.389088
    45 1.565805 0.035243 0.016848 -0.018844 -0.006943 0.893494
    46 1.110134 0.040611 -0.005766 -0.033752 -0.033060 1.195823
    47 -0.002676 -0.502335 -0.044199 0.290560 0.059641 1.643449
    48 -8.163208 1.667083 -0.469909 1.567190 -0.035897 -0.227662
  time 9
    0 -5.086093 -7.027772 -4.226691 -0.097879 -0.078040 -1.536611
    1 2.999629 0.000000 1.353194 0.000000 0.000000 1.570798
    2 3.639548 0.000000 3.113282 0.000000 0.000000 1.570798
    3 1.757773 0.000000 1.206649 0.000000 0.000000 1.570798
    4 -1.663432 -0.346000 1.941449 0.000000 0.000000 3.141589
    5 5.316568 -7.195318 -4.519669 0.092055 0.008235 -1.538064
    6 2.999629 0.000000 1.353194 0.000000 0.000000 1.570798
    7 3.639548 0.000000 3.113282 0.000000 0.000000 1.570798
    8 -1.663432 0.346269 1.941449 0.000000 0.000000 3.141589
    9 1.757773 0.000000 1.206649 0.000000 0.000000 1.570798
    10 -0.002752 8.717751 -1.784592 0.000000 0.000000 0.000000
    11 7.923342 -6.545746 -6.385895 0.498395 -2.295696 -0.595368
    12 7.894101 2.449892 -0.349031 1.567004 -3.120422 0.380260
    13 -0.052389 -8.455766 -0.096321 0.058548 0.357677 -0.155806
    14 -0.488518 -2.755602 -0.228260 -0.434648 0.150360 -0.257287
    15 0.039887 -1.526666 0.010322 -1.357298 -0.013111 0.029747
    16 0.028786 -1.263237 -0.120768 -1.781379 -0.009516 0.040652
    17 0.250027 -2.820665 -0.238396 -0.156951 0.124643 -0.222602
    18 -0.049759 -1.598510 0.041883 -1.435809 0.002613 -0.039072
    19 -0.034142 -1.183469 0.041812 -1.449292 0.002673 -0.038027
    20 0.957766 -2.746780 -0.090302 0.163305 0.113141 0.005480
    21 -0.033420 -1.393223 -0.019070 -0.523780 0.008353 -0.025504
    22 -0.022360 -0.957436 -0.000748 -0.707945 0.007526 -0.034384
    23 -1.180681 -2.507217 -0.193859 -0.276772 0.235764 -0.220698
    24 -0.024967 -1.123934 0.017597 -0.793265 0.006687 -0.033843
    25 -0.020057 -0.906594 0.029622 -0.995434 0.005465 -0.040748
    26 0.583510 -1.193371 0.181473 0.313731 -0.595047 -0.692608
    27 1.516395 -0.153822 0.047979 0.016139 -0.157753 -0.527856
    28 1.007018 -0.182979 0.044010 0.086801 -0.241947 -1.032069
    29 0.038119 -0.319809 -0.031051 0.239607 3.240698 1.548022
    30 -6.751435 -6.696148 -5.122533 0.606269 -4.336742 0.703969
    31 -0.078843 -8.044156 -0.040616 0.111010 -0.074524 -0.056582
    32 0.447953 -2.798986 -0.200443 -0.117835 -0.183226 0.328409
    33 -0.032909 -1.499736 0.036191 -1.759219 0.021968 -0.036827
    34 -0.027022 -1.115984 -0.028023 -0.994625 0.022100 -0.015916
    35 -0.249534 -2.846964 -0.174213 0.009445 -0.070702 0.196948
    36 0.043235 -1.656596 0.056948 -1.763180 -0.024622 0.013759
    37 0.031729 -1.141298 0.054932 -1.121691 -0.012481 0.006191
    38 -0.963866 -2.785145 -0.085350 0.155044 0.028983 0.042035
    39 0.028479 -1.403067 -0.013261 -0.721813 -0.016035 -0.028308
    40 0.021413 -0.942156 0.012233 -1.001550 -0.026869 -0.034324
    41 1.164475 -2.543940 -0.170330 -0.286751 -0.269704 0.327293
    42 0.024032 -1.152480 -0.009538 -1.491828 0.033341 0.067846
    43 0.014898 -0.895708 -0.019848 -0.755705 0.001882 0.038243
    44 -0.586770 -1.264477 0.200161 -0.480709 -0.775215 -2.389088
    45 1.565805 0.035243 0.016848 -0.018844 -0.006943 0.893525
    46 1.110134 0.040611 -0.005766 -0.033752 -0.033060 1.195823
    47 -0.002676 -0.502335 -0.044199 0.290560 0.059641 1.643449
    48 -8.163208 1.667083 -0.469909 1.567190 -0.035897 -0.227662
  time 10
    0 -5.086093 -7.027772 -4.226691 -0.097879 -0.078040 -1.536611
    1 2.999629 0.000000 1.353194 0.000000 0.000000 1.570798
    2 3.639548 0.000000 3.113282 0.000000 0.000000 1.570798
    3 1.757773 0.000000 1.206649 0.000000 0.000000 1.570798
    4 -1.663432 -0.346000 1.941449 0.000000 0.000000 3.141589
    5 5.308756 -7.250008 -4.918119 0.116980 0.056592 -1.530795
    6 2.999629 0.000000 1.353194 0.000000 0.000000 1.570798
    7 3.639548 0.000000 3.113282 0.000000 0.000000 1.570798
    8 -1.663432 0.346269 1.941449 0.000000 0.000000 3.141589
    9 1.757773 0.000000 1.206649 0.000000 0.000000 1.570798
    10 -0.002752 8.717751 -1.784592 0.000000 0.000000 0.000000
    11 7.903811 -6.487150 -6.471835 0.465761 -2.278625 -0.569328
    12 7.882382 2.516300 -0.349031 1.566908 -3.120518 0.388436
    13 -0.056296 -8.451860 -0.100228 0.044067 0.333887 -0.180640
    14 -0.488518 -2.755602 -0.228260 -0.434648 0.150360 -0.257287
    15 0.039887 -1.526666 0.010322 -1.357298 -0.013111 0.029747
    16 0.028786 -1.263237 -0.120768 -1.781379 -0.009516 0.040652
    17 0.250027 -2.820665 -0.238396 -0.156951 0.124643 -0.222602
    18 -0.049759 -1.598510 0.041883 -1.435809 0.002613 -0.039072
    19 -0.034142 -1.183469 0.041812 -1.449292 0.002673 -0.038027
    20 0.957766 -2.746780 -0.090302 0.163305 0.113141 0.005480
    21 -0.033420 -1.393223 -0.019070 -0.516878 0.008329 -0.025157
    22 -0.022360 -0.957436 -0.000748 -0.707945 0.007526 -0.034384
    23 -1.180681 -2.507217 -0.193859 -0.276772 0.235764 -0.220698
    24 -0.024967 -1.123934 0.017597 -0.793265 0.006687 -0.033843
    25 -0.020057 -0.906594 0.029622 -0.995434 0.005465 -0.040748
    26 0.583510 -1.193371 0.181473 0.313731 -0.595047 -0.692608
    27 1.516395 -0.153822 0.047979 0.016139 -0.157753 -0.527856
    28 1.007018 -0.182979 0.044010 0.086801 -0.241947 -1.032069
    29 0.038119 -0.319809 -0.031051 0.239607 3.240698 1.548022
    30 -6.751435 -6.696148 -5.122533 0.606173 -4.336742 0.703969
    31 -0.078843 -8.044156 -0.040616 0.111010 -0.074524 -0.056494
    32 0.447953 -2.798986 -0.200443 -0.117835 -0.183226 0.328409
    33 -0.032909 -1.499736 0.036191 -1.759219 0.021968 -0.036827
    34 -0.027022 -1.115984 -0.028023 -0.994625 0.022100 -0.015916
    35 -0.249534 -2.846964 -0.174213 0.009445 -0.070702 0.196948
    36 0.043235 -1.656596 0.056948 -1.763180 -0.024622 0.013759
    37 0.031729 -1.141298 0.054932 -1.121691 -0.012481 0.006191
    38 -0.963866 -2.785145 -0.085350 0.155044 0.028983 0.042035
    39 0.028479 -1.403067 -0.013261 -0.721813 -0.016035 -0.028308
    40 0.021413 -0.942156 0.012233 -1.001550 -0.026869 -0.034324
    41 1.164475 -2.543940 -0.170330 -0.286751 -0.269704 0.327293
    42 0.024032 -1.152480 -0.009538 -1.491828 0.033341 0.067846
    43 0.014898 -0.895708 -0.019848 -0.755705 0.001882 0.038243
    44 -0.586770 -1.264477 0.200161 -0.480709 -0.775215 -2.389088
    45 1.565805 0.035243 0.016848 -0.018844 -0.006943 0.893494
    46 1.110134 0.040611 -0.005766 -0.033752 -0.033060 1.195823
    47 -0.002676 -0.502335 -0.044199 0.290560 0.059641 1.643449
    48 -8.163208 1.667083 -0.469909 1.567190 -0.035897 -0.227662
  time 11
    0 -5.086093 -7.027772 -4.226691 -0.097879 -0.077853 -1.536611
    1 2.999629 0.000000 1.353194 0.000000 0.000000 1.570798
    2 3.639548 0.000000 3.113282 0.000000 0.000000 1.570798
    3 1.757773 0.000000 1.206649 0.000000 0.000000 1.570798
    4 -1.663432 -0.346000 1.941449 0.000000 0.000000 3.141589
    5 5.300943 -7.289071 -5.359539 0.145777 0.108588 -1.522966
    6 2.999629 0.000000 1.353194 0.000000 0.000000 1.570798
    7 3.639548 0.000000 3.113282 0.000000 0.000000 1.570798
    8 -1.663432 0.346269 1.941449 0.000000 0.000000 3.141589
    9 1.757773 0.000000 1.206649 0.000000 0.000000 1.570798
    10 -0.002752 8.717751 -1.784592 0.000000 0.000000 0.000000
    11 7.884279 -6.409023 -6.565588 0.428439 -2.260700 -0.539341
    12 7.866757 2.578802 -0.345125 1.566812 -3.120710 0.396233
    13 -0.060202 -8.444047 -0.104134 0.028828 0.306663 -0.206643
    14 -0.488518 -2.755602 -0.228260 -0.434648 0.150360 -0.257287
    15 0.039887 -1.526666 0.010322 -1.357298 -0.013111 0.029747
    16 0.028786 -1.263237 -0.120768 -1.781379 -0.009516 0.040652
    17 0.250027 -2.820665 -0.238396 -0.156951 0.124643 -0.222602
    18 -0.049759 -1.598510 0.041883 -1.435809 0.002613 -0.039072
    19 -0.034142 -1.183469 0.041812 -1.449292 0.002673 -0.038027
    20 0.957766 -2.746780 -0.090302 0.163305 0.113141 0.005480
    21 -0.033420 -1.393223 -0.019070 -0.521786 0.008341 -0.025408
    22 -0.022360 -0.957436 -0.000748 -0.707945 0.007526 -0.034384
    23 -1.180681 -2.507217 -0.193859 -0.276772 0.235764 -0.220698
    24 -0.024967 -1.123934 0.017597 -0.793265 0.006687 -0.033843
    25 -0.020057 -0.906594 0.029622 -0.995434 0.005465 -0.040748
    26 0.583510 -1.193371 0.181473 0.313731 -0.595047 -0.692608
    27 1.516395 -0.153822 0.047979 0.016139 -0.157753 -0.527856
    28 1.007018 -0.182979 0.044010 0.086801 -0.241947 -1.032069
    29 0.038119 -0.319809 -0.031051 0.239607 3.240698 1.548022
    30 -6.751435 -6.696148 -5.122533 0.606078 -4.336835 0.703874
    31 -0.078843 -8.044156 -0.040616 0.111010 -0.074563 -0.056451
    32 0.447953 -2.798986 -0.200443 -0.117835 -0.183226 0.328409
    33 -0.032909 -1.499736 0.036191 -1.759219 0.021968 -0.036827
    34 -0.027022 -1.115984 -0.028023 -0.994625 0.022100 -0.015916
    35 -0.249534 -2.846964 -0.174213 0.009445 -0.070702 0.196948
    36 0.043235 -1.656596 0.056948 -1.763180 -0.024622 0.013759
    37 0.031729 -1.141298 0.054932 -1.121691 -0.012481 0.006191
    38 -0.963866 -2.785145 -0.085350 0.155044 0.028983 0.042035
    39 0.028479 -1.403067 -0.013261 -0.721813 -0.016035 -0.028308
    40 0.021413 -0.942156 0.012233 -1.001550 -0.026869 -0.034324
    41 1.164475 -2.543940 -0.170330 -0.286751 -0.269704 0.327293
    42 0.024032 -1.152480 -0.009538 -1.491828 0.033341 0.067846
    43 0.014898 -0.895708 -0.019848 -0.755705 0.001882 0.038243
    44 -0.586770 -1.264477 0.200161 -0.480709 -0.775215 -2.389088
    45 1.565805 0.035243 0.016848 -0.018844 -0.006943 0.893525
    46 1.110134 0.040611 -0.005766 -0.033752 -0.033060 1.195823
    47 -0.002676 -0.502335 -0.044199 0.290560 0.059641 1.643449
    48 -8.163208 1.667083 -0.469909 1.567190 -0.035897 -0.227757
  time 12
    0 -5.086093 -7.027772 -4.226691 -0.097784 -0.077759 -1.536706
    1 2.999629 0.000000 1.353194 0.000000 0.000000 1.570798
    2 3.639548 0.000000 3.113282 0.000000 0.000000 1.570798
    3 1.757773 0.000000 1.206649 0.000000 0.000000 1.570798
    4 -1.663432 -0.346000 1.941449 0.000000 0.000000 3.141589
    5 5.293130 -7.308603 -5.793146 0.174951 0.158668 -1.515044
    6 2.999629 0.000000 1.353194 0.000000 0.000000 1.570798
    7 3.639548 0.000000 3.113282 0.000000 0.000000 1.570798
    8 -1.663432 0.346269 1.941449 0.000000 0.000000 3.141589
    9 1.757773 0.000000 1.206649 0.000000 0.000000 1.570798
    10 -0.002752 8.717751 -1.784592 0.000000 0.000000 0.000000
    11 7.864747 -6.326989 -6.655435 0.390447 -2.244009 -0.508602
    12 7.855038 2.633491 -0.345125 1.566812 -3.120805 0.403268
    13 -0.060202 -8.436234 -0.108040 0.014671 0.279439 -0.231009
    14 -0.488518 -2.755602 -0.228260 -0.434648 0.150360 -0.257287
    15 0.039887 -1.526666 0.010322 -1.357298 -0.013111 0.029747
    16 0.028786 -1.263237 -0.120768 -1.781379 -0.009516 0.040652
    17 0.250027 -2.820665 -0.238396 -0.156951 0.124643 -0.222602
    18 -0.049759 -1.598510 0.041883 -1.435809 0.002613 -0.039072
    19 -0.034142 -1.183469 0.041812 -1.449292 0.002673 -0.038027
    20 0.957766 -2.746780 -0.090302 0.163305 0.113141 0.005480
    21 -0.033420 -1.393223 -0.019070 -0.532676 0.008365 -0.025948
    22 -0.022360 -0.957436 -0.000748 -0.707945 0.007526 -0.034384
    23 -1.180681 -2.507217 -0.193859 -0.276772 0.235764 -0.220698
    24 -0.024967 -1.123934 0.017597 -0.793265 0.006687 -0.033843
    25 -0.020057 -0.906594 0.029622 -0.995434 0.005465 -0.040748
    26 0.583510 -1.193371 0.181473 0.313731 -0.595047 -0.692608
    27 1.516395 -0.153822 0.047979 0.016139 -0.157753 -0.527856
    28 1.007018 -0.182979 0.044010 0.086801 -0.241947 -1.032069
    29 0.038119 -0.319809 -0.031051 0.239607 3.240698 1.548022
    30 -6.751435 -6.692242 -5.122533 0.605982 -4.336835 0.703684
    31 -0.078843 -8.044156 -0.040616 0.111047 -0.074563 -0.056363
    32 0.447953 -2.798986 -0.200443 -0.117835 -0.183226 0.328409
    33 -0.032909 -1.499736 0.036191 -1.759219 0.021968 -0.036827
    34 -0.027022 -1.115984 -0.028023 -0.994625 0.022100 -0.015916
    35 -0.249534 -2.846964 -0.174213 0.009445 -0.070702 0.196948
    36 0.043235 -1.656596 0.056948 -1.763180 -0.024622 0.013759
    37 0.031729 -1.141298 0.054932 -1.121691 -0.012481 0.006191
    38 -0.963866 -2.785145 -0.085350 0.155044 0.028983 0.042035
    39 0.028479 -1.403067 -0.013261 -0.721813 -0.016035 -0.028308
    40 0.021413 -0.942156 0.012233 -1.001550 -0.026869 -0.034324
    41 1.164475 -2.543940 -0.170330 -0.286751 -0.269704 0.327293
    42 0.024032 -1.152480 -0.009538 -1.491828 0.033341 0.067846
    43 0.014898 -0.895708 -0.019848 -0.755705 0.001882 0.038243
    44 -0.586770 -1.264477 0.200161 -0.480709 -0.775215 -2.389088
    45 1.565805 0.035243 0.016848 -0.018844 -0.006943 0.893494
    46 1.110134 0.040611 -0.005766 -0.033752 -0.033060 1.195823
    47 -0.002676 -0.502335 -0.044199 0.290560 0.059641 1.643449
    48 -8.163208 1.667083 -0.469909 1.567190 -0.035897 -0.227757
  time 13
    0 -5.086093 -7.027772 -4.230598 -0.097784 -0.077572 -1.536706
    1 2.999629 0.000000 1.353194 0.000000 0.000000 1.570798
    2 3.639548 0.000000 3.113282 0.000000 0.000000 1.570798
    3 1.757773 0.000000 1.206649 0.000000 0.000000 1.570798
    4 -1.663432 -0.346000 1.941449 0.000000 0.000000 3.141589
    5 5.285318 -7.308603 -6.168157 0.200632 0.201280 -1.507681
    6 2.999629 0.000000 1.353194 0.000000 0.000000 1.570798
    7 3.639548 0.000000 3.113282 0.000000 0.000000 1.570798
    8 -1.663432 0.346269 1.941449 0.000000 0.000000 3.141589
    9 1.757773 0.000000 1.206649 0.000000 0.000000 1.570798
    10 -0.002752 8.717751 -1.784592 0.000000 0.000000 0.000000
    11 7.849121 -6.256674 -6.733562 0.356665 -2.230447 -0.480964
    12 7.843318 2.680368 -0.345125 1.566717 -3.120997 0.409068
    13 -0.064108 -8.432328 -0.111947 0.003161 0.255753 -0.251353
    14 -0.488518 -2.755602 -0.228260 -0.434648 0.150360 -0.257287
    15 0.039887 -1.526666 0.010322 -1.357298 -0.013111 0.029747
    16 0.028786 -1.263237 -0.120768 -1.781379 -0.009516 0.040652
    17 0.250027 -2.820665 -0.238396 -0.156951 0.124643 -0.222602
    18 -0.049759 -1.598510 0.041883 -1.435809 0.002613 -0.039072
    19 -0.034142 -1.183469 0.041812 -1.449292 0.002673 -0.038027
    20 0.957766 -2.746780 -0.090302 0.163305 0.113141 0.005480
    21 -0.033420 -1.393223 -0.019070 -0.543515 0.008389 -0.026499
    22 -0.022360 -0.957436 -0.000748 -0.707945 0.007526 -0.034384
    23 -1.180681 -2.507217 -0.193859 -0.276772 0.235764 -0.220698
    24 -0.024967 -1.123934 0.017597 -0.793265 0.006687 -0.033843
    25 -0.020057 -0.906594 0.029622 -0.995434 0.005465 -0.040748
    26 0.583510 -1.193371 0.181473 0.313731 -0.595047 -0.692608
    27 1.516395 -0.153822 0.047979 0.016139 -0.157753 -0.527856
    28 1.007018 -0.182979 0.044010 0.086801 -0.241947 -1.032069
    29 0.038119 -0.319809 -0.031051 0.239607 3.240698 1.548022
    30 -6.751435 -6.692242 -5.122533 0.605694 -4.336927 0.703494
    31 -0.078843 -8.044156 -0.040616 0.111047 -0.074563 -0.056275
    32 0.447953 -2.798986 -0.200443 -0.117835 -0.183226 0.328409
    33 -0.032909 -1.499736 0.036191 -1.759219 0.021968 -0.036827
    34 -0.027022 -1.115984 -0.028023 -0.994625 0.022100 -0.015916
    35 -0.249534 -2.846964 -0.174213 0.009445 -0.070702 0.196948
    36 0.043235 -1.656596 0.056948 -1.763180 -0.024622 0.013759
    37 0.031729 -1.141298 0.054932 -1.121691 -0.012481 0.006191
    38 -0.963866 -2.785145 -0.085350 0.155044 0.028983 0.042035
    39 0.028479 -1.403067 -0.013261 -0.721813 -0.016035 -0.028308
    40 0.021413 -0.942156 0.012233 -1.001550 -0.026869 -0.034324
    41 1.164475 -2.543940 -0.170330 -0.286751 -0.269704 0.327293
    42 0.024032 -1.152480 -0.009538 -1.491828 0.033341 0.067846
    43 0.014898 -0.895708 -0.019848 -0.755705 0.001882 0.038243
    44 -0.586770 -1.264477 0.200161 -0.480709 -0.775215 -2.389088
    45 1.565805 0.035243 0.016848 -0.018844 -0.006943 0.893494
    46 1.110134 0.040611 -0.005766 -0.033752 -0.033060 1.195823
    47 -0.002676 -0.502335 -0.044199 0.290560 0.059641 1.643449
    48 -8.163208 1.667083 -0.469909 1.567190 -0.035897 -0.227853
  time 14
    0 -5.086093 -7.027772 -4.230598 -0.097784 -0.077385 -1.536706
    1 2.999629 0.000000 1.353194 0.000000 0.000000 1.570798
    2 3.639548 0.000000 3.113282 0.000000 0.000000 1.570798
    3 1.757773 0.000000 1.206649 0.000000 0.000000 1.570798
    4 -1.663432 -0.346000 1.941449 0.000000 0.000000 3.141589
    5 5.281411 -7.304697 -6.429884 0.218855 0.231060 -1.502182
    6 2.999629 0.000000 1.353194 0.000000 0.000000 1.570798
    7 3.639548 0.000000 3.113282 0.000000 0.000000 1.570798
    8 -1.663432 0.346269 1.941449 0.000000 0.000000 3.141589
    9 1.757773 0.000000 1.206649 0.000000 0.000000 1.570798
    10 -0.002752 8.717751 -1.784592 0.000000 0.000000 0.000000
    11 7.837402 -6.205892 -6.784345 0.332262 -2.221342 -0.460848
    12 7.835506 2.711619 -0.345125 1.566717 -3.120997 0.413346
    13 -0.068015 -8.428422 -0.111947 -0.004458 0.239244 -0.265477
    14 -0.488518 -2.755602 -0.228260 -0.434648 0.150360 -0.257287
    15 0.039887 -1.526666 0.010322 -1.357298 -0.013111 0.029747
    16 0.028786 -1.263237 -0.120768 -1.781379 -0.009516 0.040652
    17 0.250027 -2.820665 -0.238396 -0.156951 0.124643 -0.222602
    18 -0.049759 -1.598510 0.041883 -1.435809 0.002613 -0.039072
    19 -0.034142 -1.183469 0.041812 -1.449292 0.002673 -0.038027
    20 0.957766 -2.746780 -0.090302 0.163305 0.113141 0.005480
    21 -0.033420 -1.393223 -0.019070 -0.548424 0.008389 -0.026751
    22 -0.022360 -0.957436 -0.000748 -0.707945 0.007526 -0.034384
    23 -1.180681 -2.507217 -0.193859 -0.276772 0.235764 -0.220698
    24 -0.024967 -1.123934 0.017597 -0.793265 0.006687 -0.033843
    25 -0.020057 -0.906594 0.029622 -0.995434 0.005465 -0.040748
    26 0.583510 -1.193371 0.181473 0.313731 -0.595047 -0.692608
    27 1.516395 -0.153822 0.047979 0.016139 -0.157753 -0.527856
    28 1.007018 -0.182979 0.044010 0.086801 -0.241947 -1.032069
    29 0.038119 -0.319809 -0.031051 0.239607 3.240698 1.548022
    30 -6.751435 -6.692242 -5.122533 0.605502 -4.337020 0.703304
    31 -0.078843 -8.044156 -0.040616 0.111047 -0.074563 -0.056231
    32 0.447953 -2.798986 -0.200443 -0.117835 -0.183226 0.328409
    33 -0.032909 -1.499736 0.036191 -1.759219 0.021968 -0.036827
    34 -0.027022 -1.115984 -0.028023 -0.994625 0.022100 -0.015916
    35 -0.249534 -2.846964 -0.174213 0.009445 -0.070702 0.196948
    36 0.043235 -1.656596 0.056948 -1.763180 -0.024622 0.013759
    37 0.031729 -1.141298 0.054932 -1.121691 -0.012481 0.006191
    38 -0.963866 -2.785145 -0.085350 0.155044 0.028983 0.042035
    39 0.028479 -1.403067 -0.013261 -0.721813 -0.016035 -0.028308
    40 0.021413 -0.942156 0.012233 -1.001550 -0.026869 -0.034324
    41 1.164475 -2.543940 -0.170330 -0.286751 -0.269704 0.327293
    42 0.024032 -1.152480 -0.009538 -1.491828 0.033341 0.067846
    43 0.014898 -0.895708 -0.019848 -0.755705 0.001882 0.038243
    44 -0.586770 -1.264477 0.200161 -0.480709 -0.775215 -2.389088
    45 1.565805 0.035243 0.016848 -0.018844 -0.006943 0.893525
    46 1.110134 0.040611 -0.005766 -0.033752 -0.033060 1.195823
    47 -0.002676 -0.502335 -0.044199 0.290560 0.059641 1.643449
    48 -8.163208 1.667083 -0.469909 1.567190 -0.035897 -0.227948
  time 15
    0 -5.086093 -7.027772 -4.230598 -0.097784 -0.077198 -1.536802
    1 2.999629 0.000000 1.353194 0.000000 0.000000 1.570798
    2 3.639548 0.000000 3.113282 0.000000 0.000000 1.570798
    3 1.757773 0.000000 1.206649 0.000000 0.000000 1.570798
    4 -1.663432 -0.346000 1.941449 0.000000 0.000000 3.141589
    5 5.281411 -7.300790 -6.562700 0.228202 0.246668 -1.499013
    6 2.999629 0.000000 1.353194 0.000000 0.000000 1.570798
    7 3.639548 0.000000 3.113282 0.000000 0.000000 1.570798
    8 -1.663432 0.346269 1.941449 0.000000 0.000000 3.141589
    9 1.757773 0.000000 1.206649 0.000000 0.000000 1.570798
    10 -0.002752 8.717751 -1.784592 0.000000 0.000000 0.000000
    11 7.829589 -6.182453 -6.811689 0.319343 -2.216790 -0.450131
    12 7.827693 2.731151 -0.345125 1.566717 -3.121093 0.415913
    13 -0.068015 -8.424515 -0.115853 -0.008241 0.230784 -0.272866
    14 -0.488518 -2.755602 -0.228260 -0.434648 0.150360 -0.257287
    15 0.039887 -1.526666 0.010322 -1.357298 -0.013111 0.029747
    16 0.028786 -1.263237 -0.120768 -1.781379 -0.009516 0.040652
    17 0.250027 -2.820665 -0.238396 -0.156951 0.124643 -0.222602
    18 -0.049759 -1.598510 0.041883 -1.435809 0.002613 -0.039072
    19 -0.034142 -1.183469 0.041812 -1.449292 0.002673 -0.038027
    20 0.957766 -2.746780 -0.090302 0.163305 0.113141 0.005480
    21 -0.033420 -1.393223 -0.019070 -0.548424 0.008389 -0.026751
    22 -0.022360 -0.957436 -0.000748 -0.707945 0.007526 -0.034384
    23 -1.180681 -2.507217 -0.193859 -0.276772 0.235764 -0.220698
    24 -0.024967 -1.123934 0.017597 -0.793265 0.006687 -0.033843
    25 -0.020057 -0.906594 0.029622 -0.995434 0.005465 -0.040748
    26 0.583510 -1.193371 0.181473 0.313731 -0.595047 -0.692608
    27 1.516395 -0.153822 0.047979 0.016139 -0.157753 -0.527856
    28 1.007018 -0.182979 0.044010 0.086801 -0.241947 -1.032069
    29 0.038119 -0.319809 -0.031051 0.239607 3.240698 1.548022
    30 -6.751435 -6.692242 -5.122533 0.605215 -4.337112 0.703019
    31 -0.078843 -8.044156 -0.040616 0.111084 -0.074563 -0.056144
    32 0.447953 -2.798986 -0.200443 -0.117835 -0.183226 0.328409
    33 -0.032909 -1.499736 0.036191 -1.759219 0.021968 -0.036827
    34 -0.027022 -1.115984 -0.028023 -0.994625 0.022100 -0.015916
    35 -0.249534 -2.846964 -0.174213 0.009445 -0.070702 0.196948
    36 0.043235 -1.656596 0.056948 -1.763180 -0.024622 0.013759
    37 0.031729 -1.141298 0.054932 -1.121691 -0.012481 0.006191
    38 -0.963866 -2.785145 -0.085350 0.155044 0.028983 0.042035
    39 0.028479 -1.403067 -0.013261 -0.721813 -0.016035 -0.028308
    40 0.021413 -0.942156 0.012233 -1.001550 -0.026869 -0.034324
    41 1.164475 -2.543940 -0.170330 -0.286751 -0.269704 0.327293
    42 0.024032 -1.152480 -0.009538 -1.491828 0.033341 0.067846
    43 0.014898 -0.895708 -0.019848 -0.755705 0.001882 0.038243
    44 -0.586770 -1.264477 0.200161 -0.480709 -0.775215 -2.389088
    45 1.565805 0.035243 0.016848 -0.018844 -0.006943 0.893494
    46 1.110134 0.040611 -0.005766 -0.033752 -0.033060 1.195823
    47 -0.002676 -0.502335 -0.044199 0.290560 0.059641 1.643449
    48 -8.163208 1.667083 -0.469909 1.567190 -0.035897 -0.227948
  time 16
    0 -5.086093 -7.027772 -4.234504 -0.097784 -0.077010 -1.536802
    1 2.999629 0.000000 1.353194 0.000000 0.000000 1.570798
    2 3.639548 0.000000 3.113282 0.000000 0.000000 1.570798
    3 1.757773 0.000000 1.206649 0.000000 0.000000 1.570798
    4 -1.663432 -0.346000 1.941449 0.000000 0.000000 3.141589
    5 5.281411 -7.300790 -6.609577 0.231601 0.252127 -1.497894
    6 2.999629 0.000000 1.353194 0.000000 0.000000 1.570798
    7 3.639548 0.000000 3.113282 0.000000 0.000000 1.570798
    8 -1.663432 0.346269 1.941449 0.000000 0.000000 3.141589
    9 1.757773 0.000000 1.206649 0.000000 0.000000 1.570798
    10 -0.002752 8.717751 -1.784592 0.000000 0.000000 0.000000
    11 7.829589 -6.174641 -6.819502 0.314749 -2.215178 -0.446277
    12 7.827693 2.738963 -0.345125 1.566717 -3.121093 0.416769
    13 -0.068015 -8.424515 -0.115853 -0.009592 0.227811 -0.275532
    14 -0.488518 -2.755602 -0.228260 -0.434648 0.150360 -0.257287
    15 0.039887 -1.526666 0.010322 -1.357298 -0.013111 0.029747
    16 0.028786 -1.263237 -0.120768 -1.781379 -0.009516 0.040652
    17 0.250027 -2.820665 -0.238396 -0.156951 0.124643 -0.222602
    18 -0.049759 -1.598510 0.041883 -1.435809 0.002613 -0.039072
    19 -0.034142 -1.183469 0.041812 -1.449292 0.002673 -0.038027
    20 0.957766 -2.746780 -0.090302 0.163305 0.113141 0.005480
    21 -0.033420 -1.393223 -0.019070 -0.548424 0.008389 -0.026751
    22 -0.022360 -0.957436 -0.000748 -0.707945 0.007526 -0.034384
    23 -1.180681 -2.507217 -0.193859 -0.276772 0.235764 -0.220698
    24 -0.024967 -1.123934 0.017597 -0.793265 0.006687 -0.033843
    25 -0.020057 -0.906594 0.029622 -0.995434 0.005465 -0.040748
    26 0.583510 -1.193371 0.181473 0.313731 -0.595047 -0.692608
    27 1.516395 -0.153822 0.047979 0.016139 -0.157753 -0.527856
    28 1.007018 -0.182979 0.044010 0.086801 -0.241947 -1.032069
    29 0.038119 -0.319809 -0.031051 0.239607 3.240698 1.548022
    30 -6.751435 -6.692242 -5.126440 0.604927 -4.337205 0.702733
    31 -0.078843 -8.044156 -0.040616 0.111084 -0.074602 -0.056100
    32 0.447953 -2.798986 -0.200443 -0.117835 -0.183226 0.328409
    33 -0.032909 -1.499736 0.036191 -1.759219 0.021968 -0.036827
    34 -0.027022 -1.115984 -0.028023 -0.994625 0.022100 -0.015916
    35 -0.249534 -2.846964 -0.174213 0.009445 -0.070702 0.196948
    36 0.043235 -1.656596 0.056948 -1.763180 -0.024622 0.013759
    37 0.031729 -1.141298 0.054932 -1.121691 -0.012481 0.006191
    38 -0.963866 -2.785145 -0.085350 0.155044 0.028983 0.042035
    39 0.028479 -1.403067 -0.013261 -0.721813 -0.016035 -0.028308
    40 0.021413 -0.942156 0.012233 -1.001550 -0.026869 -0.034324
    41 1.164475 -2.543940 -0.170330 -0.286751 -0.269704 0.327293
    42 0.024032 -1.152480 -0.009538 -1.491828 0.033341 0.067846
    43 0.014898 -0.895708 -0.019848 -0.755705 0.001882 0.038243
    44 -0.586770 -1.264477 0.200161 -0.480709 -0.775215 -2.389088
    45 1.565805 0.035243 0.016848 -0.018844 -0.006943 0.893494
    46 1.110134 0.040611 -0.005766 -0.033752 -0.033060 1.195823
    47 -0.002676 -0.502335 -0.044199 0.290560 0.059641 1.643449
    48 -8.163208 1.670990 -0.469909 1.567190 -0.035897 -0.228043
  time 17
    0 -5.086093 -7.027772 -4.234504 -0.097784 -0.076823 -1.536802
    1 2.999629 0.000000 1.353194 0.000000 0.000000 1.570798
    2 3.639548 0.000000 3.113282 0.000000 0.000000 1.570798
    3 1.757773 0.000000 1.206649 0.000000 0.000000 1.570798
    4 -1.663432 -0.346000 1.941449 0.000000 0.000000 3.141589
    5 5.281411 -7.300790 -6.597858 0.230562 0.250499 -1.498174
    6 2.999629 0.000000 1.353194 0.000000 0.000000 1.570798
    7 3.639548 0.000000 3.113282 0.000000 0.000000 1.570798
    8 -1.663432 0.346269 1.941449 0.000000 0.000000 3.141589
    9 1.757773 0.000000 1.206649 0.000000 0.000000 1.570798
    10 -0.002752 8.717751 -1.784592 0.000000 0.000000 0.000000
    11 7.829589 -6.178547 -6.815596 0.316185 -2.215652 -0.447499
    12 7.827693 2.738963 -0.345125 1.566717 -3.121093 0.416484
    13 -0.068015 -8.424515 -0.115853 -0.009213 0.228734 -0.274784
    14 -0.488518 -2.755602 -0.228260 -0.434648 0.150360 -0.257287
    15 0.039887 -1.526666 0.010322 -1.357298 -0.013111 0.029747
    16 0.028786 -1.263237 -0.120768 -1.781379 -0.009516 0.040652
    17 0.250027 -2.820665 -0.238396 -0.156951 0.124643 -0.222602
    18 -0.049759 -1.598510 0.041883 -1.435809 0.002613 -0.039072
    19 -0.034142 -1.183469 0.041812 -1.449292 0.002673 -0.038027
    20 0.957766 -2.746780 -0.090302 0.163305 0.113141 0.005480
    21 -0.033420 -1.393223 -0.019070 -0.548424 0.008389 -0.026751
    22 -0.022360 -0.957436 -0.000748 -0.707945 0.007526 -0.034384
    23 -1.180681 -2.507217 -0.193859 -0.276772 0.235764 -0.220698
    24 -0.024967 -1.123934 0.017597 -0.793265 0.006687 -0.033843
    25 -0.020057 -0.906594 0.029622 -0.995434 0.005465 -0.040748
    26 0.583510 -1.193371 0.181473 0.313731 -0.595047 -0.692608
    27 1.516395 -0.153822 0.047979 0.016139 -0.157753 -0.527856
    28 1.007018 -0.182979 0.044010 0.086801 -0.241947 -1.032069
    29 0.038119 -0.319809 -0.031051 0.239607 3.240698 1.548022
    30 -6.751435 -6.692242 -5.126440 0.604640 -4.337297 0.702448
    31 -0.078843 -8.044156 -0.040616 0.111084 -0.074602 -0.056100
    32 0.447953 -2.798986 -0.200443 -0.117835 -0.183226 0.328409
    33 -0.032909 -1.499736 0.036191 -1.759219 0.021968 -0.036827
    34 -0.027022 -1.115984 -0.028023 -0.994625 0.022100 -0.015916
    35 -0.249534 -2.846964 -0.174213 0.009445 -0.070702 0.196948
    36 0.043235 -1.656596 0.056948 -1.763180 -0.024622 0.013759
    37 0.031729 -1.141298 0.054932 -1.121691 -0.012481 0.006191
    38 -0.963866 -2.785145 -0.085350 0.155044 0.028983 0.042035
    39 0.028479 -1.403067 -0.013261 -0.721813 -0.016035 -0.028308
    40 0.021413 -0.942156 0.012233 -1.001550 -0.026869 -0.034324
    41 1.164475 -2.543940 -0.170330 -0.286751 -0.269704 0.327293
    42 0.024032 -1.152480 -0.009538 -1.491828 0.033341 0.067846
    43 0.014898 -0.895708 -0.019848 -0.755705 0.001882 0.038243
    44 -0.586770 -1.264477 0.200161 -0.480709 -0.775215 -2.389088
    45 1.565805 0.035243 0.016848 -0.018844 -0.006943 0.893494
    46 1.110134 0.040611 -0.005766 -0.033752 -0.033060 1.195823
    47 -0.002676 -0.502335 -0.044199 0.290560 0.059641 1.643449
    48 -8.163208 1.670990 -0.469909 1.567286 -0.035897 -0.228138
  time 18
    0 -5.086093 -7.027772 -4.238411 -0.097784 -0.076636 -1.536802
    1 2.999629 0.000000 1.353194 0.000000 0.000000 1.570798
    2 3.639548 0.000000 3.113282 0.000000 0.000000 1.570798
    3 1.757773 0.000000 1.206649 0.000000 0.000000 1.570798
    4 -1.663432 -0.346000 1.941449 0.000000 0.000000 3.141589
    5 5.281411 -7.300790 -6.543168 0.226974 0.244562 -1.499386
    6 2.999629 0.000000 1.353194 0.000000 0.000000 1.570798
    7 3.639548 0.000000 3.113282 0.000000 0.000000 1.570798
    8 -1.663432 0.346269 1.941449 0.000000 0.000000 3.141589
    9 1.757773 0.000000 1.206649 0.000000 0.000000 1.570798
    10 -0.002752 8.717751 -1.784592 0.000000 0.000000 0.000000
    11 7.829589 -6.186360 -6.807783 0.321257 -2.217454 -0.451729
    12 7.831599 2.731151 -0.345125 1.566717 -3.121093 0.415533
    13 -0.068015 -8.428422 -0.115853 -0.007754 0.231963 -0.272025
    14 -0.488518 -2.755602 -0.228260 -0.434648 0.150360 -0.257287
    15 0.039887 -1.526666 0.010322 -1.357298 -0.013111 0.029747
    16 0.028786 -1.263237 -0.120768 -1.781379 -0.009516 0.040652
    17 0.250027 -2.820665 -0.238396 -0.156951 0.124643 -0.222602
    18 -0.049759 -1.598510 0.041883 -1.435809 0.002613 -0.039072
    19 -0.034142 -1.183469 0.041812 -1.449292 0.002673 -0.038027
    20 0.957766 -2.746780 -0.090302 0.163305 0.113141 0.005480
    21 -0.033420 -1.393223 -0.019070 -0.548424 0.008389 -0.026751
    22 -0.022360 -0.957436 -0.000748 -0.707945 0.007526 -0.034384
    23 -1.180681 -2.507217 -0.193859 -0.276772 0.235764 -0.220698
    24 -0.024967 -1.123934 0.017597 -0.793265 0.006687 -0.033843
    25 -0.020057 -0.906594 0.029622 -0.995434 0.005465 -0.040748
    26 0.583510 -1.193371 0.181473 0.313731 -0.595047 -0.692608
    27 1.516395 -0.153822 0.047979 0.016139 -0.157753 -0.527856
    28 1.007018 -0.182979 0.044010 0.086801 -0.241947 -1.032069
    29 0.038119 -0.319809 -0.031051 0.239607 3.240698 1.548022
    30 -6.751435 -6.692242 -5.126440 0.604256 -4.337389 0.702068
    31 -0.078843 -8.044156 -0.040616 0.111084 -0.074602 -0.056100
    32 0.447953 -2.798986 -0.200443 -0.117835 -0.183226 0.328409
    33 -0.032909 -1.499736 0.036191 -1.759219 0.021968 -0.036827
    34 -0.027022 -1.115984 -0.028023 -0.994625 0.022100 -0.015916
    35 -0.249534 -2.846964 -0.174213 0.009445 -0.070702 0.196948
    36 0.043235 -1.656596 0.056948 -1.763180 -0.024622 0.013759
    37 0.031729 -1.141298 0.054932 -1.121691 -0.012481 0.006191
    38 -0.963866 -2.785145 -0.085350 0.155044 0.028983 0.042035
    39 0.028479 -1.403067 -0.013261 -0.721813 -0.016035 -0.028308
    40 0.021413 -0.942156 0.012233 -1.001550 -0.026869 -0.034324
    41 1.164475 -2.543940 -0.170330 -0.286751 -0.269704 0.327293
    42 0.024032 -1.152480 -0.009538 -1.491828 0.033341 0.067846
    43 0.014898 -0.895708 -0.019848 -0.755705 0.001882 0.038243
    44 -0.586770 -1.264477 0.200161 -0.480709 -0.775215 -2.389088
    45 1.565805 0.035243 0.016848 -0.018844 -0.006943 0.893494
    46 1.110134 0.040611 -0.005766 -0.033752 -0.033060 1.195823
    47 -0.002676 -0.502335 -0.044199 0.290560 0.059641 1.643449
    48 -8.163208 1.670990 -0.469909 1.567286 -0.035897 -0.228233
  time 19
    0 -5.086093 -7.027772 -4.238411 -0.097784 -0.076543 -1.536802
    1 2.999629 0.000000 1.353194 0.000000 0.000000 1.570798
    2 3.639548 0.000000 3.113282 0.000000 0.000000 1.570798
    3 1.757773 0.000000 1.206649 0.000000 0.000000 1.570798
    4 -1.663432 -0.346000 1.941449 0.000000 0.000000 3.141589
    5 5.281411 -7.304697 -6.480667 0.222442 0.237093 -1.500877
    6 2.999629 0.000000 1.353194 0.000000 0.000000 1.570798
    7 3.639548 0.000000 3.113282 0.000000 0.000000 1.570798
    8 -1.663432 0.346269 1.941449 0.000000 0.000000 3.141589
    9 1.757773 0.000000 1.206649 0.000000 0.000000 1.570798
    10 -0.002752 8.717751 -1.784592 0.000000 0.000000 0.000000
    11 7.833496 -6.198079 -6.796064 0.327381 -2.219635 -0.456805
    12 7.831599 2.719432 -0.345125 1.566717 -3.121093 0.414392
    13 -0.068015 -8.428422 -0.111947 -0.005917 0.236014 -0.268470
    14 -0.488518 -2.755602 -0.228260 -0.434648 0.150360 -0.257287
    15 0.039887 -1.526666 0.010322 -1.357298 -0.013111 0.029747
    16 0.028786 -1.263237 -0.120768 -1.781379 -0.009516 0.040652
    17 0.250027 -2.820665 -0.238396 -0.156951 0.124643 -0.222602
    18 -0.049759 -1.598510 0.041883 -1.435809 0.002613 -0.039072
    19 -0.034142 -1.183469 0.041812 -1.449292 0.002673 -0.038027
    20 0.957766 -2.746780 -0.090302 0.163305 0.113141 0.005480
    21 -0.033420 -1.393223 -0.019070 -0.548424 0.008389 -0.026751
    22 -0.022360 -0.957436 -0.000748 -0.707945 0.007526 -0.034384
    23 -1.180681 -2.507217 -0.193859 -0.276772 0.235764 -0.220698
    24 -0.024967 -1.123934 0.017597 -0.793265 0.006687 -0.033843
    25 -0.020057 -0.906594 0.029622 -0.995434 0.005465 -0.040748
    26 0.583510 -1.193371 0.181473 0.313731 -0.595047 -0.692608
    27 1.516395 -0.153822 0.047979 0.016139 -0.157753 -0.527856
    28 1.007018 -0.182979 0.044010 0.086801 -0.241947 -1.032069
    29 0.038119 -0.319809 -0.031051 0.239607 3.240698 1.548022
    30 -6.751435 -6.692242 -5.126440 0.603873 -4.337482 0.701783
    31 -0.078843 -8.044156 -0.040616 0.111084 -0.074602 -0.056100
    32 0.447953 -2.798986 -0.200443 -0.117835 -0.183226 0.328409
    33 -0.032909 -1.499736 0.036191 -1.759219 0.021968 -0.036827
    34 -0.027022 -1.115984 -0.028023 -0.994625 0.022100 -0.015916
    35 -0.249534 -2.846964 -0.174213 0.009445 -0.070702 0.196948
    36 0.043235 -1.656596 0.056948 -1.763180 -0.024622 0.013759
    37 0.031729 -1.141298 0.054932 -1.121691 -0.012481 0.006191
    38 -0.963866 -2.785145 -0.085350 0.155044 0.028983 0.042035
    39 0.028479 -1.403067 -0.013261 -0.721813 -0.016035 -0.028308
    40 0.021413 -0.942156 0.012233 -1.001550 -0.026869 -0.034324
    41 1.164475 -2.543940 -0.170330 -0.286751 -0.269704 0.327293
    42 0.024032 -1.152480 -0.009538 -1.491828 0.033341 0.067846
    43 0.014898 -0.895708 -0.019848 -0.755705 0.001882 0.038243
    44 -0.586770 -1.264477 0.200161 -0.480709 -0.775215 -2.389088
    45 1.565805 0.035243 0.016848 -0.018844 -0.006943 0.893494
    46 1.110134 0.040611 -0.005766 -0.033752 -0.033060 1.195823
    47 -0.002676 -0.502335 -0.044199 0.290560 0.059641 1.643449
    48 -8.163208 1.670990 -0.469909 1.567286 -0.035897 -0.228329
  time 20
    0 -5.086093 -7.027772 -4.238411 -0.097784 -0.076355 -1.536802
    1 2.999629 0.000000 1.353194 0.000000 0.000000 1.570798
    2 3.639548 0.000000 3.113282 0.000000 0.000000 1.570798
    3 1.757773 0.000000 1.206649 0.000000 0.000000 1.570798
    4 -1.663432 -0.346000 1.941449 0.000000 0.000000 3.141589
    5 5.281411 -7.304697 -6.429884 0.218855 0.231060 -1.502182
    6 2.999629 0.000000 1.353194 0.000000 0.000000 1.570798
    7 3.639548 0.000000 3.113282 0.000000 0.000000 1.570798
    8 -1.663432 0.346269 1.941449 0.000000 0.000000 3.141589
    9 1.757773 0.000000 1.206649 0.000000 0.000000 1.570798
    10 -0.002752 8.717751 -1.784592 0.000000 0.000000 0.000000
    11 7.837402 -6.205892 -6.784345 0.332262 -2.221342 -0.460848
    12 7.835506 2.711619 -0.345125 1.566717 -3.120997 0.413346
    13 -0.068015 -8.428422 -0.111947 -0.004458 0.239244 -0.265477
    14 -0.488518 -2.755602 -0.228260 -0.434648 0.150360 -0.257287
    15 0.039887 -1.526666 0.010322 -1.357298 -0.013111 0.029747
    16 0.028786 -1.263237 -0.120768 -1.781379 -0.009516 0.040652
    17 0.250027 -2.820665 -0.238396 -0.156951 0.124643 -0.222602
    18 -0.049759 -1.598510 0.041883 -1.435809 0.002613 -0.039072
    19 -0.034142 -1.183469 0.041812 -1.449292 0.002673 -0.038027
    20 0.957766 -2.746780 -0.090302 0.163305 0.113141 0.005480
    21 -0.033420 -1.393223 -0.019070 -0.548424 0.008389 -0.026751
    22 -0.022360 -0.957436 -0.000748 -0.707945 0.007526 -0.034384
    23 -1.180681 -2.507217 -0.193859 -0.276772 0.235764 -0.220698
    24 -0.024967 -1.123934 0.017597 -0.793265 0.006687 -0.033843
    25 -0.020057 -0.906594 0.029622 -0.995434 0.005465 -0.040748
    26 0.583510 -1.193371 0.181473 0.313731 -0.595047 -0.692608
    27 1.516395 -0.153822 0.047979 0.016139 -0.157753 -0.527856
    28 1.007018 -0.182979 0.044010 0.086801 -0.241947 -1.032069
    29 0.038119 -0.319809 -0.031051 0.239607 3.240698 1.548022
    30 -6.751435 -6.692242 -5.126440 0.603585 -4.337667 0.701403
    31 -0.078843 -8.044156 -0.040616 0.111047 -0.074563 -0.056188
    32 0.447953 -2.798986 -0.200443 -0.117835 -0.183226 0.328409
    33 -0.032909 -1.499736 0.036191 -1.759219 0.021968 -0.036827
    34 -0.027022 -1.115984 -0.028023 -0.994625 0.022100 -0.015916
    35 -0.249534 -2.846964 -0.174213 0.009445 -0.070702 0.196948
    36 0.043235 -1.656596 0.056948 -1.763180 -0.024622 0.013759
    37 0.031729 -1.141298 0.054932 -1.121691 -0.012481 0.006191
    38 -0.963866 -2.785145 -0.085350 0.155044 0.028983 0.042035
    39 0.028479 -1.403067 -0.013261 -0.721813 -0.016035 -0.028308
    40 0.021413 -0.942156 0.012233 -1.001550 -0.026869 -0.034324
    41 1.164475 -2.543940 -0.170330 -0.286751 -0.269704 0.327293
    42 0.024032 -1.152480 -0.009538 -1.491828 0.033341 0.067846
    43 0.014898 -0.895708 -0.019848 -0.755705 0.001882 0.038243
    44 -0.586770 -1.264477 0.200161 -0.480709 -0.775215 -2.389088
    45 1.565805 0.035243 0.016848 -0.018844 -0.006943 0.893494
    46 1.110134 0.040611 -0.005766 -0.033752 -0.033060 1.195823
    47 -0.002676 -0.502335 -0.044199 0.290560 0.059641 1.643449
    48 -8.163208 1.670990 -0.469909 1.567286 -0.035897 -0.228424
end
