// Created by Crowbar 0.34.0.0

$ModelName "weapons/tfa_cso/w_janus5.mdl"

$BodyGroup "studio"
{
	studio "v_janusmk5_1"
}

$collisionmodel "v_janusmk5_1.smd"
{
	$mass 9
}

$CDMaterials "models\weapons\tfa_cso\janus5"

$attachment "0" "root" -0.10 -14.00 -0.50 rotate -0 0 0

$Sequence "idle" {
	"anims\idle.smd"
	fps 30
}