// Created by Crowbar 0.34.0.0

$ModelName "weapons/tfa_cso/w_trg42gs.mdl"

$BodyGroup "studio"
{
	studio "v_trg42gs_TRG42g_Alone"
}

$collisionmodel "v_trg42gs_TRG42g_Alone.smd"
{
	$mass 9
}

$CDMaterials "models\weapons\tfa_cso\trg42gs"

$attachment "0" "root" -0.10 -18.80 0.20 rotate -0 0 0

$Sequence "idle" {
	"anims\idle.smd"
	fps 30
}