// Created by Crowbar 0.49.0.0

$modelname "weapons/tfa_cso/c_gungnir_nrm.mdl"

$Include "csonline_gmod.qci"

$bodygroup "weapon"
{
	studio "v_gungnir_v_refA"
}
$bodygroup "weapon"
{
	studio "v_gungnir_v_refB"
}
$bodygroup "effect"
{
	studio "v_gungnir_v_reffxelec1"
	studio "v_gungnir_v_reffxelec2"
}
$bodygroup "effect2"
{
	studio "v_gungnir_v_reffxelec3"
	studio "v_gungnir_v_reffxelec4"
}
$bodygroup "weapon"
{
	studio "v_gungnir_v_reffx"
}
$bodygroup "weapon"
{
	studio "v_gungnir_v_reffx2"
}
$bodygroup "weapon"
{
	studio "v_gungnir_v_reffx3"
}
$bodygroup "weapon"
{
	studio "v_gungnir_v_reffx4"
}
$bodygroup "weapon"
{
	studio "v_gungnir_v_refball"
}
$bodygroup "weapon"
{
	studio "v_gungnir_v_refshootelec"
}
$bodygroup "weapon"
{
	studio "v_gungnir_v_refblade"
}
$bodygroup "weapon"
{
	studio "v_gungnir_v_reflightglow"
}

$CDMaterials "models\weapons\tfa_cso\gungnir\"

$attachment 0 "gungnir" 25 0 0

$sequence "idle1" {
	"v_gungnir_anims\idle1"
	{ event 5004 0 "Gungnir.Idle" }
	fps 30
	loop
	activity "ACT_VM_IDLE" 1
	snap
}
$sequence "reload" {
	"v_gungnir_anims\reload"
	{ event 5004 10 "Gungnir.Reload" }
	fps 30
	activity "ACT_VM_RELOAD" 1
	snap
}
$sequence "draw" {
	"v_gungnir_anims\draw"
	{ event 5004 5 "Gungnir.Draw" }
	fps 30
	activity "ACT_VM_DRAW" 1
	snap
}
$sequence "shoot_start" {
	"v_gungnir_anims\shoot_start"
	{ event 5001 0 "#I81 S0.12 R1 F0 P30 T999 A1 L0 O0 X0" }
	fps 30
}
$sequence "shoot_loop" {
	"v_gungnir_anims\shoot_loop"
	{ event 5001 0 "#I81 S0.12 R1 F0 P30 T999 A1 L0 O0 X0" }
	{ event 5004 10 "Gungnir.End" }
	fps 30
	loop
	activity "ACT_VM_PRIMARYATTACK" 1
	snap
}
$sequence "shoot_end" {
	"v_gungnir_anims\shoot_end"
	fps 30
}
$sequence "shoot_B" {
	"v_gungnir_anims\shoot_B"
	{ event 5001 0 "#I81 S0.17 R1 F0 P30 T1.5 A1 L0 O0 X0" }
	{ event 5001 0 "#I65 S0.12 R1 F0 P30 T1 A1 L0 O0 X0" }
	fps 30
}
$sequence "shoot_B_charge" {
	"v_gungnir_anims\shoot_B_charge"
	{ event 5004 13 "weapons/gungnir_shoot_B_charge.wav" }
	fps 30
}
$sequence "charge_shoot" {
	"v_gungnir_anims\charge_shoot"
	{ event 5004 32 "weapons/gungnir_charge_shoot2.wav" }
	fps 30
}
$sequence "charge_loop" {
	"v_gungnir_anims\charge_loop"
	{ event 5004 1 "weapons/gungnir_charge_loop.wav" }
	fps 30
	loop
}
