version 1
nodes
  0 "Bone01" -1
  1 "Bone_Lefthand" 0
  2 "Bone02" 1
  3 "Bone03" 2
  4 "Bone25" 3
  5 "Bone52" 3
  6 "Bone50" 3
  7 "Bone48" 3
  8 "Bone54" 3
  9 "Bone 04" 1
  10 "Bone13" 9
  11 "Bone14" 10
  12 "Bone15" 11
  13 "Bone17" 9
  14 "Bone18" 13
  15 "Bone19" 14
  16 "Bone21" 9
  17 "Bone22" 16
  18 "Bone23" 17
  19 "Bone05" 9
  20 "Bone06" 19
  21 "Bone07" 20
  22 "Bone09" 9
  23 "Bone10" 22
  24 "Bone11" 23
  25 "Bone04" -1
  26 "Bone_Righthand" 25
  27 "Bone26" 26
  28 "Bone35" 27
  29 "Bone36" 28
  30 "Bone37" 29
  31 "Bone31" 27
  32 "Bone32" 31
  33 "Bone33" 32
  34 "Bone39" 27
  35 "Bone40" 34
  36 "Bone41" 35
  37 "Bone43" 27
  38 "Bone44" 37
  39 "Bone45" 38
  40 "Bone27" 27
  41 "Bone28" 40
  42 "Bone29" 41
end
skeleton
  time 0
    0 5.188508 -1.514174 -14.315339 -1.436794 -0.393420 0.589496
    1 -0.000001 -8.563283 0.000000 0.371708 0.572071 -0.149318
    2 -0.293234 -3.282020 0.672796 -1.247037 1.437608 -1.233844
    3 -0.000002 2.163130 0.753818 0.000000 0.000000 0.000000
    4 0.000002 -3.052707 1.526597 0.000000 0.000000 0.000000
    5 0.000003 -10.293062 1.701879 0.000000 0.000000 0.000000
    6 0.000000 -4.967293 1.445704 0.000000 0.000000 0.000000
    7 0.000000 -5.102123 2.443444 0.000000 0.000000 0.000000
    8 0.004669 5.953095 -2.702796 0.000000 0.000000 0.000000
    9 -0.003480 -0.404829 0.000000 0.000000 0.000000 0.000000
    10 -0.519310 -2.501155 -0.278957 -1.375314 0.000000 -0.122173
    11 -0.010598 -1.208185 0.000000 -0.907575 0.000000 0.000000
    12 0.000000 -0.763066 0.000000 -1.144947 0.000000 0.000000
    13 0.105980 -2.607134 -0.278957 -0.869181 0.000000 -0.148353
    14 -0.000001 -1.250579 0.000000 -1.385786 0.000000 0.000000
    15 0.000000 -0.932634 0.000000 -0.902353 0.000000 0.000000
    16 0.763064 -2.490556 -0.278957 -0.340544 0.078175 0.347833
    17 -0.012322 -1.280917 0.000000 -0.553262 0.000000 0.000000
    18 -0.001697 -0.749371 0.000000 -0.593412 0.000000 0.000000
    19 0.354567 0.016267 0.318132 0.386384 -0.406183 -1.191370
    20 1.887164 0.012878 0.000000 -0.304306 0.026726 -0.316515
    21 1.001874 -0.000270 0.000000 0.000000 0.000000 -0.886628
    22 -1.123360 -2.195093 -0.278957 -1.206017 0.000000 -0.087266
    23 0.010772 -0.963791 0.000000 -0.778410 0.000000 0.000000
    24 -0.010412 -0.631916 -0.000001 -1.003573 0.000000 0.000000
    25 -11.492048 12.975244 -17.506691 0.747115 -2.901461 0.644400
    26 0.089929 -8.543160 0.000000 0.588380 0.167604 0.659820
    27 0.000000 -0.359712 0.000000 0.000000 0.000000 0.000000
    28 -0.170480 -2.636147 -0.277655 -0.964980 0.000000 0.000000
    29 0.010599 -1.261177 0.000001 -0.182184 0.000000 0.000000
    30 -0.000001 -0.943233 -0.000001 -0.616398 0.000000 0.000000
    31 -0.827563 -2.508973 -0.277656 -0.749958 -0.034540 -0.044954
    32 0.000000 -1.292972 0.000001 -0.305597 0.000000 0.000000
    33 0.000000 -0.752466 0.000000 -0.356047 0.000000 0.000000
    34 0.444213 -2.561959 -0.277655 -0.914210 -0.046226 -0.024599
    35 0.021022 -1.208185 -0.000001 -0.239112 0.000000 0.000000
    36 0.010597 -0.741867 -0.000001 -0.643718 0.000000 0.000000
    37 1.047445 -2.222821 -0.277655 -0.918953 -0.078971 -0.038609
    38 0.000000 -0.996222 0.000000 -0.863938 0.000000 0.000000
    39 -0.000001 -0.614690 0.000000 -0.523599 0.000000 0.000000
    40 -0.308254 -0.007814 0.307166 0.174385 -0.158188 -2.339362
    41 1.978379 0.019544 0.000000 -0.094057 -0.033927 0.197557
    42 0.982426 0.003186 0.000000 0.000000 0.000000 -0.140489
  time 1
    0 5.188508 -1.510268 -14.315339 -1.445504 -0.396734 0.611786
    1 -0.000001 -8.563283 0.000000 0.371837 0.571983 -0.149066
    2 -0.293234 -3.282020 0.672796 -1.247037 1.437608 -1.233844
    3 -0.000002 2.163130 0.753818 0.000000 0.000000 0.000000
    4 0.000002 -3.052707 1.526597 0.000000 0.000000 0.000000
    5 0.000003 -10.293062 1.701879 0.000000 0.000000 0.000000
    6 0.000000 -4.967293 1.445704 0.000000 0.000000 0.000000
    7 0.000000 -5.102123 2.443444 0.000000 0.000000 0.000000
    8 0.004669 5.953095 -2.702796 0.000000 0.000000 0.000000
    9 -0.003480 -0.404829 0.000000 0.000000 0.000000 0.000000
    10 -0.519310 -2.501155 -0.278957 -1.375314 0.000000 -0.122173
    11 -0.010598 -1.208185 0.000000 -0.907575 0.000000 0.000000
    12 0.000000 -0.763066 0.000000 -1.144947 0.000000 0.000000
    13 0.105980 -2.607134 -0.278957 -0.869181 0.000000 -0.148353
    14 -0.000001 -1.250579 0.000000 -1.385786 0.000000 0.000000
    15 0.000000 -0.932634 0.000000 -0.902353 0.000000 0.000000
    16 0.763064 -2.490556 -0.278957 -0.340544 0.078175 0.347833
    17 -0.012322 -1.280917 0.000000 -0.553262 0.000000 0.000000
    18 -0.001697 -0.749371 0.000000 -0.593412 0.000000 0.000000
    19 0.354567 0.016267 0.318132 0.386384 -0.406183 -1.191370
    20 1.887164 0.012878 0.000000 -0.304306 0.026726 -0.316515
    21 1.001874 -0.000270 0.000000 0.000000 0.000000 -0.886628
    22 -1.123360 -2.195093 -0.278957 -1.206017 0.000000 -0.087266
    23 0.010772 -0.963791 0.000000 -0.778410 0.000000 0.000000
    24 -0.010412 -0.631916 -0.000001 -1.003573 0.000000 0.000000
    25 -10.816246 11.057217 -16.409001 0.688765 -2.960305 0.699749
    26 0.089929 -8.543160 0.000000 0.656900 0.106823 0.643430
    27 0.000000 -0.359712 0.000000 0.000000 0.000000 0.000000
    28 -0.170480 -2.636147 -0.277655 -1.024324 0.000000 0.000000
    29 0.010599 -1.261177 0.000001 -0.188883 0.000000 0.000000
    30 -0.000001 -0.943233 -0.000001 -0.613390 0.000000 0.000000
    31 -0.827563 -2.508973 -0.277656 -0.787543 -0.032395 -0.040604
    32 0.000000 -1.292972 0.000001 -0.329277 0.000000 0.000000
    33 0.000000 -0.752466 0.000000 -0.383779 0.000000 0.000000
    34 0.444213 -2.561959 -0.277655 -0.981088 -0.046226 -0.024599
    35 0.021022 -1.208185 -0.000001 -0.239112 0.000000 0.000000
    36 0.010597 -0.741867 -0.000001 -0.639188 0.000000 0.000000
    37 1.047445 -2.222821 -0.277655 -0.971427 -0.078971 -0.038609
    38 0.000000 -0.996222 0.000000 -0.863938 0.000000 0.000000
    39 -0.000001 -0.614690 0.000000 -0.523599 0.000000 0.000000
    40 -0.308254 -0.007814 0.307166 0.148882 -0.168159 -2.352078
    41 1.978379 0.019544 0.000000 -0.094045 -0.034838 0.189469
    42 0.982426 0.003186 0.000000 0.000000 0.000000 -0.105115
  time 2
    0 5.184602 -1.525893 -14.385654 -1.459009 -0.401413 0.646037
    1 -0.000001 -8.563283 0.000000 0.372718 0.572071 -0.148120
    2 -0.293234 -3.282020 0.672796 -1.247037 1.437608 -1.233844
    3 -0.000002 2.163130 0.753818 0.000000 0.000000 0.000000
    4 0.000002 -3.052707 1.526597 0.000000 0.000000 0.000000
    5 0.000003 -10.293062 1.701879 0.000000 0.000000 0.000000
    6 0.000000 -4.967293 1.445704 0.000000 0.000000 0.000000
    7 0.000000 -5.102123 2.443444 0.000000 0.000000 0.000000
    8 0.004669 5.953095 -2.702796 0.000000 0.000000 0.000000
    9 -0.003480 -0.404829 0.000000 0.000000 0.000000 0.000000
    10 -0.519310 -2.501155 -0.278957 -1.375314 0.000000 -0.122173
    11 -0.010598 -1.208185 0.000000 -0.907575 0.000000 0.000000
    12 0.000000 -0.763066 0.000000 -1.144947 0.000000 0.000000
    13 0.105980 -2.607134 -0.278957 -0.869181 0.000000 -0.148353
    14 -0.000001 -1.250579 0.000000 -1.385786 0.000000 0.000000
    15 0.000000 -0.932634 0.000000 -0.902353 0.000000 0.000000
    16 0.763064 -2.490556 -0.278957 -0.340544 0.078175 0.347833
    17 -0.012322 -1.280917 0.000000 -0.553262 0.000000 0.000000
    18 -0.001697 -0.749371 0.000000 -0.593412 0.000000 0.000000
    19 0.354567 0.016267 0.318132 0.386384 -0.406183 -1.191370
    20 1.887164 0.012878 0.000000 -0.304306 0.026726 -0.316515
    21 1.001874 -0.000270 0.000000 0.000000 0.000000 -0.886628
    22 -1.123360 -2.195093 -0.278957 -1.206017 0.000000 -0.087266
    23 0.010772 -0.963791 0.000000 -0.778410 0.000000 0.000000
    24 -0.010412 -0.631916 -0.000001 -1.003573 0.000000 0.000000
    25 -9.531051 7.506327 -14.631603 0.652399 -3.052213 0.794714
    26 0.089929 -8.543160 0.000000 0.692258 0.053308 0.619064
    27 0.000000 -0.359712 0.000000 0.000000 0.000000 0.000000
    28 -0.170480 -2.636147 -0.277655 -1.084956 0.000000 0.000000
    29 0.010599 -1.261177 0.000001 -0.195463 0.000000 0.000000
    30 -0.000001 -0.943233 -0.000001 -0.609483 0.000000 0.000000
    31 -0.827563 -2.508973 -0.277656 -0.826221 -0.030010 -0.036169
    32 0.000000 -1.292972 0.000001 -0.351742 0.000000 0.000000
    33 0.000000 -0.752466 0.000000 -0.411224 0.000000 0.000000
    34 0.444213 -2.561959 -0.277655 -1.051501 -0.046226 -0.024599
    35 0.021022 -1.208185 -0.000001 -0.239112 0.000000 0.000000
    36 0.010597 -0.741867 -0.000001 -0.633987 0.000000 0.000000
    37 1.047445 -2.222821 -0.277655 -1.026070 -0.078971 -0.038609
    38 0.000000 -0.996222 0.000000 -0.863938 0.000000 0.000000
    39 -0.000001 -0.614690 0.000000 -0.523599 0.000000 0.000000
    40 -0.308254 -0.007814 0.307166 0.122264 -0.178766 -2.367058
    41 1.978379 0.019544 0.000000 -0.094189 -0.035461 0.184864
    42 0.982426 0.003186 0.000000 0.000000 0.000000 -0.064101
  time 3
    0 5.172883 -1.557144 -14.592691 -1.478928 -0.407554 0.695821
    1 -0.000001 -8.563283 0.000000 0.375036 0.572335 -0.145662
    2 -0.293234 -3.282020 0.672796 -1.247037 1.437608 -1.233844
    3 -0.000002 2.163130 0.753818 0.000000 0.000000 0.000000
    4 0.000002 -3.052707 1.526597 0.000000 0.000000 0.000000
    5 0.000003 -10.293062 1.701879 0.000000 0.000000 0.000000
    6 0.000000 -4.967293 1.445704 0.000000 0.000000 0.000000
    7 0.000000 -5.102123 2.443444 0.000000 0.000000 0.000000
    8 0.004669 5.953095 -2.702796 0.000000 0.000000 0.000000
    9 -0.003480 -0.404829 0.000000 0.000000 0.000000 0.000000
    10 -0.519310 -2.501155 -0.278957 -1.375314 0.000000 -0.122173
    11 -0.010598 -1.208185 0.000000 -0.907575 0.000000 0.000000
    12 0.000000 -0.763066 0.000000 -1.144947 0.000000 0.000000
    13 0.105980 -2.607134 -0.278957 -0.869181 0.000000 -0.148353
    14 -0.000001 -1.250579 0.000000 -1.385786 0.000000 0.000000
    15 0.000000 -0.932634 0.000000 -0.902353 0.000000 0.000000
    16 0.763064 -2.490556 -0.278957 -0.340544 0.078175 0.347833
    17 -0.012322 -1.280917 0.000000 -0.553262 0.000000 0.000000
    18 -0.001697 -0.749371 0.000000 -0.593412 0.000000 0.000000
    19 0.354567 0.016267 0.318132 0.386384 -0.406183 -1.191370
    20 1.887164 0.012878 0.000000 -0.304306 0.026726 -0.316515
    21 1.001874 -0.000270 0.000000 0.000000 0.000000 -0.886628
    22 -1.123360 -2.195093 -0.278957 -1.206017 0.000000 -0.087266
    23 0.010772 -0.963791 0.000000 -0.778410 0.000000 0.000000
    24 -0.010412 -0.631916 -0.000001 -1.003573 0.000000 0.000000
    25 -8.378672 4.330449 -13.037805 0.638293 -3.167218 0.913922
    26 0.089929 -8.543160 0.000000 0.711507 -0.001706 0.592031
    27 0.000000 -0.359712 0.000000 0.000000 0.000000 0.000000
    28 -0.170480 -2.636147 -0.277655 -1.146586 0.000000 0.000000
    29 0.010599 -1.261177 0.000001 -0.201935 0.000000 0.000000
    30 -0.000001 -0.943233 -0.000001 -0.604881 0.000000 0.000000
    31 -0.827563 -2.508973 -0.277656 -0.865779 -0.027397 -0.031711
    32 0.000000 -1.292972 0.000001 -0.373242 0.000000 0.000000
    33 0.000000 -0.752466 0.000000 -0.438405 0.000000 0.000000
    34 0.444213 -2.561959 -0.277655 -1.124722 -0.046226 -0.024599
    35 0.021022 -1.208185 -0.000001 -0.239112 0.000000 0.000000
    36 0.010597 -0.741867 -0.000001 -0.628282 0.000000 0.000000
    37 1.047445 -2.222821 -0.277655 -1.082202 -0.078971 -0.038609
    38 0.000000 -0.996222 0.000000 -0.863938 0.000000 0.000000
    39 -0.000001 -0.614690 0.000000 -0.523599 0.000000 0.000000
    40 -0.308254 -0.007814 0.307166 0.094771 -0.189995 -2.383813
    41 1.978379 0.019544 0.000000 -0.094488 -0.035845 0.183048
    42 0.982426 0.003186 0.000000 0.000000 0.000000 -0.018540
  time 4
    0 5.161164 -1.607927 -14.901294 -1.504384 -0.413841 0.758420
    1 -0.000001 -8.563283 0.000000 0.378311 0.572730 -0.142153
    2 -0.293234 -3.282020 0.672796 -1.247037 1.437608 -1.233844
    3 -0.000002 2.163130 0.753818 0.000000 0.000000 0.000000
    4 0.000002 -3.052707 1.526597 0.000000 0.000000 0.000000
    5 0.000003 -10.293062 1.701879 0.000000 0.000000 0.000000
    6 0.000000 -4.967293 1.445704 0.000000 0.000000 0.000000
    7 0.000000 -5.102123 2.443444 0.000000 0.000000 0.000000
    8 0.004669 5.953095 -2.702796 0.000000 0.000000 0.000000
    9 -0.003480 -0.404829 0.000000 0.000000 0.000000 0.000000
    10 -0.519310 -2.501155 -0.278957 -1.375314 0.000000 -0.122173
    11 -0.010598 -1.208185 0.000000 -0.907575 0.000000 0.000000
    12 0.000000 -0.763066 0.000000 -1.144947 0.000000 0.000000
    13 0.105980 -2.607134 -0.278957 -0.869181 0.000000 -0.148353
    14 -0.000001 -1.250579 0.000000 -1.385786 0.000000 0.000000
    15 0.000000 -0.932634 0.000000 -0.902353 0.000000 0.000000
    16 0.763064 -2.490556 -0.278957 -0.340544 0.078175 0.347833
    17 -0.012322 -1.280917 0.000000 -0.553262 0.000000 0.000000
    18 -0.001697 -0.749371 0.000000 -0.593412 0.000000 0.000000
    19 0.354567 0.016267 0.318132 0.386384 -0.406183 -1.191370
    20 1.887164 0.012878 0.000000 -0.304306 0.026726 -0.316515
    21 1.001874 -0.000270 0.000000 0.000000 0.000000 -0.886628
    22 -1.123360 -2.195093 -0.278957 -1.206017 0.000000 -0.087266
    23 0.010772 -0.963791 0.000000 -0.778410 0.000000 0.000000
    24 -0.010412 -0.631916 -0.000001 -1.003573 0.000000 0.000000
    25 -7.363016 1.529582 -11.635418 0.651209 -3.297748 1.056012
    26 0.089929 -8.543160 0.000000 0.718585 -0.057133 0.563431
    27 0.000000 -0.359712 0.000000 0.000000 0.000000 0.000000
    28 -0.170480 -2.636147 -0.277655 -1.209005 0.000000 0.000000
    29 0.010599 -1.261177 0.000001 -0.208322 0.000000 0.000000
    30 -0.000001 -0.943233 -0.000001 -0.599727 0.000000 0.000000
    31 -0.827563 -2.508973 -0.277656 -0.905964 -0.024545 -0.027301
    32 0.000000 -1.292972 0.000001 -0.393992 0.000000 0.000000
    33 0.000000 -0.752466 0.000000 -0.465406 0.000000 0.000000
    34 0.444213 -2.561959 -0.277655 -1.200047 -0.046226 -0.024599
    35 0.021022 -1.208185 -0.000001 -0.239112 0.000000 0.000000
    36 0.010597 -0.741867 -0.000001 -0.622170 0.000000 0.000000
    37 1.047445 -2.222821 -0.277655 -1.139206 -0.078971 -0.038609
    38 0.000000 -0.996222 0.000000 -0.863938 0.000000 0.000000
    39 -0.000001 -0.614690 0.000000 -0.523599 0.000000 0.000000
    40 -0.308254 -0.007814 0.307166 0.066715 -0.201920 -2.401826
    41 1.978379 0.019544 0.000000 -0.094896 -0.036024 0.183428
    42 0.982426 0.003186 0.000000 0.000000 0.000000 0.030521
  time 5
    0 5.141632 -1.670429 -15.284119 -1.534094 -0.419251 0.830650
    1 -0.000001 -8.563283 0.000000 0.382066 0.573125 -0.138160
    2 -0.293234 -3.282020 0.672796 -1.247037 1.437608 -1.233844
    3 -0.000002 2.163130 0.753818 0.000000 0.000000 0.000000
    4 0.000002 -3.052707 1.526597 0.000000 0.000000 0.000000
    5 0.000003 -10.293062 1.701879 0.000000 0.000000 0.000000
    6 0.000000 -4.967293 1.445704 0.000000 0.000000 0.000000
    7 0.000000 -5.102123 2.443444 0.000000 0.000000 0.000000
    8 0.004669 5.953095 -2.702796 0.000000 0.000000 0.000000
    9 -0.003480 -0.404829 0.000000 0.000000 0.000000 0.000000
    10 -0.519310 -2.501155 -0.278957 -1.375314 0.000000 -0.122173
    11 -0.010598 -1.208185 0.000000 -0.907575 0.000000 0.000000
    12 0.000000 -0.763066 0.000000 -1.144947 0.000000 0.000000
    13 0.105980 -2.607134 -0.278957 -0.869181 0.000000 -0.148353
    14 -0.000001 -1.250579 0.000000 -1.385786 0.000000 0.000000
    15 0.000000 -0.932634 0.000000 -0.902353 0.000000 0.000000
    16 0.763064 -2.490556 -0.278957 -0.340544 0.078175 0.347833
    17 -0.012322 -1.280917 0.000000 -0.553262 0.000000 0.000000
    18 -0.001697 -0.749371 0.000000 -0.593412 0.000000 0.000000
    19 0.354567 0.016267 0.318132 0.386384 -0.406183 -1.191370
    20 1.887164 0.012878 0.000000 -0.304306 0.026726 -0.316515
    21 1.001874 -0.000270 0.000000 0.000000 0.000000 -0.886628
    22 -1.123360 -2.195093 -0.278957 -1.206017 0.000000 -0.087266
    23 0.010772 -0.963791 0.000000 -0.778410 0.000000 0.000000
    24 -0.010412 -0.631916 -0.000001 -1.003573 0.000000 0.000000
    25 -6.484083 -0.896273 -10.416631 0.695086 -3.434124 1.222559
    26 0.089929 -8.543160 0.000000 0.717086 -0.111779 0.534005
    27 0.000000 -0.359712 0.000000 0.000000 0.000000 0.000000
    28 -0.170480 -2.636147 -0.277655 -1.271902 0.000000 0.000000
    29 0.010599 -1.261177 0.000001 -0.214650 0.000000 0.000000
    30 -0.000001 -0.943233 -0.000001 -0.594226 0.000000 0.000000
    31 -0.827563 -2.508973 -0.277656 -0.946562 -0.021489 -0.022938
    32 0.000000 -1.292972 0.000001 -0.414278 0.000000 0.000000
    33 0.000000 -0.752466 0.000000 -0.492288 0.000000 0.000000
    34 0.444213 -2.561959 -0.277655 -1.276747 -0.046226 -0.024599
    35 0.021022 -1.208185 -0.000001 -0.239112 0.000000 0.000000
    36 0.010597 -0.741867 -0.000001 -0.615818 0.000000 0.000000
    37 1.047445 -2.222821 -0.277655 -1.196423 -0.078971 -0.038609
    38 0.000000 -0.996222 0.000000 -0.863938 0.000000 0.000000
    39 -0.000001 -0.614690 0.000000 -0.523599 0.000000 0.000000
    40 -0.308254 -0.007814 0.307166 0.038288 -0.214504 -2.420629
    41 1.978379 0.019544 0.000000 -0.095363 -0.036084 0.185309
    42 0.982426 0.003186 0.000000 0.000000 0.000000 0.082087
  time 6
    0 5.122100 -1.740744 -15.721632 -1.566775 -0.422907 0.909325
    1 -0.000001 -8.563283 0.000000 0.385834 0.573520 -0.134126
    2 -0.293234 -3.282020 0.672796 -1.247037 1.437608 -1.233844
    3 -0.000002 2.163130 0.753818 0.000000 0.000000 0.000000
    4 0.000002 -3.052707 1.526597 0.000000 0.000000 0.000000
    5 0.000003 -10.293062 1.701879 0.000000 0.000000 0.000000
    6 0.000000 -4.967293 1.445704 0.000000 0.000000 0.000000
    7 0.000000 -5.102123 2.443444 0.000000 0.000000 0.000000
    8 0.004669 5.953095 -2.702796 0.000000 0.000000 0.000000
    9 -0.003480 -0.404829 0.000000 0.000000 0.000000 0.000000
    10 -0.519310 -2.501155 -0.278957 -1.375314 0.000000 -0.122173
    11 -0.010598 -1.208185 0.000000 -0.907575 0.000000 0.000000
    12 0.000000 -0.763066 0.000000 -1.144947 0.000000 0.000000
    13 0.105980 -2.607134 -0.278957 -0.869181 0.000000 -0.148353
    14 -0.000001 -1.250579 0.000000 -1.385786 0.000000 0.000000
    15 0.000000 -0.932634 0.000000 -0.902353 0.000000 0.000000
    16 0.763064 -2.490556 -0.278957 -0.340544 0.078175 0.347833
    17 -0.012322 -1.280917 0.000000 -0.553262 0.000000 0.000000
    18 -0.001697 -0.749371 0.000000 -0.593412 0.000000 0.000000
    19 0.354567 0.016267 0.318132 0.386384 -0.406183 -1.191370
    20 1.887164 0.012878 0.000000 -0.304306 0.026726 -0.316515
    21 1.001874 -0.000270 0.000000 0.000000 0.000000 -0.886628
    22 -1.123360 -2.195093 -0.278957 -1.206017 0.000000 -0.087266
    23 0.010772 -0.963791 0.000000 -0.778410 0.000000 0.000000
    24 -0.010412 -0.631916 -0.000001 -1.003573 0.000000 0.000000
    25 -5.741873 -2.954930 -9.385349 0.773221 -3.565900 1.416780
    26 0.089929 -8.543160 0.000000 0.710705 -0.164269 0.504084
    27 0.000000 -0.359712 0.000000 0.000000 0.000000 0.000000
    28 -0.170480 -2.636147 -0.277655 -1.335070 0.000000 0.000000
    29 0.010599 -1.261177 0.000001 -0.220978 0.000000 0.000000
    30 -0.000001 -0.943233 -0.000001 -0.588570 0.000000 0.000000
    31 -0.827563 -2.508973 -0.277656 -0.987374 -0.018241 -0.018684
    32 0.000000 -1.292972 0.000001 -0.434301 0.000000 0.000000
    33 0.000000 -0.752466 0.000000 -0.519121 0.000000 0.000000
    34 0.444213 -2.561959 -0.277655 -1.354205 -0.046226 -0.024599
    35 0.021022 -1.208185 -0.000001 -0.239112 0.000000 0.000000
    36 0.010597 -0.741867 -0.000001 -0.609310 0.000000 0.000000
    37 1.047445 -2.222821 -0.277655 -1.253193 -0.078971 -0.038609
    38 0.000000 -0.996222 0.000000 -0.863938 0.000000 0.000000
    39 -0.000001 -0.614690 0.000000 -0.523599 0.000000 0.000000
    40 -0.308254 -0.007814 0.307166 0.009753 -0.227711 -2.439733
    41 1.978379 0.019544 0.000000 -0.095915 -0.036060 0.188049
    42 0.982426 0.003186 0.000000 0.000000 0.000000 0.135014
  time 7
    0 5.102568 -1.814965 -16.186490 -1.601008 -0.424174 0.991186
    1 -0.000001 -8.563283 0.000000 0.389110 0.573872 -0.130617
    2 -0.293234 -3.282020 0.672796 -1.247037 1.437608 -1.233844
    3 -0.000002 2.163130 0.753818 0.000000 0.000000 0.000000
    4 0.000002 -3.052707 1.526597 0.000000 0.000000 0.000000
    5 0.000003 -10.293062 1.701879 0.000000 0.000000 0.000000
    6 0.000000 -4.967293 1.445704 0.000000 0.000000 0.000000
    7 0.000000 -5.102123 2.443444 0.000000 0.000000 0.000000
    8 0.004669 5.953095 -2.702796 0.000000 0.000000 0.000000
    9 -0.003480 -0.404829 0.000000 0.000000 0.000000 0.000000
    10 -0.519310 -2.501155 -0.278957 -1.375314 0.000000 -0.122173
    11 -0.010598 -1.208185 0.000000 -0.907575 0.000000 0.000000
    12 0.000000 -0.763066 0.000000 -1.144947 0.000000 0.000000
    13 0.105980 -2.607134 -0.278957 -0.869181 0.000000 -0.148353
    14 -0.000001 -1.250579 0.000000 -1.385786 0.000000 0.000000
    15 0.000000 -0.932634 0.000000 -0.902353 0.000000 0.000000
    16 0.763064 -2.490556 -0.278957 -0.340544 0.078175 0.347833
    17 -0.012322 -1.280917 0.000000 -0.553262 0.000000 0.000000
    18 -0.001697 -0.749371 0.000000 -0.593412 0.000000 0.000000
    19 0.354567 0.016267 0.318132 0.386384 -0.406183 -1.191370
    20 1.887164 0.012878 0.000000 -0.304306 0.026726 -0.316515
    21 1.001874 -0.000270 0.000000 0.000000 0.000000 -0.886628
    22 -1.123360 -2.195093 -0.278957 -1.206017 0.000000 -0.087266
    23 0.010772 -0.963791 0.000000 -0.778410 0.000000 0.000000
    24 -0.010412 -0.631916 -0.000001 -1.003573 0.000000 0.000000
    25 -5.132479 -4.634668 -8.541574 -2.254472 -5.743227 -1.500829
    26 0.089929 -8.543160 0.000000 0.702894 -0.213117 0.473531
    27 0.000000 -0.359712 0.000000 0.000000 0.000000 0.000000
    28 -0.170480 -2.636147 -0.277655 -1.398279 0.000000 0.000000
    29 0.010599 -1.261177 0.000001 -0.227306 0.000000 0.000000
    30 -0.000001 -0.943233 -0.000001 -0.582889 0.000000 0.000000
    31 -0.827563 -2.508973 -0.277656 -1.028172 -0.014801 -0.014549
    32 0.000000 -1.292972 0.000001 -0.454311 0.000000 0.000000
    33 0.000000 -0.752466 0.000000 -0.545955 0.000000 0.000000
    34 0.444213 -2.561959 -0.277655 -1.431607 -0.046226 -0.024599
    35 0.021022 -1.208185 -0.000001 -0.239112 0.000000 0.000000
    36 0.010597 -0.741867 -0.000001 -0.602815 0.000000 0.000000
    37 1.047445 -2.222821 -0.277655 -1.308921 -0.078971 -0.038609
    38 0.000000 -0.996222 0.000000 -0.863938 0.000000 0.000000
    39 -0.000001 -0.614690 0.000000 -0.523599 0.000000 0.000000
    40 -0.308254 -0.007814 0.307166 -0.018687 -0.241481 -2.458669
    41 1.978379 0.019544 0.000000 -0.096454 -0.036012 0.191004
    42 0.982426 0.003186 0.000000 0.000000 0.000000 0.188331
  time 8
    0 5.079130 -1.893092 -16.655254 -1.635175 -0.422907 1.072968
    1 -0.000001 -8.563283 0.000000 0.391427 0.574113 -0.128159
    2 -0.293234 -3.282020 0.672796 -1.247037 1.437608 -1.233844
    3 -0.000002 2.163130 0.753818 0.000000 0.000000 0.000000
    4 0.000002 -3.052707 1.526597 0.000000 0.000000 0.000000
    5 0.000003 -10.293062 1.701879 0.000000 0.000000 0.000000
    6 0.000000 -4.967293 1.445704 0.000000 0.000000 0.000000
    7 0.000000 -5.102123 2.443444 0.000000 0.000000 0.000000
    8 0.004669 5.953095 -2.702796 0.000000 0.000000 0.000000
    9 -0.003480 -0.404829 0.000000 0.000000 0.000000 0.000000
    10 -0.519310 -2.501155 -0.278957 -1.375314 0.000000 -0.122173
    11 -0.010598 -1.208185 0.000000 -0.907575 0.000000 0.000000
    12 0.000000 -0.763066 0.000000 -1.144947 0.000000 0.000000
    13 0.105980 -2.607134 -0.278957 -0.869181 0.000000 -0.148353
    14 -0.000001 -1.250579 0.000000 -1.385786 0.000000 0.000000
    15 0.000000 -0.932634 0.000000 -0.902353 0.000000 0.000000
    16 0.763064 -2.490556 -0.278957 -0.340544 0.078175 0.347833
    17 -0.012322 -1.280917 0.000000 -0.553262 0.000000 0.000000
    18 -0.001697 -0.749371 0.000000 -0.593412 0.000000 0.000000
    19 0.354567 0.016267 0.318132 0.386384 -0.406183 -1.191370
    20 1.887164 0.012878 0.000000 -0.304306 0.026726 -0.316515
    21 1.001874 -0.000270 0.000000 0.000000 0.000000 -0.886628
    22 -1.123360 -2.195093 -0.278957 -1.206017 0.000000 -0.087266
    23 0.010772 -0.963791 0.000000 -0.778410 0.000000 0.000000
    24 -0.010412 -0.631916 -0.000001 -1.003573 0.000000 0.000000
    25 -4.655902 -5.943302 -7.889210 -2.109101 -5.653715 -1.249972
    26 0.089929 -8.543160 0.000000 0.697175 -0.256519 0.441961
    27 0.000000 -0.359712 0.000000 0.000000 0.000000 0.000000
    28 -0.170480 -2.636147 -0.277655 -1.461176 0.000000 0.000000
    29 0.010599 -1.261177 0.000001 -0.233646 0.000000 0.000000
    30 -0.000001 -0.943233 -0.000001 -0.577388 0.000000 0.000000
    31 -0.827563 -2.508973 -0.277656 -1.068744 -0.011242 -0.010594
    32 0.000000 -1.292972 0.000001 -0.474585 0.000000 0.000000
    33 0.000000 -0.752466 0.000000 -0.572848 0.000000 0.000000
    34 0.444213 -2.561959 -0.277655 -1.508363 -0.046226 -0.024599
    35 0.021022 -1.208185 -0.000001 -0.239112 0.000000 0.000000
    36 0.010597 -0.741867 -0.000001 -0.596463 0.000000 0.000000
    37 1.047445 -2.222821 -0.277655 -1.362905 -0.078971 -0.038609
    38 0.000000 -0.996222 0.000000 -0.863938 0.000000 0.000000
    39 -0.000001 -0.614690 0.000000 -0.523599 0.000000 0.000000
    40 -0.308254 -0.007814 0.307166 -0.046791 -0.255695 -2.476921
    41 1.978379 0.019544 0.000000 -0.096957 -0.036000 0.193546
    42 0.982426 0.003186 0.000000 0.000000 0.000000 0.240917
  time 9
    0 5.059598 -1.963407 -17.092768 -1.667585 -0.419349 1.151023
    1 -0.000001 -8.563283 0.000000 0.392308 0.574201 -0.127213
    2 -0.293234 -3.282020 0.672796 -1.247037 1.437608 -1.233844
    3 -0.000002 2.163130 0.753818 0.000000 0.000000 0.000000
    4 0.000002 -3.052707 1.526597 0.000000 0.000000 0.000000
    5 0.000003 -10.293062 1.701879 0.000000 0.000000 0.000000
    6 0.000000 -4.967293 1.445704 0.000000 0.000000 0.000000
    7 0.000000 -5.102123 2.443444 0.000000 0.000000 0.000000
    8 0.004669 5.953095 -2.702796 0.000000 0.000000 0.000000
    9 -0.003480 -0.404829 0.000000 0.000000 0.000000 0.000000
    10 -0.519310 -2.501155 -0.278957 -1.375314 0.000000 -0.122173
    11 -0.010598 -1.208185 0.000000 -0.907575 0.000000 0.000000
    12 0.000000 -0.763066 0.000000 -1.144947 0.000000 0.000000
    13 0.105980 -2.607134 -0.278957 -0.869181 0.000000 -0.148353
    14 -0.000001 -1.250579 0.000000 -1.385786 0.000000 0.000000
    15 0.000000 -0.932634 0.000000 -0.902353 0.000000 0.000000
    16 0.763064 -2.490556 -0.278957 -0.340544 0.078175 0.347833
    17 -0.012322 -1.280917 0.000000 -0.553262 0.000000 0.000000
    18 -0.001697 -0.749371 0.000000 -0.593412 0.000000 0.000000
    19 0.354567 0.016267 0.318132 0.386384 -0.406183 -1.191370
    20 1.887164 0.012878 0.000000 -0.304306 0.026726 -0.316515
    21 1.001874 -0.000270 0.000000 0.000000 0.000000 -0.886628
    22 -1.123360 -2.195093 -0.278957 -1.206017 0.000000 -0.087266
    23 0.010772 -0.963791 0.000000 -0.778410 0.000000 0.000000
    24 -0.010412 -0.631916 -0.000001 -1.003573 0.000000 0.000000
    25 -4.319954 -6.876924 -7.420446 -1.945043 -5.595829 -0.984312
    26 0.089929 -8.543160 0.000000 0.697105 -0.292594 0.408658
    27 0.000000 -0.359712 0.000000 0.000000 0.000000 0.000000
    28 -0.170480 -2.636147 -0.277655 -1.523574 0.000000 0.000000
    29 0.010599 -1.261177 0.000001 -0.240034 0.000000 0.000000
    30 -0.000001 -0.943233 -0.000001 -0.572259 0.000000 0.000000
    31 -0.827563 -2.508973 -0.277656 -1.108862 -0.007551 -0.006831
    32 0.000000 -1.292972 0.000001 -0.495334 0.000000 0.000000
    33 0.000000 -0.752466 0.000000 -0.599850 0.000000 0.000000
    34 0.444213 -2.561959 -0.277655 -1.583688 -0.046226 -0.024599
    35 0.021022 -1.208185 -0.000001 -0.239112 0.000000 0.000000
    36 0.010597 -0.741867 -0.000001 -0.590351 0.000000 0.000000
    37 1.047445 -2.222821 -0.277655 -1.414528 -0.078971 -0.038609
    38 0.000000 -0.996222 0.000000 -0.863938 0.000000 0.000000
    39 -0.000001 -0.614690 0.000000 -0.523599 0.000000 0.000000
    40 -0.308254 -0.007814 0.307166 -0.074427 -0.270220 -2.494071
    41 1.978379 0.019544 0.000000 -0.097437 -0.036084 0.194999
    42 0.982426 0.003186 0.000000 0.000000 0.000000 0.291778
  time 10
    0 5.043972 -2.025909 -17.475592 -1.696958 -0.414036 1.222243
    1 -0.000001 -8.563283 0.000000 0.391272 0.574091 -0.128327
    2 -0.293234 -3.282020 0.672796 -1.247037 1.437608 -1.233844
    3 -0.000002 2.163130 0.753818 0.000000 0.000000 0.000000
    4 0.000002 -3.052707 1.526597 0.000000 0.000000 0.000000
    5 0.000003 -10.293062 1.701879 0.000000 0.000000 0.000000
    6 0.000000 -4.967293 1.445704 0.000000 0.000000 0.000000
    7 0.000000 -5.102123 2.443444 0.000000 0.000000 0.000000
    8 0.004669 5.953095 -2.702796 0.000000 0.000000 0.000000
    9 -0.003480 -0.404829 0.000000 0.000000 0.000000 0.000000
    10 -0.519310 -2.501155 -0.278957 -1.375314 0.000000 -0.122173
    11 -0.010598 -1.208185 0.000000 -0.907575 0.000000 0.000000
    12 0.000000 -0.763066 0.000000 -1.144947 0.000000 0.000000
    13 0.105980 -2.607134 -0.278957 -0.869181 0.000000 -0.148353
    14 -0.000001 -1.250579 0.000000 -1.385786 0.000000 0.000000
    15 0.000000 -0.932634 0.000000 -0.902353 0.000000 0.000000
    16 0.763064 -2.490556 -0.278957 -0.340544 0.078175 0.347833
    17 -0.012322 -1.280917 0.000000 -0.553262 0.000000 0.000000
    18 -0.001697 -0.749371 0.000000 -0.593412 0.000000 0.000000
    19 0.354567 0.016267 0.318132 0.386384 -0.406183 -1.191370
    20 1.887164 0.012878 0.000000 -0.304306 0.026726 -0.316515
    21 1.001874 -0.000270 0.000000 0.000000 0.000000 -0.886628
    22 -1.123360 -2.195093 -0.278957 -1.206017 0.000000 -0.087266
    23 0.010772 -0.963791 0.000000 -0.778410 0.000000 0.000000
    24 -0.010412 -0.631916 -0.000001 -1.003573 0.000000 0.000000
    25 -4.116823 -7.439442 -7.139187 -1.782176 -5.567078 -0.723730
    26 0.089929 -8.543160 0.000000 0.706137 -0.319137 0.372742
    27 0.000000 -0.359712 0.000000 0.000000 0.000000 0.000000
    28 -0.170480 -2.636147 -0.277655 -1.585204 0.000000 0.000000
    29 0.010599 -1.261177 0.000001 -0.246493 0.000000 0.000000
    30 -0.000001 -0.943233 -0.000001 -0.567645 0.000000 0.000000
    31 -0.827563 -2.508973 -0.277656 -1.148287 -0.003788 -0.003308
    32 0.000000 -1.292972 0.000001 -0.516835 0.000000 0.000000
    33 0.000000 -0.752466 0.000000 -0.627055 0.000000 0.000000
    34 0.444213 -2.561959 -0.277655 -1.656909 -0.046226 -0.024599
    35 0.021022 -1.208185 -0.000001 -0.239112 0.000000 0.000000
    36 0.010597 -0.741867 -0.000001 -0.584646 0.000000 0.000000
    37 1.047445 -2.222821 -0.277655 -1.463152 -0.078971 -0.038609
    38 0.000000 -0.996222 0.000000 -0.863938 0.000000 0.000000
    39 -0.000001 -0.614690 0.000000 -0.523599 0.000000 0.000000
    40 -0.308254 -0.007814 0.307166 -0.101368 -0.284865 -2.509675
    41 1.978379 0.019544 0.000000 -0.097796 -0.036336 0.194701
    42 0.982426 0.003186 0.000000 0.000000 0.000000 0.339819
  time 11
    0 5.028347 -2.076692 -17.784195 -1.721806 -0.407944 1.283521
    1 -0.000001 -8.563283 0.000000 0.387828 0.573740 -0.132004
    2 -0.293234 -3.282020 0.672796 -1.247037 1.437608 -1.233844
    3 -0.000002 2.163130 0.753818 0.000000 0.000000 0.000000
    4 0.000002 -3.052707 1.526597 0.000000 0.000000 0.000000
    5 0.000003 -10.293062 1.701879 0.000000 0.000000 0.000000
    6 0.000000 -4.967293 1.445704 0.000000 0.000000 0.000000
    7 0.000000 -5.102123 2.443444 0.000000 0.000000 0.000000
    8 0.004669 5.953095 -2.702796 0.000000 0.000000 0.000000
    9 -0.003480 -0.404829 0.000000 0.000000 0.000000 0.000000
    10 -0.519310 -2.501155 -0.278957 -1.375314 0.000000 -0.122173
    11 -0.010598 -1.208185 0.000000 -0.907575 0.000000 0.000000
    12 0.000000 -0.763066 0.000000 -1.144947 0.000000 0.000000
    13 0.105980 -2.607134 -0.278957 -0.869181 0.000000 -0.148353
    14 -0.000001 -1.250579 0.000000 -1.385786 0.000000 0.000000
    15 0.000000 -0.932634 0.000000 -0.902353 0.000000 0.000000
    16 0.763064 -2.490556 -0.278957 -0.340544 0.078175 0.347833
    17 -0.012322 -1.280917 0.000000 -0.553262 0.000000 0.000000
    18 -0.001697 -0.749371 0.000000 -0.593412 0.000000 0.000000
    19 0.354567 0.016267 0.318132 0.386384 -0.406183 -1.191370
    20 1.887164 0.012878 0.000000 -0.304306 0.026726 -0.316515
    21 1.001874 -0.000270 0.000000 0.000000 0.000000 -0.886628
    22 -1.123360 -2.195093 -0.278957 -1.206017 0.000000 -0.087266
    23 0.010772 -0.963791 0.000000 -0.778410 0.000000 0.000000
    24 -0.010412 -0.631916 -0.000001 -1.003573 0.000000 0.000000
    25 -4.050415 -7.626947 -7.045434 -1.639095 -5.556919 -0.487389
    26 0.089929 -8.543160 0.000000 0.727442 -0.333701 0.333636
    27 0.000000 -0.359712 0.000000 0.000000 0.000000 0.000000
    28 -0.170480 -2.636147 -0.277655 -1.645857 0.000000 0.000000
    29 0.010599 -1.261177 0.000001 -0.253073 0.000000 0.000000
    30 -0.000001 -0.943233 -0.000001 -0.563750 0.000000 0.000000
    31 -0.827563 -2.508973 -0.277656 -1.186845 0.000000 -0.000012
    32 0.000000 -1.292972 0.000001 -0.539300 0.000000 0.000000
    33 0.000000 -0.752466 0.000000 -0.654487 0.000000 0.000000
    34 0.444213 -2.561959 -0.277655 -1.727294 -0.046226 -0.024599
    35 0.021022 -1.208185 -0.000001 -0.239112 0.000000 0.000000
    36 0.010597 -0.741867 -0.000001 -0.579445 0.000000 0.000000
    37 1.047445 -2.222821 -0.277655 -1.508117 -0.078971 -0.038609
    38 0.000000 -0.996222 0.000000 -0.863938 0.000000 0.000000
    39 -0.000001 -0.614690 0.000000 -0.523599 0.000000 0.000000
    40 -0.308254 -0.007814 0.307166 -0.127483 -0.299474 -2.523253
    41 1.978379 0.019544 0.000000 -0.098060 -0.036779 0.192060
    42 0.982426 0.003186 0.000000 0.000000 0.000000 0.383993
  time 12
    0 5.020534 -2.107942 -17.987326 -1.733015 -0.415401 1.299054
    1 -0.000001 -8.563283 0.000000 0.381509 0.573059 -0.138749
    2 -0.293234 -3.282020 0.672796 -1.247037 1.437608 -1.233844
    3 -0.000002 2.163130 0.753818 0.000000 0.000000 0.000000
    4 0.000002 -3.052707 1.526597 0.000000 0.000000 0.000000
    5 0.000003 -10.125088 1.701879 0.000000 0.000000 0.000000
    6 0.000000 -4.967293 1.445704 0.000000 0.000000 0.000000
    7 0.000000 -5.102123 2.443444 0.000000 0.000000 0.000000
    8 0.004669 5.953095 -2.702796 0.000000 0.000000 0.000000
    9 -0.003480 -0.404829 0.000000 0.000000 0.000000 0.000000
    10 -0.519310 -2.501155 -0.278957 -1.375314 0.000000 -0.122173
    11 -0.010598 -1.208185 0.000000 -0.907575 0.000000 0.000000
    12 0.000000 -0.763066 0.000000 -1.144947 0.000000 0.000000
    13 0.105980 -2.607134 -0.278957 -0.869181 0.000000 -0.148353
    14 -0.000001 -1.250579 0.000000 -1.385786 0.000000 0.000000
    15 0.000000 -0.932634 0.000000 -0.902353 0.000000 0.000000
    16 0.763064 -2.490556 -0.278957 -0.340544 0.078175 0.347833
    17 -0.012322 -1.280917 0.000000 -0.553262 0.000000 0.000000
    18 -0.001697 -0.749371 0.000000 -0.593412 0.000000 0.000000
    19 0.354567 0.016267 0.318132 0.386384 -0.406183 -1.191370
    20 1.887164 0.012878 0.000000 -0.304306 0.026726 -0.316515
    21 1.001874 -0.000270 0.000000 0.000000 0.000000 -0.886628
    22 -1.123360 -2.195093 -0.278957 -1.206017 0.000000 -0.087266
    23 0.010772 -0.963791 0.000000 -0.778410 0.000000 0.000000
    24 -0.010412 -0.631916 -0.000001 -1.003573 0.000000 0.000000
    25 -4.429333 -7.814453 -7.018090 -1.530365 -5.537081 -0.284086
    26 0.089929 -8.543160 0.000000 0.775563 -0.306928 0.281055
    27 0.000000 -0.359712 0.000000 0.000000 0.000000 0.000000
    28 -0.170480 -2.636147 -0.277655 -1.645857 0.000000 0.000000
    29 0.010599 -1.261177 0.000001 -0.253073 0.000000 0.000000
    30 -0.000001 -0.943233 -0.000001 -0.563750 0.000000 0.000000
    31 -0.827563 -2.508973 -0.277656 -1.186845 0.000000 -0.000012
    32 0.000000 -1.292972 0.000001 -0.539300 0.000000 0.000000
    33 0.000000 -0.752466 0.000000 -0.654487 0.000000 0.000000
    34 0.444213 -2.561959 -0.277655 -1.727294 -0.046226 -0.024599
    35 0.021022 -1.208185 -0.000001 -0.239112 0.000000 0.000000
    36 0.010597 -0.741867 -0.000001 -0.579445 0.000000 0.000000
    37 1.047445 -2.222821 -0.277655 -1.508117 -0.078971 -0.038609
    38 0.000000 -0.996222 0.000000 -0.863938 0.000000 0.000000
    39 -0.000001 -0.614690 0.000000 -0.523599 0.000000 0.000000
    40 -0.308254 -0.007814 0.307166 -0.127483 -0.299474 -2.523253
    41 1.978379 0.019544 0.000000 -0.098060 -0.036779 0.192060
    42 0.982426 0.003186 0.000000 0.000000 0.000000 0.383993
  time 13
    0 5.016628 -2.123568 -18.061547 -1.720185 -0.408383 1.279560
    1 -0.000001 -8.563283 0.000000 0.371837 0.571983 -0.149066
    2 -0.293234 -3.282020 0.672796 -1.247037 1.437608 -1.233844
    3 -0.000002 2.163130 0.753818 0.000000 0.000000 0.000000
    4 0.000002 -3.052707 1.526597 0.000000 0.000000 0.000000
    5 0.000003 -9.601635 1.701879 0.000000 0.000000 0.000000
    6 0.000000 -4.967293 1.445704 0.000000 0.000000 0.000000
    7 0.000000 -4.742737 2.443444 0.000000 0.000000 0.000000
    8 0.004669 5.953095 -2.702796 0.000000 0.000000 0.000000
    9 -0.003480 -0.404829 0.000000 0.000000 0.000000 0.000000
    10 -0.519310 -2.501155 -0.278957 -1.375314 0.000000 -0.122173
    11 -0.010598 -1.208185 0.000000 -0.907575 0.000000 0.000000
    12 0.000000 -0.763066 0.000000 -1.144947 0.000000 0.000000
    13 0.105980 -2.607134 -0.278957 -0.869181 0.000000 -0.148353
    14 -0.000001 -1.250579 0.000000 -1.385786 0.000000 0.000000
    15 0.000000 -0.932634 0.000000 -0.902353 0.000000 0.000000
    16 0.763064 -2.490556 -0.278957 -0.340544 0.078175 0.347833
    17 -0.012322 -1.280917 0.000000 -0.553262 0.000000 0.000000
    18 -0.001697 -0.749371 0.000000 -0.593412 0.000000 0.000000
    19 0.354567 0.016267 0.318132 0.386384 -0.406183 -1.191370
    20 1.887164 0.012878 0.000000 -0.304306 0.026726 -0.316515
    21 1.001874 -0.000270 0.000000 0.000000 0.000000 -0.886628
    22 -1.123360 -2.195093 -0.278957 -1.206017 0.000000 -0.087266
    23 0.010772 -0.963791 0.000000 -0.778410 0.000000 0.000000
    24 -0.010412 -0.631916 -0.000001 -1.003573 0.000000 0.000000
    25 -4.870752 -7.798828 -7.221221 -1.447466 -5.493283 -0.104167
    26 0.089929 -8.543160 0.000000 0.843525 -0.228707 0.219839
    27 0.000000 -0.359712 0.000000 0.000000 0.000000 0.000000
    28 -0.170480 -2.636147 -0.277655 -1.645857 0.000000 0.000000
    29 0.010599 -1.261177 0.000001 -0.253073 0.000000 0.000000
    30 -0.000001 -0.943233 -0.000001 -0.563750 0.000000 0.000000
    31 -0.827563 -2.508973 -0.277656 -1.186845 0.000000 -0.000012
    32 0.000000 -1.292972 0.000001 -0.539300 0.000000 0.000000
    33 0.000000 -0.752466 0.000000 -0.654487 0.000000 0.000000
    34 0.444213 -2.561959 -0.277655 -1.727294 -0.046226 -0.024599
    35 0.021022 -1.208185 -0.000001 -0.239112 0.000000 0.000000
    36 0.010597 -0.741867 -0.000001 -0.579445 0.000000 0.000000
    37 1.047445 -2.222821 -0.277655 -1.508117 -0.078971 -0.038609
    38 0.000000 -0.996222 0.000000 -0.863938 0.000000 0.000000
    39 -0.000001 -0.614690 0.000000 -0.523599 0.000000 0.000000
    40 -0.308254 -0.007814 0.307166 -0.127483 -0.299474 -2.523253
    41 1.978379 0.019544 0.000000 -0.098060 -0.036779 0.192060
    42 0.982426 0.003186 0.000000 0.000000 0.000000 0.383993
  time 14
    0 5.168976 -2.197789 -18.581094 -1.677714 -0.348191 1.256493
    1 -0.000001 -8.563283 0.000000 0.322585 0.564737 -0.203425
    2 -0.293234 -3.282020 0.672796 -1.247037 1.437608 -1.233844
    3 -0.000002 2.163130 0.753818 0.000000 0.000000 0.000000
    4 0.000002 -3.052707 1.526597 0.000000 0.000000 0.000000
    5 0.000003 -8.726608 1.701879 0.000000 0.000000 0.000000
    6 0.000000 -4.967293 1.445704 0.000000 0.000000 0.000000
    7 0.000000 -3.945837 2.443444 0.000000 0.000000 0.000000
    8 0.004669 5.953095 -2.702796 0.000000 0.000000 0.000000
    9 -0.003480 -0.404829 0.000000 0.000000 0.000000 0.000000
    10 -0.519310 -2.501155 -0.278957 -1.375314 0.000000 -0.122173
    11 -0.010598 -1.208185 0.000000 -0.907575 0.000000 0.000000
    12 0.000000 -0.763066 0.000000 -1.144947 0.000000 0.000000
    13 0.105980 -2.607134 -0.278957 -0.869181 0.000000 -0.148353
    14 -0.000001 -1.250579 0.000000 -1.385786 0.000000 0.000000
    15 0.000000 -0.932634 0.000000 -0.902353 0.000000 0.000000
    16 0.763064 -2.490556 -0.278957 -0.340544 0.078175 0.347833
    17 -0.012322 -1.280917 0.000000 -0.553262 0.000000 0.000000
    18 -0.001697 -0.749371 0.000000 -0.593412 0.000000 0.000000
    19 0.354567 0.016267 0.318132 0.386384 -0.406183 -1.191370
    20 1.887164 0.012878 0.000000 -0.304306 0.026726 -0.316515
    21 1.001874 -0.000270 0.000000 0.000000 0.000000 -0.886628
    22 -1.123360 -2.195093 -0.278957 -1.206017 0.000000 -0.087266
    23 0.010772 -0.963791 0.000000 -0.778410 0.000000 0.000000
    24 -0.010412 -0.631916 -0.000001 -1.003573 0.000000 0.000000
    25 -4.777000 -6.837861 -8.064997 -1.376200 -5.436068 0.059806
    26 0.089929 -8.543160 0.000000 0.906989 -0.128348 0.167368
    27 0.000000 -0.359712 0.000000 0.000000 0.000000 0.000000
    28 -0.170480 -2.636147 -0.277655 -1.645857 0.000000 0.000000
    29 0.010599 -1.261177 0.000001 -0.253073 0.000000 0.000000
    30 -0.000001 -0.943233 -0.000001 -0.563750 0.000000 0.000000
    31 -0.827563 -2.508973 -0.277656 -1.186845 0.000000 -0.000012
    32 0.000000 -1.292972 0.000001 -0.539300 0.000000 0.000000
    33 0.000000 -0.752466 0.000000 -0.654487 0.000000 0.000000
    34 0.444213 -2.561959 -0.277655 -1.727294 -0.046226 -0.024599
    35 0.021022 -1.208185 -0.000001 -0.239112 0.000000 0.000000
    36 0.010597 -0.741867 -0.000001 -0.579445 0.000000 0.000000
    37 1.047445 -2.222821 -0.277655 -1.508117 -0.078971 -0.038609
    38 0.000000 -0.996222 0.000000 -0.863938 0.000000 0.000000
    39 -0.000001 -0.614690 0.000000 -0.523599 0.000000 0.000000
    40 -0.308254 -0.007814 0.307166 -0.127483 -0.299474 -2.523253
    41 1.978379 0.019544 0.000000 -0.098060 -0.036779 0.192060
    42 0.982426 0.003186 0.000000 0.000000 0.000000 0.383993
  time 15
    0 5.469767 -2.350137 -19.608469 -1.627815 -0.270990 1.232728
    1 -0.000001 -8.563283 0.000000 0.244601 0.548510 -0.288672
    2 -0.293234 -3.282020 0.672796 -1.247037 1.437608 -1.233844
    3 -0.000002 2.163130 0.753818 0.000000 0.000000 0.000000
    4 0.000002 -3.052707 1.526597 0.000000 0.000000 0.000000
    5 0.000003 -7.503915 1.701879 0.000000 0.000000 0.000000
    6 0.000000 -4.967293 1.445704 0.000000 0.000000 0.000000
    7 0.000000 -3.145032 2.443444 0.000000 0.000000 0.000000
    8 0.004669 5.953095 -2.702796 0.000000 0.000000 0.000000
    9 -0.003480 -0.404829 0.000000 0.000000 0.000000 0.000000
    10 -0.519310 -2.501155 -0.278957 -1.375314 0.000000 -0.122173
    11 -0.010598 -1.208185 0.000000 -0.907575 0.000000 0.000000
    12 0.000000 -0.763066 0.000000 -1.144947 0.000000 0.000000
    13 0.105980 -2.607134 -0.278957 -0.869181 0.000000 -0.148353
    14 -0.000001 -1.250579 0.000000 -1.385786 0.000000 0.000000
    15 0.000000 -0.932634 0.000000 -0.902353 0.000000 0.000000
    16 0.763064 -2.490556 -0.278957 -0.340544 0.078175 0.347833
    17 -0.012322 -1.280917 0.000000 -0.553262 0.000000 0.000000
    18 -0.001697 -0.749371 0.000000 -0.593412 0.000000 0.000000
    19 0.354567 0.016267 0.318132 0.386384 -0.406183 -1.191370
    20 1.887164 0.012878 0.000000 -0.304306 0.026726 -0.316515
    21 1.001874 -0.000270 0.000000 0.000000 0.000000 -0.886628
    22 -1.123360 -2.195093 -0.278957 -1.206017 0.000000 -0.087266
    23 0.010772 -0.963791 0.000000 -0.778410 0.000000 0.000000
    24 -0.010412 -0.631916 -0.000001 -1.003573 0.000000 0.000000
    25 -4.530898 -5.962834 -8.889241 -1.310980 -5.379812 0.207188
    26 0.089929 -8.543160 0.000000 0.949705 -0.038851 0.132139
    27 0.000000 -0.359712 0.000000 0.000000 0.000000 0.000000
    28 -0.170480 -2.636147 -0.277655 -1.645857 0.000000 0.000000
    29 0.010599 -1.261177 0.000001 -0.253073 0.000000 0.000000
    30 -0.000001 -0.943233 -0.000001 -0.563750 0.000000 0.000000
    31 -0.827563 -2.508973 -0.277656 -1.186845 0.000000 -0.000012
    32 0.000000 -1.292972 0.000001 -0.539300 0.000000 0.000000
    33 0.000000 -0.752466 0.000000 -0.654487 0.000000 0.000000
    34 0.444213 -2.561959 -0.277655 -1.727294 -0.046226 -0.024599
    35 0.021022 -1.208185 -0.000001 -0.239112 0.000000 0.000000
    36 0.010597 -0.741867 -0.000001 -0.579445 0.000000 0.000000
    37 1.047445 -2.222821 -0.277655 -1.508117 -0.078971 -0.038609
    38 0.000000 -0.996222 0.000000 -0.863938 0.000000 0.000000
    39 -0.000001 -0.614690 0.000000 -0.523599 0.000000 0.000000
    40 -0.308254 -0.007814 0.307166 -0.127483 -0.299474 -2.523253
    41 1.978379 0.019544 0.000000 -0.098060 -0.036779 0.192060
    42 0.982426 0.003186 0.000000 0.000000 0.000000 0.383993
  time 16
    0 5.672898 -2.463422 -20.385837 -1.604722 -0.227905 1.224029
    1 -0.000001 -8.563283 0.000000 0.204153 0.538629 -0.328448
    2 -0.293234 -3.282020 0.672796 -1.247037 1.437608 -1.233844
    3 -0.000002 2.163130 0.753818 0.000000 0.000000 0.000000
    4 0.000002 -3.052707 1.526597 0.000000 0.000000 0.000000
    5 0.000003 -7.503915 1.701879 0.000000 0.000000 0.000000
    6 0.000000 -4.967293 1.445704 0.000000 0.000000 0.000000
    7 0.000000 -2.781739 2.443444 0.000000 0.000000 0.000000
    8 0.004669 5.953095 -2.702796 0.000000 0.000000 0.000000
    9 -0.003480 -0.404829 0.000000 0.000000 0.000000 0.000000
    10 -0.519310 -2.501155 -0.278957 -1.375314 0.000000 -0.122173
    11 -0.010598 -1.208185 0.000000 -0.907575 0.000000 0.000000
    12 0.000000 -0.763066 0.000000 -1.144947 0.000000 0.000000
    13 0.105980 -2.607134 -0.278957 -0.869181 0.000000 -0.148353
    14 -0.000001 -1.250579 0.000000 -1.385786 0.000000 0.000000
    15 0.000000 -0.932634 0.000000 -0.902353 0.000000 0.000000
    16 0.763064 -2.490556 -0.278957 -0.340544 0.078175 0.347833
    17 -0.012322 -1.280917 0.000000 -0.553262 0.000000 0.000000
    18 -0.001697 -0.749371 0.000000 -0.593412 0.000000 0.000000
    19 0.354567 0.016267 0.318132 0.386384 -0.406183 -1.191370
    20 1.887164 0.012878 0.000000 -0.304306 0.026726 -0.316515
    21 1.001874 -0.000270 0.000000 0.000000 0.000000 -0.886628
    22 -1.123360 -2.195093 -0.278957 -1.206017 0.000000 -0.087266
    23 0.010772 -0.963791 0.000000 -0.778410 0.000000 0.000000
    24 -0.010412 -0.631916 -0.000001 -1.003573 0.000000 0.000000
    25 -4.335580 -6.048774 -9.119716 -1.257118 -5.339560 0.328469
    26 0.089929 -8.543160 0.000000 0.959190 0.005469 0.117042
    27 0.000000 -0.359712 0.000000 0.000000 0.000000 0.000000
    28 -0.170480 -2.636147 -0.277655 -1.645857 0.000000 0.000000
    29 0.010599 -1.261177 0.000001 -0.253073 0.000000 0.000000
    30 -0.000001 -0.943233 -0.000001 -0.563750 0.000000 0.000000
    31 -0.827563 -2.508973 -0.277656 -1.186845 0.000000 -0.000012
    32 0.000000 -1.292972 0.000001 -0.539300 0.000000 0.000000
    33 0.000000 -0.752466 0.000000 -0.654487 0.000000 0.000000
    34 0.444213 -2.561959 -0.277655 -1.727294 -0.046226 -0.024599
    35 0.021022 -1.208185 -0.000001 -0.239112 0.000000 0.000000
    36 0.010597 -0.741867 -0.000001 -0.579445 0.000000 0.000000
    37 1.047445 -2.222821 -0.277655 -1.508117 -0.078971 -0.038609
    38 0.000000 -0.996222 0.000000 -0.863938 0.000000 0.000000
    39 -0.000001 -0.614690 0.000000 -0.523599 0.000000 0.000000
    40 -0.308254 -0.007814 0.307166 -0.127483 -0.299474 -2.523253
    41 1.978379 0.019544 0.000000 -0.098060 -0.036779 0.192060
    42 0.982426 0.003186 0.000000 0.000000 0.000000 0.383993
  time 17
    0 5.629928 -2.549362 -20.553811 -1.619104 -0.223470 1.231796
    1 -0.000001 -8.563283 0.000000 0.217320 0.551606 -0.302456
    2 -0.293234 -3.282020 0.672796 -1.247037 1.437608 -1.233844
    3 -0.000002 2.163130 0.753818 0.000000 0.000000 0.000000
    4 0.000002 -3.052707 1.526597 0.000000 0.000000 0.000000
    5 0.000003 -7.503915 1.701879 0.000000 0.000000 0.000000
    6 0.000000 -4.967293 1.445704 0.000000 0.000000 0.000000
    7 0.000000 -2.781739 2.443444 0.000000 0.000000 0.000000
    8 0.004669 5.953095 -2.702796 0.000000 0.000000 0.000000
    9 -0.003480 -0.404829 0.000000 0.000000 0.000000 0.000000
    10 -0.519310 -2.501155 -0.278957 -1.375314 0.000000 -0.122173
    11 -0.010598 -1.208185 0.000000 -0.907575 0.000000 0.000000
    12 0.000000 -0.763066 0.000000 -1.144947 0.000000 0.000000
    13 0.105980 -2.607134 -0.278957 -0.869181 0.000000 -0.148353
    14 -0.000001 -1.250579 0.000000 -1.385786 0.000000 0.000000
    15 0.000000 -0.932634 0.000000 -0.902353 0.000000 0.000000
    16 0.763064 -2.490556 -0.278957 -0.340544 0.078175 0.347833
    17 -0.012322 -1.280917 0.000000 -0.553262 0.000000 0.000000
    18 -0.001697 -0.749371 0.000000 -0.593412 0.000000 0.000000
    19 0.354567 0.016267 0.318132 0.386384 -0.406183 -1.191370
    20 1.887164 0.012878 0.000000 -0.304306 0.026726 -0.316515
    21 1.001874 -0.000270 0.000000 0.000000 0.000000 -0.886628
    22 -1.123360 -2.195093 -0.278957 -1.206017 0.000000 -0.087266
    23 0.010772 -0.963791 0.000000 -0.778410 0.000000 0.000000
    24 -0.010412 -0.631916 -0.000001 -1.003573 0.000000 0.000000
    25 -4.280891 -6.009710 -9.225188 -1.570669 -5.304676 -0.052394
    26 0.089929 -8.543160 0.000000 0.931294 -0.003389 0.124797
    27 0.000000 -0.359712 0.000000 0.000000 0.000000 0.000000
    28 -0.170480 -2.636147 -0.277655 -1.645857 0.000000 0.000000
    29 0.010599 -1.261177 0.000001 -0.253073 0.000000 0.000000
    30 -0.000001 -0.943233 -0.000001 -0.563750 0.000000 0.000000
    31 -0.827563 -2.508973 -0.277656 -1.186845 0.000000 -0.000012
    32 0.000000 -1.292972 0.000001 -0.539300 0.000000 0.000000
    33 0.000000 -0.752466 0.000000 -0.654487 0.000000 0.000000
    34 0.444213 -2.561959 -0.277655 -1.727294 -0.046226 -0.024599
    35 0.021022 -1.208185 -0.000001 -0.239112 0.000000 0.000000
    36 0.010597 -0.741867 -0.000001 -0.579445 0.000000 0.000000
    37 1.047445 -2.222821 -0.277655 -1.508117 -0.078971 -0.038609
    38 0.000000 -0.996222 0.000000 -0.863938 0.000000 0.000000
    39 -0.000001 -0.614690 0.000000 -0.523599 0.000000 0.000000
    40 -0.308254 -0.007814 0.307166 -0.127483 -0.299474 -2.523253
    41 1.978379 0.019544 0.000000 -0.098060 -0.036779 0.192060
    42 0.982426 0.003186 0.000000 0.000000 0.000000 0.383993
  time 18
    0 5.426797 -2.647021 -20.397556 -1.651650 -0.229026 1.247406
    1 -0.000001 -8.563283 0.000000 0.252797 0.576858 -0.248118
    2 -0.293234 -3.282020 0.672796 -1.247037 1.437608 -1.233844
    3 -0.000002 2.163130 0.753818 0.000000 0.000000 0.000000
    4 0.000002 -3.052707 1.526597 0.000000 0.000000 0.000000
    5 0.000003 -7.792986 1.701879 0.000000 0.000000 0.000000
    6 0.000000 -4.967293 1.445704 0.000000 0.000000 0.000000
    7 0.000000 -2.781739 2.443444 0.000000 0.000000 0.000000
    8 0.004669 5.953095 -2.702796 0.000000 0.000000 0.000000
    9 -0.003480 -0.404829 0.000000 0.000000 0.000000 0.000000
    10 -0.519310 -2.501155 -0.278957 -1.375314 0.000000 -0.122173
    11 -0.010598 -1.208185 0.000000 -0.907575 0.000000 0.000000
    12 0.000000 -0.763066 0.000000 -1.144947 0.000000 0.000000
    13 0.105980 -2.607134 -0.278957 -0.869181 0.000000 -0.148353
    14 -0.000001 -1.250579 0.000000 -1.385786 0.000000 0.000000
    15 0.000000 -0.932634 0.000000 -0.902353 0.000000 0.000000
    16 0.763064 -2.490556 -0.278957 -0.340544 0.078175 0.347833
    17 -0.012322 -1.280917 0.000000 -0.553262 0.000000 0.000000
    18 -0.001697 -0.749371 0.000000 -0.593412 0.000000 0.000000
    19 0.354567 0.016267 0.318132 0.386384 -0.406183 -1.191370
    20 1.887164 0.012878 0.000000 -0.304306 0.026726 -0.316515
    21 1.001874 -0.000270 0.000000 0.000000 0.000000 -0.886628
    22 -1.123360 -2.195093 -0.278957 -1.206017 0.000000 -0.087266
    23 0.010772 -0.963791 0.000000 -0.778410 0.000000 0.000000
    24 -0.010412 -0.631916 -0.000001 -1.003573 0.000000 0.000000
    25 -4.398082 -6.064400 -9.111904 -1.583219 -5.368599 -0.089793
    26 0.089929 -8.543160 0.000000 0.877245 -0.041253 0.151692
    27 0.000000 -0.359712 0.000000 0.000000 0.000000 0.000000
    28 -0.170480 -2.636147 -0.277655 -1.645857 0.000000 0.000000
    29 0.010599 -1.261177 0.000001 -0.253073 0.000000 0.000000
    30 -0.000001 -0.943233 -0.000001 -0.563750 0.000000 0.000000
    31 -0.827563 -2.508973 -0.277656 -1.186845 0.000000 -0.000012
    32 0.000000 -1.292972 0.000001 -0.539300 0.000000 0.000000
    33 0.000000 -0.752466 0.000000 -0.654487 0.000000 0.000000
    34 0.444213 -2.561959 -0.277655 -1.727294 -0.046226 -0.024599
    35 0.021022 -1.208185 -0.000001 -0.239112 0.000000 0.000000
    36 0.010597 -0.741867 -0.000001 -0.579445 0.000000 0.000000
    37 1.047445 -2.222821 -0.277655 -1.508117 -0.078971 -0.038609
    38 0.000000 -0.996222 0.000000 -0.863938 0.000000 0.000000
    39 -0.000001 -0.614690 0.000000 -0.523599 0.000000 0.000000
    40 -0.308254 -0.007814 0.307166 -0.127483 -0.299474 -2.523253
    41 1.978379 0.019544 0.000000 -0.098060 -0.036779 0.192060
    42 0.982426 0.003186 0.000000 0.000000 0.000000 0.383993
  time 19
    0 5.157257 -2.678272 -20.010825 -1.688787 -0.247644 1.265969
    1 -0.000001 -8.563283 0.000000 0.299693 0.598706 -0.181467
    2 -0.293234 -3.282020 0.672796 -1.247037 1.437608 -1.233844
    3 -0.000002 2.163130 0.753818 0.000000 0.000000 0.000000
    4 0.000002 -3.052707 1.526597 0.000000 0.000000 0.000000
    5 0.000003 -8.488320 1.701879 0.000000 0.000000 0.000000
    6 0.000000 -4.967293 1.445704 0.000000 0.000000 0.000000
    7 0.000000 -3.145032 2.443444 0.000000 0.000000 0.000000
    8 0.004669 5.953095 -2.702796 0.000000 0.000000 0.000000
    9 -0.003480 -0.404829 0.000000 0.000000 0.000000 0.000000
    10 -0.519310 -2.501155 -0.278957 -1.375314 0.000000 -0.122173
    11 -0.010598 -1.208185 0.000000 -0.907575 0.000000 0.000000
    12 0.000000 -0.763066 0.000000 -1.144947 0.000000 0.000000
    13 0.105980 -2.607134 -0.278957 -0.869181 0.000000 -0.148353
    14 -0.000001 -1.250579 0.000000 -1.385786 0.000000 0.000000
    15 0.000000 -0.932634 0.000000 -0.902353 0.000000 0.000000
    16 0.763064 -2.490556 -0.278957 -0.340544 0.078175 0.347833
    17 -0.012322 -1.280917 0.000000 -0.553262 0.000000 0.000000
    18 -0.001697 -0.749371 0.000000 -0.593412 0.000000 0.000000
    19 0.354567 0.016267 0.318132 0.386384 -0.406183 -1.191370
    20 1.887164 0.012878 0.000000 -0.304306 0.026726 -0.316515
    21 1.001874 -0.000270 0.000000 0.000000 0.000000 -0.886628
    22 -1.123360 -2.195093 -0.278957 -1.206017 0.000000 -0.087266
    23 0.010772 -0.963791 0.000000 -0.778410 0.000000 0.000000
    24 -0.010412 -0.631916 -0.000001 -1.003573 0.000000 0.000000
    25 -4.511366 -6.255812 -8.869709 -1.572868 -5.444790 -0.101020
    26 0.089929 -8.543160 0.000000 0.807191 -0.093589 0.191128
    27 0.000000 -0.359712 0.000000 0.000000 0.000000 0.000000
    28 -0.170480 -2.636147 -0.277655 -1.645857 0.000000 0.000000
    29 0.010599 -1.261177 0.000001 -0.253073 0.000000 0.000000
    30 -0.000001 -0.943233 -0.000001 -0.563750 0.000000 0.000000
    31 -0.827563 -2.508973 -0.277656 -1.186845 0.000000 -0.000012
    32 0.000000 -1.292972 0.000001 -0.539300 0.000000 0.000000
    33 0.000000 -0.752466 0.000000 -0.654487 0.000000 0.000000
    34 0.444213 -2.561959 -0.277655 -1.727294 -0.046226 -0.024599
    35 0.021022 -1.208185 -0.000001 -0.239112 0.000000 0.000000
    36 0.010597 -0.741867 -0.000001 -0.579445 0.000000 0.000000
    37 1.047445 -2.222821 -0.277655 -1.508117 -0.078971 -0.038609
    38 0.000000 -0.996222 0.000000 -0.863938 0.000000 0.000000
    39 -0.000001 -0.614690 0.000000 -0.523599 0.000000 0.000000
    40 -0.308254 -0.007814 0.307166 -0.127483 -0.299474 -2.523253
    41 1.978379 0.019544 0.000000 -0.098060 -0.036779 0.192060
    42 0.982426 0.003186 0.000000 0.000000 0.000000 0.383993
  time 20
    0 4.915062 -2.557175 -19.522529 -1.717214 -0.283125 1.282978
    1 -0.000001 -8.563283 0.000000 0.343158 0.603603 -0.122128
    2 -0.293234 -3.282020 0.672796 -1.247037 1.437608 -1.233844
    3 -0.000002 2.163130 0.753818 0.000000 0.000000 0.000000
    4 0.000002 -3.052707 1.526597 0.000000 0.000000 0.000000
    5 0.000003 -9.316470 1.701879 0.000000 0.000000 0.000000
    6 0.000000 -4.967293 1.445704 0.000000 0.000000 0.000000
    7 0.000000 -3.945837 2.443444 0.000000 0.000000 0.000000
    8 0.004669 5.953095 -2.702796 0.000000 0.000000 0.000000
    9 -0.003480 -0.404829 0.000000 0.000000 0.000000 0.000000
    10 -0.519310 -2.501155 -0.278957 -1.375314 0.000000 -0.122173
    11 -0.010598 -1.208185 0.000000 -0.907575 0.000000 0.000000
    12 0.000000 -0.763066 0.000000 -1.144947 0.000000 0.000000
    13 0.105980 -2.607134 -0.278957 -0.869181 0.000000 -0.148353
    14 -0.000001 -1.250579 0.000000 -1.385786 0.000000 0.000000
    15 0.000000 -0.932634 0.000000 -0.902353 0.000000 0.000000
    16 0.763064 -2.490556 -0.278957 -0.340544 0.078175 0.347833
    17 -0.012322 -1.280917 0.000000 -0.553262 0.000000 0.000000
    18 -0.001697 -0.749371 0.000000 -0.593412 0.000000 0.000000
    19 0.354567 0.016267 0.318132 0.386384 -0.406183 -1.191370
    20 1.887164 0.012878 0.000000 -0.304306 0.026726 -0.316515
    21 1.001874 -0.000270 0.000000 0.000000 0.000000 -0.886628
    22 -1.123360 -2.195093 -0.278957 -1.206017 0.000000 -0.087266
    23 0.010772 -0.963791 0.000000 -0.778410 0.000000 0.000000
    24 -0.010412 -0.631916 -0.000001 -1.003573 0.000000 0.000000
    25 -4.401988 -6.763640 -8.510323 -1.543830 -5.520884 -0.091152
    26 0.089929 -8.543160 0.000000 0.732220 -0.147043 0.234717
    27 0.000000 -0.359712 0.000000 0.000000 0.000000 0.000000
    28 -0.170480 -2.636147 -0.277655 -1.645857 0.000000 0.000000
    29 0.010599 -1.261177 0.000001 -0.253073 0.000000 0.000000
    30 -0.000001 -0.943233 -0.000001 -0.563750 0.000000 0.000000
    31 -0.827563 -2.508973 -0.277656 -1.186845 0.000000 -0.000012
    32 0.000000 -1.292972 0.000001 -0.539300 0.000000 0.000000
    33 0.000000 -0.752466 0.000000 -0.654487 0.000000 0.000000
    34 0.444213 -2.561959 -0.277655 -1.727294 -0.046226 -0.024599
    35 0.021022 -1.208185 -0.000001 -0.239112 0.000000 0.000000
    36 0.010597 -0.741867 -0.000001 -0.579445 0.000000 0.000000
    37 1.047445 -2.222821 -0.277655 -1.508117 -0.078971 -0.038609
    38 0.000000 -0.996222 0.000000 -0.863938 0.000000 0.000000
    39 -0.000001 -0.614690 0.000000 -0.523599 0.000000 0.000000
    40 -0.308254 -0.007814 0.307166 -0.127483 -0.299474 -2.523253
    41 1.978379 0.019544 0.000000 -0.098060 -0.036779 0.192060
    42 0.982426 0.003186 0.000000 0.000000 0.000000 0.383993
  time 21
    0 4.797871 -2.201695 -19.045952 -1.723021 -0.339808 1.292608
    1 -0.000001 -8.563283 0.000000 0.365713 0.580722 -0.092080
    2 -0.293234 -3.282020 0.672796 -1.247037 1.437608 -1.233844
    3 -0.000002 2.163130 0.753818 0.000000 0.000000 0.000000
    4 0.000002 -3.052707 1.526597 0.000000 0.000000 0.000000
    5 0.000003 -10.007897 1.701879 0.000000 0.000000 0.000000
    6 0.000000 -4.967293 1.445704 0.000000 0.000000 0.000000
    7 0.000000 -4.742737 2.443444 0.000000 0.000000 0.000000
    8 0.004669 5.953095 -2.702796 0.000000 0.000000 0.000000
    9 -0.003480 -0.404829 0.000000 0.000000 0.000000 0.000000
    10 -0.519310 -2.501155 -0.278957 -1.375314 0.000000 -0.122173
    11 -0.010598 -1.208185 0.000000 -0.907575 0.000000 0.000000
    12 0.000000 -0.763066 0.000000 -1.144947 0.000000 0.000000
    13 0.105980 -2.607134 -0.278957 -0.869181 0.000000 -0.148353
    14 -0.000001 -1.250579 0.000000 -1.385786 0.000000 0.000000
    15 0.000000 -0.932634 0.000000 -0.902353 0.000000 0.000000
    16 0.763064 -2.490556 -0.278957 -0.340544 0.078175 0.347833
    17 -0.012322 -1.280917 0.000000 -0.553262 0.000000 0.000000
    18 -0.001697 -0.749371 0.000000 -0.593412 0.000000 0.000000
    19 0.354567 0.016267 0.318132 0.386384 -0.406183 -1.191370
    20 1.887164 0.012878 0.000000 -0.304306 0.026726 -0.316515
    21 1.001874 -0.000270 0.000000 0.000000 0.000000 -0.886628
    22 -1.123360 -2.195093 -0.278957 -1.206017 0.000000 -0.087266
    23 0.010772 -0.963791 0.000000 -0.778410 0.000000 0.000000
    24 -0.010412 -0.631916 -0.000001 -1.003573 0.000000 0.000000
    25 -4.159793 -7.439442 -8.084528 -1.498304 -5.585191 -0.063192
    26 0.089929 -8.543160 0.000000 0.665513 -0.190521 0.271155
    27 0.000000 -0.359712 0.000000 0.000000 0.000000 0.000000
    28 -0.170480 -2.636147 -0.277655 -1.645857 0.000000 0.000000
    29 0.010599 -1.261177 0.000001 -0.253073 0.000000 0.000000
    30 -0.000001 -0.943233 -0.000001 -0.563750 0.000000 0.000000
    31 -0.827563 -2.508973 -0.277656 -1.186845 0.000000 -0.000012
    32 0.000000 -1.292972 0.000001 -0.539300 0.000000 0.000000
    33 0.000000 -0.752466 0.000000 -0.654487 0.000000 0.000000
    34 0.444213 -2.561959 -0.277655 -1.727294 -0.046226 -0.024599
    35 0.021022 -1.208185 -0.000001 -0.239112 0.000000 0.000000
    36 0.010597 -0.741867 -0.000001 -0.579445 0.000000 0.000000
    37 1.047445 -2.222821 -0.277655 -1.508117 -0.078971 -0.038609
    38 0.000000 -0.996222 0.000000 -0.863938 0.000000 0.000000
    39 -0.000001 -0.614690 0.000000 -0.523599 0.000000 0.000000
    40 -0.308254 -0.007814 0.307166 -0.127483 -0.299474 -2.523253
    41 1.978379 0.019544 0.000000 -0.098060 -0.036779 0.192060
    42 0.982426 0.003186 0.000000 0.000000 0.000000 0.383993
  time 22
    0 4.836935 -1.463392 -18.616252 -1.710057 -0.411697 1.294783
    1 -0.000001 -8.563283 0.000000 0.370465 0.537795 -0.086491
    2 -0.293234 -3.282020 0.672796 -1.247037 1.437608 -1.233844
    3 -0.000002 2.163130 0.753818 0.000000 0.000000 0.000000
    4 0.000002 -3.052707 1.526597 0.000000 0.000000 0.000000
    5 0.000003 -10.293062 1.701879 0.000000 0.000000 0.000000
    6 0.000000 -4.967293 1.445704 0.000000 0.000000 0.000000
    7 0.000000 -5.102123 2.443444 0.000000 0.000000 0.000000
    8 0.004669 5.953095 -2.702796 0.000000 0.000000 0.000000
    9 -0.003480 -0.404829 0.000000 0.000000 0.000000 0.000000
    10 -0.519310 -2.501155 -0.278957 -1.375314 0.000000 -0.122173
    11 -0.010598 -1.208185 0.000000 -0.907575 0.000000 0.000000
    12 0.000000 -0.763066 0.000000 -1.144947 0.000000 0.000000
    13 0.105980 -2.607134 -0.278957 -0.869181 0.000000 -0.148353
    14 -0.000001 -1.250579 0.000000 -1.385786 0.000000 0.000000
    15 0.000000 -0.932634 0.000000 -0.902353 0.000000 0.000000
    16 0.763064 -2.490556 -0.278957 -0.340544 0.078175 0.347833
    17 -0.012322 -1.280917 0.000000 -0.553262 0.000000 0.000000
    18 -0.001697 -0.749371 0.000000 -0.593412 0.000000 0.000000
    19 0.354567 0.016267 0.318132 0.386384 -0.406183 -1.191370
    20 1.887164 0.012878 0.000000 -0.304306 0.026726 -0.316515
    21 1.001874 -0.000270 0.000000 0.000000 0.000000 -0.886628
    22 -1.123360 -2.195093 -0.278957 -1.206017 0.000000 -0.087266
    23 0.010772 -0.963791 0.000000 -0.778410 0.000000 0.000000
    24 -0.010412 -0.631916 -0.000001 -1.003573 0.000000 0.000000
    25 -3.878535 -7.869142 -7.877491 -1.435557 -5.626880 -0.016996
    26 0.089929 -8.543160 0.000000 0.622448 -0.215305 0.286335
    27 0.000000 -0.359712 0.000000 0.000000 0.000000 0.000000
    28 -0.170480 -2.636147 -0.277655 -1.645857 0.000000 0.000000
    29 0.010599 -1.261177 0.000001 -0.253073 0.000000 0.000000
    30 -0.000001 -0.943233 -0.000001 -0.563750 0.000000 0.000000
    31 -0.827563 -2.508973 -0.277656 -1.186845 0.000000 -0.000012
    32 0.000000 -1.292972 0.000001 -0.539300 0.000000 0.000000
    33 0.000000 -0.752466 0.000000 -0.654487 0.000000 0.000000
    34 0.444213 -2.561959 -0.277655 -1.727294 -0.046226 -0.024599
    35 0.021022 -1.208185 -0.000001 -0.239112 0.000000 0.000000
    36 0.010597 -0.741867 -0.000001 -0.579445 0.000000 0.000000
    37 1.047445 -2.222821 -0.277655 -1.508117 -0.078971 -0.038609
    38 0.000000 -0.996222 0.000000 -0.863938 0.000000 0.000000
    39 -0.000001 -0.614690 0.000000 -0.523599 0.000000 0.000000
    40 -0.308254 -0.007814 0.307166 -0.127483 -0.299474 -2.523253
    41 1.978379 0.019544 0.000000 -0.098060 -0.036779 0.192060
    42 0.982426 0.003186 0.000000 0.000000 0.000000 0.383993
  time 23
    0 4.969751 -0.353983 -18.159206 -1.692299 -0.489483 1.294084
    1 -0.000001 -8.563283 0.000000 0.371876 0.489312 -0.085840
    2 -0.293234 -3.282020 0.672796 -1.247037 1.437608 -1.233844
    3 -0.000002 2.163130 0.753818 0.000000 0.000000 0.000000
    4 0.000002 -3.052707 1.526597 0.000000 0.000000 0.000000
    5 0.000003 -10.293062 1.701879 0.000000 0.000000 0.000000
    6 0.000000 -4.967293 1.445704 0.000000 0.000000 0.000000
    7 0.000000 -5.102123 2.443444 0.000000 0.000000 0.000000
    8 0.004669 5.953095 -2.702796 0.000000 0.000000 0.000000
    9 -0.003480 -0.404829 0.000000 0.000000 0.000000 0.000000
    10 -0.519310 -2.501155 -0.278957 -1.375314 0.000000 -0.122173
    11 -0.010598 -1.208185 0.000000 -0.907575 0.000000 0.000000
    12 0.000000 -0.763066 0.000000 -1.144947 0.000000 0.000000
    13 0.105980 -2.607134 -0.278957 -0.869181 0.000000 -0.148353
    14 -0.000001 -1.250579 0.000000 -1.385786 0.000000 0.000000
    15 0.000000 -0.932634 0.000000 -0.902353 0.000000 0.000000
    16 0.763064 -2.490556 -0.278957 -0.340544 0.078175 0.347833
    17 -0.012322 -1.280917 0.000000 -0.553262 0.000000 0.000000
    18 -0.001697 -0.749371 0.000000 -0.593412 0.000000 0.000000
    19 0.354567 0.016267 0.318132 0.386384 -0.406183 -1.191370
    20 1.887164 0.012878 0.000000 -0.304306 0.026726 -0.316515
    21 1.001874 -0.000270 0.000000 0.000000 0.000000 -0.886628
    22 -1.123360 -2.195093 -0.278957 -1.206017 0.000000 -0.087266
    23 0.010772 -0.963791 0.000000 -0.778410 0.000000 0.000000
    24 -0.010412 -0.631916 -0.000001 -1.003573 0.000000 0.000000
    25 -3.562119 -7.830078 -8.057184 -1.360536 -5.652852 0.041928
    26 0.089929 -8.543160 0.000000 0.599783 -0.226397 0.282595
    27 0.000000 -0.359712 0.000000 0.000000 0.000000 0.000000
    28 -0.170480 -2.636147 -0.277655 -1.645857 0.000000 0.000000
    29 0.010599 -1.261177 0.000001 -0.253073 0.000000 0.000000
    30 -0.000001 -0.943233 -0.000001 -0.563750 0.000000 0.000000
    31 -0.827563 -2.508973 -0.277656 -1.186845 0.000000 -0.000012
    32 0.000000 -1.292972 0.000001 -0.539300 0.000000 0.000000
    33 0.000000 -0.752466 0.000000 -0.654487 0.000000 0.000000
    34 0.444213 -2.561959 -0.277655 -1.727294 -0.046226 -0.024599
    35 0.021022 -1.208185 -0.000001 -0.239112 0.000000 0.000000
    36 0.010597 -0.741867 -0.000001 -0.579445 0.000000 0.000000
    37 1.047445 -2.222821 -0.277655 -1.508117 -0.078971 -0.038609
    38 0.000000 -0.996222 0.000000 -0.863938 0.000000 0.000000
    39 -0.000001 -0.614690 0.000000 -0.523599 0.000000 0.000000
    40 -0.308254 -0.007814 0.307166 -0.127483 -0.299474 -2.523253
    41 1.978379 0.019544 0.000000 -0.098060 -0.036779 0.192060
    42 0.982426 0.003186 0.000000 0.000000 0.000000 0.383993
  time 24
    0 5.172883 0.981996 -17.651378 -1.669476 -0.572094 1.289812
    1 -0.000001 -8.563283 0.000000 0.370841 0.436173 -0.089097
    2 -0.293234 -3.282020 0.672796 -1.247037 1.437608 -1.233844
    3 -0.000002 2.163130 0.753818 0.000000 0.000000 0.000000
    4 0.000002 -3.052707 1.526597 0.000000 0.000000 0.000000
    5 0.000003 -10.293062 1.701879 0.000000 0.000000 0.000000
    6 0.000000 -4.967293 1.445704 0.000000 0.000000 0.000000
    7 0.000000 -5.102123 2.443444 0.000000 0.000000 0.000000
    8 0.004669 5.953095 -2.702796 0.000000 0.000000 0.000000
    9 -0.003480 -0.404829 0.000000 0.000000 0.000000 0.000000
    10 -0.519310 -2.501155 -0.278957 -1.375314 0.000000 -0.122173
    11 -0.010598 -1.208185 0.000000 -0.907575 0.000000 0.000000
    12 0.000000 -0.763066 0.000000 -1.144947 0.000000 0.000000
    13 0.105980 -2.607134 -0.278957 -0.869181 0.000000 -0.148353
    14 -0.000001 -1.250579 0.000000 -1.385786 0.000000 0.000000
    15 0.000000 -0.932634 0.000000 -0.902353 0.000000 0.000000
    16 0.763064 -2.490556 -0.278957 -0.340544 0.078175 0.347833
    17 -0.012322 -1.280917 0.000000 -0.553262 0.000000 0.000000
    18 -0.001697 -0.749371 0.000000 -0.593412 0.000000 0.000000
    19 0.354567 0.016267 0.318132 0.386384 -0.406183 -1.191370
    20 1.887164 0.012878 0.000000 -0.304306 0.026726 -0.316515
    21 1.001874 -0.000270 0.000000 0.000000 0.000000 -0.886628
    22 -1.123360 -2.195093 -0.278957 -1.206017 0.000000 -0.087266
    23 0.010772 -0.963791 0.000000 -0.778410 0.000000 0.000000
    24 -0.010412 -0.631916 -0.000001 -1.003573 0.000000 0.000000
    25 -3.202733 -7.541007 -8.451727 -1.281484 -5.677962 0.105429
    26 0.089929 -8.543160 0.000000 0.583115 -0.234459 0.272942
    27 0.000000 -0.359712 0.000000 0.000000 0.000000 0.000000
    28 -0.170480 -2.636147 -0.277655 -1.645857 0.000000 0.000000
    29 0.010599 -1.261177 0.000001 -0.253073 0.000000 0.000000
    30 -0.000001 -0.943233 -0.000001 -0.563750 0.000000 0.000000
    31 -0.827563 -2.508973 -0.277656 -1.186845 0.000000 -0.000012
    32 0.000000 -1.292972 0.000001 -0.539300 0.000000 0.000000
    33 0.000000 -0.752466 0.000000 -0.654487 0.000000 0.000000
    34 0.444213 -2.561959 -0.277655 -1.727294 -0.046226 -0.024599
    35 0.021022 -1.208185 -0.000001 -0.239112 0.000000 0.000000
    36 0.010597 -0.741867 -0.000001 -0.579445 0.000000 0.000000
    37 1.047445 -2.222821 -0.277655 -1.508117 -0.078971 -0.038609
    38 0.000000 -0.996222 0.000000 -0.863938 0.000000 0.000000
    39 -0.000001 -0.614690 0.000000 -0.523599 0.000000 0.000000
    40 -0.308254 -0.007814 0.307166 -0.127483 -0.299474 -2.523253
    41 1.978379 0.019544 0.000000 -0.098060 -0.036779 0.192060
    42 0.982426 0.003186 0.000000 0.000000 0.000000 0.383993
  time 25
    0 5.418984 2.403914 -17.053704 -1.641117 -0.658605 1.280881
    1 -0.000001 -8.563283 0.000000 0.368134 0.379127 -0.095295
    2 -0.293234 -3.282020 0.672796 -1.247037 1.437608 -1.233844
    3 -0.000002 2.163130 0.753818 0.000000 0.000000 0.000000
    4 0.000002 -3.052707 1.526597 0.000000 0.000000 0.000000
    5 0.000003 -10.293062 1.701879 0.000000 0.000000 0.000000
    6 0.000000 -4.967293 1.445704 0.000000 0.000000 0.000000
    7 0.000000 -5.102123 2.443444 0.000000 0.000000 0.000000
    8 0.004669 5.953095 -2.702796 0.000000 0.000000 0.000000
    9 -0.003480 -0.404829 0.000000 0.000000 0.000000 0.000000
    10 -0.519310 -2.501155 -0.278957 -1.375314 0.000000 -0.122173
    11 -0.010598 -1.208185 0.000000 -0.907575 0.000000 0.000000
    12 0.000000 -0.763066 0.000000 -1.144947 0.000000 0.000000
    13 0.105980 -2.607134 -0.278957 -0.869181 0.000000 -0.148353
    14 -0.000001 -1.250579 0.000000 -1.385786 0.000000 0.000000
    15 0.000000 -0.932634 0.000000 -0.902353 0.000000 0.000000
    16 0.763064 -2.490556 -0.278957 -0.340544 0.078175 0.347833
    17 -0.012322 -1.280917 0.000000 -0.553262 0.000000 0.000000
    18 -0.001697 -0.749371 0.000000 -0.593412 0.000000 0.000000
    19 0.354567 0.016267 0.318132 0.386384 -0.406183 -1.191370
    20 1.887164 0.012878 0.000000 -0.304306 0.026726 -0.316515
    21 1.001874 -0.000270 0.000000 0.000000 0.000000 -0.886628
    22 -1.123360 -2.195093 -0.278957 -1.206017 0.000000 -0.087266
    23 0.010772 -0.963791 0.000000 -0.778410 0.000000 0.000000
    24 -0.010412 -0.631916 -0.000001 -1.003573 0.000000 0.000000
    25 -2.847253 -7.259749 -8.826739 -1.199593 -5.703550 0.172219
    26 0.089929 -8.543160 0.000000 0.571468 -0.240028 0.258202
    27 0.000000 -0.359712 0.000000 0.000000 0.000000 0.000000
    28 -0.170480 -2.636147 -0.277655 -1.645857 0.000000 0.000000
    29 0.010599 -1.261177 0.000001 -0.253073 0.000000 0.000000
    30 -0.000001 -0.943233 -0.000001 -0.563750 0.000000 0.000000
    31 -0.827563 -2.508973 -0.277656 -1.186845 0.000000 -0.000012
    32 0.000000 -1.292972 0.000001 -0.539300 0.000000 0.000000
    33 0.000000 -0.752466 0.000000 -0.654487 0.000000 0.000000
    34 0.444213 -2.561959 -0.277655 -1.727294 -0.046226 -0.024599
    35 0.021022 -1.208185 -0.000001 -0.239112 0.000000 0.000000
    36 0.010597 -0.741867 -0.000001 -0.579445 0.000000 0.000000
    37 1.047445 -2.222821 -0.277655 -1.508117 -0.078971 -0.038609
    38 0.000000 -0.996222 0.000000 -0.863938 0.000000 0.000000
    39 -0.000001 -0.614690 0.000000 -0.523599 0.000000 0.000000
    40 -0.308254 -0.007814 0.307166 -0.127483 -0.299474 -2.523253
    41 1.978379 0.019544 0.000000 -0.098060 -0.036779 0.192060
    42 0.982426 0.003186 0.000000 0.000000 0.000000 0.383993
  time 26
    0 5.684617 3.763330 -16.346651 -1.606208 -0.748088 1.265969
    1 -0.000001 -8.563283 0.000000 0.364470 0.318896 -0.103616
    2 -0.293234 -3.282020 0.672796 -1.247037 1.437608 -1.233844
    3 -0.000002 2.163130 0.753818 0.000000 0.000000 0.000000
    4 0.000002 -3.052707 1.526597 0.000000 0.000000 0.000000
    5 0.000003 -10.293062 1.701879 0.000000 0.000000 0.000000
    6 0.000000 -4.967293 1.445704 0.000000 0.000000 0.000000
    7 0.000000 -5.102123 2.443444 0.000000 0.000000 0.000000
    8 0.004669 5.953095 -2.702796 0.000000 0.000000 0.000000
    9 -0.003480 -0.404829 0.000000 0.000000 0.000000 0.000000
    10 -0.519310 -2.501155 -0.278957 -1.375314 0.000000 -0.122173
    11 -0.010598 -1.208185 0.000000 -0.907575 0.000000 0.000000
    12 0.000000 -0.763066 0.000000 -1.144947 0.000000 0.000000
    13 0.105980 -2.607134 -0.278957 -0.869181 0.000000 -0.148353
    14 -0.000001 -1.250579 0.000000 -1.385786 0.000000 0.000000
    15 0.000000 -0.932634 0.000000 -0.902353 0.000000 0.000000
    16 0.763064 -2.490556 -0.278957 -0.340544 0.078175 0.347833
    17 -0.012322 -1.280917 0.000000 -0.553262 0.000000 0.000000
    18 -0.001697 -0.749371 0.000000 -0.593412 0.000000 0.000000
    19 0.354567 0.016267 0.318132 0.386384 -0.406183 -1.191370
    20 1.887164 0.012878 0.000000 -0.304306 0.026726 -0.316515
    21 1.001874 -0.000270 0.000000 0.000000 0.000000 -0.886628
    22 -1.123360 -2.195093 -0.278957 -1.206017 0.000000 -0.087266
    23 0.010772 -0.963791 0.000000 -0.778410 0.000000 0.000000
    24 -0.010412 -0.631916 -0.000001 -1.003573 0.000000 0.000000
    25 -2.483961 -7.013647 -9.178312 -1.115961 -5.731055 0.240941
    26 0.089929 -8.543160 0.000000 0.563936 -0.243592 0.239199
    27 0.000000 -0.359712 0.000000 0.000000 0.000000 0.000000
    28 -0.170480 -2.636147 -0.277655 -1.645857 0.000000 0.000000
    29 0.010599 -1.261177 0.000001 -0.253073 0.000000 0.000000
    30 -0.000001 -0.943233 -0.000001 -0.563750 0.000000 0.000000
    31 -0.827563 -2.508973 -0.277656 -1.186845 0.000000 -0.000012
    32 0.000000 -1.292972 0.000001 -0.539300 0.000000 0.000000
    33 0.000000 -0.752466 0.000000 -0.654487 0.000000 0.000000
    34 0.444213 -2.561959 -0.277655 -1.727294 -0.046226 -0.024599
    35 0.021022 -1.208185 -0.000001 -0.239112 0.000000 0.000000
    36 0.010597 -0.741867 -0.000001 -0.579445 0.000000 0.000000
    37 1.047445 -2.222821 -0.277655 -1.508117 -0.078971 -0.038609
    38 0.000000 -0.996222 0.000000 -0.863938 0.000000 0.000000
    39 -0.000001 -0.614690 0.000000 -0.523599 0.000000 0.000000
    40 -0.308254 -0.007814 0.307166 -0.127483 -0.299474 -2.523253
    41 1.978379 0.019544 0.000000 -0.098060 -0.036779 0.192060
    42 0.982426 0.003186 0.000000 0.000000 0.000000 0.383993
  time 27
    0 5.938531 4.915709 -15.495063 -1.563128 -0.839374 1.243212
    1 -0.000001 -8.563283 0.000000 0.360418 0.256338 -0.113303
    2 -0.293234 -3.282020 0.672796 -1.247037 1.437608 -1.233844
    3 -0.000002 2.163130 0.753818 0.000000 0.000000 0.000000
    4 0.000002 -3.052707 1.526597 0.000000 0.000000 0.000000
    5 0.000003 -10.293062 1.701879 0.000000 0.000000 0.000000
    6 0.000000 -4.967293 1.445704 0.000000 0.000000 0.000000
    7 0.000000 -5.102123 2.443444 0.000000 0.000000 0.000000
    8 0.004669 5.953095 -2.702796 0.000000 0.000000 0.000000
    9 -0.003480 -0.404829 0.000000 0.000000 0.000000 0.000000
    10 -0.519310 -2.501155 -0.278957 -1.375314 0.000000 -0.122173
    11 -0.010598 -1.208185 0.000000 -0.907575 0.000000 0.000000
    12 0.000000 -0.763066 0.000000 -1.144947 0.000000 0.000000
    13 0.105980 -2.607134 -0.278957 -0.869181 0.000000 -0.148353
    14 -0.000001 -1.250579 0.000000 -1.385786 0.000000 0.000000
    15 0.000000 -0.932634 0.000000 -0.902353 0.000000 0.000000
    16 0.763064 -2.490556 -0.278957 -0.340544 0.078175 0.347833
    17 -0.012322 -1.280917 0.000000 -0.553262 0.000000 0.000000
    18 -0.001697 -0.749371 0.000000 -0.593412 0.000000 0.000000
    19 0.354567 0.016267 0.318132 0.386384 -0.406183 -1.191370
    20 1.887164 0.012878 0.000000 -0.304306 0.026726 -0.316515
    21 1.001874 -0.000270 0.000000 0.000000 0.000000 -0.886628
    22 -1.123360 -2.195093 -0.278957 -1.206017 0.000000 -0.087266
    23 0.010772 -0.963791 0.000000 -0.778410 0.000000 0.000000
    24 -0.010412 -0.631916 -0.000001 -1.003573 0.000000 0.000000
    25 -2.124575 -6.775359 -9.514260 -1.032329 -5.761627 0.310019
    26 0.089929 -8.543160 0.000000 0.559612 -0.245596 0.216924
    27 0.000000 -0.359712 0.000000 0.000000 0.000000 0.000000
    28 -0.170480 -2.636147 -0.277655 -1.645857 0.000000 0.000000
    29 0.010599 -1.261177 0.000001 -0.253073 0.000000 0.000000
    30 -0.000001 -0.943233 -0.000001 -0.563750 0.000000 0.000000
    31 -0.827563 -2.508973 -0.277656 -1.186845 0.000000 -0.000012
    32 0.000000 -1.292972 0.000001 -0.539300 0.000000 0.000000
    33 0.000000 -0.752466 0.000000 -0.654487 0.000000 0.000000
    34 0.444213 -2.561959 -0.277655 -1.727294 -0.046226 -0.024599
    35 0.021022 -1.208185 -0.000001 -0.239112 0.000000 0.000000
    36 0.010597 -0.741867 -0.000001 -0.579445 0.000000 0.000000
    37 1.047445 -2.222821 -0.277655 -1.508117 -0.078971 -0.038609
    38 0.000000 -0.996222 0.000000 -0.863938 0.000000 0.000000
    39 -0.000001 -0.614690 0.000000 -0.523599 0.000000 0.000000
    40 -0.308254 -0.007814 0.307166 -0.127483 -0.299474 -2.523253
    41 1.978379 0.019544 0.000000 -0.098060 -0.036779 0.192060
    42 0.982426 0.003186 0.000000 0.000000 0.000000 0.383993
  time 28
    0 6.157288 5.720421 -14.471594 -1.509313 -0.931295 1.209583
    1 -0.000001 -8.563283 0.000000 0.356456 0.192133 -0.123725
    2 -0.293234 -3.282020 0.672796 -1.247037 1.437608 -1.233844
    3 -0.000002 2.163130 0.753818 0.000000 0.000000 0.000000
    4 0.000002 -3.052707 1.526597 0.000000 0.000000 0.000000
    5 0.000003 -10.293062 1.701879 0.000000 0.000000 0.000000
    6 0.000000 -4.967293 1.445704 0.000000 0.000000 0.000000
    7 0.000000 -5.102123 2.443444 0.000000 0.000000 0.000000
    8 0.004669 5.953095 -2.702796 0.000000 0.000000 0.000000
    9 -0.003480 -0.404829 0.000000 0.000000 0.000000 0.000000
    10 -0.519310 -2.501155 -0.278957 -1.375314 0.000000 -0.122173
    11 -0.010598 -1.208185 0.000000 -0.907575 0.000000 0.000000
    12 0.000000 -0.763066 0.000000 -1.144947 0.000000 0.000000
    13 0.105980 -2.607134 -0.278957 -0.869181 0.000000 -0.148353
    14 -0.000001 -1.250579 0.000000 -1.385786 0.000000 0.000000
    15 0.000000 -0.932634 0.000000 -0.902353 0.000000 0.000000
    16 0.763064 -2.490556 -0.278957 -0.340544 0.078175 0.347833
    17 -0.012322 -1.280917 0.000000 -0.553262 0.000000 0.000000
    18 -0.001697 -0.749371 0.000000 -0.593412 0.000000 0.000000
    19 0.354567 0.016267 0.318132 0.386384 -0.406183 -1.191370
    20 1.887164 0.012878 0.000000 -0.304306 0.026726 -0.316515
    21 1.001874 -0.000270 0.000000 0.000000 0.000000 -0.886628
    22 -1.123360 -2.195093 -0.278957 -1.206017 0.000000 -0.087266
    23 0.010772 -0.963791 0.000000 -0.778410 0.000000 0.000000
    24 -0.010412 -0.631916 -0.000001 -1.003573 0.000000 0.000000
    25 -1.851129 -6.701138 -9.604106 -0.949888 -5.795937 0.377954
    26 0.089929 -8.543160 0.000000 0.557520 -0.246484 0.192366
    27 0.000000 -0.359712 0.000000 0.000000 0.000000 0.000000
    28 -0.170480 -2.636147 -0.277655 -1.645857 0.000000 0.000000
    29 0.010599 -1.261177 0.000001 -0.253073 0.000000 0.000000
    30 -0.000001 -0.943233 -0.000001 -0.563750 0.000000 0.000000
    31 -0.827563 -2.508973 -0.277656 -1.186845 0.000000 -0.000012
    32 0.000000 -1.292972 0.000001 -0.539300 0.000000 0.000000
    33 0.000000 -0.752466 0.000000 -0.654487 0.000000 0.000000
    34 0.444213 -2.561959 -0.277655 -1.727294 -0.046226 -0.024599
    35 0.021022 -1.208185 -0.000001 -0.239112 0.000000 0.000000
    36 0.010597 -0.741867 -0.000001 -0.579445 0.000000 0.000000
    37 1.047445 -2.222821 -0.277655 -1.508117 -0.078971 -0.038609
    38 0.000000 -0.996222 0.000000 -0.863938 0.000000 0.000000
    39 -0.000001 -0.614690 0.000000 -0.523599 0.000000 0.000000
    40 -0.308254 -0.007814 0.307166 -0.127483 -0.299474 -2.523253
    41 1.978379 0.019544 0.000000 -0.098060 -0.036779 0.192060
    42 0.982426 0.003186 0.000000 0.000000 0.000000 0.383993
  time 29
    0 6.376044 6.193092 -12.998893 -1.440508 -1.022533 1.160731
    1 -0.000001 -8.563283 0.000000 0.352908 0.127138 -0.134357
    2 -0.293234 -3.282020 0.672796 -1.247037 1.437608 -1.233844
    3 -0.000002 2.163130 0.753818 0.000000 0.000000 0.000000
    4 0.000002 -3.052707 1.526597 0.000000 0.000000 0.000000
    5 0.000003 -10.293062 1.701879 0.000000 0.000000 0.000000
    6 0.000000 -4.967293 1.445704 0.000000 0.000000 0.000000
    7 0.000000 -5.102123 2.443444 0.000000 0.000000 0.000000
    8 0.004669 5.953095 -2.702796 0.000000 0.000000 0.000000
    9 -0.003480 -0.404829 0.000000 0.000000 0.000000 0.000000
    10 -0.519310 -2.501155 -0.278957 -1.375314 0.000000 -0.122173
    11 -0.010598 -1.208185 0.000000 -0.907575 0.000000 0.000000
    12 0.000000 -0.763066 0.000000 -1.144947 0.000000 0.000000
    13 0.105980 -2.607134 -0.278957 -0.869181 0.000000 -0.148353
    14 -0.000001 -1.250579 0.000000 -1.385786 0.000000 0.000000
    15 0.000000 -0.932634 0.000000 -0.902353 0.000000 0.000000
    16 0.763064 -2.490556 -0.278957 -0.340544 0.078175 0.347833
    17 -0.012322 -1.280917 0.000000 -0.553262 0.000000 0.000000
    18 -0.001697 -0.749371 0.000000 -0.593412 0.000000 0.000000
    19 0.354567 0.016267 0.318132 0.386384 -0.406183 -1.191370
    20 1.887164 0.012878 0.000000 -0.304306 0.026726 -0.316515
    21 1.001874 -0.000270 0.000000 0.000000 0.000000 -0.886628
    22 -1.123360 -2.195093 -0.278957 -1.206017 0.000000 -0.087266
    23 0.010772 -0.963791 0.000000 -0.778410 0.000000 0.000000
    24 -0.010412 -0.631916 -0.000001 -1.003573 0.000000 0.000000
    25 -1.718313 -6.873018 -9.287690 -0.870195 -5.834464 0.442956
    26 0.089929 -8.543160 0.000000 0.556683 -0.246698 0.166488
    27 0.000000 -0.359712 0.000000 0.000000 0.000000 0.000000
    28 -0.170480 -2.636147 -0.277655 -1.645857 0.000000 0.000000
    29 0.010599 -1.261177 0.000001 -0.253073 0.000000 0.000000
    30 -0.000001 -0.943233 -0.000001 -0.563750 0.000000 0.000000
    31 -0.827563 -2.508973 -0.277656 -1.186845 0.000000 -0.000012
    32 0.000000 -1.292972 0.000001 -0.539300 0.000000 0.000000
    33 0.000000 -0.752466 0.000000 -0.654487 0.000000 0.000000
    34 0.444213 -2.561959 -0.277655 -1.727294 -0.046226 -0.024599
    35 0.021022 -1.208185 -0.000001 -0.239112 0.000000 0.000000
    36 0.010597 -0.741867 -0.000001 -0.579445 0.000000 0.000000
    37 1.047445 -2.222821 -0.277655 -1.508117 -0.078971 -0.038609
    38 0.000000 -0.996222 0.000000 -0.863938 0.000000 0.000000
    39 -0.000001 -0.614690 0.000000 -0.523599 0.000000 0.000000
    40 -0.308254 -0.007814 0.307166 -0.127483 -0.299474 -2.523253
    41 1.978379 0.019544 0.000000 -0.098060 -0.036779 0.192060
    42 0.982426 0.003186 0.000000 0.000000 0.000000 0.383993
  time 30
    0 6.629958 6.470444 -11.104304 -1.349555 -1.111285 1.089123
    1 -0.000001 -8.563283 0.000000 0.350085 0.062076 -0.144674
    2 -0.293234 -3.282020 0.672796 -1.247037 1.437608 -1.233844
    3 -0.000002 2.163130 0.753818 0.000000 0.000000 0.000000
    4 0.000002 -3.052707 1.526597 0.000000 0.000000 0.000000
    5 0.000003 -10.293062 1.701879 0.000000 0.000000 0.000000
    6 0.000000 -4.967293 1.445704 0.000000 0.000000 0.000000
    7 0.000000 -5.102123 2.443444 0.000000 0.000000 0.000000
    8 0.004669 5.953095 -2.702796 0.000000 0.000000 0.000000
    9 -0.003480 -0.404829 0.000000 0.000000 0.000000 0.000000
    10 -0.519310 -2.501155 -0.278957 -1.375314 0.000000 -0.122173
    11 -0.010598 -1.208185 0.000000 -0.907575 0.000000 0.000000
    12 0.000000 -0.763066 0.000000 -1.144947 0.000000 0.000000
    13 0.105980 -2.607134 -0.278957 -0.869181 0.000000 -0.148353
    14 -0.000001 -1.250579 0.000000 -1.385786 0.000000 0.000000
    15 0.000000 -0.932634 0.000000 -0.902353 0.000000 0.000000
    16 0.763064 -2.490556 -0.278957 -0.340544 0.078175 0.347833
    17 -0.012322 -1.280917 0.000000 -0.553262 0.000000 0.000000
    18 -0.001697 -0.749371 0.000000 -0.593412 0.000000 0.000000
    19 0.354567 0.016267 0.318132 0.386384 -0.406183 -1.191370
    20 1.887164 0.012878 0.000000 -0.304306 0.026726 -0.316515
    21 1.001874 -0.000270 0.000000 0.000000 0.000000 -0.886628
    22 -1.123360 -2.195093 -0.278957 -1.206017 0.000000 -0.087266
    23 0.010772 -0.963791 0.000000 -0.778410 0.000000 0.000000
    24 -0.010412 -0.631916 -0.000001 -1.003573 0.000000 0.000000
    25 -1.605028 -7.150370 -8.889241 -0.794441 -5.877303 0.503740
    26 0.089929 -8.543160 0.000000 0.556125 -0.246759 0.140280
    27 0.000000 -0.359712 0.000000 0.000000 0.000000 0.000000
    28 -0.170480 -2.636147 -0.277655 -1.645857 0.000000 0.000000
    29 0.010599 -1.261177 0.000001 -0.253073 0.000000 0.000000
    30 -0.000001 -0.943233 -0.000001 -0.563750 0.000000 0.000000
    31 -0.827563 -2.508973 -0.277656 -1.186845 0.000000 -0.000012
    32 0.000000 -1.292972 0.000001 -0.539300 0.000000 0.000000
    33 0.000000 -0.752466 0.000000 -0.654487 0.000000 0.000000
    34 0.444213 -2.561959 -0.277655 -1.727294 -0.046226 -0.024599
    35 0.021022 -1.208185 -0.000001 -0.239112 0.000000 0.000000
    36 0.010597 -0.741867 -0.000001 -0.579445 0.000000 0.000000
    37 1.047445 -2.222821 -0.277655 -1.508117 -0.078971 -0.038609
    38 0.000000 -0.996222 0.000000 -0.863938 0.000000 0.000000
    39 -0.000001 -0.614690 0.000000 -0.523599 0.000000 0.000000
    40 -0.308254 -0.007814 0.307166 -0.127483 -0.299474 -2.523253
    41 1.978379 0.019544 0.000000 -0.098060 -0.036779 0.192060
    42 0.982426 0.003186 0.000000 0.000000 0.000000 0.383993
  time 31
    0 6.864341 6.611074 -9.221434 -1.224031 -1.195261 0.982409
    1 -0.000001 -8.563283 0.000000 0.348169 -0.002216 -0.154256
    2 -0.293234 -3.282020 0.672796 -1.247037 1.437608 -1.233844
    3 -0.000002 2.163130 0.753818 0.000000 0.000000 0.000000
    4 0.000002 -3.052707 1.526597 0.000000 0.000000 0.000000
    5 0.000003 -10.293062 1.701879 0.000000 0.000000 0.000000
    6 0.000000 -4.967293 1.445704 0.000000 0.000000 0.000000
    7 0.000000 -5.102123 2.443444 0.000000 0.000000 0.000000
    8 0.004669 5.953095 -2.702796 0.000000 0.000000 0.000000
    9 -0.003480 -0.404829 0.000000 0.000000 0.000000 0.000000
    10 -0.519310 -2.501155 -0.278957 -1.375314 0.000000 -0.122173
    11 -0.010598 -1.208185 0.000000 -0.907575 0.000000 0.000000
    12 0.000000 -0.763066 0.000000 -1.144947 0.000000 0.000000
    13 0.105980 -2.607134 -0.278957 -0.869181 0.000000 -0.148353
    14 -0.000001 -1.250579 0.000000 -1.385786 0.000000 0.000000
    15 0.000000 -0.932634 0.000000 -0.902353 0.000000 0.000000
    16 0.763064 -2.490556 -0.278957 -0.340544 0.078175 0.347833
    17 -0.012322 -1.280917 0.000000 -0.553262 0.000000 0.000000
    18 -0.001697 -0.749371 0.000000 -0.593412 0.000000 0.000000
    19 0.354567 0.016267 0.318132 0.386384 -0.406183 -1.191370
    20 1.887164 0.012878 0.000000 -0.304306 0.026726 -0.316515
    21 1.001874 -0.000270 0.000000 0.000000 0.000000 -0.886628
    22 -1.123360 -2.195093 -0.278957 -1.206017 0.000000 -0.087266
    23 0.010772 -0.963791 0.000000 -0.778410 0.000000 0.000000
    24 -0.010412 -0.631916 -0.000001 -1.003573 0.000000 0.000000
    25 -1.374552 -7.447254 -8.490791 -0.723816 -5.924263 0.558946
    26 0.089929 -8.543160 0.000000 0.554974 -0.247218 0.114732
    27 0.000000 -0.359712 0.000000 0.000000 0.000000 0.000000
    28 -0.170480 -2.636147 -0.277655 -1.645857 0.000000 0.000000
    29 0.010599 -1.261177 0.000001 -0.253073 0.000000 0.000000
    30 -0.000001 -0.943233 -0.000001 -0.563750 0.000000 0.000000
    31 -0.827563 -2.508973 -0.277656 -1.186845 0.000000 -0.000012
    32 0.000000 -1.292972 0.000001 -0.539300 0.000000 0.000000
    33 0.000000 -0.752466 0.000000 -0.654487 0.000000 0.000000
    34 0.444213 -2.561959 -0.277655 -1.727294 -0.046226 -0.024599
    35 0.021022 -1.208185 -0.000001 -0.239112 0.000000 0.000000
    36 0.010597 -0.741867 -0.000001 -0.579445 0.000000 0.000000
    37 1.047445 -2.222821 -0.277655 -1.508117 -0.078971 -0.038609
    38 0.000000 -0.996222 0.000000 -0.863938 0.000000 0.000000
    39 -0.000001 -0.614690 0.000000 -0.523599 0.000000 0.000000
    40 -0.308254 -0.007814 0.307166 -0.127483 -0.299474 -2.523253
    41 1.978379 0.019544 0.000000 -0.098060 -0.036779 0.192060
    42 0.982426 0.003186 0.000000 0.000000 0.000000 0.383993
  time 32
    0 7.036221 6.661856 -7.776077 -1.042801 -1.270659 0.819077
    1 -0.000001 -8.563283 0.000000 0.347302 -0.064906 -0.162703
    2 -0.293234 -3.282020 0.672796 -1.247037 1.437608 -1.233844
    3 -0.000002 2.163130 0.753818 0.000000 0.000000 0.000000
    4 0.000002 -3.052707 1.526597 0.000000 0.000000 0.000000
    5 0.000003 -10.293062 1.701879 0.000000 0.000000 0.000000
    6 0.000000 -4.967293 1.445704 0.000000 0.000000 0.000000
    7 0.000000 -5.102123 2.443444 0.000000 0.000000 0.000000
    8 0.004669 5.953095 -2.702796 0.000000 0.000000 0.000000
    9 -0.003480 -0.404829 0.000000 0.000000 0.000000 0.000000
    10 -0.519310 -2.501155 -0.278957 -1.375314 0.000000 -0.122173
    11 -0.010598 -1.208185 0.000000 -0.907575 0.000000 0.000000
    12 0.000000 -0.763066 0.000000 -1.144947 0.000000 0.000000
    13 0.105980 -2.607134 -0.278957 -0.869181 0.000000 -0.148353
    14 -0.000001 -1.250579 0.000000 -1.385786 0.000000 0.000000
    15 0.000000 -0.932634 0.000000 -0.902353 0.000000 0.000000
    16 0.763064 -2.490556 -0.278957 -0.340544 0.078175 0.347833
    17 -0.012322 -1.280917 0.000000 -0.553262 0.000000 0.000000
    18 -0.001697 -0.749371 0.000000 -0.593412 0.000000 0.000000
    19 0.354567 0.016267 0.318132 0.386384 -0.406183 -1.191370
    20 1.887164 0.012878 0.000000 -0.304306 0.026726 -0.316515
    21 1.001874 -0.000270 0.000000 0.000000 0.000000 -0.886628
    22 -1.123360 -2.195093 -0.278957 -1.206017 0.000000 -0.087266
    23 0.010772 -0.963791 0.000000 -0.778410 0.000000 0.000000
    24 -0.010412 -0.631916 -0.000001 -1.003573 0.000000 0.000000
    25 -1.187046 -7.775389 -8.506416 -0.658871 -5.974674 0.607573
    26 0.089929 -8.543160 0.000000 0.552359 -0.248641 0.090806
    27 0.000000 -0.359712 0.000000 0.000000 0.000000 0.000000
    28 -0.170480 -2.636147 -0.277655 -1.645857 0.000000 0.000000
    29 0.010599 -1.261177 0.000001 -0.253073 0.000000 0.000000
    30 -0.000001 -0.943233 -0.000001 -0.563750 0.000000 0.000000
    31 -0.827563 -2.508973 -0.277656 -1.186845 0.000000 -0.000012
    32 0.000000 -1.292972 0.000001 -0.539300 0.000000 0.000000
    33 0.000000 -0.752466 0.000000 -0.654487 0.000000 0.000000
    34 0.444213 -2.561959 -0.277655 -1.727294 -0.046226 -0.024599
    35 0.021022 -1.208185 -0.000001 -0.239112 0.000000 0.000000
    36 0.010597 -0.741867 -0.000001 -0.579445 0.000000 0.000000
    37 1.047445 -2.222821 -0.277655 -1.508117 -0.078971 -0.038609
    38 0.000000 -0.996222 0.000000 -0.863938 0.000000 0.000000
    39 -0.000001 -0.614690 0.000000 -0.523599 0.000000 0.000000
    40 -0.308254 -0.007814 0.307166 -0.127483 -0.299474 -2.523253
    41 1.978379 0.019544 0.000000 -0.098060 -0.036779 0.192060
    42 0.982426 0.003186 0.000000 0.000000 0.000000 0.383993
  time 33
    0 7.106535 6.665763 -7.194028 -0.774332 -1.331338 0.567283
    1 -0.000001 -8.563283 0.000000 0.347522 -0.125203 -0.169553
    2 -0.293234 -3.282020 0.672796 -1.247037 1.437608 -1.233844
    3 -0.000002 2.163130 0.753818 0.000000 0.000000 0.000000
    4 0.000002 -3.052707 1.526597 0.000000 0.000000 0.000000
    5 0.000003 -10.293062 1.701879 0.000000 0.000000 0.000000
    6 0.000000 -4.967293 1.445704 0.000000 0.000000 0.000000
    7 0.000000 -5.102123 2.443444 0.000000 0.000000 0.000000
    8 0.004669 5.953095 -2.702796 0.000000 0.000000 0.000000
    9 -0.003480 -0.404829 0.000000 0.000000 0.000000 0.000000
    10 -0.519310 -2.501155 -0.278957 -1.375314 0.000000 -0.122173
    11 -0.010598 -1.208185 0.000000 -0.907575 0.000000 0.000000
    12 0.000000 -0.763066 0.000000 -1.144947 0.000000 0.000000
    13 0.105980 -2.607134 -0.278957 -0.869181 0.000000 -0.148353
    14 -0.000001 -1.250579 0.000000 -1.385786 0.000000 0.000000
    15 0.000000 -0.932634 0.000000 -0.902353 0.000000 0.000000
    16 0.763064 -2.490556 -0.278957 -0.340544 0.078175 0.347833
    17 -0.012322 -1.280917 0.000000 -0.553262 0.000000 0.000000
    18 -0.001697 -0.749371 0.000000 -0.593412 0.000000 0.000000
    19 0.354567 0.016267 0.318132 0.386384 -0.406183 -1.191370
    20 1.887164 0.012878 0.000000 -0.304306 0.026726 -0.316515
    21 1.001874 -0.000270 0.000000 0.000000 0.000000 -0.886628
    22 -1.123360 -2.195093 -0.278957 -1.206017 0.000000 -0.087266
    23 0.010772 -0.963791 0.000000 -0.778410 0.000000 0.000000
    24 -0.010412 -0.631916 -0.000001 -1.003573 0.000000 0.000000
    25 -1.159702 -8.111337 -9.436132 -0.600246 -6.028151 0.648619
    26 0.089929 -8.543160 0.000000 0.547338 -0.251639 0.069493
    27 0.000000 -0.359712 0.000000 0.000000 0.000000 0.000000
    28 -0.170480 -2.636147 -0.277655 -1.645857 0.000000 0.000000
    29 0.010599 -1.261177 0.000001 -0.253073 0.000000 0.000000
    30 -0.000001 -0.943233 -0.000001 -0.563750 0.000000 0.000000
    31 -0.827563 -2.508973 -0.277656 -1.186845 0.000000 -0.000012
    32 0.000000 -1.292972 0.000001 -0.539300 0.000000 0.000000
    33 0.000000 -0.752466 0.000000 -0.654487 0.000000 0.000000
    34 0.444213 -2.561959 -0.277655 -1.727294 -0.046226 -0.024599
    35 0.021022 -1.208185 -0.000001 -0.239112 0.000000 0.000000
    36 0.010597 -0.741867 -0.000001 -0.579445 0.000000 0.000000
    37 1.047445 -2.222821 -0.277655 -1.508117 -0.078971 -0.038609
    38 0.000000 -0.996222 0.000000 -0.863938 0.000000 0.000000
    39 -0.000001 -0.614690 0.000000 -0.523599 0.000000 0.000000
    40 -0.308254 -0.007814 0.307166 -0.127483 -0.299474 -2.523253
    41 1.978379 0.019544 0.000000 -0.098060 -0.036779 0.192060
    42 0.982426 0.003186 0.000000 0.000000 0.000000 0.383993
end
