version 1
nodes
  0 "Bone01" -1
  1 "Bone_Lefthand" 0
  2 "Bone02" 1
  3 "Bone03" 2
  4 "Bone25" 3
  5 "Bone52" 3
  6 "Bone50" 3
  7 "Bone48" 3
  8 "Bone54" 3
  9 "Bone 04" 1
  10 "Bone13" 9
  11 "Bone14" 10
  12 "Bone15" 11
  13 "Bone17" 9
  14 "Bone18" 13
  15 "Bone19" 14
  16 "Bone21" 9
  17 "Bone22" 16
  18 "Bone23" 17
  19 "Bone05" 9
  20 "Bone06" 19
  21 "Bone07" 20
  22 "Bone09" 9
  23 "Bone10" 22
  24 "Bone11" 23
  25 "Bone04" -1
  26 "Bone_Righthand" 25
  27 "Bone26" 26
  28 "Bone35" 27
  29 "Bone36" 28
  30 "Bone37" 29
  31 "Bone31" 27
  32 "Bone32" 31
  33 "Bone33" 32
  34 "Bone39" 27
  35 "Bone40" 34
  36 "Bone41" 35
  37 "Bone43" 27
  38 "Bone44" 37
  39 "Bone45" 38
  40 "Bone27" 27
  41 "Bone28" 40
  42 "Bone29" 41
end
skeleton
  time 0
    0 7.106535 6.665763 -7.194028 -0.774332 -1.331338 0.567283
    1 -0.000001 -8.563283 0.000000 0.347522 -0.125203 -0.169553
    2 -0.293234 -3.282020 0.672796 -1.247037 1.437608 -1.233844
    3 -0.000002 2.163130 0.753818 0.000000 0.000000 0.000000
    4 0.000002 -3.052707 1.526597 0.000000 0.000000 0.000000
    5 0.000003 -10.293062 1.701879 0.000000 0.000000 0.000000
    6 0.000000 -4.967293 1.445704 0.000000 0.000000 0.000000
    7 0.000000 -5.102123 2.443444 0.000000 0.000000 0.000000
    8 0.004669 5.953095 -2.702796 0.000000 0.000000 0.000000
    9 -0.003480 -0.404829 0.000000 0.000000 0.000000 0.000000
    10 -0.519310 -2.501155 -0.278957 -1.375314 0.000000 -0.122173
    11 -0.010598 -1.208185 0.000000 -0.907575 0.000000 0.000000
    12 0.000000 -0.763066 0.000000 -1.144947 0.000000 0.000000
    13 0.105980 -2.607134 -0.278957 -0.869181 0.000000 -0.148353
    14 -0.000001 -1.250579 0.000000 -1.385786 0.000000 0.000000
    15 0.000000 -0.932634 0.000000 -0.902353 0.000000 0.000000
    16 0.763064 -2.490556 -0.278957 -0.340544 0.078175 0.347833
    17 -0.012322 -1.280917 0.000000 -0.553262 0.000000 0.000000
    18 -0.001697 -0.749371 0.000000 -0.593412 0.000000 0.000000
    19 0.354567 0.016267 0.318132 0.386384 -0.406183 -1.191370
    20 1.887164 0.012878 0.000000 -0.304306 0.026726 -0.316515
    21 1.001874 -0.000270 0.000000 0.000000 0.000000 -0.886628
    22 -1.123360 -2.195093 -0.278957 -1.206017 0.000000 -0.087266
    23 0.010772 -0.963791 0.000000 -0.778410 0.000000 0.000000
    24 -0.010412 -0.631916 -0.000001 -1.003573 0.000000 0.000000
    25 -1.159702 -8.111337 -9.436132 -0.600246 -6.028151 0.648619
    26 0.089929 -8.543160 0.000000 0.547338 -0.251639 0.069493
    27 0.000000 -0.359712 0.000000 0.000000 0.000000 0.000000
    28 -0.170480 -2.636147 -0.277655 -1.645857 0.000000 0.000000
    29 0.010599 -1.261177 0.000001 -0.253073 0.000000 0.000000
    30 -0.000001 -0.943233 -0.000001 -0.563750 0.000000 0.000000
    31 -0.827563 -2.508973 -0.277656 -1.186845 0.000000 -0.000012
    32 0.000000 -1.292972 0.000001 -0.539300 0.000000 0.000000
    33 0.000000 -0.752466 0.000000 -0.654487 0.000000 0.000000
    34 0.444213 -2.561959 -0.277655 -1.727294 -0.046226 -0.024599
    35 0.021022 -1.208185 -0.000001 -0.239112 0.000000 0.000000
    36 0.010597 -0.741867 -0.000001 -0.579445 0.000000 0.000000
    37 1.047445 -2.222821 -0.277655 -1.508117 -0.078971 -0.038609
    38 0.000000 -0.996222 0.000000 -0.863938 0.000000 0.000000
    39 -0.000001 -0.614690 0.000000 -0.523599 0.000000 0.000000
    40 -0.308254 -0.007814 0.307166 -0.127483 -0.299474 -2.523253
    41 1.978379 0.019544 0.000000 -0.098060 -0.036779 0.192060
    42 0.982426 0.003186 0.000000 0.000000 0.000000 0.383993
  time 1
    0 6.907311 5.821987 -7.955770 -0.821328 -1.308480 0.600292
    1 -0.000001 -8.563283 0.000000 0.348532 -0.077203 -0.169385
    2 -0.293234 -3.282020 0.672796 -1.247037 1.437608 -1.233844
    3 -0.000002 2.163130 0.753818 0.000000 0.000000 0.000000
    4 0.000002 -3.052707 1.526597 0.000000 0.000000 0.000000
    5 0.000003 -10.293062 1.701879 0.000000 0.000000 0.000000
    6 0.000000 -4.967293 1.445704 0.000000 0.000000 0.000000
    7 0.000000 -5.102123 2.443444 0.000000 0.000000 0.000000
    8 0.004669 5.953095 -2.702796 0.000000 0.000000 0.000000
    9 -0.003480 -0.404829 0.000000 0.000000 0.000000 0.000000
    10 -0.519310 -2.501155 -0.278957 -1.375314 0.000000 -0.122173
    11 -0.010598 -1.208185 0.000000 -0.907575 0.000000 0.000000
    12 0.000000 -0.763066 0.000000 -1.144947 0.000000 0.000000
    13 0.105980 -2.607134 -0.278957 -0.869181 0.000000 -0.148353
    14 -0.000001 -1.250579 0.000000 -1.385786 0.000000 0.000000
    15 0.000000 -0.932634 0.000000 -0.902353 0.000000 0.000000
    16 0.763064 -2.490556 -0.278957 -0.340544 0.078175 0.347833
    17 -0.012322 -1.280917 0.000000 -0.553262 0.000000 0.000000
    18 -0.001697 -0.749371 0.000000 -0.593412 0.000000 0.000000
    19 0.354567 0.016267 0.318132 0.386384 -0.406183 -1.191370
    20 1.887164 0.012878 0.000000 -0.304306 0.026726 -0.316515
    21 1.001874 -0.000270 0.000000 0.000000 0.000000 -0.886628
    22 -1.123360 -2.195093 -0.278957 -1.206017 0.000000 -0.087266
    23 0.010772 -0.963791 0.000000 -0.778410 0.000000 0.000000
    24 -0.010412 -0.631916 -0.000001 -1.003573 0.000000 0.000000
    25 -2.683186 -4.716702 -11.092433 -0.643574 -5.865132 0.513894
    26 0.089929 -8.543160 0.000000 0.551173 -0.226580 0.109424
    27 0.000000 -0.359712 0.000000 0.000000 0.000000 0.000000
    28 -0.170480 -2.636147 -0.277655 -1.607084 0.000000 0.000000
    29 0.010599 -1.261177 0.000001 -0.253229 0.000000 0.000000
    30 -0.000001 -0.943233 -0.000001 -0.563810 0.000000 0.000000
    31 -0.827563 -2.508973 -0.277656 -1.160259 0.000000 -0.000012
    32 0.000000 -1.292972 0.000001 -0.530672 0.000000 0.000000
    33 0.000000 -0.752466 0.000000 -0.655110 0.000000 0.000000
    34 0.444213 -2.561959 -0.277655 -1.728164 -0.046226 -0.024599
    35 0.021022 -1.208185 -0.000001 -0.239112 0.000000 0.000000
    36 0.010597 -0.741867 -0.000001 -0.579385 0.000000 0.000000
    37 1.047445 -2.222821 -0.277655 -1.509011 -0.078971 -0.038609
    38 0.000000 -0.996222 0.000000 -0.863938 0.000000 0.000000
    39 -0.000001 -0.614690 0.000000 -0.523599 0.000000 0.000000
    40 -0.308254 -0.007814 0.307166 -0.100673 -0.284769 -2.522403
    41 1.978379 0.019544 0.000000 -0.099222 -0.033508 0.225288
    42 0.982426 0.003186 0.000000 0.000000 0.000000 0.304615
  time 2
    0 6.711992 4.993837 -8.690167 -0.922071 -1.243609 0.662192
    1 -0.000001 -8.563283 0.000000 0.349619 -0.026941 -0.169112
    2 -0.293234 -3.282020 0.672796 -1.247037 1.437608 -1.233844
    3 -0.000002 2.163130 0.753818 0.000000 0.000000 0.000000
    4 0.000002 -3.052707 1.526597 0.000000 0.000000 0.000000
    5 0.000003 -10.293062 1.701879 0.000000 0.000000 0.000000
    6 0.000000 -4.967293 1.445704 0.000000 0.000000 0.000000
    7 0.000000 -5.102123 2.443444 0.000000 0.000000 0.000000
    8 0.004669 5.953095 -2.702796 0.000000 0.000000 0.000000
    9 -0.003480 -0.404829 0.000000 0.000000 0.000000 0.000000
    10 -0.519310 -2.501155 -0.278957 -1.375314 0.000000 -0.122173
    11 -0.010598 -1.208185 0.000000 -0.907575 0.000000 0.000000
    12 0.000000 -0.763066 0.000000 -1.144947 0.000000 0.000000
    13 0.105980 -2.607134 -0.278957 -0.869181 0.000000 -0.148353
    14 -0.000001 -1.250579 0.000000 -1.385786 0.000000 0.000000
    15 0.000000 -0.932634 0.000000 -0.902353 0.000000 0.000000
    16 0.763064 -2.490556 -0.278957 -0.340544 0.078175 0.347833
    17 -0.012322 -1.280917 0.000000 -0.553262 0.000000 0.000000
    18 -0.001697 -0.749371 0.000000 -0.593412 0.000000 0.000000
    19 0.354567 0.016267 0.318132 0.386384 -0.406183 -1.191370
    20 1.887164 0.012878 0.000000 -0.304306 0.026726 -0.316515
    21 1.001874 -0.000270 0.000000 0.000000 0.000000 -0.886628
    22 -1.123360 -2.195093 -0.278957 -1.206017 0.000000 -0.087266
    23 0.010772 -0.963791 0.000000 -0.778410 0.000000 0.000000
    24 -0.010412 -0.631916 -0.000001 -1.003573 0.000000 0.000000
    25 -4.077760 -1.626764 -12.572947 -0.716305 -5.703646 0.356930
    26 0.089929 -8.543160 0.000000 0.561216 -0.202255 0.152407
    27 0.000000 -0.359712 0.000000 0.000000 0.000000 0.000000
    28 -0.170480 -2.636147 -0.277655 -1.566399 0.000000 0.000000
    29 0.010599 -1.261177 0.000001 -0.253660 0.000000 0.000000
    30 -0.000001 -0.943233 -0.000001 -0.563989 0.000000 0.000000
    31 -0.827563 -2.508973 -0.277656 -1.132407 0.000000 -0.000012
    32 0.000000 -1.292972 0.000001 -0.521644 0.000000 0.000000
    33 0.000000 -0.752466 0.000000 -0.656884 0.000000 0.000000
    34 0.444213 -2.561959 -0.277655 -1.730690 -0.046226 -0.024599
    35 0.021022 -1.208185 -0.000001 -0.239112 0.000000 0.000000
    36 0.010597 -0.741867 -0.000001 -0.579205 0.000000 0.000000
    37 1.047445 -2.222821 -0.277655 -1.511542 -0.078971 -0.038609
    38 0.000000 -0.996222 0.000000 -0.863938 0.000000 0.000000
    39 -0.000001 -0.614690 0.000000 -0.523599 0.000000 0.000000
    40 -0.308254 -0.007814 0.307166 -0.072677 -0.269381 -2.521084
    41 1.978379 0.019544 0.000000 -0.100337 -0.030020 0.260132
    42 0.982426 0.003186 0.000000 0.000000 0.000000 0.221419
  time 3
    0 6.524486 4.185218 -9.412846 -1.002490 -1.170794 0.699394
    1 -0.000001 -8.563283 0.000000 0.350733 0.024968 -0.168775
    2 -0.293234 -3.282020 0.672796 -1.247037 1.437608 -1.233844
    3 -0.000002 2.163130 0.753818 0.000000 0.000000 0.000000
    4 0.000002 -3.052707 1.526597 0.000000 0.000000 0.000000
    5 0.000003 -10.293062 1.701879 0.000000 0.000000 0.000000
    6 0.000000 -4.967293 1.445704 0.000000 0.000000 0.000000
    7 0.000000 -5.102123 2.443444 0.000000 0.000000 0.000000
    8 0.004669 5.953095 -2.702796 0.000000 0.000000 0.000000
    9 -0.003480 -0.404829 0.000000 0.000000 0.000000 0.000000
    10 -0.519310 -2.501155 -0.278957 -1.375314 0.000000 -0.122173
    11 -0.010598 -1.208185 0.000000 -0.907575 0.000000 0.000000
    12 0.000000 -0.763066 0.000000 -1.144947 0.000000 0.000000
    13 0.105980 -2.607134 -0.278957 -0.869181 0.000000 -0.148353
    14 -0.000001 -1.250579 0.000000 -1.385786 0.000000 0.000000
    15 0.000000 -0.932634 0.000000 -0.902353 0.000000 0.000000
    16 0.763064 -2.490556 -0.278957 -0.340544 0.078175 0.347833
    17 -0.012322 -1.280917 0.000000 -0.553262 0.000000 0.000000
    18 -0.001697 -0.749371 0.000000 -0.593412 0.000000 0.000000
    19 0.354567 0.016267 0.318132 0.386384 -0.406183 -1.191370
    20 1.887164 0.012878 0.000000 -0.304306 0.026726 -0.316515
    21 1.001874 -0.000270 0.000000 0.000000 0.000000 -0.886628
    22 -1.123360 -2.195093 -0.278957 -1.206017 0.000000 -0.087266
    23 0.010772 -0.963791 0.000000 -0.778410 0.000000 0.000000
    24 -0.010412 -0.631916 -0.000001 -1.003573 0.000000 0.000000
    25 -5.351236 1.162383 -13.889393 -0.831906 -5.551169 0.162709
    26 0.089929 -8.543160 0.000000 0.576141 -0.178894 0.197783
    27 0.000000 -0.359712 0.000000 0.000000 0.000000 0.000000
    28 -0.170480 -2.636147 -0.277655 -1.524343 0.000000 0.000000
    29 0.010599 -1.261177 0.000001 -0.254379 0.000000 0.000000
    30 -0.000001 -0.943233 -0.000001 -0.564289 0.000000 0.000000
    31 -0.827563 -2.508973 -0.277656 -1.103582 0.000000 -0.000012
    32 0.000000 -1.292972 0.000001 -0.512302 0.000000 0.000000
    33 0.000000 -0.752466 0.000000 -0.659677 0.000000 0.000000
    34 0.444213 -2.561959 -0.277655 -1.734647 -0.046226 -0.024599
    35 0.021022 -1.208185 -0.000001 -0.239112 0.000000 0.000000
    36 0.010597 -0.741867 -0.000001 -0.578893 0.000000 0.000000
    37 1.047445 -2.222821 -0.277655 -1.515562 -0.078971 -0.038609
    38 0.000000 -0.996222 0.000000 -0.863938 0.000000 0.000000
    39 -0.000001 -0.614690 0.000000 -0.523599 0.000000 0.000000
    40 -0.308254 -0.007814 0.307166 -0.043830 -0.253525 -2.519263
    41 1.978379 0.019544 0.000000 -0.101356 -0.026365 0.296182
    42 0.982426 0.003186 0.000000 0.000000 0.000000 0.135355
  time 4
    0 6.340887 3.407851 -10.112086 -1.065691 -1.096761 0.718344
    1 -0.000001 -8.563283 0.000000 0.351924 0.077974 -0.168397
    2 -0.293234 -3.282020 0.672796 -1.247037 1.437608 -1.233844
    3 -0.000002 2.163130 0.753818 0.000000 0.000000 0.000000
    4 0.000002 -3.052707 1.526597 0.000000 0.000000 0.000000
    5 0.000003 -10.293062 1.701879 0.000000 0.000000 0.000000
    6 0.000000 -4.967293 1.445704 0.000000 0.000000 0.000000
    7 0.000000 -5.102123 2.443444 0.000000 0.000000 0.000000
    8 0.004669 5.953095 -2.702796 0.000000 0.000000 0.000000
    9 -0.003480 -0.404829 0.000000 0.000000 0.000000 0.000000
    10 -0.519310 -2.501155 -0.278957 -1.375314 0.000000 -0.122173
    11 -0.010598 -1.208185 0.000000 -0.907575 0.000000 0.000000
    12 0.000000 -0.763066 0.000000 -1.144947 0.000000 0.000000
    13 0.105980 -2.607134 -0.278957 -0.869181 0.000000 -0.148353
    14 -0.000001 -1.250579 0.000000 -1.385786 0.000000 0.000000
    15 0.000000 -0.932634 0.000000 -0.902353 0.000000 0.000000
    16 0.763064 -2.490556 -0.278957 -0.340544 0.078175 0.347833
    17 -0.012322 -1.280917 0.000000 -0.553262 0.000000 0.000000
    18 -0.001697 -0.749371 0.000000 -0.593412 0.000000 0.000000
    19 0.354567 0.016267 0.318132 0.386384 -0.406183 -1.191370
    20 1.887164 0.012878 0.000000 -0.304306 0.026726 -0.316515
    21 1.001874 -0.000270 0.000000 0.000000 0.000000 -0.886628
    22 -1.123360 -2.195093 -0.278957 -1.206017 0.000000 -0.087266
    23 0.010772 -0.963791 0.000000 -0.778410 0.000000 0.000000
    24 -0.010412 -0.631916 -0.000001 -1.003573 0.000000 0.000000
    25 -6.495802 3.650741 -15.030053 -1.009337 -5.419776 -0.089293
    26 0.089929 -8.543160 0.000000 0.594691 -0.156620 0.244974
    27 0.000000 -0.359712 0.000000 0.000000 0.000000 0.000000
    28 -0.170480 -2.636147 -0.277655 -1.481373 0.000000 0.000000
    29 0.010599 -1.261177 0.000001 -0.255326 0.000000 0.000000
    30 -0.000001 -0.943233 -0.000001 -0.564672 0.000000 0.000000
    31 -0.827563 -2.508973 -0.277656 -1.074117 0.000000 -0.000012
    32 0.000000 -1.292972 0.000001 -0.502735 0.000000 0.000000
    33 0.000000 -0.752466 0.000000 -0.663356 0.000000 0.000000
    34 0.444213 -2.561959 -0.277655 -1.739867 -0.046226 -0.024599
    35 0.021022 -1.208185 -0.000001 -0.239112 0.000000 0.000000
    36 0.010597 -0.741867 -0.000001 -0.578510 0.000000 0.000000
    37 1.047445 -2.222821 -0.277655 -1.520858 -0.078971 -0.038609
    38 0.000000 -0.996222 0.000000 -0.863938 0.000000 0.000000
    39 -0.000001 -0.614690 0.000000 -0.523599 0.000000 0.000000
    40 -0.308254 -0.007814 0.307166 -0.014420 -0.237346 -2.516926
    41 1.978379 0.019544 0.000000 -0.102254 -0.022602 0.333024
    42 0.982426 0.003186 0.000000 0.000000 0.000000 0.047370
  time 5
    0 6.165100 2.661734 -10.783981 -1.118426 -1.022191 0.725956
    1 -0.000001 -8.563283 0.000000 0.353128 0.131529 -0.167935
    2 -0.293234 -3.282020 0.672796 -1.247037 1.437608 -1.233844
    3 -0.000002 2.163130 0.753818 0.000000 0.000000 0.000000
    4 0.000002 -3.052707 1.526597 0.000000 0.000000 0.000000
    5 0.000003 -10.293062 1.701879 0.000000 0.000000 0.000000
    6 0.000000 -4.967293 1.445704 0.000000 0.000000 0.000000
    7 0.000000 -5.102123 2.443444 0.000000 0.000000 0.000000
    8 0.004669 5.953095 -2.702796 0.000000 0.000000 0.000000
    9 -0.003480 -0.404829 0.000000 0.000000 0.000000 0.000000
    10 -0.519310 -2.501155 -0.278957 -1.375314 0.000000 -0.122173
    11 -0.010598 -1.208185 0.000000 -0.907575 0.000000 0.000000
    12 0.000000 -0.763066 0.000000 -1.144947 0.000000 0.000000
    13 0.105980 -2.607134 -0.278957 -0.869181 0.000000 -0.148353
    14 -0.000001 -1.250579 0.000000 -1.385786 0.000000 0.000000
    15 0.000000 -0.932634 0.000000 -0.902353 0.000000 0.000000
    16 0.763064 -2.490556 -0.278957 -0.340544 0.078175 0.347833
    17 -0.012322 -1.280917 0.000000 -0.553262 0.000000 0.000000
    18 -0.001697 -0.749371 0.000000 -0.593412 0.000000 0.000000
    19 0.354567 0.016267 0.318132 0.386384 -0.406183 -1.191370
    20 1.887164 0.012878 0.000000 -0.304306 0.026726 -0.316515
    21 1.001874 -0.000270 0.000000 0.000000 0.000000 -0.886628
    22 -1.123360 -2.195093 -0.278957 -1.206017 0.000000 -0.087266
    23 0.010772 -0.963791 0.000000 -0.778410 0.000000 0.000000
    24 -0.010412 -0.631916 -0.000001 -1.003573 0.000000 0.000000
    25 -7.519271 5.830495 -16.006645 -1.265271 -5.328060 -0.417166
    26 0.089929 -8.543160 0.000000 0.615509 -0.135477 0.293238
    27 0.000000 -0.359712 0.000000 0.000000 0.000000 0.000000
    28 -0.170480 -2.636147 -0.277655 -1.437904 0.000000 0.000000
    29 0.010599 -1.261177 0.000001 -0.256441 0.000000 0.000000
    30 -0.000001 -0.943233 -0.000001 -0.565140 0.000000 0.000000
    31 -0.827563 -2.508973 -0.277656 -1.044358 0.000000 -0.000012
    32 0.000000 -1.292972 0.000001 -0.493093 0.000000 0.000000
    33 0.000000 -0.752466 0.000000 -0.667754 0.000000 0.000000
    34 0.444213 -2.561959 -0.277655 -1.746126 -0.046226 -0.024599
    35 0.021022 -1.208185 -0.000001 -0.239112 0.000000 0.000000
    36 0.010597 -0.741867 -0.000001 -0.578030 0.000000 0.000000
    37 1.047445 -2.222821 -0.277655 -1.527197 -0.078971 -0.038609
    38 0.000000 -0.996222 0.000000 -0.863938 0.000000 0.000000
    39 -0.000001 -0.614690 0.000000 -0.523599 0.000000 0.000000
    40 -0.308254 -0.007814 0.307166 0.015242 -0.221083 -2.514061
    41 1.978379 0.019544 0.000000 -0.103021 -0.018766 0.370262
    42 0.982426 0.003186 0.000000 0.000000 0.000000 -0.041515
  time 6
    0 6.001033 1.954682 -11.412907 -1.164544 -0.947525 0.726033
    1 -0.000001 -8.563283 0.000000 0.354371 0.185107 -0.167389
    2 -0.293234 -3.282020 0.672796 -1.247037 1.437608 -1.233844
    3 -0.000002 2.163130 0.753818 0.000000 0.000000 0.000000
    4 0.000002 -3.052707 1.526597 0.000000 0.000000 0.000000
    5 0.000003 -10.293062 1.701879 0.000000 0.000000 0.000000
    6 0.000000 -4.967293 1.445704 0.000000 0.000000 0.000000
    7 0.000000 -5.102123 2.443444 0.000000 0.000000 0.000000
    8 0.004669 5.953095 -2.702796 0.000000 0.000000 0.000000
    9 -0.003480 -0.404829 0.000000 0.000000 0.000000 0.000000
    10 -0.519310 -2.501155 -0.278957 -1.375314 0.000000 -0.122173
    11 -0.010598 -1.208185 0.000000 -0.907575 0.000000 0.000000
    12 0.000000 -0.763066 0.000000 -1.144947 0.000000 0.000000
    13 0.105980 -2.607134 -0.278957 -0.869181 0.000000 -0.148353
    14 -0.000001 -1.250579 0.000000 -1.385786 0.000000 0.000000
    15 0.000000 -0.932634 0.000000 -0.902353 0.000000 0.000000
    16 0.763064 -2.490556 -0.278957 -0.340544 0.078175 0.347833
    17 -0.012322 -1.280917 0.000000 -0.553262 0.000000 0.000000
    18 -0.001697 -0.749371 0.000000 -0.593412 0.000000 0.000000
    19 0.354567 0.016267 0.318132 0.386384 -0.406183 -1.191370
    20 1.887164 0.012878 0.000000 -0.304306 0.026726 -0.316515
    21 1.001874 -0.000270 0.000000 0.000000 0.000000 -0.886628
    22 -1.123360 -2.195093 -0.278957 -1.206017 0.000000 -0.087266
    23 0.010772 -0.963791 0.000000 -0.778410 0.000000 0.000000
    24 -0.010412 -0.631916 -0.000001 -1.003573 0.000000 0.000000
    25 -8.413829 7.713365 -16.811357 -1.583035 -5.297584 -0.805394
    26 0.089929 -8.543160 0.000000 0.637268 -0.115329 0.341831
    27 0.000000 -0.359712 0.000000 0.000000 0.000000 0.000000
    28 -0.170480 -2.636147 -0.277655 -1.394455 0.000000 0.000000
    29 0.010599 -1.261177 0.000001 -0.257711 0.000000 0.000000
    30 -0.000001 -0.943233 -0.000001 -0.565655 0.000000 0.000000
    31 -0.827563 -2.508973 -0.277656 -1.014586 0.000000 -0.000012
    32 0.000000 -1.292972 0.000001 -0.483426 0.000000 0.000000
    33 0.000000 -0.752466 0.000000 -0.672752 0.000000 0.000000
    34 0.444213 -2.561959 -0.277655 -1.753226 -0.046226 -0.024599
    35 0.021022 -1.208185 -0.000001 -0.239112 0.000000 0.000000
    36 0.010597 -0.741867 -0.000001 -0.577491 0.000000 0.000000
    37 1.047445 -2.222821 -0.277655 -1.534407 -0.078971 -0.038609
    38 0.000000 -0.996222 0.000000 -0.863938 0.000000 0.000000
    39 -0.000001 -0.614690 0.000000 -0.523599 0.000000 0.000000
    40 -0.308254 -0.007814 0.307166 0.044832 -0.204928 -2.510730
    41 1.978379 0.019544 0.000000 -0.103657 -0.014907 0.407467
    42 0.982426 0.003186 0.000000 0.000000 0.000000 -0.130448
  time 7
    0 5.844778 1.294505 -12.006675 -1.206340 -0.873053 0.720752
    1 -0.000001 -8.563283 0.000000 0.355666 0.238113 -0.166779
    2 -0.293234 -3.282020 0.672796 -1.247037 1.437608 -1.233844
    3 -0.000002 2.163130 0.753818 0.000000 0.000000 0.000000
    4 0.000002 -3.052707 1.526597 0.000000 0.000000 0.000000
    5 0.000003 -10.293062 1.701879 0.000000 0.000000 0.000000
    6 0.000000 -4.967293 1.445704 0.000000 0.000000 0.000000
    7 0.000000 -5.102123 2.443444 0.000000 0.000000 0.000000
    8 0.004669 5.953095 -2.702796 0.000000 0.000000 0.000000
    9 -0.003480 -0.404829 0.000000 0.000000 0.000000 0.000000
    10 -0.519310 -2.501155 -0.278957 -1.375314 0.000000 -0.122173
    11 -0.010598 -1.208185 0.000000 -0.907575 0.000000 0.000000
    12 0.000000 -0.763066 0.000000 -1.144947 0.000000 0.000000
    13 0.105980 -2.607134 -0.278957 -0.869181 0.000000 -0.148353
    14 -0.000001 -1.250579 0.000000 -1.385786 0.000000 0.000000
    15 0.000000 -0.932634 0.000000 -0.902353 0.000000 0.000000
    16 0.763064 -2.490556 -0.278957 -0.340544 0.078175 0.347833
    17 -0.012322 -1.280917 0.000000 -0.553262 0.000000 0.000000
    18 -0.001697 -0.749371 0.000000 -0.593412 0.000000 0.000000
    19 0.354567 0.016267 0.318132 0.386384 -0.406183 -1.191370
    20 1.887164 0.012878 0.000000 -0.304306 0.026726 -0.316515
    21 1.001874 -0.000270 0.000000 0.000000 0.000000 -0.886628
    22 -1.123360 -2.195093 -0.278957 -1.206017 0.000000 -0.087266
    23 0.010772 -0.963791 0.000000 -0.778410 0.000000 0.000000
    24 -0.010412 -0.631916 -0.000001 -1.003573 0.000000 0.000000
    25 -9.183384 9.295444 -17.444189 -1.893105 -5.337644 -1.185542
    26 0.089929 -8.543160 0.000000 0.658643 -0.095915 0.389957
    27 0.000000 -0.359712 0.000000 0.000000 0.000000 0.000000
    28 -0.170480 -2.636147 -0.277655 -1.351443 0.000000 0.000000
    29 0.010599 -1.261177 0.000001 -0.259089 0.000000 0.000000
    30 -0.000001 -0.943233 -0.000001 -0.566230 0.000000 0.000000
    31 -0.827563 -2.508973 -0.277656 -0.985107 0.000000 -0.000012
    32 0.000000 -1.292972 0.000001 -0.473884 0.000000 0.000000
    33 0.000000 -0.752466 0.000000 -0.678229 0.000000 0.000000
    34 0.444213 -2.561959 -0.277655 -1.761000 -0.046226 -0.024599
    35 0.021022 -1.208185 -0.000001 -0.239112 0.000000 0.000000
    36 0.010597 -0.741867 -0.000001 -0.576928 0.000000 0.000000
    37 1.047445 -2.222821 -0.277655 -1.542256 -0.078971 -0.038609
    38 0.000000 -0.996222 0.000000 -0.863938 0.000000 0.000000
    39 -0.000001 -0.614690 0.000000 -0.523599 0.000000 0.000000
    40 -0.308254 -0.007814 0.307166 0.074074 -0.189024 -2.506966
    41 1.978379 0.019544 0.000000 -0.104112 -0.011072 0.444293
    42 0.982426 0.003186 0.000000 0.000000 0.000000 -0.218409
  time 8
    0 5.704149 0.689018 -12.541847 -1.245233 -0.799214 0.711510
    1 -0.000001 -8.563283 0.000000 0.356961 0.290022 -0.166128
    2 -0.293234 -3.282020 0.672796 -1.247037 1.437608 -1.233844
    3 -0.000002 2.163130 0.753818 0.000000 0.000000 0.000000
    4 0.000002 -3.052707 1.526597 0.000000 0.000000 0.000000
    5 0.000003 -10.293062 1.701879 0.000000 0.000000 0.000000
    6 0.000000 -4.967293 1.445704 0.000000 0.000000 0.000000
    7 0.000000 -5.102123 2.443444 0.000000 0.000000 0.000000
    8 0.004669 5.953095 -2.702796 0.000000 0.000000 0.000000
    9 -0.003480 -0.404829 0.000000 0.000000 0.000000 0.000000
    10 -0.519310 -2.501155 -0.278957 -1.375314 0.000000 -0.122173
    11 -0.010598 -1.208185 0.000000 -0.907575 0.000000 0.000000
    12 0.000000 -0.763066 0.000000 -1.144947 0.000000 0.000000
    13 0.105980 -2.607134 -0.278957 -0.869181 0.000000 -0.148353
    14 -0.000001 -1.250579 0.000000 -1.385786 0.000000 0.000000
    15 0.000000 -0.932634 0.000000 -0.902353 0.000000 0.000000
    16 0.763064 -2.490556 -0.278957 -0.340544 0.078175 0.347833
    17 -0.012322 -1.280917 0.000000 -0.553262 0.000000 0.000000
    18 -0.001697 -0.749371 0.000000 -0.593412 0.000000 0.000000
    19 0.354567 0.016267 0.318132 0.386384 -0.406183 -1.191370
    20 1.887164 0.012878 0.000000 -0.304306 0.026726 -0.316515
    21 1.001874 -0.000270 0.000000 0.000000 0.000000 -0.886628
    22 -1.123360 -2.195093 -0.278957 -1.206017 0.000000 -0.087266
    23 0.010772 -0.963791 0.000000 -0.778410 0.000000 0.000000
    24 -0.010412 -0.631916 -0.000001 -1.003573 0.000000 0.000000
    25 -9.827935 10.572827 -17.905141 -2.132642 -5.435302 -1.496324
    26 0.089929 -8.543160 0.000000 0.678241 -0.076761 0.436736
    27 0.000000 -0.359712 0.000000 0.000000 0.000000 0.000000
    28 -0.170480 -2.636147 -0.277655 -1.309387 0.000000 0.000000
    29 0.010599 -1.261177 0.000001 -0.260563 0.000000 0.000000
    30 -0.000001 -0.943233 -0.000001 -0.566854 0.000000 0.000000
    31 -0.827563 -2.508973 -0.277656 -0.956295 0.000000 -0.000012
    32 0.000000 -1.292972 0.000001 -0.464530 0.000000 0.000000
    33 0.000000 -0.752466 0.000000 -0.684017 0.000000 0.000000
    34 0.444213 -2.561959 -0.277655 -1.769251 -0.046226 -0.024599
    35 0.021022 -1.208185 -0.000001 -0.239112 0.000000 0.000000
    36 0.010597 -0.741867 -0.000001 -0.576293 0.000000 0.000000
    37 1.047445 -2.222821 -0.277655 -1.550594 -0.078971 -0.038609
    38 0.000000 -0.996222 0.000000 -0.863938 0.000000 0.000000
    39 -0.000001 -0.614690 0.000000 -0.523599 0.000000 0.000000
    40 -0.308254 -0.007814 0.307166 0.102657 -0.173576 -2.502832
    41 1.978379 0.019544 0.000000 -0.104460 -0.007297 0.480326
    42 0.982426 0.003186 0.000000 0.000000 0.000000 -0.304473
  time 9
    0 5.575239 0.146033 -13.034050 -1.282100 -0.726204 0.699161
    1 -0.000001 -8.563283 0.000000 0.358281 0.340261 -0.165392
    2 -0.293234 -3.282020 0.672796 -1.247037 1.437608 -1.233844
    3 -0.000002 2.163130 0.753818 0.000000 0.000000 0.000000
    4 0.000002 -3.052707 1.526597 0.000000 0.000000 0.000000
    5 0.000003 -10.293062 1.701879 0.000000 0.000000 0.000000
    6 0.000000 -4.967293 1.445704 0.000000 0.000000 0.000000
    7 0.000000 -5.102123 2.443444 0.000000 0.000000 0.000000
    8 0.004669 5.953095 -2.702796 0.000000 0.000000 0.000000
    9 -0.003480 -0.404829 0.000000 0.000000 0.000000 0.000000
    10 -0.519310 -2.501155 -0.278957 -1.375314 0.000000 -0.122173
    11 -0.010598 -1.208185 0.000000 -0.907575 0.000000 0.000000
    12 0.000000 -0.763066 0.000000 -1.144947 0.000000 0.000000
    13 0.105980 -2.607134 -0.278957 -0.869181 0.000000 -0.148353
    14 -0.000001 -1.250579 0.000000 -1.385786 0.000000 0.000000
    15 0.000000 -0.932634 0.000000 -0.902353 0.000000 0.000000
    16 0.763064 -2.490556 -0.278957 -0.340544 0.078175 0.347833
    17 -0.012322 -1.280917 0.000000 -0.553262 0.000000 0.000000
    18 -0.001697 -0.749371 0.000000 -0.593412 0.000000 0.000000
    19 0.354567 0.016267 0.318132 0.386384 -0.406183 -1.191370
    20 1.887164 0.012878 0.000000 -0.304306 0.026726 -0.316515
    21 1.001874 -0.000270 0.000000 0.000000 0.000000 -0.886628
    22 -1.123360 -2.195093 -0.278957 -1.206017 0.000000 -0.087266
    23 0.010772 -0.963791 0.000000 -0.778410 0.000000 0.000000
    24 -0.010412 -0.631916 -0.000001 -1.003573 0.000000 0.000000
    25 -10.343576 11.545513 -18.202025 0.847968 -3.856575 1.411059
    26 0.089929 -8.543160 0.000000 0.694804 -0.057316 0.481259
    27 0.000000 -0.359712 0.000000 0.000000 0.000000 0.000000
    28 -0.170480 -2.636147 -0.277655 -1.268744 0.000000 0.000000
    29 0.010599 -1.261177 0.000001 -0.262085 0.000000 0.000000
    30 -0.000001 -0.943233 -0.000001 -0.567489 0.000000 0.000000
    31 -0.827563 -2.508973 -0.277656 -0.928457 0.000000 -0.000012
    32 0.000000 -1.292972 0.000001 -0.455488 0.000000 0.000000
    33 0.000000 -0.752466 0.000000 -0.689986 0.000000 0.000000
    34 0.444213 -2.561959 -0.277655 -1.777726 -0.046226 -0.024599
    35 0.021022 -1.208185 -0.000001 -0.239112 0.000000 0.000000
    36 0.010597 -0.741867 -0.000001 -0.575658 0.000000 0.000000
    37 1.047445 -2.222821 -0.277655 -1.559187 -0.078971 -0.038609
    38 0.000000 -0.996222 0.000000 -0.863938 0.000000 0.000000
    39 -0.000001 -0.614690 0.000000 -0.523599 0.000000 0.000000
    40 -0.308254 -0.007814 0.307166 0.130294 -0.158775 -2.498433
    41 1.978379 0.019544 0.000000 -0.104639 -0.003654 0.515138
    42 0.982426 0.003186 0.000000 0.000000 0.000000 -0.387645
  time 10
    0 5.461954 -0.334451 -13.463751 -1.317550 -0.654413 0.684326
    1 -0.000001 -8.563283 0.000000 0.359602 0.388261 -0.164615
    2 -0.293234 -3.282020 0.672796 -1.247037 1.437608 -1.233844
    3 -0.000002 2.163130 0.753818 0.000000 0.000000 0.000000
    4 0.000002 -3.052707 1.526597 0.000000 0.000000 0.000000
    5 0.000003 -10.293062 1.701879 0.000000 0.000000 0.000000
    6 0.000000 -4.967293 1.445704 0.000000 0.000000 0.000000
    7 0.000000 -5.102123 2.443444 0.000000 0.000000 0.000000
    8 0.004669 5.953095 -2.702796 0.000000 0.000000 0.000000
    9 -0.003480 -0.404829 0.000000 0.000000 0.000000 0.000000
    10 -0.519310 -2.501155 -0.278957 -1.375314 0.000000 -0.122173
    11 -0.010598 -1.208185 0.000000 -0.907575 0.000000 0.000000
    12 0.000000 -0.763066 0.000000 -1.144947 0.000000 0.000000
    13 0.105980 -2.607134 -0.278957 -0.869181 0.000000 -0.148353
    14 -0.000001 -1.250579 0.000000 -1.385786 0.000000 0.000000
    15 0.000000 -0.932634 0.000000 -0.902353 0.000000 0.000000
    16 0.763064 -2.490556 -0.278957 -0.340544 0.078175 0.347833
    17 -0.012322 -1.280917 0.000000 -0.553262 0.000000 0.000000
    18 -0.001697 -0.749371 0.000000 -0.593412 0.000000 0.000000
    19 0.354567 0.016267 0.318132 0.386384 -0.406183 -1.191370
    20 1.887164 0.012878 0.000000 -0.304306 0.026726 -0.316515
    21 1.001874 -0.000270 0.000000 0.000000 0.000000 -0.886628
    22 -1.123360 -2.195093 -0.278957 -1.206017 0.000000 -0.087266
    23 0.010772 -0.963791 0.000000 -0.778410 0.000000 0.000000
    24 -0.010412 -0.631916 -0.000001 -1.003573 0.000000 0.000000
    25 -10.738119 12.217408 -18.327029 0.747665 -3.705919 1.234000
    26 0.089929 -8.543160 0.000000 0.706974 -0.036877 0.522647
    27 0.000000 -0.359712 0.000000 0.000000 0.000000 0.000000
    28 -0.170480 -2.636147 -0.277655 -1.229971 0.000000 0.000000
    29 0.010599 -1.261177 0.000001 -0.263619 0.000000 0.000000
    30 -0.000001 -0.943233 -0.000001 -0.568112 0.000000 0.000000
    31 -0.827563 -2.508973 -0.277656 -0.901858 0.000000 -0.000012
    32 0.000000 -1.292972 0.000001 -0.446861 0.000000 0.000000
    33 0.000000 -0.752466 0.000000 -0.696014 0.000000 0.000000
    34 0.444213 -2.561959 -0.277655 -1.786314 -0.046226 -0.024599
    35 0.021022 -1.208185 -0.000001 -0.239112 0.000000 0.000000
    36 0.010597 -0.741867 -0.000001 -0.575010 0.000000 0.000000
    37 1.047445 -2.222821 -0.277655 -1.567844 -0.078971 -0.038609
    38 0.000000 -0.996222 0.000000 -0.863938 0.000000 0.000000
    39 -0.000001 -0.614690 0.000000 -0.523599 0.000000 0.000000
    40 -0.308254 -0.007814 0.307166 0.156648 -0.144777 -2.493855
    41 1.978379 0.019544 0.000000 -0.104699 -0.000154 0.548348
    42 0.982426 0.003186 0.000000 0.000000 0.000000 -0.467023
  time 11
    0 5.368201 -0.740713 -13.823137 -1.351986 -0.584035 0.667473
    1 -0.000001 -8.563283 0.000000 0.360910 0.433517 -0.163817
    2 -0.293234 -3.282020 0.672796 -1.247037 1.437608 -1.233844
    3 -0.000002 2.163130 0.753818 0.000000 0.000000 0.000000
    4 0.000002 -3.052707 1.526597 0.000000 0.000000 0.000000
    5 0.000003 -10.293062 1.701879 0.000000 0.000000 0.000000
    6 0.000000 -4.967293 1.445704 0.000000 0.000000 0.000000
    7 0.000000 -5.102123 2.443444 0.000000 0.000000 0.000000
    8 0.004669 5.953095 -2.702796 0.000000 0.000000 0.000000
    9 -0.003480 -0.404829 0.000000 0.000000 0.000000 0.000000
    10 -0.519310 -2.501155 -0.278957 -1.375314 0.000000 -0.122173
    11 -0.010598 -1.208185 0.000000 -0.907575 0.000000 0.000000
    12 0.000000 -0.763066 0.000000 -1.144947 0.000000 0.000000
    13 0.105980 -2.607134 -0.278957 -0.869181 0.000000 -0.148353
    14 -0.000001 -1.250579 0.000000 -1.385786 0.000000 0.000000
    15 0.000000 -0.932634 0.000000 -0.902353 0.000000 0.000000
    16 0.763064 -2.490556 -0.278957 -0.340544 0.078175 0.347833
    17 -0.012322 -1.280917 0.000000 -0.553262 0.000000 0.000000
    18 -0.001697 -0.749371 0.000000 -0.593412 0.000000 0.000000
    19 0.354567 0.016267 0.318132 0.386384 -0.406183 -1.191370
    20 1.887164 0.012878 0.000000 -0.304306 0.026726 -0.316515
    21 1.001874 -0.000270 0.000000 0.000000 0.000000 -0.886628
    22 -1.123360 -2.195093 -0.278957 -1.206017 0.000000 -0.087266
    23 0.010772 -0.963791 0.000000 -0.778410 0.000000 0.000000
    24 -0.010412 -0.631916 -0.000001 -1.003573 0.000000 0.000000
    25 -11.003752 12.588513 -18.280152 0.689498 -3.548458 1.094484
    26 0.089929 -8.543160 0.000000 0.713564 -0.014664 0.559828
    27 0.000000 -0.359712 0.000000 0.000000 0.000000 0.000000
    28 -0.170480 -2.636147 -0.277655 -1.193504 0.000000 0.000000
    29 0.010599 -1.261177 0.000001 -0.265129 0.000000 0.000000
    30 -0.000001 -0.943233 -0.000001 -0.568735 0.000000 0.000000
    31 -0.827563 -2.508973 -0.277656 -0.876899 0.000000 -0.000012
    32 0.000000 -1.292972 0.000001 -0.438796 0.000000 0.000000
    33 0.000000 -0.752466 0.000000 -0.701946 0.000000 0.000000
    34 0.444213 -2.561959 -0.277655 -1.794705 -0.046226 -0.024599
    35 0.021022 -1.208185 -0.000001 -0.239112 0.000000 0.000000
    36 0.010597 -0.741867 -0.000001 -0.574387 0.000000 0.000000
    37 1.047445 -2.222821 -0.277655 -1.576373 -0.078971 -0.038609
    38 0.000000 -0.996222 0.000000 -0.863938 0.000000 0.000000
    39 -0.000001 -0.614690 0.000000 -0.523599 0.000000 0.000000
    40 -0.308254 -0.007814 0.307166 0.181408 -0.131714 -2.489217
    41 1.978379 0.019544 0.000000 -0.104651 0.003129 0.579578
    42 0.982426 0.003186 0.000000 0.000000 0.000000 -0.541637
  time 12
    0 5.290074 -1.068848 -14.120021 -1.385815 -0.515314 0.648833
    1 -0.000001 -8.563283 0.000000 0.362191 0.475456 -0.162997
    2 -0.293234 -3.282020 0.672796 -1.247037 1.437608 -1.233844
    3 -0.000002 2.163130 0.753818 0.000000 0.000000 0.000000
    4 0.000002 -3.052707 1.526597 0.000000 0.000000 0.000000
    5 0.000003 -10.293062 1.701879 0.000000 0.000000 0.000000
    6 0.000000 -4.967293 1.445704 0.000000 0.000000 0.000000
    7 0.000000 -5.102123 2.443444 0.000000 0.000000 0.000000
    8 0.004669 5.953095 -2.702796 0.000000 0.000000 0.000000
    9 -0.003480 -0.404829 0.000000 0.000000 0.000000 0.000000
    10 -0.519310 -2.501155 -0.278957 -1.375314 0.000000 -0.122173
    11 -0.010598 -1.208185 0.000000 -0.907575 0.000000 0.000000
    12 0.000000 -0.763066 0.000000 -1.144947 0.000000 0.000000
    13 0.105980 -2.607134 -0.278957 -0.869181 0.000000 -0.148353
    14 -0.000001 -1.250579 0.000000 -1.385786 0.000000 0.000000
    15 0.000000 -0.932634 0.000000 -0.902353 0.000000 0.000000
    16 0.763064 -2.490556 -0.278957 -0.340544 0.078175 0.347833
    17 -0.012322 -1.280917 0.000000 -0.553262 0.000000 0.000000
    18 -0.001697 -0.749371 0.000000 -0.593412 0.000000 0.000000
    19 0.354567 0.016267 0.318132 0.386384 -0.406183 -1.191370
    20 1.887164 0.012878 0.000000 -0.304306 0.026726 -0.316515
    21 1.001874 -0.000270 0.000000 0.000000 0.000000 -0.886628
    22 -1.123360 -2.195093 -0.278957 -1.206017 0.000000 -0.087266
    23 0.010772 -0.963791 0.000000 -0.778410 0.000000 0.000000
    24 -0.010412 -0.631916 -0.000001 -1.003573 0.000000 0.000000
    25 -11.144381 12.658828 -18.069208 0.660918 -3.391093 0.978710
    26 0.089929 -8.543160 0.000000 0.713215 0.010135 0.591811
    27 0.000000 -0.359712 0.000000 0.000000 0.000000 0.000000
    28 -0.170480 -2.636147 -0.277655 -1.159843 0.000000 0.000000
    29 0.010599 -1.261177 0.000001 -0.266591 0.000000 0.000000
    30 -0.000001 -0.943233 -0.000001 -0.569334 0.000000 0.000000
    31 -0.827563 -2.508973 -0.277656 -0.853833 0.000000 -0.000012
    32 0.000000 -1.292972 0.000001 -0.431308 0.000000 0.000000
    33 0.000000 -0.752466 0.000000 -0.707639 0.000000 0.000000
    34 0.444213 -2.561959 -0.277655 -1.802816 -0.046226 -0.024599
    35 0.021022 -1.208185 -0.000001 -0.239112 0.000000 0.000000
    36 0.010597 -0.741867 -0.000001 -0.573788 0.000000 0.000000
    37 1.047445 -2.222821 -0.277655 -1.584584 -0.078971 -0.038609
    38 0.000000 -0.996222 0.000000 -0.863938 0.000000 0.000000
    39 -0.000001 -0.614690 0.000000 -0.523599 0.000000 0.000000
    40 -0.308254 -0.007814 0.307166 0.204311 -0.119777 -2.484651
    41 1.978379 0.019544 0.000000 -0.104532 0.006149 0.608398
    42 0.982426 0.003186 0.000000 0.000000 0.000000 -0.610488
  time 13
    0 5.235385 -1.311043 -14.334871 -1.418023 -0.450736 0.629494
    1 -0.000001 -8.563283 0.000000 0.363396 0.513509 -0.162178
    2 -0.293234 -3.282020 0.672796 -1.247037 1.437608 -1.233844
    3 -0.000002 2.163130 0.753818 0.000000 0.000000 0.000000
    4 0.000002 -3.052707 1.526597 0.000000 0.000000 0.000000
    5 0.000003 -10.293062 1.701879 0.000000 0.000000 0.000000
    6 0.000000 -4.967293 1.445704 0.000000 0.000000 0.000000
    7 0.000000 -5.102123 2.443444 0.000000 0.000000 0.000000
    8 0.004669 5.953095 -2.702796 0.000000 0.000000 0.000000
    9 -0.003480 -0.404829 0.000000 0.000000 0.000000 0.000000
    10 -0.519310 -2.501155 -0.278957 -1.375314 0.000000 -0.122173
    11 -0.010598 -1.208185 0.000000 -0.907575 0.000000 0.000000
    12 0.000000 -0.763066 0.000000 -1.144947 0.000000 0.000000
    13 0.105980 -2.607134 -0.278957 -0.869181 0.000000 -0.148353
    14 -0.000001 -1.250579 0.000000 -1.385786 0.000000 0.000000
    15 0.000000 -0.932634 0.000000 -0.902353 0.000000 0.000000
    16 0.763064 -2.490556 -0.278957 -0.340544 0.078175 0.347833
    17 -0.012322 -1.280917 0.000000 -0.553262 0.000000 0.000000
    18 -0.001697 -0.749371 0.000000 -0.593412 0.000000 0.000000
    19 0.354567 0.016267 0.318132 0.386384 -0.406183 -1.191370
    20 1.887164 0.012878 0.000000 -0.304306 0.026726 -0.316515
    21 1.001874 -0.000270 0.000000 0.000000 0.000000 -0.886628
    22 -1.123360 -2.195093 -0.278957 -1.206017 0.000000 -0.087266
    23 0.010772 -0.963791 0.000000 -0.778410 0.000000 0.000000
    24 -0.010412 -0.631916 -0.000001 -1.003573 0.000000 0.000000
    25 -11.160007 12.428352 -17.682478 0.654140 -3.238425 0.877809
    26 0.089929 -8.543160 0.000000 0.704602 0.038270 0.617387
    27 0.000000 -0.359712 0.000000 0.000000 0.000000 0.000000
    28 -0.170480 -2.636147 -0.277655 -1.129485 0.000000 0.000000
    29 0.010599 -1.261177 0.000001 -0.267946 0.000000 0.000000
    30 -0.000001 -0.943233 -0.000001 -0.569910 0.000000 0.000000
    31 -0.827563 -2.508973 -0.277656 -0.833008 0.000000 -0.000012
    32 0.000000 -1.292972 0.000001 -0.424546 0.000000 0.000000
    33 0.000000 -0.752466 0.000000 -0.712972 0.000000 0.000000
    34 0.444213 -2.561959 -0.277655 -1.810393 -0.046226 -0.024599
    35 0.021022 -1.208185 -0.000001 -0.239112 0.000000 0.000000
    36 0.010597 -0.741867 -0.000001 -0.573201 0.000000 0.000000
    37 1.047445 -2.222821 -0.277655 -1.592241 -0.078971 -0.038609
    38 0.000000 -0.996222 0.000000 -0.863938 0.000000 0.000000
    39 -0.000001 -0.614690 0.000000 -0.523599 0.000000 0.000000
    40 -0.308254 -0.007814 0.307166 0.225008 -0.109063 -2.480313
    41 1.978379 0.019544 0.000000 -0.104340 0.008882 0.634429
    42 0.982426 0.003186 0.000000 0.000000 0.000000 -0.672654
  time 14
    0 5.200227 -1.459485 -14.467687 -1.438617 -0.410088 0.616291
    1 -0.000001 -8.563283 0.000000 0.364535 0.547149 -0.161400
    2 -0.293234 -3.282020 0.672796 -1.247037 1.437608 -1.233844
    3 -0.000002 2.163130 0.753818 0.000000 0.000000 0.000000
    4 0.000002 -3.052707 1.526597 0.000000 0.000000 0.000000
    5 0.000003 -10.293062 1.701879 0.000000 0.000000 0.000000
    6 0.000000 -4.967293 1.445704 0.000000 0.000000 0.000000
    7 0.000000 -5.102123 2.443444 0.000000 0.000000 0.000000
    8 0.004669 5.953095 -2.702796 0.000000 0.000000 0.000000
    9 -0.003480 -0.404829 0.000000 0.000000 0.000000 0.000000
    10 -0.519310 -2.501155 -0.278957 -1.375314 0.000000 -0.122173
    11 -0.010598 -1.208185 0.000000 -0.907575 0.000000 0.000000
    12 0.000000 -0.763066 0.000000 -1.144947 0.000000 0.000000
    13 0.105980 -2.607134 -0.278957 -0.869181 0.000000 -0.148353
    14 -0.000001 -1.250579 0.000000 -1.385786 0.000000 0.000000
    15 0.000000 -0.932634 0.000000 -0.902353 0.000000 0.000000
    16 0.763064 -2.490556 -0.278957 -0.340544 0.078175 0.347833
    17 -0.012322 -1.280917 0.000000 -0.553262 0.000000 0.000000
    18 -0.001697 -0.749371 0.000000 -0.593412 0.000000 0.000000
    19 0.354567 0.016267 0.318132 0.386384 -0.406183 -1.191370
    20 1.887164 0.012878 0.000000 -0.304306 0.026726 -0.316515
    21 1.001874 -0.000270 0.000000 0.000000 0.000000 -0.886628
    22 -1.123360 -2.195093 -0.278957 -1.206017 0.000000 -0.087266
    23 0.010772 -0.963791 0.000000 -0.778410 0.000000 0.000000
    24 -0.010412 -0.631916 -0.000001 -1.003573 0.000000 0.000000
    25 -11.050629 11.893180 -17.131680 0.664491 -3.093998 0.786062
    26 0.089929 -8.543160 0.000000 0.686365 0.070381 0.635152
    27 0.000000 -0.359712 0.000000 0.000000 0.000000 0.000000
    28 -0.170480 -2.636147 -0.277655 -1.102826 0.000000 0.000000
    29 0.010599 -1.261177 0.000001 -0.269156 0.000000 0.000000
    30 -0.000001 -0.943233 -0.000001 -0.570401 0.000000 0.000000
    31 -0.827563 -2.508973 -0.277656 -0.814742 0.000000 -0.000012
    32 0.000000 -1.292972 0.000001 -0.418623 0.000000 0.000000
    33 0.000000 -0.752466 0.000000 -0.717802 0.000000 0.000000
    34 0.444213 -2.561959 -0.277655 -1.817241 -0.046226 -0.024599
    35 0.021022 -1.208185 -0.000001 -0.239112 0.000000 0.000000
    36 0.010597 -0.741867 -0.000001 -0.572697 0.000000 0.000000
    37 1.047445 -2.222821 -0.277655 -1.599175 -0.078971 -0.038609
    38 0.000000 -0.996222 0.000000 -0.863938 0.000000 0.000000
    39 -0.000001 -0.614690 0.000000 -0.523599 0.000000 0.000000
    40 -0.308254 -0.007814 0.307166 0.243177 -0.099763 -2.476322
    41 1.978379 0.019544 0.000000 -0.104100 0.011267 0.657240
    42 0.982426 0.003186 0.000000 0.000000 0.000000 -0.727186
  time 15
    0 5.188508 -1.510268 -14.510658 -1.445504 -0.396734 0.611786
    1 -0.000001 -8.563283 0.000000 0.365532 0.575738 -0.160686
    2 -0.293234 -3.282020 0.672796 -1.247037 1.437608 -1.233844
    3 -0.000002 2.163130 0.753818 0.000000 0.000000 0.000000
    4 0.000002 -3.052707 1.526597 0.000000 0.000000 0.000000
    5 0.000003 -10.293062 1.701879 0.000000 0.000000 0.000000
    6 0.000000 -4.967293 1.445704 0.000000 0.000000 0.000000
    7 0.000000 -5.102123 2.443444 0.000000 0.000000 0.000000
    8 -8.167455 5.953095 -7.839671 0.000000 0.000000 0.000000
    9 -0.003480 -0.404829 0.000000 0.000000 0.000000 0.000000
    10 -0.519310 -2.501155 -0.278957 -1.375314 0.000000 -0.122173
    11 -0.010598 -1.208185 0.000000 -0.907575 0.000000 0.000000
    12 0.000000 -0.763066 0.000000 -1.144947 0.000000 0.000000
    13 0.105980 -2.607134 -0.278957 -0.869181 0.000000 -0.148353
    14 -0.000001 -1.250579 0.000000 -1.385786 0.000000 0.000000
    15 0.000000 -0.932634 0.000000 -0.902353 0.000000 0.000000
    16 0.763064 -2.490556 -0.278957 -0.340544 0.078175 0.347833
    17 -0.012322 -1.280917 0.000000 -0.553262 0.000000 0.000000
    18 -0.001697 -0.749371 0.000000 -0.593412 0.000000 0.000000
    19 0.354567 0.016267 0.318132 0.386384 -0.406183 -1.191370
    20 1.887164 0.012878 0.000000 -0.304306 0.026726 -0.316515
    21 1.001874 -0.000270 0.000000 0.000000 0.000000 -0.886628
    22 -1.123360 -2.195093 -0.278957 -1.206017 0.000000 -0.087266
    23 0.010772 -0.963791 0.000000 -0.778410 0.000000 0.000000
    24 -0.010412 -0.631916 -0.000001 -1.003573 0.000000 0.000000
    25 -10.816246 11.057217 -16.409001 0.688765 -2.960305 0.699749
    26 0.089929 -8.543160 0.000000 0.656900 0.106823 0.643430
    27 0.000000 -0.359712 0.000000 0.000000 0.000000 0.000000
    28 -0.170480 -2.636147 -0.277655 -1.080364 0.000000 0.000000
    29 0.010599 -1.261177 0.000001 -0.270235 0.000000 0.000000
    30 -0.000001 -0.943233 -0.000001 -0.570845 0.000000 0.000000
    31 -0.827563 -2.508973 -0.277656 -0.799369 0.000000 -0.000012
    32 0.000000 -1.292972 0.000001 -0.413639 0.000000 0.000000
    33 0.000000 -0.752466 0.000000 -0.721973 0.000000 0.000000
    34 0.444213 -2.561959 -0.277655 -1.823191 -0.046226 -0.024599
    35 0.021022 -1.208185 -0.000001 -0.239112 0.000000 0.000000
    36 0.010597 -0.741867 -0.000001 -0.572254 0.000000 0.000000
    37 1.047445 -2.222821 -0.277655 -1.605173 -0.078971 -0.038609
    38 0.000000 -0.996222 0.000000 -0.863938 0.000000 0.000000
    39 -0.000001 -0.614690 0.000000 -0.523599 0.000000 0.000000
    40 -0.308254 -0.007814 0.307166 0.258505 -0.091973 -2.472834
    41 1.978379 0.019544 0.000000 -0.103860 0.013280 0.676470
    42 0.982426 0.003186 0.000000 0.000000 0.000000 -0.773135
end
