// Created by Crowbar 0.49.0.0

$modelname "weapons/tfa_cso/c_mg3g.mdl"

$Include "csonline_gmod.qci"

$bodygroup "weapon"
{
	studio "v_mg3g_mg3_gold"
}

$CDMaterials "models\weapons\tfa_cso\mg3g\"

$attachment 0 "Bone52" 0 -29.707001 3.228
//$attachment 1 "Bone57" 1.199 0.2 0.826

$definebone "Bone01" "" 4.608666 -4.829769 1.302325 -76.282511 32.505731 -44.363380 0.000000 0.000000 0.000000 -0.000000 0.000000 -0.000003
$definebone "Bone_Lefthand" "Bone01" -0.000000 -8.563284 -0.000003 -7.174578 -9.715647 19.910799 0.000000 0.000000 0.000000 -0.000000 -0.000000 -0.000000
$definebone "Bone52" "Bone_Lefthand" -0.725000 -3.341002 0.707001 82.368818 -70.694112 -71.450063 0.000000 0.000000 0.000000 0.000000 0.000001 -0.000000
$definebone "Bone53" "Bone52" 0.000001 0.701300 0.849854 0.000000 0.000001 -0.000000 0.000000 0.000000 -0.000000 0.000000 0.000001 -0.000000
$definebone "Bone54" "Bone53" -0.000001 -1.738951 1.116327 0.000000 0.000001 -0.000000 0.000000 0.000000 -0.000000 0.000000 0.000001 -0.000000
$definebone "Bone57" "Bone53" -0.297734 -5.341949 2.396937 0.000000 0.000001 -0.000000 0.000000 0.000000 0.000000 0.000000 0.000001 -0.000000
$definebone "Bone02" "Bone57" 0.221142 -0.350996 0.431416 -0.000000 -179.999966 0.000000 0.000000 0.000000 -0.000000 -0.000000 0.000001 0.000000
$definebone "Bone03" "Bone02" 0.477511 0.000000 0.275376 -1.500061 0.000001 0.000000 0.000000 0.000000 0.000000 -0.000000 0.000001 0.000000
$definebone "Bone25" "Bone03" 0.541040 -0.000002 0.044965 2.499987 0.000001 0.000000 0.000000 0.000000 0.000000 -0.000000 0.000001 0.000000
$definebone "Bone47" "Bone25" 0.428258 -0.000004 -0.270081 74.426708 -0.000001 0.000001 0.000000 0.000000 0.000000 -0.000000 -0.000000 0.000001
$definebone "Bone48" "Bone47" 0.497090 -0.000002 0.046301 14.072760 -0.000000 0.000001 0.000000 0.000000 0.000000 -0.000000 -0.000000 0.000001
$definebone "Bone49" "Bone48" 0.513723 0.000000 0.096828 -13.065501 -0.000000 0.000001 0.000000 0.000000 0.000000 -0.000000 -0.000000 0.000001
$definebone "Bone50" "Bone49" 0.519993 0.000000 -0.110339 10.170574 -0.000000 0.000001 0.000000 0.000000 0.000000 -0.000000 -0.000000 0.000001
$definebone "Bone51" "Bone50" 0.529985 -0.000002 -0.013396 3.395462 0.011631 0.000688 0.000000 0.000000 0.000000 -0.000000 -0.000000 0.000001
$definebone "Bone_cover" "Bone53" 0.012492 -7.011957 3.615968 0.000057 -89.999983 89.999983 0.000000 0.000000 0.000000 -0.000001 0.000000 0.000000
$definebone "Bone_Norise" "Bone53" 1.263050 0.374893 1.954941 0.000000 0.000058 0.000057 0.000000 0.000000 0.000000 0.000000 0.000001 -0.000000
$definebone "Bone_pin" "Bone53" 0.027010 -21.283049 1.057787 0.000057 -89.999983 89.999983 0.000000 0.000000 0.000000 -0.000001 0.000000 0.000000

$sequence "idle1" {
	"v_mg3g_anims\idle1"
	fps 30
	activity "ACT_VM_IDLE" 1
	snap
}
$sequence "shoot1" {
	"v_mg3g_anims\shoot1"
	{ event 5001 0 "31" }
	{ event 5001 0 "125" }
	fps 30
	activity "ACT_VM_PRIMARYATTACK" 1
	snap
}
$sequence "shoot2" {
	"v_mg3g_anims\shoot2"
	{ event 5001 0 "21" }
	{ event 5001 0 "125" }
	fps 30
	activity "ACT_VM_PRIMARYATTACK" 2
	snap
}
$sequence "reload" {
	"v_mg3g_anims\reload"
	{ event 5004 8 "MG3.Open" }
	{ event 5004 30 "MG3.ClipOut" }
	{ event 5004 72 "MG3.ClipIn" }
	{ event 5004 114 "MG3.Close" }
	{ event 5004 127 "MG3.ClipLock" }
	fps 30
	activity "ACT_VM_RELOAD" 1
	snap
}
$sequence "draw" {
	"v_mg3g_anims\draw"
	fps 30
	activity "ACT_VM_DRAW" 1
	snap
}
