version 1
nodes
  0 "root" -1
  1 "Bone01" 0
  2 "Bone_Lefthand" 1
  3 "Bone02" 2
  4 "Bone24" 3
  5 "Bone16" 3
  6 "Bone26" 3
  7 "Bone34" 3
  8 "Dummy01" 3
  9 "Bone08" 8
  10 "Bone03" 3
  11 "Bone_L_Upper" 1
  12 "Bone13" 2
  13 "Bone14" 12
  14 "Bone15" 13
  15 "Bone17" 2
  16 "Bone18" 15
  17 "Bone19" 16
  18 "Bone21" 2
  19 "Bone22" 18
  20 "Bone23" 19
  21 "Bone09" 2
  22 "Bone10" 21
  23 "Bone11" 22
  24 "Bone05" 2
  25 "Bone06" 24
  26 "Bone07" 25
  27 "Bone_Se_Hand-L" 2
  28 "Bone04" 0
  29 "Bone_Righthand" 28
  30 "Bone39" 29
  31 "Bone40" 30
  32 "Bone41" 31
  33 "Bone35" 29
  34 "Bone36" 33
  35 "Bone37" 34
  36 "Bone31" 29
  37 "Bone32" 36
  38 "Bone33" 37
  39 "Bone43" 29
  40 "Bone44" 39
  41 "Bone45" 40
  42 "Bone27" 29
  43 "Bone28" 42
  44 "Bone29" 43
  45 "Bone_Se_Hand-R" 29
  46 "Bone_R_Upper" 28
end
skeleton
  time 0
    0 -0.999768 -1.867275 2.937151 0.000000 0.000000 0.000000
    1 8.542158 0.689384 -8.602877 -0.173613 -1.612728 -0.022073
    2 -0.071918 -8.498730 -0.104137 0.149145 0.256984 0.031341
    3 2.326608 -5.978026 1.161003 0.229329 0.050133 -1.560828
    4 8.068350 -0.889454 0.636832 0.000000 0.000000 -1.570796
    5 -1.093079 -1.020534 0.000000 0.000000 0.000000 -1.570796
    6 0.332523 0.688256 1.169537 0.000000 0.000000 -1.570797
    7 -3.883944 0.696199 1.094116 0.000000 0.000000 1.570796
    8 -2.125080 1.560641 0.000000 0.000000 0.000000 1.570796
    9 0.000000 0.000000 0.000000 0.000000 0.000000 0.000000
    10 2.303347 -0.775169 0.632548 3.141592 -1.570796 0.000000
    11 1.257180 8.762585 -0.153713 -1.570562 0.002683 -1.566807
    12 -0.488518 -2.755602 -0.228260 -1.046804 -0.202562 -0.209541
    13 0.039887 -1.479790 0.029854 -1.943778 0.000000 0.000001
    14 0.028786 -1.075731 -0.023109 -0.173679 0.000000 0.000000
    15 0.250027 -2.820665 -0.238396 -0.797118 -0.167517 -0.114938
    16 -0.049759 -1.680544 0.100479 -1.774062 0.000000 -0.000002
    17 -0.034142 -1.148312 0.084782 -0.925906 0.000000 0.000000
    18 0.957766 -2.746780 -0.090302 -0.139536 -0.162277 0.053939
    19 -0.033420 -1.397129 -0.011257 -0.521004 0.000000 -0.000001
    20 -0.022360 -0.957436 0.018784 -0.975475 0.000000 0.000000
    21 -1.180681 -2.507217 -0.193859 -0.960196 -0.081516 -0.261329
    22 -0.024967 -1.123934 0.017597 -1.635831 0.000000 0.000001
    23 -0.020057 -0.890968 0.010090 -0.677870 0.000000 0.000000
    24 0.583510 -1.197277 0.185379 0.188028 -0.850416 -1.301860
    25 1.535927 0.010246 0.005009 -0.002964 -0.012979 -0.506650
    26 1.100771 0.004527 -0.010679 -0.016207 0.000369 -1.371740
    27 0.120153 -0.050270 -0.054489 0.287569 3.110905 1.561085
    28 0.596445 -11.250975 -12.458695 -1.885221 -5.270863 -1.231923
    29 0.096944 -8.450418 -0.009365 0.146791 -1.328380 0.242747
    30 0.447953 -2.798986 -0.200443 -1.127266 -0.048016 0.185408
    31 -0.032909 -1.480204 0.004940 -1.739492 0.000000 0.000002
    32 -0.027022 -1.076920 -0.020210 -0.060489 0.000000 0.000000
    33 -0.249534 -2.846964 -0.174213 -0.749792 -0.055002 0.096913
    34 0.043235 -1.683941 0.096012 -1.901441 0.002823 -0.000167
    35 0.031729 -1.160830 0.058838 -0.355262 0.000642 0.008372
    36 -0.963866 -2.785145 -0.085350 -0.089607 0.106308 0.015262
    37 0.028479 -1.403067 0.006271 -1.682399 0.000000 0.000000
    38 0.021413 -0.957781 0.020046 -0.738188 0.000000 0.000000
    39 1.164475 -2.543940 -0.170330 -1.523254 -0.190582 0.231608
    40 0.024032 -1.129042 0.017807 -1.225022 0.000000 0.000001
    41 0.014898 -0.883989 -0.019848 -0.316775 0.000000 0.000000
    42 -0.586770 -1.264477 0.200161 0.172354 -0.158106 -2.744325
    43 1.522835 0.058681 0.016848 0.001410 0.008985 0.812634
    44 1.117947 0.048424 -0.005766 0.005054 -0.024155 -0.153264
    45 -0.139399 -0.111698 0.014397 1.203062 0.226005 1.577116
    46 -1.393470 8.839177 -0.239433 1.580804 -0.005023 -1.566847
  time 1
    0 -0.999768 -1.867275 2.937151 0.000000 0.000000 0.000000
    1 8.542158 2.490220 -8.247397 -0.496204 -1.587266 0.300461
    2 -0.071918 -8.498730 -0.104137 0.148292 0.234136 0.027814
    3 2.326608 -5.978026 1.161003 0.229329 0.050133 -1.560828
    4 8.068350 -0.889454 0.636832 3.090340 -1.564488 1.570796
    5 -1.093079 -1.020534 0.000000 0.000000 0.000000 -2.044842
    6 0.332523 0.688256 1.169537 -0.180045 -1.233145 -1.570797
    7 -3.883944 0.696199 1.094116 0.000000 0.000000 1.570796
    8 -2.125080 1.560641 0.000000 0.000000 0.000000 1.570796
    9 0.000000 0.000000 0.000000 0.000000 0.000000 0.000000
    10 2.303347 -0.775169 0.632548 3.141592 -1.570796 0.000000
    11 1.257180 8.762585 -0.153713 -1.570562 0.002683 -1.566807
    12 -0.488518 -2.755602 -0.228260 -1.046804 -0.202562 -0.209541
    13 0.039887 -1.479790 0.029854 -1.943778 0.000000 0.000001
    14 0.028786 -1.075731 -0.023109 -0.173679 0.000000 0.000000
    15 0.250027 -2.820665 -0.238396 -0.797118 -0.167517 -0.114938
    16 -0.049759 -1.680544 0.100479 -1.774062 0.000000 -0.000002
    17 -0.034142 -1.148312 0.084782 -0.925906 0.000000 0.000000
    18 0.957766 -2.746780 -0.090302 -0.139536 -0.162277 0.053939
    19 -0.033420 -1.397129 -0.011257 -1.035034 0.000000 -0.000001
    20 -0.022360 -0.957436 0.018784 -1.489563 0.000000 0.000000
    21 -1.180681 -2.507217 -0.193859 -0.960196 -0.081516 -0.261329
    22 -0.024967 -1.123934 0.017597 -1.635831 0.000000 0.000001
    23 -0.020057 -0.890968 0.010090 -0.677870 0.000000 0.000000
    24 0.583510 -1.197277 0.185379 0.188028 -0.850416 -1.301860
    25 1.535927 0.010246 0.005009 -0.002964 -0.012979 -0.506650
    26 1.100771 0.004527 -0.010679 -0.016207 0.000369 -1.371740
    27 0.120153 -0.050270 -0.054489 0.287569 3.110905 1.561085
    28 0.580820 -9.426700 -12.103215 -1.887882 -5.265506 -1.234312
    29 0.096944 -8.450418 -0.009365 0.146791 -1.328380 0.242747
    30 0.447953 -2.798986 -0.200443 -1.127266 -0.048016 0.185408
    31 -0.032909 -1.480204 0.004940 -1.739492 0.000000 0.000002
    32 -0.027022 -1.076920 -0.020210 -0.060489 0.000000 0.000000
    33 -0.249534 -2.846964 -0.174213 -0.749792 -0.055002 0.096913
    34 0.043235 -1.683941 0.096012 -1.901441 0.002823 -0.000167
    35 0.031729 -1.160830 0.058838 -0.355262 0.000642 0.008372
    36 -0.963866 -2.785145 -0.085350 -0.089607 0.106308 0.015262
    37 0.028479 -1.403067 0.006271 -1.682399 0.000000 0.000000
    38 0.021413 -0.957781 0.020046 -0.738188 0.000000 0.000000
    39 1.164475 -2.543940 -0.170330 -1.523254 -0.190582 0.231608
    40 0.024032 -1.129042 0.017807 -1.225022 0.000000 0.000001
    41 0.014898 -0.883989 -0.019848 -0.316775 0.000000 0.000000
    42 -0.586770 -1.264477 0.200161 0.189313 -0.137252 -2.859519
    43 1.522835 0.058681 0.016848 0.001410 0.008985 1.016383
    44 1.117947 0.048424 -0.005766 0.009105 -0.022933 -0.325009
    45 -0.139399 -0.111698 0.014397 1.203062 0.226005 1.577116
    46 -1.393470 8.839177 -0.239433 1.580804 -0.005023 -1.566847
  time 2
    0 -0.999768 -1.867275 2.937151 0.000000 0.000000 0.000000
    1 8.542158 3.076176 -9.759162 1.206020 -1.653745 -1.401099
    2 -0.071918 -8.498730 -0.104137 0.148467 0.239204 0.028593
    3 2.326608 -5.978026 1.161003 0.229329 0.050133 -1.560828
    4 8.068350 -0.889454 0.636832 -0.018674 -1.841396 -1.435418
    5 -1.093079 -1.020534 0.000000 0.000000 0.000000 -2.011988
    6 0.332523 0.688256 1.169537 -1.207856 -1.683115 -0.480412
    7 -3.883944 0.696199 1.094116 0.000000 0.000000 1.570796
    8 -2.125080 1.560641 0.000000 0.000000 0.000000 1.570796
    9 0.000000 0.000000 0.000000 0.000000 0.000000 0.000000
    10 2.303347 -0.775169 0.632548 3.141592 -1.570796 0.000000
    11 1.257180 8.762585 -0.153713 -1.570562 0.002683 -1.566807
    12 -0.488518 -2.755602 -0.228260 -1.046804 -0.202562 -0.209541
    13 0.039887 -1.479790 0.029854 -1.943778 0.000000 0.000001
    14 0.028786 -1.075731 -0.023109 -0.173679 0.000000 0.000000
    15 0.250027 -2.820665 -0.238396 -0.797118 -0.167517 -0.114938
    16 -0.049759 -1.680544 0.100479 -1.774062 0.000000 -0.000002
    17 -0.034142 -1.148312 0.084782 -0.925906 0.000000 0.000000
    18 0.957766 -2.746780 -0.090302 -0.139536 -0.162277 0.053939
    19 -0.033420 -1.397129 -0.011257 -1.035034 0.000000 -0.000001
    20 -0.022360 -0.957436 0.018784 -1.489563 0.000000 0.000000
    21 -1.180681 -2.507217 -0.193859 -0.960196 -0.081516 -0.261329
    22 -0.024967 -1.123934 0.017597 -1.635831 0.000000 0.000001
    23 -0.020057 -0.890968 0.010090 -0.677870 0.000000 0.000000
    24 0.583510 -1.197277 0.185379 0.188028 -0.850416 -1.301860
    25 1.535927 0.010246 0.005009 -0.002964 -0.012979 -0.506650
    26 1.100771 0.004527 -0.010679 -0.016207 0.000369 -1.371740
    27 0.120153 -0.050270 -0.054489 0.287569 3.110905 1.561085
    28 0.557381 -9.125910 -12.525103 -1.946964 -5.345651 -1.283523
    29 0.096944 -8.450418 -0.009365 0.146791 -1.328380 0.242747
    30 0.447953 -2.798986 -0.200443 -1.127266 -0.048016 0.185408
    31 -0.032909 -1.480204 0.004940 -1.739492 0.000000 0.000002
    32 -0.027022 -1.076920 -0.020210 -0.060489 0.000000 0.000000
    33 -0.249534 -2.846964 -0.174213 -0.749792 -0.055002 0.096913
    34 0.043235 -1.683941 0.096012 -1.901441 0.002823 -0.000167
    35 0.031729 -1.160830 0.058838 -0.355262 0.000642 0.008372
    36 -0.963866 -2.785145 -0.085350 -0.089607 0.106308 0.015262
    37 0.028479 -1.403067 0.006271 -1.682399 0.000000 0.000000
    38 0.021413 -0.957781 0.020046 -0.738188 0.000000 0.000000
    39 1.164475 -2.543940 -0.170330 -1.523254 -0.190582 0.231608
    40 0.024032 -1.129042 0.017807 -1.225022 0.000000 0.000001
    41 0.014898 -0.883989 -0.019848 -0.316775 0.000000 0.000000
    42 -0.586770 -1.264477 0.200161 0.189313 -0.137252 -2.859519
    43 1.522835 0.058681 0.016848 0.001410 0.008985 1.016383
    44 1.117947 0.048424 -0.005766 0.009105 -0.022933 -0.325009
    45 -0.139399 -0.111698 0.014397 1.203062 0.226005 1.577116
    46 -1.393470 8.839177 -0.239433 1.580804 -0.005023 -1.566847
  time 3
    0 -0.999768 -1.867275 2.937151 0.000000 0.000000 0.000000
    1 8.542158 2.712883 -9.388057 1.074613 -1.625366 -1.269896
    2 -0.071918 -8.498730 -0.104137 0.148816 0.248483 0.030023
    3 2.326608 -5.978026 1.161003 0.229329 0.050133 -1.560828
    4 8.068350 -0.889454 0.636832 0.001603 -1.847203 -1.254595
    5 -1.093079 -1.020534 0.000000 0.000000 0.000000 -1.929195
    6 0.332523 0.688256 1.169537 -0.793912 -1.939233 -0.793706
    7 -3.883944 0.696199 1.094116 0.000000 0.000000 1.570796
    8 -2.125080 1.560641 0.000000 0.000000 0.000000 1.570796
    9 0.000000 0.000000 0.000000 0.000000 0.000000 0.000000
    10 2.303347 -0.775169 0.632548 3.141592 -1.570796 0.000000
    11 1.257180 8.762585 -0.153713 -1.570562 0.002683 -1.566807
    12 -0.488518 -2.755602 -0.228260 -1.046804 -0.202562 -0.209541
    13 0.039887 -1.479790 0.029854 -1.943778 0.000000 0.000001
    14 0.028786 -1.075731 -0.023109 -0.173679 0.000000 0.000000
    15 0.250027 -2.820665 -0.238396 -0.797118 -0.167517 -0.114938
    16 -0.049759 -1.680544 0.100479 -1.774062 0.000000 -0.000002
    17 -0.034142 -1.148312 0.084782 -0.925906 0.000000 0.000000
    18 0.957766 -2.746780 -0.090302 -0.139536 -0.162277 0.053939
    19 -0.033420 -1.397129 -0.011257 -1.035034 0.000000 -0.000001
    20 -0.022360 -0.957436 0.018784 -1.489563 0.000000 0.000000
    21 -1.180681 -2.507217 -0.193859 -0.960196 -0.081516 -0.261329
    22 -0.024967 -1.123934 0.017597 -1.635831 0.000000 0.000001
    23 -0.020057 -0.890968 0.010090 -0.677870 0.000000 0.000000
    24 0.583510 -1.197277 0.185379 0.188028 -0.850416 -1.301860
    25 1.535927 0.010246 0.005009 -0.002964 -0.012979 -0.506650
    26 1.100771 0.004527 -0.010679 -0.016207 0.000369 -1.371740
    27 0.120153 -0.050270 -0.054489 0.287569 3.110905 1.561085
    28 0.530037 -9.399356 -12.478227 -1.944036 -5.314737 -1.281612
    29 0.096944 -8.450418 -0.009365 0.146791 -1.328380 0.242747
    30 0.447953 -2.798986 -0.200443 -1.127266 -0.048016 0.185408
    31 -0.032909 -1.480204 0.004940 -1.739492 0.000000 0.000002
    32 -0.027022 -1.076920 -0.020210 -0.060489 0.000000 0.000000
    33 -0.249534 -2.846964 -0.174213 -0.749792 -0.055002 0.096913
    34 0.043235 -1.683941 0.096012 -1.901441 0.002823 -0.000167
    35 0.031729 -1.160830 0.058838 -0.355262 0.000642 0.008372
    36 -0.963866 -2.785145 -0.085350 -0.089607 0.106308 0.015262
    37 0.028479 -1.403067 0.006271 -1.682399 0.000000 0.000000
    38 0.021413 -0.957781 0.020046 -0.738188 0.000000 0.000000
    39 1.164475 -2.543940 -0.170330 -1.523254 -0.190582 0.231608
    40 0.024032 -1.129042 0.017807 -1.225022 0.000000 0.000001
    41 0.014898 -0.883989 -0.019848 -0.316775 0.000000 0.000000
    42 -0.586770 -1.264477 0.200161 0.189313 -0.137252 -2.859519
    43 1.522835 0.058681 0.016848 0.001410 0.008985 1.016383
    44 1.117947 0.048424 -0.005766 0.009105 -0.022933 -0.325009
    45 -0.139399 -0.111698 0.014397 1.203062 0.226005 1.577116
    46 -1.393470 8.839177 -0.239433 1.580804 -0.005023 -1.566847
  time 4
    0 -0.999768 -1.867275 2.937151 0.000000 0.000000 0.000000
    1 8.542158 2.185523 -8.977888 0.639853 -1.595090 -0.835447
    2 -0.071918 -8.498730 -0.104137 0.149203 0.258620 0.031592
    3 2.326608 -5.978026 1.161003 0.229329 0.050133 -1.560828
    4 8.068350 -0.889454 0.636832 -0.094598 -1.694937 -1.036667
    5 -1.093079 -1.020534 0.000000 0.000000 0.000000 -1.820072
    6 0.332523 0.688256 1.169537 -0.741575 -2.087367 -0.751513
    7 -3.883944 0.696199 1.094116 0.000000 0.000000 1.570796
    8 -2.125080 1.560641 0.000000 0.000000 0.000000 1.570796
    9 0.000000 0.000000 0.000000 0.000000 0.000000 0.000000
    10 2.303347 -0.775169 0.632548 3.141592 -1.570796 0.000000
    11 1.257180 8.762585 -0.153713 -1.570562 0.002683 -1.566807
    12 -0.488518 -2.755602 -0.228260 -1.046804 -0.202562 -0.209541
    13 0.039887 -1.479790 0.029854 -1.943778 0.000000 0.000001
    14 0.028786 -1.075731 -0.023109 -0.173679 0.000000 0.000000
    15 0.250027 -2.820665 -0.238396 -0.797118 -0.167517 -0.114938
    16 -0.049759 -1.680544 0.100479 -1.774062 0.000000 -0.000002
    17 -0.034142 -1.148312 0.084782 -0.925906 0.000000 0.000000
    18 0.957766 -2.746780 -0.090302 -0.139536 -0.162277 0.053939
    19 -0.033420 -1.397129 -0.011257 -1.035034 0.000000 -0.000001
    20 -0.022360 -0.957436 0.018784 -1.489563 0.000000 0.000000
    21 -1.180681 -2.507217 -0.193859 -0.960196 -0.081516 -0.261329
    22 -0.024967 -1.123934 0.017597 -1.635831 0.000000 0.000001
    23 -0.020057 -0.890968 0.010090 -0.677870 0.000000 0.000000
    24 0.583510 -1.197277 0.185379 0.188028 -0.850416 -1.301860
    25 1.535927 0.010246 0.005009 -0.002964 -0.012979 -0.506650
    26 1.100771 0.004527 -0.010679 -0.016207 0.000369 -1.371740
    27 0.120153 -0.050270 -0.054489 0.287569 3.110905 1.561085
    28 0.494879 -9.813431 -12.415725 -1.943703 -5.278610 -1.281612
    29 0.096944 -8.450418 -0.009365 0.146791 -1.328380 0.242747
    30 0.447953 -2.798986 -0.200443 -1.127266 -0.048016 0.185408
    31 -0.032909 -1.480204 0.004940 -1.739492 0.000000 0.000002
    32 -0.027022 -1.076920 -0.020210 -0.060489 0.000000 0.000000
    33 -0.249534 -2.846964 -0.174213 -0.749792 -0.055002 0.096913
    34 0.043235 -1.683941 0.096012 -1.901441 0.002823 -0.000167
    35 0.031729 -1.160830 0.058838 -0.355262 0.000642 0.008372
    36 -0.963866 -2.785145 -0.085350 -0.089607 0.106308 0.015262
    37 0.028479 -1.403067 0.006271 -1.682399 0.000000 0.000000
    38 0.021413 -0.957781 0.020046 -0.738188 0.000000 0.000000
    39 1.164475 -2.543940 -0.170330 -1.523254 -0.190582 0.231608
    40 0.024032 -1.129042 0.017807 -1.225022 0.000000 0.000001
    41 0.014898 -0.883989 -0.019848 -0.316775 0.000000 0.000000
    42 -0.586770 -1.264477 0.200161 0.189313 -0.137252 -2.859519
    43 1.522835 0.058681 0.016848 0.001410 0.008985 1.016383
    44 1.117947 0.048424 -0.005766 0.009105 -0.022933 -0.325009
    45 -0.139399 -0.111698 0.014397 1.203062 0.226005 1.577116
    46 -1.393470 8.839177 -0.239433 1.580804 -0.005023 -1.566847
  time 5
    0 -0.999768 -1.867275 2.937151 0.000000 0.000000 0.000000
    1 8.542158 1.619100 -8.540375 -1.053955 -1.595368 0.858104
    2 -0.071918 -8.498730 -0.104137 0.149514 0.266277 0.032784
    3 2.326608 -5.978026 1.161003 0.229329 0.050133 -1.560828
    4 8.068350 -0.889454 0.636832 0.242674 -1.446892 -1.351909
    5 -1.093079 -1.020534 0.000000 0.000000 0.000000 -1.708216
    6 0.332523 0.688256 1.169537 -0.680303 -2.104227 -0.735468
    7 -3.883944 0.696199 1.094116 0.000000 0.000000 1.570796
    8 -2.125080 1.560641 0.000000 0.000000 0.000000 1.570796
    9 0.000000 0.000000 0.000000 0.000000 0.000000 0.000000
    10 2.303347 -0.775169 0.632548 3.141592 -1.570796 0.000000
    11 1.257180 8.762585 -0.153713 -1.570562 0.002683 -1.566807
    12 -0.488518 -2.755602 -0.228260 -1.046804 -0.202562 -0.209541
    13 0.039887 -1.479790 0.029854 -1.943778 0.000000 0.000001
    14 0.028786 -1.075731 -0.023109 -0.173679 0.000000 0.000000
    15 0.250027 -2.820665 -0.238396 -0.797118 -0.167517 -0.114938
    16 -0.049759 -1.680544 0.100479 -1.774062 0.000000 -0.000002
    17 -0.034142 -1.148312 0.084782 -0.925906 0.000000 0.000000
    18 0.957766 -2.746780 -0.090302 -0.139536 -0.162277 0.053939
    19 -0.033420 -1.397129 -0.011257 -0.926318 0.000000 -0.000001
    20 -0.022360 -0.957436 0.018784 -1.380821 0.000000 0.000000
    21 -1.180681 -2.507217 -0.193859 -0.960196 -0.081516 -0.261329
    22 -0.024967 -1.123934 0.017597 -1.635831 0.000000 0.000001
    23 -0.020057 -0.890968 0.010090 -0.677870 0.000000 0.000000
    24 0.583510 -1.197277 0.185379 0.188028 -0.850416 -1.301860
    25 1.535927 0.010246 0.005009 -0.002964 -0.012979 -0.506650
    26 1.100771 0.004527 -0.010679 -0.016207 0.000369 -1.371740
    27 0.120153 -0.050270 -0.054489 0.287569 3.110905 1.561085
    28 0.467535 -10.247038 -12.361035 -1.937915 -5.240890 -1.276643
    29 0.096944 -8.450418 -0.009365 0.146791 -1.328380 0.242747
    30 0.447953 -2.798986 -0.200443 -1.127266 -0.048016 0.185408
    31 -0.032909 -1.480204 0.004940 -1.739492 0.000000 0.000002
    32 -0.027022 -1.076920 -0.020210 -0.060489 0.000000 0.000000
    33 -0.249534 -2.846964 -0.174213 -0.749792 -0.055002 0.096913
    34 0.043235 -1.683941 0.096012 -1.901441 0.002823 -0.000167
    35 0.031729 -1.160830 0.058838 -0.355262 0.000642 0.008372
    36 -0.963866 -2.785145 -0.085350 -0.089607 0.106308 0.015262
    37 0.028479 -1.403067 0.006271 -1.682399 0.000000 0.000000
    38 0.021413 -0.957781 0.020046 -0.738188 0.000000 0.000000
    39 1.164475 -2.543940 -0.170330 -1.523254 -0.190582 0.231608
    40 0.024032 -1.129042 0.017807 -1.225022 0.000000 0.000001
    41 0.014898 -0.883989 -0.019848 -0.316775 0.000000 0.000000
    42 -0.586770 -1.264477 0.200161 0.189313 -0.137252 -2.859519
    43 1.522835 0.058681 0.016848 0.001410 0.008985 1.016383
    44 1.117947 0.048424 -0.005766 0.009105 -0.022933 -0.325009
    45 -0.139399 -0.111698 0.014397 1.203062 0.226005 1.577116
    46 -1.393470 8.839177 -0.239433 1.580804 -0.005023 -1.566847
  time 6
    0 -0.999768 -1.867275 2.937151 0.000000 0.000000 0.000000
    1 8.542158 1.083927 -8.165363 -1.463007 -1.623839 1.266860
    2 -0.071918 -8.498730 -0.104137 0.149591 0.268100 0.033072
    3 2.326608 -5.978026 1.161003 0.229329 0.050133 -1.560828
    4 8.068350 -0.889454 0.636832 0.109217 -1.128492 -1.236762
    5 -1.093079 -1.020534 0.000000 0.000000 0.000000 -1.617249
    6 0.332523 0.688256 1.169537 -0.700631 -2.006281 -0.650719
    7 -3.883944 0.696199 1.094116 0.000000 0.000000 1.570796
    8 -2.125080 1.560641 0.000000 0.000000 0.000000 1.570796
    9 0.000000 0.000000 0.000000 0.000000 0.000000 0.000000
    10 2.303347 -0.775169 0.632548 3.141592 -1.570796 0.000000
    11 1.257180 8.762585 -0.153713 -1.570562 0.002683 -1.566807
    12 -0.488518 -2.755602 -0.228260 -1.046804 -0.202562 -0.209541
    13 0.039887 -1.479790 0.029854 -1.943778 0.000000 0.000001
    14 0.028786 -1.075731 -0.023109 -0.173679 0.000000 0.000000
    15 0.250027 -2.820665 -0.238396 -0.797118 -0.167517 -0.114938
    16 -0.049759 -1.680544 0.100479 -1.774062 0.000000 -0.000002
    17 -0.034142 -1.148312 0.084782 -0.925879 0.000000 0.000000
    18 0.957766 -2.746780 -0.090302 -0.139536 -0.162277 0.053939
    19 -0.033420 -1.397129 -0.011257 -0.703349 0.000000 -0.000001
    20 -0.022360 -0.957436 0.018784 -1.157821 0.000000 0.000000
    21 -1.180681 -2.507217 -0.193859 -0.960196 -0.081516 -0.261329
    22 -0.024967 -1.123934 0.017597 -1.635831 0.000000 0.000001
    23 -0.020057 -0.890968 0.010090 -0.677870 0.000000 0.000000
    24 0.583510 -1.197277 0.185379 0.188028 -0.850416 -1.301860
    25 1.535927 0.010246 0.005009 -0.002964 -0.012979 -0.506650
    26 1.100771 0.004527 -0.010679 -0.016207 0.000369 -1.371740
    27 0.120153 -0.050270 -0.054489 0.287569 3.110905 1.561085
    28 0.459722 -10.653300 -12.349316 -1.922479 -5.209614 -1.263074
    29 0.096944 -8.450418 -0.009365 0.146791 -1.328380 0.242747
    30 0.447953 -2.798986 -0.200443 -1.127266 -0.048016 0.185408
    31 -0.032909 -1.480204 0.004940 -1.739492 0.000000 0.000002
    32 -0.027022 -1.076920 -0.020210 -0.060489 0.000000 0.000000
    33 -0.249534 -2.846964 -0.174213 -0.749792 -0.055002 0.096913
    34 0.043235 -1.683941 0.096012 -1.901441 0.002823 -0.000167
    35 0.031729 -1.160830 0.058838 -0.355262 0.000642 0.008372
    36 -0.963866 -2.785145 -0.085350 -0.089607 0.106308 0.015262
    37 0.028479 -1.403067 0.006271 -1.682399 0.000000 0.000000
    38 0.021413 -0.957781 0.020046 -0.738188 0.000000 0.000000
    39 1.164475 -2.543940 -0.170330 -1.523254 -0.190582 0.231608
    40 0.024032 -1.129042 0.017807 -1.225022 0.000000 0.000001
    41 0.014898 -0.883989 -0.019848 -0.316775 0.000000 0.000000
    42 -0.586770 -1.264477 0.200161 0.187549 -0.139422 -2.847538
    43 1.522835 0.058681 0.016848 0.001410 0.008985 0.995194
    44 1.117947 0.048424 -0.005766 0.008686 -0.023065 -0.307151
    45 -0.139399 -0.111698 0.014397 1.203062 0.226005 1.577116
    46 -1.393470 8.839177 -0.239433 1.580804 -0.005023 -1.566847
  time 7
    0 -0.999768 -1.867275 2.937151 0.000000 0.000000 0.000000
    1 8.542158 0.650320 -7.946607 -1.543397 -1.643791 1.347144
    2 -0.071918 -8.498730 -0.104137 0.149359 0.262402 0.032182
    3 2.326608 -5.978026 1.161003 0.229329 0.050133 -1.560828
    4 8.068350 -0.889454 0.636832 0.064229 -0.762231 -1.236762
    5 -1.093079 -1.020534 0.000000 0.000000 0.000000 -1.570796
    6 0.332523 0.688256 1.169537 -1.056459 -1.853128 -0.269286
    7 -3.883944 0.696199 1.094116 0.000000 0.000000 1.570796
    8 -2.125080 1.560641 0.000000 0.000000 0.000000 1.570796
    9 0.000000 0.000000 0.000000 0.000000 0.000000 0.000000
    10 2.303347 -0.775169 0.632548 3.141592 -1.570796 0.000000
    11 1.257180 8.762585 -0.153713 -1.570562 0.002683 -1.566807
    12 -0.488518 -2.755602 -0.228260 -1.046804 -0.202562 -0.209541
    13 0.039887 -1.479790 0.029854 -1.943778 0.000000 0.000001
    14 0.028786 -1.075731 -0.023109 -0.173679 0.000000 0.000000
    15 0.250027 -2.820665 -0.238396 -0.797118 -0.167517 -0.114938
    16 -0.049759 -1.680544 0.100479 -1.774062 0.000000 -0.000002
    17 -0.034142 -1.148312 0.084782 -0.925906 0.000000 0.000000
    18 0.957766 -2.746780 -0.090302 -0.139536 -0.162277 0.053939
    19 -0.033420 -1.397129 -0.011257 -0.521004 0.000000 -0.000001
    20 -0.022360 -0.957436 0.018784 -0.975475 0.000000 0.000000
    21 -1.180681 -2.507217 -0.193859 -0.960196 -0.081516 -0.261329
    22 -0.024967 -1.123934 0.017597 -1.635831 0.000000 0.000001
    23 -0.020057 -0.890968 0.010090 -0.677870 0.000000 0.000000
    24 0.583510 -1.197277 0.185379 0.188028 -0.850416 -1.301860
    25 1.535927 0.010246 0.005009 -0.002964 -0.012979 -0.506650
    26 1.100771 0.004527 -0.010679 -0.016207 0.000369 -1.371740
    27 0.120153 -0.050270 -0.054489 0.287569 3.110905 1.561085
    28 0.483160 -10.997061 -12.411818 -1.896665 -5.192239 -1.240714
    29 0.096944 -8.450418 -0.009365 0.146791 -1.328380 0.242747
    30 0.447953 -2.798986 -0.200443 -1.127266 -0.048016 0.185408
    31 -0.032909 -1.480204 0.004940 -1.739492 0.000000 0.000002
    32 -0.027022 -1.076920 -0.020210 -0.060489 0.000000 0.000000
    33 -0.249534 -2.846964 -0.174213 -0.749792 -0.055002 0.096913
    34 0.043235 -1.683941 0.096012 -1.901441 0.002823 -0.000167
    35 0.031729 -1.160830 0.058838 -0.355262 0.000642 0.008372
    36 -0.963866 -2.785145 -0.085350 -0.089607 0.106308 0.015262
    37 0.028479 -1.403067 0.006271 -1.682399 0.000000 0.000000
    38 0.021413 -0.957781 0.020046 -0.738188 0.000000 0.000000
    39 1.164475 -2.543940 -0.170330 -1.523254 -0.190582 0.231608
    40 0.024032 -1.129042 0.017807 -1.225022 0.000000 0.000001
    41 0.014898 -0.883989 -0.019848 -0.316775 0.000000 0.000000
    42 -0.586770 -1.264477 0.200161 0.183351 -0.144599 -2.818962
    43 1.522835 0.058681 0.016848 0.001410 0.008985 0.944638
    44 1.117947 0.048424 -0.005766 0.007679 -0.023364 -0.264574
    45 -0.139399 -0.111698 0.014397 1.203062 0.226005 1.577116
    46 -1.393470 8.839177 -0.239433 1.580804 -0.005023 -1.566847
  time 8
    0 -0.999768 -1.867275 2.937151 0.000000 0.000000 0.000000
    1 8.542158 0.376874 -8.063798 -1.519177 -1.641616 1.322918
    2 -0.071918 -8.498730 -0.104137 0.148932 0.251473 0.030487
    3 2.326608 -5.978026 1.161003 0.229329 0.050133 -1.560828
    4 8.068350 -0.889454 0.636832 0.027634 -0.376916 -1.257950
    5 -1.093079 -1.020534 0.000000 0.000000 0.000000 -1.555852
    6 0.332523 0.688256 1.169537 0.940965 -1.277608 -2.279951
    7 -3.883944 0.696199 1.094116 0.000000 0.000000 1.570796
    8 -2.125080 1.560641 0.000000 0.000000 0.000000 1.570796
    9 0.000000 0.000000 0.000000 0.000000 0.000000 0.000000
    10 2.303347 -0.775169 0.632548 3.141592 -1.570796 0.000000
    11 1.257180 8.762585 -0.153713 -1.570562 0.002683 -1.566807
    12 -0.488518 -2.755602 -0.228260 -1.046804 -0.202562 -0.209541
    13 0.039887 -1.479790 0.029854 -1.943778 0.000000 0.000001
    14 0.028786 -1.075731 -0.023109 -0.173679 0.000000 0.000000
    15 0.250027 -2.820665 -0.238396 -0.797118 -0.167517 -0.114938
    16 -0.049759 -1.680544 0.100479 -1.774062 0.000000 -0.000002
    17 -0.034142 -1.148312 0.084782 -0.925879 0.000000 0.000000
    18 0.957766 -2.746780 -0.090302 -0.139536 -0.162277 0.053939
    19 -0.033420 -1.397129 -0.011257 -0.433481 0.000000 -0.000001
    20 -0.022360 -0.957436 0.018784 -0.887970 0.000000 0.000000
    21 -1.180681 -2.507217 -0.193859 -0.960196 -0.081516 -0.261329
    22 -0.024967 -1.123934 0.017597 -1.635831 0.000000 0.000001
    23 -0.020057 -0.890968 0.010090 -0.677870 0.000000 0.000000
    24 0.583510 -1.197277 0.185379 0.188028 -0.850416 -1.301860
    25 1.535927 0.010246 0.005009 -0.002964 -0.012979 -0.506650
    26 1.100771 0.004527 -0.010679 -0.016207 0.000369 -1.371740
    27 0.120153 -0.050270 -0.054489 0.287569 3.110905 1.561085
    28 0.526130 -11.278319 -12.571979 -1.874110 -5.199189 -1.221603
    29 0.096944 -8.450418 -0.009365 0.146791 -1.328380 0.242747
    30 0.447953 -2.798986 -0.200443 -1.127266 -0.048016 0.185408
    31 -0.032909 -1.480204 0.004940 -1.739492 0.000000 0.000002
    32 -0.027022 -1.076920 -0.020210 -0.060489 0.000000 0.000000
    33 -0.249534 -2.846964 -0.174213 -0.749792 -0.055002 0.096913
    34 0.043235 -1.683941 0.096012 -1.901441 0.002823 -0.000167
    35 0.031729 -1.160830 0.058838 -0.355262 0.000642 0.008372
    36 -0.963866 -2.785145 -0.085350 -0.089607 0.106308 0.015262
    37 0.028479 -1.403067 0.006271 -1.682399 0.000000 0.000000
    38 0.021413 -0.957781 0.020046 -0.738188 0.000000 0.000000
    39 1.164475 -2.543940 -0.170330 -1.523254 -0.190582 0.231608
    40 0.024032 -1.129042 0.017807 -1.225022 0.000000 0.000001
    41 0.014898 -0.883989 -0.019848 -0.316775 0.000000 0.000000
    42 -0.586770 -1.264477 0.200161 0.178316 -0.150771 -2.784882
    43 1.522835 0.058681 0.016848 0.001410 0.008985 0.884347
    44 1.117947 0.048424 -0.005766 0.006480 -0.023724 -0.213728
    45 -0.139399 -0.111698 0.014397 1.203062 0.226005 1.577116
    46 -1.393470 8.839177 -0.239433 1.580804 -0.005023 -1.566847
  time 9
    0 -0.999768 -1.867275 2.937151 0.000000 0.000000 0.000000
    1 8.542158 0.240152 -8.403652 -1.399679 -1.624163 1.203595
    2 -0.071918 -8.498730 -0.104137 0.148428 0.238038 0.028417
    3 2.326608 -5.978026 1.161003 0.229329 0.050133 -1.560828
    4 8.068350 -0.889454 0.636832 0.000000 0.000000 -1.281728
    5 -1.093079 -1.020534 0.000000 0.000000 0.000000 -1.543555
    6 0.332523 0.688256 1.169537 0.364353 -0.962598 -1.737345
    7 -3.883944 0.696199 1.094116 0.000000 0.000000 1.570796
    8 -2.125080 1.560641 0.000000 0.000000 0.000000 1.570796
    9 0.000000 0.000000 0.000000 0.000000 0.000000 0.000000
    10 2.303347 -0.775169 0.632548 3.141592 -1.570796 0.000000
    11 1.257180 8.762585 -0.153713 -1.570562 0.002683 -1.566807
    12 -0.488518 -2.755602 -0.228260 -1.046804 -0.202562 -0.209541
    13 0.039887 -1.479790 0.029854 -1.943778 0.000000 0.000001
    14 0.028786 -1.075731 -0.023109 -0.173679 0.000000 0.000000
    15 0.250027 -2.820665 -0.238396 -0.797118 -0.167517 -0.114938
    16 -0.049759 -1.680544 0.100479 -1.774062 0.000000 -0.000002
    17 -0.034142 -1.148312 0.084782 -0.925906 0.000000 0.000000
    18 0.957766 -2.746780 -0.090302 -0.139536 -0.162277 0.053939
    19 -0.033420 -1.397129 -0.011257 -0.386582 0.000000 -0.000001
    20 -0.022360 -0.957436 0.018784 -0.841074 0.000000 0.000000
    21 -1.180681 -2.507217 -0.193859 -0.960196 -0.081516 -0.261329
    22 -0.024967 -1.123934 0.017597 -1.635831 0.000000 0.000001
    23 -0.020057 -0.890968 0.010090 -0.677870 0.000000 0.000000
    24 0.583510 -1.197277 0.185379 0.188028 -0.850416 -1.301860
    25 1.535927 0.010246 0.005009 -0.002964 -0.012979 -0.506650
    26 1.100771 0.004527 -0.010679 -0.016207 0.000369 -1.371740
    27 0.120153 -0.050270 -0.054489 0.287569 3.110905 1.561085
    28 0.580820 -11.497076 -12.794642 -1.858341 -5.222863 -1.208703
    29 0.096944 -8.450418 -0.009365 0.146791 -1.328380 0.242747
    30 0.447953 -2.798986 -0.200443 -1.127266 -0.048016 0.185408
    31 -0.032909 -1.480204 0.004940 -1.739492 0.000000 0.000002
    32 -0.027022 -1.076920 -0.020210 -0.060489 0.000000 0.000000
    33 -0.249534 -2.846964 -0.174213 -0.749792 -0.055002 0.096913
    34 0.043235 -1.683941 0.096012 -1.901441 0.002823 -0.000167
    35 0.031729 -1.160830 0.058838 -0.355262 0.000642 0.008372
    36 -0.963866 -2.785145 -0.085350 -0.089607 0.106308 0.015262
    37 0.028479 -1.403067 0.006271 -1.682399 0.000000 0.000000
    38 0.021413 -0.957781 0.020046 -0.738188 0.000000 0.000000
    39 1.164475 -2.543940 -0.170330 -1.523254 -0.190582 0.231608
    40 0.024032 -1.129042 0.017807 -1.225022 0.000000 0.000001
    41 0.014898 -0.883989 -0.019848 -0.316775 0.000000 0.000000
    42 -0.586770 -1.264477 0.200161 0.174118 -0.155936 -2.756305
    43 1.522835 0.058681 0.016848 0.001410 0.008985 0.833824
    44 1.117947 0.048424 -0.005766 0.005474 -0.024024 -0.171151
    45 -0.139399 -0.111698 0.014397 1.203062 0.226005 1.577116
    46 -1.393470 8.839177 -0.239433 1.580804 -0.005023 -1.566847
  time 10
    0 -0.999768 -1.867275 2.937151 0.000000 0.000000 0.000000
    1 8.542158 0.193275 -8.626315 -1.228363 -1.611802 1.032485
    2 -0.071918 -8.498730 -0.104137 0.147963 0.224857 0.026396
    3 2.326608 -5.978026 1.161003 0.229329 0.050133 -1.560828
    4 8.068350 -0.889454 0.636832 0.001792 0.491298 -1.281536
    5 -1.093079 -1.020534 0.000000 0.000000 0.000000 -1.533718
    6 0.332523 0.688256 1.169537 0.171561 -0.576931 -1.595329
    7 -3.883944 0.696199 1.094116 0.000000 0.000000 1.570796
    8 -2.125080 1.560641 0.000000 0.000000 0.000000 1.570796
    9 0.000000 0.000000 0.000000 0.000000 0.000000 0.000000
    10 2.303347 -0.775169 0.632548 3.141592 -1.570796 0.000000
    11 1.257180 8.762585 -0.153713 -1.570562 0.002683 -1.566807
    12 -0.488518 -2.755602 -0.228260 -1.046804 -0.202562 -0.209541
    13 0.039887 -1.479790 0.029854 -1.943778 0.000000 0.000001
    14 0.028786 -1.075731 -0.023109 -0.173679 0.000000 0.000000
    15 0.250027 -2.820665 -0.238396 -0.797118 -0.167517 -0.114938
    16 -0.049759 -1.680544 0.100479 -1.774062 0.000000 -0.000002
    17 -0.034142 -1.148312 0.084782 -0.925879 0.000000 0.000000
    18 0.957766 -2.746780 -0.090302 -0.139536 -0.162277 0.053939
    19 -0.033420 -1.397129 -0.011257 -0.372656 0.000000 -0.000001
    20 -0.022360 -0.957436 0.018784 -0.827173 0.000000 0.000000
    21 -1.180681 -2.507217 -0.193859 -0.960196 -0.081516 -0.261329
    22 -0.024967 -1.123934 0.017597 -1.635831 0.000000 0.000001
    23 -0.020057 -0.890968 0.010090 -0.677870 0.000000 0.000000
    24 0.583510 -1.197277 0.185379 0.188028 -0.850416 -1.301860
    25 1.535927 0.010246 0.005009 -0.002964 -0.012979 -0.506650
    26 1.100771 0.004527 -0.010679 -0.016207 0.000369 -1.371740
    27 0.120153 -0.050270 -0.054489 0.287569 3.110905 1.561085
    28 0.639415 -11.606454 -12.943084 -1.841043 -5.242628 -1.194369
    29 0.096944 -8.450418 -0.009365 0.146791 -1.328380 0.242747
    30 0.447953 -2.798986 -0.200443 -1.127266 -0.048016 0.185408
    31 -0.032909 -1.480204 0.004940 -1.739492 0.000000 0.000002
    32 -0.027022 -1.076920 -0.020210 -0.060489 0.000000 0.000000
    33 -0.249534 -2.846964 -0.174213 -0.749792 -0.055002 0.096913
    34 0.043235 -1.683941 0.096012 -1.901441 0.002823 -0.000167
    35 0.031729 -1.160830 0.058838 -0.355262 0.000642 0.008372
    36 -0.963866 -2.785145 -0.085350 -0.089607 0.106308 0.015262
    37 0.028479 -1.403067 0.006271 -1.682399 0.000000 0.000000
    38 0.021413 -0.957781 0.020046 -0.738188 0.000000 0.000000
    39 1.164475 -2.543940 -0.170330 -1.523254 -0.190582 0.231608
    40 0.024032 -1.129042 0.017807 -1.225022 0.000000 0.000001
    41 0.014898 -0.883989 -0.019848 -0.316775 0.000000 0.000000
    42 -0.586770 -1.264477 0.200161 0.172354 -0.158106 -2.744325
    43 1.522835 0.058681 0.016848 0.001410 0.008985 0.812634
    44 1.117947 0.048424 -0.005766 0.005054 -0.024155 -0.153264
    45 -0.139399 -0.111698 0.014397 1.203062 0.226005 1.577116
    46 -1.393470 8.839177 -0.239433 1.580804 -0.005023 -1.566847
  time 11
    0 -0.999768 -1.867275 2.937151 0.000000 0.000000 0.000000
    1 8.542158 0.216713 -8.614596 -1.147801 -1.609950 0.951935
    2 -0.071918 -8.498730 -0.104137 0.147633 0.214639 0.024828
    3 2.326608 -5.978026 1.161003 0.229329 0.050133 -1.560828
    4 8.068350 -0.889454 0.636832 -0.015562 0.858123 -1.323051
    5 -1.093079 -1.020534 0.000000 0.000000 0.000000 -1.526181
    6 0.332523 0.688256 1.169537 0.069264 -0.231337 -1.555035
    7 -3.883944 0.696199 1.094116 0.000000 0.000000 1.570796
    8 -2.125080 1.560641 0.000000 0.000000 0.000000 1.570796
    9 0.000000 0.000000 0.000000 0.000000 0.000000 0.000000
    10 2.303347 -0.775169 0.632548 3.141592 -1.570796 0.000000
    11 1.257180 8.762585 -0.153713 -1.570562 0.002683 -1.566807
    12 -0.488518 -2.755602 -0.228260 -1.046804 -0.202562 -0.209541
    13 0.039887 -1.479790 0.029854 -1.943778 0.000000 0.000001
    14 0.028786 -1.075731 -0.023109 -0.173679 0.000000 0.000000
    15 0.250027 -2.820665 -0.238396 -0.797118 -0.167517 -0.114938
    16 -0.049759 -1.680544 0.100479 -1.774062 0.000000 -0.000002
    17 -0.034142 -1.148312 0.084782 -0.925906 0.000000 0.000000
    18 0.957766 -2.746780 -0.090302 -0.139536 -0.162277 0.053939
    19 -0.033420 -1.397129 -0.011257 -0.388086 0.000000 -0.000001
    20 -0.022360 -0.957436 0.018784 -0.842578 0.000000 0.000000
    21 -1.180681 -2.507217 -0.193859 -0.960196 -0.081516 -0.261329
    22 -0.024967 -1.123934 0.017597 -1.635831 0.000000 0.000001
    23 -0.020057 -0.890968 0.010090 -0.677870 0.000000 0.000000
    24 0.583510 -1.197277 0.185379 0.188028 -0.850416 -1.301860
    25 1.535927 0.010246 0.005009 -0.002964 -0.012979 -0.506650
    26 1.100771 0.004527 -0.010679 -0.016207 0.000369 -1.371740
    27 0.120153 -0.050270 -0.054489 0.287569 3.110905 1.561085
    28 0.686292 -11.594735 -12.970429 -1.822081 -5.250664 -1.178507
    29 0.096944 -8.450418 -0.009365 0.146791 -1.328380 0.242747
    30 0.447953 -2.798986 -0.200443 -1.127266 -0.048016 0.185408
    31 -0.032909 -1.480204 0.004940 -1.739492 0.000000 0.000002
    32 -0.027022 -1.076920 -0.020210 -0.060489 0.000000 0.000000
    33 -0.249534 -2.846964 -0.174213 -0.749792 -0.055002 0.096913
    34 0.043235 -1.683941 0.096012 -1.901441 0.002823 -0.000167
    35 0.031729 -1.160830 0.058838 -0.355262 0.000642 0.008372
    36 -0.963866 -2.785145 -0.085350 -0.089607 0.106308 0.015262
    37 0.028479 -1.403067 0.006271 -1.682399 0.000000 0.000000
    38 0.021413 -0.957781 0.020046 -0.738188 0.000000 0.000000
    39 1.164475 -2.543940 -0.170330 -1.523254 -0.190582 0.231608
    40 0.024032 -1.129042 0.017807 -1.225022 0.000000 0.000001
    41 0.014898 -0.883989 -0.019848 -0.316775 0.000000 0.000000
    42 -0.586770 -1.264477 0.200161 0.172354 -0.158106 -2.744325
    43 1.522835 0.058681 0.016848 0.001410 0.008985 0.812634
    44 1.117947 0.048424 -0.005766 0.005054 -0.024155 -0.153264
    45 -0.139399 -0.111698 0.014397 1.203062 0.226005 1.577116
    46 -1.393470 8.839177 -0.239433 1.580804 -0.005023 -1.566847
  time 12
    0 -0.999768 -1.867275 2.937151 0.000000 0.000000 0.000000
    1 8.542158 0.310466 -8.516937 -1.111099 -1.610830 0.915163
    2 -0.071918 -8.498730 -0.104137 0.147478 0.210134 0.024150
    3 2.326608 -5.978026 1.161003 0.229329 0.050133 -1.560828
    4 8.068350 -0.889454 0.636832 -0.144020 0.864381 -1.520461
    5 -1.093079 -1.020534 0.000000 0.000000 0.000000 -1.520741
    6 0.332523 0.688256 1.169537 0.005574 0.000549 -1.547478
    7 -3.883944 0.696199 1.094116 0.000000 0.000000 1.570796
    8 -2.125080 1.560641 0.000000 0.000000 0.000000 1.570796
    9 0.000000 0.000000 0.000000 0.000000 0.000000 0.000000
    10 2.303347 -0.775169 0.632548 3.141592 -1.570796 0.000000
    11 1.257180 8.762585 -0.153713 -1.570562 0.002683 -1.566807
    12 -0.488518 -2.755602 -0.228260 -1.046804 -0.202562 -0.209541
    13 0.039887 -1.479790 0.029854 -1.943778 0.000000 0.000001
    14 0.028786 -1.075731 -0.023109 -0.173679 0.000000 0.000000
    15 0.250027 -2.820665 -0.238396 -0.797118 -0.167517 -0.114938
    16 -0.049759 -1.680544 0.100479 -1.774062 0.000000 -0.000002
    17 -0.034142 -1.148312 0.084782 -0.925879 0.000000 0.000000
    18 0.957766 -2.746780 -0.090302 -0.139536 -0.162277 0.053939
    19 -0.033420 -1.397129 -0.011257 -0.424869 0.000000 -0.000001
    20 -0.022360 -0.957436 0.018784 -0.879357 0.000000 0.000000
    21 -1.180681 -2.507217 -0.193859 -0.960196 -0.081516 -0.261329
    22 -0.024967 -1.123934 0.017597 -1.635831 0.000000 0.000001
    23 -0.020057 -0.890968 0.010090 -0.677870 0.000000 0.000000
    24 0.583510 -1.197277 0.185379 0.188028 -0.850416 -1.301860
    25 1.535927 0.010246 0.005009 -0.002964 -0.012979 -0.506650
    26 1.100771 0.004527 -0.010679 -0.016207 0.000369 -1.371740
    27 0.120153 -0.050270 -0.054489 0.287569 3.110905 1.561085
    28 0.709730 -11.504889 -12.907927 -1.811103 -5.253415 -1.169333
    29 0.096944 -8.450418 -0.009365 0.146791 -1.328380 0.242747
    30 0.447953 -2.798986 -0.200443 -1.127266 -0.048016 0.185408
    31 -0.032909 -1.480204 0.004940 -1.739492 0.000000 0.000002
    32 -0.027022 -1.076920 -0.020210 -0.060489 0.000000 0.000000
    33 -0.249534 -2.846964 -0.174213 -0.749792 -0.055002 0.096913
    34 0.043235 -1.683941 0.096012 -1.901441 0.002823 -0.000167
    35 0.031729 -1.160830 0.058838 -0.355262 0.000642 0.008372
    36 -0.963866 -2.785145 -0.085350 -0.089607 0.106308 0.015262
    37 0.028479 -1.403067 0.006271 -1.682399 0.000000 0.000000
    38 0.021413 -0.957781 0.020046 -0.738188 0.000000 0.000000
    39 1.164475 -2.543940 -0.170330 -1.523254 -0.190582 0.231608
    40 0.024032 -1.129042 0.017807 -1.225022 0.000000 0.000001
    41 0.014898 -0.883989 -0.019848 -0.316775 0.000000 0.000000
    42 -0.586770 -1.264477 0.200161 0.172354 -0.158106 -2.744325
    43 1.522835 0.058681 0.016848 0.001410 0.008985 0.812634
    44 1.117947 0.048424 -0.005766 0.005054 -0.024155 -0.153264
    45 -0.139399 -0.111698 0.014397 1.203062 0.226005 1.577116
    46 -1.393470 8.839177 -0.239433 1.580804 -0.005023 -1.566847
  time 13
    0 -0.999768 -1.867275 2.937151 0.000000 0.000000 0.000000
    1 8.542158 0.419845 -8.399745 -1.086077 -1.612358 0.890138
    2 -0.071918 -8.498730 -0.104137 0.147498 0.210898 0.024263
    3 2.326608 -5.978026 1.161003 0.229329 0.050133 -1.560828
    4 8.068350 -0.889454 0.636832 -0.237675 0.713468 -1.701859
    5 -1.093079 -1.020534 0.000000 0.000000 0.000000 -1.517226
    6 0.332523 0.688256 1.169537 -0.025697 0.041013 -1.548084
    7 -3.883944 0.696199 1.094116 0.000000 0.000000 1.570796
    8 -2.125080 1.560641 0.000000 0.000000 0.000000 1.570796
    9 0.000000 0.000000 0.000000 0.000000 0.000000 0.000000
    10 2.303347 -0.775169 0.632548 3.141592 -1.570796 0.000000
    11 1.257180 8.762585 -0.153713 -1.570562 0.002683 -1.566807
    12 -0.488518 -2.755602 -0.228260 -1.046804 -0.202562 -0.209541
    13 0.039887 -1.479790 0.029854 -1.943778 0.000000 0.000001
    14 0.028786 -1.075731 -0.023109 -0.173679 0.000000 0.000000
    15 0.250027 -2.820665 -0.238396 -0.797118 -0.167517 -0.114938
    16 -0.049759 -1.680544 0.100479 -1.774062 0.000000 -0.000002
    17 -0.034142 -1.148312 0.084782 -0.925906 0.000000 0.000000
    18 0.957766 -2.746780 -0.090302 -0.139536 -0.162277 0.053939
    19 -0.033420 -1.397129 -0.011257 -0.468791 0.000000 -0.000001
    20 -0.022360 -0.957436 0.018784 -0.923291 0.000000 0.000000
    21 -1.180681 -2.507217 -0.193859 -0.960196 -0.081516 -0.261329
    22 -0.024967 -1.123934 0.017597 -1.635831 0.000000 0.000001
    23 -0.020057 -0.890968 0.010090 -0.677870 0.000000 0.000000
    24 0.583510 -1.197277 0.185379 0.188028 -0.850416 -1.301860
    25 1.535927 0.010246 0.005009 -0.002964 -0.012979 -0.506650
    26 1.100771 0.004527 -0.010679 -0.016207 0.000369 -1.371740
    27 0.120153 -0.050270 -0.054489 0.287569 3.110905 1.561085
    28 0.713636 -11.391604 -12.806362 -1.808907 -5.253270 -1.167518
    29 0.096944 -8.450418 -0.009365 0.146791 -1.328380 0.242747
    30 0.447953 -2.798986 -0.200443 -1.127266 -0.048016 0.185408
    31 -0.032909 -1.480204 0.004940 -1.739492 0.000000 0.000002
    32 -0.027022 -1.076920 -0.020210 -0.060489 0.000000 0.000000
    33 -0.249534 -2.846964 -0.174213 -0.749792 -0.055002 0.096913
    34 0.043235 -1.683941 0.096012 -1.901441 0.002823 -0.000167
    35 0.031729 -1.160830 0.058838 -0.355262 0.000642 0.008372
    36 -0.963866 -2.785145 -0.085350 -0.089607 0.106308 0.015262
    37 0.028479 -1.403067 0.006271 -1.682399 0.000000 0.000000
    38 0.021413 -0.957781 0.020046 -0.738188 0.000000 0.000000
    39 1.164475 -2.543940 -0.170330 -1.523254 -0.190582 0.231608
    40 0.024032 -1.129042 0.017807 -1.225022 0.000000 0.000001
    41 0.014898 -0.883989 -0.019848 -0.316775 0.000000 0.000000
    42 -0.586770 -1.264477 0.200161 0.172354 -0.158106 -2.744325
    43 1.522835 0.058681 0.016848 0.001410 0.008985 0.812634
    44 1.117947 0.048424 -0.005766 0.005054 -0.024155 -0.153264
    45 -0.139399 -0.111698 0.014397 1.203062 0.226005 1.577116
    46 -1.393470 8.839177 -0.239433 1.580804 -0.005023 -1.566847
  time 14
    0 -0.999768 -1.867275 2.937151 0.000000 0.000000 0.000000
    1 8.542158 0.497972 -8.341150 -1.034087 -1.612543 0.838150
    2 -0.071918 -8.498730 -0.104137 0.147614 0.214250 0.024778
    3 2.326608 -5.978026 1.161003 0.229329 0.050133 -1.560828
    4 8.068350 -0.889454 0.636832 -0.233525 0.524390 -1.752482
    5 -1.093079 -1.020534 0.000000 0.000000 0.000000 -1.515432
    6 0.332523 0.688256 1.169537 -0.034427 -0.068382 -1.549741
    7 -3.883944 0.696199 1.094116 0.000000 0.000000 1.570796
    8 -2.125080 1.560641 0.000000 0.000000 0.000000 1.570796
    9 0.000000 0.000000 0.000000 0.000000 0.000000 0.000000
    10 2.303347 -0.775169 0.632548 3.141592 -1.570796 0.000000
    11 1.257180 8.762585 -0.153713 -1.570562 0.002683 -1.566807
    12 -0.488518 -2.755602 -0.228260 -1.046804 -0.202562 -0.209541
    13 0.039887 -1.479790 0.029854 -1.943778 0.000000 0.000001
    14 0.028786 -1.075731 -0.023109 -0.173679 0.000000 0.000000
    15 0.250027 -2.820665 -0.238396 -0.797118 -0.167517 -0.114938
    16 -0.049759 -1.680544 0.100479 -1.774062 0.000000 -0.000002
    17 -0.034142 -1.148312 0.084782 -0.925906 0.000000 0.000000
    18 0.957766 -2.746780 -0.090302 -0.139536 -0.162277 0.053939
    19 -0.033420 -1.397129 -0.011257 -0.505574 0.000000 -0.000001
    20 -0.022360 -0.957436 0.018784 -0.960070 0.000000 0.000000
    21 -1.180681 -2.507217 -0.193859 -0.960196 -0.081516 -0.261329
    22 -0.024967 -1.123934 0.017597 -1.635831 0.000000 0.000001
    23 -0.020057 -0.890968 0.010090 -0.677870 0.000000 0.000000
    24 0.583510 -1.197277 0.185379 0.188028 -0.850416 -1.301860
    25 1.535927 0.010246 0.005009 -0.002964 -0.012979 -0.506650
    26 1.100771 0.004527 -0.010679 -0.016207 0.000369 -1.371740
    27 0.120153 -0.050270 -0.054489 0.287569 3.110905 1.561085
    28 0.709730 -11.317383 -12.728234 -1.812633 -5.253632 -1.170671
    29 0.096944 -8.450418 -0.009365 0.146791 -1.328380 0.242747
    30 0.447953 -2.798986 -0.200443 -1.127266 -0.048016 0.185408
    31 -0.032909 -1.480204 0.004940 -1.739492 0.000000 0.000002
    32 -0.027022 -1.076920 -0.020210 -0.060489 0.000000 0.000000
    33 -0.249534 -2.846964 -0.174213 -0.749792 -0.055002 0.096913
    34 0.043235 -1.683941 0.096012 -1.901441 0.002823 -0.000167
    35 0.031729 -1.160830 0.058838 -0.355262 0.000642 0.008372
    36 -0.963866 -2.785145 -0.085350 -0.089607 0.106308 0.015262
    37 0.028479 -1.403067 0.006271 -1.682399 0.000000 0.000000
    38 0.021413 -0.957781 0.020046 -0.738188 0.000000 0.000000
    39 1.164475 -2.543940 -0.170330 -1.523254 -0.190582 0.231608
    40 0.024032 -1.129042 0.017807 -1.225022 0.000000 0.000001
    41 0.014898 -0.883989 -0.019848 -0.316775 0.000000 0.000000
    42 -0.586770 -1.264477 0.200161 0.172354 -0.158106 -2.744325
    43 1.522835 0.058681 0.016848 0.001410 0.008985 0.812634
    44 1.117947 0.048424 -0.005766 0.005054 -0.024155 -0.153264
    45 -0.139399 -0.111698 0.014397 1.203062 0.226005 1.577116
    46 -1.393470 8.839177 -0.239433 1.580804 -0.005023 -1.566847
  time 15
    0 -0.999768 -1.867275 2.937151 0.000000 0.000000 0.000000
    1 8.542158 0.548755 -8.348963 -0.942359 -1.611385 0.746456
    2 -0.071918 -8.498730 -0.104137 0.147788 0.219547 0.025581
    3 2.326608 -5.978026 1.161003 0.229329 0.050133 -1.560828
    4 8.068350 -0.889454 0.636832 -0.175615 0.318456 -1.695340
    5 -1.093079 -1.020534 0.000000 0.000000 0.000000 -1.515186
    6 0.332523 0.688256 1.169537 -0.030656 -0.216124 -1.551438
    7 -3.883944 0.696199 1.094116 0.000000 0.000000 1.570796
    8 -2.125080 1.560641 0.000000 0.000000 0.000000 1.570796
    9 0.000000 0.000000 0.000000 0.000000 0.000000 0.000000
    10 2.303347 -0.775169 0.632548 3.141592 -1.570796 0.000000
    11 1.257180 8.762585 -0.153713 -1.570562 0.002683 -1.566807
    12 -0.488518 -2.755602 -0.228260 -1.046804 -0.202562 -0.209541
    13 0.039887 -1.479790 0.029854 -1.943778 0.000000 0.000001
    14 0.028786 -1.075731 -0.023109 -0.173679 0.000000 0.000000
    15 0.250027 -2.820665 -0.238396 -0.797118 -0.167517 -0.114938
    16 -0.049759 -1.680544 0.100479 -1.774062 0.000000 -0.000002
    17 -0.034142 -1.148312 0.084782 -0.925879 0.000000 0.000000
    18 0.957766 -2.746780 -0.090302 -0.139536 -0.162277 0.053939
    19 -0.033420 -1.397129 -0.011257 -0.521004 0.000000 -0.000001
    20 -0.022360 -0.957436 0.018784 -0.975475 0.000000 0.000000
    21 -1.180681 -2.507217 -0.193859 -0.960196 -0.081516 -0.261329
    22 -0.024967 -1.123934 0.017597 -1.635831 0.000000 0.000001
    23 -0.020057 -0.890968 0.010090 -0.677870 0.000000 0.000000
    24 0.583510 -1.197277 0.185379 0.188028 -0.850416 -1.301860
    25 1.535927 0.010246 0.005009 -0.002964 -0.012979 -0.506650
    26 1.100771 0.004527 -0.010679 -0.016207 0.000369 -1.371740
    27 0.120153 -0.050270 -0.054489 0.287569 3.110905 1.561085
    28 0.694104 -11.278319 -12.677451 -1.821216 -5.255225 -1.177838
    29 0.096944 -8.450418 -0.009365 0.146791 -1.328380 0.242747
    30 0.447953 -2.798986 -0.200443 -1.127266 -0.048016 0.185408
    31 -0.032909 -1.480204 0.004940 -1.739492 0.000000 0.000002
    32 -0.027022 -1.076920 -0.020210 -0.060489 0.000000 0.000000
    33 -0.249534 -2.846964 -0.174213 -0.749792 -0.055002 0.096913
    34 0.043235 -1.683941 0.096012 -1.901441 0.002823 -0.000167
    35 0.031729 -1.160830 0.058838 -0.355262 0.000642 0.008372
    36 -0.963866 -2.785145 -0.085350 -0.089607 0.106308 0.015262
    37 0.028479 -1.403067 0.006271 -1.682399 0.000000 0.000000
    38 0.021413 -0.957781 0.020046 -0.738188 0.000000 0.000000
    39 1.164475 -2.543940 -0.170330 -1.523254 -0.190582 0.231608
    40 0.024032 -1.129042 0.017807 -1.225022 0.000000 0.000001
    41 0.014898 -0.883989 -0.019848 -0.316775 0.000000 0.000000
    42 -0.586770 -1.264477 0.200161 0.172354 -0.158106 -2.744325
    43 1.522835 0.058681 0.016848 0.001410 0.008985 0.812634
    44 1.117947 0.048424 -0.005766 0.005054 -0.024155 -0.153264
    45 -0.139399 -0.111698 0.014397 1.203062 0.226005 1.577116
    46 -1.393470 8.839177 -0.239433 1.580804 -0.005023 -1.566847
  time 16
    0 -0.999768 -1.867275 2.937151 0.000000 0.000000 0.000000
    1 8.542158 0.599537 -8.376307 -0.829504 -1.610321 0.633606
    2 -0.071918 -8.498730 -0.104137 0.148002 0.226184 0.026597
    3 2.326608 -5.978026 1.161003 0.229329 0.050133 -1.560828
    4 8.068350 -0.889454 0.636832 -0.113839 0.064097 -1.606175
    5 -1.093079 -1.020534 0.000000 0.000000 0.000000 -1.516300
    6 0.332523 0.688256 1.169537 -0.025369 -0.290230 -1.552408
    7 -3.883944 0.696199 1.094116 0.000000 0.000000 1.570796
    8 -2.125080 1.560641 0.000000 0.000000 0.000000 1.570796
    9 0.000000 0.000000 0.000000 0.000000 0.000000 0.000000
    10 2.303347 -0.775169 0.632548 3.141592 -1.570796 0.000000
    11 1.257180 8.762585 -0.153713 -1.570562 0.002683 -1.566807
    12 -0.488518 -2.755602 -0.228260 -1.046804 -0.202562 -0.209541
    13 0.039887 -1.479790 0.029854 -1.943778 0.000000 0.000001
    14 0.028786 -1.075731 -0.023109 -0.173679 0.000000 0.000000
    15 0.250027 -2.820665 -0.238396 -0.797118 -0.167517 -0.114938
    16 -0.049759 -1.680544 0.100479 -1.774062 0.000000 -0.000002
    17 -0.034142 -1.148312 0.084782 -0.925906 0.000000 0.000000
    18 0.957766 -2.746780 -0.090302 -0.139536 -0.162277 0.053939
    19 -0.033420 -1.397129 -0.011257 -0.521004 0.000000 -0.000001
    20 -0.022360 -0.957436 0.018784 -0.975475 0.000000 0.000000
    21 -1.180681 -2.507217 -0.193859 -0.960196 -0.081516 -0.261329
    22 -0.024967 -1.123934 0.017597 -1.635831 0.000000 0.000001
    23 -0.020057 -0.890968 0.010090 -0.677870 0.000000 0.000000
    24 0.583510 -1.197277 0.185379 0.188028 -0.850416 -1.301860
    25 1.535927 0.010246 0.005009 -0.002964 -0.012979 -0.506650
    26 1.100771 0.004527 -0.010679 -0.016207 0.000369 -1.371740
    27 0.120153 -0.050270 -0.054489 0.287569 3.110905 1.561085
    28 0.678479 -11.247068 -12.626669 -1.832327 -5.257035 -1.187202
    29 0.096944 -8.450418 -0.009365 0.146791 -1.328380 0.242747
    30 0.447953 -2.798986 -0.200443 -1.127266 -0.048016 0.185408
    31 -0.032909 -1.480204 0.004940 -1.739492 0.000000 0.000002
    32 -0.027022 -1.076920 -0.020210 -0.060489 0.000000 0.000000
    33 -0.249534 -2.846964 -0.174213 -0.749792 -0.055002 0.096913
    34 0.043235 -1.683941 0.096012 -1.901441 0.002823 -0.000167
    35 0.031729 -1.160830 0.058838 -0.355262 0.000642 0.008372
    36 -0.963866 -2.785145 -0.085350 -0.089607 0.106308 0.015262
    37 0.028479 -1.403067 0.006271 -1.682399 0.000000 0.000000
    38 0.021413 -0.957781 0.020046 -0.738188 0.000000 0.000000
    39 1.164475 -2.543940 -0.170330 -1.523254 -0.190582 0.231608
    40 0.024032 -1.129042 0.017807 -1.225022 0.000000 0.000001
    41 0.014898 -0.883989 -0.019848 -0.316775 0.000000 0.000000
    42 -0.586770 -1.264477 0.200161 0.172354 -0.158106 -2.744325
    43 1.522835 0.058681 0.016848 0.001410 0.008985 0.812634
    44 1.117947 0.048424 -0.005766 0.005054 -0.024155 -0.153264
    45 -0.139399 -0.111698 0.014397 1.203062 0.226005 1.577116
    46 -1.393470 8.839177 -0.239433 1.580804 -0.005023 -1.566847
  time 17
    0 -0.999768 -1.867275 2.937151 0.000000 0.000000 0.000000
    1 8.542158 0.650320 -8.411465 -0.701303 -1.609626 0.505406
    2 -0.071918 -8.498730 -0.104137 0.148273 0.233492 0.027714
    3 2.326608 -5.978026 1.161003 0.229329 0.050133 -1.560828
    4 8.068350 -0.889454 0.636832 -0.070454 -0.191953 -1.514516
    5 -1.093079 -1.020534 0.000000 0.000000 0.000000 -1.518586
    6 0.332523 0.688256 1.169537 -0.018156 -0.251412 -1.551317
    7 -3.883944 0.696199 1.094116 0.000000 0.000000 1.570796
    8 -2.125080 1.560641 0.000000 0.000000 0.000000 1.570796
    9 0.000000 0.000000 0.000000 0.000000 0.000000 0.000000
    10 2.303347 -0.775169 0.632548 3.141592 -1.570796 0.000000
    11 1.257180 8.762585 -0.153713 -1.570562 0.002683 -1.566807
    12 -0.488518 -2.755602 -0.228260 -1.046804 -0.202562 -0.209541
    13 0.039887 -1.479790 0.029854 -1.943778 0.000000 0.000001
    14 0.028786 -1.075731 -0.023109 -0.173679 0.000000 0.000000
    15 0.250027 -2.820665 -0.238396 -0.797118 -0.167517 -0.114938
    16 -0.049759 -1.680544 0.100479 -1.774062 0.000000 -0.000002
    17 -0.034142 -1.148312 0.084782 -0.925879 0.000000 0.000000
    18 0.957766 -2.746780 -0.090302 -0.139536 -0.162277 0.053939
    19 -0.033420 -1.397129 -0.011257 -0.521004 0.000000 -0.000001
    20 -0.022360 -0.957436 0.018784 -0.975475 0.000000 0.000000
    21 -1.180681 -2.507217 -0.193859 -0.960196 -0.081516 -0.261329
    22 -0.024967 -1.123934 0.017597 -1.635831 0.000000 0.000001
    23 -0.020057 -0.890968 0.010090 -0.677870 0.000000 0.000000
    24 0.583510 -1.197277 0.185379 0.188028 -0.850416 -1.301860
    25 1.535927 0.010246 0.005009 -0.002964 -0.012979 -0.506650
    26 1.100771 0.004527 -0.010679 -0.016207 0.000369 -1.371740
    27 0.120153 -0.050270 -0.054489 0.287569 3.110905 1.561085
    28 0.658947 -11.215817 -12.579792 -1.844769 -5.258990 -1.197618
    29 0.096944 -8.450418 -0.009365 0.146791 -1.328380 0.242747
    30 0.447953 -2.798986 -0.200443 -1.127266 -0.048016 0.185408
    31 -0.032909 -1.480204 0.004940 -1.739492 0.000000 0.000002
    32 -0.027022 -1.076920 -0.020210 -0.060489 0.000000 0.000000
    33 -0.249534 -2.846964 -0.174213 -0.749792 -0.055002 0.096913
    34 0.043235 -1.683941 0.096012 -1.901441 0.002823 -0.000167
    35 0.031729 -1.160830 0.058838 -0.355262 0.000642 0.008372
    36 -0.963866 -2.785145 -0.085350 -0.089607 0.106308 0.015262
    37 0.028479 -1.403067 0.006271 -1.682399 0.000000 0.000000
    38 0.021413 -0.957781 0.020046 -0.738188 0.000000 0.000000
    39 1.164475 -2.543940 -0.170330 -1.523254 -0.190582 0.231608
    40 0.024032 -1.129042 0.017807 -1.225022 0.000000 0.000001
    41 0.014898 -0.883989 -0.019848 -0.316775 0.000000 0.000000
    42 -0.586770 -1.264477 0.200161 0.172354 -0.158106 -2.744325
    43 1.522835 0.058681 0.016848 0.001410 0.008985 0.812634
    44 1.117947 0.048424 -0.005766 0.005054 -0.024155 -0.153264
    45 -0.139399 -0.111698 0.014397 1.203062 0.226005 1.577116
    46 -1.393470 8.839177 -0.239433 1.580804 -0.005023 -1.566847
  time 18
    0 -0.999768 -1.867275 2.937151 0.000000 0.000000 0.000000
    1 8.542158 0.689384 -8.454435 -0.567147 -1.609487 0.371268
    2 -0.071918 -8.498730 -0.104137 0.148525 0.240867 0.028843
    3 2.326608 -5.978026 1.161003 0.229329 0.050133 -1.560828
    4 8.068350 -0.889454 0.636832 -0.048195 -0.399014 -1.438582
    5 -1.093079 -1.020534 0.000000 0.000000 0.000000 -1.521855
    6 0.332523 0.688256 1.169537 -0.004303 -0.162485 -1.548771
    7 -3.883944 0.696199 1.094116 0.000000 0.000000 1.570796
    8 -2.125080 1.560641 0.000000 0.000000 0.000000 1.570796
    9 0.000000 0.000000 0.000000 0.000000 0.000000 0.000000
    10 2.303347 -0.775169 0.632548 3.141592 -1.570796 0.000000
    11 1.257180 8.762585 -0.153713 -1.570562 0.002683 -1.566807
    12 -0.488518 -2.755602 -0.228260 -1.046804 -0.202562 -0.209541
    13 0.039887 -1.479790 0.029854 -1.943778 0.000000 0.000001
    14 0.028786 -1.075731 -0.023109 -0.173679 0.000000 0.000000
    15 0.250027 -2.820665 -0.238396 -0.797118 -0.167517 -0.114938
    16 -0.049759 -1.680544 0.100479 -1.774062 0.000000 -0.000002
    17 -0.034142 -1.148312 0.084782 -0.925906 0.000000 0.000000
    18 0.957766 -2.746780 -0.090302 -0.139536 -0.162277 0.053939
    19 -0.033420 -1.397129 -0.011257 -0.521004 0.000000 -0.000001
    20 -0.022360 -0.957436 0.018784 -0.975475 0.000000 0.000000
    21 -1.180681 -2.507217 -0.193859 -0.960196 -0.081516 -0.261329
    22 -0.024967 -1.123934 0.017597 -1.635831 0.000000 0.000001
    23 -0.020057 -0.890968 0.010090 -0.677870 0.000000 0.000000
    24 0.583510 -1.197277 0.185379 0.188028 -0.850416 -1.301860
    25 1.535927 0.010246 0.005009 -0.002964 -0.012979 -0.506650
    26 1.100771 0.004527 -0.010679 -0.016207 0.000369 -1.371740
    27 0.120153 -0.050270 -0.054489 0.287569 3.110905 1.561085
    28 0.635509 -11.192379 -12.536822 -1.857410 -5.261162 -1.208320
    29 0.096944 -8.450418 -0.009365 0.146791 -1.328380 0.242747
    30 0.447953 -2.798986 -0.200443 -1.127266 -0.048016 0.185408
    31 -0.032909 -1.480204 0.004940 -1.739492 0.000000 0.000002
    32 -0.027022 -1.076920 -0.020210 -0.060489 0.000000 0.000000
    33 -0.249534 -2.846964 -0.174213 -0.749792 -0.055002 0.096913
    34 0.043235 -1.683941 0.096012 -1.901441 0.002823 -0.000167
    35 0.031729 -1.160830 0.058838 -0.355262 0.000642 0.008372
    36 -0.963866 -2.785145 -0.085350 -0.089607 0.106308 0.015262
    37 0.028479 -1.403067 0.006271 -1.682399 0.000000 0.000000
    38 0.021413 -0.957781 0.020046 -0.738188 0.000000 0.000000
    39 1.164475 -2.543940 -0.170330 -1.523254 -0.190582 0.231608
    40 0.024032 -1.129042 0.017807 -1.225022 0.000000 0.000001
    41 0.014898 -0.883989 -0.019848 -0.316775 0.000000 0.000000
    42 -0.586770 -1.264477 0.200161 0.172354 -0.158106 -2.744325
    43 1.522835 0.058681 0.016848 0.001410 0.008985 0.812634
    44 1.117947 0.048424 -0.005766 0.005054 -0.024155 -0.153264
    45 -0.139399 -0.111698 0.014397 1.203062 0.226005 1.577116
    46 -1.393470 8.839177 -0.239433 1.580804 -0.005023 -1.566847
  time 19
    0 -0.999768 -1.867275 2.937151 0.000000 0.000000 0.000000
    1 8.542158 0.728448 -8.501311 -0.438259 -1.609997 0.242468
    2 -0.071918 -8.498730 -0.104137 0.148777 0.247665 0.029898
    3 2.326608 -5.978026 1.161003 0.229329 0.050133 -1.560828
    4 8.068350 -0.889454 0.636832 -0.036311 -0.505561 -1.403299
    5 -1.093079 -1.020534 0.000000 0.000000 0.000000 -1.525935
    6 0.332523 0.688256 1.169537 0.010861 -0.065010 -1.544568
    7 -3.883944 0.696199 1.094116 0.000000 0.000000 1.570796
    8 -2.125080 1.560641 0.000000 0.000000 0.000000 1.570796
    9 0.000000 0.000000 0.000000 0.000000 0.000000 0.000000
    10 2.303347 -0.775169 0.632548 3.141592 -1.570796 0.000000
    11 1.257180 8.762585 -0.153713 -1.570562 0.002683 -1.566807
    12 -0.488518 -2.755602 -0.228260 -1.046804 -0.202562 -0.209541
    13 0.039887 -1.479790 0.029854 -1.943778 0.000000 0.000001
    14 0.028786 -1.075731 -0.023109 -0.173679 0.000000 0.000000
    15 0.250027 -2.820665 -0.238396 -0.797118 -0.167517 -0.114938
    16 -0.049759 -1.680544 0.100479 -1.774062 0.000000 -0.000002
    17 -0.034142 -1.148312 0.084782 -0.925879 0.000000 0.000000
    18 0.957766 -2.746780 -0.090302 -0.139536 -0.162277 0.053939
    19 -0.033420 -1.397129 -0.011257 -0.521004 0.000000 -0.000001
    20 -0.022360 -0.957436 0.018784 -0.975475 0.000000 0.000000
    21 -1.180681 -2.507217 -0.193859 -0.960196 -0.081516 -0.261329
    22 -0.024967 -1.123934 0.017597 -1.635831 0.000000 0.000001
    23 -0.020057 -0.890968 0.010090 -0.677870 0.000000 0.000000
    24 0.583510 -1.197277 0.185379 0.188028 -0.850416 -1.301860
    25 1.535927 0.010246 0.005009 -0.002964 -0.012979 -0.506650
    26 1.100771 0.004527 -0.010679 -0.016207 0.000369 -1.371740
    27 0.120153 -0.050270 -0.054489 0.287569 3.110905 1.561085
    28 0.619883 -11.168941 -12.505571 -1.868987 -5.263479 -1.218163
    29 0.096944 -8.450418 -0.009365 0.146791 -1.328380 0.242747
    30 0.447953 -2.798986 -0.200443 -1.127266 -0.048016 0.185408
    31 -0.032909 -1.480204 0.004940 -1.739492 0.000000 0.000002
    32 -0.027022 -1.076920 -0.020210 -0.060489 0.000000 0.000000
    33 -0.249534 -2.846964 -0.174213 -0.749792 -0.055002 0.096913
    34 0.043235 -1.683941 0.096012 -1.901441 0.002823 -0.000167
    35 0.031729 -1.160830 0.058838 -0.355262 0.000642 0.008372
    36 -0.963866 -2.785145 -0.085350 -0.089607 0.106308 0.015262
    37 0.028479 -1.403067 0.006271 -1.682399 0.000000 0.000000
    38 0.021413 -0.957781 0.020046 -0.738188 0.000000 0.000000
    39 1.164475 -2.543940 -0.170330 -1.523254 -0.190582 0.231608
    40 0.024032 -1.129042 0.017807 -1.225022 0.000000 0.000001
    41 0.014898 -0.883989 -0.019848 -0.316775 0.000000 0.000000
    42 -0.586770 -1.264477 0.200161 0.172354 -0.158106 -2.744325
    43 1.522835 0.058681 0.016848 0.001410 0.008985 0.812634
    44 1.117947 0.048424 -0.005766 0.005054 -0.024155 -0.153264
    45 -0.139399 -0.111698 0.014397 1.203062 0.226005 1.577116
    46 -1.393470 8.839177 -0.239433 1.580804 -0.005023 -1.566847
  time 20
    0 -0.999768 -1.867275 2.937151 0.000000 0.000000 0.000000
    1 8.542158 0.763605 -8.544281 -0.325232 -1.610923 0.129417
    2 -0.071918 -8.498730 -0.104137 0.148990 0.253243 0.030763
    3 2.326608 -5.978026 1.161003 0.229329 0.050133 -1.560828
    4 8.068350 -0.889454 0.636832 -0.021504 -0.493384 -1.417010
    5 -1.093079 -1.020534 0.000000 0.000000 0.000000 -1.530636
    6 0.332523 0.688256 1.169537 0.022009 -0.000471 -1.540567
    7 -3.883944 0.696199 1.094116 0.000000 0.000000 1.570796
    8 -2.125080 1.560641 0.000000 0.000000 0.000000 1.570796
    9 0.000000 0.000000 0.000000 0.000000 0.000000 0.000000
    10 2.303347 -0.775169 0.632548 3.141592 -1.570796 0.000000
    11 1.257180 8.762585 -0.153713 -1.570562 0.002683 -1.566807
    12 -0.488518 -2.755602 -0.228260 -1.046804 -0.202562 -0.209541
    13 0.039887 -1.479790 0.029854 -1.943778 0.000000 0.000001
    14 0.028786 -1.075731 -0.023109 -0.173679 0.000000 0.000000
    15 0.250027 -2.820665 -0.238396 -0.797118 -0.167517 -0.114938
    16 -0.049759 -1.680544 0.100479 -1.774062 0.000000 -0.000002
    17 -0.034142 -1.148312 0.084782 -0.925906 0.000000 0.000000
    18 0.957766 -2.746780 -0.090302 -0.139536 -0.162277 0.053939
    19 -0.033420 -1.397129 -0.011257 -0.521004 0.000000 -0.000001
    20 -0.022360 -0.957436 0.018784 -0.975475 0.000000 0.000000
    21 -1.180681 -2.507217 -0.193859 -0.960196 -0.081516 -0.261329
    22 -0.024967 -1.123934 0.017597 -1.635831 0.000000 0.000001
    23 -0.020057 -0.890968 0.010090 -0.677870 0.000000 0.000000
    24 0.583510 -1.197277 0.185379 0.188028 -0.850416 -1.301889
    25 1.535927 0.010246 0.005009 -0.002964 -0.012979 -0.506650
    26 1.100771 0.004527 -0.010679 -0.016207 0.000369 -1.371740
    27 0.120153 -0.050270 -0.054489 0.287569 3.110905 1.561085
    28 0.604258 -11.153316 -12.478227 -1.878501 -5.265868 -1.226189
    29 0.096944 -8.450418 -0.009365 0.146791 -1.328380 0.242747
    30 0.447953 -2.798986 -0.200443 -1.127266 -0.048016 0.185408
    31 -0.032909 -1.480204 0.004940 -1.739492 0.000000 0.000002
    32 -0.027022 -1.076920 -0.020210 -0.060489 0.000000 0.000000
    33 -0.249534 -2.846964 -0.174213 -0.749792 -0.055002 0.096913
    34 0.043235 -1.683941 0.096012 -1.901441 0.002823 -0.000167
    35 0.031729 -1.160830 0.058838 -0.355262 0.000642 0.008372
    36 -0.963866 -2.785145 -0.085350 -0.089607 0.106308 0.015262
    37 0.028479 -1.403067 0.006271 -1.682399 0.000000 0.000000
    38 0.021413 -0.957781 0.020046 -0.738188 0.000000 0.000000
    39 1.164475 -2.543940 -0.170330 -1.523254 -0.190582 0.231608
    40 0.024032 -1.129042 0.017807 -1.225022 0.000000 0.000001
    41 0.014898 -0.883989 -0.019848 -0.316775 0.000000 0.000000
    42 -0.586770 -1.264477 0.200161 0.172354 -0.158106 -2.744325
    43 1.522835 0.058681 0.016848 0.001410 0.008985 0.812634
    44 1.117947 0.048424 -0.005766 0.005054 -0.024155 -0.153264
    45 -0.139399 -0.111698 0.014397 1.203062 0.226005 1.577116
    46 -1.393470 8.839177 -0.239433 1.580804 -0.005023 -1.566847
  time 21
    0 -0.999768 -1.867275 2.937151 0.000000 0.000000 0.000000
    1 8.542158 0.787043 -8.579438 -0.235509 -1.612126 0.039791
    2 -0.071918 -8.498730 -0.104137 0.149145 0.256984 0.031341
    3 2.326608 -5.978026 1.161003 0.229329 0.050133 -1.560828
    4 8.068350 -0.889454 0.636832 -0.006225 -0.399860 -1.455456
    5 -1.093079 -1.020534 0.000000 0.000000 0.000000 -1.535758
    6 0.332523 0.688256 1.169537 0.025369 0.001725 -1.538748
    7 -3.883944 0.696199 1.094116 0.000000 0.000000 1.570796
    8 -2.125080 1.560641 0.000000 0.000000 0.000000 1.570796
    9 0.000000 0.000000 0.000000 0.000000 0.000000 0.000000
    10 2.303347 -0.775169 0.632548 3.141592 -1.570796 0.000000
    11 1.257180 8.762585 -0.153713 -1.570562 0.002683 -1.566807
    12 -0.488518 -2.755602 -0.228260 -1.046804 -0.202562 -0.209541
    13 0.039887 -1.479790 0.029854 -1.943778 0.000000 0.000001
    14 0.028786 -1.075731 -0.023109 -0.173679 0.000000 0.000000
    15 0.250027 -2.820665 -0.238396 -0.797118 -0.167517 -0.114938
    16 -0.049759 -1.680544 0.100479 -1.774062 0.000000 -0.000002
    17 -0.034142 -1.148312 0.084782 -0.925879 0.000000 0.000000
    18 0.957766 -2.746780 -0.090302 -0.139536 -0.162277 0.053939
    19 -0.033420 -1.397129 -0.011257 -0.521004 0.000000 -0.000001
    20 -0.022360 -0.957436 0.018784 -0.975475 0.000000 0.000000
    21 -1.180681 -2.507217 -0.193859 -0.960196 -0.081516 -0.261329
    22 -0.024967 -1.123934 0.017597 -1.635831 0.000000 0.000001
    23 -0.020057 -0.890968 0.010090 -0.677870 0.000000 0.000000
    24 0.583510 -1.197277 0.185379 0.188028 -0.850416 -1.301860
    25 1.535927 0.010246 0.005009 -0.002964 -0.012979 -0.506650
    26 1.100771 0.004527 -0.010679 -0.016207 0.000369 -1.371740
    27 0.120153 -0.050270 -0.054489 0.287569 3.110905 1.561085
    28 0.596445 -11.137690 -12.458695 -1.884755 -5.268257 -1.231445
    29 0.096944 -8.450418 -0.009365 0.146791 -1.328380 0.242747
    30 0.447953 -2.798986 -0.200443 -1.127266 -0.048016 0.185408
    31 -0.032909 -1.480204 0.004940 -1.739492 0.000000 0.000002
    32 -0.027022 -1.076920 -0.020210 -0.060489 0.000000 0.000000
    33 -0.249534 -2.846964 -0.174213 -0.749792 -0.055002 0.096913
    34 0.043235 -1.683941 0.096012 -1.901441 0.002823 -0.000167
    35 0.031729 -1.160830 0.058838 -0.355262 0.000642 0.008372
    36 -0.963866 -2.785145 -0.085350 -0.089607 0.106308 0.015262
    37 0.028479 -1.403067 0.006271 -1.682399 0.000000 0.000000
    38 0.021413 -0.957781 0.020046 -0.738188 0.000000 0.000000
    39 1.164475 -2.543940 -0.170330 -1.523254 -0.190582 0.231608
    40 0.024032 -1.129042 0.017807 -1.225022 0.000000 0.000001
    41 0.014898 -0.883989 -0.019848 -0.316775 0.000000 0.000000
    42 -0.586770 -1.264477 0.200161 0.172354 -0.158106 -2.744325
    43 1.522835 0.058681 0.016848 0.001410 0.008985 0.812634
    44 1.117947 0.048424 -0.005766 0.005054 -0.024155 -0.153264
    45 -0.139399 -0.111698 0.014397 1.203062 0.226005 1.577116
    46 -1.393470 8.839177 -0.239433 1.580804 -0.005023 -1.566847
  time 22
    0 -0.999768 -1.867275 2.937151 0.000000 0.000000 0.000000
    1 8.542158 0.806575 -8.602877 -0.173727 -1.613145 -0.021939
    2 -0.071918 -8.498730 -0.104137 0.149223 0.259036 0.031667
    3 2.326608 -5.978026 1.161003 0.229329 0.050133 -1.560828
    4 8.068350 -0.889454 0.636832 0.001603 -0.258192 -1.503970
    5 -1.093079 -1.020534 0.000000 0.000000 0.000000 -1.541139
    6 0.332523 0.688256 1.169537 0.024181 -0.029799 -1.538546
    7 -3.883944 0.696199 1.094116 0.000000 0.000000 1.570796
    8 -2.125080 1.560641 0.000000 0.000000 0.000000 1.570796
    9 0.000000 0.000000 0.000000 0.000000 0.000000 0.000000
    10 2.303347 -0.775169 0.632548 3.141592 -1.570796 0.000000
    11 1.257180 8.762585 -0.153713 -1.570562 0.002683 -1.566807
    12 -0.488518 -2.755602 -0.228260 -1.046804 -0.202562 -0.209541
    13 0.039887 -1.479790 0.029854 -1.943778 0.000000 0.000001
    14 0.028786 -1.075731 -0.023109 -0.173679 0.000000 0.000000
    15 0.250027 -2.820665 -0.238396 -0.797118 -0.167517 -0.114938
    16 -0.049759 -1.680544 0.100479 -1.774062 0.000000 -0.000002
    17 -0.034142 -1.148312 0.084782 -0.925906 0.000000 0.000000
    18 0.957766 -2.746780 -0.090302 -0.139536 -0.162277 0.053939
    19 -0.033420 -1.397129 -0.011257 -0.521004 0.000000 -0.000001
    20 -0.022360 -0.957436 0.018784 -0.975475 0.000000 0.000000
    21 -1.180681 -2.507217 -0.193859 -0.960196 -0.081516 -0.261329
    22 -0.024967 -1.123934 0.017597 -1.635831 0.000000 0.000001
    23 -0.020057 -0.890968 0.010090 -0.677870 0.000000 0.000000
    24 0.583510 -1.197277 0.185379 0.188028 -0.850416 -1.301860
    25 1.535927 0.010246 0.005009 -0.002964 -0.012979 -0.506650
    26 1.100771 0.004527 -0.010679 -0.016207 0.000369 -1.371740
    27 0.120153 -0.050270 -0.054489 0.287569 3.110905 1.561085
    28 0.592539 -11.133784 -12.450882 -1.888015 -5.270212 -1.234312
    29 0.096944 -8.450418 -0.009365 0.146791 -1.328380 0.242747
    30 0.447953 -2.798986 -0.200443 -1.127266 -0.048016 0.185408
    31 -0.032909 -1.480204 0.004940 -1.739492 0.000000 0.000002
    32 -0.027022 -1.076920 -0.020210 -0.060489 0.000000 0.000000
    33 -0.249534 -2.846964 -0.174213 -0.749792 -0.055002 0.096913
    34 0.043235 -1.683941 0.096012 -1.901441 0.002823 -0.000167
    35 0.031729 -1.160830 0.058838 -0.355262 0.000642 0.008372
    36 -0.963866 -2.785145 -0.085350 -0.089607 0.106308 0.015262
    37 0.028479 -1.403067 0.006271 -1.682399 0.000000 0.000000
    38 0.021413 -0.957781 0.020046 -0.738188 0.000000 0.000000
    39 1.164475 -2.543940 -0.170330 -1.523254 -0.190582 0.231608
    40 0.024032 -1.129042 0.017807 -1.225022 0.000000 0.000001
    41 0.014898 -0.883989 -0.019848 -0.316775 0.000000 0.000000
    42 -0.586770 -1.264477 0.200161 0.172354 -0.158106 -2.744325
    43 1.522835 0.058681 0.016848 0.001410 0.008985 0.812634
    44 1.117947 0.048424 -0.005766 0.005054 -0.024155 -0.153264
    45 -0.139399 -0.111698 0.014397 1.203062 0.226005 1.577116
    46 -1.393470 8.839177 -0.239433 1.580804 -0.005023 -1.566847
  time 23
    0 -0.999768 -1.867275 2.937151 0.000000 0.000000 0.000000
    1 8.542158 0.810481 -8.614596 -0.138685 -1.613839 -0.057042
    2 -0.071918 -8.498730 -0.104137 0.149262 0.260122 0.031830
    3 2.326608 -5.978026 1.161003 0.229329 0.050133 -1.560828
    4 8.068350 -0.889454 0.636832 0.000000 -0.102149 -1.553251
    5 -1.093079 -1.020534 0.000000 0.000000 0.000000 -1.546579
    6 0.332523 0.688256 1.169537 0.023402 -0.050345 -1.539112
    7 -3.883944 0.696199 1.094116 0.000000 0.000000 1.570796
    8 -2.125080 1.560641 0.000000 0.000000 0.000000 1.570796
    9 0.000000 0.000000 0.000000 0.000000 0.000000 0.000000
    10 2.303347 -0.775169 0.632548 3.141592 -1.570796 0.000000
    11 1.257180 8.762585 -0.153713 -1.570562 0.002683 -1.566807
    12 -0.488518 -2.755602 -0.228260 -1.046804 -0.202562 -0.209541
    13 0.039887 -1.479790 0.029854 -1.943778 0.000000 0.000001
    14 0.028786 -1.075731 -0.023109 -0.173679 0.000000 0.000000
    15 0.250027 -2.820665 -0.238396 -0.797118 -0.167517 -0.114938
    16 -0.049759 -1.680544 0.100479 -1.774062 0.000000 -0.000002
    17 -0.034142 -1.148312 0.084782 -0.925906 0.000000 0.000000
    18 0.957766 -2.746780 -0.090302 -0.139536 -0.162277 0.053939
    19 -0.033420 -1.397129 -0.011257 -0.521004 0.000000 -0.000001
    20 -0.022360 -0.957436 0.018784 -0.975475 0.000000 0.000000
    21 -1.180681 -2.507217 -0.193859 -0.960196 -0.081516 -0.261329
    22 -0.024967 -1.123934 0.017597 -1.635831 0.000000 0.000001
    23 -0.020057 -0.890968 0.010090 -0.677870 0.000000 0.000000
    24 0.583510 -1.197277 0.185379 0.188028 -0.850416 -1.301860
    25 1.535927 0.010246 0.005009 -0.002964 -0.012979 -0.506650
    26 1.100771 0.004527 -0.010679 -0.016207 0.000369 -1.371740
    27 0.120153 -0.050270 -0.054489 0.287569 3.110905 1.561085
    28 0.588632 -11.129877 -12.443069 -1.889745 -5.271442 -1.235745
    29 0.096944 -8.450418 -0.009365 0.146791 -1.328380 0.242747
    30 0.447953 -2.798986 -0.200443 -1.127266 -0.048016 0.185408
    31 -0.032909 -1.480204 0.004940 -1.739492 0.000000 0.000002
    32 -0.027022 -1.076920 -0.020210 -0.060489 0.000000 0.000000
    33 -0.249534 -2.846964 -0.174213 -0.749792 -0.055002 0.096913
    34 0.043235 -1.683941 0.096012 -1.901441 0.002823 -0.000167
    35 0.031729 -1.160830 0.058838 -0.355262 0.000642 0.008372
    36 -0.963866 -2.785145 -0.085350 -0.089607 0.106308 0.015262
    37 0.028479 -1.403067 0.006271 -1.682399 0.000000 0.000000
    38 0.021413 -0.957781 0.020046 -0.738188 0.000000 0.000000
    39 1.164475 -2.543940 -0.170330 -1.523254 -0.190582 0.231608
    40 0.024032 -1.129042 0.017807 -1.225022 0.000000 0.000001
    41 0.014898 -0.883989 -0.019848 -0.316775 0.000000 0.000000
    42 -0.586770 -1.264477 0.200161 0.172354 -0.158106 -2.744325
    43 1.522835 0.058681 0.016848 0.001410 0.008985 0.812634
    44 1.117947 0.048424 -0.005766 0.005054 -0.024155 -0.153264
    45 -0.139399 -0.111698 0.014397 1.203062 0.226005 1.577116
    46 -1.393470 8.839177 -0.239433 1.580804 -0.005023 -1.566847
  time 24
    0 -0.999768 -1.867275 2.937151 0.000000 0.000000 0.000000
    1 8.542158 0.810481 -8.622409 -0.122538 -1.614163 -0.073192
    2 -0.071918 -8.498730 -0.104137 0.149281 0.260457 0.031880
    3 2.326608 -5.978026 1.161003 0.229329 0.050133 -1.560828
    4 8.068350 -0.889454 0.636832 -0.008111 0.034219 -1.595532
    5 -1.093079 -1.020534 0.000000 0.000000 0.000000 -1.551888
    6 0.332523 0.688256 1.169537 0.025533 -0.043915 -1.539637
    7 -3.883944 0.696199 1.094116 0.000000 0.000000 1.570796
    8 -2.125080 1.560641 0.000000 0.000000 0.000000 1.570796
    9 0.000000 0.000000 0.000000 0.000000 0.000000 0.000000
    10 2.303347 -0.775169 0.632548 3.141592 -1.570796 0.000000
    11 1.257180 8.762585 -0.153713 -1.570562 0.002683 -1.566807
    12 -0.488518 -2.755602 -0.228260 -1.046804 -0.202562 -0.209541
    13 0.039887 -1.479790 0.029854 -1.943778 0.000000 0.000001
    14 0.028786 -1.075731 -0.023109 -0.173679 0.000000 0.000000
    15 0.250027 -2.820665 -0.238396 -0.797118 -0.167517 -0.114938
    16 -0.049759 -1.680544 0.100479 -1.774062 0.000000 -0.000002
    17 -0.034142 -1.148312 0.084782 -0.925879 0.000000 0.000000
    18 0.957766 -2.746780 -0.090302 -0.139536 -0.162277 0.053939
    19 -0.033420 -1.397129 -0.011257 -0.521004 0.000000 -0.000001
    20 -0.022360 -0.957436 0.018784 -0.975475 0.000000 0.000000
    21 -1.180681 -2.507217 -0.193859 -0.960196 -0.081516 -0.261329
    22 -0.024967 -1.123934 0.017597 -1.635831 0.000000 0.000001
    23 -0.020057 -0.890968 0.010090 -0.677870 0.000000 0.000000
    24 0.583510 -1.197277 0.185379 0.188028 -0.850416 -1.301860
    25 1.535927 0.010246 0.005009 -0.002964 -0.012979 -0.506650
    26 1.100771 0.004527 -0.010679 -0.016207 0.000369 -1.371740
    27 0.120153 -0.050270 -0.054489 0.287569 3.110905 1.561085
    28 0.588632 -11.133784 -12.443069 -1.890277 -5.272094 -1.236223
    29 0.096944 -8.450418 -0.009365 0.146791 -1.328380 0.242747
    30 0.447953 -2.798986 -0.200443 -1.127266 -0.048016 0.185408
    31 -0.032909 -1.480204 0.004940 -1.739492 0.000000 0.000002
    32 -0.027022 -1.076920 -0.020210 -0.060489 0.000000 0.000000
    33 -0.249534 -2.846964 -0.174213 -0.749792 -0.055002 0.096913
    34 0.043235 -1.683941 0.096012 -1.901441 0.002823 -0.000167
    35 0.031729 -1.160830 0.058838 -0.355262 0.000642 0.008372
    36 -0.963866 -2.785145 -0.085350 -0.089607 0.106308 0.015262
    37 0.028479 -1.403067 0.006271 -1.682399 0.000000 0.000000
    38 0.021413 -0.957781 0.020046 -0.738188 0.000000 0.000000
    39 1.164475 -2.543940 -0.170330 -1.523254 -0.190582 0.231608
    40 0.024032 -1.129042 0.017807 -1.225022 0.000000 0.000001
    41 0.014898 -0.883989 -0.019848 -0.316775 0.000000 0.000000
    42 -0.586770 -1.264477 0.200161 0.172354 -0.158106 -2.744325
    43 1.522835 0.058681 0.016848 0.001410 0.008985 0.812634
    44 1.117947 0.048424 -0.005766 0.005054 -0.024155 -0.153264
    45 -0.139399 -0.111698 0.014397 1.203062 0.226005 1.577116
    46 -1.393470 8.839177 -0.239433 1.580804 -0.005023 -1.566847
  time 25
    0 -0.999768 -1.867275 2.937151 0.000000 0.000000 0.000000
    1 8.542158 0.802669 -8.626315 -0.120363 -1.614163 -0.075328
    2 -0.071918 -8.498730 -0.104137 0.149281 0.260189 0.031843
    3 2.326608 -5.978026 1.161003 0.229329 0.050133 -1.560828
    4 8.068350 -0.889454 0.636832 -0.014808 0.117652 -1.621994
    5 -1.093079 -1.020534 0.000000 0.000000 0.000000 -1.556893
    6 0.332523 0.688256 1.169537 0.028484 -0.029015 -1.540365
    7 -3.883944 0.696199 1.094116 0.000000 0.000000 1.570796
    8 -2.125080 1.560641 0.000000 0.000000 0.000000 1.570796
    9 0.000000 0.000000 0.000000 0.000000 0.000000 0.000000
    10 2.303347 -0.775169 0.632548 3.141592 -1.570796 0.000000
    11 1.257180 8.762585 -0.153713 -1.570562 0.002683 -1.566807
    12 -0.488518 -2.755602 -0.228260 -1.046804 -0.202562 -0.209541
    13 0.039887 -1.479790 0.029854 -1.943778 0.000000 0.000001
    14 0.028786 -1.075731 -0.023109 -0.173679 0.000000 0.000000
    15 0.250027 -2.820665 -0.238396 -0.797118 -0.167517 -0.114938
    16 -0.049759 -1.680544 0.100479 -1.774062 0.000000 -0.000002
    17 -0.034142 -1.148312 0.084782 -0.925906 0.000000 0.000000
    18 0.957766 -2.746780 -0.090302 -0.139536 -0.162277 0.053939
    19 -0.033420 -1.397129 -0.011257 -0.521004 0.000000 -0.000001
    20 -0.022360 -0.957436 0.018784 -0.975475 0.000000 0.000000
    21 -1.180681 -2.507217 -0.193859 -0.960196 -0.081516 -0.261329
    22 -0.024967 -1.123934 0.017597 -1.635831 0.000000 0.000001
    23 -0.020057 -0.890968 0.010090 -0.677870 0.000000 0.000000
    24 0.583510 -1.197277 0.185379 0.188028 -0.850416 -1.301860
    25 1.535927 0.010246 0.005009 -0.002964 -0.012979 -0.506650
    26 1.100771 0.004527 -0.010679 -0.016207 0.000369 -1.371740
    27 0.120153 -0.050270 -0.054489 0.287569 3.110905 1.561085
    28 0.588632 -11.145503 -12.446976 -1.889878 -5.272311 -1.235840
    29 0.096944 -8.450418 -0.009365 0.146791 -1.328380 0.242747
    30 0.447953 -2.798986 -0.200443 -1.127266 -0.048016 0.185408
    31 -0.032909 -1.480204 0.004940 -1.739492 0.000000 0.000002
    32 -0.027022 -1.076920 -0.020210 -0.060489 0.000000 0.000000
    33 -0.249534 -2.846964 -0.174213 -0.749792 -0.055002 0.096913
    34 0.043235 -1.683941 0.096012 -1.901441 0.002823 -0.000167
    35 0.031729 -1.160830 0.058838 -0.355262 0.000642 0.008372
    36 -0.963866 -2.785145 -0.085350 -0.089607 0.106308 0.015262
    37 0.028479 -1.403067 0.006271 -1.682399 0.000000 0.000000
    38 0.021413 -0.957781 0.020046 -0.738188 0.000000 0.000000
    39 1.164475 -2.543940 -0.170330 -1.523254 -0.190582 0.231608
    40 0.024032 -1.129042 0.017807 -1.225022 0.000000 0.000001
    41 0.014898 -0.883989 -0.019848 -0.316775 0.000000 0.000000
    42 -0.586770 -1.264477 0.200161 0.172354 -0.158106 -2.744325
    43 1.522835 0.058681 0.016848 0.001410 0.008985 0.812634
    44 1.117947 0.048424 -0.005766 0.005054 -0.024155 -0.153264
    45 -0.139399 -0.111698 0.014397 1.203062 0.226005 1.577116
    46 -1.393470 8.839177 -0.239433 1.580804 -0.005023 -1.566847
  time 26
    0 -0.999768 -1.867275 2.937151 0.000000 0.000000 0.000000
    1 8.542158 0.787043 -8.626315 -0.127921 -1.613932 -0.067787
    2 -0.071918 -8.498730 -0.104137 0.149242 0.259546 0.031742
    3 2.326608 -5.978026 1.161003 0.229329 0.050133 -1.560828
    4 8.068350 -0.889454 0.636832 -0.015279 0.138623 -1.627555
    5 -1.093079 -1.020534 0.000000 0.000000 0.000000 -1.561407
    6 0.332523 0.688256 1.169537 0.030329 -0.012312 -1.541941
    7 -3.883944 0.696199 1.094116 0.000000 0.000000 1.570796
    8 -2.125080 1.560641 0.000000 0.000000 0.000000 1.570796
    9 0.000000 0.000000 0.000000 0.000000 0.000000 0.000000
    10 2.303347 -0.775169 0.632548 3.141592 -1.570796 0.000000
    11 1.257180 8.762585 -0.153713 -1.570562 0.002683 -1.566807
    12 -0.488518 -2.755602 -0.228260 -1.046804 -0.202562 -0.209541
    13 0.039887 -1.479790 0.029854 -1.943778 0.000000 0.000001
    14 0.028786 -1.075731 -0.023109 -0.173679 0.000000 0.000000
    15 0.250027 -2.820665 -0.238396 -0.797118 -0.167517 -0.114938
    16 -0.049759 -1.680544 0.100479 -1.774062 0.000000 -0.000002
    17 -0.034142 -1.148312 0.084782 -0.925906 0.000000 0.000000
    18 0.957766 -2.746780 -0.090302 -0.139536 -0.162277 0.053939
    19 -0.033420 -1.397129 -0.011257 -0.521004 0.000000 -0.000001
    20 -0.022360 -0.957436 0.018784 -0.975475 0.000000 0.000000
    21 -1.180681 -2.507217 -0.193859 -0.960196 -0.081516 -0.261329
    22 -0.024967 -1.123934 0.017597 -1.635831 0.000000 0.000001
    23 -0.020057 -0.890968 0.010090 -0.677870 0.000000 0.000000
    24 0.583510 -1.197277 0.185379 0.188028 -0.850416 -1.301860
    25 1.535927 0.010246 0.005009 -0.002964 -0.012979 -0.506650
    26 1.100771 0.004527 -0.010679 -0.016207 0.000369 -1.371740
    27 0.120153 -0.050270 -0.054489 0.287569 3.110905 1.561085
    28 0.592539 -11.157222 -12.450882 -1.888947 -5.272166 -1.235076
    29 0.096944 -8.450418 -0.009365 0.146791 -1.328380 0.242747
    30 0.447953 -2.798986 -0.200443 -1.127266 -0.048016 0.185408
    31 -0.032909 -1.480204 0.004940 -1.739492 0.000000 0.000002
    32 -0.027022 -1.076920 -0.020210 -0.060489 0.000000 0.000000
    33 -0.249534 -2.846964 -0.174213 -0.749792 -0.055002 0.096913
    34 0.043235 -1.683941 0.096012 -1.901441 0.002823 -0.000167
    35 0.031729 -1.160830 0.058838 -0.355262 0.000642 0.008372
    36 -0.963866 -2.785145 -0.085350 -0.089607 0.106308 0.015262
    37 0.028479 -1.403067 0.006271 -1.682399 0.000000 0.000000
    38 0.021413 -0.957781 0.020046 -0.738188 0.000000 0.000000
    39 1.164475 -2.543940 -0.170330 -1.523254 -0.190582 0.231608
    40 0.024032 -1.129042 0.017807 -1.225022 0.000000 0.000001
    41 0.014898 -0.883989 -0.019848 -0.316775 0.000000 0.000000
    42 -0.586770 -1.264477 0.200161 0.172354 -0.158106 -2.744325
    43 1.522835 0.058681 0.016848 0.001410 0.008985 0.812634
    44 1.117947 0.048424 -0.005766 0.005054 -0.024155 -0.153264
    45 -0.139399 -0.111698 0.014397 1.203062 0.226005 1.577116
    46 -1.393470 8.839177 -0.239433 1.580804 -0.005023 -1.566847
  time 27
    0 -0.999768 -1.867275 2.937151 0.000000 0.000000 0.000000
    1 8.542158 0.767511 -8.622409 -0.141205 -1.613561 -0.054439
    2 -0.071918 -8.498730 -0.104137 0.149203 0.258714 0.031617
    3 2.326608 -5.978026 1.161003 0.229329 0.050133 -1.560828
    4 8.068350 -0.889454 0.636832 -0.012167 0.120753 -1.619118
    5 -1.093079 -1.020534 0.000000 0.000000 0.000000 -1.565241
    6 0.332523 0.688256 1.169537 0.029140 -0.000392 -1.545295
    7 -3.883944 0.696199 1.094116 0.000000 0.000000 1.570796
    8 -2.125080 1.560641 0.000000 0.000000 0.000000 1.570796
    9 0.000000 0.000000 0.000000 0.000000 0.000000 0.000000
    10 2.303347 -0.775169 0.632548 3.141592 -1.570796 0.000000
    11 1.257180 8.762585 -0.153713 -1.570562 0.002683 -1.566807
    12 -0.488518 -2.755602 -0.228260 -1.046804 -0.202562 -0.209541
    13 0.039887 -1.479790 0.029854 -1.943778 0.000000 0.000001
    14 0.028786 -1.075731 -0.023109 -0.173679 0.000000 0.000000
    15 0.250027 -2.820665 -0.238396 -0.797118 -0.167517 -0.114938
    16 -0.049759 -1.680544 0.100479 -1.774062 0.000000 -0.000002
    17 -0.034142 -1.148312 0.084782 -0.925906 0.000000 0.000000
    18 0.957766 -2.746780 -0.090302 -0.139536 -0.162277 0.053939
    19 -0.033420 -1.397129 -0.011257 -0.521004 0.000000 -0.000001
    20 -0.022360 -0.957436 0.018784 -0.975475 0.000000 0.000000
    21 -1.180681 -2.507217 -0.193859 -0.960196 -0.081516 -0.261329
    22 -0.024967 -1.123934 0.017597 -1.635831 0.000000 0.000001
    23 -0.020057 -0.890968 0.010090 -0.677870 0.000000 0.000000
    24 0.583510 -1.197277 0.185379 0.188028 -0.850416 -1.301860
    25 1.535927 0.010246 0.005009 -0.002964 -0.012979 -0.506650
    26 1.100771 0.004527 -0.010679 -0.016207 0.000369 -1.371740
    27 0.120153 -0.050270 -0.054489 0.287569 3.110905 1.561085
    28 0.592539 -11.176754 -12.458695 -1.887683 -5.271804 -1.234025
    29 0.096944 -8.450418 -0.009365 0.146791 -1.328380 0.242747
    30 0.447953 -2.798986 -0.200443 -1.127266 -0.048016 0.185408
    31 -0.032909 -1.480204 0.004940 -1.739492 0.000000 0.000002
    32 -0.027022 -1.076920 -0.020210 -0.060489 0.000000 0.000000
    33 -0.249534 -2.846964 -0.174213 -0.749792 -0.055002 0.096913
    34 0.043235 -1.683941 0.096012 -1.901441 0.002823 -0.000167
    35 0.031729 -1.160830 0.058838 -0.355262 0.000642 0.008372
    36 -0.963866 -2.785145 -0.085350 -0.089607 0.106308 0.015262
    37 0.028479 -1.403067 0.006271 -1.682399 0.000000 0.000000
    38 0.021413 -0.957781 0.020046 -0.738188 0.000000 0.000000
    39 1.164475 -2.543940 -0.170330 -1.523254 -0.190582 0.231608
    40 0.024032 -1.129042 0.017807 -1.225022 0.000000 0.000001
    41 0.014898 -0.883989 -0.019848 -0.316775 0.000000 0.000000
    42 -0.586770 -1.264477 0.200161 0.172354 -0.158106 -2.744325
    43 1.522835 0.058681 0.016848 0.001410 0.008985 0.812634
    44 1.117947 0.048424 -0.005766 0.005054 -0.024155 -0.153264
    45 -0.139399 -0.111698 0.014397 1.203062 0.226005 1.577116
    46 -1.393470 8.839177 -0.239433 1.580804 -0.005023 -1.566847
  time 28
    0 -0.999768 -1.867275 2.937151 0.000000 0.000000 0.000000
    1 8.542158 0.740167 -8.614596 -0.156149 -1.613145 -0.039557
    2 -0.071918 -8.498730 -0.104137 0.149184 0.257883 0.031479
    3 2.326608 -5.978026 1.161003 0.229329 0.050133 -1.560828
    4 8.068350 -0.889454 0.636832 -0.007357 0.080558 -1.602723
    5 -1.093079 -1.020534 0.000000 0.000000 0.000000 -1.568206
    6 0.332523 0.688256 1.169537 0.022214 0.002823 -1.552045
    7 -3.883944 0.696199 1.094116 0.000000 0.000000 1.570796
    8 -2.125080 1.560641 0.000000 0.000000 0.000000 1.570796
    9 0.000000 0.000000 0.000000 0.000000 0.000000 0.000000
    10 2.303347 -0.775169 0.632548 3.141592 -1.570796 0.000000
    11 1.257180 8.762585 -0.153713 -1.570562 0.002683 -1.566807
    12 -0.488518 -2.755602 -0.228260 -1.046804 -0.202562 -0.209541
    13 0.039887 -1.479790 0.029854 -1.943778 0.000000 0.000001
    14 0.028786 -1.075731 -0.023109 -0.173679 0.000000 0.000000
    15 0.250027 -2.820665 -0.238396 -0.797118 -0.167517 -0.114938
    16 -0.049759 -1.680544 0.100479 -1.774062 0.000000 -0.000002
    17 -0.034142 -1.148312 0.084782 -0.925906 0.000000 0.000000
    18 0.957766 -2.746780 -0.090302 -0.139536 -0.162277 0.053939
    19 -0.033420 -1.397129 -0.011257 -0.521004 0.000000 -0.000001
    20 -0.022360 -0.957436 0.018784 -0.975475 0.000000 0.000000
    21 -1.180681 -2.507217 -0.193859 -0.960196 -0.081516 -0.261329
    22 -0.024967 -1.123934 0.017597 -1.635831 0.000000 0.000001
    23 -0.020057 -0.890968 0.010090 -0.677870 0.000000 0.000000
    24 0.583510 -1.197277 0.185379 0.188028 -0.850416 -1.301860
    25 1.535927 0.010246 0.005009 -0.002964 -0.012979 -0.506650
    26 1.100771 0.004527 -0.010679 -0.016207 0.000369 -1.371740
    27 0.120153 -0.050270 -0.054489 0.287569 3.110905 1.561085
    28 0.596445 -11.200192 -12.462601 -1.886485 -5.271370 -1.232974
    29 0.096944 -8.450418 -0.009365 0.146791 -1.328380 0.242747
    30 0.447953 -2.798986 -0.200443 -1.127266 -0.048016 0.185408
    31 -0.032909 -1.480204 0.004940 -1.739492 0.000000 0.000002
    32 -0.027022 -1.076920 -0.020210 -0.060489 0.000000 0.000000
    33 -0.249534 -2.846964 -0.174213 -0.749792 -0.055002 0.096913
    34 0.043235 -1.683941 0.096012 -1.901441 0.002823 -0.000167
    35 0.031729 -1.160830 0.058838 -0.355262 0.000642 0.008372
    36 -0.963866 -2.785145 -0.085350 -0.089607 0.106308 0.015262
    37 0.028479 -1.403067 0.006271 -1.682399 0.000000 0.000000
    38 0.021413 -0.957781 0.020046 -0.738188 0.000000 0.000000
    39 1.164475 -2.543940 -0.170330 -1.523254 -0.190582 0.231608
    40 0.024032 -1.129042 0.017807 -1.225022 0.000000 0.000001
    41 0.014898 -0.883989 -0.019848 -0.316775 0.000000 0.000000
    42 -0.586770 -1.264477 0.200161 0.172354 -0.158106 -2.744325
    43 1.522835 0.058681 0.016848 0.001410 0.008985 0.812634
    44 1.117947 0.048424 -0.005766 0.005054 -0.024155 -0.153264
    45 -0.139399 -0.111698 0.014397 1.203062 0.226005 1.577116
    46 -1.393470 8.839177 -0.239433 1.580804 -0.005023 -1.566847
  time 29
    0 -0.999768 -1.867275 2.937151 0.000000 0.000000 0.000000
    1 8.542158 0.716729 -8.610689 -0.168459 -1.612821 -0.027211
    2 -0.071918 -8.498730 -0.104137 0.149145 0.257239 0.031378
    3 2.326608 -5.978026 1.161003 0.229329 0.050133 -1.560828
    4 8.068350 -0.889454 0.636832 -0.003018 0.034726 -1.584698
    5 -1.093079 -1.020534 0.000000 0.000000 0.000000 -1.570131
    6 0.332523 0.688256 1.169537 0.011107 0.001490 -1.561421
    7 -3.883944 0.696199 1.094116 0.000000 0.000000 1.570796
    8 -2.125080 1.560641 0.000000 0.000000 0.000000 1.570796
    9 0.000000 0.000000 0.000000 0.000000 0.000000 0.000000
    10 2.303347 -0.775169 0.632548 3.141592 -1.570796 0.000000
    11 1.257180 8.762585 -0.153713 -1.570562 0.002683 -1.566807
    12 -0.488518 -2.755602 -0.228260 -1.046804 -0.202562 -0.209541
    13 0.039887 -1.479790 0.029854 -1.943778 0.000000 0.000001
    14 0.028786 -1.075731 -0.023109 -0.173679 0.000000 0.000000
    15 0.250027 -2.820665 -0.238396 -0.797118 -0.167517 -0.114938
    16 -0.049759 -1.680544 0.100479 -1.774062 0.000000 -0.000002
    17 -0.034142 -1.148312 0.084782 -0.925879 0.000000 0.000000
    18 0.957766 -2.746780 -0.090302 -0.139536 -0.162277 0.053939
    19 -0.033420 -1.397129 -0.011257 -0.521004 0.000000 -0.000001
    20 -0.022360 -0.957436 0.018784 -0.975475 0.000000 0.000000
    21 -1.180681 -2.507217 -0.193859 -0.960196 -0.081516 -0.261329
    22 -0.024967 -1.123934 0.017597 -1.635831 0.000000 0.000001
    23 -0.020057 -0.890968 0.010090 -0.677870 0.000000 0.000000
    24 0.583510 -1.197277 0.185379 0.188028 -0.850416 -1.301860
    25 1.535927 0.010246 0.005009 -0.002964 -0.012979 -0.506650
    26 1.100771 0.004527 -0.010679 -0.016207 0.000369 -1.371740
    27 0.120153 -0.050270 -0.054489 0.287569 3.110905 1.561085
    28 0.596445 -11.223630 -12.462601 -1.885553 -5.271008 -1.232209
    29 0.096944 -8.450418 -0.009365 0.146791 -1.328380 0.242747
    30 0.447953 -2.798986 -0.200443 -1.127266 -0.048016 0.185408
    31 -0.032909 -1.480204 0.004940 -1.739492 0.000000 0.000002
    32 -0.027022 -1.076920 -0.020210 -0.060489 0.000000 0.000000
    33 -0.249534 -2.846964 -0.174213 -0.749792 -0.055002 0.096913
    34 0.043235 -1.683941 0.096012 -1.901441 0.002823 -0.000167
    35 0.031729 -1.160830 0.058838 -0.355262 0.000642 0.008372
    36 -0.963866 -2.785145 -0.085350 -0.089607 0.106308 0.015262
    37 0.028479 -1.403067 0.006271 -1.682399 0.000000 0.000000
    38 0.021413 -0.957781 0.020046 -0.738188 0.000000 0.000000
    39 1.164475 -2.543940 -0.170330 -1.523254 -0.190582 0.231608
    40 0.024032 -1.129042 0.017807 -1.225022 0.000000 0.000001
    41 0.014898 -0.883989 -0.019848 -0.316775 0.000000 0.000000
    42 -0.586770 -1.264477 0.200161 0.172354 -0.158106 -2.744325
    43 1.522835 0.058681 0.016848 0.001410 0.008985 0.812634
    44 1.117947 0.048424 -0.005766 0.005054 -0.024155 -0.153264
    45 -0.139399 -0.111698 0.014397 1.203062 0.226005 1.577116
    46 -1.393470 8.839177 -0.239433 1.580804 -0.005023 -1.566847
  time 30
    0 -0.999768 -1.867275 2.937151 0.000000 0.000000 0.000000
    1 8.542158 0.689384 -8.602877 -0.173613 -1.612728 -0.022073
    2 -0.071918 -8.498730 -0.104137 0.149145 0.256984 0.031341
    3 2.326608 -5.978026 1.161003 0.229329 0.050133 -1.560828
    4 8.068350 -0.889454 0.636832 0.000000 0.000000 -1.570796
    5 -1.093079 -1.020534 0.000000 0.000000 0.000000 -1.570796
    6 0.332523 0.688256 1.169537 0.000000 0.000000 -1.570797
    7 -3.883944 0.696199 1.094116 0.000000 0.000000 1.570796
    8 -2.125080 1.560641 0.000000 0.000000 0.000000 1.570796
    9 0.000000 0.000000 0.000000 0.000000 0.000000 0.000000
    10 2.303347 -0.775169 0.632548 3.141592 -1.570796 0.000000
    11 1.257180 8.762585 -0.153713 -1.570562 0.002683 -1.566807
    12 -0.488518 -2.755602 -0.228260 -1.046804 -0.202562 -0.209541
    13 0.039887 -1.479790 0.029854 -1.943778 0.000000 0.000001
    14 0.028786 -1.075731 -0.023109 -0.173679 0.000000 0.000000
    15 0.250027 -2.820665 -0.238396 -0.797118 -0.167517 -0.114938
    16 -0.049759 -1.680544 0.100479 -1.774062 0.000000 -0.000002
    17 -0.034142 -1.148312 0.084782 -0.925906 0.000000 0.000000
    18 0.957766 -2.746780 -0.090302 -0.139536 -0.162277 0.053939
    19 -0.033420 -1.397129 -0.011257 -0.521004 0.000000 -0.000001
    20 -0.022360 -0.957436 0.018784 -0.975475 0.000000 0.000000
    21 -1.180681 -2.507217 -0.193859 -0.960196 -0.081516 -0.261329
    22 -0.024967 -1.123934 0.017597 -1.635831 0.000000 0.000001
    23 -0.020057 -0.890968 0.010090 -0.677870 0.000000 0.000000
    24 0.583510 -1.197277 0.185379 0.188028 -0.850416 -1.301860
    25 1.535927 0.010246 0.005009 -0.002964 -0.012979 -0.506650
    26 1.100771 0.004527 -0.010679 -0.016207 0.000369 -1.371740
    27 0.120153 -0.050270 -0.054489 0.287569 3.110905 1.561085
    28 0.596445 -11.250975 -12.458695 -1.885221 -5.270863 -1.231923
    29 0.096944 -8.450418 -0.009365 0.146791 -1.328380 0.242747
    30 0.447953 -2.798986 -0.200443 -1.127266 -0.048016 0.185408
    31 -0.032909 -1.480204 0.004940 -1.739492 0.000000 0.000002
    32 -0.027022 -1.076920 -0.020210 -0.060489 0.000000 0.000000
    33 -0.249534 -2.846964 -0.174213 -0.749792 -0.055002 0.096913
    34 0.043235 -1.683941 0.096012 -1.901441 0.002823 -0.000167
    35 0.031729 -1.160830 0.058838 -0.355262 0.000642 0.008372
    36 -0.963866 -2.785145 -0.085350 -0.089607 0.106308 0.015262
    37 0.028479 -1.403067 0.006271 -1.682399 0.000000 0.000000
    38 0.021413 -0.957781 0.020046 -0.738188 0.000000 0.000000
    39 1.164475 -2.543940 -0.170330 -1.523254 -0.190582 0.231608
    40 0.024032 -1.129042 0.017807 -1.225022 0.000000 0.000001
    41 0.014898 -0.883989 -0.019848 -0.316775 0.000000 0.000000
    42 -0.586770 -1.264477 0.200161 0.172354 -0.158106 -2.744325
    43 1.522835 0.058681 0.016848 0.001410 0.008985 0.812634
    44 1.117947 0.048424 -0.005766 0.005054 -0.024155 -0.153264
    45 -0.139399 -0.111698 0.014397 1.203062 0.226005 1.577116
    46 -1.393470 8.839177 -0.239433 1.580804 -0.005023 -1.566847
end
