version 1
nodes
  0 "root" -1
  1 "Bone01" 0
  2 "Bone_Lefthand" 1
  3 "Bone_QBZ95B" 2
  4 "Bone_Bullet_Clip" 3
  5 "Bone_Trigger" 3
  6 "Bone_Bullet_Case" 3
  7 "Bone_Magazine" 3
  8 "Bone13" 2
  9 "Bone14" 8
  10 "Bone15" 9
  11 "Bone17" 2
  12 "Bone18" 11
  13 "Bone19" 12
  14 "Bone21" 2
  15 "Bone22" 14
  16 "Bone23" 15
  17 "Bone09" 2
  18 "Bone10" 17
  19 "Bone11" 18
  20 "Bone05" 2
  21 "Bone06" 20
  22 "Bone07" 21
  23 "Bone_Se_Hand-L" 2
  24 "Bone04" 0
  25 "Bone_Righthand" 24
  26 "Bone39" 25
  27 "Bone40" 26
  28 "Bone41" 27
  29 "Bone35" 25
  30 "Bone36" 29
  31 "Bone37" 30
  32 "Bone31" 25
  33 "Bone32" 32
  34 "Bone33" 33
  35 "Bone43" 25
  36 "Bone44" 35
  37 "Bone45" 36
  38 "Bone27" 25
  39 "Bone28" 38
  40 "Bone29" 39
  41 "Bone_Se_Hand-R" 25
end
skeleton
  time 0
    0 1.169504 6.625199 -11.954264 0.000000 0.000000 0.000000
    1 12.060553 -11.218767 -0.031940 0.750877 -2.386447 -1.389525
    2 -0.071919 -8.498731 -0.104136 0.178716 0.515882 -0.471973
    3 1.470883 -2.792118 0.726656 -0.351378 -0.026468 -3.279846
    4 -2.562689 2.867152 -0.000002 0.000001 0.000000 -3.141592
    5 -0.815617 2.114319 -0.000001 0.000001 0.000000 -0.501530
    6 -1.521637 -4.592964 0.466992 0.000001 0.000000 -3.141591
    7 0.704241 -4.909328 0.000002 0.000001 0.000000 0.000000
    8 -0.488517 -2.755600 -0.228261 -0.721249 -0.081949 -0.452612
    9 0.039887 -1.479789 0.029853 -1.744424 0.000000 0.000000
    10 0.028785 -1.075730 -0.023111 -1.070625 0.000000 0.000001
    11 0.125024 -3.051139 -0.574344 -0.799992 -0.047060 -0.393136
    12 -0.049759 -1.680545 0.100480 -1.558612 0.000000 -0.000002
    13 -0.034141 -1.148311 0.084779 -1.112872 0.000000 0.000000
    14 0.957766 -2.746777 -0.090301 0.273202 -0.158969 -0.144553
    15 -0.033419 -1.397127 -0.011255 -1.479635 0.000000 -0.000001
    16 -0.022360 -0.957435 0.018783 -0.774587 0.000000 0.000000
    17 -1.200212 -2.612687 -0.084483 -0.819559 0.107001 -0.434663
    18 -0.024966 -1.123933 0.017594 -1.746586 0.000000 0.000001
    19 -0.020057 -0.890966 0.010091 -0.424577 0.000000 0.000000
    20 0.583510 -1.197274 0.185377 0.041775 -0.932216 -0.526993
    21 1.535926 0.010245 0.005008 -0.115188 0.228163 -1.325298
    22 1.100770 0.004527 -0.010676 -0.031080 0.118321 -0.649584
    23 0.018586 -0.093236 -0.167773 3.423337 6.142846 -1.288278
    24 -1.626750 -18.431202 0.738590 -1.395424 -5.205778 -0.556276
    25 0.096944 -8.450418 -0.009364 0.061055 -0.883977 0.294306
    26 0.447952 -2.798983 -0.200442 -1.040226 -0.028328 0.435174
    27 -0.032910 -1.480207 0.004936 -1.052168 0.000000 0.000002
    28 -0.027022 -1.076920 -0.020212 -0.483247 0.000000 0.000000
    29 -0.249534 -2.846962 -0.174216 -1.105365 -0.017670 0.423979
    30 0.043235 -1.683940 0.096014 -0.977014 0.002823 -0.000167
    31 0.031730 -1.160831 0.058836 -0.525499 0.000642 0.008372
    32 -0.963866 -2.785142 -0.085346 -0.428823 0.161605 0.055456
    33 0.028479 -1.403069 0.006271 -1.244462 0.000000 0.000000
    34 0.021413 -0.957782 0.020047 -0.446120 0.000000 0.000000
    35 1.164475 -2.543938 -0.170328 -1.061121 -0.017417 0.527819
    36 0.024033 -1.129041 0.017806 -1.014840 0.000000 0.000001
    37 0.014896 -0.883990 -0.019845 -0.546132 0.000000 0.000000
    38 -0.500830 -1.428542 0.403295 0.207873 -0.490157 -2.998458
    39 1.522835 0.058681 0.016850 0.087666 -0.054420 0.786199
    40 1.117948 0.048424 -0.005764 -0.003862 -0.024910 0.210085
    41 -0.115961 -0.170293 -0.005135 0.576230 0.066071 1.373638
  time 1
    0 1.169504 9.539351 -11.954264 0.000000 0.000000 0.000000
    1 12.060553 -11.218767 0.077438 0.750877 -2.386447 -1.389525
    2 -0.071919 -8.498731 -0.104136 0.186182 0.523371 -0.501835
    3 1.470883 -2.792118 0.726656 -0.351378 -0.026468 -3.279846
    4 -2.562689 1.433514 -0.000002 0.000001 0.000000 -3.141592
    5 -0.815617 2.114319 -0.000001 0.000001 0.000000 -0.501530
    6 -1.521637 -4.592964 0.466992 0.000001 0.000000 -3.141591
    7 0.704241 -4.909328 0.000002 0.000001 0.000000 0.000000
    8 -0.488517 -2.755600 -0.228261 -0.721249 -0.081949 -0.452612
    9 0.039887 -1.479789 0.029853 -1.744424 0.000000 0.000000
    10 0.028785 -1.075730 -0.023111 -1.070625 0.000000 0.000001
    11 0.125024 -3.051139 -0.574344 -0.799992 -0.047048 -0.393136
    12 -0.049759 -1.680545 0.100480 -1.558612 0.000000 -0.000002
    13 -0.034141 -1.148311 0.084779 -1.112872 0.000000 0.000000
    14 0.957766 -2.746777 -0.090301 0.273202 -0.158969 -0.144553
    15 -0.033419 -1.397127 -0.011255 -1.479635 0.000000 -0.000001
    16 -0.022360 -0.957435 0.018783 -0.774587 0.000000 0.000000
    17 -1.200212 -2.612687 -0.084483 -0.819559 0.107001 -0.434663
    18 -0.024966 -1.123933 0.017594 -1.746586 0.000000 0.000001
    19 -0.020057 -0.890966 0.010091 -0.424577 0.000000 0.000000
    20 0.583510 -1.197274 0.185377 0.041775 -0.932216 -0.526993
    21 1.535926 0.010245 0.005008 -0.115188 0.228163 -1.325298
    22 1.100770 0.004527 -0.010676 -0.031080 0.118321 -0.649584
    23 0.018586 -0.093236 -0.167773 3.423337 6.142846 -1.288278
    24 -1.404087 -18.431202 0.683901 -1.395424 -5.205778 -0.556276
    25 0.096944 -8.450418 -0.009364 0.061055 -0.883977 0.294306
    26 0.447952 -2.798983 -0.200442 -1.040226 -0.028328 0.435174
    27 -0.032910 -1.480207 0.004936 -1.052168 0.000000 0.000002
    28 -0.027022 -1.076920 -0.020212 -0.483247 0.000000 0.000000
    29 -0.249534 -2.846962 -0.174216 -1.105365 -0.017670 0.423979
    30 0.043235 -1.683940 0.096014 -0.977014 0.002823 -0.000167
    31 0.031730 -1.160831 0.058836 -0.525499 0.000642 0.008372
    32 -0.963866 -2.785142 -0.085346 -0.428823 0.161605 0.055456
    33 0.028479 -1.403069 0.006271 -1.244462 0.000000 0.000000
    34 0.021413 -0.957782 0.020047 -0.446120 0.000000 0.000000
    35 1.164475 -2.543938 -0.170328 -1.061121 -0.017417 0.527819
    36 0.024033 -1.129041 0.017806 -1.014840 0.000000 0.000001
    37 0.014896 -0.883990 -0.019845 -0.546132 0.000000 0.000000
    38 -0.500830 -1.428542 0.403295 0.207873 -0.490157 -2.998458
    39 1.522835 0.058681 0.016850 0.087666 -0.054420 0.786199
    40 1.117948 0.048424 -0.005764 -0.003862 -0.024910 0.210085
    41 -0.115961 -0.170293 -0.005135 0.576230 0.066071 1.373638
  time 2
    0 1.169504 9.394815 -11.954264 0.000000 0.000000 0.000000
    1 12.060553 -11.218767 0.229787 0.750877 -2.386447 -1.389525
    2 -0.071919 -8.498731 -0.104136 0.203951 0.533739 -0.465805
    3 1.470883 -2.792118 0.726656 -0.351378 -0.026468 -3.279846
    4 -2.562689 -0.000123 -0.000002 0.000001 0.000000 -3.141592
    5 -0.815617 2.114319 -0.000001 0.000001 0.000000 -0.501530
    6 -1.521637 -4.592964 0.466992 0.000001 0.000000 -3.141591
    7 0.704241 -4.909328 0.000002 0.000001 0.000000 0.000000
    8 -0.488517 -2.755600 -0.228261 -0.721249 -0.081949 -0.452612
    9 0.039887 -1.479789 0.029853 -1.744424 0.000000 0.000000
    10 0.028785 -1.075730 -0.023111 -1.070625 0.000000 0.000001
    11 0.125024 -3.051139 -0.574344 -0.799992 -0.047048 -0.393136
    12 -0.049759 -1.680545 0.100480 -1.558612 0.000000 -0.000002
    13 -0.034141 -1.148311 0.084779 -1.112839 0.000000 0.000000
    14 0.957766 -2.746777 -0.090301 0.273202 -0.158969 -0.144553
    15 -0.033419 -1.397127 -0.011255 -1.479635 0.000000 -0.000001
    16 -0.022360 -0.957435 0.018783 -0.774587 0.000000 0.000000
    17 -1.200212 -2.612687 -0.084483 -0.819559 0.107001 -0.434663
    18 -0.024966 -1.123933 0.017594 -1.746586 0.000000 0.000001
    19 -0.020057 -0.890966 0.010091 -0.424577 0.000000 0.000000
    20 0.583510 -1.197274 0.185377 0.041775 -0.932216 -0.526993
    21 1.535926 0.010245 0.005008 -0.115188 0.228163 -1.325298
    22 1.100770 0.004527 -0.010676 -0.031080 0.118321 -0.649584
    23 0.018586 -0.093236 -0.167773 3.423337 6.142846 -1.288278
    24 -1.357210 -18.431202 0.961253 -1.395424 -5.205778 -0.556276
    25 0.096944 -8.450418 -0.009364 0.061055 -0.883977 0.294306
    26 0.447952 -2.798983 -0.200442 -1.040226 -0.028328 0.435174
    27 -0.032910 -1.480207 0.004936 -1.052168 0.000000 0.000002
    28 -0.027022 -1.076920 -0.020212 -0.483247 0.000000 0.000000
    29 -0.249534 -2.846962 -0.174216 -1.105365 -0.017670 0.423979
    30 0.043235 -1.683940 0.096014 -0.977014 0.002823 -0.000167
    31 0.031730 -1.160831 0.058836 -0.525499 0.000642 0.008372
    32 -0.963866 -2.785142 -0.085346 -0.428823 0.161605 0.055456
    33 0.028479 -1.403069 0.006271 -1.244462 0.000000 0.000000
    34 0.021413 -0.957782 0.020047 -0.446120 0.000000 0.000000
    35 1.164475 -2.543938 -0.170328 -1.061121 -0.017417 0.527819
    36 0.024033 -1.129041 0.017806 -1.014840 0.000000 0.000001
    37 0.014896 -0.883990 -0.019845 -0.546132 0.000000 0.000000
    38 -0.500830 -1.428542 0.403295 0.207873 -0.490157 -2.998458
    39 1.522835 0.058681 0.016850 0.087666 -0.054420 0.786199
    40 1.117948 0.048424 -0.005764 -0.005049 -0.024167 0.265540
    41 -0.115961 -0.170293 -0.005135 0.576230 0.066071 1.373638
  time 3
    0 1.169504 9.164339 -11.954264 0.000000 0.000000 0.000000
    1 12.060553 -11.218767 0.327446 0.750877 -2.386447 -1.389525
    2 -0.071919 -8.498731 -0.104136 0.223019 0.544275 -0.398935
    3 1.470883 -2.792118 0.726656 -0.351378 -0.026468 -3.279846
    4 -2.562689 0.800683 -0.000002 0.000001 0.000000 -3.141592
    5 -0.815617 2.114319 -0.000001 0.000001 0.000000 -0.501530
    6 -1.521637 -4.592964 0.466992 0.000001 0.000000 -3.141591
    7 0.704241 -4.909328 0.000002 0.000001 0.000000 0.000000
    8 -0.488517 -2.755600 -0.228261 -0.721249 -0.081949 -0.452612
    9 0.039887 -1.479789 0.029853 -1.744424 0.000000 0.000000
    10 0.028785 -1.075730 -0.023111 -1.070625 0.000000 0.000001
    11 0.125024 -3.051139 -0.574344 -0.799992 -0.047048 -0.393136
    12 -0.049759 -1.680545 0.100480 -1.558612 0.000000 -0.000002
    13 -0.034141 -1.148311 0.084779 -1.112872 0.000000 0.000000
    14 0.957766 -2.746777 -0.090301 0.273202 -0.158969 -0.144553
    15 -0.033419 -1.397127 -0.011255 -1.479635 0.000000 -0.000001
    16 -0.022360 -0.957435 0.018783 -0.774587 0.000000 0.000000
    17 -1.200212 -2.612687 -0.084483 -0.819559 0.107001 -0.434663
    18 -0.024966 -1.123933 0.017594 -1.746586 0.000000 0.000001
    19 -0.020057 -0.890966 0.010091 -0.424577 0.000000 0.000000
    20 0.583510 -1.197274 0.185377 0.041775 -0.932216 -0.526993
    21 1.535926 0.010245 0.005008 -0.115188 0.228163 -1.325298
    22 1.100770 0.004527 -0.010676 -0.031080 0.118321 -0.649584
    23 0.018586 -0.093236 -0.167773 3.423337 6.142846 -1.288278
    24 -1.337678 -18.431202 1.476894 -1.395424 -5.205778 -0.556276
    25 0.096944 -8.450418 -0.009364 0.061055 -0.883977 0.294306
    26 0.447952 -2.798983 -0.200442 -1.040226 -0.028328 0.435174
    27 -0.032910 -1.480207 0.004936 -1.052168 0.000000 0.000002
    28 -0.027022 -1.076920 -0.020212 -0.483247 0.000000 0.000000
    29 -0.249534 -2.846962 -0.174216 -1.105365 -0.017670 0.423979
    30 0.043235 -1.683940 0.096014 -0.977014 0.002823 -0.000167
    31 0.031730 -1.160831 0.058836 -0.525499 0.000642 0.008372
    32 -0.963866 -2.785142 -0.085346 -0.428823 0.161605 0.055456
    33 0.028479 -1.403069 0.006271 -1.244462 0.000000 0.000000
    34 0.021413 -0.957782 0.020047 -0.446120 0.000000 0.000000
    35 1.164475 -2.543938 -0.170328 -1.061121 -0.017417 0.527819
    36 0.024033 -1.129041 0.017806 -1.014840 0.000000 0.000001
    37 0.014896 -0.883990 -0.019845 -0.546132 0.000000 0.000000
    38 -0.500830 -1.428542 0.403295 0.207873 -0.490157 -2.998458
    39 1.522835 0.058681 0.016850 0.087666 -0.054420 0.786199
    40 1.117948 0.048424 -0.005764 -0.006379 -0.023316 0.328122
    41 -0.115961 -0.170293 -0.005135 0.576230 0.066071 1.373638
  time 4
    0 1.169504 8.984646 -11.954264 0.000000 0.000000 0.000000
    1 12.060553 -11.218767 0.319633 0.750877 -2.386447 -1.389525
    2 -0.071919 -8.498731 -0.104136 0.231925 0.549099 -0.362926
    3 1.470883 -2.792118 0.726656 -0.351378 -0.026468 -3.279846
    4 -2.562689 2.289009 -0.000002 0.000001 0.000000 -3.141592
    5 -0.815617 2.114319 -0.000001 0.000001 0.000000 -0.501530
    6 -1.521637 -4.592964 0.466992 0.000001 0.000000 -3.141591
    7 0.704241 -4.909328 0.000002 0.000001 0.000000 0.000000
    8 -0.488517 -2.755600 -0.228261 -0.721249 -0.081949 -0.452612
    9 0.039887 -1.479789 0.029853 -1.744424 0.000000 0.000000
    10 0.028785 -1.075730 -0.023111 -1.070625 0.000000 0.000001
    11 0.125024 -3.051139 -0.574344 -0.799992 -0.047048 -0.393136
    12 -0.049759 -1.680545 0.100480 -1.558612 0.000000 -0.000002
    13 -0.034141 -1.148311 0.084779 -1.112872 0.000000 0.000000
    14 0.957766 -2.746777 -0.090301 0.273202 -0.158969 -0.144553
    15 -0.033419 -1.397127 -0.011255 -1.479635 0.000000 -0.000001
    16 -0.022360 -0.957435 0.018783 -0.774587 0.000000 0.000000
    17 -1.200212 -2.612687 -0.084483 -0.819559 0.107001 -0.434663
    18 -0.024966 -1.123933 0.017594 -1.746586 0.000000 0.000001
    19 -0.020057 -0.890966 0.010091 -0.424577 0.000000 0.000000
    20 0.583510 -1.197274 0.185377 0.041775 -0.932216 -0.526993
    21 1.535926 0.010245 0.005008 -0.115188 0.228163 -1.325298
    22 1.100770 0.004527 -0.010676 -0.031080 0.118321 -0.649584
    23 0.018586 -0.093236 -0.167773 3.423337 6.142846 -1.288278
    24 -1.329866 -18.431202 1.754246 -1.395424 -5.205778 -0.556276
    25 0.096944 -8.450418 -0.009364 0.061893 -0.886023 0.295460
    26 0.447952 -2.798983 -0.200442 -1.040226 -0.028328 0.435174
    27 -0.032910 -1.480207 0.004936 -1.052168 0.000000 0.000002
    28 -0.027022 -1.076920 -0.020212 -0.483247 0.000000 0.000000
    29 -0.249534 -2.846962 -0.174216 -1.105365 -0.017670 0.423979
    30 0.043235 -1.683940 0.096014 -0.977014 0.002823 -0.000167
    31 0.031730 -1.160831 0.058836 -0.525499 0.000642 0.008372
    32 -0.963866 -2.785142 -0.085346 -0.428823 0.161605 0.055456
    33 0.028479 -1.403069 0.006271 -1.244462 0.000000 0.000000
    34 0.021413 -0.957782 0.020047 -0.446120 0.000000 0.000000
    35 1.164475 -2.543938 -0.170328 -1.061121 -0.017417 0.527819
    36 0.024033 -1.129041 0.017806 -1.014840 0.000000 0.000001
    37 0.014896 -0.883990 -0.019845 -0.546132 0.000000 0.000000
    38 -0.500830 -1.428542 0.403295 0.207873 -0.490157 -2.998458
    39 1.522835 0.058681 0.016850 0.087666 -0.054420 0.786199
    40 1.117948 0.048424 -0.005764 -0.006643 -0.023113 0.341355
    41 -0.115961 -0.170293 -0.005135 0.576230 0.066071 1.373638
  time 5
    0 1.169504 8.781515 -11.954264 0.000000 0.000000 0.000000
    1 12.060553 -11.218767 0.300101 0.750877 -2.386447 -1.389525
    2 -0.071919 -8.498731 -0.104136 0.229060 0.548283 -0.368754
    3 1.470883 -2.792118 0.726656 -0.351378 -0.026468 -3.279846
    4 -2.562689 3.085909 -0.000002 0.000001 0.000000 -3.141592
    5 -0.815617 2.114319 -0.000001 0.000001 0.000000 -0.501530
    6 -1.521637 -4.592964 0.466992 0.000001 0.000000 -3.141591
    7 0.704241 -4.909328 0.000002 0.000001 0.000000 0.000000
    8 -0.488517 -2.755600 -0.228261 -0.721249 -0.081949 -0.452612
    9 0.039887 -1.479789 0.029853 -1.744424 0.000000 0.000000
    10 0.028785 -1.075730 -0.023111 -1.070625 0.000000 0.000001
    11 0.125024 -3.051139 -0.574344 -0.799992 -0.047048 -0.393136
    12 -0.049759 -1.680545 0.100480 -1.558612 0.000000 -0.000002
    13 -0.034141 -1.148311 0.084779 -1.112872 0.000000 0.000000
    14 0.957766 -2.746777 -0.090301 0.273202 -0.158969 -0.144553
    15 -0.033419 -1.397127 -0.011255 -1.479635 0.000000 -0.000001
    16 -0.022360 -0.957435 0.018783 -0.774587 0.000000 0.000000
    17 -1.200212 -2.612687 -0.084483 -0.819559 0.107001 -0.434663
    18 -0.024966 -1.123933 0.017594 -1.746586 0.000000 0.000001
    19 -0.020057 -0.890966 0.010091 -0.424577 0.000000 0.000000
    20 0.583510 -1.197274 0.185377 0.041775 -0.932216 -0.526993
    21 1.535926 0.010245 0.005008 -0.115188 0.228163 -1.325298
    22 1.100770 0.004527 -0.010676 -0.031080 0.118321 -0.649584
    23 0.018586 -0.093236 -0.167773 3.423337 6.142846 -1.288278
    24 -1.341585 -18.431202 1.711276 -1.395424 -5.205778 -0.556276
    25 0.096944 -8.450418 -0.009364 0.064181 -0.891591 0.298538
    26 0.447952 -2.798983 -0.200442 -1.040226 -0.028328 0.435174
    27 -0.032910 -1.480207 0.004936 -1.052168 0.000000 0.000002
    28 -0.027022 -1.076920 -0.020212 -0.483247 0.000000 0.000000
    29 -0.249534 -2.846962 -0.174216 -1.105365 -0.017670 0.423979
    30 0.043235 -1.683940 0.096014 -0.977014 0.002823 -0.000167
    31 0.031730 -1.160831 0.058836 -0.525499 0.000642 0.008372
    32 -0.963866 -2.785142 -0.085346 -0.428823 0.161605 0.055456
    33 0.028479 -1.403069 0.006271 -1.244462 0.000000 0.000000
    34 0.021413 -0.957782 0.020047 -0.446120 0.000000 0.000000
    35 1.164475 -2.543938 -0.170328 -1.061121 -0.017417 0.527819
    36 0.024033 -1.129041 0.017806 -1.014840 0.000000 0.000001
    37 0.014896 -0.883990 -0.019845 -0.546132 0.000000 0.000000
    38 -0.500830 -1.428542 0.403295 0.207873 -0.490157 -2.998458
    39 1.522835 0.058681 0.016850 0.087666 -0.054420 0.786199
    40 1.117948 0.048424 -0.005764 -0.006858 -0.022945 0.352669
    41 -0.115961 -0.170293 -0.005135 0.576230 0.066071 1.373638
  time 6
    0 1.169504 8.566665 -11.954264 0.000000 0.000000 0.000000
    1 12.060553 -11.218767 0.268850 0.750877 -2.386447 -1.389525
    2 -0.071919 -8.498731 -0.104136 0.221382 0.546087 -0.384384
    3 1.470883 -2.792118 0.726656 -0.351378 -0.026468 -3.279846
    4 -2.562689 2.999969 -0.000002 0.000001 0.000000 -3.141592
    5 -0.815617 2.114319 -0.000001 0.000001 0.000000 -0.501530
    6 -1.521637 -4.592964 0.466992 0.000001 0.000000 -3.141591
    7 0.704241 -4.909328 0.000002 0.000001 0.000000 0.000000
    8 -0.488517 -2.755600 -0.228261 -0.721249 -0.081949 -0.452612
    9 0.039887 -1.479789 0.029853 -1.744424 0.000000 0.000000
    10 0.028785 -1.075730 -0.023111 -1.070625 0.000000 0.000001
    11 0.125024 -3.051139 -0.574344 -0.799992 -0.047048 -0.393136
    12 -0.049759 -1.680545 0.100480 -1.558612 0.000000 -0.000002
    13 -0.034141 -1.148311 0.084779 -1.112872 0.000000 0.000000
    14 0.957766 -2.746777 -0.090301 0.273202 -0.158969 -0.144553
    15 -0.033419 -1.397127 -0.011255 -1.479635 0.000000 -0.000001
    16 -0.022360 -0.957435 0.018783 -0.774587 0.000000 0.000000
    17 -1.200212 -2.612687 -0.084483 -0.819559 0.107001 -0.434663
    18 -0.024966 -1.123933 0.017594 -1.746586 0.000000 0.000001
    19 -0.020057 -0.890966 0.010091 -0.424577 0.000000 0.000000
    20 0.583510 -1.197274 0.185377 0.041775 -0.932216 -0.526993
    21 1.535926 0.010245 0.005008 -0.115188 0.228163 -1.325298
    22 1.100770 0.004527 -0.010676 -0.031080 0.118321 -0.649584
    23 0.018586 -0.093236 -0.167773 3.423337 6.142846 -1.288278
    24 -1.368929 -18.431202 1.590178 -1.395424 -5.205778 -0.556276
    25 0.096944 -8.450418 -0.009364 0.067545 -0.899777 0.303112
    26 0.447952 -2.798983 -0.200442 -1.040226 -0.028328 0.435174
    27 -0.032910 -1.480207 0.004936 -1.052168 0.000000 0.000002
    28 -0.027022 -1.076920 -0.020212 -0.483247 0.000000 0.000000
    29 -0.249534 -2.846962 -0.174216 -1.105365 -0.017670 0.423979
    30 0.043235 -1.683940 0.096014 -0.977014 0.002823 -0.000167
    31 0.031730 -1.160831 0.058836 -0.525499 0.000642 0.008372
    32 -0.963866 -2.785142 -0.085346 -0.428823 0.161605 0.055456
    33 0.028479 -1.403069 0.006271 -1.244462 0.000000 0.000000
    34 0.021413 -0.957782 0.020047 -0.446120 0.000000 0.000000
    35 1.164475 -2.543938 -0.170328 -1.061121 -0.017417 0.527819
    36 0.024033 -1.129041 0.017806 -1.014840 0.000000 0.000001
    37 0.014896 -0.883990 -0.019845 -0.546132 0.000000 0.000000
    38 -0.500830 -1.428542 0.403295 0.207873 -0.490157 -2.998458
    39 1.522835 0.058681 0.016850 0.087666 -0.054420 0.786199
    40 1.117948 0.048424 -0.005764 -0.007050 -0.022801 0.362194
    41 -0.115961 -0.170293 -0.005135 0.576230 0.066071 1.373638
  time 7
    0 1.169504 8.351814 -11.954264 0.000000 0.000000 0.000000
    1 12.060553 -11.218767 0.229787 0.750877 -2.386447 -1.389525
    2 -0.071919 -8.498731 -0.104136 0.210274 0.542907 -0.407000
    3 1.470883 -2.792118 0.726656 -0.351378 -0.026468 -3.279846
    4 -2.562689 2.847620 -0.000002 0.000001 0.000000 -3.141592
    5 -0.815617 2.114319 -0.000001 0.000001 0.000000 -0.501530
    6 -1.521637 -4.592964 0.466992 0.000001 0.000000 -3.141591
    7 0.704241 -4.909328 0.000002 0.000001 0.000000 0.000000
    8 -0.488517 -2.755600 -0.228261 -0.721249 -0.081949 -0.452612
    9 0.039887 -1.479789 0.029853 -1.744424 0.000000 0.000000
    10 0.028785 -1.075730 -0.023111 -1.070625 0.000000 0.000001
    11 0.125024 -3.051139 -0.574344 -0.799992 -0.047048 -0.393136
    12 -0.049759 -1.680545 0.100480 -1.558612 0.000000 -0.000002
    13 -0.034141 -1.148311 0.084779 -1.112872 0.000000 0.000000
    14 0.957766 -2.746777 -0.090301 0.273202 -0.158969 -0.144553
    15 -0.033419 -1.397127 -0.011255 -1.479635 0.000000 -0.000001
    16 -0.022360 -0.957435 0.018783 -0.774587 0.000000 0.000000
    17 -1.200212 -2.612687 -0.084483 -0.819559 0.107001 -0.434663
    18 -0.024966 -1.123933 0.017594 -1.746586 0.000000 0.000001
    19 -0.020057 -0.890966 0.010091 -0.424577 0.000000 0.000000
    20 0.583510 -1.197274 0.185377 0.041775 -0.932216 -0.526993
    21 1.535926 0.010245 0.005008 -0.115188 0.228163 -1.325298
    22 1.100770 0.004527 -0.010676 -0.031080 0.118321 -0.649584
    23 0.018586 -0.093236 -0.167773 3.423337 6.142846 -1.288278
    24 -1.407993 -18.431202 1.418298 -1.395424 -5.205778 -0.556276
    25 0.096944 -8.450418 -0.009364 0.071620 -0.909746 0.308648
    26 0.447952 -2.798983 -0.200442 -1.040226 -0.028328 0.435174
    27 -0.032910 -1.480207 0.004936 -1.052168 0.000000 0.000002
    28 -0.027022 -1.076920 -0.020212 -0.483247 0.000000 0.000000
    29 -0.249534 -2.846962 -0.174216 -1.105365 -0.017670 0.423979
    30 0.043235 -1.683940 0.096014 -0.977014 0.002823 -0.000167
    31 0.031730 -1.160831 0.058836 -0.525499 0.000642 0.008372
    32 -0.963866 -2.785142 -0.085346 -0.428823 0.161605 0.055456
    33 0.028479 -1.403069 0.006271 -1.244462 0.000000 0.000000
    34 0.021413 -0.957782 0.020047 -0.446120 0.000000 0.000000
    35 1.164475 -2.543938 -0.170328 -1.061121 -0.017417 0.527819
    36 0.024033 -1.129041 0.017806 -1.014840 0.000000 0.000001
    37 0.014896 -0.883990 -0.019845 -0.546132 0.000000 0.000000
    38 -0.500830 -1.428542 0.403295 0.207873 -0.490157 -2.998458
    39 1.522835 0.058681 0.016850 0.087666 -0.054420 0.786199
    40 1.117948 0.048424 -0.005764 -0.007206 -0.022681 0.370025
    41 -0.115961 -0.170293 -0.005135 0.576230 0.066071 1.373638
  time 8
    0 1.169504 8.144777 -11.954264 0.000000 0.000000 0.000000
    1 12.060553 -11.218767 0.182910 0.750877 -2.386447 -1.389525
    2 -0.071919 -8.498731 -0.104136 0.197092 0.539127 -0.433827
    3 1.470883 -2.792118 0.726656 -0.351378 -0.026468 -3.279846
    4 -2.562689 2.761680 -0.000002 0.000001 0.000000 -3.141592
    5 -0.815617 2.114319 -0.000001 0.000001 0.000000 -0.501530
    6 -1.521637 -4.592964 0.466992 0.000001 0.000000 -3.141591
    7 0.704241 -4.909328 0.000002 0.000001 0.000000 0.000000
    8 -0.488517 -2.755600 -0.228261 -0.721249 -0.081949 -0.452612
    9 0.039887 -1.479789 0.029853 -1.744424 0.000000 0.000000
    10 0.028785 -1.075730 -0.023111 -1.070625 0.000000 0.000001
    11 0.125024 -3.051139 -0.574344 -0.799992 -0.047048 -0.393136
    12 -0.049759 -1.680545 0.100480 -1.558612 0.000000 -0.000002
    13 -0.034141 -1.148311 0.084779 -1.112839 0.000000 0.000000
    14 0.957766 -2.746777 -0.090301 0.273202 -0.158969 -0.144553
    15 -0.033419 -1.397127 -0.011255 -1.479635 0.000000 -0.000001
    16 -0.022360 -0.957435 0.018783 -0.774587 0.000000 0.000000
    17 -1.200212 -2.612687 -0.084483 -0.819559 0.107001 -0.434663
    18 -0.024966 -1.123933 0.017594 -1.746586 0.000000 0.000001
    19 -0.020057 -0.890966 0.010091 -0.424577 0.000000 0.000000
    20 0.583510 -1.197274 0.185377 0.041775 -0.932216 -0.526993
    21 1.535926 0.010245 0.005008 -0.115188 0.228163 -1.325298
    22 1.100770 0.004527 -0.010676 -0.031080 0.118321 -0.649584
    23 0.018586 -0.093236 -0.167773 3.423337 6.142846 -1.288278
    24 -1.454869 -18.431202 1.211261 -1.395424 -5.205778 -0.556276
    25 0.096944 -8.450418 -0.009364 0.076072 -0.920573 0.314654
    26 0.447952 -2.798983 -0.200442 -1.040226 -0.028328 0.435174
    27 -0.032910 -1.480207 0.004936 -1.052168 0.000000 0.000002
    28 -0.027022 -1.076920 -0.020212 -0.483247 0.000000 0.000000
    29 -0.249534 -2.846962 -0.174216 -1.105365 -0.017670 0.423979
    30 0.043235 -1.683940 0.096014 -0.977014 0.002823 -0.000167
    31 0.031730 -1.160831 0.058836 -0.525499 0.000642 0.008372
    32 -0.963866 -2.785142 -0.085346 -0.428823 0.161605 0.055456
    33 0.028479 -1.403069 0.006271 -1.244462 0.000000 0.000000
    34 0.021413 -0.957782 0.020047 -0.446120 0.000000 0.000000
    35 1.164475 -2.543938 -0.170328 -1.061121 -0.017417 0.527819
    36 0.024033 -1.129041 0.017806 -1.014840 0.000000 0.000001
    37 0.014896 -0.883990 -0.019845 -0.546132 0.000000 0.000000
    38 -0.500830 -1.428542 0.403295 0.207873 -0.490157 -2.998458
    39 1.522835 0.058681 0.016850 0.087666 -0.054420 0.786199
    40 1.117948 0.048424 -0.005764 -0.007338 -0.022585 0.376322
    41 -0.115961 -0.170293 -0.005135 0.576230 0.066071 1.373638
  time 9
    0 1.169504 7.953365 -11.954264 0.000000 0.000000 0.000000
    1 12.060553 -11.218767 0.139940 0.750877 -2.386447 -1.389525
    2 -0.071919 -8.498731 -0.104136 0.183232 0.535119 -0.462052
    3 1.470883 -2.792118 0.726656 -0.351378 -0.026468 -3.279846
    4 -2.562689 2.816369 -0.000002 0.000001 0.000000 -3.141592
    5 -0.815617 2.114319 -0.000001 0.000001 0.000000 -0.493081
    6 -1.521637 -4.592964 0.466992 0.000001 0.000000 -3.141591
    7 0.704241 -4.909328 0.000002 0.000001 0.000000 0.000000
    8 -0.488517 -2.755600 -0.228261 -0.721249 -0.081949 -0.452612
    9 0.039887 -1.479789 0.029853 -1.744424 0.000000 0.000000
    10 0.028785 -1.075730 -0.023111 -1.070625 0.000000 0.000001
    11 0.125024 -3.051139 -0.574344 -0.799992 -0.047048 -0.393136
    12 -0.049759 -1.680545 0.100480 -1.558612 0.000000 -0.000002
    13 -0.034141 -1.148311 0.084779 -1.112872 0.000000 0.000000
    14 0.957766 -2.746777 -0.090301 0.273202 -0.158969 -0.144553
    15 -0.033419 -1.397127 -0.011255 -1.462953 0.000000 -0.000001
    16 -0.022360 -0.957435 0.018783 -0.774587 0.000000 0.000000
    17 -1.200212 -2.612687 -0.084483 -0.819559 0.107001 -0.434663
    18 -0.024966 -1.123933 0.017594 -1.746586 0.000000 0.000001
    19 -0.020057 -0.890966 0.010091 -0.424577 0.000000 0.000000
    20 0.583510 -1.197274 0.185377 0.041775 -0.932216 -0.526993
    21 1.535926 0.010245 0.005008 -0.115188 0.228163 -1.325298
    22 1.100770 0.004527 -0.010676 -0.031080 0.118321 -0.649584
    23 0.018586 -0.093236 -0.167773 3.423337 6.142846 -1.288278
    24 -1.501746 -18.431202 0.996410 -1.395424 -5.205778 -0.556276
    25 0.096944 -8.450418 -0.009364 0.080510 -0.931422 0.320682
    26 0.447952 -2.798983 -0.200442 -1.040226 -0.028328 0.435174
    27 -0.032910 -1.480207 0.004936 -1.052168 0.000000 0.000002
    28 -0.027022 -1.076920 -0.020212 -0.483247 0.000000 0.000000
    29 -0.249534 -2.846962 -0.174216 -1.105365 -0.017670 0.423979
    30 0.043235 -1.683940 0.096014 -0.977014 0.002823 -0.000167
    31 0.031730 -1.160831 0.058836 -0.525499 0.000642 0.008372
    32 -0.963866 -2.785142 -0.085346 -0.428823 0.161605 0.055456
    33 0.028479 -1.403069 0.006271 -1.244462 0.000000 0.000000
    34 0.021413 -0.957782 0.020047 -0.446120 0.000000 0.000000
    35 1.164475 -2.543938 -0.170328 -1.061121 -0.017417 0.527819
    36 0.024033 -1.129041 0.017806 -1.014840 0.000000 0.000001
    37 0.014896 -0.883990 -0.019845 -0.546132 0.000000 0.000000
    38 -0.500830 -1.428542 0.403295 0.207873 -0.490157 -2.998458
    39 1.522835 0.058681 0.016850 0.087666 -0.054420 0.786199
    40 1.117948 0.048424 -0.005764 -0.007434 -0.022513 0.381212
    41 -0.115961 -0.170293 -0.005135 0.576230 0.066071 1.373638
  time 10
    0 1.169504 7.785391 -11.954264 0.000000 0.000000 0.000000
    1 12.060553 -11.218767 0.093064 0.750877 -2.386447 -1.389525
    2 -0.071919 -8.498731 -0.104136 0.170050 0.531279 -0.488860
    3 1.470883 -2.792118 0.726656 -0.351378 -0.026468 -3.279846
    4 -2.562689 2.867152 -0.000002 0.000001 0.000000 -3.141592
    5 -0.815617 2.114319 -0.000001 0.000001 0.000000 -0.469557
    6 -1.521637 -4.592964 0.466992 0.000001 0.000000 -3.141591
    7 0.704241 -4.909328 0.000002 0.000001 0.000000 0.000000
    8 -0.488517 -2.755600 -0.228261 -0.721249 -0.081949 -0.452612
    9 0.039887 -1.479789 0.029853 -1.744424 0.000000 0.000000
    10 0.028785 -1.075730 -0.023111 -1.070625 0.000000 0.000001
    11 0.125024 -3.051139 -0.574344 -0.799992 -0.047048 -0.393136
    12 -0.049759 -1.680545 0.100480 -1.558612 0.000000 -0.000002
    13 -0.034141 -1.148311 0.084779 -1.112872 0.000000 0.000000
    14 0.957766 -2.746777 -0.090301 0.273202 -0.158969 -0.144553
    15 -0.033419 -1.397127 -0.011255 -1.416460 0.000000 -0.000001
    16 -0.022360 -0.957435 0.018783 -0.774587 0.000000 0.000000
    17 -1.200212 -2.612687 -0.084483 -0.819559 0.107001 -0.434663
    18 -0.024966 -1.123933 0.017594 -1.746586 0.000000 0.000001
    19 -0.020057 -0.890966 0.010091 -0.424577 0.000000 0.000000
    20 0.583510 -1.197274 0.185377 0.041775 -0.932216 -0.526993
    21 1.535926 0.010245 0.005008 -0.115188 0.228163 -1.325298
    22 1.100770 0.004527 -0.010676 -0.031080 0.118321 -0.649584
    23 0.018586 -0.093236 -0.167773 3.423337 6.142846 -1.288278
    24 -1.548622 -18.431202 0.789373 -1.395424 -5.205778 -0.556276
    25 0.096944 -8.450418 -0.009364 0.084599 -0.941369 0.326218
    26 0.447952 -2.798983 -0.200442 -1.040226 -0.028328 0.435174
    27 -0.032910 -1.480207 0.004936 -1.052168 0.000000 0.000002
    28 -0.027022 -1.076920 -0.020212 -0.483247 0.000000 0.000000
    29 -0.249534 -2.846962 -0.174216 -1.105365 -0.017670 0.423979
    30 0.043235 -1.683940 0.096014 -0.977014 0.002823 -0.000167
    31 0.031730 -1.160831 0.058836 -0.525499 0.000642 0.008372
    32 -0.963866 -2.785142 -0.085346 -0.428823 0.161605 0.055456
    33 0.028479 -1.403069 0.006271 -1.244462 0.000000 0.000000
    34 0.021413 -0.957782 0.020047 -0.446120 0.000000 0.000000
    35 1.164475 -2.543938 -0.170328 -1.061121 -0.017417 0.527819
    36 0.024033 -1.129041 0.017806 -1.014840 0.000000 0.000001
    37 0.014896 -0.883990 -0.019845 -0.546132 0.000000 0.000000
    38 -0.500830 -1.428542 0.403295 0.207873 -0.490157 -2.998458
    39 1.522835 0.058681 0.016850 0.087666 -0.054420 0.786199
    40 1.117948 0.048424 -0.005764 -0.007506 -0.022454 0.384792
    41 -0.115961 -0.170293 -0.005135 0.576230 0.066071 1.373638
  time 11
    0 1.169504 7.656481 -11.954264 0.000000 0.000000 0.000000
    1 12.060553 -11.218767 0.046187 0.750877 -2.386447 -1.389525
    2 -0.071919 -8.498731 -0.104136 0.158942 0.527991 -0.511496
    3 1.470883 -2.792118 0.726656 -0.351378 -0.026468 -3.279846
    4 -2.562689 2.867152 -0.000002 0.000001 0.000000 -3.141592
    5 -0.815617 2.114319 -0.000001 0.000001 0.000000 -0.433727
    6 -1.521637 -4.592964 0.466992 0.000001 0.000000 -3.141591
    7 0.704241 -4.909328 0.000002 0.000001 0.000000 0.000000
    8 -0.488517 -2.755600 -0.228261 -0.721249 -0.081949 -0.452612
    9 0.039887 -1.479789 0.029853 -1.744424 0.000000 0.000000
    10 0.028785 -1.075730 -0.023111 -1.070625 0.000000 0.000001
    11 0.125024 -3.051139 -0.574344 -0.799992 -0.047048 -0.393136
    12 -0.049759 -1.680545 0.100480 -1.558612 0.000000 -0.000002
    13 -0.034141 -1.148311 0.084779 -1.112872 0.000000 0.000000
    14 0.957766 -2.746777 -0.090301 0.273202 -0.158969 -0.144553
    15 -0.033419 -1.397127 -0.011255 -1.345626 0.000000 -0.000001
    16 -0.022360 -0.957435 0.018783 -0.774587 0.000000 0.000000
    17 -1.200212 -2.612687 -0.084483 -0.819559 0.107001 -0.434663
    18 -0.024966 -1.123933 0.017594 -1.746586 0.000000 0.000001
    19 -0.020057 -0.890966 0.010091 -0.424577 0.000000 0.000000
    20 0.583510 -1.197274 0.185377 0.041775 -0.932216 -0.526993
    21 1.535926 0.010245 0.005008 -0.115188 0.228163 -1.325298
    22 1.100770 0.004527 -0.010676 -0.031080 0.118321 -0.649584
    23 0.018586 -0.093236 -0.167773 3.423337 6.142846 -1.288278
    24 -1.587686 -18.431202 0.617493 -1.395424 -5.205778 -0.556276
    25 0.096944 -8.450418 -0.009364 0.087962 -0.949577 0.330792
    26 0.447952 -2.798983 -0.200442 -1.040226 -0.028328 0.435174
    27 -0.032910 -1.480207 0.004936 -1.052168 0.000000 0.000002
    28 -0.027022 -1.076920 -0.020212 -0.483247 0.000000 0.000000
    29 -0.249534 -2.846962 -0.174216 -1.105365 -0.017670 0.423979
    30 0.043235 -1.683940 0.096014 -0.977014 0.002823 -0.000167
    31 0.031730 -1.160831 0.058836 -0.525499 0.000642 0.008372
    32 -0.963866 -2.785142 -0.085346 -0.428823 0.161605 0.055456
    33 0.028479 -1.403069 0.006271 -1.244462 0.000000 0.000000
    34 0.021413 -0.957782 0.020047 -0.446120 0.000000 0.000000
    35 1.164475 -2.543938 -0.170328 -1.061121 -0.017417 0.527819
    36 0.024033 -1.129041 0.017806 -1.014840 0.000000 0.000001
    37 0.014896 -0.883990 -0.019845 -0.546132 0.000000 0.000000
    38 -0.500830 -1.428542 0.403295 0.207873 -0.490157 -2.998458
    39 1.522835 0.058681 0.016850 0.087666 -0.054420 0.786199
    40 1.117948 0.048424 -0.005764 -0.007554 -0.022406 0.387189
    41 -0.115961 -0.170293 -0.005135 0.576230 0.066071 1.373638
  time 12
    0 1.169504 7.570541 -11.954264 0.000000 0.000000 0.000000
    1 12.060553 -11.218767 0.003217 0.750877 -2.386447 -1.389525
    2 -0.071919 -8.498731 -0.104136 0.151264 0.525639 -0.527125
    3 1.470883 -2.792118 0.726656 -0.351378 -0.026468 -3.279846
    4 -2.562689 2.867152 -0.000002 0.000001 0.000000 -3.141592
    5 -0.815617 2.114319 -0.000001 0.000001 0.000000 -0.388300
    6 -1.521637 -4.592964 0.466992 0.000001 0.000000 -3.141591
    7 0.704241 -4.909328 0.000002 0.000001 0.000000 0.000000
    8 -0.488517 -2.755600 -0.228261 -0.721249 -0.081949 -0.452612
    9 0.039887 -1.479789 0.029853 -1.744424 0.000000 0.000000
    10 0.028785 -1.075730 -0.023111 -1.070625 0.000000 0.000001
    11 0.125024 -3.051139 -0.574344 -0.799992 -0.047048 -0.393136
    12 -0.049759 -1.680545 0.100480 -1.558612 0.000000 -0.000002
    13 -0.034141 -1.148311 0.084779 -1.112872 0.000000 0.000000
    14 0.957766 -2.746777 -0.090301 0.273202 -0.158969 -0.144553
    15 -0.033419 -1.397127 -0.011255 -1.255785 0.000000 -0.000001
    16 -0.022360 -0.957435 0.018783 -0.774587 0.000000 0.000000
    17 -1.200212 -2.612687 -0.084483 -0.819559 0.107001 -0.434663
    18 -0.024966 -1.123933 0.017594 -1.746586 0.000000 0.000001
    19 -0.020057 -0.890966 0.010091 -0.424577 0.000000 0.000000
    20 0.583510 -1.197274 0.185377 0.041775 -0.932216 -0.526993
    21 1.535926 0.010245 0.005008 -0.115188 0.228163 -1.325298
    22 1.100770 0.004527 -0.010676 -0.031080 0.118321 -0.649584
    23 0.018586 -0.093236 -0.167773 3.423337 6.142846 -1.288278
    24 -1.615031 -18.431202 0.496395 -1.395424 -5.205778 -0.556276
    25 0.096944 -8.450418 -0.009364 0.090251 -0.955145 0.333870
    26 0.447952 -2.798983 -0.200442 -1.040226 -0.028328 0.435174
    27 -0.032910 -1.480207 0.004936 -1.052168 0.000000 0.000002
    28 -0.027022 -1.076920 -0.020212 -0.483247 0.000000 0.000000
    29 -0.249534 -2.846962 -0.174216 -1.105365 -0.017670 0.423979
    30 0.043235 -1.683940 0.096014 -0.977014 0.002823 -0.000167
    31 0.031730 -1.160831 0.058836 -0.525499 0.000642 0.008372
    32 -0.963866 -2.785142 -0.085346 -0.428823 0.161605 0.055456
    33 0.028479 -1.403069 0.006271 -1.244462 0.000000 0.000000
    34 0.021413 -0.957782 0.020047 -0.446120 0.000000 0.000000
    35 1.164475 -2.543938 -0.170328 -1.061121 -0.017417 0.527819
    36 0.024033 -1.129041 0.017806 -1.014840 0.000000 0.000001
    37 0.014896 -0.883990 -0.019845 -0.546132 0.000000 0.000000
    38 -0.500830 -1.428542 0.403295 0.207873 -0.490157 -2.998458
    39 1.522835 0.058681 0.016850 0.087666 -0.054420 0.786199
    40 1.117948 0.048424 -0.005764 -0.007590 -0.022394 0.388531
    41 -0.115961 -0.170293 -0.005135 0.576230 0.066071 1.373638
  time 13
    0 1.169504 7.539290 -11.954264 0.000000 0.000000 0.000000
    1 12.060553 -11.218767 -0.031940 0.750877 -2.386447 -1.389525
    2 -0.071919 -8.498731 -0.104136 0.148399 0.524619 -0.532954
    3 1.470883 -2.792118 0.726656 -0.351378 -0.026468 -3.279846
    4 -2.562689 2.867152 -0.000002 0.000001 0.000000 -3.141592
    5 -0.815617 2.114319 -0.000001 0.000001 0.000000 -0.336017
    6 -1.521637 -4.592964 0.466992 0.000001 0.000000 -3.141591
    7 0.704241 -4.909328 0.000002 0.000001 0.000000 0.000000
    8 -0.488517 -2.755600 -0.228261 -0.721249 -0.081949 -0.452612
    9 0.039887 -1.479789 0.029853 -1.744424 0.000000 0.000000
    10 0.028785 -1.075730 -0.023111 -1.070625 0.000000 0.000001
    11 0.125024 -3.051139 -0.574344 -0.799992 -0.047048 -0.393136
    12 -0.049759 -1.680545 0.100480 -1.558612 0.000000 -0.000002
    13 -0.034141 -1.148311 0.084779 -1.112872 0.000000 0.000000
    14 0.957766 -2.746777 -0.090301 0.273202 -0.158969 -0.144553
    15 -0.033419 -1.397127 -0.011255 -1.152452 0.000000 -0.000001
    16 -0.022360 -0.957435 0.018783 -0.774587 0.000000 0.000000
    17 -1.200212 -2.612687 -0.084483 -0.819559 0.107001 -0.434663
    18 -0.024966 -1.123933 0.017594 -1.746586 0.000000 0.000001
    19 -0.020057 -0.890966 0.010091 -0.424577 0.000000 0.000000
    20 0.583510 -1.197274 0.185377 0.041775 -0.932216 -0.526993
    21 1.535926 0.010245 0.005008 -0.115188 0.228163 -1.325298
    22 1.100770 0.004527 -0.010676 -0.031080 0.118321 -0.649584
    23 0.018586 -0.093236 -0.167773 3.423337 6.142846 -1.288278
    24 -1.626750 -18.431202 0.453425 -1.395424 -5.205778 -0.556276
    25 0.096944 -8.450418 -0.009364 0.091088 -0.957191 0.335025
    26 0.447952 -2.798983 -0.200442 -1.040226 -0.028328 0.435174
    27 -0.032910 -1.480207 0.004936 -1.052168 0.000000 0.000002
    28 -0.027022 -1.076920 -0.020212 -0.483247 0.000000 0.000000
    29 -0.249534 -2.846962 -0.174216 -1.105365 -0.017670 0.423979
    30 0.043235 -1.683940 0.096014 -0.977014 0.002823 -0.000167
    31 0.031730 -1.160831 0.058836 -0.525499 0.000642 0.008372
    32 -0.963866 -2.785142 -0.085346 -0.428823 0.161605 0.055456
    33 0.028479 -1.403069 0.006271 -1.244462 0.000000 0.000000
    34 0.021413 -0.957782 0.020047 -0.446120 0.000000 0.000000
    35 1.164475 -2.543938 -0.170328 -1.061121 -0.017417 0.527819
    36 0.024033 -1.129041 0.017806 -1.014840 0.000000 0.000001
    37 0.014896 -0.883990 -0.019845 -0.546132 0.000000 0.000000
    38 -0.500830 -1.428542 0.403295 0.207873 -0.490157 -2.998458
    39 1.522835 0.058681 0.016850 0.087666 -0.054420 0.786199
    40 1.117948 0.048424 -0.005764 -0.007590 -0.022382 0.388979
    41 -0.115961 -0.170293 -0.005135 0.576230 0.066071 1.373638
  time 14
    0 1.169504 7.547102 -11.954264 0.000000 0.000000 0.000000
    1 12.060553 -11.218767 -0.063191 0.751358 -2.388462 -1.389852
    2 -0.071919 -8.498731 -0.104136 0.148413 0.524439 -0.532914
    3 1.470883 -2.792118 0.726656 -0.351378 -0.026468 -3.279846
    4 -2.562689 2.867152 -0.000002 0.000001 0.000000 -3.141592
    5 -0.815617 2.114319 -0.000001 0.000001 0.000000 -0.279631
    6 -1.521637 -4.592964 0.466992 0.000001 0.000000 -3.141591
    7 0.704241 -4.909328 0.000002 0.000001 0.000000 0.000000
    8 -0.488517 -2.755600 -0.228261 -0.721249 -0.081949 -0.452612
    9 0.039887 -1.479789 0.029853 -1.744424 0.000000 0.000000
    10 0.028785 -1.075730 -0.023111 -1.070625 0.000000 0.000001
    11 0.125024 -3.051139 -0.574344 -0.799992 -0.047048 -0.393136
    12 -0.049759 -1.680545 0.100480 -1.558612 0.000000 -0.000002
    13 -0.034141 -1.148311 0.084779 -1.112872 0.000000 0.000000
    14 0.957766 -2.746777 -0.090301 0.273202 -0.158969 -0.144553
    15 -0.033419 -1.397127 -0.011255 -1.040960 0.000000 -0.000001
    16 -0.022360 -0.957435 0.018783 -0.774587 0.000000 0.000000
    17 -1.200212 -2.612687 -0.084483 -0.819559 0.107001 -0.434663
    18 -0.024966 -1.123933 0.017594 -1.746586 0.000000 0.000001
    19 -0.020057 -0.890966 0.010091 -0.424577 0.000000 0.000000
    20 0.583510 -1.197274 0.185377 0.041775 -0.932216 -0.526993
    21 1.535926 0.010245 0.005008 -0.115188 0.228163 -1.325298
    22 1.100770 0.004527 -0.010676 -0.031080 0.118321 -0.649584
    23 0.018586 -0.093236 -0.167773 3.423337 6.142846 -1.288278
    24 -1.622843 -18.427295 0.457331 -1.395424 -5.205778 -0.556276
    25 0.096944 -8.450418 -0.009364 0.088855 -0.951844 0.332054
    26 0.447952 -2.798983 -0.200442 -1.040226 -0.028328 0.435174
    27 -0.032910 -1.480207 0.004936 -1.052168 0.000000 0.000002
    28 -0.027022 -1.076920 -0.020212 -0.483247 0.000000 0.000000
    29 -0.249534 -2.846962 -0.174216 -1.105365 -0.017670 0.423979
    30 0.043235 -1.683940 0.096014 -0.977014 0.002823 -0.000167
    31 0.031730 -1.160831 0.058836 -0.525499 0.000642 0.008372
    32 -0.963866 -2.785142 -0.085346 -0.428823 0.161605 0.055456
    33 0.028479 -1.403069 0.006271 -1.244462 0.000000 0.000000
    34 0.021413 -0.957782 0.020047 -0.446120 0.000000 0.000000
    35 1.164475 -2.543938 -0.170328 -1.061121 -0.017417 0.527819
    36 0.024033 -1.129041 0.017806 -1.014840 0.000000 0.000001
    37 0.014896 -0.883990 -0.019845 -0.546132 0.000000 0.000000
    38 -0.500830 -1.428542 0.403295 0.207873 -0.490157 -2.998458
    39 1.522835 0.058681 0.016850 0.088361 -0.054260 0.783505
    40 1.117948 0.048424 -0.005764 -0.007578 -0.022394 0.388084
    41 -0.115961 -0.170293 -0.005135 0.576230 0.066071 1.373638
  time 15
    0 1.169504 7.566634 -11.954264 0.000000 0.000000 0.000000
    1 12.060553 -11.218767 -0.094442 0.752639 -2.393655 -1.390724
    2 -0.071919 -8.498731 -0.104136 0.148498 0.524343 -0.532734
    3 1.470883 -2.792118 0.726656 -0.351378 -0.026468 -3.279846
    4 -2.562689 2.867152 -0.000002 0.000001 0.000000 -3.141592
    5 -0.815617 2.114319 -0.000001 0.000001 0.000000 -0.221884
    6 -1.521637 -4.592964 0.466992 0.000001 0.000000 -3.141591
    7 0.704241 -4.909328 0.000002 0.000001 0.000000 0.000000
    8 -0.488517 -2.755600 -0.228261 -0.721249 -0.081949 -0.452612
    9 0.039887 -1.479789 0.029853 -1.744424 0.000000 0.000000
    10 0.028785 -1.075730 -0.023111 -1.070625 0.000000 0.000001
    11 0.125024 -3.051139 -0.574344 -0.799992 -0.047048 -0.393136
    12 -0.049759 -1.680545 0.100480 -1.558612 0.000000 -0.000002
    13 -0.034141 -1.148311 0.084779 -1.112872 0.000000 0.000000
    14 0.957766 -2.746777 -0.090301 0.273202 -0.158969 -0.144553
    15 -0.033419 -1.397127 -0.011255 -0.926778 0.000000 -0.000001
    16 -0.022360 -0.957435 0.018783 -0.774587 0.000000 0.000000
    17 -1.200212 -2.612687 -0.084483 -0.819559 0.107001 -0.434663
    18 -0.024966 -1.123933 0.017594 -1.746586 0.000000 0.000001
    19 -0.020057 -0.890966 0.010091 -0.424577 0.000000 0.000000
    20 0.583510 -1.197274 0.185377 0.041775 -0.932216 -0.526993
    21 1.535926 0.010245 0.005008 -0.115188 0.228163 -1.325298
    22 1.100770 0.004527 -0.010676 -0.031080 0.118321 -0.649584
    23 0.018586 -0.093236 -0.167773 3.423337 6.142846 -1.288278
    24 -1.618937 -18.415576 0.472957 -1.395424 -5.205778 -0.556276
    25 0.096944 -8.450418 -0.009364 0.083301 -0.938486 0.324615
    26 0.447952 -2.798983 -0.200442 -1.040226 -0.028328 0.435174
    27 -0.032910 -1.480207 0.004936 -1.052168 0.000000 0.000002
    28 -0.027022 -1.076920 -0.020212 -0.483247 0.000000 0.000000
    29 -0.249534 -2.846962 -0.174216 -1.105365 -0.017670 0.423979
    30 0.043235 -1.683940 0.096014 -0.977014 0.002823 -0.000167
    31 0.031730 -1.160831 0.058836 -0.525499 0.000642 0.008372
    32 -0.963866 -2.785142 -0.085346 -0.428823 0.161605 0.055456
    33 0.028479 -1.403069 0.006271 -1.244462 0.000000 0.000000
    34 0.021413 -0.957782 0.020047 -0.446120 0.000000 0.000000
    35 1.164475 -2.543938 -0.170328 -1.061121 -0.017417 0.527819
    36 0.024033 -1.129041 0.017806 -1.014840 0.000000 0.000001
    37 0.014896 -0.883990 -0.019845 -0.546132 0.000000 0.000000
    38 -0.500830 -1.428542 0.403295 0.207873 -0.490157 -2.998458
    39 1.522835 0.058681 0.016850 0.090157 -0.053877 0.776553
    40 1.117948 0.048424 -0.005764 -0.007518 -0.022430 0.385527
    41 -0.115961 -0.170293 -0.005135 0.576230 0.066071 1.373638
  time 16
    0 1.169504 7.601791 -11.954264 0.000000 0.000000 0.000000
    1 12.060553 -11.214860 -0.125693 0.754322 -2.400709 -1.391887
    2 -0.071919 -8.498731 -0.104136 0.148667 0.524319 -0.532415
    3 1.470883 -2.792118 0.726656 -0.351378 -0.026468 -3.279846
    4 -2.562689 2.867152 -0.000002 0.000001 0.000000 -3.141592
    5 -0.815617 2.114319 -0.000001 0.000001 0.000000 -0.165498
    6 -1.521637 -4.592964 0.466992 0.000001 0.000000 -3.141591
    7 0.704241 -4.909328 0.000002 0.000001 0.000000 0.000000
    8 -0.488517 -2.755600 -0.228261 -0.721249 -0.081949 -0.452612
    9 0.039887 -1.479789 0.029853 -1.744424 0.000000 0.000000
    10 0.028785 -1.075730 -0.023111 -1.070625 0.000000 0.000001
    11 0.125024 -3.051139 -0.574344 -0.799992 -0.047060 -0.393136
    12 -0.049759 -1.680545 0.100480 -1.558612 0.000000 -0.000002
    13 -0.034141 -1.148311 0.084779 -1.112872 0.000000 0.000000
    14 0.957766 -2.746777 -0.090301 0.273202 -0.158969 -0.144553
    15 -0.033419 -1.397127 -0.011255 -0.815286 0.000000 -0.000001
    16 -0.022360 -0.957435 0.018783 -0.774587 0.000000 0.000000
    17 -1.200212 -2.612687 -0.084483 -0.819559 0.107001 -0.434663
    18 -0.024966 -1.123933 0.017594 -1.746586 0.000000 0.000001
    19 -0.020057 -0.890966 0.010091 -0.424577 0.000000 0.000000
    20 0.583510 -1.197274 0.185377 0.041775 -0.932216 -0.526993
    21 1.535926 0.010245 0.005008 -0.115188 0.228163 -1.325298
    22 1.100770 0.004527 -0.010676 -0.031080 0.118321 -0.649584
    23 0.018586 -0.093236 -0.167773 3.423337 6.142846 -1.288278
    24 -1.615031 -18.403857 0.492489 -1.395424 -5.205778 -0.556276
    25 0.096944 -8.450418 -0.009364 0.076072 -0.921101 0.314932
    26 0.447952 -2.798983 -0.200442 -1.040226 -0.028328 0.435174
    27 -0.032910 -1.480207 0.004936 -1.052168 0.000000 0.000002
    28 -0.027022 -1.076920 -0.020212 -0.483247 0.000000 0.000000
    29 -0.249534 -2.846962 -0.174216 -1.105365 -0.017670 0.423979
    30 0.043235 -1.683940 0.096014 -0.977014 0.002823 -0.000167
    31 0.031730 -1.160831 0.058836 -0.525499 0.000642 0.008372
    32 -0.963866 -2.785142 -0.085346 -0.428823 0.161605 0.055456
    33 0.028479 -1.403069 0.006271 -1.244462 0.000000 0.000000
    34 0.021413 -0.957782 0.020047 -0.446120 0.000000 0.000000
    35 1.164475 -2.543938 -0.170328 -1.061121 -0.017417 0.527819
    36 0.024033 -1.129041 0.017806 -1.014840 0.000000 0.000001
    37 0.014896 -0.883990 -0.019845 -0.546132 0.000000 0.000000
    38 -0.500830 -1.428542 0.403295 0.207873 -0.490157 -2.998458
    39 1.522835 0.058681 0.016850 0.092619 -0.053302 0.767074
    40 1.117948 0.048424 -0.005764 -0.007422 -0.022477 0.381340
    41 -0.115961 -0.170293 -0.005135 0.576230 0.066071 1.373638
  time 17
    0 1.169504 7.640855 -11.954264 0.000000 0.000000 0.000000
    1 12.060553 -11.214860 -0.153037 0.756244 -2.408460 -1.393159
    2 -0.071919 -8.498731 -0.104136 0.148950 0.524295 -0.531836
    3 1.470883 -2.792118 0.726656 -0.351378 -0.026468 -3.279846
    4 -2.562689 2.867152 -0.000002 0.000001 0.000000 -3.141592
    5 -0.815617 2.114319 -0.000001 0.000001 0.000000 -0.113215
    6 -1.521637 -4.592964 0.466992 0.000001 0.000000 -3.141591
    7 0.704241 -4.909328 0.000002 0.000001 0.000000 0.000000
    8 -0.488517 -2.755600 -0.228261 -0.721249 -0.081949 -0.452612
    9 0.039887 -1.479789 0.029853 -1.744424 0.000000 0.000000
    10 0.028785 -1.075730 -0.023111 -1.070625 0.000000 0.000001
    11 0.125024 -3.051139 -0.574344 -0.799992 -0.047060 -0.393136
    12 -0.049759 -1.680545 0.100480 -1.558612 0.000000 -0.000002
    13 -0.034141 -1.148311 0.084779 -1.112839 0.000000 0.000000
    14 0.957766 -2.746777 -0.090301 0.273202 -0.158969 -0.144553
    15 -0.033419 -1.397127 -0.011255 -0.711953 0.000000 -0.000001
    16 -0.022360 -0.957435 0.018783 -0.774587 0.000000 0.000000
    17 -1.200212 -2.612687 -0.084483 -0.819559 0.107001 -0.434663
    18 -0.024966 -1.123933 0.017594 -1.746586 0.000000 0.000001
    19 -0.020057 -0.890966 0.010091 -0.424577 0.000000 0.000000
    20 0.583510 -1.197274 0.185377 0.041775 -0.932216 -0.526993
    21 1.535926 0.010245 0.005008 -0.115188 0.228163 -1.325298
    22 1.100770 0.004527 -0.010676 -0.031080 0.118321 -0.649584
    23 0.018586 -0.093236 -0.167773 3.423337 6.142846 -1.288278
    24 -1.607218 -18.392138 0.519833 -1.395424 -5.205778 -0.556276
    25 0.096944 -8.450418 -0.009364 0.068843 -0.903650 0.305250
    26 0.447952 -2.798983 -0.200442 -1.040226 -0.028328 0.435174
    27 -0.032910 -1.480207 0.004936 -1.052168 0.000000 0.000002
    28 -0.027022 -1.076920 -0.020212 -0.483247 0.000000 0.000000
    29 -0.249534 -2.846962 -0.174216 -1.105365 -0.017670 0.423979
    30 0.043235 -1.683940 0.096014 -0.977014 0.002823 -0.000167
    31 0.031730 -1.160831 0.058836 -0.525499 0.000642 0.008372
    32 -0.963866 -2.785142 -0.085346 -0.428823 0.161605 0.055456
    33 0.028479 -1.403069 0.006271 -1.244462 0.000000 0.000000
    34 0.021413 -0.957782 0.020047 -0.446120 0.000000 0.000000
    35 1.164475 -2.543938 -0.170328 -1.061121 -0.017417 0.527819
    36 0.024033 -1.129041 0.017806 -1.014840 0.000000 0.000001
    37 0.014896 -0.883990 -0.019845 -0.546132 0.000000 0.000000
    38 -0.500830 -1.428542 0.403295 0.207873 -0.490157 -2.998458
    39 1.522835 0.058681 0.016850 0.095284 -0.052664 0.756697
    40 1.117948 0.048424 -0.005764 -0.007302 -0.022561 0.375587
    41 -0.115961 -0.170293 -0.005135 0.576230 0.066071 1.373638
  time 18
    0 1.169504 7.687732 -11.954264 0.000000 0.000000 0.000000
    1 12.060553 -11.210954 -0.176476 0.757926 -2.415591 -1.394322
    2 -0.071919 -8.498731 -0.104136 0.149373 0.524259 -0.530978
    3 1.470883 -2.792118 0.726656 -0.351378 -0.026468 -3.279846
    4 -2.562689 2.867152 -0.000002 0.000001 0.000000 -3.141592
    5 -0.815617 2.114319 -0.000001 0.000001 0.000000 -0.067788
    6 -1.521637 -4.592964 0.466992 0.000001 0.000000 -3.141591
    7 0.704241 -4.909328 0.000002 0.000001 0.000000 0.000000
    8 -0.488517 -2.755600 -0.228261 -0.721249 -0.081949 -0.452612
    9 0.039887 -1.479789 0.029853 -1.744424 0.000000 0.000000
    10 0.028785 -1.075730 -0.023111 -1.070625 0.000000 0.000001
    11 0.125024 -3.051139 -0.574344 -0.799992 -0.047048 -0.393136
    12 -0.049759 -1.680545 0.100480 -1.558612 0.000000 -0.000002
    13 -0.034141 -1.148311 0.084779 -1.112872 0.000000 0.000000
    14 0.957766 -2.746777 -0.090301 0.273202 -0.158969 -0.144553
    15 -0.033419 -1.397127 -0.011255 -0.622158 0.000000 -0.000001
    16 -0.022360 -0.957435 0.018783 -0.774587 0.000000 0.000000
    17 -1.200212 -2.612687 -0.084483 -0.819559 0.107001 -0.434663
    18 -0.024966 -1.123933 0.017594 -1.746586 0.000000 0.000001
    19 -0.020057 -0.890966 0.010091 -0.424577 0.000000 0.000000
    20 0.583510 -1.197274 0.185377 0.041775 -0.932216 -0.526993
    21 1.535926 0.010245 0.005008 -0.115188 0.228163 -1.325298
    22 1.100770 0.004527 -0.010676 -0.031080 0.118321 -0.649584
    23 0.018586 -0.093236 -0.167773 3.423337 6.142846 -1.288278
    24 -1.599405 -18.380419 0.547178 -1.395424 -5.205778 -0.556276
    25 0.096944 -8.450418 -0.009364 0.063274 -0.890183 0.297747
    26 0.447952 -2.798983 -0.200442 -1.040226 -0.028328 0.435174
    27 -0.032910 -1.480207 0.004936 -1.052168 0.000000 0.000002
    28 -0.027022 -1.076920 -0.020212 -0.483247 0.000000 0.000000
    29 -0.249534 -2.846962 -0.174216 -1.105365 -0.017670 0.423979
    30 0.043235 -1.683940 0.096014 -0.977014 0.002823 -0.000167
    31 0.031730 -1.160831 0.058836 -0.525499 0.000642 0.008372
    32 -0.963866 -2.785142 -0.085346 -0.428823 0.161605 0.055456
    33 0.028479 -1.403069 0.006271 -1.244462 0.000000 0.000000
    34 0.021413 -0.957782 0.020047 -0.446120 0.000000 0.000000
    35 1.164475 -2.543938 -0.170328 -1.061121 -0.017417 0.527819
    36 0.024033 -1.129041 0.017806 -1.014840 0.000000 0.000001
    37 0.014896 -0.883990 -0.019845 -0.546132 0.000000 0.000000
    38 -0.500830 -1.428542 0.403295 0.207873 -0.490157 -2.998458
    39 1.522835 0.058681 0.016850 0.097746 -0.052121 0.747184
    40 1.117948 0.048424 -0.005764 -0.007146 -0.022657 0.368395
    41 -0.115961 -0.170293 -0.005135 0.576230 0.066071 1.373638
  time 19
    0 1.169504 7.738514 -11.954264 0.000000 0.000000 0.000000
    1 12.060553 -11.207048 -0.188195 0.759208 -2.420784 -1.395157
    2 -0.071919 -8.498731 -0.104136 0.149980 0.524175 -0.529780
    3 1.470883 -2.792118 0.726656 -0.351378 -0.026468 -3.279846
    4 -2.562689 2.867152 -0.000002 0.000001 0.000000 -3.141592
    5 -0.815617 2.114319 -0.000001 0.000001 0.000000 -0.031958
    6 -1.521637 -4.592964 0.466992 0.000001 0.000000 -3.141591
    7 0.704241 -4.909328 0.000002 0.000001 0.000000 0.000000
    8 -0.488517 -2.755600 -0.228261 -0.721249 -0.081949 -0.452612
    9 0.039887 -1.479789 0.029853 -1.744424 0.000000 0.000000
    10 0.028785 -1.075730 -0.023111 -1.070625 0.000000 0.000001
    11 0.125024 -3.051139 -0.574344 -0.799992 -0.047060 -0.393136
    12 -0.049759 -1.680545 0.100480 -1.558612 0.000000 -0.000002
    13 -0.034141 -1.148311 0.084779 -1.112872 0.000000 0.000000
    14 0.957766 -2.746777 -0.090301 0.273202 -0.158969 -0.144553
    15 -0.033419 -1.397127 -0.011255 -0.551279 0.000000 -0.000001
    16 -0.022360 -0.957435 0.018783 -0.774587 0.000000 0.000000
    17 -1.200212 -2.612687 -0.084483 -0.819559 0.107001 -0.434663
    18 -0.024966 -1.123933 0.017594 -1.746586 0.000000 0.000001
    19 -0.020057 -0.890966 0.010091 -0.424577 0.000000 0.000000
    20 0.583510 -1.197274 0.185377 0.041775 -0.932216 -0.526993
    21 1.535926 0.010245 0.005008 -0.115188 0.228163 -1.325298
    22 1.100770 0.004527 -0.010676 -0.031080 0.118321 -0.649584
    23 0.018586 -0.093236 -0.167773 3.423337 6.142846 -1.288278
    24 -1.595499 -18.368700 0.574522 -1.395424 -5.205778 -0.556276
    25 0.096944 -8.450418 -0.009364 0.061041 -0.884637 0.294669
    26 0.447952 -2.798983 -0.200442 -1.040226 -0.028328 0.435174
    27 -0.032910 -1.480207 0.004936 -1.052168 0.000000 0.000002
    28 -0.027022 -1.076920 -0.020212 -0.483247 0.000000 0.000000
    29 -0.249534 -2.846962 -0.174216 -1.105365 -0.017670 0.423979
    30 0.043235 -1.683940 0.096014 -0.977014 0.002823 -0.000167
    31 0.031730 -1.160831 0.058836 -0.525499 0.000642 0.008372
    32 -0.963866 -2.785142 -0.085346 -0.428823 0.161605 0.055456
    33 0.028479 -1.403069 0.006271 -1.244462 0.000000 0.000000
    34 0.021413 -0.957782 0.020047 -0.446120 0.000000 0.000000
    35 1.164475 -2.543938 -0.170328 -1.061121 -0.017417 0.527819
    36 0.024033 -1.129041 0.017806 -1.014840 0.000000 0.000001
    37 0.014896 -0.883990 -0.019845 -0.546132 0.000000 0.000000
    38 -0.500830 -1.428542 0.403295 0.207873 -0.490157 -2.998458
    39 1.522835 0.058681 0.016850 0.099542 -0.051706 0.740233
    40 1.117948 0.048424 -0.005764 -0.006966 -0.022765 0.359829
    41 -0.115961 -0.170293 -0.005135 0.576230 0.066071 1.373638
  time 20
    0 1.169504 7.789297 -11.954264 0.000000 0.000000 0.000000
    1 12.060553 -11.207048 -0.196007 0.759688 -2.422799 -1.395484
    2 -0.071919 -8.498731 -0.104136 0.150770 0.523995 -0.528203
    3 1.470883 -2.792118 0.726656 -0.351378 -0.026468 -3.279846
    4 -2.562689 2.867152 -0.000002 0.000001 0.000000 -3.141592
    5 -0.815617 2.114319 -0.000001 0.000001 0.000000 -0.008433
    6 -1.521637 -4.592964 0.466992 0.000001 0.000000 -3.141591
    7 0.704241 -4.909328 0.000002 0.000001 0.000000 0.000000
    8 -0.488517 -2.755600 -0.228261 -0.721249 -0.081949 -0.452612
    9 0.039887 -1.479789 0.029853 -1.744424 0.000000 0.000000
    10 0.028785 -1.075730 -0.023111 -1.070625 0.000000 0.000001
    11 0.125024 -3.051139 -0.574344 -0.799992 -0.047048 -0.393136
    12 -0.049759 -1.680545 0.100480 -1.558612 0.000000 -0.000002
    13 -0.034141 -1.148311 0.084779 -1.112839 0.000000 0.000000
    14 0.957766 -2.746777 -0.090301 0.273202 -0.158969 -0.144553
    15 -0.033419 -1.397127 -0.011255 -0.504786 0.000000 -0.000001
    16 -0.022360 -0.957435 0.018783 -0.774587 0.000000 0.000000
    17 -1.200212 -2.612687 -0.084483 -0.819559 0.107001 -0.434663
    18 -0.024966 -1.123933 0.017594 -1.746586 0.000000 0.000001
    19 -0.020057 -0.890966 0.010091 -0.424577 0.000000 0.000000
    20 0.583510 -1.197274 0.185377 0.041775 -0.932216 -0.526993
    21 1.535926 0.010245 0.005008 -0.115188 0.228163 -1.325298
    22 1.100770 0.004527 -0.010676 -0.031080 0.118321 -0.649584
    23 0.018586 -0.093236 -0.167773 3.423337 6.142846 -1.288278
    24 -1.591592 -18.364793 0.597961 -1.395424 -5.205778 -0.556276
    25 0.096944 -8.450418 -0.009364 0.061055 -0.884417 0.294562
    26 0.447952 -2.798983 -0.200442 -1.040226 -0.028328 0.435174
    27 -0.032910 -1.480207 0.004936 -1.052168 0.000000 0.000002
    28 -0.027022 -1.076920 -0.020212 -0.483247 0.000000 0.000000
    29 -0.249534 -2.846962 -0.174216 -1.105365 -0.017670 0.423979
    30 0.043235 -1.683940 0.096014 -0.977014 0.002823 -0.000167
    31 0.031730 -1.160831 0.058836 -0.525499 0.000642 0.008372
    32 -0.963866 -2.785142 -0.085346 -0.428823 0.161605 0.055456
    33 0.028479 -1.403069 0.006271 -1.244462 0.000000 0.000000
    34 0.021413 -0.957782 0.020047 -0.446120 0.000000 0.000000
    35 1.164475 -2.543938 -0.170328 -1.061121 -0.017417 0.527819
    36 0.024033 -1.129041 0.017806 -1.014840 0.000000 0.000001
    37 0.014896 -0.883990 -0.019845 -0.546132 0.000000 0.000000
    38 -0.500830 -1.428542 0.403295 0.207873 -0.490157 -2.998458
    39 1.522835 0.058681 0.016850 0.100237 -0.051546 0.737539
    40 1.117948 0.048424 -0.005764 -0.006763 -0.022909 0.349921
    41 -0.115961 -0.170293 -0.005135 0.576230 0.066071 1.373638
  time 21
    0 1.169504 7.840080 -11.954264 0.000000 0.000000 0.000000
    1 12.060553 -11.203141 -0.188195 0.759048 -2.420086 -1.395048
    2 -0.071919 -8.498731 -0.104136 0.153480 0.523239 -0.522774
    3 1.470883 -2.792118 0.726656 -0.351378 -0.026468 -3.279846
    4 -2.562689 2.867152 -0.000002 0.000001 0.000000 -3.141592
    5 -0.815617 2.114319 -0.000001 0.000001 0.000000 0.000000
    6 -1.521637 -4.592964 0.466992 0.000001 0.000000 -3.141591
    7 0.704241 -4.909328 0.000002 0.000001 0.000000 0.000000
    8 -0.488517 -2.755600 -0.228261 -0.721249 -0.081949 -0.452612
    9 0.039887 -1.479789 0.029853 -1.744424 0.000000 0.000000
    10 0.028785 -1.075730 -0.023111 -1.070625 0.000000 0.000001
    11 0.125024 -3.051139 -0.574344 -0.799992 -0.047048 -0.393136
    12 -0.049759 -1.680545 0.100480 -1.558612 0.000000 -0.000002
    13 -0.034141 -1.148311 0.084779 -1.112872 0.000000 0.000000
    14 0.957766 -2.746777 -0.090301 0.273202 -0.158969 -0.144553
    15 -0.033419 -1.397127 -0.011255 -0.488103 0.000000 -0.000001
    16 -0.022360 -0.957435 0.018783 -0.774587 0.000000 0.000000
    17 -1.200212 -2.612687 -0.084483 -0.819559 0.107001 -0.434663
    18 -0.024966 -1.123933 0.017594 -1.746586 0.000000 0.000001
    19 -0.020057 -0.890966 0.010091 -0.424577 0.000000 0.000000
    20 0.583510 -1.197274 0.185377 0.041775 -0.932216 -0.526993
    21 1.535926 0.010245 0.005008 -0.115188 0.228163 -1.325298
    22 1.100770 0.004527 -0.010676 -0.031080 0.118321 -0.649584
    23 0.018586 -0.093236 -0.167773 3.423337 6.142846 -1.288278
    24 -1.595499 -18.368700 0.617493 -1.395424 -5.205778 -0.556276
    25 0.096944 -8.450418 -0.009364 0.061055 -0.884263 0.294477
    26 0.447952 -2.798983 -0.200442 -1.040226 -0.028328 0.435174
    27 -0.032910 -1.480207 0.004936 -1.052168 0.000000 0.000002
    28 -0.027022 -1.076920 -0.020212 -0.483247 0.000000 0.000000
    29 -0.249534 -2.846962 -0.174216 -1.105365 -0.017670 0.423979
    30 0.043235 -1.683940 0.096014 -0.977014 0.002823 -0.000167
    31 0.031730 -1.160831 0.058836 -0.525499 0.000642 0.008372
    32 -0.963866 -2.785142 -0.085346 -0.428823 0.161605 0.055456
    33 0.028479 -1.403069 0.006271 -1.244462 0.000000 0.000000
    34 0.021413 -0.957782 0.020047 -0.446120 0.000000 0.000000
    35 1.164475 -2.543938 -0.170328 -1.061121 -0.017417 0.527819
    36 0.024033 -1.129041 0.017806 -1.014840 0.000000 0.000001
    37 0.014896 -0.883990 -0.019845 -0.546132 0.000000 0.000000
    38 -0.500830 -1.428542 0.403295 0.207873 -0.490157 -2.998458
    39 1.522835 0.058681 0.016850 0.099889 -0.051610 0.738902
    40 1.117948 0.048424 -0.005764 -0.006499 -0.023089 0.337487
    41 -0.115961 -0.170293 -0.005135 0.576230 0.066071 1.373638
  time 22
    0 1.169504 7.886956 -11.954264 0.000000 0.000000 0.000000
    1 12.060553 -11.199235 -0.164757 0.757446 -2.413343 -1.393958
    2 -0.071919 -8.498731 -0.104136 0.158829 0.521691 -0.512015
    3 1.470883 -2.792118 0.726656 -0.351378 -0.026468 -3.279846
    4 -2.562689 2.867152 -0.000002 0.000001 0.000000 -3.141592
    5 -0.815617 2.114319 -0.000001 0.000001 0.000000 0.000000
    6 -1.521637 -4.592964 0.466992 0.000001 0.000000 -3.141591
    7 0.704241 -4.909328 0.000002 0.000001 0.000000 0.000000
    8 -0.488517 -2.755600 -0.228261 -0.721249 -0.081949 -0.452612
    9 0.039887 -1.479789 0.029853 -1.744424 0.000000 0.000000
    10 0.028785 -1.075730 -0.023111 -1.070625 0.000000 0.000001
    11 0.125024 -3.051139 -0.574344 -0.799992 -0.047048 -0.393136
    12 -0.049759 -1.680545 0.100480 -1.558612 0.000000 -0.000002
    13 -0.034141 -1.148311 0.084779 -1.112872 0.000000 0.000000
    14 0.957766 -2.746777 -0.090301 0.273202 -0.158969 -0.144553
    15 -0.033419 -1.397127 -0.011255 -0.488103 0.000000 -0.000001
    16 -0.022360 -0.957435 0.018783 -0.774587 0.000000 0.000000
    17 -1.200212 -2.612687 -0.084483 -0.819559 0.107001 -0.434663
    18 -0.024966 -1.123933 0.017594 -1.746586 0.000000 0.000001
    19 -0.020057 -0.890966 0.010091 -0.424577 0.000000 0.000000
    20 0.583510 -1.197274 0.185377 0.041775 -0.932216 -0.526993
    21 1.535926 0.010245 0.005008 -0.115188 0.228163 -1.325298
    22 1.100770 0.004527 -0.010676 -0.031080 0.118321 -0.649584
    23 0.018586 -0.093236 -0.167773 3.423337 6.142846 -1.288278
    24 -1.603311 -18.372606 0.640931 -1.395424 -5.205778 -0.556276
    25 0.096944 -8.450418 -0.009364 0.061055 -0.884131 0.294413
    26 0.447952 -2.798983 -0.200442 -1.040226 -0.028328 0.435174
    27 -0.032910 -1.480207 0.004936 -1.052168 0.000000 0.000002
    28 -0.027022 -1.076920 -0.020212 -0.483247 0.000000 0.000000
    29 -0.249534 -2.846962 -0.174216 -1.105365 -0.017670 0.423979
    30 0.043235 -1.683940 0.096014 -0.977014 0.002823 -0.000167
    31 0.031730 -1.160831 0.058836 -0.525499 0.000642 0.008372
    32 -0.963866 -2.785142 -0.085346 -0.428823 0.161605 0.055456
    33 0.028479 -1.403069 0.006271 -1.244462 0.000000 0.000000
    34 0.021413 -0.957782 0.020047 -0.446120 0.000000 0.000000
    35 1.164475 -2.543938 -0.170328 -1.061121 -0.017417 0.527819
    36 0.024033 -1.129041 0.017806 -1.014840 0.000000 0.000001
    37 0.014896 -0.883990 -0.019845 -0.546132 0.000000 0.000000
    38 -0.500830 -1.428542 0.403295 0.207873 -0.490157 -2.998458
    39 1.522835 0.058681 0.016850 0.098933 -0.051834 0.742628
    40 1.117948 0.048424 -0.005764 -0.006175 -0.023304 0.321921
    41 -0.115961 -0.170293 -0.005135 0.576230 0.066071 1.373638
  time 23
    0 1.169504 7.929926 -11.954264 0.000000 0.000000 0.000000
    1 12.060553 -11.199235 -0.133506 0.755283 -2.404584 -1.392505
    2 -0.071919 -8.498731 -0.104136 0.165421 0.519759 -0.498721
    3 1.470883 -2.792118 0.726656 -0.351378 -0.026468 -3.279846
    4 -2.562689 2.867152 -0.000002 0.000001 0.000000 -3.141592
    5 -0.815617 2.114319 -0.000001 0.000001 0.000000 0.000000
    6 -1.521637 -4.592964 0.466992 0.000001 0.000000 -3.141591
    7 0.704241 -4.909328 0.000002 0.000001 0.000000 0.000000
    8 -0.488517 -2.755600 -0.228261 -0.721249 -0.081949 -0.452612
    9 0.039887 -1.479789 0.029853 -1.744424 0.000000 0.000000
    10 0.028785 -1.075730 -0.023111 -1.070625 0.000000 0.000001
    11 0.125024 -3.051139 -0.574344 -0.799992 -0.047048 -0.393136
    12 -0.049759 -1.680545 0.100480 -1.558612 0.000000 -0.000002
    13 -0.034141 -1.148311 0.084779 -1.112872 0.000000 0.000000
    14 0.957766 -2.746777 -0.090301 0.273202 -0.158969 -0.144553
    15 -0.033419 -1.397127 -0.011255 -0.488103 0.000000 -0.000001
    16 -0.022360 -0.957435 0.018783 -0.774587 0.000000 0.000000
    17 -1.200212 -2.612687 -0.084483 -0.819559 0.107001 -0.434663
    18 -0.024966 -1.123933 0.017594 -1.746586 0.000000 0.000001
    19 -0.020057 -0.890966 0.010091 -0.424577 0.000000 0.000000
    20 0.583510 -1.197274 0.185377 0.041775 -0.932216 -0.526993
    21 1.535926 0.010245 0.005008 -0.115188 0.228163 -1.325298
    22 1.100770 0.004527 -0.010676 -0.031080 0.118321 -0.649584
    23 0.018586 -0.093236 -0.167773 3.423337 6.142846 -1.288278
    24 -1.611124 -18.380419 0.660463 -1.395424 -5.205778 -0.556276
    25 0.096944 -8.450418 -0.009364 0.061055 -0.884065 0.294370
    26 0.447952 -2.798983 -0.200442 -1.040226 -0.028328 0.435174
    27 -0.032910 -1.480207 0.004936 -1.052168 0.000000 0.000002
    28 -0.027022 -1.076920 -0.020212 -0.483247 0.000000 0.000000
    29 -0.249534 -2.846962 -0.174216 -1.105365 -0.017670 0.423979
    30 0.043235 -1.683940 0.096014 -0.977014 0.002823 -0.000167
    31 0.031730 -1.160831 0.058836 -0.525499 0.000642 0.008372
    32 -0.963866 -2.785142 -0.085346 -0.428823 0.161605 0.055456
    33 0.028479 -1.403069 0.006271 -1.244462 0.000000 0.000000
    34 0.021413 -0.957782 0.020047 -0.446120 0.000000 0.000000
    35 1.164475 -2.543938 -0.170328 -1.061121 -0.017417 0.527819
    36 0.024033 -1.129041 0.017806 -1.014840 0.000000 0.000001
    37 0.014896 -0.883990 -0.019845 -0.546132 0.000000 0.000000
    38 -0.500830 -1.428542 0.403295 0.207873 -0.490157 -2.998458
    39 1.522835 0.058681 0.016850 0.097514 -0.052153 0.748049
    40 1.117948 0.048424 -0.005764 -0.005816 -0.023556 0.304246
    41 -0.115961 -0.170293 -0.005135 0.576230 0.066071 1.373638
  time 24
    0 1.169504 7.961177 -11.954264 0.000000 0.000000 0.000000
    1 12.060553 -11.195329 -0.102255 0.753200 -2.395826 -1.391088
    2 -0.071919 -8.498731 -0.104136 0.171871 0.517887 -0.485746
    3 1.470883 -2.792118 0.726656 -0.351378 -0.026468 -3.279846
    4 -2.562689 2.867152 -0.000002 0.000001 0.000000 -3.141592
    5 -0.815617 2.114319 -0.000001 0.000001 0.000000 0.000000
    6 -1.521637 -4.592964 0.466992 0.000001 0.000000 -3.141591
    7 0.704241 -4.909328 0.000002 0.000001 0.000000 0.000000
    8 -0.488517 -2.755600 -0.228261 -0.721249 -0.081949 -0.452612
    9 0.039887 -1.479789 0.029853 -1.744424 0.000000 0.000000
    10 0.028785 -1.075730 -0.023111 -1.070625 0.000000 0.000001
    11 0.125024 -3.051139 -0.574344 -0.799992 -0.047048 -0.393136
    12 -0.049759 -1.680545 0.100480 -1.558612 0.000000 -0.000002
    13 -0.034141 -1.148311 0.084779 -1.112839 0.000000 0.000000
    14 0.957766 -2.746777 -0.090301 0.273202 -0.158969 -0.144553
    15 -0.033419 -1.397127 -0.011255 -0.488103 0.000000 -0.000001
    16 -0.022360 -0.957435 0.018783 -0.774587 0.000000 0.000000
    17 -1.200212 -2.612687 -0.084483 -0.819559 0.107001 -0.434663
    18 -0.024966 -1.123933 0.017594 -1.746586 0.000000 0.000001
    19 -0.020057 -0.890966 0.010091 -0.424577 0.000000 0.000000
    20 0.583510 -1.197274 0.185377 0.041775 -0.932216 -0.526993
    21 1.535926 0.010245 0.005008 -0.115188 0.228163 -1.325298
    22 1.100770 0.004527 -0.010676 -0.031080 0.118321 -0.649584
    23 0.018586 -0.093236 -0.167773 3.423337 6.142846 -1.288278
    24 -1.618937 -18.388232 0.683901 -1.395424 -5.205778 -0.556276
    25 0.096944 -8.450418 -0.009364 0.061055 -0.883999 0.294327
    26 0.447952 -2.798983 -0.200442 -1.040226 -0.028328 0.435174
    27 -0.032910 -1.480207 0.004936 -1.052168 0.000000 0.000002
    28 -0.027022 -1.076920 -0.020212 -0.483247 0.000000 0.000000
    29 -0.249534 -2.846962 -0.174216 -1.105365 -0.017670 0.423979
    30 0.043235 -1.683940 0.096014 -0.977014 0.002823 -0.000167
    31 0.031730 -1.160831 0.058836 -0.525499 0.000642 0.008372
    32 -0.963866 -2.785142 -0.085346 -0.428823 0.161605 0.055456
    33 0.028479 -1.403069 0.006271 -1.244462 0.000000 0.000000
    34 0.021413 -0.957782 0.020047 -0.446120 0.000000 0.000000
    35 1.164475 -2.543938 -0.170328 -1.061121 -0.017417 0.527819
    36 0.024033 -1.129041 0.017806 -1.014840 0.000000 0.000001
    37 0.014896 -0.883990 -0.019845 -0.546132 0.000000 0.000000
    38 -0.500830 -1.428542 0.403295 0.207873 -0.490157 -2.998458
    39 1.522835 0.058681 0.016850 0.095805 -0.052568 0.754668
    40 1.117948 0.048424 -0.005764 -0.005420 -0.023832 0.285548
    41 -0.115961 -0.170293 -0.005135 0.576230 0.066071 1.373638
  time 25
    0 1.169504 7.980709 -11.954264 0.000000 0.000000 0.000000
    1 12.060553 -11.195329 -0.074910 0.751518 -2.389082 -1.389998
    2 -0.071919 -8.498731 -0.104136 0.176768 0.516446 -0.475885
    3 1.470883 -2.792118 0.726656 -0.351378 -0.026468 -3.279846
    4 -2.562689 2.867152 -0.000002 0.000001 0.000000 -3.141592
    5 -0.815617 2.114319 -0.000001 0.000001 0.000000 0.000000
    6 -1.521637 -4.592964 0.466992 0.000001 0.000000 -3.141591
    7 0.704241 -4.909328 0.000002 0.000001 0.000000 0.000000
    8 -0.488517 -2.755600 -0.228261 -0.721249 -0.081949 -0.452612
    9 0.039887 -1.479789 0.029853 -1.744424 0.000000 0.000000
    10 0.028785 -1.075730 -0.023111 -1.070625 0.000000 0.000001
    11 0.125024 -3.051139 -0.574344 -0.799992 -0.047048 -0.393136
    12 -0.049759 -1.680545 0.100480 -1.558612 0.000000 -0.000002
    13 -0.034141 -1.148311 0.084779 -1.112839 0.000000 0.000000
    14 0.957766 -2.746777 -0.090301 0.273202 -0.158969 -0.144553
    15 -0.033419 -1.397127 -0.011255 -0.488103 0.000000 -0.000001
    16 -0.022360 -0.957435 0.018783 -0.774587 0.000000 0.000000
    17 -1.200212 -2.612687 -0.084483 -0.819559 0.107001 -0.434663
    18 -0.024966 -1.123933 0.017594 -1.746586 0.000000 0.000001
    19 -0.020057 -0.890966 0.010091 -0.424577 0.000000 0.000000
    20 0.583510 -1.197274 0.185377 0.041775 -0.932216 -0.526993
    21 1.535926 0.010245 0.005008 -0.115188 0.228163 -1.325298
    22 1.100770 0.004527 -0.010676 -0.031080 0.118321 -0.649584
    23 0.018586 -0.093236 -0.167773 3.423337 6.142846 -1.288278
    24 -1.622843 -18.396044 0.699526 -1.395424 -5.205778 -0.556276
    25 0.096944 -8.450418 -0.009364 0.061055 -0.883977 0.294306
    26 0.447952 -2.798983 -0.200442 -1.040226 -0.028328 0.435174
    27 -0.032910 -1.480207 0.004936 -1.052168 0.000000 0.000002
    28 -0.027022 -1.076920 -0.020212 -0.483247 0.000000 0.000000
    29 -0.249534 -2.846962 -0.174216 -1.105365 -0.017670 0.423979
    30 0.043235 -1.683940 0.096014 -0.977014 0.002823 -0.000167
    31 0.031730 -1.160831 0.058836 -0.525499 0.000642 0.008372
    32 -0.963866 -2.785142 -0.085346 -0.428823 0.161605 0.055456
    33 0.028479 -1.403069 0.006271 -1.244462 0.000000 0.000000
    34 0.021413 -0.957782 0.020047 -0.446120 0.000000 0.000000
    35 1.164475 -2.543938 -0.170328 -1.061121 -0.017417 0.527819
    36 0.024033 -1.129041 0.017806 -1.014840 0.000000 0.000001
    37 0.014896 -0.883990 -0.019845 -0.546132 0.000000 0.000000
    38 -0.500830 -1.428542 0.403295 0.207873 -0.490157 -2.998458
    39 1.522835 0.058681 0.016850 0.093951 -0.052983 0.761885
    40 1.117948 0.048424 -0.005764 -0.005037 -0.024095 0.266850
    41 -0.115961 -0.170293 -0.005135 0.576230 0.066071 1.373638
  time 26
    0 1.169504 7.988522 -11.954264 0.000000 0.000000 0.000000
    1 12.060553 -11.191422 -0.051472 0.750877 -2.386447 -1.389525
    2 -0.071919 -8.498731 -0.104136 0.178716 0.515882 -0.471973
    3 1.470883 -2.792118 0.726656 -0.351378 -0.026468 -3.279846
    4 -2.562689 2.867152 -0.000002 0.000001 0.000000 -3.141592
    5 -0.815617 2.114319 -0.000001 0.000001 0.000000 0.000000
    6 -1.521637 -4.592964 0.466992 0.000001 0.000000 -3.141591
    7 0.704241 -4.909328 0.000002 0.000001 0.000000 0.000000
    8 -0.488517 -2.755600 -0.228261 -0.721249 -0.081949 -0.452612
    9 0.039887 -1.479789 0.029853 -1.744424 0.000000 0.000000
    10 0.028785 -1.075730 -0.023111 -1.070625 0.000000 0.000001
    11 0.125024 -3.051139 -0.574344 -0.799992 -0.047060 -0.393136
    12 -0.049759 -1.680545 0.100480 -1.558612 0.000000 -0.000002
    13 -0.034141 -1.148311 0.084779 -1.112872 0.000000 0.000000
    14 0.957766 -2.746777 -0.090301 0.273202 -0.158969 -0.144553
    15 -0.033419 -1.397127 -0.011255 -0.488103 0.000000 -0.000001
    16 -0.022360 -0.957435 0.018783 -0.774587 0.000000 0.000000
    17 -1.200212 -2.612687 -0.084483 -0.819559 0.107001 -0.434663
    18 -0.024966 -1.123933 0.017594 -1.746586 0.000000 0.000001
    19 -0.020057 -0.890966 0.010091 -0.424577 0.000000 0.000000
    20 0.583510 -1.197274 0.185377 0.041775 -0.932216 -0.526993
    21 1.535926 0.010245 0.005008 -0.115188 0.228163 -1.325298
    22 1.100770 0.004527 -0.010676 -0.031080 0.118321 -0.649584
    23 0.018586 -0.093236 -0.167773 3.423337 6.142846 -1.288278
    24 -1.626750 -18.403857 0.719058 -1.395424 -5.205778 -0.556276
    25 0.096944 -8.450418 -0.009364 0.061055 -0.883977 0.294306
    26 0.447952 -2.798983 -0.200442 -1.040226 -0.028328 0.435174
    27 -0.032910 -1.480207 0.004936 -1.052168 0.000000 0.000002
    28 -0.027022 -1.076920 -0.020212 -0.483247 0.000000 0.000000
    29 -0.249534 -2.846962 -0.174216 -1.105365 -0.017670 0.423979
    30 0.043235 -1.683940 0.096014 -0.977014 0.002823 -0.000167
    31 0.031730 -1.160831 0.058836 -0.525499 0.000642 0.008372
    32 -0.963866 -2.785142 -0.085346 -0.428823 0.161605 0.055456
    33 0.028479 -1.403069 0.006271 -1.244462 0.000000 0.000000
    34 0.021413 -0.957782 0.020047 -0.446120 0.000000 0.000000
    35 1.164475 -2.543938 -0.170328 -1.061121 -0.017417 0.527819
    36 0.024033 -1.129041 0.017806 -1.014840 0.000000 0.000001
    37 0.014896 -0.883990 -0.019845 -0.546132 0.000000 0.000000
    38 -0.500830 -1.428542 0.403295 0.207873 -0.490157 -2.998458
    39 1.522835 0.058681 0.016850 0.092098 -0.053430 0.769070
    40 1.117948 0.048424 -0.005764 -0.004677 -0.024347 0.249207
    41 -0.115961 -0.170293 -0.005135 0.576230 0.066071 1.373638
  time 27
    0 1.169504 7.988522 -11.954264 0.000000 0.000000 0.000000
    1 12.060553 -11.199235 -0.039753 0.750877 -2.386447 -1.389525
    2 -0.071919 -8.498731 -0.104136 0.178716 0.515882 -0.471973
    3 1.470883 -2.792118 0.726656 -0.351378 -0.026468 -3.279846
    4 -2.562689 2.867152 -0.000002 0.000001 0.000000 -3.141592
    5 -0.815617 2.114319 -0.000001 0.000001 0.000000 0.000000
    6 -1.521637 -4.592964 0.466992 0.000001 0.000000 -3.141591
    7 0.704241 -4.909328 0.000002 0.000001 0.000000 0.000000
    8 -0.488517 -2.755600 -0.228261 -0.721249 -0.081949 -0.452612
    9 0.039887 -1.479789 0.029853 -1.744424 0.000000 0.000000
    10 0.028785 -1.075730 -0.023111 -1.070625 0.000000 0.000001
    11 0.125024 -3.051139 -0.574344 -0.799992 -0.047060 -0.393136
    12 -0.049759 -1.680545 0.100480 -1.558612 0.000000 -0.000002
    13 -0.034141 -1.148311 0.084779 -1.112872 0.000000 0.000000
    14 0.957766 -2.746777 -0.090301 0.273202 -0.158969 -0.144553
    15 -0.033419 -1.397127 -0.011255 -0.488103 0.000000 -0.000001
    16 -0.022360 -0.957435 0.018783 -0.774587 0.000000 0.000000
    17 -1.200212 -2.612687 -0.084483 -0.819559 0.107001 -0.434663
    18 -0.024966 -1.123933 0.017594 -1.746586 0.000000 0.000001
    19 -0.020057 -0.890966 0.010091 -0.424577 0.000000 0.000000
    20 0.583510 -1.197274 0.185377 0.041775 -0.932216 -0.526993
    21 1.535926 0.010245 0.005008 -0.115188 0.228163 -1.325298
    22 1.100770 0.004527 -0.010676 -0.031080 0.118321 -0.649584
    23 0.018586 -0.093236 -0.167773 3.423337 6.142846 -1.288278
    24 -1.626750 -18.411670 0.726871 -1.395424 -5.205778 -0.556276
    25 0.096944 -8.450418 -0.009364 0.061055 -0.883977 0.294306
    26 0.447952 -2.798983 -0.200442 -1.040226 -0.028328 0.435174
    27 -0.032910 -1.480207 0.004936 -1.052168 0.000000 0.000002
    28 -0.027022 -1.076920 -0.020212 -0.483247 0.000000 0.000000
    29 -0.249534 -2.846962 -0.174216 -1.105365 -0.017670 0.423979
    30 0.043235 -1.683940 0.096014 -0.977014 0.002823 -0.000167
    31 0.031730 -1.160831 0.058836 -0.525499 0.000642 0.008372
    32 -0.963866 -2.785142 -0.085346 -0.428823 0.161605 0.055456
    33 0.028479 -1.403069 0.006271 -1.244462 0.000000 0.000000
    34 0.021413 -0.957782 0.020047 -0.446120 0.000000 0.000000
    35 1.164475 -2.543938 -0.170328 -1.061121 -0.017417 0.527819
    36 0.024033 -1.129041 0.017806 -1.014840 0.000000 0.000001
    37 0.014896 -0.883990 -0.019845 -0.546132 0.000000 0.000000
    38 -0.500830 -1.428542 0.403295 0.207873 -0.490157 -2.998458
    39 1.522835 0.058681 0.016850 0.090389 -0.053813 0.775689
    40 1.117948 0.048424 -0.005764 -0.004354 -0.024563 0.233673
    41 -0.115961 -0.170293 -0.005135 0.576230 0.066071 1.373638
  time 28
    0 1.169504 7.988522 -11.954264 0.000000 0.000000 0.000000
    1 12.060553 -11.207048 -0.031940 0.750877 -2.386447 -1.389525
    2 -0.071919 -8.498731 -0.104136 0.178716 0.515882 -0.471973
    3 1.470883 -2.792118 0.726656 -0.351378 -0.026468 -3.279846
    4 -2.562689 2.867152 -0.000002 0.000001 0.000000 -3.141592
    5 -0.815617 2.114319 -0.000001 0.000001 0.000000 0.000000
    6 -1.521637 -4.592964 0.466992 0.000001 0.000000 -3.141591
    7 0.704241 -4.909328 0.000002 0.000001 0.000000 0.000000
    8 -0.488517 -2.755600 -0.228261 -0.721249 -0.081949 -0.452612
    9 0.039887 -1.479789 0.029853 -1.744424 0.000000 0.000000
    10 0.028785 -1.075730 -0.023111 -1.070625 0.000000 0.000001
    11 0.125024 -3.051139 -0.574344 -0.799992 -0.047060 -0.393136
    12 -0.049759 -1.680545 0.100480 -1.558612 0.000000 -0.000002
    13 -0.034141 -1.148311 0.084779 -1.112872 0.000000 0.000000
    14 0.957766 -2.746777 -0.090301 0.273202 -0.158969 -0.144553
    15 -0.033419 -1.397127 -0.011255 -0.488103 0.000000 -0.000001
    16 -0.022360 -0.957435 0.018783 -0.774587 0.000000 0.000000
    17 -1.200212 -2.612687 -0.084483 -0.819559 0.107001 -0.434663
    18 -0.024966 -1.123933 0.017594 -1.746586 0.000000 0.000001
    19 -0.020057 -0.890966 0.010091 -0.424577 0.000000 0.000000
    20 0.583510 -1.197274 0.185377 0.041775 -0.932216 -0.526993
    21 1.535926 0.010245 0.005008 -0.115188 0.228163 -1.325298
    22 1.100770 0.004527 -0.010676 -0.031080 0.118321 -0.649584
    23 0.018586 -0.093236 -0.167773 3.423337 6.142846 -1.288278
    24 -1.626750 -18.419482 0.734684 -1.395424 -5.205778 -0.556276
    25 0.096944 -8.450418 -0.009364 0.061055 -0.883977 0.294306
    26 0.447952 -2.798983 -0.200442 -1.040226 -0.028328 0.435174
    27 -0.032910 -1.480207 0.004936 -1.052168 0.000000 0.000002
    28 -0.027022 -1.076920 -0.020212 -0.483247 0.000000 0.000000
    29 -0.249534 -2.846962 -0.174216 -1.105365 -0.017670 0.423979
    30 0.043235 -1.683940 0.096014 -0.977014 0.002823 -0.000167
    31 0.031730 -1.160831 0.058836 -0.525499 0.000642 0.008372
    32 -0.963866 -2.785142 -0.085346 -0.428823 0.161605 0.055456
    33 0.028479 -1.403069 0.006271 -1.244462 0.000000 0.000000
    34 0.021413 -0.957782 0.020047 -0.446120 0.000000 0.000000
    35 1.164475 -2.543938 -0.170328 -1.061121 -0.017417 0.527819
    36 0.024033 -1.129041 0.017806 -1.014840 0.000000 0.000001
    37 0.014896 -0.883990 -0.019845 -0.546132 0.000000 0.000000
    38 -0.500830 -1.428542 0.403295 0.207873 -0.490157 -2.998458
    39 1.522835 0.058681 0.016850 0.088970 -0.054132 0.781143
    40 1.117948 0.048424 -0.005764 -0.004102 -0.024743 0.221271
    41 -0.115961 -0.170293 -0.005135 0.576230 0.066071 1.373638
  time 29
    0 1.169504 7.988522 -11.954264 0.000000 0.000000 0.000000
    1 12.060553 -11.214860 -0.031940 0.750877 -2.386447 -1.389525
    2 -0.071919 -8.498731 -0.104136 0.178716 0.515882 -0.471973
    3 1.470883 -2.792118 0.726656 -0.351378 -0.026468 -3.279846
    4 -2.562689 2.867152 -0.000002 0.000001 0.000000 -3.141592
    5 -0.815617 2.114319 -0.000001 0.000001 0.000000 0.000000
    6 -1.521637 -4.592964 0.466992 0.000001 0.000000 -3.141591
    7 0.704241 -4.909328 0.000002 0.000001 0.000000 0.000000
    8 -0.488517 -2.755600 -0.228261 -0.721249 -0.081949 -0.452612
    9 0.039887 -1.479789 0.029853 -1.744424 0.000000 0.000000
    10 0.028785 -1.075730 -0.023111 -1.070625 0.000000 0.000001
    11 0.125024 -3.051139 -0.574344 -0.799992 -0.047060 -0.393136
    12 -0.049759 -1.680545 0.100480 -1.558612 0.000000 -0.000002
    13 -0.034141 -1.148311 0.084779 -1.112872 0.000000 0.000000
    14 0.957766 -2.746777 -0.090301 0.273202 -0.158969 -0.144553
    15 -0.033419 -1.397127 -0.011255 -0.488103 0.000000 -0.000001
    16 -0.022360 -0.957435 0.018783 -0.774587 0.000000 0.000000
    17 -1.200212 -2.612687 -0.084483 -0.819559 0.107001 -0.434663
    18 -0.024966 -1.123933 0.017594 -1.746586 0.000000 0.000001
    19 -0.020057 -0.890966 0.010091 -0.424577 0.000000 0.000000
    20 0.583510 -1.197274 0.185377 0.041775 -0.932216 -0.526993
    21 1.535926 0.010245 0.005008 -0.115188 0.228163 -1.325298
    22 1.100770 0.004527 -0.010676 -0.031080 0.118321 -0.649584
    23 0.018586 -0.093236 -0.167773 3.423337 6.142846 -1.288278
    24 -1.626750 -18.427295 0.738590 -1.395424 -5.205778 -0.556276
    25 0.096944 -8.450418 -0.009364 0.061055 -0.883977 0.294306
    26 0.447952 -2.798983 -0.200442 -1.040226 -0.028328 0.435174
    27 -0.032910 -1.480207 0.004936 -1.052168 0.000000 0.000002
    28 -0.027022 -1.076920 -0.020212 -0.483247 0.000000 0.000000
    29 -0.249534 -2.846962 -0.174216 -1.105365 -0.017670 0.423979
    30 0.043235 -1.683940 0.096014 -0.977014 0.002823 -0.000167
    31 0.031730 -1.160831 0.058836 -0.525499 0.000642 0.008372
    32 -0.963866 -2.785142 -0.085346 -0.428823 0.161605 0.055456
    33 0.028479 -1.403069 0.006271 -1.244462 0.000000 0.000000
    34 0.021413 -0.957782 0.020047 -0.446120 0.000000 0.000000
    35 1.164475 -2.543938 -0.170328 -1.061121 -0.017417 0.527819
    36 0.024033 -1.129041 0.017806 -1.014840 0.000000 0.000001
    37 0.014896 -0.883990 -0.019845 -0.546132 0.000000 0.000000
    38 -0.500830 -1.428542 0.403295 0.207873 -0.490157 -2.998458
    39 1.522835 0.058681 0.016850 0.088014 -0.054356 0.784835
    40 1.117948 0.048424 -0.005764 -0.003922 -0.024862 0.213057
    41 -0.115961 -0.170293 -0.005135 0.576230 0.066071 1.373638
  time 30
    0 1.169504 7.988522 -11.954264 0.000000 0.000000 0.000000
    1 12.060553 -11.218767 -0.031940 0.750877 -2.386447 -1.389525
    2 -0.071919 -8.498731 -0.104136 0.178716 0.515882 -0.471973
    3 1.470883 -2.792118 0.726656 -0.351378 -0.026468 -3.279846
    4 -2.562689 2.867152 -0.000002 0.000001 0.000000 -3.141592
    5 -0.815617 2.114319 -0.000001 0.000001 0.000000 0.000000
    6 -1.521637 -4.592964 0.466992 0.000001 0.000000 -3.141591
    7 0.704241 -4.909328 0.000002 0.000001 0.000000 0.000000
    8 -0.488517 -2.755600 -0.228261 -0.721249 -0.081949 -0.452612
    9 0.039887 -1.479789 0.029853 -1.744424 0.000000 0.000000
    10 0.028785 -1.075730 -0.023111 -1.070625 0.000000 0.000001
    11 0.125024 -3.051139 -0.574344 -0.799992 -0.047060 -0.393136
    12 -0.049759 -1.680545 0.100480 -1.558612 0.000000 -0.000002
    13 -0.034141 -1.148311 0.084779 -1.112872 0.000000 0.000000
    14 0.957766 -2.746777 -0.090301 0.273202 -0.158969 -0.144553
    15 -0.033419 -1.397127 -0.011255 -0.488103 0.000000 -0.000001
    16 -0.022360 -0.957435 0.018783 -0.774587 0.000000 0.000000
    17 -1.200212 -2.612687 -0.084483 -0.819559 0.107001 -0.434663
    18 -0.024966 -1.123933 0.017594 -1.746586 0.000000 0.000001
    19 -0.020057 -0.890966 0.010091 -0.424577 0.000000 0.000000
    20 0.583510 -1.197274 0.185377 0.041775 -0.932216 -0.526993
    21 1.535926 0.010245 0.005008 -0.115188 0.228163 -1.325298
    22 1.100770 0.004527 -0.010676 -0.031080 0.118321 -0.649584
    23 0.018586 -0.093236 -0.167773 3.423337 6.142846 -1.288278
    24 -1.626750 -18.431202 0.738590 -1.395424 -5.205778 -0.556276
    25 0.096944 -8.450418 -0.009364 0.061055 -0.883977 0.294306
    26 0.447952 -2.798983 -0.200442 -1.040226 -0.028328 0.435174
    27 -0.032910 -1.480207 0.004936 -1.052168 0.000000 0.000002
    28 -0.027022 -1.076920 -0.020212 -0.483247 0.000000 0.000000
    29 -0.249534 -2.846962 -0.174216 -1.105365 -0.017670 0.423979
    30 0.043235 -1.683940 0.096014 -0.977014 0.002823 -0.000167
    31 0.031730 -1.160831 0.058836 -0.525499 0.000642 0.008372
    32 -0.963866 -2.785142 -0.085346 -0.428823 0.161605 0.055456
    33 0.028479 -1.403069 0.006271 -1.244462 0.000000 0.000000
    34 0.021413 -0.957782 0.020047 -0.446120 0.000000 0.000000
    35 1.164475 -2.543938 -0.170328 -1.061121 -0.017417 0.527819
    36 0.024033 -1.129041 0.017806 -1.014840 0.000000 0.000001
    37 0.014896 -0.883990 -0.019845 -0.546132 0.000000 0.000000
    38 -0.500830 -1.428542 0.403295 0.207873 -0.490157 -2.998458
    39 1.522835 0.058681 0.016850 0.087666 -0.054420 0.786199
    40 1.117948 0.048424 -0.005764 -0.003862 -0.024910 0.210085
    41 -0.115961 -0.170293 -0.005135 0.576230 0.066071 1.373638
end
