// Created by Crowbar 0.49.0.0

$modelname "weapons/tfa_cso/w_awpxmas.mdl"

$bodygroup "studio"
{
	studio "w_awp_xmas_w_reference_awpred"
}

$collisionmodel "w_awp_xmas_w_reference_awpred.smd"
{
	$mass 9
}

$CDMaterials "models\weapons\tfa_cso\awp"

$attachment "0" "AWP_PW" -0.00 26.90 -0.80 rotate -0 0 0

$sequence "idle" {
	"w_awp_xmas_anims\idle"
	fps 30
}
