// Created by Crowbar 0.34.0.0
version 1
nodes
  0 "phantom_1" -1
  1 "phantom_11" -1
  2 "phantfx" 0
  3 "phantom_22" -1
  4 "phantom_2" -1
  5 "phantfx02" 4
  6 "stab_fx_bone" -1
  7 "ligh_root" -1
  8 "fxlightning_3" 7
  9 "fxlightning_1" 7
  10 "fxlightning_2" 7
  11 "fxlightning_4" 7
  12 "line_root" -1
  13 "line03" 12
  14 "line04" 12
  15 "line01" 12
  16 "line02" 12
  17 "exefx01" 0
  18 "exefx02" 0
  19 "eyephentom02fx01" 4
  20 "eyephentom02fx" 4
  21 "root" -1
  22 "Bone01" 21
  23 "Bone_L_Upper" 22
  24 "Bone_Lefthand" 22
  25 "Bone13" 24
  26 "Bone14" 25
  27 "Bone15" 26
  28 "Bone17" 24
  29 "Bone18" 28
  30 "Bone19" 29
  31 "Bone21" 24
  32 "Bone22" 31
  33 "Bone23" 32
  34 "Bone09" 24
  35 "Bone10" 34
  36 "Bone11" 35
  37 "Bone05" 24
  38 "Bone06" 37
  39 "Bone07" 38
  40 "Bone_Se_Hand-L" 24
  41 "Bone04" 21
  42 "Bone_Righthand" 41
  43 "Bone39" 42
  44 "Bone40" 43
  45 "Bone41" 44
  46 "Bone35" 42
  47 "Bone36" 46
  48 "Bone37" 47
  49 "Bone31" 42
  50 "Bone32" 49
  51 "Bone33" 50
  52 "Bone43" 42
  53 "Bone44" 52
  54 "Bone45" 53
  55 "Bone27" 42
  56 "Bone28" 55
  57 "Bone29" 56
  58 "Bone_Se_Hand-R" 42
  59 "Bone_R_Upper" 41
end
skeleton
  time 0
    0 23.317118 -12.379286 -28.740526 -4.543693 -0.167276 3.101539
    1 12.144902 -12.017387 -27.352727 -4.543723 -0.167294 3.101539
    2 -6.746239 1.488021 0.000145 -3.141592 1.570796 0.000000
    3 12.144901 11.396547 -9.492807 -5.315925 0.099315 2.664757
    4 22.074891 6.190383 -8.278964 -5.315861 0.099315 2.664757
    5 -6.884506 0.045362 -0.000546 3.141591 1.570796 0.000000
    6 -33.148422 39.600525 3.921634 0.000000 0.000000 0.000000
    7 -16.313324 12.403505 11.858739 1.504637 -0.696400 0.409610
    8 0.000000 0.000000 0.000000 0.000000 0.000000 0.000000
    9 0.000000 0.000000 0.000000 0.000000 0.000000 0.000000
    10 0.000000 0.000000 -0.000002 0.000000 0.000000 0.000000
    11 0.000001 -0.000002 -0.000004 0.000000 0.000000 0.000000
    12 -59.593906 10.219164 0.000000 0.000000 0.000000 0.000000
    13 -10.000088 10.000000 0.000000 0.000000 0.000000 0.000000
    14 10.000000 10.000000 0.000000 0.000000 0.000000 0.000000
    15 9.999908 -10.000000 0.000000 0.000000 0.000000 0.000000
    16 -9.999996 -10.000000 0.000000 0.000000 0.000000 0.000000
    17 8.297502 1.873835 -0.833016 1.566653 -0.564520 -2.759211
    18 8.360184 2.109215 0.930654 0.921809 -0.364005 0.384206
    19 8.130560 2.232922 0.862472 1.552574 -0.417441 0.661589
    20 8.262385 2.367609 -0.906657 0.679593 -0.758166 -2.316103
    21 -2.424590 -0.002752 -3.503394 0.000000 0.000000 1.570796
    22 10.892183 -14.096757 -15.222102 5.878805 2.683652 -1.381557
    23 7.230018 6.895340 -0.571695 1.424131 -3.103207 0.850492
    24 -0.071921 -8.498736 -0.104134 0.156625 0.281227 0.066041
    25 -0.488518 -2.755602 -0.228260 0.106454 0.010332 -0.264490
    26 0.039887 -1.479790 0.029854 -0.055395 0.000000 0.000001
    27 0.028786 -1.075731 -0.023109 0.002099 0.000000 0.000000
    28 0.250027 -2.820665 -0.238396 0.041826 -0.002921 0.008443
    29 -0.049759 -1.680544 0.100479 0.019826 0.000000 -0.000002
    30 -0.034142 -1.148312 0.084782 -0.040115 0.000000 0.000000
    31 0.957766 -2.746780 -0.090302 -0.017221 -0.162277 0.191558
    32 -0.033420 -1.397129 -0.011257 0.013931 0.000000 -0.000001
    33 -0.022360 -0.957436 0.018784 0.003845 0.000000 0.000000
    34 -1.180681 -2.507217 -0.193859 0.082999 0.013294 -0.477915
    35 -0.024967 -1.123934 0.017597 -0.018065 0.000000 0.000001
    36 -0.020057 -0.890968 0.010090 -0.060797 0.000000 0.000000
    37 0.583510 -1.197277 0.185379 0.158049 -0.404973 -0.364290
    38 1.535927 0.010246 0.005009 -0.002964 -0.012979 0.000887
    39 1.100771 0.004527 -0.010679 -0.002796 0.015973 0.003458
    40 0.120153 -0.050270 -0.054489 0.287569 3.110905 1.561085
    41 -9.794497 -13.622141 -2.763086 0.044986 -3.147155 0.928135
    42 0.096944 -8.450418 -0.009365 0.007553 0.221680 -0.146873
    43 0.447953 -2.798986 -0.200443 -0.432949 0.007042 0.102403
    44 -0.032909 -1.480204 0.004940 -0.721714 0.000000 0.000002
    45 -0.027022 -1.076920 -0.020210 -0.205919 0.000000 0.000000
    46 -0.249534 -2.846964 -0.174213 -0.146038 -0.000125 -0.008396
    47 0.043235 -1.683941 0.096012 -0.729693 0.002823 -0.000167
    48 0.031729 -1.160830 0.058838 -0.456187 0.000642 0.008372
    49 -0.963866 -2.785145 -0.085350 -0.240872 0.163163 -0.073052
    50 0.028479 -1.403067 0.006271 -0.381709 0.000000 0.000000
    51 0.021413 -0.957781 0.020046 0.071783 0.000000 0.000000
    52 1.164475 -2.543940 -0.170330 -0.677886 0.010016 0.200245
    53 0.024032 -1.129042 0.017807 -0.663804 0.000000 0.000001
    54 0.014898 -0.883989 -0.019848 -0.319901 0.000000 0.000000
    55 -0.586770 -1.264477 0.200161 -0.800294 -0.844960 -2.026371
    56 1.522835 0.058681 0.016848 0.001410 0.008985 0.139420
    57 1.117947 0.048424 -0.005766 -0.013402 -0.021351 0.616686
    58 -0.139399 -0.111698 0.014397 0.358632 0.302122 1.681023
    59 -7.210054 6.843022 -0.192557 1.605702 -0.001306 -0.796361
  time 1
    0 23.317118 -12.379286 -28.740526 -4.543693 -0.167276 3.101539
    1 12.144902 -12.017387 -27.352727 -4.543723 -0.167294 3.101539
    2 -6.746239 1.488021 0.000145 -3.141592 1.570796 0.000000
    3 12.144901 11.396547 -13.211670 -5.264369 0.056109 2.798023
    4 22.719442 7.545893 -12.478311 -5.264411 0.056109 2.798023
    5 -6.884506 0.045362 -0.000546 3.141591 1.570796 0.000000
    6 -33.148422 39.600525 3.921634 0.000000 0.000000 0.000000
    7 -16.313324 12.403505 11.858739 1.504637 -0.696400 0.409610
    8 0.000000 0.000000 0.000000 0.000000 0.000000 0.000000
    9 0.000000 0.000000 0.000000 0.000000 0.000000 0.000000
    10 0.000000 0.000000 -0.000002 0.000000 0.000000 0.000000
    11 0.000001 -0.000002 -0.000004 0.000000 0.000000 0.000000
    12 -59.593906 10.219164 0.000000 0.000000 0.000000 0.000000
    13 -10.000088 10.000000 0.000000 0.000000 0.000000 0.000000
    14 10.000000 10.000000 0.000000 0.000000 0.000000 0.000000
    15 9.999908 -10.000000 0.000000 0.000000 0.000000 0.000000
    16 -9.999996 -10.000000 0.000000 0.000000 0.000000 0.000000
    17 8.297502 1.873835 -0.833016 1.566653 -0.564520 -2.759211
    18 8.360184 2.109215 0.930654 0.921809 -0.364005 0.384206
    19 8.130560 2.232922 0.862472 1.552574 -0.417441 0.661589
    20 8.262385 2.367609 -0.906657 0.679593 -0.758166 -2.316103
    21 -2.424590 -0.002752 -3.503394 0.000000 0.000000 1.570796
    22 10.907808 -14.096757 -14.616615 5.878996 2.768961 -1.211894
    23 7.230018 6.895340 -0.571695 1.424131 -3.103207 0.850492
    24 -0.071921 -8.498736 -0.104134 0.080923 0.281227 0.066041
    25 -0.488518 -2.755602 -0.228260 0.013480 0.010332 -0.264490
    26 0.039887 -1.479790 0.029854 -0.155256 0.000000 0.000001
    27 0.028786 -1.075731 -0.023109 -0.037157 0.000000 0.000000
    28 0.250027 -2.820665 -0.238396 -0.038837 -0.002921 0.008443
    29 -0.049759 -1.680544 0.100479 -0.080067 0.000000 -0.000002
    30 -0.034142 -1.148312 0.084782 -0.079375 0.000000 0.000000
    31 0.957766 -2.746780 -0.090302 -0.085612 -0.162277 0.191558
    32 -0.033420 -1.397129 -0.011257 -0.085956 0.000000 -0.000001
    33 -0.022360 -0.957436 0.018784 -0.035422 0.000000 0.000000
    34 -1.180681 -2.507217 -0.193859 -0.027410 0.013294 -0.477915
    35 -0.024967 -1.123934 0.017597 -0.117961 0.000000 0.000001
    36 -0.020057 -0.890968 0.010090 -0.100080 0.000000 0.000000
    37 0.583510 -1.197277 0.185379 0.179445 -0.439698 -0.400491
    38 1.535927 0.010246 0.005009 -0.002964 -0.012979 -0.063631
    39 1.100771 0.004527 -0.010679 -0.003623 0.015673 -0.051193
    40 0.120153 -0.050270 -0.054489 0.287569 3.110905 1.561085
    41 -9.864812 -10.832993 -3.157630 -0.048130 -3.270628 0.663819
    42 0.096944 -8.450418 -0.009365 0.007553 0.221680 -0.146873
    43 0.447953 -2.798986 -0.200443 -0.432949 0.007042 0.102403
    44 -0.032909 -1.480204 0.004940 -0.721714 0.000000 0.000002
    45 -0.027022 -1.076920 -0.020210 -0.205919 0.000000 0.000000
    46 -0.249534 -2.846964 -0.174213 -0.146038 -0.000125 -0.008396
    47 0.043235 -1.683941 0.096012 -0.729693 0.002823 -0.000167
    48 0.031729 -1.160830 0.058838 -0.456187 0.000642 0.008372
    49 -0.963866 -2.785145 -0.085350 -0.240872 0.163163 -0.073052
    50 0.028479 -1.403067 0.006271 -0.381709 0.000000 0.000000
    51 0.021413 -0.957781 0.020046 0.071783 0.000000 0.000000
    52 1.164475 -2.543940 -0.170330 -0.677886 0.010016 0.200245
    53 0.024032 -1.129042 0.017807 -0.663804 0.000000 0.000001
    54 0.014898 -0.883989 -0.019848 -0.319901 0.000000 0.000000
    55 -0.586770 -1.264477 0.200161 -0.800294 -0.844960 -2.026371
    56 1.522835 0.058681 0.016848 0.001410 0.008985 0.139420
    57 1.117947 0.048424 -0.005766 -0.013402 -0.021351 0.616686
    58 -0.139399 -0.111698 0.014397 0.358632 0.302122 1.681023
    59 -7.210054 6.843022 -0.192557 1.605702 -0.001306 -0.796361
  time 2
    0 23.317118 -12.379286 -28.740526 -4.543693 -0.167276 3.101539
    1 12.144902 -12.017387 -27.352727 -4.543723 -0.167294 3.101539
    2 -6.746239 1.488021 0.000145 -3.141592 1.570796 0.000000
    3 12.144901 11.396547 -21.387701 -5.151101 -0.038907 3.091076
    4 23.399151 10.776460 -21.720781 -5.151089 -0.038907 3.091076
    5 -6.884506 0.045362 -0.000546 3.141591 1.570796 0.000000
    6 -33.148422 39.600525 3.921634 0.000000 0.000000 0.000000
    7 -16.313324 12.403505 11.858739 1.504637 -0.696400 0.409610
    8 0.000000 0.000000 0.000000 0.000000 0.000000 0.000000
    9 0.000000 0.000000 0.000000 0.000000 0.000000 0.000000
    10 0.000000 0.000000 -0.000002 0.000000 0.000000 0.000000
    11 0.000001 -0.000002 -0.000004 0.000000 0.000000 0.000000
    12 -59.593906 10.219164 0.000000 0.000000 0.000000 0.000000
    13 -10.000088 10.000000 0.000000 0.000000 0.000000 0.000000
    14 10.000000 10.000000 0.000000 0.000000 0.000000 0.000000
    15 9.999908 -10.000000 0.000000 0.000000 0.000000 0.000000
    16 -9.999996 -10.000000 0.000000 0.000000 0.000000 0.000000
    17 8.297502 1.873835 -0.833016 1.566653 -0.564520 -2.759211
    18 8.360184 2.109215 0.930654 0.921809 -0.364005 0.384206
    19 8.130560 2.232922 0.862472 1.552574 -0.417441 0.661589
    20 8.262385 2.367609 -0.906657 0.679593 -0.758166 -2.316103
    21 -2.424590 -0.002752 -3.503394 0.000000 0.000000 1.570796
    22 10.942966 -14.096757 -13.050161 5.879955 2.956641 -0.838748
    23 7.230018 6.895340 -0.571695 1.424131 -3.103207 0.850492
    24 -0.071921 -8.498736 -0.104134 -0.085580 0.281227 0.066041
    25 -0.488518 -2.755602 -0.228260 -0.191115 0.010332 -0.264490
    26 0.039887 -1.479790 0.029854 -0.375042 0.000000 0.000001
    27 0.028786 -1.075731 -0.023109 -0.123602 0.000000 0.000000
    28 0.250027 -2.820665 -0.238396 -0.216318 -0.002921 0.008443
    29 -0.049759 -1.680544 0.100479 -0.299844 0.000000 -0.000002
    30 -0.034142 -1.148312 0.084782 -0.165815 0.000000 0.000000
    31 0.957766 -2.746780 -0.090302 -0.236115 -0.162277 0.191558
    32 -0.033420 -1.397129 -0.011257 -0.305756 0.000000 -0.000001
    33 -0.022360 -0.957436 0.018784 -0.121842 0.000000 0.000000
    34 -1.180681 -2.507217 -0.193859 -0.270386 0.013294 -0.477915
    35 -0.024967 -1.123934 0.017597 -0.337743 0.000000 0.000001
    36 -0.020057 -0.890968 0.010090 -0.186502 0.000000 0.000000
    37 0.583510 -1.197277 0.185379 0.228873 -0.516135 -0.484115
    38 1.535927 0.010246 0.005009 -0.002964 -0.012979 -0.205645
    39 1.100771 0.004527 -0.010679 -0.005445 0.015014 -0.171538
    40 0.120153 -0.050270 -0.054489 0.287569 3.110905 1.561085
    41 -10.013254 -4.703900 -4.036563 -0.253177 -3.542441 0.082267
    42 0.096944 -8.450418 -0.009365 0.007553 0.221680 -0.146873
    43 0.447953 -2.798986 -0.200443 -0.432949 0.007042 0.102403
    44 -0.032909 -1.480204 0.004940 -0.721714 0.000000 0.000002
    45 -0.027022 -1.076920 -0.020210 -0.205919 0.000000 0.000000
    46 -0.249534 -2.846964 -0.174213 -0.146038 -0.000125 -0.008396
    47 0.043235 -1.683941 0.096012 -0.729693 0.002823 -0.000167
    48 0.031729 -1.160830 0.058838 -0.456187 0.000642 0.008372
    49 -0.963866 -2.785145 -0.085350 -0.240872 0.163163 -0.073052
    50 0.028479 -1.403067 0.006271 -0.381709 0.000000 0.000000
    51 0.021413 -0.957781 0.020046 0.071783 0.000000 0.000000
    52 1.164475 -2.543940 -0.170330 -0.677886 0.010016 0.200245
    53 0.024032 -1.129042 0.017807 -0.663804 0.000000 0.000001
    54 0.014898 -0.883989 -0.019848 -0.319901 0.000000 0.000000
    55 -0.586770 -1.264477 0.200161 -0.800294 -0.844960 -2.026371
    56 1.522835 0.058681 0.016848 0.001410 0.008985 0.139420
    57 1.117947 0.048424 -0.005766 -0.013402 -0.021351 0.616686
    58 -0.139399 -0.111698 0.014397 0.358632 0.302122 1.681023
    59 -7.210054 6.843022 -0.192557 1.605702 -0.001306 -0.796361
  time 3
    0 23.317118 -12.379286 -28.740526 -4.543693 -0.167276 3.101539
    1 12.144902 -12.017387 -27.352727 -4.543723 -0.167294 3.101539
    2 -6.746239 1.488021 0.000145 -3.141592 1.570796 0.000000
    3 12.144901 11.396547 -29.563732 -5.037832 -0.133987 -2.898930
    4 23.016326 14.046091 -30.959344 -5.037861 -0.133987 -2.898930
    5 -6.884506 0.045362 -0.000546 3.141591 1.570796 0.000000
    6 -33.148422 39.600525 3.921634 0.000000 0.000000 0.000000
    7 -16.313324 12.403505 11.858739 1.504637 -0.696400 0.409610
    8 0.000000 0.000000 0.000000 0.000000 0.000000 0.000000
    9 0.000000 0.000000 0.000000 0.000000 0.000000 0.000000
    10 0.000000 0.000000 -0.000002 0.000000 0.000000 0.000000
    11 0.000001 -0.000002 -0.000004 0.000000 0.000000 0.000000
    12 -59.593906 10.219164 0.000000 0.000000 0.000000 0.000000
    13 -10.000088 10.000000 0.000000 0.000000 0.000000 0.000000
    14 10.000000 10.000000 0.000000 0.000000 0.000000 0.000000
    15 9.999908 -10.000000 0.000000 0.000000 0.000000 0.000000
    16 -9.999996 -10.000000 0.000000 0.000000 0.000000 0.000000
    17 8.297502 1.873835 -0.833016 1.566653 -0.564520 -2.759211
    18 8.360184 2.109215 0.930654 0.921809 -0.364005 0.384206
    19 8.130560 2.232922 0.862472 1.552574 -0.417441 0.661589
    20 8.262385 2.367609 -0.906657 0.679593 -0.758166 -2.316103
    21 -2.424590 -0.002752 -3.503394 0.000000 0.000000 1.570796
    22 10.993749 -14.096757 -10.913377 5.882160 -3.138730 -0.465603
    23 7.230018 6.895340 -0.571695 1.424131 -3.103207 0.850492
    24 -0.071921 -8.498736 -0.104134 -0.252084 0.281227 0.066041
    25 -0.488518 -2.755602 -0.228260 -0.395677 0.010332 -0.264490
    26 0.039887 -1.479790 0.029854 -0.594828 0.000000 0.000001
    27 0.028786 -1.075731 -0.023109 -0.210018 0.000000 0.000000
    28 0.250027 -2.820665 -0.238396 -0.393829 -0.002921 0.008443
    29 -0.049759 -1.680544 0.100479 -0.519622 0.000000 -0.000002
    30 -0.034142 -1.148312 0.084782 -0.252224 0.000000 0.000000
    31 0.957766 -2.746780 -0.090302 -0.386617 -0.162277 0.191558
    32 -0.033420 -1.397129 -0.011257 -0.525509 0.000000 -0.000001
    33 -0.022360 -0.957436 0.018784 -0.208263 0.000000 0.000000
    34 -1.180681 -2.507217 -0.193859 -0.513362 0.013294 -0.477915
    35 -0.024967 -1.123934 0.017597 -0.557525 0.000000 0.000001
    36 -0.020057 -0.890968 0.010090 -0.272924 0.000000 0.000000
    37 0.583510 -1.197277 0.185379 0.284144 -0.592573 -0.577727
    38 1.535927 0.010246 0.005009 -0.002964 -0.012979 -0.347629
    39 1.100771 0.004527 -0.010679 -0.007266 0.014355 -0.291836
    40 0.120153 -0.050270 -0.054489 0.287569 3.110905 1.561085
    41 -10.165602 1.429100 -4.911589 -0.458224 -3.814254 -0.499381
    42 0.096944 -8.450418 -0.009365 0.007553 0.221680 -0.146873
    43 0.447953 -2.798986 -0.200443 -0.432949 0.007042 0.102403
    44 -0.032909 -1.480204 0.004940 -0.721714 0.000000 0.000002
    45 -0.027022 -1.076920 -0.020210 -0.205919 0.000000 0.000000
    46 -0.249534 -2.846964 -0.174213 -0.146038 -0.000125 -0.008396
    47 0.043235 -1.683941 0.096012 -0.729693 0.002823 -0.000167
    48 0.031729 -1.160830 0.058838 -0.456187 0.000642 0.008372
    49 -0.963866 -2.785145 -0.085350 -0.240872 0.163163 -0.073052
    50 0.028479 -1.403067 0.006271 -0.381709 0.000000 0.000000
    51 0.021413 -0.957781 0.020046 0.071783 0.000000 0.000000
    52 1.164475 -2.543940 -0.170330 -0.677886 0.010016 0.200245
    53 0.024032 -1.129042 0.017807 -0.663804 0.000000 0.000001
    54 0.014898 -0.883989 -0.019848 -0.319901 0.000000 0.000000
    55 -0.586770 -1.264477 0.200161 -0.800294 -0.844960 -2.026371
    56 1.522835 0.058681 0.016848 0.001410 0.008985 0.139420
    57 1.117947 0.048424 -0.005766 -0.013402 -0.021351 0.616686
    58 -0.139399 -0.111698 0.014397 0.358632 0.302122 1.681023
    59 -7.210054 6.843022 -0.192557 1.605702 -0.001306 -0.796361
  time 4
    0 23.317118 -12.379286 -28.740526 -4.543693 -0.167276 3.101539
    1 12.144902 -12.017387 -27.352727 -4.543723 -0.167294 3.101539
    2 -6.746239 1.488021 0.000145 -3.141592 1.570796 0.000000
    3 12.144901 11.396547 -33.278689 -4.986373 -0.177193 -2.765664
    4 22.500686 15.448478 -35.154785 -4.986316 -0.177193 -2.765664
    5 -6.884506 0.045362 -0.000546 3.141591 1.570796 0.000000
    6 -33.148422 39.600525 3.921634 0.000000 0.000000 0.000000
    7 -16.313324 12.403505 11.858739 1.504637 -0.696400 0.409610
    8 0.000000 0.000000 0.000000 0.000000 0.000000 0.000000
    9 0.000000 0.000000 0.000000 0.000000 0.000000 0.000000
    10 0.000000 0.000000 -0.000002 0.000000 0.000000 0.000000
    11 0.000001 -0.000002 -0.000004 0.000000 0.000000 0.000000
    12 -59.593906 10.219164 0.000000 0.000000 0.000000 0.000000
    13 -10.000088 10.000000 0.000000 0.000000 0.000000 0.000000
    14 10.000000 10.000000 0.000000 0.000000 0.000000 0.000000
    15 9.999908 -10.000000 0.000000 0.000000 0.000000 0.000000
    16 -9.999996 -10.000000 0.000000 0.000000 0.000000 0.000000
    17 8.297502 1.873835 -0.833016 1.566653 -0.564520 -2.759211
    18 8.360184 2.109215 0.930654 0.921809 -0.364005 0.384206
    19 8.130560 2.232922 0.862472 1.552574 -0.417441 0.661589
    20 8.262385 2.367609 -0.906657 0.679593 -0.758166 -2.316103
    21 -2.424590 -0.002752 -3.503394 0.000000 0.000000 1.570796
    22 11.048438 -14.096757 -8.581275 5.886090 -3.053421 -0.295940
    23 7.230018 6.895340 -0.571695 1.424131 -3.103207 0.850492
    24 -0.071921 -8.498736 -0.104134 -0.327854 0.281227 0.066041
    25 -0.488518 -2.755602 -0.228260 -0.488684 0.010332 -0.264490
    26 0.039887 -1.479790 0.029854 -0.694740 0.000000 0.000001
    27 0.028786 -1.075731 -0.023109 -0.249303 0.000000 0.000000
    28 0.250027 -2.820665 -0.238396 -0.474492 -0.002921 0.008443
    29 -0.049759 -1.680544 0.100479 -0.619515 0.000000 -0.000002
    30 -0.034142 -1.148312 0.084782 -0.291515 0.000000 0.000000
    31 0.957766 -2.746780 -0.090302 -0.455008 -0.162277 0.191558
    32 -0.033420 -1.397129 -0.011257 -0.625443 0.000000 -0.000001
    33 -0.022360 -0.957436 0.018784 -0.247563 0.000000 0.000000
    34 -1.180681 -2.507217 -0.193859 -0.623771 0.013294 -0.477915
    35 -0.024967 -1.123934 0.017597 -0.657422 0.000000 0.000001
    36 -0.020057 -0.890968 0.010090 -0.312207 0.000000 0.000000
    37 0.583510 -1.197277 0.185379 0.323047 -0.627319 -0.643839
    38 1.535927 0.010246 0.005009 -0.002964 -0.012979 -0.412178
    39 1.100771 0.004527 -0.010679 -0.008093 0.014055 -0.346535
    40 0.120153 -0.050270 -0.054489 0.287569 3.110905 1.561085
    41 -10.235917 4.218247 -5.306133 -0.551435 -3.937823 -0.763697
    42 0.096944 -8.450418 -0.009365 0.007553 0.221680 -0.146873
    43 0.447953 -2.798986 -0.200443 -0.432949 0.007042 0.102403
    44 -0.032909 -1.480204 0.004940 -0.721714 0.000000 0.000002
    45 -0.027022 -1.076920 -0.020210 -0.205919 0.000000 0.000000
    46 -0.249534 -2.846964 -0.174213 -0.146038 -0.000125 -0.008396
    47 0.043235 -1.683941 0.096012 -0.729693 0.002823 -0.000167
    48 0.031729 -1.160830 0.058838 -0.456187 0.000642 0.008372
    49 -0.963866 -2.785145 -0.085350 -0.240872 0.163163 -0.073052
    50 0.028479 -1.403067 0.006271 -0.381709 0.000000 0.000000
    51 0.021413 -0.957781 0.020046 0.071783 0.000000 0.000000
    52 1.164475 -2.543940 -0.170330 -0.677886 0.010016 0.200245
    53 0.024032 -1.129042 0.017807 -0.663804 0.000000 0.000001
    54 0.014898 -0.883989 -0.019848 -0.319901 0.000000 0.000000
    55 -0.586770 -1.264477 0.200161 -0.800294 -0.844960 -2.026371
    56 1.522835 0.058681 0.016848 0.001410 0.008985 0.139420
    57 1.117947 0.048424 -0.005766 -0.013402 -0.021351 0.616686
    58 -0.139399 -0.111698 0.014397 0.358632 0.302122 1.681023
    59 -7.210054 6.843022 -0.192557 1.605702 -0.001306 -0.796361
  time 5
    0 23.332743 -10.805019 -23.037227 -1.281093 3.223709 0.094938
    1 12.144902 -12.017387 -22.590863 -1.281044 3.223734 0.094938
    2 -6.746239 1.488021 0.000145 -3.141592 1.570796 0.000000
    3 12.144901 11.396547 -33.278689 -4.986373 -0.177193 -2.765664
    4 22.500686 15.448478 -35.154785 -4.986316 -0.177193 -2.765664
    5 -6.884506 0.045362 -0.000546 3.141591 1.570796 0.000000
    6 -33.148422 39.600525 3.921634 0.000000 0.000000 0.000000
    7 -16.313324 12.403505 11.858739 1.504637 -0.696400 0.409610
    8 0.000000 0.000000 0.000000 0.000000 0.000000 0.000000
    9 0.000000 0.000000 0.000000 0.000000 0.000000 0.000000
    10 0.000000 0.000000 -0.000002 0.000000 0.000000 0.000000
    11 0.000001 -0.000002 -0.000004 0.000000 0.000000 0.000000
    12 -59.593906 10.219164 0.000000 0.000000 0.000000 0.000000
    13 -10.000088 10.000000 0.000000 0.000000 0.000000 0.000000
    14 10.000000 10.000000 0.000000 0.000000 0.000000 0.000000
    15 9.999908 -10.000000 0.000000 0.000000 0.000000 0.000000
    16 -9.999996 -10.000000 0.000000 0.000000 0.000000 0.000000
    17 8.297502 1.873835 -0.833016 1.566653 -0.564520 -2.759211
    18 8.360184 2.109215 0.930654 0.921809 -0.364005 0.384206
    19 8.130560 2.232922 0.862472 1.552574 -0.417441 0.661589
    20 8.262385 2.367609 -0.906657 0.679593 -0.758166 -2.316103
    21 -2.424590 -0.002752 -3.503394 0.000000 0.000000 1.570796
    22 11.099221 -14.096757 -6.444491 5.890883 3.140486 -0.414118
    23 7.230018 6.895340 -0.571695 1.424131 -3.103207 0.850492
    24 -0.071921 -8.498736 -0.104134 -0.264531 0.281227 0.066041
    25 -0.488518 -2.755602 -0.228260 -0.464544 0.013412 -0.258677
    26 0.039887 -1.479790 0.029854 -0.680467 0.000000 0.000001
    27 0.028786 -1.075731 -0.023109 -0.230305 0.000000 0.000000
    28 0.250027 -2.820665 -0.238396 -0.429519 -0.002921 0.008443
    29 -0.049759 -1.680544 0.100479 -0.603465 0.000000 -0.000002
    30 -0.034142 -1.148312 0.084782 -0.260610 0.000000 0.000000
    31 0.957766 -2.746780 -0.090302 -0.389166 -0.156381 0.178375
    32 -0.033420 -1.397129 -0.011257 -0.609348 0.000000 -0.000001
    33 -0.022360 -0.957436 0.018784 -0.216646 0.000000 0.000000
    34 -1.180681 -2.507217 -0.193859 -0.600112 0.021012 -0.467075
    35 -0.024967 -1.123934 0.017597 -0.651400 0.000000 0.000001
    36 -0.020057 -0.890968 0.010090 -0.300838 0.000000 0.000000
    37 0.583510 -1.197277 0.185379 0.344300 -0.626531 -0.680353
    38 1.535927 0.010246 0.005009 -0.002964 -0.012979 -0.407556
    39 1.100771 0.004527 -0.010679 -0.008045 0.014079 -0.343010
    40 0.120153 -0.050270 -0.054489 0.287569 3.110905 1.561085
    41 -10.224198 4.007303 -5.247537 -0.541078 -3.934189 -0.745770
    42 0.096944 -8.450418 -0.009365 0.007553 0.221680 -0.146873
    43 0.447953 -2.798986 -0.200443 -0.432949 0.007042 0.102403
    44 -0.032909 -1.480204 0.004940 -0.721714 0.000000 0.000002
    45 -0.027022 -1.076920 -0.020210 -0.205919 0.000000 0.000000
    46 -0.249534 -2.846964 -0.174213 -0.146038 -0.000125 -0.008396
    47 0.043235 -1.683941 0.096012 -0.729693 0.002823 -0.000167
    48 0.031729 -1.160830 0.058838 -0.456187 0.000642 0.008372
    49 -0.963866 -2.785145 -0.085350 -0.240872 0.163163 -0.073052
    50 0.028479 -1.403067 0.006271 -0.381709 0.000000 0.000000
    51 0.021413 -0.957781 0.020046 0.071783 0.000000 0.000000
    52 1.164475 -2.543940 -0.170330 -0.677886 0.010016 0.200245
    53 0.024032 -1.129042 0.017807 -0.663804 0.000000 0.000001
    54 0.014898 -0.883989 -0.019848 -0.319901 0.000000 0.000000
    55 -0.586770 -1.264477 0.200161 -0.800294 -0.844960 -2.026371
    56 1.522835 0.058681 0.016848 0.001410 0.008985 0.139420
    57 1.117947 0.048424 -0.005766 -0.013402 -0.021351 0.616686
    58 -0.139399 -0.111698 0.014397 0.358632 0.302122 1.681023
    59 -7.210054 6.843022 -0.192557 1.605702 -0.001306 -0.796361
  time 6
    0 22.586627 -7.992433 -12.458779 -1.056060 3.065605 0.345867
    1 12.144902 -12.017387 -13.746843 -1.056045 3.065647 0.345867
    2 -6.746239 1.488021 0.000145 -3.141592 1.570796 0.000000
    3 12.144901 11.396547 -33.278689 -4.986373 -0.177193 -2.765664
    4 22.500686 15.448478 -35.154785 -4.986316 -0.177193 -2.765664
    5 -6.884506 0.045362 -0.000546 3.141591 1.570796 0.000000
    6 -33.148422 39.600525 3.921634 0.000000 0.000000 0.000000
    7 -16.313324 12.403505 11.858739 1.504637 -0.696400 0.409610
    8 0.000000 0.000000 0.000000 0.000000 0.000000 0.000000
    9 0.000000 0.000000 0.000000 0.000000 0.000000 0.000000
    10 0.000000 0.000000 -0.000002 0.000000 0.000000 0.000000
    11 0.000001 -0.000002 -0.000004 0.000000 0.000000 0.000000
    12 -59.593906 10.219164 0.000000 0.000000 0.000000 0.000000
    13 -10.000088 10.000000 0.000000 0.000000 0.000000 0.000000
    14 10.000000 10.000000 0.000000 0.000000 0.000000 0.000000
    15 9.999908 -10.000000 0.000000 0.000000 0.000000 0.000000
    16 -9.999996 -10.000000 0.000000 0.000000 0.000000 0.000000
    17 8.297502 1.873835 -0.833016 1.566653 -0.564520 -2.759211
    18 8.360184 2.109215 0.930654 0.921809 -0.364005 0.384206
    19 8.130560 2.232922 0.862472 1.552574 -0.417441 0.661589
    20 8.262385 2.367609 -0.906657 0.679593 -0.758166 -2.316103
    21 -2.424590 -0.002752 -3.503394 0.000000 0.000000 1.570796
    22 11.134378 -14.096757 -4.878037 5.902195 2.975045 -0.662000
    23 7.230018 6.895340 -0.571695 1.424131 -3.103207 0.850492
    24 -0.071921 -8.498736 -0.104134 -0.147543 0.281227 0.066041
    25 -0.488518 -2.755602 -0.228260 -0.402715 0.021118 -0.244152
    26 0.039887 -1.479790 0.029854 -0.643032 0.000000 0.000001
    27 0.028786 -1.075731 -0.023109 -0.182793 0.000000 0.000000
    28 0.250027 -2.820665 -0.238396 -0.317044 -0.002921 0.008443
    29 -0.049759 -1.680544 0.100479 -0.561514 0.000000 -0.000002
    30 -0.034142 -1.148312 0.084782 -0.183333 0.000000 0.000000
    31 0.957766 -2.746780 -0.090302 -0.224585 -0.141604 0.145405
    32 -0.033420 -1.397129 -0.011257 -0.567452 0.000000 -0.000001
    33 -0.022360 -0.957436 0.018784 -0.139372 0.000000 0.000000
    34 -1.180681 -2.507217 -0.193859 -0.539060 0.040331 -0.439962
    35 -0.024967 -1.123934 0.017597 -0.634669 0.000000 0.000001
    36 -0.020057 -0.890968 0.010090 -0.271729 0.000000 0.000000
    37 0.583510 -1.197277 0.185379 0.361462 -0.624017 -0.710171
    38 1.535927 0.010246 0.005009 -0.002964 -0.012979 -0.394426
    39 1.100771 0.004527 -0.010679 -0.007913 0.014175 -0.333236
    40 0.120153 -0.050270 -0.054489 0.287569 3.110905 1.561085
    41 -10.200759 3.421348 -5.099095 -0.514094 -3.920607 -0.694376
    42 0.096944 -8.450418 -0.009365 0.007553 0.221680 -0.146873
    43 0.447953 -2.798986 -0.200443 -0.432949 0.007042 0.102403
    44 -0.032909 -1.480204 0.004940 -0.721714 0.000000 0.000002
    45 -0.027022 -1.076920 -0.020210 -0.205919 0.000000 0.000000
    46 -0.249534 -2.846964 -0.174213 -0.146038 -0.000125 -0.008396
    47 0.043235 -1.683941 0.096012 -0.729693 0.002823 -0.000167
    48 0.031729 -1.160830 0.058838 -0.456187 0.000642 0.008372
    49 -0.963866 -2.785145 -0.085350 -0.240872 0.163163 -0.073052
    50 0.028479 -1.403067 0.006271 -0.381709 0.000000 0.000000
    51 0.021413 -0.957781 0.020046 0.071783 0.000000 0.000000
    52 1.164475 -2.543940 -0.170330 -0.677886 0.010016 0.200245
    53 0.024032 -1.129042 0.017807 -0.663804 0.000000 0.000001
    54 0.014898 -0.883989 -0.019848 -0.319901 0.000000 0.000000
    55 -0.586770 -1.264477 0.200161 -0.800294 -0.844960 -2.026371
    56 1.522835 0.058681 0.016848 0.001410 0.008985 0.139420
    57 1.117947 0.048424 -0.005766 -0.013402 -0.021351 0.616686
    58 -0.139399 -0.111698 0.014397 0.358632 0.302122 1.681023
    59 -7.210054 6.843022 -0.192557 1.605702 -0.001306 -0.796361
  time 7
    0 21.797540 -6.644736 -6.782825 -0.934925 2.980446 0.480939
    1 12.144902 -12.017387 -8.984979 -0.934936 2.980495 0.480939
    2 -6.746239 1.488021 0.000145 -3.141592 1.570796 0.000000
    3 12.144901 11.396547 -33.278689 -4.986373 -0.177193 -2.765664
    4 22.500686 15.448478 -35.154785 -4.986316 -0.177193 -2.765664
    5 -6.884506 0.045362 -0.000546 3.141591 1.570796 0.000000
    6 -33.148422 39.600525 3.921634 0.000000 0.000000 0.000000
    7 -16.313324 12.403505 11.858739 1.504637 -0.696400 0.409610
    8 0.000000 0.000000 0.000000 0.000000 0.000000 0.000000
    9 0.000000 0.000000 0.000000 0.000000 0.000000 0.000000
    10 0.000000 0.000000 -0.000002 0.000000 0.000000 0.000000
    11 0.000001 -0.000002 -0.000004 0.000000 0.000000 0.000000
    12 -59.593906 10.219164 0.000000 0.000000 0.000000 0.000000
    13 -10.000088 10.000000 0.000000 0.000000 0.000000 0.000000
    14 10.000000 10.000000 0.000000 0.000000 0.000000 0.000000
    15 9.999908 -10.000000 0.000000 0.000000 0.000000 0.000000
    16 -9.999996 -10.000000 0.000000 0.000000 0.000000 0.000000
    17 8.297502 1.873835 -0.833016 1.566653 -0.564520 -2.759211
    18 8.360184 2.109215 0.930654 0.921809 -0.364005 0.384206
    19 8.130560 2.232922 0.862472 1.552574 -0.417441 0.661589
    20 8.262385 2.367609 -0.906657 0.679593 -0.758166 -2.316103
    21 -2.424590 -0.002752 -3.503394 0.000000 0.000000 1.570796
    22 11.150003 -14.096757 -4.272550 5.930763 2.885902 -0.879369
    23 7.230018 6.895340 -0.571695 1.424131 -3.103207 0.850492
    24 -0.071921 -8.498736 -0.104134 0.003793 0.246697 0.044814
    25 -0.488518 -2.755602 -0.228260 -0.318884 0.031137 -0.225252
    26 0.039887 -1.479790 0.029854 -0.590764 0.000000 0.000001
    27 0.028786 -1.075731 -0.023109 -0.121055 0.000000 0.000000
    28 0.250027 -2.820665 -0.238396 -0.170846 -0.002921 0.008443
    29 -0.049759 -1.680544 0.100479 -0.503398 0.000000 -0.000002
    30 -0.034142 -1.148312 0.084782 -0.082885 0.000000 0.000000
    31 0.957766 -2.746780 -0.090302 -0.010623 -0.122404 0.102548
    32 -0.033420 -1.397129 -0.011257 -0.509318 0.000000 -0.000001
    33 -0.022360 -0.957436 0.018784 -0.038901 0.000000 0.000000
    34 -1.180681 -2.507217 -0.193859 -0.455658 0.065439 -0.404726
    35 -0.024967 -1.123934 0.017597 -0.609300 0.000000 0.000001
    36 -0.020057 -0.890968 0.010090 -0.232447 0.000000 0.000000
    37 0.583510 -1.197277 0.185379 0.374654 -0.619479 -0.733312
    38 1.535927 0.010246 0.005009 -0.002964 -0.012979 -0.374073
    39 1.100771 0.004527 -0.010679 -0.007710 0.014295 -0.318528
    40 0.120153 -0.050270 -0.054489 0.287569 3.110905 1.561085
    41 -10.165602 2.522883 -4.903777 -0.476657 -3.893158 -0.613231
    42 0.096944 -8.450418 -0.009365 0.007553 0.221680 -0.146873
    43 0.447953 -2.798986 -0.200443 -0.432949 0.007042 0.102403
    44 -0.032909 -1.480204 0.004940 -0.721714 0.000000 0.000002
    45 -0.027022 -1.076920 -0.020210 -0.205919 0.000000 0.000000
    46 -0.249534 -2.846964 -0.174213 -0.146038 -0.000125 -0.008396
    47 0.043235 -1.683941 0.096012 -0.729693 0.002823 -0.000167
    48 0.031729 -1.160830 0.058838 -0.456187 0.000642 0.008372
    49 -0.963866 -2.785145 -0.085350 -0.240872 0.163163 -0.073052
    50 0.028479 -1.403067 0.006271 -0.381709 0.000000 0.000000
    51 0.021413 -0.957781 0.020046 0.071783 0.000000 0.000000
    52 1.164475 -2.543940 -0.170330 -0.677886 0.010016 0.200245
    53 0.024032 -1.129042 0.017807 -0.663804 0.000000 0.000001
    54 0.014898 -0.883989 -0.019848 -0.319901 0.000000 0.000000
    55 -0.586770 -1.264477 0.200161 -0.800294 -0.844960 -2.026371
    56 1.522835 0.058681 0.016848 0.001410 0.008985 0.139420
    57 1.117947 0.048424 -0.005766 -0.013402 -0.021351 0.616686
    58 -0.139399 -0.111698 0.014397 0.358632 0.302122 1.681023
    59 -7.210054 6.843022 -0.192557 1.605702 -0.001306 -0.796361
  time 8
    0 21.805353 -6.644736 -6.853140 -0.936840 2.983633 0.480655
    1 12.144902 -12.017387 -9.020136 -0.936849 2.983642 0.480655
    2 -6.746239 1.488021 0.000145 -3.141592 1.570796 0.000000
    3 12.144901 11.396547 -33.278689 -4.986373 -0.177193 -2.765664
    4 22.500686 15.448478 -35.154785 -4.986316 -0.177193 -2.765664
    5 -6.884506 0.045362 -0.000546 3.141591 1.570796 0.000000
    6 -33.148422 39.600525 3.921634 0.000000 0.000000 0.000000
    7 -16.313324 12.403505 11.858739 1.504637 -0.696400 0.409610
    8 0.000000 0.000000 0.000000 0.000000 0.000000 0.000000
    9 0.000000 0.000000 0.000000 0.000000 0.000000 0.000000
    10 0.000000 0.000000 -0.000002 0.000000 0.000000 0.000000
    11 0.000001 -0.000002 -0.000004 0.000000 0.000000 0.000000
    12 -59.593906 10.219164 0.000000 0.000000 0.000000 0.000000
    13 -10.000088 10.000000 0.000000 0.000000 0.000000 0.000000
    14 10.000000 10.000000 0.000000 0.000000 0.000000 0.000000
    15 9.999908 -10.000000 0.000000 0.000000 0.000000 0.000000
    16 -9.999996 -10.000000 0.000000 0.000000 0.000000 0.000000
    17 8.297502 1.873835 -0.833016 1.566653 -0.564520 -2.759211
    18 8.360184 2.109215 0.930654 0.921809 -0.364005 0.384206
    19 8.130560 2.232922 0.862472 1.552574 -0.417441 0.661589
    20 8.262385 2.367609 -0.906657 0.679593 -0.758166 -2.316103
    21 -2.424590 -0.002752 -3.503394 0.000000 0.000000 1.570796
    22 10.935153 -14.096757 -4.323332 6.089418 3.014152 -1.009639
    23 7.230018 6.895340 -0.571695 1.424131 -3.103207 0.850492
    24 -0.071921 -8.498736 -0.104134 0.101600 0.189178 0.009532
    25 -0.488518 -2.755602 -0.228260 -0.228870 0.041144 -0.206353
    26 0.039887 -1.479790 0.029854 -0.531793 0.000000 0.000001
    27 0.028786 -1.075731 -0.023109 -0.059288 0.000000 0.000000
    28 0.250027 -2.820665 -0.238396 -0.024649 -0.002921 0.008443
    29 -0.049759 -1.680544 0.100479 -0.438618 0.000000 -0.000002
    30 -0.034142 -1.148312 0.084782 0.017564 0.000000 0.000000
    31 0.957766 -2.746780 -0.090302 0.203340 -0.103205 0.059692
    32 -0.033420 -1.397129 -0.011257 -0.444510 0.000000 -0.000001
    33 -0.022360 -0.957436 0.018784 0.061503 0.000000 0.000000
    34 -1.180681 -2.507217 -0.193859 -0.364907 0.090547 -0.369478
    35 -0.024967 -1.123934 0.017597 -0.577218 0.000000 0.000001
    36 -0.020057 -0.890968 0.010090 -0.190521 0.000000 0.000000
    37 0.583510 -1.197277 0.185379 0.383957 -0.612620 -0.749812
    38 1.535927 0.010246 0.005009 -0.002964 -0.012979 -0.347629
    39 1.100771 0.004527 -0.010679 -0.007446 0.014439 -0.300201
    40 0.120153 -0.050270 -0.054489 0.287569 3.110905 1.561085
    41 -10.134351 1.370504 -4.712365 -0.434850 -3.847824 -0.506055
    42 0.096944 -8.450418 -0.009365 0.007553 0.221680 -0.146873
    43 0.447953 -2.798986 -0.200443 -0.432949 0.007042 0.102403
    44 -0.032909 -1.480204 0.004940 -0.721714 0.000000 0.000002
    45 -0.027022 -1.076920 -0.020210 -0.205919 0.000000 0.000000
    46 -0.249534 -2.846964 -0.174213 -0.146038 -0.000125 -0.008396
    47 0.043235 -1.683941 0.096012 -0.729693 0.002823 -0.000167
    48 0.031729 -1.160830 0.058838 -0.456187 0.000642 0.008372
    49 -0.963866 -2.785145 -0.085350 -0.240872 0.163163 -0.073052
    50 0.028479 -1.403067 0.006271 -0.381709 0.000000 0.000000
    51 0.021413 -0.957781 0.020046 0.071783 0.000000 0.000000
    52 1.164475 -2.543940 -0.170330 -0.677886 0.010016 0.200245
    53 0.024032 -1.129042 0.017807 -0.663804 0.000000 0.000001
    54 0.014898 -0.883989 -0.019848 -0.319901 0.000000 0.000000
    55 -0.586770 -1.264477 0.200161 -0.800294 -0.844960 -2.026371
    56 1.522835 0.058681 0.016848 0.001410 0.008985 0.139420
    57 1.117947 0.048424 -0.005766 -0.013402 -0.021351 0.616686
    58 -0.139399 -0.111698 0.014397 0.358632 0.302122 1.681023
    59 -7.210054 6.843022 -0.192557 1.605702 -0.001306 -0.796361
  time 9
    0 21.844417 -6.644736 -7.185181 -0.945841 3.000452 0.479424
    1 12.144902 -12.017387 -9.168578 -0.945841 3.000487 0.479424
    2 -6.746239 1.488021 0.000145 -3.141592 1.570796 0.000000
    3 12.144901 11.396547 -33.278689 -4.986373 -0.177193 -2.765664
    4 22.500686 15.448478 -35.154785 -4.986316 -0.177193 -2.765664
    5 -6.884506 0.045362 -0.000546 3.141591 1.570796 0.000000
    6 -33.148422 39.600525 3.921634 0.000000 0.000000 0.000000
    7 -16.313324 12.403505 11.858739 1.504637 -0.696400 0.409610
    8 0.000000 0.000000 0.000000 0.000000 0.000000 0.000000
    9 0.000000 0.000000 0.000000 0.000000 0.000000 0.000000
    10 0.000000 0.000000 -0.000002 0.000000 0.000000 0.000000
    11 0.000001 -0.000002 -0.000004 0.000000 0.000000 0.000000
    12 -59.593906 10.219164 0.000000 0.000000 0.000000 0.000000
    13 -10.000088 10.000000 0.000000 0.000000 0.000000 0.000000
    14 10.000000 10.000000 0.000000 0.000000 0.000000 0.000000
    15 9.999908 -10.000000 0.000000 0.000000 0.000000 0.000000
    16 -9.999996 -10.000000 0.000000 0.000000 0.000000 0.000000
    17 8.297502 1.873835 -0.833016 1.566653 -0.564520 -2.759211
    18 8.360184 2.109215 0.930654 0.921809 -0.364005 0.384206
    19 8.130560 2.232922 0.862472 1.552574 -0.417441 0.661589
    20 8.262385 2.367609 -0.906657 0.679593 -0.758166 -2.316103
    21 -2.424590 -0.002752 -3.503394 0.000000 0.000000 1.570796
    22 10.540610 -14.096757 -4.655374 0.058216 -3.030800 -1.109491
    23 7.230018 6.895340 -0.571695 1.424131 -3.103207 0.850492
    24 -0.071921 -8.498736 -0.104134 0.003181 0.131660 -0.025798
    25 -0.488518 -2.755602 -0.228260 -0.148427 0.048850 -0.191827
    26 0.039887 -1.479790 0.029854 -0.474395 0.000000 0.000001
    27 0.028786 -1.075731 -0.023109 -0.011777 0.000000 0.000000
    28 0.250027 -2.820665 -0.238396 0.087797 -0.002921 0.008443
    29 -0.049759 -1.680544 0.100479 -0.376735 0.000000 -0.000002
    30 -0.034142 -1.148312 0.084782 0.094841 0.000000 0.000000
    31 0.957766 -2.746780 -0.090302 0.367945 -0.088440 0.026722
    32 -0.033420 -1.397129 -0.011257 -0.382636 0.000000 -0.000001
    33 -0.022360 -0.957436 0.018784 0.138777 0.000000 0.000000
    34 -1.180681 -2.507217 -0.193859 -0.281773 0.109866 -0.342365
    35 -0.024967 -1.123934 0.017597 -0.540547 0.000000 0.000001
    36 -0.020057 -0.890968 0.010090 -0.153591 0.000000 0.000000
    37 0.583510 -1.197277 0.185379 0.389474 -0.603161 -0.759709
    38 1.535927 0.010246 0.005009 -0.002964 -0.012979 -0.316380
    39 1.100771 0.004527 -0.010679 -0.007146 0.014583 -0.279478
    40 0.120153 -0.050270 -0.054489 0.287569 3.110905 1.561085
    41 -10.107007 0.034526 -4.560016 -0.394847 -3.780684 -0.376472
    42 0.096944 -8.450418 -0.009365 0.007553 0.221680 -0.146873
    43 0.447953 -2.798986 -0.200443 -0.432949 0.007042 0.102403
    44 -0.032909 -1.480204 0.004940 -0.721714 0.000000 0.000002
    45 -0.027022 -1.076920 -0.020210 -0.205919 0.000000 0.000000
    46 -0.249534 -2.846964 -0.174213 -0.146038 -0.000125 -0.008396
    47 0.043235 -1.683941 0.096012 -0.729693 0.002823 -0.000167
    48 0.031729 -1.160830 0.058838 -0.456187 0.000642 0.008372
    49 -0.963866 -2.785145 -0.085350 -0.240872 0.163163 -0.073052
    50 0.028479 -1.403067 0.006271 -0.381709 0.000000 0.000000
    51 0.021413 -0.957781 0.020046 0.071783 0.000000 0.000000
    52 1.164475 -2.543940 -0.170330 -0.677886 0.010016 0.200245
    53 0.024032 -1.129042 0.017807 -0.663804 0.000000 0.000001
    54 0.014898 -0.883989 -0.019848 -0.319901 0.000000 0.000000
    55 -0.586770 -1.264477 0.200161 -0.800294 -0.844960 -2.026371
    56 1.522835 0.058681 0.016848 0.001410 0.008985 0.139420
    57 1.117947 0.048424 -0.005766 -0.013402 -0.021351 0.616686
    58 -0.139399 -0.111698 0.014397 0.358632 0.302122 1.681023
    59 -7.210054 6.843022 -0.192557 1.605702 -0.001306 -0.796361
  time 10
    0 21.926450 -6.644736 -7.966455 -0.967291 3.042235 0.476679
    1 12.144902 -12.017387 -9.492807 -0.967270 3.042261 0.476679
    2 -6.746239 1.488021 0.000145 -3.141592 1.570796 0.000000
    3 12.144901 11.396547 -33.278689 -4.986373 -0.177193 -2.765664
    4 22.500686 15.448478 -35.154785 -4.986316 -0.177193 -2.765664
    5 -6.884506 0.045362 -0.000546 3.141591 1.570796 0.000000
    6 -33.148422 39.600525 3.921634 0.000000 0.000000 0.000000
    7 -16.313324 12.403505 11.858739 1.504637 -0.696400 0.409610
    8 0.000000 0.000000 0.000000 0.000000 0.000000 0.000000
    9 0.000000 0.000000 0.000000 0.000000 0.000000 0.000000
    10 0.000000 0.000000 -0.000002 0.000000 0.000000 0.000000
    11 0.000001 -0.000002 -0.000004 0.000000 0.000000 0.000000
    12 -59.593906 10.219164 0.000000 0.000000 0.000000 0.000000
    13 -10.000088 10.000000 0.000000 0.000000 0.000000 0.000000
    14 10.000000 10.000000 0.000000 0.000000 0.000000 0.000000
    15 9.999908 -10.000000 0.000000 0.000000 0.000000 0.000000
    16 -9.999996 -10.000000 0.000000 0.000000 0.000000 0.000000
    17 8.297502 1.873835 -0.833016 1.566653 -0.564520 -2.759211
    18 8.360184 2.109215 0.930654 0.921809 -0.364005 0.384206
    19 8.130560 2.232922 0.862472 1.552574 -0.417441 0.661589
    20 8.262385 2.367609 -0.906657 0.679593 -0.758166 -2.316103
    21 -2.424590 -0.002752 -3.503394 0.000000 0.000000 1.570796
    22 10.325759 -14.096757 -5.546026 0.189646 -2.902549 -1.188466
    23 7.230018 6.895340 -0.571695 1.424131 -3.103207 0.850492
    24 -0.071921 -8.498736 -0.104134 -0.095171 0.097178 -0.047024
    25 -0.488518 -2.755602 -0.228260 -0.093307 0.051942 -0.186015
    26 0.039887 -1.479790 0.029854 -0.426801 0.000000 0.000001
    27 0.028786 -1.075731 -0.023109 0.007193 0.000000 0.000000
    28 0.250027 -2.820665 -0.238396 0.132799 -0.002921 0.008443
    29 -0.049759 -1.680544 0.100479 -0.327367 0.000000 -0.000002
    30 -0.034142 -1.148312 0.084782 0.125746 0.000000 0.000000
    31 0.957766 -2.746780 -0.090302 0.433787 -0.082532 0.013527
    32 -0.033420 -1.397129 -0.011257 -0.333261 0.000000 -0.000001
    33 -0.022360 -0.957436 0.018784 0.169694 0.000000 0.000000
    34 -1.180681 -2.507217 -0.193859 -0.221260 0.117596 -0.331525
    35 -0.024967 -1.123934 0.017597 -0.501210 0.000000 0.000001
    36 -0.020057 -0.890968 0.010090 -0.129117 0.000000 0.000000
    37 0.583510 -1.197277 0.185379 0.391286 -0.590805 -0.763001
    38 1.535927 0.010246 0.005009 -0.002964 -0.012979 -0.281488
    39 1.100771 0.004527 -0.010679 -0.006823 0.014715 -0.257721
    40 0.120153 -0.050270 -0.054489 0.287569 3.110905 1.561085
    41 -10.095287 -1.430363 -4.501421 -0.362637 -3.687625 -0.228390
    42 0.096944 -8.450418 -0.009365 0.007553 0.221680 -0.146873
    43 0.447953 -2.798986 -0.200443 -0.432949 0.007042 0.102403
    44 -0.032909 -1.480204 0.004940 -0.721714 0.000000 0.000002
    45 -0.027022 -1.076920 -0.020210 -0.205919 0.000000 0.000000
    46 -0.249534 -2.846964 -0.174213 -0.146038 -0.000125 -0.008396
    47 0.043235 -1.683941 0.096012 -0.729693 0.002823 -0.000167
    48 0.031729 -1.160830 0.058838 -0.456187 0.000642 0.008372
    49 -0.963866 -2.785145 -0.085350 -0.240872 0.163163 -0.073052
    50 0.028479 -1.403067 0.006271 -0.381709 0.000000 0.000000
    51 0.021413 -0.957781 0.020046 0.071783 0.000000 0.000000
    52 1.164475 -2.543940 -0.170330 -0.677886 0.010016 0.200245
    53 0.024032 -1.129042 0.017807 -0.663804 0.000000 0.000001
    54 0.014898 -0.883989 -0.019848 -0.319901 0.000000 0.000000
    55 -0.586770 -1.264477 0.200161 -0.800294 -0.844960 -2.026371
    56 1.522835 0.058681 0.016848 0.001410 0.008985 0.139420
    57 1.117947 0.048424 -0.005766 -0.013402 -0.021351 0.616686
    58 -0.139399 -0.111698 0.014397 0.358632 0.302122 1.681023
    59 -7.210054 6.843022 -0.192557 1.605702 -0.001306 -0.796361
end
