// Created by Crowbar 0.49.0.0

$modelname "weapons/tfa_cso/w_katyusha.mdl"

$BodyGroup "studio"
{
	studio "v_blocksmg2_01"
}

$collisionmodel "v_blocksmg2_01.smd"
{
	$mass 9
}

$CDMaterials "models\weapons\tfa_cso\katyusha"

$attachment "0" "root" -0.20 -13.00 2.50 rotate -0 0 0

$Sequence "idle" {
	"anims\idle.smd"
	fps 30
}
