version 1
nodes
  0 "uzi_root_l" -1
  1 "triger01" 0
  2 "reloader01" 0
  3 "megazine01" 0
  4 "Hb01" 0
  5 "bone02" 0
  6 "bone03" 0
  7 "bone05" 0
  8 "uzi_root_r" -1
  9 "triger" 8
  10 "reloader" 8
  11 "Hb" 8
  12 "megazine" 8
  13 "bone01" 8
  14 "bone04" 8
  15 "bone06" 8
  16 "root" -1
  17 "Bone01" 16
  18 "Bone_L_Upper" 17
  19 "Bone_Lefthand" 17
  20 "Bone13" 19
  21 "Bone14" 20
  22 "Bone15" 21
  23 "Bone17" 19
  24 "Bone18" 23
  25 "Bone19" 24
  26 "Bone21" 19
  27 "Bone22" 26
  28 "Bone23" 27
  29 "Bone09" 19
  30 "Bone10" 29
  31 "Bone11" 30
  32 "Bone05" 19
  33 "Bone06" 32
  34 "Bone07" 33
  35 "Bone_Se_Hand-L" 19
  36 "Bone04" 16
  37 "Bone_Righthand" 36
  38 "Bone39" 37
  39 "Bone40" 38
  40 "Bone41" 39
  41 "Bone35" 37
  42 "Bone36" 41
  43 "Bone37" 42
  44 "Bone31" 37
  45 "Bone32" 44
  46 "Bone33" 45
  47 "Bone43" 37
  48 "Bone44" 47
  49 "Bone45" 48
  50 "Bone27" 37
  51 "Bone28" 50
  52 "Bone29" 51
  53 "Bone_Se_Hand-R" 37
  54 "Bone_R_Upper" 36
end
skeleton
  time 0
    0 -5.193768 -7.112443 -4.273053 -0.085238 -0.061039 -1.574653
    1 2.999629 0.000000 1.353195 0.000000 0.000000 1.570798
    2 3.594184 0.000000 3.113281 0.000000 0.000000 1.570798
    3 1.661240 -0.000001 1.206648 0.000000 0.000000 1.570798
    4 -1.922007 -0.370809 2.041211 0.000000 0.000000 3.141589
    5 6.542123 0.000005 2.151215 1.570796 0.000000 0.000001
    6 -38.455750 -0.000043 2.151239 1.570796 0.000000 0.000001
    7 -38.280617 -0.000043 2.151239 1.570796 0.000000 0.000001
    8 5.258233 -6.254171 -4.370057 0.068407 -0.051902 -1.565335
    9 2.999630 0.000001 1.353195 0.783485 0.000000 1.570798
    10 3.572902 0.000003 3.113282 0.000000 0.000000 1.570798
    11 -1.949019 0.369309 1.958547 0.000000 0.000000 3.141589
    12 1.598420 0.000000 1.206649 0.000000 0.000000 1.570798
    13 6.485002 0.000008 2.091607 1.570797 0.000000 0.000001
    14 8.817085 -0.000033 2.091637 1.570797 0.000000 0.000001
    15 8.998429 -0.000032 2.091636 1.570797 0.000000 0.000001
    16 -0.002752 8.717751 -1.784592 0.000000 0.000000 0.000000
    17 8.103035 -5.858225 -6.655435 0.557019 -2.328490 -0.663621
    18 8.077701 0.891251 -0.376376 1.569085 -3.116826 0.187312
    19 -0.048483 -8.455766 -0.096321 0.067089 0.376816 -0.169062
    20 -0.488518 -2.755602 -0.228260 -0.434640 0.150360 -0.257287
    21 0.039887 -1.526666 0.010322 -1.357338 -0.013111 0.029747
    22 0.028786 -1.243705 -0.128581 -1.636554 -0.011673 0.037428
    23 0.250027 -2.820665 -0.238396 -0.156970 0.124643 -0.222596
    24 -0.049759 -1.598510 0.041883 -1.435791 0.002613 -0.039072
    25 -0.034142 -1.179563 0.045718 -1.374047 0.003919 -0.036193
    26 0.957766 -2.746780 -0.090302 0.163303 0.113141 0.005479
    27 -0.033420 -1.393223 -0.019070 -0.548442 0.008389 -0.026751
    28 -0.022360 -0.957436 -0.000748 -0.707936 0.007526 -0.034384
    29 -1.180681 -2.507217 -0.193859 -0.415008 0.237226 -0.226934
    30 -0.024967 -1.123934 0.017597 -0.746625 0.007047 -0.031734
    31 -0.020057 -0.902687 0.025715 -0.835949 0.007299 -0.033713
    32 0.587416 -1.197277 0.185379 0.202761 -0.629696 -0.509768
    33 1.477332 -0.220230 0.071417 0.050655 -0.216957 -0.777967
    34 1.007018 -0.182979 0.044010 0.086801 -0.241947 -1.032056
    35 0.038119 -0.319809 -0.031051 0.239633 3.240644 1.548104
    36 -6.817844 -6.282073 -5.255350 0.664151 -4.319668 0.766778
    37 0.132101 -8.466044 -0.040616 0.136328 -0.072492 0.031565
    38 0.447953 -2.798986 -0.200443 -0.104509 -0.192370 0.258718
    39 -0.032909 -1.499736 0.036191 -1.759234 0.021968 -0.036827
    40 -0.027022 -1.115984 -0.028023 -0.994634 0.022100 -0.015916
    41 -0.249534 -2.846964 -0.174213 0.009452 -0.070702 0.196948
    42 0.043235 -1.656596 0.056948 -1.763160 -0.024622 0.013759
    43 0.031729 -1.141298 0.054932 -1.121697 -0.012481 0.006191
    44 -0.963866 -2.785145 -0.085350 0.260077 0.028696 0.046770
    45 0.028479 -1.403067 -0.009354 -0.545233 -0.010343 -0.022723
    46 0.021413 -0.942156 0.012233 -0.969120 -0.025539 -0.033725
    47 1.164475 -2.543940 -0.170330 -0.244500 -0.299426 0.130841
    48 0.024032 -1.144668 -0.005631 -1.178629 0.018241 0.058905
    49 0.014898 -0.903521 -0.015942 -1.054822 0.010594 0.052564
    50 -0.586770 -1.264477 0.200161 -0.480709 -0.775212 -2.389081
    51 1.565805 0.035243 0.016848 -0.018844 -0.006943 0.893522
    52 1.114041 0.040611 -0.005766 -0.030624 -0.033971 1.094330
    53 -0.002676 -0.502335 -0.044199 0.290547 0.059634 1.643451
    54 -8.237429 0.991281 -0.469909 1.567201 -0.035967 -0.198067
  time 1
    0 -5.193768 -7.112443 -4.273053 -0.085238 -0.063123 -1.572844
    1 2.999629 0.000000 1.353195 0.000000 0.000000 1.570798
    2 3.594184 0.000000 3.113281 0.000000 0.000000 1.570798
    3 1.661240 -0.000001 1.206648 0.000000 0.000000 1.570798
    4 -1.922007 -0.370809 2.041211 0.000000 0.000000 3.141589
    5 6.542123 0.000005 2.151215 1.570796 0.000000 0.000001
    6 -38.455750 -0.000043 2.151239 1.570796 0.000000 0.000001
    7 -38.280617 -0.000043 2.151239 1.570796 0.000000 0.000001
    8 5.254327 -5.679935 -4.393495 0.068690 -0.065027 -1.577697
    9 2.999630 0.000001 1.353195 0.783485 0.000000 1.570798
    10 2.748658 0.000003 3.113282 0.000000 0.000000 1.570798
    11 -1.949019 0.369309 1.958547 0.000000 0.000000 3.141589
    12 1.598420 0.000000 1.206649 0.000000 0.000000 1.570798
    13 6.485002 0.000008 2.091607 1.570797 0.000000 0.000001
    14 38.751592 -0.070348 0.267362 1.570797 0.000000 0.000001
    15 8.998429 -0.000032 2.091636 1.570797 0.000000 0.000001
    16 -0.002752 8.717751 -1.784592 0.000000 0.000000 0.000000
    17 8.212414 -5.369929 -6.799970 0.571184 -2.336639 -0.686100
    18 8.058169 0.117790 -0.384189 1.570331 -3.115196 0.092500
    19 -0.048483 -8.455766 -0.096321 0.067117 0.376786 -0.168716
    20 -0.488518 -2.755602 -0.228260 -0.434640 0.150360 -0.257287
    21 0.039887 -1.526666 0.010322 -1.357338 -0.013111 0.029747
    22 0.028786 -1.243705 -0.128581 -1.636554 -0.011673 0.037428
    23 0.250027 -2.820665 -0.238396 -0.156970 0.124643 -0.222596
    24 -0.049759 -1.598510 0.041883 -1.435791 0.002613 -0.039072
    25 -0.034142 -1.179563 0.045718 -1.374047 0.003919 -0.036193
    26 0.957766 -2.746780 -0.090302 0.163303 0.113141 0.005479
    27 -0.033420 -1.397129 -0.026882 -0.877200 0.006064 -0.043122
    28 -0.022360 -0.957436 -0.000748 -0.707936 0.007526 -0.034384
    29 -1.180681 -2.507217 -0.193859 -0.415008 0.237226 -0.226934
    30 -0.024967 -1.123934 0.017597 -0.746625 0.007047 -0.031734
    31 -0.020057 -0.902687 0.025715 -0.835949 0.007299 -0.033713
    32 0.587416 -1.197277 0.185379 0.202761 -0.629696 -0.509768
    33 1.477332 -0.220230 0.071417 0.050655 -0.216957 -0.777967
    34 1.007018 -0.182979 0.044010 0.086801 -0.241947 -1.032056
    35 0.038119 -0.319809 -0.031051 0.239633 3.240644 1.548104
    36 -6.817844 -6.282073 -5.255350 0.662887 -4.320124 0.765549
    37 0.132101 -8.466044 -0.040616 0.135398 -0.072460 0.028434
    38 0.447953 -2.798986 -0.200443 -0.105096 -0.191987 0.261714
    39 -0.032909 -1.499736 0.036191 -1.759234 0.021968 -0.036827
    40 -0.027022 -1.115984 -0.028023 -0.994634 0.022100 -0.015916
    41 -0.249534 -2.846964 -0.174213 0.009452 -0.070702 0.196948
    42 0.043235 -1.656596 0.056948 -1.763160 -0.024622 0.013759
    43 0.031729 -1.141298 0.054932 -1.121697 -0.012481 0.006191
    44 -0.963866 -2.785145 -0.085350 0.255567 0.028720 0.046578
    45 0.028479 -1.403067 -0.009354 -0.552819 -0.010558 -0.022986
    46 0.021413 -0.942156 0.012233 -0.970523 -0.025587 -0.033761
    47 1.164475 -2.543940 -0.170330 -0.246445 -0.298324 0.139350
    48 0.024032 -1.144668 -0.005631 -1.192097 0.018828 0.059385
    49 0.014898 -0.903521 -0.015942 -1.041968 0.010127 0.052013
    50 -0.586770 -1.264477 0.200161 -0.480709 -0.775212 -2.389081
    51 1.565805 0.035243 0.016848 -0.018844 -0.006943 0.893522
    52 1.114041 0.040611 -0.005766 -0.030756 -0.033947 1.098659
    53 -0.002676 -0.502335 -0.044199 0.290547 0.059634 1.643451
    54 -8.237429 0.995188 -0.469909 1.567213 -0.035967 -0.198447
  time 2
    0 -5.189861 -7.108537 -4.276960 -0.085238 -0.064791 -1.571465
    1 2.999629 0.000000 1.353195 0.000000 0.000000 1.570798
    2 3.594184 0.000000 3.113281 0.000000 0.000000 1.570798
    3 1.661240 -0.000001 1.206648 0.000000 0.000000 1.570798
    4 -1.922007 -0.370809 2.041211 0.000000 0.000000 3.141589
    5 6.542123 0.000005 2.151215 1.570796 0.000000 0.000001
    6 -38.455750 -0.000043 2.151239 1.570796 0.000000 0.000001
    7 -38.280617 -0.000043 2.151239 1.570796 0.000000 0.000001
    8 5.254327 -5.695560 -4.303649 0.070481 -0.081217 -1.582132
    9 2.999630 0.000001 1.353195 0.776240 0.000000 1.570798
    10 3.240861 0.000003 3.113282 0.000000 0.000000 1.570798
    11 -1.949019 0.369309 1.958547 0.000000 0.000000 3.141589
    12 1.598420 0.000000 1.206649 0.000000 0.000000 1.570798
    13 6.485002 0.000008 2.091607 1.570797 0.000000 0.000001
    14 8.817085 -0.000033 2.091637 1.570797 0.000000 0.000001
    15 8.998429 -0.000032 2.091636 1.570797 0.000000 0.000001
    16 -0.002752 8.717751 -1.784592 0.000000 0.000000 0.000000
    17 8.212414 -5.424618 -6.768719 0.577213 -2.340904 -0.689594
    18 8.062075 0.180292 -0.384189 1.570236 -3.115388 0.099706
    19 -0.048483 -8.459673 -0.096321 0.068884 0.375758 -0.156726
    20 -0.488518 -2.755602 -0.228260 -0.434640 0.150360 -0.257287
    21 0.039887 -1.526666 0.010322 -1.357338 -0.013111 0.029747
    22 0.028786 -1.243705 -0.128581 -1.636554 -0.011673 0.037428
    23 0.250027 -2.820665 -0.238396 -0.156970 0.124643 -0.222596
    24 -0.049759 -1.598510 0.041883 -1.435791 0.002613 -0.039072
    25 -0.034142 -1.179563 0.045718 -1.374047 0.003919 -0.036193
    26 0.957766 -2.746780 -0.090302 0.163303 0.113141 0.005479
    27 -0.033420 -1.397129 -0.026882 -0.933826 0.005129 -0.045818
    28 -0.022360 -0.957436 -0.000748 -0.707936 0.007526 -0.034384
    29 -1.180681 -2.507217 -0.193859 -0.415008 0.237226 -0.226934
    30 -0.024967 -1.123934 0.017597 -0.746625 0.007047 -0.031734
    31 -0.020057 -0.902687 0.025715 -0.835949 0.007299 -0.033713
    32 0.587416 -1.197277 0.185379 0.202761 -0.629696 -0.509768
    33 1.477332 -0.220230 0.071417 0.050655 -0.216957 -0.777967
    34 1.007018 -0.182979 0.044010 0.086801 -0.241947 -1.032056
    35 0.038119 -0.319809 -0.031051 0.239633 3.240644 1.548104
    36 -6.817844 -6.278167 -5.255350 0.661623 -4.320580 0.764319
    37 0.132101 -8.466044 -0.040616 0.134691 -0.072428 0.025796
    38 0.447953 -2.798986 -0.200443 -0.105563 -0.191699 0.264099
    39 -0.032909 -1.499736 0.036191 -1.759234 0.021968 -0.036827
    40 -0.027022 -1.115984 -0.028023 -0.994634 0.022100 -0.015916
    41 -0.249534 -2.846964 -0.174213 0.009452 -0.070702 0.196948
    42 0.043235 -1.656596 0.056948 -1.763160 -0.024622 0.013759
    43 0.031729 -1.141298 0.054932 -1.121697 -0.012481 0.006191
    44 -0.963866 -2.785145 -0.085350 0.251979 0.028744 0.046410
    45 0.028479 -1.403067 -0.009354 -0.558849 -0.010738 -0.023190
    46 0.021413 -0.942156 0.012233 -0.971638 -0.025635 -0.033773
    47 1.164475 -2.543940 -0.170330 -0.247980 -0.297425 0.146110
    48 0.024032 -1.144668 -0.005631 -1.202833 0.019295 0.059768
    49 0.014898 -0.903521 -0.015942 -1.031752 0.009767 0.051558
    50 -0.586770 -1.264477 0.200161 -0.480709 -0.775212 -2.389081
    51 1.565805 0.035243 0.016848 -0.018844 -0.006943 0.893522
    52 1.114041 0.040611 -0.005766 -0.030864 -0.033923 1.102130
    53 -0.002676 -0.502335 -0.044199 0.290547 0.059634 1.643451
    54 -8.237429 0.995188 -0.469909 1.567225 -0.035967 -0.198828
  time 3
    0 -5.189861 -7.108537 -4.284772 -0.085238 -0.066125 -1.570345
    1 2.999629 0.000000 1.353195 0.000000 0.000000 1.570798
    2 3.594184 0.000000 3.113281 0.000000 0.000000 1.570798
    3 1.661240 -0.000001 1.206648 0.000000 0.000000 1.570798
    4 -1.922007 -0.370809 2.041211 0.000000 0.000000 3.141589
    5 6.542123 0.000005 2.151215 1.570796 0.000000 0.000001
    6 -38.455750 -0.000043 2.151239 1.570796 0.000000 0.000001
    7 -38.280617 -0.000043 2.151239 1.570796 0.000000 0.000001
    8 5.254327 -5.824470 -4.190364 0.072460 -0.097407 -1.584774
    9 2.999630 0.000001 1.353195 0.756538 0.000000 1.570798
    10 4.151045 0.000003 3.113282 0.000000 0.000000 1.570798
    11 -1.949019 0.369309 1.958547 0.000000 0.000000 3.141589
    12 1.598420 0.000000 1.206649 0.000000 0.000000 1.570798
    13 6.485002 0.000008 2.091607 1.570797 0.000000 0.000001
    14 8.817085 -0.000033 2.091637 1.570797 0.000000 0.000001
    15 8.998429 -0.000032 2.091636 1.570797 0.000000 0.000001
    16 -0.002752 8.717751 -1.784592 0.000000 0.000000 0.000000
    17 8.196788 -5.580873 -6.706218 0.581520 -2.344315 -0.689405
    18 8.073794 0.391235 -0.380282 1.569852 -3.115771 0.125874
    19 -0.048483 -8.459673 -0.096321 0.070850 0.374549 -0.143042
    20 -0.488518 -2.755602 -0.228260 -0.434640 0.150360 -0.257287
    21 0.039887 -1.526666 0.010322 -1.357338 -0.013111 0.029747
    22 0.028786 -1.243705 -0.128581 -1.636554 -0.011673 0.037428
    23 0.250027 -2.820665 -0.238396 -0.156970 0.124643 -0.222596
    24 -0.049759 -1.598510 0.041883 -1.435791 0.002613 -0.039072
    25 -0.034142 -1.179563 0.045718 -1.374047 0.003919 -0.036193
    26 0.957766 -2.746780 -0.090302 0.163303 0.113141 0.005479
    27 -0.033420 -1.397129 -0.026882 -0.937135 0.005069 -0.045974
    28 -0.022360 -0.957436 -0.000748 -0.707936 0.007526 -0.034384
    29 -1.180681 -2.507217 -0.193859 -0.415008 0.237226 -0.226934
    30 -0.024967 -1.123934 0.017597 -0.746625 0.007047 -0.031734
    31 -0.020057 -0.902687 0.025715 -0.835949 0.007299 -0.033713
    32 0.587416 -1.197277 0.185379 0.202761 -0.629696 -0.509768
    33 1.477332 -0.220230 0.071417 0.050655 -0.216957 -0.777967
    34 1.007018 -0.182979 0.044010 0.086801 -0.241947 -1.032056
    35 0.038119 -0.319809 -0.031051 0.239633 3.240644 1.548104
    36 -6.817844 -6.278167 -5.255350 0.660401 -4.321036 0.763184
    37 0.132101 -8.466044 -0.040616 0.134204 -0.072396 0.023651
    38 0.447953 -2.798986 -0.200443 -0.105911 -0.191459 0.265909
    39 -0.032909 -1.499736 0.036191 -1.759234 0.021968 -0.036827
    40 -0.027022 -1.115984 -0.028023 -0.994634 0.022100 -0.015916
    41 -0.249534 -2.846964 -0.174213 0.009452 -0.070702 0.196948
    42 0.043235 -1.656596 0.056948 -1.763160 -0.024622 0.013759
    43 0.031729 -1.141298 0.054932 -1.121697 -0.012481 0.006191
    44 -0.963866 -2.785145 -0.085350 0.249248 0.028756 0.046290
    45 0.028479 -1.403067 -0.009354 -0.563452 -0.010882 -0.023346
    46 0.021413 -0.942156 0.012233 -0.972467 -0.025671 -0.033797
    47 1.164475 -2.543940 -0.170330 -0.249151 -0.296742 0.151263
    48 0.024032 -1.144668 -0.005631 -1.210981 0.019655 0.060044
    49 0.014898 -0.903521 -0.015942 -1.023974 0.009492 0.051222
    50 -0.586770 -1.264477 0.200161 -0.480709 -0.775212 -2.389081
    51 1.565805 0.035243 0.016848 -0.018844 -0.006943 0.893522
    52 1.114041 0.040611 -0.005766 -0.030948 -0.033899 1.104788
    53 -0.002676 -0.502335 -0.044199 0.290547 0.059634 1.643451
    54 -8.237429 0.999094 -0.469909 1.567225 -0.035955 -0.199208
  time 4
    0 -5.185955 -7.108537 -4.288679 -0.085332 -0.067042 -1.569569
    1 2.999629 0.000000 1.353195 0.000000 0.000000 1.570798
    2 3.594184 0.000000 3.113281 0.000000 0.000000 1.570798
    3 1.661240 -0.000001 1.206648 0.000000 0.000000 1.570798
    4 -1.922007 -0.370809 2.041211 0.000000 0.000000 3.141589
    5 6.542123 0.000005 2.151215 1.570796 0.000000 0.000001
    6 -38.455750 -0.000043 2.151239 1.570796 0.000000 0.000001
    7 -38.280617 -0.000043 2.151239 1.570796 0.000000 0.000001
    8 5.254327 -5.949474 -4.127862 0.073214 -0.103347 -1.584586
    9 2.999630 0.000001 1.353195 0.727319 0.000000 1.570798
    10 4.643247 0.000003 3.113282 0.000000 0.000000 1.570798
    11 -1.949019 0.369309 1.958547 0.000000 0.000000 3.141589
    12 1.598420 0.000000 1.206649 0.000000 0.000000 1.570798
    13 6.485002 0.000008 2.091607 1.570797 0.000000 0.000001
    14 8.817085 -0.000033 2.091637 1.570797 0.000000 0.000001
    15 8.998429 -0.000032 2.091636 1.570797 0.000000 0.000001
    16 -0.002752 8.717751 -1.784592 0.000000 0.000000 0.000000
    17 8.177256 -5.705876 -6.659341 0.582190 -2.344884 -0.686855
    18 8.077701 0.578741 -0.380282 1.569565 -3.116155 0.148818
    19 -0.048483 -8.463579 -0.096321 0.071733 0.374004 -0.136858
    20 -0.488518 -2.755602 -0.228260 -0.434640 0.150360 -0.257287
    21 0.039887 -1.526666 0.010322 -1.357338 -0.013111 0.029747
    22 0.028786 -1.243705 -0.128581 -1.636554 -0.011673 0.037428
    23 0.250027 -2.820665 -0.238396 -0.156970 0.124643 -0.222596
    24 -0.049759 -1.598510 0.041883 -1.435838 0.002613 -0.039072
    25 -0.034142 -1.179563 0.045718 -1.374047 0.003919 -0.036193
    26 0.957766 -2.746780 -0.090302 0.163303 0.113141 0.005479
    27 -0.033420 -1.397129 -0.026882 -0.903322 0.005657 -0.044368
    28 -0.022360 -0.957436 -0.000748 -0.707936 0.007526 -0.034384
    29 -1.180681 -2.507217 -0.193859 -0.415008 0.237226 -0.226934
    30 -0.024967 -1.123934 0.017597 -0.746625 0.007047 -0.031734
    31 -0.020057 -0.902687 0.025715 -0.835949 0.007299 -0.033713
    32 0.587416 -1.197277 0.185379 0.202761 -0.629696 -0.509768
    33 1.477332 -0.220230 0.071417 0.050655 -0.216957 -0.777967
    34 1.007018 -0.182979 0.044010 0.086801 -0.241947 -1.032056
    35 0.038119 -0.319809 -0.031051 0.239633 3.240644 1.548104
    36 -6.817844 -6.274260 -5.259256 0.659222 -4.321493 0.762049
    37 0.132101 -8.466044 -0.040616 0.133894 -0.072332 0.021927
    38 0.447953 -2.798986 -0.200443 -0.106175 -0.191303 0.267215
    39 -0.032909 -1.499736 0.036191 -1.759234 0.021968 -0.036827
    40 -0.027022 -1.115984 -0.028023 -0.994634 0.022100 -0.015916
    41 -0.249534 -2.846964 -0.174213 0.009452 -0.070702 0.196948
    42 0.043235 -1.656596 0.056948 -1.763160 -0.024622 0.013759
    43 0.031729 -1.141298 0.054932 -1.121697 -0.012481 0.006191
    44 -0.963866 -2.785145 -0.085350 0.247279 0.028756 0.046194
    45 0.028479 -1.403067 -0.009354 -0.566759 -0.010978 -0.023454
    46 0.021413 -0.942156 0.012233 -0.973072 -0.025695 -0.033809
    47 1.164475 -2.543940 -0.170330 -0.249985 -0.296238 0.154954
    48 0.024032 -1.144668 -0.005631 -1.216828 0.019918 0.060248
    49 0.014898 -0.903521 -0.015942 -1.018371 0.009300 0.050970
    50 -0.586770 -1.264477 0.200161 -0.480709 -0.775212 -2.389081
    51 1.565805 0.035243 0.016848 -0.018844 -0.006943 0.893522
    52 1.114041 0.040611 -0.005766 -0.031007 -0.033887 1.106674
    53 -0.002676 -0.502335 -0.044199 0.290547 0.059634 1.643451
    54 -8.237429 1.003000 -0.469909 1.567237 -0.035955 -0.199589
  time 5
    0 -5.185955 -7.104630 -4.292585 -0.085332 -0.067709 -1.569052
    1 2.999629 0.000000 1.353195 0.000000 0.000000 1.570798
    2 3.594184 0.000000 3.113281 0.000000 0.000000 1.570798
    3 1.661240 -0.000001 1.206648 0.000000 0.000000 1.570798
    4 -1.922007 -0.370809 2.041211 0.000000 0.000000 3.141589
    5 6.542123 0.000005 2.151215 1.570796 0.000000 0.000001
    6 -38.455750 -0.000043 2.151239 1.570796 0.000000 0.000001
    7 -38.280617 -0.000043 2.151239 1.570796 0.000000 0.000001
    8 5.262139 -6.031508 -4.120049 0.069915 -0.099228 -1.581094
    9 2.999630 0.000001 1.353195 0.691548 0.000000 1.570798
    10 4.108075 0.000003 3.113282 0.000000 0.000000 1.570798
    11 -1.949019 0.369309 1.958547 0.000000 0.000000 3.141589
    12 1.598420 0.000000 1.206649 0.000000 0.000000 1.570798
    13 6.485002 0.000008 2.091607 1.570797 0.000000 0.000001
    14 8.817085 -0.000033 2.091637 1.570797 0.000000 0.000001
    15 8.998429 -0.000032 2.091636 1.570797 0.000000 0.000001
    16 -0.002752 8.717751 -1.784592 0.000000 0.000000 0.000000
    17 8.161631 -5.768378 -6.635903 0.580467 -2.343841 -0.684022
    18 8.081607 0.684213 -0.376376 1.569373 -3.116346 0.161808
    19 -0.048483 -8.459673 -0.096321 0.072502 0.376968 -0.139683
    20 -0.488518 -2.755602 -0.228260 -0.434640 0.150360 -0.257287
    21 0.039887 -1.526666 0.010322 -1.357338 -0.013111 0.029747
    22 0.028786 -1.243705 -0.128581 -1.636554 -0.011673 0.037428
    23 0.250027 -2.820665 -0.238396 -0.156970 0.124643 -0.222596
    24 -0.049759 -1.598510 0.041883 -1.435791 0.002613 -0.039072
    25 -0.034142 -1.179563 0.045718 -1.374047 0.003919 -0.036193
    26 0.957766 -2.746780 -0.090302 0.163303 0.113141 0.005479
    27 -0.033420 -1.397129 -0.026882 -0.828091 0.006747 -0.040737
    28 -0.022360 -0.957436 -0.000748 -0.707936 0.007526 -0.034384
    29 -1.180681 -2.507217 -0.193859 -0.415008 0.237226 -0.226946
    30 -0.024967 -1.123934 0.017597 -0.746625 0.007047 -0.031734
    31 -0.020057 -0.902687 0.025715 -0.835949 0.007299 -0.033713
    32 0.587416 -1.197277 0.185379 0.202761 -0.629696 -0.509768
    33 1.477332 -0.220230 0.071417 0.050655 -0.216957 -0.777967
    34 1.007018 -0.182979 0.044010 0.086801 -0.241947 -1.032056
    35 0.038119 -0.319809 -0.031051 0.239633 3.240644 1.548104
    36 -6.817844 -6.274260 -5.259256 0.658000 -4.321949 0.760914
    37 0.132101 -8.466044 -0.040616 0.133761 -0.072268 0.020591
    38 0.447953 -2.798986 -0.200443 -0.106330 -0.191196 0.268054
    39 -0.032909 -1.499736 0.036191 -1.759234 0.021968 -0.036827
    40 -0.027022 -1.115984 -0.028023 -0.994634 0.022100 -0.015916
    41 -0.249534 -2.846964 -0.174213 0.009452 -0.070702 0.196948
    42 0.043235 -1.656596 0.056948 -1.763160 -0.024622 0.013759
    43 0.031729 -1.141298 0.054932 -1.121697 -0.012481 0.006191
    44 -0.963866 -2.785145 -0.085350 0.246009 0.028768 0.046146
    45 0.028479 -1.403067 -0.009354 -0.568899 -0.011050 -0.023526
    46 0.021413 -0.942156 0.012233 -0.973455 -0.025707 -0.033809
    47 1.164475 -2.543940 -0.170330 -0.250517 -0.295915 0.157327
    48 0.024032 -1.144668 -0.009538 -1.220615 0.020086 0.060379
    49 0.014898 -0.903521 -0.015942 -1.014779 0.009180 0.050815
    50 -0.586770 -1.264477 0.200161 -0.480709 -0.775212 -2.389081
    51 1.565805 0.035243 0.016848 -0.018844 -0.006943 0.893522
    52 1.114041 0.040611 -0.005766 -0.031043 -0.033875 1.107916
    53 -0.002676 -0.502335 -0.044199 0.290547 0.059634 1.643451
    54 -8.237429 1.006907 -0.469909 1.567249 -0.035943 -0.199969
  time 6
    0 -5.185955 -7.104630 -4.300398 -0.085332 -0.068043 -1.568880
    1 2.999629 0.000000 1.353195 0.000000 0.000000 1.570798
    2 3.594184 0.000000 3.113281 0.000000 0.000000 1.570798
    3 1.661240 -0.000001 1.206648 0.000000 0.000000 1.570798
    4 -1.922007 -0.370809 2.041211 0.000000 0.000000 3.141589
    5 6.542123 0.000005 2.151215 1.570796 0.000000 0.000001
    6 -38.455750 -0.000043 2.151239 1.570796 0.000000 0.000001
    7 -38.280617 -0.000043 2.151239 1.570796 0.000000 0.000001
    8 5.269952 -6.105729 -4.135675 0.064165 -0.090127 -1.575527
    9 2.999630 0.000001 1.353195 0.652191 0.000000 1.570798
    10 3.572902 0.000003 3.113282 0.000000 0.000000 1.570798
    11 -1.949019 0.369309 1.958547 0.000000 0.000000 3.141589
    12 1.598420 0.000000 1.206649 0.000000 0.000000 1.570798
    13 6.485002 0.000008 2.091607 1.570797 0.000000 0.000001
    14 8.817085 -0.000033 2.091637 1.570797 0.000000 0.000001
    15 8.998429 -0.000032 2.091636 1.570797 0.000000 0.000001
    16 -0.002752 8.717751 -1.784592 0.000000 0.000000 0.000000
    17 8.146005 -5.823067 -6.624184 0.577405 -2.341851 -0.680433
    18 8.081607 0.774060 -0.376376 1.569277 -3.116538 0.172711
    19 -0.048483 -8.459673 -0.096321 0.073414 0.382108 -0.146745
    20 -0.488518 -2.755602 -0.228260 -0.434640 0.150360 -0.257287
    21 0.039887 -1.526666 0.010322 -1.357338 -0.013111 0.029747
    22 0.028786 -1.243705 -0.128581 -1.636554 -0.011673 0.037428
    23 0.250027 -2.820665 -0.238396 -0.156970 0.124643 -0.222596
    24 -0.049759 -1.598510 0.041883 -1.435791 0.002613 -0.039072
    25 -0.034142 -1.179563 0.045718 -1.374047 0.003919 -0.036193
    26 0.957766 -2.746780 -0.090302 0.163303 0.113141 0.005479
    27 -0.033420 -1.393223 -0.022976 -0.720150 0.007850 -0.035391
    28 -0.022360 -0.957436 -0.000748 -0.707936 0.007526 -0.034384
    29 -1.180681 -2.507217 -0.193859 -0.415008 0.237226 -0.226934
    30 -0.024967 -1.123934 0.017597 -0.746625 0.007047 -0.031734
    31 -0.020057 -0.902687 0.025715 -0.835949 0.007299 -0.033713
    32 0.587416 -1.197277 0.185379 0.202761 -0.629696 -0.509768
    33 1.477332 -0.220230 0.071417 0.050655 -0.216957 -0.777967
    34 1.007018 -0.182979 0.044010 0.086801 -0.241947 -1.032056
    35 0.038119 -0.319809 -0.031051 0.239633 3.240644 1.548104
    36 -6.817844 -6.274260 -5.259256 0.656820 -4.322405 0.759779
    37 0.132101 -8.466044 -0.040616 0.133761 -0.072205 0.019571
    38 0.447953 -2.798986 -0.200443 -0.106414 -0.191136 0.268474
    39 -0.032909 -1.499736 0.036191 -1.759234 0.021968 -0.036827
    40 -0.027022 -1.115984 -0.028023 -0.994634 0.022100 -0.015916
    41 -0.249534 -2.846964 -0.174213 0.009452 -0.070702 0.196948
    42 0.043235 -1.656596 0.056948 -1.763160 -0.024622 0.013759
    43 0.031729 -1.141298 0.054932 -1.121697 -0.012481 0.006191
    44 -0.963866 -2.785145 -0.085350 0.245374 0.028768 0.046110
    45 0.028479 -1.403067 -0.009354 -0.569969 -0.011074 -0.023562
    46 0.021413 -0.942156 0.012233 -0.973678 -0.025719 -0.033821
    47 1.164475 -2.543940 -0.170330 -0.250795 -0.295759 0.158526
    48 0.024032 -1.144668 -0.009538 -1.222484 0.020170 0.060439
    49 0.014898 -0.903521 -0.015942 -1.012966 0.009120 0.050731
    50 -0.586770 -1.264477 0.200161 -0.480709 -0.775212 -2.389081
    51 1.565805 0.035243 0.016848 -0.018844 -0.006943 0.893522
    52 1.114041 0.040611 -0.005766 -0.031067 -0.033863 1.108517
    53 -0.002676 -0.502335 -0.044199 0.290547 0.059634 1.643451
    54 -8.237429 1.006907 -0.469909 1.567261 -0.035943 -0.200302
  time 7
    0 -5.185955 -7.104630 -4.304304 -0.085332 -0.068126 -1.568793
    1 2.999629 0.000000 1.353195 0.000000 0.000000 1.570798
    2 3.594184 0.000000 3.113281 0.000000 0.000000 1.570798
    3 1.661240 -0.000001 1.206648 0.000000 0.000000 1.570798
    4 -1.922007 -0.370809 2.041211 0.000000 0.000000 3.141589
    5 6.542123 0.000005 2.151215 1.570796 0.000000 0.000001
    6 -38.455750 -0.000043 2.151239 1.570796 0.000000 0.000001
    7 -38.280617 -0.000043 2.151239 1.570796 0.000000 0.000001
    8 5.277765 -6.179950 -4.205990 0.061619 -0.073745 -1.569110
    9 2.999630 0.000001 1.353195 0.612188 0.000000 1.570798
    10 3.572902 0.000003 3.113282 0.000000 0.000000 1.570798
    11 -1.949019 0.369309 1.958547 0.000000 0.000000 3.141589
    12 1.598420 0.000000 1.206649 0.000000 0.000000 1.570798
    13 6.485002 0.000008 2.091607 1.570797 0.000000 0.000001
    14 8.817085 -0.000033 2.091637 1.570797 0.000000 0.000001
    15 8.998429 -0.000032 2.091636 1.570797 0.000000 0.000001
    16 -0.002752 8.717751 -1.784592 0.000000 0.000000 0.000000
    17 8.130380 -5.854318 -6.624184 0.570418 -2.337208 -0.674105
    18 8.077701 0.852187 -0.376376 1.569181 -3.116730 0.182287
    19 -0.044576 -8.459673 -0.096321 0.072132 0.384043 -0.158045
    20 -0.488518 -2.755602 -0.228260 -0.434640 0.150360 -0.257287
    21 0.039887 -1.526666 0.010322 -1.357338 -0.013111 0.029747
    22 0.028786 -1.243705 -0.128581 -1.636554 -0.011673 0.037428
    23 0.250027 -2.820665 -0.238396 -0.156970 0.124643 -0.222596
    24 -0.049759 -1.598510 0.041883 -1.435838 0.002613 -0.039072
    25 -0.034142 -1.179563 0.045718 -1.374047 0.003919 -0.036193
    26 0.957766 -2.746780 -0.090302 0.163303 0.113141 0.005479
    27 -0.033420 -1.393223 -0.019070 -0.615053 0.008365 -0.030118
    28 -0.022360 -0.957436 -0.000748 -0.707936 0.007526 -0.034384
    29 -1.180681 -2.507217 -0.193859 -0.415008 0.237226 -0.226934
    30 -0.024967 -1.123934 0.017597 -0.746625 0.007047 -0.031734
    31 -0.020057 -0.902687 0.025715 -0.835949 0.007299 -0.033713
    32 0.587416 -1.197277 0.185379 0.202761 -0.629696 -0.509768
    33 1.477332 -0.220230 0.071417 0.050655 -0.216957 -0.777967
    34 1.007018 -0.182979 0.044010 0.086801 -0.241947 -1.032056
    35 0.038119 -0.319809 -0.031051 0.239633 3.240644 1.548104
    36 -6.817844 -6.270354 -5.259256 0.655599 -4.322861 0.758644
    37 0.132101 -8.466044 -0.040616 0.133938 -0.072109 0.018867
    38 0.447953 -2.798986 -0.200443 -0.106426 -0.191136 0.268534
    39 -0.032909 -1.499736 0.036191 -1.759234 0.021968 -0.036827
    40 -0.027022 -1.115984 -0.028023 -0.994634 0.022100 -0.015916
    41 -0.249534 -2.846964 -0.174213 0.009452 -0.070702 0.196948
    42 0.043235 -1.656596 0.056948 -1.763160 -0.024622 0.013759
    43 0.031729 -1.141298 0.054932 -1.121697 -0.012481 0.006191
    44 -0.963866 -2.785145 -0.085350 0.245295 0.028768 0.046110
    45 0.028479 -1.403067 -0.009354 -0.570098 -0.011086 -0.023574
    46 0.021413 -0.942156 0.012233 -0.973678 -0.025719 -0.033821
    47 1.164475 -2.543940 -0.170330 -0.250831 -0.295735 0.158693
    48 0.024032 -1.144668 -0.009538 -1.222771 0.020182 0.060451
    49 0.014898 -0.903521 -0.015942 -1.012702 0.009108 0.050719
    50 -0.586770 -1.264477 0.200161 -0.480709 -0.775212 -2.389081
    51 1.565805 0.035243 0.016848 -0.018844 -0.006943 0.893522
    52 1.114041 0.040611 -0.005766 -0.031067 -0.033863 1.108602
    53 -0.002676 -0.502335 -0.044199 0.290547 0.059634 1.643451
    54 -8.237429 1.010813 -0.469909 1.567261 -0.035943 -0.200683
  time 8
    0 -5.185955 -7.104630 -4.312117 -0.085238 -0.067959 -1.568966
    1 2.999629 0.000000 1.353195 0.000000 0.000000 1.570798
    2 3.594184 0.000000 3.113281 0.000000 0.000000 1.570798
    3 1.661240 -0.000001 1.206648 0.000000 0.000000 1.570798
    4 -1.922007 -0.370809 2.041211 0.000000 0.000000 3.141589
    5 6.542123 0.000005 2.151215 1.570796 0.000000 0.000001
    6 -38.455750 -0.000043 2.151239 1.570796 0.000000 0.000001
    7 -38.280617 -0.000043 2.151239 1.570796 0.000000 0.000001
    8 5.277765 -6.250265 -4.373963 0.068030 -0.047687 -1.562976
    9 2.999630 0.000001 1.353195 0.574529 0.000000 1.570798
    10 3.572902 0.000003 3.113282 0.000000 0.000000 1.570798
    11 -1.949019 0.369309 1.958547 0.000000 0.000000 3.141589
    12 1.598420 0.000000 1.206649 0.000000 0.000000 1.570798
    13 6.485002 0.000008 2.091607 1.570797 0.000000 0.000001
    14 8.817085 -0.000033 2.091637 1.570797 0.000000 0.000001
    15 8.998429 -0.000032 2.091636 1.570797 0.000000 0.000001
    16 -0.002752 8.717751 -1.784592 0.000000 0.000000 0.000000
    17 8.114754 -5.850412 -6.651528 0.556349 -2.328016 -0.662677
    18 8.077701 0.922502 -0.372470 1.569085 -3.116922 0.190915
    19 -0.048483 -8.455766 -0.096321 0.066434 0.377209 -0.173487
    20 -0.488518 -2.755602 -0.228260 -0.434640 0.150360 -0.257287
    21 0.039887 -1.526666 0.010322 -1.357338 -0.013111 0.029747
    22 0.028786 -1.243705 -0.128581 -1.636554 -0.011673 0.037428
    23 0.250027 -2.820665 -0.238396 -0.156970 0.124643 -0.222596
    24 -0.049759 -1.598510 0.041883 -1.435791 0.002613 -0.039072
    25 -0.034142 -1.179563 0.045718 -1.374047 0.003919 -0.036193
    26 0.957766 -2.746780 -0.090302 0.163303 0.113141 0.005479
    27 -0.033420 -1.393223 -0.019070 -0.548442 0.008389 -0.026751
    28 -0.022360 -0.957436 -0.000748 -0.707936 0.007526 -0.034384
    29 -1.180681 -2.507217 -0.193859 -0.415008 0.237226 -0.226934
    30 -0.024967 -1.123934 0.017597 -0.746625 0.007047 -0.031734
    31 -0.020057 -0.902687 0.025715 -0.835949 0.007299 -0.033713
    32 0.587416 -1.197277 0.185379 0.202761 -0.629696 -0.509768
    33 1.477332 -0.220230 0.071417 0.050655 -0.216957 -0.777967
    34 1.007018 -0.182979 0.044010 0.086801 -0.241947 -1.032056
    35 0.038119 -0.319809 -0.031051 0.239633 3.240644 1.548104
    36 -6.817844 -6.270354 -5.263163 0.654419 -4.323252 0.757509
    37 0.132101 -8.466044 -0.040616 0.134204 -0.072013 0.018445
    38 0.447953 -2.798986 -0.200443 -0.106378 -0.191172 0.268282
    39 -0.032909 -1.499736 0.036191 -1.759234 0.021968 -0.036827
    40 -0.027022 -1.115984 -0.028023 -0.994634 0.022100 -0.015916
    41 -0.249534 -2.846964 -0.174213 0.009452 -0.070702 0.196948
    42 0.043235 -1.656596 0.056948 -1.763160 -0.024622 0.013759
    43 0.031729 -1.141298 0.054932 -1.121697 -0.012481 0.006191
    44 -0.963866 -2.785145 -0.085350 0.245676 0.028768 0.046122
    45 0.028479 -1.403067 -0.009354 -0.569450 -0.011062 -0.023550
    46 0.021413 -0.942156 0.012233 -0.973582 -0.025719 -0.033821
    47 1.164475 -2.543940 -0.170330 -0.250662 -0.295831 0.157962
    48 0.024032 -1.144668 -0.009538 -1.221621 0.020134 0.060415
    49 0.014898 -0.903521 -0.015942 -1.013823 0.009144 0.050767
    50 -0.586770 -1.264477 0.200161 -0.480709 -0.775212 -2.389081
    51 1.565805 0.035243 0.016848 -0.018844 -0.006943 0.893522
    52 1.114041 0.040611 -0.005766 -0.031055 -0.033875 1.108217
    53 -0.002676 -0.502335 -0.044199 0.290547 0.059634 1.643451
    54 -8.237429 1.014720 -0.469909 1.567273 -0.035931 -0.201063
  time 9
    0 -5.185955 -7.104630 -4.316023 -0.085238 -0.067626 -1.569310
    1 2.999629 0.000000 1.353195 0.000000 0.000000 1.570798
    2 3.594184 0.000000 3.113281 0.000000 0.000000 1.570798
    3 1.661240 -0.000001 1.206648 0.000000 0.000000 1.570798
    4 -1.922007 -0.370809 2.041211 0.000000 0.000000 3.141589
    5 6.542123 0.000005 2.151215 1.570796 0.000000 0.000001
    6 -38.455750 -0.000043 2.151239 1.570796 0.000000 0.000001
    7 -38.280617 -0.000043 2.151239 1.570796 0.000000 0.000001
    8 5.277765 -6.316673 -4.663035 0.085281 -0.009174 -1.556465
    9 2.999630 0.000001 1.353195 0.542177 0.000000 1.570798
    10 3.572902 0.000003 3.113282 0.000000 0.000000 1.570798
    11 -1.949019 0.369309 1.958547 0.000000 0.000000 3.141589
    12 1.598420 0.000000 1.206649 0.000000 0.000000 1.570798
    13 6.485002 0.000008 2.091607 1.570797 0.000000 0.000001
    14 8.817085 -0.000033 2.091637 1.570797 0.000000 0.000001
    15 8.998429 -0.000032 2.091636 1.570797 0.000000 0.000001
    16 -0.002752 8.717751 -1.784592 0.000000 0.000000 0.000000
    17 8.099129 -5.807442 -6.702311 0.533188 -2.313422 -0.644354
    18 8.077701 0.988910 -0.372470 1.568893 -3.117018 0.199259
    19 -0.048483 -8.451860 -0.096321 0.055693 0.359673 -0.193952
    20 -0.488518 -2.755602 -0.228260 -0.434640 0.150360 -0.257287
    21 0.039887 -1.526666 0.010322 -1.357338 -0.013111 0.029747
    22 0.028786 -1.243705 -0.128581 -1.636554 -0.011673 0.037428
    23 0.250027 -2.820665 -0.238396 -0.156970 0.124643 -0.222596
    24 -0.049759 -1.598510 0.041883 -1.435791 0.002613 -0.039072
    25 -0.034142 -1.179563 0.045718 -1.374047 0.003919 -0.036193
    26 0.957766 -2.746780 -0.090302 0.163303 0.113141 0.005479
    27 -0.033420 -1.393223 -0.019070 -0.523801 0.008353 -0.025504
    28 -0.022360 -0.957436 -0.000748 -0.707936 0.007526 -0.034384
    29 -1.180681 -2.507217 -0.193859 -0.415008 0.237226 -0.226934
    30 -0.024967 -1.123934 0.017597 -0.746625 0.007047 -0.031734
    31 -0.020057 -0.902687 0.025715 -0.835949 0.007299 -0.033713
    32 0.587416 -1.197277 0.185379 0.202761 -0.629696 -0.509768
    33 1.477332 -0.220230 0.071417 0.050655 -0.216957 -0.777967
    34 1.007018 -0.182979 0.044010 0.086801 -0.241947 -1.032056
    35 0.038119 -0.319809 -0.031051 0.239633 3.240644 1.548104
    36 -6.817844 -6.270354 -5.263163 0.653198 -4.323708 0.756374
    37 0.132101 -8.466044 -0.040616 0.134558 -0.071917 0.018199
    38 0.447953 -2.798986 -0.200443 -0.106270 -0.191231 0.267755
    39 -0.032909 -1.499736 0.036191 -1.759234 0.021968 -0.036827
    40 -0.027022 -1.115984 -0.028023 -0.994634 0.022100 -0.015916
    41 -0.249534 -2.846964 -0.174213 0.009452 -0.070702 0.196948
    42 0.043235 -1.656596 0.056948 -1.763160 -0.024622 0.013759
    43 0.031729 -1.141298 0.054932 -1.121697 -0.012481 0.006191
    44 -0.963866 -2.785145 -0.085350 0.246470 0.028768 0.046158
    45 0.028479 -1.403067 -0.009354 -0.568121 -0.011026 -0.023502
    46 0.021413 -0.942156 0.012233 -0.973327 -0.025707 -0.033809
    47 1.164475 -2.543940 -0.170330 -0.250335 -0.296034 0.156476
    48 0.024032 -1.144668 -0.009538 -1.219272 0.020026 0.060331
    49 0.014898 -0.903521 -0.015942 -1.016064 0.009228 0.050863
    50 -0.586770 -1.264477 0.200161 -0.480709 -0.775212 -2.389081
    51 1.565805 0.035243 0.016848 -0.018844 -0.006943 0.893522
    52 1.114041 0.040611 -0.005766 -0.031031 -0.033875 1.107488
    53 -0.002676 -0.502335 -0.044199 0.290547 0.059634 1.643451
    54 -8.237429 1.018626 -0.469909 1.567285 -0.035931 -0.201396
  time 10
    0 -5.185955 -7.108537 -4.323836 -0.085238 -0.067126 -1.569741
    1 2.999629 0.000000 1.353195 0.000000 0.000000 1.570798
    2 3.594184 0.000000 3.113281 0.000000 0.000000 1.570798
    3 1.661240 -0.000001 1.206648 0.000000 0.000000 1.570798
    4 -1.922007 -0.370809 2.041211 0.000000 0.000000 3.141589
    5 6.542123 0.000005 2.151215 1.570796 0.000000 0.000001
    6 -38.455750 -0.000043 2.151239 1.570796 0.000000 0.000001
    7 -38.280617 -0.000043 2.151239 1.570796 0.000000 0.000001
    8 5.273859 -6.375268 -5.041953 0.109697 0.038726 -1.549010
    9 2.999630 0.000001 1.353195 0.510065 0.000000 1.570798
    10 3.572902 0.000003 3.113282 0.000000 0.000000 1.570798
    11 -1.949019 0.369309 1.958547 0.000000 0.000000 3.141589
    12 1.598420 0.000000 1.206649 0.000000 0.000000 1.570798
    13 6.485002 0.000008 2.091607 1.570797 0.000000 0.000001
    14 8.817085 -0.000033 2.091637 1.570797 0.000000 0.000001
    15 8.998429 -0.000032 2.091636 1.570797 0.000000 0.000001
    16 -0.002752 8.717751 -1.784592 0.000000 0.000000 0.000000
    17 8.079597 -5.741034 -6.772626 0.502370 -2.295322 -0.620082
    18 8.073794 1.055318 -0.372470 1.568798 -3.117209 0.207507
    19 -0.052389 -8.444047 -0.100228 0.042189 0.335363 -0.218496
    20 -0.488518 -2.755602 -0.228260 -0.434640 0.150360 -0.257287
    21 0.039887 -1.526666 0.010322 -1.357338 -0.013111 0.029747
    22 0.028786 -1.243705 -0.128581 -1.636554 -0.011673 0.037428
    23 0.250027 -2.820665 -0.238396 -0.156970 0.124643 -0.222596
    24 -0.049759 -1.598510 0.041883 -1.435791 0.002613 -0.039072
    25 -0.034142 -1.179563 0.045718 -1.374047 0.003919 -0.036193
    26 0.957766 -2.746780 -0.090302 0.163303 0.113141 0.005479
    27 -0.033420 -1.393223 -0.019070 -0.516893 0.008329 -0.025157
    28 -0.022360 -0.957436 -0.000748 -0.707936 0.007526 -0.034384
    29 -1.180681 -2.507217 -0.193859 -0.415008 0.237226 -0.226934
    30 -0.024967 -1.123934 0.017597 -0.746625 0.007047 -0.031734
    31 -0.020057 -0.902687 0.025715 -0.835949 0.007299 -0.033713
    32 0.587416 -1.197277 0.185379 0.202761 -0.629696 -0.509768
    33 1.477332 -0.220230 0.071417 0.050655 -0.216957 -0.777967
    34 1.007018 -0.182979 0.044010 0.086801 -0.241947 -1.032056
    35 0.038119 -0.319809 -0.031051 0.239633 3.240644 1.548104
    36 -6.817844 -6.266448 -5.263163 0.651976 -4.324164 0.755239
    37 0.132101 -8.466044 -0.040616 0.134956 -0.071822 0.018164
    38 0.447953 -2.798986 -0.200443 -0.106127 -0.191327 0.267012
    39 -0.032909 -1.499736 0.036191 -1.759234 0.021968 -0.036827
    40 -0.027022 -1.115984 -0.028023 -0.994634 0.022100 -0.015916
    41 -0.249534 -2.846964 -0.174213 0.009452 -0.070702 0.196948
    42 0.043235 -1.656596 0.056948 -1.763160 -0.024622 0.013759
    43 0.031729 -1.141298 0.054932 -1.121697 -0.012481 0.006191
    44 -0.963866 -2.785145 -0.085350 0.247581 0.028756 0.046206
    45 0.028479 -1.403067 -0.009354 -0.566273 -0.010966 -0.023442
    46 0.021413 -0.942156 0.012233 -0.972977 -0.025695 -0.033809
    47 1.164475 -2.543940 -0.170330 -0.249852 -0.296322 0.154391
    48 0.024032 -1.144668 -0.005631 -1.215917 0.019882 0.060212
    49 0.014898 -0.903521 -0.015942 -1.019228 0.009336 0.051006
    50 -0.586770 -1.264477 0.200161 -0.480709 -0.775212 -2.389081
    51 1.565805 0.035243 0.016848 -0.018844 -0.006943 0.893522
    52 1.114041 0.040611 -0.005766 -0.031007 -0.033887 1.106416
    53 -0.002676 -0.502335 -0.044199 0.290547 0.059634 1.643451
    54 -8.233523 1.022532 -0.469909 1.567297 -0.035931 -0.201776
  time 11
    0 -5.189861 -7.108537 -4.331649 -0.085238 -0.066459 -1.570258
    1 2.999629 0.000000 1.353195 0.000000 0.000000 1.570798
    2 3.594184 0.000000 3.113281 0.000000 0.000000 1.570798
    3 1.661240 -0.000001 1.206648 0.000000 0.000000 1.570798
    4 -1.922007 -0.370809 2.041211 0.000000 0.000000 3.141589
    5 6.542123 0.000005 2.151215 1.570796 0.000000 0.000001
    6 -38.455750 -0.000043 2.151239 1.570796 0.000000 0.000001
    7 -38.280617 -0.000043 2.151239 1.570796 0.000000 0.000001
    8 5.269952 -6.410426 -5.463840 0.137884 0.090459 -1.540895
    9 2.999630 0.000001 1.353195 0.475012 0.000000 1.570798
    10 3.572902 0.000003 3.113282 0.000000 0.000000 1.570798
    11 -1.949019 0.369309 1.958547 0.000000 0.000000 3.141589
    12 1.598420 0.000000 1.206649 0.000000 0.000000 1.570798
    13 6.485002 0.000008 2.091607 1.570797 0.000000 0.000001
    14 8.817085 -0.000033 2.091637 1.570797 0.000000 0.000001
    15 8.998429 -0.000032 2.091636 1.570797 0.000000 0.000001
    16 -0.002752 8.717751 -1.784592 0.000000 0.000000 0.000000
    17 8.060065 -5.659000 -6.850753 0.467246 -2.276180 -0.592126
    18 8.069888 1.117820 -0.372470 1.568702 -3.117305 0.215282
    19 -0.056296 -8.440141 -0.104134 0.028030 0.307607 -0.244171
    20 -0.488518 -2.755602 -0.228260 -0.434640 0.150360 -0.257287
    21 0.039887 -1.526666 0.010322 -1.357338 -0.013111 0.029747
    22 0.028786 -1.243705 -0.128581 -1.636554 -0.011673 0.037428
    23 0.250027 -2.820665 -0.238396 -0.156970 0.124643 -0.222596
    24 -0.049759 -1.598510 0.041883 -1.435791 0.002613 -0.039072
    25 -0.034142 -1.179563 0.045718 -1.374047 0.003919 -0.036193
    26 0.957766 -2.746780 -0.090302 0.163303 0.113141 0.005479
    27 -0.033420 -1.393223 -0.019070 -0.521827 0.008341 -0.025408
    28 -0.022360 -0.957436 -0.000748 -0.707936 0.007526 -0.034384
    29 -1.180681 -2.507217 -0.193859 -0.415008 0.237226 -0.226934
    30 -0.024967 -1.123934 0.017597 -0.746625 0.007047 -0.031734
    31 -0.020057 -0.902687 0.025715 -0.835949 0.007299 -0.033713
    32 0.587416 -1.197277 0.185379 0.202761 -0.629696 -0.509768
    33 1.477332 -0.220230 0.071417 0.050655 -0.216957 -0.777967
    34 1.007018 -0.182979 0.044010 0.086801 -0.241947 -1.032056
    35 0.038119 -0.319809 -0.031051 0.239633 3.240644 1.548104
    36 -6.813937 -6.266448 -5.263163 0.650754 -4.324620 0.754009
    37 0.132101 -8.466044 -0.040616 0.135487 -0.071726 0.018234
    38 0.447953 -2.798986 -0.200443 -0.105959 -0.191435 0.266113
    39 -0.032909 -1.499736 0.036191 -1.759234 0.021968 -0.036827
    40 -0.027022 -1.115984 -0.028023 -0.994634 0.022100 -0.015916
    41 -0.249534 -2.846964 -0.174213 0.009452 -0.070702 0.196948
    42 0.043235 -1.656596 0.056948 -1.763160 -0.024622 0.013759
    43 0.031729 -1.141298 0.054932 -1.121697 -0.012481 0.006191
    44 -0.963866 -2.785145 -0.085350 0.248946 0.028756 0.046278
    45 0.028479 -1.403067 -0.009354 -0.563971 -0.010894 -0.023358
    46 0.021413 -0.942156 0.012233 -0.972562 -0.025671 -0.033797
    47 1.164475 -2.543940 -0.170330 -0.249272 -0.296658 0.151826
    48 0.024032 -1.144668 -0.005631 -1.211891 0.019691 0.060080
    49 0.014898 -0.903521 -0.015942 -1.023117 0.009468 0.051174
    50 -0.586770 -1.264477 0.200161 -0.480709 -0.775212 -2.389081
    51 1.565805 0.035243 0.016848 -0.018844 -0.006943 0.893522
    52 1.114041 0.040611 -0.005766 -0.030960 -0.033899 1.105088
    53 -0.002676 -0.502335 -0.044199 0.290547 0.059634 1.643451
    54 -8.233523 1.022532 -0.469909 1.567297 -0.035919 -0.202157
  time 12
    0 -5.189861 -7.108537 -4.339461 -0.085238 -0.065792 -1.570862
    1 2.999629 0.000000 1.353195 0.000000 0.000000 1.570798
    2 3.594184 0.000000 3.113281 0.000000 0.000000 1.570798
    3 1.661240 -0.000001 1.206648 0.000000 0.000000 1.570798
    4 -1.922007 -0.370809 2.041211 0.000000 0.000000 3.141589
    5 6.542123 0.000005 2.151215 1.570796 0.000000 0.000001
    6 -38.455750 -0.000043 2.151239 1.570796 0.000000 0.000001
    7 -38.280617 -0.000043 2.151239 1.570796 0.000000 0.000001
    8 5.266046 -6.429958 -5.874009 0.166542 0.140372 -1.532685
    9 2.999630 0.000001 1.353195 0.442828 0.000000 1.570798
    10 3.572902 0.000003 3.113282 0.000000 0.000000 1.570798
    11 -1.949019 0.369309 1.958547 0.000000 0.000000 3.141589
    12 1.598420 0.000000 1.206649 0.000000 0.000000 1.570798
    13 6.485002 0.000008 2.091607 1.570797 0.000000 0.000001
    14 8.817085 -0.000033 2.091637 1.570797 0.000000 0.000001
    15 8.998429 -0.000032 2.091636 1.570797 0.000000 0.000001
    16 -0.002752 8.717751 -1.784592 0.000000 0.000000 0.000000
    17 8.044440 -5.573060 -6.924974 0.431451 -2.258269 -0.563320
    18 8.065982 1.176416 -0.368563 1.568702 -3.117401 0.222298
    19 -0.060202 -8.432328 -0.104134 0.014953 0.279881 -0.268245
    20 -0.488518 -2.755602 -0.228260 -0.434640 0.150360 -0.257287
    21 0.039887 -1.526666 0.010322 -1.357338 -0.013111 0.029747
    22 0.028786 -1.243705 -0.128581 -1.636554 -0.011673 0.037428
    23 0.250027 -2.820665 -0.238396 -0.156970 0.124643 -0.222596
    24 -0.049759 -1.598510 0.041883 -1.435791 0.002613 -0.039072
    25 -0.034142 -1.179563 0.045718 -1.374047 0.003919 -0.036193
    26 0.957766 -2.746780 -0.090302 0.163303 0.113141 0.005479
    27 -0.033420 -1.393223 -0.019070 -0.532653 0.008365 -0.025948
    28 -0.022360 -0.957436 -0.000748 -0.707936 0.007526 -0.034384
    29 -1.180681 -2.507217 -0.193859 -0.415008 0.237226 -0.226934
    30 -0.024967 -1.123934 0.017597 -0.746625 0.007047 -0.031734
    31 -0.020057 -0.902687 0.025715 -0.835949 0.007299 -0.033713
    32 0.587416 -1.197277 0.185379 0.202761 -0.629696 -0.509768
    33 1.477332 -0.220230 0.071417 0.050655 -0.216957 -0.777967
    34 1.007018 -0.182979 0.044010 0.086801 -0.241947 -1.032056
    35 0.038119 -0.319809 -0.031051 0.239633 3.240644 1.548104
    36 -6.813937 -6.266448 -5.263163 0.649490 -4.325076 0.752780
    37 0.132101 -8.466044 -0.040616 0.136018 -0.071598 0.018410
    38 0.447953 -2.798986 -0.200443 -0.105755 -0.191567 0.265094
    39 -0.032909 -1.499736 0.036191 -1.759234 0.021968 -0.036827
    40 -0.027022 -1.115984 -0.028023 -0.994634 0.022100 -0.015916
    41 -0.249534 -2.846964 -0.174213 0.009452 -0.070702 0.196948
    42 0.043235 -1.656596 0.056948 -1.763160 -0.024622 0.013759
    43 0.031729 -1.141298 0.054932 -1.121697 -0.012481 0.006191
    44 -0.963866 -2.785145 -0.085350 0.250487 0.028744 0.046338
    45 0.028479 -1.403067 -0.009354 -0.561378 -0.010822 -0.023274
    46 0.021413 -0.942156 0.012233 -0.972084 -0.025659 -0.033785
    47 1.164475 -2.543940 -0.170330 -0.248620 -0.297053 0.148926
    48 0.024032 -1.144668 -0.005631 -1.207290 0.019487 0.059924
    49 0.014898 -0.903521 -0.015942 -1.027500 0.009624 0.051378
    50 -0.586770 -1.264477 0.200161 -0.480709 -0.775212 -2.389081
    51 1.565805 0.035243 0.016848 -0.018844 -0.006943 0.893522
    52 1.114041 0.040611 -0.005766 -0.030912 -0.033911 1.103588
    53 -0.002676 -0.502335 -0.044199 0.290547 0.059634 1.643451
    54 -8.233523 1.026439 -0.469909 1.567309 -0.035919 -0.202537
  time 13
    0 -5.189861 -7.108537 -4.347274 -0.085238 -0.065041 -1.571551
    1 2.999629 0.000000 1.353195 0.000000 0.000000 1.570798
    2 3.594184 0.000000 3.113281 0.000000 0.000000 1.570798
    3 1.661240 -0.000001 1.206648 0.000000 0.000000 1.570798
    4 -1.922007 -0.370809 2.041211 0.000000 0.000000 3.141589
    5 6.542123 0.000005 2.151215 1.570796 0.000000 0.000001
    6 -38.455750 -0.000043 2.151239 1.570796 0.000000 0.000001
    7 -38.280617 -0.000043 2.151239 1.570796 0.000000 0.000001
    8 5.262139 -6.429958 -6.229489 0.191712 0.182812 -1.525230
    9 2.999630 0.000001 1.353195 0.419276 0.000000 1.570798
    10 3.572902 0.000003 3.113282 0.000000 0.000000 1.570798
    11 -1.949019 0.369309 1.958547 0.000000 0.000000 3.141589
    12 1.598420 0.000000 1.206649 0.000000 0.000000 1.570798
    13 6.485002 0.000008 2.091607 1.570797 0.000000 0.000001
    14 8.817085 -0.000033 2.091637 1.570797 0.000000 0.000001
    15 8.998429 -0.000032 2.091636 1.570797 0.000000 0.000001
    16 -0.002752 8.717751 -1.784592 0.000000 0.000000 0.000000
    17 8.028814 -5.494932 -6.983570 0.399389 -2.243486 -0.537347
    18 8.065982 1.223292 -0.368563 1.568606 -3.117497 0.228081
    19 -0.060202 -8.428422 -0.108040 0.004384 0.255783 -0.288364
    20 -0.488518 -2.755602 -0.228260 -0.434640 0.150360 -0.257287
    21 0.039887 -1.526666 0.010322 -1.357338 -0.013111 0.029747
    22 0.028786 -1.243705 -0.128581 -1.636554 -0.011673 0.037428
    23 0.250027 -2.820665 -0.238396 -0.156970 0.124643 -0.222596
    24 -0.049759 -1.598510 0.041883 -1.435791 0.002613 -0.039072
    25 -0.034142 -1.179563 0.045718 -1.374047 0.003919 -0.036193
    26 0.957766 -2.746780 -0.090302 0.163303 0.113141 0.005479
    27 -0.033420 -1.393223 -0.019070 -0.543508 0.008389 -0.026499
    28 -0.022360 -0.957436 -0.000748 -0.707936 0.007526 -0.034384
    29 -1.180681 -2.507217 -0.193859 -0.415008 0.237226 -0.226934
    30 -0.024967 -1.123934 0.017597 -0.746625 0.007047 -0.031734
    31 -0.020057 -0.902687 0.025715 -0.835949 0.007299 -0.033713
    32 0.587416 -1.197277 0.185379 0.202761 -0.629696 -0.509768
    33 1.477332 -0.220230 0.071417 0.050655 -0.216957 -0.777967
    34 1.007018 -0.182979 0.044010 0.086801 -0.241947 -1.032056
    35 0.038119 -0.319809 -0.031051 0.239633 3.240644 1.548104
    36 -6.813937 -6.262541 -5.267069 0.648184 -4.325532 0.751550
    37 0.132101 -8.466044 -0.040616 0.136549 -0.071503 0.018656
    38 0.447953 -2.798986 -0.200443 -0.105539 -0.191699 0.264003
    39 -0.032909 -1.499736 0.036191 -1.759234 0.021968 -0.036827
    40 -0.027022 -1.115984 -0.028023 -0.994634 0.022100 -0.015916
    41 -0.249534 -2.846964 -0.174213 0.009452 -0.070702 0.196948
    42 0.043235 -1.656596 0.056948 -1.763160 -0.024622 0.013759
    43 0.031729 -1.141298 0.054932 -1.121697 -0.012481 0.006191
    44 -0.963866 -2.785145 -0.085350 0.252122 0.028744 0.046410
    45 0.028479 -1.403067 -0.009354 -0.558622 -0.010738 -0.023178
    46 0.021413 -0.942156 0.012233 -0.971574 -0.025635 -0.033773
    47 1.164475 -2.543940 -0.170330 -0.247919 -0.297461 0.145846
    48 0.024032 -1.144668 -0.005631 -1.202401 0.019271 0.059744
    49 0.014898 -0.903521 -0.015942 -1.032147 0.009779 0.051582
    50 -0.586770 -1.264477 0.200161 -0.480709 -0.775212 -2.389081
    51 1.565805 0.035243 0.016848 -0.018844 -0.006943 0.893522
    52 1.114041 0.040611 -0.005766 -0.030864 -0.033923 1.102002
    53 -0.002676 -0.502335 -0.044199 0.290547 0.059634 1.643451
    54 -8.233523 1.030345 -0.469909 1.567321 -0.035907 -0.202918
  time 14
    0 -5.189861 -7.108537 -4.355087 -0.085238 -0.064291 -1.572240
    1 2.999629 0.000000 1.353195 0.000000 0.000000 1.570798
    2 3.594184 0.000000 3.113281 0.000000 0.000000 1.570798
    3 1.661240 -0.000001 1.206648 0.000000 0.000000 1.570798
    4 -1.922007 -0.370809 2.041211 0.000000 0.000000 3.141589
    5 6.542123 0.000005 2.151215 1.570796 0.000000 0.000001
    6 -38.455750 -0.000043 2.151239 1.570796 0.000000 0.000001
    7 -38.280617 -0.000043 2.151239 1.570796 0.000000 0.000001
    8 5.262139 -6.426051 -6.479496 0.209529 0.212510 -1.519569
    9 2.999630 0.000001 1.353195 0.410118 0.000000 1.570798
    10 3.572902 0.000003 3.113282 0.000000 0.000000 1.570798
    11 -1.949019 0.369309 1.958547 0.000000 0.000000 3.141589
    12 1.598420 0.000000 1.206649 0.000000 0.000000 1.570798
    13 6.485002 0.000008 2.091607 1.570797 0.000000 0.000001
    14 8.817085 -0.000033 2.091637 1.570797 0.000000 0.000001
    15 8.998429 -0.000032 2.091636 1.570797 0.000000 0.000001
    16 -0.002752 8.717751 -1.784592 0.000000 0.000000 0.000000
    17 8.017095 -5.444150 -7.026540 0.376228 -2.233631 -0.518458
    18 8.062075 1.258449 -0.368563 1.568510 -3.117593 0.232443
    19 -0.064108 -8.424515 -0.111947 -0.002625 0.239002 -0.302268
    20 -0.488518 -2.755602 -0.228260 -0.434640 0.150360 -0.257287
    21 0.039887 -1.526666 0.010322 -1.357338 -0.013111 0.029747
    22 0.028786 -1.243705 -0.128581 -1.636554 -0.011673 0.037428
    23 0.250027 -2.820665 -0.238396 -0.156970 0.124643 -0.222596
    24 -0.049759 -1.598510 0.041883 -1.435791 0.002613 -0.039072
    25 -0.034142 -1.179563 0.045718 -1.374047 0.003919 -0.036193
    26 0.957766 -2.746780 -0.090302 0.163303 0.113141 0.005479
    27 -0.033420 -1.393223 -0.019070 -0.548442 0.008389 -0.026751
    28 -0.022360 -0.957436 -0.000748 -0.707936 0.007526 -0.034384
    29 -1.180681 -2.507217 -0.193859 -0.415008 0.237226 -0.226934
    30 -0.024967 -1.123934 0.017597 -0.746625 0.007047 -0.031734
    31 -0.020057 -0.902687 0.025715 -0.835949 0.007299 -0.033713
    32 0.587416 -1.197277 0.185379 0.202761 -0.629696 -0.509768
    33 1.477332 -0.220230 0.071417 0.050655 -0.216957 -0.777967
    34 1.007018 -0.182979 0.044010 0.086801 -0.241947 -1.032056
    35 0.038119 -0.319809 -0.031051 0.239633 3.240644 1.548104
    36 -6.813937 -6.262541 -5.267069 0.646836 -4.325988 0.750321
    37 0.132101 -8.466044 -0.040616 0.137124 -0.071375 0.018903
    38 0.447953 -2.798986 -0.200443 -0.105324 -0.191843 0.262901
    39 -0.032909 -1.499736 0.036191 -1.759234 0.021968 -0.036827
    40 -0.027022 -1.115984 -0.028023 -0.994634 0.022100 -0.015916
    41 -0.249534 -2.846964 -0.174213 0.009452 -0.070702 0.196948
    42 0.043235 -1.656596 0.056948 -1.763160 -0.024622 0.013759
    43 0.031729 -1.141298 0.054932 -1.121697 -0.012481 0.006191
    44 -0.963866 -2.785145 -0.085350 0.253773 0.028732 0.046494
    45 0.028479 -1.403067 -0.009354 -0.555834 -0.010654 -0.023082
    46 0.021413 -0.942156 0.012233 -0.971064 -0.025611 -0.033773
    47 1.164475 -2.543940 -0.170330 -0.247206 -0.297880 0.142718
    48 0.024032 -1.144668 -0.005631 -1.197465 0.019055 0.059576
    49 0.014898 -0.903521 -0.015942 -1.036893 0.009947 0.051785
    50 -0.586770 -1.264477 0.200161 -0.480709 -0.775212 -2.389081
    51 1.565805 0.035243 0.016848 -0.018844 -0.006943 0.893522
    52 1.114041 0.040611 -0.005766 -0.030816 -0.033935 1.100416
    53 -0.002676 -0.502335 -0.044199 0.290547 0.059634 1.643451
    54 -8.233523 1.034251 -0.469909 1.567333 -0.035907 -0.203298
  time 15
    0 -5.193768 -7.112443 -4.362900 -0.085238 -0.063457 -1.572844
    1 2.999629 0.000000 1.353195 0.000000 0.000000 1.570798
    2 3.594184 0.000000 3.113281 0.000000 0.000000 1.570798
    3 1.661240 -0.000001 1.206648 0.000000 0.000000 1.570798
    4 -1.922007 -0.370809 2.041211 0.000000 0.000000 3.141589
    5 6.542123 0.000005 2.151215 1.570796 0.000000 0.000001
    6 -38.455750 -0.000043 2.151239 1.570796 0.000000 0.000001
    7 -38.280617 -0.000043 2.151239 1.570796 0.000000 0.000001
    8 5.262139 -6.422145 -6.608407 0.218862 0.228030 -1.516360
    9 2.999630 0.000001 1.353195 0.410118 0.000000 1.570798
    10 3.572902 0.000003 3.113282 0.000000 0.000000 1.570798
    11 -1.949019 0.369309 1.958547 0.000000 0.000000 3.141589
    12 1.598420 0.000000 1.206649 0.000000 0.000000 1.570798
    13 6.485002 0.000008 2.091607 1.570797 0.000000 0.000001
    14 8.817085 -0.000033 2.091637 1.570797 0.000000 0.000001
    15 8.998429 -0.000032 2.091636 1.570797 0.000000 0.000001
    16 -0.002752 8.717751 -1.784592 0.000000 0.000000 0.000000
    17 8.013189 -5.416805 -7.049978 0.363978 -2.228608 -0.508352
    18 8.062075 1.277981 -0.368563 1.568510 -3.117689 0.234908
    19 -0.064108 -8.420609 -0.115853 -0.006129 0.230446 -0.309613
    20 -0.488518 -2.755602 -0.228260 -0.434640 0.150360 -0.257287
    21 0.039887 -1.526666 0.010322 -1.357338 -0.013111 0.029747
    22 0.028786 -1.243705 -0.128581 -1.636554 -0.011673 0.037428
    23 0.250027 -2.820665 -0.238396 -0.156970 0.124643 -0.222596
    24 -0.049759 -1.598510 0.041883 -1.435791 0.002613 -0.039072
    25 -0.034142 -1.179563 0.045718 -1.374047 0.003919 -0.036193
    26 0.957766 -2.746780 -0.090302 0.163303 0.113141 0.005479
    27 -0.033420 -1.393223 -0.019070 -0.548442 0.008389 -0.026751
    28 -0.022360 -0.957436 -0.000748 -0.707936 0.007526 -0.034384
    29 -1.180681 -2.507217 -0.193859 -0.415008 0.237226 -0.226934
    30 -0.024967 -1.123934 0.017597 -0.746625 0.007047 -0.031734
    31 -0.020057 -0.902687 0.025715 -0.835949 0.007299 -0.033713
    32 0.587416 -1.197277 0.185379 0.202761 -0.629696 -0.509768
    33 1.477332 -0.220230 0.071417 0.050655 -0.216957 -0.777967
    34 1.007018 -0.182979 0.044010 0.086801 -0.241947 -1.032056
    35 0.038119 -0.319809 -0.031051 0.239633 3.240644 1.548104
    36 -6.813937 -6.262541 -5.267069 0.645488 -4.326509 0.748996
    37 0.132101 -8.466044 -0.040616 0.137655 -0.071279 0.019078
    38 0.447953 -2.798986 -0.200443 -0.105120 -0.191975 0.261834
    39 -0.032909 -1.499736 0.036191 -1.759234 0.021968 -0.036827
    40 -0.027022 -1.115984 -0.028023 -0.994634 0.022100 -0.015916
    41 -0.249534 -2.846964 -0.174213 0.009452 -0.070702 0.196948
    42 0.043235 -1.656596 0.056948 -1.763160 -0.024622 0.013759
    43 0.031729 -1.141298 0.054932 -1.121697 -0.012481 0.006191
    44 -0.963866 -2.785145 -0.085350 0.255393 0.028720 0.046566
    45 0.028479 -1.403067 -0.009354 -0.553143 -0.010570 -0.022998
    46 0.021413 -0.942156 0.012233 -0.970586 -0.025587 -0.033761
    47 1.164475 -2.543940 -0.170330 -0.246518 -0.298276 0.139674
    48 0.024032 -1.144668 -0.005631 -1.192624 0.018840 0.059409
    49 0.014898 -0.903521 -0.015942 -1.041474 0.010115 0.051989
    50 -0.586770 -1.264477 0.200161 -0.480709 -0.775212 -2.389081
    51 1.565805 0.035243 0.016848 -0.018844 -0.006943 0.893522
    52 1.114041 0.040611 -0.005766 -0.030768 -0.033947 1.098830
    53 -0.002676 -0.502335 -0.044199 0.290547 0.059634 1.643451
    54 -8.233523 1.038158 -0.469909 1.567333 -0.035907 -0.203726
  time 16
    0 -5.193768 -7.112443 -4.370712 -0.085238 -0.062790 -1.573447
    1 2.999629 0.000000 1.353195 0.000000 0.000000 1.570798
    2 3.594184 0.000000 3.113281 0.000000 0.000000 1.570798
    3 1.661240 -0.000001 1.206648 0.000000 0.000000 1.570798
    4 -1.922007 -0.370809 2.041211 0.000000 0.000000 3.141589
    5 6.542123 0.000005 2.151215 1.570796 0.000000 0.000001
    6 -38.455750 -0.000043 2.151239 1.570796 0.000000 0.000001
    7 -38.280617 -0.000043 2.151239 1.570796 0.000000 0.000001
    8 5.262139 -6.422145 -6.651377 0.222161 0.233586 -1.515228
    9 2.999630 0.000001 1.353195 0.410118 0.000000 1.570798
    10 3.572902 0.000003 3.113282 0.000000 0.000000 1.570798
    11 -1.949019 0.369309 1.958547 0.000000 0.000000 3.141589
    12 1.598420 0.000000 1.206649 0.000000 0.000000 1.570798
    13 6.485002 0.000008 2.091607 1.570797 0.000000 0.000001
    14 8.817085 -0.000033 2.091637 1.570797 0.000000 0.000001
    15 8.998429 -0.000032 2.091636 1.570797 0.000000 0.000001
    16 -0.002752 8.717751 -1.784592 0.000000 0.000000 0.000000
    17 8.009282 -5.408992 -7.053884 0.359671 -2.226807 -0.504764
    18 8.062075 1.285794 -0.368563 1.568510 -3.117689 0.235856
    19 -0.064108 -8.420609 -0.115853 -0.007326 0.227422 -0.312249
    20 -0.488518 -2.755602 -0.228260 -0.434640 0.150360 -0.257287
    21 0.039887 -1.526666 0.010322 -1.357338 -0.013111 0.029747
    22 0.028786 -1.243705 -0.128581 -1.636554 -0.011673 0.037428
    23 0.250027 -2.820665 -0.238396 -0.156970 0.124643 -0.222596
    24 -0.049759 -1.598510 0.041883 -1.435791 0.002613 -0.039072
    25 -0.034142 -1.179563 0.045718 -1.374047 0.003919 -0.036193
    26 0.957766 -2.746780 -0.090302 0.163303 0.113141 0.005479
    27 -0.033420 -1.393223 -0.019070 -0.548442 0.008389 -0.026751
    28 -0.022360 -0.957436 -0.000748 -0.707936 0.007526 -0.034384
    29 -1.180681 -2.507217 -0.193859 -0.415008 0.237226 -0.226934
    30 -0.024967 -1.123934 0.017597 -0.746625 0.007047 -0.031734
    31 -0.020057 -0.902687 0.025715 -0.835949 0.007299 -0.033713
    32 0.587416 -1.197277 0.185379 0.202761 -0.629696 -0.509768
    33 1.477332 -0.220230 0.071417 0.050655 -0.216957 -0.777967
    34 1.007018 -0.182979 0.044010 0.086801 -0.241947 -1.032056
    35 0.038119 -0.319809 -0.031051 0.239633 3.240644 1.548104
    36 -6.813937 -6.258635 -5.267069 0.644056 -4.327030 0.747672
    37 0.132101 -8.466044 -0.040616 0.138186 -0.071152 0.019219
    38 0.447953 -2.798986 -0.200443 -0.104928 -0.192094 0.260839
    39 -0.032909 -1.499736 0.036191 -1.759234 0.021968 -0.036827
    40 -0.027022 -1.115984 -0.028023 -0.994634 0.022100 -0.015916
    41 -0.249534 -2.846964 -0.174213 0.009452 -0.070702 0.196948
    42 0.043235 -1.656596 0.056948 -1.763160 -0.024622 0.013759
    43 0.031729 -1.141298 0.054932 -1.121697 -0.012481 0.006191
    44 -0.963866 -2.785145 -0.085350 0.256885 0.028720 0.046626
    45 0.028479 -1.403067 -0.009354 -0.550614 -0.010499 -0.022903
    46 0.021413 -0.942156 0.012233 -0.970108 -0.025575 -0.033749
    47 1.164475 -2.543940 -0.170330 -0.245877 -0.298647 0.136881
    48 0.024032 -1.144668 -0.005631 -1.188214 0.018648 0.059253
    49 0.014898 -0.903521 -0.015942 -1.045725 0.010259 0.052169
    50 -0.586770 -1.264477 0.200161 -0.480709 -0.775212 -2.389081
    51 1.565805 0.035243 0.016848 -0.018844 -0.006943 0.893522
    52 1.114041 0.040611 -0.005766 -0.030720 -0.033959 1.097416
    53 -0.002676 -0.502335 -0.044199 0.290547 0.059634 1.643451
    54 -8.233523 1.038158 -0.469909 1.567345 -0.035895 -0.204154
  time 17
    0 -5.193768 -7.112443 -4.378525 -0.085238 -0.062123 -1.573964
    1 2.999629 0.000000 1.353195 0.000000 0.000000 1.570798
    2 3.594184 0.000000 3.113281 0.000000 0.000000 1.570798
    3 1.661240 -0.000001 1.206648 0.000000 0.000000 1.570798
    4 -1.922007 -0.370809 2.041211 0.000000 0.000000 3.141589
    5 6.542123 0.000005 2.151215 1.570796 0.000000 0.000001
    6 -38.455750 -0.000043 2.151239 1.570796 0.000000 0.000001
    7 -38.280617 -0.000043 2.151239 1.570796 0.000000 0.000001
    8 5.262139 -6.422145 -6.639658 0.221124 0.231862 -1.515511
    9 2.999630 0.000001 1.353195 0.410118 0.000000 1.570798
    10 3.572902 0.000003 3.113282 0.000000 0.000000 1.570798
    11 -1.949019 0.369309 1.958547 0.000000 0.000000 3.141589
    12 1.598420 0.000000 1.206649 0.000000 0.000000 1.570798
    13 6.485002 0.000008 2.091607 1.570797 0.000000 0.000001
    14 8.817085 -0.000033 2.091637 1.570797 0.000000 0.000001
    15 8.998429 -0.000032 2.091636 1.570797 0.000000 0.000001
    16 -0.002752 8.717751 -1.784592 0.000000 0.000000 0.000000
    17 8.009282 -5.408992 -7.053884 0.361011 -2.227376 -0.505897
    18 8.062075 1.285794 -0.368563 1.568510 -3.117689 0.235572
    19 -0.064108 -8.420609 -0.115853 -0.006984 0.228329 -0.311527
    20 -0.488518 -2.755602 -0.228260 -0.434640 0.150360 -0.257287
    21 0.039887 -1.526666 0.010322 -1.357338 -0.013111 0.029747
    22 0.028786 -1.243705 -0.128581 -1.636554 -0.011673 0.037428
    23 0.250027 -2.820665 -0.238396 -0.156970 0.124643 -0.222596
    24 -0.049759 -1.598510 0.041883 -1.435791 0.002613 -0.039072
    25 -0.034142 -1.179563 0.045718 -1.374047 0.003919 -0.036193
    26 0.957766 -2.746780 -0.090302 0.163303 0.113141 0.005479
    27 -0.033420 -1.393223 -0.019070 -0.548442 0.008389 -0.026751
    28 -0.022360 -0.957436 -0.000748 -0.707936 0.007526 -0.034384
    29 -1.180681 -2.507217 -0.193859 -0.415008 0.237226 -0.226934
    30 -0.024967 -1.123934 0.017597 -0.746625 0.007047 -0.031734
    31 -0.020057 -0.902687 0.025715 -0.835949 0.007299 -0.033713
    32 0.587416 -1.197277 0.185379 0.202761 -0.629696 -0.509768
    33 1.477332 -0.220230 0.071417 0.050655 -0.216957 -0.777967
    34 1.007018 -0.182979 0.044010 0.086801 -0.241947 -1.032056
    35 0.038119 -0.319809 -0.031051 0.239633 3.240644 1.548104
    36 -6.813937 -6.258635 -5.270975 0.642624 -4.327486 0.746348
    37 0.132101 -8.466044 -0.040616 0.138673 -0.071024 0.019219
    38 0.447953 -2.798986 -0.200443 -0.104760 -0.192202 0.259989
    39 -0.032909 -1.499736 0.036191 -1.759234 0.021968 -0.036827
    40 -0.027022 -1.115984 -0.028023 -0.994634 0.022100 -0.015916
    41 -0.249534 -2.846964 -0.174213 0.009452 -0.070702 0.196948
    42 0.043235 -1.656596 0.056948 -1.763160 -0.024622 0.013759
    43 0.031729 -1.141298 0.054932 -1.121697 -0.012481 0.006191
    44 -0.963866 -2.785145 -0.085350 0.258171 0.028708 0.046686
    45 0.028479 -1.403067 -0.009354 -0.548475 -0.010439 -0.022831
    46 0.021413 -0.942156 0.012233 -0.969726 -0.025563 -0.033737
    47 1.164475 -2.543940 -0.170330 -0.245322 -0.298959 0.134449
    48 0.024032 -1.144668 -0.005631 -1.184332 0.018480 0.059109
    49 0.014898 -0.903521 -0.015942 -1.049384 0.010391 0.052337
    50 -0.586770 -1.264477 0.200161 -0.480709 -0.775212 -2.389081
    51 1.565805 0.035243 0.016848 -0.018844 -0.006943 0.893522
    52 1.114041 0.040611 -0.005766 -0.030684 -0.033959 1.096173
    53 -0.002676 -0.502335 -0.044199 0.290547 0.059634 1.643451
    54 -8.233523 1.042064 -0.469909 1.567357 -0.035895 -0.204582
  time 18
    0 -5.193768 -7.112443 -4.386338 -0.085238 -0.061623 -1.574309
    1 2.999629 0.000000 1.353195 0.000000 0.000000 1.570798
    2 3.594184 0.000000 3.113281 0.000000 0.000000 1.570798
    3 1.661240 -0.000001 1.206648 0.000000 0.000000 1.570798
    4 -1.922007 -0.370809 2.041211 0.000000 0.000000 3.141589
    5 6.542123 0.000005 2.151215 1.570796 0.000000 0.000001
    6 -38.455750 -0.000043 2.151239 1.570796 0.000000 0.000001
    7 -38.280617 -0.000043 2.151239 1.570796 0.000000 0.000001
    8 5.262139 -6.422145 -6.588875 0.217542 0.225922 -1.516738
    9 2.999630 0.000001 1.353195 0.410118 0.000000 1.570798
    10 3.572902 0.000003 3.113282 0.000000 0.000000 1.570798
    11 -1.949019 0.369309 1.958547 0.000000 0.000000 3.141589
    12 1.598420 0.000000 1.206649 0.000000 0.000000 1.570798
    13 6.485002 0.000008 2.091607 1.570797 0.000000 0.000001
    14 8.817085 -0.000033 2.091637 1.570797 0.000000 0.000001
    15 8.998429 -0.000032 2.091636 1.570797 0.000000 0.000001
    16 -0.002752 8.717751 -1.784592 0.000000 0.000000 0.000000
    17 8.013189 -5.420711 -7.046072 0.365796 -2.229366 -0.509864
    18 8.062075 1.277981 -0.368563 1.568510 -3.117689 0.234623
    19 -0.064108 -8.420609 -0.115853 -0.005645 0.231655 -0.308765
    20 -0.488518 -2.755602 -0.228260 -0.434640 0.150360 -0.257287
    21 0.039887 -1.526666 0.010322 -1.357338 -0.013111 0.029747
    22 0.028786 -1.243705 -0.128581 -1.636554 -0.011673 0.037428
    23 0.250027 -2.820665 -0.238396 -0.156970 0.124643 -0.222596
    24 -0.049759 -1.598510 0.041883 -1.435791 0.002613 -0.039072
    25 -0.034142 -1.179563 0.045718 -1.374047 0.003919 -0.036193
    26 0.957766 -2.746780 -0.090302 0.163303 0.113141 0.005479
    27 -0.033420 -1.393223 -0.019070 -0.548442 0.008389 -0.026751
    28 -0.022360 -0.957436 -0.000748 -0.707936 0.007526 -0.034384
    29 -1.180681 -2.507217 -0.193859 -0.415008 0.237226 -0.226934
    30 -0.024967 -1.123934 0.017597 -0.746625 0.007047 -0.031734
    31 -0.020057 -0.902687 0.025715 -0.835949 0.007299 -0.033713
    32 0.587416 -1.197277 0.185379 0.202761 -0.629696 -0.509768
    33 1.477332 -0.220230 0.071417 0.050655 -0.216957 -0.777967
    34 1.007018 -0.182979 0.044010 0.086801 -0.241947 -1.032056
    35 0.038119 -0.319809 -0.031051 0.239633 3.240644 1.548104
    36 -6.813937 -6.254729 -5.270975 0.641107 -4.328072 0.744835
    37 0.132101 -8.466044 -0.040616 0.139071 -0.070928 0.019043
    38 0.447953 -2.798986 -0.200443 -0.104629 -0.192286 0.259317
    39 -0.032909 -1.499736 0.036191 -1.759234 0.021968 -0.036827
    40 -0.027022 -1.115984 -0.028023 -0.994634 0.022100 -0.015916
    41 -0.249534 -2.846964 -0.174213 0.009452 -0.070702 0.196948
    42 0.043235 -1.656596 0.056948 -1.763160 -0.024622 0.013759
    43 0.031729 -1.141298 0.054932 -1.121697 -0.012481 0.006191
    44 -0.963866 -2.785145 -0.085350 0.259188 0.028708 0.046734
    45 0.028479 -1.403067 -0.009354 -0.546756 -0.010379 -0.022771
    46 0.021413 -0.942156 0.012233 -0.969407 -0.025539 -0.033737
    47 1.164475 -2.543940 -0.170330 -0.244887 -0.299210 0.132543
    48 0.024032 -1.144668 -0.005631 -1.181313 0.018348 0.059001
    49 0.014898 -0.903521 -0.015942 -1.052284 0.010499 0.052457
    50 -0.586770 -1.264477 0.200161 -0.480709 -0.775212 -2.389081
    51 1.565805 0.035243 0.016848 -0.018844 -0.006943 0.893522
    52 1.114041 0.040611 -0.005766 -0.030648 -0.033971 1.095187
    53 -0.002676 -0.502335 -0.044199 0.290547 0.059634 1.643451
    54 -8.233523 1.045971 -0.469909 1.567369 -0.035883 -0.205010
  time 19
    0 -5.193768 -7.112443 -4.394151 -0.085238 -0.061206 -1.574567
    1 2.999629 0.000000 1.353195 0.000000 0.000000 1.570798
    2 3.594184 0.000000 3.113281 0.000000 0.000000 1.570798
    3 1.661240 -0.000001 1.206648 0.000000 0.000000 1.570798
    4 -1.922007 -0.370809 2.041211 0.000000 0.000000 3.141589
    5 6.542123 0.000005 2.151215 1.570796 0.000000 0.000001
    6 -38.455750 -0.000043 2.151239 1.570796 0.000000 0.000001
    7 -38.280617 -0.000043 2.151239 1.570796 0.000000 0.000001
    8 5.262139 -6.426051 -6.526373 0.213111 0.218546 -1.518248
    9 2.999630 0.000001 1.353195 0.410118 0.000000 1.570798
    10 3.572902 0.000003 3.113282 0.000000 0.000000 1.570798
    11 -1.949019 0.369309 1.958547 0.000000 0.000000 3.141589
    12 1.598420 0.000000 1.206649 0.000000 0.000000 1.570798
    13 6.485002 0.000008 2.091607 1.570797 0.000000 0.000001
    14 8.817085 -0.000033 2.091637 1.570797 0.000000 0.000001
    15 8.998429 -0.000032 2.091636 1.570797 0.000000 0.000001
    16 -0.002752 8.717751 -1.784592 0.000000 0.000000 0.000000
    17 8.017095 -5.432431 -7.034353 0.371634 -2.231735 -0.514680
    18 8.062075 1.266262 -0.368563 1.568510 -3.117593 0.233391
    19 -0.064108 -8.424515 -0.111947 -0.003992 0.235737 -0.305250
    20 -0.488518 -2.755602 -0.228260 -0.434640 0.150360 -0.257287
    21 0.039887 -1.526666 0.010322 -1.357338 -0.013111 0.029747
    22 0.028786 -1.243705 -0.128581 -1.636554 -0.011673 0.037428
    23 0.250027 -2.820665 -0.238396 -0.156970 0.124643 -0.222596
    24 -0.049759 -1.598510 0.041883 -1.435791 0.002613 -0.039072
    25 -0.034142 -1.179563 0.045718 -1.374047 0.003919 -0.036193
    26 0.957766 -2.746780 -0.090302 0.163303 0.113141 0.005479
    27 -0.033420 -1.393223 -0.019070 -0.548442 0.008389 -0.026751
    28 -0.022360 -0.957436 -0.000748 -0.707936 0.007526 -0.034384
    29 -1.180681 -2.507217 -0.193859 -0.415008 0.237226 -0.226934
    30 -0.024967 -1.123934 0.017597 -0.746625 0.007047 -0.031734
    31 -0.020057 -0.902687 0.025715 -0.835949 0.007299 -0.033713
    32 0.587416 -1.197277 0.185379 0.202761 -0.629696 -0.509768
    33 1.477332 -0.220230 0.071417 0.050655 -0.216957 -0.777967
    34 1.007018 -0.182979 0.044010 0.086801 -0.241947 -1.032056
    35 0.038119 -0.319809 -0.031051 0.239633 3.240644 1.548104
    36 -6.813937 -6.254729 -5.270975 0.639506 -4.328594 0.743321
    37 0.132101 -8.466044 -0.040616 0.139381 -0.070833 0.018692
    38 0.447953 -2.798986 -0.200443 -0.104545 -0.192346 0.258874
    39 -0.032909 -1.499736 0.036191 -1.759234 0.021968 -0.036827
    40 -0.027022 -1.115984 -0.028023 -0.994634 0.022100 -0.015916
    41 -0.249534 -2.846964 -0.174213 0.009452 -0.070702 0.196948
    42 0.043235 -1.656596 0.056948 -1.763160 -0.024622 0.013759
    43 0.031729 -1.141298 0.054932 -1.121697 -0.012481 0.006191
    44 -0.963866 -2.785145 -0.085350 0.259839 0.028696 0.046770
    45 0.028479 -1.403067 -0.009354 -0.545654 -0.010355 -0.022735
    46 0.021413 -0.942156 0.012233 -0.969216 -0.025539 -0.033737
    47 1.164475 -2.543940 -0.170330 -0.244597 -0.299378 0.131297
    48 0.024032 -1.144668 -0.005631 -1.179348 0.018265 0.058941
    49 0.014898 -0.903521 -0.015942 -1.054163 0.010570 0.052540
    50 -0.586770 -1.264477 0.200161 -0.480709 -0.775212 -2.389081
    51 1.565805 0.035243 0.016848 -0.018844 -0.006943 0.893522
    52 1.114041 0.040611 -0.005766 -0.030636 -0.033971 1.094544
    53 -0.002676 -0.502335 -0.044199 0.290547 0.059634 1.643451
    54 -8.233523 1.049877 -0.469909 1.567381 -0.035883 -0.205486
  time 20
    0 -5.193768 -7.112443 -4.401963 -0.085238 -0.061039 -1.574653
    1 2.999629 0.000000 1.353195 0.000000 0.000000 1.570798
    2 3.594184 0.000000 3.113281 0.000000 0.000000 1.570798
    3 1.661240 -0.000001 1.206648 0.000000 0.000000 1.570798
    4 -1.922007 -0.370809 2.041211 0.000000 0.000000 3.141589
    5 6.542123 0.000005 2.151215 1.570796 0.000000 0.000001
    6 -38.455750 -0.000043 2.151239 1.570796 0.000000 0.000001
    7 -38.280617 -0.000043 2.151239 1.570796 0.000000 0.000001
    8 5.262139 -6.426051 -6.479496 0.209529 0.212510 -1.519569
    9 2.999630 0.000001 1.353195 0.410118 0.000000 1.570798
    10 3.572902 0.000003 3.113282 0.000000 0.000000 1.570798
    11 -1.949019 0.369309 1.958547 0.000000 0.000000 3.141589
    12 1.598420 0.000000 1.206649 0.000000 0.000000 1.570798
    13 6.485002 0.000008 2.091607 1.570797 0.000000 0.000001
    14 8.817085 -0.000033 2.091637 1.570797 0.000000 0.000001
    15 8.998429 -0.000032 2.091636 1.570797 0.000000 0.000001
    16 -0.002752 8.717751 -1.784592 0.000000 0.000000 0.000000
    17 8.017095 -5.444150 -7.026540 0.376228 -2.233631 -0.518458
    18 8.062075 1.258449 -0.368563 1.568510 -3.117593 0.232443
    19 -0.064108 -8.424515 -0.111947 -0.002625 0.239002 -0.302268
    20 -0.488518 -2.755602 -0.228260 -0.434640 0.150360 -0.257287
    21 0.039887 -1.526666 0.010322 -1.357338 -0.013111 0.029747
    22 0.028786 -1.243705 -0.128581 -1.636554 -0.011673 0.037428
    23 0.250027 -2.820665 -0.238396 -0.156970 0.124643 -0.222596
    24 -0.049759 -1.598510 0.041883 -1.435791 0.002613 -0.039072
    25 -0.034142 -1.179563 0.045718 -1.374047 0.003919 -0.036193
    26 0.957766 -2.746780 -0.090302 0.163303 0.113141 0.005479
    27 -0.033420 -1.393223 -0.019070 -0.548442 0.008389 -0.026751
    28 -0.022360 -0.957436 -0.000748 -0.707936 0.007526 -0.034384
    29 -1.180681 -2.507217 -0.193859 -0.415008 0.237226 -0.226934
    30 -0.024967 -1.123934 0.017597 -0.746625 0.007047 -0.031734
    31 -0.020057 -0.902687 0.025715 -0.835949 0.007299 -0.033713
    32 0.587416 -1.197277 0.185379 0.202761 -0.629696 -0.509768
    33 1.477332 -0.220230 0.071417 0.050655 -0.216957 -0.777967
    34 1.007018 -0.182979 0.044010 0.086801 -0.241947 -1.032056
    35 0.038119 -0.319809 -0.031051 0.239633 3.240644 1.548104
    36 -6.813937 -6.250822 -5.274882 0.637863 -4.329180 0.741808
    37 0.132101 -8.466044 -0.040616 0.139602 -0.070737 0.018094
    38 0.447953 -2.798986 -0.200443 -0.104509 -0.192370 0.258718
    39 -0.032909 -1.499736 0.036191 -1.759234 0.021968 -0.036827
    40 -0.027022 -1.115984 -0.028023 -0.994634 0.022100 -0.015916
    41 -0.249534 -2.846964 -0.174213 0.009452 -0.070702 0.196948
    42 0.043235 -1.656596 0.056948 -1.763160 -0.024622 0.013759
    43 0.031729 -1.141298 0.054932 -1.121697 -0.012481 0.006191
    44 -0.963866 -2.785145 -0.085350 0.260077 0.028696 0.046770
    45 0.028479 -1.403067 -0.009354 -0.545233 -0.010343 -0.022723
    46 0.021413 -0.942156 0.012233 -0.969120 -0.025539 -0.033725
    47 1.164475 -2.543940 -0.170330 -0.244500 -0.299426 0.130841
    48 0.024032 -1.144668 -0.005631 -1.178629 0.018241 0.058905
    49 0.014898 -0.903521 -0.015942 -1.054822 0.010594 0.052564
    50 -0.586770 -1.264477 0.200161 -0.480709 -0.775212 -2.389081
    51 1.565805 0.035243 0.016848 -0.018844 -0.006943 0.893522
    52 1.114041 0.040611 -0.005766 -0.030624 -0.033971 1.094330
    53 -0.002676 -0.502335 -0.044199 0.290547 0.059634 1.643451
    54 -8.233523 1.053783 -0.469909 1.567393 -0.035871 -0.205961
end
