version 1
nodes
  0 "Bone01" -1
  1 "Bone_Lefthand" 0
  2 "Bone02" 1
  3 "Bone03" 2
  4 "Bone52" 3
  5 "Bone48" 3
  6 "Bone25" 3
  7 "Bone50" 3
  8 "Bone54" 3
  9 "Bone_Bullet" 8
  10 "Dummy02" 3
  11 "Bone04" -1
  12 "Bone_Righthand" 11
  13 "Bone27" 12
  14 "Bone28" 13
  15 "Bone29" 14
  16 "Bone31" 12
  17 "Bone32" 16
  18 "Bone33" 17
  19 "Bone35" 12
  20 "Bone36" 19
  21 "Bone37" 20
  22 "Bone39" 12
  23 "Bone40" 22
  24 "Bone41" 23
  25 "Bone43" 12
  26 "Bone44" 25
  27 "Bone45" 26
  28 "Bone_Se_Hand-R" 12
  29 "Bone05" 1
  30 "Bone06" 29
  31 "Bone07" 30
  32 "Bone21" 1
  33 "Bone22" 32
  34 "Bone23" 33
  35 "Bone17" 1
  36 "Bone18" 35
  37 "Bone19" 36
  38 "Bone13" 1
  39 "Bone14" 38
  40 "Bone15" 39
  41 "Bone09" 1
  42 "Bone10" 41
  43 "Bone11" 42
  44 "Bone_Se_Hand-L" 1
end
skeleton
  time 0
    0 7.047940 -4.904903 -15.834916 0.937083 -2.125570 -1.338496
    1 -0.071918 -8.498732 -0.104136 0.077078 0.617774 -0.616273
    2 -0.556639 -4.518933 0.835224 -1.061878 1.466009 -1.048302
    3 0.000000 2.617617 0.665016 0.000000 0.000000 0.000000
    4 0.000000 -1.655466 2.278034 0.000000 0.000000 0.000000
    5 0.002811 -3.475783 1.628930 0.068264 0.000000 0.000000
    6 0.000000 -2.886455 1.471525 0.000000 0.000000 0.000000
    7 0.000000 -0.778212 1.774024 -0.680679 0.000000 0.000000
    8 0.000000 -1.598869 0.580120 0.000000 0.000000 0.000000
    9 0.049947 0.232483 0.570133 1.562140 -0.001093 -1.570654
    10 0.081112 -1.158958 2.594920 1.562140 -0.001093 -1.570654
    11 6.065151 -5.108820 -15.096204 0.576012 3.022878 -0.336860
    12 0.096946 -8.450418 -0.009364 -0.679690 -0.477651 0.471183
    13 -0.586769 -1.264477 0.200164 -0.831045 -0.761663 -2.197713
    14 1.522835 0.058680 0.016850 0.248487 -0.204672 0.666661
    15 1.117948 0.048425 -0.005765 0.112128 0.065352 0.486090
    16 -0.963866 -2.785142 -0.085346 -0.133178 0.067657 0.171408
    17 0.028478 -1.403067 0.006272 -0.092158 0.000000 0.000000
    18 0.021414 -0.957782 0.020047 -0.101558 -0.000001 0.000005
    19 -0.249534 -2.846962 -0.174215 -0.082582 0.027003 0.114237
    20 0.043234 -1.683940 0.096015 -0.447865 0.000000 0.000000
    21 0.031728 -1.160830 0.058837 -0.507223 0.000000 0.000000
    22 0.447951 -2.798983 -0.200441 -0.309687 0.067802 0.126898
    23 -0.032909 -1.480207 0.004936 -0.855112 0.000000 0.000000
    24 -0.027023 -1.076920 -0.020212 -0.392518 0.000000 0.000000
    25 1.164475 -2.543938 -0.170327 -0.650141 -0.030241 0.124238
    26 0.024032 -1.129040 0.017806 -1.194404 0.000000 0.000000
    27 0.014896 -0.883991 -0.019846 -0.393082 0.000000 0.000000
    28 -0.143140 -0.112350 0.013004 0.285545 -0.040597 1.576215
    29 0.583510 -1.197274 0.185379 0.339223 -0.969632 -0.814065
    30 1.535926 0.010246 0.005009 -0.356996 -0.001916 -1.020462
    31 1.100770 0.004527 -0.010676 0.000000 0.000000 -0.488675
    32 0.957766 -2.746777 -0.090301 -1.211731 0.030417 0.214564
    33 -0.033419 -1.397127 -0.011256 0.263525 0.000000 0.000000
    34 -0.022361 -0.957433 0.018783 0.092488 0.000000 0.000000
    35 0.250029 -2.820664 -0.238397 0.078540 -0.000005 -0.148358
    36 -0.049759 -1.680544 0.100480 0.127388 0.000000 0.000000
    37 -0.034141 -1.148310 0.084780 0.081980 0.000000 0.000000
    38 -0.488516 -2.755600 -0.228262 0.038369 -0.000006 -0.122175
    39 0.039889 -1.479791 0.029853 0.097700 0.000000 0.000000
    40 0.028785 -1.075732 -0.023111 0.195448 0.000000 0.000000
    41 -1.180679 -2.507217 -0.193861 -0.001745 0.000007 -0.087268
    42 -0.024967 -1.123934 0.017594 -0.029693 0.000000 0.000000
    43 -0.020058 -0.890965 0.010092 0.211185 0.000000 0.000000
    44 0.061557 -0.042454 -0.015424 3.251889 6.033958 -1.512100
  time 1
    0 7.051847 -4.908809 -15.299744 0.956324 -2.199758 -1.387138
    1 -0.071918 -8.498732 -0.104136 0.118190 0.529067 -0.638418
    2 -0.556639 -4.518933 0.835224 -1.061878 1.466023 -1.048302
    3 0.000000 2.617617 0.665016 0.000000 0.000000 0.000000
    4 0.000000 -1.674998 2.278034 0.000000 0.000000 0.000000
    5 0.002811 -3.475783 1.628930 0.068264 0.000000 0.000000
    6 0.000000 -2.886455 1.471525 0.000000 0.000000 0.000000
    7 0.000000 -0.778212 1.774024 -0.672371 0.000000 0.000000
    8 0.000000 -1.598869 0.580120 0.000000 0.000000 0.000000
    9 0.049947 0.228577 0.601384 1.534479 -0.001093 -1.570654
    10 0.081112 -1.158958 2.594920 1.562140 -0.001093 -1.570654
    11 5.194031 -4.386142 -12.693787 0.638814 2.887817 -0.250216
    12 0.096946 -8.450418 -0.009364 -0.676600 -0.512441 0.521366
    13 -0.586769 -1.264477 0.200164 -0.831045 -0.761663 -2.197713
    14 1.522835 0.058680 0.016850 0.248487 -0.204672 0.666661
    15 1.117948 0.048425 -0.005765 0.112128 0.065352 0.486090
    16 -0.963866 -2.785142 -0.085346 -0.137697 0.064745 0.147355
    17 0.028478 -1.403067 0.006272 -0.092725 0.000000 0.000000
    18 0.021414 -0.957782 0.020047 -0.101558 -0.000001 0.000005
    19 -0.249534 -2.846962 -0.174215 -0.082582 0.027003 0.114237
    20 0.043234 -1.683940 0.096015 -0.447865 0.000000 0.000000
    21 0.031728 -1.160830 0.058837 -0.507223 0.000000 0.000000
    22 0.447951 -2.798983 -0.200441 -0.309687 0.067802 0.126898
    23 -0.032909 -1.480207 0.004936 -0.855112 0.000000 0.000000
    24 -0.027023 -1.076920 -0.020212 -0.392518 0.000000 0.000000
    25 1.164475 -2.543938 -0.170327 -0.650141 -0.030241 0.124238
    26 0.024032 -1.129040 0.017806 -1.194404 0.000000 0.000000
    27 0.014896 -0.883991 -0.019846 -0.393082 0.000000 0.000000
    28 -0.143140 -0.112350 0.013004 0.285545 -0.040597 1.576215
    29 0.583510 -1.197274 0.185379 0.339223 -0.969632 -0.814065
    30 1.535926 0.010246 0.005009 -0.356996 -0.001916 -1.020462
    31 1.100770 0.004527 -0.010676 0.000000 0.000000 -0.488675
    32 0.957766 -2.746777 -0.090301 -0.905695 -0.026750 0.139229
    33 -0.033419 -1.397127 -0.011256 0.095765 0.000000 0.000000
    34 -0.022361 -0.957433 0.018783 0.047788 0.005237 -0.024964
    35 0.250029 -2.820664 -0.238397 -0.073034 -0.003804 -0.127505
    36 -0.049759 -1.680544 0.100480 -0.351148 0.000000 0.000000
    37 -0.034141 -1.148310 0.084780 -0.313957 0.000000 0.000000
    38 -0.488516 -2.755600 -0.228262 -0.135716 -0.004068 -0.131343
    39 0.039889 -1.479791 0.029853 -0.400673 0.000000 0.000000
    40 0.028785 -1.075732 -0.023111 -0.160703 0.000000 0.000000
    41 -1.180679 -2.507217 -0.193861 -0.078878 0.040551 -0.094651
    42 -0.024967 -1.123934 0.017594 -0.421037 0.000000 0.000000
    43 -0.020058 -0.890965 0.010092 -0.068609 0.000000 0.000000
    44 0.077183 -0.042454 -0.027143 3.296079 6.106468 -1.529257
  time 2
    0 7.055753 -4.920528 -14.061424 1.000871 -2.372049 -1.499867
    1 -0.071918 -8.498732 -0.104136 0.213161 0.323845 -0.687120
    2 -0.556639 -4.518933 0.835224 -1.061878 1.466023 -1.048302
    3 0.000000 2.617617 0.665016 0.000000 0.000000 0.000000
    4 0.000000 -1.682811 2.278034 0.000000 0.000000 0.000000
    5 0.002811 -3.475783 1.628930 0.068264 0.000000 0.000000
    6 0.000000 -2.886455 1.471525 0.000000 0.000000 0.000000
    7 0.000000 -0.778212 1.774024 -0.652157 0.000000 0.000000
    8 0.000000 -1.598869 0.580120 0.000000 0.000000 0.000000
    9 0.049947 0.209045 0.683418 1.459368 -0.001093 -1.570654
    10 0.081112 -1.158958 2.594920 1.562140 -0.001093 -1.570654
    11 4.619794 -3.530647 -11.103895 0.716722 2.758976 -0.150826
    12 0.096946 -8.450418 -0.009364 -0.664279 -0.588725 0.614563
    13 -0.586769 -1.264477 0.200164 -0.831045 -0.761663 -2.197713
    14 1.522835 0.058680 0.016850 0.248487 -0.204672 0.666661
    15 1.117948 0.048425 -0.005765 0.112128 0.065352 0.486090
    16 -0.963866 -2.785142 -0.085346 -0.144088 0.062025 0.124177
    17 0.028478 -1.403067 0.006272 -0.093698 0.000000 0.000000
    18 0.021414 -0.957782 0.020047 -0.101558 -0.000001 0.000005
    19 -0.249534 -2.846962 -0.174215 -0.082582 0.027003 0.114237
    20 0.043234 -1.683940 0.096015 -0.447865 0.000000 0.000000
    21 0.031728 -1.160830 0.058837 -0.507223 0.000000 0.000000
    22 0.447951 -2.798983 -0.200441 -0.309687 0.067802 0.126898
    23 -0.032909 -1.480207 0.004936 -0.855112 0.000000 0.000000
    24 -0.027023 -1.076920 -0.020212 -0.392518 0.000000 0.000000
    25 1.164475 -2.543938 -0.170327 -0.650141 -0.030241 0.124238
    26 0.024032 -1.129040 0.017806 -1.194404 0.000000 0.000000
    27 0.014896 -0.883991 -0.019846 -0.393082 0.000000 0.000000
    28 -0.143140 -0.112350 0.013004 0.285545 -0.040597 1.576215
    29 0.583510 -1.197274 0.185379 0.339223 -0.969632 -0.814065
    30 1.535926 0.010246 0.005009 -0.356996 -0.001916 -1.020462
    31 1.100770 0.004527 -0.010676 0.000000 0.000000 -0.488675
    32 0.957766 -2.746777 -0.090301 -0.577931 -0.060211 0.042070
    33 -0.033419 -1.397127 -0.011256 -0.082377 0.000000 0.000000
    34 -0.022361 -0.957433 0.018783 0.000359 0.009779 -0.052804
    35 0.250029 -2.820664 -0.238397 -0.234186 -0.004356 -0.104986
    36 -0.049759 -1.680544 0.100480 -0.859729 0.000000 0.000000
    37 -0.034141 -1.148310 0.084780 -0.734859 0.000000 0.000000
    38 -0.488516 -2.755600 -0.228262 -0.320726 -0.010049 -0.140152
    39 0.039889 -1.479791 0.029853 -0.930378 0.000000 0.000000
    40 0.028785 -1.075732 -0.023111 -0.539273 0.000000 0.000000
    41 -1.180679 -2.507217 -0.193861 -0.161382 0.082892 -0.105928
    42 -0.024967 -1.123934 0.017594 -0.836965 0.000000 0.000000
    43 -0.020058 -0.890965 0.010092 -0.366014 0.000000 0.000000
    44 0.104528 -0.050267 -0.046675 3.381438 6.241171 -1.562333
  time 3
    0 7.055753 -4.924435 -12.674663 -2.090619 -0.574540 1.514465
    1 -0.071918 -8.498732 -0.104136 0.319475 0.093458 -0.735822
    2 -0.556639 -4.518933 0.835224 -1.061878 1.466023 -1.048302
    3 0.000000 2.617617 0.665016 0.000000 0.000000 0.000000
    4 0.000000 -1.674998 2.278034 0.000000 0.000000 0.000000
    5 0.002811 -3.475783 1.628930 0.068264 0.000000 0.000000
    6 0.000000 -2.886455 1.471525 0.000000 0.000000 0.000000
    7 0.000000 -0.778212 1.774024 -0.627200 0.000000 0.000000
    8 0.000000 -1.598869 0.580120 0.000000 0.000000 0.000000
    9 0.053853 0.185607 0.808421 1.348662 -0.001093 -1.570654
    10 0.081112 -1.158958 2.594920 1.562140 -0.001093 -1.570654
    11 4.412757 -2.636088 -10.525752 0.828183 2.651865 -0.028837
    12 0.096946 -8.450418 -0.009364 -0.638033 -0.664488 0.664727
    13 -0.586769 -1.264477 0.200164 -0.831045 -0.761663 -2.197713
    14 1.522835 0.058680 0.016850 0.248487 -0.204672 0.666661
    15 1.117948 0.048425 -0.005765 0.112128 0.065352 0.486090
    16 -0.963866 -2.785142 -0.085346 -0.146575 0.058585 0.099285
    17 0.028478 -1.403067 0.006272 -0.093900 0.000000 0.000000
    18 0.021414 -0.957782 0.020047 -0.101558 -0.000001 0.000005
    19 -0.249534 -2.846962 -0.174215 -0.082582 0.027003 0.114237
    20 0.043234 -1.683940 0.096015 -0.447865 0.000000 0.000000
    21 0.031728 -1.160830 0.058837 -0.507223 0.000000 0.000000
    22 0.447951 -2.798983 -0.200441 -0.309687 0.067802 0.126898
    23 -0.032909 -1.480207 0.004936 -0.855112 0.000000 0.000000
    24 -0.027023 -1.076920 -0.020212 -0.392518 0.000000 0.000000
    25 1.164475 -2.543938 -0.170327 -0.650141 -0.030241 0.124238
    26 0.024032 -1.129040 0.017806 -1.194404 0.000000 0.000000
    27 0.014896 -0.883991 -0.019846 -0.393082 0.000000 0.000000
    28 -0.143140 -0.112350 0.013004 0.285545 -0.040597 1.576215
    29 0.583510 -1.197274 0.185379 0.339223 -0.969632 -0.814065
    30 1.535926 0.010246 0.005009 -0.356996 -0.001916 -1.020462
    31 1.100770 0.004527 -0.010676 0.000000 0.000000 -0.488675
    32 0.957766 -2.746777 -0.090301 -0.283869 -0.061170 -0.044543
    33 -0.033419 -1.397127 -0.011256 -0.239754 0.000000 0.000000
    34 -0.022361 -0.957433 0.018783 -0.041961 0.012332 -0.075491
    35 0.250029 -2.820664 -0.238397 -0.376269 -0.001827 -0.085271
    36 -0.049759 -1.680544 0.100480 -1.308163 0.000000 0.000000
    37 -0.034141 -1.148310 0.084780 -1.105880 0.000000 0.000000
    38 -0.488516 -2.755600 -0.228262 -0.483829 -0.016592 -0.146899
    39 0.039889 -1.479791 0.029853 -1.397380 0.000000 0.000000
    40 0.028785 -1.075732 -0.023111 -0.873006 0.000000 0.000000
    41 -1.180679 -2.507217 -0.193861 -0.234827 0.119350 -0.118800
    42 -0.024967 -1.123934 0.017594 -1.203701 0.000000 0.000000
    43 -0.020058 -0.890965 0.010092 -0.628197 0.000000 0.000000
    44 0.120153 -0.050267 -0.054488 0.287569 3.110905 1.561085
  time 4
    0 7.047940 -4.904903 -11.698071 -2.054728 -0.432166 1.422176
    1 -0.071918 -8.498732 -0.104136 0.394617 -0.070647 -0.757967
    2 -0.556639 -4.518933 0.835224 -1.061878 1.466023 -1.048302
    3 0.000000 2.617617 0.665016 0.000000 0.000000 0.000000
    4 0.000000 -1.655466 2.278034 0.000000 0.000000 0.000000
    5 0.002811 -3.475783 1.628930 0.068264 0.000000 0.000000
    6 0.000000 -2.886455 1.471525 0.000000 0.000000 0.000000
    7 0.000000 -0.778212 1.774024 -0.604598 0.000000 0.000000
    8 0.000000 -1.598869 0.580120 0.000000 0.000000 0.000000
    9 0.057760 0.154356 0.960770 1.214216 -0.001093 -1.570654
    10 0.081112 -1.158958 2.594920 1.562140 -0.001093 -1.570654
    11 4.455727 -1.550117 -10.615599 1.030730 2.634820 0.135067
    12 0.096946 -8.450418 -0.009364 -0.525031 -0.723658 0.601449
    13 -0.586769 -1.264477 0.200164 -0.831045 -0.761663 -2.197713
    14 1.522835 0.058680 0.016850 0.248487 -0.204672 0.666661
    15 1.117948 0.048425 -0.005765 0.112128 0.065352 0.486090
    16 -0.963866 -2.785142 -0.085346 -0.139328 0.053779 0.070078
    17 0.028478 -1.403067 0.006272 -0.092158 0.000000 0.000000
    18 0.021414 -0.957782 0.020047 -0.101558 -0.000001 0.000005
    19 -0.249534 -2.846962 -0.174215 -0.082582 0.027003 0.114237
    20 0.043234 -1.683940 0.096015 -0.447865 0.000000 0.000000
    21 0.031728 -1.160830 0.058837 -0.507223 0.000000 0.000000
    22 0.447951 -2.798983 -0.200441 -0.309687 0.067802 0.126898
    23 -0.032909 -1.480207 0.004936 -0.855112 0.000000 0.000000
    24 -0.027023 -1.076920 -0.020212 -0.392518 0.000000 0.000000
    25 1.164475 -2.543938 -0.170327 -0.650141 -0.030241 0.124238
    26 0.024032 -1.129040 0.017806 -1.194404 0.000000 0.000000
    27 0.014896 -0.883991 -0.019846 -0.393082 0.000000 0.000000
    28 -0.143140 -0.112350 0.013004 0.285545 -0.040597 1.576215
    29 0.583510 -1.197274 0.185379 0.339223 -0.969632 -0.814065
    30 1.535926 0.010246 0.005009 -0.356996 -0.001916 -1.020462
    31 1.100770 0.004527 -0.010676 0.000000 0.000000 -0.488675
    32 0.957766 -2.746777 -0.090301 -0.079709 -0.045829 -0.089317
    33 -0.033419 -1.397127 -0.011256 -0.345179 0.000000 0.000000
    34 -0.022361 -0.957433 0.018783 -0.071194 0.012608 -0.084923
    35 0.250029 -2.820664 -0.238397 -0.470604 0.001385 -0.072472
    36 -0.049759 -1.680544 0.100480 -1.606113 0.000000 0.000000
    37 -0.034141 -1.148310 0.084780 -1.352472 0.000000 0.000000
    38 -0.488516 -2.755600 -0.228262 -0.592163 -0.021518 -0.150746
    39 0.039889 -1.479791 0.029853 -1.707683 0.000000 0.000000
    40 0.028785 -1.075732 -0.023111 -1.094760 0.000000 0.000000
    41 -1.180679 -2.507217 -0.193861 -0.284071 0.143007 -0.128855
    42 -0.024967 -1.123934 0.017594 -1.447373 0.000000 0.000000
    43 -0.020058 -0.890965 0.010092 -0.802379 0.000000 0.000000
    44 0.120153 -0.050267 -0.054488 0.287569 3.110905 1.561085
  time 5
    0 7.020596 -4.869746 -11.323060 -2.041606 -0.361884 1.381910
    1 -0.071918 -8.498732 -0.104136 0.433550 -0.151560 -0.725744
    2 -0.556639 -4.518933 0.835224 -1.061878 1.466023 -1.048302
    3 0.000000 2.617617 0.665016 0.000000 0.000000 0.000000
    4 0.000000 -1.893754 2.278034 0.000000 0.000000 0.000000
    5 0.002811 -3.475783 1.628930 0.068264 0.000000 0.000000
    6 0.000000 -2.886455 1.471525 0.000000 0.000000 0.000000
    7 0.000000 -0.778212 1.774024 -0.591514 0.000000 0.000000
    8 0.000000 -1.598869 0.580120 0.000000 0.000000 0.000000
    9 0.061666 0.123105 1.128744 1.067915 -0.001093 -1.570654
    10 0.081112 -1.158958 2.594920 1.562140 -0.001093 -1.570654
    11 4.483072 -0.940724 -10.701539 1.094304 2.655419 0.188007
    12 0.096946 -8.450418 -0.009364 -0.393488 -0.788814 0.453270
    13 -0.586769 -1.264477 0.200164 -0.841989 -0.763020 -2.188478
    14 1.522835 0.058680 0.016850 0.246390 -0.206434 0.675957
    15 1.117948 0.048425 -0.005765 0.112093 0.066227 0.493566
    16 -0.963866 -2.785142 -0.085346 -0.107880 0.046409 0.031057
    17 0.028478 -1.403067 0.006272 -0.081808 0.000000 0.000000
    18 0.021414 -0.957782 0.020047 -0.050672 -0.000001 0.000005
    19 -0.249534 -2.846962 -0.174215 -0.077577 0.026823 0.113938
    20 0.043234 -1.683940 0.096015 -0.443963 0.000000 0.000000
    21 0.031728 -1.160830 0.058837 -0.507223 0.000000 0.000000
    22 0.447951 -2.798983 -0.200441 -0.305574 0.066903 0.125256
    23 -0.032909 -1.480207 0.004936 -0.855112 0.000000 0.000000
    24 -0.027023 -1.076920 -0.020212 -0.392518 0.000000 0.000000
    25 1.164475 -2.543938 -0.170327 -0.649583 -0.032710 0.122153
    26 0.024032 -1.129040 0.017806 -1.197706 0.000000 0.000000
    27 0.014896 -0.883991 -0.019846 -0.393082 0.000000 0.000000
    28 -0.143140 -0.112350 0.013004 0.285545 -0.040597 1.576215
    29 0.583510 -1.197274 0.185379 0.339538 -0.969689 -0.815816
    30 1.535926 0.010246 0.005009 -0.351872 -0.027685 -1.034171
    31 1.100770 0.004527 -0.010676 0.000000 0.000000 -0.510836
    32 0.957766 -2.746777 -0.090301 0.025509 -0.033749 -0.084056
    33 -0.033419 -1.397127 -0.011256 -0.394642 0.000000 0.000000
    34 -0.022361 -0.957433 0.018783 -0.088131 0.010810 -0.077301
    35 0.250029 -2.820664 -0.238397 -0.509644 0.003075 -0.067270
    36 -0.049759 -1.680544 0.100480 -1.729394 0.000000 0.000000
    37 -0.034141 -1.148310 0.084780 -1.454451 0.000000 0.000000
    38 -0.488516 -2.755600 -0.228262 -0.636987 -0.023663 -0.152184
    39 0.039889 -1.479791 0.029853 -1.836065 0.000000 0.000000
    40 0.028785 -1.075732 -0.023111 -1.186522 0.000000 0.000000
    41 -1.180679 -2.507217 -0.193861 -0.304551 0.152643 -0.133373
    42 -0.024967 -1.123934 0.017594 -1.548190 0.000000 0.000000
    43 -0.020058 -0.890965 0.010092 -0.874450 0.000000 0.000000
    44 0.120153 -0.050267 -0.054488 0.287569 3.110905 1.561085
  time 6
    0 6.985438 -4.826776 -11.264464 -2.041441 -0.325997 1.368770
    1 -0.071918 -8.498732 -0.104136 0.460611 -0.201330 -0.643566
    2 -0.556639 -4.518933 0.835224 -1.061878 1.466009 -1.048302
    3 0.000000 2.617617 0.665016 0.000000 0.000000 0.000000
    4 0.000000 -2.300017 2.278034 0.000000 0.000000 0.000000
    5 0.002811 -3.475783 1.628930 0.068264 0.000000 0.000000
    6 0.000000 -2.886455 1.471525 0.000000 0.000000 0.000000
    7 0.000000 -0.778212 1.774024 -0.595079 0.000000 0.000000
    8 0.000000 -1.598869 0.580120 0.000000 0.000000 0.000000
    9 0.065572 0.087947 1.292811 0.921645 -0.001093 -1.570654
    10 0.081112 -1.158958 2.594920 1.562140 -0.001093 -1.570654
    11 4.502603 -0.761031 -10.783573 1.116287 2.670524 0.204351
    12 0.096946 -8.450418 -0.009364 -0.276144 -0.848505 0.298797
    13 -0.586769 -1.264477 0.200164 -0.864000 -0.765514 -2.169928
    14 1.522835 0.058680 0.016850 0.242124 -0.209886 0.694563
    15 1.117948 0.048425 -0.005765 0.112057 0.067952 0.508517
    16 -0.963866 -2.785142 -0.085346 -0.062392 0.039242 -0.014497
    17 0.028478 -1.403067 0.006272 -0.063701 0.000000 0.000000
    18 0.021414 -0.957782 0.020047 0.007471 -0.000001 0.000005
    19 -0.249534 -2.846962 -0.174215 -0.067634 0.026463 0.113314
    20 0.043234 -1.683940 0.096015 -0.436123 0.000000 0.000000
    21 0.031728 -1.160830 0.058837 -0.507223 0.000000 0.000000
    22 0.447951 -2.798983 -0.200441 -0.297348 0.065129 0.121936
    23 -0.032909 -1.480207 0.004936 -0.855112 0.000000 0.000000
    24 -0.027023 -1.076920 -0.020212 -0.392518 0.000000 0.000000
    25 1.164475 -2.543938 -0.170327 -0.648420 -0.037660 0.117958
    26 0.024032 -1.129040 0.017806 -1.204347 0.000000 0.000000
    27 0.014896 -0.883991 -0.019846 -0.393082 0.000000 0.000000
    28 -0.143140 -0.112350 0.013004 0.285545 -0.040597 1.576215
    29 0.583510 -1.197274 0.185379 0.340059 -0.969784 -0.818753
    30 1.535926 0.010246 0.005009 -0.342513 -0.070477 -1.057352
    31 1.100770 0.004527 -0.010676 0.000000 0.000000 -0.547781
    32 0.957766 -2.746777 -0.090301 0.072008 -0.028596 -0.047839
    33 -0.033419 -1.397127 -0.011256 -0.411177 0.000000 0.000000
    34 -0.022361 -0.957433 0.018783 -0.098653 0.007862 -0.058521
    35 0.250029 -2.820664 -0.238397 -0.514520 0.003291 -0.066623
    36 -0.049759 -1.680544 0.100480 -1.744822 0.000000 0.000000
    37 -0.034141 -1.148310 0.084780 -1.467185 0.000000 0.000000
    38 -0.488516 -2.755600 -0.228262 -0.642590 -0.023939 -0.152364
    39 0.039889 -1.479791 0.029853 -1.852123 0.000000 0.000000
    40 0.028785 -1.075732 -0.023111 -1.197988 0.000000 0.000000
    41 -1.180679 -2.507217 -0.193861 -0.307107 0.153841 -0.133948
    42 -0.024967 -1.123934 0.017594 -1.560780 0.000000 0.000000
    43 -0.020058 -0.890965 0.010092 -0.883462 0.000000 0.000000
    44 0.120153 -0.050267 -0.054488 0.287569 3.110905 1.561085
  time 7
    0 6.938562 -4.760367 -11.385562 -2.046182 -0.314182 1.369846
    1 -0.071918 -8.498732 -0.104136 0.477287 -0.232308 -0.533169
    2 -0.556639 -4.518933 0.835224 -1.061878 1.466009 -1.048302
    3 0.000000 2.617617 0.665016 0.000000 0.000000 0.000000
    4 0.000000 -2.327361 2.278034 0.000000 0.000000 0.000000
    5 0.002811 -3.475783 1.628930 0.068264 0.000000 0.000000
    6 0.000000 -2.886455 1.471525 0.000000 0.000000 0.000000
    7 0.000000 -0.778212 1.774024 -0.622424 0.000000 0.000000
    8 0.000000 -1.598869 0.580120 0.000000 0.000000 0.000000
    9 0.069479 0.056696 1.445160 0.787199 -0.001093 -1.570654
    10 0.081112 -1.158958 2.594920 1.562140 -0.001093 -1.570654
    11 4.529948 -0.725874 -10.900764 1.110631 2.647422 0.202396
    12 0.096946 -8.450418 -0.009364 -0.253848 -0.862560 0.268023
    13 -0.586769 -1.264477 0.200164 -0.880580 -0.767185 -2.155939
    14 1.522835 0.058680 0.016850 0.238888 -0.212426 0.708529
    15 1.117948 0.048425 -0.005765 0.112045 0.069259 0.519730
    16 -0.963866 -2.785142 -0.085346 -0.034233 0.035347 -0.055520
    17 0.028478 -1.403067 0.006272 -0.047984 0.000000 0.000000
    18 0.021414 -0.957782 0.020047 0.062012 -0.000001 0.000005
    19 -0.249534 -2.846962 -0.174215 -0.060160 0.026200 0.112859
    20 0.043234 -1.683940 0.096015 -0.430253 0.000000 0.000000
    21 0.031728 -1.160830 0.058837 -0.507223 0.000000 0.000000
    22 0.447951 -2.798983 -0.200441 -0.291179 0.063811 0.119443
    23 -0.032909 -1.480207 0.004936 -0.855112 0.000000 0.000000
    24 -0.027023 -1.076920 -0.020212 -0.392518 0.000000 0.000000
    25 1.164475 -2.543938 -0.170327 -0.647582 -0.041363 0.114818
    26 0.024032 -1.129040 0.017806 -1.209337 0.000000 0.000000
    27 0.014896 -0.883991 -0.019846 -0.393082 0.000000 0.000000
    28 -0.143140 -0.112350 0.013004 0.285545 -0.040597 1.576215
    29 0.583510 -1.197274 0.185379 0.340153 -0.969803 -0.819346
    30 1.535926 0.010246 0.005009 -0.340522 -0.079015 -1.062042
    31 1.100770 0.004527 -0.010676 0.000000 0.000000 -0.555184
    32 0.957766 -2.746777 -0.090301 0.079789 -0.027996 0.002149
    33 -0.033419 -1.397127 -0.011256 -0.404296 0.000000 0.000000
    34 -0.022361 -0.957433 0.018783 -0.102409 0.004638 -0.035055
    35 0.250029 -2.820664 -0.238397 -0.499891 0.002631 -0.068565
    36 -0.049759 -1.680544 0.100480 -1.698566 0.000000 0.000000
    37 -0.034141 -1.148310 0.084780 -1.428931 0.000000 0.000000
    38 -0.488516 -2.755600 -0.228262 -0.625781 -0.023124 -0.151837
    39 0.039889 -1.479791 0.029853 -1.803950 0.000000 0.000000
    40 0.028785 -1.075732 -0.023111 -1.163589 0.000000 0.000000
    41 -1.180679 -2.507217 -0.193861 -0.299439 0.150246 -0.132222
    42 -0.024967 -1.123934 0.017594 -1.522986 0.000000 0.000000
    43 -0.020058 -0.890965 0.010092 -0.856425 0.000000 0.000000
    44 0.120153 -0.050267 -0.054488 0.287569 3.110905 1.561085
  time 8
    0 6.887779 -4.654895 -11.534004 -2.047947 -0.316152 1.372151
    1 -0.071918 -8.498732 -0.104136 0.485114 -0.256780 -0.416234
    2 -0.556639 -4.518933 0.835224 -1.061878 1.466009 -1.048302
    3 0.000000 2.617617 0.665016 0.000000 0.000000 0.000000
    4 0.000000 -1.432803 2.278034 0.000000 0.000000 0.000000
    5 0.002811 -3.475783 1.628930 0.068264 0.000000 0.000000
    6 0.000000 -2.886455 1.471525 0.000000 0.000000 0.000000
    7 0.000000 -0.778212 1.774024 -0.680679 0.000000 0.000000
    8 0.000000 -1.598869 0.580120 0.000000 0.000000 0.000000
    9 0.073385 0.033258 1.570163 0.676494 -0.001093 -1.570654
    10 0.081112 -1.158958 2.594920 1.562140 -0.001093 -1.570654
    11 4.584637 -0.550087 -11.092176 1.089547 2.634982 0.161654
    12 0.096946 -8.450418 -0.009364 -0.171316 -0.920775 0.180576
    13 -0.586769 -1.264477 0.200164 -0.875047 -0.766651 -2.160612
    14 1.522835 0.058680 0.016850 0.239966 -0.211587 0.703874
    15 1.117948 0.048425 -0.005765 0.112045 0.068827 0.515992
    16 -0.963866 -2.785142 -0.085346 -0.061109 0.032567 -0.086596
    17 0.028478 -1.403067 0.006272 -0.044784 0.000000 0.000000
    18 0.021414 -0.957782 0.020047 0.101984 -0.000001 0.000005
    19 -0.249534 -2.846962 -0.174215 -0.062663 0.026295 0.113015
    20 0.043234 -1.683940 0.096015 -0.432222 0.000000 0.000000
    21 0.031728 -1.160830 0.058837 -0.507223 0.000000 0.000000
    22 0.447951 -2.798983 -0.200441 -0.293235 0.064254 0.120282
    23 -0.032909 -1.480207 0.004936 -0.855112 0.000000 0.000000
    24 -0.027023 -1.076920 -0.020212 -0.392518 0.000000 0.000000
    25 1.164475 -2.543938 -0.170327 -0.647861 -0.040129 0.115861
    26 0.024032 -1.129040 0.017806 -1.207649 0.000000 0.000000
    27 0.014896 -0.883991 -0.019846 -0.393082 0.000000 0.000000
    28 -0.143140 -0.112350 0.013004 0.285545 -0.040597 1.576215
    29 0.583510 -1.197274 0.185379 0.339223 -0.969632 -0.814065
    30 1.535926 0.010246 0.005009 -0.356996 -0.001916 -1.020462
    31 1.100770 0.004527 -0.010676 0.000000 0.000000 -0.488675
    32 0.957766 -2.746777 -0.090301 0.068884 -0.028476 0.049596
    33 -0.033419 -1.397127 -0.011256 -0.383450 0.000000 0.000000
    34 -0.022361 -0.957433 0.018783 -0.099026 0.001786 -0.013375
    35 0.250029 -2.820664 -0.238397 -0.480356 0.001793 -0.071165
    36 -0.049759 -1.680544 0.100480 -1.636940 0.000000 0.000000
    37 -0.034141 -1.148310 0.084780 -1.377941 0.000000 0.000000
    38 -0.488516 -2.755600 -0.228262 -0.603369 -0.022045 -0.151117
    39 0.039889 -1.479791 0.029853 -1.739759 0.000000 0.000000
    40 0.028785 -1.075732 -0.023111 -1.117722 0.000000 0.000000
    41 -1.180679 -2.507217 -0.193861 -0.289183 0.145416 -0.129969
    42 -0.024967 -1.123934 0.017594 -1.472577 0.000000 0.000000
    43 -0.020058 -0.890965 0.010092 -0.820403 0.000000 0.000000
    44 0.120153 -0.050267 -0.054488 0.287569 3.110905 1.561085
  time 9
    0 6.833090 -4.494734 -11.569161 -2.038795 -0.321551 1.362699
    1 -0.071918 -8.498732 -0.104136 0.485609 -0.287098 -0.314526
    2 -0.556639 -4.518933 0.835224 -1.061878 1.466009 -1.048302
    3 0.000000 2.617617 0.665016 0.000000 0.000000 0.000000
    4 0.000000 0.481318 2.278034 0.000000 0.000000 0.000000
    5 0.002811 -3.475783 1.628930 0.068264 0.000000 0.000000
    6 0.000000 -2.886455 1.471525 0.000000 0.000000 0.000000
    7 0.000000 -0.778212 1.774024 -0.825039 0.000000 0.000000
    8 0.000000 -1.598869 0.580120 0.000000 0.000000 0.000000
    9 0.077292 0.013726 1.656104 0.601383 -0.001093 -1.570654
    10 0.081112 -1.158958 2.594920 1.562140 -0.001093 -1.570654
    11 4.897147 0.156966 -13.209428 1.081383 2.737085 0.000097
    12 0.096946 -8.450418 -0.009364 0.115629 -1.109130 -0.117743
    13 -0.586769 -1.264477 0.200164 -0.831045 -0.761663 -2.197713
    14 1.522835 0.058680 0.016850 0.248487 -0.204672 0.666661
    15 1.117948 0.048425 -0.005765 0.112128 0.065352 0.486090
    16 -0.963866 -2.785142 -0.085346 -0.095606 0.035359 -0.103866
    17 0.028478 -1.403067 0.006272 -0.064167 0.000000 0.000000
    18 0.021414 -0.957782 0.020047 0.116445 -0.000001 0.000005
    19 -0.249534 -2.846962 -0.174215 -0.082582 0.027003 0.114237
    20 0.043234 -1.683940 0.096015 -0.447865 0.000000 0.000000
    21 0.031728 -1.160830 0.058837 -0.507223 0.000000 0.000000
    22 0.447951 -2.798983 -0.200441 -0.309687 0.067802 0.126898
    23 -0.032909 -1.480207 0.004936 -0.855112 0.000000 0.000000
    24 -0.027023 -1.076920 -0.020212 -0.392518 0.000000 0.000000
    25 1.164475 -2.543938 -0.170327 -0.650141 -0.030241 0.124238
    26 0.024032 -1.129040 0.017806 -1.194404 0.000000 0.000000
    27 0.014896 -0.883991 -0.019846 -0.393082 0.000000 0.000000
    28 -0.143140 -0.112350 0.013004 0.285545 -0.040597 1.576215
    29 0.583510 -1.197274 0.185379 0.330975 -0.968071 -0.767138
    30 1.535926 0.010246 0.005009 -0.357046 0.694711 -0.641341
    31 1.100770 0.004527 -0.010676 0.000000 0.000000 0.102388
    32 0.957766 -2.746777 -0.090301 0.059595 -0.028356 0.078371
    33 -0.033419 -1.397127 -0.011256 -0.358071 0.000000 0.000000
    34 -0.022361 -0.957433 0.018783 -0.088061 0.000000 0.000000
    35 0.250029 -2.820664 -0.238397 -0.470604 0.001385 -0.072472
    36 -0.049759 -1.680544 0.100480 -1.606113 0.000000 0.000000
    37 -0.034141 -1.148310 0.084780 -1.352472 0.000000 0.000000
    38 -0.488516 -2.755600 -0.228262 -0.592163 -0.021518 -0.150746
    39 0.039889 -1.479791 0.029853 -1.707683 0.000000 0.000000
    40 0.028785 -1.075732 -0.023111 -1.094760 0.000000 0.000000
    41 -1.180679 -2.507217 -0.193861 -0.284071 0.143007 -0.128855
    42 -0.024967 -1.123934 0.017594 -1.447373 0.000000 0.000000
    43 -0.020058 -0.890965 0.010092 -0.802379 0.000000 0.000000
    44 0.120153 -0.050267 -0.054488 0.287569 3.110905 1.561085
  time 10
    0 6.766682 -4.252539 -11.483221 -2.016687 -0.337398 1.338801
    1 -0.071918 -8.498732 -0.104136 0.474596 -0.325903 -0.226220
    2 -0.556639 -4.518933 0.835224 -1.061878 1.466009 -1.048302
    3 0.000000 2.617617 0.665016 0.000000 0.000000 0.000000
    4 0.000000 0.481318 2.278034 0.000000 0.000000 0.000000
    5 0.002811 -3.475783 1.628930 0.068264 0.000000 0.000000
    6 0.000000 -2.886455 1.471525 0.000000 0.000000 0.000000
    7 0.000000 -0.778212 1.774024 -1.062061 0.000000 0.000000
    8 0.000000 -1.598869 0.580120 0.000000 0.000000 0.000000
    9 0.077292 0.009820 1.687355 0.573691 -0.001093 -1.570654
    10 0.081112 -1.158958 2.594920 1.562140 -0.001093 -1.570654
    11 4.971368 0.914801 -14.537593 1.104845 2.760269 0.019099
    12 0.096946 -8.450418 -0.009364 0.170155 -1.112015 -0.134374
    13 -0.586769 -1.264477 0.200164 -0.752174 -0.746399 -2.264806
    14 1.522835 0.058680 0.016850 0.266320 -0.191705 0.595041
    15 1.117948 0.048425 -0.005765 0.113435 0.058425 0.430761
    16 -0.963866 -2.785142 -0.085346 -0.093092 0.047272 -0.109499
    17 0.028478 -1.403067 0.006272 -0.107126 0.000000 0.000000
    18 0.021414 -0.957782 0.020047 0.095381 -0.000001 0.000005
    19 -0.249534 -2.846962 -0.174215 -0.123355 0.029867 0.116538
    20 0.043234 -1.683940 0.096015 -0.480354 0.000000 0.000000
    21 0.031728 -1.160830 0.058837 -0.580120 0.000000 0.000000
    22 0.447951 -2.798983 -0.200441 -0.340882 0.075028 0.139518
    23 -0.032909 -1.480207 0.004936 -0.853116 0.000000 0.000000
    24 -0.027023 -1.076920 -0.020212 -0.390518 0.000000 0.000000
    25 1.164475 -2.543938 -0.170327 -0.653584 -0.011677 0.140093
    26 0.024032 -1.129040 0.017806 -1.165821 0.000000 0.000000
    27 0.014896 -0.883991 -0.019846 -0.392531 0.000000 0.000000
    28 -0.143140 -0.112350 0.013004 0.285545 -0.040597 1.576215
    29 0.583510 -1.197274 0.185379 0.329809 -0.967861 -0.759333
    30 1.535926 0.010246 0.005009 -0.338709 0.742437 -0.590783
    31 1.100770 0.004527 -0.010676 -0.000156 -0.004087 0.170000
    32 0.957766 -2.746777 -0.090301 0.052553 -0.027936 0.088570
    33 -0.033419 -1.397127 -0.011256 -0.323138 0.000000 0.000000
    34 -0.022361 -0.957433 0.018783 -0.061698 -0.000791 0.005201
    35 0.250029 -2.820664 -0.238397 -0.470604 0.001385 -0.072472
    36 -0.049759 -1.680544 0.100480 -1.606113 0.000000 0.000000
    37 -0.034141 -1.148310 0.084780 -1.352472 0.000000 0.000000
    38 -0.488516 -2.755600 -0.228262 -0.592163 -0.021518 -0.150746
    39 0.039889 -1.479791 0.029853 -1.707683 0.000000 0.000000
    40 0.028785 -1.075732 -0.023111 -1.094760 0.000000 0.000000
    41 -1.180679 -2.507217 -0.193861 -0.284071 0.143007 -0.128855
    42 -0.024967 -1.123934 0.017594 -1.447373 0.000000 0.000000
    43 -0.020058 -0.890965 0.010092 -0.802379 0.000000 0.000000
    44 0.120153 -0.050267 -0.054488 0.287569 3.110905 1.561085
  time 11
    0 6.672929 -3.908779 -11.381655 -1.985702 -0.375000 1.307295
    1 -0.071918 -8.498732 -0.104136 0.450226 -0.365567 -0.136497
    2 -0.556639 -4.518933 0.835224 -1.061878 1.466023 -1.048302
    3 0.000000 2.617617 0.665016 0.000000 0.000000 0.000000
    4 0.000000 0.481318 2.278034 0.000000 0.000000 0.000000
    5 0.002811 -3.475783 1.628930 0.068264 0.000000 0.000000
    6 0.000000 -2.886455 1.471525 0.000000 0.000000 0.000000
    7 0.000000 -0.778212 1.774024 -1.325790 0.000000 0.000000
    8 0.000000 -1.598869 0.580120 0.000000 0.000000 0.000000
    9 0.077292 0.009820 1.687355 0.573691 -0.001093 -1.570654
    10 0.081112 -1.158958 2.594920 1.562140 -0.001093 -1.570654
    11 4.803394 1.707794 -15.076672 1.126958 2.785552 0.043888
    12 0.096946 -8.450418 -0.009364 0.052459 -0.973894 0.044754
    13 -0.586769 -1.264477 0.200164 -0.658472 -0.718460 -2.344792
    14 1.522835 0.058680 0.016850 0.290589 -0.174148 0.501874
    15 1.117948 0.048425 -0.005765 0.116707 0.049220 0.361008
    16 -0.963866 -2.785142 -0.085346 -0.079721 0.062001 -0.111776
    17 0.028478 -1.403067 0.006272 -0.164546 0.000000 0.000000
    18 0.021414 -0.957782 0.020047 0.045996 -0.000001 0.000005
    19 -0.249534 -2.846962 -0.174215 -0.179309 0.035320 0.119259
    20 0.043234 -1.683940 0.096015 -0.525459 0.000000 0.000000
    21 0.031728 -1.160830 0.058837 -0.661155 0.000000 0.000000
    22 0.447951 -2.798983 -0.200441 -0.380960 0.085143 0.155685
    23 -0.032909 -1.480207 0.004936 -0.848228 0.000000 0.000000
    24 -0.027023 -1.076920 -0.020212 -0.385663 0.000000 0.000000
    25 1.164475 -2.543938 -0.170327 -0.657027 0.012040 0.160503
    26 0.024032 -1.129040 0.017806 -1.125167 0.000000 0.000000
    27 0.014896 -0.883991 -0.019846 -0.391195 0.000000 0.000000
    28 -0.143140 -0.112350 0.013004 0.285545 -0.040597 1.576215
    29 0.583510 -1.197274 0.185379 0.329525 -0.967842 -0.755720
    30 1.535926 0.010246 0.005009 -0.346204 0.700037 -0.602714
    31 1.100770 0.004527 -0.010676 -0.000395 -0.010894 0.164466
    32 0.957766 -2.746777 -0.090301 0.036360 -0.027577 0.092261
    33 -0.033419 -1.397127 -0.011256 -0.272481 0.000000 0.000000
    34 -0.022361 -0.957433 0.018783 -0.018865 -0.001258 0.007215
    35 0.250029 -2.820664 -0.238397 -0.470604 0.001385 -0.072472
    36 -0.049759 -1.680544 0.100480 -1.606113 0.000000 0.000000
    37 -0.034141 -1.148310 0.084780 -1.352472 0.000000 0.000000
    38 -0.488516 -2.755600 -0.228262 -0.592163 -0.021518 -0.150746
    39 0.039889 -1.479791 0.029853 -1.707683 0.000000 0.000000
    40 0.028785 -1.075732 -0.023111 -1.094760 0.000000 0.000000
    41 -1.180679 -2.507217 -0.193861 -0.284071 0.143007 -0.128855
    42 -0.024967 -1.123934 0.017594 -1.447373 0.000000 0.000000
    43 -0.020058 -0.890965 0.010092 -0.802379 0.000000 0.000000
    44 0.120153 -0.050267 -0.054488 0.287569 3.110905 1.561085
  time 12
    0 6.563550 -3.490797 -11.260558 -1.946944 -0.430578 1.269796
    1 -0.071918 -8.498732 -0.104136 0.417501 -0.402853 -0.047509
    2 -0.556639 -4.518933 0.835224 -1.061878 1.466009 -1.048302
    3 0.000000 2.617617 0.665016 0.000000 0.000000 0.000000
    4 0.000000 0.481318 2.278034 0.000000 0.000000 0.000000
    5 0.002811 -3.475783 1.628930 0.075000 0.000000 0.000000
    6 0.000000 -2.886455 1.471525 0.000000 0.000000 0.000000
    7 0.000000 -0.778212 1.774024 -1.550368 0.000000 0.000000
    8 0.000000 -1.598869 0.580120 0.000000 0.000000 0.000000
    9 0.077292 0.009820 1.687355 0.573691 -0.001093 -1.570654
    10 0.081112 -1.158958 2.594920 1.562140 -0.001093 -1.570654
    11 4.451821 2.434379 -15.119642 1.151192 2.801062 0.085958
    12 0.096946 -8.450418 -0.009364 -0.056789 -0.828246 0.161770
    13 -0.586769 -1.264477 0.200164 -0.558311 -0.679382 -2.429210
    14 1.522835 0.058680 0.016850 0.316692 -0.151461 0.395407
    15 1.117948 0.048425 -0.005765 0.121429 0.038890 0.281120
    16 -0.963866 -2.785142 -0.085346 -0.065922 0.077916 -0.111404
    17 0.028478 -1.403067 0.006272 -0.231485 0.000000 0.000000
    18 0.021414 -0.957782 0.020047 -0.016539 -0.000001 0.000005
    19 -0.249534 -2.846962 -0.174215 -0.244272 0.042055 0.121991
    20 0.043234 -1.683940 0.096015 -0.577893 0.000000 0.000000
    21 0.031728 -1.160830 0.058837 -0.745467 0.000000 0.000000
    22 0.447951 -2.798983 -0.200441 -0.426900 0.097607 0.173794
    23 -0.032909 -1.480207 0.004936 -0.842205 0.000000 0.000000
    24 -0.027023 -1.076920 -0.020212 -0.379662 0.000000 0.000000
    25 1.164475 -2.543938 -0.170327 -0.660284 0.039329 0.183885
    26 0.024032 -1.129040 0.017806 -1.077762 0.000000 0.000000
    27 0.014896 -0.883991 -0.019846 -0.389568 0.000000 0.000000
    28 -0.143140 -0.112350 0.013004 0.285545 -0.040597 1.576215
    29 0.583510 -1.197274 0.185379 0.329950 -0.967937 -0.757802
    30 1.535926 0.010246 0.005009 -0.360331 0.622886 -0.638362
    31 1.100770 0.004527 -0.010676 -0.000228 -0.012248 0.127880
    32 0.957766 -2.746777 -0.090301 0.013316 -0.027349 0.091326
    33 -0.033419 -1.397127 -0.011256 -0.213748 0.000000 0.000000
    34 -0.022361 -0.957433 0.018783 0.030944 -0.001378 0.006903
    35 0.250029 -2.820664 -0.238397 -0.470604 0.001385 -0.072472
    36 -0.049759 -1.680544 0.100480 -1.606113 0.000000 0.000000
    37 -0.034141 -1.148310 0.084780 -1.352472 0.000000 0.000000
    38 -0.488516 -2.755600 -0.228262 -0.592163 -0.021518 -0.150746
    39 0.039889 -1.479791 0.029853 -1.707683 0.000000 0.000000
    40 0.028785 -1.075732 -0.023111 -1.094760 0.000000 0.000000
    41 -1.180679 -2.507217 -0.193861 -0.284071 0.143007 -0.128855
    42 -0.024967 -1.123934 0.017594 -1.447373 0.000000 0.000000
    43 -0.020058 -0.890965 0.010092 -0.802379 0.000000 0.000000
    44 0.120153 -0.050267 -0.054488 0.287569 3.110905 1.561085
  time 13
    0 6.446359 -3.010314 -11.119928 -1.901460 -0.500257 1.227686
    1 -0.071918 -8.498732 -0.104136 0.381458 -0.434525 0.038673
    2 -0.556639 -4.518933 0.835224 -1.061878 1.466009 -1.048302
    3 0.000000 2.617617 0.665016 0.000000 0.000000 0.000000
    4 0.000000 0.481318 2.278034 0.000000 0.000000 0.000000
    5 0.002811 -3.475783 1.628930 0.083197 0.000000 0.000000
    6 0.000000 -2.886455 1.471525 0.000000 0.000000 0.000000
    7 0.000000 -0.778212 1.774024 -1.669838 0.000000 0.000000
    8 0.000000 -1.598869 0.580120 0.000000 0.000000 0.000000
    9 0.077292 0.009820 1.687355 0.573691 -0.001093 -1.570654
    10 0.081112 -1.158958 2.594920 1.562140 -0.001093 -1.570654
    11 3.979150 2.965645 -14.967294 1.182367 2.795811 0.157823
    12 0.096946 -8.450418 -0.009364 -0.116360 -0.708431 0.128198
    13 -0.586769 -1.264477 0.200164 -0.458293 -0.632165 -2.511421
    14 1.522835 0.058680 0.016850 0.340325 -0.124184 0.283694
    15 1.117948 0.048425 -0.005765 0.126894 0.028475 0.195336
    16 -0.963866 -2.785142 -0.085346 -0.062125 0.093376 -0.109451
    17 0.028478 -1.403067 0.006272 -0.302962 0.000000 0.000000
    18 0.021414 -0.957782 0.020047 -0.077084 -0.000001 0.000005
    19 -0.249534 -2.846962 -0.174215 -0.312037 0.048707 0.124484
    20 0.043234 -1.683940 0.096015 -0.632406 0.000000 0.000000
    21 0.031728 -1.160830 0.058837 -0.828121 0.000000 0.000000
    22 0.447951 -2.798983 -0.200441 -0.475641 0.111677 0.192370
    23 -0.032909 -1.480207 0.004936 -0.836732 0.000000 0.000000
    24 -0.027023 -1.076920 -0.020212 -0.374219 0.000000 0.000000
    25 1.164475 -2.543938 -0.170327 -0.663262 0.068595 0.208705
    26 0.024032 -1.129040 0.017806 -1.028890 0.000000 0.000000
    27 0.014896 -0.883991 -0.019846 -0.388087 0.000000 0.000000
    28 -0.143140 -0.112350 0.013004 0.285545 -0.040597 1.576215
    29 0.583510 -1.197274 0.185379 0.330975 -0.968071 -0.767138
    30 1.535926 0.010246 0.005009 -0.366241 0.566622 -0.662839
    31 1.100770 0.004527 -0.010676 0.000000 0.000000 0.102388
    32 0.957766 -2.746777 -0.090301 -0.014276 -0.027349 0.087599
    33 -0.033419 -1.397127 -0.011256 -0.154589 0.000000 0.000000
    34 -0.022361 -0.957433 0.018783 0.078117 -0.001163 0.005165
    35 0.250029 -2.820664 -0.238397 -0.470604 0.001385 -0.072472
    36 -0.049759 -1.680544 0.100480 -1.606113 0.000000 0.000000
    37 -0.034141 -1.148310 0.084780 -1.352472 0.000000 0.000000
    38 -0.488516 -2.755600 -0.228262 -0.592163 -0.021518 -0.150746
    39 0.039889 -1.479791 0.029853 -1.707683 0.000000 0.000000
    40 0.028785 -1.075732 -0.023111 -1.094760 0.000000 0.000000
    41 -1.180679 -2.507217 -0.193861 -0.284071 0.143007 -0.128855
    42 -0.024967 -1.123934 0.017594 -1.447373 0.000000 0.000000
    43 -0.020058 -0.890965 0.010092 -0.802379 0.000000 0.000000
    44 0.120153 -0.050267 -0.054488 0.287569 3.110905 1.561085
  time 14
    0 6.321355 -2.482954 -10.959767 -1.850297 -0.580288 1.182425
    1 -0.071918 -8.498732 -0.104136 0.347098 -0.457279 0.119871
    2 -0.556639 -4.518933 0.835224 -1.061878 1.466009 -1.048302
    3 0.000000 2.617617 0.665016 0.000000 0.000000 0.000000
    4 0.000000 0.481318 2.278034 0.000000 0.000000 0.000000
    5 0.002811 -3.475783 1.628930 0.088482 0.000000 0.000000
    6 0.000000 -2.886455 1.471525 0.000000 0.000000 0.000000
    7 0.000000 -0.778212 1.774024 -1.709661 0.000000 0.000000
    8 0.000000 -1.598869 0.580120 0.000000 0.000000 0.000000
    9 0.077292 0.009820 1.687355 0.573691 -0.001093 -1.570654
    10 0.081112 -1.158958 2.594920 1.562140 -0.001093 -1.570654
    11 3.440071 3.180496 -14.912605 1.228906 2.760834 0.273869
    12 0.096946 -8.450418 -0.009364 -0.189231 -0.572436 0.048096
    13 -0.586769 -1.264477 0.200164 -0.362534 -0.581042 -2.587297
    14 1.522835 0.058680 0.016850 0.357835 -0.094031 0.174407
    15 1.117948 0.048425 -0.005765 0.132215 0.018839 0.107947
    16 -0.963866 -2.785142 -0.085346 -0.078758 0.106799 -0.107294
    17 0.028478 -1.403067 0.006272 -0.374033 0.000000 0.000000
    18 0.021414 -0.957782 0.020047 -0.120520 -0.000001 0.000005
    19 -0.249534 -2.846962 -0.174215 -0.376399 0.053884 0.126785
    20 0.043234 -1.683940 0.096015 -0.683747 0.000000 0.000000
    21 0.031728 -1.160830 0.058837 -0.904296 0.000000 0.000000
    22 0.447951 -2.798983 -0.200441 -0.524207 0.126382 0.210059
    23 -0.032909 -1.480207 0.004936 -0.833565 0.000000 0.000000
    24 -0.027023 -1.076920 -0.020212 -0.371071 0.000000 0.000000
    25 1.164475 -2.543938 -0.170327 -0.666193 0.098257 0.233417
    26 0.024032 -1.129040 0.017806 -0.983759 0.000000 0.000000
    27 0.014896 -0.883991 -0.019846 -0.387216 0.000000 0.000000
    28 -0.143140 -0.112350 0.013004 0.285545 -0.040597 1.576215
    29 0.583510 -1.197274 0.185379 0.333152 -0.968299 -0.790787
    30 1.535926 0.010246 0.005009 -0.357275 0.557954 -0.668518
    31 1.100770 0.004527 -0.010676 0.001426 0.068168 0.117722
    32 0.957766 -2.746777 -0.090301 -0.044061 -0.027589 0.082949
    33 -0.033419 -1.397127 -0.011256 -0.102697 0.000000 0.000000
    34 -0.022361 -0.957433 0.018783 0.113135 -0.000695 0.002852
    35 0.250029 -2.820664 -0.238397 -0.470604 0.001385 -0.072472
    36 -0.049759 -1.680544 0.100480 -1.606113 0.000000 0.000000
    37 -0.034141 -1.148310 0.084780 -1.352472 0.000000 0.000000
    38 -0.488516 -2.755600 -0.228262 -0.592163 -0.021518 -0.150746
    39 0.039889 -1.479791 0.029853 -1.707683 0.000000 0.000000
    40 0.028785 -1.075732 -0.023111 -1.094760 0.000000 0.000000
    41 -1.180679 -2.507217 -0.193861 -0.284071 0.143007 -0.128855
    42 -0.024967 -1.123934 0.017594 -1.447373 0.000000 0.000000
    43 -0.020058 -0.890965 0.010092 -0.802379 0.000000 0.000000
    44 0.120153 -0.050267 -0.054488 0.287569 3.110905 1.561085
  time 15
    0 6.196352 -1.932156 -10.783981 -1.794614 -0.666799 1.135627
    1 -0.071918 -8.498732 -0.104136 0.319393 -0.467881 0.193986
    2 -0.556639 -4.518933 0.835224 -1.061878 1.466023 -1.048302
    3 0.000000 2.617617 0.665016 0.000000 0.000000 0.000000
    4 0.000000 0.481318 2.278034 0.000000 0.000000 0.000000
    5 0.002811 -3.475783 1.628930 0.086481 0.000000 0.000000
    6 0.000000 -2.886455 1.471525 0.000000 0.000000 0.000000
    7 0.000000 -0.778212 1.774024 -1.739865 0.000000 0.000000
    8 0.000000 -1.598869 0.580120 0.000000 0.000000 0.000000
    9 0.077292 0.009820 1.687355 0.573691 -0.001093 -1.570654
    10 0.081112 -1.158958 2.594920 1.562140 -0.001093 -1.570654
    11 2.721299 2.871892 -14.955575 1.361645 2.642333 0.528404
    12 0.096946 -8.450418 -0.009364 -0.250915 -0.440474 -0.047607
    13 -0.586769 -1.264477 0.200164 -0.273049 -0.531180 -2.654906
    14 1.522835 0.058680 0.016850 0.366452 -0.063686 0.074764
    15 1.117948 0.048425 -0.005765 0.136241 0.010630 0.023243
    16 -0.963866 -2.785142 -0.085346 -0.170750 0.116075 -0.104058
    17 0.028478 -1.403067 0.006272 -0.439717 0.000000 0.000000
    18 0.021414 -0.957782 0.020047 -0.124395 -0.000001 0.000005
    19 -0.249534 -2.846962 -0.174215 -0.431186 0.056161 0.129146
    20 0.043234 -1.683940 0.096015 -0.726628 0.000000 0.000000
    21 0.031728 -1.160830 0.058837 -0.969018 0.000000 0.000000
    22 0.447951 -2.798983 -0.200441 -0.569710 0.140536 0.225663
    23 -0.032909 -1.480207 0.004936 -0.834426 0.000000 0.000000
    24 -0.027023 -1.076920 -0.020212 -0.371954 0.000000 0.000000
    25 1.164475 -2.543938 -0.170327 -0.669264 0.126697 0.256476
    26 0.024032 -1.129040 0.017806 -0.947729 0.000000 0.000000
    27 0.014896 -0.883991 -0.019846 -0.387448 0.000000 0.000000
    28 -0.143140 -0.112350 0.013004 0.285545 -0.040597 1.576215
    29 0.583510 -1.197274 0.185379 0.336369 -0.968566 -0.825758
    30 1.535926 0.010246 0.005009 -0.355385 0.532629 -0.698500
    31 1.100770 0.004527 -0.010676 -0.001546 0.130608 0.066690
    32 0.957766 -2.746777 -0.090301 -0.073708 -0.027996 0.079258
    33 -0.033419 -1.397127 -0.011256 -0.065721 0.000000 0.000000
    34 -0.022361 -0.957433 0.018783 0.126433 -0.000216 0.000851
    35 0.250029 -2.820664 -0.238397 -0.470604 0.001385 -0.072472
    36 -0.049759 -1.680544 0.100480 -1.606113 0.000000 0.000000
    37 -0.034141 -1.148310 0.084780 -1.352472 0.000000 0.000000
    38 -0.488516 -2.755600 -0.228262 -0.592163 -0.021518 -0.150746
    39 0.039889 -1.479791 0.029853 -1.707683 0.000000 0.000000
    40 0.028785 -1.075732 -0.023111 -1.094760 0.000000 0.000000
    41 -1.180679 -2.507217 -0.193861 -0.284071 0.143007 -0.128855
    42 -0.024967 -1.123934 0.017594 -1.447373 0.000000 0.000000
    43 -0.020058 -0.890965 0.010092 -0.802379 0.000000 0.000000
    44 0.120153 -0.050267 -0.054488 0.287569 3.110905 1.561085
  time 16
    0 6.075254 -1.373545 -10.580850 -1.735346 -0.756041 1.088676
    1 -0.071918 -8.498732 -0.104136 0.296046 -0.463092 0.270118
    2 -0.556639 -4.518933 0.835224 -1.061878 1.466009 -1.048302
    3 0.000000 2.617617 0.665016 0.000000 0.000000 0.000000
    4 0.000000 0.442254 2.278034 0.000000 0.000000 0.000000
    5 0.002811 -3.475783 1.628930 0.032694 0.000000 0.000000
    6 0.000000 -2.886455 1.471525 0.000000 0.000000 0.000000
    7 0.000000 -0.778212 1.774024 -1.761324 0.000000 0.000000
    8 0.000000 -1.598869 0.580120 0.000000 0.000000 0.000000
    9 0.077292 0.009820 1.687355 0.573691 -0.001093 -1.570654
    10 0.081112 -1.158958 2.594920 1.562140 -0.001093 -1.570654
    11 1.729081 2.035929 -14.904792 -1.534243 0.616660 -2.194069
    12 0.096946 -8.450418 -0.009364 -0.276848 -0.332806 -0.128040
    13 -0.586769 -1.264477 0.200164 -0.190352 -0.488183 -2.713973
    14 1.522835 0.058680 0.016850 0.364438 -0.036325 -0.008213
    15 1.117948 0.048425 -0.005765 0.137704 0.004266 -0.054381
    16 -0.963866 -2.785142 -0.085346 -0.300313 0.123326 -0.099204
    17 0.028478 -1.403067 0.006272 -0.495050 0.000000 0.000000
    18 0.021414 -0.957782 0.020047 -0.108733 -0.000001 0.000005
    19 -0.249534 -2.846962 -0.174215 -0.470157 0.054124 0.131938
    20 0.043234 -1.683940 0.096015 -0.755799 0.000000 0.000000
    21 0.031728 -1.160830 0.058837 -1.017541 0.000000 0.000000
    22 0.447951 -2.798983 -0.200441 -0.609262 0.152784 0.238199
    23 -0.032909 -1.480207 0.004936 -0.841034 0.000000 0.000000
    24 -0.027023 -1.076920 -0.020212 -0.378514 0.000000 0.000000
    25 1.164475 -2.543938 -0.170327 -0.672986 0.152344 0.276298
    26 0.024032 -1.129040 0.017806 -0.926081 0.000000 0.000000
    27 0.014896 -0.883991 -0.019846 -0.389249 0.000000 0.000000
    28 -0.143140 -0.112350 0.013004 0.285545 -0.040597 1.576215
    29 0.583510 -1.197274 0.185379 0.339459 -0.968794 -0.858344
    30 1.535926 0.010246 0.005009 -0.380647 0.425689 -0.796063
    31 1.100770 0.004527 -0.010676 -0.018001 0.088770 -0.212981
    32 0.957766 -2.746777 -0.090301 -0.100889 -0.028356 0.078371
    33 -0.033419 -1.397127 -0.011256 -0.051311 0.000000 0.000000
    34 -0.022361 -0.957433 0.018783 0.108446 0.000000 0.000000
    35 0.250029 -2.820664 -0.238397 -0.470604 0.001385 -0.072472
    36 -0.049759 -1.680544 0.100480 -1.606113 0.000000 0.000000
    37 -0.034141 -1.148310 0.084780 -1.352472 0.000000 0.000000
    38 -0.488516 -2.755600 -0.228262 -0.592163 -0.021518 -0.150746
    39 0.039889 -1.479791 0.029853 -1.707683 0.000000 0.000000
    40 0.028785 -1.075732 -0.023111 -1.094760 0.000000 0.000000
    41 -1.180679 -2.507217 -0.193861 -0.284071 0.143007 -0.128855
    42 -0.024967 -1.123934 0.017594 -1.447373 0.000000 0.000000
    43 -0.020058 -0.890965 0.010092 -0.802379 0.000000 0.000000
    44 0.120153 -0.050267 -0.054488 0.287569 3.110905 1.561085
  time 17
    0 5.969782 -0.818841 -10.362093 -1.673653 -0.844139 1.043185
    1 -0.071918 -8.498732 -0.104136 0.272535 -0.444730 0.351751
    2 -0.556639 -4.518933 0.835224 -1.061878 1.466009 -1.048302
    3 0.000000 2.617617 0.665016 0.000000 0.000000 0.000000
    4 0.000000 0.407097 2.278034 0.000000 0.000000 0.000000
    5 0.002811 -3.475783 1.628930 -0.000527 0.000000 0.000000
    6 0.000000 -2.886455 1.471525 0.000000 0.000000 0.000000
    7 0.000000 -0.778212 1.774024 -1.775013 0.000000 0.000000
    8 0.000000 -1.598869 0.580120 0.000000 0.000000 0.000000
    9 0.077292 0.009820 1.687355 0.573691 -0.001093 -1.570654
    10 0.081112 -1.158958 2.594920 1.562140 -0.001093 -1.570654
    11 0.568890 0.848393 -14.752444 -1.363901 0.624334 -1.814886
    12 0.096946 -8.450418 -0.009364 -0.242583 -0.269710 -0.162331
    13 -0.586769 -1.264477 0.200164 -0.114053 -0.457791 -2.765272
    14 1.522835 0.058680 0.016850 0.350824 -0.014980 -0.067580
    15 1.117948 0.048425 -0.005765 0.135247 0.000012 -0.120687
    16 -0.963866 -2.785142 -0.085346 -0.338714 0.132350 -0.093775
    17 0.028478 -1.403067 0.006272 -0.535092 0.000000 0.000000
    18 0.021414 -0.957782 0.020047 -0.122267 -0.000001 0.000005
    19 -0.249534 -2.846962 -0.174215 -0.487140 0.046358 0.135450
    20 0.043234 -1.683940 0.096015 -0.766045 0.000000 0.000000
    21 0.031728 -1.160830 0.058837 -1.044854 0.000000 0.000000
    22 0.447951 -2.798983 -0.200441 -0.639977 0.161653 0.246792
    23 -0.032909 -1.480207 0.004936 -0.855112 0.000000 0.000000
    24 -0.027023 -1.076920 -0.020212 -0.392518 0.000000 0.000000
    25 1.164475 -2.543938 -0.170327 -0.677965 0.173604 0.291279
    26 0.024032 -1.129040 0.017806 -0.924026 0.000000 0.000000
    27 0.014896 -0.883991 -0.019846 -0.393082 0.000000 0.000000
    28 -0.143140 -0.112350 0.013004 0.285545 -0.040597 1.576215
    29 0.583510 -1.197274 0.185379 0.341210 -0.968927 -0.874864
    30 1.535926 0.010246 0.005009 -0.392682 0.320576 -0.876710
    31 1.100770 0.004527 -0.010676 -0.017498 0.033377 -0.449310
    32 0.957766 -2.746777 -0.090301 -0.129249 -0.028715 0.080277
    33 -0.033419 -1.397127 -0.011256 -0.063434 0.000000 0.000000
    34 -0.022361 -0.957433 0.018783 0.057820 0.000000 0.000000
    35 0.250029 -2.820664 -0.238397 -0.470604 0.001385 -0.072472
    36 -0.049759 -1.680544 0.100480 -1.606113 0.000000 0.000000
    37 -0.034141 -1.148310 0.084780 -1.352472 0.000000 0.000000
    38 -0.488516 -2.755600 -0.228262 -0.592163 -0.021518 -0.150746
    39 0.039889 -1.479791 0.029853 -1.707683 0.000000 0.000000
    40 0.028785 -1.075732 -0.023111 -1.094760 0.000000 0.000000
    41 -1.180679 -2.507217 -0.193861 -0.284071 0.143007 -0.128855
    42 -0.024967 -1.123934 0.017594 -1.447373 0.000000 0.000000
    43 -0.020058 -0.890965 0.010092 -0.802379 0.000000 0.000000
    44 0.120153 -0.050267 -0.054488 0.287569 3.110905 1.561085
  time 18
    0 5.879936 -0.295387 -10.123804 -1.610582 -0.927315 1.000537
    1 -0.071918 -8.498732 -0.104136 0.250724 -0.417517 0.428427
    2 -0.556639 -4.518933 0.835224 -1.061878 1.466009 -1.048302
    3 0.000000 2.617617 0.665016 0.000000 0.000000 0.000000
    4 0.000000 -0.417147 2.278034 0.000000 0.000000 0.000000
    5 0.002811 -3.475783 1.628930 -0.001666 0.090987 0.017713
    6 0.000000 -2.886455 1.471525 0.000000 0.000000 0.000000
    7 0.000000 -0.778212 1.774024 -1.781874 0.000000 0.000000
    8 0.000000 -1.598869 0.580120 0.000000 0.000000 0.000000
    9 0.077292 0.009820 1.687355 0.573691 -0.001093 -1.570654
    10 0.081112 -1.158958 2.594920 1.562140 -0.001093 -1.570654
    11 -0.661617 -0.518836 -14.502436 -1.377528 0.573605 -1.587485
    12 0.096946 -8.450418 -0.009364 -0.048457 -0.248627 -0.153394
    13 -0.586769 -1.264477 0.200164 -0.014755 -0.465739 -2.830866
    14 1.522835 0.058680 0.016850 0.308039 -0.006519 -0.067717
    15 1.117948 0.048425 -0.005765 0.119990 0.001450 -0.184070
    16 -0.963866 -2.785142 -0.085346 -0.174654 0.144419 -0.086704
    17 0.028478 -1.403067 0.006272 -0.513238 0.000000 0.000000
    18 0.021414 -0.957782 0.020047 -0.216561 -0.000001 0.000005
    19 -0.249534 -2.846962 -0.174215 -0.410633 0.003812 0.142305
    20 0.043234 -1.683940 0.096015 -0.678605 0.000000 0.000000
    21 0.031728 -1.160830 0.058837 -1.010119 0.000000 0.000000
    22 0.447951 -2.798983 -0.200441 -0.654503 0.158261 0.243891
    23 -0.032909 -1.480207 0.004936 -0.919615 0.000000 0.000000
    24 -0.027023 -1.076920 -0.020212 -0.476834 0.000000 0.000000
    25 1.164475 -2.543938 -0.170327 -0.708301 0.188909 0.291327
    26 0.024032 -1.129040 0.017806 -1.021258 0.000000 0.000000
    27 0.014896 -0.883991 -0.019846 -0.412337 0.000000 0.000000
    28 -0.143140 -0.112350 0.013004 0.285545 -0.040597 1.576215
    29 0.583510 -1.197274 0.185379 0.341683 -0.969042 -0.875747
    30 1.535926 0.010246 0.005009 -0.388167 0.266923 -0.904221
    31 1.100770 0.004527 -0.010676 -0.014885 0.020673 -0.492412
    32 0.957766 -2.746777 -0.090301 -0.161389 -0.029207 0.083273
    33 -0.033419 -1.397127 -0.011256 -0.096362 0.000000 0.000000
    34 -0.022361 -0.957433 0.018783 -0.016345 0.000000 0.000000
    35 0.250029 -2.820664 -0.238397 -0.470604 0.001385 -0.072472
    36 -0.049759 -1.680544 0.100480 -1.606113 0.000000 0.000000
    37 -0.034141 -1.148310 0.084780 -1.352472 0.000000 0.000000
    38 -0.488516 -2.755600 -0.228262 -0.592163 -0.021518 -0.150746
    39 0.039889 -1.479791 0.029853 -1.707683 0.000000 0.000000
    40 0.028785 -1.075732 -0.023111 -1.094760 0.000000 0.000000
    41 -1.180679 -2.507217 -0.193861 -0.284071 0.143007 -0.128855
    42 -0.024967 -1.123934 0.017594 -1.447373 0.000000 0.000000
    43 -0.020058 -0.890965 0.010092 -0.802379 0.000000 0.000000
    44 0.120153 -0.050267 -0.054488 0.287569 3.110905 1.561085
  time 19
    0 5.813527 0.189003 -9.858171 -1.547180 -1.001758 0.962269
    1 -0.071918 -8.498732 -0.104136 0.232380 -0.386043 0.489659
    2 -0.556639 -4.518933 0.835224 -1.061878 1.466009 -1.048302
    3 0.000000 2.617617 0.665016 0.000000 0.000000 0.000000
    4 0.000000 -1.456241 2.278034 0.000000 0.000000 0.000000
    5 0.002811 -3.475783 1.628930 -0.000527 0.000000 0.000000
    6 0.000000 -2.886455 1.471525 0.000000 0.000000 0.000000
    7 0.000000 -0.778212 1.774024 -1.782782 0.000000 0.000000
    8 0.000000 -1.598869 0.580120 0.000000 0.000000 0.000000
    9 0.077292 0.009820 1.687355 0.573691 -0.001093 -1.570654
    10 0.081112 -1.158958 2.594920 1.562140 -0.001093 -1.570654
    11 -1.864778 -1.886065 -14.154769 -1.473177 0.516334 -1.409819
    12 0.096946 -8.450418 -0.009364 0.289103 -0.256067 -0.121881
    13 -0.586769 -1.264477 0.200164 0.112293 -0.508955 -2.916525
    14 1.522835 0.058680 0.016850 0.234705 -0.007154 -0.007728
    15 1.117948 0.048425 -0.005765 0.090688 0.007226 -0.239215
    16 -0.963866 -2.785142 -0.085346 0.081237 0.155085 -0.074959
    17 0.028478 -1.403067 0.006272 -0.441377 0.000000 0.000000
    18 0.021414 -0.957782 0.020047 -0.340051 -0.000001 0.000005
    19 -0.249534 -2.846962 -0.174215 -0.251512 -0.064368 0.142485
    20 0.043234 -1.683940 0.096015 -0.518677 0.000000 0.000000
    21 0.031728 -1.160830 0.058837 -0.882860 0.000000 0.000000
    22 0.447951 -2.798983 -0.200441 -0.641421 0.141734 0.229186
    23 -0.032909 -1.480207 0.004936 -1.016782 0.000000 0.000000
    24 -0.027023 -1.076920 -0.020212 -0.593658 0.000000 0.000000
    25 1.164475 -2.543938 -0.170327 -0.746640 0.190898 0.275543
    26 0.024032 -1.129040 0.017806 -1.195505 0.000000 0.000000
    27 0.014896 -0.883991 -0.019846 -0.440507 0.000000 0.000000
    28 -0.143140 -0.112350 0.013004 0.285545 -0.040597 1.576215
    29 0.583510 -1.197274 0.185379 0.341746 -0.969137 -0.871527
    30 1.535926 0.010246 0.005009 -0.381103 0.216220 -0.927336
    31 1.100770 0.004527 -0.010676 -0.012224 0.011230 -0.515293
    32 0.957766 -2.746777 -0.090301 -0.193558 -0.029674 0.086688
    33 -0.033419 -1.397127 -0.011256 -0.143316 0.000000 0.000000
    34 -0.022361 -0.957433 0.018783 -0.107915 0.000000 0.000000
    35 0.250029 -2.820664 -0.238397 -0.470604 0.001385 -0.072472
    36 -0.049759 -1.680544 0.100480 -1.606113 0.000000 0.000000
    37 -0.034141 -1.148310 0.084780 -1.352472 0.000000 0.000000
    38 -0.488516 -2.755600 -0.228262 -0.592163 -0.021518 -0.150746
    39 0.039889 -1.479791 0.029853 -1.707683 0.000000 0.000000
    40 0.028785 -1.075732 -0.023111 -1.094760 0.000000 0.000000
    41 -1.180679 -2.507217 -0.193861 -0.284071 0.143007 -0.128855
    42 -0.024967 -1.123934 0.017594 -1.447373 0.000000 0.000000
    43 -0.020058 -0.890965 0.010092 -0.802379 0.000000 0.000000
    44 0.120153 -0.050267 -0.054488 0.287569 3.110905 1.561085
  time 20
    0 5.778370 0.610890 -9.576913 -1.484494 -1.063655 0.929918
    1 -0.071918 -8.498732 -0.104136 0.219353 -0.355032 0.524987
    2 -0.556639 -4.518933 0.835224 -1.061878 1.466009 -1.048302
    3 0.000000 2.617617 0.665016 0.000000 0.000000 0.000000
    4 0.000000 -1.655466 2.278034 0.000000 0.000000 0.000000
    5 0.002811 -3.475783 1.628930 -0.001282 -0.009024 -0.001750
    6 0.000000 -2.886455 1.471525 0.000000 0.000000 0.000000
    7 0.000000 -0.778212 1.774024 -1.778746 0.000000 0.000000
    8 0.000000 -1.598869 0.580120 0.000000 0.000000 0.000000
    9 0.077292 0.009820 1.687355 0.573691 -0.001093 -1.570654
    10 0.081112 -1.158958 2.594920 1.562140 -0.001093 -1.570654
    11 -2.939030 -3.085321 -13.705537 -1.602380 0.483538 -1.248574
    12 0.096946 -8.450418 -0.009364 0.620756 -0.295824 -0.063286
    13 -0.586769 -1.264477 0.200164 0.223954 -0.558296 -2.991129
    14 1.522835 0.058680 0.016850 0.153749 -0.005896 0.066970
    15 1.117948 0.048425 -0.005765 0.058138 0.012116 -0.261036
    16 -0.963866 -2.785142 -0.085346 0.224091 0.161173 -0.060134
    17 0.028478 -1.403067 0.006272 -0.402368 0.000000 0.000000
    18 0.021414 -0.957782 0.020047 -0.386762 -0.000001 0.000005
    19 -0.249534 -2.846962 -0.174215 -0.126591 -0.100717 0.134635
    20 0.043234 -1.683940 0.096015 -0.436853 0.000000 0.000000
    21 0.031728 -1.160830 0.058837 -0.673624 0.000000 0.000000
    22 0.447951 -2.798983 -0.200441 -0.592111 0.123170 0.212036
    23 -0.032909 -1.480207 0.004936 -1.057397 0.000000 0.000000
    24 -0.027023 -1.076920 -0.020212 -0.593834 0.000000 0.000000
    25 1.164475 -2.543938 -0.170327 -0.730495 0.170752 0.257003
    26 0.024032 -1.129040 0.017806 -1.299121 0.000000 0.000000
    27 0.014896 -0.883991 -0.019846 -0.448087 0.000000 0.000000
    28 -0.143140 -0.112350 0.013004 0.285545 -0.040597 1.576215
    29 0.583510 -1.197274 0.185379 0.341509 -0.969251 -0.863515
    30 1.535926 0.010246 0.005009 -0.372353 0.168755 -0.946936
    31 1.100770 0.004527 -0.010676 -0.009827 0.004362 -0.522456
    32 0.957766 -2.746777 -0.090301 -0.221917 -0.029998 0.089864
    33 -0.033419 -1.397127 -0.011256 -0.197455 0.000000 0.000000
    34 -0.022361 -0.957433 0.018783 -0.210682 0.000000 0.000000
    35 0.250029 -2.820664 -0.238397 -0.470604 0.001385 -0.072472
    36 -0.049759 -1.680544 0.100480 -1.606113 0.000000 0.000000
    37 -0.034141 -1.148310 0.084780 -1.352472 0.000000 0.000000
    38 -0.488516 -2.755600 -0.228262 -0.592163 -0.021518 -0.150746
    39 0.039889 -1.479791 0.029853 -1.707683 0.000000 0.000000
    40 0.028785 -1.075732 -0.023111 -1.094760 0.000000 0.000000
    41 -1.180679 -2.507217 -0.193861 -0.284071 0.143007 -0.128855
    42 -0.024967 -1.123934 0.017594 -1.447373 0.000000 0.000000
    43 -0.020058 -0.890965 0.010092 -0.802379 0.000000 0.000000
    44 0.120153 -0.050267 -0.054488 0.287569 3.110905 1.561085
  time 21
    0 5.778370 0.954651 -9.272216 -1.423683 -1.109166 0.904867
    1 -0.071918 -8.498732 -0.104136 0.213442 -0.329074 0.523979
    2 -0.556639 -4.518933 0.835224 -1.061878 1.466009 -1.048302
    3 0.000000 2.617617 0.665016 0.000000 0.000000 0.000000
    4 -0.007813 -1.596870 2.227251 -0.022867 -0.046752 0.000000
    5 0.002811 -3.475783 1.628930 -0.003344 -0.011553 -0.002229
    6 0.000000 -2.886455 1.471525 0.000000 0.000000 0.000000
    7 0.000000 -0.778212 1.774024 -1.770674 0.000000 0.000000
    8 0.000000 -1.598869 0.580120 0.000000 0.000000 0.000000
    9 0.077292 0.009820 1.687355 0.573691 -0.001093 -1.570654
    10 0.081112 -1.158958 2.594920 1.562140 -0.001093 -1.570654
    11 -3.786712 -3.936909 -13.162552 -1.716028 0.494120 -1.078571
    12 0.096946 -8.450418 -0.009364 0.797124 -0.371761 0.026802
    13 -0.586769 -1.264477 0.200164 0.263800 -0.596676 -3.008599
    14 1.522835 0.058680 0.016850 0.088433 -0.000503 0.110142
    15 1.117948 0.048425 -0.005765 0.033773 0.013375 -0.224027
    16 -0.963866 -2.785142 -0.085346 0.026497 0.164817 -0.043667
    17 0.028478 -1.403067 0.006272 -0.456710 0.000000 0.000000
    18 0.021414 -0.957782 0.020047 -0.176672 -0.000001 0.000005
    19 -0.249534 -2.846962 -0.174215 -0.072539 -0.083615 0.130189
    20 0.043234 -1.683940 0.096015 -0.591531 0.000000 0.000000
    21 0.031728 -1.160830 0.058837 -0.239745 0.000000 0.000000
    22 0.447951 -2.798983 -0.200441 -0.491742 0.105122 0.192633
    23 -0.032909 -1.480207 0.004936 -0.901166 0.000000 0.000000
    24 -0.027023 -1.076920 -0.020212 -0.248099 0.000000 0.000000
    25 1.164475 -2.543938 -0.170327 -0.625342 0.121435 0.234220
    26 0.024032 -1.129040 0.017806 -1.276776 0.000000 0.000000
    27 0.014896 -0.883991 -0.019846 -0.421456 0.000000 0.000000
    28 -0.143140 -0.112350 0.013004 0.285545 -0.040597 1.576215
    29 0.583510 -1.197274 0.185379 0.341084 -0.969346 -0.853062
    30 1.535926 0.010246 0.005009 -0.362652 0.124814 -0.963785
    31 1.100770 0.004527 -0.010676 -0.007814 -0.000539 -0.518551
    32 0.957766 -2.746777 -0.090301 -0.242741 -0.030178 0.092105
    33 -0.033419 -1.397127 -0.011256 -0.251958 0.000000 0.000000
    34 -0.022361 -0.957433 0.018783 -0.318513 0.000000 0.000000
    35 0.250029 -2.820664 -0.238397 -0.470604 0.001385 -0.072472
    36 -0.049759 -1.680544 0.100480 -1.606113 0.000000 0.000000
    37 -0.034141 -1.148310 0.084780 -1.352472 0.000000 0.000000
    38 -0.488516 -2.755600 -0.228262 -0.592163 -0.021518 -0.150746
    39 0.039889 -1.479791 0.029853 -1.707683 0.000000 0.000000
    40 0.028785 -1.075732 -0.023111 -1.094760 0.000000 0.000000
    41 -1.180679 -2.507217 -0.193861 -0.284071 0.143007 -0.128855
    42 -0.024967 -1.123934 0.017594 -1.447373 0.000000 0.000000
    43 -0.020058 -0.890965 0.010092 -0.802379 0.000000 0.000000
    44 0.120153 -0.050267 -0.054488 0.287569 3.110905 1.561085
  time 22
    0 5.821340 1.247629 -8.897204 -1.361880 -1.140638 0.888192
    1 -0.071918 -8.498732 -0.104136 0.218676 -0.307739 0.463346
    2 -0.556639 -4.518933 0.835224 -1.061878 1.466009 -1.048302
    3 0.000000 2.617617 0.665016 0.000000 0.000000 0.000000
    4 -0.003906 -1.616402 2.242877 -0.012068 -0.024664 -0.000132
    5 0.002811 -3.475783 1.628930 -0.005501 -0.009743 -0.001870
    6 0.000000 -2.886455 1.471525 0.000000 0.000000 0.000000
    7 0.000000 -0.778212 1.774024 -1.759474 0.000000 0.000000
    8 0.000000 -1.598869 0.580120 0.000000 0.000000 0.000000
    9 0.077292 0.009820 1.687355 0.573691 -0.001093 -1.570654
    10 0.081112 -1.158958 2.594920 1.562140 -0.001093 -1.570654
    11 -4.306259 -4.265044 -12.518001 -1.759802 0.555027 -0.874551
    12 0.096946 -8.450418 -0.009364 0.668789 -0.487715 0.152872
    13 -0.586769 -1.264477 0.200164 0.126775 -0.625176 -2.877298
    14 1.522835 0.058680 0.016850 0.047266 0.003296 0.076993
    15 1.117948 0.048425 -0.005765 0.022676 0.009707 -0.054592
    16 -0.963866 -2.785142 -0.085346 -0.251002 0.171720 -0.029118
    17 0.028478 -1.403067 0.006272 -0.560268 0.000000 0.000000
    18 0.021414 -0.957782 0.020047 0.012628 -0.000001 0.000005
    19 -0.249534 -2.846962 -0.174215 -0.041309 -0.042232 0.128727
    20 0.043234 -1.683940 0.096015 -0.802691 0.000000 0.000000
    21 0.031728 -1.160830 0.058837 0.188145 0.000000 0.000000
    22 0.447951 -2.798983 -0.200441 -0.357552 0.087253 0.167753
    23 -0.032909 -1.480207 0.004936 -0.767961 0.000000 0.000000
    24 -0.027023 -1.076920 -0.020212 0.146826 0.000000 0.000000
    25 1.164475 -2.543938 -0.170327 -0.471659 0.057378 0.198075
    26 0.024032 -1.129040 0.017806 -1.200274 0.000000 0.000000
    27 0.014896 -0.883991 -0.019846 -0.377661 0.000000 0.000000
    28 -0.143140 -0.112350 0.013004 0.285545 -0.040597 1.576215
    29 0.583510 -1.197274 0.185379 0.340532 -0.969442 -0.841534
    30 1.535926 0.010246 0.005009 -0.352671 0.084607 -0.978495
    31 1.100770 0.004527 -0.010676 -0.006136 -0.004135 -0.508105
    32 0.957766 -2.746777 -0.090301 -0.251784 -0.030225 0.092968
    33 -0.033419 -1.397127 -0.011256 -0.300046 0.000000 0.000000
    34 -0.022361 -0.957433 0.018783 -0.425176 0.000000 0.000000
    35 0.250029 -2.820664 -0.238397 -0.470604 0.001385 -0.072472
    36 -0.049759 -1.680544 0.100480 -1.606113 0.000000 0.000000
    37 -0.034141 -1.148310 0.084780 -1.352472 0.000000 0.000000
    38 -0.488516 -2.755600 -0.228262 -0.592163 -0.021518 -0.150746
    39 0.039889 -1.479791 0.029853 -1.707683 0.000000 0.000000
    40 0.028785 -1.075732 -0.023111 -1.094760 0.000000 0.000000
    41 -1.180679 -2.507217 -0.193861 -0.284071 0.143007 -0.128855
    42 -0.024967 -1.123934 0.017594 -1.447373 0.000000 0.000000
    43 -0.020058 -0.890965 0.010092 -0.802379 0.000000 0.000000
    44 0.120153 -0.050267 -0.054488 0.287569 3.110905 1.561085
  time 23
    0 5.911187 1.524981 -8.424534 -1.296879 -1.164584 0.877588
    1 -0.071918 -8.498732 -0.104136 0.235005 -0.287230 0.343498
    2 -0.556639 -4.518933 0.835224 -1.061878 1.466009 -1.048302
    3 0.000000 2.617617 0.665016 0.000000 0.000000 0.000000
    4 0.000000 -1.655466 2.278034 0.000000 0.000000 0.000000
    5 0.002811 -3.475783 1.628930 -0.006556 -0.005777 -0.001103
    6 0.000000 -2.886455 1.471525 0.000000 0.000000 0.000000
    7 0.000000 -0.778212 1.774024 -1.746087 0.000000 0.000000
    8 0.000000 -1.598869 0.580120 0.000000 0.000000 0.000000
    9 0.077292 0.009820 1.687355 0.573691 -0.001093 -1.570654
    10 0.081112 -1.158958 2.594920 1.562140 -0.001093 -1.570654
    11 -4.548454 -4.151759 -11.685944 -1.496575 0.750186 -0.472299
    12 0.096946 -8.450418 -0.009364 0.123295 -0.672621 0.344745
    13 -0.586769 -1.264477 0.200164 -0.122693 -0.615653 -2.651860
    14 1.522835 0.058680 0.016850 0.019666 0.002206 0.015746
    15 1.117948 0.048425 -0.005765 0.018265 0.004338 0.204523
    16 -0.963866 -2.785142 -0.085346 -0.329355 0.180265 -0.017265
    17 0.028478 -1.403067 0.006272 -0.705975 0.000000 0.000000
    18 0.021414 -0.957782 0.020047 -0.205566 -0.000001 0.000005
    19 -0.249534 -2.846962 -0.174215 -0.024325 0.002878 0.129146
    20 0.043234 -1.683940 0.096015 -0.844441 0.000000 0.000000
    21 0.031728 -1.160830 0.058837 0.289485 0.000000 0.000000
    22 0.447951 -2.798983 -0.200441 -0.229663 0.074357 0.143269
    23 -0.032909 -1.480207 0.004936 -0.937100 0.000000 0.000000
    24 -0.027023 -1.076920 -0.020212 0.242792 0.000000 0.000000
    25 1.164475 -2.543938 -0.170327 -0.319791 0.001542 0.155494
    26 0.024032 -1.129040 0.017806 -1.113023 0.000000 0.000000
    27 0.014896 -0.883991 -0.019846 -0.333431 0.000000 0.000000
    28 -0.143140 -0.112350 0.013004 0.285545 -0.040597 1.576215
    29 0.583510 -1.197274 0.185379 0.339980 -0.969518 -0.830295
    30 1.535926 0.010246 0.005009 -0.342957 0.048421 -0.991656
    31 1.100770 0.004527 -0.010676 -0.004734 -0.006999 -0.495718
    32 0.957766 -2.746777 -0.090301 -0.251099 -0.030225 0.092896
    33 -0.033419 -1.397127 -0.011256 -0.334877 0.000000 0.000000
    34 -0.022361 -0.957433 0.018783 -0.524561 0.000000 0.000000
    35 0.250029 -2.820664 -0.238397 -0.470604 0.001385 -0.072472
    36 -0.049759 -1.680544 0.100480 -1.606113 0.000000 0.000000
    37 -0.034141 -1.148310 0.084780 -1.352472 0.000000 0.000000
    38 -0.488516 -2.755600 -0.228262 -0.592163 -0.021518 -0.150746
    39 0.039889 -1.479791 0.029853 -1.707683 0.000000 0.000000
    40 0.028785 -1.075732 -0.023111 -1.094760 0.000000 0.000000
    41 -1.180679 -2.507217 -0.193861 -0.284071 0.143007 -0.128855
    42 -0.024967 -1.123934 0.017594 -1.447373 0.000000 0.000000
    43 -0.020058 -0.890965 0.010092 -0.802379 0.000000 0.000000
    44 0.120153 -0.050267 -0.054488 0.287569 3.110905 1.561085
  time 24
    0 6.028378 1.782801 -7.897174 -1.230500 -1.183608 0.869827
    1 -0.071918 -8.498732 -0.104136 0.258087 -0.267249 0.189438
    2 -0.556639 -4.518933 0.835224 -1.061878 1.466009 -1.048302
    3 0.000000 2.617617 0.665016 0.000000 0.000000 0.000000
    4 0.000000 -1.674998 2.293659 0.001858 0.003811 0.000036
    5 0.002811 -3.475783 1.628930 -0.005297 -0.001798 -0.000348
    6 0.000000 -2.886455 1.471525 0.000000 0.000000 0.000000
    7 0.000000 -0.778212 1.774024 -1.731456 0.000000 0.000000
    8 0.000000 -1.598869 0.580120 0.000000 0.000000 0.000000
    9 0.077292 0.009820 1.687355 0.573691 -0.001093 -1.570654
    10 0.081112 -1.158958 2.594920 1.562140 -0.001093 -1.570654
    11 -4.630488 -3.827531 -10.932015 -0.990625 0.813113 0.078060
    12 0.096946 -8.450418 -0.009364 -0.402328 -0.837031 0.509981
    13 -0.586769 -1.264477 0.200164 -0.282470 -0.582878 -2.509422
    14 1.522835 0.058680 0.016850 0.000011 -0.000011 0.019537
    15 1.117948 0.048425 -0.005765 0.015856 0.001006 0.404281
    16 -0.963866 -2.785142 -0.085346 -0.342485 0.185742 -0.010099
    17 0.028478 -1.403067 0.006272 -0.815975 0.000000 0.000000
    18 0.021414 -0.957782 0.020047 -0.445068 -0.000001 0.000005
    19 -0.249534 -2.846962 -0.174215 -0.012981 0.031257 0.129793
    20 0.043234 -1.683940 0.096015 -0.917696 0.000000 0.000000
    21 0.031728 -1.160830 0.058837 0.264847 0.000000 0.000000
    22 0.447951 -2.798983 -0.200441 -0.148413 0.067802 0.126898
    23 -0.032909 -1.480207 0.004936 -1.172118 0.000000 0.000000
    24 -0.027023 -1.076920 -0.020212 0.231377 0.000000 0.000000
    25 1.164475 -2.543938 -0.170327 -0.222315 -0.030241 0.124238
    26 0.024032 -1.129040 0.017806 -1.058243 0.000000 0.000000
    27 0.014896 -0.883991 -0.019846 -0.305464 0.000000 0.000000
    28 -0.143140 -0.112350 0.013004 0.285545 -0.040597 1.576215
    29 0.583510 -1.197274 0.185379 0.339507 -0.969594 -0.820684
    30 1.535926 0.010246 0.005009 -0.334055 0.016490 -1.003774
    31 1.100770 0.004527 -0.010676 -0.003476 -0.009720 -0.485991
    32 0.957766 -2.746777 -0.090301 -0.246249 -0.030190 0.092417
    33 -0.033419 -1.397127 -0.011256 -0.349631 0.000000 0.000000
    34 -0.022361 -0.957433 0.018783 -0.610462 0.000000 0.000000
    35 0.250029 -2.820664 -0.238397 -0.470604 0.001385 -0.072472
    36 -0.049759 -1.680544 0.100480 -1.606113 0.000000 0.000000
    37 -0.034141 -1.148310 0.084780 -1.352472 0.000000 0.000000
    38 -0.488516 -2.755600 -0.228262 -0.592163 -0.021518 -0.150746
    39 0.039889 -1.479791 0.029853 -1.707683 0.000000 0.000000
    40 0.028785 -1.075732 -0.023111 -1.094760 0.000000 0.000000
    41 -1.180679 -2.507217 -0.193861 -0.284071 0.143007 -0.128855
    42 -0.024967 -1.123934 0.017594 -1.447373 0.000000 0.000000
    43 -0.020058 -0.890965 0.010092 -0.802379 0.000000 0.000000
    44 0.120153 -0.050267 -0.054488 0.287569 3.110905 1.561085
  time 25
    0 6.165101 2.013277 -7.346376 -1.164561 -1.200281 0.861758
    1 -0.071918 -8.498732 -0.104136 0.283564 -0.247500 0.026144
    2 -0.556639 -4.518933 0.835224 -1.061878 1.466009 -1.048302
    3 0.000000 2.617617 0.665016 0.000000 0.000000 0.000000
    4 0.003906 -1.686717 2.305379 0.002589 0.005297 0.000060
    5 0.002811 -3.475783 1.628930 -0.000527 0.000000 0.000000
    6 0.000000 -2.886455 1.471525 0.000000 0.000000 0.000000
    7 0.000000 -0.778212 1.774024 -1.716522 0.000000 0.000000
    8 0.000000 -1.598869 0.580120 0.000000 0.000000 0.000000
    9 0.077292 0.009820 1.687355 0.573691 -0.001093 -1.570654
    10 0.081112 -1.158958 2.594920 1.562140 -0.001093 -1.570654
    11 -4.282821 -3.319703 -10.478876 -0.741025 0.722883 0.348626
    12 0.096946 -8.450418 -0.009364 -0.489749 -0.876788 0.522182
    13 -0.586769 -1.264477 0.200164 -0.322358 -0.572629 -2.473225
    14 1.522835 0.058680 0.016850 -0.004471 0.000288 0.232091
    15 1.117948 0.048425 -0.005765 0.014238 0.000419 0.511017
    16 -0.963866 -2.785142 -0.085346 -0.350427 0.187036 -0.008505
    17 0.028478 -1.403067 0.006272 -0.838173 0.000000 0.000000
    18 0.021414 -0.957782 0.020047 -0.484794 -0.000001 0.000005
    19 -0.249534 -2.846962 -0.174215 -0.005107 0.040425 0.130021
    20 0.043234 -1.683940 0.096015 -1.241164 0.000000 0.000000
    21 0.031728 -1.160830 0.058837 0.193720 0.000000 0.000000
    22 0.447951 -2.798983 -0.200441 -0.117480 0.065429 0.120198
    23 -0.032909 -1.480207 0.004936 -1.321122 0.000000 0.000000
    24 -0.027023 -1.076920 -0.020212 0.174951 0.000000 0.000000
    25 1.164475 -2.543938 -0.170327 -0.186070 -0.041303 0.111462
    26 0.024032 -1.129040 0.017806 -1.041511 0.000000 0.000000
    27 0.014896 -0.883991 -0.019846 -0.295561 0.000000 0.000000
    28 -0.143140 -0.112350 0.013004 0.285545 -0.040597 1.576215
    29 0.583510 -1.197274 0.185379 0.339223 -0.969632 -0.814065
    30 1.535926 0.010246 0.005009 -0.326433 -0.010950 -1.015318
    31 1.100770 0.004527 -0.010676 -0.002277 -0.012859 -0.483499
    32 0.957766 -2.746777 -0.090301 -0.242741 -0.030178 0.092105
    33 -0.033419 -1.397127 -0.011256 -0.337893 0.000000 0.000000
    34 -0.022361 -0.957433 0.018783 -0.676671 0.000000 0.000000
    35 0.250029 -2.820664 -0.238397 -0.470604 0.001385 -0.072472
    36 -0.049759 -1.680544 0.100480 -1.606113 0.000000 0.000000
    37 -0.034141 -1.148310 0.084780 -1.352472 0.000000 0.000000
    38 -0.488516 -2.755600 -0.228262 -0.592163 -0.021518 -0.150746
    39 0.039889 -1.479791 0.029853 -1.707683 0.000000 0.000000
    40 0.028785 -1.075732 -0.023111 -1.094760 0.000000 0.000000
    41 -1.180679 -2.507217 -0.193861 -0.284071 0.143007 -0.128855
    42 -0.024967 -1.123934 0.017594 -1.447373 0.000000 0.000000
    43 -0.020058 -0.890965 0.010092 -0.802379 0.000000 0.000000
    44 0.120153 -0.050267 -0.054488 0.287569 3.110905 1.561085
  time 26
    0 6.305730 2.212502 -6.811203 -1.100884 -1.217177 0.850231
    1 -0.071918 -8.498732 -0.104136 0.307142 -0.227718 -0.121434
    2 -0.556639 -4.518933 0.835224 -1.061878 1.466009 -1.048302
    3 0.000000 2.617617 0.665016 0.000000 0.000000 0.000000
    4 0.003906 -1.694530 2.309285 0.002481 0.005081 0.000060
    5 0.002811 -3.475783 1.628930 0.009396 0.000000 0.000000
    6 0.000000 -2.886455 1.471525 0.000000 0.000000 0.000000
    7 0.000000 -0.778212 1.774024 -1.702194 0.000000 0.000000
    8 0.000000 -1.598869 0.580120 0.000000 0.000000 0.000000
    9 0.077292 0.009820 1.687355 0.573691 -0.001093 -1.570654
    10 0.081112 -1.158958 2.594920 1.562140 -0.001093 -1.570654
    11 -3.552330 -2.729841 -10.142928 -0.596973 0.601151 0.490947
    12 0.096946 -8.450418 -0.009364 -0.332195 -0.838050 0.448102
    13 -0.586769 -1.264477 0.200164 -0.333405 -0.569546 -2.463216
    14 1.522835 0.058680 0.016850 0.000011 -0.000011 0.446601
    15 1.117948 0.048425 -0.005765 0.013783 0.000167 0.595511
    16 -0.963866 -2.785142 -0.085346 -0.352674 0.187407 -0.008061
    17 0.028478 -1.403067 0.006272 -0.844391 0.000000 0.000000
    18 0.021414 -0.957782 0.020047 -0.495926 -0.000001 0.000005
    19 -0.249534 -2.846962 -0.174215 -0.002905 0.043002 0.130093
    20 0.043234 -1.683940 0.096015 -1.535570 0.000000 0.000000
    21 0.031728 -1.160830 0.058837 0.119090 0.000000 0.000000
    22 0.447951 -2.798983 -0.200441 -0.108861 0.064805 0.118317
    23 -0.032909 -1.480207 0.004936 -1.409684 0.000000 0.000000
    24 -0.027023 -1.076920 -0.020212 0.112905 0.000000 0.000000
    25 1.164475 -2.543938 -0.170327 -0.175927 -0.044323 0.107819
    26 0.024032 -1.129040 0.017806 -1.036815 0.000000 0.000000
    27 0.014896 -0.883991 -0.019846 -0.292802 0.000000 0.000000
    28 -0.143140 -0.112350 0.013004 0.285545 -0.040597 1.576215
    29 0.583510 -1.197274 0.185379 0.339113 -0.969670 -0.811058
    30 1.535926 0.010246 0.005009 -0.322020 -0.027006 -1.022667
    31 1.100770 0.004527 -0.010676 -0.001486 -0.015113 -0.485201
    32 0.957766 -2.746777 -0.090301 -0.241481 -0.030178 0.092045
    33 -0.033419 -1.397127 -0.011256 -0.302940 0.000000 0.000000
    34 -0.022361 -0.957433 0.018783 -0.709753 0.000000 0.000000
    35 0.250029 -2.820664 -0.238397 -0.470604 0.001385 -0.072472
    36 -0.049759 -1.680544 0.100480 -1.606113 0.000000 0.000000
    37 -0.034141 -1.148310 0.084780 -1.352472 0.000000 0.000000
    38 -0.488516 -2.755600 -0.228262 -0.592163 -0.021518 -0.150746
    39 0.039889 -1.479791 0.029853 -1.707683 0.000000 0.000000
    40 0.028785 -1.075732 -0.023111 -1.094760 0.000000 0.000000
    41 -1.180679 -2.507217 -0.193861 -0.284071 0.143007 -0.128855
    42 -0.024967 -1.123934 0.017594 -1.447373 0.000000 0.000000
    43 -0.020058 -0.890965 0.010092 -0.802379 0.000000 0.000000
    44 0.120153 -0.050267 -0.054488 0.287569 3.110905 1.561085
  time 27
    0 6.438547 2.380476 -6.330720 -1.041341 -1.236804 0.831943
    1 -0.071918 -8.498732 -0.104136 0.324462 -0.207605 -0.228317
    2 -0.556639 -4.518933 0.835224 -1.061878 1.466009 -1.048302
    3 0.000000 2.617617 0.665016 0.000000 0.000000 0.000000
    4 0.003906 -1.694530 2.309285 0.001858 0.003811 0.000036
    5 0.002811 -3.475783 1.628930 0.023981 0.000000 0.000000
    6 0.000000 -2.886455 1.471525 0.000000 0.000000 0.000000
    7 0.000000 -0.778212 1.774024 -1.689447 0.000000 0.000000
    8 0.000000 -1.598869 0.580120 0.000000 0.000000 0.000000
    9 0.077292 0.009820 1.687355 0.573691 -0.001093 -1.570654
    10 0.081112 -1.158958 2.594920 1.562140 -0.001093 -1.570654
    11 -2.892154 -2.175137 -9.896827 -0.501903 0.459628 0.577669
    12 0.096946 -8.450418 -0.009364 -0.171708 -0.772330 0.398755
    13 -0.586769 -1.264477 0.200164 -0.325526 -0.571752 -2.470356
    14 1.522835 0.058680 0.016850 0.000011 -0.000011 0.486634
    15 1.117948 0.048425 -0.005765 0.014130 0.000036 0.665133
    16 -0.963866 -2.785142 -0.085346 -0.351069 0.187144 -0.008373
    17 0.028478 -1.403067 0.006272 -0.839935 0.000000 0.000000
    18 0.021414 -0.957782 0.020047 -0.487987 -0.000001 0.000005
    19 -0.249534 -2.846962 -0.174215 -0.004506 0.041168 0.130045
    20 0.043234 -1.683940 0.096015 -1.620457 0.000000 0.000000
    21 0.031728 -1.160830 0.058837 0.105415 0.000000 0.000000
    22 0.447951 -2.798983 -0.200441 -0.115030 0.065249 0.119659
    23 -0.032909 -1.480207 0.004936 -1.431988 0.000000 0.000000
    24 -0.027023 -1.076920 -0.020212 0.101785 0.000000 0.000000
    25 1.164475 -2.543938 -0.170327 -0.183185 -0.042178 0.110432
    26 0.024032 -1.129040 0.017806 -1.040154 0.000000 0.000000
    27 0.014896 -0.883991 -0.019846 -0.294777 0.000000 0.000000
    28 -0.143140 -0.112350 0.013004 0.285545 -0.040597 1.576215
    29 0.583510 -1.197274 0.185379 0.339113 -0.969670 -0.810686
    30 1.535926 0.010246 0.005009 -0.321449 -0.029017 -1.023602
    31 1.100770 0.004527 -0.010676 -0.001378 -0.015400 -0.485416
    32 0.957766 -2.746777 -0.090301 -0.239782 -0.030178 0.091962
    33 -0.033419 -1.397127 -0.011256 -0.252505 0.000000 0.000000
    34 -0.022361 -0.957433 0.018783 -0.709683 0.000000 0.000000
    35 0.250029 -2.820664 -0.238397 -0.470604 0.001385 -0.072472
    36 -0.049759 -1.680544 0.100480 -1.606113 0.000000 0.000000
    37 -0.034141 -1.148310 0.084780 -1.352472 0.000000 0.000000
    38 -0.488516 -2.755600 -0.228262 -0.592163 -0.021518 -0.150746
    39 0.039889 -1.479791 0.029853 -1.707683 0.000000 0.000000
    40 0.028785 -1.075732 -0.023111 -1.094760 0.000000 0.000000
    41 -1.180679 -2.507217 -0.193861 -0.284071 0.143007 -0.128855
    42 -0.024967 -1.123934 0.017594 -1.447373 0.000000 0.000000
    43 -0.020058 -0.890965 0.010092 -0.802379 0.000000 0.000000
    44 0.120153 -0.050267 -0.054488 0.287569 3.110905 1.561085
  time 28
    0 6.547925 2.501573 -5.947896 -0.982404 -1.264529 0.787681
    1 -0.071918 -8.498732 -0.104136 0.331198 -0.186865 -0.269474
    2 -0.556639 -4.518933 0.835224 -1.061878 1.466009 -1.048302
    3 0.000000 2.617617 0.665016 0.000000 0.000000 0.000000
    4 0.003906 -1.686717 2.305379 0.001031 0.002109 0.000024
    5 0.002811 -3.475783 1.628930 0.041227 0.000000 0.000000
    6 0.000000 -2.886455 1.471525 0.000000 0.000000 0.000000
    7 0.000000 -0.778212 1.774024 -1.679188 0.000000 0.000000
    8 0.000000 -1.598869 0.580120 0.000000 0.000000 0.000000
    9 0.077292 0.009820 1.687355 0.573691 -0.001093 -1.570654
    10 0.081112 -1.158958 2.594920 1.562140 -0.001093 -1.570654
    11 -2.403857 -1.624339 -9.740572 -0.450543 0.292740 0.607541
    12 0.096946 -8.450418 -0.009364 -0.083739 -0.663186 0.408391
    13 -0.586769 -1.264477 0.200164 -0.308081 -0.576452 -2.486166
    14 1.522835 0.058680 0.016850 0.000011 -0.000011 0.482191
    15 1.117948 0.048425 -0.005765 0.014886 -0.000084 0.727306
    16 -0.963866 -2.785142 -0.085346 -0.347566 0.186569 -0.009080
    17 0.028478 -1.403067 0.006272 -0.830173 0.000000 0.000000
    18 0.021414 -0.957782 0.020047 -0.470497 -0.000001 0.000005
    19 -0.249534 -2.846962 -0.174215 -0.007943 0.037129 0.129925
    20 0.043234 -1.683940 0.096015 -1.647878 0.000000 0.000000
    21 0.031728 -1.160830 0.058837 0.106959 0.000000 0.000000
    22 0.447951 -2.798983 -0.200441 -0.128637 0.066256 0.122619
    23 -0.032909 -1.480207 0.004936 -1.429510 0.000000 0.000000
    24 -0.027023 -1.076920 -0.020212 0.103021 0.000000 0.000000
    25 1.164475 -2.543938 -0.170327 -0.199144 -0.037372 0.116112
    26 0.024032 -1.129040 0.017806 -1.047529 0.000000 0.000000
    27 0.014896 -0.883991 -0.019846 -0.299133 0.000000 0.000000
    28 -0.143140 -0.112350 0.013004 0.285545 -0.040597 1.576215
    29 0.583510 -1.197274 0.185379 0.339144 -0.969670 -0.811817
    30 1.535926 0.010246 0.005009 -0.323136 -0.022986 -1.020823
    31 1.100770 0.004527 -0.010676 -0.001678 -0.014549 -0.484793
    32 0.957766 -2.746777 -0.090301 -0.237809 -0.030178 0.091878
    33 -0.033419 -1.397127 -0.011256 -0.194318 0.000000 0.000000
    34 -0.022361 -0.957433 0.018783 -0.690669 0.000000 0.000000
    35 0.250029 -2.820664 -0.238397 -0.470604 0.001385 -0.072472
    36 -0.049759 -1.680544 0.100480 -1.606113 0.000000 0.000000
    37 -0.034141 -1.148310 0.084780 -1.352472 0.000000 0.000000
    38 -0.488516 -2.755600 -0.228262 -0.592163 -0.021518 -0.150746
    39 0.039889 -1.479791 0.029853 -1.707683 0.000000 0.000000
    40 0.028785 -1.075732 -0.023111 -1.094760 0.000000 0.000000
    41 -1.180679 -2.507217 -0.193861 -0.284071 0.143007 -0.128855
    42 -0.024967 -1.123934 0.017594 -1.447373 0.000000 0.000000
    43 -0.020058 -0.890965 0.010092 -0.802379 0.000000 0.000000
    44 0.120153 -0.050267 -0.054488 0.287569 3.110905 1.561085
  time 29
    0 6.626052 2.579700 -5.686169 -0.932620 -1.293048 0.729357
    1 -0.071918 -8.498732 -0.104136 0.322860 -0.157538 -0.222951
    2 -0.556639 -4.518933 0.835224 -1.061878 1.466009 -1.048302
    3 0.000000 2.617617 0.665016 0.000000 0.000000 0.000000
    4 0.000000 -1.674998 2.293659 0.000300 0.000635 0.000000
    5 0.002811 -3.475783 1.628930 0.059144 0.000000 0.000000
    6 0.000000 -2.886455 1.471525 0.000000 0.000000 0.000000
    7 0.000000 -0.778212 1.774024 -1.672327 0.000000 0.000000
    8 0.000000 -1.598869 0.580120 0.000000 0.000000 0.000000
    9 0.077292 0.009820 1.687355 0.573691 -0.001093 -1.570654
    10 0.081112 -1.158958 2.594920 1.562140 -0.001093 -1.570654
    11 -1.989782 -1.112604 -9.670257 -0.426438 0.120036 0.606837
    12 0.096946 -8.450418 -0.009364 0.004269 -0.511205 0.430792
    13 -0.586769 -1.264477 0.200164 -0.290493 -0.580919 -2.502121
    14 1.522835 0.058680 0.016850 0.000011 -0.000011 0.459945
    15 1.117948 0.048425 -0.005765 0.015629 -0.000252 0.789505
    16 -0.963866 -2.785142 -0.085346 -0.344089 0.185993 -0.009775
    17 0.028478 -1.403067 0.006272 -0.820410 0.000000 0.000000
    18 0.021414 -0.957782 0.020047 -0.453008 -0.000001 0.000005
    19 -0.249534 -2.846962 -0.174215 -0.011413 0.033091 0.129841
    20 0.043234 -1.683940 0.096015 -1.652326 0.000000 0.000000
    21 0.031728 -1.160830 0.058837 0.114532 0.000000 0.000000
    22 0.447951 -2.798983 -0.200441 -0.142244 0.067310 0.125568
    23 -0.032909 -1.480207 0.004936 -1.417119 0.000000 0.000000
    24 -0.027023 -1.076920 -0.020212 0.109199 0.000000 0.000000
    25 1.164475 -2.543938 -0.170327 -0.215057 -0.032495 0.121721
    26 0.024032 -1.129040 0.017806 -1.054904 0.000000 0.000000
    27 0.014896 -0.883991 -0.019846 -0.303489 0.000000 0.000000
    28 -0.143140 -0.112350 0.013004 0.285545 -0.040597 1.576215
    29 0.583510 -1.197274 0.185379 0.339191 -0.969651 -0.813306
    30 1.535926 0.010246 0.005009 -0.325343 -0.014970 -1.017149
    31 1.100770 0.004527 -0.010676 -0.002073 -0.013423 -0.483931
    32 0.957766 -2.746777 -0.090301 -0.235809 -0.030178 0.091782
    33 -0.033419 -1.397127 -0.011256 -0.136132 0.000000 0.000000
    34 -0.022361 -0.957433 0.018783 -0.666943 0.000000 0.000000
    35 0.250029 -2.820664 -0.238397 -0.470604 0.001385 -0.072472
    36 -0.049759 -1.680544 0.100480 -1.606113 0.000000 0.000000
    37 -0.034141 -1.148310 0.084780 -1.352472 0.000000 0.000000
    38 -0.488516 -2.755600 -0.228262 -0.592163 -0.021518 -0.150746
    39 0.039889 -1.479791 0.029853 -1.707683 0.000000 0.000000
    40 0.028785 -1.075732 -0.023111 -1.094760 0.000000 0.000000
    41 -1.180679 -2.507217 -0.193861 -0.284071 0.143007 -0.128855
    42 -0.024967 -1.123934 0.017594 -1.447373 0.000000 0.000000
    43 -0.020058 -0.890965 0.010092 -0.802379 0.000000 0.000000
    44 0.120153 -0.050267 -0.054488 0.287569 3.110905 1.561085
  time 30
    0 6.653397 2.607045 -5.592416 -0.911614 -1.306196 0.700310
    1 -0.071918 -8.498732 -0.104136 0.314522 -0.138812 -0.176428
    2 -0.556639 -4.518933 0.835224 -1.061878 1.466009 -1.048302
    3 0.000000 2.617617 0.665016 0.000000 0.000000 0.000000
    4 0.000000 -1.655466 2.278034 0.000000 0.000000 0.000000
    5 0.002811 -3.475783 1.628930 0.075719 0.000000 0.000000
    6 0.000000 -2.886455 1.471525 0.000000 0.000000 0.000000
    7 0.000000 -0.778212 1.774024 -1.669838 0.000000 0.000000
    8 0.000000 -1.598869 0.580120 0.000000 0.000000 0.000000
    9 0.077292 0.009820 1.687355 0.573691 -0.001093 -1.570654
    10 0.081112 -1.158958 2.594920 1.562140 -0.001093 -1.570654
    11 -1.813996 -0.889941 -9.654632 -0.427274 -0.041277 0.629358
    12 0.096946 -8.450418 -0.009364 0.072759 -0.329140 0.475302
    13 -0.586769 -1.264477 0.200164 -0.282470 -0.582878 -2.509422
    14 1.522835 0.058680 0.016850 0.000011 -0.000011 0.446601
    15 1.117948 0.048425 -0.005765 0.015940 -0.000468 0.859127
    16 -0.963866 -2.785142 -0.085346 -0.342485 0.185742 -0.010099
    17 0.028478 -1.403067 0.006272 -0.815975 0.000000 0.000000
    18 0.021414 -0.957782 0.020047 -0.445068 -0.000001 0.000005
    19 -0.249534 -2.846962 -0.174215 -0.012981 0.031257 0.129793
    20 0.043234 -1.683940 0.096015 -1.668261 0.000000 0.000000
    21 0.031728 -1.160830 0.058837 0.119090 0.000000 0.000000
    22 0.447951 -2.798983 -0.200441 -0.148413 0.067802 0.126898
    23 -0.032909 -1.480207 0.004936 -1.409684 0.000000 0.000000
    24 -0.027023 -1.076920 -0.020212 0.112905 0.000000 0.000000
    25 1.164475 -2.543938 -0.170327 -0.222315 -0.030241 0.124238
    26 0.024032 -1.129040 0.017806 -1.058243 0.000000 0.000000
    27 0.014896 -0.883991 -0.019846 -0.305464 0.000000 0.000000
    28 -0.143140 -0.112350 0.013004 0.285545 -0.040597 1.576215
    29 0.583510 -1.197274 0.185379 0.339223 -0.969632 -0.814065
    30 1.535926 0.010246 0.005009 -0.326433 -0.010950 -1.015318
    31 1.100770 0.004527 -0.010676 -0.002277 -0.012859 -0.483499
    32 0.957766 -2.746777 -0.090301 -0.233918 -0.030190 0.091698
    33 -0.033419 -1.397127 -0.011256 -0.085696 0.000000 0.000000
    34 -0.022361 -0.957433 0.018783 -0.652665 0.000000 0.000000
    35 0.250029 -2.820664 -0.238397 -0.470604 0.001385 -0.072472
    36 -0.049759 -1.680544 0.100480 -1.606113 0.000000 0.000000
    37 -0.034141 -1.148310 0.084780 -1.352472 0.000000 0.000000
    38 -0.488516 -2.755600 -0.228262 -0.592163 -0.021518 -0.150746
    39 0.039889 -1.479791 0.029853 -1.707683 0.000000 0.000000
    40 0.028785 -1.075732 -0.023111 -1.094760 0.000000 0.000000
    41 -1.180679 -2.507217 -0.193861 -0.284071 0.143007 -0.128855
    42 -0.024967 -1.123934 0.017594 -1.447373 0.000000 0.000000
    43 -0.020058 -0.890965 0.010092 -0.802379 0.000000 0.000000
    44 0.120153 -0.050267 -0.054488 0.287569 3.110905 1.561085
end
