// Created by Crowbar 0.58

$modelname "weapons/tfa_cso/c_holysword.mdl"

$Include "csonline_gmod.qci"

$bodygroup "stack"
{
	studio "v_holysword_ef_holylight1"
	studio "v_holysword_ef_holylight2"
}
$bodygroup "weapon"
{
	studio "v_holysword1"
}
$bodygroup "weapon"
{
	studio "v_holysword2"
}

$CDMaterials "models\weapons\tfa_cso\holysword\"

$attachment 0 "Point001" -1 0 0

$definebone "root" "" 0.001265 -0.569176 -20.601572 0.000000 0.000000 0.000000 0.000000 0.000000 0.000000 -0.000000 0.000000 0.000000
$definebone "Bone04" "root" -9.310107 -5.231260 -12.513384 -0.574537 90.226281 -179.714451 0.000000 -0.000001 0.000000 0.000000 -0.000000 0.000000
$definebone "Bone_Righthand" "Bone04" 0.096944 -8.450419 -0.009369 -17.068815 -0.267170 -1.888755 0.000000 0.000002 0.000000 -0.000001 0.000000 0.000000
$definebone "root_sword" "Bone_Righthand" 6.003271 -2.241144 1.293392 -27.143343 146.327857 -115.607797 0.000000 0.000000 0.000001 -0.000002 -0.000005 0.000003
$definebone "Point001" "root_sword" 17.446014 0.000008 0.000006 -88.999818 90.000202 89.999710 0.000000 -0.000004 0.000000 -0.000002 -0.000005 0.000003
$definebone "p_blade01" "" -48.829529 -14.276731 -5.805456 -0.028627 179.201585 -168.570819 0.000000 0.000000 0.000000 -0.000000 -0.000000 0.000001
$definebone "ef_blade1" "p_blade01" -19.865421 -0.019396 -0.021360 -89.999983 -179.999966 0.000000 0.000000 0.000000 -0.000002 -0.000000 -0.000000 0.000000
$definebone "ef_blade2" "p_blade01" 19.998600 -0.028404 -0.021359 -89.999983 -179.999966 0.000000 0.000000 -0.000001 0.000000 -0.000000 -0.000000 0.000000
$definebone "Plane001" "root_sword" 14.254023 0.468636 -2.422640 0.000454 90.000045 -4.999977 0.000000 0.000000 0.000000 -0.000007 0.000005 -0.000005
$definebone "holyswordr" "Point001" -0.000000 0.000000 -0.000002 -0.000002 -0.000005 -0.000167 -0.000000 0.000000 0.000000 -0.000002 -0.000005 0.000003
$definebone "holysword" "root_sword" 3.203910 0.000004 0.000003 -88.999818 90.000202 89.999710 0.000001 0.000000 0.000000 -0.000002 -0.000005 0.000003
$definebone "Bone_holy1_L" "root_sword" 14.154207 0.000004 0.000003 -1.000038 -89.999812 -0.999982 0.000000 0.000000 0.000001 -0.000000 0.000003 0.000000
$definebone "holy1_L" "Bone_holy1_L" 0.000000 -10.950730 -0.000001 -89.999983 -89.999976 0.000000 0.000001 0.000000 0.000000 -0.000000 0.000000 0.000003
$definebone "Bone_holy1_R" "root_sword" 14.154207 0.000004 0.000003 0.999980 90.000045 1.000037 -0.000004 0.000000 0.000000 -0.000005 0.000005 -0.000003
$definebone "holy1_R" "Bone_holy1_R" -0.000008 10.950729 -0.000006 -89.999976 90.000045 0.000000 -0.000001 0.000000 0.000000 -0.000002 -0.000003 0.000005
$definebone "Bone_holy2_L" "root_sword" 22.616211 0.000008 0.000006 -1.000038 -89.999812 -0.999982 0.000000 0.000000 0.000000 -0.000000 0.000003 0.000000
$definebone "holy2_L" "Bone_holy2_L" 0.000008 -19.412216 -0.000005 -89.999983 -89.999976 0.000000 -0.000001 0.000000 -0.000000 -0.000000 0.000000 0.000003
$definebone "Bone_holy2_R" "root_sword" 22.616211 0.000008 0.000006 0.999980 90.000045 1.000037 0.000004 0.000000 0.000000 -0.000005 0.000005 -0.000003
$definebone "holy2_R" "Bone_holy2_R" -0.000004 19.412216 -0.000008 -89.999976 90.000045 0.000000 0.000000 0.000000 -0.000000 -0.000002 -0.000003 0.000005
$definebone "Bone_holy3_L" "root_sword" 31.179207 0.000008 0.000009 -1.000038 -89.999812 -0.999982 0.000000 0.000000 -0.000001 -0.000000 0.000003 0.000000
$definebone "holy3_L" "Bone_holy3_L" 0.000008 -27.975037 -0.000010 -89.999983 -89.999976 0.000000 -0.000001 0.000000 0.000000 -0.000000 0.000000 0.000003
$definebone "Bone_holy3_R" "root_sword" 31.179207 0.000008 0.000009 0.999980 90.000045 1.000037 -0.000004 0.000000 -0.000001 -0.000005 0.000005 -0.000003
$definebone "holy3_R" "Bone_holy3_R" -0.000008 27.975029 -0.000013 -89.999976 90.000045 0.000000 0.000001 0.000004 0.000000 -0.000002 -0.000003 0.000005

$sequence "idle" {
	"v_holysword_anims\idle"
	fps 15
	loop
}
$sequence "draw" {
	"v_holysword_anims\draw"
	{ event 5004 1 "weapons/holysword_draw.wav" }
	fps 30
}
$sequence "slash1" {
	"v_holysword_anims\slash1"
	fps 30
}
$sequence "slash2" {
	"v_holysword_anims\slash2"
	fps 30
}
$sequence "slash3" {
	"v_holysword_anims\slash3"
	fps 30
}
$sequence "slash_change" {
	"v_holysword_anims\slash_change"
	{ event 5004 20 "Holysword.SlashChange" }
	fps 30
	activity "ACT_VM_DRAW" 1
	snap
}
$sequence "charge_start" {
	"v_holysword_anims\charge_start"
	{ event 5004 4 "weapons/holysword_charge_start.wav" }
	fps 30
}
$sequence "charge_loop" {
	"v_holysword_anims\charge_loop"
	fps 30
	loop
}
$sequence "charge_slash" {
	"v_holysword_anims\charge_slash"
	fps 30
}
$sequence "charge_slash2" {
	"v_holysword_anims\charge_slash2"
	fps 30
}
$sequence "paring" {
	"v_holysword_anims\paring"
	{ event 5004 1 "weapons/holysword_paring.wav" }
	fps 30
}
$sequence "paring_slash" {
	"v_holysword_anims\paring_slash"
	fps 30
}
$sequence "paring_slash2" {
	"v_holysword_anims\paring_slash2"
	fps 30
}
$sequence "fullstack_idle" {
	"v_holysword_anims\fullstack_idle"
	{ event 5004 1 "Holysword.Idle" }
	fps 15
	activity "ACT_VM_IDLE" 1
	snap
	loop
}
$sequence "fullstack_draw" {
	"v_holysword_anims\fullstack_draw"
	{ event 5004 1 "Holysword.Draw" }
	fps 30
	activity "ACT_VM_DRAW" 1
	snap
}
$sequence "fullstack_slash1" {
	"v_holysword_anims\fullstack_slash1"
	{ event 5004 1 "Holysword.Slash1" }
	fps 30
	activity "ACT_VM_HITLEFT" 1
	snap
}
$sequence "fullstack_slash2" {
	"v_holysword_anims\fullstack_slash2"
	{ event 5004 1 "Holysword.Slash2" }
	fps 30
	activity "ACT_VM_HITRIGHT" 1
	snap
}
$sequence "fullstack_slash3" {
	"v_holysword_anims\fullstack_slash3"
	{ event 5004 1 "Holysword.Slash3" }
	fps 30
	activity "ACT_VM_PRIMARYATTACK" 1
	snap
}
$sequence "fullstack_charge_start" {
	"v_holysword_anims\fullstack_charge_start"
	{ event 5004 4 "weapons/holysword_charge_start.wav" }
	fps 30
}
$sequence "fullstack_charge_loop" {
	"v_holysword_anims\fullstack_charge_loop"
	fps 30
	loop
}
$sequence "fullstack_charge_slash" {
	"v_holysword_anims\fullstack_charge_slash"
	fps 30
}
$sequence "fullstack_charge_slash2" {
	"v_holysword_anims\fullstack_charge_slash2"
	fps 30
}
$sequence "fullstack_paring" {
	"v_holysword_anims\fullstack_paring"
	{ event 5004 1 "Holysword.Paring" }
	{ event 5004 31 "Holysword.ParingSlash" }
	{ event 5004 31 "Holysword.ParryAttack" }
	fps 30
	activity "ACT_VM_MISSRIGHT" 1
	snap
}
$sequence "fullstack_paring_slash" {
	"v_holysword_anims\fullstack_paring_slash"
	fps 30
}
$sequence "fullstack_paring_slash2" {
	"v_holysword_anims\fullstack_paring_slash2"
	fps 30
}
