// Created by Crowbar 0.34.0.0

$ModelName "weapons/tfa_cso/w_m1887xmas.mdl"

$BodyGroup "studio"
{
	studio "v_m1887xmas_v_ref"
}

$collisionmodel "v_m1887xmas_v_ref.smd"
{
	$mass 9
}

$CDMaterials "models\weapons\tfa_cso\m1887xmas"

$attachment "0" "root" -1.10 -24.00 2.20 rotate -0 0 0

$Sequence "idle" {
	"anims\idle.smd"
	fps 30
}