version 1
nodes
  0 "falcon_root" -1
  1 "triger" 0
  2 "handle" 0
  3 "bullet" 0
  4 "reload" 0
  5 "root" -1
  6 "Bone01" 5
  7 "Bone_L_Upper" 6
  8 "Bone_Lefthand" 6
  9 "Bone13" 8
  10 "Bone14" 9
  11 "Bone15" 10
  12 "Bone17" 8
  13 "Bone18" 12
  14 "Bone19" 13
  15 "Bone21" 8
  16 "Bone22" 15
  17 "Bone23" 16
  18 "Bone09" 8
  19 "Bone10" 18
  20 "Bone11" 19
  21 "Bone05" 8
  22 "Bone06" 21
  23 "Bone07" 22
  24 "Bone_Se_Hand-L" 8
  25 "Bone04" 5
  26 "Bone_Righthand" 25
  27 "Bone39" 26
  28 "Bone40" 27
  29 "Bone41" 28
  30 "Bone35" 26
  31 "Bone36" 30
  32 "Bone37" 31
  33 "Bone31" 26
  34 "Bone32" 33
  35 "Bone33" 34
  36 "Bone43" 26
  37 "Bone44" 36
  38 "Bone45" 37
  39 "Bone27" 26
  40 "Bone28" 39
  41 "Bone29" 40
  42 "Bone_Se_Hand-R" 26
  43 "Bone_R_Upper" 25
end
skeleton
  time 0
    0 5.843928 -15.863765 -5.836116 0.087053 -1.498831 1.494174
    1 0.181052 0.000000 0.086367 0.000000 3.141592 0.000000
    2 2.883404 -0.000761 -4.242765 0.000000 0.000000 2.443434
    3 -7.790843 0.929159 -9.285817 0.187319 -1.948745 -0.197174
    4 3.481615 -0.582735 -7.540093 0.000000 0.000000 0.610798
    5 1.536357 -3.587312 -3.077600 0.000000 -0.091011 0.000000
    6 7.278791 -0.721349 -7.221858 0.307153 -2.292798 -0.423142
    7 8.077701 0.613899 -0.380282 1.569479 -3.116255 0.153112
    8 -0.028951 -8.455766 -0.088509 -0.154720 0.544871 0.113800
    9 -0.488518 -2.755602 -0.228260 -0.972833 0.169296 -0.373837
    10 0.039887 -1.530573 0.014229 -1.448260 -0.012440 0.032096
    11 0.028786 -1.134327 -0.112955 -0.812974 -0.013926 0.016071
    12 0.250027 -2.820665 -0.238396 -0.695721 0.172809 -0.307015
    13 -0.049759 -1.598510 0.037977 -1.504681 0.001318 -0.040630
    14 -0.034142 -1.167844 0.049625 -1.093628 0.007263 -0.028679
    15 0.957766 -2.746780 -0.090302 0.506408 0.204751 0.034608
    16 -0.033420 -1.397129 -0.030789 -1.093240 0.001690 -0.053093
    17 -0.022360 -0.957436 0.007065 -0.545658 0.008006 -0.026210
    18 -1.180681 -2.507217 -0.193859 -0.878419 0.301607 -0.301154
    19 -0.024967 -1.123934 0.017597 -0.823686 0.006400 -0.035198
    20 -0.020057 -0.906594 0.033528 -1.043744 0.004698 -0.042809
    21 0.634293 -1.185558 0.181473 0.948036 -0.983663 -0.752914
    22 1.469519 -0.228043 0.071417 0.057235 -0.225142 -0.816496
    23 0.964048 -0.202511 0.051823 0.138994 -0.276703 -1.264904
    24 0.120153 -0.050270 -0.054489 0.287569 3.110905 1.561085
    25 -1.446586 -7.051628 -6.364759 0.314321 -4.056443 0.849404
    26 -0.090562 -8.387917 0.025792 -0.548839 -1.394065 -0.157364
    27 0.447953 -2.798986 -0.200443 -1.457270 -0.114722 0.275748
    28 -0.032909 -1.488017 0.008846 -0.531807 0.012284 -0.005463
    29 -0.027022 -1.096452 -0.028023 -0.513425 0.013471 -0.005429
    30 -0.249534 -2.846964 -0.174213 -1.147037 -0.119276 0.148758
    31 0.043235 -1.660503 0.084293 -0.910391 -0.014902 0.000600
    32 0.031729 -1.153017 0.058838 -0.444965 -0.003900 0.005867
    33 -0.963866 -2.785145 -0.085350 -0.817035 0.020966 -0.162409
    34 0.028479 -1.403067 -0.017167 -0.798724 -0.018804 -0.030417
    35 0.021413 -0.953875 0.020046 -0.326050 -0.004758 -0.014070
    36 1.164475 -2.543940 -0.170330 -1.410038 -0.209422 0.423745
    37 0.024032 -1.132948 0.006088 -0.539254 -0.000563 0.028968
    38 0.014898 -0.887895 -0.019848 -0.376678 -0.002469 0.017509
    39 -0.586770 -1.264477 0.200161 -0.072101 -0.429176 -2.857922
    40 1.526741 0.050868 0.016848 -0.001490 0.004083 0.154192
    41 1.114041 0.048424 -0.005766 -0.014373 -0.033611 0.582935
    42 -0.123774 -0.037477 0.151120 0.996028 -0.489920 1.341151
    43 -5.346716 6.991464 -0.352718 1.580828 -0.019189 -1.030499
  time 1
    0 5.664235 -14.004334 -5.843928 0.022403 -1.493020 1.547865
    1 0.181052 0.000000 0.086367 0.000000 2.544161 0.000000
    2 2.883404 -0.000761 -4.242765 0.000000 0.000000 2.443434
    3 -7.790843 0.929159 -9.285817 0.187319 -1.948745 -0.197174
    4 3.481615 -0.582735 -7.540093 0.000000 0.000000 0.610798
    5 1.536357 -3.587312 -3.077600 0.000000 -0.091011 0.000000
    6 7.165507 1.083393 -7.303892 0.319529 -2.297888 -0.434949
    7 7.663625 -1.839301 -0.407627 -1.567303 -0.029807 -3.295103
    8 -0.028951 -8.451860 -0.088509 -0.164383 0.544616 0.111515
    9 -0.488518 -2.755602 -0.228260 -0.972833 0.169296 -0.373837
    10 0.039887 -1.530573 0.014229 -1.448260 -0.012440 0.032096
    11 0.028786 -1.134327 -0.112955 -0.812974 -0.013926 0.016071
    12 0.250027 -2.820665 -0.238396 -0.695721 0.172809 -0.307015
    13 -0.049759 -1.598510 0.037977 -1.504681 0.001318 -0.040630
    14 -0.034142 -1.167844 0.049625 -1.093628 0.007263 -0.028679
    15 0.957766 -2.746780 -0.090302 0.447808 0.207328 0.033146
    16 -0.033420 -1.397129 -0.038602 -1.565522 -0.014561 -0.070279
    17 -0.022360 -0.961342 -0.008561 -1.024156 0.002852 -0.049592
    18 -1.180681 -2.507217 -0.193859 -0.878419 0.301607 -0.301154
    19 -0.024967 -1.123934 0.017597 -0.823686 0.006400 -0.035198
    20 -0.020057 -0.906594 0.033528 -1.043744 0.004698 -0.042809
    21 0.634293 -1.185558 0.181473 0.948036 -0.983663 -0.752914
    22 1.469519 -0.228043 0.071417 0.057235 -0.225142 -0.816496
    23 0.964048 -0.202511 0.051823 0.138994 -0.276703 -1.264904
    24 0.120153 -0.050270 -0.054489 0.287569 3.110905 1.561085
    25 -2.446617 -6.258635 -7.513231 0.512553 -3.983868 1.151716
    26 -0.110094 -8.407448 0.029699 -0.335421 -1.370791 -0.166324
    27 0.447953 -2.798986 -0.200443 -1.469544 -0.114207 0.275736
    28 -0.032909 -1.488017 0.008846 -0.530279 0.012248 -0.005439
    29 -0.027022 -1.096452 -0.028023 -0.513425 0.013471 -0.005429
    30 -0.249534 -2.846964 -0.174213 -1.158590 -0.118820 0.149369
    31 0.043235 -1.660503 0.084293 -0.910769 -0.014902 0.000600
    32 0.031729 -1.153017 0.058838 -0.444965 -0.003900 0.005867
    33 -0.963866 -2.785145 -0.085350 -0.826898 0.020606 -0.162553
    34 0.028479 -1.403067 -0.017167 -0.800894 -0.018888 -0.030477
    35 0.021413 -0.953875 0.020046 -0.326050 -0.004758 -0.014070
    36 1.164475 -2.543940 -0.170330 -1.420090 -0.208068 0.424020
    37 0.024032 -1.129042 0.006088 -0.537628 -0.000587 0.028872
    38 0.014898 -0.887895 -0.019848 -0.376678 -0.002469 0.017509
    39 -0.586770 -1.264477 0.200161 -0.074030 -0.427521 -2.857797
    40 1.526741 0.050868 0.016848 -0.001454 0.004119 0.152133
    41 1.114041 0.048424 -0.005766 -0.013534 -0.033360 0.555825
    42 -0.123774 -0.037477 0.151120 0.996028 -0.489920 1.341151
    43 -7.741320 3.542140 -0.438658 1.574021 -0.030994 -0.515009
  time 2
    0 5.609546 -13.984802 -5.468917 -0.072120 -1.459669 -4.644108
    1 0.181052 0.000000 0.086367 0.000000 2.544161 0.000000
    2 2.883404 -0.000761 -4.242765 0.000000 0.000000 2.443434
    3 -7.790843 0.929159 -9.285817 0.187319 -1.948745 -0.197174
    4 3.481615 -0.582735 -7.540093 0.000000 0.000000 0.610798
    5 1.536357 -3.587312 -3.077600 0.000000 -0.091011 0.000000
    6 7.177226 0.958390 -7.268735 0.357324 -2.319251 -0.462522
    7 7.663625 -1.847114 -0.407627 -1.567303 -0.029807 -3.296143
    8 -0.028951 -8.451860 -0.088509 -0.164686 0.543130 0.112448
    9 -0.488518 -2.755602 -0.228260 -0.972833 0.169296 -0.373837
    10 0.039887 -1.530573 0.014229 -1.448260 -0.012440 0.032096
    11 0.028786 -1.134327 -0.112955 -0.812974 -0.013926 0.016071
    12 0.250027 -2.820665 -0.238396 -0.695721 0.172809 -0.307015
    13 -0.049759 -1.598510 0.037977 -1.504681 0.001318 -0.040630
    14 -0.034142 -1.167844 0.049625 -1.093628 0.007263 -0.028679
    15 0.957766 -2.746780 -0.090302 0.441304 0.207603 0.032978
    16 -0.033420 -1.401035 -0.038602 -1.617964 -0.016826 -0.071657
    17 -0.022360 -0.965249 -0.008561 -1.077344 0.001606 -0.051977
    18 -1.180681 -2.507217 -0.193859 -0.878419 0.301607 -0.301154
    19 -0.024967 -1.123934 0.017597 -0.823686 0.006400 -0.035198
    20 -0.020057 -0.906594 0.033528 -1.043744 0.004698 -0.042809
    21 0.634293 -1.185558 0.181473 0.948036 -0.983663 -0.752914
    22 1.469519 -0.228043 0.071417 0.057235 -0.225142 -0.816496
    23 0.964048 -0.202511 0.051823 0.138994 -0.276703 -1.264904
    24 0.120153 -0.050270 -0.054489 0.287569 3.110905 1.561085
    25 -2.407553 -6.391451 -7.321819 0.545554 -3.958118 1.170470
    26 -0.110094 -8.403542 0.029699 -0.420670 -1.371694 -0.095597
    27 0.447953 -2.798986 -0.200443 -1.500874 -0.112876 0.275676
    28 -0.032909 -1.488017 0.008846 -0.526389 0.012152 -0.005367
    29 -0.027022 -1.096452 -0.028023 -0.513425 0.013471 -0.005429
    30 -0.249534 -2.846964 -0.174213 -1.188173 -0.117610 0.150915
    31 0.043235 -1.660503 0.084293 -0.911632 -0.014926 0.000612
    32 0.031729 -1.153017 0.058838 -0.444965 -0.003900 0.005867
    33 -0.963866 -2.785145 -0.085350 -0.852006 0.019683 -0.162913
    34 0.028479 -1.403067 -0.017167 -0.806424 -0.019091 -0.030609
    35 0.021413 -0.953875 0.020046 -0.326050 -0.004758 -0.014070
    36 1.164475 -2.543940 -0.170330 -1.445709 -0.204580 0.424655
    37 0.024032 -1.129042 0.006088 -0.533409 -0.000635 0.028644
    38 0.014898 -0.887895 -0.019848 -0.376678 -0.002469 0.017509
    39 -0.586770 -1.264477 0.200161 -0.078956 -0.423256 -2.857505
    40 1.526741 0.050868 0.016848 -0.001370 0.004251 0.146860
    41 1.114041 0.048424 -0.005766 -0.012671 -0.033072 0.527313
    42 -0.123774 -0.037477 0.151120 0.996028 -0.489920 1.341151
    43 -7.717882 3.612455 -0.438658 1.574188 -0.030826 -0.524011
  time 3
    0 5.601733 -14.297311 -5.039216 -0.113674 -1.422233 -4.604127
    1 0.181052 0.000000 0.086367 0.000000 2.544161 0.000000
    2 2.883404 -0.000761 -4.242765 0.000000 0.000000 2.443434
    3 -7.790843 0.929159 -9.285817 0.187319 -1.948745 -0.197174
    4 3.481615 -0.582735 -7.540093 0.000000 0.000000 0.610798
    5 1.536357 -3.587312 -3.077600 0.000000 -0.091011 0.000000
    6 7.235821 0.481812 -7.217952 0.397594 -2.342334 -0.490368
    7 7.796442 -1.409601 -0.403721 -1.568261 -0.029045 -3.239814
    8 -0.028951 -8.455766 -0.088509 -0.163389 0.541707 0.113769
    9 -0.488518 -2.755602 -0.228260 -0.972833 0.169296 -0.373837
    10 0.039887 -1.530573 0.014229 -1.448260 -0.012440 0.032096
    11 0.028786 -1.134327 -0.112955 -0.812974 -0.013926 0.016071
    12 0.250027 -2.820665 -0.238396 -0.695721 0.172809 -0.307015
    13 -0.049759 -1.598510 0.037977 -1.504681 0.001318 -0.040630
    14 -0.034142 -1.167844 0.049625 -1.093628 0.007263 -0.028679
    15 0.957766 -2.746780 -0.090302 0.444548 0.207460 0.033062
    16 -0.033420 -1.401035 -0.038602 -1.591768 -0.015688 -0.070986
    17 -0.022360 -0.961342 -0.008561 -1.050750 0.002241 -0.050791
    18 -1.180681 -2.507217 -0.193859 -0.878419 0.301607 -0.301154
    19 -0.024967 -1.123934 0.017597 -0.823686 0.006400 -0.035198
    20 -0.020057 -0.906594 0.033528 -1.043744 0.004698 -0.042809
    21 0.634293 -1.185558 0.181473 0.948036 -0.983663 -0.752914
    22 1.469519 -0.228043 0.071417 0.057235 -0.225142 -0.816496
    23 0.964048 -0.202511 0.051823 0.138994 -0.276703 -1.264904
    24 0.120153 -0.050270 -0.054489 0.287569 3.110905 1.561085
    25 -2.188796 -6.688336 -6.903838 0.554199 -3.944978 1.145153
    26 -0.102281 -8.391823 0.025792 -0.571336 -1.373431 0.000627
    27 0.447953 -2.798986 -0.200443 -1.543079 -0.111103 0.275521
    28 -0.032909 -1.488017 0.008846 -0.521156 0.012033 -0.005283
    29 -0.027022 -1.096452 -0.028023 -0.513425 0.013471 -0.005429
    30 -0.249534 -2.846964 -0.174213 -1.228051 -0.115920 0.152929
    31 0.043235 -1.660503 0.084293 -0.912820 -0.014938 0.000624
    32 0.031729 -1.153017 0.058838 -0.444965 -0.003900 0.005867
    33 -0.963866 -2.785145 -0.085350 -0.885909 0.018425 -0.163368
    34 0.028479 -1.403067 -0.017167 -0.813866 -0.019379 -0.030800
    35 0.021413 -0.953875 0.020046 -0.326050 -0.004758 -0.014070
    36 1.164475 -2.543940 -0.170330 -1.480246 -0.199858 0.425375
    37 0.024032 -1.129042 0.006088 -0.527717 -0.000707 0.028333
    38 0.014898 -0.887895 -0.019848 -0.376678 -0.002469 0.017509
    39 -0.586770 -1.264477 0.200161 -0.085576 -0.417537 -2.857151
    40 1.526741 0.050868 0.016848 -0.001251 0.004407 0.139777
    41 1.114041 0.048424 -0.005766 -0.011784 -0.032748 0.497986
    42 -0.123774 -0.037477 0.151120 0.996028 -0.489920 1.341151
    43 -7.397560 4.354665 -0.423032 1.575926 -0.028848 -0.622518
  time 4
    0 5.617359 -14.629353 -4.871242 -0.101279 -1.412927 -4.616400
    1 0.181052 0.000000 0.086367 0.000000 2.544179 0.000000
    2 2.883404 -0.000761 -4.242765 0.000000 0.000000 2.443434
    3 -7.790843 0.929159 -9.285817 0.187319 -1.948745 -0.197174
    4 3.481615 -0.582735 -7.540093 0.000000 0.000000 0.610798
    5 1.536357 -3.587312 -3.077600 0.000000 -0.091011 0.000000
    6 7.251447 0.102895 -7.174982 0.411779 -2.349288 -0.499173
    7 7.905820 -0.952556 -0.399814 -1.569220 -0.028282 -3.182271
    8 -0.028951 -8.451860 -0.088509 -0.164355 0.544616 0.111515
    9 -0.488518 -2.755602 -0.228260 -0.972833 0.169296 -0.373837
    10 0.039887 -1.530573 0.014229 -1.448260 -0.012440 0.032096
    11 0.028786 -1.134327 -0.112955 -0.812974 -0.013926 0.016071
    12 0.250027 -2.820665 -0.238396 -0.695721 0.172809 -0.307015
    13 -0.049759 -1.598510 0.037977 -1.504681 0.001318 -0.040630
    14 -0.034142 -1.167844 0.049625 -1.093628 0.007263 -0.028679
    15 0.957766 -2.746780 -0.090302 0.447808 0.207328 0.033146
    16 -0.033420 -1.397129 -0.038602 -1.565522 -0.014561 -0.070279
    17 -0.022360 -0.961342 -0.008561 -1.024156 0.002852 -0.049592
    18 -1.180681 -2.507217 -0.193859 -0.878419 0.301607 -0.301154
    19 -0.024967 -1.123934 0.017597 -0.823686 0.006400 -0.035198
    20 -0.020057 -0.906594 0.033528 -1.043744 0.004698 -0.042809
    21 0.634293 -1.185558 0.181473 0.948036 -0.983663 -0.752914
    22 1.469519 -0.228043 0.071417 0.057235 -0.225142 -0.816496
    23 0.964048 -0.202511 0.051823 0.138994 -0.276703 -1.264904
    24 0.120153 -0.050270 -0.054489 0.287569 3.110905 1.561085
    25 -2.016916 -6.887560 -6.583515 0.533902 -3.948329 1.097893
    26 -0.098374 -8.384010 0.021886 -0.725968 -1.375654 0.101951
    27 0.447953 -2.798986 -0.200443 -1.588029 -0.109209 0.275281
    28 -0.032909 -1.488017 0.008846 -0.515552 0.011913 -0.005187
    29 -0.027022 -1.096452 -0.028023 -0.513425 0.013471 -0.005429
    30 -0.249534 -2.846964 -0.174213 -1.270492 -0.114039 0.155002
    31 0.043235 -1.660503 0.084293 -0.914061 -0.014962 0.000636
    32 0.031729 -1.153017 0.058838 -0.444965 -0.003900 0.005867
    33 -0.963866 -2.785145 -0.085350 -0.921948 0.017071 -0.163788
    34 0.028479 -1.403067 -0.017167 -0.821824 -0.019679 -0.031004
    35 0.021413 -0.953875 0.020046 -0.326050 -0.004758 -0.014070
    36 1.164475 -2.543940 -0.170330 -1.516897 -0.194801 0.425950
    37 0.024032 -1.129042 0.006088 -0.521669 -0.000791 0.028009
    38 0.014898 -0.887895 -0.019848 -0.376678 -0.002469 0.017509
    39 -0.586770 -1.264477 0.200161 -0.092614 -0.411416 -2.856818
    40 1.526741 0.050868 0.016848 -0.001131 0.004587 0.132225
    41 1.114041 0.048424 -0.005766 -0.010897 -0.032401 0.468432
    42 -0.123774 -0.037477 0.151120 0.996028 -0.489920 1.341151
    43 -6.995203 5.077344 -0.407407 1.577496 -0.026679 -0.722450
  time 5
    0 5.656423 -14.906705 -5.179846 -0.018259 -1.449352 -4.697798
    1 0.181052 0.000000 0.086367 0.000000 2.544161 0.000000
    2 2.883404 -0.000761 -4.242765 0.000000 0.000000 2.443434
    3 -7.790843 0.929159 -9.285817 0.187319 -1.948745 -0.197174
    4 3.481615 -0.582735 -7.540093 0.000000 0.000000 0.610798
    5 1.536357 -3.587312 -3.077600 0.000000 -0.091011 0.000000
    6 7.216290 -0.029922 -7.202326 0.383504 -2.331581 -0.478288
    7 7.968322 -0.612701 -0.395908 -1.569891 -0.027711 -3.139403
    8 -0.025045 -8.451860 -0.088509 -0.170070 0.554641 0.102595
    9 -0.488518 -2.755602 -0.228260 -0.972833 0.169296 -0.373837
    10 0.039887 -1.530573 0.014229 -1.448260 -0.012440 0.032096
    11 0.028786 -1.134327 -0.112955 -0.812974 -0.013926 0.016071
    12 0.250027 -2.820665 -0.238396 -0.695721 0.172809 -0.307015
    13 -0.049759 -1.598510 0.037977 -1.504681 0.001318 -0.040630
    14 -0.034142 -1.167844 0.049625 -1.093628 0.007263 -0.028679
    15 0.957766 -2.746780 -0.090302 0.446705 0.207376 0.033122
    16 -0.033420 -1.401035 -0.038602 -1.574387 -0.014945 -0.070518
    17 -0.022360 -0.961342 -0.008561 -1.033130 0.002649 -0.050000
    18 -1.180681 -2.507217 -0.193859 -0.878419 0.301607 -0.301154
    19 -0.024967 -1.123934 0.017597 -0.823686 0.006400 -0.035198
    20 -0.020057 -0.906594 0.033528 -1.043744 0.004698 -0.042809
    21 0.634293 -1.185558 0.181473 0.948036 -0.983663 -0.752914
    22 1.469519 -0.228043 0.071417 0.057235 -0.225142 -0.816496
    23 0.964048 -0.202511 0.051823 0.138994 -0.276703 -1.264904
    24 0.120153 -0.050270 -0.054489 0.287569 3.110905 1.561085
    25 -1.970039 -6.930530 -6.567890 0.473162 -3.969053 1.029347
    26 -0.098374 -8.380104 0.017980 -0.852539 -1.383019 0.195030
    27 0.447953 -2.798986 -0.200443 -1.627542 -0.107567 0.274993
    28 -0.032909 -1.488017 0.008846 -0.510643 0.011793 -0.005103
    29 -0.027022 -1.096452 -0.028023 -0.513425 0.013471 -0.005429
    30 -0.249534 -2.846964 -0.174213 -1.307761 -0.112313 0.156752
    31 0.043235 -1.660503 0.084293 -0.915140 -0.014986 0.000636
    32 0.031729 -1.153017 0.058838 -0.444965 -0.003900 0.005867
    33 -0.963866 -2.785145 -0.085350 -0.953674 0.015872 -0.164123
    34 0.028479 -1.403067 -0.017167 -0.828801 -0.019930 -0.031184
    35 0.021413 -0.953875 0.020046 -0.326050 -0.004758 -0.014070
    36 1.164475 -2.543940 -0.170330 -1.549115 -0.190354 0.426297
    37 0.024032 -1.129042 0.006088 -0.516384 -0.000851 0.027709
    38 0.014898 -0.887895 -0.019848 -0.376678 -0.002469 0.017509
    39 -0.586770 -1.264477 0.200161 -0.098765 -0.406073 -2.856568
    40 1.526741 0.054775 0.016848 -0.001023 0.004742 0.125579
    41 1.117947 0.048424 -0.005766 -0.010034 -0.032029 0.439334
    42 -0.123774 -0.037477 0.151120 0.996028 -0.489920 1.341151
    43 -6.702226 5.518763 -0.399594 1.578383 -0.025205 -0.787046
  time 6
    0 5.707205 -15.195776 -5.765801 0.281004 -1.507000 1.288807
    1 0.181052 0.000000 0.086367 0.000000 2.544161 0.000000
    2 2.883404 -0.000761 -4.242765 0.000000 0.000000 2.443434
    3 -7.790843 0.929159 -9.285817 0.187319 -1.948745 -0.197174
    4 3.481615 -0.582735 -7.540093 0.000000 0.000000 0.610798
    5 1.536357 -3.587312 -3.077600 0.000000 -0.091011 0.000000
    6 7.161600 -0.092424 -7.268735 0.328954 -2.302547 -0.438089
    7 8.023011 -0.241596 -0.392002 -1.570562 -0.026949 -3.093762
    8 -0.021138 -8.447954 -0.084602 -0.178435 0.568573 0.089774
    9 -0.488518 -2.755602 -0.228260 -0.972833 0.169296 -0.373837
    10 0.039887 -1.530573 0.014229 -1.448260 -0.012440 0.032096
    11 0.028786 -1.134327 -0.112955 -0.812974 -0.013926 0.016071
    12 0.250027 -2.820665 -0.238396 -0.695721 0.172809 -0.307015
    13 -0.049759 -1.598510 0.037977 -1.504681 0.001318 -0.040630
    14 -0.034142 -1.167844 0.049625 -1.093628 0.007263 -0.028679
    15 0.957766 -2.746780 -0.090302 0.444884 0.207448 0.033074
    16 -0.033420 -1.401035 -0.038602 -1.589128 -0.015568 -0.070914
    17 -0.022360 -0.961342 -0.008561 -1.048077 0.002301 -0.050671
    18 -1.180681 -2.507217 -0.193859 -0.878390 0.301607 -0.301154
    19 -0.024967 -1.123934 0.017597 -0.823686 0.006400 -0.035198
    20 -0.020057 -0.906594 0.033528 -1.043744 0.004698 -0.042809
    21 0.634293 -1.185558 0.181473 0.948036 -0.983663 -0.752914
    22 1.469519 -0.228043 0.071417 0.057235 -0.225142 -0.816496
    23 0.964048 -0.202511 0.051823 0.138994 -0.276703 -1.264904
    24 0.120153 -0.050270 -0.054489 0.287569 3.110905 1.561085
    25 -1.954414 -6.903186 -6.696800 0.381376 -3.999035 0.937922
    26 -0.098374 -8.376197 0.014073 -0.959455 -1.393023 0.276623
    27 0.447953 -2.798986 -0.200443 -1.653436 -0.106488 0.274778
    28 -0.032909 -1.488017 0.008846 -0.507447 0.011721 -0.005044
    29 -0.027022 -1.096452 -0.028023 -0.513425 0.013471 -0.005429
    30 -0.249534 -2.846964 -0.174213 -1.332173 -0.111138 0.157854
    31 0.043235 -1.660503 0.084293 -0.915842 -0.014998 0.000648
    32 0.031729 -1.153017 0.058838 -0.444965 -0.003900 0.005867
    33 -0.963866 -2.785145 -0.085350 -0.974426 0.015081 -0.164327
    34 0.028479 -1.403067 -0.017167 -0.833401 -0.020110 -0.031292
    35 0.021413 -0.953875 0.020046 -0.326050 -0.004758 -0.014070
    36 1.164475 -2.543940 -0.170330 -1.570198 -0.187430 0.426453
    37 0.024032 -1.129042 0.006088 -0.512877 -0.000899 0.027518
    38 0.014898 -0.887895 -0.019848 -0.376678 -0.002469 0.017509
    39 -0.586770 -1.264477 0.200161 -0.102805 -0.402561 -2.856422
    40 1.526741 0.054775 0.016848 -0.000951 0.004838 0.121211
    41 1.117947 0.048424 -0.005766 -0.009219 -0.031646 0.411213
    42 -0.123774 -0.037477 0.151120 0.996028 -0.489920 1.341151
    43 -6.401435 5.909400 -0.387875 1.579126 -0.023791 -0.846690
  time 7
    0 5.746269 -15.434065 -6.363475 1.493128 -1.534919 0.079521
    1 0.181052 0.000000 0.086367 0.000000 2.544161 0.000000
    2 2.883404 -0.000761 -4.242765 0.000000 0.000000 2.443434
    3 -7.790843 0.929159 -9.285817 0.187319 -1.948745 -0.197174
    4 3.481615 -0.582735 -7.540093 0.000000 0.000000 0.610798
    5 1.536357 -3.587312 -3.077600 0.000000 -0.091011 0.000000
    6 7.106911 -0.131487 -7.335143 0.270310 -2.276668 -0.394136
    7 8.054262 0.098258 -0.384189 1.570438 -3.115207 0.089792
    8 -0.021138 -8.447954 -0.084602 -0.186138 0.581762 0.078056
    9 -0.488518 -2.755602 -0.228260 -0.972833 0.169296 -0.373837
    10 0.039887 -1.530573 0.014229 -1.448260 -0.012440 0.032096
    11 0.028786 -1.134327 -0.112955 -0.812974 -0.013926 0.016071
    12 0.250027 -2.820665 -0.238396 -0.695721 0.172809 -0.307015
    13 -0.049759 -1.598510 0.037977 -1.504681 0.001318 -0.040630
    14 -0.034142 -1.167844 0.049625 -1.093628 0.007263 -0.028679
    15 0.957766 -2.746780 -0.090302 0.444516 0.207472 0.033062
    16 -0.033420 -1.401035 -0.038602 -1.592067 -0.015700 -0.070998
    17 -0.022360 -0.961342 -0.008561 -1.051080 0.002229 -0.050815
    18 -1.180681 -2.507217 -0.193859 -0.878419 0.301607 -0.301154
    19 -0.024967 -1.123934 0.017597 -0.823686 0.006400 -0.035198
    20 -0.020057 -0.906594 0.033528 -1.043744 0.004698 -0.042809
    21 0.634293 -1.185558 0.181473 0.948036 -0.983663 -0.752914
    22 1.469519 -0.228043 0.071417 0.057235 -0.225142 -0.816496
    23 0.964048 -0.202511 0.051823 0.138994 -0.276703 -1.264904
    24 0.120153 -0.050270 -0.054489 0.287569 3.110905 1.561085
    25 -1.934882 -6.856309 -6.853055 0.289589 -4.026372 0.849029
    26 -0.098374 -8.372291 0.014073 -1.021793 -1.401568 0.323805
    27 0.447953 -2.798986 -0.200443 -1.657473 -0.106321 0.274730
    28 -0.032909 -1.488017 0.008846 -0.506938 0.011709 -0.005044
    29 -0.027022 -1.096452 -0.028023 -0.513425 0.013471 -0.005429
    30 -0.249534 -2.846964 -0.174213 -1.335993 -0.110958 0.158034
    31 0.043235 -1.660503 0.084293 -0.916003 -0.014998 0.000648
    32 0.031729 -1.153017 0.058838 -0.444965 -0.003900 0.005867
    33 -0.963866 -2.785145 -0.085350 -0.977713 0.014949 -0.164363
    34 0.028479 -1.403067 -0.017167 -0.834124 -0.020134 -0.031316
    35 0.021413 -0.953875 0.020046 -0.326050 -0.004758 -0.014070
    36 1.164475 -2.543940 -0.170330 -1.573549 -0.186963 0.426465
    37 0.024032 -1.129042 0.006088 -0.512318 -0.000899 0.027494
    38 0.014898 -0.887895 -0.019848 -0.376678 -0.002469 0.017509
    39 -0.586770 -1.264477 0.200161 -0.103430 -0.402009 -2.856401
    40 1.526741 0.054775 0.016848 -0.000939 0.004862 0.120524
    41 1.117947 0.048424 -0.005766 -0.008452 -0.031262 0.384721
    42 -0.123774 -0.037477 0.151120 0.996028 -0.489920 1.341151
    43 -6.131896 6.225816 -0.380062 1.579677 -0.022556 -0.897407
  time 8
    0 5.765801 -15.605945 -6.679891 2.118495 -1.517527 -0.543962
    1 0.181052 0.000000 0.086367 0.000000 2.544161 0.000000
    2 2.883404 -0.000761 -4.242765 0.000000 0.000000 2.443434
    3 -7.790843 0.929159 -9.285817 0.187319 -1.948745 -0.197174
    4 3.481615 -0.582735 -7.540093 0.000000 0.000000 0.610798
    5 1.536357 -3.587312 -3.077600 0.000000 -0.091011 0.000000
    6 7.075660 -0.201802 -7.366394 0.237085 -2.264481 -0.368406
    7 8.069888 0.359985 -0.384189 1.569959 -3.115683 0.121798
    8 -0.017232 -8.444047 -0.084602 -0.189533 0.589705 0.072757
    9 -0.488518 -2.755602 -0.228260 -0.972833 0.169296 -0.373837
    10 0.039887 -1.530573 0.014229 -1.448260 -0.012440 0.032096
    11 0.028786 -1.134327 -0.112955 -0.812974 -0.013926 0.016071
    12 0.250027 -2.820665 -0.238396 -0.695721 0.172809 -0.307015
    13 -0.049759 -1.598510 0.037977 -1.504681 0.001318 -0.040630
    14 -0.034142 -1.167844 0.049625 -1.093628 0.007263 -0.028679
    15 0.957766 -2.746780 -0.090302 0.447808 0.207328 0.033146
    16 -0.033420 -1.397129 -0.038602 -1.565522 -0.014561 -0.070279
    17 -0.022360 -0.961342 -0.008561 -1.024156 0.002852 -0.049592
    18 -1.180681 -2.507217 -0.193859 -0.878390 0.301607 -0.301154
    19 -0.024967 -1.123934 0.017597 -0.823686 0.006400 -0.035198
    20 -0.020057 -0.906594 0.033528 -1.043744 0.004698 -0.042809
    21 0.634293 -1.185558 0.181473 0.948036 -0.983663 -0.752914
    22 1.469519 -0.228043 0.071417 0.057235 -0.225142 -0.816496
    23 0.964048 -0.202511 0.051823 0.138994 -0.276703 -1.264904
    24 0.120153 -0.050270 -0.054489 0.287569 3.110905 1.561085
    25 -1.888006 -6.832871 -6.923370 0.237870 -4.044627 0.796612
    26 -0.098374 -8.372291 0.014073 -1.003855 -1.405876 0.303979
    27 0.447953 -2.798986 -0.200443 -1.631634 -0.107399 0.274957
    28 -0.032909 -1.488017 0.008846 -0.510133 0.011781 -0.005091
    29 -0.027022 -1.096452 -0.028023 -0.513425 0.013471 -0.005429
    30 -0.249534 -2.846964 -0.174213 -1.311581 -0.112121 0.156919
    31 0.043235 -1.660503 0.084293 -0.915248 -0.014986 0.000648
    32 0.031729 -1.153017 0.058838 -0.444965 -0.003900 0.005867
    33 -0.963866 -2.785145 -0.085350 -0.956961 0.015752 -0.164159
    34 0.028479 -1.403067 -0.017167 -0.829525 -0.019966 -0.031196
    35 0.021413 -0.953875 0.020046 -0.326050 -0.004758 -0.014070
    36 1.164475 -2.543940 -0.170330 -1.552465 -0.189887 0.426333
    37 0.024032 -1.129042 0.006088 -0.515825 -0.000863 0.027685
    38 0.014898 -0.887895 -0.019848 -0.376678 -0.002469 0.017509
    39 -0.586770 -1.264477 0.200161 -0.099416 -0.405521 -2.856547
    40 1.526741 0.054775 0.016848 -0.001011 0.004754 0.124893
    41 1.117947 0.048424 -0.005766 -0.007769 -0.030903 0.360446
    42 -0.123774 -0.037477 0.151120 0.996028 -0.489920 1.341151
    43 -5.928765 6.444573 -0.372250 1.580037 -0.021646 -0.933868
  time 9
    0 5.769707 -15.754387 -6.664266 2.093170 -1.516475 -0.517788
    1 0.181052 0.000000 0.086367 0.000000 2.643745 0.000000
    2 2.883404 -0.000761 -4.242765 0.000000 0.000000 2.443434
    3 -7.790843 0.929159 -9.285817 0.187319 -1.948745 -0.197174
    4 3.481615 -0.582735 -7.540093 0.000000 0.000000 0.610798
    5 1.536357 -3.614657 -3.077600 0.000000 -0.091011 0.000000
    6 7.067847 -0.322900 -7.350768 0.235752 -2.265270 -0.366222
    7 8.077701 0.539678 -0.380282 1.569671 -3.116064 0.143983
    8 -0.017232 -8.444047 -0.084602 -0.188015 0.591999 0.074699
    9 -0.488518 -2.755602 -0.228260 -0.972833 0.169296 -0.373837
    10 0.039887 -1.530573 0.014229 -1.448217 -0.012440 0.032096
    11 0.028786 -1.134327 -0.112955 -0.812974 -0.013926 0.016071
    12 0.250027 -2.820665 -0.238396 -0.695721 0.172809 -0.307015
    13 -0.049759 -1.598510 0.037977 -1.504681 0.001318 -0.040630
    14 -0.034142 -1.167844 0.049625 -1.093628 0.007263 -0.028679
    15 0.957766 -2.746780 -0.090302 0.455063 0.207004 0.033337
    16 -0.033420 -1.397129 -0.038602 -1.507103 -0.012140 -0.068589
    17 -0.022360 -0.961342 -0.004654 -0.964995 0.004087 -0.046872
    18 -1.180681 -2.507217 -0.193859 -0.878419 0.301607 -0.301154
    19 -0.024967 -1.123934 0.017597 -0.823686 0.006400 -0.035198
    20 -0.020057 -0.906594 0.033528 -1.043744 0.004698 -0.042809
    21 0.634293 -1.185558 0.181473 0.948036 -0.983663 -0.752914
    22 1.469519 -0.228043 0.071417 0.057235 -0.225142 -0.816496
    23 0.964048 -0.202511 0.051823 0.138994 -0.276703 -1.264904
    24 0.120153 -0.050270 -0.054489 0.287569 3.110905 1.561085
    25 -1.809878 -6.844590 -6.892119 0.236968 -4.057678 0.791173
    26 -0.098374 -8.376197 0.017980 -0.881369 -1.404833 0.196841
    27 0.447953 -2.798986 -0.200443 -1.567627 -0.110072 0.275401
    28 -0.032909 -1.488017 0.008846 -0.518099 0.011973 -0.005235
    29 -0.027022 -1.096452 -0.028023 -0.513425 0.013471 -0.005429
    30 -0.249534 -2.846964 -0.174213 -1.251205 -0.114901 0.154067
    31 0.043235 -1.660503 0.084293 -0.913467 -0.014950 0.000624
    32 0.031729 -1.153017 0.058838 -0.444965 -0.003900 0.005867
    33 -0.963866 -2.785145 -0.085350 -0.905594 0.017694 -0.163608
    34 0.028479 -1.403067 -0.017167 -0.818207 -0.019535 -0.030908
    35 0.021413 -0.953875 0.020046 -0.326050 -0.004758 -0.014070
    36 1.164475 -2.543940 -0.170330 -1.500247 -0.197102 0.425710
    37 0.024032 -1.129042 0.006088 -0.524414 -0.000755 0.028153
    38 0.014898 -0.887895 -0.019848 -0.376678 -0.002469 0.017509
    39 -0.586770 -1.264477 0.200161 -0.089408 -0.414201 -2.856963
    40 1.526741 0.050868 0.016848 -0.001191 0.004503 0.135658
    41 1.117947 0.048424 -0.005766 -0.007170 -0.030555 0.339005
    42 -0.123774 -0.037477 0.151120 0.996028 -0.489920 1.341151
    43 -5.811574 6.561764 -0.368343 1.580229 -0.021154 -0.953675
  time 10
    0 5.773614 -15.926267 -6.504105 1.848748 -1.523507 -0.273016
    1 0.181052 0.000000 0.086367 0.000000 2.743311 0.000000
    2 2.883404 -0.000761 -4.242765 0.000000 0.000000 2.443434
    3 -7.790843 0.929159 -9.285817 0.187319 -1.948745 -0.197174
    4 3.481615 -0.582735 -7.540093 0.000000 0.000000 0.610798
    5 1.536357 -3.684971 -3.077600 0.000000 -0.091011 0.000000
    6 7.071754 -0.463529 -7.311705 0.248128 -2.271220 -0.374139
    7 8.081607 0.680307 -0.376376 1.569384 -3.116350 0.161431
    8 -0.017232 -8.447954 -0.084602 -0.184122 0.591829 0.080138
    9 -0.488518 -2.755602 -0.228260 -0.972833 0.169296 -0.373837
    10 0.039887 -1.530573 0.014229 -1.448260 -0.012440 0.032096
    11 0.028786 -1.134327 -0.112955 -0.812974 -0.013926 0.016071
    12 0.250027 -2.820665 -0.238396 -0.695721 0.172809 -0.307015
    13 -0.049759 -1.598510 0.037977 -1.504681 0.001318 -0.040630
    14 -0.034142 -1.167844 0.049625 -1.093628 0.007263 -0.028679
    15 0.957766 -2.746780 -0.090302 0.464491 0.206597 0.033577
    16 -0.033420 -1.397129 -0.034695 -1.431103 -0.009132 -0.066192
    17 -0.022360 -0.961342 -0.004654 -0.887984 0.005453 -0.043228
    18 -1.180681 -2.507217 -0.193859 -0.878419 0.301607 -0.301154
    19 -0.024967 -1.123934 0.017597 -0.823686 0.006400 -0.035198
    20 -0.020057 -0.906594 0.033528 -1.043744 0.004698 -0.042809
    21 0.634293 -1.185558 0.181473 0.948036 -0.983663 -0.752914
    22 1.469519 -0.228043 0.071417 0.057235 -0.225142 -0.816496
    23 0.964048 -0.202511 0.051823 0.138994 -0.276703 -1.264904
    24 0.120153 -0.050270 -0.054489 0.287569 3.110905 1.561085
    25 -1.720032 -6.852403 -6.853055 0.266135 -4.073816 0.816491
    26 -0.098374 -8.387917 0.021886 -0.651256 -1.395802 0.003344
    27 0.447953 -2.798986 -0.200443 -1.457270 -0.114722 0.275748
    28 -0.032909 -1.488017 0.008846 -0.531807 0.012284 -0.005463
    29 -0.027022 -1.096452 -0.028023 -0.513425 0.013471 -0.005429
    30 -0.249534 -2.846964 -0.174213 -1.147037 -0.119276 0.148758
    31 0.043235 -1.660503 0.084293 -0.910391 -0.014902 0.000600
    32 0.031729 -1.153017 0.058838 -0.444965 -0.003900 0.005867
    33 -0.963866 -2.785145 -0.085350 -0.817035 0.020966 -0.162409
    34 0.028479 -1.403067 -0.017167 -0.798724 -0.018804 -0.030417
    35 0.021413 -0.953875 0.020046 -0.326050 -0.004758 -0.014070
    36 1.164475 -2.543940 -0.170330 -1.410038 -0.209422 0.423745
    37 0.024032 -1.132948 0.006088 -0.539254 -0.000563 0.028968
    38 0.014898 -0.887895 -0.019848 -0.376678 -0.002469 0.017509
    39 -0.586770 -1.264477 0.200161 -0.072101 -0.429176 -2.857922
    40 1.526741 0.050868 0.016848 -0.001490 0.004083 0.154192
    41 1.117947 0.048424 -0.005766 -0.006667 -0.030267 0.321018
    42 -0.123774 -0.037477 0.151120 0.996028 -0.489920 1.341151
    43 -5.792042 6.581296 -0.368343 1.580253 -0.021070 -0.956976
end
