version 1
nodes
  0 "Bone01" -1
  1 "Bone_Lefthand" 0
  2 "Bone02" 1
  3 "Bone03" 2
  4 "Bone52" 3
  5 "Bone25" 3
  6 "Bone50" 3
  7 "Bone48" 3
  8 "Bone 04" 1
  9 "Bone13" 8
  10 "Bone14" 9
  11 "Bone15" 10
  12 "Bone17" 8
  13 "Bone18" 12
  14 "Bone19" 13
  15 "Bone21" 8
  16 "Bone22" 15
  17 "Bone23" 16
  18 "Bone05" 8
  19 "Bone06" 18
  20 "Bone07" 19
  21 "Bone09" 8
  22 "Bone10" 21
  23 "Bone11" 22
  24 "Bone04" -1
  25 "Bone_Righthand" 24
  26 "Bone26" 25
  27 "Bone35" 26
  28 "Bone36" 27
  29 "Bone37" 28
  30 "Bone31" 26
  31 "Bone32" 30
  32 "Bone33" 31
  33 "Bone39" 26
  34 "Bone40" 33
  35 "Bone41" 34
  36 "Bone43" 26
  37 "Bone44" 36
  38 "Bone45" 37
  39 "Bone27" 26
  40 "Bone28" 39
  41 "Bone29" 40
end
skeleton
  time 0
    0 8.106566 4.665702 -7.194028 -0.774218 -1.331349 0.567278
    1 -0.001748 -8.563255 -0.000751 0.347509 -0.125210 -0.169542
    2 -0.219101 -3.426991 0.819250 -1.247037 1.437605 -1.233844
    3 0.000000 2.338130 0.839328 0.000000 0.000000 0.000000
    4 0.000001 -5.493101 2.360611 0.000000 0.000000 0.000000
    5 0.000001 -3.357312 1.408873 0.000000 0.000000 0.000000
    6 0.000001 -6.122600 1.221523 0.000000 0.000000 0.000000
    7 0.000000 -2.229289 1.941594 0.000000 0.000000 0.000000
    8 -0.003479 -0.404829 0.000000 0.000000 0.000000 0.000000
    9 -0.519310 -2.501155 -0.278957 -1.003564 0.000000 -0.122173
    10 -0.010598 -1.208185 0.000000 -1.148417 0.000000 0.000000
    11 0.000000 -0.763066 0.000000 -0.841249 0.000000 0.000000
    12 0.105980 -2.607135 -0.278957 -0.795871 0.000000 -0.148353
    13 0.000000 -1.250579 0.000000 -1.296776 0.000000 0.000000
    14 0.000000 -0.932634 0.000000 -0.886645 0.000000 0.000000
    15 0.763063 -2.490556 -0.278957 -0.346932 0.039309 0.239193
    16 -0.012323 -1.280918 0.000000 -0.322892 0.000000 0.000000
    17 -0.001696 -0.749371 0.000000 -0.593412 0.000000 0.000000
    18 0.354566 0.016267 0.318133 0.834772 -0.606745 -1.212439
    19 1.887166 0.012878 0.000000 -0.305433 0.000000 -0.401426
    20 1.001874 -0.000270 0.000000 0.000000 0.000000 -0.488692
    21 -1.123360 -2.195093 -0.278957 -0.933751 0.000000 -0.087266
    22 0.010772 -0.963792 0.000000 -0.610865 0.000000 0.000000
    23 -0.010412 -0.631916 0.000000 -1.370074 0.000000 0.000000
    24 1.688039 -7.423816 -8.307190 -0.497140 0.471883 0.200013
    25 0.089930 -8.543161 -0.000001 0.082474 -0.537511 0.530890
    26 0.000000 -0.359712 0.000000 0.000000 0.000000 0.000000
    27 -0.170479 -2.636147 -0.277657 -1.692969 0.000000 0.000000
    28 0.010599 -1.261176 0.000002 -0.253073 0.000000 0.000000
    29 -0.000001 -0.943233 -0.000002 -0.532326 0.000000 0.000000
    30 -0.827563 -2.508972 -0.277657 -1.396263 0.000000 0.000000
    31 0.000000 -1.292971 0.000001 -0.445059 0.000000 0.000000
    32 0.000000 -0.752465 0.000000 -0.445059 0.000000 0.000000
    33 0.444213 -2.561959 -0.277657 -1.727307 -0.046226 -0.024599
    34 0.021022 -1.208186 0.000001 -0.427606 0.000000 0.000000
    35 0.010597 -0.741867 -0.000001 -0.453786 0.000000 0.000000
    36 1.047445 -2.222820 -0.277657 -1.508123 -0.078971 -0.038609
    37 0.000000 -0.996224 -0.000002 -0.863938 0.000000 0.000000
    38 -0.000001 -0.614690 0.000000 -0.523599 0.000000 0.000000
    39 -0.308253 -0.007813 0.307166 -0.179973 -0.326092 -2.616278
    40 1.978376 0.019542 -0.000001 -0.084829 -0.033819 0.254889
    41 0.982425 0.003186 0.000001 0.000000 0.000000 0.326398
  time 1
    0 8.106566 4.665702 -7.194028 -0.774218 -1.331349 0.567278
    1 -0.001748 -8.563255 -0.000751 0.347509 -0.125210 -0.169542
    2 -0.219101 -3.426991 0.819250 -1.247037 1.437605 -1.233844
    3 0.000000 2.338130 0.839328 0.000000 0.000000 0.000000
    4 0.000001 -5.493101 2.360611 0.000000 0.000000 0.000000
    5 0.000001 -3.357312 1.408873 0.000000 0.000000 0.000000
    6 0.000001 -6.122600 1.221523 0.000000 0.000000 0.000000
    7 0.000000 -2.229289 1.941594 0.000000 0.000000 0.000000
    8 -0.003479 -0.404829 0.000000 0.000000 0.000000 0.000000
    9 -0.519310 -2.501155 -0.278957 -1.003564 0.000000 -0.122173
    10 -0.010598 -1.208185 0.000000 -1.148417 0.000000 0.000000
    11 0.000000 -0.763066 0.000000 -0.841249 0.000000 0.000000
    12 0.105980 -2.607135 -0.278957 -0.795871 0.000000 -0.148353
    13 0.000000 -1.250579 0.000000 -1.296776 0.000000 0.000000
    14 0.000000 -0.932634 0.000000 -0.886645 0.000000 0.000000
    15 0.763063 -2.490556 -0.278957 -0.346932 0.039309 0.239193
    16 -0.012323 -1.280918 0.000000 -0.322892 0.000000 0.000000
    17 -0.001696 -0.749371 0.000000 -0.593412 0.000000 0.000000
    18 0.354566 0.016267 0.318133 0.834772 -0.606745 -1.212439
    19 1.887166 0.012878 0.000000 -0.305433 0.000000 -0.401426
    20 1.001874 -0.000270 0.000000 0.000000 0.000000 -0.488692
    21 -1.123360 -2.195093 -0.278957 -0.933751 0.000000 -0.087266
    22 0.010772 -0.963792 0.000000 -0.610865 0.000000 0.000000
    23 -0.010412 -0.631916 0.000000 -1.370074 0.000000 0.000000
    24 1.688039 -7.423816 -8.307190 -0.497140 0.471883 0.200013
    25 0.089930 -8.543161 -0.000001 0.082474 -0.537511 0.530890
    26 0.000000 -0.359712 0.000000 0.000000 0.000000 0.000000
    27 -0.170479 -2.636147 -0.277657 -1.692969 0.000000 0.000000
    28 0.010599 -1.261176 0.000002 -0.253073 0.000000 0.000000
    29 -0.000001 -0.943233 -0.000002 -0.532326 0.000000 0.000000
    30 -0.827563 -2.508972 -0.277657 -1.396263 0.000000 0.000000
    31 0.000000 -1.292971 0.000001 -0.445059 0.000000 0.000000
    32 0.000000 -0.752465 0.000000 -0.445059 0.000000 0.000000
    33 0.444213 -2.561959 -0.277657 -1.727307 -0.046226 -0.024599
    34 0.021022 -1.208186 0.000001 -0.427606 0.000000 0.000000
    35 0.010597 -0.741867 -0.000001 -0.453786 0.000000 0.000000
    36 1.047445 -2.222820 -0.277657 -1.508123 -0.078971 -0.038609
    37 0.000000 -0.996224 -0.000002 -0.863938 0.000000 0.000000
    38 -0.000001 -0.614690 0.000000 -0.523599 0.000000 0.000000
    39 -0.308253 -0.007813 0.307166 -0.179973 -0.326092 -2.616278
    40 1.978376 0.019542 -0.000001 -0.084829 -0.033819 0.254889
    41 0.982425 0.003186 0.000001 0.000000 0.000000 0.326398
  time 2
    0 8.106566 4.665702 -7.194028 -0.774218 -1.331349 0.567278
    1 -0.001748 -8.563255 -0.000751 0.347509 -0.125210 -0.169542
    2 -0.219101 -3.426991 0.819250 -1.247037 1.437605 -1.233844
    3 0.000000 2.338130 0.839328 0.000000 0.000000 0.000000
    4 0.000001 -5.493101 2.360611 0.000000 0.000000 0.000000
    5 0.000001 -3.357312 1.408873 0.000000 0.000000 0.000000
    6 0.000001 -6.122600 1.221523 0.000000 0.000000 0.000000
    7 0.000000 -2.229289 1.941594 0.000000 0.000000 0.000000
    8 -0.003479 -0.404829 0.000000 0.000000 0.000000 0.000000
    9 -0.519310 -2.501155 -0.278957 -1.003564 0.000000 -0.122173
    10 -0.010598 -1.208185 0.000000 -1.148417 0.000000 0.000000
    11 0.000000 -0.763066 0.000000 -0.841249 0.000000 0.000000
    12 0.105980 -2.607135 -0.278957 -0.795871 0.000000 -0.148353
    13 0.000000 -1.250579 0.000000 -1.296776 0.000000 0.000000
    14 0.000000 -0.932634 0.000000 -0.886645 0.000000 0.000000
    15 0.763063 -2.490556 -0.278957 -0.346932 0.039309 0.239193
    16 -0.012323 -1.280918 0.000000 -0.322892 0.000000 0.000000
    17 -0.001696 -0.749371 0.000000 -0.593412 0.000000 0.000000
    18 0.354566 0.016267 0.318133 0.834772 -0.606745 -1.212439
    19 1.887166 0.012878 0.000000 -0.305433 0.000000 -0.401426
    20 1.001874 -0.000270 0.000000 0.000000 0.000000 -0.488692
    21 -1.123360 -2.195093 -0.278957 -0.933751 0.000000 -0.087266
    22 0.010772 -0.963792 0.000000 -0.610865 0.000000 0.000000
    23 -0.010412 -0.631916 0.000000 -1.370074 0.000000 0.000000
    24 1.688039 -7.423816 -8.307190 -0.497140 0.471883 0.200013
    25 0.089930 -8.543161 -0.000001 0.082474 -0.537511 0.530890
    26 0.000000 -0.359712 0.000000 0.000000 0.000000 0.000000
    27 -0.170479 -2.636147 -0.277657 -1.692969 0.000000 0.000000
    28 0.010599 -1.261176 0.000002 -0.253073 0.000000 0.000000
    29 -0.000001 -0.943233 -0.000002 -0.532326 0.000000 0.000000
    30 -0.827563 -2.508972 -0.277657 -1.396263 0.000000 0.000000
    31 0.000000 -1.292971 0.000001 -0.445059 0.000000 0.000000
    32 0.000000 -0.752465 0.000000 -0.445059 0.000000 0.000000
    33 0.444213 -2.561959 -0.277657 -1.727307 -0.046226 -0.024599
    34 0.021022 -1.208186 0.000001 -0.427606 0.000000 0.000000
    35 0.010597 -0.741867 -0.000001 -0.453786 0.000000 0.000000
    36 1.047445 -2.222820 -0.277657 -1.508123 -0.078971 -0.038609
    37 0.000000 -0.996224 -0.000002 -0.863938 0.000000 0.000000
    38 -0.000001 -0.614690 0.000000 -0.523599 0.000000 0.000000
    39 -0.308253 -0.007813 0.307166 -0.179973 -0.326092 -2.616278
    40 1.978376 0.019542 -0.000001 -0.084829 -0.033819 0.254889
    41 0.982425 0.003186 0.000001 0.000000 0.000000 0.326398
  time 3
    0 8.106566 4.665702 -7.194028 -0.774218 -1.331349 0.567278
    1 -0.001748 -8.563255 -0.000751 0.347509 -0.125210 -0.169542
    2 -0.219101 -3.426991 0.819250 -1.247037 1.437605 -1.233844
    3 0.000000 2.338130 0.839328 0.000000 0.000000 0.000000
    4 0.000001 -5.493101 2.360611 0.000000 0.000000 0.000000
    5 0.000001 -3.357312 1.408873 0.000000 0.000000 0.000000
    6 0.000001 -6.122600 1.221523 0.000000 0.000000 0.000000
    7 0.000000 -2.229289 1.941594 0.000000 0.000000 0.000000
    8 -0.003479 -0.404829 0.000000 0.000000 0.000000 0.000000
    9 -0.519310 -2.501155 -0.278957 -1.003564 0.000000 -0.122173
    10 -0.010598 -1.208185 0.000000 -1.148417 0.000000 0.000000
    11 0.000000 -0.763066 0.000000 -0.841249 0.000000 0.000000
    12 0.105980 -2.607135 -0.278957 -0.795871 0.000000 -0.148353
    13 0.000000 -1.250579 0.000000 -1.296776 0.000000 0.000000
    14 0.000000 -0.932634 0.000000 -0.886645 0.000000 0.000000
    15 0.763063 -2.490556 -0.278957 -0.346932 0.039309 0.239193
    16 -0.012323 -1.280918 0.000000 -0.322892 0.000000 0.000000
    17 -0.001696 -0.749371 0.000000 -0.593412 0.000000 0.000000
    18 0.354566 0.016267 0.318133 0.834772 -0.606745 -1.212439
    19 1.887166 0.012878 0.000000 -0.305433 0.000000 -0.401426
    20 1.001874 -0.000270 0.000000 0.000000 0.000000 -0.488692
    21 -1.123360 -2.195093 -0.278957 -0.933751 0.000000 -0.087266
    22 0.010772 -0.963792 0.000000 -0.610865 0.000000 0.000000
    23 -0.010412 -0.631916 0.000000 -1.370074 0.000000 0.000000
    24 1.688039 -7.423816 -8.307190 -0.497140 0.471883 0.200013
    25 0.089930 -8.543161 -0.000001 0.082474 -0.537511 0.530890
    26 0.000000 -0.359712 0.000000 0.000000 0.000000 0.000000
    27 -0.170479 -2.636147 -0.277657 -1.692969 0.000000 0.000000
    28 0.010599 -1.261176 0.000002 -0.253073 0.000000 0.000000
    29 -0.000001 -0.943233 -0.000002 -0.532326 0.000000 0.000000
    30 -0.827563 -2.508972 -0.277657 -1.396263 0.000000 0.000000
    31 0.000000 -1.292971 0.000001 -0.445059 0.000000 0.000000
    32 0.000000 -0.752465 0.000000 -0.445059 0.000000 0.000000
    33 0.444213 -2.561959 -0.277657 -1.727307 -0.046226 -0.024599
    34 0.021022 -1.208186 0.000001 -0.427606 0.000000 0.000000
    35 0.010597 -0.741867 -0.000001 -0.453786 0.000000 0.000000
    36 1.047445 -2.222820 -0.277657 -1.508123 -0.078971 -0.038609
    37 0.000000 -0.996224 -0.000002 -0.863938 0.000000 0.000000
    38 -0.000001 -0.614690 0.000000 -0.523599 0.000000 0.000000
    39 -0.308253 -0.007813 0.307166 -0.179973 -0.326092 -2.616278
    40 1.978376 0.019542 -0.000001 -0.084829 -0.033819 0.254889
    41 0.982425 0.003186 0.000001 0.000000 0.000000 0.326398
  time 4
    0 8.106566 4.665702 -7.194028 -0.774218 -1.331349 0.567278
    1 -0.001748 -8.563255 -0.000751 0.347509 -0.125210 -0.169542
    2 -0.219101 -3.426991 0.819250 -1.247037 1.437605 -1.233844
    3 0.000000 2.338130 0.839328 0.000000 0.000000 0.000000
    4 0.000001 -5.493101 2.360611 0.000000 0.000000 0.000000
    5 0.000001 -3.357312 1.408873 0.000000 0.000000 0.000000
    6 0.000001 -6.122600 1.221523 0.000000 0.000000 0.000000
    7 0.000000 -2.229289 1.941594 0.000000 0.000000 0.000000
    8 -0.003479 -0.404829 0.000000 0.000000 0.000000 0.000000
    9 -0.519310 -2.501155 -0.278957 -1.003564 0.000000 -0.122173
    10 -0.010598 -1.208185 0.000000 -1.148417 0.000000 0.000000
    11 0.000000 -0.763066 0.000000 -0.841249 0.000000 0.000000
    12 0.105980 -2.607135 -0.278957 -0.795871 0.000000 -0.148353
    13 0.000000 -1.250579 0.000000 -1.296776 0.000000 0.000000
    14 0.000000 -0.932634 0.000000 -0.886645 0.000000 0.000000
    15 0.763063 -2.490556 -0.278957 -0.346932 0.039309 0.239193
    16 -0.012323 -1.280918 0.000000 -0.322892 0.000000 0.000000
    17 -0.001696 -0.749371 0.000000 -0.593412 0.000000 0.000000
    18 0.354566 0.016267 0.318133 0.834772 -0.606745 -1.212439
    19 1.887166 0.012878 0.000000 -0.305433 0.000000 -0.401426
    20 1.001874 -0.000270 0.000000 0.000000 0.000000 -0.488692
    21 -1.123360 -2.195093 -0.278957 -0.933751 0.000000 -0.087266
    22 0.010772 -0.963792 0.000000 -0.610865 0.000000 0.000000
    23 -0.010412 -0.631916 0.000000 -1.370074 0.000000 0.000000
    24 1.688039 -7.423816 -8.307190 -0.497140 0.471883 0.200013
    25 0.089930 -8.543161 -0.000001 0.082474 -0.537511 0.530890
    26 0.000000 -0.359712 0.000000 0.000000 0.000000 0.000000
    27 -0.170479 -2.636147 -0.277657 -1.692969 0.000000 0.000000
    28 0.010599 -1.261176 0.000002 -0.253073 0.000000 0.000000
    29 -0.000001 -0.943233 -0.000002 -0.532326 0.000000 0.000000
    30 -0.827563 -2.508972 -0.277657 -1.396263 0.000000 0.000000
    31 0.000000 -1.292971 0.000001 -0.445059 0.000000 0.000000
    32 0.000000 -0.752465 0.000000 -0.445059 0.000000 0.000000
    33 0.444213 -2.561959 -0.277657 -1.727307 -0.046226 -0.024599
    34 0.021022 -1.208186 0.000001 -0.427606 0.000000 0.000000
    35 0.010597 -0.741867 -0.000001 -0.453786 0.000000 0.000000
    36 1.047445 -2.222820 -0.277657 -1.508123 -0.078971 -0.038609
    37 0.000000 -0.996224 -0.000002 -0.863938 0.000000 0.000000
    38 -0.000001 -0.614690 0.000000 -0.523599 0.000000 0.000000
    39 -0.308253 -0.007813 0.307166 -0.179973 -0.326092 -2.616278
    40 1.978376 0.019542 -0.000001 -0.084829 -0.033819 0.254889
    41 0.982425 0.003186 0.000001 0.000000 0.000000 0.326398
  time 5
    0 8.106566 4.665702 -7.194028 -0.774218 -1.331349 0.567278
    1 -0.001748 -8.563255 -0.000751 0.347509 -0.125210 -0.169542
    2 -0.219101 -3.426991 0.819250 -1.247037 1.437605 -1.233844
    3 0.000000 2.338130 0.839328 0.000000 0.000000 0.000000
    4 0.000001 -5.493101 2.360611 0.000000 0.000000 0.000000
    5 0.000001 -3.357312 1.408873 0.000000 0.000000 0.000000
    6 0.000001 -6.122600 1.221523 0.000000 0.000000 0.000000
    7 0.000000 -2.229289 1.941594 0.000000 0.000000 0.000000
    8 -0.003479 -0.404829 0.000000 0.000000 0.000000 0.000000
    9 -0.519310 -2.501155 -0.278957 -1.003564 0.000000 -0.122173
    10 -0.010598 -1.208185 0.000000 -1.148417 0.000000 0.000000
    11 0.000000 -0.763066 0.000000 -0.841249 0.000000 0.000000
    12 0.105980 -2.607135 -0.278957 -0.795871 0.000000 -0.148353
    13 0.000000 -1.250579 0.000000 -1.296776 0.000000 0.000000
    14 0.000000 -0.932634 0.000000 -0.886645 0.000000 0.000000
    15 0.763063 -2.490556 -0.278957 -0.346932 0.039309 0.239193
    16 -0.012323 -1.280918 0.000000 -0.322892 0.000000 0.000000
    17 -0.001696 -0.749371 0.000000 -0.593412 0.000000 0.000000
    18 0.354566 0.016267 0.318133 0.834772 -0.606745 -1.212439
    19 1.887166 0.012878 0.000000 -0.305433 0.000000 -0.401426
    20 1.001874 -0.000270 0.000000 0.000000 0.000000 -0.488692
    21 -1.123360 -2.195093 -0.278957 -0.933751 0.000000 -0.087266
    22 0.010772 -0.963792 0.000000 -0.610865 0.000000 0.000000
    23 -0.010412 -0.631916 0.000000 -1.370074 0.000000 0.000000
    24 1.688039 -7.423816 -8.307190 -0.497140 0.471883 0.200013
    25 0.089930 -8.543161 -0.000001 0.082474 -0.537511 0.530890
    26 0.000000 -0.359712 0.000000 0.000000 0.000000 0.000000
    27 -0.170479 -2.636147 -0.277657 -1.692969 0.000000 0.000000
    28 0.010599 -1.261176 0.000002 -0.253073 0.000000 0.000000
    29 -0.000001 -0.943233 -0.000002 -0.532326 0.000000 0.000000
    30 -0.827563 -2.508972 -0.277657 -1.396263 0.000000 0.000000
    31 0.000000 -1.292971 0.000001 -0.445059 0.000000 0.000000
    32 0.000000 -0.752465 0.000000 -0.445059 0.000000 0.000000
    33 0.444213 -2.561959 -0.277657 -1.727307 -0.046226 -0.024599
    34 0.021022 -1.208186 0.000001 -0.427606 0.000000 0.000000
    35 0.010597 -0.741867 -0.000001 -0.453786 0.000000 0.000000
    36 1.047445 -2.222820 -0.277657 -1.508123 -0.078971 -0.038609
    37 0.000000 -0.996224 -0.000002 -0.863938 0.000000 0.000000
    38 -0.000001 -0.614690 0.000000 -0.523599 0.000000 0.000000
    39 -0.308253 -0.007813 0.307166 -0.179973 -0.326092 -2.616278
    40 1.978376 0.019542 -0.000001 -0.084829 -0.033819 0.254889
    41 0.982425 0.003186 0.000001 0.000000 0.000000 0.326398
  time 6
    0 8.106566 4.665702 -7.194028 -0.774218 -1.331349 0.567278
    1 -0.001748 -8.563255 -0.000751 0.347509 -0.125210 -0.169542
    2 -0.219101 -3.426991 0.819250 -1.247037 1.437605 -1.233844
    3 0.000000 2.338130 0.839328 0.000000 0.000000 0.000000
    4 0.000001 -5.493101 2.360611 0.000000 0.000000 0.000000
    5 0.000001 -3.357312 1.408873 0.000000 0.000000 0.000000
    6 0.000001 -6.122600 1.221523 0.000000 0.000000 0.000000
    7 0.000000 -2.229289 1.941594 0.000000 0.000000 0.000000
    8 -0.003479 -0.404829 0.000000 0.000000 0.000000 0.000000
    9 -0.519310 -2.501155 -0.278957 -1.003564 0.000000 -0.122173
    10 -0.010598 -1.208185 0.000000 -1.148417 0.000000 0.000000
    11 0.000000 -0.763066 0.000000 -0.841249 0.000000 0.000000
    12 0.105980 -2.607135 -0.278957 -0.795871 0.000000 -0.148353
    13 0.000000 -1.250579 0.000000 -1.296776 0.000000 0.000000
    14 0.000000 -0.932634 0.000000 -0.886645 0.000000 0.000000
    15 0.763063 -2.490556 -0.278957 -0.346932 0.039309 0.239193
    16 -0.012323 -1.280918 0.000000 -0.322892 0.000000 0.000000
    17 -0.001696 -0.749371 0.000000 -0.593412 0.000000 0.000000
    18 0.354566 0.016267 0.318133 0.834772 -0.606745 -1.212439
    19 1.887166 0.012878 0.000000 -0.305433 0.000000 -0.401426
    20 1.001874 -0.000270 0.000000 0.000000 0.000000 -0.488692
    21 -1.123360 -2.195093 -0.278957 -0.933751 0.000000 -0.087266
    22 0.010772 -0.963792 0.000000 -0.610865 0.000000 0.000000
    23 -0.010412 -0.631916 0.000000 -1.370074 0.000000 0.000000
    24 1.688039 -7.423816 -8.307190 -0.497140 0.471883 0.200013
    25 0.089930 -8.543161 -0.000001 0.082474 -0.537511 0.530890
    26 0.000000 -0.359712 0.000000 0.000000 0.000000 0.000000
    27 -0.170479 -2.636147 -0.277657 -1.692969 0.000000 0.000000
    28 0.010599 -1.261176 0.000002 -0.253073 0.000000 0.000000
    29 -0.000001 -0.943233 -0.000002 -0.532326 0.000000 0.000000
    30 -0.827563 -2.508972 -0.277657 -1.396263 0.000000 0.000000
    31 0.000000 -1.292971 0.000001 -0.445059 0.000000 0.000000
    32 0.000000 -0.752465 0.000000 -0.445059 0.000000 0.000000
    33 0.444213 -2.561959 -0.277657 -1.727307 -0.046226 -0.024599
    34 0.021022 -1.208186 0.000001 -0.427606 0.000000 0.000000
    35 0.010597 -0.741867 -0.000001 -0.453786 0.000000 0.000000
    36 1.047445 -2.222820 -0.277657 -1.508123 -0.078971 -0.038609
    37 0.000000 -0.996224 -0.000002 -0.863938 0.000000 0.000000
    38 -0.000001 -0.614690 0.000000 -0.523599 0.000000 0.000000
    39 -0.308253 -0.007813 0.307166 -0.179973 -0.326092 -2.616278
    40 1.978376 0.019542 -0.000001 -0.084829 -0.033819 0.254889
    41 0.982425 0.003186 0.000001 0.000000 0.000000 0.326398
  time 7
    0 8.106566 4.665702 -7.194028 -0.774218 -1.331349 0.567278
    1 -0.001748 -8.563255 -0.000751 0.347509 -0.125210 -0.169542
    2 -0.219101 -3.426991 0.819250 -1.247037 1.437605 -1.233844
    3 0.000000 2.338130 0.839328 0.000000 0.000000 0.000000
    4 0.000001 -5.493101 2.360611 0.000000 0.000000 0.000000
    5 0.000001 -3.357312 1.408873 0.000000 0.000000 0.000000
    6 0.000001 -6.122600 1.221523 0.000000 0.000000 0.000000
    7 0.000000 -2.229289 1.941594 0.000000 0.000000 0.000000
    8 -0.003479 -0.404829 0.000000 0.000000 0.000000 0.000000
    9 -0.519310 -2.501155 -0.278957 -1.003564 0.000000 -0.122173
    10 -0.010598 -1.208185 0.000000 -1.148417 0.000000 0.000000
    11 0.000000 -0.763066 0.000000 -0.841249 0.000000 0.000000
    12 0.105980 -2.607135 -0.278957 -0.795871 0.000000 -0.148353
    13 0.000000 -1.250579 0.000000 -1.296776 0.000000 0.000000
    14 0.000000 -0.932634 0.000000 -0.886645 0.000000 0.000000
    15 0.763063 -2.490556 -0.278957 -0.346932 0.039309 0.239193
    16 -0.012323 -1.280918 0.000000 -0.322892 0.000000 0.000000
    17 -0.001696 -0.749371 0.000000 -0.593412 0.000000 0.000000
    18 0.354566 0.016267 0.318133 0.834772 -0.606745 -1.212439
    19 1.887166 0.012878 0.000000 -0.305433 0.000000 -0.401426
    20 1.001874 -0.000270 0.000000 0.000000 0.000000 -0.488692
    21 -1.123360 -2.195093 -0.278957 -0.933751 0.000000 -0.087266
    22 0.010772 -0.963792 0.000000 -0.610865 0.000000 0.000000
    23 -0.010412 -0.631916 0.000000 -1.370074 0.000000 0.000000
    24 1.688039 -7.423816 -8.307190 -0.497140 0.471883 0.200013
    25 0.089930 -8.543161 -0.000001 0.082474 -0.537511 0.530890
    26 0.000000 -0.359712 0.000000 0.000000 0.000000 0.000000
    27 -0.170479 -2.636147 -0.277657 -1.692969 0.000000 0.000000
    28 0.010599 -1.261176 0.000002 -0.253073 0.000000 0.000000
    29 -0.000001 -0.943233 -0.000002 -0.532326 0.000000 0.000000
    30 -0.827563 -2.508972 -0.277657 -1.396263 0.000000 0.000000
    31 0.000000 -1.292971 0.000001 -0.445059 0.000000 0.000000
    32 0.000000 -0.752465 0.000000 -0.445059 0.000000 0.000000
    33 0.444213 -2.561959 -0.277657 -1.727307 -0.046226 -0.024599
    34 0.021022 -1.208186 0.000001 -0.427606 0.000000 0.000000
    35 0.010597 -0.741867 -0.000001 -0.453786 0.000000 0.000000
    36 1.047445 -2.222820 -0.277657 -1.508123 -0.078971 -0.038609
    37 0.000000 -0.996224 -0.000002 -0.863938 0.000000 0.000000
    38 -0.000001 -0.614690 0.000000 -0.523599 0.000000 0.000000
    39 -0.308253 -0.007813 0.307166 -0.179973 -0.326092 -2.616278
    40 1.978376 0.019542 -0.000001 -0.084829 -0.033819 0.254889
    41 0.982425 0.003186 0.000001 0.000000 0.000000 0.326398
  time 8
    0 8.106566 4.665702 -7.194028 -0.774218 -1.331349 0.567278
    1 -0.001748 -8.563255 -0.000751 0.347509 -0.125210 -0.169542
    2 -0.219101 -3.426991 0.819250 -1.247037 1.437605 -1.233844
    3 0.000000 2.338130 0.839328 0.000000 0.000000 0.000000
    4 0.000001 -5.493101 2.360611 0.000000 0.000000 0.000000
    5 0.000001 -3.357312 1.408873 0.000000 0.000000 0.000000
    6 0.000001 -6.122600 1.221523 0.000000 0.000000 0.000000
    7 0.000000 -2.229289 1.941594 0.000000 0.000000 0.000000
    8 -0.003479 -0.404829 0.000000 0.000000 0.000000 0.000000
    9 -0.519310 -2.501155 -0.278957 -1.003564 0.000000 -0.122173
    10 -0.010598 -1.208185 0.000000 -1.148417 0.000000 0.000000
    11 0.000000 -0.763066 0.000000 -0.841249 0.000000 0.000000
    12 0.105980 -2.607135 -0.278957 -0.795871 0.000000 -0.148353
    13 0.000000 -1.250579 0.000000 -1.296776 0.000000 0.000000
    14 0.000000 -0.932634 0.000000 -0.886645 0.000000 0.000000
    15 0.763063 -2.490556 -0.278957 -0.346932 0.039309 0.239193
    16 -0.012323 -1.280918 0.000000 -0.322892 0.000000 0.000000
    17 -0.001696 -0.749371 0.000000 -0.593412 0.000000 0.000000
    18 0.354566 0.016267 0.318133 0.834772 -0.606745 -1.212439
    19 1.887166 0.012878 0.000000 -0.305433 0.000000 -0.401426
    20 1.001874 -0.000270 0.000000 0.000000 0.000000 -0.488692
    21 -1.123360 -2.195093 -0.278957 -0.933751 0.000000 -0.087266
    22 0.010772 -0.963792 0.000000 -0.610865 0.000000 0.000000
    23 -0.010412 -0.631916 0.000000 -1.370074 0.000000 0.000000
    24 1.688039 -7.423816 -8.307190 -0.497140 0.471883 0.200013
    25 0.089930 -8.543161 -0.000001 0.082474 -0.537511 0.530890
    26 0.000000 -0.359712 0.000000 0.000000 0.000000 0.000000
    27 -0.170479 -2.636147 -0.277657 -1.692969 0.000000 0.000000
    28 0.010599 -1.261176 0.000002 -0.253073 0.000000 0.000000
    29 -0.000001 -0.943233 -0.000002 -0.532326 0.000000 0.000000
    30 -0.827563 -2.508972 -0.277657 -1.396263 0.000000 0.000000
    31 0.000000 -1.292971 0.000001 -0.445059 0.000000 0.000000
    32 0.000000 -0.752465 0.000000 -0.445059 0.000000 0.000000
    33 0.444213 -2.561959 -0.277657 -1.727307 -0.046226 -0.024599
    34 0.021022 -1.208186 0.000001 -0.427606 0.000000 0.000000
    35 0.010597 -0.741867 -0.000001 -0.453786 0.000000 0.000000
    36 1.047445 -2.222820 -0.277657 -1.508123 -0.078971 -0.038609
    37 0.000000 -0.996224 -0.000002 -0.863938 0.000000 0.000000
    38 -0.000001 -0.614690 0.000000 -0.523599 0.000000 0.000000
    39 -0.308253 -0.007813 0.307166 -0.179973 -0.326092 -2.616278
    40 1.978376 0.019542 -0.000001 -0.084829 -0.033819 0.254889
    41 0.982425 0.003186 0.000001 0.000000 0.000000 0.326398
end
