// Created by Crowbar 0.56
version 1
nodes
  0 "root" -1
  1 "Bone01" 0
  2 "Bone_Lefthand" 1
  3 "Bone13" 2
  4 "Bone14" 3
  5 "Bone15" 4
  6 "ValveBiped.Bip01_L_Finger32" 5
  7 "ValveBiped.Bip01_L_Finger31" 4
  8 "ValveBiped.Bip01_L_Finger3" 3
  9 "Bone17" 2
  10 "Bone18" 9
  11 "Bone19" 10
  12 "ValveBiped.Bip01_L_Finger22" 11
  13 "ValveBiped.Bip01_L_Finger21" 10
  14 "ValveBiped.Bip01_L_Finger2" 9
  15 "Bone21" 2
  16 "Bone22" 15
  17 "Bone23" 16
  18 "ValveBiped.Bip01_L_Finger12" 17
  19 "ValveBiped.Bip01_L_Finger11" 16
  20 "ValveBiped.Bip01_L_Finger1" 15
  21 "Bone09" 2
  22 "Bone10" 21
  23 "Bone11" 22
  24 "ValveBiped.Bip01_L_Finger42" 23
  25 "ValveBiped.Bip01_L_Finger41" 22
  26 "ValveBiped.Bip01_L_Finger4" 21
  27 "Bone05" 2
  28 "Bone06" 27
  29 "Bone07" 28
  30 "ValveBiped.Bip01_L_Finger02" 29
  31 "ValveBiped.Bip01_L_Finger01" 28
  32 "ValveBiped.Bip01_L_Finger0" 27
  33 "ValveBiped.Bip01_L_Hand" 2
  34 "Bone_L_Upper" 1
  35 "ValveBiped.Bip01_L_UpperArm" 34
  36 "ValveBiped.Bip01_L_Forearm" 1
  37 "Bone04" 0
  38 "Bone_Righthand" 37
  39 "Bone39" 38
  40 "Bone40" 39
  41 "Bone41" 40
  42 "ValveBiped.Bip01_R_Finger32" 41
  43 "ValveBiped.Bip01_R_Finger31" 40
  44 "ValveBiped.Bip01_R_Finger3" 39
  45 "Bone35" 38
  46 "Bone36" 45
  47 "Bone37" 46
  48 "ValveBiped.Bip01_R_Finger22" 47
  49 "ValveBiped.Bip01_R_Finger21" 46
  50 "ValveBiped.Bip01_R_Finger2" 45
  51 "Bone31" 38
  52 "Bone32" 51
  53 "Bone33" 52
  54 "ValveBiped.Bip01_R_Finger12" 53
  55 "ValveBiped.Bip01_R_Finger11" 52
  56 "ValveBiped.Bip01_R_Finger1" 51
  57 "Bone43" 38
  58 "Bone44" 57
  59 "Bone45" 58
  60 "ValveBiped.Bip01_R_Finger42" 59
  61 "ValveBiped.Bip01_R_Finger41" 58
  62 "ValveBiped.Bip01_R_Finger4" 57
  63 "Bone27" 38
  64 "Bone28" 63
  65 "Bone29" 64
  66 "ValveBiped.Bip01_R_Finger02" 65
  67 "ValveBiped.Bip01_R_Finger01" 64
  68 "ValveBiped.Bip01_R_Finger0" 63
  69 "ValveBiped.Bip01_R_Hand" 38
  70 "Bone_R_Upper" 37
  71 "ValveBiped.Bip01_R_UpperArm" 70
  72 "ValveBiped.Bip01_R_Forearm" 37
  73 "Bone_Se_Hand-L" 2
  74 "Bone_Se_Hand-R" 38
  75 "phantom_2" -1
  76 "phantom_1" -1
  77 "phantom_11" -1
  78 "phantfx" 76
  79 "phantom_22" -1
  80 "phantfx02" 75
  81 "stab_fx_bone" -1
  82 "ligh_root" -1
  83 "fxlightning_3" 82
  84 "fxlightning_1" 82
  85 "fxlightning_2" 82
  86 "fxlightning_4" 82
  87 "line_root" -1
  88 "line03" 87
  89 "line04" 87
  90 "line01" 87
  91 "line02" 87
  92 "exefx01" 76
  93 "exefx02" 76
  94 "eyephentom02fx01" 75
  95 "eyephentom02fx" 75
end
skeleton
  time 0
    0 0.000000 1.629157 0.541027 0.000000 0.000000 0.000000
    1 9.310103 0.168160 -0.149879 3.138909 -0.000224 -1.566807
    2 -0.071920 -8.498734 -0.104137 -0.025046 0.287591 0.014898
    3 -0.488518 -2.755608 -0.228260 0.106453 0.010332 -0.264490
    4 0.039887 -1.479792 0.029853 -0.055394 -0.000001 -0.000002
    5 0.028789 -1.075737 -0.023109 0.002099 0.000000 0.000000
    6 0.007988 0.172182 -0.118553 -1.598091 -0.216549 -1.570593
    7 0.080660 0.135929 -0.203919 -1.506824 -0.066185 -1.662786
    8 0.117288 -0.155554 -0.604544 -1.412988 -0.374558 -1.569222
    9 0.250027 -2.820667 -0.238396 0.041826 -0.002921 0.008443
    10 -0.049760 -1.680544 0.100479 0.019826 0.000000 -0.000003
    11 -0.034142 -1.148317 0.084782 -0.040115 0.000000 0.000000
    12 -0.018589 0.129955 -0.123721 -1.294580 0.001302 -1.635383
    13 -0.006160 0.170065 -0.110169 -1.280084 -0.068681 -1.597215
    14 0.047100 -0.104074 -0.352264 -1.243368 -0.257298 -1.694346
    15 0.957766 -2.746782 -0.090302 -0.017220 -0.162277 0.191557
    16 -0.033419 -1.397131 -0.011256 0.013930 0.000000 0.000000
    17 -0.022361 -0.957438 0.018784 0.003845 0.000000 -0.000001
    18 -0.022325 0.045420 -0.038284 -1.125544 -0.129230 -1.681412
    19 -0.042900 -0.061274 -0.071212 -1.124462 -0.060454 -1.586099
    20 0.063741 -0.109104 -0.248158 -1.142813 -0.125805 -1.693583
    21 -1.180682 -2.507221 -0.193859 0.082998 0.013295 -0.477912
    22 -0.024971 -1.123932 0.017596 -0.018064 -0.000003 -0.000007
    23 -0.020051 -0.890970 0.010091 -0.060798 0.000001 0.000004
    24 -0.011721 0.093266 0.017949 -1.687855 -0.079155 -1.575164
    25 0.048862 -0.085539 0.028626 -1.715605 -0.034569 -1.653190
    26 0.173919 -0.198418 -0.336163 -1.668104 -0.422317 -1.710956
    27 0.583510 -1.197279 0.185379 0.158050 -0.404973 -0.364292
    28 1.535928 0.010252 0.005009 -0.002964 -0.012980 0.000892
    29 1.100770 0.004524 -0.010680 -0.002796 0.015973 0.003459
    30 -0.267709 0.037512 -0.093907 2.913812 -0.143386 0.078467
    31 -0.029266 0.205408 -0.329287 2.788574 -0.255486 -0.188917
    32 0.204373 0.521055 -0.268577 2.886669 0.042206 -0.230367
    33 0.195697 -0.010059 -0.293538 -1.333586 0.150863 -1.672749
    34 1.257181 8.762590 -0.153713 -1.570562 0.002683 -1.566808
    35 -0.093500 -0.114213 -0.738866 -1.570842 0.061811 0.002096
    36 0.010843 0.093625 -0.081439 -3.141463 0.041719 -1.568236
    37 -9.310107 -5.231259 -12.513384 -3.136609 -0.010027 1.574745
    38 0.096935 -8.450418 -0.009359 -0.032963 -0.297909 -0.004665
    39 0.447956 -2.798988 -0.200437 0.106457 -0.010396 0.265098
    40 -0.032911 -1.480202 0.004945 -0.055405 0.000001 -0.000004
    41 -0.027019 -1.076921 -0.020208 0.002095 -0.000002 -0.000001
    42 0.006928 0.005329 -0.181358 -1.528500 -0.248579 -1.611362
    43 -0.052313 0.038591 -0.230756 -1.592493 -0.043415 -1.528515
    44 -0.232601 -0.209654 -0.420669 -1.713790 -0.167173 -1.438930
    45 -0.249531 -2.846966 -0.174203 0.041904 -0.000125 -0.008397
    46 0.043239 -1.683939 0.096018 0.019757 0.002824 -0.000165
    47 0.031729 -1.160828 0.058844 -0.040183 0.000644 0.008371
    48 -0.038065 0.069168 -0.159885 -1.816986 0.066178 -1.575392
    49 -0.025151 0.088764 -0.068836 -1.817843 0.044510 -1.568287
    50 -0.102916 -0.186983 -0.272247 -1.833683 -0.232962 -1.472375
    51 -0.963863 -2.785145 -0.085340 -0.017228 0.162278 -0.191553
    52 0.028477 -1.403069 0.006275 0.013937 0.000003 -0.000002
    53 0.021413 -0.957781 0.020044 0.003850 0.000001 0.000001
    54 -0.004241 0.043707 -0.080204 -2.014997 -0.186996 -1.460723
    55 0.015383 -0.089136 -0.030010 -2.006083 0.036346 -1.568629
    56 -0.022610 -0.212355 -0.177906 -1.933161 -0.118801 -1.518895
    57 1.164478 -2.543936 -0.170326 0.083001 -0.013289 0.477914
    58 0.024034 -1.129042 0.017804 -0.018074 0.000004 0.000009
    59 0.014894 -0.883987 -0.019848 -0.060797 -0.000006 -0.000004
    60 -0.067138 0.063251 -0.010962 -0.899214 -0.014515 -1.600326
    61 -0.151180 -0.007393 -0.070065 -0.913061 -0.118819 -1.408558
    62 -0.178164 -0.244682 -0.357068 -1.159916 -0.384260 -1.556110
    63 -0.586769 -1.264473 0.200167 -0.152090 -0.410515 -2.814812
    64 1.522834 0.058674 0.016850 0.001405 0.008981 -0.046880
    65 1.117947 0.048422 -0.005766 -0.000243 -0.025198 0.065418
    66 -0.263409 -0.117640 -0.015660 0.000036 -0.082210 -0.026800
    67 0.007707 -0.334358 -0.191575 0.070788 -0.181563 0.282364
    68 0.225562 -0.567923 -0.420715 0.119895 -0.183798 0.223460
    69 -0.203683 -0.095655 -0.328306 -1.745077 0.075142 -1.515382
    70 -1.393460 8.839182 -0.239438 1.580804 -0.005024 -1.566848
    71 0.036020 0.082816 -0.692656 -1.570769 0.065989 0.001276
    72 -0.088586 0.054021 -0.088593 0.010231 0.033800 -1.560851
    73 0.120153 -0.050270 -0.054489 -2.854024 0.030688 -1.580508
    74 -0.139399 -0.111696 0.014400 0.285395 -0.031353 1.580313
    75 -0.000001 -20.525276 48.828247 0.000000 1.570796 3.141592
    76 0.000000 -0.000002 48.828247 0.000000 1.570796 3.141592
    77 0.000000 -9.548562 37.551598 0.000000 1.570796 3.141592
    78 -6.746239 1.488021 0.000145 0.000000 1.570796 3.141592
    79 -0.000001 -30.405510 37.551598 0.000000 1.570796 3.141592
    80 -6.884506 0.045362 -0.000546 0.000000 1.570796 -3.141591
    81 -33.148422 39.600525 3.921634 0.000000 0.000000 0.000000
    82 -16.313324 12.403505 11.858739 1.504637 -0.696400 0.409610
    83 0.000000 0.000000 0.000000 0.000000 0.000000 0.000000
    84 0.000000 0.000000 0.000000 0.000000 0.000000 0.000000
    85 0.000000 0.000000 -0.000002 0.000000 0.000000 0.000000
    86 0.000000 -0.000002 -0.000004 0.000000 0.000000 0.000000
    87 -59.593906 10.219164 0.000000 0.000000 0.000000 0.000000
    88 -10.000088 10.000000 0.000000 0.000000 0.000000 0.000000
    89 10.000000 10.000000 0.000000 0.000000 0.000000 0.000000
    90 9.999908 -10.000000 0.000000 0.000000 0.000000 0.000000
    91 -9.999996 -10.000000 0.000000 0.000000 0.000000 0.000000
    92 8.297501 1.873835 -0.833016 1.566653 -0.564520 -2.759211
    93 8.360184 2.109215 0.930654 0.921809 -0.364005 0.384206
    94 8.130562 2.232922 0.862472 1.552574 -0.417441 0.661589
    95 8.262386 2.367609 -0.906657 0.679593 -0.758166 -2.316103
end
triangles
$0b_bluesword
  80 1.300547 -20.945635 55.075260 0.845641 -0.265064 -0.463285 0.470588 0.862745 1 80 1.000000
  80 0.763049 -20.570637 54.437763 0.489469 -0.000002 -0.872021 0.450980 0.823529 1 80 1.000000
  80 1.300547 -20.570637 54.975262 0.843281 -0.000001 -0.537472 0.482353 0.854902 1 80 1.000000
$0b_bluesword
  80 0.763049 -20.570637 54.437763 0.489469 -0.000002 -0.872021 0.450980 0.823529 1 80 1.000000
  80 1.300547 -20.195635 55.075260 0.845641 0.265062 -0.463286 0.470588 0.862745 1 80 1.000000
  80 1.300547 -20.570637 54.975262 0.843281 -0.000001 -0.537472 0.482353 0.854902 1 80 1.000000
$0b_bluesword
  80 1.300547 -20.570637 54.975262 0.843281 -0.000001 -0.537472 0.482353 0.854902 1 80 1.000000
  80 1.300547 -20.195635 55.075260 0.845641 0.265062 -0.463286 0.470588 0.862745 1 80 1.000000
  80 1.513044 -20.570633 55.712765 0.999999 0.000000 0.001042 0.490196 0.890196 1 80 1.000000
$0b_bluesword
  80 1.513044 -20.570633 55.712765 0.999999 0.000000 0.001042 0.490196 0.890196 1 80 1.000000
  80 1.300547 -20.945635 55.075260 0.845641 -0.265064 -0.463285 0.470588 0.862745 1 80 1.000000
  80 1.300547 -20.570637 54.975262 0.843281 -0.000001 -0.537472 0.482353 0.854902 1 80 1.000000
$0b_bluesword
  80 1.513044 -20.570633 55.712765 0.999999 0.000000 0.001042 0.490196 0.890196 1 80 1.000000
  80 1.300544 -21.208134 55.337769 0.845419 -0.462888 -0.266461 0.466667 0.878431 1 80 1.000000
  80 1.300547 -20.945635 55.075260 0.845641 -0.265064 -0.463285 0.470588 0.862745 1 80 1.000000
$0b_bluesword
  80 1.513044 -20.570633 55.712765 0.999999 0.000000 0.001042 0.490196 0.890196 1 80 1.000000
  80 1.300543 -21.308132 55.712769 0.846025 -0.533141 0.001621 0.462745 0.890196 1 80 1.000000
  80 1.300544 -21.208134 55.337769 0.845419 -0.462888 -0.266461 0.466667 0.878431 1 80 1.000000
$0b_bluesword
  80 1.513044 -20.570633 55.712765 0.999999 0.000000 0.001042 0.490196 0.890196 1 80 1.000000
  80 1.300542 -21.208134 56.075264 0.846137 -0.460652 0.268052 0.466667 0.905882 1 80 1.000000
  80 1.300543 -21.308132 55.712769 0.846025 -0.533141 0.001621 0.462745 0.890196 1 80 1.000000
$0b_bluesword
  80 1.513044 -20.570633 55.712765 0.999999 0.000000 0.001042 0.490196 0.890196 1 80 1.000000
  80 1.300542 -20.933130 56.350262 0.846199 -0.268108 0.460505 0.470588 0.921569 1 80 1.000000
  80 1.300542 -21.208134 56.075264 0.846137 -0.460652 0.268052 0.466667 0.905882 1 80 1.000000
$0b_bluesword
  80 -0.736958 -19.445629 56.375248 -0.422024 0.795978 0.433953 0.384314 0.913725 1 80 1.000000
  80 0.013040 -19.833128 57.000252 0.020873 0.523958 0.851488 0.411765 0.945098 1 80 1.000000
  80 0.013042 -19.358130 56.450253 0.010618 0.860996 0.508501 0.411765 0.917647 1 80 1.000000
$0b_bluesword
  80 0.013042 -19.358130 56.450253 0.010618 0.860996 0.508501 0.411765 0.917647 1 80 1.000000
  80 0.013040 -19.833128 57.000252 0.020873 0.523958 0.851488 0.411765 0.945098 1 80 1.000000
  80 0.763040 -19.933128 56.825256 0.478905 0.450191 0.753643 0.443137 0.937255 1 80 1.000000
$0b_bluesword
  80 0.763042 -19.458128 56.350258 0.460286 0.762976 0.453878 0.439216 0.913725 1 80 1.000000
  80 0.013042 -19.358130 56.450253 0.010618 0.860996 0.508501 0.411765 0.917647 1 80 1.000000
  80 0.763040 -19.933128 56.825256 0.478905 0.450191 0.753643 0.443137 0.937255 1 80 1.000000
$0b_bluesword
  80 0.763042 -19.458128 56.350258 0.460286 0.762976 0.453878 0.439216 0.913725 1 80 1.000000
  80 0.763040 -19.933128 56.825256 0.478905 0.450191 0.753643 0.443137 0.937255 1 80 1.000000
  80 1.300542 -20.208130 56.350262 0.846199 0.268110 0.460504 0.470588 0.921569 1 80 1.000000
$0b_bluesword
  80 0.763042 -19.458128 56.350258 0.460286 0.762976 0.453878 0.439216 0.913725 1 80 1.000000
  80 1.300542 -20.208130 56.350262 0.846199 0.268110 0.460504 0.470588 0.921569 1 80 1.000000
  80 1.300543 -19.933132 56.075260 0.846144 0.460657 0.268022 0.466667 0.905882 1 80 1.000000
$0b_bluesword
  80 1.513044 -20.570633 55.712765 0.999999 0.000000 0.001042 0.490196 0.890196 1 80 1.000000
  80 1.300543 -19.933132 56.075260 0.846144 0.460657 0.268022 0.466667 0.905882 1 80 1.000000
  80 1.300542 -20.208130 56.350262 0.846199 0.268110 0.460504 0.470588 0.921569 1 80 1.000000
$0b_bluesword
  80 1.513044 -20.570633 55.712765 0.999999 0.000000 0.001042 0.490196 0.890196 1 80 1.000000
  80 1.300542 -20.208130 56.350262 0.846199 0.268110 0.460504 0.470588 0.921569 1 80 1.000000
  80 1.300542 -20.570631 56.450260 0.846236 0.000001 0.532808 0.482353 0.929412 1 80 1.000000
$0b_bluesword
  80 1.513044 -20.570633 55.712765 0.999999 0.000000 0.001042 0.490196 0.890196 1 80 1.000000
  80 1.300542 -20.570631 56.450260 0.846236 0.000001 0.532808 0.482353 0.929412 1 80 1.000000
  80 1.300542 -20.933130 56.350262 0.846199 -0.268108 0.460505 0.470588 0.921569 1 80 1.000000
$0b_bluesword
  80 1.300542 -20.570631 56.450260 0.846236 0.000001 0.532808 0.482353 0.929412 1 80 1.000000
  80 0.763040 -21.208128 56.825260 0.478912 -0.450164 0.753655 0.443137 0.937255 1 80 1.000000
  80 1.300542 -20.933130 56.350262 0.846199 -0.268108 0.460505 0.470588 0.921569 1 80 1.000000
$0b_bluesword
  80 0.763040 -21.208128 56.825260 0.478912 -0.450164 0.753655 0.443137 0.937255 1 80 1.000000
  80 0.763041 -21.683130 56.350262 0.460286 -0.762974 0.453881 0.439216 0.913725 1 80 1.000000
  80 1.300542 -20.933130 56.350262 0.846199 -0.268108 0.460505 0.470588 0.921569 1 80 1.000000
$0b_bluesword
  80 1.300542 -20.933130 56.350262 0.846199 -0.268108 0.460505 0.470588 0.921569 1 80 1.000000
  80 0.763041 -21.683130 56.350262 0.460286 -0.762974 0.453881 0.439216 0.913725 1 80 1.000000
  80 1.300542 -21.208134 56.075264 0.846137 -0.460652 0.268052 0.466667 0.905882 1 80 1.000000
$0b_bluesword
  80 0.763041 -21.683130 56.350262 0.460286 -0.762974 0.453881 0.439216 0.913725 1 80 1.000000
  80 0.763043 -21.858133 55.712765 0.486746 -0.873543 0.001102 0.435294 0.890196 1 80 1.000000
  80 1.300542 -21.208134 56.075264 0.846137 -0.460652 0.268052 0.466667 0.905882 1 80 1.000000
$0b_bluesword
  80 1.300542 -21.208134 56.075264 0.846137 -0.460652 0.268052 0.466667 0.905882 1 80 1.000000
  80 0.763043 -21.858133 55.712765 0.486746 -0.873543 0.001102 0.435294 0.890196 1 80 1.000000
  80 1.300543 -21.308132 55.712769 0.846025 -0.533141 0.001621 0.462745 0.890196 1 80 1.000000
$0b_bluesword
  80 0.763043 -21.858133 55.712765 0.486746 -0.873543 0.001102 0.435294 0.890196 1 80 1.000000
  80 0.763045 -21.683136 55.075260 0.487581 -0.757769 -0.433648 0.439216 0.870588 1 80 1.000000
  80 1.300543 -21.308132 55.712769 0.846025 -0.533141 0.001621 0.462745 0.890196 1 80 1.000000
$0b_bluesword
  80 1.300543 -21.308132 55.712769 0.846025 -0.533141 0.001621 0.462745 0.890196 1 80 1.000000
  80 0.763045 -21.683136 55.075260 0.487581 -0.757769 -0.433648 0.439216 0.870588 1 80 1.000000
  80 1.300544 -21.208134 55.337769 0.845419 -0.462888 -0.266461 0.466667 0.878431 1 80 1.000000
$0b_bluesword
  80 0.763045 -21.683136 55.075260 0.487581 -0.757769 -0.433648 0.439216 0.870588 1 80 1.000000
  80 0.763047 -21.220634 54.600262 0.486424 -0.436645 -0.756791 0.443137 0.847059 1 80 1.000000
  80 1.300544 -21.208134 55.337769 0.845419 -0.462888 -0.266461 0.466667 0.878431 1 80 1.000000
$0b_bluesword
  80 1.300544 -21.208134 55.337769 0.845419 -0.462888 -0.266461 0.466667 0.878431 1 80 1.000000
  80 0.763047 -21.220634 54.600262 0.486424 -0.436645 -0.756791 0.443137 0.847059 1 80 1.000000
  80 1.300547 -20.945635 55.075260 0.845641 -0.265064 -0.463285 0.470588 0.862745 1 80 1.000000
$0b_bluesword
  80 0.763047 -21.220634 54.600262 0.486424 -0.436645 -0.756791 0.443137 0.847059 1 80 1.000000
  80 0.763049 -20.570637 54.437763 0.489469 -0.000002 -0.872021 0.450980 0.823529 1 80 1.000000
  80 1.300547 -20.945635 55.075260 0.845641 -0.265064 -0.463285 0.470588 0.862745 1 80 1.000000
$0b_bluesword
  80 0.763040 -19.933128 56.825256 0.478905 0.450191 0.753643 0.443137 0.937255 1 80 1.000000
  80 1.300542 -20.570631 56.450260 0.846236 0.000001 0.532808 0.482353 0.929412 1 80 1.000000
  80 1.300542 -20.208130 56.350262 0.846199 0.268110 0.460504 0.470588 0.921569 1 80 1.000000
$0b_bluesword
  80 0.013040 -19.833128 57.000252 0.020873 0.523958 0.851488 0.411765 0.945098 1 80 1.000000
  80 0.763040 -20.570627 57.000256 0.486565 0.000002 0.873644 0.450980 0.960784 1 80 1.000000
  80 0.763040 -19.933128 56.825256 0.478905 0.450191 0.753643 0.443137 0.937255 1 80 1.000000
$0b_bluesword
  80 0.763040 -19.933128 56.825256 0.478905 0.450191 0.753643 0.443137 0.937255 1 80 1.000000
  80 0.763040 -20.570627 57.000256 0.486565 0.000002 0.873644 0.450980 0.960784 1 80 1.000000
  80 1.300542 -20.570631 56.450260 0.846236 0.000001 0.532808 0.482353 0.929412 1 80 1.000000
$0b_bluesword
  80 0.763040 -20.570627 57.000256 0.486565 0.000002 0.873644 0.450980 0.960784 1 80 1.000000
  80 0.763040 -21.208128 56.825260 0.478912 -0.450164 0.753655 0.443137 0.937255 1 80 1.000000
  80 1.300542 -20.570631 56.450260 0.846236 0.000001 0.532808 0.482353 0.929412 1 80 1.000000
$0b_bluesword
  80 -0.724460 -19.933128 56.850254 -0.447790 0.428988 0.784509 0.380392 0.937255 1 80 1.000000
  80 0.013039 -20.570627 57.200256 0.005399 0.000002 0.999985 0.411765 0.972549 1 80 1.000000
  80 0.013040 -19.833128 57.000252 0.020873 0.523958 0.851488 0.411765 0.945098 1 80 1.000000
$0b_bluesword
  80 0.013040 -19.833128 57.000252 0.020873 0.523958 0.851488 0.411765 0.945098 1 80 1.000000
  80 0.013039 -20.570627 57.200256 0.005399 0.000002 0.999985 0.411765 0.972549 1 80 1.000000
  80 0.763040 -20.570627 57.000256 0.486565 0.000002 0.873644 0.450980 0.960784 1 80 1.000000
$0b_bluesword
  80 0.013039 -20.570627 57.200256 0.005399 0.000002 0.999985 0.411765 0.972549 1 80 1.000000
  80 0.013039 -21.308128 57.000259 0.020873 -0.523955 0.851490 0.411765 0.945098 1 80 1.000000
  80 0.763040 -20.570627 57.000256 0.486565 0.000002 0.873644 0.450980 0.960784 1 80 1.000000
$0b_bluesword
  80 0.763040 -20.570627 57.000256 0.486565 0.000002 0.873644 0.450980 0.960784 1 80 1.000000
  80 0.013039 -21.308128 57.000259 0.020873 -0.523955 0.851490 0.411765 0.945098 1 80 1.000000
  80 0.763040 -21.208128 56.825260 0.478912 -0.450164 0.753655 0.443137 0.937255 1 80 1.000000
$0b_bluesword
  80 0.013039 -21.308128 57.000259 0.020873 -0.523955 0.851490 0.411765 0.945098 1 80 1.000000
  80 0.013040 -21.783127 56.450260 0.010618 -0.860994 0.508505 0.411765 0.917647 1 80 1.000000
  80 0.763040 -21.208128 56.825260 0.478912 -0.450164 0.753655 0.443137 0.937255 1 80 1.000000
$0b_bluesword
  80 0.763040 -21.208128 56.825260 0.478912 -0.450164 0.753655 0.443137 0.937255 1 80 1.000000
  80 0.013040 -21.783127 56.450260 0.010618 -0.860994 0.508505 0.411765 0.917647 1 80 1.000000
  80 0.763041 -21.683130 56.350262 0.460286 -0.762974 0.453881 0.439216 0.913725 1 80 1.000000
$0b_bluesword
  80 0.013040 -21.783127 56.450260 0.010618 -0.860994 0.508505 0.411765 0.917647 1 80 1.000000
  80 0.013043 -22.058130 55.712765 -0.011017 -0.999248 0.037174 0.411765 0.890196 1 80 1.000000
  80 0.763041 -21.683130 56.350262 0.460286 -0.762974 0.453881 0.439216 0.913725 1 80 1.000000
$0b_bluesword
  80 0.763041 -21.683130 56.350262 0.460286 -0.762974 0.453881 0.439216 0.913725 1 80 1.000000
  80 0.013043 -22.058130 55.712765 -0.011017 -0.999248 0.037174 0.411765 0.890196 1 80 1.000000
  80 0.763043 -21.858133 55.712765 0.486746 -0.873543 0.001102 0.435294 0.890196 1 80 1.000000
$0b_bluesword
  80 0.013043 -22.058130 55.712765 -0.011017 -0.999248 0.037174 0.411765 0.890196 1 80 1.000000
  80 0.013046 -21.858135 54.962765 0.001314 -0.864778 -0.502153 0.411765 0.866667 1 80 1.000000
  80 0.763043 -21.858133 55.712765 0.486746 -0.873543 0.001102 0.435294 0.890196 1 80 1.000000
$0b_bluesword
  80 0.763043 -21.858133 55.712765 0.486746 -0.873543 0.001102 0.435294 0.890196 1 80 1.000000
  80 0.013046 -21.858135 54.962765 0.001314 -0.864778 -0.502153 0.411765 0.866667 1 80 1.000000
  80 0.763045 -21.683136 55.075260 0.487581 -0.757769 -0.433648 0.439216 0.870588 1 80 1.000000
$0b_bluesword
  80 0.013046 -21.858135 54.962765 0.001314 -0.864778 -0.502153 0.411765 0.866667 1 80 1.000000
  80 0.013048 -21.320637 54.425255 0.003726 -0.502284 -0.864695 0.411765 0.839216 1 80 1.000000
  80 0.763045 -21.683136 55.075260 0.487581 -0.757769 -0.433648 0.439216 0.870588 1 80 1.000000
$0b_bluesword
  80 0.763045 -21.683136 55.075260 0.487581 -0.757769 -0.433648 0.439216 0.870588 1 80 1.000000
  80 0.013048 -21.320637 54.425255 0.003726 -0.502284 -0.864695 0.411765 0.839216 1 80 1.000000
  80 0.763047 -21.220634 54.600262 0.486424 -0.436645 -0.756791 0.443137 0.847059 1 80 1.000000
$0b_bluesword
  80 0.013048 -21.320637 54.425255 0.003726 -0.502284 -0.864695 0.411765 0.839216 1 80 1.000000
  80 0.000549 -20.570637 54.225258 0.004002 -0.000002 -0.999992 0.411765 0.811765 1 80 1.000000
  80 0.763047 -21.220634 54.600262 0.486424 -0.436645 -0.756791 0.443137 0.847059 1 80 1.000000
$0b_bluesword
  80 0.763047 -21.220634 54.600262 0.486424 -0.436645 -0.756791 0.443137 0.847059 1 80 1.000000
  80 0.000549 -20.570637 54.225258 0.004002 -0.000002 -0.999992 0.411765 0.811765 1 80 1.000000
  80 0.763049 -20.570637 54.437763 0.489469 -0.000002 -0.872021 0.450980 0.823529 1 80 1.000000
$0b_bluesword
  80 0.000549 -20.570637 54.225258 0.004002 -0.000002 -0.999992 0.411765 0.811765 1 80 1.000000
  80 0.763048 -19.920637 54.600258 0.486424 0.436642 -0.756793 0.443137 0.847059 1 80 1.000000
  80 0.763049 -20.570637 54.437763 0.489469 -0.000002 -0.872021 0.450980 0.823529 1 80 1.000000
$0b_bluesword
  80 0.763049 -20.570637 54.437763 0.489469 -0.000002 -0.872021 0.450980 0.823529 1 80 1.000000
  80 0.763048 -19.920637 54.600258 0.486424 0.436642 -0.756793 0.443137 0.847059 1 80 1.000000
  80 1.300547 -20.195635 55.075260 0.845641 0.265062 -0.463286 0.470588 0.862745 1 80 1.000000
$0b_bluesword
  80 0.763048 -19.920637 54.600258 0.486424 0.436642 -0.756793 0.443137 0.847059 1 80 1.000000
  80 1.300546 -19.933132 55.337757 0.845419 0.462887 -0.266463 0.466667 0.878431 1 80 1.000000
  80 1.300547 -20.195635 55.075260 0.845641 0.265062 -0.463286 0.470588 0.862745 1 80 1.000000
$0b_bluesword
  80 1.300547 -20.195635 55.075260 0.845641 0.265062 -0.463286 0.470588 0.862745 1 80 1.000000
  80 1.300546 -19.933132 55.337757 0.845419 0.462887 -0.266463 0.466667 0.878431 1 80 1.000000
  80 1.513044 -20.570633 55.712765 0.999999 0.000000 0.001042 0.490196 0.890196 1 80 1.000000
$0b_bluesword
  80 -0.724451 -20.570635 54.412754 -0.487365 -0.000002 -0.873199 0.368627 0.823529 1 80 1.000000
  80 0.013049 -19.820637 54.425255 0.003726 0.502281 -0.864697 0.411765 0.839216 1 80 1.000000
  80 0.000549 -20.570637 54.225258 0.004002 -0.000002 -0.999992 0.411765 0.811765 1 80 1.000000
$0b_bluesword
  80 0.013048 -21.320637 54.425255 0.003726 -0.502284 -0.864695 0.411765 0.839216 1 80 1.000000
  80 -0.724451 -20.570635 54.412754 -0.487365 -0.000002 -0.873199 0.368627 0.823529 1 80 1.000000
  80 0.000549 -20.570637 54.225258 0.004002 -0.000002 -0.999992 0.411765 0.811765 1 80 1.000000
$0b_bluesword
  80 -0.724452 -21.208136 54.587761 -0.487873 -0.438375 -0.754856 0.380392 0.847059 1 80 1.000000
  80 -0.724451 -20.570635 54.412754 -0.487365 -0.000002 -0.873199 0.368627 0.823529 1 80 1.000000
  80 0.013048 -21.320637 54.425255 0.003726 -0.502284 -0.864695 0.411765 0.839216 1 80 1.000000
$0b_bluesword
  80 0.013046 -21.858135 54.962765 0.001314 -0.864778 -0.502153 0.411765 0.866667 1 80 1.000000
  80 -0.724452 -21.208136 54.587761 -0.487873 -0.438375 -0.754856 0.380392 0.847059 1 80 1.000000
  80 0.013048 -21.320637 54.425255 0.003726 -0.502284 -0.864695 0.411765 0.839216 1 80 1.000000
$0b_bluesword
  80 -0.724455 -21.695635 55.087761 -0.485255 -0.762251 -0.428370 0.384314 0.870588 1 80 1.000000
  80 -0.724452 -21.208136 54.587761 -0.487873 -0.438375 -0.754856 0.380392 0.847059 1 80 1.000000
  80 0.013046 -21.858135 54.962765 0.001314 -0.864778 -0.502153 0.411765 0.866667 1 80 1.000000
$0b_bluesword
  80 0.013043 -22.058130 55.712765 -0.011017 -0.999248 0.037174 0.411765 0.890196 1 80 1.000000
  80 -0.724455 -21.695635 55.087761 -0.485255 -0.762251 -0.428370 0.384314 0.870588 1 80 1.000000
  80 0.013046 -21.858135 54.962765 0.001314 -0.864778 -0.502153 0.411765 0.866667 1 80 1.000000
$0b_bluesword
  80 -0.724457 -21.858131 55.712761 -0.458614 -0.888630 0.003143 0.384314 0.890196 1 80 1.000000
  80 -0.724455 -21.695635 55.087761 -0.485255 -0.762251 -0.428370 0.384314 0.870588 1 80 1.000000
  80 0.013043 -22.058130 55.712765 -0.011017 -0.999248 0.037174 0.411765 0.890196 1 80 1.000000
$0b_bluesword
  80 0.013040 -21.783127 56.450260 0.010618 -0.860994 0.508505 0.411765 0.917647 1 80 1.000000
  80 -0.724457 -21.858131 55.712761 -0.458614 -0.888630 0.003143 0.384314 0.890196 1 80 1.000000
  80 0.013043 -22.058130 55.712765 -0.011017 -0.999248 0.037174 0.411765 0.890196 1 80 1.000000
$0b_bluesword
  80 -0.736959 -21.695627 56.375259 -0.422024 -0.795976 0.433956 0.384314 0.913725 1 80 1.000000
  80 -0.724457 -21.858131 55.712761 -0.458614 -0.888630 0.003143 0.384314 0.890196 1 80 1.000000
  80 0.013040 -21.783127 56.450260 0.010618 -0.860994 0.508505 0.411765 0.917647 1 80 1.000000
$0b_bluesword
  80 0.013039 -21.308128 57.000259 0.020873 -0.523955 0.851490 0.411765 0.945098 1 80 1.000000
  80 -0.736959 -21.695627 56.375259 -0.422024 -0.795976 0.433956 0.384314 0.913725 1 80 1.000000
  80 0.013040 -21.783127 56.450260 0.010618 -0.860994 0.508505 0.411765 0.917647 1 80 1.000000
$0b_bluesword
  80 -0.724460 -21.208126 56.850258 -0.447790 -0.428985 0.784510 0.380392 0.937255 1 80 1.000000
  80 -0.736959 -21.695627 56.375259 -0.422024 -0.795976 0.433956 0.384314 0.913725 1 80 1.000000
  80 0.013039 -21.308128 57.000259 0.020873 -0.523955 0.851490 0.411765 0.945098 1 80 1.000000
$0b_bluesword
  80 0.013039 -20.570627 57.200256 0.005399 0.000002 0.999985 0.411765 0.972549 1 80 1.000000
  80 -0.724460 -21.208126 56.850258 -0.447790 -0.428985 0.784510 0.380392 0.937255 1 80 1.000000
  80 0.013039 -21.308128 57.000259 0.020873 -0.523955 0.851490 0.411765 0.945098 1 80 1.000000
$0b_bluesword
  80 -0.724460 -20.570627 57.000248 -0.458546 0.000002 0.888671 0.368627 0.960784 1 80 1.000000
  80 -0.724460 -21.208126 56.850258 -0.447790 -0.428985 0.784510 0.380392 0.937255 1 80 1.000000
  80 0.013039 -20.570627 57.200256 0.005399 0.000002 0.999985 0.411765 0.972549 1 80 1.000000
$0b_bluesword
  80 -0.724460 -19.933128 56.850254 -0.447790 0.428988 0.784509 0.380392 0.937255 1 80 1.000000
  80 -0.724460 -20.570627 57.000248 -0.458546 0.000002 0.888671 0.368627 0.960784 1 80 1.000000
  80 0.013039 -20.570627 57.200256 0.005399 0.000002 0.999985 0.411765 0.972549 1 80 1.000000
$0b_bluesword
  80 -1.286958 -20.195629 56.425251 -0.823533 0.244002 0.512110 0.352941 0.921569 1 80 1.000000
  80 -0.724460 -20.570627 57.000248 -0.458546 0.000002 0.888671 0.368627 0.960784 1 80 1.000000
  80 -0.724460 -19.933128 56.850254 -0.447790 0.428988 0.784509 0.380392 0.937255 1 80 1.000000
$0b_bluesword
  80 -1.299457 -19.920630 56.175247 -0.833848 0.465083 0.297314 0.356863 0.905882 1 80 1.000000
  80 -1.286958 -20.195629 56.425251 -0.823533 0.244002 0.512110 0.352941 0.921569 1 80 1.000000
  80 -0.724460 -19.933128 56.850254 -0.447790 0.428988 0.784509 0.380392 0.937255 1 80 1.000000
$0b_bluesword
  80 -1.299457 -19.920630 56.175247 -0.833848 0.465083 0.297314 0.356863 0.905882 1 80 1.000000
  80 -0.724460 -19.933128 56.850254 -0.447790 0.428988 0.784509 0.380392 0.937255 1 80 1.000000
  80 -0.736958 -19.445629 56.375248 -0.422024 0.795978 0.433953 0.384314 0.913725 1 80 1.000000
$0b_bluesword
  80 -0.736958 -19.445629 56.375248 -0.422024 0.795978 0.433953 0.384314 0.913725 1 80 1.000000
  80 -0.724460 -19.933128 56.850254 -0.447790 0.428988 0.784509 0.380392 0.937255 1 80 1.000000
  80 0.013040 -19.833128 57.000252 0.020873 0.523958 0.851488 0.411765 0.945098 1 80 1.000000
$0b_bluesword
  80 -1.299457 -21.220631 56.175251 -0.833840 -0.465078 0.297344 0.356863 0.905882 1 80 1.000000
  80 -1.299457 -21.320631 55.775249 -0.840837 -0.541168 -0.011385 0.356863 0.890196 1 80 1.000000
  80 -0.736959 -21.695627 56.375259 -0.422024 -0.795976 0.433956 0.384314 0.913725 1 80 1.000000
$0b_bluesword
  80 -0.736959 -21.695627 56.375259 -0.422024 -0.795976 0.433956 0.384314 0.913725 1 80 1.000000
  80 -1.299457 -21.320631 55.775249 -0.840837 -0.541168 -0.011385 0.356863 0.890196 1 80 1.000000
  80 -0.724457 -21.858131 55.712761 -0.458614 -0.888630 0.003143 0.384314 0.890196 1 80 1.000000
$0b_bluesword
  80 -1.299457 -21.320631 55.775249 -0.840837 -0.541168 -0.011385 0.356863 0.890196 1 80 1.000000
  80 -1.286955 -21.220631 55.387753 -0.843697 -0.465476 -0.267409 0.356863 0.878431 1 80 1.000000
  80 -0.724457 -21.858131 55.712761 -0.458614 -0.888630 0.003143 0.384314 0.890196 1 80 1.000000
$0b_bluesword
  80 -0.724457 -21.858131 55.712761 -0.458614 -0.888630 0.003143 0.384314 0.890196 1 80 1.000000
  80 -1.286955 -21.220631 55.387753 -0.843697 -0.465476 -0.267409 0.356863 0.878431 1 80 1.000000
  80 -0.724455 -21.695635 55.087761 -0.485255 -0.762251 -0.428370 0.384314 0.870588 1 80 1.000000
$0b_bluesword
  80 -1.286955 -21.220631 55.387753 -0.843697 -0.465476 -0.267409 0.356863 0.878431 1 80 1.000000
  80 -1.286954 -20.945633 55.100254 -0.852123 -0.264113 -0.451808 0.352941 0.862745 1 80 1.000000
  80 -0.724455 -21.695635 55.087761 -0.485255 -0.762251 -0.428370 0.384314 0.870588 1 80 1.000000
$0b_bluesword
  80 -0.724455 -21.695635 55.087761 -0.485255 -0.762251 -0.428370 0.384314 0.870588 1 80 1.000000
  80 -1.286954 -20.945633 55.100254 -0.852123 -0.264113 -0.451808 0.352941 0.862745 1 80 1.000000
  80 -0.724452 -21.208136 54.587761 -0.487873 -0.438375 -0.754856 0.380392 0.847059 1 80 1.000000
$0b_bluesword
  80 -1.286954 -20.945633 55.100254 -0.852123 -0.264113 -0.451808 0.352941 0.862745 1 80 1.000000
  80 -1.274453 -20.570635 54.987751 -0.847847 -0.000001 -0.530241 0.341176 0.854902 1 80 1.000000
  80 -0.724452 -21.208136 54.587761 -0.487873 -0.438375 -0.754856 0.380392 0.847059 1 80 1.000000
$0b_bluesword
  80 -0.724452 -21.208136 54.587761 -0.487873 -0.438375 -0.754856 0.380392 0.847059 1 80 1.000000
  80 -1.274453 -20.570635 54.987751 -0.847847 -0.000001 -0.530241 0.341176 0.854902 1 80 1.000000
  80 -0.724451 -20.570635 54.412754 -0.487365 -0.000002 -0.873199 0.368627 0.823529 1 80 1.000000
$0b_bluesword
  80 -1.274453 -20.570635 54.987751 -0.847847 -0.000001 -0.530241 0.341176 0.854902 1 80 1.000000
  80 -0.724452 -19.933134 54.587749 -0.487873 0.438372 -0.754857 0.380392 0.847059 1 80 1.000000
  80 -0.724451 -20.570635 54.412754 -0.487365 -0.000002 -0.873199 0.368627 0.823529 1 80 1.000000
$0b_bluesword
  80 -0.724451 -20.570635 54.412754 -0.487365 -0.000002 -0.873199 0.368627 0.823529 1 80 1.000000
  80 -0.724452 -19.933134 54.587749 -0.487873 0.438372 -0.754857 0.380392 0.847059 1 80 1.000000
  80 0.013049 -19.820637 54.425255 0.003726 0.502281 -0.864697 0.411765 0.839216 1 80 1.000000
$0b_bluesword
  80 -0.724452 -19.933134 54.587749 -0.487873 0.438372 -0.754857 0.380392 0.847059 1 80 1.000000
  80 0.013047 -19.283136 54.962749 0.001314 0.864776 -0.502156 0.411765 0.866667 1 80 1.000000
  80 0.013049 -19.820637 54.425255 0.003726 0.502281 -0.864697 0.411765 0.839216 1 80 1.000000
$0b_bluesword
  80 0.013049 -19.820637 54.425255 0.003726 0.502281 -0.864697 0.411765 0.839216 1 80 1.000000
  80 0.013047 -19.283136 54.962749 0.001314 0.864776 -0.502156 0.411765 0.866667 1 80 1.000000
  80 0.763047 -19.458136 55.075256 0.487581 0.757768 -0.433651 0.439216 0.870588 1 80 1.000000
$0b_bluesword
  80 0.763047 -19.458136 55.075256 0.487581 0.757768 -0.433651 0.439216 0.870588 1 80 1.000000
  80 0.013047 -19.283136 54.962749 0.001314 0.864776 -0.502156 0.411765 0.866667 1 80 1.000000
  80 0.763044 -19.283134 55.712761 0.486746 0.873543 0.001099 0.435294 0.890196 1 80 1.000000
$0b_bluesword
  80 1.300544 -19.833132 55.712765 0.846025 0.533141 0.001619 0.462745 0.890196 1 80 1.000000
  80 0.763047 -19.458136 55.075256 0.487581 0.757768 -0.433651 0.439216 0.870588 1 80 1.000000
  80 0.763044 -19.283134 55.712761 0.486746 0.873543 0.001099 0.435294 0.890196 1 80 1.000000
$0b_bluesword
  80 1.300546 -19.933132 55.337757 0.845419 0.462887 -0.266463 0.466667 0.878431 1 80 1.000000
  80 0.763047 -19.458136 55.075256 0.487581 0.757768 -0.433651 0.439216 0.870588 1 80 1.000000
  80 1.300544 -19.833132 55.712765 0.846025 0.533141 0.001619 0.462745 0.890196 1 80 1.000000
$0b_bluesword
  80 0.763048 -19.920637 54.600258 0.486424 0.436642 -0.756793 0.443137 0.847059 1 80 1.000000
  80 0.763047 -19.458136 55.075256 0.487581 0.757768 -0.433651 0.439216 0.870588 1 80 1.000000
  80 1.300546 -19.933132 55.337757 0.845419 0.462887 -0.266463 0.466667 0.878431 1 80 1.000000
$0b_bluesword
  80 0.013049 -19.820637 54.425255 0.003726 0.502281 -0.864697 0.411765 0.839216 1 80 1.000000
  80 0.763047 -19.458136 55.075256 0.487581 0.757768 -0.433651 0.439216 0.870588 1 80 1.000000
  80 0.763048 -19.920637 54.600258 0.486424 0.436642 -0.756793 0.443137 0.847059 1 80 1.000000
$0b_bluesword
  80 0.000549 -20.570637 54.225258 0.004002 -0.000002 -0.999992 0.411765 0.811765 1 80 1.000000
  80 0.013049 -19.820637 54.425255 0.003726 0.502281 -0.864697 0.411765 0.839216 1 80 1.000000
  80 0.763048 -19.920637 54.600258 0.486424 0.436642 -0.756793 0.443137 0.847059 1 80 1.000000
$0b_bluesword
  80 -1.499456 -20.570629 55.800251 -0.999955 0.000000 0.009488 0.329412 0.890196 1 80 1.000000
  80 -1.286958 -20.945629 56.425251 -0.823533 -0.244000 0.512111 0.352941 0.921569 1 80 1.000000
  80 -1.286958 -20.570627 56.500256 -0.826846 0.000001 0.562428 0.341176 0.929412 1 80 1.000000
$0b_bluesword
  80 -1.499456 -20.570629 55.800251 -0.999955 0.000000 0.009488 0.329412 0.890196 1 80 1.000000
  80 -1.299457 -21.220631 56.175251 -0.833840 -0.465078 0.297344 0.356863 0.905882 1 80 1.000000
  80 -1.286958 -20.945629 56.425251 -0.823533 -0.244000 0.512111 0.352941 0.921569 1 80 1.000000
$0b_bluesword
  80 -1.499456 -20.570629 55.800251 -0.999955 0.000000 0.009488 0.329412 0.890196 1 80 1.000000
  80 -1.299457 -21.320631 55.775249 -0.840837 -0.541168 -0.011385 0.356863 0.890196 1 80 1.000000
  80 -1.299457 -21.220631 56.175251 -0.833840 -0.465078 0.297344 0.356863 0.905882 1 80 1.000000
$0b_bluesword
  80 -1.499456 -20.570629 55.800251 -0.999955 0.000000 0.009488 0.329412 0.890196 1 80 1.000000
  80 -1.286955 -21.220631 55.387753 -0.843697 -0.465476 -0.267409 0.356863 0.878431 1 80 1.000000
  80 -1.299457 -21.320631 55.775249 -0.840837 -0.541168 -0.011385 0.356863 0.890196 1 80 1.000000
$0b_bluesword
  80 -1.499456 -20.570629 55.800251 -0.999955 0.000000 0.009488 0.329412 0.890196 1 80 1.000000
  80 -1.286954 -20.945633 55.100254 -0.852123 -0.264113 -0.451808 0.352941 0.862745 1 80 1.000000
  80 -1.286955 -21.220631 55.387753 -0.843697 -0.465476 -0.267409 0.356863 0.878431 1 80 1.000000
$0b_bluesword
  80 -1.499456 -20.570629 55.800251 -0.999955 0.000000 0.009488 0.329412 0.890196 1 80 1.000000
  80 -1.274453 -20.570635 54.987751 -0.847847 -0.000001 -0.530241 0.341176 0.854902 1 80 1.000000
  80 -1.286954 -20.945633 55.100254 -0.852123 -0.264113 -0.451808 0.352941 0.862745 1 80 1.000000
$0b_bluesword
  80 -1.499456 -20.570629 55.800251 -0.999955 0.000000 0.009488 0.329412 0.890196 1 80 1.000000
  80 -1.286954 -20.195633 55.100254 -0.852123 0.264112 -0.451809 0.352941 0.862745 1 80 1.000000
  80 -1.274453 -20.570635 54.987751 -0.847847 -0.000001 -0.530241 0.341176 0.854902 1 80 1.000000
$0b_bluesword
  80 -1.274453 -20.570635 54.987751 -0.847847 -0.000001 -0.530241 0.341176 0.854902 1 80 1.000000
  80 -1.286954 -20.195633 55.100254 -0.852123 0.264112 -0.451809 0.352941 0.862745 1 80 1.000000
  80 -0.724452 -19.933134 54.587749 -0.487873 0.438372 -0.754857 0.380392 0.847059 1 80 1.000000
$0b_bluesword
  80 -0.724452 -19.933134 54.587749 -0.487873 0.438372 -0.754857 0.380392 0.847059 1 80 1.000000
  80 -1.286954 -20.195633 55.100254 -0.852123 0.264112 -0.451809 0.352941 0.862745 1 80 1.000000
  80 -0.724454 -19.445635 55.087757 -0.485255 0.762249 -0.428373 0.384314 0.870588 1 80 1.000000
$0b_bluesword
  80 0.013047 -19.283136 54.962749 0.001314 0.864776 -0.502156 0.411765 0.866667 1 80 1.000000
  80 -0.724452 -19.933134 54.587749 -0.487873 0.438372 -0.754857 0.380392 0.847059 1 80 1.000000
  80 -0.724454 -19.445635 55.087757 -0.485255 0.762249 -0.428373 0.384314 0.870588 1 80 1.000000
$0b_bluesword
  80 0.013047 -19.283136 54.962749 0.001314 0.864776 -0.502156 0.411765 0.866667 1 80 1.000000
  80 -0.724454 -19.445635 55.087757 -0.485255 0.762249 -0.428373 0.384314 0.870588 1 80 1.000000
  80 0.013046 -19.083132 55.712749 -0.011017 0.999248 0.037170 0.411765 0.890196 1 80 1.000000
$0b_bluesword
  80 0.763044 -19.283134 55.712761 0.486746 0.873543 0.001099 0.435294 0.890196 1 80 1.000000
  80 0.013047 -19.283136 54.962749 0.001314 0.864776 -0.502156 0.411765 0.866667 1 80 1.000000
  80 0.013046 -19.083132 55.712749 -0.011017 0.999248 0.037170 0.411765 0.890196 1 80 1.000000
$0b_bluesword
  80 0.013046 -19.083132 55.712749 -0.011017 0.999248 0.037170 0.411765 0.890196 1 80 1.000000
  80 -0.724454 -19.445635 55.087757 -0.485255 0.762249 -0.428373 0.384314 0.870588 1 80 1.000000
  80 -0.724456 -19.283131 55.712757 -0.458614 0.888630 0.003140 0.384314 0.890196 1 80 1.000000
$0b_bluesword
  80 -0.724454 -19.445635 55.087757 -0.485255 0.762249 -0.428373 0.384314 0.870588 1 80 1.000000
  80 -1.286955 -19.920631 55.387749 -0.843697 0.465475 -0.267411 0.356863 0.878431 1 80 1.000000
  80 -0.724456 -19.283131 55.712757 -0.458614 0.888630 0.003140 0.384314 0.890196 1 80 1.000000
$0b_bluesword
  80 -1.286954 -20.195633 55.100254 -0.852123 0.264112 -0.451809 0.352941 0.862745 1 80 1.000000
  80 -1.286955 -19.920631 55.387749 -0.843697 0.465475 -0.267411 0.356863 0.878431 1 80 1.000000
  80 -0.724454 -19.445635 55.087757 -0.485255 0.762249 -0.428373 0.384314 0.870588 1 80 1.000000
$0b_bluesword
  80 -1.499456 -20.570629 55.800251 -0.999955 0.000000 0.009488 0.329412 0.890196 1 80 1.000000
  80 -1.286955 -19.920631 55.387749 -0.843697 0.465475 -0.267411 0.356863 0.878431 1 80 1.000000
  80 -1.286954 -20.195633 55.100254 -0.852123 0.264112 -0.451809 0.352941 0.862745 1 80 1.000000
$0b_bluesword
  80 -1.286955 -19.920631 55.387749 -0.843697 0.465475 -0.267411 0.356863 0.878431 1 80 1.000000
  80 -1.499456 -20.570629 55.800251 -0.999955 0.000000 0.009488 0.329412 0.890196 1 80 1.000000
  80 -1.299456 -19.820629 55.775246 -0.840860 0.541133 -0.011387 0.356863 0.890196 1 80 1.000000
$0b_bluesword
  80 -0.724456 -19.283131 55.712757 -0.458614 0.888630 0.003140 0.384314 0.890196 1 80 1.000000
  80 -1.286955 -19.920631 55.387749 -0.843697 0.465475 -0.267411 0.356863 0.878431 1 80 1.000000
  80 -1.299456 -19.820629 55.775246 -0.840860 0.541133 -0.011387 0.356863 0.890196 1 80 1.000000
$0b_bluesword
  80 1.513044 -20.570633 55.712765 0.999999 0.000000 0.001042 0.490196 0.890196 1 80 1.000000
  80 1.300546 -19.933132 55.337757 0.845419 0.462887 -0.266463 0.466667 0.878431 1 80 1.000000
  80 1.300544 -19.833132 55.712765 0.846025 0.533141 0.001619 0.462745 0.890196 1 80 1.000000
$0b_bluesword
  80 1.513044 -20.570633 55.712765 0.999999 0.000000 0.001042 0.490196 0.890196 1 80 1.000000
  80 1.300544 -19.833132 55.712765 0.846025 0.533141 0.001619 0.462745 0.890196 1 80 1.000000
  80 1.300543 -19.933132 56.075260 0.846144 0.460657 0.268022 0.466667 0.905882 1 80 1.000000
$0b_bluesword
  80 0.763044 -19.283134 55.712761 0.486746 0.873543 0.001099 0.435294 0.890196 1 80 1.000000
  80 1.300543 -19.933132 56.075260 0.846144 0.460657 0.268022 0.466667 0.905882 1 80 1.000000
  80 1.300544 -19.833132 55.712765 0.846025 0.533141 0.001619 0.462745 0.890196 1 80 1.000000
$0b_bluesword
  80 0.763042 -19.458128 56.350258 0.460286 0.762976 0.453878 0.439216 0.913725 1 80 1.000000
  80 1.300543 -19.933132 56.075260 0.846144 0.460657 0.268022 0.466667 0.905882 1 80 1.000000
  80 0.763044 -19.283134 55.712761 0.486746 0.873543 0.001099 0.435294 0.890196 1 80 1.000000
$0b_bluesword
  80 0.763042 -19.458128 56.350258 0.460286 0.762976 0.453878 0.439216 0.913725 1 80 1.000000
  80 0.763044 -19.283134 55.712761 0.486746 0.873543 0.001099 0.435294 0.890196 1 80 1.000000
  80 0.013046 -19.083132 55.712749 -0.011017 0.999248 0.037170 0.411765 0.890196 1 80 1.000000
$0b_bluesword
  80 0.763042 -19.458128 56.350258 0.460286 0.762976 0.453878 0.439216 0.913725 1 80 1.000000
  80 0.013046 -19.083132 55.712749 -0.011017 0.999248 0.037170 0.411765 0.890196 1 80 1.000000
  80 0.013042 -19.358130 56.450253 0.010618 0.860996 0.508501 0.411765 0.917647 1 80 1.000000
$0b_bluesword
  80 -0.724456 -19.283131 55.712757 -0.458614 0.888630 0.003140 0.384314 0.890196 1 80 1.000000
  80 0.013042 -19.358130 56.450253 0.010618 0.860996 0.508501 0.411765 0.917647 1 80 1.000000
  80 0.013046 -19.083132 55.712749 -0.011017 0.999248 0.037170 0.411765 0.890196 1 80 1.000000
$0b_bluesword
  80 -0.724456 -19.283131 55.712757 -0.458614 0.888630 0.003140 0.384314 0.890196 1 80 1.000000
  80 -0.736958 -19.445629 56.375248 -0.422024 0.795978 0.433953 0.384314 0.913725 1 80 1.000000
  80 0.013042 -19.358130 56.450253 0.010618 0.860996 0.508501 0.411765 0.917647 1 80 1.000000
$0b_bluesword
  80 -1.299456 -19.820629 55.775246 -0.840860 0.541133 -0.011387 0.356863 0.890196 1 80 1.000000
  80 -0.736958 -19.445629 56.375248 -0.422024 0.795978 0.433953 0.384314 0.913725 1 80 1.000000
  80 -0.724456 -19.283131 55.712757 -0.458614 0.888630 0.003140 0.384314 0.890196 1 80 1.000000
$0b_bluesword
  80 -0.736958 -19.445629 56.375248 -0.422024 0.795978 0.433953 0.384314 0.913725 1 80 1.000000
  80 -1.299456 -19.820629 55.775246 -0.840860 0.541133 -0.011387 0.356863 0.890196 1 80 1.000000
  80 -1.299457 -19.920630 56.175247 -0.833848 0.465083 0.297314 0.356863 0.905882 1 80 1.000000
$0b_bluesword
  80 -1.299456 -19.820629 55.775246 -0.840860 0.541133 -0.011387 0.356863 0.890196 1 80 1.000000
  80 -1.499456 -20.570629 55.800251 -0.999955 0.000000 0.009488 0.329412 0.890196 1 80 1.000000
  80 -1.299457 -19.920630 56.175247 -0.833848 0.465083 0.297314 0.356863 0.905882 1 80 1.000000
$0b_bluesword
  80 -1.499456 -20.570629 55.800251 -0.999955 0.000000 0.009488 0.329412 0.890196 1 80 1.000000
  80 -1.286958 -20.195629 56.425251 -0.823533 0.244002 0.512110 0.352941 0.921569 1 80 1.000000
  80 -1.299457 -19.920630 56.175247 -0.833848 0.465083 0.297314 0.356863 0.905882 1 80 1.000000
$0b_bluesword
  80 -1.499456 -20.570629 55.800251 -0.999955 0.000000 0.009488 0.329412 0.890196 1 80 1.000000
  80 -1.286958 -20.570627 56.500256 -0.826846 0.000001 0.562428 0.341176 0.929412 1 80 1.000000
  80 -1.286958 -20.195629 56.425251 -0.823533 0.244002 0.512110 0.352941 0.921569 1 80 1.000000
$0b_bluesword
  80 -1.286958 -20.195629 56.425251 -0.823533 0.244002 0.512110 0.352941 0.921569 1 80 1.000000
  80 -1.286958 -20.570627 56.500256 -0.826846 0.000001 0.562428 0.341176 0.929412 1 80 1.000000
  80 -0.724460 -20.570627 57.000248 -0.458546 0.000002 0.888671 0.368627 0.960784 1 80 1.000000
$0b_bluesword
  80 -1.286958 -20.570627 56.500256 -0.826846 0.000001 0.562428 0.341176 0.929412 1 80 1.000000
  80 -1.286958 -20.945629 56.425251 -0.823533 -0.244000 0.512111 0.352941 0.921569 1 80 1.000000
  80 -0.724460 -20.570627 57.000248 -0.458546 0.000002 0.888671 0.368627 0.960784 1 80 1.000000
$0b_bluesword
  80 -0.724460 -20.570627 57.000248 -0.458546 0.000002 0.888671 0.368627 0.960784 1 80 1.000000
  80 -1.286958 -20.945629 56.425251 -0.823533 -0.244000 0.512111 0.352941 0.921569 1 80 1.000000
  80 -0.724460 -21.208126 56.850258 -0.447790 -0.428985 0.784510 0.380392 0.937255 1 80 1.000000
$0b_bluesword
  80 -1.286958 -20.945629 56.425251 -0.823533 -0.244000 0.512111 0.352941 0.921569 1 80 1.000000
  80 -1.299457 -21.220631 56.175251 -0.833840 -0.465078 0.297344 0.356863 0.905882 1 80 1.000000
  80 -0.724460 -21.208126 56.850258 -0.447790 -0.428985 0.784510 0.380392 0.937255 1 80 1.000000
$0b_bluesword
  80 -0.724460 -21.208126 56.850258 -0.447790 -0.428985 0.784510 0.380392 0.937255 1 80 1.000000
  80 -1.299457 -21.220631 56.175251 -0.833840 -0.465078 0.297344 0.356863 0.905882 1 80 1.000000
  80 -0.736959 -21.695627 56.375259 -0.422024 -0.795976 0.433956 0.384314 0.913725 1 80 1.000000
$0b_eyephantom02
  95 2.042646 -22.215038 41.417534 0.687596 -0.533606 -0.492419 1.000000 0.000000 1 95 1.000000
  95 0.778934 -24.048132 41.639355 0.687596 -0.533606 -0.492419 1.000000 1.000000 1 95 1.000000
  95 1.021613 -21.745268 39.482796 0.687596 -0.533606 -0.492419 0.000000 0.000000 1 95 1.000000
$0b_eyephantom02
  95 1.021613 -21.745268 39.482796 0.687596 -0.533606 -0.492419 0.000000 0.000000 1 95 1.000000
  95 0.778934 -24.048132 41.639355 0.687596 -0.533606 -0.492419 1.000000 1.000000 1 95 1.000000
  95 -0.242100 -23.578363 39.704613 0.687596 -0.533606 -0.492419 0.000000 1.000000 1 95 1.000000
$0b_eyephantom02
  94 -1.909228 -21.611526 40.393192 -0.405416 -0.561620 -0.721263 1.000000 0.000000 1 94 1.000000
  94 0.135592 -22.126667 39.644920 -0.405416 -0.561620 -0.721263 0.000000 0.000000 1 94 1.000000
  94 -1.871961 -23.386810 41.754585 -0.405416 -0.561620 -0.721263 1.000000 1.000000 1 94 1.000000
$0b_eyephantom02
  94 -1.871961 -23.386810 41.754585 -0.405416 -0.561620 -0.721263 1.000000 1.000000 1 94 1.000000
  94 0.135592 -22.126667 39.644920 -0.405416 -0.561620 -0.721263 0.000000 0.000000 1 94 1.000000
  94 0.172859 -23.901949 41.006313 -0.405416 -0.561620 -0.721263 0.000000 1.000000 1 94 1.000000
end
