// Created by Crowbar 0.49.0.0

$modelname "weapons/tfa_cso/w_scarl.mdl"

$bodygroup "studio"
{
	studio "s_scar556limited_p_scar_Limit"
}

$collisionmodel "s_scar556limited_p_scar_Limit.smd"
{
	$mass 9
}

$CDMaterials "models\weapons\tfa_cso\scar_l"

$attachment "0" "Bip01" 6.30 19.00 13.00 rotate -0 0 0

$sequence "idle" {
	"s_scar556limited_anims\idle"
	fps 30
}
