version 1
nodes
  0 "Bone01" -1
  1 "Bone_Lefthand" 0
  2 "Bone02" 1
  3 "Bone03" 2
  4 "Bone50" 3
  5 "Bone52" 3
  6 "Bone48" 3
  7 "Bone25" 3
  8 "Bone54" 3
  9 "Bone 04" 1
  10 "Bone13" 9
  11 "Bone14" 10
  12 "Bone15" 11
  13 "Bone17" 9
  14 "Bone18" 13
  15 "Bone19" 14
  16 "Bone21" 9
  17 "Bone22" 16
  18 "Bone23" 17
  19 "Bone05" 9
  20 "Bone06" 19
  21 "Bone07" 20
  22 "Bone09" 9
  23 "Bone10" 22
  24 "Bone11" 23
  25 "Bone04" -1
  26 "Bone_Righthand" 25
  27 "Bone26" 26
  28 "Bone35" 27
  29 "Bone36" 28
  30 "Bone37" 29
  31 "Bone31" 27
  32 "Bone32" 31
  33 "Bone33" 32
  34 "Bone39" 27
  35 "Bone40" 34
  36 "Bone41" 35
  37 "Bone43" 27
  38 "Bone44" 37
  39 "Bone45" 38
  40 "Bone27" 27
  41 "Bone28" 40
  42 "Bone29" 41
end
skeleton
  time 0
    0 6.608080 2.168885 -6.193996 -0.774287 -1.331381 0.567267
    1 0.000000 -8.563280 0.000000 0.347158 -0.117019 -0.166590
    2 -0.424379 -3.413320 0.699675 -1.186398 1.434476 -1.173754
    3 0.000000 2.286977 0.873886 0.000000 0.000000 0.000000
    4 0.000000 -0.743733 1.487464 0.000000 0.000000 0.000000
    5 0.000000 -0.234939 2.045263 0.000000 0.000000 0.000000
    6 0.000000 -1.580430 1.264344 0.000000 0.000000 0.000000
    7 0.000001 -2.844774 1.022632 0.000000 0.000000 0.000000
    8 0.024938 -1.409603 0.862229 0.000000 0.000000 0.000000
    9 -0.003480 -0.404829 0.000000 0.000000 0.000000 0.000000
    10 -0.519309 -2.501154 -0.278957 -1.003564 0.000000 -0.122173
    11 -0.010598 -1.208184 0.000001 -1.090831 0.000000 0.000000
    12 0.000000 -0.763067 0.000001 -1.343903 0.000000 0.000000
    13 0.105981 -2.607133 -0.278957 -0.890118 0.000000 -0.148353
    14 0.000000 -1.250579 0.000000 -1.213004 0.000000 0.000000
    15 0.000000 -0.932634 0.000000 -1.483530 0.000000 0.000000
    16 0.763064 -2.490555 -0.278957 -0.349046 0.000000 0.130900
    17 -0.012322 -1.280916 0.000000 -0.322889 0.000000 0.000000
    18 -0.001697 -0.749371 0.000000 -0.593412 0.000000 0.000000
    19 0.354567 0.016267 0.318133 0.342077 -0.443527 -1.083976
    20 1.887165 0.012879 0.000000 -0.305433 0.000000 -0.401426
    21 1.001874 -0.000270 0.000000 0.000000 0.000000 -0.488692
    22 -1.123359 -2.195093 -0.278957 -0.933751 0.000000 -0.087266
    23 0.010772 -0.963791 0.000000 -0.610865 0.000000 0.000000
    24 -0.010412 -0.631916 -0.000001 -1.213004 0.000000 0.000000
    25 -1.146758 -0.796411 -10.260373 -0.375279 0.000048 0.602079
    26 0.089932 -8.543161 0.000000 0.079775 -0.284689 0.455188
    27 0.000000 -0.359713 0.000000 0.000000 0.000000 0.000000
    28 -0.170478 -2.636146 -0.277656 -0.820356 0.000000 0.000000
    29 0.010599 -1.261177 0.000001 -0.584674 0.000000 0.000000
    30 -0.000001 -0.943233 -0.000001 -0.532326 0.000000 0.000000
    31 -0.827562 -2.508972 -0.277656 -0.942519 0.000000 0.000000
    32 0.000000 -1.292971 0.000000 -0.287990 0.000000 0.000000
    33 0.000000 -0.752466 0.000000 -0.445059 0.000000 0.000000
    34 0.444213 -2.561959 -0.277655 -1.081552 -0.046226 -0.024599
    35 0.021022 -1.208186 0.000000 -0.427606 0.000000 0.000000
    36 0.010597 -0.741867 -0.000001 -0.453786 0.000000 0.000000
    37 1.047445 -2.222821 -0.277655 -1.019670 -0.066950 -0.041090
    38 0.000000 -0.996223 -0.000001 -0.584709 0.000000 0.000000
    39 0.000000 -0.614690 0.000000 -0.523599 0.000000 0.000000
    40 -0.308254 -0.007814 0.307166 -0.318046 -0.539819 -2.424641
    41 1.978377 0.019543 0.000001 -0.000002 -0.000010 0.549770
    42 0.982426 0.003186 0.000001 0.000000 0.000000 0.593409
end
triangles
p228_handle.bmp
  2 4.414100 -9.129928 -3.906415 -1.000000 0.000100 0.000000 0.384314 0.559055
  2 4.404054 -9.809941 -2.686422 -1.000000 0.000100 0.000000 0.498039 0.850394
  2 4.414100 -9.059934 -3.336414 -1.000000 0.000100 0.000000 0.376471 0.700787
p228_handle.bmp
  2 4.414100 -9.059934 -3.336414 -1.000000 0.000100 0.000000 0.376471 0.700787
  2 4.404054 -9.809941 -2.686422 -1.000000 0.000100 0.000000 0.498039 0.850394
  2 4.404117 -8.699938 -2.956410 -1.000000 0.000100 0.000000 0.313725 0.779528
p228_handle.bmp
  2 4.404054 -9.809941 -2.686422 -1.000000 0.000100 0.000000 0.498039 0.850394
  2 4.414163 -7.849941 -2.696400 -1.000000 0.000100 0.000000 0.176471 0.850394
  2 4.404117 -8.699938 -2.956410 -1.000000 0.000100 0.000000 0.313725 0.779528
p228_handle.bmp
  2 4.404117 -8.699938 -2.956410 -1.000000 0.000100 0.000000 0.313725 0.779528
  2 4.414163 -7.849941 -2.696400 -1.000000 0.000100 0.000000 0.176471 0.850394
  2 4.414182 -7.539939 -2.966397 -1.000000 0.000100 0.000000 0.129412 0.779528
p228_handle.bmp
  2 4.414163 -7.849941 -2.696400 -1.000000 0.000100 0.000000 0.176471 0.850394
  2 4.414162 -7.849943 -2.536400 -1.000000 0.000100 0.000000 0.176471 0.881890
  2 4.414182 -7.539939 -2.966397 -1.000000 0.000100 0.000000 0.129412 0.779528
p228_handle.bmp
  2 4.414182 -7.539939 -2.966397 -1.000000 0.000100 0.000000 0.129412 0.779528
  2 4.414162 -7.849943 -2.536400 -1.000000 0.000100 0.000000 0.176471 0.881890
  2 4.414169 -7.719943 -2.536399 -1.000000 0.000100 0.000000 0.152941 0.881890
p228_handle.bmp
  4 4.624202 -7.196706 -2.975042 -1.000000 0.000100 0.000000 0.760784 0.574803
  4 4.634183 -7.516708 -2.855045 -1.000000 0.000100 0.000000 0.835294 0.551181
  4 4.634197 -7.266709 -2.805042 -1.000000 0.000100 0.000000 0.792157 0.606299
p228_handle.bmp
  4 4.634197 -7.266709 -2.805042 -1.000000 0.000100 0.000000 0.792157 0.606299
  4 4.634183 -7.516708 -2.855045 -1.000000 0.000100 0.000000 0.835294 0.551181
  4 4.634184 -7.466710 -2.675045 -1.000000 0.000100 0.000000 0.854902 0.598425
p228_handle.bmp
  4 4.634183 -7.516708 -2.855045 -1.000000 0.000100 0.000000 0.835294 0.551181
  4 4.624154 -8.046707 -2.905051 -1.000000 0.000100 0.000000 0.921569 0.456693
  4 4.634184 -7.466710 -2.675045 -1.000000 0.000100 0.000000 0.854902 0.598425
p228_handle.bmp
  4 4.634184 -7.466710 -2.675045 -1.000000 0.000100 0.000000 0.854902 0.598425
  4 4.624154 -8.046707 -2.905051 -1.000000 0.000100 0.000000 0.921569 0.456693
  4 4.634179 -7.546712 -2.535045 -1.000000 0.000100 0.000000 0.882353 0.629921
p228_handle.bmp
  4 4.624154 -8.046707 -2.905051 -1.000000 0.000100 0.000000 0.921569 0.456693
  4 4.624149 -8.086711 -2.555052 -1.000000 0.000100 0.000000 0.964706 0.535433
  4 4.634179 -7.546712 -2.535045 -1.000000 0.000100 0.000000 0.882353 0.629921
p228_handle.bmp
  2 4.564109 -9.039930 -4.476413 -1.000000 0.000100 0.000000 0.439216 0.086614
  2 4.574072 -9.679931 -4.396420 -1.000000 0.000100 0.000000 0.537255 0.110236
  2 4.574094 -9.219937 -3.876414 -1.000000 0.000100 0.000000 0.466667 0.228346
p228_handle.bmp
  2 4.574094 -9.219937 -3.876414 -1.000000 0.000100 0.000000 0.466667 0.228346
  2 4.574072 -9.679931 -4.396420 -1.000000 0.000100 0.000000 0.537255 0.110236
  2 4.574070 -9.699933 -4.276420 -1.000000 0.000100 0.000000 0.541176 0.133858
p228_handle.bmp
  2 4.574072 -9.679931 -4.396420 -1.000000 0.000100 0.000000 0.537255 0.110236
  2 4.564039 -10.279930 -4.496426 -1.000000 0.000100 0.000000 0.639216 0.086614
  2 4.574070 -9.699933 -4.276420 -1.000000 0.000100 0.000000 0.541176 0.133858
p228_handle.bmp
  2 4.574070 -9.699933 -4.276420 -1.000000 0.000100 0.000000 0.541176 0.133858
  2 4.564039 -10.279930 -4.496426 -1.000000 0.000100 0.000000 0.639216 0.086614
  2 4.564039 -10.279931 -4.386426 -1.000000 0.000100 0.000000 0.639216 0.110236
p228_handle.bmp
  2 4.564039 -10.279930 -4.496426 -1.000000 0.000100 0.000000 0.639216 0.086614
  2 4.573984 -11.229934 -4.186437 -1.000000 0.000100 0.000000 0.796078 0.165354
  2 4.564039 -10.279931 -4.386426 -1.000000 0.000100 0.000000 0.639216 0.110236
p228_handle.bmp
  2 5.014053 -9.819975 -2.686418 0.000000 0.000000 1.000000 0.498039 0.850394
  2 4.834146 -8.159965 -2.676401 0.000000 0.000000 1.000000 0.243137 0.850394
  2 4.934053 -9.819971 -2.686419 0.000000 0.000000 1.000000 0.498039 0.850394
p228_handle.bmp
  2 4.934053 -9.819971 -2.686419 0.000000 0.000000 1.000000 0.498039 0.850394
  2 4.834146 -8.159965 -2.676401 0.000000 0.000000 1.000000 0.243137 0.850394
  2 4.484054 -9.809946 -2.686422 0.000000 0.000000 1.000000 0.498039 0.850394
p228_handle.bmp
  2 4.834146 -8.159965 -2.676401 0.000000 0.000000 1.000000 0.243137 0.850394
  2 4.574146 -8.159951 -2.676403 0.000000 0.000000 1.000000 0.243137 0.850394
  2 4.484054 -9.809946 -2.686422 0.000000 0.000000 1.000000 0.498039 0.850394
p228_handle.bmp
  2 4.484054 -9.809946 -2.686422 0.000000 0.000000 1.000000 0.498039 0.850394
  2 4.574146 -8.159951 -2.676403 0.000000 0.000000 1.000000 0.243137 0.850394
  2 4.404054 -9.809941 -2.686422 0.000000 0.000000 1.000000 0.498039 0.850394
p228_handle.bmp
  2 4.483956 -11.639938 -3.376442 -1.000000 0.000100 0.000000 0.792157 0.692913
  2 4.483937 -11.939941 -3.116446 -1.000000 0.000100 0.000000 0.843137 0.748031
  2 4.484054 -9.809946 -2.686422 -1.000000 0.000100 0.000000 0.498039 0.850394
p228_handle.bmp
  2 4.484054 -9.809946 -2.686422 -1.000000 0.000100 0.000000 0.498039 0.850394
  2 4.483937 -11.939941 -3.116446 -1.000000 0.000100 0.000000 0.843137 0.748031
  2 4.493890 -12.739946 -2.706455 -1.000000 0.000100 0.000000 0.988235 0.850394
p228_handle.bmp
  2 4.483937 -11.939941 -3.116446 -1.000000 0.000100 0.000000 0.843137 0.748031
  2 4.493893 -12.739941 -3.126455 -1.000000 0.000100 0.000000 0.988235 0.748031
  2 4.493890 -12.739946 -2.706455 -1.000000 0.000100 0.000000 0.988235 0.850394
p228_handle.bmp
  7 4.604021 -10.597732 -4.219912 -1.000000 0.000100 0.000000 0.666667 0.244094
  7 4.604032 -10.357736 -3.889909 -1.000000 0.000100 0.000000 0.611765 0.307087
  7 4.604047 -10.107734 -4.019906 -1.000000 0.000100 0.000000 0.560784 0.283465
p228_handle.bmp
  7 4.604047 -10.107734 -4.019906 -1.000000 0.000100 0.000000 0.560784 0.283465
  7 4.604032 -10.357736 -3.889909 -1.000000 0.000100 0.000000 0.611765 0.307087
  7 4.604048 -10.037739 -3.599905 -1.000000 0.000100 0.000000 0.552941 0.385827
p228_handle.bmp
  7 4.604032 -10.357736 -3.889909 -1.000000 0.000100 0.000000 0.611765 0.307087
  7 4.604023 -10.437743 -3.269910 -1.000000 0.000100 0.000000 0.631373 0.480315
  7 4.604048 -10.037739 -3.599905 -1.000000 0.000100 0.000000 0.552941 0.385827
p228_handle.bmp
  2 4.904035 -10.049977 -1.976422 0.000100 1.000000 0.000000 0.658824 0.393701
  2 4.904039 -10.049972 -2.456422 0.000100 1.000000 0.000000 0.658824 0.267717
  2 4.524035 -10.049956 -1.976424 0.000100 1.000000 0.000000 0.658824 0.393701
p228_handle.bmp
  2 4.524035 -10.049956 -1.976424 0.000100 1.000000 0.000000 0.658824 0.393701
  2 4.904039 -10.049972 -2.456422 0.000100 1.000000 0.000000 0.658824 0.267717
  2 4.454037 -10.039951 -2.086424 0.000100 1.000000 0.000000 0.658824 0.354331
p228_handle.bmp
  2 4.904039 -10.049972 -2.456422 0.000100 1.000000 0.000000 0.658824 0.267717
  2 4.454039 -10.039947 -2.446425 0.000100 1.000000 0.000000 0.658824 0.267717
  2 4.454037 -10.039951 -2.086424 0.000100 1.000000 0.000000 0.658824 0.354331
p228_handle.bmp
  2 4.404054 -9.809941 -2.686422 -1.000000 0.000100 0.000000 0.498039 0.850394
  2 4.414100 -9.129928 -3.906415 -1.000000 0.000100 0.000000 0.384314 0.559055
  2 4.414100 -9.169923 -4.306415 -1.000000 0.000100 0.000000 0.392157 0.464567
p228_handle.bmp
  2 4.414100 -9.169923 -4.306415 -1.000000 0.000100 0.000000 0.392157 0.464567
  2 4.414100 -9.129928 -3.906415 -1.000000 0.000100 0.000000 0.384314 0.559055
  2 4.404115 -8.899924 -4.236412 -1.000000 0.000100 0.000000 0.349020 0.480315
p228_handle.bmp
  2 4.414100 -9.129928 -3.906415 -1.000000 0.000100 0.000000 0.384314 0.559055
  2 4.404113 -8.899926 -3.996412 -1.000000 0.000100 0.000000 0.352941 0.535433
  2 4.404115 -8.899924 -4.236412 -1.000000 0.000100 0.000000 0.349020 0.480315
p228_handle.bmp
  2 4.494076 -9.489938 -3.376418 0.000000 0.000000 -1.000000 0.372549 0.881890
  2 4.704063 -9.729950 -3.376419 0.000000 0.000000 -1.000000 0.400000 0.929134
  2 4.483956 -11.639938 -3.376442 0.000000 0.000000 -1.000000 0.596078 0.881890
p228_handle.bmp
  2 4.483956 -11.639938 -3.376442 0.000000 0.000000 -1.000000 0.596078 0.881890
  2 4.704063 -9.729950 -3.376419 0.000000 0.000000 -1.000000 0.400000 0.929134
  2 4.933955 -11.649963 -3.376439 0.000000 0.000000 -1.000000 0.596078 0.976378
p228_handle.bmp
  2 4.704063 -9.729950 -3.376419 0.000000 0.000000 -1.000000 0.400000 0.929134
  2 4.944075 -9.499964 -3.376415 0.000000 0.000000 -1.000000 0.376471 0.976378
  2 4.933955 -11.649963 -3.376439 0.000000 0.000000 -1.000000 0.596078 0.976378
p228_handle.bmp
  2 5.014213 -7.379936 -6.216391 0.000000 0.000000 -1.000000 0.113725 0.007874
  2 5.014141 -8.659936 -6.216405 0.000000 0.000000 -1.000000 0.309804 0.007874
  2 4.404213 -7.379901 -6.216395 0.000000 0.000000 -1.000000 0.113725 0.007874
p228_handle.bmp
  2 4.404213 -7.379901 -6.216395 0.000000 0.000000 -1.000000 0.113725 0.007874
  2 5.014141 -8.659936 -6.216405 0.000000 0.000000 -1.000000 0.309804 0.007874
  2 4.404141 -8.659902 -6.216409 0.000000 0.000000 -1.000000 0.309804 0.007874
p228_handle.bmp
  2 5.014141 -8.659936 -6.216405 0.000000 0.000000 -1.000000 0.309804 0.007874
  2 4.704124 -8.979918 -6.216411 0.000000 0.000000 -1.000000 0.380392 0.007874
  2 4.404141 -8.659902 -6.216409 0.000000 0.000000 -1.000000 0.309804 0.007874
p228_handle.bmp
  2 4.404213 -7.379901 -6.216395 -0.997587 -0.018900 -0.066799 0.113725 0.007874
  2 4.404142 -8.609906 -5.856409 -0.997587 -0.018900 -0.066799 0.301961 0.094488
  2 4.344187 -7.709911 -5.086399 -0.997587 -0.018900 -0.066799 0.156863 0.275591
p228_handle.bmp
  2 4.344187 -7.709911 -5.086399 -0.997587 -0.018900 -0.066799 0.156863 0.275591
  2 4.404142 -8.609906 -5.856409 -0.997587 -0.018900 -0.066799 0.301961 0.094488
  2 4.354114 -8.949918 -4.516413 -0.997587 -0.018900 -0.066799 0.356863 0.417323
p228_handle.bmp
  2 4.704216 -7.199931 -5.096391 0.627107 0.716608 0.305303 0.062745 0.283465
  2 4.714178 -7.719945 -3.896397 0.627107 0.716608 0.305303 0.137255 0.543307
  2 5.024200 -7.479949 -5.096392 0.627107 0.716608 0.305303 0.117647 0.283465
p228_handle.bmp
  2 5.024200 -7.479949 -5.096392 0.627107 0.716608 0.305303 0.117647 0.283465
  2 4.714178 -7.719945 -3.896397 0.627107 0.716608 0.305303 0.137255 0.543307
  2 5.024163 -7.989962 -3.896398 0.627107 0.716608 0.305303 0.196078 0.559055
p228_handle.bmp
  2 4.743938 -11.919956 -3.006444 -0.336317 0.000000 -0.941749 0.000000 0.000000
  2 4.743857 -13.359956 -3.016460 -0.336317 0.000000 -0.941749 0.000000 0.000000
  2 4.613938 -11.909950 -2.956444 -0.336317 0.000000 -0.941749 0.996078 0.000000
p228_handle.bmp
  2 4.613938 -11.909950 -2.956444 -0.336317 0.000000 -0.941749 0.996078 0.000000
  2 4.743857 -13.359956 -3.016460 -0.336317 0.000000 -0.941749 0.000000 0.000000
  2 4.613857 -13.349950 -2.966461 -0.336317 0.000000 -0.941749 0.000000 0.000000
p228_handle.bmp
  2 4.613938 -11.909950 -2.956444 -1.000000 0.000100 0.000000 0.996078 0.000000
  2 4.613857 -13.349950 -2.966461 -1.000000 0.000100 0.000000 0.000000 0.000000
  2 4.613937 -11.909951 -2.806444 -1.000000 0.000100 0.000000 0.996078 0.000000
p228_handle.bmp
  2 4.613937 -11.909951 -2.806444 -1.000000 0.000100 0.000000 0.996078 0.000000
  2 4.613857 -13.349950 -2.966461 -1.000000 0.000100 0.000000 0.000000 0.000000
  2 4.613856 -13.359951 -2.816461 -1.000000 0.000100 0.000000 0.000000 0.000000
p228_handle.bmp
  2 4.613937 -11.909951 -2.806444 -0.336317 0.000000 0.941749 0.996078 0.000000
  2 4.613856 -13.359951 -2.816461 -0.336317 0.000000 0.941749 0.000000 0.000000
  2 4.743936 -11.919959 -2.756444 -0.336317 0.000000 0.941749 0.000000 0.000000
p228_handle.bmp
  2 4.743936 -11.919959 -2.756444 -0.336317 0.000000 0.941749 0.000000 0.000000
  2 4.613856 -13.359951 -2.816461 -0.336317 0.000000 0.941749 0.000000 0.000000
  2 4.743856 -13.359959 -2.766460 -0.336317 0.000000 0.941749 0.000000 0.000000
p228_handle.bmp
  2 4.334108 -8.959926 -3.706413 -0.994313 0.000100 -0.106501 0.356863 0.606299
  2 4.274120 -8.679929 -3.146411 -0.994313 0.000100 -0.106501 0.309804 0.740157
  2 4.334149 -8.229926 -3.706405 -0.994313 0.000100 -0.106501 0.243137 0.606299
p228_handle.bmp
  2 4.334149 -8.229926 -3.706405 -0.994313 0.000100 -0.106501 0.243137 0.606299
  2 4.274120 -8.679929 -3.146411 -0.994313 0.000100 -0.106501 0.309804 0.740157
  2 4.284171 -7.769929 -3.156400 -0.994313 0.000100 -0.106501 0.168627 0.740157
p228_handle.bmp
  2 4.334149 -8.229926 -3.706405 -1.000000 0.000100 0.000000 0.243137 0.606299
  2 4.344187 -7.709911 -5.086399 -1.000000 0.000100 0.000000 0.156863 0.275591
  2 4.354124 -8.719922 -4.136410 -1.000000 0.000100 0.000000 0.321569 0.503937
p228_handle.bmp
  2 4.354124 -8.719922 -4.136410 -1.000000 0.000100 0.000000 0.321569 0.503937
  2 4.344187 -7.709911 -5.086399 -1.000000 0.000100 0.000000 0.156863 0.275591
  2 4.354114 -8.949918 -4.516413 -1.000000 0.000100 0.000000 0.356863 0.417323
p228_handle.bmp
  2 4.574070 -9.699933 -4.276420 0.000000 -0.186299 0.982493 0.537255 0.133858
  2 4.564039 -10.279931 -4.386426 0.000000 -0.186299 0.982493 0.639216 0.110236
  2 4.894070 -9.699951 -4.276418 0.000000 -0.186299 0.982493 0.541176 0.196850
p228_handle.bmp
  2 4.894070 -9.699951 -4.276418 0.000000 -0.186299 0.982493 0.541176 0.196850
  2 4.564039 -10.279931 -4.386426 0.000000 -0.186299 0.982493 0.639216 0.110236
  2 4.884039 -10.279949 -4.386424 0.000000 -0.186299 0.982493 0.639216 0.173228
p228_handle.bmp
  2 4.564039 -10.279931 -4.386426 0.000000 0.205990 0.978554 0.639216 0.110236
  2 4.573984 -11.229934 -4.186437 0.000000 0.205990 0.978554 0.796078 0.165354
  2 4.884039 -10.279949 -4.386424 0.000000 0.205990 0.978554 0.639216 0.173228
p228_handle.bmp
  2 4.884039 -10.279949 -4.386424 0.000000 0.205990 0.978554 0.639216 0.173228
  2 4.573984 -11.229934 -4.186437 0.000000 0.205990 0.978554 0.796078 0.165354
  2 4.893985 -11.219952 -4.186435 0.000000 0.205990 0.978554 0.792157 0.220472
p228_handle.bmp
  2 4.573984 -11.229934 -4.186437 -0.030001 0.993434 0.110404 0.796078 0.165354
  2 4.573970 -11.349946 -3.106438 -0.030001 0.993434 0.110404 0.898039 0.275591
  2 4.893985 -11.219952 -4.186435 -0.030001 0.993434 0.110404 0.792157 0.220472
p228_handle.bmp
  2 4.893985 -11.219952 -4.186435 -0.030001 0.993434 0.110404 0.792157 0.220472
  2 4.573970 -11.349946 -3.106438 -0.030001 0.993434 0.110404 0.898039 0.275591
  2 4.893970 -11.359964 -3.106436 -0.030001 0.993434 0.110404 0.898039 0.330709
p228_handle.bmp
  2 4.454037 -10.039951 -2.086424 -1.000000 0.000100 0.000000 0.658824 0.354331
  2 4.454039 -10.039947 -2.446425 -1.000000 0.000100 0.000000 0.658824 0.267717
  2 4.463978 -11.089951 -2.086436 -1.000000 0.000100 0.000000 0.819608 0.354331
p228_handle.bmp
  2 4.463978 -11.089951 -2.086436 -1.000000 0.000100 0.000000 0.819608 0.354331
  2 4.454039 -10.039947 -2.446425 -1.000000 0.000100 0.000000 0.658824 0.267717
  2 4.463980 -11.089947 -2.446436 -1.000000 0.000100 0.000000 0.819608 0.267717
p228_handle.bmp
  2 4.454037 -10.039951 -2.086424 -0.843662 0.000000 0.536875 0.658824 0.354331
  2 4.463978 -11.089951 -2.086436 -0.843662 0.000000 0.536875 0.819608 0.354331
  2 4.524035 -10.049956 -1.976424 -0.843662 0.000000 0.536875 0.658824 0.393701
p228_handle.bmp
  2 4.524035 -10.049956 -1.976424 -0.843662 0.000000 0.536875 0.658824 0.393701
  2 4.463978 -11.089951 -2.086436 -0.843662 0.000000 0.536875 0.819608 0.354331
  2 4.533977 -11.099956 -1.976436 -0.843662 0.000000 0.536875 0.819608 0.393701
p228_handle.bmp
  2 4.524035 -10.049956 -1.976424 0.000000 0.000000 1.000000 0.658824 0.393701
  2 4.533977 -11.099956 -1.976436 0.000000 0.000000 1.000000 0.819608 0.393701
  2 4.904035 -10.049977 -1.976422 0.000000 0.000000 1.000000 0.658824 0.496063
p228_handle.bmp
  2 4.904035 -10.049977 -1.976422 0.000000 0.000000 1.000000 0.658824 0.496063
  2 4.533977 -11.099956 -1.976436 0.000000 0.000000 1.000000 0.819608 0.393701
  2 4.913977 -11.099978 -1.976433 0.000000 0.000000 1.000000 0.819608 0.496063
p228_handle.bmp
  2 4.844163 -7.859966 -2.686398 0.055498 0.000000 0.998459 0.176471 0.850394
  2 4.834146 -8.159965 -2.676401 0.055498 0.000000 0.998459 0.243137 0.850394
  2 5.024163 -7.859976 -2.696396 0.055498 0.000000 0.998459 0.176471 0.850394
p228_handle.bmp
  2 5.024163 -7.859976 -2.696396 0.055498 0.000000 0.998459 0.176471 0.850394
  2 4.834146 -8.159965 -2.676401 0.055498 0.000000 0.998459 0.243137 0.850394
  2 5.014053 -9.819975 -2.686418 0.055498 0.000000 0.998459 0.498039 0.850394
p228_handle.bmp
  2 4.884109 -9.039948 -4.476410 0.000000 -0.107094 -0.994249 0.439216 0.039370
  2 4.894072 -9.679949 -4.406418 0.000000 -0.107094 -0.994249 0.537255 0.055118
  2 4.564109 -9.039930 -4.476413 0.000000 -0.107094 -0.994249 0.439216 0.086614
p228_handle.bmp
  2 4.564109 -9.039930 -4.476413 0.000000 -0.107094 -0.994249 0.439216 0.086614
  2 4.894072 -9.679949 -4.406418 0.000000 -0.107094 -0.994249 0.537255 0.055118
  2 4.574072 -9.679931 -4.396420 0.000000 -0.107094 -0.994249 0.537255 0.110236
p228_handle.bmp
  2 4.894072 -9.679949 -4.406418 -0.029900 0.148299 -0.988491 0.537255 0.055118
  2 4.884039 -10.279948 -4.496424 -0.029900 0.148299 -0.988491 0.639216 0.031496
  2 4.574072 -9.679931 -4.396420 -0.029900 0.148299 -0.988491 0.537255 0.110236
p228_handle.bmp
  2 4.574072 -9.679931 -4.396420 -0.029900 0.148299 -0.988491 0.537255 0.110236
  2 4.884039 -10.279948 -4.496424 -0.029900 0.148299 -0.988491 0.639216 0.031496
  2 4.564039 -10.279930 -4.496426 -0.029900 0.148299 -0.988491 0.639216 0.078740
p228_handle.bmp
  2 4.483937 -11.939941 -3.116446 -0.536875 0.000000 -0.843661 0.843137 0.748031
  2 4.703932 -12.049951 -3.256445 -0.536875 0.000000 -0.843661 0.854902 0.716535
  2 4.493893 -12.739941 -3.126455 -0.536875 0.000000 -0.843661 0.988235 0.748031
p228_handle.bmp
  2 4.493893 -12.739941 -3.126455 -0.536875 0.000000 -0.843661 0.988235 0.748031
  2 4.703932 -12.049951 -3.256445 -0.536875 0.000000 -0.843661 0.854902 0.716535
  2 4.703894 -12.739951 -3.266453 -0.536875 0.000000 -0.843661 0.988235 0.716535
p228_handle.bmp
  2 4.703932 -12.049951 -3.256445 0.503884 0.000000 -0.863772 0.854902 0.716535
  2 4.933937 -11.949966 -3.116443 0.503884 0.000000 -0.863772 0.843137 0.748031
  2 4.703894 -12.739951 -3.266453 0.503884 0.000000 -0.863772 0.988235 0.716535
p228_handle.bmp
  2 4.703894 -12.739951 -3.266453 0.503884 0.000000 -0.863772 0.988235 0.716535
  2 4.933937 -11.949966 -3.116443 0.503884 0.000000 -0.863772 0.843137 0.748031
  2 4.943892 -12.749967 -3.116452 0.503884 0.000000 -0.863772 0.988235 0.748031
p228_handle.bmp
  2 4.564039 -10.279930 -4.496426 -1.000000 0.000100 0.000000 0.639216 0.086614
  2 4.573980 -11.319933 -4.256438 -1.000000 0.000100 0.000000 0.807843 0.149606
  2 4.573984 -11.229934 -4.186437 -1.000000 0.000100 0.000000 0.796078 0.165354
p228_handle.bmp
  2 4.573984 -11.229934 -4.186437 -1.000000 0.000100 0.000000 0.796078 0.165354
  2 4.573980 -11.319933 -4.256438 -1.000000 0.000100 0.000000 0.807843 0.149606
  2 4.573970 -11.349946 -3.106438 -1.000000 0.000100 0.000000 0.898039 0.275591
p228_handle.bmp
  7 4.604047 -10.107734 -4.019906 0.000100 0.986394 -0.164399 0.564706 0.283465
  7 4.604048 -10.037739 -3.599905 0.000100 0.986394 -0.164399 0.556863 0.393701
  7 4.844047 -10.107748 -4.019905 0.000100 0.986394 -0.164399 0.533333 0.251969
p228_handle.bmp
  7 4.844047 -10.107748 -4.019905 0.000100 0.986394 -0.164399 0.533333 0.251969
  7 4.604048 -10.037739 -3.599905 0.000100 0.986394 -0.164399 0.556863 0.393701
  7 4.844047 -10.047752 -3.599904 0.000100 0.986394 -0.164399 0.521569 0.362205
p228_handle.bmp
  7 4.844047 -10.047752 -3.599904 0.000000 0.749832 -0.661628 0.521569 0.362205
  7 4.604048 -10.037739 -3.599905 0.000000 0.749832 -0.661628 0.556863 0.393701
  7 4.854062 -9.747757 -3.279901 0.000000 0.749832 -0.661628 0.474510 0.448819
p228_handle.bmp
  7 4.854062 -9.747757 -3.279901 0.000000 0.749832 -0.661628 0.474510 0.448819
  7 4.604048 -10.037739 -3.599905 0.000000 0.749832 -0.661628 0.556863 0.393701
  7 4.614062 -9.737743 -3.269902 0.000000 0.749832 -0.661628 0.521569 0.480315
p228_handle.bmp
  2 4.284171 -7.769929 -3.156400 -0.843662 0.000000 0.536875 0.168627 0.740157
  2 4.274120 -8.679929 -3.146411 -0.843662 0.000000 0.536875 0.309804 0.740157
  2 4.414182 -7.539939 -2.966397 -0.843662 0.000000 0.536875 0.129412 0.779528
p228_handle.bmp
  2 4.414182 -7.539939 -2.966397 -0.843662 0.000000 0.536875 0.129412 0.779528
  2 4.274120 -8.679929 -3.146411 -0.843662 0.000000 0.536875 0.309804 0.740157
  2 4.404117 -8.699938 -2.956410 -0.843662 0.000000 0.536875 0.313725 0.779528
p228_handle.bmp
  2 4.924208 -7.129963 -3.306389 0.018200 0.800395 0.599196 0.062745 0.708661
  2 4.494209 -7.109939 -3.306391 0.018200 0.800395 0.599196 0.000000 0.748031
  2 4.844191 -7.389963 -2.956392 0.018200 0.800395 0.599196 0.090196 0.811024
p228_handle.bmp
  2 4.844191 -7.389963 -2.956392 0.018200 0.800395 0.599196 0.090196 0.811024
  2 4.494209 -7.109939 -3.306391 0.018200 0.800395 0.599196 0.000000 0.748031
  2 4.584191 -7.379948 -2.956394 0.018200 0.800395 0.599196 0.043137 0.834646
p228_handle.bmp
  2 4.834148 -8.159962 -2.946401 -1.000000 0.000100 0.000000 0.321569 0.897638
  2 4.844163 -7.859966 -2.686398 -1.000000 0.000100 0.000000 0.274510 0.960630
  2 4.844191 -7.389963 -2.956392 -1.000000 0.000100 0.000000 0.180392 0.897638
p228_handle.bmp
  2 4.844191 -7.389963 -2.956392 -1.000000 0.000100 0.000000 0.180392 0.897638
  2 4.844163 -7.859966 -2.686398 -1.000000 0.000100 0.000000 0.274510 0.960630
  2 4.844176 -7.599967 -2.536395 -1.000000 0.000100 0.000000 0.211765 1.000000
p228_handle.bmp
  4 4.794183 -7.516717 -2.855044 0.000000 -0.351112 -0.936333 0.835294 0.551181
  4 4.634183 -7.516708 -2.855045 0.000000 -0.351112 -0.936333 0.835294 0.511811
  4 4.784202 -7.196715 -2.975041 0.000000 -0.351112 -0.936333 0.764706 0.574803
p228_handle.bmp
  4 4.784202 -7.196715 -2.975041 0.000000 -0.351112 -0.936333 0.764706 0.574803
  4 4.634183 -7.516708 -2.855045 0.000000 -0.351112 -0.936333 0.835294 0.511811
  4 4.624202 -7.196706 -2.975042 0.000000 -0.351112 -0.936333 0.764706 0.527559
p228_handle.bmp
  4 4.634183 -7.516708 -2.855045 0.000000 0.075297 -0.997161 0.835294 0.511811
  4 4.794183 -7.516717 -2.855044 0.000000 0.075297 -0.997161 0.835294 0.551181
  4 4.624154 -8.046707 -2.905051 0.000000 0.075297 -0.997161 0.917647 0.409449
p228_handle.bmp
  4 4.624154 -8.046707 -2.905051 0.000000 0.075297 -0.997161 0.917647 0.409449
  4 4.794183 -7.516717 -2.855044 0.000000 0.075297 -0.997161 0.835294 0.551181
  4 4.784154 -8.046716 -2.905050 0.000000 0.075297 -0.997161 0.921569 0.456693
p228_handle.bmp
  2 4.404054 -9.809941 -2.686422 -0.058699 0.000000 0.998276 0.498039 0.850394
  2 4.574146 -8.159951 -2.676403 -0.058699 0.000000 0.998276 0.243137 0.850394
  2 4.414163 -7.849941 -2.696400 -0.058699 0.000000 0.998276 0.176471 0.850394
p228_handle.bmp
  2 4.414163 -7.849941 -2.696400 -0.058699 0.000000 0.998276 0.176471 0.850394
  2 4.574146 -8.159951 -2.676403 -0.058699 0.000000 0.998276 0.243137 0.850394
  2 4.584163 -7.849951 -2.686399 -0.058699 0.000000 0.998276 0.176471 0.850394
p228_handle.bmp
  2 4.454039 -10.039947 -2.446425 0.000000 0.000000 -1.000000 0.658824 0.267717
  2 4.904039 -10.049972 -2.456422 0.000000 0.000000 -1.000000 0.658824 0.267717
  2 4.463980 -11.089947 -2.446436 0.000000 0.000000 -1.000000 0.819608 0.267717
p228_handle.bmp
  2 4.463980 -11.089947 -2.446436 0.000000 0.000000 -1.000000 0.819608 0.267717
  2 4.904039 -10.049972 -2.456422 0.000000 0.000000 -1.000000 0.658824 0.267717
  2 4.913980 -11.099972 -2.456433 0.000000 0.000000 -1.000000 0.819608 0.267717
p228_handle.bmp
  2 4.844176 -7.599967 -2.536395 0.000000 0.000000 1.000000 0.141176 0.881890
  2 4.834162 -7.859967 -2.536397 0.000000 0.000000 1.000000 0.176471 0.881890
  2 5.024169 -7.729977 -2.536395 0.000000 0.000000 1.000000 0.152941 0.881890
p228_handle.bmp
  2 5.024169 -7.729977 -2.536395 0.000000 0.000000 1.000000 0.152941 0.881890
  2 4.834162 -7.859967 -2.536397 0.000000 0.000000 1.000000 0.176471 0.881890
  2 5.024162 -7.859977 -2.536396 0.000000 0.000000 1.000000 0.176471 0.881890
p228_handle.bmp
  2 4.414162 -7.849943 -2.536400 0.000000 0.000000 1.000000 0.176471 0.881890
  2 4.584162 -7.859953 -2.536399 0.000000 0.000000 1.000000 0.176471 0.881890
  2 4.414169 -7.719943 -2.536399 0.000000 0.000000 1.000000 0.152941 0.881890
p228_handle.bmp
  2 4.414169 -7.719943 -2.536399 0.000000 0.000000 1.000000 0.152941 0.881890
  2 4.584162 -7.859953 -2.536399 0.000000 0.000000 1.000000 0.176471 0.881890
  2 4.584176 -7.599953 -2.536396 0.000000 0.000000 1.000000 0.141176 0.881890
p228_handle.bmp
  2 4.834148 -8.159962 -2.946401 0.000100 1.000000 0.000000 0.321569 0.889764
  2 4.574148 -8.149948 -2.946403 0.000100 1.000000 0.000000 0.341176 0.858268
  2 4.834146 -8.159965 -2.676401 0.000100 1.000000 0.000000 0.317647 0.960630
p228_handle.bmp
  2 4.834146 -8.159965 -2.676401 0.000100 1.000000 0.000000 0.317647 0.960630
  2 4.574148 -8.149948 -2.946403 0.000100 1.000000 0.000000 0.341176 0.858268
  2 4.574146 -8.159951 -2.676403 0.000100 1.000000 0.000000 0.341176 0.929134
p228_handle.bmp
  2 4.574148 -8.149948 -2.946403 0.000000 0.000000 1.000000 0.341176 0.858268
  2 4.834148 -8.159962 -2.946401 0.000000 0.000000 1.000000 0.321569 0.889764
  2 4.584191 -7.379948 -2.956394 0.000000 0.000000 1.000000 0.207843 0.858268
p228_handle.bmp
  2 4.584191 -7.379948 -2.956394 0.000000 0.000000 1.000000 0.207843 0.858268
  2 4.834148 -8.159962 -2.946401 0.000000 0.000000 1.000000 0.321569 0.889764
  2 4.844191 -7.389963 -2.956392 0.000000 0.000000 1.000000 0.188235 0.889764
p228_handle.bmp
  4 4.794179 -7.546720 -2.535044 0.000000 -0.018201 0.999834 0.882353 0.677165
  4 4.634179 -7.546712 -2.535045 0.000000 -0.018201 0.999834 0.882353 0.629921
  4 4.784149 -8.086720 -2.555050 0.000000 -0.018201 0.999834 0.964706 0.582677
p228_handle.bmp
  4 4.784149 -8.086720 -2.555050 0.000000 -0.018201 0.999834 0.964706 0.582677
  4 4.634179 -7.546712 -2.535045 0.000000 -0.018201 0.999834 0.882353 0.629921
  4 4.624149 -8.086711 -2.555052 0.000000 -0.018201 0.999834 0.964706 0.535433
p228_handle.bmp
  4 4.794184 -7.466719 -2.675043 0.000000 0.868249 0.496128 0.850980 0.637795
  4 4.634184 -7.466710 -2.675045 0.000000 0.868249 0.496128 0.850980 0.598425
  4 4.794179 -7.546720 -2.535044 0.000000 0.868249 0.496128 0.882353 0.677165
p228_handle.bmp
  4 4.794179 -7.546720 -2.535044 0.000000 0.868249 0.496128 0.882353 0.677165
  4 4.634184 -7.466710 -2.675045 0.000000 0.868249 0.496128 0.850980 0.598425
  4 4.634179 -7.546712 -2.535045 0.000000 0.868249 0.496128 0.882353 0.629921
p228_handle.bmp
  4 4.794198 -7.226719 -2.655041 0.000000 -0.083103 0.996541 0.819608 0.685039
  4 4.634198 -7.226710 -2.655042 0.000000 -0.083103 0.996541 0.819608 0.645669
  4 4.794184 -7.466719 -2.675043 0.000000 -0.083103 0.996541 0.850980 0.637795
p228_handle.bmp
  4 4.794184 -7.466719 -2.675043 0.000000 -0.083103 0.996541 0.850980 0.637795
  4 4.634198 -7.226710 -2.655042 0.000000 -0.083103 0.996541 0.819608 0.645669
  4 4.634184 -7.466710 -2.675045 0.000000 -0.083103 0.996541 0.850980 0.598425
p228_handle.bmp
  4 4.794197 -7.266718 -2.805041 0.000100 0.966223 -0.257706 0.792157 0.653543
  4 4.634197 -7.266709 -2.805042 0.000100 0.966223 -0.257706 0.792157 0.606299
  4 4.794198 -7.226719 -2.655041 0.000100 0.966223 -0.257706 0.819608 0.685039
p228_handle.bmp
  4 4.794198 -7.226719 -2.655041 0.000100 0.966223 -0.257706 0.819608 0.685039
  4 4.634197 -7.266709 -2.805042 0.000100 0.966223 -0.257706 0.792157 0.606299
  4 4.634198 -7.226710 -2.655042 0.000100 0.966223 -0.257706 0.819608 0.645669
p228_handle.bmp
  4 4.784202 -7.196715 -2.975041 0.000000 0.931986 0.362495 0.760784 0.622047
  4 4.624202 -7.196706 -2.975042 0.000000 0.931986 0.362495 0.760784 0.574803
  4 4.794197 -7.266718 -2.805041 0.000000 0.931986 0.362495 0.792157 0.653543
p228_handle.bmp
  4 4.794197 -7.266718 -2.805041 0.000000 0.931986 0.362495 0.792157 0.653543
  4 4.624202 -7.196706 -2.975042 0.000000 0.931986 0.362495 0.760784 0.574803
  4 4.634197 -7.266709 -2.805042 0.000000 0.931986 0.362495 0.792157 0.606299
p228_handle.bmp
  2 4.884109 -9.039948 -4.476410 0.000100 0.956481 0.291794 0.439216 0.094488
  2 4.564109 -9.039930 -4.476413 0.000100 0.956481 0.291794 0.439216 0.094488
  2 4.894094 -9.229955 -3.886412 0.000100 0.956481 0.291794 0.466667 0.220472
p228_handle.bmp
  2 4.894094 -9.229955 -3.886412 0.000100 0.956481 0.291794 0.466667 0.220472
  2 4.564109 -9.039930 -4.476413 0.000100 0.956481 0.291794 0.439216 0.094488
  2 4.574094 -9.219937 -3.876414 0.000100 0.956481 0.291794 0.466667 0.228346
p228_handle.bmp
  2 4.563956 -11.609945 -3.106441 0.000000 0.000000 1.000000 0.937255 0.267717
  2 4.883954 -11.639963 -3.106440 0.000000 0.000000 1.000000 0.937255 0.267717
  2 4.573970 -11.349946 -3.106438 0.000000 0.000000 1.000000 0.898039 0.267717
p228_handle.bmp
  2 4.573970 -11.349946 -3.106438 0.000000 0.000000 1.000000 0.898039 0.267717
  2 4.883954 -11.639963 -3.106440 0.000000 0.000000 1.000000 0.937255 0.267717
  2 4.893970 -11.359964 -3.106436 0.000000 0.000000 1.000000 0.898039 0.267717
p228_handle.bmp
  7 4.604047 -10.107734 -4.019906 0.000000 0.371391 -0.928477 0.564706 0.283465
  7 4.844047 -10.107748 -4.019905 0.000000 0.371391 -0.928477 0.533333 0.251969
  7 4.604021 -10.597732 -4.219912 0.000000 0.371391 -0.928477 0.662745 0.236220
p228_handle.bmp
  7 4.604021 -10.597732 -4.219912 0.000000 0.371391 -0.928477 0.662745 0.236220
  7 4.844047 -10.107748 -4.019905 0.000000 0.371391 -0.928477 0.533333 0.251969
  7 4.844021 -10.597745 -4.219910 0.000000 0.371391 -0.928477 0.627451 0.204724
p228_handle.bmp
  7 4.844023 -10.447756 -3.269908 0.000000 0.000000 1.000000 0.631373 0.480315
  7 4.854062 -9.747757 -3.279901 0.000000 0.000000 1.000000 0.521569 0.480315
  7 4.604023 -10.437743 -3.269910 0.000000 0.000000 1.000000 0.631373 0.480315
p228_handle.bmp
  7 4.604023 -10.437743 -3.269910 0.000000 0.000000 1.000000 0.631373 0.480315
  7 4.854062 -9.747757 -3.279901 0.000000 0.000000 1.000000 0.521569 0.480315
  7 4.614062 -9.737743 -3.269902 0.000000 0.000000 1.000000 0.521569 0.480315
p228_handle.bmp
  2 4.943889 -12.749971 -2.696452 0.000000 0.000000 1.000000 0.988235 0.850394
  2 4.934053 -9.819971 -2.686419 0.000000 0.000000 1.000000 0.498039 0.850394
  2 4.493890 -12.739946 -2.706455 0.000000 0.000000 1.000000 0.988235 0.850394
p228_handle.bmp
  2 4.493890 -12.739946 -2.706455 0.000000 0.000000 1.000000 0.988235 0.850394
  2 4.934053 -9.819971 -2.686419 0.000000 0.000000 1.000000 0.498039 0.850394
  2 4.484054 -9.809946 -2.686422 0.000000 0.000000 1.000000 0.498039 0.850394
p228_handle.bmp
  2 4.844191 -7.389963 -2.956392 0.557127 0.742737 0.371418 0.090196 0.811024
  2 4.844176 -7.599967 -2.536395 0.557127 0.742737 0.371418 0.121569 0.905512
  2 5.024183 -7.519973 -2.966392 0.557127 0.742737 0.371418 0.129412 0.787402
p228_handle.bmp
  2 5.024183 -7.519973 -2.966392 0.557127 0.742737 0.371418 0.129412 0.787402
  2 4.844176 -7.599967 -2.536395 0.557127 0.742737 0.371418 0.121569 0.905512
  2 5.024169 -7.729977 -2.536395 0.557127 0.742737 0.371418 0.156863 0.881890
p228_handle.bmp
  2 4.334089 -9.219932 -3.116416 -1.000000 0.000100 0.000000 0.619608 0.590551
  6 4.334089 -9.203387 -2.948186 -1.000000 0.000100 0.000000 0.619608 0.637795
  6 4.324111 -8.833385 -3.108182 -1.000000 0.000100 0.000000 0.556863 0.590551
p228_handle.bmp
  6 4.324111 -8.833385 -3.108182 -1.000000 0.000100 0.000000 0.556863 0.590551
  6 4.334089 -9.203387 -2.948186 -1.000000 0.000100 0.000000 0.619608 0.637795
  6 4.324110 -8.833387 -2.948182 -1.000000 0.000100 0.000000 0.556863 0.637795
p228_handle.bmp
  6 4.414110 -8.833392 -2.948181 0.000000 0.000000 1.000000 0.556863 0.637795
  6 4.324110 -8.833387 -2.948182 0.000000 0.000000 1.000000 0.545098 0.661417
  6 4.424089 -9.203392 -2.948185 0.000000 0.000000 1.000000 0.623529 0.637795
p228_handle.bmp
  6 4.424089 -9.203392 -2.948185 0.000000 0.000000 1.000000 0.623529 0.637795
  6 4.324110 -8.833387 -2.948182 0.000000 0.000000 1.000000 0.545098 0.661417
  6 4.334089 -9.203387 -2.948186 0.000000 0.000000 1.000000 0.631373 0.661417
p228_handle.bmp
  6 4.414111 -8.833390 -3.108181 0.000100 1.000000 0.000000 0.560784 0.590551
  6 4.324111 -8.833385 -3.108182 0.000100 1.000000 0.000000 0.545098 0.574803
  6 4.414110 -8.833392 -2.948181 0.000100 1.000000 0.000000 0.556863 0.637795
p228_handle.bmp
  6 4.414110 -8.833392 -2.948181 0.000100 1.000000 0.000000 0.556863 0.637795
  6 4.324111 -8.833385 -3.108182 0.000100 1.000000 0.000000 0.545098 0.574803
  6 4.324110 -8.833387 -2.948182 0.000100 1.000000 0.000000 0.545098 0.661417
p228_handle.bmp
  2 4.404213 -7.379901 -6.216395 -1.000000 0.000100 0.000000 0.113725 0.007874
  2 4.404141 -8.659902 -6.216409 -1.000000 0.000100 0.000000 0.309804 0.007874
  2 4.404142 -8.609906 -5.856409 -1.000000 0.000100 0.000000 0.301961 0.094488
p228_handle.bmp
  2 4.414200 -7.479915 -5.096396 -0.956036 0.292111 0.025801 0.117647 0.283465
  2 4.404213 -7.379901 -6.216395 -0.956036 0.292111 0.025801 0.113725 0.007874
  2 4.344187 -7.709911 -5.086399 -0.956036 0.292111 0.025801 0.156863 0.275591
p228_handle.bmp
  2 4.414200 -7.479915 -5.096396 -0.947970 0.293891 0.122396 0.117647 0.283465
  2 4.344187 -7.709911 -5.086399 -0.947970 0.293891 0.122396 0.156863 0.275591
  2 4.414164 -7.979928 -3.886402 -0.947970 0.293891 0.122396 0.196078 0.559055
p228_handle.bmp
  2 4.704216 -7.199931 -5.096391 -0.652670 0.699368 0.291387 0.062745 0.283465
  2 4.414200 -7.479915 -5.096396 -0.652670 0.699368 0.291387 0.117647 0.283465
  2 4.414164 -7.979928 -3.886402 -0.652670 0.699368 0.291387 0.196078 0.559055
p228_handle.bmp
  2 4.704216 -7.199931 -5.096391 -0.608887 0.725984 0.319693 0.062745 0.283465
  2 4.414164 -7.979928 -3.886402 -0.608887 0.725984 0.319693 0.196078 0.559055
  2 4.714178 -7.719945 -3.896397 -0.608887 0.725984 0.319693 0.137255 0.543307
p228_handle.bmp
  2 4.944075 -9.499964 -3.376415 -0.619023 -0.734027 -0.279310 0.458824 0.685039
  2 5.014142 -8.609940 -5.856405 -0.619023 -0.734027 -0.279310 0.301961 0.094488
  2 5.014053 -9.819975 -2.686418 -0.619023 -0.734027 -0.279310 0.498039 0.850394
p228_handle.bmp
  2 4.354124 -8.719922 -4.136410 -0.997587 -0.018900 -0.066799 0.321569 0.503937
  2 4.334108 -8.959926 -3.706413 -0.997587 -0.018900 -0.066799 0.356863 0.606299
  2 4.334149 -8.229926 -3.706405 -0.997587 -0.018900 -0.066799 0.243137 0.606299
p228_handle.bmp
  2 4.414100 -9.169923 -4.306415 -0.938686 -0.324495 -0.116498 0.392157 0.464567
  2 4.354114 -8.949918 -4.516413 -0.938686 -0.324495 -0.116498 0.356863 0.417323
  2 4.404142 -8.609906 -5.856409 -0.938686 -0.324495 -0.116498 0.301961 0.094488
p228_handle.bmp
  2 4.714182 -7.599949 -3.486395 0.602162 0.758852 -0.248084 0.113725 0.629921
  2 5.024169 -7.819968 -3.376396 0.602162 0.758852 -0.248084 0.176471 0.685039
  2 5.024163 -7.989962 -3.896398 0.602162 0.758852 -0.248084 0.196078 0.559055
p228_handle.bmp
  2 4.714182 -7.599949 -3.486395 0.627090 0.747587 -0.218796 0.113725 0.629921
  2 5.024163 -7.989962 -3.896398 0.627090 0.747587 -0.218796 0.196078 0.559055
  2 4.714178 -7.719945 -3.896397 0.627090 0.747587 -0.218796 0.137255 0.543307
p228_handle.bmp
  2 4.414170 -7.809934 -3.376400 -0.599888 0.767884 -0.224695 0.176471 0.685039
  2 4.714182 -7.599949 -3.486395 -0.599888 0.767884 -0.224695 0.113725 0.629921
  2 4.714178 -7.719945 -3.896397 -0.599888 0.767884 -0.224695 0.137255 0.543307
p228_handle.bmp
  2 4.414170 -7.809934 -3.376400 -0.623285 0.743283 -0.242994 0.176471 0.685039
  2 4.714178 -7.719945 -3.896397 -0.623285 0.743283 -0.242994 0.137255 0.543307
  2 4.414164 -7.979928 -3.886402 -0.623285 0.743283 -0.242994 0.196078 0.559055
p228_handle.bmp
  2 4.334149 -8.229926 -3.706405 -0.972718 0.220504 -0.072101 0.243137 0.606299
  2 4.414170 -7.809934 -3.376400 -0.972718 0.220504 -0.072101 0.176471 0.685039
  2 4.414164 -7.979928 -3.886402 -0.972718 0.220504 -0.072101 0.196078 0.559055
p228_handle.bmp
  2 4.334149 -8.229926 -3.706405 -0.924533 0.356313 0.135205 0.243137 0.606299
  2 4.414164 -7.979928 -3.886402 -0.924533 0.356313 0.135205 0.196078 0.559055
  2 4.344187 -7.709911 -5.086399 -0.924533 0.356313 0.135205 0.156863 0.275591
p228_handle.bmp
  2 4.414170 -7.809934 -3.376400 -0.689628 0.521621 -0.502320 0.176471 0.685039
  2 4.334149 -8.229926 -3.706405 -0.689628 0.521621 -0.502320 0.243137 0.606299
  2 4.284171 -7.769929 -3.156400 -0.689628 0.521621 -0.502320 0.168627 0.740157
p228_handle.bmp
  2 4.414170 -7.809934 -3.376400 -0.836804 0.160001 -0.523602 0.176471 0.685039
  2 4.284171 -7.769929 -3.156400 -0.836804 0.160001 -0.523602 0.168627 0.740157
  2 4.494209 -7.109939 -3.306391 -0.836804 0.160001 -0.523602 0.062745 0.708661
p228_handle.bmp
  2 4.714182 -7.599949 -3.486395 -0.415716 0.143305 -0.898134 0.113725 0.629921
  2 4.414170 -7.809934 -3.376400 -0.415716 0.143305 -0.898134 0.176471 0.685039
  2 4.494209 -7.109939 -3.306391 -0.415716 0.143305 -0.898134 0.062745 0.708661
p228_handle.bmp
  2 4.714182 -7.599949 -3.486395 0.007900 0.347899 -0.937499 0.113725 0.629921
  2 4.494209 -7.109939 -3.306391 0.007900 0.347899 -0.937499 0.062745 0.708661
  2 4.924208 -7.129963 -3.306389 0.007900 0.347899 -0.937499 0.062745 0.708661
p228_handle.bmp
  2 5.024169 -7.819968 -3.376396 0.416880 0.145393 -0.897258 0.176471 0.685039
  2 4.714182 -7.599949 -3.486395 0.416880 0.145393 -0.897258 0.113725 0.629921
  2 4.924208 -7.129963 -3.306389 0.416880 0.145393 -0.897258 0.062745 0.708661
p228_handle.bmp
  2 4.354114 -8.949918 -4.516413 -0.981810 -0.047600 0.183802 0.356863 0.417323
  2 4.414100 -9.169923 -4.306415 -0.981810 -0.047600 0.183802 0.392157 0.464567
  2 4.404115 -8.899924 -4.236412 -0.981810 -0.047600 0.183802 0.349020 0.480315
p228_handle.bmp
  2 4.354124 -8.719922 -4.136410 -0.898300 -0.375900 0.227500 0.321569 0.503937
  2 4.354114 -8.949918 -4.516413 -0.898300 -0.375900 0.227500 0.356863 0.417323
  2 4.404115 -8.899924 -4.236412 -0.898300 -0.375900 0.227500 0.349020 0.480315
p228_handle.bmp
  2 4.354124 -8.719922 -4.136410 -0.963528 -0.267608 0.000000 0.321569 0.503937
  2 4.404115 -8.899924 -4.236412 -0.963528 -0.267608 0.000000 0.349020 0.480315
  2 4.404113 -8.899926 -3.996412 -0.963528 -0.267608 0.000000 0.352941 0.535433
p228_handle.bmp
  2 4.334108 -8.959926 -3.706413 -0.834914 -0.463108 -0.297405 0.356863 0.606299
  2 4.354124 -8.719922 -4.136410 -0.834914 -0.463108 -0.297405 0.321569 0.503937
  2 4.404113 -8.899926 -3.996412 -0.834914 -0.463108 -0.297405 0.352941 0.535433
p228_handle.bmp
  2 4.334108 -8.959926 -3.706413 -0.962454 -0.098895 -0.252788 0.356863 0.606299
  2 4.404113 -8.899926 -3.996412 -0.962454 -0.098895 -0.252788 0.352941 0.535433
  2 4.414100 -9.129928 -3.906415 -0.962454 -0.098895 -0.252788 0.384314 0.559055
p228_handle.bmp
  2 4.414100 -9.059934 -3.336414 -0.899818 -0.433009 0.053201 0.376471 0.700787
  2 4.334108 -8.959926 -3.706413 -0.899818 -0.433009 0.053201 0.356863 0.606299
  2 4.414100 -9.129928 -3.906415 -0.899818 -0.433009 0.053201 0.384314 0.559055
p228_handle.bmp
  2 4.483956 -11.639938 -3.376442 -0.614388 -0.516690 -0.596288 0.792157 0.692913
  2 4.703932 -12.049951 -3.256445 -0.614388 -0.516690 -0.596288 0.854902 0.716535
  2 4.483937 -11.939941 -3.116446 -0.614388 -0.516690 -0.596288 0.843137 0.748031
p228_handle.bmp
  4 4.634197 -7.266709 -2.805042 -1.000000 0.000100 0.000000 0.792157 0.606299
  4 4.634184 -7.466710 -2.675045 -1.000000 0.000100 0.000000 0.854902 0.598425
  4 4.634198 -7.226710 -2.655042 -1.000000 0.000100 0.000000 0.819608 0.637795
p228_handle.bmp
  2 4.704216 -7.199931 -5.096391 0.657083 0.750880 0.066498 0.062745 0.283465
  2 5.024200 -7.479949 -5.096392 0.657083 0.750880 0.066498 0.117647 0.283465
  2 5.014213 -7.379936 -6.216391 0.657083 0.750880 0.066498 0.113725 0.007874
p228_handle.bmp
  2 4.704216 -7.199931 -5.096391 0.629698 0.774898 0.054900 0.062745 0.283465
  2 5.014213 -7.379936 -6.216391 0.629698 0.774898 0.054900 0.113725 0.007874
  2 4.704228 -7.119918 -6.216390 0.629698 0.774898 0.054900 0.043137 0.007874
p228_handle.bmp
  2 4.404213 -7.379901 -6.216395 -0.654004 0.754604 0.053400 0.113725 0.007874
  2 4.704216 -7.199931 -5.096391 -0.654004 0.754604 0.053400 0.062745 0.283465
  2 4.704228 -7.119918 -6.216390 -0.654004 0.754604 0.053400 0.043137 0.007874
p228_handle.bmp
  2 4.404117 -8.699938 -2.956410 -0.745010 -0.484207 0.458806 0.313725 0.779528
  2 4.274120 -8.679929 -3.146411 -0.745010 -0.484207 0.458806 0.309804 0.740157
  2 4.414100 -9.059934 -3.336414 -0.745010 -0.484207 0.458806 0.376471 0.700787
p228_handle.bmp
  2 4.414100 -9.059934 -3.336414 -0.930388 -0.357895 0.079299 0.376471 0.700787
  2 4.274120 -8.679929 -3.146411 -0.930388 -0.357895 0.079299 0.309804 0.740157
  2 4.334108 -8.959926 -3.706413 -0.930388 -0.357895 0.079299 0.356863 0.606299
p228_handle.bmp
  2 4.584191 -7.379948 -2.956394 -0.577284 0.577384 0.577384 0.043137 0.834646
  2 4.494209 -7.109939 -3.306391 -0.577284 0.577384 0.577384 0.000000 0.748031
  2 4.414182 -7.539939 -2.966397 -0.577284 0.577384 0.577384 0.003922 0.858268
p228_handle.bmp
  2 4.844176 -7.599967 -2.536395 -0.997047 0.038402 -0.066503 0.211765 1.000000
  2 4.844163 -7.859966 -2.686398 -0.997047 0.038402 -0.066503 0.274510 0.960630
  2 4.834162 -7.859967 -2.536397 -0.997047 0.038402 -0.066503 0.274510 1.000000
p228_handle.bmp
  2 4.573980 -11.319933 -4.256438 0.000000 -0.224801 -0.974405 0.811765 0.141732
  2 4.884039 -10.279948 -4.496424 0.000000 -0.224801 -0.974405 0.639216 0.031496
  2 4.893979 -11.329951 -4.256436 0.000000 -0.224801 -0.974405 0.811765 0.094488
p228_handle.bmp
  2 4.584176 -7.599953 -2.536396 -0.655493 0.675493 0.337696 0.070588 0.937008
  2 4.584191 -7.379948 -2.956394 -0.655493 0.675493 0.337696 0.043137 0.834646
  2 4.414182 -7.539939 -2.966397 -0.655493 0.675493 0.337696 0.003922 0.858268
p228_handle.bmp
  2 4.414169 -7.719943 -2.536399 -0.576402 0.753803 0.315501 0.031373 0.960630
  2 4.584176 -7.599953 -2.536396 -0.576402 0.753803 0.315501 0.070588 0.937008
  2 4.414182 -7.539939 -2.966397 -0.576402 0.753803 0.315501 0.003922 0.858268
p228_handle.bmp
  6 4.414111 -8.833390 -3.108181 0.091104 0.000000 -0.995841 0.560784 0.590551
  6 4.424090 -9.203390 -3.108185 0.091104 0.000000 -0.995841 0.623529 0.590551
  2 4.334089 -9.219932 -3.116416 0.091104 0.000000 -0.995841 0.631373 0.574803
p228_handle.bmp
  6 4.324111 -8.833385 -3.108182 0.000000 0.020800 -0.999784 0.545098 0.574803
  6 4.414111 -8.833390 -3.108181 0.000000 0.020800 -0.999784 0.560784 0.590551
  2 4.334089 -9.219932 -3.116416 0.000000 0.000000 -1.000000 0.631373 0.574803
p228_handle.bmp
  2 4.494076 -9.489938 -3.376418 -1.000000 0.000100 0.000000 0.458824 0.685039
  2 4.483956 -11.639938 -3.376442 -1.000000 0.000100 0.000000 0.792157 0.692913
  2 4.484054 -9.809946 -2.686422 -1.000000 0.000100 0.000000 0.498039 0.850394
p228_handle.bmp
  2 4.834148 -8.159962 -2.946401 -1.000000 0.000100 0.000000 0.321569 0.889764
  2 4.834146 -8.159965 -2.676401 -1.000000 0.000100 0.000000 0.317647 0.960630
  2 4.844163 -7.859966 -2.686398 -1.000000 0.000100 0.000000 0.274510 0.960630
p228_handle.bmp
  2 4.573970 -11.349946 -3.106438 -1.000000 0.000100 0.000000 0.898039 0.267717
  2 4.573980 -11.319933 -4.256438 -1.000000 0.000100 0.000000 0.807843 0.149606
  2 4.563956 -11.609945 -3.106441 -1.000000 0.000100 0.000000 0.937255 0.267717
p228_handle.bmp
  2 4.574072 -9.679931 -4.396420 0.000100 0.986394 0.164399 0.537255 0.110236
  2 4.574070 -9.699933 -4.276420 0.000100 0.986394 0.164399 0.541176 0.133858
  2 4.894070 -9.699951 -4.276418 0.000100 0.986394 0.164399 0.541176 0.133858
p228_handle.bmp
  7 4.604023 -10.437743 -3.269910 -1.000000 0.000100 0.000000 0.631373 0.480315
  7 4.614062 -9.737743 -3.269902 -1.000000 0.000100 0.000000 0.521569 0.480315
  7 4.604048 -10.037739 -3.599905 -1.000000 0.000100 0.000000 0.556863 0.393701
p228_handle.bmp
  2 4.844191 -7.389963 -2.956392 0.491124 0.634031 0.597329 0.090196 0.811024
  2 5.024183 -7.519973 -2.966392 0.491124 0.634031 0.597329 0.129412 0.787402
  2 4.924208 -7.129963 -3.306389 0.491124 0.634031 0.597329 0.062745 0.708661
p228_handle.bmp
  2 4.414182 -7.539939 -2.966397 -0.914598 0.350699 0.201299 0.129412 0.779528
  2 4.494209 -7.109939 -3.306391 -0.914598 0.350699 0.201299 0.062745 0.708661
  2 4.284171 -7.769929 -3.156400 -0.914598 0.350699 0.201299 0.168627 0.740157
p228_handle.bmp
  2 4.404213 -7.379901 -6.216395 0.000000 0.000000 -1.000000 0.113725 0.007874
  2 4.704228 -7.119918 -6.216390 0.000000 0.000000 -1.000000 0.043137 0.007874
  2 5.014213 -7.379936 -6.216391 0.000000 0.000000 -1.000000 0.113725 0.007874
p228_handle.bmp
  2 4.404213 -7.379901 -6.216395 -0.680861 0.729558 0.064596 0.113725 0.007874
  2 4.414200 -7.479915 -5.096396 -0.680861 0.729558 0.064596 0.117647 0.283465
  2 4.704216 -7.199931 -5.096391 -0.680861 0.729558 0.064596 0.062745 0.283465
p228_handle.bmp
  2 4.414100 -9.169923 -4.306415 -0.741008 -0.652007 -0.160602 0.392157 0.464567
  2 4.704063 -9.729950 -3.376419 -0.741008 -0.652007 -0.160602 0.513725 0.685039
  2 4.494076 -9.489938 -3.376418 -0.741008 -0.652007 -0.160602 0.458824 0.685039
p228_handle.bmp
  2 4.483956 -11.639938 -3.376442 0.000000 -0.287311 -0.957837 0.596078 0.881890
  2 4.933955 -11.649963 -3.376439 0.000000 -0.287311 -0.957837 0.596078 0.976378
  2 4.703932 -12.049951 -3.256445 0.000000 -0.287311 -0.957837 0.627451 0.929134
p228_slide.bmp
  5 5.024218 -6.867938 -2.657236 0.000000 0.000000 -1.000000 0.137255 0.322581
  5 5.024012 -10.557938 -2.667277 0.000000 0.000000 -1.000000 0.709804 0.322581
  5 4.834225 -6.747927 -2.657236 0.000000 0.000000 -1.000000 0.121569 0.322581
p228_slide.bmp
  5 4.834225 -6.747927 -2.657236 0.000000 0.000000 -1.000000 0.121569 0.322581
  5 5.024012 -10.557938 -2.667277 0.000000 0.000000 -1.000000 0.709804 0.322581
  5 4.834201 -7.177927 -2.657241 0.000000 0.000000 -1.000000 0.176471 0.322581
p228_slide.bmp
  5 5.024012 -10.557938 -2.667277 0.000000 0.000000 -1.000000 0.709804 0.322581
  5 4.524012 -10.557910 -2.667281 0.000000 0.000000 -1.000000 0.709804 0.322581
  5 4.834201 -7.177927 -2.657241 0.000000 0.000000 -1.000000 0.176471 0.322581
p228_slide.bmp
  5 4.834201 -7.177927 -2.657241 0.000000 0.000000 -1.000000 0.176471 0.322581
  5 4.524012 -10.557910 -2.667281 0.000000 0.000000 -1.000000 0.709804 0.322581
  5 4.584201 -7.177913 -2.657243 0.000000 0.000000 -1.000000 0.176471 0.322581
p228_slide.bmp
  5 4.524012 -10.557910 -2.667281 0.000000 0.000000 -1.000000 0.709804 0.322581
  5 4.394218 -6.867903 -2.657240 0.000000 0.000000 -1.000000 0.137255 0.322581
  5 4.584201 -7.177913 -2.657243 0.000000 0.000000 -1.000000 0.176471 0.322581
p228_slide.bmp
  5 4.584201 -7.177913 -2.657243 0.000000 0.000000 -1.000000 0.176471 0.322581
  5 4.394218 -6.867903 -2.657240 0.000000 0.000000 -1.000000 0.137255 0.322581
  5 4.584225 -6.747913 -2.657238 0.000000 0.000000 -1.000000 0.121569 0.322581
p228_slide.bmp
  5 4.393930 -11.997905 -2.457298 -1.000000 0.000100 0.000000 0.933333 0.419355
  5 4.394040 -10.017906 -2.357276 -1.000000 0.000100 0.000000 0.627451 0.483871
  5 4.393937 -11.897903 -2.667297 -1.000000 0.000100 0.000000 0.925490 0.322581
p228_slide.bmp
  5 4.393937 -11.897903 -2.667297 -1.000000 0.000100 0.000000 0.925490 0.322581
  5 4.394040 -10.017906 -2.357276 -1.000000 0.000100 0.000000 0.627451 0.483871
  5 4.394218 -6.867903 -2.657240 -1.000000 0.000100 0.000000 0.137255 0.322581
p228_slide.bmp
  5 4.394040 -10.017906 -2.357276 -1.000000 0.000100 0.000000 0.627451 0.483871
  5 4.404090 -9.117907 -2.357265 -1.000000 0.000100 0.000000 0.490196 0.483871
  5 4.394218 -6.867903 -2.657240 -1.000000 0.000100 0.000000 0.137255 0.322581
p228_slide.bmp
  5 4.394218 -6.867903 -2.657240 -1.000000 0.000100 0.000000 0.137255 0.322581
  5 4.404090 -9.117907 -2.357265 -1.000000 0.000100 0.000000 0.490196 0.483871
  5 4.394217 -6.867905 -2.497240 -1.000000 0.000100 0.000000 0.137255 0.403226
p228_slide.bmp
  5 4.404090 -9.117907 -2.357265 -1.000000 0.000100 0.000000 0.490196 0.483871
  5 4.394214 -6.867909 -2.077240 -1.000000 0.000100 0.000000 0.133333 0.612903
  5 4.394217 -6.867905 -2.497240 -1.000000 0.000100 0.000000 0.137255 0.403226
p228_slide.bmp
  5 4.394217 -6.867905 -2.497240 -1.000000 0.000100 0.000000 0.137255 0.403226
  5 4.394214 -6.867909 -2.077240 -1.000000 0.000100 0.000000 0.133333 0.612903
  5 4.394223 -6.747905 -2.497239 -1.000000 0.000100 0.000000 0.117647 0.403226
p228_slide.bmp
  5 4.523937 -11.897910 -2.667296 -1.000000 0.000100 0.000000 0.925490 0.322581
  5 4.523909 -12.357913 -2.447301 -1.000000 0.000100 0.000000 0.988235 0.419355
  5 4.523930 -11.997912 -2.457297 -1.000000 0.000100 0.000000 0.933333 0.419355
p228_slide.bmp
  5 4.523937 -11.897910 -2.667296 -1.000000 0.000100 0.000000 0.925490 0.322581
  5 4.523913 -12.357907 -2.937301 -1.000000 0.000100 0.000000 0.988235 0.112903
  5 4.523909 -12.357913 -2.447301 -1.000000 0.000100 0.000000 0.988235 0.419355
p228_slide.bmp
  5 4.523937 -11.897910 -2.667296 -1.000000 0.000100 0.000000 0.925490 0.322581
  5 4.524013 -10.557907 -2.947281 -1.000000 0.000100 0.000000 0.709804 0.112903
  5 4.523913 -12.357907 -2.937301 -1.000000 0.000100 0.000000 0.988235 0.112903
p228_slide.bmp
  5 4.523937 -11.897910 -2.667296 -1.000000 0.000100 0.000000 0.925490 0.322581
  5 4.524012 -10.557910 -2.667281 -1.000000 0.000100 0.000000 0.709804 0.322581
  5 4.524013 -10.557907 -2.947281 -1.000000 0.000100 0.000000 0.709804 0.112903
p228_slide.bmp
  5 4.644092 -9.037925 -1.937263 0.000000 0.000000 1.000000 0.474510 0.774194
  5 4.794092 -9.037933 -1.937262 0.000000 0.000000 1.000000 0.474510 0.854839
  5 4.914209 -6.937940 -1.917238 0.000000 0.000000 1.000000 0.149020 0.903226
p228_slide.bmp
  5 4.914209 -6.937940 -1.917238 0.000000 0.000000 1.000000 0.149020 0.903226
  5 4.794092 -9.037933 -1.937262 0.000000 0.000000 1.000000 0.474510 0.854839
  5 4.924087 -9.117941 -1.937262 0.000000 0.000000 1.000000 0.486275 0.903226
p228_slide.bmp
  5 4.794092 -9.037933 -1.937262 0.000000 0.000000 1.000000 0.474510 0.854839
  5 4.794087 -9.117933 -1.937263 0.000000 0.000000 1.000000 0.486275 0.854839
  5 4.924087 -9.117941 -1.937262 0.000000 0.000000 1.000000 0.486275 0.903226
p228_slide.bmp
  5 4.834230 -6.617930 -2.417235 -1.000000 0.000100 0.000000 0.000000 0.225806
  5 4.834223 -6.747930 -2.417236 -1.000000 0.000100 0.000000 0.023529 0.225806
  5 4.834221 -6.747934 -2.087236 -1.000000 0.000100 0.000000 0.027451 0.403226
p228_slide.bmp
  5 4.834221 -6.747934 -2.087236 -1.000000 0.000100 0.000000 0.027451 0.403226
  5 4.834223 -6.747930 -2.417236 -1.000000 0.000100 0.000000 0.023529 0.225806
  5 4.834201 -7.177927 -2.657241 -1.000000 0.000100 0.000000 0.086275 0.096774
p228_slide.bmp
  5 4.834223 -6.747930 -2.417236 -1.000000 0.000100 0.000000 0.023529 0.225806
  5 4.834225 -6.747927 -2.657236 -1.000000 0.000100 0.000000 0.023529 0.096774
  5 4.834201 -7.177927 -2.657241 -1.000000 0.000100 0.000000 0.086275 0.096774
p228_slide.bmp
  5 4.394040 -10.017906 -2.357276 -1.000000 0.000100 0.000000 0.627451 0.483871
  5 4.393930 -11.997905 -2.457298 -1.000000 0.000100 0.000000 0.933333 0.419355
  5 4.394037 -10.027909 -2.087276 -1.000000 0.000100 0.000000 0.623529 0.612903
p228_slide.bmp
  5 4.394037 -10.027909 -2.087276 -1.000000 0.000100 0.000000 0.623529 0.612903
  5 4.393930 -11.997905 -2.457298 -1.000000 0.000100 0.000000 0.933333 0.419355
  5 4.393907 -12.357909 -2.087302 -1.000000 0.000100 0.000000 0.988235 0.612903
p228_slide.bmp
  5 4.393930 -11.997905 -2.457298 -1.000000 0.000100 0.000000 0.933333 0.419355
  5 4.393909 -12.357905 -2.447302 -1.000000 0.000100 0.000000 0.988235 0.419355
  5 4.393907 -12.357909 -2.087302 -1.000000 0.000100 0.000000 0.988235 0.612903
p228_slide.bmp
  2 4.883931 -11.979971 -2.446443 0.038399 0.000000 -0.999263 0.192157 0.177419
  2 4.883850 -13.429970 -2.456460 0.038399 0.000000 -0.999263 0.407843 0.177419
  2 4.633931 -11.979957 -2.456445 0.038399 0.000000 -0.999263 0.192157 0.258065
p228_slide.bmp
  2 4.633931 -11.979957 -2.456445 0.038399 0.000000 -0.999263 0.192157 0.258065
  2 4.883850 -13.429970 -2.456460 0.038399 0.000000 -0.999263 0.407843 0.177419
  2 4.633850 -13.429956 -2.466461 0.038399 0.000000 -0.999263 0.407843 0.258065
p228_slide.bmp
  2 4.633931 -11.979957 -2.456445 -0.928477 0.000100 -0.371391 0.192157 0.258065
  2 4.633850 -13.429956 -2.466461 -0.928477 0.000100 -0.371391 0.407843 0.258065
  2 4.553929 -11.979954 -2.256446 -0.928477 0.000100 -0.371391 0.192157 0.161290
p228_slide.bmp
  2 4.553929 -11.979954 -2.256446 -0.928477 0.000100 -0.371391 0.192157 0.161290
  2 4.633850 -13.429956 -2.466461 -0.928477 0.000100 -0.371391 0.407843 0.258065
  2 4.553848 -13.429954 -2.266462 -0.928477 0.000100 -0.371391 0.407843 0.161290
p228_slide.bmp
  2 4.553929 -11.979954 -2.256446 -0.729540 0.000000 0.683938 0.192157 0.161290
  2 4.553848 -13.429954 -2.266462 -0.729540 0.000000 0.683938 0.407843 0.161290
  2 4.703928 -11.979965 -2.096445 -0.729540 0.000000 0.683938 0.192157 0.080645
p228_slide.bmp
  2 4.703928 -11.979965 -2.096445 -0.729540 0.000000 0.683938 0.192157 0.080645
  2 4.553848 -13.429954 -2.266462 -0.729540 0.000000 0.683938 0.407843 0.161290
  2 4.703847 -13.429964 -2.106461 -0.729540 0.000000 0.683938 0.407843 0.080645
p228_slide.bmp
  5 4.504209 -6.937917 -1.917240 0.000000 0.666818 0.745220 0.149020 0.709677
  5 4.914209 -6.937940 -1.917238 0.000000 0.666818 0.745220 0.149020 0.903226
  5 4.584221 -6.747920 -2.087238 0.000000 0.666818 0.745220 0.113725 0.741935
p228_slide.bmp
  5 4.584221 -6.747920 -2.087238 0.000000 0.666818 0.745220 0.113725 0.741935
  5 4.914209 -6.937940 -1.917238 0.000000 0.666818 0.745220 0.149020 0.903226
  5 4.834221 -6.747934 -2.087236 0.000000 0.666818 0.745220 0.113725 0.887097
p228_slide.bmp
  5 4.914209 -6.937940 -1.917238 0.080196 -0.015799 0.996654 0.149020 0.903226
  5 4.504087 -9.117917 -1.927265 0.080196 -0.015799 0.996654 0.486275 0.709677
  5 4.644092 -9.037925 -1.937263 0.080196 -0.015799 0.996654 0.474510 0.774194
p228_slide.bmp
  5 4.644092 -9.037925 -1.937263 0.080196 -0.015799 0.996654 0.474510 0.774194
  5 4.504087 -9.117917 -1.927265 0.080196 -0.015799 0.996654 0.486275 0.709677
  5 4.644087 -9.117925 -1.937264 0.080196 -0.015799 0.996654 0.486275 0.774194
p228_slide.bmp
  5 4.523913 -12.357907 -2.937301 -0.562316 0.000000 -0.826923 0.988235 0.112903
  5 4.524013 -10.557907 -2.947281 -0.562316 0.000000 -0.826923 0.709804 0.112903
  5 4.763914 -12.357918 -3.117299 -0.562316 0.000000 -0.826923 0.988235 0.000000
p228_slide.bmp
  5 4.763914 -12.357918 -3.117299 -0.562316 0.000000 -0.826923 0.988235 0.000000
  5 4.524013 -10.557907 -2.947281 -0.562316 0.000000 -0.826923 0.709804 0.112903
  5 4.764015 -10.547918 -3.117279 -0.562316 0.000000 -0.826923 0.709804 0.000000
p228_slide.bmp
  5 4.503906 -12.357917 -1.927301 0.000000 0.000000 1.000000 0.988235 0.709677
  5 4.913906 -12.357940 -1.937298 0.000000 0.000000 1.000000 0.988235 0.903226
  5 4.504036 -10.027917 -1.937275 0.000000 0.000000 1.000000 0.623529 0.709677
p228_slide.bmp
  5 4.504036 -10.027917 -1.937275 0.000000 0.000000 1.000000 0.623529 0.709677
  5 4.913906 -12.357940 -1.937298 0.000000 0.000000 1.000000 0.988235 0.903226
  5 4.914036 -10.027940 -1.937272 0.000000 0.000000 1.000000 0.623529 0.903226
p228_slide.bmp
  5 4.394037 -10.027909 -2.087276 -0.806383 -0.002500 0.591388 0.623529 0.612903
  5 4.393907 -12.357909 -2.087302 -0.806383 -0.002500 0.591388 0.988235 0.612903
  5 4.504036 -10.027917 -1.937275 -0.806383 -0.002500 0.591388 0.627451 0.709677
p228_slide.bmp
  5 4.504036 -10.027917 -1.937275 -0.806383 -0.002500 0.591388 0.627451 0.709677
  5 4.393907 -12.357909 -2.087302 -0.806383 -0.002500 0.591388 0.988235 0.612903
  5 4.503906 -12.357917 -1.927301 -0.806383 -0.002500 0.591388 0.988235 0.709677
p228_slide.bmp
  5 4.834230 -6.617930 -2.417235 -0.388106 0.000000 -0.921615 0.058824 0.887097
  5 5.024223 -6.747940 -2.497235 -0.388106 0.000000 -0.921615 0.043137 1.000000
  5 4.834223 -6.747930 -2.417236 -0.388106 0.000000 -0.921615 0.027451 0.887097
p228_slide.bmp
  5 4.834223 -6.747930 -2.417236 -0.388106 0.000000 -0.921615 0.027451 0.887097
  5 5.024223 -6.747940 -2.497235 -0.388106 0.000000 -0.921615 0.043137 1.000000
  5 5.024217 -6.867940 -2.497236 -0.388106 0.000000 -0.921615 0.023529 1.000000
p228_slide.bmp
  5 4.894205 -7.007939 -1.927239 0.000000 0.894427 0.447214 0.686275 0.032258
  5 4.504205 -7.007917 -1.927241 0.000000 0.894427 0.447214 0.580392 0.032258
  5 4.754203 -7.037932 -1.867240 0.000000 0.894427 0.447214 0.650980 0.096774
p228_slide.bmp
  5 4.754203 -7.037932 -1.867240 0.000000 0.894427 0.447214 0.650980 0.096774
  5 4.504205 -7.007917 -1.927241 0.000000 0.894427 0.447214 0.580392 0.032258
  5 4.654203 -7.037926 -1.867240 0.000000 0.894427 0.447214 0.619608 0.096774
p228_slide.bmp
  5 4.914039 -10.027935 -2.357272 0.000100 1.000000 0.000000 0.541176 0.500000
  5 4.394037 -10.027909 -2.087276 0.000100 1.000000 0.000000 0.572549 0.596774
  5 4.914036 -10.027940 -1.937272 0.000100 1.000000 0.000000 0.615686 0.500000
p228_slide.bmp
  5 4.914036 -10.027940 -1.937272 0.000100 1.000000 0.000000 0.615686 0.500000
  5 4.394037 -10.027909 -2.087276 0.000100 1.000000 0.000000 0.572549 0.596774
  5 4.504036 -10.027917 -1.937275 0.000100 1.000000 0.000000 0.615686 0.596774
p228_slide.bmp
  5 5.024013 -10.557935 -2.947277 0.000100 1.000000 0.000000 0.674510 0.145161
  5 4.524013 -10.557907 -2.947281 0.000100 1.000000 0.000000 0.674510 0.145161
  5 5.024012 -10.557938 -2.667277 0.000100 1.000000 0.000000 0.674510 0.370968
p228_slide.bmp
  5 5.024012 -10.557938 -2.667277 0.000100 1.000000 0.000000 0.674510 0.370968
  5 4.524013 -10.557907 -2.947281 0.000100 1.000000 0.000000 0.674510 0.145161
  5 4.524012 -10.557910 -2.667281 0.000100 1.000000 0.000000 0.674510 0.370968
p228_slide.bmp
  5 4.404090 -9.117907 -2.357265 0.000000 0.000000 1.000000 0.494118 0.596774
  5 4.394040 -10.017906 -2.357276 0.000000 0.000000 1.000000 0.541176 0.596774
  5 4.924090 -9.117936 -2.357262 0.000000 0.000000 1.000000 0.494118 0.500000
p228_slide.bmp
  5 4.924090 -9.117936 -2.357262 0.000000 0.000000 1.000000 0.494118 0.500000
  5 4.394040 -10.017906 -2.357276 0.000000 0.000000 1.000000 0.541176 0.596774
  5 4.914039 -10.027935 -2.357272 0.000000 0.000000 1.000000 0.541176 0.500000
p228_slide.bmp
  5 4.924090 -9.117936 -2.357262 -1.000000 0.000100 0.000000 0.490196 0.483871
  5 4.914039 -10.027935 -2.357272 -1.000000 0.000100 0.000000 0.627451 0.483871
  5 4.924087 -9.117941 -1.937262 -1.000000 0.000100 0.000000 0.490196 0.709677
p228_slide.bmp
  5 4.924087 -9.117941 -1.937262 -1.000000 0.000100 0.000000 0.490196 0.709677
  5 4.914039 -10.027935 -2.357272 -1.000000 0.000100 0.000000 0.627451 0.483871
  5 4.914036 -10.027940 -1.937272 -1.000000 0.000100 0.000000 0.627451 0.709677
p228_slide.bmp
  5 4.834201 -7.177927 -2.657241 0.000000 0.803336 -0.595526 0.129412 0.096774
  5 4.584201 -7.177913 -2.657243 0.000000 0.803336 -0.595526 0.078431 0.096774
  5 4.834221 -6.747934 -2.087236 0.000000 0.803336 -0.595526 0.066667 0.403226
p228_slide.bmp
  5 4.834221 -6.747934 -2.087236 0.000000 0.803336 -0.595526 0.066667 0.403226
  5 4.584201 -7.177913 -2.657243 0.000000 0.803336 -0.595526 0.078431 0.096774
  5 4.584221 -6.747920 -2.087238 0.000000 0.803336 -0.595526 0.027451 0.403226
p228_slide.bmp
  5 4.523937 -11.897910 -2.667296 0.000000 0.000000 -1.000000 0.925490 0.322581
  5 4.393937 -11.897903 -2.667297 0.000000 0.000000 -1.000000 0.925490 0.322581
  5 4.524012 -10.557910 -2.667281 0.000000 0.000000 -1.000000 0.709804 0.322581
p228_slide.bmp
  5 4.524012 -10.557910 -2.667281 0.000000 0.000000 -1.000000 0.709804 0.322581
  5 4.393937 -11.897903 -2.667297 0.000000 0.000000 -1.000000 0.925490 0.322581
  5 4.394218 -6.867903 -2.657240 0.000000 0.000000 -1.000000 0.137255 0.322581
p228_slide.bmp
  5 4.393930 -11.997905 -2.457298 0.000000 0.000000 -1.000000 0.933333 0.419355
  5 4.523930 -11.997912 -2.457297 0.000000 0.000000 -1.000000 0.933333 0.419355
  5 4.393909 -12.357905 -2.447302 0.000000 0.000000 -1.000000 0.988235 0.419355
p228_slide.bmp
  5 4.393909 -12.357905 -2.447302 0.000000 0.000000 -1.000000 0.988235 0.419355
  5 4.523930 -11.997912 -2.457297 0.000000 0.000000 -1.000000 0.933333 0.419355
  5 4.523909 -12.357913 -2.447301 0.000000 0.000000 -1.000000 0.988235 0.419355
p228_slide.bmp
  5 5.024217 -6.867940 -2.497236 0.533993 0.845489 0.000000 0.023529 1.000000
  5 5.024218 -6.867938 -2.657236 0.533993 0.845489 0.000000 0.000000 1.000000
  5 4.834223 -6.747930 -2.417236 0.533993 0.845489 0.000000 0.027451 0.887097
p228_slide.bmp
  5 4.834223 -6.747930 -2.417236 0.533993 0.845489 0.000000 0.027451 0.887097
  5 5.024218 -6.867938 -2.657236 0.533993 0.845489 0.000000 0.000000 1.000000
  5 4.834225 -6.747927 -2.657236 0.533993 0.845489 0.000000 0.000000 0.887097
p228_slide.bmp
  5 4.394217 -6.867905 -2.497240 -0.533922 0.845534 0.000000 0.019608 0.612903
  5 4.584223 -6.747916 -2.417238 -0.533922 0.845534 0.000000 0.027451 0.741935
  5 4.394218 -6.867903 -2.657240 -0.533922 0.845534 0.000000 0.000000 0.612903
p228_slide.bmp
  5 4.394218 -6.867903 -2.657240 -0.533922 0.845534 0.000000 0.000000 0.612903
  5 4.584223 -6.747916 -2.417238 -0.533922 0.845534 0.000000 0.027451 0.741935
  5 4.584225 -6.747913 -2.657238 -0.533922 0.845534 0.000000 0.000000 0.741935
p228_slide.bmp
  5 4.663910 -12.287925 -1.977299 0.000000 0.000000 -1.000000 0.541176 0.048387
  5 4.663932 -11.897926 -1.977295 0.000000 0.000000 -1.000000 0.470588 0.048387
  5 4.753910 -12.287931 -1.977299 0.000000 0.000000 -1.000000 0.541176 0.048387
p228_slide.bmp
  5 4.753910 -12.287931 -1.977299 0.000000 0.000000 -1.000000 0.541176 0.048387
  5 4.663932 -11.897926 -1.977295 0.000000 0.000000 -1.000000 0.470588 0.048387
  5 4.753932 -11.897931 -1.977294 0.000000 0.000000 -1.000000 0.470588 0.048387
p228_slide.bmp
  5 4.663913 -12.217927 -1.787298 0.000000 0.000000 1.000000 0.525490 0.177419
  5 4.753913 -12.217932 -1.787298 0.000000 0.000000 1.000000 0.525490 0.225806
  5 4.663931 -11.897928 -1.777295 0.000000 0.000000 1.000000 0.470588 0.177419
p228_slide.bmp
  5 4.663931 -11.897928 -1.777295 0.000000 0.000000 1.000000 0.470588 0.177419
  5 4.753913 -12.217932 -1.787298 0.000000 0.000000 1.000000 0.525490 0.225806
  5 4.753931 -11.897933 -1.777294 0.000000 0.000000 1.000000 0.450980 0.225806
p228_slide.bmp
  5 4.663913 -12.217927 -1.787298 -1.000000 0.000100 0.000000 0.525490 0.177419
  5 4.663931 -11.897928 -1.777295 -1.000000 0.000100 0.000000 0.470588 0.177419
  5 4.663910 -12.287925 -1.977299 -1.000000 0.000100 0.000000 0.541176 0.048387
p228_slide.bmp
  5 4.663910 -12.287925 -1.977299 -1.000000 0.000100 0.000000 0.541176 0.048387
  5 4.663931 -11.897928 -1.777295 -1.000000 0.000100 0.000000 0.470588 0.177419
  5 4.663932 -11.897926 -1.977295 -1.000000 0.000100 0.000000 0.470588 0.048387
p228_slide.bmp
  5 4.663932 -11.897926 -1.977295 0.000100 1.000000 0.000000 0.470588 0.048387
  5 4.663931 -11.897928 -1.777295 0.000100 1.000000 0.000000 0.470588 0.177419
  5 4.753932 -11.897931 -1.977294 0.000100 1.000000 0.000000 0.450980 0.048387
p228_slide.bmp
  5 4.753932 -11.897931 -1.977294 0.000100 1.000000 0.000000 0.450980 0.048387
  5 4.663931 -11.897928 -1.777295 0.000100 1.000000 0.000000 0.470588 0.177419
  5 4.753931 -11.897933 -1.777294 0.000100 1.000000 0.000000 0.450980 0.225806
p228_slide.bmp
  5 4.394217 -6.867905 -2.497240 0.388106 0.000000 -0.921615 0.019608 0.612903
  5 4.394223 -6.747905 -2.497239 0.388106 0.000000 -0.921615 0.039216 0.612903
  5 4.584223 -6.747916 -2.417238 0.388106 0.000000 -0.921615 0.027451 0.741935
p228_slide.bmp
  5 4.584223 -6.747916 -2.417238 0.388106 0.000000 -0.921615 0.027451 0.741935
  5 4.394223 -6.747905 -2.497239 0.388106 0.000000 -0.921615 0.039216 0.612903
  5 4.584230 -6.617916 -2.417236 0.388106 0.000000 -0.921615 0.054902 0.741935
p228_slide.bmp
  5 4.514191 -7.257918 -1.937244 -0.941150 -0.013501 0.337718 0.580392 0.016129
  5 4.574194 -7.187923 -1.767243 -0.941150 -0.013501 0.337718 0.592157 0.177419
  5 4.504205 -7.007917 -1.927241 -0.941150 -0.013501 0.337718 0.580392 0.145161
p228_slide.bmp
  5 4.504205 -7.007917 -1.927241 -0.941150 -0.013501 0.337718 0.580392 0.145161
  5 4.574194 -7.187923 -1.767243 -0.941150 -0.013501 0.337718 0.592157 0.177419
  5 4.564200 -7.077922 -1.767242 -0.941150 -0.013501 0.337718 0.592157 0.290323
p228_slide.bmp
  5 4.564200 -7.077922 -1.767242 0.000000 0.000000 1.000000 0.592157 0.290323
  5 4.574194 -7.187923 -1.767243 0.000000 0.000000 1.000000 0.592157 0.177419
  5 4.664200 -7.077928 -1.767241 0.000000 0.000000 1.000000 0.619608 0.290323
p228_slide.bmp
  5 4.664200 -7.077928 -1.767241 0.000000 0.000000 1.000000 0.619608 0.290323
  5 4.574194 -7.187923 -1.767243 0.000000 0.000000 1.000000 0.592157 0.177419
  5 4.664194 -7.187928 -1.767242 0.000000 0.000000 1.000000 0.619608 0.177419
p228_slide.bmp
  5 4.764200 -7.077933 -1.767240 0.000000 0.000000 1.000000 0.650980 0.177419
  5 4.764194 -7.187933 -1.767241 0.000000 0.000000 1.000000 0.650980 0.290323
  5 4.864200 -7.077939 -1.767240 0.000000 0.000000 1.000000 0.674510 0.177419
p228_slide.bmp
  5 4.864200 -7.077939 -1.767240 0.000000 0.000000 1.000000 0.674510 0.177419
  5 4.764194 -7.187933 -1.767241 0.000000 0.000000 1.000000 0.650980 0.290323
  5 4.864194 -7.187939 -1.767241 0.000000 0.000000 1.000000 0.674510 0.290323
p228_slide.bmp
  5 4.664192 -7.227927 -1.867243 0.000000 0.000000 1.000000 0.619608 0.209677
  5 4.764192 -7.227932 -1.867242 0.000000 0.000000 1.000000 0.650980 0.209677
  5 4.654203 -7.037926 -1.867240 0.000000 0.000000 1.000000 0.619608 0.096774
p228_slide.bmp
  5 4.654203 -7.037926 -1.867240 0.000000 0.000000 1.000000 0.619608 0.096774
  5 4.764192 -7.227932 -1.867242 0.000000 0.000000 1.000000 0.650980 0.209677
  5 4.754203 -7.037932 -1.867240 0.000000 0.000000 1.000000 0.650980 0.096774
p228_slide.bmp
  5 4.764192 -7.227932 -1.867242 -1.000000 0.000100 0.000000 0.650980 0.209677
  5 4.764194 -7.187933 -1.767241 -1.000000 0.000100 0.000000 0.650980 0.290323
  5 4.754203 -7.037932 -1.867240 -1.000000 0.000100 0.000000 0.650980 0.096774
p228_slide.bmp
  5 4.754203 -7.037932 -1.867240 -1.000000 0.000100 0.000000 0.650980 0.096774
  5 4.764194 -7.187933 -1.767241 -1.000000 0.000100 0.000000 0.650980 0.290323
  5 4.764200 -7.077933 -1.767240 -1.000000 0.000100 0.000000 0.650980 0.177419
p228_slide.bmp
  2 4.893929 -11.979974 -2.186443 0.410402 0.000000 0.911905 0.192157 0.000000
  2 4.703928 -11.979965 -2.096445 0.410402 0.000000 0.911905 0.192157 0.080645
  2 4.703847 -13.429964 -2.106461 0.410402 0.000000 0.911905 0.407843 0.080645
p228_slide.bmp
  5 4.504087 -9.117917 -1.927265 0.000000 0.000000 1.000000 0.486275 0.709677
  5 4.914209 -6.937940 -1.917238 0.000000 0.000000 1.000000 0.149020 0.903226
  5 4.504209 -6.937917 -1.917240 0.000000 0.000000 1.000000 0.149020 0.709677
p228_slide.bmp
  5 4.834221 -6.747934 -2.087236 0.410007 0.697911 0.587209 0.113725 0.887097
  5 4.914209 -6.937940 -1.917238 0.410007 0.697911 0.587209 0.149020 0.903226
  5 5.024214 -6.867944 -2.077236 0.410007 0.697911 0.587209 0.133333 1.000000
p228_slide.bmp
  5 5.024214 -6.867944 -2.077236 0.510898 0.827996 0.231099 0.133333 1.000000
  5 5.024223 -6.747940 -2.497235 0.510898 0.827996 0.231099 0.043137 1.000000
  5 4.834221 -6.747934 -2.087236 0.510898 0.827996 0.231099 0.113725 0.887097
p228_slide.bmp
  5 4.834221 -6.747934 -2.087236 0.619690 0.733088 0.280296 0.113725 0.887097
  5 5.024223 -6.747940 -2.497235 0.619690 0.733088 0.280296 0.043137 1.000000
  5 4.834230 -6.617930 -2.417235 0.619690 0.733088 0.280296 0.058824 0.887097
p228_slide.bmp
  5 4.654203 -7.037926 -1.867240 0.027100 0.919484 0.392193 0.619608 0.096774
  5 4.504205 -7.007917 -1.927241 0.027100 0.919484 0.392193 0.580392 0.032258
  5 4.564200 -7.077922 -1.767242 0.027100 0.919484 0.392193 0.592157 0.177419
p228_slide.bmp
  5 4.664200 -7.077928 -1.767241 0.000000 0.928477 0.371391 0.619608 0.177419
  5 4.654203 -7.037926 -1.867240 0.000000 0.928477 0.371391 0.619608 0.096774
  5 4.564200 -7.077922 -1.767242 0.000000 0.928477 0.371391 0.592157 0.177419
p228_slide.bmp
  5 4.914039 -10.027935 -2.357272 0.018900 0.999184 0.035699 0.541176 0.500000
  5 4.394040 -10.017906 -2.357276 0.018900 0.999184 0.035699 0.541176 0.596774
  5 4.394037 -10.027909 -2.087276 0.018900 0.999184 0.035699 0.572549 0.596774
p228_slide.bmp
  5 4.394214 -6.867909 -2.077240 -1.000000 0.000100 0.000000 0.133333 0.612903
  5 4.404090 -9.117907 -2.357265 -1.000000 0.000100 0.000000 0.490196 0.483871
  5 4.404088 -9.117910 -2.087265 -1.000000 0.000100 0.000000 0.490196 0.612903
p228_slide.bmp
  5 4.504209 -6.937917 -1.917240 -0.806383 -0.002500 0.591388 0.149020 0.709677
  5 4.394214 -6.867909 -2.077240 -0.806383 -0.002500 0.591388 0.133333 0.612903
  5 4.404088 -9.117910 -2.087265 -0.806383 -0.002500 0.591388 0.490196 0.612903
p228_slide.bmp
  5 4.504209 -6.937917 -1.917240 -0.847992 0.003900 0.529995 0.149020 0.709677
  5 4.404088 -9.117910 -2.087265 -0.847992 0.003900 0.529995 0.490196 0.612903
  5 4.504087 -9.117917 -1.927265 -0.847992 0.003900 0.529995 0.490196 0.709677
p228_slide.bmp
  5 5.024013 -10.557935 -2.947277 0.018900 0.999184 0.035699 0.674510 0.145161
  5 4.764015 -10.547918 -3.117279 0.018900 0.999184 0.035699 0.670588 0.000000
  5 4.524013 -10.557907 -2.947281 0.018900 0.999184 0.035699 0.674510 0.145161
p228_slide.bmp
  5 4.584230 -6.617916 -2.417236 -0.611169 0.762361 0.212789 0.054902 0.741935
  5 4.394223 -6.747905 -2.497239 -0.611169 0.762361 0.212789 0.039216 0.612903
  5 4.394214 -6.867909 -2.077240 -0.611169 0.762361 0.212789 0.125490 0.612903
p228_slide.bmp
  5 4.584221 -6.747920 -2.087238 -0.495909 0.811115 0.310106 0.113725 0.741935
  5 4.584230 -6.617916 -2.417236 -0.495909 0.811115 0.310106 0.054902 0.741935
  5 4.394214 -6.867909 -2.077240 -0.495909 0.811115 0.310106 0.125490 0.612903
p228_slide.bmp
  5 4.584221 -6.747920 -2.087238 -0.409895 0.697991 0.587192 0.113725 0.741935
  5 4.394214 -6.867909 -2.077240 -0.409895 0.697991 0.587192 0.125490 0.612903
  5 4.504209 -6.937917 -1.917240 -0.409895 0.697991 0.587192 0.149020 0.709677
p228_slide.bmp
  5 4.754203 -7.037932 -1.867240 0.000000 0.928477 0.371391 0.650980 0.096774
  5 4.764200 -7.077933 -1.767240 0.000000 0.928477 0.371391 0.650980 0.177419
  5 4.864200 -7.077939 -1.767240 0.000000 0.928477 0.371391 0.674510 0.177419
p228_slide.bmp
  5 4.894205 -7.007939 -1.927239 -0.027500 0.918310 0.394905 0.686275 0.016129
  5 4.754203 -7.037932 -1.867240 -0.027500 0.918310 0.394905 0.650980 0.096774
  5 4.864200 -7.077939 -1.767240 -0.027500 0.918310 0.394905 0.674510 0.177419
p228_slide.bmp
  5 4.794092 -9.037933 -1.937262 -1.000000 0.000100 0.000000 0.490196 0.709677
  5 4.794088 -9.117932 -2.017263 -1.000000 0.000100 0.000000 0.490196 0.661290
  5 4.794087 -9.117933 -1.937263 -1.000000 0.000100 0.000000 0.490196 0.709677
p228_mag.bmp
  8 4.509082 -8.252567 -3.190289 0.000000 -0.010200 0.999948 0.000000 0.880952
  8 4.499028 -9.222567 -3.200300 0.000000 -0.010200 0.999948 0.777778 0.880952
  8 4.949082 -8.252592 -3.190286 0.000000 -0.010200 0.999948 0.000000 1.000000
p228_mag.bmp
  8 4.949082 -8.252592 -3.190286 0.000000 -0.010200 0.999948 0.000000 1.000000
  8 4.499028 -9.222567 -3.200300 0.000000 -0.010200 0.999948 0.777778 0.880952
  8 4.939028 -9.222591 -3.190297 0.000000 -0.010200 0.999948 0.777778 1.000000
p228_mag.bmp
  8 4.509082 -8.252567 -3.190289 0.000100 0.961187 0.275896 0.000000 0.880952
  8 4.949082 -8.252592 -3.190286 0.000100 0.961187 0.275896 0.000000 0.880952
  8 4.469155 -7.332530 -6.350279 0.000100 0.961187 0.275896 0.000000 0.000000
p228_mag.bmp
  8 4.469155 -7.332530 -6.350279 0.000100 0.961187 0.275896 0.000000 0.000000
  8 4.949082 -8.252592 -3.190286 0.000100 0.961187 0.275896 0.000000 0.880952
  8 4.939153 -7.352556 -6.340276 0.000100 0.961187 0.275896 0.000000 0.000000
p228_mag.bmp
  8 4.509082 -8.252567 -3.190289 -0.999956 0.000000 0.009400 0.000000 0.880952
  8 4.469155 -7.332530 -6.350279 -0.999956 0.000000 0.009400 0.000000 0.000000
  8 4.499028 -9.222567 -3.200300 -0.999956 0.000000 0.009400 0.777778 0.880952
p228_mag.bmp
  8 4.499028 -9.222567 -3.200300 -0.999956 0.000000 0.009400 0.777778 0.880952
  8 4.469155 -7.332530 -6.350279 -0.999956 0.000000 0.009400 0.000000 0.000000
  8 4.479098 -8.342530 -6.350290 -0.999956 0.000000 0.009400 0.777778 0.000000
p228_mag.bmp
  8 4.499028 -9.222567 -3.200300 -0.706380 -0.683581 -0.183695 0.777778 0.880952
  8 4.479098 -8.342530 -6.350290 -0.706380 -0.683581 -0.183695 0.777778 0.000000
  8 4.719015 -9.452579 -3.180301 -0.706380 -0.683581 -0.183695 0.968254 0.880952
p228_mag.bmp
  8 4.719015 -9.452579 -3.180301 -0.706380 -0.683581 -0.183695 0.968254 0.880952
  8 4.479098 -8.342530 -6.350290 -0.706380 -0.683581 -0.183695 0.777778 0.000000
  8 4.729083 -8.612544 -6.340292 -0.706380 -0.683581 -0.183695 0.968254 0.007937
p228_mag.bmp
  8 4.939028 -9.222591 -3.190297 -0.022200 0.022200 0.999507 0.777778 1.000000
  8 4.499028 -9.222567 -3.200300 -0.022200 0.022200 0.999507 0.777778 0.880952
  8 4.719015 -9.452579 -3.180301 -0.022200 0.022200 0.999507 0.968254 0.952381
end
