// Created by Crowbar 0.49.0.0

$modelname "weapons/tfa_cso/c_m1918bar.mdl"

$Include "csonline_gmod.qci"

$bodygroup "weapon"
{
	studio "v_m1918bar"
}

$CDMaterials "models\weapons\tfa_cso\m1918bar\"

$attachment 0 "Bone02" 28 0 0
//$attachment 1 "Bone02" 0.5 -1 0.5


$sequence "idle1" {
	"v_m1918bar_anims\idle1"
	fps 30
	loop
	activity "ACT_VM_IDLE" 1
	snap
}
$sequence "shoot1" {
	"v_m1918bar_anims\shoot1"
	{ event 5001 0 "23" }
	fps 30
	activity "ACT_VM_PRIMARYATTACK" 1
	snap
}
$sequence "shoot2" {
	"v_m1918bar_anims\shoot2"
	{ event 5001 0 "23" }
	fps 30
	activity "ACT_VM_PRIMARYATTACK" 2
	snap
}
$sequence "shoot3" {
	"v_m1918bar_anims\shoot3"
	{ event 5001 0 "23" }
	fps 30
	activity "ACT_VM_PRIMARYATTACK" 3
	snap
}
$sequence "reload" {
	"v_m1918bar_anims\reload"
	{ event 5004 24 "BAR.ClipOut" }
	{ event 5004 55 "BAR.ClipIn" }
	{ event 5004 74 "BAR.BoltPull" }
	fps 30
	activity "ACT_VM_RELOAD" 1
	snap
}
$sequence "draw" {
	"v_m1918bar_anims\draw"
	fps 30
	activity "ACT_VM_DRAW" 1
	snap
}
