version 1
nodes
  0 "pp19_root" -1
  1 "pp19_Dummy01" 0
  2 "pp19_bone01" 1
  3 "pp19_bone03" 0
  4 "Bone03" 0
  5 "Dummy07" 0
  6 "Dummy10" 5
  7 "Dummy09" 5
  8 "Dummy11" 5
  9 "Dummy08" 5
  10 "Dummy02" 0
  11 "Dummy05" 10
  12 "Dummy06" 10
  13 "Dummy03" 10
  14 "Dummy04" 10
  15 "Dummy12" 0
  16 "Dummy19" 15
  17 "Dummy17" 15
  18 "Dummy18" 15
  19 "Dummy16" 15
  20 "Dummy13" 0
  21 "Dummy22" 20
  22 "Dummy20" 20
  23 "Dummy25" 20
  24 "Dummy21" 20
  25 "Dummy14" 0
  26 "Dummy15" 25
  27 "Dummy26" 25
  28 "Dummy27" 25
  29 "Dummy28" 25
  30 "Bone02" 0
  31 "root" -1
  32 "Bone01" 31
  33 "Bone_L_Upper" 32
  34 "Bone_Lefthand" 32
  35 "Bone13" 34
  36 "Bone14" 35
  37 "Bone15" 36
  38 "Bone17" 34
  39 "Bone18" 38
  40 "Bone19" 39
  41 "Bone21" 34
  42 "Bone22" 41
  43 "Bone23" 42
  44 "Bone09" 34
  45 "Bone10" 44
  46 "Bone11" 45
  47 "Bone05" 34
  48 "Bone06" 47
  49 "Bone07" 48
  50 "Bone_Se_Hand-L" 34
  51 "Bone04" 31
  52 "Bone_Righthand" 51
  53 "Bone39" 52
  54 "Bone40" 53
  55 "Bone41" 54
  56 "Bone35" 52
  57 "Bone36" 56
  58 "Bone37" 57
  59 "Bone31" 52
  60 "Bone32" 59
  61 "Bone33" 60
  62 "Bone43" 52
  63 "Bone44" 62
  64 "Bone45" 63
  65 "Bone27" 52
  66 "Bone28" 65
  67 "Bone29" 66
  68 "Bone_Se_Hand-R" 52
  69 "Bone_R_Upper" 51
end
skeleton
  time 0
    0 5.590014 -9.320597 -3.199316 -1.548205 -3.039114 -4.914948
    1 13.129178 -0.309362 0.018823 -1.570807 1.570460 0.000000
    2 -0.000001 0.000001 0.000000 -3.141592 1.570796 0.000000
    3 1.794163 -0.990051 0.000000 0.000000 0.000000 -2.107043
    4 5.430543 -0.280590 0.438968 0.000000 -1.570796 0.000000
    5 6.106755 0.873607 3.364788 -0.031303 -0.066368 0.095956
    6 0.000000 0.000000 0.000000 0.000000 0.000000 0.000000
    7 0.000000 0.000000 0.000000 0.000000 0.000000 0.000000
    8 0.000000 0.000000 0.000000 0.000000 0.000000 0.000000
    9 0.000000 0.000000 0.000000 0.000000 0.000000 0.000000
    10 4.917415 -0.375014 1.147604 -0.010792 0.000807 0.007656
    11 0.000001 0.000000 0.000000 0.000000 0.000000 0.000000
    12 -0.000001 -0.000001 0.000000 0.000000 0.000000 0.000000
    13 0.000000 0.000000 0.000000 0.000000 0.000000 0.000000
    14 -0.000001 0.000000 0.000000 0.000000 0.000000 0.000000
    15 3.907625 1.132784 1.301830 -0.436332 0.000000 0.000000
    16 -0.850018 0.850000 0.000000 0.000000 0.000000 0.000000
    17 -0.850000 -0.850000 0.000000 0.000000 0.000000 0.000000
    18 0.850000 -0.850057 0.000000 0.000000 0.000000 0.000000
    19 0.850000 0.850000 0.000000 0.000000 0.000000 0.000000
    20 2.362294 1.131579 1.293652 2.705260 -0.000001 -0.000001
    21 -0.850000 0.850000 0.000000 0.000000 0.000000 0.000000
    22 -0.850000 -0.850000 0.000000 0.000000 0.000000 0.000000
    23 0.850000 -0.850000 0.000000 0.000000 0.000000 0.000000
    24 0.850000 0.850056 0.000000 0.000000 0.000000 0.000000
    25 2.672156 0.973855 1.950156 0.000000 0.000000 0.000000
    26 -0.000001 0.000000 0.000001 0.000000 0.000000 0.000000
    27 0.000000 0.000000 0.000000 0.000000 0.000000 0.000000
    28 0.000000 -0.000001 -0.000001 0.000000 0.000000 0.000000
    29 0.000000 0.000001 0.000001 0.000000 0.000000 0.000000
    30 7.264874 0.725374 0.000002 -0.260267 -1.570796 0.000000
    31 3.825489 0.807353 -6.140193 -0.101258 0.004818 0.270111
    32 7.353012 -4.158954 -4.542089 0.616253 -2.275219 -1.426325
    33 7.987854 -0.499417 -0.392002 -1.570083 -0.027460 -3.125750
    34 0.033551 -8.471392 -0.065070 0.131595 0.705853 -0.346943
    35 -0.488518 -2.755602 -0.228260 -0.914750 -0.000322 -0.149989
    36 0.039887 -1.542292 0.022041 -1.803252 -0.007862 0.040389
    37 0.028786 -1.138233 -0.112955 -0.823614 -0.014010 0.016335
    38 0.250027 -2.820665 -0.238396 -0.716762 -0.052214 -0.058503
    39 -0.049759 -1.594604 0.026258 -1.635261 -0.001414 -0.043314
    40 -0.034142 -1.167844 0.049625 -1.033169 0.007706 -0.026953
    41 0.957766 -2.746780 -0.090302 0.221380 -0.169983 0.210614
    42 -0.033420 -1.397129 -0.030789 -1.213246 -0.001630 -0.058162
    43 -0.022360 -0.957436 -0.000748 -0.791763 0.006759 -0.038554
    44 -1.180681 -2.507217 -0.193859 -0.909165 0.223300 -0.199657
    45 -0.024967 -1.127840 0.017597 -1.311791 -0.003523 -0.054900
    46 -0.020057 -0.906594 0.033528 -1.124986 0.003176 -0.046189
    47 0.618667 -1.201183 0.189285 0.268199 -1.036066 -0.350472
    48 1.446081 -0.251481 0.079230 0.076026 -0.245372 -0.918021
    49 1.049988 -0.143915 0.032291 0.037257 -0.185979 -0.756180
    50 0.120153 -0.050270 -0.054489 0.287569 3.110905 1.561085
    51 -4.212295 -7.383669 -4.872526 -1.334302 -5.103286 -1.355293
    52 -0.192127 -8.446512 0.014073 -0.933867 -1.368611 1.155109
    53 0.447953 -2.798986 -0.200443 -0.796563 -0.050604 0.274849
    54 -0.032909 -1.499736 0.024472 -1.284119 0.022986 -0.023452
    55 -0.027022 -1.088639 -0.028023 -0.369382 0.010019 -0.003224
    56 -0.249534 -2.846964 -0.174213 -0.233181 -0.005530 0.097740
    57 0.043235 -1.656596 0.072574 -1.364447 -0.021506 0.006568
    58 0.031729 -1.153017 0.058838 -0.513832 -0.004763 0.005640
    59 -0.963866 -2.785145 -0.085350 0.010812 0.162048 0.046398
    60 0.028479 -1.403067 -0.013261 -0.746527 -0.016910 -0.029015
    61 0.021413 -0.957781 0.020046 -0.104819 -0.001043 -0.004794
    62 1.164475 -2.543940 -0.170330 -1.175471 -0.161424 0.354246
    63 0.024032 -1.132948 -0.001725 -0.760321 0.003703 0.040617
    64 0.014898 -0.883989 -0.019848 -0.213155 -0.001882 0.008341
    65 -0.586770 -1.264477 0.200161 0.046308 -0.603711 -2.744710
    66 1.546273 0.039149 0.016848 -0.009328 -0.003179 0.531821
    67 1.117947 0.048424 -0.005766 -0.000219 -0.025174 0.064016
    68 0.048107 -0.111698 -0.212172 1.026811 0.164452 1.239766
    69 -4.659195 7.518824 -0.333186 1.581379 -0.016405 -1.135503
  time 1
    0 5.757988 -8.734642 -3.109470 -1.553379 -2.985313 -4.925598
    1 13.129178 -0.309362 0.018823 -1.570807 1.570796 0.000000
    2 -0.000001 0.000001 0.000000 -3.141592 1.570796 0.000000
    3 1.794163 -0.990051 0.000000 0.000000 0.000000 -2.107043
    4 5.430543 -0.280590 0.438968 0.000000 -1.570796 0.000000
    5 6.106755 0.873607 3.364788 -0.031303 -0.066368 0.095956
    6 0.000000 0.000000 0.000000 0.000000 0.000000 0.000000
    7 0.000000 0.000000 0.000000 0.000000 0.000000 0.000000
    8 0.000000 0.000000 0.000000 0.000000 0.000000 0.000000
    9 0.000000 0.000000 0.000000 0.000000 0.000000 0.000000
    10 4.917415 -0.375014 1.147604 -0.010792 0.000807 0.007656
    11 0.000001 0.000000 0.000000 0.000000 0.000000 0.000000
    12 -0.000001 -0.000001 0.000000 0.000000 0.000000 0.000000
    13 0.000000 0.000000 0.000000 0.000000 0.000000 0.000000
    14 -0.000001 0.000000 0.000000 0.000000 0.000000 0.000000
    15 4.095131 1.132784 1.301830 -0.436332 0.000000 0.000000
    16 -1.697700 1.697682 0.000000 0.000000 0.000000 0.000000
    17 -1.697682 -1.697682 0.000000 0.000000 0.000000 0.000000
    18 1.697682 -1.697739 0.000000 0.000000 0.000000 0.000000
    19 1.697682 1.697682 0.000000 0.000000 0.000000 0.000000
    20 2.135725 1.131579 1.293652 2.705260 -0.000001 -0.000001
    21 -1.697682 1.697682 0.000000 0.000000 0.000000 0.000000
    22 -1.697682 -1.697682 0.000000 0.000000 0.000000 0.000000
    23 1.697682 -1.697682 0.000000 0.000000 0.000000 0.000000
    24 1.697682 1.697738 0.000000 0.000000 0.000000 0.000000
    25 2.672156 0.973855 1.950156 0.000000 0.000000 0.000000
    26 -0.000001 0.000000 0.000001 0.000000 0.000000 0.000000
    27 0.000000 0.000000 0.000000 0.000000 0.000000 0.000000
    28 0.000000 -0.000001 -0.000001 0.000000 0.000000 0.000000
    29 0.000000 0.000001 0.000001 0.000000 0.000000 0.000000
    30 5.956240 1.073041 0.000002 -0.260267 -1.570796 0.000000
    31 3.825489 0.885481 -6.140193 -0.101258 0.004818 0.270111
    32 7.571769 -3.940197 -4.604591 0.625596 -2.281098 -1.438470
    33 7.890195 -1.018964 -0.399814 -1.569124 -0.028414 -3.190215
    34 0.025738 -8.479205 -0.065070 0.158350 0.698139 -0.288827
    35 -0.488518 -2.755602 -0.228260 -0.914750 -0.000322 -0.149989
    36 0.039887 -1.542292 0.022041 -1.803252 -0.007862 0.040389
    37 0.028786 -1.138233 -0.112955 -0.823614 -0.014010 0.016335
    38 0.250027 -2.820665 -0.238396 -0.716762 -0.052214 -0.058503
    39 -0.049759 -1.594604 0.026258 -1.635261 -0.001414 -0.043314
    40 -0.034142 -1.167844 0.049625 -1.033169 0.007706 -0.026953
    41 0.957766 -2.746780 -0.090302 0.221380 -0.169983 0.210614
    42 -0.033420 -1.397129 -0.030789 -1.213246 -0.001630 -0.058162
    43 -0.022360 -0.957436 -0.000748 -0.791763 0.006759 -0.038554
    44 -1.180681 -2.507217 -0.193859 -0.909165 0.223300 -0.199657
    45 -0.024967 -1.127840 0.017597 -1.311791 -0.003523 -0.054900
    46 -0.020057 -0.906594 0.033528 -1.124986 0.003176 -0.046189
    47 0.618667 -1.201183 0.189285 0.268199 -1.036066 -0.350472
    48 1.446081 -0.251481 0.079230 0.076026 -0.245372 -0.918021
    49 1.049988 -0.143915 0.032291 0.037257 -0.185979 -0.756180
    50 0.120153 -0.050270 -0.054489 0.287569 3.110905 1.561085
    51 -4.044322 -7.371950 -4.786586 -1.371245 -5.150881 -1.365457
    52 -0.180408 -8.458231 0.025792 -0.437444 -1.400433 0.658828
    53 0.447953 -2.798986 -0.200443 -0.796563 -0.050604 0.274849
    54 -0.032909 -1.499736 0.024472 -1.284119 0.022986 -0.023452
    55 -0.027022 -1.088639 -0.028023 -0.369382 0.010019 -0.003224
    56 -0.249534 -2.846964 -0.174213 -0.233181 -0.005530 0.097740
    57 0.043235 -1.656596 0.072574 -1.364447 -0.021506 0.006568
    58 0.031729 -1.153017 0.058838 -0.513832 -0.004763 0.005640
    59 -0.963866 -2.785145 -0.085350 0.010812 0.162048 0.046398
    60 0.028479 -1.403067 -0.013261 -0.746527 -0.016910 -0.029015
    61 0.021413 -0.957781 0.020046 -0.104819 -0.001043 -0.004794
    62 1.164475 -2.543940 -0.170330 -1.175471 -0.161424 0.354246
    63 0.024032 -1.132948 -0.001725 -0.760321 0.003703 0.040617
    64 0.014898 -0.883989 -0.019848 -0.213155 -0.001882 0.008341
    65 -0.586770 -1.264477 0.200161 0.046308 -0.603711 -2.744710
    66 1.546273 0.039149 0.016848 -0.009328 -0.003179 0.531821
    67 1.117947 0.048424 -0.005766 -0.000219 -0.025174 0.064016
    68 0.048107 -0.111698 -0.212172 1.026811 0.164452 1.239766
    69 -4.928734 7.323506 -0.340999 1.581187 -0.017457 -1.095483
  time 2
    0 5.750175 -8.496353 -3.082125 -1.553092 -2.993340 -4.932034
    1 13.129178 -0.309362 0.018823 -1.570807 1.570460 0.000000
    2 -0.000001 0.000001 0.000000 -3.141592 1.570796 0.000000
    3 1.794163 -0.990051 0.000000 0.000000 0.000000 -2.107043
    4 5.430543 -0.280590 0.438968 0.000000 -1.570796 0.000000
    5 6.106755 0.873607 3.364788 -0.031303 -0.066368 0.095956
    6 0.000000 0.000000 0.000000 0.000000 0.000000 0.000000
    7 0.000000 0.000000 0.000000 0.000000 0.000000 0.000000
    8 0.000000 0.000000 0.000000 0.000000 0.000000 0.000000
    9 0.000000 0.000000 0.000000 0.000000 0.000000 0.000000
    10 4.917415 -0.375014 1.147604 -0.010792 0.000807 0.007656
    11 0.000001 0.000000 0.000000 0.000000 0.000000 0.000000
    12 -0.000001 -0.000001 0.000000 0.000000 0.000000 0.000000
    13 0.000000 0.000000 0.000000 0.000000 0.000000 0.000000
    14 -0.000001 0.000000 0.000000 0.000000 0.000000 0.000000
    15 3.907625 1.132784 1.301830 -0.436332 0.000000 0.000000
    16 -0.850018 0.850000 0.000000 0.000000 0.000000 0.000000
    17 -0.850000 -0.850000 0.000000 0.000000 0.000000 0.000000
    18 0.850000 -0.850057 0.000000 0.000000 0.000000 0.000000
    19 0.850000 0.850000 0.000000 0.000000 0.000000 0.000000
    20 2.362294 1.131579 1.293652 2.705260 -0.000001 -0.000001
    21 -0.850000 0.850000 0.000000 0.000000 0.000000 0.000000
    22 -0.850000 -0.850000 0.000000 0.000000 0.000000 0.000000
    23 0.850000 -0.850000 0.000000 0.000000 0.000000 0.000000
    24 0.850000 0.850056 0.000000 0.000000 0.000000 0.000000
    25 2.672156 0.973855 1.950156 0.000000 0.000000 0.000000
    26 -0.000001 0.000000 0.000001 0.000000 0.000000 0.000000
    27 0.000000 0.000000 0.000000 0.000000 0.000000 0.000000
    28 0.000000 -0.000001 -0.000001 0.000000 0.000000 0.000000
    29 0.000000 0.000001 0.000001 0.000000 0.000000 0.000000
    30 5.956240 1.073041 0.000002 -0.260267 -1.570796 0.000000
    31 3.825489 0.963608 -6.140193 -0.101258 0.004818 0.270111
    32 7.642084 -3.858164 -4.616310 0.636559 -2.287786 -1.454823
    33 7.831599 -1.261159 -0.403721 -1.568549 -0.028795 -3.221025
    34 0.029645 -8.475298 -0.065070 0.148335 0.701189 -0.310719
    35 -0.488518 -2.755602 -0.228260 -0.914750 -0.000322 -0.149989
    36 0.039887 -1.542292 0.022041 -1.803252 -0.007862 0.040389
    37 0.028786 -1.138233 -0.112955 -0.823614 -0.014010 0.016335
    38 0.250027 -2.820665 -0.238396 -0.716762 -0.052214 -0.058503
    39 -0.049759 -1.594604 0.026258 -1.635261 -0.001414 -0.043314
    40 -0.034142 -1.167844 0.049625 -1.033169 0.007706 -0.026953
    41 0.957766 -2.746780 -0.090302 0.221943 -0.170007 0.210637
    42 -0.033420 -1.397129 -0.034695 -1.235359 -0.002313 -0.059049
    43 -0.022360 -0.957436 -0.000748 -0.818282 0.006448 -0.039849
    44 -1.180681 -2.507217 -0.193859 -0.909165 0.223300 -0.199657
    45 -0.024967 -1.127840 0.017597 -1.311791 -0.003523 -0.054900
    46 -0.020057 -0.906594 0.033528 -1.124986 0.003176 -0.046189
    47 0.618667 -1.201183 0.189285 0.268199 -1.036066 -0.350472
    48 1.446081 -0.251481 0.079230 0.076026 -0.245372 -0.918021
    49 1.049988 -0.143915 0.032291 0.037257 -0.185979 -0.756180
    50 0.120153 -0.050270 -0.054489 0.287569 3.110905 1.561085
    51 -4.016977 -7.289916 -5.024874 -1.383615 -5.181168 -1.378851
    52 -0.180408 -8.466044 0.025792 -0.397419 -1.405489 0.656559
    53 0.447953 -2.798986 -0.200443 -0.796563 -0.050604 0.274849
    54 -0.032909 -1.499736 0.024472 -1.284119 0.022986 -0.023452
    55 -0.027022 -1.088639 -0.028023 -0.369382 0.010019 -0.003224
    56 -0.249534 -2.846964 -0.174213 -0.233181 -0.005530 0.097740
    57 0.043235 -1.656596 0.072574 -1.364447 -0.021506 0.006568
    58 0.031729 -1.153017 0.058838 -0.513832 -0.004763 0.005640
    59 -0.963866 -2.785145 -0.085350 0.010812 0.162048 0.046398
    60 0.028479 -1.403067 -0.013261 -0.746527 -0.016910 -0.029015
    61 0.021413 -0.957781 0.020046 -0.104819 -0.001043 -0.004794
    62 1.164475 -2.543940 -0.170330 -1.175471 -0.161424 0.354246
    63 0.024032 -1.132948 -0.001725 -0.760321 0.003703 0.040617
    64 0.014898 -0.883989 -0.019848 -0.213155 -0.001882 0.008341
    65 -0.586770 -1.264477 0.200161 0.046308 -0.603711 -2.744710
    66 1.546273 0.039149 0.016848 -0.009328 -0.003179 0.531821
    67 1.117947 0.048424 -0.005766 -0.000219 -0.025174 0.064016
    68 0.048107 -0.111698 -0.212172 1.026811 0.164452 1.239766
    69 -5.428749 6.917243 -0.356624 1.580804 -0.019466 -1.017143
  time 3
    0 5.707205 -8.558855 -3.089938 -1.551655 -3.012357 -4.934409
    1 13.129178 -0.309362 0.018823 -1.570807 1.570460 0.000000
    2 -0.000001 0.000001 0.000000 -3.141592 1.570796 0.000000
    3 1.794163 -0.990051 0.000000 0.000000 0.000000 -2.107043
    4 5.430543 -0.280590 0.438968 0.000000 -1.570796 0.000000
    5 6.106755 0.873607 3.364788 -0.031303 -0.066368 0.095956
    6 0.000000 0.000000 0.000000 0.000000 0.000000 0.000000
    7 0.000000 0.000000 0.000000 0.000000 0.000000 0.000000
    8 0.000000 0.000000 0.000000 0.000000 0.000000 0.000000
    9 0.000000 0.000000 0.000000 0.000000 0.000000 0.000000
    10 4.917415 -0.375014 1.147604 -0.010792 0.000807 0.007656
    11 0.000001 0.000000 0.000000 0.000000 0.000000 0.000000
    12 -0.000001 -0.000001 0.000000 0.000000 0.000000 0.000000
    13 0.000000 0.000000 0.000000 0.000000 0.000000 0.000000
    14 -0.000001 0.000000 0.000000 0.000000 0.000000 0.000000
    15 3.907625 1.132784 1.301830 -0.436332 0.000000 0.000000
    16 -0.850018 0.850000 0.000000 0.000000 0.000000 0.000000
    17 -0.850000 -0.850000 0.000000 0.000000 0.000000 0.000000
    18 0.850000 -0.850057 0.000000 0.000000 0.000000 0.000000
    19 0.850000 0.850000 0.000000 0.000000 0.000000 0.000000
    20 2.362294 1.131579 1.293652 2.705260 -0.000001 -0.000001
    21 -0.850000 0.850000 0.000000 0.000000 0.000000 0.000000
    22 -0.850000 -0.850000 0.000000 0.000000 0.000000 0.000000
    23 0.850000 -0.850000 0.000000 0.000000 0.000000 0.000000
    24 0.850000 0.850056 0.000000 0.000000 0.000000 0.000000
    25 2.672156 0.973855 1.950156 0.000000 0.000000 0.000000
    26 -0.000001 0.000000 0.000001 0.000000 0.000000 0.000000
    27 0.000000 0.000000 0.000000 0.000000 0.000000 0.000000
    28 0.000000 -0.000001 -0.000001 0.000000 0.000000 0.000000
    29 0.000000 0.000001 0.000001 0.000000 0.000000 0.000000
    30 6.612510 0.897254 0.000002 -0.260267 -1.570796 0.000000
    31 3.825489 0.897200 -6.140193 -0.101258 0.004818 0.270111
    32 7.653803 -3.842538 -4.620216 0.641993 -2.291166 -1.463717
    33 7.812068 -1.339286 -0.403721 -1.568453 -0.028986 -3.230844
    34 0.033551 -8.475298 -0.065070 0.134461 0.705090 -0.340779
    35 -0.488518 -2.755602 -0.228260 -0.914750 -0.000322 -0.149989
    36 0.039887 -1.542292 0.022041 -1.803252 -0.007862 0.040389
    37 0.028786 -1.138233 -0.112955 -0.823614 -0.014010 0.016335
    38 0.250027 -2.820665 -0.238396 -0.716762 -0.052214 -0.058503
    39 -0.049759 -1.594604 0.026258 -1.635261 -0.001414 -0.043314
    40 -0.034142 -1.167844 0.049625 -1.033169 0.007706 -0.026953
    41 0.957766 -2.746780 -0.090302 0.221380 -0.169983 0.210614
    42 -0.033420 -1.397129 -0.030789 -1.213246 -0.001630 -0.058162
    43 -0.022360 -0.957436 -0.000748 -0.791763 0.006759 -0.038554
    44 -1.180681 -2.507217 -0.193859 -0.909165 0.223300 -0.199657
    45 -0.024967 -1.127840 0.017597 -1.311791 -0.003523 -0.054900
    46 -0.020057 -0.906594 0.033528 -1.124986 0.003176 -0.046189
    47 0.618667 -1.201183 0.189285 0.268199 -1.036066 -0.350472
    48 1.446081 -0.251481 0.079230 0.076026 -0.245372 -0.918021
    49 1.049988 -0.143915 0.032291 0.037257 -0.185979 -0.756180
    50 0.120153 -0.050270 -0.054489 0.287569 3.110905 1.561085
    51 -4.009164 -7.231321 -5.196754 -1.384903 -5.187226 -1.382841
    52 -0.184315 -8.469950 0.025792 -0.397056 -1.415665 0.678028
    53 0.447953 -2.798986 -0.200443 -0.796563 -0.050604 0.274849
    54 -0.032909 -1.499736 0.024472 -1.284119 0.022986 -0.023452
    55 -0.027022 -1.088639 -0.028023 -0.369382 0.010019 -0.003224
    56 -0.249534 -2.846964 -0.174213 -0.233181 -0.005530 0.097740
    57 0.043235 -1.656596 0.072574 -1.364447 -0.021506 0.006568
    58 0.031729 -1.153017 0.058838 -0.513832 -0.004763 0.005640
    59 -0.963866 -2.785145 -0.085350 0.010812 0.162048 0.046398
    60 0.028479 -1.403067 -0.013261 -0.746527 -0.016910 -0.029015
    61 0.021413 -0.957781 0.020046 -0.104819 -0.001043 -0.004794
    62 1.164475 -2.543940 -0.170330 -1.175471 -0.161424 0.354246
    63 0.024032 -1.132948 -0.001725 -0.760321 0.003703 0.040617
    64 0.014898 -0.883989 -0.019848 -0.213155 -0.001882 0.008341
    65 -0.586770 -1.264477 0.200161 0.046308 -0.603711 -2.744710
    66 1.546273 0.039149 0.016848 -0.009328 -0.003179 0.531821
    67 1.117947 0.048424 -0.005766 -0.000219 -0.025174 0.064016
    68 0.048107 -0.111698 -0.212172 1.026811 0.164452 1.239766
    69 -5.663132 6.706300 -0.364437 1.580516 -0.020518 -0.978822
  time 4
    0 5.683767 -8.844020 -3.156346 -1.550025 -3.027455 -4.929276
    1 13.129178 -0.309362 0.018823 -1.570807 1.570796 0.000000
    2 -0.000001 0.000001 0.000000 -3.141592 1.570796 0.000000
    3 1.794163 -0.990051 0.000000 0.000000 0.000000 -1.838908
    4 5.430543 -0.280590 0.438968 0.000000 -1.570796 0.000000
    5 6.106755 0.873607 3.364788 -0.031303 -0.066368 0.095956
    6 0.000000 0.000000 0.000000 0.000000 0.000000 0.000000
    7 0.000000 0.000000 0.000000 0.000000 0.000000 0.000000
    8 0.000000 0.000000 0.000000 0.000000 0.000000 0.000000
    9 0.000000 0.000000 0.000000 0.000000 0.000000 0.000000
    10 4.917415 -0.375014 1.147604 -0.010792 0.000807 0.007656
    11 0.000001 0.000000 0.000000 0.000000 0.000000 0.000000
    12 -0.000001 -0.000001 0.000000 0.000000 0.000000 0.000000
    13 0.000000 0.000000 0.000000 0.000000 0.000000 0.000000
    14 -0.000001 0.000000 0.000000 0.000000 0.000000 0.000000
    15 3.907625 1.132784 1.301830 -0.436332 0.000000 0.000000
    16 -0.850018 0.850000 0.000000 0.000000 0.000000 0.000000
    17 -0.850000 -0.850000 0.000000 0.000000 0.000000 0.000000
    18 0.850000 -0.850057 0.000000 0.000000 0.000000 0.000000
    19 0.850000 0.850000 0.000000 0.000000 0.000000 0.000000
    20 2.362294 1.131579 1.293652 2.705260 -0.000001 -0.000001
    21 -0.850000 0.850000 0.000000 0.000000 0.000000 0.000000
    22 -0.850000 -0.850000 0.000000 0.000000 0.000000 0.000000
    23 0.850000 -0.850000 0.000000 0.000000 0.000000 0.000000
    24 0.850000 0.850056 0.000000 0.000000 0.000000 0.000000
    25 2.672156 0.973855 1.950156 0.000000 0.000000 0.000000
    26 -0.000001 0.000000 0.000001 0.000000 0.000000 0.000000
    27 0.000000 0.000000 0.000000 0.000000 0.000000 0.000000
    28 0.000000 -0.000001 -0.000001 0.000000 0.000000 0.000000
    29 0.000000 0.000001 0.000001 0.000000 0.000000 0.000000
    30 7.264874 0.725374 0.000002 -0.260267 -1.570796 0.000000
    31 3.825489 0.776102 -6.140193 -0.101258 0.004818 0.270111
    32 7.603020 -3.893321 -4.612404 0.634748 -2.286242 -1.454440
    33 7.851131 -1.183031 -0.399814 -1.568741 -0.028700 -3.211071
    34 0.033551 -8.471392 -0.065070 0.129401 0.706410 -0.351649
    35 -0.488518 -2.755602 -0.228260 -0.914750 -0.000322 -0.149989
    36 0.039887 -1.542292 0.022041 -1.803252 -0.007862 0.040389
    37 0.028786 -1.138233 -0.112955 -0.823589 -0.014010 0.016335
    38 0.250027 -2.820665 -0.238396 -0.716762 -0.052214 -0.058503
    39 -0.049759 -1.594604 0.026258 -1.635261 -0.001414 -0.043314
    40 -0.034142 -1.167844 0.049625 -1.033169 0.007706 -0.026953
    41 0.957766 -2.746780 -0.090302 0.217785 -0.169851 0.210482
    42 -0.033420 -1.397129 -0.030789 -1.071339 0.002229 -0.052134
    43 -0.022360 -0.957436 0.003159 -0.621933 0.007946 -0.030069
    44 -1.180681 -2.507217 -0.193859 -0.909165 0.223300 -0.199657
    45 -0.024967 -1.127840 0.017597 -1.311791 -0.003523 -0.054900
    46 -0.020057 -0.906594 0.033528 -1.124986 0.003176 -0.046189
    47 0.618667 -1.201183 0.189285 0.268199 -1.036066 -0.350472
    48 1.446081 -0.251481 0.079230 0.076026 -0.245372 -0.918021
    49 1.049988 -0.143915 0.032291 0.037257 -0.185979 -0.756180
    50 0.120153 -0.050270 -0.054489 0.287569 3.110905 1.561085
    51 -4.028696 -7.250853 -5.181129 -1.374603 -5.162390 -1.373342
    52 -0.188221 -8.469950 0.025792 -0.445111 -1.423127 0.713111
    53 0.447953 -2.798986 -0.200443 -0.796563 -0.050604 0.274849
    54 -0.032909 -1.499736 0.024472 -1.284119 0.022986 -0.023452
    55 -0.027022 -1.088639 -0.028023 -0.369382 0.010019 -0.003224
    56 -0.249534 -2.846964 -0.174213 -0.233181 -0.005530 0.097740
    57 0.043235 -1.656596 0.072574 -1.364447 -0.021506 0.006568
    58 0.031729 -1.153017 0.058838 -0.513832 -0.004763 0.005640
    59 -0.963866 -2.785145 -0.085350 0.010812 0.162048 0.046398
    60 0.028479 -1.403067 -0.013261 -0.746527 -0.016910 -0.029015
    61 0.021413 -0.957781 0.020046 -0.104819 -0.001043 -0.004794
    62 1.164475 -2.543940 -0.170330 -1.175471 -0.161424 0.354246
    63 0.024032 -1.132948 -0.001725 -0.760321 0.003703 0.040617
    64 0.014898 -0.883989 -0.019848 -0.213155 -0.001882 0.008341
    65 -0.586770 -1.264477 0.200161 0.046308 -0.603711 -2.744710
    66 1.546273 0.039149 0.016848 -0.009328 -0.003179 0.531821
    67 1.117947 0.048424 -0.005766 -0.000219 -0.025174 0.064016
    68 0.048107 -0.111698 -0.212172 1.026811 0.164452 1.239766
    69 -5.471720 6.882086 -0.356624 1.580708 -0.019657 -1.010253
  time 5
    0 5.660329 -9.144810 -3.246193 -1.548301 -3.042363 -4.921384
    1 13.129178 -0.309362 0.018823 -1.570807 1.570460 0.000000
    2 -0.000001 0.000001 0.000000 -3.141592 1.570796 0.000000
    3 1.794163 -0.990051 0.000000 0.000000 0.000000 -1.570806
    4 5.430543 -0.280590 0.438968 0.000000 -1.570796 0.000000
    5 6.106755 0.873607 3.364788 -0.031303 -0.066368 0.095956
    6 0.000000 0.000000 0.000000 0.000000 0.000000 0.000000
    7 0.000000 0.000000 0.000000 0.000000 0.000000 0.000000
    8 0.000000 0.000000 0.000000 0.000000 0.000000 0.000000
    9 0.000000 0.000000 0.000000 0.000000 0.000000 0.000000
    10 4.917415 -0.375014 1.147604 -0.010792 0.000807 0.007656
    11 0.000001 0.000000 0.000000 0.000000 0.000000 0.000000
    12 -0.000001 -0.000001 0.000000 0.000000 0.000000 0.000000
    13 0.000000 0.000000 0.000000 0.000000 0.000000 0.000000
    14 -0.000001 0.000000 0.000000 0.000000 0.000000 0.000000
    15 3.907625 1.132784 1.301830 -0.436332 0.000000 0.000000
    16 -0.850018 0.850000 0.000000 0.000000 0.000000 0.000000
    17 -0.850000 -0.850000 0.000000 0.000000 0.000000 0.000000
    18 0.850000 -0.850057 0.000000 0.000000 0.000000 0.000000
    19 0.850000 0.850000 0.000000 0.000000 0.000000 0.000000
    20 2.362294 1.131579 1.293652 2.705260 -0.000001 -0.000001
    21 -0.850000 0.850000 0.000000 0.000000 0.000000 0.000000
    22 -0.850000 -0.850000 0.000000 0.000000 0.000000 0.000000
    23 0.850000 -0.850000 0.000000 0.000000 0.000000 0.000000
    24 0.850000 0.850056 0.000000 0.000000 0.000000 0.000000
    25 2.672156 0.973855 1.950156 0.000000 0.000000 0.000000
    26 -0.000001 0.000000 0.000001 0.000000 0.000000 0.000000
    27 0.000000 0.000000 0.000000 0.000000 0.000000 0.000000
    28 0.000000 -0.000001 -0.000001 0.000000 0.000000 0.000000
    29 0.000000 0.000001 0.000001 0.000000 0.000000 0.000000
    30 7.163308 0.752719 0.000002 -0.260267 -1.570796 0.000000
    31 3.825489 0.709694 -6.140193 -0.101258 0.004818 0.270111
    32 7.528799 -3.975355 -4.600685 0.622640 -2.278452 -1.438374
    33 7.909727 -0.929117 -0.399814 -1.569220 -0.028223 -3.179245
    34 0.033551 -8.471392 -0.065070 0.126852 0.707085 -0.357175
    35 -0.488518 -2.755602 -0.228260 -0.914750 -0.000322 -0.149989
    36 0.039887 -1.542292 0.022041 -1.803252 -0.007862 0.040389
    37 0.028786 -1.138233 -0.112955 -0.823614 -0.014010 0.016335
    38 0.250027 -2.820665 -0.238396 -0.716762 -0.052214 -0.058503
    39 -0.049759 -1.594604 0.026258 -1.635261 -0.001414 -0.043314
    40 -0.034142 -1.167844 0.049625 -1.033169 0.007706 -0.026953
    41 0.957766 -2.746780 -0.090302 0.213195 -0.169683 0.210326
    42 -0.033420 -1.397129 -0.026882 -0.890047 0.005860 -0.043745
    43 -0.022360 -0.957436 0.010971 -0.404986 0.007359 -0.019139
    44 -1.180681 -2.507217 -0.193859 -0.909165 0.223300 -0.199657
    45 -0.024967 -1.127840 0.017597 -1.311791 -0.003523 -0.054900
    46 -0.020057 -0.906594 0.033528 -1.124986 0.003176 -0.046189
    47 0.618667 -1.201183 0.189285 0.268199 -1.036066 -0.350472
    48 1.446081 -0.251481 0.079230 0.076026 -0.245372 -0.918021
    49 1.049988 -0.143915 0.032291 0.037257 -0.185979 -0.756180
    50 0.120153 -0.050270 -0.054489 0.287569 3.110905 1.561085
    51 -4.056041 -7.305542 -5.079563 -1.356580 -5.124228 -1.355673
    52 -0.188221 -8.466044 0.025792 -0.518642 -1.429417 0.759713
    53 0.447953 -2.798986 -0.200443 -0.796563 -0.050604 0.274849
    54 -0.032909 -1.499736 0.024472 -1.284119 0.022986 -0.023452
    55 -0.027022 -1.088639 -0.028023 -0.369382 0.010019 -0.003224
    56 -0.249534 -2.846964 -0.174213 -0.233181 -0.005530 0.097740
    57 0.043235 -1.656596 0.072574 -1.364447 -0.021506 0.006568
    58 0.031729 -1.153017 0.058838 -0.513832 -0.004763 0.005640
    59 -0.963866 -2.785145 -0.085350 0.010812 0.162048 0.046398
    60 0.028479 -1.403067 -0.013261 -0.746527 -0.016910 -0.029015
    61 0.021413 -0.957781 0.020046 -0.104819 -0.001043 -0.004794
    62 1.164475 -2.543940 -0.170330 -1.175471 -0.161424 0.354246
    63 0.024032 -1.132948 -0.001725 -0.760321 0.003703 0.040617
    64 0.014898 -0.883989 -0.019848 -0.213155 -0.001882 0.008341
    65 -0.586770 -1.264477 0.200161 0.046308 -0.603711 -2.744710
    66 1.546273 0.039149 0.016848 -0.009328 -0.003179 0.531821
    67 1.117947 0.048424 -0.005766 -0.000219 -0.025174 0.064016
    68 0.048107 -0.111698 -0.212172 1.026811 0.164452 1.239766
    69 -5.081083 7.210221 -0.344905 1.581092 -0.018031 -1.072265
  time 6
    0 5.644704 -9.281533 -3.296976 -1.547151 -3.050963 -4.916020
    1 13.129178 -0.309362 0.018823 -1.570807 1.570796 0.000000
    2 -0.000001 0.000001 0.000000 -3.141592 1.570796 0.000000
    3 1.794163 -0.990051 0.000000 0.000000 0.000000 -1.570806
    4 5.430543 -0.280590 0.438968 0.000000 -1.570796 0.000000
    5 6.106755 0.873607 3.364788 -0.031303 -0.066368 0.095956
    6 0.000000 0.000000 0.000000 0.000000 0.000000 0.000000
    7 0.000000 0.000000 0.000000 0.000000 0.000000 0.000000
    8 0.000000 0.000000 0.000000 0.000000 0.000000 0.000000
    9 0.000000 0.000000 0.000000 0.000000 0.000000 0.000000
    10 4.917415 -0.375014 1.147604 -0.010792 0.000807 0.007656
    11 0.000001 0.000000 0.000000 0.000000 0.000000 0.000000
    12 -0.000001 -0.000001 0.000000 0.000000 0.000000 0.000000
    13 0.000000 0.000000 0.000000 0.000000 0.000000 0.000000
    14 -0.000001 0.000000 0.000000 0.000000 0.000000 0.000000
    15 3.907625 1.132784 1.301830 -0.436332 0.000000 0.000000
    16 -0.850018 0.850000 0.000000 0.000000 0.000000 0.000000
    17 -0.850000 -0.850000 0.000000 0.000000 0.000000 0.000000
    18 0.850000 -0.850057 0.000000 0.000000 0.000000 0.000000
    19 0.850000 0.850000 0.000000 0.000000 0.000000 0.000000
    20 2.362294 1.131579 1.293652 2.705260 -0.000001 -0.000001
    21 -0.850000 0.850000 0.000000 0.000000 0.000000 0.000000
    22 -0.850000 -0.850000 0.000000 0.000000 0.000000 0.000000
    23 0.850000 -0.850000 0.000000 0.000000 0.000000 0.000000
    24 0.850000 0.850056 0.000000 0.000000 0.000000 0.000000
    25 2.672156 0.973855 1.950156 0.000000 0.000000 0.000000
    26 -0.000001 0.000000 0.000001 0.000000 0.000000 0.000000
    27 0.000000 0.000000 0.000000 0.000000 0.000000 0.000000
    28 0.000000 -0.000001 -0.000001 0.000000 0.000000 0.000000
    29 0.000000 0.000001 0.000001 0.000000 0.000000 0.000000
    30 7.264874 0.725374 0.000002 -0.260267 -1.570796 0.000000
    31 3.825489 0.733132 -6.140193 -0.101258 0.004818 0.270111
    32 7.470204 -4.037857 -4.585059 0.614346 -2.273382 -1.427090
    33 7.948790 -0.737705 -0.395908 -1.569603 -0.027937 -3.155409
    34 0.033551 -8.471392 -0.065070 0.125932 0.707319 -0.359149
    35 -0.488518 -2.755602 -0.228260 -0.914750 -0.000322 -0.149989
    36 0.039887 -1.542292 0.022041 -1.803252 -0.007862 0.040389
    37 0.028786 -1.138233 -0.112955 -0.823614 -0.014010 0.016335
    38 0.250027 -2.820665 -0.238396 -0.716762 -0.052214 -0.058503
    39 -0.049759 -1.594604 0.026258 -1.635261 -0.001414 -0.043314
    40 -0.034142 -1.167844 0.049625 -1.033169 0.007706 -0.026953
    41 0.957766 -2.746780 -0.090302 0.210163 -0.169576 0.210206
    42 -0.033420 -1.393223 -0.022976 -0.770292 0.007418 -0.037896
    43 -0.022360 -0.957436 0.014878 -0.261675 0.005681 -0.012104
    44 -1.180681 -2.507217 -0.193859 -0.909165 0.223300 -0.199657
    45 -0.024967 -1.127840 0.017597 -1.311791 -0.003523 -0.054900
    46 -0.020057 -0.906594 0.033528 -1.124986 0.003176 -0.046189
    47 0.618667 -1.201183 0.189285 0.268199 -1.036066 -0.350472
    48 1.446081 -0.251481 0.079230 0.076026 -0.245372 -0.918021
    49 1.049988 -0.143915 0.032291 0.037257 -0.185979 -0.756180
    50 0.120153 -0.050270 -0.054489 0.287569 3.110905 1.561085
    51 -4.091198 -7.336793 -5.017061 -1.342195 -5.101209 -1.344938
    52 -0.188221 -8.458231 0.021886 -0.664073 -1.423374 0.889340
    53 0.447953 -2.798986 -0.200443 -0.796563 -0.050604 0.274849
    54 -0.032909 -1.499736 0.024472 -1.284119 0.022986 -0.023452
    55 -0.027022 -1.088639 -0.028023 -0.369382 0.010019 -0.003224
    56 -0.249534 -2.846964 -0.174213 -0.233181 -0.005530 0.097740
    57 0.043235 -1.656596 0.072574 -1.364447 -0.021506 0.006568
    58 0.031729 -1.153017 0.058838 -0.513832 -0.004763 0.005640
    59 -0.963866 -2.785145 -0.085350 0.010812 0.162048 0.046398
    60 0.028479 -1.403067 -0.013261 -0.746527 -0.016910 -0.029015
    61 0.021413 -0.957781 0.020046 -0.104819 -0.001043 -0.004794
    62 1.164475 -2.543940 -0.170330 -1.175471 -0.161424 0.354246
    63 0.024032 -1.132948 -0.001725 -0.760321 0.003703 0.040617
    64 0.014898 -0.883989 -0.019848 -0.213155 -0.001882 0.008341
    65 -0.586770 -1.264477 0.200161 0.046308 -0.603711 -2.744710
    66 1.546273 0.039149 0.016848 -0.009328 -0.003179 0.531821
    67 1.117947 0.048424 -0.005766 -0.000219 -0.025174 0.064016
    68 0.048107 -0.111698 -0.212172 1.026811 0.164452 1.239766
    69 -4.827169 7.401633 -0.337092 1.581283 -0.017075 -1.110868
  time 7
    0 5.629078 -9.297159 -3.296976 -1.546959 -3.052014 -4.914335
    1 13.129178 -0.309362 0.018823 -1.570807 1.570796 0.000000
    2 -0.000001 0.000001 0.000000 -3.141592 1.570796 0.000000
    3 1.794163 -0.990051 0.000000 0.000000 0.000000 -1.570806
    4 5.430543 -0.280590 0.438968 0.000000 -1.570796 0.000000
    5 6.106755 0.873607 3.364788 -0.031303 -0.066368 0.095956
    6 0.000000 0.000000 0.000000 0.000000 0.000000 0.000000
    7 0.000000 0.000000 0.000000 0.000000 0.000000 0.000000
    8 0.000000 0.000000 0.000000 0.000000 0.000000 0.000000
    9 0.000000 0.000000 0.000000 0.000000 0.000000 0.000000
    10 4.917415 -0.375014 1.147604 -0.010792 0.000807 0.007656
    11 0.000001 0.000000 0.000000 0.000000 0.000000 0.000000
    12 -0.000001 -0.000001 0.000000 0.000000 0.000000 0.000000
    13 0.000000 0.000000 0.000000 0.000000 0.000000 0.000000
    14 -0.000001 0.000000 0.000000 0.000000 0.000000 0.000000
    15 3.907625 1.132784 1.301830 -0.436332 0.000000 0.000000
    16 -0.850018 0.850000 0.000000 0.000000 0.000000 0.000000
    17 -0.850000 -0.850000 0.000000 0.000000 0.000000 0.000000
    18 0.850000 -0.850057 0.000000 0.000000 0.000000 0.000000
    19 0.850000 0.850000 0.000000 0.000000 0.000000 0.000000
    20 2.362294 1.131579 1.293652 2.705260 -0.000001 -0.000001
    21 -0.850000 0.850000 0.000000 0.000000 0.000000 0.000000
    22 -0.850000 -0.850000 0.000000 0.000000 0.000000 0.000000
    23 0.850000 -0.850000 0.000000 0.000000 0.000000 0.000000
    24 0.850000 0.850056 0.000000 0.000000 0.000000 0.000000
    25 2.672156 0.973855 1.950156 0.000000 0.000000 0.000000
    26 -0.000001 0.000000 0.000001 0.000000 0.000000 0.000000
    27 0.000000 0.000000 0.000000 0.000000 0.000000 0.000000
    28 0.000000 -0.000001 -0.000001 0.000000 0.000000 0.000000
    29 0.000000 0.000001 0.000001 0.000000 0.000000 0.000000
    30 7.264874 0.725374 0.000002 -0.260267 -1.570460 0.000000
    31 3.825489 0.780009 -6.140193 -0.101258 0.004818 0.270111
    32 7.435046 -4.073014 -4.577246 0.612344 -2.272353 -1.424030
    33 7.964416 -0.651765 -0.395908 -1.569795 -0.027746 -3.144439
    34 0.033551 -8.471392 -0.065070 0.126180 0.707231 -0.358572
    35 -0.488518 -2.755602 -0.228260 -0.914750 -0.000322 -0.149989
    36 0.039887 -1.542292 0.022041 -1.803252 -0.007862 0.040389
    37 0.028786 -1.138233 -0.112955 -0.823614 -0.014010 0.016335
    38 0.250027 -2.820665 -0.238396 -0.716762 -0.052214 -0.058503
    39 -0.049759 -1.594604 0.026258 -1.635261 -0.001414 -0.043314
    40 -0.034142 -1.167844 0.049625 -1.033169 0.007706 -0.026953
    41 0.957766 -2.746780 -0.090302 0.209264 -0.169540 0.210182
    42 -0.033420 -1.393223 -0.022976 -0.734835 0.007730 -0.036135
    43 -0.022360 -0.957436 0.014878 -0.219249 0.004986 -0.010079
    44 -1.180681 -2.507217 -0.193859 -0.909165 0.223300 -0.199657
    45 -0.024967 -1.127840 0.017597 -1.311791 -0.003523 -0.054900
    46 -0.020057 -0.906594 0.033528 -1.124986 0.003176 -0.046189
    47 0.618667 -1.201183 0.189285 0.268199 -1.036047 -0.350472
    48 1.446081 -0.251481 0.079230 0.076026 -0.245372 -0.918021
    49 1.049988 -0.143915 0.032291 0.037257 -0.185979 -0.756180
    50 0.120153 -0.050270 -0.054489 0.287569 3.110905 1.561085
    51 -4.122449 -7.348512 -4.985810 -1.336821 -5.095671 -1.343798
    52 -0.192127 -8.454325 0.021886 -0.761571 -1.412520 0.982894
    53 0.447953 -2.798986 -0.200443 -0.796563 -0.050604 0.274849
    54 -0.032909 -1.499736 0.024472 -1.284119 0.022986 -0.023452
    55 -0.027022 -1.088639 -0.028023 -0.369382 0.010019 -0.003224
    56 -0.249534 -2.846964 -0.174213 -0.233181 -0.005530 0.097740
    57 0.043235 -1.656596 0.072574 -1.364447 -0.021506 0.006568
    58 0.031729 -1.153017 0.058838 -0.513832 -0.004763 0.005640
    59 -0.963866 -2.785145 -0.085350 0.010812 0.162048 0.046398
    60 0.028479 -1.403067 -0.013261 -0.746527 -0.016910 -0.029015
    61 0.021413 -0.957781 0.020046 -0.104819 -0.001043 -0.004794
    62 1.164475 -2.543940 -0.170330 -1.175471 -0.161424 0.354246
    63 0.024032 -1.132948 -0.001725 -0.760321 0.003703 0.040617
    64 0.014898 -0.883989 -0.019848 -0.213155 -0.001882 0.008341
    65 -0.586770 -1.264477 0.200161 0.046308 -0.603711 -2.744710
    66 1.546273 0.039149 0.016848 -0.009328 -0.003179 0.531821
    67 1.117947 0.048424 -0.005766 -0.000219 -0.025174 0.064016
    68 0.048107 -0.111698 -0.212172 1.026811 0.164452 1.239766
    69 -4.745135 7.460229 -0.333186 1.581283 -0.016692 -1.123139
  time 8
    0 5.617359 -9.301065 -3.277444 -1.547151 -3.049816 -4.913952
    1 13.129178 -0.309362 0.018823 -1.570807 1.570796 0.000000
    2 -0.000001 0.000001 0.000000 -3.141592 1.570796 0.000000
    3 1.794163 -0.990051 0.000000 0.000000 0.000000 -1.570806
    4 5.430543 -0.280590 0.438968 0.000000 -1.570796 0.000000
    5 6.106755 0.873607 3.364788 -0.031303 -0.066368 0.095956
    6 0.000000 0.000000 0.000000 0.000000 0.000000 0.000000
    7 0.000000 0.000000 0.000000 0.000000 0.000000 0.000000
    8 0.000000 0.000000 0.000000 0.000000 0.000000 0.000000
    9 0.000000 0.000000 0.000000 0.000000 0.000000 0.000000
    10 4.917415 -0.375014 1.147604 -0.010792 0.000807 0.007656
    11 0.000001 0.000000 0.000000 0.000000 0.000000 0.000000
    12 -0.000001 -0.000001 0.000000 0.000000 0.000000 0.000000
    13 0.000000 0.000000 0.000000 0.000000 0.000000 0.000000
    14 -0.000001 0.000000 0.000000 0.000000 0.000000 0.000000
    15 3.907625 1.132784 1.301830 -0.436332 0.000000 0.000000
    16 -0.850018 0.850000 0.000000 0.000000 0.000000 0.000000
    17 -0.850000 -0.850000 0.000000 0.000000 0.000000 0.000000
    18 0.850000 -0.850057 0.000000 0.000000 0.000000 0.000000
    19 0.850000 0.850000 0.000000 0.000000 0.000000 0.000000
    20 2.362294 1.131579 1.293652 2.705260 -0.000001 -0.000001
    21 -0.850000 0.850000 0.000000 0.000000 0.000000 0.000000
    22 -0.850000 -0.850000 0.000000 0.000000 0.000000 0.000000
    23 0.850000 -0.850000 0.000000 0.000000 0.000000 0.000000
    24 0.850000 0.850056 0.000000 0.000000 0.000000 0.000000
    25 2.672156 0.973855 1.950156 0.000000 0.000000 0.000000
    26 -0.000001 0.000000 0.000001 0.000000 0.000000 0.000000
    27 0.000000 0.000000 0.000000 0.000000 0.000000 0.000000
    28 0.000000 -0.000001 -0.000001 0.000000 0.000000 0.000000
    29 0.000000 0.000001 0.000001 0.000000 0.000000 0.000000
    30 7.264874 0.725374 0.000002 -0.260267 -1.570460 0.000000
    31 3.825489 0.807353 -6.140193 -0.101258 0.004818 0.270111
    32 7.407702 -4.104265 -4.565527 0.612535 -2.272573 -1.423456
    33 7.972229 -0.593170 -0.395908 -1.569891 -0.027651 -3.137058
    34 0.033551 -8.471392 -0.065070 0.127383 0.706938 -0.356052
    35 -0.488518 -2.755602 -0.228260 -0.914750 -0.000322 -0.149989
    36 0.039887 -1.542292 0.022041 -1.803252 -0.007862 0.040389
    37 0.028786 -1.138233 -0.112955 -0.823614 -0.014010 0.016335
    38 0.250027 -2.820665 -0.238396 -0.716762 -0.052214 -0.058503
    39 -0.049759 -1.594604 0.026258 -1.635261 -0.001414 -0.043314
    40 -0.034142 -1.167844 0.049625 -1.033169 0.007706 -0.026953
    41 0.957766 -2.746780 -0.090302 0.209156 -0.169540 0.210170
    42 -0.033420 -1.393223 -0.022976 -0.730412 0.007766 -0.035907
    43 -0.022360 -0.957436 0.014878 -0.213955 0.004902 -0.009827
    44 -1.180681 -2.507217 -0.193859 -0.909165 0.223300 -0.199657
    45 -0.024967 -1.127840 0.017597 -1.311791 -0.003523 -0.054900
    46 -0.020057 -0.906594 0.033528 -1.124986 0.003176 -0.046189
    47 0.618667 -1.201183 0.189285 0.268199 -1.036066 -0.350472
    48 1.446081 -0.251481 0.079230 0.076026 -0.245372 -0.918021
    49 1.049988 -0.143915 0.032291 0.037257 -0.185979 -0.756180
    50 0.120153 -0.050270 -0.054489 0.287569 3.110905 1.561085
    51 -4.149794 -7.360231 -4.954559 -1.334582 -5.095758 -1.345983
    52 -0.192127 -8.450418 0.017980 -0.834316 -1.399323 1.054747
    53 0.447953 -2.798986 -0.200443 -0.796563 -0.050604 0.274849
    54 -0.032909 -1.499736 0.024472 -1.284119 0.022986 -0.023452
    55 -0.027022 -1.088639 -0.028023 -0.369382 0.010019 -0.003224
    56 -0.249534 -2.846964 -0.174213 -0.233181 -0.005530 0.097740
    57 0.043235 -1.656596 0.072574 -1.364447 -0.021506 0.006568
    58 0.031729 -1.153017 0.058838 -0.513832 -0.004763 0.005640
    59 -0.963866 -2.785145 -0.085350 0.010812 0.162048 0.046398
    60 0.028479 -1.403067 -0.013261 -0.746527 -0.016910 -0.029015
    61 0.021413 -0.957781 0.020046 -0.104819 -0.001043 -0.004794
    62 1.164475 -2.543940 -0.170330 -1.175471 -0.161424 0.354246
    63 0.024032 -1.132948 -0.001725 -0.760321 0.003703 0.040617
    64 0.014898 -0.883989 -0.019848 -0.213155 -0.001882 0.008341
    65 -0.586770 -1.264477 0.200161 0.046308 -0.603711 -2.744710
    66 1.546273 0.039149 0.016848 -0.009328 -0.003179 0.531821
    67 1.117947 0.048424 -0.005766 -0.000219 -0.025174 0.064016
    68 0.048107 -0.111698 -0.212172 1.026811 0.164452 1.239766
    69 -4.706071 7.483667 -0.333186 1.581379 -0.016596 -1.128707
  time 9
    0 5.605640 -9.312784 -3.246193 -1.547534 -3.045803 -4.914258
    1 13.129178 -0.309362 0.018823 -1.570807 1.570796 0.000000
    2 -0.000001 0.000001 0.000000 -3.141592 1.570796 0.000000
    3 1.794163 -0.990051 0.000000 0.000000 0.000000 -1.570806
    4 5.430543 -0.280590 0.438968 0.000000 -1.570796 0.000000
    5 6.106755 0.873607 3.364788 -0.031303 -0.066368 0.095956
    6 0.000000 0.000000 0.000000 0.000000 0.000000 0.000000
    7 0.000000 0.000000 0.000000 0.000000 0.000000 0.000000
    8 0.000000 0.000000 0.000000 0.000000 0.000000 0.000000
    9 0.000000 0.000000 0.000000 0.000000 0.000000 0.000000
    10 4.917415 -0.375014 1.147604 -0.010792 0.000807 0.007656
    11 0.000001 0.000000 0.000000 0.000000 0.000000 0.000000
    12 -0.000001 -0.000001 0.000000 0.000000 0.000000 0.000000
    13 0.000000 0.000000 0.000000 0.000000 0.000000 0.000000
    14 -0.000001 0.000000 0.000000 0.000000 0.000000 0.000000
    15 3.907625 1.132784 1.301830 -0.436332 0.000000 0.000000
    16 -0.850018 0.850000 0.000000 0.000000 0.000000 0.000000
    17 -0.850000 -0.850000 0.000000 0.000000 0.000000 0.000000
    18 0.850000 -0.850057 0.000000 0.000000 0.000000 0.000000
    19 0.850000 0.850000 0.000000 0.000000 0.000000 0.000000
    20 2.362294 1.131579 1.293652 2.705260 -0.000001 -0.000001
    21 -0.850000 0.850000 0.000000 0.000000 0.000000 0.000000
    22 -0.850000 -0.850000 0.000000 0.000000 0.000000 0.000000
    23 0.850000 -0.850000 0.000000 0.000000 0.000000 0.000000
    24 0.850000 0.850056 0.000000 0.000000 0.000000 0.000000
    25 2.672156 0.973855 1.950156 0.000000 0.000000 0.000000
    26 -0.000001 0.000000 0.000001 0.000000 0.000000 0.000000
    27 0.000000 0.000000 0.000000 0.000000 0.000000 0.000000
    28 0.000000 -0.000001 -0.000001 0.000000 0.000000 0.000000
    29 0.000000 0.000001 0.000001 0.000000 0.000000 0.000000
    30 7.264874 0.725374 0.000002 -0.260267 -1.570796 0.000000
    31 3.825489 0.807353 -6.140193 -0.101258 0.004818 0.270111
    32 7.384263 -4.127703 -4.557714 0.613870 -2.273529 -1.424412
    33 7.980041 -0.554106 -0.395908 -1.569987 -0.027555 -3.132250
    34 0.033551 -8.471392 -0.065070 0.128976 0.706528 -0.352590
    35 -0.488518 -2.755602 -0.228260 -0.914750 -0.000322 -0.149989
    36 0.039887 -1.542292 0.022041 -1.803252 -0.007862 0.040389
    37 0.028786 -1.138233 -0.112955 -0.823614 -0.014010 0.016335
    38 0.250027 -2.820665 -0.238396 -0.716762 -0.052214 -0.058503
    39 -0.049759 -1.594604 0.026258 -1.635261 -0.001414 -0.043314
    40 -0.034142 -1.167844 0.049625 -1.033169 0.007706 -0.026953
    41 0.957766 -2.746780 -0.090302 0.209492 -0.169552 0.210182
    42 -0.033420 -1.393223 -0.022976 -0.743718 0.007658 -0.036578
    43 -0.022360 -0.957436 0.014878 -0.229862 0.005165 -0.010582
    44 -1.180681 -2.507217 -0.193859 -0.909165 0.223300 -0.199657
    45 -0.024967 -1.127840 0.017597 -1.311791 -0.003523 -0.054900
    46 -0.020057 -0.906594 0.033528 -1.124986 0.003176 -0.046189
    47 0.618667 -1.201183 0.189285 0.268199 -1.036066 -0.350472
    48 1.446081 -0.251481 0.079230 0.076026 -0.245372 -0.918021
    49 1.049988 -0.143915 0.032291 0.037257 -0.185979 -0.756180
    50 0.120153 -0.050270 -0.054489 0.287569 3.110905 1.561085
    51 -4.177138 -7.368044 -4.931121 -1.334358 -5.099305 -1.350258
    52 -0.192127 -8.450418 0.017980 -0.890098 -1.384892 1.111764
    53 0.447953 -2.798986 -0.200443 -0.796563 -0.050604 0.274849
    54 -0.032909 -1.499736 0.024472 -1.284119 0.022986 -0.023452
    55 -0.027022 -1.088639 -0.028023 -0.369382 0.010019 -0.003224
    56 -0.249534 -2.846964 -0.174213 -0.233181 -0.005530 0.097740
    57 0.043235 -1.656596 0.072574 -1.364447 -0.021506 0.006568
    58 0.031729 -1.153017 0.058838 -0.513832 -0.004763 0.005640
    59 -0.963866 -2.785145 -0.085350 0.010812 0.162048 0.046398
    60 0.028479 -1.403067 -0.013261 -0.746527 -0.016910 -0.029015
    61 0.021413 -0.957781 0.020046 -0.104819 -0.001043 -0.004794
    62 1.164475 -2.543940 -0.170330 -1.175471 -0.161424 0.354246
    63 0.024032 -1.132948 -0.001725 -0.760321 0.003703 0.040617
    64 0.014898 -0.883989 -0.019848 -0.213155 -0.001882 0.008341
    65 -0.586770 -1.264477 0.200161 0.046308 -0.603711 -2.744710
    66 1.546273 0.039149 0.016848 -0.009328 -0.003179 0.531821
    67 1.117947 0.048424 -0.005766 -0.000219 -0.025174 0.064016
    68 0.048107 -0.111698 -0.212172 1.026811 0.164452 1.239766
    69 -4.702165 7.487573 -0.333186 1.581379 -0.016596 -1.129462
  time 10
    0 5.597827 -9.312784 -3.218848 -1.547917 -3.041694 -4.914718
    1 13.129178 -0.309362 0.018823 -1.570807 1.570796 0.000000
    2 -0.000001 0.000001 0.000000 -3.141592 1.570796 0.000000
    3 1.794163 -0.990051 0.000000 0.000000 0.000000 -1.570806
    4 5.430543 -0.280590 0.438968 0.000000 -1.570796 0.000000
    5 6.106755 0.873607 3.364788 -0.031303 -0.066368 0.095956
    6 0.000000 0.000000 0.000000 0.000000 0.000000 0.000000
    7 0.000000 0.000000 0.000000 0.000000 0.000000 0.000000
    8 0.000000 0.000000 0.000000 0.000000 0.000000 0.000000
    9 0.000000 0.000000 0.000000 0.000000 0.000000 0.000000
    10 4.917415 -0.375014 1.147604 -0.010792 0.000807 0.007656
    11 0.000001 0.000000 0.000000 0.000000 0.000000 0.000000
    12 -0.000001 -0.000001 0.000000 0.000000 0.000000 0.000000
    13 0.000000 0.000000 0.000000 0.000000 0.000000 0.000000
    14 -0.000001 0.000000 0.000000 0.000000 0.000000 0.000000
    15 3.907625 1.132784 1.301830 -0.436332 0.000000 0.000000
    16 -0.850018 0.850000 0.000000 0.000000 0.000000 0.000000
    17 -0.850000 -0.850000 0.000000 0.000000 0.000000 0.000000
    18 0.850000 -0.850057 0.000000 0.000000 0.000000 0.000000
    19 0.850000 0.850000 0.000000 0.000000 0.000000 0.000000
    20 2.362294 1.131579 1.293652 2.705260 -0.000001 -0.000001
    21 -0.850000 0.850000 0.000000 0.000000 0.000000 0.000000
    22 -0.850000 -0.850000 0.000000 0.000000 0.000000 0.000000
    23 0.850000 -0.850000 0.000000 0.000000 0.000000 0.000000
    24 0.850000 0.850056 0.000000 0.000000 0.000000 0.000000
    25 2.672156 0.973855 1.950156 0.000000 0.000000 0.000000
    26 -0.000001 0.000000 0.000001 0.000000 0.000000 0.000000
    27 0.000000 0.000000 0.000000 0.000000 0.000000 0.000000
    28 0.000000 -0.000001 -0.000001 0.000000 0.000000 0.000000
    29 0.000000 0.000001 0.000001 0.000000 0.000000 0.000000
    30 7.264874 0.725374 0.000002 -0.260267 -1.570796 0.000000
    31 3.825489 0.807353 -6.140193 -0.101258 0.004818 0.270111
    32 7.368638 -4.147235 -4.549902 0.615395 -2.274631 -1.425751
    33 7.983948 -0.526761 -0.395908 -1.570083 -0.027555 -3.128864
    34 0.033551 -8.471392 -0.065070 0.130568 0.706117 -0.349220
    35 -0.488518 -2.755602 -0.228260 -0.914750 -0.000322 -0.149989
    36 0.039887 -1.542292 0.022041 -1.803252 -0.007862 0.040389
    37 0.028786 -1.138233 -0.112955 -0.823614 -0.014010 0.016335
    38 0.250027 -2.820665 -0.238396 -0.716762 -0.052214 -0.058503
    39 -0.049759 -1.594604 0.026258 -1.635261 -0.001414 -0.043314
    40 -0.034142 -1.167844 0.049625 -1.033169 0.007706 -0.026953
    41 0.957766 -2.746780 -0.090302 0.209935 -0.169564 0.210206
    42 -0.033420 -1.393223 -0.022976 -0.761409 0.007502 -0.037453
    43 -0.022360 -0.957436 0.014878 -0.251063 0.005513 -0.011589
    44 -1.180681 -2.507217 -0.193859 -0.909165 0.223300 -0.199657
    45 -0.024967 -1.127840 0.017597 -1.311791 -0.003523 -0.054900
    46 -0.020057 -0.906594 0.033528 -1.124986 0.003176 -0.046189
    47 0.618667 -1.201183 0.189285 0.268199 -1.036066 -0.350472
    48 1.446081 -0.251481 0.079230 0.076026 -0.245372 -0.918021
    49 1.049988 -0.143915 0.032291 0.037257 -0.185979 -0.756180
    50 0.120153 -0.050270 -0.054489 0.287569 3.110905 1.561085
    51 -4.204483 -7.371950 -4.911589 -1.334806 -5.103978 -1.355198
    52 -0.192127 -8.446512 0.014073 -0.936221 -1.370215 1.160287
    53 0.447953 -2.798986 -0.200443 -0.796563 -0.050604 0.274849
    54 -0.032909 -1.499736 0.024472 -1.284119 0.022986 -0.023452
    55 -0.027022 -1.088639 -0.028023 -0.369382 0.010019 -0.003224
    56 -0.249534 -2.846964 -0.174213 -0.233181 -0.005530 0.097740
    57 0.043235 -1.656596 0.072574 -1.364447 -0.021506 0.006568
    58 0.031729 -1.153017 0.058838 -0.513832 -0.004763 0.005640
    59 -0.963866 -2.785145 -0.085350 0.010812 0.162048 0.046386
    60 0.028479 -1.403067 -0.013261 -0.746527 -0.016910 -0.029015
    61 0.021413 -0.957781 0.020046 -0.104819 -0.001043 -0.004794
    62 1.164475 -2.543940 -0.170330 -1.175471 -0.161424 0.354246
    63 0.024032 -1.132948 -0.001725 -0.760321 0.003703 0.040617
    64 0.014898 -0.883989 -0.019848 -0.213155 -0.001882 0.008341
    65 -0.586770 -1.264477 0.200161 0.046308 -0.603711 -2.744710
    66 1.546273 0.039149 0.016848 -0.009328 -0.003179 0.531821
    67 1.117947 0.048424 -0.005766 -0.000219 -0.025174 0.064016
    68 0.048107 -0.111698 -0.212172 1.026811 0.164452 1.239766
    69 -4.713884 7.479761 -0.333186 1.581379 -0.016596 -1.127386
  time 11
    0 5.590014 -9.320597 -3.199316 -1.548205 -3.039114 -4.914948
    1 13.129178 -0.309362 0.018823 -1.570807 1.570460 0.000000
    2 -0.000001 0.000001 0.000000 -3.141592 1.570796 0.000000
    3 1.794163 -0.990051 0.000000 0.000000 0.000000 -1.570806
    4 5.430543 -0.280590 0.438968 0.000000 -1.570796 0.000000
    5 6.106755 0.873607 3.364788 -0.031303 -0.066368 0.095956
    6 0.000000 0.000000 0.000000 0.000000 0.000000 0.000000
    7 0.000000 0.000000 0.000000 0.000000 0.000000 0.000000
    8 0.000000 0.000000 0.000000 0.000000 0.000000 0.000000
    9 0.000000 0.000000 0.000000 0.000000 0.000000 0.000000
    10 4.917415 -0.375014 1.147604 -0.010792 0.000807 0.007656
    11 0.000001 0.000000 0.000000 0.000000 0.000000 0.000000
    12 -0.000001 -0.000001 0.000000 0.000000 0.000000 0.000000
    13 0.000000 0.000000 0.000000 0.000000 0.000000 0.000000
    14 -0.000001 0.000000 0.000000 0.000000 0.000000 0.000000
    15 3.907625 1.132784 1.301830 -0.436332 0.000000 0.000000
    16 -0.850018 0.850000 0.000000 0.000000 0.000000 0.000000
    17 -0.850000 -0.850000 0.000000 0.000000 0.000000 0.000000
    18 0.850000 -0.850057 0.000000 0.000000 0.000000 0.000000
    19 0.850000 0.850000 0.000000 0.000000 0.000000 0.000000
    20 2.362294 1.131579 1.293652 2.705260 -0.000001 -0.000001
    21 -0.850000 0.850000 0.000000 0.000000 0.000000 0.000000
    22 -0.850000 -0.850000 0.000000 0.000000 0.000000 0.000000
    23 0.850000 -0.850000 0.000000 0.000000 0.000000 0.000000
    24 0.850000 0.850056 0.000000 0.000000 0.000000 0.000000
    25 2.672156 0.973855 1.950156 0.000000 0.000000 0.000000
    26 -0.000001 0.000000 0.000001 0.000000 0.000000 0.000000
    27 0.000000 0.000000 0.000000 0.000000 0.000000 0.000000
    28 0.000000 -0.000001 -0.000001 0.000000 0.000000 0.000000
    29 0.000000 0.000001 0.000001 0.000000 0.000000 0.000000
    30 7.264874 0.725374 0.000002 -0.260267 -1.570796 0.000000
    31 3.825489 0.807353 -6.140193 -0.101258 0.004818 0.270111
    32 7.353012 -4.158954 -4.542089 0.616253 -2.275219 -1.426325
    33 7.987854 -0.499417 -0.392002 -1.570083 -0.027460 -3.125750
    34 0.033551 -8.471392 -0.065070 0.131595 0.705853 -0.346943
    35 -0.488518 -2.755602 -0.228260 -0.914750 -0.000322 -0.149989
    36 0.039887 -1.542292 0.022041 -1.803252 -0.007862 0.040389
    37 0.028786 -1.138233 -0.112955 -0.823614 -0.014010 0.016335
    38 0.250027 -2.820665 -0.238396 -0.716762 -0.052214 -0.058503
    39 -0.049759 -1.594604 0.026258 -1.635261 -0.001414 -0.043314
    40 -0.034142 -1.167844 0.049625 -1.033169 0.007706 -0.026953
    41 0.957766 -2.746780 -0.090302 0.210163 -0.169576 0.210206
    42 -0.033420 -1.393223 -0.022976 -0.770292 0.007418 -0.037896
    43 -0.022360 -0.957436 0.014878 -0.261675 0.005681 -0.012104
    44 -1.180681 -2.507217 -0.193859 -0.909165 0.223300 -0.199657
    45 -0.024967 -1.127840 0.017597 -1.311791 -0.003523 -0.054900
    46 -0.020057 -0.906594 0.033528 -1.124986 0.003176 -0.046189
    47 0.618667 -1.201183 0.189285 0.268199 -1.036066 -0.350472
    48 1.446081 -0.251481 0.079230 0.076026 -0.245372 -0.918021
    49 1.049988 -0.143915 0.032291 0.037257 -0.185979 -0.756180
    50 0.120153 -0.050270 -0.054489 0.287569 3.110905 1.561085
    51 -4.212295 -7.383669 -4.872526 -1.334190 -5.103286 -1.355198
    52 -0.192127 -8.446512 0.014073 -0.933685 -1.368611 1.154934
    53 0.447953 -2.798986 -0.200443 -0.796563 -0.050604 0.274849
    54 -0.032909 -1.499736 0.024472 -1.284119 0.022986 -0.023452
    55 -0.027022 -1.088639 -0.028023 -0.369382 0.010019 -0.003224
    56 -0.249534 -2.846964 -0.174213 -0.233181 -0.005530 0.097740
    57 0.043235 -1.656596 0.072574 -1.364447 -0.021506 0.006568
    58 0.031729 -1.153017 0.058838 -0.513832 -0.004763 0.005640
    59 -0.963866 -2.785145 -0.085350 0.010812 0.162048 0.046386
    60 0.028479 -1.403067 -0.013261 -0.746527 -0.016910 -0.029015
    61 0.021413 -0.957781 0.020046 -0.104819 -0.001043 -0.004794
    62 1.164475 -2.543940 -0.170330 -1.175471 -0.161424 0.354246
    63 0.024032 -1.132948 -0.001725 -0.760321 0.003703 0.040617
    64 0.014898 -0.883989 -0.019848 -0.213155 -0.001882 0.008341
    65 -0.586770 -1.264477 0.200161 0.046308 -0.603711 -2.744710
    66 1.546273 0.039149 0.016848 -0.009328 -0.003179 0.531821
    67 1.117947 0.048424 -0.005766 -0.000219 -0.025174 0.064016
    68 0.048107 -0.111698 -0.212172 1.026811 0.164452 1.239766
    69 -4.659195 7.518824 -0.333186 1.581379 -0.016405 -1.135503
  time 12
    0 5.586108 -9.328410 -3.191504 -1.548205 -3.038349 -4.914871
    1 13.129178 -0.309362 0.018823 -1.570807 1.570460 0.000000
    2 -0.000001 0.000001 0.000000 -3.141592 1.570796 0.000000
    3 1.794163 -0.990051 0.000000 0.000000 0.000000 -1.570806
    4 5.430543 -0.280590 0.438968 0.000000 -1.570796 0.000000
    5 6.106755 0.873607 3.364788 -0.031303 -0.066368 0.095956
    6 0.000000 0.000000 0.000000 0.000000 0.000000 0.000000
    7 0.000000 0.000000 0.000000 0.000000 0.000000 0.000000
    8 0.000000 0.000000 0.000000 0.000000 0.000000 0.000000
    9 0.000000 0.000000 0.000000 0.000000 0.000000 0.000000
    10 4.917415 -0.375014 1.147604 -0.010792 0.000807 0.007656
    11 0.000001 0.000000 0.000000 0.000000 0.000000 0.000000
    12 -0.000001 -0.000001 0.000000 0.000000 0.000000 0.000000
    13 0.000000 0.000000 0.000000 0.000000 0.000000 0.000000
    14 -0.000001 0.000000 0.000000 0.000000 0.000000 0.000000
    15 3.907625 1.132784 1.301830 -0.436332 0.000000 0.000000
    16 -0.850018 0.850000 0.000000 0.000000 0.000000 0.000000
    17 -0.850000 -0.850000 0.000000 0.000000 0.000000 0.000000
    18 0.850000 -0.850057 0.000000 0.000000 0.000000 0.000000
    19 0.850000 0.850000 0.000000 0.000000 0.000000 0.000000
    20 2.362294 1.131579 1.293652 2.705260 -0.000001 -0.000001
    21 -0.850000 0.850000 0.000000 0.000000 0.000000 0.000000
    22 -0.850000 -0.850000 0.000000 0.000000 0.000000 0.000000
    23 0.850000 -0.850000 0.000000 0.000000 0.000000 0.000000
    24 0.850000 0.850056 0.000000 0.000000 0.000000 0.000000
    25 2.672156 0.973855 1.950156 0.000000 0.000000 0.000000
    26 -0.000001 0.000000 0.000001 0.000000 0.000000 0.000000
    27 0.000000 0.000000 0.000000 0.000000 0.000000 0.000000
    28 0.000000 -0.000001 -0.000001 0.000000 0.000000 0.000000
    29 0.000000 0.000001 0.000001 0.000000 0.000000 0.000000
    30 7.264874 0.725374 0.000002 -0.260267 -1.570796 0.000000
    31 3.825489 0.807353 -6.140193 -0.101258 0.004818 0.270111
    32 7.345200 -4.166767 -4.542089 0.616444 -2.275366 -1.426325
    33 7.987854 -0.487698 -0.392002 -1.570179 -0.027460 -3.123921
    34 0.033551 -8.471392 -0.065070 0.131949 0.705765 -0.346184
    35 -0.488518 -2.755602 -0.228260 -0.914750 -0.000322 -0.149989
    36 0.039887 -1.542292 0.022041 -1.803252 -0.007862 0.040389
    37 0.028786 -1.138233 -0.112955 -0.823614 -0.014010 0.016335
    38 0.250027 -2.820665 -0.238396 -0.716762 -0.052214 -0.058503
    39 -0.049759 -1.594604 0.026258 -1.635261 -0.001414 -0.043314
    40 -0.034142 -1.167844 0.049625 -1.033169 0.007706 -0.026953
    41 0.957766 -2.746780 -0.090302 0.210163 -0.169576 0.210206
    42 -0.033420 -1.393223 -0.022976 -0.770292 0.007418 -0.037896
    43 -0.022360 -0.957436 0.014878 -0.261675 0.005681 -0.012104
    44 -1.180681 -2.507217 -0.193859 -0.909165 0.223300 -0.199657
    45 -0.024967 -1.127840 0.017597 -1.311791 -0.003523 -0.054900
    46 -0.020057 -0.906594 0.033528 -1.124986 0.003176 -0.046189
    47 0.618667 -1.201183 0.189285 0.268199 -1.036066 -0.350472
    48 1.446081 -0.251481 0.079230 0.076026 -0.245372 -0.918021
    49 1.049988 -0.143915 0.032291 0.037257 -0.185979 -0.756180
    50 0.120153 -0.050270 -0.054489 0.287569 3.110905 1.561085
    51 -4.216202 -7.387576 -4.852994 -1.333463 -5.102248 -1.354723
    52 -0.192127 -8.446512 0.014073 -0.933867 -1.367994 1.153421
    53 0.447953 -2.798986 -0.200443 -0.796563 -0.050604 0.274849
    54 -0.032909 -1.499736 0.024472 -1.284119 0.022986 -0.023452
    55 -0.027022 -1.088639 -0.028023 -0.369382 0.010019 -0.003224
    56 -0.249534 -2.846964 -0.174213 -0.233181 -0.005530 0.097740
    57 0.043235 -1.656596 0.072574 -1.364447 -0.021506 0.006568
    58 0.031729 -1.153017 0.058838 -0.513832 -0.004763 0.005640
    59 -0.963866 -2.785145 -0.085350 0.010812 0.162048 0.046398
    60 0.028479 -1.403067 -0.013261 -0.746527 -0.016910 -0.029015
    61 0.021413 -0.957781 0.020046 -0.104819 -0.001043 -0.004794
    62 1.164475 -2.543940 -0.170330 -1.175471 -0.161424 0.354246
    63 0.024032 -1.132948 -0.001725 -0.760321 0.003703 0.040617
    64 0.014898 -0.883989 -0.019848 -0.213155 -0.001882 0.008341
    65 -0.586770 -1.264477 0.200161 0.046308 -0.603711 -2.744710
    66 1.546273 0.039149 0.016848 -0.009328 -0.003179 0.531821
    67 1.117947 0.048424 -0.005766 -0.000219 -0.025174 0.064016
    68 0.048107 -0.111698 -0.212172 1.026811 0.164452 1.239766
    69 -4.627944 7.538356 -0.329279 1.581379 -0.016309 -1.140222
  time 13
    0 5.586108 -9.328410 -3.191504 -1.548205 -3.038445 -4.914871
    1 13.129178 -0.309362 0.018823 -1.570807 1.570460 0.000000
    2 -0.000001 0.000001 0.000000 -3.141592 1.570796 0.000000
    3 1.794163 -0.990051 0.000000 0.000000 0.000000 -1.570806
    4 5.430543 -0.280590 0.438968 0.000000 -1.570796 0.000000
    5 6.106755 0.873607 3.364788 -0.031303 -0.066368 0.095956
    6 0.000000 0.000000 0.000000 0.000000 0.000000 0.000000
    7 0.000000 0.000000 0.000000 0.000000 0.000000 0.000000
    8 0.000000 0.000000 0.000000 0.000000 0.000000 0.000000
    9 0.000000 0.000000 0.000000 0.000000 0.000000 0.000000
    10 4.917415 -0.375014 1.147604 -0.010792 0.000807 0.007656
    11 0.000001 0.000000 0.000000 0.000000 0.000000 0.000000
    12 -0.000001 -0.000001 0.000000 0.000000 0.000000 0.000000
    13 0.000000 0.000000 0.000000 0.000000 0.000000 0.000000
    14 -0.000001 0.000000 0.000000 0.000000 0.000000 0.000000
    15 3.907625 1.132784 1.301830 -0.436332 0.000000 0.000000
    16 -0.850018 0.850000 0.000000 0.000000 0.000000 0.000000
    17 -0.850000 -0.850000 0.000000 0.000000 0.000000 0.000000
    18 0.850000 -0.850057 0.000000 0.000000 0.000000 0.000000
    19 0.850000 0.850000 0.000000 0.000000 0.000000 0.000000
    20 2.362294 1.131579 1.293652 2.705260 -0.000001 -0.000001
    21 -0.850000 0.850000 0.000000 0.000000 0.000000 0.000000
    22 -0.850000 -0.850000 0.000000 0.000000 0.000000 0.000000
    23 0.850000 -0.850000 0.000000 0.000000 0.000000 0.000000
    24 0.850000 0.850056 0.000000 0.000000 0.000000 0.000000
    25 2.672156 0.973855 1.950156 0.000000 0.000000 0.000000
    26 -0.000001 0.000000 0.000001 0.000000 0.000000 0.000000
    27 0.000000 0.000000 0.000000 0.000000 0.000000 0.000000
    28 0.000000 -0.000001 -0.000001 0.000000 0.000000 0.000000
    29 0.000000 0.000001 0.000001 0.000000 0.000000 0.000000
    30 7.264874 0.725374 0.000002 -0.260267 -1.570796 0.000000
    31 3.825489 0.807353 -6.140193 -0.101258 0.004818 0.270111
    32 7.345200 -4.166767 -4.542089 0.616444 -2.275366 -1.426325
    33 7.987854 -0.487698 -0.392002 -1.570179 -0.027460 -3.124124
    34 0.033551 -8.471392 -0.065070 0.131913 0.705765 -0.346305
    35 -0.488518 -2.755602 -0.228260 -0.914750 -0.000322 -0.149989
    36 0.039887 -1.542292 0.022041 -1.803252 -0.007862 0.040389
    37 0.028786 -1.138233 -0.112955 -0.823614 -0.014010 0.016335
    38 0.250027 -2.820665 -0.238396 -0.716762 -0.052214 -0.058503
    39 -0.049759 -1.594604 0.026258 -1.635261 -0.001414 -0.043314
    40 -0.034142 -1.167844 0.049625 -1.033169 0.007706 -0.026953
    41 0.957766 -2.746780 -0.090302 0.210163 -0.169576 0.210206
    42 -0.033420 -1.393223 -0.022976 -0.770292 0.007418 -0.037896
    43 -0.022360 -0.957436 0.014878 -0.261675 0.005681 -0.012104
    44 -1.180681 -2.507217 -0.193859 -0.909165 0.223300 -0.199657
    45 -0.024967 -1.127840 0.017597 -1.311791 -0.003523 -0.054900
    46 -0.020057 -0.906594 0.033528 -1.124986 0.003176 -0.046189
    47 0.618667 -1.201183 0.189285 0.268199 -1.036066 -0.350472
    48 1.446081 -0.251481 0.079230 0.076026 -0.245372 -0.918021
    49 1.049988 -0.143915 0.032291 0.037257 -0.185979 -0.756180
    50 0.120153 -0.050270 -0.054489 0.287569 3.110905 1.561085
    51 -4.216202 -7.387576 -4.852994 -1.333575 -5.102334 -1.354818
    52 -0.192127 -8.446512 0.014073 -0.933927 -1.368056 1.153654
    53 0.447953 -2.798986 -0.200443 -0.796563 -0.050604 0.274849
    54 -0.032909 -1.499736 0.024472 -1.284119 0.022986 -0.023452
    55 -0.027022 -1.088639 -0.028023 -0.369382 0.010019 -0.003224
    56 -0.249534 -2.846964 -0.174213 -0.233181 -0.005530 0.097740
    57 0.043235 -1.656596 0.072574 -1.364447 -0.021506 0.006568
    58 0.031729 -1.153017 0.058838 -0.513832 -0.004763 0.005640
    59 -0.963866 -2.785145 -0.085350 0.010812 0.162048 0.046398
    60 0.028479 -1.403067 -0.013261 -0.746527 -0.016910 -0.029015
    61 0.021413 -0.957781 0.020046 -0.104819 -0.001043 -0.004794
    62 1.164475 -2.543940 -0.170330 -1.175471 -0.161424 0.354246
    63 0.024032 -1.132948 -0.001725 -0.760321 0.003703 0.040617
    64 0.014898 -0.883989 -0.019848 -0.213155 -0.001882 0.008341
    65 -0.586770 -1.264477 0.200161 0.046308 -0.603711 -2.744710
    66 1.546273 0.039149 0.016848 -0.009328 -0.003179 0.531821
    67 1.117947 0.048424 -0.005766 -0.000219 -0.025174 0.064016
    68 0.048107 -0.111698 -0.212172 1.026811 0.164452 1.239766
    69 -4.631850 7.534450 -0.329279 1.581379 -0.016309 -1.139656
  time 14
    0 5.590014 -9.324503 -3.195410 -1.548205 -3.038827 -4.914948
    1 13.129178 -0.309362 0.018823 -1.570807 1.570796 0.000000
    2 -0.000001 0.000001 0.000000 -3.141592 1.570796 0.000000
    3 1.794163 -0.990051 0.000000 0.000000 0.000000 -1.570806
    4 5.430543 -0.280590 0.438968 0.000000 -1.570796 0.000000
    5 6.106755 0.873607 3.364788 -0.031303 -0.066368 0.095956
    6 0.000000 0.000000 0.000000 0.000000 0.000000 0.000000
    7 0.000000 0.000000 0.000000 0.000000 0.000000 0.000000
    8 0.000000 0.000000 0.000000 0.000000 0.000000 0.000000
    9 0.000000 0.000000 0.000000 0.000000 0.000000 0.000000
    10 4.917415 -0.375014 1.147604 -0.010792 0.000807 0.007656
    11 0.000001 0.000000 0.000000 0.000000 0.000000 0.000000
    12 -0.000001 -0.000001 0.000000 0.000000 0.000000 0.000000
    13 0.000000 0.000000 0.000000 0.000000 0.000000 0.000000
    14 -0.000001 0.000000 0.000000 0.000000 0.000000 0.000000
    15 3.907625 1.132784 1.301830 -0.436332 0.000000 0.000000
    16 -0.850018 0.850000 0.000000 0.000000 0.000000 0.000000
    17 -0.850000 -0.850000 0.000000 0.000000 0.000000 0.000000
    18 0.850000 -0.850057 0.000000 0.000000 0.000000 0.000000
    19 0.850000 0.850000 0.000000 0.000000 0.000000 0.000000
    20 2.362294 1.131579 1.293652 2.705260 -0.000001 -0.000001
    21 -0.850000 0.850000 0.000000 0.000000 0.000000 0.000000
    22 -0.850000 -0.850000 0.000000 0.000000 0.000000 0.000000
    23 0.850000 -0.850000 0.000000 0.000000 0.000000 0.000000
    24 0.850000 0.850056 0.000000 0.000000 0.000000 0.000000
    25 2.672156 0.973855 1.950156 0.000000 0.000000 0.000000
    26 -0.000001 0.000000 0.000001 0.000000 0.000000 0.000000
    27 0.000000 0.000000 0.000000 0.000000 0.000000 0.000000
    28 0.000000 -0.000001 -0.000001 0.000000 0.000000 0.000000
    29 0.000000 0.000001 0.000001 0.000000 0.000000 0.000000
    30 7.264874 0.725374 0.000002 -0.260267 -1.570796 0.000000
    31 3.825489 0.807353 -6.140193 -0.101258 0.004818 0.270111
    32 7.353012 -4.162861 -4.542089 0.616348 -2.275292 -1.426325
    33 7.987854 -0.495510 -0.392002 -1.570083 -0.027460 -3.125140
    34 0.033551 -8.471392 -0.065070 0.131701 0.705824 -0.346730
    35 -0.488518 -2.755602 -0.228260 -0.914750 -0.000322 -0.149989
    36 0.039887 -1.542292 0.022041 -1.803252 -0.007862 0.040389
    37 0.028786 -1.138233 -0.112955 -0.823614 -0.014010 0.016335
    38 0.250027 -2.820665 -0.238396 -0.716762 -0.052214 -0.058503
    39 -0.049759 -1.594604 0.026258 -1.635261 -0.001414 -0.043314
    40 -0.034142 -1.167844 0.049625 -1.033169 0.007706 -0.026953
    41 0.957766 -2.746780 -0.090302 0.210163 -0.169576 0.210206
    42 -0.033420 -1.393223 -0.022976 -0.770292 0.007418 -0.037896
    43 -0.022360 -0.957436 0.014878 -0.261675 0.005681 -0.012104
    44 -1.180681 -2.507217 -0.193859 -0.909165 0.223300 -0.199657
    45 -0.024967 -1.127840 0.017597 -1.311791 -0.003523 -0.054900
    46 -0.020057 -0.906594 0.033528 -1.124986 0.003176 -0.046189
    47 0.618667 -1.201183 0.189285 0.268199 -1.036066 -0.350472
    48 1.446081 -0.251481 0.079230 0.076026 -0.245372 -0.918021
    49 1.049988 -0.143915 0.032291 0.037257 -0.185979 -0.756180
    50 0.120153 -0.050270 -0.054489 0.287569 3.110905 1.561085
    51 -4.212295 -7.383669 -4.864713 -1.334022 -5.102940 -1.355103
    52 -0.192127 -8.446512 0.014073 -0.933927 -1.368426 1.154527
    53 0.447953 -2.798986 -0.200443 -0.796563 -0.050604 0.274849
    54 -0.032909 -1.499736 0.024472 -1.284119 0.022986 -0.023452
    55 -0.027022 -1.088639 -0.028023 -0.369382 0.010019 -0.003224
    56 -0.249534 -2.846964 -0.174213 -0.233181 -0.005530 0.097740
    57 0.043235 -1.656596 0.072574 -1.364447 -0.021506 0.006568
    58 0.031729 -1.153017 0.058838 -0.513832 -0.004763 0.005640
    59 -0.963866 -2.785145 -0.085350 0.010812 0.162048 0.046398
    60 0.028479 -1.403067 -0.013261 -0.746527 -0.016910 -0.029015
    61 0.021413 -0.957781 0.020046 -0.104819 -0.001043 -0.004794
    62 1.164475 -2.543940 -0.170330 -1.175471 -0.161424 0.354246
    63 0.024032 -1.132948 -0.001725 -0.760321 0.003703 0.040617
    64 0.014898 -0.883989 -0.019848 -0.213155 -0.001882 0.008341
    65 -0.586770 -1.264477 0.200161 0.046308 -0.603711 -2.744710
    66 1.546273 0.039149 0.016848 -0.009328 -0.003179 0.531821
    67 1.117947 0.048424 -0.005766 -0.000219 -0.025174 0.064016
    68 0.048107 -0.111698 -0.212172 1.026811 0.164452 1.239766
    69 -4.647476 7.522731 -0.329279 1.581379 -0.016405 -1.137108
  time 15
    0 5.590014 -9.320597 -3.199316 -1.548205 -3.039114 -4.914948
    1 13.129178 -0.309362 0.018823 -1.570807 1.570460 0.000000
    2 -0.000001 0.000001 0.000000 -3.141592 1.570796 0.000000
    3 1.794163 -0.990051 0.000000 0.000000 0.000000 -1.570806
    4 5.430543 -0.280590 0.438968 0.000000 -1.570796 0.000000
    5 6.106755 0.873607 3.364788 -0.031303 -0.066368 0.095956
    6 0.000000 0.000000 0.000000 0.000000 0.000000 0.000000
    7 0.000000 0.000000 0.000000 0.000000 0.000000 0.000000
    8 0.000000 0.000000 0.000000 0.000000 0.000000 0.000000
    9 0.000000 0.000000 0.000000 0.000000 0.000000 0.000000
    10 4.917415 -0.375014 1.147604 -0.010792 0.000807 0.007656
    11 0.000001 0.000000 0.000000 0.000000 0.000000 0.000000
    12 -0.000001 -0.000001 0.000000 0.000000 0.000000 0.000000
    13 0.000000 0.000000 0.000000 0.000000 0.000000 0.000000
    14 -0.000001 0.000000 0.000000 0.000000 0.000000 0.000000
    15 3.907625 1.132784 1.301830 -0.436332 0.000000 0.000000
    16 -0.850018 0.850000 0.000000 0.000000 0.000000 0.000000
    17 -0.850000 -0.850000 0.000000 0.000000 0.000000 0.000000
    18 0.850000 -0.850057 0.000000 0.000000 0.000000 0.000000
    19 0.850000 0.850000 0.000000 0.000000 0.000000 0.000000
    20 2.362294 1.131579 1.293652 2.705260 -0.000001 -0.000001
    21 -0.850000 0.850000 0.000000 0.000000 0.000000 0.000000
    22 -0.850000 -0.850000 0.000000 0.000000 0.000000 0.000000
    23 0.850000 -0.850000 0.000000 0.000000 0.000000 0.000000
    24 0.850000 0.850056 0.000000 0.000000 0.000000 0.000000
    25 2.672156 0.973855 1.950156 0.000000 0.000000 0.000000
    26 -0.000001 0.000000 0.000001 0.000000 0.000000 0.000000
    27 0.000000 0.000000 0.000000 0.000000 0.000000 0.000000
    28 0.000000 -0.000001 -0.000001 0.000000 0.000000 0.000000
    29 0.000000 0.000001 0.000001 0.000000 0.000000 0.000000
    30 7.264874 0.725374 0.000002 -0.260267 -1.570796 0.000000
    31 3.825489 0.807353 -6.140193 -0.101258 0.004818 0.270111
    32 7.353012 -4.158954 -4.542089 0.616253 -2.275219 -1.426325
    33 7.987854 -0.499417 -0.392002 -1.570083 -0.027460 -3.125750
    34 0.033551 -8.471392 -0.065070 0.131595 0.705853 -0.346943
    35 -0.488518 -2.755602 -0.228260 -0.914750 -0.000322 -0.149989
    36 0.039887 -1.542292 0.022041 -1.803252 -0.007862 0.040389
    37 0.028786 -1.138233 -0.112955 -0.823614 -0.014010 0.016335
    38 0.250027 -2.820665 -0.238396 -0.716762 -0.052214 -0.058503
    39 -0.049759 -1.594604 0.026258 -1.635261 -0.001414 -0.043314
    40 -0.034142 -1.167844 0.049625 -1.033169 0.007706 -0.026953
    41 0.957766 -2.746780 -0.090302 0.210163 -0.169576 0.210206
    42 -0.033420 -1.393223 -0.022976 -0.770292 0.007418 -0.037896
    43 -0.022360 -0.957436 0.014878 -0.261675 0.005681 -0.012104
    44 -1.180681 -2.507217 -0.193859 -0.909165 0.223300 -0.199657
    45 -0.024967 -1.127840 0.017597 -1.311791 -0.003523 -0.054900
    46 -0.020057 -0.906594 0.033528 -1.124986 0.003176 -0.046189
    47 0.618667 -1.201183 0.189285 0.268199 -1.036066 -0.350472
    48 1.446081 -0.251481 0.079230 0.076026 -0.245372 -0.918021
    49 1.049988 -0.143915 0.032291 0.037257 -0.185979 -0.756180
    50 0.120153 -0.050270 -0.054489 0.287569 3.110905 1.561085
    51 -4.212295 -7.383669 -4.872526 -1.334302 -5.103286 -1.355293
    52 -0.192127 -8.446512 0.014073 -0.933867 -1.368611 1.155109
    53 0.447953 -2.798986 -0.200443 -0.796563 -0.050604 0.274849
    54 -0.032909 -1.499736 0.024472 -1.284119 0.022986 -0.023452
    55 -0.027022 -1.088639 -0.028023 -0.369382 0.010019 -0.003224
    56 -0.249534 -2.846964 -0.174213 -0.233181 -0.005530 0.097740
    57 0.043235 -1.656596 0.072574 -1.364447 -0.021506 0.006568
    58 0.031729 -1.153017 0.058838 -0.513832 -0.004763 0.005640
    59 -0.963866 -2.785145 -0.085350 0.010812 0.162048 0.046398
    60 0.028479 -1.403067 -0.013261 -0.746527 -0.016910 -0.029015
    61 0.021413 -0.957781 0.020046 -0.104819 -0.001043 -0.004794
    62 1.164475 -2.543940 -0.170330 -1.175471 -0.161424 0.354246
    63 0.024032 -1.132948 -0.001725 -0.760321 0.003703 0.040617
    64 0.014898 -0.883989 -0.019848 -0.213155 -0.001882 0.008341
    65 -0.586770 -1.264477 0.200161 0.046308 -0.603711 -2.744710
    66 1.546273 0.039149 0.016848 -0.009328 -0.003179 0.531821
    67 1.117947 0.048424 -0.005766 -0.000219 -0.025174 0.064016
    68 0.048107 -0.111698 -0.212172 1.026811 0.164452 1.239766
    69 -4.659195 7.518824 -0.333186 1.581379 -0.016405 -1.135503
end
