// Created by Crowbar 0.34.0.0
version 1
nodes
  0 "phantom_1" -1
  1 "phantom_11" -1
  2 "phantfx" 0
  3 "phantom_22" -1
  4 "phantom_2" -1
  5 "phantfx02" 4
  6 "stab_fx_bone" -1
  7 "ligh_root" -1
  8 "fxlightning_3" 7
  9 "fxlightning_1" 7
  10 "fxlightning_2" 7
  11 "fxlightning_4" 7
  12 "line_root" -1
  13 "line03" 12
  14 "line04" 12
  15 "line01" 12
  16 "line02" 12
  17 "exefx01" 0
  18 "exefx02" 0
  19 "eyephentom02fx01" 4
  20 "eyephentom02fx" 4
  21 "root" -1
  22 "Bone01" 21
  23 "Bone_L_Upper" 22
  24 "Bone_Lefthand" 22
  25 "Bone13" 24
  26 "Bone14" 25
  27 "Bone15" 26
  28 "Bone17" 24
  29 "Bone18" 28
  30 "Bone19" 29
  31 "Bone21" 24
  32 "Bone22" 31
  33 "Bone23" 32
  34 "Bone09" 24
  35 "Bone10" 34
  36 "Bone11" 35
  37 "Bone05" 24
  38 "Bone06" 37
  39 "Bone07" 38
  40 "Bone_Se_Hand-L" 24
  41 "Bone04" 21
  42 "Bone_Righthand" 41
  43 "Bone39" 42
  44 "Bone40" 43
  45 "Bone41" 44
  46 "Bone35" 42
  47 "Bone36" 46
  48 "Bone37" 47
  49 "Bone31" 42
  50 "Bone32" 49
  51 "Bone33" 50
  52 "Bone43" 42
  53 "Bone44" 52
  54 "Bone45" 53
  55 "Bone27" 42
  56 "Bone28" 55
  57 "Bone29" 56
  58 "Bone_Se_Hand-R" 42
  59 "Bone_R_Upper" 41
end
skeleton
  time 0
    0 21.926450 -6.644736 -7.966455 -0.967291 3.042235 0.476679
    1 12.144902 -12.017387 -9.492807 -0.967270 3.042261 0.476679
    2 -6.746239 1.488021 0.000145 -3.141592 1.570796 0.000000
    3 12.144901 11.396547 -33.278689 -4.986373 -0.177193 -2.765664
    4 22.500686 15.448478 -35.154785 -4.986316 -0.177193 -2.765664
    5 -6.884506 0.045362 -0.000546 3.141591 1.570796 0.000000
    6 -33.148422 39.600525 3.921634 0.000000 0.000000 0.000000
    7 -16.313324 12.403505 11.858739 1.504637 -0.696400 0.409610
    8 0.000000 0.000000 0.000000 0.000000 0.000000 0.000000
    9 0.000000 0.000000 0.000000 0.000000 0.000000 0.000000
    10 0.000000 0.000000 -0.000002 0.000000 0.000000 0.000000
    11 0.000001 -0.000002 -0.000004 0.000000 0.000000 0.000000
    12 -59.593906 10.219164 0.000000 0.000000 0.000000 0.000000
    13 -10.000088 10.000000 0.000000 0.000000 0.000000 0.000000
    14 10.000000 10.000000 0.000000 0.000000 0.000000 0.000000
    15 9.999908 -10.000000 0.000000 0.000000 0.000000 0.000000
    16 -9.999996 -10.000000 0.000000 0.000000 0.000000 0.000000
    17 8.297502 1.873835 -0.833016 1.566653 -0.564520 -2.759211
    18 8.360184 2.109215 0.930654 0.921809 -0.364005 0.384206
    19 8.130560 2.232922 0.862472 1.552574 -0.417441 0.661589
    20 8.262385 2.367609 -0.906657 0.679593 -0.758166 -2.316103
    21 -2.424590 -0.002752 -3.503394 0.000000 0.000000 1.570796
    22 10.325759 -14.096757 -5.546026 0.189646 -2.902549 -1.188466
    23 7.230018 6.895340 -0.571695 1.424131 -3.103207 0.850492
    24 -0.071921 -8.498736 -0.104134 -0.095171 0.097178 -0.047024
    25 -0.488518 -2.755602 -0.228260 -0.093307 0.051942 -0.186015
    26 0.039887 -1.479790 0.029854 -0.426801 0.000000 0.000001
    27 0.028786 -1.075731 -0.023109 0.007193 0.000000 0.000000
    28 0.250027 -2.820665 -0.238396 0.132799 -0.002921 0.008443
    29 -0.049759 -1.680544 0.100479 -0.327367 0.000000 -0.000002
    30 -0.034142 -1.148312 0.084782 0.125746 0.000000 0.000000
    31 0.957766 -2.746780 -0.090302 0.433787 -0.082532 0.013527
    32 -0.033420 -1.397129 -0.011257 -0.333261 0.000000 -0.000001
    33 -0.022360 -0.957436 0.018784 0.169694 0.000000 0.000000
    34 -1.180681 -2.507217 -0.193859 -0.221260 0.117596 -0.331525
    35 -0.024967 -1.123934 0.017597 -0.501210 0.000000 0.000001
    36 -0.020057 -0.890968 0.010090 -0.129117 0.000000 0.000000
    37 0.583510 -1.197277 0.185379 0.391286 -0.590805 -0.763001
    38 1.535927 0.010246 0.005009 -0.002964 -0.012979 -0.281488
    39 1.100771 0.004527 -0.010679 -0.006823 0.014715 -0.257721
    40 0.120153 -0.050270 -0.054489 0.287569 3.110905 1.561085
    41 -10.095287 -1.430363 -4.501421 -0.362637 -3.687625 -0.228390
    42 0.096944 -8.450418 -0.009365 0.007553 0.221680 -0.146873
    43 0.447953 -2.798986 -0.200443 -0.432949 0.007042 0.102403
    44 -0.032909 -1.480204 0.004940 -0.721714 0.000000 0.000002
    45 -0.027022 -1.076920 -0.020210 -0.205919 0.000000 0.000000
    46 -0.249534 -2.846964 -0.174213 -0.146038 -0.000125 -0.008396
    47 0.043235 -1.683941 0.096012 -0.729693 0.002823 -0.000167
    48 0.031729 -1.160830 0.058838 -0.456187 0.000642 0.008372
    49 -0.963866 -2.785145 -0.085350 -0.240872 0.163163 -0.073052
    50 0.028479 -1.403067 0.006271 -0.381709 0.000000 0.000000
    51 0.021413 -0.957781 0.020046 0.071783 0.000000 0.000000
    52 1.164475 -2.543940 -0.170330 -0.677886 0.010016 0.200245
    53 0.024032 -1.129042 0.017807 -0.663804 0.000000 0.000001
    54 0.014898 -0.883989 -0.019848 -0.319901 0.000000 0.000000
    55 -0.586770 -1.264477 0.200161 -0.800294 -0.844960 -2.026371
    56 1.522835 0.058681 0.016848 0.001410 0.008985 0.139420
    57 1.117947 0.048424 -0.005766 -0.013402 -0.021351 0.616686
    58 -0.139399 -0.111698 0.014397 0.358632 0.302122 1.681023
    59 -7.210054 6.843022 -0.192557 1.605702 -0.001306 -0.796361
  time 1
    0 22.750694 -8.242441 -16.669845 -1.092927 3.210696 0.321541
    1 12.144902 -12.017387 -16.336766 -1.092971 3.210714 0.321541
    2 -6.746239 1.488021 0.000145 -3.141592 1.570796 0.000000
    3 12.144901 11.396547 -33.278689 -4.986373 -0.177193 -2.765664
    4 22.500686 15.448478 -35.154785 -4.986316 -0.177193 -2.765664
    5 -6.884506 0.045362 -0.000546 3.141591 1.570796 0.000000
    6 -33.148422 39.600525 3.921634 0.000000 0.000000 0.000000
    7 -16.313324 12.403505 11.858739 1.504637 -0.696400 0.409610
    8 0.000000 0.000000 0.000000 0.000000 0.000000 0.000000
    9 0.000000 0.000000 0.000000 0.000000 0.000000 0.000000
    10 0.000000 0.000000 -0.000002 0.000000 0.000000 0.000000
    11 0.000001 -0.000002 -0.000004 0.000000 0.000000 0.000000
    12 -59.593906 10.219164 0.000000 0.000000 0.000000 0.000000
    13 -10.000088 10.000000 0.000000 0.000000 0.000000 0.000000
    14 10.000000 10.000000 0.000000 0.000000 0.000000 0.000000
    15 9.999908 -10.000000 0.000000 0.000000 0.000000 0.000000
    16 -9.999996 -10.000000 0.000000 0.000000 0.000000 0.000000
    17 8.297502 1.873835 -0.833016 1.566653 -0.564520 -2.759211
    18 8.360184 2.109215 0.930654 0.921809 -0.364005 0.384206
    19 8.130560 2.232922 0.862472 1.552574 -0.417441 0.661589
    20 8.262385 2.367609 -0.906657 0.679593 -0.758166 -2.316103
    21 -2.424590 -0.002752 -3.503394 0.000000 0.000000 1.570796
    22 10.415606 -14.096757 -7.768750 0.096850 -3.011437 -1.259033
    23 7.230018 6.895340 -0.571695 1.424131 -3.103207 0.850492
    24 -0.071921 -8.498736 -0.104134 -0.088097 0.102309 -0.043843
    25 -0.488518 -2.755602 -0.228260 -0.057590 0.050768 -0.188208
    26 0.039887 -1.479790 0.029854 -0.384033 0.000000 0.000001
    27 0.028786 -1.075731 -0.023109 0.007046 0.000000 0.000000
    28 0.250027 -2.820665 -0.238396 0.130244 -0.002921 0.008443
    29 -0.049759 -1.680544 0.100479 -0.285243 0.000000 -0.000002
    30 -0.034142 -1.148312 0.084782 0.121087 0.000000 0.000000
    31 0.957766 -2.746780 -0.090302 0.421162 -0.084761 0.018512
    32 -0.033420 -1.397129 -0.011257 -0.291175 0.000000 -0.000001
    33 -0.022360 -0.957436 0.018784 0.165055 0.000000 0.000000
    34 -1.180681 -2.507217 -0.193859 -0.176981 0.114672 -0.335623
    35 -0.024967 -1.123934 0.017597 -0.455309 0.000000 0.000001
    36 -0.020057 -0.890968 0.010090 -0.114453 0.000000 0.000000
    37 0.583510 -1.197277 0.185379 0.384751 -0.574337 -0.751836
    38 1.535927 0.010246 0.005009 -0.002964 -0.012979 -0.244179
    39 1.100771 0.004527 -0.010679 -0.006439 0.014846 -0.232674
    40 0.120153 -0.050270 -0.054489 0.287569 3.110905 1.561085
    41 -10.446861 -3.410892 -4.899870 -0.336602 -3.498733 -0.014325
    42 0.096944 -8.450418 -0.009365 -0.011116 0.221680 -0.146873
    43 0.447953 -2.798986 -0.200443 -0.443366 0.007042 0.102403
    44 -0.032909 -1.480204 0.004940 -0.743773 0.000000 0.000002
    45 -0.027022 -1.076920 -0.020210 -0.222973 0.000000 0.000000
    46 -0.249534 -2.846964 -0.174213 -0.146038 -0.000125 -0.008396
    47 0.043235 -1.683941 0.096012 -0.729693 0.002823 -0.000167
    48 0.031729 -1.160830 0.058838 -0.456187 0.000642 0.008372
    49 -0.963866 -2.785145 -0.085350 -0.240872 0.163163 -0.073052
    50 0.028479 -1.403067 0.006271 -0.381709 0.000000 0.000000
    51 0.021413 -0.957781 0.020046 0.071783 0.000000 0.000000
    52 1.164475 -2.543940 -0.170330 -0.688322 0.010016 0.200245
    53 0.024032 -1.129042 0.017807 -0.685882 0.000000 0.000001
    54 0.014898 -0.883989 -0.019848 -0.336988 0.000000 0.000000
    55 -0.586770 -1.264477 0.200161 -0.793687 -0.847190 -2.025956
    56 1.522835 0.058681 0.016848 0.001410 0.008985 0.139420
    57 1.117947 0.048424 -0.005766 -0.012959 -0.021483 0.598359
    58 -0.139399 -0.111698 0.014397 0.358632 0.302122 1.681023
    59 -7.210054 6.843022 -0.192557 1.605702 -0.001306 -0.796361
  time 2
    0 22.961638 -11.476915 -31.678116 -1.295553 3.462899 0.037105
    1 12.144902 -12.017387 -28.583233 -1.295585 3.462900 0.037105
    2 -6.746239 1.488021 0.000145 -3.141592 1.570796 0.000000
    3 12.144901 11.396547 -33.278689 -4.986373 -0.177193 -2.765664
    4 22.500686 15.448478 -35.154785 -4.986316 -0.177193 -2.765664
    5 -6.884506 0.045362 -0.000546 3.141591 1.570796 0.000000
    6 -33.148422 39.600525 3.921634 0.000000 0.000000 0.000000
    7 -16.313324 12.403505 11.858739 1.504637 -0.696400 0.409610
    8 0.000000 0.000000 0.000000 0.000000 0.000000 0.000000
    9 0.000000 0.000000 0.000000 0.000000 0.000000 0.000000
    10 0.000000 0.000000 -0.000002 0.000000 0.000000 0.000000
    11 0.000001 -0.000002 -0.000004 0.000000 0.000000 0.000000
    12 -59.593906 10.219164 0.000000 0.000000 0.000000 0.000000
    13 -10.000088 10.000000 0.000000 0.000000 0.000000 0.000000
    14 10.000000 10.000000 0.000000 0.000000 0.000000 0.000000
    15 9.999908 -10.000000 0.000000 0.000000 0.000000 0.000000
    16 -9.999996 -10.000000 0.000000 0.000000 0.000000 0.000000
    17 8.297502 1.873835 -0.833016 1.566653 -0.564520 -2.759211
    18 8.360184 2.109215 0.930654 0.921809 -0.364005 0.384206
    19 8.130560 2.232922 0.862472 1.552574 -0.417441 0.661589
    20 8.262385 2.367609 -0.906657 0.679593 -0.758166 -2.316103
    21 -2.424590 -0.002752 -3.503394 0.000000 0.000000 1.570796
    22 10.610924 -14.096757 -11.014943 6.175792 3.032077 -1.320909
    23 7.230018 6.895340 -0.571695 1.424131 -3.103207 0.850492
    24 -0.071921 -8.498736 -0.104134 -0.068984 0.116318 -0.035248
    25 -0.488518 -2.755602 -0.228260 -0.024933 0.047616 -0.194176
    26 0.039887 -1.479790 0.029854 -0.337048 0.000000 0.000001
    27 0.028786 -1.075731 -0.023109 0.006666 0.000000 0.000000
    28 0.250027 -2.820665 -0.238396 0.123311 -0.002921 0.008443
    29 -0.049759 -1.680544 0.100479 -0.240105 0.000000 -0.000002
    30 -0.034142 -1.148312 0.084782 0.108507 0.000000 0.000000
    31 0.957766 -2.746780 -0.090302 0.386883 -0.090825 0.032043
    32 -0.033420 -1.397129 -0.011257 -0.245966 0.000000 -0.000001
    33 -0.022360 -0.957436 0.018784 0.152463 0.000000 0.000000
    34 -1.180681 -2.507217 -0.193859 -0.133087 0.106750 -0.346742
    35 -0.024967 -1.123934 0.017597 -0.399784 0.000000 0.000001
    36 -0.020057 -0.890968 0.010090 -0.101890 0.000000 0.000000
    37 0.583510 -1.197277 0.185379 0.367020 -0.553694 -0.721521
    38 1.535927 0.010246 0.005009 -0.002964 -0.012979 -0.205645
    39 1.100771 0.004527 -0.010679 -0.005972 0.015002 -0.202553
    40 0.120153 -0.050270 -0.054489 0.287569 3.110905 1.561085
    41 -11.216415 -5.993002 -5.774897 -0.313323 -3.222711 0.271827
    42 0.096944 -8.450418 -0.009365 -0.057774 0.221680 -0.146873
    43 0.447953 -2.798986 -0.200443 -0.471455 0.007042 0.102403
    44 -0.032909 -1.480204 0.004940 -0.803218 0.000000 0.000002
    45 -0.027022 -1.076920 -0.020210 -0.268930 0.000000 0.000000
    46 -0.249534 -2.846964 -0.174213 -0.146038 -0.000125 -0.008396
    47 0.043235 -1.683941 0.096012 -0.729693 0.002823 -0.000167
    48 0.031729 -1.160830 0.058838 -0.456187 0.000642 0.008372
    49 -0.963866 -2.785145 -0.085350 -0.240872 0.163163 -0.073052
    50 0.028479 -1.403067 0.006271 -0.381709 0.000000 0.000000
    51 0.021413 -0.957781 0.020046 0.071783 0.000000 0.000000
    52 1.164475 -2.543940 -0.170330 -0.716392 0.010016 0.200245
    53 0.024032 -1.129042 0.017807 -0.745281 0.000000 0.000001
    54 0.014898 -0.883989 -0.019848 -0.382932 0.000000 0.000000
    55 -0.586770 -1.264477 0.200161 -0.775883 -0.853166 -2.024834
    56 1.522835 0.058681 0.016848 0.001410 0.008985 0.139420
    57 1.117947 0.048424 -0.005766 -0.011796 -0.021878 0.549001
    58 -0.139399 -0.111698 0.014397 0.358632 0.302122 1.681023
    59 -7.210054 6.843022 -0.192557 1.605702 -0.001306 -0.796361
  time 3
    0 22.426466 -13.125403 -39.596326 -4.543119 -0.451083 3.025911
    1 12.144902 -12.017387 -35.134214 -4.543149 -0.451134 3.025911
    2 -6.746239 1.488021 0.000145 -3.141592 1.570796 0.000000
    3 12.144901 11.396547 -33.278689 -4.986373 -0.177193 -2.765664
    4 22.500686 15.448478 -35.154785 -4.986316 -0.177193 -2.765664
    5 -6.884506 0.045362 -0.000546 3.141591 1.570796 0.000000
    6 -33.148422 39.600525 3.921634 0.000000 0.000000 0.000000
    7 -16.313324 12.403505 11.858739 1.504637 -0.696400 0.409610
    8 0.000000 0.000000 0.000000 0.000000 0.000000 0.000000
    9 0.000000 0.000000 0.000000 0.000000 0.000000 0.000000
    10 0.000000 0.000000 -0.000002 0.000000 0.000000 0.000000
    11 0.000001 -0.000002 -0.000004 0.000000 0.000000 0.000000
    12 -59.593906 10.219164 0.000000 0.000000 0.000000 0.000000
    13 -10.000088 10.000000 0.000000 0.000000 0.000000 0.000000
    14 10.000000 10.000000 0.000000 0.000000 0.000000 0.000000
    15 9.999908 -10.000000 0.000000 0.000000 0.000000 0.000000
    16 -9.999996 -10.000000 0.000000 0.000000 0.000000 0.000000
    17 8.297502 1.873835 -0.833016 1.566653 -0.564520 -2.759211
    18 8.360184 2.109215 0.930654 0.921809 -0.364005 0.384206
    19 8.130560 2.232922 0.862472 1.552574 -0.417441 0.661589
    20 8.262385 2.367609 -0.906657 0.679593 -0.758166 -2.316103
    21 -2.424590 -0.002752 -3.503394 0.000000 0.000000 1.570796
    22 10.806243 -14.096757 -13.944720 5.971601 2.792541 -1.364836
    23 7.230018 6.895340 -0.571695 1.424131 -3.103207 0.850492
    24 -0.071921 -8.498736 -0.104134 -0.040758 0.136938 -0.022569
    25 -0.488518 -2.755602 -0.228260 0.004502 0.042954 -0.202961
    26 0.039887 -1.479790 0.029854 -0.287829 0.000000 0.000001
    27 0.028786 -1.075731 -0.023109 0.006080 0.000000 0.000000
    28 0.250027 -2.820665 -0.238396 0.113148 -0.002921 0.008443
    29 -0.049759 -1.680544 0.100479 -0.193577 0.000000 -0.000002
    30 -0.034142 -1.148312 0.084782 0.089902 0.000000 0.000000
    31 0.957766 -2.746780 -0.090302 0.336358 -0.099753 0.051985
    32 -0.033420 -1.397129 -0.011257 -0.199525 0.000000 -0.000001
    33 -0.022360 -0.957436 0.018784 0.133873 0.000000 0.000000
    34 -1.180681 -2.507217 -0.193859 -0.090616 0.095065 -0.363148
    35 -0.024967 -1.123934 0.017597 -0.338089 0.000000 0.000001
    36 -0.020057 -0.890968 0.010090 -0.091246 0.000000 0.000000
    37 0.583510 -1.197277 0.185379 0.340901 -0.530238 -0.676876
    38 1.535927 0.010246 0.005009 -0.002964 -0.012979 -0.167112
    39 1.100771 0.004527 -0.010679 -0.005457 0.015170 -0.169142
    40 0.120153 -0.050270 -0.054489 0.287569 3.110905 1.561085
    41 -11.989877 -8.637614 -6.653830 -0.296505 -2.973661 0.564558
    42 0.096944 -8.450418 -0.009365 -0.118481 0.221680 -0.146873
    43 0.447953 -2.798986 -0.200443 -0.512351 0.007042 0.102403
    44 -0.032909 -1.480204 0.004940 -0.889784 0.000000 0.000002
    45 -0.027022 -1.076920 -0.020210 -0.335881 0.000000 0.000000
    46 -0.249534 -2.846964 -0.174213 -0.146038 -0.000125 -0.008396
    47 0.043235 -1.683941 0.096012 -0.729693 0.002823 -0.000167
    48 0.031729 -1.160830 0.058838 -0.456187 0.000642 0.008372
    49 -0.963866 -2.785145 -0.085350 -0.240872 0.163163 -0.073052
    50 0.028479 -1.403067 0.006271 -0.381709 0.000000 0.000000
    51 0.021413 -0.957781 0.020046 0.071783 0.000000 0.000000
    52 1.164475 -2.543940 -0.170330 -0.757309 0.010016 0.200245
    53 0.024032 -1.129042 0.017807 -0.831854 0.000000 0.000001
    54 0.014898 -0.883989 -0.019848 -0.449873 0.000000 0.000000
    55 -0.586770 -1.264477 0.200161 -0.749929 -0.861884 -2.023200
    56 1.522835 0.058681 0.016848 0.001410 0.008985 0.139420
    57 1.117947 0.048424 -0.005766 -0.010094 -0.022442 0.477092
    58 -0.139399 -0.111698 0.014397 0.358632 0.302122 1.681023
    59 -7.210054 6.843022 -0.192557 1.605702 -0.001306 -0.796361
  time 4
    0 22.426466 -13.125403 -39.596326 -4.543119 -0.451083 3.025911
    1 12.144902 -12.017387 -35.134214 -4.543149 -0.451134 3.025911
    2 -6.746239 1.488021 0.000145 -3.141592 1.570796 0.000000
    3 12.144901 11.396547 -33.278689 -4.986373 -0.177193 -2.765664
    4 22.500686 15.448478 -35.154785 -4.986316 -0.177193 -2.765664
    5 -6.884506 0.045362 -0.000546 3.141591 1.570796 0.000000
    6 -33.148422 39.600525 3.921634 0.000000 0.000000 0.000000
    7 -16.313324 12.403505 11.858739 1.504637 -0.696400 0.409610
    8 0.000000 0.000000 0.000000 0.000000 0.000000 0.000000
    9 0.000000 0.000000 0.000000 0.000000 0.000000 0.000000
    10 0.000000 0.000000 -0.000002 0.000000 0.000000 0.000000
    11 0.000001 -0.000002 -0.000004 0.000000 0.000000 0.000000
    12 -59.593906 10.219164 0.000000 0.000000 0.000000 0.000000
    13 -10.000088 10.000000 0.000000 0.000000 0.000000 0.000000
    14 10.000000 10.000000 0.000000 0.000000 0.000000 0.000000
    15 9.999908 -10.000000 0.000000 0.000000 0.000000 0.000000
    16 -9.999996 -10.000000 0.000000 0.000000 0.000000 0.000000
    17 8.297502 1.873835 -0.833016 1.566653 -0.564520 -2.759211
    18 8.360184 2.109215 0.930654 0.921809 -0.364005 0.384206
    19 8.130560 2.232922 0.862472 1.552574 -0.417441 0.661589
    20 8.262385 2.367609 -0.906657 0.679593 -0.758166 -2.316103
    21 -2.424590 -0.002752 -3.503394 0.000000 0.000000 1.570796
    22 10.892183 -14.096757 -15.222102 5.878805 2.683652 -1.381557
    23 7.230018 6.895340 -0.571695 1.424131 -3.103207 0.850492
    24 -0.071921 -8.498736 -0.104134 -0.006546 0.161948 -0.007231
    25 -0.488518 -2.755602 -0.228260 0.030582 0.037285 -0.213639
    26 0.039887 -1.479790 0.029854 -0.238508 0.000000 0.000001
    27 0.028786 -1.075731 -0.023109 0.005378 0.000000 0.000000
    28 0.250027 -2.820665 -0.238396 0.100752 -0.002921 0.008443
    29 -0.049759 -1.680544 0.100479 -0.147571 0.000000 -0.000002
    30 -0.034142 -1.148312 0.084782 0.067353 0.000000 0.000000
    31 0.957766 -2.746780 -0.090302 0.275018 -0.110599 0.076194
    32 -0.033420 -1.397129 -0.011257 -0.153463 0.000000 -0.000001
    33 -0.022360 -0.957436 0.018784 0.111307 0.000000 0.000000
    34 -1.180681 -2.507217 -0.193859 -0.050530 0.080875 -0.383058
    35 -0.024967 -1.123934 0.017597 -0.273581 0.000000 0.000001
    36 -0.020057 -0.890968 0.010090 -0.082412 0.000000 0.000000
    37 0.583510 -1.197277 0.185379 0.309184 -0.505377 -0.622648
    38 1.535927 0.010246 0.005009 -0.002964 -0.012979 -0.129803
    39 1.100771 0.004527 -0.010679 -0.004929 0.015338 -0.134274
    40 0.120153 -0.050270 -0.054489 0.287569 3.110905 1.561085
    41 -12.337543 -10.801742 -7.048373 -0.290044 -2.865204 0.798361
    42 0.096944 -8.450418 -0.009365 -0.179161 0.221680 -0.146873
    43 0.447953 -2.798986 -0.200443 -0.561301 0.007042 0.102403
    44 -0.032909 -1.480204 0.004940 -0.993347 0.000000 0.000002
    45 -0.027022 -1.076920 -0.020210 -0.415975 0.000000 0.000000
    46 -0.249534 -2.846964 -0.174213 -0.146038 -0.000125 -0.008396
    47 0.043235 -1.683941 0.096012 -0.729693 0.002823 -0.000167
    48 0.031729 -1.160830 0.058838 -0.456187 0.000642 0.008372
    49 -0.963866 -2.785145 -0.085350 -0.240872 0.163163 -0.073052
    50 0.028479 -1.403067 0.006271 -0.381709 0.000000 0.000000
    51 0.021413 -0.957781 0.020046 0.071783 0.000000 0.000000
    52 1.164475 -2.543940 -0.170330 -0.806250 0.010016 0.200245
    53 0.024032 -1.129042 0.017807 -0.935409 0.000000 0.000001
    54 0.014898 -0.883989 -0.019848 -0.529957 0.000000 0.000000
    55 -0.586770 -1.264477 0.200161 -0.718871 -0.872321 -2.021272
    56 1.522835 0.058681 0.016848 0.001410 0.008985 0.139420
    57 1.117947 0.048424 -0.005766 -0.008057 -0.023113 0.391081
    58 -0.139399 -0.111698 0.014397 0.358632 0.302122 1.681023
    59 -7.210054 6.843022 -0.192557 1.605702 -0.001306 -0.796361
  time 5
    0 22.426466 -13.125403 -39.596326 -4.543119 -0.451083 3.025911
    1 12.144902 -12.017387 -35.134214 -4.543149 -0.451134 3.025911
    2 -6.746239 1.488021 0.000145 -3.141592 1.570796 0.000000
    3 12.144901 11.396547 -29.477792 -5.018284 -0.123549 -2.882942
    4 22.985075 14.225784 -30.756213 -5.018353 -0.123549 -2.882942
    5 -6.884506 0.045362 -0.000546 3.141591 1.570796 0.000000
    6 -33.148422 39.600525 3.921634 0.000000 0.000000 0.000000
    7 -16.313324 12.403505 11.858739 1.504637 -0.696400 0.409610
    8 0.000000 0.000000 0.000000 0.000000 0.000000 0.000000
    9 0.000000 0.000000 0.000000 0.000000 0.000000 0.000000
    10 0.000000 0.000000 -0.000002 0.000000 0.000000 0.000000
    11 0.000001 -0.000002 -0.000004 0.000000 0.000000 0.000000
    12 -59.593906 10.219164 0.000000 0.000000 0.000000 0.000000
    13 -10.000088 10.000000 0.000000 0.000000 0.000000 0.000000
    14 10.000000 10.000000 0.000000 0.000000 0.000000 0.000000
    15 9.999908 -10.000000 0.000000 0.000000 0.000000 0.000000
    16 -9.999996 -10.000000 0.000000 0.000000 0.000000 0.000000
    17 8.297502 1.873835 -0.833016 1.566653 -0.564520 -2.759211
    18 8.360184 2.109215 0.930654 0.921809 -0.364005 0.384206
    19 8.130560 2.232922 0.862472 1.552574 -0.417441 0.661589
    20 8.262385 2.367609 -0.906657 0.679593 -0.758166 -2.316103
    21 -2.424590 -0.002752 -3.503394 0.000000 0.000000 1.570796
    22 10.892183 -14.096757 -15.222102 5.878805 2.683652 -1.381557
    23 7.230018 6.895340 -0.571695 1.424131 -3.103207 0.850492
    24 -0.071921 -8.498736 -0.104134 0.030727 0.189178 0.009532
    25 -0.488518 -2.755602 -0.228260 0.053077 0.031137 -0.225252
    26 0.039887 -1.479790 0.029854 -0.191168 0.000000 0.000001
    27 0.028786 -1.075731 -0.023109 0.004646 0.000000 0.000000
    28 0.250027 -2.820665 -0.238396 0.087298 -0.002921 0.008443
    29 -0.049759 -1.680544 0.100479 -0.103766 0.000000 -0.000002
    30 -0.034142 -1.148312 0.084782 0.042815 0.000000 0.000000
    31 0.957766 -2.746780 -0.090302 0.208271 -0.122404 0.102548
    32 -0.033420 -1.397129 -0.011257 -0.109674 0.000000 -0.000001
    33 -0.022360 -0.957436 0.018784 0.086753 0.000000 0.000000
    34 -1.180681 -2.507217 -0.193859 -0.013907 0.065439 -0.404726
    35 -0.024967 -1.123934 0.017597 -0.209665 0.000000 0.000001
    36 -0.020057 -0.890968 0.010090 -0.075279 0.000000 0.000000
    37 0.583510 -1.197277 0.185379 0.274657 -0.480516 -0.563636
    38 1.535927 0.010246 0.005009 -0.002964 -0.012979 -0.094911
    39 1.100771 0.004527 -0.010679 -0.004390 0.015494 -0.099782
    40 0.120153 -0.050270 -0.054489 0.287569 3.110905 1.561085
    41 -12.298480 -12.305694 -6.216317 -0.291659 -2.909581 0.944345
    42 0.096944 -8.450418 -0.009365 -0.225847 0.221680 -0.146873
    43 0.447953 -2.798986 -0.200443 -0.613438 0.007042 0.102403
    44 -0.032909 -1.480204 0.004940 -1.103691 0.000000 0.000002
    45 -0.027022 -1.076920 -0.020210 -0.501303 0.000000 0.000000
    46 -0.249534 -2.846964 -0.174213 -0.146038 -0.000125 -0.008396
    47 0.043235 -1.683941 0.096012 -0.729693 0.002823 -0.000167
    48 0.031729 -1.160830 0.058838 -0.456187 0.000642 0.008372
    49 -0.963866 -2.785145 -0.085350 -0.240872 0.163163 -0.073052
    50 0.028479 -1.403067 0.006271 -0.381709 0.000000 0.000000
    51 0.021413 -0.957781 0.020046 0.071783 0.000000 0.000000
    52 1.164475 -2.543940 -0.170330 -0.858363 0.010016 0.200245
    53 0.024032 -1.129042 0.017807 -1.045758 0.000000 0.000001
    54 0.014898 -0.883989 -0.019848 -0.615290 0.000000 0.000000
    55 -0.586770 -1.264477 0.200161 -0.685795 -0.883434 -2.019199
    56 1.522835 0.058681 0.016848 0.001410 0.008985 0.139420
    57 1.117947 0.048424 -0.005766 -0.005888 -0.023832 0.299446
    58 -0.139399 -0.111698 0.014397 0.358632 0.302122 1.681023
    59 -7.210054 6.843022 -0.192557 1.605702 -0.001306 -0.796361
  time 6
    0 22.426466 -13.125403 -39.596326 -4.543119 -0.451083 3.025911
    1 12.144902 -12.017387 -35.134214 -4.543149 -0.451134 3.025911
    2 -6.746239 1.488021 0.000145 -3.141592 1.570796 0.000000
    3 12.144901 11.396547 -21.114255 -5.094083 -0.005570 3.136934
    4 23.418682 11.299914 -21.064511 -5.094092 -0.005570 3.136934
    5 -6.884506 0.045362 -0.000546 3.141591 1.570796 0.000000
    6 -33.148422 39.600525 3.921634 0.000000 0.000000 0.000000
    7 -16.313324 12.403505 11.858739 1.504637 -0.696400 0.409610
    8 0.000000 0.000000 0.000000 0.000000 0.000000 0.000000
    9 0.000000 0.000000 0.000000 0.000000 0.000000 0.000000
    10 0.000000 0.000000 -0.000002 0.000000 0.000000 0.000000
    11 0.000001 -0.000002 -0.000004 0.000000 0.000000 0.000000
    12 -59.593906 10.219164 0.000000 0.000000 0.000000 0.000000
    13 -10.000088 10.000000 0.000000 0.000000 0.000000 0.000000
    14 10.000000 10.000000 0.000000 0.000000 0.000000 0.000000
    15 9.999908 -10.000000 0.000000 0.000000 0.000000 0.000000
    16 -9.999996 -10.000000 0.000000 0.000000 0.000000 0.000000
    17 8.297502 1.873835 -0.833016 1.566653 -0.564520 -2.759211
    18 8.360184 2.109215 0.930654 0.921809 -0.364005 0.384206
    19 8.130560 2.232922 0.862472 1.552574 -0.417441 0.661589
    20 8.262385 2.367609 -0.906657 0.679593 -0.758166 -2.316103
    21 -2.424590 -0.002752 -3.503394 0.000000 0.000000 1.570796
    22 10.892183 -14.096757 -15.222102 5.878805 2.683652 -1.381557
    23 7.230018 6.895340 -0.571695 1.424131 -3.103207 0.850492
    24 -0.071921 -8.498736 -0.104134 0.068000 0.216458 0.026247
    25 -0.488518 -2.755602 -0.228260 0.071856 0.024977 -0.236866
    26 0.039887 -1.479790 0.029854 -0.147739 0.000000 0.000001
    27 0.028786 -1.075731 -0.023109 0.003885 0.000000 0.000000
    28 0.250027 -2.820665 -0.238396 0.073844 -0.002921 0.008443
    29 -0.049759 -1.680544 0.100479 -0.064017 0.000000 -0.000002
    30 -0.034142 -1.148312 0.084782 0.018247 0.000000 0.000000
    31 0.957766 -2.746780 -0.090302 0.141524 -0.134209 0.128891
    32 -0.033420 -1.397129 -0.011257 -0.069908 0.000000 -0.000001
    33 -0.022360 -0.957436 0.018784 0.062232 0.000000 0.000000
    34 -1.180681 -2.507217 -0.193859 0.018331 0.050003 -0.426394
    35 -0.024967 -1.123934 0.017597 -0.149747 0.000000 0.000001
    36 -0.020057 -0.890968 0.010090 -0.069740 0.000000 0.000000
    37 0.583510 -1.197277 0.185379 0.240131 -0.457039 -0.504625
    38 1.535927 0.010246 0.005009 -0.002964 -0.012979 -0.063631
    39 1.100771 0.004527 -0.010679 -0.003887 0.015649 -0.067452
    40 0.120153 -0.050270 -0.054489 0.287569 3.110905 1.561085
    41 -12.138319 -13.278380 -4.563923 -0.294700 -3.000919 1.024441
    42 0.096944 -8.450418 -0.009365 -0.244515 0.221680 -0.146873
    43 0.447953 -2.798986 -0.200443 -0.663954 0.007042 0.102403
    44 -0.032909 -1.480204 0.004940 -1.210596 0.000000 0.000002
    45 -0.027022 -1.076920 -0.020210 -0.584013 0.000000 0.000000
    46 -0.249534 -2.846964 -0.174213 -0.146038 -0.000125 -0.008396
    47 0.043235 -1.683941 0.096012 -0.729693 0.002823 -0.000167
    48 0.031729 -1.160830 0.058838 -0.456187 0.000642 0.008372
    49 -0.963866 -2.785145 -0.085350 -0.240872 0.163163 -0.073052
    50 0.028479 -1.403067 0.006271 -0.381709 0.000000 0.000000
    51 0.021413 -0.957781 0.020046 0.071783 0.000000 0.000000
    52 1.164475 -2.543940 -0.170330 -0.908922 0.010016 0.200245
    53 0.024032 -1.129042 0.017807 -1.152710 0.000000 0.000001
    54 0.014898 -0.883989 -0.019848 -0.698016 0.000000 0.000000
    55 -0.586770 -1.264477 0.200161 -0.653728 -0.894198 -2.017174
    56 1.522835 0.058681 0.016848 0.001410 0.008985 0.139420
    57 1.117947 0.048424 -0.005766 -0.003778 -0.024527 0.210609
    58 -0.139399 -0.111698 0.014397 0.358632 0.302122 1.681023
    59 -7.210054 6.843022 -0.192557 1.605702 -0.001306 -0.796361
  time 7
    0 22.426466 -13.125403 -39.596326 -4.543119 -0.451083 3.025911
    1 12.144902 -12.017387 -35.134214 -4.543149 -0.451134 3.025911
    2 -6.746239 1.488021 0.000145 -3.141592 1.570796 0.000000
    3 12.144901 11.396547 -12.746812 -5.183682 0.112410 2.860635
    4 22.883510 8.241227 -11.376715 -5.183603 0.112410 2.860635
    5 -6.884506 0.045362 -0.000546 3.141591 1.570796 0.000000
    6 -33.148422 39.600525 3.921634 0.000000 0.000000 0.000000
    7 -16.313324 12.403505 11.858739 1.504637 -0.696400 0.409610
    8 0.000000 0.000000 0.000000 0.000000 0.000000 0.000000
    9 0.000000 0.000000 0.000000 0.000000 0.000000 0.000000
    10 0.000000 0.000000 -0.000002 0.000000 0.000000 0.000000
    11 0.000001 -0.000002 -0.000004 0.000000 0.000000 0.000000
    12 -59.593906 10.219164 0.000000 0.000000 0.000000 0.000000
    13 -10.000088 10.000000 0.000000 0.000000 0.000000 0.000000
    14 10.000000 10.000000 0.000000 0.000000 0.000000 0.000000
    15 9.999908 -10.000000 0.000000 0.000000 0.000000 0.000000
    16 -9.999996 -10.000000 0.000000 0.000000 0.000000 0.000000
    17 8.297502 1.873835 -0.833016 1.566653 -0.564520 -2.759211
    18 8.360184 2.109215 0.930654 0.921809 -0.364005 0.384206
    19 8.130560 2.232922 0.862472 1.552574 -0.417441 0.661589
    20 8.262385 2.367609 -0.906657 0.679593 -0.758166 -2.316103
    21 -2.424590 -0.002752 -3.503394 0.000000 0.000000 1.570796
    22 10.892183 -14.096757 -15.222102 5.878805 2.683652 -1.381557
    23 7.230018 6.895340 -0.571695 1.424131 -3.103207 0.850492
    24 -0.071921 -8.498736 -0.104134 0.102280 0.241468 0.041585
    25 -0.488518 -2.755602 -0.228260 0.086754 0.019308 -0.247544
    26 0.039887 -1.479790 0.029854 -0.110405 0.000000 0.000001
    27 0.028786 -1.075731 -0.023109 0.003182 0.000000 0.000000
    28 0.250027 -2.820665 -0.238396 0.061448 -0.002921 0.008443
    29 -0.049759 -1.680544 0.100479 -0.029947 0.000000 -0.000002
    30 -0.034142 -1.148312 0.084782 -0.004303 0.000000 0.000000
    31 0.957766 -2.746780 -0.090302 0.080184 -0.145055 0.153111
    32 -0.033420 -1.397129 -0.011257 -0.035871 0.000000 -0.000001
    33 -0.022360 -0.957436 0.018784 0.039666 0.000000 0.000000
    34 -1.180681 -2.507217 -0.193859 0.045106 0.035813 -0.446304
    35 -0.024967 -1.123934 0.017597 -0.097232 0.000000 0.000001
    36 -0.020057 -0.890968 0.010090 -0.065649 0.000000 0.000000
    37 0.583510 -1.197277 0.185379 0.208414 -0.436353 -0.450397
    38 1.535927 0.010246 0.005009 -0.002964 -0.012979 -0.037218
    39 1.100771 0.004527 -0.010679 -0.003455 0.015781 -0.039163
    40 0.120153 -0.050270 -0.054489 0.287569 3.110905 1.561085
    41 -11.817996 -13.622141 -3.349042 -0.296315 -3.076571 1.048756
    42 0.096944 -8.450418 -0.009365 -0.075751 0.221680 -0.146873
    43 0.447953 -2.798986 -0.200443 -0.708066 0.007042 0.102403
    44 -0.032909 -1.480204 0.004940 -1.303990 0.000000 0.000002
    45 -0.027022 -1.076920 -0.020210 -0.656227 0.000000 0.000000
    46 -0.249534 -2.846964 -0.174213 -0.374141 -0.000125 -0.008396
    47 0.043235 -1.683941 0.096012 -1.264975 0.002823 -0.000167
    48 0.031729 -1.160830 0.058838 -0.859466 0.000642 0.008372
    49 -0.963866 -2.785145 -0.085350 -0.468989 0.163163 -0.073052
    50 0.028479 -1.403067 0.006271 -0.916914 0.000000 0.000000
    51 0.021413 -0.957781 0.020046 -0.331479 0.000000 0.000000
    52 1.164475 -2.543940 -0.170330 -0.953042 0.010016 0.200245
    53 0.024032 -1.129042 0.017807 -1.246075 0.000000 0.000001
    54 0.014898 -0.883989 -0.019848 -0.770207 0.000000 0.000000
    55 -0.586770 -1.264477 0.200161 -0.625736 -0.903591 -2.015417
    56 1.522835 0.058681 0.016848 0.001410 0.008985 0.139420
    57 1.117947 0.048424 -0.005766 -0.001945 -0.025126 0.133047
    58 -0.139399 -0.111698 0.014397 0.358632 0.302122 1.681023
    59 -7.210054 6.843022 -0.192557 1.605702 -0.001306 -0.796361
  time 8
    0 22.426466 -13.125403 -39.596326 -4.543119 -0.451083 3.025911
    1 12.144902 -12.017387 -35.134214 -4.543149 -0.451134 3.025911
    2 -6.746239 1.488021 0.000145 -3.141592 1.570796 0.000000
    3 12.144901 11.396547 -8.945915 -5.256799 0.166054 2.703913
    4 22.176457 6.631803 -6.982050 -5.256761 0.166054 2.703913
    5 -6.884506 0.045362 -0.000546 3.141591 1.570796 0.000000
    6 -33.148422 39.600525 3.921634 0.000000 0.000000 0.000000
    7 -16.313324 12.403505 11.858739 1.504637 -0.696400 0.409610
    8 0.000000 0.000000 0.000000 0.000000 0.000000 0.000000
    9 0.000000 0.000000 0.000000 0.000000 0.000000 0.000000
    10 0.000000 0.000000 -0.000002 0.000000 0.000000 0.000000
    11 0.000001 -0.000002 -0.000004 0.000000 0.000000 0.000000
    12 -59.593906 10.219164 0.000000 0.000000 0.000000 0.000000
    13 -10.000088 10.000000 0.000000 0.000000 0.000000 0.000000
    14 10.000000 10.000000 0.000000 0.000000 0.000000 0.000000
    15 9.999908 -10.000000 0.000000 0.000000 0.000000 0.000000
    16 -9.999996 -10.000000 0.000000 0.000000 0.000000 0.000000
    17 8.297502 1.873835 -0.833016 1.566653 -0.564520 -2.759211
    18 8.360184 2.109215 0.930654 0.921809 -0.364005 0.384206
    19 8.130560 2.232922 0.862472 1.552574 -0.417441 0.661589
    20 8.262385 2.367609 -0.906657 0.679593 -0.758166 -2.316103
    21 -2.424590 -0.002752 -3.503394 0.000000 0.000000 1.570796
    22 10.892183 -14.096757 -15.222102 5.878805 2.683652 -1.381557
    23 7.230018 6.895340 -0.571695 1.424131 -3.103207 0.850492
    24 -0.071921 -8.498736 -0.104134 0.130439 0.262088 0.054264
    25 -0.488518 -2.755602 -0.228260 0.097607 0.014658 -0.256329
    26 0.039887 -1.479790 0.029854 -0.081198 0.000000 0.000001
    27 0.028786 -1.075731 -0.023109 0.002626 0.000000 0.000000
    28 0.250027 -2.820665 -0.238396 0.051285 -0.002921 0.008443
    29 -0.049759 -1.680544 0.100479 -0.003467 0.000000 -0.000002
    30 -0.034142 -1.148312 0.084782 -0.022877 0.000000 0.000000
    31 0.957766 -2.746780 -0.090302 0.029683 -0.153984 0.173054
    32 -0.033420 -1.397129 -0.011257 -0.009360 0.000000 -0.000001
    33 -0.022360 -0.957436 0.018784 0.021076 0.000000 0.000000
    34 -1.180681 -2.507217 -0.193859 0.065495 0.024140 -0.462698
    35 -0.024967 -1.123934 0.017597 -0.055477 0.000000 0.000001
    36 -0.020057 -0.890968 0.010090 -0.062861 0.000000 0.000000
    37 0.583510 -1.197277 0.185379 0.182295 -0.419843 -0.405752
    38 1.535927 0.010246 0.005009 -0.002964 -0.012979 -0.016834
    39 1.100771 0.004527 -0.010679 -0.003108 0.015889 -0.016701
    40 0.120153 -0.050270 -0.054489 0.287569 3.110905 1.561085
    41 -11.103131 -13.622141 -2.942779 -0.207854 -3.115784 1.017480
    42 0.096944 -8.450418 -0.009365 0.092986 0.221680 -0.146873
    43 0.447953 -2.798986 -0.200443 -0.595986 0.007042 0.102403
    44 -0.032909 -1.480204 0.004940 -1.066782 0.000000 0.000002
    45 -0.027022 -1.076920 -0.020210 -0.472774 0.000000 0.000000
    46 -0.249534 -2.846964 -0.174213 -0.051981 -0.000125 -0.008396
    47 0.043235 -1.683941 0.096012 -0.635672 0.002823 -0.000167
    48 0.031729 -1.160830 0.058838 -0.362149 0.000642 0.008372
    49 -0.963866 -2.785145 -0.085350 -0.146830 0.163163 -0.073052
    50 0.028479 -1.403067 0.006271 -0.287623 0.000000 0.000000
    51 0.021413 -0.957781 0.020046 0.165827 0.000000 0.000000
    52 1.164475 -2.543940 -0.170330 -0.840950 0.010016 0.200245
    53 0.024032 -1.129042 0.017807 -1.008850 0.000000 0.000001
    54 0.014898 -0.883989 -0.019848 -0.586751 0.000000 0.000000
    55 -0.586770 -1.264477 0.200161 -0.696853 -0.879709 -2.019882
    56 1.522835 0.058681 0.016848 0.001410 0.008985 0.139420
    57 1.117947 0.048424 -0.005766 -0.006607 -0.023592 0.330090
    58 -0.139399 -0.111698 0.014397 0.358632 0.302122 1.681023
    59 -7.210054 6.843022 -0.192557 1.605702 -0.001306 -0.796361
  time 9
    0 22.426466 -13.125403 -39.596326 -4.543119 -0.451083 3.025911
    1 12.144902 -12.017387 -35.134214 -4.543149 -0.451134 3.025911
    2 -6.746239 1.488021 0.000145 -3.141592 1.570796 0.000000
    3 12.144901 11.396547 -9.219361 -5.300113 0.132716 2.671171
    4 22.067079 6.276323 -7.630507 -5.300082 0.132716 2.671171
    5 -6.884506 0.045362 -0.000546 3.141591 1.570796 0.000000
    6 -33.148422 39.600525 3.921634 0.000000 0.000000 0.000000
    7 -16.313324 12.403505 11.858739 1.504637 -0.696400 0.409610
    8 0.000000 0.000000 0.000000 0.000000 0.000000 0.000000
    9 0.000000 0.000000 0.000000 0.000000 0.000000 0.000000
    10 0.000000 0.000000 -0.000002 0.000000 0.000000 0.000000
    11 0.000001 -0.000002 -0.000004 0.000000 0.000000 0.000000
    12 -59.593906 10.219164 0.000000 0.000000 0.000000 0.000000
    13 -10.000088 10.000000 0.000000 0.000000 0.000000 0.000000
    14 10.000000 10.000000 0.000000 0.000000 0.000000 0.000000
    15 9.999908 -10.000000 0.000000 0.000000 0.000000 0.000000
    16 -9.999996 -10.000000 0.000000 0.000000 0.000000 0.000000
    17 8.297502 1.873835 -0.833016 1.566653 -0.564520 -2.759211
    18 8.360184 2.109215 0.930654 0.921809 -0.364005 0.384206
    19 8.130560 2.232922 0.862472 1.552574 -0.417441 0.661589
    20 8.262385 2.367609 -0.906657 0.679593 -0.758166 -2.316103
    21 -2.424590 -0.002752 -3.503394 0.000000 0.000000 1.570796
    22 10.892183 -14.096757 -15.222102 5.878805 2.683652 -1.381557
    23 7.230018 6.895340 -0.571695 1.424131 -3.103207 0.850492
    24 -0.071921 -8.498736 -0.104134 0.149619 0.276097 0.062859
    25 -0.488518 -2.755602 -0.228260 0.104218 0.011495 -0.262297
    26 0.039887 -1.479790 0.029854 -0.062151 0.000000 0.000001
    27 0.028786 -1.075731 -0.023109 0.002216 0.000000 0.000000
    28 0.250027 -2.820665 -0.238396 0.044352 -0.002921 0.008443
    29 -0.049759 -1.680544 0.100479 0.013742 0.000000 -0.000002
    30 -0.034142 -1.148312 0.084782 -0.035487 0.000000 0.000000
    31 0.957766 -2.746780 -0.090302 -0.004596 -0.160048 0.186584
    32 -0.033420 -1.397129 -0.011257 0.007824 0.000000 -0.000001
    33 -0.022360 -0.957436 0.018784 0.008484 0.000000 0.000000
    34 -1.180681 -2.507217 -0.193859 0.078460 0.016206 -0.473817
    35 -0.024967 -1.123934 0.017597 -0.027986 0.000000 0.000001
    36 -0.020057 -0.890968 0.010090 -0.061268 0.000000 0.000000
    37 0.583510 -1.197277 0.185379 0.164563 -0.408914 -0.375437
    38 1.535927 0.010246 0.005009 -0.002964 -0.012979 -0.003735
    39 1.100771 0.004527 -0.010679 -0.002868 0.015949 -0.001852
    40 0.120153 -0.050270 -0.054489 0.287569 3.110905 1.561085
    41 -10.224198 -13.622141 -2.786525 -0.043475 -3.139216 0.959411
    42 0.096944 -8.450418 -0.009365 0.050256 0.221680 -0.146873
    43 0.447953 -2.798986 -0.200443 -0.483905 0.007042 0.102403
    44 -0.032909 -1.480204 0.004940 -0.829527 0.000000 0.000002
    45 -0.027022 -1.076920 -0.020210 -0.289320 0.000000 0.000000
    46 -0.249534 -2.846964 -0.174213 -0.099020 -0.000125 -0.008396
    47 0.043235 -1.683941 0.096012 -0.682710 0.002823 -0.000167
    48 0.031729 -1.160830 0.058838 -0.409181 0.000642 0.008372
    49 -0.963866 -2.785145 -0.085350 -0.193858 0.163163 -0.073052
    50 0.028479 -1.403067 0.006271 -0.334686 0.000000 0.000000
    51 0.021413 -0.957781 0.020046 0.118815 0.000000 0.000000
    52 1.164475 -2.543940 -0.170330 -0.728858 0.010016 0.200245
    53 0.024032 -1.129042 0.017807 -0.771626 0.000000 0.000001
    54 0.014898 -0.883989 -0.019848 -0.403296 0.000000 0.000000
    55 -0.586770 -1.264477 0.200161 -0.767970 -0.855827 -2.024346
    56 1.522835 0.058681 0.016848 0.001410 0.008985 0.139420
    57 1.117947 0.048424 -0.005766 -0.011281 -0.022046 0.527134
    58 -0.139399 -0.111698 0.014397 0.358632 0.302122 1.681023
    59 -7.210054 6.843022 -0.192557 1.605702 -0.001306 -0.796361
  time 10
    0 22.426466 -13.125403 -39.596326 -4.543119 -0.451083 3.025911
    1 12.144902 -12.017387 -35.134214 -4.543149 -0.451134 3.025911
    2 -6.746239 1.488021 0.000145 -3.141592 1.570796 0.000000
    3 12.144901 11.396547 -9.492807 -5.315925 0.099315 2.664757
    4 22.074891 6.190383 -8.278964 -5.315861 0.099315 2.664757
    5 -6.884506 0.045362 -0.000546 3.141591 1.570796 0.000000
    6 -33.148422 39.600525 3.921634 0.000000 0.000000 0.000000
    7 -16.313324 12.403505 11.858739 1.504637 -0.696400 0.409610
    8 0.000000 0.000000 0.000000 0.000000 0.000000 0.000000
    9 0.000000 0.000000 0.000000 0.000000 0.000000 0.000000
    10 0.000000 0.000000 -0.000002 0.000000 0.000000 0.000000
    11 0.000001 -0.000002 -0.000004 0.000000 0.000000 0.000000
    12 -59.593906 10.219164 0.000000 0.000000 0.000000 0.000000
    13 -10.000088 10.000000 0.000000 0.000000 0.000000 0.000000
    14 10.000000 10.000000 0.000000 0.000000 0.000000 0.000000
    15 9.999908 -10.000000 0.000000 0.000000 0.000000 0.000000
    16 -9.999996 -10.000000 0.000000 0.000000 0.000000 0.000000
    17 8.297502 1.873835 -0.833016 1.566653 -0.564520 -2.759211
    18 8.360184 2.109215 0.930654 0.921809 -0.364005 0.384206
    19 8.130560 2.232922 0.862472 1.552574 -0.417441 0.661589
    20 8.262385 2.367609 -0.906657 0.679593 -0.758166 -2.316103
    21 -2.424590 -0.002752 -3.503394 0.000000 0.000000 1.570796
    22 10.892183 -14.096757 -15.222102 5.878805 2.683652 -1.381557
    23 7.230018 6.895340 -0.571695 1.424131 -3.103207 0.850492
    24 -0.071921 -8.498736 -0.104134 0.156625 0.281227 0.066041
    25 -0.488518 -2.755602 -0.228260 0.106454 0.010332 -0.264490
    26 0.039887 -1.479790 0.029854 -0.055395 0.000000 0.000001
    27 0.028786 -1.075731 -0.023109 0.002099 0.000000 0.000000
    28 0.250027 -2.820665 -0.238396 0.041826 -0.002921 0.008443
    29 -0.049759 -1.680544 0.100479 0.019826 0.000000 -0.000002
    30 -0.034142 -1.148312 0.084782 -0.040115 0.000000 0.000000
    31 0.957766 -2.746780 -0.090302 -0.017221 -0.162277 0.191558
    32 -0.033420 -1.397129 -0.011257 0.013931 0.000000 -0.000001
    33 -0.022360 -0.957436 0.018784 0.003845 0.000000 0.000000
    34 -1.180681 -2.507217 -0.193859 0.082999 0.013294 -0.477915
    35 -0.024967 -1.123934 0.017597 -0.018065 0.000000 0.000001
    36 -0.020057 -0.890968 0.010090 -0.060797 0.000000 0.000000
    37 0.583510 -1.197277 0.185379 0.158049 -0.404973 -0.364290
    38 1.535927 0.010246 0.005009 -0.002964 -0.012979 0.000887
    39 1.100771 0.004527 -0.010679 -0.002796 0.015973 0.003458
    40 0.120153 -0.050270 -0.054489 0.287569 3.110905 1.561085
    41 -9.794497 -13.622141 -2.763086 0.044986 -3.147155 0.928135
    42 0.096944 -8.450418 -0.009365 0.007553 0.221680 -0.146873
    43 0.447953 -2.798986 -0.200443 -0.432949 0.007042 0.102403
    44 -0.032909 -1.480204 0.004940 -0.721714 0.000000 0.000002
    45 -0.027022 -1.076920 -0.020210 -0.205919 0.000000 0.000000
    46 -0.249534 -2.846964 -0.174213 -0.146038 -0.000125 -0.008396
    47 0.043235 -1.683941 0.096012 -0.729693 0.002823 -0.000167
    48 0.031729 -1.160830 0.058838 -0.456187 0.000642 0.008372
    49 -0.963866 -2.785145 -0.085350 -0.240872 0.163163 -0.073052
    50 0.028479 -1.403067 0.006271 -0.381709 0.000000 0.000000
    51 0.021413 -0.957781 0.020046 0.071783 0.000000 0.000000
    52 1.164475 -2.543940 -0.170330 -0.677886 0.010016 0.200245
    53 0.024032 -1.129042 0.017807 -0.663804 0.000000 0.000001
    54 0.014898 -0.883989 -0.019848 -0.319901 0.000000 0.000000
    55 -0.586770 -1.264477 0.200161 -0.800294 -0.844960 -2.026371
    56 1.522835 0.058681 0.016848 0.001410 0.008985 0.139420
    57 1.117947 0.048424 -0.005766 -0.013402 -0.021351 0.616686
    58 -0.139399 -0.111698 0.014397 0.358632 0.302122 1.681023
    59 -7.210054 6.843022 -0.192557 1.605702 -0.001306 -0.796361
end
