version 1
nodes
  0 "Bone01" -1
  1 "Bone_Lefthand" 0
  2 "Bone02" 1
  3 "Bone03" 2
  4 "Bone52" 3
  5 "Bone48" 3
  6 "Bone25" 3
  7 "Bone50" 3
  8 "Bone54" 3
  9 "Bone04" -1
  10 "Bone_Righthand" 9
  11 "Bone27" 10
  12 "Bone28" 11
  13 "Bone29" 12
  14 "Bone31" 10
  15 "Bone32" 14
  16 "Bone33" 15
  17 "Bone35" 10
  18 "Bone36" 17
  19 "Bone37" 18
  20 "Bone39" 10
  21 "Bone40" 20
  22 "Bone41" 21
  23 "Bone43" 10
  24 "Bone44" 23
  25 "Bone45" 24
  26 "Bone_Se_Hand-R" 10
  27 "Bone05" 1
  28 "Bone06" 27
  29 "Bone07" 28
  30 "Bone21" 1
  31 "Bone22" 30
  32 "Bone23" 31
  33 "Bone17" 1
  34 "Bone18" 33
  35 "Bone19" 34
  36 "Bone13" 1
  37 "Bone14" 36
  38 "Bone15" 37
  39 "Bone09" 1
  40 "Bone10" 39
  41 "Bone11" 40
  42 "Bone_Se_Hand-L" 1
end
skeleton
  time 0
    0 6.653340 3.726546 -5.927479 -0.910956 -1.306407 0.699564
    1 -0.071917 -8.498732 -0.104136 0.313300 -0.153809 -0.180541
    2 -0.252194 -4.514323 0.852150 -1.061842 1.466010 -1.048336
    3 -0.000001 2.617617 0.665015 0.000000 0.000000 0.000000
    4 0.000000 -1.655466 2.278033 0.000000 0.000000 0.000000
    5 0.000000 -1.796959 1.330032 0.000000 0.000000 0.000000
    6 0.000001 -2.886454 1.471525 0.183256 0.000000 0.000000
    7 0.000000 -0.778211 1.774024 -0.000021 0.000000 0.000000
    8 0.000000 -1.598869 0.580120 0.000000 0.000000 0.000000
    9 -1.809088 0.230605 -9.993073 -0.427228 -0.041350 0.629321
    10 0.096946 -8.450418 -0.009364 0.072740 -0.329122 0.475302
    11 -0.586769 -1.264477 0.200165 -0.282470 -0.582878 -2.509428
    12 1.522835 0.058679 0.016851 0.000000 0.000000 0.446604
    13 1.117948 0.048425 -0.005765 0.015939 -0.000477 0.859148
    14 -0.963866 -2.785144 -0.085346 -0.342483 0.185746 -0.010101
    15 0.028479 -1.403067 0.006271 -0.815979 0.000000 0.000000
    16 0.021412 -0.957781 0.020047 -0.445059 0.000000 0.000000
    17 -0.249534 -2.846964 -0.174215 -0.012978 0.031261 0.129804
    18 0.043234 -1.683940 0.096014 -1.668295 0.000000 0.000000
    19 0.031730 -1.160831 0.058835 0.119114 0.000000 0.000000
    20 0.447951 -2.798983 -0.200442 -0.148382 0.067808 0.126894
    21 -0.032910 -1.480207 0.004935 -1.409715 0.000000 0.000000
    22 -0.027023 -1.076920 -0.020211 0.112912 0.000000 0.000000
    23 1.164474 -2.543938 -0.170326 -0.222289 -0.030232 0.124244
    24 0.024032 -1.129040 0.017806 -1.058217 0.000000 0.000000
    25 0.014897 -0.883992 -0.019845 -0.305455 0.000000 0.000000
    26 -0.026406 -0.138455 -0.019867 0.287061 0.027381 1.346366
    27 0.583509 -1.197273 0.185379 0.339227 -0.969650 -0.814052
    28 1.535926 0.010247 0.005008 -0.326444 -0.010942 -1.015318
    29 1.100770 0.004528 -0.010676 -0.000003 -0.000001 -0.488690
    30 0.957766 -2.746777 -0.090301 -0.233911 -0.030190 0.091702
    31 -0.033419 -1.397128 -0.011256 -0.541191 0.000000 0.000000
    32 -0.022361 -0.957433 0.018782 -1.075099 0.000000 0.000000
    33 0.250028 -2.820664 -0.238397 -0.470596 0.001394 -0.072461
    34 -0.049759 -1.680544 0.100479 -1.606138 0.000000 0.000000
    35 -0.034141 -1.148311 0.084779 -1.483556 0.000000 0.000000
    36 -0.488517 -2.755600 -0.228261 -0.436149 -0.021506 -0.150745
    37 0.039888 -1.479791 0.029853 -1.503030 0.000000 0.000000
    38 0.028785 -1.075732 -0.023110 -1.633152 0.000000 0.000000
    39 -1.180679 -2.507216 -0.193861 -0.170864 0.143009 -0.128851
    40 -0.024967 -1.123935 0.017594 -0.768586 0.000000 0.000000
    41 -0.020058 -0.890964 0.010091 -1.080190 0.000000 0.000000
    42 0.080903 -0.068755 -0.180384 0.307743 -2.879452 1.540137
  time 1
    0 6.653340 3.726546 -5.927479 -0.984498 -1.277068 0.776089
    1 -0.071917 -8.498732 -0.104136 0.305557 -0.164241 0.120833
    2 -0.252194 -4.514323 0.852150 -1.061842 1.466010 -1.048336
    3 -0.000001 2.617617 0.665015 0.000000 0.000000 0.000000
    4 0.000000 -0.842941 2.278033 0.000000 0.000000 0.000000
    5 0.000000 -1.796959 1.330032 0.000000 0.000000 0.000000
    6 0.000001 -2.886454 1.471525 0.187439 0.000000 0.000000
    7 0.000000 -0.778211 1.774024 -0.270739 0.000000 0.000000
    8 0.000000 -1.598869 0.580120 0.000000 0.000000 0.000000
    9 -1.457514 -0.488166 -9.567279 -0.481047 0.030941 0.589315
    10 0.096946 -8.450418 -0.009364 -0.002419 -0.139654 0.467993
    11 -0.586769 -1.264477 0.200165 -0.282470 -0.582878 -2.509428
    12 1.522835 0.058679 0.016851 0.000000 0.000000 0.446604
    13 1.117948 0.048425 -0.005765 0.015939 -0.000477 0.859148
    14 -0.963866 -2.785144 -0.085346 -0.342483 0.185746 -0.010101
    15 0.028479 -1.403067 0.006271 -0.815979 0.000000 0.000000
    16 0.021412 -0.957781 0.020047 -0.445059 0.000000 0.000000
    17 -0.249534 -2.846964 -0.174215 -0.012978 0.031261 0.129804
    18 0.043234 -1.683940 0.096014 -1.668295 0.000000 0.000000
    19 0.031730 -1.160831 0.058835 0.119114 0.000000 0.000000
    20 0.447951 -2.798983 -0.200442 -0.148382 0.067808 0.126894
    21 -0.032910 -1.480207 0.004935 -1.409715 0.000000 0.000000
    22 -0.027023 -1.076920 -0.020211 0.112912 0.000000 0.000000
    23 1.164474 -2.543938 -0.170326 -0.222289 -0.030232 0.124244
    24 0.024032 -1.129040 0.017806 -1.058217 0.000000 0.000000
    25 0.014897 -0.883992 -0.019845 -0.305455 0.000000 0.000000
    26 -0.026406 -0.138455 -0.019867 0.287061 0.027381 1.346366
    27 0.583509 -1.197273 0.185379 0.339227 -0.969650 -0.814052
    28 1.535926 0.010247 0.005008 -0.326444 -0.010942 -1.015318
    29 1.100770 0.004528 -0.010676 -0.000003 -0.000001 -0.488690
    30 0.957766 -2.746777 -0.090301 -0.233911 -0.030190 0.091702
    31 -0.033419 -1.397128 -0.011256 -0.551600 0.000000 0.000000
    32 -0.022361 -0.957433 0.018782 -1.078659 0.000000 0.000000
    33 0.250028 -2.820664 -0.238397 -0.470596 0.001394 -0.072461
    34 -0.049759 -1.680544 0.100479 -1.606138 0.000000 0.000000
    35 -0.034141 -1.148311 0.084779 -1.483556 0.000000 0.000000
    36 -0.488517 -2.755600 -0.228261 -0.436149 -0.021506 -0.150745
    37 0.039888 -1.479791 0.029853 -1.503030 0.000000 0.000000
    38 0.028785 -1.075732 -0.023110 -1.633152 0.000000 0.000000
    39 -1.180679 -2.507216 -0.193861 -0.170864 0.143009 -0.128851
    40 -0.024967 -1.123935 0.017594 -0.768586 0.000000 0.000000
    41 -0.020058 -0.890964 0.010091 -1.080190 0.000000 0.000000
    42 0.080903 -0.068755 -0.180384 0.307743 -2.879452 1.540137
  time 2
    0 6.653340 3.726546 -5.927479 -1.054035 -1.240624 0.849116
    1 -0.071917 -8.498732 -0.104136 0.303460 -0.164448 0.266796
    2 -0.252194 -4.514323 0.852150 -1.061842 1.466010 -1.048336
    3 -0.000001 2.617617 0.665015 0.000000 0.000000 0.000000
    4 0.000000 -0.030416 2.278033 0.000000 0.000000 0.000000
    5 0.000000 -1.796959 1.330032 0.000000 0.000000 0.000000
    6 0.000001 -2.886454 1.471525 0.195816 0.000000 0.000000
    7 0.000000 -0.778211 1.774024 -0.541477 0.000000 0.000000
    8 0.000000 -1.598869 0.580120 0.000000 0.000000 0.000000
    9 -1.187975 -0.831927 -9.211800 -0.528296 0.085344 0.555593
    10 0.096946 -8.450418 -0.009364 -0.064942 0.005241 0.452761
    11 -0.586769 -1.264477 0.200165 -0.282470 -0.582878 -2.509428
    12 1.522835 0.058679 0.016851 0.000000 0.000000 0.446604
    13 1.117948 0.048425 -0.005765 0.015939 -0.000477 0.859148
    14 -0.963866 -2.785144 -0.085346 -0.342483 0.185746 -0.010101
    15 0.028479 -1.403067 0.006271 -0.815979 0.000000 0.000000
    16 0.021412 -0.957781 0.020047 -0.445059 0.000000 0.000000
    17 -0.249534 -2.846964 -0.174215 -0.012978 0.031261 0.129804
    18 0.043234 -1.683940 0.096014 -1.668295 0.000000 0.000000
    19 0.031730 -1.160831 0.058835 0.119114 0.000000 0.000000
    20 0.447951 -2.798983 -0.200442 -0.148382 0.067808 0.126894
    21 -0.032910 -1.480207 0.004935 -1.409715 0.000000 0.000000
    22 -0.027023 -1.076920 -0.020211 0.112912 0.000000 0.000000
    23 1.164474 -2.543938 -0.170326 -0.222289 -0.030232 0.124244
    24 0.024032 -1.129040 0.017806 -1.058217 0.000000 0.000000
    25 0.014897 -0.883992 -0.019845 -0.305455 0.000000 0.000000
    26 -0.026406 -0.138455 -0.019867 0.287061 0.027381 1.346366
    27 0.583509 -1.197273 0.185379 0.339227 -0.969650 -0.814052
    28 1.535926 0.010247 0.005008 -0.326444 -0.010942 -1.015318
    29 1.100770 0.004528 -0.010676 -0.000003 -0.000001 -0.488690
    30 0.957766 -2.746777 -0.090301 -0.233911 -0.030190 0.091702
    31 -0.033419 -1.397128 -0.011256 -0.572419 0.000000 0.000000
    32 -0.022361 -0.957433 0.018782 -1.085721 0.000000 0.000000
    33 0.250028 -2.820664 -0.238397 -0.470596 0.001394 -0.072461
    34 -0.049759 -1.680544 0.100479 -1.606138 0.000000 0.000000
    35 -0.034141 -1.148311 0.084779 -1.483556 0.000000 0.000000
    36 -0.488517 -2.755600 -0.228261 -0.436149 -0.021506 -0.150745
    37 0.039888 -1.479791 0.029853 -1.503030 0.000000 0.000000
    38 0.028785 -1.075732 -0.023110 -1.633152 0.000000 0.000000
    39 -1.180679 -2.507216 -0.193861 -0.170864 0.143009 -0.128851
    40 -0.024967 -1.123935 0.017594 -0.768586 0.000000 0.000000
    41 -0.020058 -0.890964 0.010091 -1.080190 0.000000 0.000000
    42 0.080903 -0.068755 -0.180384 0.307743 -2.879452 1.540137
  time 3
    0 6.672871 4.199216 -5.857164 -1.102037 -1.208332 0.900133
    1 -0.071917 -8.498732 -0.104136 0.309602 -0.155518 0.255231
    2 -0.252194 -4.514323 0.852150 -1.061842 1.466010 -1.048336
    3 -0.000001 2.617617 0.665015 0.000000 0.000000 0.000000
    4 0.000000 -0.030416 2.278033 0.000000 0.000000 0.000000
    5 0.000000 -1.796959 1.330032 0.000000 0.000000 0.000000
    6 0.000001 -2.886454 1.471525 0.202108 0.000000 0.000000
    7 0.000000 -0.778211 1.774024 -0.680679 0.000000 0.000000
    8 0.000000 -1.598869 0.580120 0.000000 0.000000 0.000000
    9 -0.992657 -0.706923 -8.930541 -0.554178 0.092853 0.550458
    10 0.096946 -8.450418 -0.009364 -0.103964 0.024253 0.454260
    11 -0.586769 -1.264477 0.200165 -0.282470 -0.582878 -2.509428
    12 1.522835 0.058679 0.016851 0.000000 0.000000 0.446604
    13 1.117948 0.048425 -0.005765 0.015939 -0.000477 0.859148
    14 -0.963866 -2.785144 -0.085346 -0.342483 0.185746 -0.010101
    15 0.028479 -1.403067 0.006271 -0.815979 0.000000 0.000000
    16 0.021412 -0.957781 0.020047 -0.445059 0.000000 0.000000
    17 -0.249534 -2.846964 -0.174215 -0.012978 0.031261 0.129804
    18 0.043234 -1.683940 0.096014 -1.668295 0.000000 0.000000
    19 0.031730 -1.160831 0.058835 0.119114 0.000000 0.000000
    20 0.447951 -2.798983 -0.200442 -0.148382 0.067808 0.126894
    21 -0.032910 -1.480207 0.004935 -1.409715 0.000000 0.000000
    22 -0.027023 -1.076920 -0.020211 0.112912 0.000000 0.000000
    23 1.164474 -2.543938 -0.170326 -0.222289 -0.030232 0.124244
    24 0.024032 -1.129040 0.017806 -1.058217 0.000000 0.000000
    25 0.014897 -0.883992 -0.019845 -0.305455 0.000000 0.000000
    26 -0.026406 -0.138455 -0.019867 0.287061 0.027381 1.346366
    27 0.583509 -1.197273 0.185379 0.339227 -0.969650 -0.814052
    28 1.535926 0.010247 0.005008 -0.326444 -0.010942 -1.015318
    29 1.100770 0.004528 -0.010676 -0.000003 -0.000001 -0.488690
    30 0.957766 -2.746777 -0.090301 -0.233911 -0.030190 0.091702
    31 -0.033419 -1.397128 -0.011256 -0.588049 0.000000 0.000000
    32 -0.022361 -0.957433 0.018782 -1.091033 0.000000 0.000000
    33 0.250028 -2.820664 -0.238397 -0.470596 0.001394 -0.072461
    34 -0.049759 -1.680544 0.100479 -1.606138 0.000000 0.000000
    35 -0.034141 -1.148311 0.084779 -1.483556 0.000000 0.000000
    36 -0.488517 -2.755600 -0.228261 -0.436149 -0.021506 -0.150745
    37 0.039888 -1.479791 0.029853 -1.503030 0.000000 0.000000
    38 0.028785 -1.075732 -0.023110 -1.633152 0.000000 0.000000
    39 -1.180679 -2.507216 -0.193861 -0.170864 0.143009 -0.128851
    40 -0.024967 -1.123935 0.017594 -0.768586 0.000000 0.000000
    41 -0.020058 -0.890964 0.010091 -1.080190 0.000000 0.000000
    42 0.080903 -0.068755 -0.180384 0.307743 -2.879452 1.540137
  time 4
    0 6.688497 4.535164 -5.806382 -1.138451 -1.178479 0.939344
    1 -0.071917 -8.498732 -0.104136 0.320929 -0.137687 0.196871
    2 -0.252194 -4.514323 0.852150 -1.061842 1.466010 -1.048336
    3 -0.000001 2.617617 0.665015 0.000000 0.000000 0.000000
    4 0.000000 -0.030416 2.278033 0.000000 0.000000 0.000000
    5 0.000000 -1.796959 1.330032 0.000000 0.000000 0.000000
    6 0.000001 -2.886454 1.471525 0.200011 0.000000 0.000000
    7 0.000000 -0.778211 1.774024 -0.707373 0.000000 0.000000
    8 0.000000 -1.598869 0.580120 0.000000 0.000000 0.000000
    9 -0.883278 -0.370975 -8.715691 -0.557891 0.083209 0.556973
    10 0.096946 -8.450418 -0.009364 -0.099180 -0.010918 0.454567
    11 -0.586769 -1.264477 0.200165 -0.282470 -0.582878 -2.509428
    12 1.522835 0.058679 0.016851 0.000000 0.000000 0.446604
    13 1.117948 0.048425 -0.005765 0.015939 -0.000477 0.859148
    14 -0.963866 -2.785144 -0.085346 -0.342483 0.185746 -0.010101
    15 0.028479 -1.403067 0.006271 -0.815979 0.000000 0.000000
    16 0.021412 -0.957781 0.020047 -0.445059 0.000000 0.000000
    17 -0.249534 -2.846964 -0.174215 -0.012978 0.031261 0.129804
    18 0.043234 -1.683940 0.096014 -1.668295 0.000000 0.000000
    19 0.031730 -1.160831 0.058835 0.119114 0.000000 0.000000
    20 0.447951 -2.798983 -0.200442 -0.148382 0.067808 0.126894
    21 -0.032910 -1.480207 0.004935 -1.409715 0.000000 0.000000
    22 -0.027023 -1.076920 -0.020211 0.112912 0.000000 0.000000
    23 1.164474 -2.543938 -0.170326 -0.222289 -0.030232 0.124244
    24 0.024032 -1.129040 0.017806 -1.058217 0.000000 0.000000
    25 0.014897 -0.883992 -0.019845 -0.305455 0.000000 0.000000
    26 -0.026406 -0.138455 -0.019867 0.287061 0.027381 1.346366
    27 0.583509 -1.197273 0.185379 0.339227 -0.969650 -0.814052
    28 1.535926 0.010247 0.005008 -0.326444 -0.010942 -1.015318
    29 1.100770 0.004528 -0.010676 -0.000003 -0.000001 -0.488690
    30 0.957766 -2.746777 -0.090301 -0.233911 -0.030190 0.091702
    31 -0.033419 -1.397128 -0.011256 -0.582828 0.000000 0.000000
    32 -0.022361 -0.957433 0.018782 -1.089253 0.000000 0.000000
    33 0.250028 -2.820664 -0.238397 -0.470596 0.001394 -0.072461
    34 -0.049759 -1.680544 0.100479 -1.606138 0.000000 0.000000
    35 -0.034141 -1.148311 0.084779 -1.483556 0.000000 0.000000
    36 -0.488517 -2.755600 -0.228261 -0.436149 -0.021506 -0.150745
    37 0.039888 -1.479791 0.029853 -1.503030 0.000000 0.000000
    38 0.028785 -1.075732 -0.023110 -1.633152 0.000000 0.000000
    39 -1.180679 -2.507216 -0.193861 -0.170864 0.143009 -0.128851
    40 -0.024967 -1.123935 0.017594 -0.768586 0.000000 0.000000
    41 -0.020058 -0.890964 0.010091 -1.080190 0.000000 0.000000
    42 0.080903 -0.068755 -0.180384 0.307743 -2.879452 1.540137
  time 5
    0 6.696310 4.734389 -5.775131 -1.163132 -1.154875 0.966164
    1 -0.071917 -8.498732 -0.104136 0.332222 -0.116368 0.107964
    2 -0.252194 -4.514323 0.852150 -1.061842 1.466010 -1.048336
    3 -0.000001 2.617617 0.665015 0.000000 0.000000 0.000000
    4 0.000000 -0.030416 2.278033 0.000000 0.000000 0.000000
    5 0.000000 -1.796959 1.330032 0.000000 0.000000 0.000000
    6 0.000001 -2.886454 1.471525 0.183256 0.000000 0.000000
    7 0.000000 -0.778211 1.774024 -0.728603 0.000000 0.000000
    8 0.000000 -1.598869 0.580120 0.000000 0.000000 0.000000
    9 -0.914529 -0.011589 -8.547717 -0.541437 0.078866 0.561648
    10 0.096946 -8.450418 -0.009364 -0.034320 -0.048592 0.432911
    11 -0.586769 -1.264477 0.200165 -0.282470 -0.582878 -2.509428
    12 1.522835 0.058679 0.016851 0.000000 0.000000 0.446604
    13 1.117948 0.048425 -0.005765 0.015939 -0.000477 0.859148
    14 -0.963866 -2.785144 -0.085346 -0.342483 0.185746 -0.010101
    15 0.028479 -1.403067 0.006271 -0.815979 0.000000 0.000000
    16 0.021412 -0.957781 0.020047 -0.445059 0.000000 0.000000
    17 -0.249534 -2.846964 -0.174215 -0.012978 0.031261 0.129804
    18 0.043234 -1.683940 0.096014 -1.668295 0.000000 0.000000
    19 0.031730 -1.160831 0.058835 0.119114 0.000000 0.000000
    20 0.447951 -2.798983 -0.200442 -0.148382 0.067808 0.126894
    21 -0.032910 -1.480207 0.004935 -1.409715 0.000000 0.000000
    22 -0.027023 -1.076920 -0.020211 0.112912 0.000000 0.000000
    23 1.164474 -2.543938 -0.170326 -0.222289 -0.030232 0.124244
    24 0.024032 -1.129040 0.017806 -1.058217 0.000000 0.000000
    25 0.014897 -0.883992 -0.019845 -0.305455 0.000000 0.000000
    26 -0.026406 -0.138455 -0.019867 0.287061 0.027381 1.346366
    27 0.583509 -1.197273 0.185379 0.339227 -0.969650 -0.814052
    28 1.535926 0.010247 0.005008 -0.326444 -0.010942 -1.015318
    29 1.100770 0.004528 -0.010676 -0.000003 -0.000001 -0.488690
    30 0.957766 -2.746777 -0.090301 -0.233911 -0.030190 0.091702
    31 -0.033419 -1.397128 -0.011256 -0.541191 0.000000 0.000000
    32 -0.022361 -0.957433 0.018782 -1.075099 0.000000 0.000000
    33 0.250028 -2.820664 -0.238397 -0.470596 0.001394 -0.072461
    34 -0.049759 -1.680544 0.100479 -1.606138 0.000000 0.000000
    35 -0.034141 -1.148311 0.084779 -1.483556 0.000000 0.000000
    36 -0.488517 -2.755600 -0.228261 -0.436149 -0.021506 -0.150745
    37 0.039888 -1.479791 0.029853 -1.503030 0.000000 0.000000
    38 0.028785 -1.075732 -0.023110 -1.633152 0.000000 0.000000
    39 -1.180679 -2.507216 -0.193861 -0.170864 0.143009 -0.128851
    40 -0.024967 -1.123935 0.017594 -0.768586 0.000000 0.000000
    41 -0.020058 -0.890964 0.010091 -1.080190 0.000000 0.000000
    42 0.080903 -0.068755 -0.180384 0.307743 -2.879452 1.540137
  time 6
    0 6.696310 4.800797 -5.763412 -1.166494 -1.151365 0.969881
    1 -0.071917 -8.498732 -0.104136 0.341055 -0.094954 0.008903
    2 -0.252194 -4.514323 0.852150 -1.061842 1.466010 -1.048336
    3 -0.000001 2.617617 0.665015 0.000000 0.000000 0.000000
    4 0.000000 -0.030416 2.278033 0.000000 0.000000 0.000000
    5 0.000000 -1.796959 1.330032 0.000000 0.000000 0.000000
    6 0.000001 -2.886454 1.471525 0.087619 0.000000 0.000000
    7 0.000000 -0.778211 1.774024 -0.744806 0.000000 0.000000
    8 0.000000 -1.598869 0.580120 0.000000 0.000000 0.000000
    9 -1.074690 0.437643 -8.434432 -0.516698 0.073786 0.567702
    10 0.096946 -8.450418 -0.009364 0.055795 -0.093118 0.401016
    11 -0.586769 -1.264477 0.200165 -0.282470 -0.582878 -2.509428
    12 1.522835 0.058679 0.016851 0.000000 0.000000 0.446604
    13 1.117948 0.048425 -0.005765 0.015939 -0.000477 0.859148
    14 -0.963866 -2.785144 -0.085346 -0.342483 0.185746 -0.010101
    15 0.028479 -1.403067 0.006271 -0.815979 0.000000 0.000000
    16 0.021412 -0.957781 0.020047 -0.445059 0.000000 0.000000
    17 -0.249534 -2.846964 -0.174215 -0.012978 0.031261 0.129804
    18 0.043234 -1.683940 0.096014 -1.668295 0.000000 0.000000
    19 0.031730 -1.160831 0.058835 0.119114 0.000000 0.000000
    20 0.447951 -2.798983 -0.200442 -0.148382 0.067808 0.126894
    21 -0.032910 -1.480207 0.004935 -1.409715 0.000000 0.000000
    22 -0.027023 -1.076920 -0.020211 0.112912 0.000000 0.000000
    23 1.164474 -2.543938 -0.170326 -0.222289 -0.030232 0.124244
    24 0.024032 -1.129040 0.017806 -1.058217 0.000000 0.000000
    25 0.014897 -0.883992 -0.019845 -0.305455 0.000000 0.000000
    26 -0.026406 -0.138455 -0.019867 0.287061 0.027381 1.346366
    27 0.583509 -1.197273 0.185379 0.339227 -0.969650 -0.814052
    28 1.535926 0.010247 0.005008 -0.326444 -0.010942 -1.015318
    29 1.100770 0.004528 -0.010676 -0.000003 -0.000001 -0.488690
    30 0.957766 -2.746777 -0.090301 -0.233911 -0.030190 0.091702
    31 -0.033419 -1.397128 -0.011256 -0.303485 0.000000 0.000000
    32 -0.022361 -0.957433 0.018782 -1.033658 0.000000 0.000000
    33 0.250028 -2.820664 -0.238397 -0.470596 0.001394 -0.072461
    34 -0.049759 -1.680544 0.100479 -1.606138 0.000000 0.000000
    35 -0.034141 -1.148311 0.084779 -1.483556 0.000000 0.000000
    36 -0.488517 -2.755600 -0.228261 -0.436149 -0.021506 -0.150745
    37 0.039888 -1.479791 0.029853 -1.503030 0.000000 0.000000
    38 0.028785 -1.075732 -0.023110 -1.633152 0.000000 0.000000
    39 -1.180679 -2.507216 -0.193861 -0.170864 0.143009 -0.128851
    40 -0.024967 -1.123935 0.017594 -0.768586 0.000000 0.000000
    41 -0.020058 -0.890964 0.010091 -1.080190 0.000000 0.000000
    42 0.080903 -0.068755 -0.180384 0.307743 -2.879452 1.540137
  time 7
    0 6.696310 4.781265 -5.786850 -1.164348 -1.153612 0.967476
    1 -0.071917 -8.498732 -0.104136 0.346504 -0.077522 -0.080219
    2 -0.252194 -4.514323 0.852150 -1.061842 1.466010 -1.048336
    3 -0.000001 2.617617 0.665015 0.000000 0.000000 0.000000
    4 0.000000 -0.030416 2.278033 0.000000 0.000000 0.000000
    5 0.000000 -1.796959 1.330032 0.000000 0.000000 0.000000
    6 0.000001 -2.886454 1.471525 0.000000 0.000000 0.000000
    7 0.000000 -0.778211 1.774024 -0.756439 0.000000 0.000000
    8 0.000000 -1.598869 0.580120 0.000000 0.000000 0.000000
    9 -1.246571 0.851718 -8.387556 -0.489789 0.067308 0.572378
    10 0.096946 -8.450418 -0.009364 0.146073 -0.131890 0.365661
    11 -0.586769 -1.264477 0.200165 -0.282470 -0.582878 -2.509428
    12 1.522835 0.058679 0.016851 0.000000 0.000000 0.446604
    13 1.117948 0.048425 -0.005765 0.015939 -0.000477 0.859148
    14 -0.963866 -2.785144 -0.085346 -0.342483 0.185746 -0.010101
    15 0.028479 -1.403067 0.006271 -0.815979 0.000000 0.000000
    16 0.021412 -0.957781 0.020047 -0.445059 0.000000 0.000000
    17 -0.249534 -2.846964 -0.174215 -0.012978 0.031261 0.129804
    18 0.043234 -1.683940 0.096014 -1.668295 0.000000 0.000000
    19 0.031730 -1.160831 0.058835 0.119114 0.000000 0.000000
    20 0.447951 -2.798983 -0.200442 -0.148382 0.067808 0.126894
    21 -0.032910 -1.480207 0.004935 -1.409715 0.000000 0.000000
    22 -0.027023 -1.076920 -0.020211 0.112912 0.000000 0.000000
    23 1.164474 -2.543938 -0.170326 -0.222289 -0.030232 0.124244
    24 0.024032 -1.129040 0.017806 -1.058217 0.000000 0.000000
    25 0.014897 -0.883992 -0.019845 -0.305455 0.000000 0.000000
    26 -0.026406 -0.138455 -0.019867 0.287061 0.027381 1.346366
    27 0.583509 -1.197273 0.185379 0.339227 -0.969650 -0.814052
    28 1.535926 0.010247 0.005008 -0.326444 -0.010942 -1.015318
    29 1.100770 0.004528 -0.010676 -0.000003 -0.000001 -0.488690
    30 0.957766 -2.746777 -0.090301 -0.233911 -0.030190 0.091702
    31 -0.033419 -1.397128 -0.011256 -0.085680 0.000000 0.000000
    32 -0.022361 -0.957433 0.018782 -0.970096 0.000000 0.000000
    33 0.250028 -2.820664 -0.238397 -0.470596 0.001394 -0.072461
    34 -0.049759 -1.680544 0.100479 -1.606138 0.000000 0.000000
    35 -0.034141 -1.148311 0.084779 -1.483556 0.000000 0.000000
    36 -0.488517 -2.755600 -0.228261 -0.436149 -0.021506 -0.150745
    37 0.039888 -1.479791 0.029853 -1.503030 0.000000 0.000000
    38 0.028785 -1.075732 -0.023110 -1.633152 0.000000 0.000000
    39 -1.180679 -2.507216 -0.193861 -0.170864 0.143009 -0.128851
    40 -0.024967 -1.123935 0.017594 -0.768586 0.000000 0.000000
    41 -0.020058 -0.890964 0.010091 -1.080190 0.000000 0.000000
    42 0.080903 -0.068755 -0.180384 0.307743 -2.879452 1.540137
  time 8
    0 6.696310 4.726576 -5.845445 -1.156264 -1.161723 0.958730
    1 -0.071917 -8.498732 -0.104136 0.349047 -0.068399 -0.139433
    2 -0.252194 -4.514323 0.852150 -1.061842 1.466010 -1.048336
    3 -0.000001 2.617617 0.665015 0.000000 0.000000 0.000000
    4 0.000000 -0.030416 2.278033 0.000000 0.000000 0.000000
    5 0.000000 -1.796959 1.330032 0.000000 0.000000 0.000000
    6 0.000001 -2.886454 1.471525 -0.008941 0.000000 0.000000
    7 0.000000 -0.778211 1.774024 -0.763897 0.000000 0.000000
    8 0.000000 -1.598869 0.580120 0.000000 0.000000 0.000000
    9 -1.316885 1.117351 -8.418807 -0.466707 0.059063 0.572837
    10 0.096946 -8.450418 -0.009364 0.209710 -0.155322 0.337651
    11 -0.586769 -1.264477 0.200165 -0.282470 -0.582878 -2.509428
    12 1.522835 0.058679 0.016851 0.000000 0.000000 0.446604
    13 1.117948 0.048425 -0.005765 0.015939 -0.000477 0.859148
    14 -0.963866 -2.785144 -0.085346 -0.342483 0.185746 -0.010101
    15 0.028479 -1.403067 0.006271 -0.815979 0.000000 0.000000
    16 0.021412 -0.957781 0.020047 -0.445059 0.000000 0.000000
    17 -0.249534 -2.846964 -0.174215 -0.012978 0.031261 0.129804
    18 0.043234 -1.683940 0.096014 -1.668295 0.000000 0.000000
    19 0.031730 -1.160831 0.058835 0.119114 0.000000 0.000000
    20 0.447951 -2.798983 -0.200442 -0.148382 0.067808 0.126894
    21 -0.032910 -1.480207 0.004935 -1.409715 0.000000 0.000000
    22 -0.027023 -1.076920 -0.020211 0.112912 0.000000 0.000000
    23 1.164474 -2.543938 -0.170326 -0.222289 -0.030232 0.124244
    24 0.024032 -1.129040 0.017806 -1.058217 0.000000 0.000000
    25 0.014897 -0.883992 -0.019845 -0.305455 0.000000 0.000000
    26 -0.026406 -0.138455 -0.019867 0.287061 0.027381 1.346366
    27 0.583509 -1.197273 0.185379 0.339227 -0.969650 -0.814052
    28 1.535926 0.010247 0.005008 -0.326444 -0.010942 -1.015318
    29 1.100770 0.004528 -0.010676 -0.000003 -0.000001 -0.488690
    30 0.957766 -2.746777 -0.090301 -0.233911 -0.030190 0.091702
    31 -0.033419 -1.397128 -0.011256 -0.063438 0.000000 0.000000
    32 -0.022361 -0.957433 0.018782 -0.909307 0.000000 0.000000
    33 0.250028 -2.820664 -0.238397 -0.470596 0.001394 -0.072461
    34 -0.049759 -1.680544 0.100479 -1.606138 0.000000 0.000000
    35 -0.034141 -1.148311 0.084779 -1.483556 0.000000 0.000000
    36 -0.488517 -2.755600 -0.228261 -0.436149 -0.021506 -0.150745
    37 0.039888 -1.479791 0.029853 -1.503030 0.000000 0.000000
    38 0.028785 -1.075732 -0.023110 -1.633152 0.000000 0.000000
    39 -1.180679 -2.507216 -0.193861 -0.170864 0.143009 -0.128851
    40 -0.024967 -1.123935 0.017594 -0.768586 0.000000 0.000000
    41 -0.020058 -0.890964 0.010091 -1.080190 0.000000 0.000000
    42 0.080903 -0.068755 -0.180384 0.307743 -2.879452 1.540137
  time 9
    0 6.696310 4.644543 -5.931385 -1.140526 -1.176617 0.941603
    1 -0.071917 -8.498732 -0.104136 0.350021 -0.067738 -0.170729
    2 -0.252194 -4.514323 0.852150 -1.061842 1.466010 -1.048336
    3 -0.000001 2.617617 0.665015 0.000000 0.000000 0.000000
    4 0.000000 -0.030416 2.278033 0.000000 0.000000 0.000000
    5 0.000000 -1.796959 1.330032 0.000000 0.000000 0.000000
    6 0.000001 -2.886454 1.471525 -0.015580 0.000000 0.000000
    7 0.000000 -0.778211 1.774024 -0.767678 0.000000 0.000000
    8 0.000000 -1.598869 0.580120 0.000000 0.000000 0.000000
    9 -1.258290 1.179853 -8.563342 -0.446253 0.048904 0.568009
    10 0.096946 -8.450418 -0.009364 0.248166 -0.164443 0.317205
    11 -0.586769 -1.264477 0.200165 -0.282470 -0.582878 -2.509428
    12 1.522835 0.058679 0.016851 0.000000 0.000000 0.446604
    13 1.117948 0.048425 -0.005765 0.015939 -0.000477 0.859148
    14 -0.963866 -2.785144 -0.085346 -0.342483 0.185746 -0.010101
    15 0.028479 -1.403067 0.006271 -0.815979 0.000000 0.000000
    16 0.021412 -0.957781 0.020047 -0.445059 0.000000 0.000000
    17 -0.249534 -2.846964 -0.174215 -0.012978 0.031261 0.129804
    18 0.043234 -1.683940 0.096014 -1.668295 0.000000 0.000000
    19 0.031730 -1.160831 0.058835 0.119114 0.000000 0.000000
    20 0.447951 -2.798983 -0.200442 -0.148382 0.067808 0.126894
    21 -0.032910 -1.480207 0.004935 -1.409715 0.000000 0.000000
    22 -0.027023 -1.076920 -0.020211 0.112912 0.000000 0.000000
    23 1.164474 -2.543938 -0.170326 -0.222289 -0.030232 0.124244
    24 0.024032 -1.129040 0.017806 -1.058217 0.000000 0.000000
    25 0.014897 -0.883992 -0.019845 -0.305455 0.000000 0.000000
    26 -0.026406 -0.138455 -0.019867 0.287061 0.027381 1.346366
    27 0.583509 -1.197273 0.185379 0.339227 -0.969650 -0.814052
    28 1.535926 0.010247 0.005008 -0.326444 -0.010942 -1.015318
    29 1.100770 0.004528 -0.010676 -0.000003 -0.000001 -0.488690
    30 0.957766 -2.746777 -0.090301 -0.233911 -0.030190 0.091702
    31 -0.033419 -1.397128 -0.011256 -0.046953 0.000000 0.000000
    32 -0.022361 -0.957433 0.018782 -0.876155 0.000000 0.000000
    33 0.250028 -2.820664 -0.238397 -0.470596 0.001394 -0.072461
    34 -0.049759 -1.680544 0.100479 -1.606138 0.000000 0.000000
    35 -0.034141 -1.148311 0.084779 -1.483556 0.000000 0.000000
    36 -0.488517 -2.755600 -0.228261 -0.436149 -0.021506 -0.150745
    37 0.039888 -1.479791 0.029853 -1.503030 0.000000 0.000000
    38 0.028785 -1.075732 -0.023110 -1.633152 0.000000 0.000000
    39 -1.180679 -2.507216 -0.193861 -0.170864 0.143009 -0.128851
    40 -0.024967 -1.123935 0.017594 -0.768586 0.000000 0.000000
    41 -0.020058 -0.890964 0.010091 -1.080190 0.000000 0.000000
    42 0.080903 -0.068755 -0.180384 0.307743 -2.879452 1.540137
  time 10
    0 6.696310 4.550790 -6.036857 -1.119779 -1.194465 0.919156
    1 -0.071917 -8.498732 -0.104136 0.350483 -0.071679 -0.194009
    2 -0.252194 -4.514323 0.852150 -1.061842 1.466010 -1.048336
    3 -0.000001 2.617617 0.665015 0.000000 0.000000 0.000000
    4 0.000000 -0.030416 2.278033 0.000000 0.000000 0.000000
    5 0.000000 -1.796959 1.330032 0.000000 0.000000 0.000000
    6 0.000001 -2.886454 1.471525 -0.020158 0.000000 0.000000
    7 0.000000 -0.778211 1.774024 -0.768197 0.000000 0.000000
    8 0.000000 -1.598869 0.580120 0.000000 0.000000 0.000000
    9 -1.172350 1.199385 -8.731316 -0.424314 0.037420 0.559809
    10 0.096946 -8.450418 -0.009364 0.281071 -0.166828 0.297236
    11 -0.586769 -1.264477 0.200165 -0.282470 -0.582878 -2.509428
    12 1.522835 0.058679 0.016851 0.000000 0.000000 0.446604
    13 1.117948 0.048425 -0.005765 0.015939 -0.000477 0.859148
    14 -0.963866 -2.785144 -0.085346 -0.342483 0.185746 -0.010101
    15 0.028479 -1.403067 0.006271 -0.815979 0.000000 0.000000
    16 0.021412 -0.957781 0.020047 -0.445059 0.000000 0.000000
    17 -0.249534 -2.846964 -0.174215 -0.012978 0.031261 0.129804
    18 0.043234 -1.683940 0.096014 -1.668295 0.000000 0.000000
    19 0.031730 -1.160831 0.058835 0.119114 0.000000 0.000000
    20 0.447951 -2.798983 -0.200442 -0.148382 0.067808 0.126894
    21 -0.032910 -1.480207 0.004935 -1.409715 0.000000 0.000000
    22 -0.027023 -1.076920 -0.020211 0.112912 0.000000 0.000000
    23 1.164474 -2.543938 -0.170326 -0.222289 -0.030232 0.124244
    24 0.024032 -1.129040 0.017806 -1.058217 0.000000 0.000000
    25 0.014897 -0.883992 -0.019845 -0.305455 0.000000 0.000000
    26 -0.026406 -0.138455 -0.019867 0.287061 0.027381 1.346366
    27 0.583509 -1.197273 0.185379 0.339227 -0.969650 -0.814052
    28 1.535926 0.010247 0.005008 -0.326444 -0.010942 -1.015318
    29 1.100770 0.004528 -0.010676 -0.000003 -0.000001 -0.488690
    30 0.957766 -2.746777 -0.090301 -0.233911 -0.030190 0.091702
    31 -0.033419 -1.397128 -0.011256 -0.035563 0.000000 0.000000
    32 -0.022361 -0.957433 0.018782 -0.866612 0.000000 0.000000
    33 0.250028 -2.820664 -0.238397 -0.470596 0.001394 -0.072461
    34 -0.049759 -1.680544 0.100479 -1.606138 0.000000 0.000000
    35 -0.034141 -1.148311 0.084779 -1.483556 0.000000 0.000000
    36 -0.488517 -2.755600 -0.228261 -0.436149 -0.021506 -0.150745
    37 0.039888 -1.479791 0.029853 -1.503030 0.000000 0.000000
    38 0.028785 -1.075732 -0.023110 -1.633152 0.000000 0.000000
    39 -1.180679 -2.507216 -0.193861 -0.170864 0.143009 -0.128851
    40 -0.024967 -1.123935 0.017594 -0.768586 0.000000 0.000000
    41 -0.020058 -0.890964 0.010091 -1.080190 0.000000 0.000000
    42 0.080903 -0.068755 -0.180384 0.307743 -2.879452 1.540137
  time 11
    0 6.692403 4.449224 -6.142329 -1.094168 -1.214131 0.891752
    1 -0.071917 -8.498732 -0.104136 0.350566 -0.079052 -0.210576
    2 -0.252194 -4.514323 0.852150 -1.061842 1.466010 -1.048336
    3 -0.000001 2.617617 0.665015 0.000000 0.000000 0.000000
    4 0.000000 -0.030416 2.278033 0.000000 0.000000 0.000000
    5 0.000000 -1.796959 1.330032 0.000000 0.000000 0.000000
    6 0.000001 -2.886454 1.471525 -0.022903 0.000000 0.000000
    7 0.000000 -0.778211 1.774024 -0.765891 0.000000 0.000000
    8 0.000000 -1.598869 0.580120 0.000000 0.000000 0.000000
    9 -1.125473 1.304857 -8.817256 -0.402318 0.025420 0.549692
    10 0.096946 -8.450418 -0.009364 0.307657 -0.165121 0.279397
    11 -0.586769 -1.264477 0.200165 -0.282470 -0.582878 -2.509428
    12 1.522835 0.058679 0.016851 0.000000 0.000000 0.446604
    13 1.117948 0.048425 -0.005765 0.015939 -0.000477 0.859148
    14 -0.963866 -2.785144 -0.085346 -0.342483 0.185746 -0.010101
    15 0.028479 -1.403067 0.006271 -0.815979 0.000000 0.000000
    16 0.021412 -0.957781 0.020047 -0.445059 0.000000 0.000000
    17 -0.249534 -2.846964 -0.174215 -0.012978 0.031261 0.129804
    18 0.043234 -1.683940 0.096014 -1.668295 0.000000 0.000000
    19 0.031730 -1.160831 0.058835 0.119114 0.000000 0.000000
    20 0.447951 -2.798983 -0.200442 -0.148382 0.067808 0.126894
    21 -0.032910 -1.480207 0.004935 -1.409715 0.000000 0.000000
    22 -0.027023 -1.076920 -0.020211 0.112912 0.000000 0.000000
    23 1.164474 -2.543938 -0.170326 -0.222289 -0.030232 0.124244
    24 0.024032 -1.129040 0.017806 -1.058217 0.000000 0.000000
    25 0.014897 -0.883992 -0.019845 -0.305455 0.000000 0.000000
    26 -0.026406 -0.138455 -0.019867 0.287061 0.027381 1.346366
    27 0.583509 -1.197273 0.185379 0.339227 -0.969650 -0.814052
    28 1.535926 0.010247 0.005008 -0.326444 -0.010942 -1.015318
    29 1.100770 0.004528 -0.010676 -0.000003 -0.000001 -0.488690
    30 0.957766 -2.746777 -0.090301 -0.233911 -0.030190 0.091702
    31 -0.033419 -1.397128 -0.011256 -0.028761 0.000000 0.000000
    32 -0.022361 -0.957433 0.018782 -0.859929 0.000000 0.000000
    33 0.250028 -2.820664 -0.238397 -0.470596 0.001394 -0.072461
    34 -0.049759 -1.680544 0.100479 -1.606138 0.000000 0.000000
    35 -0.034141 -1.148311 0.084779 -1.483556 0.000000 0.000000
    36 -0.488517 -2.755600 -0.228261 -0.436149 -0.021506 -0.150745
    37 0.039888 -1.479791 0.029853 -1.503030 0.000000 0.000000
    38 0.028785 -1.075732 -0.023110 -1.633152 0.000000 0.000000
    39 -1.180679 -2.507216 -0.193861 -0.170864 0.143009 -0.128851
    40 -0.024967 -1.123935 0.017594 -0.768586 0.000000 0.000000
    41 -0.020058 -0.890964 0.010091 -1.080190 0.000000 0.000000
    42 0.080903 -0.068755 -0.180384 0.307743 -2.879452 1.540137
  time 12
    0 6.692403 4.351565 -6.247801 -1.063764 -1.234589 0.859466
    1 -0.071917 -8.498732 -0.104136 0.350285 -0.088656 -0.221713
    2 -0.252194 -4.514323 0.852150 -1.061842 1.466010 -1.048336
    3 -0.000001 2.617617 0.665015 0.000000 0.000000 0.000000
    4 0.000000 -0.030416 2.278033 0.000000 0.000000 0.000000
    5 0.000000 -1.796959 1.330032 0.000000 0.000000 0.000000
    6 0.000001 -2.886454 1.471525 -0.024053 0.000000 0.000000
    7 0.000000 -0.778211 1.774024 -0.761238 0.000000 0.000000
    8 0.000000 -1.598869 0.580120 0.000000 0.000000 0.000000
    9 -1.082503 1.410329 -8.911009 -0.381807 0.013642 0.539499
    10 0.096946 -8.450418 -0.009364 0.327415 -0.162081 0.265068
    11 -0.586769 -1.264477 0.200165 -0.282470 -0.582878 -2.509428
    12 1.522835 0.058679 0.016851 0.000000 0.000000 0.446604
    13 1.117948 0.048425 -0.005765 0.015939 -0.000477 0.859148
    14 -0.963866 -2.785144 -0.085346 -0.342483 0.185746 -0.010101
    15 0.028479 -1.403067 0.006271 -0.815979 0.000000 0.000000
    16 0.021412 -0.957781 0.020047 -0.445059 0.000000 0.000000
    17 -0.249534 -2.846964 -0.174215 -0.012978 0.031261 0.129804
    18 0.043234 -1.683940 0.096014 -1.668295 0.000000 0.000000
    19 0.031730 -1.160831 0.058835 0.119114 0.000000 0.000000
    20 0.447951 -2.798983 -0.200442 -0.148382 0.067808 0.126894
    21 -0.032910 -1.480207 0.004935 -1.409715 0.000000 0.000000
    22 -0.027023 -1.076920 -0.020211 0.112912 0.000000 0.000000
    23 1.164474 -2.543938 -0.170326 -0.222289 -0.030232 0.124244
    24 0.024032 -1.129040 0.017806 -1.058217 0.000000 0.000000
    25 0.014897 -0.883992 -0.019845 -0.305455 0.000000 0.000000
    26 -0.026406 -0.138455 -0.019867 0.287061 0.027381 1.346366
    27 0.583509 -1.197273 0.185379 0.339227 -0.969650 -0.814052
    28 1.535926 0.010247 0.005008 -0.326444 -0.010942 -1.015318
    29 1.100770 0.004528 -0.010676 -0.000003 -0.000001 -0.488690
    30 0.957766 -2.746777 -0.090301 -0.233911 -0.030190 0.091702
    31 -0.033419 -1.397128 -0.011256 -0.025882 0.000000 0.000000
    32 -0.022361 -0.957433 0.018782 -0.855697 0.000000 0.000000
    33 0.250028 -2.820664 -0.238397 -0.470596 0.001394 -0.072461
    34 -0.049759 -1.680544 0.100479 -1.606138 0.000000 0.000000
    35 -0.034141 -1.148311 0.084779 -1.483556 0.000000 0.000000
    36 -0.488517 -2.755600 -0.228261 -0.436149 -0.021506 -0.150745
    37 0.039888 -1.479791 0.029853 -1.503030 0.000000 0.000000
    38 0.028785 -1.075732 -0.023110 -1.633152 0.000000 0.000000
    39 -1.180679 -2.507216 -0.193861 -0.170864 0.143009 -0.128851
    40 -0.024967 -1.123935 0.017594 -0.768586 0.000000 0.000000
    41 -0.020058 -0.890964 0.010091 -1.080190 0.000000 0.000000
    42 0.080903 -0.068755 -0.180384 0.307743 -2.879452 1.540137
  time 13
    0 6.692403 4.273438 -6.333741 -1.029139 -1.254876 0.822879
    1 -0.071917 -8.498732 -0.104136 0.349641 -0.099295 -0.228704
    2 -0.252194 -4.514323 0.852150 -1.061842 1.466010 -1.048336
    3 -0.000001 2.617617 0.665015 0.000000 0.000000 0.000000
    4 0.000000 -0.030416 2.278033 0.000000 0.000000 0.000000
    5 0.000000 -1.796959 1.330032 0.000000 0.000000 0.000000
    6 0.000001 -2.886454 1.471525 -0.023861 0.000000 0.000000
    7 0.000000 -0.778211 1.774024 -0.754653 0.000000 0.000000
    8 0.000000 -1.598869 0.580120 0.000000 0.000000 0.000000
    9 -1.020001 1.515801 -9.082889 -0.364267 0.002599 0.530915
    10 0.096946 -8.450418 -0.009364 0.339887 -0.160397 0.255458
    11 -0.586769 -1.264477 0.200165 -0.282470 -0.582878 -2.509428
    12 1.522835 0.058679 0.016851 0.000000 0.000000 0.446604
    13 1.117948 0.048425 -0.005765 0.015939 -0.000477 0.859148
    14 -0.963866 -2.785144 -0.085346 -0.342483 0.185746 -0.010101
    15 0.028479 -1.403067 0.006271 -0.815979 0.000000 0.000000
    16 0.021412 -0.957781 0.020047 -0.445059 0.000000 0.000000
    17 -0.249534 -2.846964 -0.174215 -0.012978 0.031261 0.129804
    18 0.043234 -1.683940 0.096014 -1.668295 0.000000 0.000000
    19 0.031730 -1.160831 0.058835 0.119114 0.000000 0.000000
    20 0.447951 -2.798983 -0.200442 -0.148382 0.067808 0.126894
    21 -0.032910 -1.480207 0.004935 -1.409715 0.000000 0.000000
    22 -0.027023 -1.076920 -0.020211 0.112912 0.000000 0.000000
    23 1.164474 -2.543938 -0.170326 -0.222289 -0.030232 0.124244
    24 0.024032 -1.129040 0.017806 -1.058217 0.000000 0.000000
    25 0.014897 -0.883992 -0.019845 -0.305455 0.000000 0.000000
    26 -0.026406 -0.138455 -0.019867 0.287061 0.027381 1.346366
    27 0.583509 -1.197273 0.185379 0.339227 -0.969650 -0.814052
    28 1.535926 0.010247 0.005008 -0.326444 -0.010942 -1.015318
    29 1.100770 0.004528 -0.010676 -0.000003 -0.000001 -0.488690
    30 0.957766 -2.746777 -0.090301 -0.233911 -0.030190 0.091702
    31 -0.033419 -1.397128 -0.011256 -0.026388 0.000000 0.000000
    32 -0.022361 -0.957433 0.018782 -0.853625 0.000000 0.000000
    33 0.250028 -2.820664 -0.238397 -0.470596 0.001394 -0.072461
    34 -0.049759 -1.680544 0.100479 -1.606138 0.000000 0.000000
    35 -0.034141 -1.148311 0.084779 -1.483556 0.000000 0.000000
    36 -0.488517 -2.755600 -0.228261 -0.436149 -0.021506 -0.150745
    37 0.039888 -1.479791 0.029853 -1.503030 0.000000 0.000000
    38 0.028785 -1.075732 -0.023110 -1.633152 0.000000 0.000000
    39 -1.180679 -2.507216 -0.193861 -0.170864 0.143009 -0.128851
    40 -0.024967 -1.123935 0.017594 -0.768586 0.000000 0.000000
    41 -0.020058 -0.890964 0.010091 -1.080190 0.000000 0.000000
    42 0.080903 -0.068755 -0.180384 0.307743 -2.879452 1.540137
  time 14
    0 6.692403 4.218748 -6.392337 -0.991151 -1.274008 0.783013
    1 -0.071917 -8.498732 -0.104136 0.348584 -0.109754 -0.232808
    2 -0.252194 -4.514323 0.852150 -1.061842 1.466010 -1.048336
    3 -0.000001 2.617617 0.665015 0.000000 0.000000 0.000000
    4 0.000000 -0.030416 2.278033 0.000000 0.000000 0.000000
    5 0.000000 -1.796959 1.330032 0.000000 0.000000 0.000000
    6 0.000001 -2.886454 1.471525 -0.022543 0.000000 0.000000
    7 0.000000 -0.778211 1.774024 -0.746593 0.000000 0.000000
    8 0.000000 -1.598869 0.580120 0.000000 0.000000 0.000000
    9 -0.957499 1.597835 -9.289927 -0.351412 -0.007045 0.525704
    10 0.096946 -8.450418 -0.009364 0.344671 -0.162736 0.251727
    11 -0.586769 -1.264477 0.200165 -0.282470 -0.582878 -2.509428
    12 1.522835 0.058679 0.016851 0.000000 0.000000 0.446604
    13 1.117948 0.048425 -0.005765 0.015939 -0.000477 0.859148
    14 -0.963866 -2.785144 -0.085346 -0.342483 0.185746 -0.010101
    15 0.028479 -1.403067 0.006271 -0.815979 0.000000 0.000000
    16 0.021412 -0.957781 0.020047 -0.445059 0.000000 0.000000
    17 -0.249534 -2.846964 -0.174215 -0.012978 0.031261 0.129804
    18 0.043234 -1.683940 0.096014 -1.668295 0.000000 0.000000
    19 0.031730 -1.160831 0.058835 0.119114 0.000000 0.000000
    20 0.447951 -2.798983 -0.200442 -0.148382 0.067808 0.126894
    21 -0.032910 -1.480207 0.004935 -1.409715 0.000000 0.000000
    22 -0.027023 -1.076920 -0.020211 0.112912 0.000000 0.000000
    23 1.164474 -2.543938 -0.170326 -0.222289 -0.030232 0.124244
    24 0.024032 -1.129040 0.017806 -1.058217 0.000000 0.000000
    25 0.014897 -0.883992 -0.019845 -0.305455 0.000000 0.000000
    26 -0.026406 -0.138455 -0.019867 0.287061 0.027381 1.346366
    27 0.583509 -1.197273 0.185379 0.339227 -0.969650 -0.814052
    28 1.535926 0.010247 0.005008 -0.326444 -0.010942 -1.015318
    29 1.100770 0.004528 -0.010676 -0.000003 -0.000001 -0.488690
    30 0.957766 -2.746777 -0.090301 -0.233911 -0.030190 0.091702
    31 -0.033419 -1.397128 -0.011256 -0.029647 0.000000 0.000000
    32 -0.022361 -0.957433 0.018782 -0.853334 0.000000 0.000000
    33 0.250028 -2.820664 -0.238397 -0.470596 0.001394 -0.072461
    34 -0.049759 -1.680544 0.100479 -1.606138 0.000000 0.000000
    35 -0.034141 -1.148311 0.084779 -1.483556 0.000000 0.000000
    36 -0.488517 -2.755600 -0.228261 -0.436149 -0.021506 -0.150745
    37 0.039888 -1.479791 0.029853 -1.503030 0.000000 0.000000
    38 0.028785 -1.075732 -0.023110 -1.633152 0.000000 0.000000
    39 -1.180679 -2.507216 -0.193861 -0.170864 0.143009 -0.128851
    40 -0.024967 -1.123935 0.017594 -0.768586 0.000000 0.000000
    41 -0.020058 -0.890964 0.010091 -1.080190 0.000000 0.000000
    42 0.080903 -0.068755 -0.180384 0.307743 -2.879452 1.540137
  time 15
    0 6.692403 4.195310 -6.415775 -0.951733 -1.291128 0.741908
    1 -0.071917 -8.498732 -0.104136 0.347115 -0.118821 -0.235331
    2 -0.252194 -4.514323 0.852150 -1.061842 1.466010 -1.048336
    3 -0.000001 2.617617 0.665015 0.000000 0.000000 0.000000
    4 0.000000 -0.030416 2.278033 0.000000 0.000000 0.000000
    5 0.000000 -1.796959 1.330032 0.000000 0.000000 0.000000
    6 0.000001 -2.886454 1.471525 -0.020362 0.000000 0.000000
    7 0.000000 -0.778211 1.774024 -0.737494 0.000000 0.000000
    8 0.000000 -1.598869 0.580120 0.000000 0.000000 0.000000
    9 -0.949686 1.570490 -9.493058 -0.344899 -0.014922 0.525857
    10 0.096946 -8.450418 -0.009364 0.341366 -0.171645 0.255084
    11 -0.586769 -1.264477 0.200165 -0.282470 -0.582878 -2.509428
    12 1.522835 0.058679 0.016851 0.000000 0.000000 0.446604
    13 1.117948 0.048425 -0.005765 0.015939 -0.000477 0.859148
    14 -0.963866 -2.785144 -0.085346 -0.342483 0.185746 -0.010101
    15 0.028479 -1.403067 0.006271 -0.815979 0.000000 0.000000
    16 0.021412 -0.957781 0.020047 -0.445059 0.000000 0.000000
    17 -0.249534 -2.846964 -0.174215 -0.012978 0.031261 0.129804
    18 0.043234 -1.683940 0.096014 -1.668295 0.000000 0.000000
    19 0.031730 -1.160831 0.058835 0.119114 0.000000 0.000000
    20 0.447951 -2.798983 -0.200442 -0.148382 0.067808 0.126894
    21 -0.032910 -1.480207 0.004935 -1.409715 0.000000 0.000000
    22 -0.027023 -1.076920 -0.020211 0.112912 0.000000 0.000000
    23 1.164474 -2.543938 -0.170326 -0.222289 -0.030232 0.124244
    24 0.024032 -1.129040 0.017806 -1.058217 0.000000 0.000000
    25 0.014897 -0.883992 -0.019845 -0.305455 0.000000 0.000000
    26 -0.026406 -0.138455 -0.019867 0.287061 0.027381 1.346366
    27 0.583509 -1.197273 0.185379 0.339227 -0.969650 -0.814052
    28 1.535926 0.010247 0.005008 -0.326444 -0.010942 -1.015318
    29 1.100770 0.004528 -0.010676 -0.000003 -0.000001 -0.488690
    30 0.957766 -2.746777 -0.090301 -0.233911 -0.030190 0.091702
    31 -0.033419 -1.397128 -0.011256 -0.035089 0.000000 0.000000
    32 -0.022361 -0.957433 0.018782 -0.854501 0.000000 0.000000
    33 0.250028 -2.820664 -0.238397 -0.470596 0.001394 -0.072461
    34 -0.049759 -1.680544 0.100479 -1.606138 0.000000 0.000000
    35 -0.034141 -1.148311 0.084779 -1.483556 0.000000 0.000000
    36 -0.488517 -2.755600 -0.228261 -0.436149 -0.021506 -0.150745
    37 0.039888 -1.479791 0.029853 -1.503030 0.000000 0.000000
    38 0.028785 -1.075732 -0.023110 -1.633152 0.000000 0.000000
    39 -1.180679 -2.507216 -0.193861 -0.170864 0.143009 -0.128851
    40 -0.024967 -1.123935 0.017594 -0.768586 0.000000 0.000000
    41 -0.020058 -0.890964 0.010091 -1.080190 0.000000 0.000000
    42 0.080903 -0.068755 -0.180384 0.307743 -2.879452 1.540137
  time 16
    0 6.680684 4.085932 -6.298584 -0.913674 -1.305466 0.702406
    1 -0.071917 -8.498732 -0.104136 0.345233 -0.125284 -0.237532
    2 -0.252194 -4.514323 0.852150 -1.061842 1.466010 -1.048336
    3 -0.000001 2.617617 0.665015 0.000000 0.000000 0.000000
    4 0.000000 -0.030416 2.278033 0.000000 0.000000 0.000000
    5 0.000000 -1.796959 1.330032 0.000000 0.000000 0.000000
    6 0.000001 -2.886454 1.471525 -0.017533 0.000000 0.000000
    7 0.000000 -0.778211 1.774024 -0.727793 0.000000 0.000000
    8 0.000000 -1.598869 0.580120 0.000000 0.000000 0.000000
    9 -1.023908 1.359546 -9.680564 -0.345128 -0.021032 0.531452
    10 0.096946 -8.450418 -0.009364 0.328291 -0.186939 0.266499
    11 -0.586769 -1.264477 0.200165 -0.282470 -0.582878 -2.509428
    12 1.522835 0.058679 0.016851 0.000000 0.000000 0.446604
    13 1.117948 0.048425 -0.005765 0.015939 -0.000477 0.859148
    14 -0.963866 -2.785144 -0.085346 -0.342483 0.185746 -0.010101
    15 0.028479 -1.403067 0.006271 -0.815979 0.000000 0.000000
    16 0.021412 -0.957781 0.020047 -0.445059 0.000000 0.000000
    17 -0.249534 -2.846964 -0.174215 -0.012978 0.031261 0.129804
    18 0.043234 -1.683940 0.096014 -1.668295 0.000000 0.000000
    19 0.031730 -1.160831 0.058835 0.119114 0.000000 0.000000
    20 0.447951 -2.798983 -0.200442 -0.148382 0.067808 0.126894
    21 -0.032910 -1.480207 0.004935 -1.409715 0.000000 0.000000
    22 -0.027023 -1.076920 -0.020211 0.112912 0.000000 0.000000
    23 1.164474 -2.543938 -0.170326 -0.222289 -0.030232 0.124244
    24 0.024032 -1.129040 0.017806 -1.058217 0.000000 0.000000
    25 0.014897 -0.883992 -0.019845 -0.305455 0.000000 0.000000
    26 -0.026406 -0.138455 -0.019867 0.287061 0.027381 1.346366
    27 0.583509 -1.197273 0.185379 0.339227 -0.969650 -0.814052
    28 1.535926 0.010247 0.005008 -0.326444 -0.010942 -1.015318
    29 1.100770 0.004528 -0.010676 -0.000003 -0.000001 -0.488690
    30 0.957766 -2.746777 -0.090301 -0.233911 -0.030190 0.091702
    31 -0.033419 -1.397128 -0.011256 -0.042113 0.000000 0.000000
    32 -0.022361 -0.957433 0.018782 -0.856836 0.000000 0.000000
    33 0.250028 -2.820664 -0.238397 -0.470596 0.001394 -0.072461
    34 -0.049759 -1.680544 0.100479 -1.606138 0.000000 0.000000
    35 -0.034141 -1.148311 0.084779 -1.483556 0.000000 0.000000
    36 -0.488517 -2.755600 -0.228261 -0.436149 -0.021506 -0.150745
    37 0.039888 -1.479791 0.029853 -1.503030 0.000000 0.000000
    38 0.028785 -1.075732 -0.023110 -1.633152 0.000000 0.000000
    39 -1.180679 -2.507216 -0.193861 -0.170864 0.143009 -0.128851
    40 -0.024967 -1.123935 0.017594 -0.768586 0.000000 0.000000
    41 -0.020058 -0.890964 0.010091 -1.080190 0.000000 0.000000
    42 0.080903 -0.068755 -0.180384 0.307743 -2.879452 1.540137
  time 17
    0 6.676778 3.992179 -6.200925 -0.880981 -1.316358 0.668589
    1 -0.071917 -8.498732 -0.104136 0.343714 -0.127944 -0.237917
    2 -0.252194 -4.514323 0.852150 -1.061842 1.466010 -1.048336
    3 -0.000001 2.617617 0.665015 0.000000 0.000000 0.000000
    4 0.000000 -0.030416 2.278033 0.000000 0.000000 0.000000
    5 0.000000 -1.796959 1.330032 0.000000 0.000000 0.000000
    6 0.000001 -2.886454 1.471525 -0.014310 0.000000 0.000000
    7 0.000000 -0.778211 1.774024 -0.717967 0.000000 0.000000
    8 0.000000 -1.598869 0.580120 0.000000 0.000000 0.000000
    9 -1.133286 1.105632 -9.836819 -0.350613 -0.025891 0.540878
    10 0.096946 -8.450418 -0.009364 0.305393 -0.205952 0.285275
    11 -0.586769 -1.264477 0.200165 -0.282470 -0.582878 -2.509428
    12 1.522835 0.058679 0.016851 0.000000 0.000000 0.446604
    13 1.117948 0.048425 -0.005765 0.015939 -0.000477 0.859148
    14 -0.963866 -2.785144 -0.085346 -0.342483 0.185746 -0.010101
    15 0.028479 -1.403067 0.006271 -0.815979 0.000000 0.000000
    16 0.021412 -0.957781 0.020047 -0.445059 0.000000 0.000000
    17 -0.249534 -2.846964 -0.174215 -0.012978 0.031261 0.129804
    18 0.043234 -1.683940 0.096014 -1.668295 0.000000 0.000000
    19 0.031730 -1.160831 0.058835 0.119114 0.000000 0.000000
    20 0.447951 -2.798983 -0.200442 -0.148382 0.067808 0.126894
    21 -0.032910 -1.480207 0.004935 -1.409715 0.000000 0.000000
    22 -0.027023 -1.076920 -0.020211 0.112912 0.000000 0.000000
    23 1.164474 -2.543938 -0.170326 -0.222289 -0.030232 0.124244
    24 0.024032 -1.129040 0.017806 -1.058217 0.000000 0.000000
    25 0.014897 -0.883992 -0.019845 -0.305455 0.000000 0.000000
    26 -0.026406 -0.138455 -0.019867 0.287061 0.027381 1.346366
    27 0.583509 -1.197273 0.185379 0.339227 -0.969650 -0.814052
    28 1.535926 0.010247 0.005008 -0.326444 -0.010942 -1.015318
    29 1.100770 0.004528 -0.010676 -0.000003 -0.000001 -0.488690
    30 0.957766 -2.746777 -0.090301 -0.233911 -0.030190 0.091702
    31 -0.033419 -1.397128 -0.011256 -0.050117 0.000000 0.000000
    32 -0.022361 -0.957433 0.018782 -0.859929 0.000000 0.000000
    33 0.250028 -2.820664 -0.238397 -0.470596 0.001394 -0.072461
    34 -0.049759 -1.680544 0.100479 -1.606138 0.000000 0.000000
    35 -0.034141 -1.148311 0.084779 -1.483556 0.000000 0.000000
    36 -0.488517 -2.755600 -0.228261 -0.436149 -0.021506 -0.150745
    37 0.039888 -1.479791 0.029853 -1.503030 0.000000 0.000000
    38 0.028785 -1.075732 -0.023110 -1.633152 0.000000 0.000000
    39 -1.180679 -2.507216 -0.193861 -0.170864 0.143009 -0.128851
    40 -0.024967 -1.123935 0.017594 -0.768586 0.000000 0.000000
    41 -0.020058 -0.890964 0.010091 -1.080190 0.000000 0.000000
    42 0.080903 -0.068755 -0.180384 0.307743 -2.879452 1.540137
  time 18
    0 6.668965 3.910145 -6.118891 -0.864455 -1.321409 0.651535
    1 -0.071917 -8.498732 -0.104136 0.340114 -0.131361 -0.233770
    2 -0.252194 -4.514323 0.852150 -1.061842 1.466010 -1.048336
    3 -0.000001 2.617617 0.665015 0.000000 0.000000 0.000000
    4 0.000000 -0.030416 2.278033 0.000000 0.000000 0.000000
    5 0.000000 -1.796959 1.330032 0.000000 0.000000 0.000000
    6 0.000001 -2.886454 1.471525 -0.010930 0.000000 0.000000
    7 0.000000 -0.778211 1.774024 -0.708411 0.000000 0.000000
    8 0.000000 -1.598869 0.580120 0.000000 0.000000 0.000000
    9 -1.266102 0.906407 -9.907133 -0.360268 -0.029719 0.553371
    10 0.096946 -8.450418 -0.009364 0.274515 -0.227302 0.310168
    11 -0.586769 -1.264477 0.200165 -0.282470 -0.582878 -2.509428
    12 1.522835 0.058679 0.016851 0.000000 0.000000 0.446604
    13 1.117948 0.048425 -0.005765 0.015939 -0.000477 0.859148
    14 -0.963866 -2.785144 -0.085346 -0.342483 0.185746 -0.010101
    15 0.028479 -1.403067 0.006271 -0.815979 0.000000 0.000000
    16 0.021412 -0.957781 0.020047 -0.445059 0.000000 0.000000
    17 -0.249534 -2.846964 -0.174215 -0.012978 0.031261 0.129804
    18 0.043234 -1.683940 0.096014 -1.668295 0.000000 0.000000
    19 0.031730 -1.160831 0.058835 0.119114 0.000000 0.000000
    20 0.447951 -2.798983 -0.200442 -0.148382 0.067808 0.126894
    21 -0.032910 -1.480207 0.004935 -1.409715 0.000000 0.000000
    22 -0.027023 -1.076920 -0.020211 0.112912 0.000000 0.000000
    23 1.164474 -2.543938 -0.170326 -0.222289 -0.030232 0.124244
    24 0.024032 -1.129040 0.017806 -1.058217 0.000000 0.000000
    25 0.014897 -0.883992 -0.019845 -0.305455 0.000000 0.000000
    26 -0.026406 -0.138455 -0.019867 0.287061 0.027381 1.346366
    27 0.583509 -1.197273 0.185379 0.339227 -0.969650 -0.814052
    28 1.535926 0.010247 0.005008 -0.326444 -0.010942 -1.015318
    29 1.100770 0.004528 -0.010676 -0.000003 -0.000001 -0.488690
    30 0.957766 -2.746777 -0.090301 -0.233911 -0.030190 0.091702
    31 -0.033419 -1.397128 -0.011256 -0.058502 0.000000 0.000000
    32 -0.022361 -0.957433 0.018782 -0.863489 0.000000 0.000000
    33 0.250028 -2.820664 -0.238397 -0.470596 0.001394 -0.072461
    34 -0.049759 -1.680544 0.100479 -1.606138 0.000000 0.000000
    35 -0.034141 -1.148311 0.084779 -1.483556 0.000000 0.000000
    36 -0.488517 -2.755600 -0.228261 -0.436149 -0.021506 -0.150745
    37 0.039888 -1.479791 0.029853 -1.503030 0.000000 0.000000
    38 0.028785 -1.075732 -0.023110 -1.633152 0.000000 0.000000
    39 -1.180679 -2.507216 -0.193861 -0.170864 0.143009 -0.128851
    40 -0.024967 -1.123935 0.017594 -0.768586 0.000000 0.000000
    41 -0.020058 -0.890964 0.010091 -1.080190 0.000000 0.000000
    42 0.080903 -0.068755 -0.180384 0.307743 -2.879452 1.540137
  time 19
    0 6.665059 3.843737 -6.048576 -0.863740 -1.321644 0.650806
    1 -0.071917 -8.498732 -0.104136 0.335574 -0.133621 -0.224984
    2 -0.252194 -4.514323 0.852150 -1.061842 1.466010 -1.048336
    3 -0.000001 2.617617 0.665015 0.000000 0.000000 0.000000
    4 0.000000 -0.030416 2.278033 0.000000 0.000000 0.000000
    5 0.000000 -1.796959 1.330032 0.000000 0.000000 0.000000
    6 0.000001 -2.886454 1.471525 -0.007634 0.000000 0.000000
    7 0.000000 -0.778211 1.774024 -0.699604 0.000000 0.000000
    8 0.000000 -1.598869 0.580120 0.000000 0.000000 0.000000
    9 -1.395013 0.734527 -9.946197 -0.372780 -0.032663 0.567856
    10 0.096946 -8.450418 -0.009364 0.237575 -0.249659 0.339917
    11 -0.586769 -1.264477 0.200165 -0.282470 -0.582878 -2.509428
    12 1.522835 0.058679 0.016851 0.000000 0.000000 0.446604
    13 1.117948 0.048425 -0.005765 0.015939 -0.000477 0.859148
    14 -0.963866 -2.785144 -0.085346 -0.342483 0.185746 -0.010101
    15 0.028479 -1.403067 0.006271 -0.815979 0.000000 0.000000
    16 0.021412 -0.957781 0.020047 -0.445059 0.000000 0.000000
    17 -0.249534 -2.846964 -0.174215 -0.012978 0.031261 0.129804
    18 0.043234 -1.683940 0.096014 -1.668295 0.000000 0.000000
    19 0.031730 -1.160831 0.058835 0.119114 0.000000 0.000000
    20 0.447951 -2.798983 -0.200442 -0.148382 0.067808 0.126894
    21 -0.032910 -1.480207 0.004935 -1.409715 0.000000 0.000000
    22 -0.027023 -1.076920 -0.020211 0.112912 0.000000 0.000000
    23 1.164474 -2.543938 -0.170326 -0.222289 -0.030232 0.124244
    24 0.024032 -1.129040 0.017806 -1.058217 0.000000 0.000000
    25 0.014897 -0.883992 -0.019845 -0.305455 0.000000 0.000000
    26 -0.026406 -0.138455 -0.019867 0.287061 0.027381 1.346366
    27 0.583509 -1.197273 0.185379 0.339227 -0.969650 -0.814052
    28 1.535926 0.010247 0.005008 -0.326444 -0.010942 -1.015318
    29 1.100770 0.004528 -0.010676 -0.000003 -0.000001 -0.488690
    30 0.957766 -2.746777 -0.090301 -0.233911 -0.030190 0.091702
    31 -0.033419 -1.397128 -0.011256 -0.066728 0.000000 0.000000
    32 -0.022361 -0.957433 0.018782 -0.867108 0.000000 0.000000
    33 0.250028 -2.820664 -0.238397 -0.470596 0.001394 -0.072461
    34 -0.049759 -1.680544 0.100479 -1.606138 0.000000 0.000000
    35 -0.034141 -1.148311 0.084779 -1.483556 0.000000 0.000000
    36 -0.488517 -2.755600 -0.228261 -0.436149 -0.021506 -0.150745
    37 0.039888 -1.479791 0.029853 -1.503030 0.000000 0.000000
    38 0.028785 -1.075732 -0.023110 -1.633152 0.000000 0.000000
    39 -1.180679 -2.507216 -0.193861 -0.170864 0.143009 -0.128851
    40 -0.024967 -1.123935 0.017594 -0.768586 0.000000 0.000000
    41 -0.020058 -0.890964 0.010091 -1.080190 0.000000 0.000000
    42 0.080903 -0.068755 -0.180384 0.307743 -2.879452 1.540137
  time 20
    0 6.661152 3.792954 -5.997794 -0.873684 -1.318627 0.661009
    1 -0.071917 -8.498732 -0.104136 0.330406 -0.135096 -0.213205
    2 -0.252194 -4.514323 0.852150 -1.061842 1.466010 -1.048336
    3 -0.000001 2.617617 0.665015 0.000000 0.000000 0.000000
    4 0.000000 -0.030416 2.278033 0.000000 0.000000 0.000000
    5 0.000000 -1.796959 1.330032 0.000000 0.000000 0.000000
    6 0.000001 -2.886454 1.471525 -0.004650 0.000000 0.000000
    7 0.000000 -0.778211 1.774024 -0.691980 0.000000 0.000000
    8 0.000000 -1.598869 0.580120 0.000000 0.000000 0.000000
    9 -1.488765 0.613430 -9.996980 -0.386949 -0.034945 0.583644
    10 0.096946 -8.450418 -0.009364 0.196617 -0.271851 0.373073
    11 -0.586769 -1.264477 0.200165 -0.282470 -0.582878 -2.509428
    12 1.522835 0.058679 0.016851 0.000000 0.000000 0.446604
    13 1.117948 0.048425 -0.005765 0.015939 -0.000477 0.859148
    14 -0.963866 -2.785144 -0.085346 -0.342483 0.185746 -0.010101
    15 0.028479 -1.403067 0.006271 -0.815979 0.000000 0.000000
    16 0.021412 -0.957781 0.020047 -0.445059 0.000000 0.000000
    17 -0.249534 -2.846964 -0.174215 -0.012978 0.031261 0.129804
    18 0.043234 -1.683940 0.096014 -1.668295 0.000000 0.000000
    19 0.031730 -1.160831 0.058835 0.119114 0.000000 0.000000
    20 0.447951 -2.798983 -0.200442 -0.148382 0.067808 0.126894
    21 -0.032910 -1.480207 0.004935 -1.409715 0.000000 0.000000
    22 -0.027023 -1.076920 -0.020211 0.112912 0.000000 0.000000
    23 1.164474 -2.543938 -0.170326 -0.222289 -0.030232 0.124244
    24 0.024032 -1.129040 0.017806 -1.058217 0.000000 0.000000
    25 0.014897 -0.883992 -0.019845 -0.305455 0.000000 0.000000
    26 -0.026406 -0.138455 -0.019867 0.287061 0.027381 1.346366
    27 0.583509 -1.197273 0.185379 0.339227 -0.969650 -0.814052
    28 1.535926 0.010247 0.005008 -0.326444 -0.010942 -1.015318
    29 1.100770 0.004528 -0.010676 -0.000003 -0.000001 -0.488690
    30 0.957766 -2.746777 -0.090301 -0.233911 -0.030190 0.091702
    31 -0.033419 -1.397128 -0.011256 -0.074132 0.000000 0.000000
    32 -0.022361 -0.957433 0.018782 -0.870552 0.000000 0.000000
    33 0.250028 -2.820664 -0.238397 -0.470596 0.001394 -0.072461
    34 -0.049759 -1.680544 0.100479 -1.606138 0.000000 0.000000
    35 -0.034141 -1.148311 0.084779 -1.483556 0.000000 0.000000
    36 -0.488517 -2.755600 -0.228261 -0.436149 -0.021506 -0.150745
    37 0.039888 -1.479791 0.029853 -1.503030 0.000000 0.000000
    38 0.028785 -1.075732 -0.023110 -1.633152 0.000000 0.000000
    39 -1.180679 -2.507216 -0.193861 -0.170864 0.143009 -0.128851
    40 -0.024967 -1.123935 0.017594 -0.768586 0.000000 0.000000
    41 -0.020058 -0.890964 0.010091 -1.080190 0.000000 0.000000
    42 0.080903 -0.068755 -0.180384 0.307743 -2.879452 1.540137
  time 21
    0 6.657246 3.757797 -5.958730 -0.888421 -1.313983 0.676241
    1 -0.071917 -8.498732 -0.104136 0.324957 -0.136171 -0.200080
    2 -0.252194 -4.514323 0.852150 -1.061842 1.466010 -1.048336
    3 -0.000001 2.617617 0.665015 0.000000 0.000000 0.000000
    4 0.000000 -0.030416 2.278033 0.000000 0.000000 0.000000
    5 0.000000 -1.796959 1.330032 0.000000 0.000000 0.000000
    6 0.000001 -2.886454 1.471525 -0.002217 0.000000 0.000000
    7 0.000000 -0.778211 1.774024 -0.685997 0.000000 0.000000
    8 0.000000 -1.598869 0.580120 0.000000 0.000000 0.000000
    9 -1.574706 0.507958 -10.036044 -0.401575 -0.037007 0.599738
    10 0.096946 -8.450418 -0.009364 0.153870 -0.292875 0.407950
    11 -0.586769 -1.264477 0.200165 -0.282470 -0.582878 -2.509428
    12 1.522835 0.058679 0.016851 0.000000 0.000000 0.446604
    13 1.117948 0.048425 -0.005765 0.015939 -0.000477 0.859148
    14 -0.963866 -2.785144 -0.085346 -0.342483 0.185746 -0.010101
    15 0.028479 -1.403067 0.006271 -0.815979 0.000000 0.000000
    16 0.021412 -0.957781 0.020047 -0.445059 0.000000 0.000000
    17 -0.249534 -2.846964 -0.174215 -0.012978 0.031261 0.129804
    18 0.043234 -1.683940 0.096014 -1.668295 0.000000 0.000000
    19 0.031730 -1.160831 0.058835 0.119114 0.000000 0.000000
    20 0.447951 -2.798983 -0.200442 -0.148382 0.067808 0.126894
    21 -0.032910 -1.480207 0.004935 -1.409715 0.000000 0.000000
    22 -0.027023 -1.076920 -0.020211 0.112912 0.000000 0.000000
    23 1.164474 -2.543938 -0.170326 -0.222289 -0.030232 0.124244
    24 0.024032 -1.129040 0.017806 -1.058217 0.000000 0.000000
    25 0.014897 -0.883992 -0.019845 -0.305455 0.000000 0.000000
    26 -0.026406 -0.138455 -0.019867 0.287061 0.027381 1.346366
    27 0.583509 -1.197273 0.185379 0.339227 -0.969650 -0.814052
    28 1.535926 0.010247 0.005008 -0.326444 -0.010942 -1.015318
    29 1.100770 0.004528 -0.010676 -0.000003 -0.000001 -0.488690
    30 0.957766 -2.746777 -0.090301 -0.233911 -0.030190 0.091702
    31 -0.033419 -1.397128 -0.011256 -0.080175 0.000000 0.000000
    32 -0.022361 -0.957433 0.018782 -0.873441 0.000000 0.000000
    33 0.250028 -2.820664 -0.238397 -0.470596 0.001394 -0.072461
    34 -0.049759 -1.680544 0.100479 -1.606138 0.000000 0.000000
    35 -0.034141 -1.148311 0.084779 -1.483556 0.000000 0.000000
    36 -0.488517 -2.755600 -0.228261 -0.436149 -0.021506 -0.150745
    37 0.039888 -1.479791 0.029853 -1.503030 0.000000 0.000000
    38 0.028785 -1.075732 -0.023110 -1.633152 0.000000 0.000000
    39 -1.180679 -2.507216 -0.193861 -0.170864 0.143009 -0.128851
    40 -0.024967 -1.123935 0.017594 -0.768586 0.000000 0.000000
    41 -0.020058 -0.890964 0.010091 -1.080190 0.000000 0.000000
    42 0.080903 -0.068755 -0.180384 0.307743 -2.879452 1.540137
  time 22
    0 6.653340 3.734359 -5.935292 -0.902657 -1.309275 0.690963
    1 -0.071917 -8.498732 -0.104136 0.319558 -0.137259 -0.187275
    2 -0.252194 -4.514323 0.852150 -1.061842 1.466010 -1.048336
    3 -0.000001 2.617617 0.665015 0.000000 0.000000 0.000000
    4 0.000000 -0.030416 2.278033 0.000000 0.000000 0.000000
    5 0.000000 -1.796959 1.330032 0.000000 0.000000 0.000000
    6 0.000001 -2.886454 1.471525 -0.000587 0.000000 0.000000
    7 0.000000 -0.778211 1.774024 -0.682071 0.000000 0.000000
    8 0.000000 -1.598869 0.580120 0.000000 0.000000 0.000000
    9 -1.687990 0.375141 -10.032137 -0.415401 -0.038994 0.615219
    10 0.096946 -8.450418 -0.009364 0.111707 -0.312098 0.442725
    11 -0.586769 -1.264477 0.200165 -0.282470 -0.582878 -2.509428
    12 1.522835 0.058679 0.016851 0.000000 0.000000 0.446604
    13 1.117948 0.048425 -0.005765 0.015939 -0.000477 0.859148
    14 -0.963866 -2.785144 -0.085346 -0.342483 0.185746 -0.010101
    15 0.028479 -1.403067 0.006271 -0.815979 0.000000 0.000000
    16 0.021412 -0.957781 0.020047 -0.445059 0.000000 0.000000
    17 -0.249534 -2.846964 -0.174215 -0.012978 0.031261 0.129804
    18 0.043234 -1.683940 0.096014 -1.668295 0.000000 0.000000
    19 0.031730 -1.160831 0.058835 0.119114 0.000000 0.000000
    20 0.447951 -2.798983 -0.200442 -0.148382 0.067808 0.126894
    21 -0.032910 -1.480207 0.004935 -1.409715 0.000000 0.000000
    22 -0.027023 -1.076920 -0.020211 0.112912 0.000000 0.000000
    23 1.164474 -2.543938 -0.170326 -0.222289 -0.030232 0.124244
    24 0.024032 -1.129040 0.017806 -1.058217 0.000000 0.000000
    25 0.014897 -0.883992 -0.019845 -0.305455 0.000000 0.000000
    26 -0.026406 -0.138455 -0.019867 0.287061 0.027381 1.346366
    27 0.583509 -1.197273 0.185379 0.339227 -0.969650 -0.814052
    28 1.535926 0.010247 0.005008 -0.326444 -0.010942 -1.015318
    29 1.100770 0.004528 -0.010676 -0.000003 -0.000001 -0.488690
    30 0.957766 -2.746777 -0.090301 -0.233911 -0.030190 0.091702
    31 -0.033419 -1.397128 -0.011256 -0.084225 0.000000 0.000000
    32 -0.022361 -0.957433 0.018782 -0.875396 0.000000 0.000000
    33 0.250028 -2.820664 -0.238397 -0.470596 0.001394 -0.072461
    34 -0.049759 -1.680544 0.100479 -1.606138 0.000000 0.000000
    35 -0.034141 -1.148311 0.084779 -1.483556 0.000000 0.000000
    36 -0.488517 -2.755600 -0.228261 -0.436149 -0.021506 -0.150745
    37 0.039888 -1.479791 0.029853 -1.503030 0.000000 0.000000
    38 0.028785 -1.075732 -0.023110 -1.633152 0.000000 0.000000
    39 -1.180679 -2.507216 -0.193861 -0.170864 0.143009 -0.128851
    40 -0.024967 -1.123935 0.017594 -0.768586 0.000000 0.000000
    41 -0.020058 -0.890964 0.010091 -1.080190 0.000000 0.000000
    42 0.080903 -0.068755 -0.180384 0.307743 -2.879452 1.540137
  time 23
    0 6.653340 3.726546 -5.927479 -0.911600 -1.306172 0.700292
    1 -0.071917 -8.498732 -0.104136 0.314522 -0.138803 -0.176437
    2 -0.252194 -4.514323 0.852150 -1.061842 1.466010 -1.048336
    3 -0.000001 2.617617 0.665015 0.000000 0.000000 0.000000
    4 0.000000 -0.030416 2.278033 0.000000 0.000000 0.000000
    5 0.000000 -1.796959 1.330032 0.000000 0.000000 0.000000
    6 0.000001 -2.886454 1.471525 0.000000 0.000000 0.000000
    7 0.000000 -0.778211 1.774024 -0.680679 0.000000 0.000000
    8 0.000000 -1.598869 0.580120 0.000000 0.000000 0.000000
    9 -1.809088 0.230605 -9.993073 -0.427228 -0.041350 0.629321
    10 0.096946 -8.450418 -0.009364 0.072740 -0.329122 0.475302
    11 -0.586769 -1.264477 0.200165 -0.282470 -0.582878 -2.509428
    12 1.522835 0.058679 0.016851 0.000000 0.000000 0.446604
    13 1.117948 0.048425 -0.005765 0.015939 -0.000477 0.859148
    14 -0.963866 -2.785144 -0.085346 -0.342483 0.185746 -0.010101
    15 0.028479 -1.403067 0.006271 -0.815979 0.000000 0.000000
    16 0.021412 -0.957781 0.020047 -0.445059 0.000000 0.000000
    17 -0.249534 -2.846964 -0.174215 -0.012978 0.031261 0.129804
    18 0.043234 -1.683940 0.096014 -1.668295 0.000000 0.000000
    19 0.031730 -1.160831 0.058835 0.119114 0.000000 0.000000
    20 0.447951 -2.798983 -0.200442 -0.148382 0.067808 0.126894
    21 -0.032910 -1.480207 0.004935 -1.409715 0.000000 0.000000
    22 -0.027023 -1.076920 -0.020211 0.112912 0.000000 0.000000
    23 1.164474 -2.543938 -0.170326 -0.222289 -0.030232 0.124244
    24 0.024032 -1.129040 0.017806 -1.058217 0.000000 0.000000
    25 0.014897 -0.883992 -0.019845 -0.305455 0.000000 0.000000
    26 -0.026406 -0.138455 -0.019867 0.287061 0.027381 1.346366
    27 0.583509 -1.197273 0.185379 0.339227 -0.969650 -0.814052
    28 1.535926 0.010247 0.005008 -0.326444 -0.010942 -1.015318
    29 1.100770 0.004528 -0.010676 -0.000003 -0.000001 -0.488690
    30 0.957766 -2.746777 -0.090301 -0.233911 -0.030190 0.091702
    31 -0.033419 -1.397128 -0.011256 -0.085680 0.000000 0.000000
    32 -0.022361 -0.957433 0.018782 -0.876155 0.000000 0.000000
    33 0.250028 -2.820664 -0.238397 -0.470596 0.001394 -0.072461
    34 -0.049759 -1.680544 0.100479 -1.606138 0.000000 0.000000
    35 -0.034141 -1.148311 0.084779 -1.483556 0.000000 0.000000
    36 -0.488517 -2.755600 -0.228261 -0.436149 -0.021506 -0.150745
    37 0.039888 -1.479791 0.029853 -1.503030 0.000000 0.000000
    38 0.028785 -1.075732 -0.023110 -1.633152 0.000000 0.000000
    39 -1.180679 -2.507216 -0.193861 -0.170864 0.143009 -0.128851
    40 -0.024967 -1.123935 0.017594 -0.768586 0.000000 0.000000
    41 -0.020058 -0.890964 0.010091 -1.080190 0.000000 0.000000
    42 0.080903 -0.068755 -0.180384 0.307743 -2.879452 1.540137
end
