version 1
nodes
  0 "Bone01" -1
  1 "Bone_Lefthand" 0
  2 "Bone02" 1
  3 "Bone03" 2
  4 "Bone52" 3
  5 "Bone48" 3
  6 "Bone25" 3
  7 "Bone50" 3
  8 "Bone54" 3
  9 "Bone04" -1
  10 "Bone_Righthand" 9
  11 "Bone27" 10
  12 "Bone28" 11
  13 "Bone29" 12
  14 "Bone31" 10
  15 "Bone32" 14
  16 "Bone33" 15
  17 "Bone35" 10
  18 "Bone36" 17
  19 "Bone37" 18
  20 "Bone39" 10
  21 "Bone40" 20
  22 "Bone41" 21
  23 "Bone43" 10
  24 "Bone44" 23
  25 "Bone45" 24
  26 "Bone_Se_Hand-R" 10
  27 "Bone05" 1
  28 "Bone06" 27
  29 "Bone07" 28
  30 "Bone21" 1
  31 "Bone22" 30
  32 "Bone23" 31
  33 "Bone17" 1
  34 "Bone18" 33
  35 "Bone19" 34
  36 "Bone13" 1
  37 "Bone14" 36
  38 "Bone15" 37
  39 "Bone09" 1
  40 "Bone10" 39
  41 "Bone11" 40
  42 "Bone_Se_Hand-L" 1
end
skeleton
  time 0
    0 6.653340 3.726546 -5.927479 -0.910884 -1.306429 0.699564
    1 -0.071917 -8.498732 -0.104136 0.314522 -0.138803 -0.176415
    2 -0.252194 -4.514323 0.852150 -1.061842 1.466010 -1.048336
    3 -0.000001 2.617617 0.665015 0.000000 0.000000 0.000000
    4 0.000000 -1.655466 2.278033 0.000000 0.000000 0.000000
    5 0.000000 -1.796959 1.330032 0.000000 0.000000 0.000000
    6 0.000001 -2.886454 1.471525 0.183256 0.000000 0.000000
    7 0.000000 -0.778211 1.774024 -0.000021 0.000000 0.000000
    8 0.000000 -1.598869 0.580120 0.000000 0.000000 0.000000
    9 -1.809088 0.230605 -9.993073 -0.427228 -0.041350 0.629321
    10 0.096946 -8.450418 -0.009364 0.072740 -0.329122 0.475302
    11 -0.586769 -1.264477 0.200165 -0.282470 -0.582878 -2.509428
    12 1.522835 0.058679 0.016851 0.000000 0.000000 0.446604
    13 1.117948 0.048425 -0.005765 0.015939 -0.000477 0.859148
    14 -0.963866 -2.785144 -0.085346 -0.342483 0.185746 -0.010101
    15 0.028479 -1.403067 0.006271 -0.815979 0.000000 0.000000
    16 0.021412 -0.957781 0.020047 -0.445059 0.000000 0.000000
    17 -0.249534 -2.846964 -0.174215 -0.012978 0.031261 0.129804
    18 0.043234 -1.683940 0.096014 -1.668295 0.000000 0.000000
    19 0.031730 -1.160831 0.058835 0.119114 0.000000 0.000000
    20 0.447951 -2.798983 -0.200442 -0.148382 0.067808 0.126894
    21 -0.032910 -1.480207 0.004935 -1.409715 0.000000 0.000000
    22 -0.027023 -1.076920 -0.020211 0.112912 0.000000 0.000000
    23 1.164474 -2.543938 -0.170326 -0.222289 -0.030232 0.124244
    24 0.024032 -1.129040 0.017806 -1.058217 0.000000 0.000000
    25 0.014897 -0.883992 -0.019845 -0.305455 0.000000 0.000000
    26 -0.026406 -0.138455 -0.019867 0.287061 0.027381 1.346366
    27 0.583509 -1.197273 0.185379 0.339227 -0.969650 -0.814052
    28 1.535926 0.010247 0.005008 -0.326444 -0.010942 -1.015318
    29 1.100770 0.004528 -0.010676 -0.002280 -0.012860 -0.483518
    30 0.957766 -2.746777 -0.090301 -0.233911 -0.030190 0.091702
    31 -0.033419 -1.397128 -0.011256 -0.541191 0.000000 0.000000
    32 -0.022361 -0.957433 0.018782 -1.062696 0.000000 0.000000
    33 0.250028 -2.820664 -0.238397 -0.470596 0.001394 -0.072461
    34 -0.049759 -1.680544 0.100479 -1.606138 0.000000 0.000000
    35 -0.034141 -1.148311 0.084779 -1.613141 0.000000 0.000000
    36 -0.488517 -2.755600 -0.228261 -0.436149 -0.021506 -0.150745
    37 0.039888 -1.479791 0.029853 -1.503030 0.000000 0.000000
    38 0.028785 -1.075732 -0.023110 -1.633152 0.000000 0.000000
    39 -1.180679 -2.507216 -0.193861 -0.933726 0.000009 -0.087276
    40 -0.024967 -1.123935 0.017594 -0.610882 0.000000 0.000000
    41 -0.020058 -0.890964 0.010091 -1.212998 0.000000 0.000000
    42 0.080903 -0.068755 -0.180384 0.307743 -2.879452 1.540137
  time 1
    0 6.653340 3.652325 -5.950917 -0.861093 -1.322436 0.648036
    1 -0.071917 -8.498732 -0.104136 0.288864 -0.157682 0.094218
    2 -0.252194 -4.514323 0.852150 -1.061842 1.466010 -1.048336
    3 -0.000001 2.617617 0.665015 0.000000 0.000000 0.000000
    4 0.000000 -0.842941 2.278033 0.000000 0.000000 0.000000
    5 0.000000 -1.796959 1.330032 0.000000 0.000000 0.000000
    6 0.000001 -2.886454 1.471525 0.188985 0.000000 0.000000
    7 0.000000 -0.778211 1.774024 -0.418042 0.000000 0.000000
    8 0.000000 -1.598869 0.580120 0.000000 0.000000 0.000000
    9 -1.555174 -0.179563 -9.911040 -0.438312 -0.041350 0.629321
    10 0.096946 -8.450418 -0.009364 0.010363 -0.221152 0.476120
    11 -0.586769 -1.264477 0.200165 -0.282470 -0.582878 -2.509428
    12 1.522835 0.058679 0.016851 0.000000 0.000000 0.446604
    13 1.117948 0.048425 -0.005765 0.015939 -0.000477 0.859148
    14 -0.963866 -2.785144 -0.085346 -0.342483 0.185746 -0.010101
    15 0.028479 -1.403067 0.006271 -0.815979 0.000000 0.000000
    16 0.021412 -0.957781 0.020047 -0.445059 0.000000 0.000000
    17 -0.249534 -2.846964 -0.174215 -0.012978 0.031261 0.129804
    18 0.043234 -1.683940 0.096014 -1.668295 0.000000 0.000000
    19 0.031730 -1.160831 0.058835 0.119114 0.000000 0.000000
    20 0.447951 -2.798983 -0.200442 -0.148382 0.067808 0.126894
    21 -0.032910 -1.480207 0.004935 -1.409715 0.000000 0.000000
    22 -0.027023 -1.076920 -0.020211 0.112912 0.000000 0.000000
    23 1.164474 -2.543938 -0.170326 -0.222289 -0.030232 0.124244
    24 0.024032 -1.129040 0.017806 -1.058217 0.000000 0.000000
    25 0.014897 -0.883992 -0.019845 -0.305455 0.000000 0.000000
    26 -0.026406 -0.138455 -0.019867 0.287061 0.027381 1.346366
    27 0.583509 -1.197273 0.185379 0.339227 -0.969650 -0.814052
    28 1.535926 0.010247 0.005008 -0.326444 -0.010942 -1.015318
    29 1.100770 0.004528 -0.010676 -0.002280 -0.012860 -0.483518
    30 0.957766 -2.746777 -0.090301 -0.233911 -0.030190 0.091702
    31 -0.033419 -1.397128 -0.011256 -0.555429 0.000000 0.000000
    32 -0.022361 -0.957433 0.018782 -1.068036 0.000000 0.000000
    33 0.250028 -2.820664 -0.238397 -0.470596 0.001394 -0.072461
    34 -0.049759 -1.680544 0.100479 -1.606138 0.000000 0.000000
    35 -0.034141 -1.148311 0.084779 -1.613141 0.000000 0.000000
    36 -0.488517 -2.755600 -0.228261 -0.436149 -0.021506 -0.150745
    37 0.039888 -1.479791 0.029853 -1.503030 0.000000 0.000000
    38 0.028785 -1.075732 -0.023110 -1.633152 0.000000 0.000000
    39 -1.180679 -2.507216 -0.193861 -0.933726 0.000009 -0.087276
    40 -0.024967 -1.123935 0.017594 -0.610882 0.000000 0.000000
    41 -0.020058 -0.890964 0.010091 -1.212998 0.000000 0.000000
    42 0.080903 -0.068755 -0.180384 0.307743 -2.879452 1.540137
  time 2
    0 6.653340 3.624980 -5.974355 -0.952091 -1.290957 0.742345
    1 -0.071917 -8.498732 -0.104136 0.275375 -0.166294 0.219360
    2 -0.252194 -4.514323 0.852150 -1.061842 1.466010 -1.048336
    3 -0.000001 2.617617 0.665015 0.000000 0.000000 0.000000
    4 0.000000 -0.030416 2.278033 0.000000 0.000000 0.000000
    5 0.000000 -1.796959 1.330032 0.000000 0.000000 0.000000
    6 0.000001 -2.886454 1.471525 0.198525 0.000000 0.000000
    7 0.000000 -0.778211 1.774024 -0.680679 0.000000 0.000000
    8 0.000000 -1.598869 0.580120 0.000000 0.000000 0.000000
    9 -1.332511 -0.437384 -9.836819 -0.458594 -0.041350 0.629321
    10 0.096946 -8.450418 -0.009364 -0.015548 -0.145898 0.472320
    11 -0.586769 -1.264477 0.200165 -0.282470 -0.582878 -2.509428
    12 1.522835 0.058679 0.016851 0.000000 0.000000 0.446604
    13 1.117948 0.048425 -0.005765 0.015939 -0.000477 0.859148
    14 -0.963866 -2.785144 -0.085346 -0.342483 0.185746 -0.010101
    15 0.028479 -1.403067 0.006271 -0.815979 0.000000 0.000000
    16 0.021412 -0.957781 0.020047 -0.445059 0.000000 0.000000
    17 -0.249534 -2.846964 -0.174215 -0.012978 0.031261 0.129804
    18 0.043234 -1.683940 0.096014 -1.668295 0.000000 0.000000
    19 0.031730 -1.160831 0.058835 0.119114 0.000000 0.000000
    20 0.447951 -2.798983 -0.200442 -0.148382 0.067808 0.126894
    21 -0.032910 -1.480207 0.004935 -1.409715 0.000000 0.000000
    22 -0.027023 -1.076920 -0.020211 0.112912 0.000000 0.000000
    23 1.164474 -2.543938 -0.170326 -0.222289 -0.030232 0.124244
    24 0.024032 -1.129040 0.017806 -1.058217 0.000000 0.000000
    25 0.014897 -0.883992 -0.019845 -0.305455 0.000000 0.000000
    26 -0.026406 -0.138455 -0.019867 0.287061 0.027381 1.346366
    27 0.583509 -1.197273 0.185379 0.339227 -0.969650 -0.814052
    28 1.535926 0.010247 0.005008 -0.326444 -0.010942 -1.015318
    29 1.100770 0.004528 -0.010676 -0.002280 -0.012860 -0.483518
    30 0.957766 -2.746777 -0.090301 -0.233911 -0.030190 0.091702
    31 -0.033419 -1.397128 -0.011256 -0.579158 0.000000 0.000000
    32 -0.022361 -0.957433 0.018782 -1.076908 0.000000 0.000000
    33 0.250028 -2.820664 -0.238397 -0.470596 0.001394 -0.072461
    34 -0.049759 -1.680544 0.100479 -1.606138 0.000000 0.000000
    35 -0.034141 -1.148311 0.084779 -1.613141 0.000000 0.000000
    36 -0.488517 -2.755600 -0.228261 -0.436149 -0.021506 -0.150745
    37 0.039888 -1.479791 0.029853 -1.503030 0.000000 0.000000
    38 0.028785 -1.075732 -0.023110 -1.633152 0.000000 0.000000
    39 -1.180679 -2.507216 -0.193861 -0.933726 0.000009 -0.087276
    40 -0.024967 -1.123935 0.017594 -0.610882 0.000000 0.000000
    41 -0.020058 -0.890964 0.010091 -1.212998 0.000000 0.000000
    42 0.080903 -0.068755 -0.180384 0.307743 -2.879452 1.540137
  time 3
    0 6.653340 3.667950 -6.005606 -1.041944 -1.247729 0.836362
    1 -0.071917 -8.498732 -0.104136 0.276531 -0.170304 0.207282
    2 -0.252194 -4.514323 0.852150 -1.061842 1.466010 -1.048336
    3 -0.000001 2.617617 0.665015 0.000000 0.000000 0.000000
    4 0.000000 -1.655466 2.278033 0.000000 0.000000 0.000000
    5 0.000000 -1.796959 1.330032 0.000000 0.000000 0.000000
    6 0.000001 -2.886454 1.471525 0.200430 0.000000 0.000000
    7 0.000000 -0.778211 1.774024 -0.707518 0.000000 0.000000
    8 0.000000 -1.598869 0.580120 0.000000 0.000000 0.000000
    9 -1.109848 -0.488166 -9.778223 -0.510871 -0.040614 0.629015
    10 0.096946 -8.450418 -0.009364 0.047687 -0.144776 0.472099
    11 -0.586769 -1.264477 0.200165 -0.282470 -0.582878 -2.509428
    12 1.522835 0.058679 0.016851 0.000000 0.000000 0.446604
    13 1.117948 0.048425 -0.005765 0.015939 -0.000477 0.859148
    14 -0.963866 -2.785144 -0.085346 -0.342483 0.185746 -0.010101
    15 0.028479 -1.403067 0.006271 -0.815979 0.000000 0.000000
    16 0.021412 -0.957781 0.020047 -0.445059 0.000000 0.000000
    17 -0.249534 -2.846964 -0.174215 -0.012978 0.031261 0.129804
    18 0.043234 -1.683940 0.096014 -1.668295 0.000000 0.000000
    19 0.031730 -1.160831 0.058835 0.119114 0.000000 0.000000
    20 0.447951 -2.798983 -0.200442 -0.148382 0.067808 0.126894
    21 -0.032910 -1.480207 0.004935 -1.409715 0.000000 0.000000
    22 -0.027023 -1.076920 -0.020211 0.112912 0.000000 0.000000
    23 1.164474 -2.543938 -0.170326 -0.222289 -0.030232 0.124244
    24 0.024032 -1.129040 0.017806 -1.058217 0.000000 0.000000
    25 0.014897 -0.883992 -0.019845 -0.305455 0.000000 0.000000
    26 -0.026406 -0.138455 -0.019867 0.287061 0.027381 1.346366
    27 0.583509 -1.197273 0.185379 0.339227 -0.969650 -0.814052
    28 1.535926 0.010247 0.005008 -0.326444 -0.010942 -1.015318
    29 1.100770 0.004528 -0.010676 -0.002280 -0.012860 -0.483518
    30 0.957766 -2.746777 -0.090301 -0.233911 -0.030190 0.091702
    31 -0.033419 -1.397128 -0.011256 -0.583904 0.000000 0.000000
    32 -0.022361 -0.957433 0.018782 -1.078688 0.000000 0.000000
    33 0.250028 -2.820664 -0.238397 -0.470596 0.001394 -0.072461
    34 -0.049759 -1.680544 0.100479 -1.606138 0.000000 0.000000
    35 -0.034141 -1.148311 0.084779 -1.613141 0.000000 0.000000
    36 -0.488517 -2.755600 -0.228261 -0.436149 -0.021506 -0.150745
    37 0.039888 -1.479791 0.029853 -1.503030 0.000000 0.000000
    38 0.028785 -1.075732 -0.023110 -1.633152 0.000000 0.000000
    39 -1.180679 -2.507216 -0.193861 -0.933726 0.000009 -0.087276
    40 -0.024967 -1.123935 0.017594 -0.610882 0.000000 0.000000
    41 -0.020058 -0.890964 0.010091 -1.212998 0.000000 0.000000
    42 0.080903 -0.068755 -0.180384 0.307743 -2.879452 1.540137
  time 4
    0 6.653340 3.773422 -6.044670 -1.110193 -1.202083 0.908879
    1 -0.071917 -8.498732 -0.104136 0.280064 -0.177070 0.174147
    2 -0.252194 -4.514323 0.852150 -1.061842 1.466010 -1.048336
    3 -0.000001 2.617617 0.665015 0.000000 0.000000 0.000000
    4 0.000000 -1.655466 2.278033 0.000000 0.000000 0.000000
    5 0.000000 -1.796959 1.330032 0.000000 0.000000 0.000000
    6 0.000001 -2.886454 1.471525 0.183256 0.000000 0.000000
    7 0.000000 -0.778211 1.774024 -0.729122 0.000000 0.000000
    8 0.000000 -1.598869 0.580120 0.000000 0.000000 0.000000
    9 -0.922342 -0.382694 -9.727440 -0.571260 -0.039878 0.628631
    10 0.096946 -8.450418 -0.009364 0.142604 -0.172651 0.471060
    11 -0.586769 -1.264477 0.200165 -0.282470 -0.582878 -2.509428
    12 1.522835 0.058679 0.016851 0.000000 0.000000 0.446604
    13 1.117948 0.048425 -0.005765 0.015939 -0.000477 0.859148
    14 -0.963866 -2.785144 -0.085346 -0.342483 0.185746 -0.010101
    15 0.028479 -1.403067 0.006271 -0.815979 0.000000 0.000000
    16 0.021412 -0.957781 0.020047 -0.445059 0.000000 0.000000
    17 -0.249534 -2.846964 -0.174215 -0.012978 0.031261 0.129804
    18 0.043234 -1.683940 0.096014 -1.668295 0.000000 0.000000
    19 0.031730 -1.160831 0.058835 0.119114 0.000000 0.000000
    20 0.447951 -2.798983 -0.200442 -0.148382 0.067808 0.126894
    21 -0.032910 -1.480207 0.004935 -1.409715 0.000000 0.000000
    22 -0.027023 -1.076920 -0.020211 0.112912 0.000000 0.000000
    23 1.164474 -2.543938 -0.170326 -0.222289 -0.030232 0.124244
    24 0.024032 -1.129040 0.017806 -1.058217 0.000000 0.000000
    25 0.014897 -0.883992 -0.019845 -0.305455 0.000000 0.000000
    26 -0.026406 -0.138455 -0.019867 0.287061 0.027381 1.346366
    27 0.583509 -1.197273 0.185379 0.339227 -0.969650 -0.814052
    28 1.535926 0.010247 0.005008 -0.326444 -0.010942 -1.015318
    29 1.100770 0.004528 -0.010676 -0.002280 -0.012860 -0.483518
    30 0.957766 -2.746777 -0.090301 -0.233911 -0.030190 0.091702
    31 -0.033419 -1.397128 -0.011256 -0.541191 0.000000 0.000000
    32 -0.022361 -0.957433 0.018782 -1.062696 0.000000 0.000000
    33 0.250028 -2.820664 -0.238397 -0.470596 0.001394 -0.072461
    34 -0.049759 -1.680544 0.100479 -1.606138 0.000000 0.000000
    35 -0.034141 -1.148311 0.084779 -1.613141 0.000000 0.000000
    36 -0.488517 -2.755600 -0.228261 -0.436149 -0.021506 -0.150745
    37 0.039888 -1.479791 0.029853 -1.503030 0.000000 0.000000
    38 0.028785 -1.075732 -0.023110 -1.633152 0.000000 0.000000
    39 -1.180679 -2.507216 -0.193861 -0.933726 0.000009 -0.087276
    40 -0.024967 -1.123935 0.017594 -0.610882 0.000000 0.000000
    41 -0.020058 -0.890964 0.010091 -1.212998 0.000000 0.000000
    42 0.080903 -0.068755 -0.180384 0.307743 -2.879452 1.540137
  time 5
    0 6.653340 3.894520 -6.075921 -1.153045 -1.164890 0.955159
    1 -0.071917 -8.498732 -0.104136 0.285513 -0.184016 0.126690
    2 -0.252194 -4.514323 0.852150 -1.061842 1.466010 -1.048336
    3 -0.000001 2.617617 0.665015 0.000000 0.000000 0.000000
    4 0.000000 -1.655466 2.278033 0.000000 0.000000 0.000000
    5 0.000000 -1.796959 1.330032 0.000000 0.000000 0.000000
    6 0.000001 -2.886454 1.471525 0.086397 0.000000 0.000000
    7 0.000000 -0.778211 1.774024 -0.745886 0.000000 0.000000
    8 0.000000 -1.598869 0.580120 0.000000 0.000000 0.000000
    9 -0.832495 -0.249878 -9.672751 -0.597370 -0.041350 0.629321
    10 0.096946 -8.450418 -0.009364 0.207665 -0.196902 0.465522
    11 -0.586769 -1.264477 0.200165 -0.282470 -0.582878 -2.509428
    12 1.522835 0.058679 0.016851 0.000000 0.000000 0.446604
    13 1.117948 0.048425 -0.005765 0.015939 -0.000477 0.859148
    14 -0.963866 -2.785144 -0.085346 -0.342483 0.185746 -0.010101
    15 0.028479 -1.403067 0.006271 -0.815979 0.000000 0.000000
    16 0.021412 -0.957781 0.020047 -0.445059 0.000000 0.000000
    17 -0.249534 -2.846964 -0.174215 -0.012978 0.031261 0.129804
    18 0.043234 -1.683940 0.096014 -1.668295 0.000000 0.000000
    19 0.031730 -1.160831 0.058835 0.119114 0.000000 0.000000
    20 0.447951 -2.798983 -0.200442 -0.148382 0.067808 0.126894
    21 -0.032910 -1.480207 0.004935 -1.409715 0.000000 0.000000
    22 -0.027023 -1.076920 -0.020211 0.112912 0.000000 0.000000
    23 1.164474 -2.543938 -0.170326 -0.222289 -0.030232 0.124244
    24 0.024032 -1.129040 0.017806 -1.058217 0.000000 0.000000
    25 0.014897 -0.883992 -0.019845 -0.305455 0.000000 0.000000
    26 -0.026406 -0.138455 -0.019867 0.287061 0.027381 1.346366
    27 0.583509 -1.197273 0.185379 0.339227 -0.969650 -0.814052
    28 1.535926 0.010247 0.005008 -0.326444 -0.010942 -1.015318
    29 1.100770 0.004528 -0.010676 -0.002280 -0.012860 -0.483518
    30 0.957766 -2.746777 -0.090301 -0.233911 -0.030190 0.091702
    31 -0.033419 -1.397128 -0.011256 -0.300448 0.000000 0.000000
    32 -0.022361 -0.957433 0.018782 -1.000827 0.000000 0.000000
    33 0.250028 -2.820664 -0.238397 -0.470596 0.001394 -0.072461
    34 -0.049759 -1.680544 0.100479 -1.606138 0.000000 0.000000
    35 -0.034141 -1.148311 0.084779 -1.613141 0.000000 0.000000
    36 -0.488517 -2.755600 -0.228261 -0.436149 -0.021506 -0.150745
    37 0.039888 -1.479791 0.029853 -1.503030 0.000000 0.000000
    38 0.028785 -1.075732 -0.023110 -1.633152 0.000000 0.000000
    39 -1.180679 -2.507216 -0.193861 -0.933726 0.000009 -0.087276
    40 -0.024967 -1.123935 0.017594 -0.610882 0.000000 0.000000
    41 -0.020058 -0.890964 0.010091 -1.212998 0.000000 0.000000
    42 0.080903 -0.068755 -0.180384 0.307743 -2.879452 1.540137
  time 6
    0 6.653340 3.984366 -6.103266 -1.170429 -1.147235 0.974108
    1 -0.071917 -8.498732 -0.104136 0.292579 -0.190616 0.068480
    2 -0.252194 -4.514323 0.852150 -1.061842 1.466010 -1.048336
    3 -0.000001 2.617617 0.665015 0.000000 0.000000 0.000000
    4 0.000000 -1.655466 2.278033 0.000000 0.000000 0.000000
    5 0.000000 -1.796959 1.330032 0.000000 0.000000 0.000000
    6 0.000001 -2.886454 1.471525 0.000000 0.000000 0.000000
    7 0.000000 -0.778211 1.774024 -0.758247 0.000000 0.000000
    8 0.000000 -1.598869 0.580120 0.000000 0.000000 0.000000
    9 -0.887185 -0.136593 -9.610249 -0.589029 -0.045178 0.631237
    10 0.096946 -8.450418 -0.009364 0.236844 -0.208337 0.457582
    11 -0.586769 -1.264477 0.200165 -0.282470 -0.582878 -2.509428
    12 1.522835 0.058679 0.016851 0.000000 0.000000 0.446604
    13 1.117948 0.048425 -0.005765 0.015939 -0.000477 0.859148
    14 -0.963866 -2.785144 -0.085346 -0.342483 0.185746 -0.010101
    15 0.028479 -1.403067 0.006271 -0.815979 0.000000 0.000000
    16 0.021412 -0.957781 0.020047 -0.445059 0.000000 0.000000
    17 -0.249534 -2.846964 -0.174215 -0.012978 0.031261 0.129804
    18 0.043234 -1.683940 0.096014 -1.668295 0.000000 0.000000
    19 0.031730 -1.160831 0.058835 0.119114 0.000000 0.000000
    20 0.447951 -2.798983 -0.200442 -0.148382 0.067808 0.126894
    21 -0.032910 -1.480207 0.004935 -1.409715 0.000000 0.000000
    22 -0.027023 -1.076920 -0.020211 0.112912 0.000000 0.000000
    23 1.164474 -2.543938 -0.170326 -0.222289 -0.030232 0.124244
    24 0.024032 -1.129040 0.017806 -1.058217 0.000000 0.000000
    25 0.014897 -0.883992 -0.019845 -0.305455 0.000000 0.000000
    26 -0.026406 -0.138455 -0.019867 0.287061 0.027381 1.346366
    27 0.583509 -1.197273 0.185379 0.339227 -0.969650 -0.814052
    28 1.535926 0.010247 0.005008 -0.326444 -0.010942 -1.015318
    29 1.100770 0.004528 -0.010676 -0.002280 -0.012860 -0.483518
    30 0.957766 -2.746777 -0.090301 -0.233911 -0.030190 0.091702
    31 -0.033419 -1.397128 -0.011256 -0.085680 0.000000 0.000000
    32 -0.022361 -0.957433 0.018782 -0.913656 0.000000 0.000000
    33 0.250028 -2.820664 -0.238397 -0.470596 0.001394 -0.072461
    34 -0.049759 -1.680544 0.100479 -1.606138 0.000000 0.000000
    35 -0.034141 -1.148311 0.084779 -1.613141 0.000000 0.000000
    36 -0.488517 -2.755600 -0.228261 -0.436149 -0.021506 -0.150745
    37 0.039888 -1.479791 0.029853 -1.503030 0.000000 0.000000
    38 0.028785 -1.075732 -0.023110 -1.633152 0.000000 0.000000
    39 -1.180679 -2.507216 -0.193861 -0.933726 0.000009 -0.087276
    40 -0.024967 -1.123935 0.017594 -0.610882 0.000000 0.000000
    41 -0.020058 -0.890964 0.010091 -1.212998 0.000000 0.000000
    42 0.080903 -0.068755 -0.180384 0.307743 -2.879452 1.540137
  time 7
    0 6.653340 4.023430 -6.122797 -1.171216 -1.146379 0.975056
    1 -0.071917 -8.498732 -0.104136 0.300901 -0.196473 0.003067
    2 -0.252194 -4.514323 0.852150 -1.061842 1.466010 -1.048336
    3 -0.000001 2.617617 0.665015 0.000000 0.000000 0.000000
    4 0.000000 -1.655466 2.278033 0.000000 0.000000 0.000000
    5 0.000000 -1.796959 1.330032 0.000000 0.000000 0.000000
    6 0.000001 -2.886454 1.471525 -0.008533 0.000000 0.000000
    7 0.000000 -0.778211 1.774024 -0.766577 0.000000 0.000000
    8 0.000000 -1.598869 0.580120 0.000000 0.000000 0.000000
    9 -1.004376 0.007942 -9.543841 -0.575031 -0.049963 0.633460
    10 0.096946 -8.450418 -0.009364 0.265495 -0.219422 0.448024
    11 -0.586769 -1.264477 0.200165 -0.282470 -0.582878 -2.509428
    12 1.522835 0.058679 0.016851 0.000000 0.000000 0.446604
    13 1.117948 0.048425 -0.005765 0.015939 -0.000477 0.859148
    14 -0.963866 -2.785144 -0.085346 -0.342483 0.185746 -0.010101
    15 0.028479 -1.403067 0.006271 -0.815979 0.000000 0.000000
    16 0.021412 -0.957781 0.020047 -0.445059 0.000000 0.000000
    17 -0.249534 -2.846964 -0.174215 -0.012978 0.031261 0.129804
    18 0.043234 -1.683940 0.096014 -1.668295 0.000000 0.000000
    19 0.031730 -1.160831 0.058835 0.119114 0.000000 0.000000
    20 0.447951 -2.798983 -0.200442 -0.148382 0.067808 0.126894
    21 -0.032910 -1.480207 0.004935 -1.409715 0.000000 0.000000
    22 -0.027023 -1.076920 -0.020211 0.112912 0.000000 0.000000
    23 1.164474 -2.543938 -0.170326 -0.222289 -0.030232 0.124244
    24 0.024032 -1.129040 0.017806 -1.058217 0.000000 0.000000
    25 0.014897 -0.883992 -0.019845 -0.305455 0.000000 0.000000
    26 -0.026406 -0.138455 -0.019867 0.287061 0.027381 1.346366
    27 0.583509 -1.197273 0.185379 0.339227 -0.969650 -0.814052
    28 1.535926 0.010247 0.005008 -0.326444 -0.010942 -1.015318
    29 1.100770 0.004528 -0.010676 -0.002280 -0.012860 -0.483518
    30 0.957766 -2.746777 -0.090301 -0.233911 -0.030190 0.091702
    31 -0.033419 -1.397128 -0.011256 -0.064450 0.000000 0.000000
    32 -0.022361 -0.957433 0.018782 -0.863752 0.000000 0.000000
    33 0.250028 -2.820664 -0.238397 -0.470596 0.001394 -0.072461
    34 -0.049759 -1.680544 0.100479 -1.606138 0.000000 0.000000
    35 -0.034141 -1.148311 0.084779 -1.613141 0.000000 0.000000
    36 -0.488517 -2.755600 -0.228261 -0.436149 -0.021506 -0.150745
    37 0.039888 -1.479791 0.029853 -1.503030 0.000000 0.000000
    38 0.028785 -1.075732 -0.023110 -1.633152 0.000000 0.000000
    39 -1.180679 -2.507216 -0.193861 -0.933726 0.000009 -0.087276
    40 -0.024967 -1.123935 0.017594 -0.610882 0.000000 0.000000
    41 -0.020058 -0.890964 0.010091 -1.212998 0.000000 0.000000
    42 0.080903 -0.068755 -0.180384 0.307743 -2.879452 1.540137
  time 8
    0 6.653340 4.027336 -6.130610 -1.166423 -1.151494 0.969735
    1 -0.071917 -8.498732 -0.104136 0.309998 -0.201200 -0.065939
    2 -0.252194 -4.514323 0.852150 -1.061842 1.466010 -1.048336
    3 -0.000001 2.617617 0.665015 0.000000 0.000000 0.000000
    4 0.000000 -1.655466 2.278033 0.000000 0.000000 0.000000
    5 0.000000 -1.796959 1.330032 0.000000 0.000000 0.000000
    6 0.000001 -2.886454 1.471525 -0.015017 0.000000 0.000000
    7 0.000000 -0.778211 1.774024 -0.771271 0.000000 0.000000
    8 0.000000 -1.598869 0.580120 0.000000 0.000000 0.000000
    9 -1.137192 0.218886 -9.473526 -0.556520 -0.055411 0.635836
    10 0.096946 -8.450418 -0.009364 0.293031 -0.230085 0.437307
    11 -0.586769 -1.264477 0.200165 -0.282470 -0.582878 -2.509428
    12 1.522835 0.058679 0.016851 0.000000 0.000000 0.446604
    13 1.117948 0.048425 -0.005765 0.015939 -0.000477 0.859148
    14 -0.963866 -2.785144 -0.085346 -0.342483 0.185746 -0.010101
    15 0.028479 -1.403067 0.006271 -0.815979 0.000000 0.000000
    16 0.021412 -0.957781 0.020047 -0.445059 0.000000 0.000000
    17 -0.249534 -2.846964 -0.174215 -0.012978 0.031261 0.129804
    18 0.043234 -1.683940 0.096014 -1.668295 0.000000 0.000000
    19 0.031730 -1.160831 0.058835 0.119114 0.000000 0.000000
    20 0.447951 -2.798983 -0.200442 -0.148382 0.067808 0.126894
    21 -0.032910 -1.480207 0.004935 -1.409715 0.000000 0.000000
    22 -0.027023 -1.076920 -0.020211 0.112912 0.000000 0.000000
    23 1.164474 -2.543938 -0.170326 -0.222289 -0.030232 0.124244
    24 0.024032 -1.129040 0.017806 -1.058217 0.000000 0.000000
    25 0.014897 -0.883992 -0.019845 -0.305455 0.000000 0.000000
    26 -0.026406 -0.138455 -0.019867 0.287061 0.027381 1.346366
    27 0.583509 -1.197273 0.185379 0.339227 -0.969650 -0.814052
    28 1.535926 0.010247 0.005008 -0.326444 -0.010942 -1.015318
    29 1.100770 0.004528 -0.010676 -0.002280 -0.012860 -0.483518
    30 0.957766 -2.746777 -0.090301 -0.233911 -0.030190 0.091702
    31 -0.033419 -1.397128 -0.011256 -0.048377 0.000000 0.000000
    32 -0.022361 -0.957433 0.018782 -0.854559 0.000000 0.000000
    33 0.250028 -2.820664 -0.238397 -0.470596 0.001394 -0.072461
    34 -0.049759 -1.680544 0.100479 -1.606138 0.000000 0.000000
    35 -0.034141 -1.148311 0.084779 -1.613141 0.000000 0.000000
    36 -0.488517 -2.755600 -0.228261 -0.436149 -0.021506 -0.150745
    37 0.039888 -1.479791 0.029853 -1.503030 0.000000 0.000000
    38 0.028785 -1.075732 -0.023110 -1.633152 0.000000 0.000000
    39 -1.180679 -2.507216 -0.193861 -0.933726 0.000009 -0.087276
    40 -0.024967 -1.123935 0.017594 -0.610882 0.000000 0.000000
    41 -0.020058 -0.890964 0.010091 -1.212998 0.000000 0.000000
    42 0.080903 -0.068755 -0.180384 0.307743 -2.879452 1.540137
  time 9
    0 6.653340 4.003898 -6.130610 -1.156622 -1.161423 0.959022
    1 -0.071917 -8.498732 -0.104136 0.319294 -0.204576 -0.134944
    2 -0.252194 -4.514323 0.852150 -1.061842 1.466010 -1.048336
    3 -0.000001 2.617617 0.665015 0.000000 0.000000 0.000000
    4 0.000000 -1.655466 2.278033 0.000000 0.000000 0.000000
    5 0.000000 -1.796959 1.330032 0.000000 0.000000 0.000000
    6 0.000001 -2.886454 1.471525 -0.019619 0.000000 0.000000
    7 0.000000 -0.778211 1.774024 -0.772746 0.000000 0.000000
    8 0.000000 -1.598869 0.580120 0.000000 0.000000 0.000000
    9 -1.281728 0.406392 -9.411024 -0.534638 -0.061226 0.638288
    10 0.096946 -8.450418 -0.009364 0.318869 -0.240258 0.425908
    11 -0.586769 -1.264477 0.200165 -0.282470 -0.582878 -2.509428
    12 1.522835 0.058679 0.016851 0.000000 0.000000 0.446604
    13 1.117948 0.048425 -0.005765 0.015939 -0.000477 0.859148
    14 -0.963866 -2.785144 -0.085346 -0.342483 0.185746 -0.010101
    15 0.028479 -1.403067 0.006271 -0.815979 0.000000 0.000000
    16 0.021412 -0.957781 0.020047 -0.445059 0.000000 0.000000
    17 -0.249534 -2.846964 -0.174215 -0.012978 0.031261 0.129804
    18 0.043234 -1.683940 0.096014 -1.668295 0.000000 0.000000
    19 0.031730 -1.160831 0.058835 0.119114 0.000000 0.000000
    20 0.447951 -2.798983 -0.200442 -0.148382 0.067808 0.126894
    21 -0.032910 -1.480207 0.004935 -1.409715 0.000000 0.000000
    22 -0.027023 -1.076920 -0.020211 0.112912 0.000000 0.000000
    23 1.164474 -2.543938 -0.170326 -0.222289 -0.030232 0.124244
    24 0.024032 -1.129040 0.017806 -1.058217 0.000000 0.000000
    25 0.014897 -0.883992 -0.019845 -0.305455 0.000000 0.000000
    26 -0.026406 -0.138455 -0.019867 0.287061 0.027381 1.346366
    27 0.583509 -1.197273 0.185379 0.339227 -0.969650 -0.814052
    28 1.535926 0.010247 0.005008 -0.326444 -0.010942 -1.015318
    29 1.100770 0.004528 -0.010676 -0.002280 -0.012860 -0.483518
    30 0.957766 -2.746777 -0.090301 -0.233911 -0.030190 0.091702
    31 -0.033419 -1.397128 -0.011256 -0.036924 0.000000 0.000000
    32 -0.022361 -0.957433 0.018782 -0.847730 0.000000 0.000000
    33 0.250028 -2.820664 -0.238397 -0.470596 0.001394 -0.072461
    34 -0.049759 -1.680544 0.100479 -1.606138 0.000000 0.000000
    35 -0.034141 -1.148311 0.084779 -1.613141 0.000000 0.000000
    36 -0.488517 -2.755600 -0.228261 -0.436149 -0.021506 -0.150745
    37 0.039888 -1.479791 0.029853 -1.503030 0.000000 0.000000
    38 0.028785 -1.075732 -0.023110 -1.633152 0.000000 0.000000
    39 -1.180679 -2.507216 -0.193861 -0.933726 0.000009 -0.087276
    40 -0.024967 -1.123935 0.017594 -0.610882 0.000000 0.000000
    41 -0.020058 -0.890964 0.010091 -1.212998 0.000000 0.000000
    42 0.080903 -0.068755 -0.180384 0.307743 -2.879452 1.540137
  time 10
    0 6.653340 3.957022 -6.126704 -1.142314 -1.174969 0.943498
    1 -0.071917 -8.498732 -0.104136 0.328177 -0.206491 -0.200272
    2 -0.252194 -4.514323 0.852150 -1.061842 1.466010 -1.048336
    3 -0.000001 2.617617 0.665015 0.000000 0.000000 0.000000
    4 0.000000 -1.655466 2.278033 0.000000 0.000000 0.000000
    5 0.000000 -1.796959 1.330032 0.000000 0.000000 0.000000
    6 0.000001 -2.886454 1.471525 -0.022555 0.000000 0.000000
    7 0.000000 -0.778211 1.774024 -0.771396 0.000000 0.000000
    8 0.000000 -1.598869 0.580120 0.000000 0.000000 0.000000
    9 -1.434076 0.472800 -9.364148 -0.510642 -0.067189 0.640664
    10 0.096946 -8.450418 -0.009364 0.342425 -0.249939 0.414288
    11 -0.586769 -1.264477 0.200165 -0.282470 -0.582878 -2.509428
    12 1.522835 0.058679 0.016851 0.000000 0.000000 0.446604
    13 1.117948 0.048425 -0.005765 0.015939 -0.000477 0.859148
    14 -0.963866 -2.785144 -0.085346 -0.342483 0.185746 -0.010101
    15 0.028479 -1.403067 0.006271 -0.815979 0.000000 0.000000
    16 0.021412 -0.957781 0.020047 -0.445059 0.000000 0.000000
    17 -0.249534 -2.846964 -0.174215 -0.012978 0.031261 0.129804
    18 0.043234 -1.683940 0.096014 -1.668295 0.000000 0.000000
    19 0.031730 -1.160831 0.058835 0.119114 0.000000 0.000000
    20 0.447951 -2.798983 -0.200442 -0.148382 0.067808 0.126894
    21 -0.032910 -1.480207 0.004935 -1.409715 0.000000 0.000000
    22 -0.027023 -1.076920 -0.020211 0.112912 0.000000 0.000000
    23 1.164474 -2.543938 -0.170326 -0.222289 -0.030232 0.124244
    24 0.024032 -1.129040 0.017806 -1.058217 0.000000 0.000000
    25 0.014897 -0.883992 -0.019845 -0.305455 0.000000 0.000000
    26 -0.026406 -0.138455 -0.019867 0.287061 0.027381 1.346366
    27 0.583509 -1.197273 0.185379 0.339227 -0.969650 -0.814052
    28 1.535926 0.010247 0.005008 -0.326444 -0.010942 -1.015318
    29 1.100770 0.004528 -0.010676 -0.002280 -0.012860 -0.483518
    30 0.957766 -2.746777 -0.090301 -0.233911 -0.030190 0.091702
    31 -0.033419 -1.397128 -0.011256 -0.029615 0.000000 0.000000
    32 -0.022361 -0.957433 0.018782 -0.843032 0.000000 0.000000
    33 0.250028 -2.820664 -0.238397 -0.470596 0.001394 -0.072461
    34 -0.049759 -1.680544 0.100479 -1.606138 0.000000 0.000000
    35 -0.034141 -1.148311 0.084779 -1.613141 0.000000 0.000000
    36 -0.488517 -2.755600 -0.228261 -0.436149 -0.021506 -0.150745
    37 0.039888 -1.479791 0.029853 -1.503030 0.000000 0.000000
    38 0.028785 -1.075732 -0.023110 -1.633152 0.000000 0.000000
    39 -1.180679 -2.507216 -0.193861 -0.933726 0.000009 -0.087276
    40 -0.024967 -1.123935 0.017594 -0.610882 0.000000 0.000000
    41 -0.020058 -0.890964 0.010091 -1.212998 0.000000 0.000000
    42 0.080903 -0.068755 -0.180384 0.307743 -2.879452 1.540137
  time 11
    0 6.653340 3.894520 -6.114985 -1.124072 -1.190934 0.923820
    1 -0.071917 -8.498732 -0.104136 0.336019 -0.206987 -0.258268
    2 -0.252194 -4.514323 0.852150 -1.061842 1.466010 -1.048336
    3 -0.000001 2.617617 0.665015 0.000000 0.000000 0.000000
    4 0.000000 -1.655466 2.278033 0.000000 0.000000 0.000000
    5 0.000000 -1.796959 1.330032 0.000000 0.000000 0.000000
    6 0.000001 -2.886454 1.471525 -0.024029 0.000000 0.000000
    7 0.000000 -0.778211 1.774024 -0.767636 0.000000 0.000000
    8 0.000000 -1.598869 0.580120 0.000000 0.000000 0.000000
    9 -1.562986 0.492332 -9.321178 -0.485675 -0.073005 0.642733
    10 0.096946 -8.450418 -0.009364 0.363059 -0.259130 0.402958
    11 -0.586769 -1.264477 0.200165 -0.282470 -0.582878 -2.509428
    12 1.522835 0.058679 0.016851 0.000000 0.000000 0.446604
    13 1.117948 0.048425 -0.005765 0.015939 -0.000477 0.859148
    14 -0.963866 -2.785144 -0.085346 -0.342483 0.185746 -0.010101
    15 0.028479 -1.403067 0.006271 -0.815979 0.000000 0.000000
    16 0.021412 -0.957781 0.020047 -0.445059 0.000000 0.000000
    17 -0.249534 -2.846964 -0.174215 -0.012978 0.031261 0.129804
    18 0.043234 -1.683940 0.096014 -1.668295 0.000000 0.000000
    19 0.031730 -1.160831 0.058835 0.119114 0.000000 0.000000
    20 0.447951 -2.798983 -0.200442 -0.148382 0.067808 0.126894
    21 -0.032910 -1.480207 0.004935 -1.409715 0.000000 0.000000
    22 -0.027023 -1.076920 -0.020211 0.112912 0.000000 0.000000
    23 1.164474 -2.543938 -0.170326 -0.222289 -0.030232 0.124244
    24 0.024032 -1.129040 0.017806 -1.058217 0.000000 0.000000
    25 0.014897 -0.883992 -0.019845 -0.305455 0.000000 0.000000
    26 -0.026406 -0.138455 -0.019867 0.287061 0.027381 1.346366
    27 0.583509 -1.197273 0.185379 0.339227 -0.969650 -0.814052
    28 1.535926 0.010247 0.005008 -0.326444 -0.010942 -1.015318
    29 1.100770 0.004528 -0.010676 -0.002280 -0.012860 -0.483518
    30 0.957766 -2.746777 -0.090301 -0.233911 -0.030190 0.091702
    31 -0.033419 -1.397128 -0.011256 -0.025977 0.000000 0.000000
    32 -0.022361 -0.957433 0.018782 -0.840201 0.000000 0.000000
    33 0.250028 -2.820664 -0.238397 -0.470596 0.001394 -0.072461
    34 -0.049759 -1.680544 0.100479 -1.606138 0.000000 0.000000
    35 -0.034141 -1.148311 0.084779 -1.613141 0.000000 0.000000
    36 -0.488517 -2.755600 -0.228261 -0.436149 -0.021506 -0.150745
    37 0.039888 -1.479791 0.029853 -1.503030 0.000000 0.000000
    38 0.028785 -1.075732 -0.023110 -1.633152 0.000000 0.000000
    39 -1.180679 -2.507216 -0.193861 -0.933726 0.000009 -0.087276
    40 -0.024967 -1.123935 0.017594 -0.610882 0.000000 0.000000
    41 -0.020058 -0.890964 0.010091 -1.212998 0.000000 0.000000
    42 0.080903 -0.068755 -0.180384 0.307743 -2.879452 1.540137
  time 12
    0 6.653340 3.824205 -6.099359 -1.102324 -1.208118 0.900425
    1 -0.071917 -8.498732 -0.104136 0.342195 -0.206229 -0.305319
    2 -0.252194 -4.514323 0.852150 -1.061842 1.466010 -1.048336
    3 -0.000001 2.617617 0.665015 0.000000 0.000000 0.000000
    4 0.000000 -1.655466 2.278033 0.000000 0.000000 0.000000
    5 0.000000 -1.796959 1.330032 0.000000 0.000000 0.000000
    6 0.000001 -2.886454 1.471525 -0.024221 0.000000 0.000000
    7 0.000000 -0.778211 1.774024 -0.761861 0.000000 0.000000
    8 0.000000 -1.598869 0.580120 0.000000 0.000000 0.000000
    9 -1.621582 0.500145 -9.254770 -0.460937 -0.078453 0.644496
    10 0.096946 -8.450418 -0.009364 0.380132 -0.267899 0.392411
    11 -0.586769 -1.264477 0.200165 -0.282470 -0.582878 -2.509428
    12 1.522835 0.058679 0.016851 0.000000 0.000000 0.446604
    13 1.117948 0.048425 -0.005765 0.015939 -0.000477 0.859148
    14 -0.963866 -2.785144 -0.085346 -0.342483 0.185746 -0.010101
    15 0.028479 -1.403067 0.006271 -0.815979 0.000000 0.000000
    16 0.021412 -0.957781 0.020047 -0.445059 0.000000 0.000000
    17 -0.249534 -2.846964 -0.174215 -0.012978 0.031261 0.129804
    18 0.043234 -1.683940 0.096014 -1.668295 0.000000 0.000000
    19 0.031730 -1.160831 0.058835 0.119114 0.000000 0.000000
    20 0.447951 -2.798983 -0.200442 -0.148382 0.067808 0.126894
    21 -0.032910 -1.480207 0.004935 -1.409715 0.000000 0.000000
    22 -0.027023 -1.076920 -0.020211 0.112912 0.000000 0.000000
    23 1.164474 -2.543938 -0.170326 -0.222289 -0.030232 0.124244
    24 0.024032 -1.129040 0.017806 -1.058217 0.000000 0.000000
    25 0.014897 -0.883992 -0.019845 -0.305455 0.000000 0.000000
    26 -0.026406 -0.138455 -0.019867 0.287061 0.027381 1.346366
    27 0.583509 -1.197273 0.185379 0.339227 -0.969650 -0.814052
    28 1.535926 0.010247 0.005008 -0.326444 -0.010942 -1.015318
    29 1.100770 0.004528 -0.010676 -0.002280 -0.012860 -0.483518
    30 0.957766 -2.746777 -0.090301 -0.233911 -0.030190 0.091702
    31 -0.033419 -1.397128 -0.011256 -0.025470 0.000000 0.000000
    32 -0.022361 -0.957433 0.018782 -0.839034 0.000000 0.000000
    33 0.250028 -2.820664 -0.238397 -0.470596 0.001394 -0.072461
    34 -0.049759 -1.680544 0.100479 -1.606138 0.000000 0.000000
    35 -0.034141 -1.148311 0.084779 -1.613141 0.000000 0.000000
    36 -0.488517 -2.755600 -0.228261 -0.436149 -0.021506 -0.150745
    37 0.039888 -1.479791 0.029853 -1.503030 0.000000 0.000000
    38 0.028785 -1.075732 -0.023110 -1.633152 0.000000 0.000000
    39 -1.180679 -2.507216 -0.193861 -0.933726 0.000009 -0.087276
    40 -0.024967 -1.123935 0.017594 -0.610882 0.000000 0.000000
    41 -0.020058 -0.890964 0.010091 -1.212998 0.000000 0.000000
    42 0.080903 -0.068755 -0.180384 0.307743 -2.879452 1.540137
  time 13
    0 6.653340 3.746078 -6.083734 -1.078000 -1.225387 0.874479
    1 -0.071917 -8.498732 -0.104136 0.345777 -0.204727 -0.334285
    2 -0.252194 -4.514323 0.852150 -1.061842 1.466010 -1.048336
    3 -0.000001 2.617617 0.665015 0.000000 0.000000 0.000000
    4 0.000000 -1.655466 2.278033 0.000000 0.000000 0.000000
    5 0.000000 -1.796959 1.330032 0.000000 0.000000 0.000000
    6 0.000001 -2.886454 1.471525 -0.023358 0.000000 0.000000
    7 0.000000 -0.778211 1.774024 -0.754487 0.000000 0.000000
    8 0.000000 -1.598869 0.580120 0.000000 0.000000 0.000000
    9 -1.637207 0.492332 -9.192268 -0.437512 -0.083238 0.645875
    10 0.096946 -8.450418 -0.009364 0.393042 -0.276318 0.383194
    11 -0.586769 -1.264477 0.200165 -0.282470 -0.582878 -2.509428
    12 1.522835 0.058679 0.016851 0.000000 0.000000 0.446604
    13 1.117948 0.048425 -0.005765 0.015939 -0.000477 0.859148
    14 -0.963866 -2.785144 -0.085346 -0.342483 0.185746 -0.010101
    15 0.028479 -1.403067 0.006271 -0.815979 0.000000 0.000000
    16 0.021412 -0.957781 0.020047 -0.445059 0.000000 0.000000
    17 -0.249534 -2.846964 -0.174215 -0.012978 0.031261 0.129804
    18 0.043234 -1.683940 0.096014 -1.668295 0.000000 0.000000
    19 0.031730 -1.160831 0.058835 0.119114 0.000000 0.000000
    20 0.447951 -2.798983 -0.200442 -0.148382 0.067808 0.126894
    21 -0.032910 -1.480207 0.004935 -1.409715 0.000000 0.000000
    22 -0.027023 -1.076920 -0.020211 0.112912 0.000000 0.000000
    23 1.164474 -2.543938 -0.170326 -0.222289 -0.030232 0.124244
    24 0.024032 -1.129040 0.017806 -1.058217 0.000000 0.000000
    25 0.014897 -0.883992 -0.019845 -0.305455 0.000000 0.000000
    26 -0.026406 -0.138455 -0.019867 0.287061 0.027381 1.346366
    27 0.583509 -1.197273 0.185379 0.339227 -0.969650 -0.814052
    28 1.535926 0.010247 0.005008 -0.326444 -0.010942 -1.015318
    29 1.100770 0.004528 -0.010676 -0.002280 -0.012860 -0.483518
    30 0.957766 -2.746777 -0.090301 -0.233911 -0.030190 0.091702
    31 -0.033419 -1.397128 -0.011256 -0.027622 0.000000 0.000000
    32 -0.022361 -0.957433 0.018782 -0.839238 0.000000 0.000000
    33 0.250028 -2.820664 -0.238397 -0.470596 0.001394 -0.072461
    34 -0.049759 -1.680544 0.100479 -1.606138 0.000000 0.000000
    35 -0.034141 -1.148311 0.084779 -1.613141 0.000000 0.000000
    36 -0.488517 -2.755600 -0.228261 -0.436149 -0.021506 -0.150745
    37 0.039888 -1.479791 0.029853 -1.503030 0.000000 0.000000
    38 0.028785 -1.075732 -0.023110 -1.633152 0.000000 0.000000
    39 -1.180679 -2.507216 -0.193861 -0.933726 0.000009 -0.087276
    40 -0.024967 -1.123935 0.017594 -0.610882 0.000000 0.000000
    41 -0.020058 -0.890964 0.010091 -1.212998 0.000000 0.000000
    42 0.080903 -0.068755 -0.180384 0.307743 -2.879452 1.540137
  time 14
    0 6.653340 3.675763 -6.064202 -1.052461 -1.241566 0.847440
    1 -0.071917 -8.498732 -0.104136 0.346570 -0.204052 -0.341339
    2 -0.252194 -4.514323 0.852150 -1.061842 1.466010 -1.048336
    3 -0.000001 2.617617 0.665015 0.000000 0.000000 0.000000
    4 0.000000 -1.655466 2.278033 0.000000 0.000000 0.000000
    5 0.000000 -1.796959 1.330032 0.000000 0.000000 0.000000
    6 0.000001 -2.886454 1.471525 -0.021620 0.000000 0.000000
    7 0.000000 -0.778211 1.774024 -0.745907 0.000000 0.000000
    8 0.000000 -1.598869 0.580120 0.000000 0.000000 0.000000
    9 -1.656739 0.484519 -9.184455 -0.416658 -0.086992 0.646795
    10 0.096946 -8.450418 -0.009364 0.401113 -0.284479 0.375816
    11 -0.586769 -1.264477 0.200165 -0.282470 -0.582878 -2.509428
    12 1.522835 0.058679 0.016851 0.000000 0.000000 0.446604
    13 1.117948 0.048425 -0.005765 0.015939 -0.000477 0.859148
    14 -0.963866 -2.785144 -0.085346 -0.342483 0.185746 -0.010101
    15 0.028479 -1.403067 0.006271 -0.815979 0.000000 0.000000
    16 0.021412 -0.957781 0.020047 -0.445059 0.000000 0.000000
    17 -0.249534 -2.846964 -0.174215 -0.012978 0.031261 0.129804
    18 0.043234 -1.683940 0.096014 -1.668295 0.000000 0.000000
    19 0.031730 -1.160831 0.058835 0.119114 0.000000 0.000000
    20 0.447951 -2.798983 -0.200442 -0.148382 0.067808 0.126894
    21 -0.032910 -1.480207 0.004935 -1.409715 0.000000 0.000000
    22 -0.027023 -1.076920 -0.020211 0.112912 0.000000 0.000000
    23 1.164474 -2.543938 -0.170326 -0.222289 -0.030232 0.124244
    24 0.024032 -1.129040 0.017806 -1.058217 0.000000 0.000000
    25 0.014897 -0.883992 -0.019845 -0.305455 0.000000 0.000000
    26 -0.026406 -0.138455 -0.019867 0.287061 0.027381 1.346366
    27 0.583509 -1.197273 0.185379 0.339227 -0.969650 -0.814052
    28 1.535926 0.010247 0.005008 -0.326444 -0.010942 -1.015318
    29 1.100770 0.004528 -0.010676 -0.002280 -0.012860 -0.483518
    30 0.957766 -2.746777 -0.090301 -0.233911 -0.030190 0.091702
    31 -0.033419 -1.397128 -0.011256 -0.031925 0.000000 0.000000
    32 -0.022361 -0.957433 0.018782 -0.840580 0.000000 0.000000
    33 0.250028 -2.820664 -0.238397 -0.470596 0.001394 -0.072461
    34 -0.049759 -1.680544 0.100479 -1.606138 0.000000 0.000000
    35 -0.034141 -1.148311 0.084779 -1.613141 0.000000 0.000000
    36 -0.488517 -2.755600 -0.228261 -0.436149 -0.021506 -0.150745
    37 0.039888 -1.479791 0.029853 -1.503030 0.000000 0.000000
    38 0.028785 -1.075732 -0.023110 -1.633152 0.000000 0.000000
    39 -1.180679 -2.507216 -0.193861 -0.933726 0.000009 -0.087276
    40 -0.024967 -1.123935 0.017594 -0.610882 0.000000 0.000000
    41 -0.020058 -0.890964 0.010091 -1.212998 0.000000 0.000000
    42 0.080903 -0.068755 -0.180384 0.307743 -2.879452 1.540137
  time 15
    0 6.653340 3.609355 -6.044670 -1.027708 -1.255625 0.821349
    1 -0.071917 -8.498732 -0.104136 0.347280 -0.200883 -0.352370
    2 -0.252194 -4.514323 0.852150 -1.061842 1.466010 -1.048336
    3 -0.000001 2.617617 0.665015 0.000000 0.000000 0.000000
    4 0.000000 -1.655466 2.278033 0.000000 0.000000 0.000000
    5 0.000000 -1.796959 1.330032 0.000000 0.000000 0.000000
    6 0.000001 -2.886454 1.471525 -0.019223 0.000000 0.000000
    7 0.000000 -0.778211 1.774024 -0.736497 0.000000 0.000000
    8 0.000000 -1.598869 0.580120 0.000000 0.000000 0.000000
    9 -1.687990 0.484519 -9.282114 -0.399461 -0.089495 0.647255
    10 0.096946 -8.450418 -0.009364 0.403706 -0.292407 0.370790
    11 -0.586769 -1.264477 0.200165 -0.282470 -0.582878 -2.509428
    12 1.522835 0.058679 0.016851 0.000000 0.000000 0.446604
    13 1.117948 0.048425 -0.005765 0.015939 -0.000477 0.859148
    14 -0.963866 -2.785144 -0.085346 -0.342483 0.185746 -0.010101
    15 0.028479 -1.403067 0.006271 -0.815979 0.000000 0.000000
    16 0.021412 -0.957781 0.020047 -0.445059 0.000000 0.000000
    17 -0.249534 -2.846964 -0.174215 -0.012978 0.031261 0.129804
    18 0.043234 -1.683940 0.096014 -1.668295 0.000000 0.000000
    19 0.031730 -1.160831 0.058835 0.119114 0.000000 0.000000
    20 0.447951 -2.798983 -0.200442 -0.148382 0.067808 0.126894
    21 -0.032910 -1.480207 0.004935 -1.409715 0.000000 0.000000
    22 -0.027023 -1.076920 -0.020211 0.112912 0.000000 0.000000
    23 1.164474 -2.543938 -0.170326 -0.222289 -0.030232 0.124244
    24 0.024032 -1.129040 0.017806 -1.058217 0.000000 0.000000
    25 0.014897 -0.883992 -0.019845 -0.305455 0.000000 0.000000
    26 -0.026406 -0.138455 -0.019867 0.287061 0.027381 1.346366
    27 0.583509 -1.197273 0.185379 0.339227 -0.969650 -0.814052
    28 1.535926 0.010247 0.005008 -0.326444 -0.010942 -1.015318
    29 1.100770 0.004528 -0.010676 -0.002280 -0.012860 -0.483518
    30 0.957766 -2.746777 -0.090301 -0.233911 -0.030190 0.091702
    31 -0.033419 -1.397128 -0.011256 -0.037905 0.000000 0.000000
    32 -0.022361 -0.957433 0.018782 -0.842827 0.000000 0.000000
    33 0.250028 -2.820664 -0.238397 -0.470596 0.001394 -0.072461
    34 -0.049759 -1.680544 0.100479 -1.606138 0.000000 0.000000
    35 -0.034141 -1.148311 0.084779 -1.613141 0.000000 0.000000
    36 -0.488517 -2.755600 -0.228261 -0.436149 -0.021506 -0.150745
    37 0.039888 -1.479791 0.029853 -1.503030 0.000000 0.000000
    38 0.028785 -1.075732 -0.023110 -1.633152 0.000000 0.000000
    39 -1.180679 -2.507216 -0.193861 -0.933726 0.000009 -0.087276
    40 -0.024967 -1.123935 0.017594 -0.610882 0.000000 0.000000
    41 -0.020058 -0.890964 0.010091 -1.212998 0.000000 0.000000
    42 0.080903 -0.068755 -0.180384 0.307743 -2.879452 1.540137
  time 16
    0 6.653340 3.562478 -6.025138 -1.006532 -1.266582 0.799193
    1 -0.071917 -8.498732 -0.104136 0.345678 -0.195936 -0.349527
    2 -0.252194 -4.514323 0.852150 -1.061842 1.466010 -1.048336
    3 -0.000001 2.617617 0.665015 0.000000 0.000000 0.000000
    4 0.000000 -1.655466 2.278033 0.000000 0.000000 0.000000
    5 0.000000 -1.796959 1.330032 0.000000 0.000000 0.000000
    6 0.000001 -2.886454 1.471525 -0.016347 0.000000 0.000000
    7 0.000000 -0.778211 1.774024 -0.726713 0.000000 0.000000
    8 0.000000 -1.598869 0.580120 0.000000 0.000000 0.000000
    9 -1.727054 0.468894 -9.395399 -0.387178 -0.090452 0.647255
    10 0.096946 -8.450418 -0.009364 0.400164 -0.300218 0.368694
    11 -0.586769 -1.264477 0.200165 -0.282470 -0.582878 -2.509428
    12 1.522835 0.058679 0.016851 0.000000 0.000000 0.446604
    13 1.117948 0.048425 -0.005765 0.015939 -0.000477 0.859148
    14 -0.963866 -2.785144 -0.085346 -0.342483 0.185746 -0.010101
    15 0.028479 -1.403067 0.006271 -0.815979 0.000000 0.000000
    16 0.021412 -0.957781 0.020047 -0.445059 0.000000 0.000000
    17 -0.249534 -2.846964 -0.174215 -0.012978 0.031261 0.129804
    18 0.043234 -1.683940 0.096014 -1.668295 0.000000 0.000000
    19 0.031730 -1.160831 0.058835 0.119114 0.000000 0.000000
    20 0.447951 -2.798983 -0.200442 -0.148382 0.067808 0.126894
    21 -0.032910 -1.480207 0.004935 -1.409715 0.000000 0.000000
    22 -0.027023 -1.076920 -0.020211 0.112912 0.000000 0.000000
    23 1.164474 -2.543938 -0.170326 -0.222289 -0.030232 0.124244
    24 0.024032 -1.129040 0.017806 -1.058217 0.000000 0.000000
    25 0.014897 -0.883992 -0.019845 -0.305455 0.000000 0.000000
    26 -0.026406 -0.138455 -0.019867 0.287061 0.027381 1.346366
    27 0.583509 -1.197273 0.185379 0.339227 -0.969650 -0.814052
    28 1.535926 0.010247 0.005008 -0.326444 -0.010942 -1.015318
    29 1.100770 0.004528 -0.010676 -0.002280 -0.012860 -0.483518
    30 0.957766 -2.746777 -0.090301 -0.233911 -0.030190 0.091702
    31 -0.033419 -1.397128 -0.011256 -0.045055 0.000000 0.000000
    32 -0.022361 -0.957433 0.018782 -0.845717 0.000000 0.000000
    33 0.250028 -2.820664 -0.238397 -0.470596 0.001394 -0.072461
    34 -0.049759 -1.680544 0.100479 -1.606138 0.000000 0.000000
    35 -0.034141 -1.148311 0.084779 -1.613141 0.000000 0.000000
    36 -0.488517 -2.755600 -0.228261 -0.436149 -0.021506 -0.150745
    37 0.039888 -1.479791 0.029853 -1.503030 0.000000 0.000000
    38 0.028785 -1.075732 -0.023110 -1.633152 0.000000 0.000000
    39 -1.180679 -2.507216 -0.193861 -0.933726 0.000009 -0.087276
    40 -0.024967 -1.123935 0.017594 -0.610882 0.000000 0.000000
    41 -0.020058 -0.890964 0.010091 -1.212998 0.000000 0.000000
    42 0.080903 -0.068755 -0.180384 0.307743 -2.879452 1.540137
  time 17
    0 6.653340 3.535134 -6.005606 -0.989506 -1.274757 0.781337
    1 -0.071917 -8.498732 -0.104136 0.342343 -0.189569 -0.335632
    2 -0.252194 -4.514323 0.852150 -1.061842 1.466010 -1.048336
    3 -0.000001 2.617617 0.665015 0.000000 0.000000 0.000000
    4 0.000000 -1.655466 2.278033 0.000000 0.000000 0.000000
    5 0.000000 -1.796959 1.330032 0.000000 0.000000 0.000000
    6 0.000001 -2.886454 1.471525 -0.013207 0.000000 0.000000
    7 0.000000 -0.778211 1.774024 -0.716908 0.000000 0.000000
    8 0.000000 -1.598869 0.580120 0.000000 0.000000 0.000000
    9 -1.777837 0.394673 -9.430556 -0.381693 -0.088612 0.646489
    10 0.096946 -8.450418 -0.009364 0.382816 -0.307584 0.372221
    11 -0.586769 -1.264477 0.200165 -0.282470 -0.582878 -2.509428
    12 1.522835 0.058679 0.016851 0.000000 0.000000 0.446604
    13 1.117948 0.048425 -0.005765 0.015939 -0.000477 0.859148
    14 -0.963866 -2.785144 -0.085346 -0.342483 0.185746 -0.010101
    15 0.028479 -1.403067 0.006271 -0.815979 0.000000 0.000000
    16 0.021412 -0.957781 0.020047 -0.445059 0.000000 0.000000
    17 -0.249534 -2.846964 -0.174215 -0.012978 0.031261 0.129804
    18 0.043234 -1.683940 0.096014 -1.668295 0.000000 0.000000
    19 0.031730 -1.160831 0.058835 0.119114 0.000000 0.000000
    20 0.447951 -2.798983 -0.200442 -0.148382 0.067808 0.126894
    21 -0.032910 -1.480207 0.004935 -1.409715 0.000000 0.000000
    22 -0.027023 -1.076920 -0.020211 0.112912 0.000000 0.000000
    23 1.164474 -2.543938 -0.170326 -0.222289 -0.030232 0.124244
    24 0.024032 -1.129040 0.017806 -1.058217 0.000000 0.000000
    25 0.014897 -0.883992 -0.019845 -0.305455 0.000000 0.000000
    26 -0.026406 -0.138455 -0.019867 0.287061 0.027381 1.346366
    27 0.583509 -1.197273 0.185379 0.339227 -0.969650 -0.814052
    28 1.535926 0.010247 0.005008 -0.326444 -0.010942 -1.015318
    29 1.100770 0.004528 -0.010676 -0.002280 -0.012860 -0.483518
    30 0.957766 -2.746777 -0.090301 -0.233911 -0.030190 0.091702
    31 -0.033419 -1.397128 -0.011256 -0.052838 0.000000 0.000000
    32 -0.022361 -0.957433 0.018782 -0.849044 0.000000 0.000000
    33 0.250028 -2.820664 -0.238397 -0.470596 0.001394 -0.072461
    34 -0.049759 -1.680544 0.100479 -1.606138 0.000000 0.000000
    35 -0.034141 -1.148311 0.084779 -1.613141 0.000000 0.000000
    36 -0.488517 -2.755600 -0.228261 -0.436149 -0.021506 -0.150745
    37 0.039888 -1.479791 0.029853 -1.503030 0.000000 0.000000
    38 0.028785 -1.075732 -0.023110 -1.633152 0.000000 0.000000
    39 -1.180679 -2.507216 -0.193861 -0.933726 0.000009 -0.087276
    40 -0.024967 -1.123935 0.017594 -0.610882 0.000000 0.000000
    41 -0.020058 -0.890964 0.010091 -1.212998 0.000000 0.000000
    42 0.080903 -0.068755 -0.180384 0.307743 -2.879452 1.540137
  time 18
    0 6.653340 3.535134 -5.993887 -0.974841 -1.281412 0.765959
    1 -0.071917 -8.498732 -0.104136 0.337819 -0.182031 -0.313507
    2 -0.252194 -4.514323 0.852150 -1.061842 1.466010 -1.048336
    3 -0.000001 2.617617 0.665015 0.000000 0.000000 0.000000
    4 0.000000 -1.655466 2.278033 0.000000 0.000000 0.000000
    5 0.000000 -1.796959 1.330032 0.000000 0.000000 0.000000
    6 0.000001 -2.886454 1.471525 -0.010007 0.000000 0.000000
    7 0.000000 -0.778211 1.774024 -0.707518 0.000000 0.000000
    8 0.000000 -1.598869 0.580120 0.000000 0.000000 0.000000
    9 -1.824713 0.328265 -9.465714 -0.383064 -0.083606 0.644649
    10 0.096946 -8.450418 -0.009364 0.347647 -0.314109 0.382648
    11 -0.586769 -1.264477 0.200165 -0.282470 -0.582878 -2.509428
    12 1.522835 0.058679 0.016851 0.000000 0.000000 0.446604
    13 1.117948 0.048425 -0.005765 0.015939 -0.000477 0.859148
    14 -0.963866 -2.785144 -0.085346 -0.342483 0.185746 -0.010101
    15 0.028479 -1.403067 0.006271 -0.815979 0.000000 0.000000
    16 0.021412 -0.957781 0.020047 -0.445059 0.000000 0.000000
    17 -0.249534 -2.846964 -0.174215 -0.012978 0.031261 0.129804
    18 0.043234 -1.683940 0.096014 -1.668295 0.000000 0.000000
    19 0.031730 -1.160831 0.058835 0.119114 0.000000 0.000000
    20 0.447951 -2.798983 -0.200442 -0.148382 0.067808 0.126894
    21 -0.032910 -1.480207 0.004935 -1.409715 0.000000 0.000000
    22 -0.027023 -1.076920 -0.020211 0.112912 0.000000 0.000000
    23 1.164474 -2.543938 -0.170326 -0.222289 -0.030232 0.124244
    24 0.024032 -1.129040 0.017806 -1.058217 0.000000 0.000000
    25 0.014897 -0.883992 -0.019845 -0.305455 0.000000 0.000000
    26 -0.026406 -0.138455 -0.019867 0.287061 0.027381 1.346366
    27 0.583509 -1.197273 0.185379 0.339227 -0.969650 -0.814052
    28 1.535926 0.010247 0.005008 -0.326444 -0.010942 -1.015318
    29 1.100770 0.004528 -0.010676 -0.002280 -0.012860 -0.483518
    30 0.957766 -2.746777 -0.090301 -0.233911 -0.030190 0.091702
    31 -0.033419 -1.397128 -0.011256 -0.060812 0.000000 0.000000
    32 -0.022361 -0.957433 0.018782 -0.852516 0.000000 0.000000
    33 0.250028 -2.820664 -0.238397 -0.470596 0.001394 -0.072461
    34 -0.049759 -1.680544 0.100479 -1.606138 0.000000 0.000000
    35 -0.034141 -1.148311 0.084779 -1.613141 0.000000 0.000000
    36 -0.488517 -2.755600 -0.228261 -0.436149 -0.021506 -0.150745
    37 0.039888 -1.479791 0.029853 -1.503030 0.000000 0.000000
    38 0.028785 -1.075732 -0.023110 -1.633152 0.000000 0.000000
    39 -1.180679 -2.507216 -0.193861 -0.933726 0.000009 -0.087276
    40 -0.024967 -1.123935 0.017594 -0.610882 0.000000 0.000000
    41 -0.020058 -0.890964 0.010091 -1.212998 0.000000 0.000000
    42 0.080903 -0.068755 -0.180384 0.307743 -2.879452 1.540137
  time 19
    0 6.653340 3.566385 -5.978262 -0.961820 -1.286955 0.752476
    1 -0.071917 -8.498732 -0.104136 0.332668 -0.173639 -0.285930
    2 -0.252194 -4.514323 0.852150 -1.061842 1.466010 -1.048336
    3 -0.000001 2.617617 0.665015 0.000000 0.000000 0.000000
    4 0.000000 -1.655466 2.278033 0.000000 0.000000 0.000000
    5 0.000000 -1.796959 1.330032 0.000000 0.000000 0.000000
    6 0.000001 -2.886454 1.471525 -0.006939 0.000000 0.000000
    7 0.000000 -0.778211 1.774024 -0.698918 0.000000 0.000000
    8 0.000000 -1.598869 0.580120 0.000000 0.000000 0.000000
    9 -1.875496 0.347797 -9.551654 -0.389406 -0.076244 0.642120
    10 0.096946 -8.450418 -0.009364 0.299386 -0.319464 0.398272
    11 -0.586769 -1.264477 0.200165 -0.282470 -0.582878 -2.509428
    12 1.522835 0.058679 0.016851 0.000000 0.000000 0.446604
    13 1.117948 0.048425 -0.005765 0.015939 -0.000477 0.859148
    14 -0.963866 -2.785144 -0.085346 -0.342483 0.185746 -0.010101
    15 0.028479 -1.403067 0.006271 -0.815979 0.000000 0.000000
    16 0.021412 -0.957781 0.020047 -0.445059 0.000000 0.000000
    17 -0.249534 -2.846964 -0.174215 -0.012978 0.031261 0.129804
    18 0.043234 -1.683940 0.096014 -1.668295 0.000000 0.000000
    19 0.031730 -1.160831 0.058835 0.119114 0.000000 0.000000
    20 0.447951 -2.798983 -0.200442 -0.148382 0.067808 0.126894
    21 -0.032910 -1.480207 0.004935 -1.409715 0.000000 0.000000
    22 -0.027023 -1.076920 -0.020211 0.112912 0.000000 0.000000
    23 1.164474 -2.543938 -0.170326 -0.222289 -0.030232 0.124244
    24 0.024032 -1.129040 0.017806 -1.058217 0.000000 0.000000
    25 0.014897 -0.883992 -0.019845 -0.305455 0.000000 0.000000
    26 -0.026406 -0.138455 -0.019867 0.287061 0.027381 1.346366
    27 0.583509 -1.197273 0.185379 0.339227 -0.969650 -0.814052
    28 1.535926 0.010247 0.005008 -0.326444 -0.010942 -1.015318
    29 1.100770 0.004528 -0.010676 -0.002280 -0.012860 -0.483518
    30 0.957766 -2.746777 -0.090301 -0.233911 -0.030190 0.091702
    31 -0.033419 -1.397128 -0.011256 -0.068437 0.000000 0.000000
    32 -0.022361 -0.957433 0.018782 -0.855902 0.000000 0.000000
    33 0.250028 -2.820664 -0.238397 -0.470596 0.001394 -0.072461
    34 -0.049759 -1.680544 0.100479 -1.606138 0.000000 0.000000
    35 -0.034141 -1.148311 0.084779 -1.613141 0.000000 0.000000
    36 -0.488517 -2.755600 -0.228261 -0.436149 -0.021506 -0.150745
    37 0.039888 -1.479791 0.029853 -1.503030 0.000000 0.000000
    38 0.028785 -1.075732 -0.023110 -1.633152 0.000000 0.000000
    39 -1.180679 -2.507216 -0.193861 -0.933726 0.000009 -0.087276
    40 -0.024967 -1.123935 0.017594 -0.610882 0.000000 0.000000
    41 -0.020058 -0.890964 0.010091 -1.212998 0.000000 0.000000
    42 0.080903 -0.068755 -0.180384 0.307743 -2.879452 1.540137
  time 20
    0 6.653340 3.613261 -5.962636 -0.949945 -1.291834 0.740086
    1 -0.071917 -8.498732 -0.104136 0.327384 -0.164723 -0.255682
    2 -0.252194 -4.514323 0.852150 -1.061842 1.466010 -1.048336
    3 -0.000001 2.617617 0.665015 0.000000 0.000000 0.000000
    4 0.000000 -1.655466 2.278033 0.000000 0.000000 0.000000
    5 0.000000 -1.796959 1.330032 0.000000 0.000000 0.000000
    6 0.000001 -2.886454 1.471525 -0.004195 0.000000 0.000000
    7 0.000000 -0.778211 1.774024 -0.691543 0.000000 0.000000
    8 0.000000 -1.598869 0.580120 0.000000 0.000000 0.000000
    9 -1.906747 0.375141 -9.661032 -0.398833 -0.067484 0.639055
    10 0.096946 -8.450418 -0.009364 0.242889 -0.323416 0.417253
    11 -0.586769 -1.264477 0.200165 -0.282470 -0.582878 -2.509428
    12 1.522835 0.058679 0.016851 0.000000 0.000000 0.446604
    13 1.117948 0.048425 -0.005765 0.015939 -0.000477 0.859148
    14 -0.963866 -2.785144 -0.085346 -0.342483 0.185746 -0.010101
    15 0.028479 -1.403067 0.006271 -0.815979 0.000000 0.000000
    16 0.021412 -0.957781 0.020047 -0.445059 0.000000 0.000000
    17 -0.249534 -2.846964 -0.174215 -0.012978 0.031261 0.129804
    18 0.043234 -1.683940 0.096014 -1.668295 0.000000 0.000000
    19 0.031730 -1.160831 0.058835 0.119114 0.000000 0.000000
    20 0.447951 -2.798983 -0.200442 -0.148382 0.067808 0.126894
    21 -0.032910 -1.480207 0.004935 -1.409715 0.000000 0.000000
    22 -0.027023 -1.076920 -0.020211 0.112912 0.000000 0.000000
    23 1.164474 -2.543938 -0.170326 -0.222289 -0.030232 0.124244
    24 0.024032 -1.129040 0.017806 -1.058217 0.000000 0.000000
    25 0.014897 -0.883992 -0.019845 -0.305455 0.000000 0.000000
    26 -0.026406 -0.138455 -0.019867 0.287061 0.027381 1.346366
    27 0.583509 -1.197273 0.185379 0.339227 -0.969650 -0.814052
    28 1.535926 0.010247 0.005008 -0.326444 -0.010942 -1.015318
    29 1.100770 0.004528 -0.010676 -0.002280 -0.012860 -0.483518
    30 0.957766 -2.746777 -0.090301 -0.233911 -0.030190 0.091702
    31 -0.033419 -1.397128 -0.011256 -0.075239 0.000000 0.000000
    32 -0.022361 -0.957433 0.018782 -0.858995 0.000000 0.000000
    33 0.250028 -2.820664 -0.238397 -0.470596 0.001394 -0.072461
    34 -0.049759 -1.680544 0.100479 -1.606138 0.000000 0.000000
    35 -0.034141 -1.148311 0.084779 -1.613141 0.000000 0.000000
    36 -0.488517 -2.755600 -0.228261 -0.436149 -0.021506 -0.150745
    37 0.039888 -1.479791 0.029853 -1.503030 0.000000 0.000000
    38 0.028785 -1.075732 -0.023110 -1.633152 0.000000 0.000000
    39 -1.180679 -2.507216 -0.193861 -0.933726 0.000009 -0.087276
    40 -0.024967 -1.123935 0.017594 -0.610882 0.000000 0.000000
    41 -0.020058 -0.890964 0.010091 -1.212998 0.000000 0.000000
    42 0.080903 -0.068755 -0.180384 0.307743 -2.879452 1.540137
  time 21
    0 6.653340 3.667950 -5.943105 -0.938284 -1.296392 0.727914
    1 -0.071917 -8.498732 -0.104136 0.322365 -0.155656 -0.225540
    2 -0.252194 -4.514323 0.852150 -1.061842 1.466010 -1.048336
    3 -0.000001 2.617617 0.665015 0.000000 0.000000 0.000000
    4 0.000000 -1.655466 2.278033 0.000000 0.000000 0.000000
    5 0.000000 -1.796959 1.330032 0.000000 0.000000 0.000000
    6 0.000001 -2.886454 1.471525 -0.002001 0.000000 0.000000
    7 0.000000 -0.778211 1.774024 -0.685768 0.000000 0.000000
    8 0.000000 -1.598869 0.580120 0.000000 0.000000 0.000000
    9 -1.902841 0.355609 -9.766504 -0.409517 -0.058135 0.635682
    10 0.096946 -8.450418 -0.009364 0.183013 -0.326035 0.437699
    11 -0.586769 -1.264477 0.200165 -0.282470 -0.582878 -2.509428
    12 1.522835 0.058679 0.016851 0.000000 0.000000 0.446604
    13 1.117948 0.048425 -0.005765 0.015939 -0.000477 0.859148
    14 -0.963866 -2.785144 -0.085346 -0.342483 0.185746 -0.010101
    15 0.028479 -1.403067 0.006271 -0.815979 0.000000 0.000000
    16 0.021412 -0.957781 0.020047 -0.445059 0.000000 0.000000
    17 -0.249534 -2.846964 -0.174215 -0.012978 0.031261 0.129804
    18 0.043234 -1.683940 0.096014 -1.668295 0.000000 0.000000
    19 0.031730 -1.160831 0.058835 0.119114 0.000000 0.000000
    20 0.447951 -2.798983 -0.200442 -0.148382 0.067808 0.126894
    21 -0.032910 -1.480207 0.004935 -1.409715 0.000000 0.000000
    22 -0.027023 -1.076920 -0.020211 0.112912 0.000000 0.000000
    23 1.164474 -2.543938 -0.170326 -0.222289 -0.030232 0.124244
    24 0.024032 -1.129040 0.017806 -1.058217 0.000000 0.000000
    25 0.014897 -0.883992 -0.019845 -0.305455 0.000000 0.000000
    26 -0.026406 -0.138455 -0.019867 0.287061 0.027381 1.346366
    27 0.583509 -1.197273 0.185379 0.339227 -0.969650 -0.814052
    28 1.535926 0.010247 0.005008 -0.326444 -0.010942 -1.015318
    29 1.100770 0.004528 -0.010676 -0.002280 -0.012860 -0.483518
    30 0.957766 -2.746777 -0.090301 -0.233911 -0.030190 0.091702
    31 -0.033419 -1.397128 -0.011256 -0.080713 0.000000 0.000000
    32 -0.022361 -0.957433 0.018782 -0.861476 0.000000 0.000000
    33 0.250028 -2.820664 -0.238397 -0.470596 0.001394 -0.072461
    34 -0.049759 -1.680544 0.100479 -1.606138 0.000000 0.000000
    35 -0.034141 -1.148311 0.084779 -1.613141 0.000000 0.000000
    36 -0.488517 -2.755600 -0.228261 -0.436149 -0.021506 -0.150745
    37 0.039888 -1.479791 0.029853 -1.503030 0.000000 0.000000
    38 0.028785 -1.075732 -0.023110 -1.633152 0.000000 0.000000
    39 -1.180679 -2.507216 -0.193861 -0.933726 0.000009 -0.087276
    40 -0.024967 -1.123935 0.017594 -0.610882 0.000000 0.000000
    41 -0.020058 -0.890964 0.010091 -1.212998 0.000000 0.000000
    42 0.080903 -0.068755 -0.180384 0.307743 -2.879452 1.540137
  time 22
    0 6.653340 3.710920 -5.931385 -0.925908 -1.301057 0.715087
    1 -0.071917 -8.498732 -0.104136 0.317990 -0.146850 -0.198220
    2 -0.252194 -4.514323 0.852150 -1.061842 1.466010 -1.048336
    3 -0.000001 2.617617 0.665015 0.000000 0.000000 0.000000
    4 0.000000 -1.655466 2.278033 0.000000 0.000000 0.000000
    5 0.000000 -1.796959 1.330032 0.000000 0.000000 0.000000
    6 0.000001 -2.886454 1.471525 -0.000527 0.000000 0.000000
    7 0.000000 -0.778211 1.774024 -0.682009 0.000000 0.000000
    8 0.000000 -1.598869 0.580120 0.000000 0.000000 0.000000
    9 -1.871590 0.308733 -9.879789 -0.419629 -0.049153 0.632310
    10 0.096946 -8.450418 -0.009364 0.124672 -0.327672 0.457667
    11 -0.586769 -1.264477 0.200165 -0.282470 -0.582878 -2.509428
    12 1.522835 0.058679 0.016851 0.000000 0.000000 0.446604
    13 1.117948 0.048425 -0.005765 0.015939 -0.000477 0.859148
    14 -0.963866 -2.785144 -0.085346 -0.342483 0.185746 -0.010101
    15 0.028479 -1.403067 0.006271 -0.815979 0.000000 0.000000
    16 0.021412 -0.957781 0.020047 -0.445059 0.000000 0.000000
    17 -0.249534 -2.846964 -0.174215 -0.012978 0.031261 0.129804
    18 0.043234 -1.683940 0.096014 -1.668295 0.000000 0.000000
    19 0.031730 -1.160831 0.058835 0.119114 0.000000 0.000000
    20 0.447951 -2.798983 -0.200442 -0.148382 0.067808 0.126894
    21 -0.032910 -1.480207 0.004935 -1.409715 0.000000 0.000000
    22 -0.027023 -1.076920 -0.020211 0.112912 0.000000 0.000000
    23 1.164474 -2.543938 -0.170326 -0.222289 -0.030232 0.124244
    24 0.024032 -1.129040 0.017806 -1.058217 0.000000 0.000000
    25 0.014897 -0.883992 -0.019845 -0.305455 0.000000 0.000000
    26 -0.026406 -0.138455 -0.019867 0.287061 0.027381 1.346366
    27 0.583509 -1.197273 0.185379 0.339227 -0.969650 -0.814052
    28 1.535926 0.010247 0.005008 -0.326444 -0.010942 -1.015318
    29 1.100770 0.004528 -0.010676 -0.002280 -0.012860 -0.483518
    30 0.957766 -2.746777 -0.090301 -0.233911 -0.030190 0.091702
    31 -0.033419 -1.397128 -0.011256 -0.084383 0.000000 0.000000
    32 -0.022361 -0.957433 0.018782 -0.863168 0.000000 0.000000
    33 0.250028 -2.820664 -0.238397 -0.470596 0.001394 -0.072461
    34 -0.049759 -1.680544 0.100479 -1.606138 0.000000 0.000000
    35 -0.034141 -1.148311 0.084779 -1.613141 0.000000 0.000000
    36 -0.488517 -2.755600 -0.228261 -0.436149 -0.021506 -0.150745
    37 0.039888 -1.479791 0.029853 -1.503030 0.000000 0.000000
    38 0.028785 -1.075732 -0.023110 -1.633152 0.000000 0.000000
    39 -1.180679 -2.507216 -0.193861 -0.933726 0.000009 -0.087276
    40 -0.024967 -1.123935 0.017594 -0.610882 0.000000 0.000000
    41 -0.020058 -0.890964 0.010091 -1.212998 0.000000 0.000000
    42 0.080903 -0.068755 -0.180384 0.307743 -2.879452 1.540137
  time 23
    0 6.653340 3.726546 -5.927479 -0.911600 -1.306172 0.700292
    1 -0.071917 -8.498732 -0.104136 0.314522 -0.138803 -0.176415
    2 -0.252194 -4.514323 0.852150 -1.061842 1.466010 -1.048336
    3 -0.000001 2.617617 0.665015 0.000000 0.000000 0.000000
    4 0.000000 -1.655466 2.278033 0.000000 0.000000 0.000000
    5 0.000000 -1.796959 1.330032 0.000000 0.000000 0.000000
    6 0.000001 -2.886454 1.471525 0.000000 0.000000 0.000000
    7 0.000000 -0.778211 1.774024 -0.680679 0.000000 0.000000
    8 0.000000 -1.598869 0.580120 0.000000 0.000000 0.000000
    9 -1.809088 0.230605 -9.993073 -0.427228 -0.041350 0.629321
    10 0.096946 -8.450418 -0.009364 0.072740 -0.329122 0.475302
    11 -0.586769 -1.264477 0.200165 -0.282470 -0.582878 -2.509428
    12 1.522835 0.058679 0.016851 0.000000 0.000000 0.446604
    13 1.117948 0.048425 -0.005765 0.015939 -0.000477 0.859148
    14 -0.963866 -2.785144 -0.085346 -0.342483 0.185746 -0.010101
    15 0.028479 -1.403067 0.006271 -0.815979 0.000000 0.000000
    16 0.021412 -0.957781 0.020047 -0.445059 0.000000 0.000000
    17 -0.249534 -2.846964 -0.174215 -0.012978 0.031261 0.129804
    18 0.043234 -1.683940 0.096014 -1.668295 0.000000 0.000000
    19 0.031730 -1.160831 0.058835 0.119114 0.000000 0.000000
    20 0.447951 -2.798983 -0.200442 -0.148382 0.067808 0.126894
    21 -0.032910 -1.480207 0.004935 -1.409715 0.000000 0.000000
    22 -0.027023 -1.076920 -0.020211 0.112912 0.000000 0.000000
    23 1.164474 -2.543938 -0.170326 -0.222289 -0.030232 0.124244
    24 0.024032 -1.129040 0.017806 -1.058217 0.000000 0.000000
    25 0.014897 -0.883992 -0.019845 -0.305455 0.000000 0.000000
    26 -0.026406 -0.138455 -0.019867 0.287061 0.027381 1.346366
    27 0.583509 -1.197273 0.185379 0.339227 -0.969650 -0.814052
    28 1.535926 0.010247 0.005008 -0.326444 -0.010942 -1.015318
    29 1.100770 0.004528 -0.010676 -0.002280 -0.012860 -0.483518
    30 0.957766 -2.746777 -0.090301 -0.233911 -0.030190 0.091702
    31 -0.033419 -1.397128 -0.011256 -0.085680 0.000000 0.000000
    32 -0.022361 -0.957433 0.018782 -0.863752 0.000000 0.000000
    33 0.250028 -2.820664 -0.238397 -0.470596 0.001394 -0.072461
    34 -0.049759 -1.680544 0.100479 -1.606138 0.000000 0.000000
    35 -0.034141 -1.148311 0.084779 -1.613141 0.000000 0.000000
    36 -0.488517 -2.755600 -0.228261 -0.436149 -0.021506 -0.150745
    37 0.039888 -1.479791 0.029853 -1.503030 0.000000 0.000000
    38 0.028785 -1.075732 -0.023110 -1.633152 0.000000 0.000000
    39 -1.180679 -2.507216 -0.193861 -0.933726 0.000009 -0.087276
    40 -0.024967 -1.123935 0.017594 -0.610882 0.000000 0.000000
    41 -0.020058 -0.890964 0.010091 -1.212998 0.000000 0.000000
    42 0.080903 -0.068755 -0.180384 0.307743 -2.879452 1.540137
end
