// Created by Crowbar 0.49.0.0

$modelname "weapons/tfa_cso/c_janus11b.mdl"

$Include "csonline_gmod.qci"

$bodygroup "weapon"
{
	studio "v_janus11_1"
}
$bodygroup "weapon"
{
	studio "v_janus11_2"
}

$CDMaterials "models\weapons\tfa_cso\janus11"

$attachment 0 "Bone49" 0 0 0
//$attachment 1 "Bone02" -5 0 0
//$attachment 2 "Bone08" 0.53 0.6 -0.22
//$attachment 3 "Bone08" 0.53 0.6 0.22

$definebone "root" "" -0.349714 1.166272 0.203512 0.000000 0.000000 0.000000 0.000000 0.000000 0.000000 -0.000000 0.000000 0.000000
$definebone "Bone01" "root" 9.765088 1.993817 -10.680801 -76.217481 70.092734 -90.018486 0.000000 0.000000 -0.000000 -0.000000 0.000000 0.000000
$definebone "Bone_Lefthand" "Bone01" -0.071918 -8.498732 -0.104137 5.089814 -13.452421 12.732268 0.000000 0.000000 0.000000 -0.000000 -0.000000 -0.000001
$definebone "Bone02" "Bone_Lefthand" 3.368458 -4.357613 0.461421 7.144666 -88.567071 5.072454 0.000000 -0.000000 0.000000 -0.000003 0.000000 0.000000
$definebone "Bone49" "Bone02" 16.890457 0.818869 0.000002 -0.000000 89.999983 -0.000003 0.000000 0.000000 0.000000 -0.000000 -0.000000 -0.000003
$definebone "Bone20" "Bone02" -0.066956 1.496177 2.107536 0.000003 -179.999966 -0.000000 0.000000 0.000000 0.000000 0.000003 0.000000 -0.000000
$definebone "Bone12" "Bone02" -1.216037 1.038362 1.092521 -0.000000 89.999983 -0.000003 0.000000 0.000000 0.000000 -0.000000 -0.000000 -0.000003
$definebone "Bone42" "Bone02" 0.045777 -1.573665 0.000000 0.000000 -89.999983 0.000003 0.000000 0.000000 0.000000 0.000000 -0.000000 0.000003
$definebone "Bone24" "Bone02" 7.000001 1.781222 0.000000 -0.066464 89.999983 -0.000003 0.000000 0.000000 0.000000 -0.000000 -0.000000 -0.000003
$definebone "Bone25" "Bone24" 0.584018 2.854836 0.002934 0.066463 -0.000000 -0.000003 -0.000000 0.000000 0.000000 -0.000000 -0.000000 -0.000003
$definebone "Bone03" "Bone25" -0.000000 0.849938 0.000001 -0.000000 -0.000000 -0.000003 -0.000000 0.000000 0.000000 -0.000000 -0.000000 -0.000003
$definebone "Bone08" "Bone03" 1.015859 2.730336 -0.003613 -0.000000 -0.000000 -0.000003 0.000000 0.000000 0.000000 -0.000000 -0.000000 -0.000003
$definebone "Dummy01" "Bone08" 0.107326 0.941765 0.000000 -0.000000 -0.000000 -0.000003 0.000000 0.000000 0.000000 -0.000000 -0.000000 -0.000003
$definebone "Bone16" "Dummy01" 0.000000 0.000000 0.000000 -0.000000 -0.000000 -0.000003 0.000000 0.000000 0.000000 -0.000000 -0.000000 -0.000003
$definebone "Bone47" "Bone03" 0.340879 1.910700 1.116732 -89.999983 89.999983 0.000000 0.000000 0.000000 0.000000 -0.000003 -0.000000 -0.000000
$definebone "Bone48" "Bone02" -26.265751 0.307468 5.107878 -0.000003 0.000000 0.000000 0.000000 0.000000 0.000000 -0.000003 0.000000 0.000000
$definebone "Dummy03" "Bone24" 0.000424 -3.540243 0.365662 0.066463 -0.000000 -0.000003 0.000000 0.000000 0.000000 -0.000000 -0.000000 -0.000003
$definebone "Bone34" "Dummy03" 0.000000 0.000000 0.000000 -0.000000 -0.000000 -0.000003 0.000000 0.000000 0.000000 -0.000000 -0.000000 -0.000003
$definebone "Dummy02" "Bone24" -0.000366 -3.540243 -0.315490 0.066463 -0.000000 -0.000003 0.000000 0.000000 0.000000 -0.000000 -0.000000 -0.000003
$definebone "Bone26" "Dummy02" 0.000000 0.000000 0.000000 -0.000000 -0.000000 -0.000003 0.000000 0.000000 0.000000 -0.000000 -0.000000 -0.000003
$definebone "Bone38" "Bone02" 10.442630 -2.311492 -0.001769 0.000000 -89.999983 0.000003 0.000000 0.000000 0.000000 0.000000 -0.000000 0.000003
$definebone "Dummy04" "Bone38" -0.498922 2.487837 1.492354 0.000000 -0.000000 0.000003 0.000000 0.000000 0.000000 0.000000 -0.000000 0.000003
$definebone "Bone30" "Dummy04" 0.000000 0.000000 0.000000 0.000000 -0.000000 0.000003 0.000000 0.000000 0.000000 0.000000 -0.000000 0.000003
$definebone "Dummy05" "Bone38" -0.498922 2.487839 -1.544641 0.000000 -0.000000 0.000003 -0.000000 0.000000 0.000000 0.000000 -0.000000 0.000003
$definebone "Bone46" "Dummy05" -0.000000 -0.000004 -0.000003 0.000000 -0.000000 0.000003 -0.000000 0.000000 0.000000 0.000000 -0.000000 0.000003

$sequence "idle" {
	"v_janus11_anims\idle"
	fps 30
}
$sequence "change1" {
	"v_janus11_anims\change1"
	{ event 5004 15 "JANUS11.Change1" }
	fps 30
	activity "ACT_VM_DRAW" 1
	snap
}
$sequence "shoot1" {
	"v_janus11_anims\shoot1"
	{ event 5001 0 "#I12 S0.2 R1.5 F0 P30 T0.5 A1 L0 O0" }
	fps 30
}
$sequence "insert" {
	"v_janus11_anims\insert"
	{ event 5004 2 "JANUS11.Insert" }
	fps 30
}
$sequence "after_reload" {
	"v_janus11_anims\after_reload"
	{ event 5004 11 "JANUS11.Finish" }
	fps 30
}
$sequence "start_reload" {
	"v_janus11_anims\start_reload"
	fps 30
}
$sequence "draw" {
	"v_janus11_anims\draw"
	{ event 5004 11 "JANUS11.Draw" }
	fps 30
}
$sequence "idle2" {
	"v_janus11_anims\idle2"
	fps 30
	loop
	activity "ACT_VM_IDLE" 1
	snap
}
$sequence "shoot2" {
	"v_janus11_anims\shoot2"
	{ event 5001 0 "#I32 S0.15 R1.5 F0 P30 T0.1 A1 L0 O0" }
	fps 30
	activity "ACT_VM_PRIMARYATTACK" 1
	snap
}
$sequence "draw2" {
	"v_janus11_anims\draw2"
	{ event 5004 11 "weapons/janus11_draw.wav" }
	fps 30
}
$sequence "change2" {
	"v_janus11_anims\change2"
	{ event 5004 3 "weapons/janus11_change2.wav" }
	fps 30
}
$sequence "idle_signal" {
	"v_janus11_anims\idle_signal"
	fps 30
	loop
}
$sequence "insert_signal" {
	"v_janus11_anims\insert_signal"
	{ event 5004 2 "weapons/janus11_insert.wav" }
	fps 30
}
$sequence "after_reload_signal" {
	"v_janus11_anims\after_reload_signal"
	{ event 5004 11 "weapons/janus11_after_reload.wav" }
	fps 30
}
$sequence "start_reload_signal" {
	"v_janus11_anims\start_reload_signal"
	fps 30
}
$sequence "shoot_signal" {
	"v_janus11_anims\shoot_signal"
	{ event 5001 0 "#I12 S0.2 R1.5 F0 P30 T0.5 A1 L0 O0" }
	fps 30
}
$sequence "draw_signal" {
	"v_janus11_anims\draw_signal"
	{ event 5004 11 "weapons/janus11_draw.wav" }
	fps 30
}
