version 1
nodes
  0 "gunkata_root" -1
  1 "slide" 0
  2 "gunkata_knife" 0
  3 "kata_triger" 0
  4 "kata_2" 0
  5 "gunkata_megazine" 0
  6 "gunkata_root001" -1
  7 "slide001" 6
  8 "gunkata_knife001" 6
  9 "kata_triger001" 6
  10 "kata_005" 6
  11 "gunkata_megazine001" 6
  12 "fx01" -1
  13 "fx02" -1
  14 "trail01" -1
  15 "trail02" 14
  16 "root" -1
  17 "Bone01" 16
  18 "Bone_L_Upper" 17
  19 "Bone_Lefthand" 17
  20 "Bone13" 19
  21 "Bone14" 20
  22 "Bone15" 21
  23 "Bone17" 19
  24 "Bone18" 23
  25 "Bone19" 24
  26 "Bone21" 19
  27 "Bone22" 26
  28 "Bone23" 27
  29 "Bone09" 19
  30 "Bone10" 29
  31 "Bone11" 30
  32 "Bone05" 19
  33 "Bone06" 32
  34 "Bone07" 33
  35 "Bone_Se_Hand-L" 19
  36 "Bone04" 16
  37 "Bone_Righthand" 36
  38 "Bone39" 37
  39 "Bone40" 38
  40 "Bone41" 39
  41 "Bone35" 37
  42 "Bone36" 41
  43 "Bone37" 42
  44 "Bone31" 37
  45 "Bone32" 44
  46 "Bone33" 45
  47 "Bone43" 37
  48 "Bone44" 47
  49 "Bone45" 48
  50 "Bone27" 37
  51 "Bone28" 50
  52 "Bone29" 51
  53 "Bone_Se_Hand-R" 37
  54 "Bone_R_Upper" 36
end
skeleton
  time 0
    0 -8.176031 -13.945738 -8.988556 1.406557 -3.055398 -0.976837
    1 3.096915 -0.000001 -3.559005 -3.141592 -1.570451 0.000000
    2 -3.157606 0.000000 -1.771385 0.000000 0.000000 0.000000
    3 1.347458 0.000000 -0.036606 0.000001 -3.141592 0.000000
    4 2.980681 -0.000001 -3.026972 0.000000 0.000000 0.000000
    5 -2.772562 0.000000 -3.715392 0.000000 -0.478942 0.000000
    6 -3.886837 -16.028138 -5.531419 1.520891 -0.090417 0.057439
    7 3.096915 -0.000002 -3.559005 -3.141592 -1.570451 0.000000
    8 -3.157606 0.000001 -1.771385 0.000000 0.000000 0.000000
    9 1.347458 0.000000 -0.036606 0.000001 -3.141592 0.000000
    10 2.980681 -0.000001 -3.026972 0.000000 0.000000 0.000000
    11 -2.772562 -0.000001 -3.715392 0.000000 -0.478942 0.000000
    12 -1.194434 -14.267419 -4.402478 -0.113413 4.421411 -1.394064
    13 -1.194434 -14.267419 -4.402478 -0.113432 4.421411 -1.394064
    14 35.886223 -19.098476 -5.245475 0.986223 -1.014512 -2.903868
    15 0.000002 40.432781 -0.000010 0.000000 0.000000 0.000000
    16 -1.209821 2.932418 -4.390140 -0.174699 0.222770 -0.216143
    17 7.376451 -8.592683 -3.889725 6.125693 -3.021919 -0.768917
    18 8.468338 2.063161 -0.368563 1.567619 -3.119129 0.312582
    19 -0.138329 -8.432328 -0.201793 -0.405102 -0.091631 0.107490
    20 -0.488518 -2.755602 -0.228260 -0.741569 0.047688 -0.381112
    21 0.039887 -1.534479 0.014229 -1.576912 -0.011122 0.035284
    22 0.028786 -1.185109 -0.132487 -1.218645 -0.015041 0.026822
    23 0.250027 -2.820665 -0.238396 -0.290347 -0.034584 -0.286546
    24 -0.049759 -1.598510 0.034071 -1.543204 0.000539 -0.041457
    25 -0.034142 -1.171750 0.045718 -1.169340 0.006568 -0.030800
    26 0.957766 -2.746780 -0.090302 0.050684 -0.147200 0.082289
    27 -0.033420 -1.397129 -0.015163 -0.329486 0.006939 -0.015809
    28 -0.022360 -0.957436 0.003159 -0.558428 0.008018 -0.026857
    29 -1.180681 -2.507217 -0.193859 -0.806133 0.251644 -0.384136
    30 -0.024967 -1.127840 0.017597 -1.079262 0.002409 -0.046128
    31 -0.020057 -0.906594 0.029622 -1.001921 0.005369 -0.041023
    32 0.606948 -1.197277 0.185379 0.389364 -0.893516 -0.592401
    33 1.481238 -0.216323 0.067511 0.047551 -0.212834 -0.759113
    34 0.995299 -0.190791 0.047917 0.101937 -0.253896 -1.103464
    35 0.120153 -0.050270 -0.054489 0.287569 3.110905 1.561085
    36 -4.192764 -6.289886 -3.923278 0.099628 -3.505189 0.461839
    37 0.108663 -8.407448 -0.044522 -0.131276 -0.121387 0.176657
    38 0.447953 -2.798986 -0.200443 -0.735873 0.010098 0.254020
    39 -0.032909 -1.499736 0.028378 -1.435653 0.023358 -0.027754
    40 -0.027022 -1.135516 -0.020210 -1.403578 0.024892 -0.027133
    41 -0.249534 -2.846964 -0.174213 -0.314880 0.133839 0.144563
    42 0.043235 -1.656596 0.068667 -1.454198 -0.022453 0.008066
    43 0.031729 -1.137392 0.051025 -1.500061 -0.016580 0.008779
    44 -0.963866 -2.785145 -0.085350 0.178507 0.162851 -0.182687
    45 0.028479 -1.403067 -0.017167 -0.866992 -0.021392 -0.032095
    46 0.021413 -0.961687 0.020046 0.204098 0.000551 0.009024
    47 1.164475 -2.543940 -0.170330 -0.641109 -0.235285 0.274225
    48 0.024032 -1.148574 -0.009538 -1.265292 0.022124 0.061853
    49 0.014898 -0.903521 -0.012035 -1.137822 0.013722 0.056028
    50 -0.586770 -1.264477 0.200161 -0.316722 -1.034155 -2.553877
    51 1.561899 0.035243 0.016848 -0.016099 -0.006259 0.794269
    52 1.114041 0.044518 -0.005766 -0.025854 -0.034738 0.943911
    53 -0.139399 -0.111698 0.014397 0.285382 -0.030687 1.580508
    54 -3.506816 8.764956 -0.298029 1.581763 -0.011619 -1.315252
  time 1
    0 -10.996429 -9.808893 -10.054994 1.346097 -3.024235 -1.312524
    1 3.096915 -0.000001 -3.559005 -3.141592 -1.570451 0.000000
    2 -3.157606 0.000000 -1.771385 0.000000 0.000000 0.000000
    3 1.347458 0.000000 -0.036606 0.000001 -3.141592 0.000000
    4 2.980681 -0.000001 -3.026972 0.000000 0.000000 0.000000
    5 -2.772562 0.000000 -3.715392 0.000000 -0.478942 0.000000
    6 -4.695456 -15.270302 -5.652516 1.508151 -0.084044 0.112715
    7 3.096915 -0.000002 -7.254430 -3.141592 -1.570451 0.000000
    8 -3.157606 0.000001 -1.771385 0.000000 0.000000 0.000000
    9 1.347458 0.000000 -0.036606 0.000001 -4.127218 0.000000
    10 2.980681 -0.000001 -3.026972 0.000000 0.000000 0.000000
    11 -2.772562 -0.000001 -3.715392 0.000000 -0.478942 0.000000
    12 -2.495255 -9.681342 -4.797021 0.226828 4.409427 -1.364929
    13 -2.495255 -9.681342 -4.797021 0.541012 4.409427 -1.364929
    14 35.886223 -19.098476 -5.245475 0.986223 -1.014512 -2.903868
    15 0.000002 40.432781 -0.000010 0.000000 0.000000 0.000000
    16 -1.209821 2.932418 -4.390140 -0.174699 0.222770 -0.216143
    17 6.185008 -8.920818 -4.542089 6.064439 -2.898469 -1.078356
    18 8.554278 1.274075 -0.384189 1.568674 -3.117403 0.220967
    19 -0.138329 -8.432328 -0.201793 -0.405102 -0.091631 0.107490
    20 -0.488518 -2.755602 -0.228260 -0.741569 0.047688 -0.381112
    21 0.039887 -1.534479 0.014229 -1.576912 -0.011122 0.035284
    22 0.028786 -1.185109 -0.132487 -1.218645 -0.015041 0.026822
    23 0.250027 -2.820665 -0.238396 -0.290347 -0.034584 -0.286546
    24 -0.049759 -1.598510 0.034071 -1.543204 0.000539 -0.041457
    25 -0.034142 -1.171750 0.045718 -1.169340 0.006568 -0.030800
    26 0.957766 -2.746780 -0.090302 0.050684 -0.147200 0.082289
    27 -0.033420 -1.397129 -0.015163 -0.329486 0.006939 -0.015809
    28 -0.022360 -0.957436 0.003159 -0.558428 0.008018 -0.026857
    29 -1.180681 -2.507217 -0.193859 -0.806133 0.251644 -0.384136
    30 -0.024967 -1.127840 0.017597 -1.079262 0.002409 -0.046128
    31 -0.020057 -0.906594 0.029622 -1.001921 0.005369 -0.041023
    32 0.606948 -1.197277 0.185379 0.389364 -0.893516 -0.592401
    33 1.481238 -0.216323 0.067511 0.047551 -0.212834 -0.759113
    34 0.995299 -0.190791 0.047917 0.101937 -0.253896 -1.103464
    35 0.120153 -0.050270 -0.054489 0.287569 3.110905 1.561085
    36 -5.700622 -5.977376 -4.505327 0.127078 -3.498726 0.520944
    37 0.108663 -8.407448 -0.044522 -0.131276 -0.121387 0.176657
    38 0.447953 -2.798986 -0.200443 -0.735873 0.010098 0.254020
    39 -0.032909 -1.499736 0.028378 -1.435653 0.023358 -0.027754
    40 -0.027022 -1.135516 -0.020210 -1.403578 0.024892 -0.027133
    41 -0.249534 -2.846964 -0.174213 -0.314880 0.133839 0.144563
    42 0.043235 -1.656596 0.068667 -1.454198 -0.022453 0.008066
    43 0.031729 -1.137392 0.051025 -1.500061 -0.016580 0.008779
    44 -0.963866 -2.785145 -0.085350 0.023953 0.162540 -0.189710
    45 0.028479 -1.406973 -0.024980 -1.100087 -0.030980 -0.036445
    46 0.021413 -0.953875 0.020046 -0.362738 -0.005573 -0.015520
    47 1.164475 -2.543940 -0.170330 -0.641109 -0.235285 0.274225
    48 0.024032 -1.148574 -0.009538 -1.265292 0.022124 0.061853
    49 0.014898 -0.903521 -0.012035 -1.137822 0.013722 0.056028
    50 -0.586770 -1.264477 0.200161 -0.316722 -1.034155 -2.553877
    51 1.561899 0.035243 0.016848 -0.016099 -0.006259 0.794269
    52 1.114041 0.044518 -0.005766 -0.025854 -0.034738 0.943911
    53 -0.139399 -0.111698 0.014397 0.285382 -0.030687 1.580508
    54 -6.053769 7.077405 -0.376156 1.580325 -0.020795 -0.965376
  time 2
    0 -10.957366 -9.894833 -10.035462 1.347049 -3.025070 -1.306208
    1 3.096915 -0.000001 -3.559005 -3.141592 -1.570451 0.000000
    2 -3.157606 0.000000 -1.771385 0.000000 0.000000 0.000000
    3 1.347458 0.000000 -0.036606 0.000001 -3.141592 0.000000
    4 2.980681 -0.000001 -3.026972 0.000000 0.000000 0.000000
    5 -2.772562 0.000000 -3.715392 0.000000 -0.478942 0.000000
    6 -5.234535 -15.145299 -5.746269 1.525393 -0.127346 0.115201
    7 3.096915 -0.000002 -7.254430 -3.141592 -1.570451 0.000000
    8 -3.157606 0.000001 -1.771385 0.000000 0.000000 0.000000
    9 1.347458 0.000000 -0.036606 0.000001 -4.127218 0.000000
    10 2.980681 -0.000001 -3.026972 0.000000 0.000000 0.000000
    11 -2.772562 -0.000001 -3.715392 0.000000 -0.478942 0.000000
    12 -3.092929 -9.568057 -4.675924 0.385837 4.419110 -1.212253
    13 -3.092929 -9.568057 -4.675924 1.014194 4.419110 -1.212253
    14 35.886223 -19.098476 -5.245475 0.986223 -1.014512 -2.903868
    15 0.000002 40.432781 -0.000010 0.000000 0.000000 0.000000
    16 -1.209821 2.932418 -4.390140 -0.174699 0.222770 -0.216143
    17 6.208446 -8.920818 -4.530370 6.065109 -2.901051 -1.072470
    18 8.554278 1.289700 -0.380282 1.568674 -3.117403 0.222763
    19 -0.138329 -8.432328 -0.201793 -0.405121 -0.091631 0.107490
    20 -0.488518 -2.755602 -0.228260 -0.741569 0.047688 -0.381112
    21 0.039887 -1.534479 0.014229 -1.576912 -0.011122 0.035284
    22 0.028786 -1.185109 -0.132487 -1.218645 -0.015041 0.026822
    23 0.250027 -2.820665 -0.238396 -0.290347 -0.034584 -0.286546
    24 -0.049759 -1.598510 0.034071 -1.543204 0.000539 -0.041457
    25 -0.034142 -1.171750 0.045718 -1.169340 0.006568 -0.030800
    26 0.957766 -2.746780 -0.090302 0.050684 -0.147200 0.082289
    27 -0.033420 -1.397129 -0.015163 -0.329486 0.006939 -0.015809
    28 -0.022360 -0.957436 0.003159 -0.558428 0.008018 -0.026857
    29 -1.180681 -2.507217 -0.193859 -0.806133 0.251644 -0.384136
    30 -0.024967 -1.127840 0.017597 -1.079262 0.002409 -0.046128
    31 -0.020057 -0.906594 0.029622 -1.001921 0.005369 -0.041023
    32 0.606948 -1.197277 0.185379 0.389364 -0.893516 -0.592401
    33 1.481238 -0.216323 0.067511 0.047551 -0.212834 -0.759113
    34 0.995299 -0.190791 0.047917 0.101937 -0.253896 -1.103464
    35 0.120153 -0.050270 -0.054489 0.287569 3.110905 1.561085
    36 -6.056102 -5.856279 -4.622518 0.120025 -3.502050 0.489192
    37 0.104757 -8.407448 -0.040616 -0.151369 -0.164867 0.153501
    38 0.447953 -2.798986 -0.200443 -0.735873 0.010098 0.254020
    39 -0.032909 -1.499736 0.028378 -1.435653 0.023358 -0.027754
    40 -0.027022 -1.135516 -0.020210 -1.403578 0.024892 -0.027133
    41 -0.249534 -2.846964 -0.174213 -0.314880 0.133839 0.144563
    42 0.043235 -1.656596 0.068667 -1.454198 -0.022453 0.008066
    43 0.031729 -1.137392 0.051025 -1.500061 -0.016580 0.008779
    44 -0.963866 -2.785145 -0.085350 0.029688 0.162564 -0.189447
    45 0.028479 -1.406973 -0.021074 -1.019860 -0.027577 -0.035211
    46 0.021413 -0.953875 0.020046 -0.341740 -0.005093 -0.014693
    47 1.164475 -2.543940 -0.170330 -0.641109 -0.235285 0.274225
    48 0.024032 -1.148574 -0.009538 -1.265292 0.022124 0.061853
    49 0.014898 -0.903521 -0.012035 -1.137822 0.013722 0.056028
    50 -0.586770 -1.264477 0.200161 -0.316722 -1.034155 -2.553877
    51 1.561899 0.035243 0.016848 -0.016099 -0.006259 0.794269
    52 1.114041 0.044518 -0.005766 -0.025854 -0.034738 0.943911
    53 -0.139399 -0.111698 0.014397 0.285382 -0.030687 1.580508
    54 -6.280338 6.854742 -0.383969 1.580037 -0.021751 -0.929162
  time 3
    0 -10.844081 -10.133122 -9.984680 1.349811 -3.027481 -1.288601
    1 3.096915 -0.000001 -3.559005 -3.141592 -1.570451 0.000000
    2 -3.157606 0.000000 -1.771385 0.000000 0.000000 0.000000
    3 1.347458 0.000000 -0.036606 0.000001 -3.141592 0.000000
    4 2.980681 -0.000001 -3.026972 0.000000 0.000000 0.000000
    5 -2.772562 0.000000 -3.715392 0.000000 -0.478942 0.000000
    6 -5.722831 -15.172643 -5.812677 1.546179 -0.179901 0.107072
    7 3.096915 -0.000002 -7.254430 -3.141592 -1.570451 0.000000
    8 -3.157606 0.000001 -1.771385 0.000000 0.000000 0.000000
    9 1.347458 0.000000 -0.036606 0.000001 -4.127218 0.000000
    10 2.980681 -0.000001 -3.026972 0.000000 0.000000 0.000000
    11 -2.772562 -0.000001 -3.715392 0.000000 -0.478942 0.000000
    12 -3.616383 -9.638372 -4.488418 0.504040 4.421028 -1.029387
    13 -3.616383 -9.638372 -4.488418 1.446467 4.421028 -1.029387
    14 35.886223 -19.098476 -5.245475 0.986223 -1.014512 -2.903868
    15 0.000002 40.432781 -0.000010 0.000000 0.000000 0.000000
    16 -1.209821 2.932418 -4.390140 -0.174699 0.222770 -0.216143
    17 6.274855 -8.909099 -4.495213 6.067310 -2.908223 -1.056307
    18 8.554278 1.332670 -0.380282 1.568578 -3.117499 0.227491
    19 -0.138329 -8.432328 -0.201793 -0.405102 -0.091631 0.107490
    20 -0.488518 -2.755602 -0.228260 -0.741569 0.047688 -0.381112
    21 0.039887 -1.534479 0.014229 -1.576912 -0.011122 0.035284
    22 0.028786 -1.185109 -0.132487 -1.218645 -0.015041 0.026822
    23 0.250027 -2.820665 -0.238396 -0.290347 -0.034584 -0.286546
    24 -0.049759 -1.598510 0.034071 -1.543204 0.000539 -0.041457
    25 -0.034142 -1.171750 0.045718 -1.169340 0.006568 -0.030800
    26 0.957766 -2.746780 -0.090302 0.050684 -0.147200 0.082289
    27 -0.033420 -1.397129 -0.015163 -0.329486 0.006939 -0.015809
    28 -0.022360 -0.957436 0.003159 -0.558428 0.008018 -0.026857
    29 -1.180681 -2.507217 -0.193859 -0.806133 0.251644 -0.384136
    30 -0.024967 -1.127840 0.017597 -1.079262 0.002409 -0.046128
    31 -0.020057 -0.906594 0.029622 -1.001921 0.005369 -0.041023
    32 0.606948 -1.197277 0.185379 0.389364 -0.893516 -0.592401
    33 1.481238 -0.216323 0.067511 0.047551 -0.212834 -0.759113
    34 0.995299 -0.190791 0.047917 0.101937 -0.253896 -1.103464
    35 0.120153 -0.050270 -0.054489 0.287569 3.110905 1.561085
    36 -6.200637 -5.821122 -4.653769 0.106777 -3.507035 0.441659
    37 0.100850 -8.411355 -0.032803 -0.173664 -0.215956 0.128006
    38 0.447953 -2.798986 -0.200443 -0.735873 0.010098 0.254020
    39 -0.032909 -1.499736 0.028378 -1.435653 0.023358 -0.027754
    40 -0.027022 -1.135516 -0.020210 -1.403578 0.024892 -0.027133
    41 -0.249534 -2.846964 -0.174213 -0.314880 0.133839 0.144563
    42 0.043235 -1.656596 0.068667 -1.454198 -0.022453 0.008066
    43 0.031729 -1.137392 0.051025 -1.500061 -0.016580 0.008779
    44 -0.963866 -2.785145 -0.085350 0.065462 0.162731 -0.187829
    45 0.028479 -1.403067 -0.017167 -0.883635 -0.022052 -0.032478
    46 0.021413 -0.953875 0.020046 -0.210540 -0.002565 -0.009324
    47 1.164475 -2.543940 -0.170330 -0.641109 -0.235285 0.274225
    48 0.024032 -1.148574 -0.009538 -1.265292 0.022124 0.061853
    49 0.014898 -0.903521 -0.012035 -1.137822 0.013722 0.056028
    50 -0.586770 -1.264477 0.200161 -0.316722 -1.034155 -2.553877
    51 1.561899 0.035243 0.016848 -0.016099 -0.006259 0.794269
    52 1.114041 0.044518 -0.005766 -0.025854 -0.034738 0.943911
    53 -0.139399 -0.111698 0.014397 0.285382 -0.030687 1.580508
    54 -6.139709 6.991464 -0.380062 1.580229 -0.021177 -0.951499
  time 4
    0 -10.664388 -10.488601 -9.906552 1.354095 -3.030913 -1.261807
    1 3.096915 -0.000001 -3.559005 -3.141592 -1.570451 0.000000
    2 -3.157606 0.000000 -1.771385 0.000000 0.000000 0.000000
    3 1.347458 0.000000 -0.036606 0.000001 -3.141592 0.000000
    4 2.980681 -0.000001 -3.026972 0.000000 0.000000 0.000000
    5 -2.772562 0.000000 -3.715392 0.000000 -0.478942 0.000000
    6 -5.953307 -15.196081 -5.832209 1.559206 -0.215259 0.098848
    7 3.096915 -0.000002 -3.418376 -3.141592 -1.570451 0.000000
    8 -3.157606 0.000001 -1.771385 0.000000 0.000000 0.000000
    9 1.347458 0.000000 -0.036606 0.000001 -3.141592 0.000000
    10 2.980681 -0.000001 -3.026972 0.000000 0.000000 0.000000
    11 -2.772562 -0.000001 -3.715392 0.000000 -0.478942 0.000000
    12 -3.495285 -13.517397 -4.304819 0.689774 4.415371 -0.912269
    13 -3.495285 -13.517397 -4.304819 -1.195072 5.009310 -4.053764
    14 35.886223 -19.098476 -5.245475 0.986223 -1.014512 -2.903868
    15 0.000002 40.432781 -0.000010 0.000000 0.000000 0.000000
    16 -1.209821 2.932418 -4.390140 -0.174699 0.222770 -0.216143
    17 6.368607 -8.897380 -4.440523 6.070852 -2.918933 -1.031642
    18 8.546465 1.395172 -0.380282 1.568482 -3.117691 0.234865
    19 -0.138329 -8.432328 -0.201793 -0.405102 -0.091631 0.107490
    20 -0.488518 -2.755602 -0.228260 -0.741569 0.047688 -0.381112
    21 0.039887 -1.534479 0.014229 -1.576912 -0.011122 0.035284
    22 0.028786 -1.185109 -0.132487 -1.218645 -0.015041 0.026822
    23 0.250027 -2.820665 -0.238396 -0.290347 -0.034584 -0.286546
    24 -0.049759 -1.598510 0.034071 -1.543204 0.000539 -0.041457
    25 -0.034142 -1.171750 0.045718 -1.169340 0.006568 -0.030800
    26 0.957766 -2.746780 -0.090302 0.050684 -0.147200 0.082289
    27 -0.033420 -1.397129 -0.015163 -0.329486 0.006939 -0.015809
    28 -0.022360 -0.957436 0.003159 -0.558428 0.008018 -0.026857
    29 -1.180681 -2.507217 -0.193859 -0.806133 0.251644 -0.384136
    30 -0.024967 -1.127840 0.017597 -1.079262 0.002409 -0.046128
    31 -0.020057 -0.906594 0.029622 -1.001921 0.005369 -0.041023
    32 0.606948 -1.197277 0.185379 0.389364 -0.893516 -0.592401
    33 1.481238 -0.216323 0.067511 0.047551 -0.212834 -0.759113
    34 0.995299 -0.190791 0.047917 0.101937 -0.253896 -1.103464
    35 0.120153 -0.050270 -0.054489 0.287569 3.110905 1.561085
    36 -6.247514 -5.817215 -4.657675 0.100677 -3.510082 0.417080
    37 0.096944 -8.411355 -0.024990 -0.188079 -0.249094 0.120502
    38 0.447953 -2.798986 -0.200443 -0.735873 0.010098 0.254020
    39 -0.032909 -1.499736 0.028378 -1.435653 0.023358 -0.027754
    40 -0.027022 -1.135516 -0.020210 -1.403578 0.024892 -0.027133
    41 -0.249534 -2.846964 -0.174213 -0.314880 0.133839 0.144563
    42 0.043235 -1.656596 0.068667 -1.454198 -0.022453 0.008066
    43 0.031729 -1.137392 0.051025 -1.500061 -0.016580 0.008779
    44 -0.963866 -2.785145 -0.085350 0.101223 0.162827 -0.186211
    45 0.028479 -1.403067 -0.017167 -0.790319 -0.018492 -0.030189
    46 0.021413 -0.957781 0.020046 -0.079320 -0.000755 -0.003679
    47 1.164475 -2.543940 -0.170330 -0.641109 -0.235285 0.274225
    48 0.024032 -1.148574 -0.009538 -1.265292 0.022124 0.061853
    49 0.014898 -0.903521 -0.012035 -1.137822 0.013722 0.056028
    50 -0.586770 -1.264477 0.200161 -0.316722 -1.034155 -2.553877
    51 1.561899 0.035243 0.016848 -0.016099 -0.006259 0.794269
    52 1.114041 0.044518 -0.005766 -0.025854 -0.034738 0.943911
    53 -0.139399 -0.111698 0.014397 0.285382 -0.030687 1.580508
    54 -6.030330 7.100843 -0.376156 1.580421 -0.020700 -0.969368
  time 5
    0 -10.426099 -10.933927 -9.804987 1.359617 -3.034994 -1.228028
    1 3.096915 -0.000001 -3.559005 -3.141592 -1.570451 0.000000
    2 -3.157606 0.000000 -1.771385 0.000000 0.000000 0.000000
    3 1.347458 0.000000 -0.036606 0.000001 -3.141592 0.000000
    4 2.980681 -0.000001 -3.026972 0.000000 0.000000 0.000000
    5 -2.772562 0.000000 -3.715392 0.000000 -0.478942 0.000000
    6 -5.730644 -15.133579 -5.797052 1.560068 -0.218663 0.097605
    7 3.096915 -0.000002 -3.488690 -3.141592 -1.570451 0.000000
    8 -3.157606 0.000001 -1.771385 0.000000 0.000000 0.000000
    9 1.347458 0.000000 -0.036606 0.000001 -3.141592 0.000000
    10 2.980681 -0.000001 -3.026972 0.000000 0.000000 0.000000
    11 -2.772562 -0.000001 -3.715392 0.000000 -0.478942 0.000000
    12 -3.280435 -13.388486 -4.261849 0.992657 4.414317 -0.902493
    13 -3.280435 -13.388486 -4.261849 -0.578087 5.010364 -4.043988
    14 35.886223 -19.098476 -5.245475 0.986223 -1.014512 -2.903868
    15 0.000002 40.432781 -0.000010 0.000000 0.000000 0.000000
    16 -1.209821 2.932418 -4.390140 -0.174699 0.222770 -0.216143
    17 6.489705 -8.873942 -4.374115 6.075637 -2.932224 -1.000623
    18 8.542559 1.473300 -0.380282 1.568386 -3.117787 0.244036
    19 -0.138329 -8.432328 -0.201793 -0.405102 -0.091631 0.107490
    20 -0.488518 -2.755602 -0.228260 -0.741569 0.047688 -0.381112
    21 0.039887 -1.534479 0.014229 -1.576912 -0.011122 0.035284
    22 0.028786 -1.185109 -0.132487 -1.218645 -0.015041 0.026822
    23 0.250027 -2.820665 -0.238396 -0.290347 -0.034584 -0.286546
    24 -0.049759 -1.598510 0.034071 -1.543204 0.000539 -0.041457
    25 -0.034142 -1.171750 0.045718 -1.169340 0.006568 -0.030800
    26 0.957766 -2.746780 -0.090302 0.050684 -0.147200 0.082289
    27 -0.033420 -1.397129 -0.015163 -0.329486 0.006939 -0.015809
    28 -0.022360 -0.957436 0.003159 -0.558428 0.008018 -0.026857
    29 -1.180681 -2.507217 -0.193859 -0.806133 0.251644 -0.384136
    30 -0.024967 -1.127840 0.017597 -1.079262 0.002409 -0.046128
    31 -0.020057 -0.906594 0.029622 -1.001921 0.005369 -0.041023
    32 0.606948 -1.197277 0.185379 0.389364 -0.893516 -0.592401
    33 1.481238 -0.216323 0.067511 0.047551 -0.212834 -0.759113
    34 0.995299 -0.190791 0.047917 0.101937 -0.253896 -1.103464
    35 0.120153 -0.050270 -0.054489 0.287569 3.110905 1.561085
    36 -6.231888 -5.809402 -4.653769 0.112877 -3.509158 0.445007
    37 0.096944 -8.407448 -0.024990 -0.190652 -0.250102 0.148822
    38 0.447953 -2.798986 -0.200443 -0.735873 0.010098 0.254020
    39 -0.032909 -1.499736 0.028378 -1.435653 0.023358 -0.027754
    40 -0.027022 -1.135516 -0.020210 -1.403578 0.024892 -0.027133
    41 -0.249534 -2.846964 -0.174213 -0.314880 0.133839 0.144563
    42 0.043235 -1.656596 0.068667 -1.454198 -0.022453 0.008066
    43 0.031729 -1.137392 0.051025 -1.500061 -0.016580 0.008779
    44 -0.963866 -2.785145 -0.085350 0.130560 0.162875 -0.184869
    45 0.028479 -1.403067 -0.017167 -0.790796 -0.018516 -0.030213
    46 0.021413 -0.957781 0.020046 0.028256 0.000156 0.001091
    47 1.164475 -2.543940 -0.170330 -0.641109 -0.235285 0.274225
    48 0.024032 -1.148574 -0.009538 -1.265292 0.022124 0.061853
    49 0.014898 -0.903521 -0.012035 -1.137822 0.013722 0.056028
    50 -0.586770 -1.264477 0.200161 -0.316722 -1.034155 -2.553877
    51 1.561899 0.035243 0.016848 -0.016099 -0.006259 0.794269
    52 1.114041 0.044518 -0.005766 -0.025854 -0.034738 0.943911
    53 -0.139399 -0.111698 0.014397 0.285382 -0.030687 1.580508
    54 -6.194398 6.940682 -0.380062 1.580133 -0.021369 -0.942754
  time 6
    0 -10.133122 -11.430036 -9.683889 1.366282 -3.039260 -1.189464
    1 3.096915 -0.000001 -3.559005 -3.141592 -1.570451 0.000000
    2 -3.157606 0.000000 -1.771385 0.000000 0.000000 0.000000
    3 1.347458 0.000000 -0.036606 0.000001 -3.141592 0.000000
    4 2.980681 -0.000001 -3.026972 0.000000 0.000000 0.000000
    5 -2.772562 0.000000 -3.715392 0.000000 -0.478942 0.000000
    6 -5.257973 -15.067171 -5.722831 1.554129 -0.204259 0.096935
    7 3.096915 -0.000002 -3.559005 -3.141592 -1.570451 0.000000
    8 -3.157606 0.000001 -1.771385 0.000000 0.000000 0.000000
    9 1.347458 0.000000 -0.036606 0.000001 -3.141592 0.000000
    10 2.980681 -0.000001 -3.026972 0.000000 0.000000 0.000000
    11 -2.772562 -0.000001 -3.715392 0.000000 -0.478942 0.000000
    12 -2.788232 -13.243951 -4.234504 1.358952 4.416810 -0.954343
    13 -2.788232 -13.243951 -4.234504 0.102321 5.007871 -4.095838
    14 35.886223 -19.098476 -5.245475 0.986223 -1.014512 -2.903868
    15 0.000002 40.432781 -0.000010 0.000000 0.000000 0.000000
    16 -1.209821 2.932418 -4.390140 -0.174699 0.222770 -0.216143
    17 6.630334 -8.842691 -4.299894 6.081762 -2.947141 -0.965120
    18 8.534746 1.563146 -0.376376 1.568290 -3.117978 0.254531
    19 -0.138329 -8.432328 -0.201793 -0.405102 -0.091631 0.107490
    20 -0.488518 -2.755602 -0.228260 -0.741569 0.047688 -0.381112
    21 0.039887 -1.534479 0.014229 -1.576912 -0.011122 0.035284
    22 0.028786 -1.185109 -0.132487 -1.218645 -0.015041 0.026822
    23 0.250027 -2.820665 -0.238396 -0.290347 -0.034584 -0.286546
    24 -0.049759 -1.598510 0.034071 -1.543204 0.000539 -0.041457
    25 -0.034142 -1.171750 0.045718 -1.169340 0.006568 -0.030800
    26 0.957766 -2.746780 -0.090302 0.050684 -0.147200 0.082289
    27 -0.033420 -1.397129 -0.015163 -0.329486 0.006939 -0.015809
    28 -0.022360 -0.957436 0.003159 -0.558428 0.008018 -0.026857
    29 -1.180681 -2.507217 -0.193859 -0.806133 0.251644 -0.384136
    30 -0.024967 -1.127840 0.017597 -1.079262 0.002409 -0.046128
    31 -0.020057 -0.906594 0.029622 -1.001921 0.005369 -0.041023
    32 0.606948 -1.197277 0.185379 0.389364 -0.893516 -0.592401
    33 1.481238 -0.216323 0.067511 0.047551 -0.212834 -0.759113
    34 0.995299 -0.190791 0.047917 0.101937 -0.253896 -1.103464
    35 0.120153 -0.050270 -0.054489 0.287569 3.110905 1.561085
    36 -6.118604 -5.832841 -4.622518 0.132320 -3.505927 0.495886
    37 0.093038 -8.399636 -0.028897 -0.185600 -0.232867 0.194138
    38 0.447953 -2.798986 -0.200443 -0.735873 0.010098 0.254020
    39 -0.032909 -1.499736 0.028378 -1.435653 0.023358 -0.027754
    40 -0.027022 -1.135516 -0.020210 -1.403578 0.024892 -0.027133
    41 -0.249534 -2.846964 -0.174213 -0.314880 0.133839 0.144563
    42 0.043235 -1.656596 0.068667 -1.454198 -0.022453 0.008066
    43 0.031729 -1.137392 0.051025 -1.500061 -0.016580 0.008779
    44 -0.963866 -2.785145 -0.085350 0.159897 0.162875 -0.183538
    45 0.028479 -1.403067 -0.017167 -0.834225 -0.020146 -0.031316
    46 0.021413 -0.957781 0.020046 0.135870 0.000563 0.005932
    47 1.164475 -2.543940 -0.170330 -0.641109 -0.235285 0.274225
    48 0.024032 -1.148574 -0.009538 -1.265292 0.022124 0.061853
    49 0.014898 -0.903521 -0.012035 -1.137822 0.013722 0.056028
    50 -0.586770 -1.264477 0.200161 -0.316722 -1.034155 -2.553877
    51 1.561899 0.035243 0.016848 -0.016099 -0.006259 0.794269
    52 1.114041 0.044518 -0.005766 -0.025854 -0.034738 0.943911
    53 -0.139399 -0.111698 0.014397 0.285382 -0.030687 1.580508
    54 -6.385810 6.745363 -0.387875 1.579845 -0.022133 -0.911768
  time 7
    0 -9.801080 -11.949583 -9.554979 1.373613 -3.043434 -1.148221
    1 3.096915 -0.000001 -3.559005 -3.141592 -1.570451 0.000000
    2 -3.157606 0.000000 -1.771385 0.000000 0.000000 0.000000
    3 1.347458 0.000000 -0.036606 0.000001 -3.141592 0.000000
    4 2.980681 -0.000001 -3.026972 0.000000 0.000000 0.000000
    5 -2.772562 0.000000 -3.715392 0.000000 -0.478942 0.000000
    6 -4.922025 -15.149205 -5.660329 1.547999 -0.187497 0.087468
    7 3.096915 -0.000002 -3.559005 -3.141592 -1.570451 0.000000
    8 -3.157606 0.000001 -1.771385 0.000000 0.000000 0.000000
    9 1.347458 0.000000 -0.036606 0.000001 -3.141592 0.000000
    10 2.980681 -0.000001 -3.026972 0.000000 0.000000 0.000000
    11 -2.772562 -0.000001 -3.715392 0.000000 -0.478942 0.000000
    12 -2.409315 -13.345516 -4.222785 -1.407611 5.005283 -4.164557
    13 -2.409315 -13.345516 -4.222785 0.791447 5.005283 -4.164557
    14 35.886223 -19.098476 -5.245475 0.986223 -1.014512 -2.903868
    15 0.000002 40.432781 -0.000010 0.000000 0.000000 0.000000
    16 -1.209821 2.932418 -4.390140 -0.174699 0.222770 -0.216143
    17 6.774870 -8.807534 -4.217860 6.088940 -2.962632 -0.927187
    18 8.523027 1.660805 -0.376376 1.568194 -3.118266 0.265782
    19 -0.138329 -8.432328 -0.201793 -0.405102 -0.091631 0.107490
    20 -0.488518 -2.755602 -0.228260 -0.741569 0.047688 -0.381112
    21 0.039887 -1.534479 0.014229 -1.576912 -0.011122 0.035284
    22 0.028786 -1.185109 -0.132487 -1.218645 -0.015041 0.026822
    23 0.250027 -2.820665 -0.238396 -0.290347 -0.034584 -0.286546
    24 -0.049759 -1.598510 0.034071 -1.543204 0.000539 -0.041457
    25 -0.034142 -1.171750 0.045718 -1.169340 0.006568 -0.030800
    26 0.957766 -2.746780 -0.090302 0.050684 -0.147200 0.082289
    27 -0.033420 -1.397129 -0.015163 -0.329486 0.006939 -0.015809
    28 -0.022360 -0.957436 0.003159 -0.558428 0.008018 -0.026857
    29 -1.180681 -2.507217 -0.193859 -0.806133 0.251644 -0.384136
    30 -0.024967 -1.127840 0.017597 -1.079262 0.002409 -0.046128
    31 -0.020057 -0.906594 0.029622 -1.001921 0.005369 -0.041023
    32 0.606948 -1.197277 0.185379 0.389364 -0.893516 -0.592401
    33 1.481238 -0.216323 0.067511 0.047551 -0.212834 -0.759113
    34 0.995299 -0.190791 0.047917 0.101937 -0.253896 -1.103464
    35 0.120153 -0.050270 -0.054489 0.287569 3.110905 1.561085
    36 -5.884221 -5.918781 -4.540484 0.139945 -3.504542 0.519413
    37 0.093038 -8.395729 -0.032803 -0.177442 -0.213224 0.221436
    38 0.447953 -2.798986 -0.200443 -0.735873 0.010098 0.254020
    39 -0.032909 -1.499736 0.028378 -1.435653 0.023358 -0.027754
    40 -0.027022 -1.135516 -0.020210 -1.403578 0.024892 -0.027133
    41 -0.249534 -2.846964 -0.174213 -0.314880 0.133839 0.144563
    42 0.043235 -1.656596 0.068667 -1.454198 -0.022453 0.008066
    43 0.031729 -1.137392 0.051025 -1.500061 -0.016580 0.008779
    44 -0.963866 -2.785145 -0.085350 0.178507 0.162851 -0.182687
    45 0.028479 -1.403067 -0.017167 -0.866992 -0.021392 -0.032095
    46 0.021413 -0.961687 0.020046 0.204098 0.000551 0.009024
    47 1.164475 -2.543940 -0.170330 -0.641109 -0.235285 0.274225
    48 0.024032 -1.148574 -0.009538 -1.265292 0.022124 0.061853
    49 0.014898 -0.903521 -0.012035 -1.137822 0.013722 0.056028
    50 -0.586770 -1.264477 0.200161 -0.316722 -1.034155 -2.553877
    51 1.561899 0.035243 0.016848 -0.016099 -0.006259 0.794269
    52 1.114041 0.044518 -0.005766 -0.025854 -0.034738 0.943911
    53 -0.139399 -0.111698 0.014397 0.285382 -0.030687 1.580508
    54 -6.252993 6.882086 -0.383969 1.580037 -0.021655 -0.933535
  time 8
    0 -9.437788 -12.461318 -9.418256 1.381326 -3.047144 -1.106404
    1 3.096915 -0.000001 -3.559005 -3.141592 -1.570451 0.000000
    2 -3.157606 0.000000 -1.771385 0.000000 0.000000 0.000000
    3 1.347458 0.000000 -0.036606 0.000001 -3.141592 0.000000
    4 2.980681 -0.000001 -3.026972 0.000000 0.000000 0.000000
    5 -2.772562 0.000000 -3.715392 0.000000 -0.478942 0.000000
    6 -4.824366 -15.446089 -5.621265 1.544742 -0.172219 0.064325
    7 3.096915 -0.000002 -3.559005 -3.141592 -1.570451 0.000000
    8 -3.157606 0.000001 -1.771385 0.000000 0.000000 0.000000
    9 1.347458 0.000000 -0.036606 0.000001 -3.141592 0.000000
    10 2.980681 -0.000001 -3.026972 0.000000 0.000000 0.000000
    11 -2.772562 -0.000001 -3.715392 0.000000 -0.478942 0.000000
    12 -2.249153 -13.693183 -4.230598 -1.040453 5.001735 -4.239121
    13 -2.249153 -13.693183 -4.230598 1.472717 5.001735 -4.239121
    14 35.886223 -19.098476 -5.245475 0.986223 -1.014512 -2.903868
    15 0.000002 40.432781 -0.000010 0.000000 0.000000 0.000000
    16 -1.209821 2.932418 -4.390140 -0.174699 0.222770 -0.216143
    17 6.923312 -8.764563 -4.135827 6.096980 -2.977837 -0.888694
    18 8.511308 1.758465 -0.376376 1.568003 -3.118458 0.277222
    19 -0.138329 -8.432328 -0.201793 -0.405102 -0.091631 0.107490
    20 -0.488518 -2.755602 -0.228260 -0.741569 0.047688 -0.381112
    21 0.039887 -1.534479 0.014229 -1.576912 -0.011122 0.035284
    22 0.028786 -1.185109 -0.132487 -1.218645 -0.015041 0.026822
    23 0.250027 -2.820665 -0.238396 -0.290347 -0.034584 -0.286546
    24 -0.049759 -1.598510 0.034071 -1.543204 0.000539 -0.041457
    25 -0.034142 -1.171750 0.045718 -1.169340 0.006568 -0.030800
    26 0.957766 -2.746780 -0.090302 0.050684 -0.147200 0.082289
    27 -0.033420 -1.397129 -0.015163 -0.329486 0.006939 -0.015809
    28 -0.022360 -0.957436 0.003159 -0.558428 0.008018 -0.026857
    29 -1.180681 -2.507217 -0.193859 -0.806133 0.251644 -0.384136
    30 -0.024967 -1.127840 0.017597 -1.079262 0.002409 -0.046128
    31 -0.020057 -0.906594 0.029622 -1.001921 0.005369 -0.041023
    32 0.606948 -1.197277 0.185379 0.389364 -0.893516 -0.592401
    33 1.481238 -0.216323 0.067511 0.047551 -0.212834 -0.759113
    34 0.995299 -0.190791 0.047917 0.101937 -0.253896 -1.103464
    35 0.120153 -0.050270 -0.054489 0.287569 3.110905 1.561085
    36 -5.501397 -6.063316 -4.395949 0.129461 -3.507220 0.499616
    37 0.096944 -8.395729 -0.036710 -0.168288 -0.195143 0.221624
    38 0.447953 -2.798986 -0.200443 -0.735873 0.010098 0.254020
    39 -0.032909 -1.499736 0.028378 -1.435653 0.023358 -0.027754
    40 -0.027022 -1.135516 -0.020210 -1.403578 0.024892 -0.027133
    41 -0.249534 -2.846964 -0.174213 -0.314880 0.133839 0.144563
    42 0.043235 -1.656596 0.068667 -1.454198 -0.022453 0.008066
    43 0.031729 -1.137392 0.051025 -1.500061 -0.016580 0.008779
    44 -0.963866 -2.785145 -0.085350 0.184682 0.162851 -0.182412
    45 0.028479 -1.403067 -0.017167 -0.873103 -0.021632 -0.032239
    46 0.021413 -0.961687 0.020046 0.226770 0.000491 0.010043
    47 1.164475 -2.543940 -0.170330 -0.641109 -0.235285 0.274225
    48 0.024032 -1.148574 -0.009538 -1.265292 0.022124 0.061853
    49 0.014898 -0.903521 -0.012035 -1.137822 0.013722 0.056028
    50 -0.586770 -1.264477 0.200161 -0.316722 -1.034155 -2.553877
    51 1.561899 0.035243 0.016848 -0.016099 -0.006259 0.794269
    52 1.114041 0.044518 -0.005766 -0.025854 -0.034738 0.943911
    53 -0.139399 -0.111698 0.014397 0.285382 -0.030687 1.580508
    54 -5.631881 7.456322 -0.364437 1.580804 -0.019170 -1.030009
  time 9
    0 -9.066683 -12.937895 -9.285440 1.388942 -3.050204 -1.066213
    1 3.096915 -0.000001 -3.559005 -3.141592 -1.570451 0.000000
    2 -3.157606 0.000000 -1.771385 0.000000 0.000000 0.000000
    3 1.347458 0.000000 -0.036606 0.000001 -3.141592 0.000000
    4 2.980681 -0.000001 -3.026972 0.000000 0.000000 0.000000
    5 -2.772562 0.000000 -3.715392 0.000000 -0.478942 0.000000
    6 -4.785302 -15.801569 -5.593921 1.541677 -0.153798 0.033149
    7 3.096915 -0.000002 -3.559005 -3.141592 -1.570451 0.000000
    8 -3.157606 0.000001 -1.771385 0.000000 0.000000 0.000000
    9 1.347458 0.000000 -0.036606 0.000001 -3.141592 0.000000
    10 2.980681 -0.000001 -3.026972 0.000000 0.000000 0.000000
    11 -2.772562 -0.000001 -3.715392 0.000000 -0.478942 0.000000
    12 -2.131962 -14.126790 -4.257942 -0.661802 4.997805 -4.332471
    13 -2.131962 -14.126790 -4.257942 -0.975966 4.426876 -1.190976
    14 35.886223 -19.098476 -5.245475 0.986223 -1.014512 -2.903868
    15 0.000002 40.432781 -0.000010 0.000000 0.000000 0.000000
    16 -1.209821 2.932418 -4.390140 -0.174699 0.222770 -0.216143
    17 7.063941 -8.717687 -4.057699 6.105211 -2.992084 -0.851602
    18 8.499588 1.852218 -0.372470 1.567907 -3.118649 0.288189
    19 -0.138329 -8.432328 -0.201793 -0.405102 -0.091631 0.107490
    20 -0.488518 -2.755602 -0.228260 -0.741569 0.047688 -0.381112
    21 0.039887 -1.534479 0.014229 -1.576912 -0.011122 0.035284
    22 0.028786 -1.185109 -0.132487 -1.218645 -0.015041 0.026822
    23 0.250027 -2.820665 -0.238396 -0.290347 -0.034584 -0.286546
    24 -0.049759 -1.598510 0.034071 -1.543204 0.000539 -0.041457
    25 -0.034142 -1.171750 0.045718 -1.169340 0.006568 -0.030800
    26 0.957766 -2.746780 -0.090302 0.050684 -0.147200 0.082289
    27 -0.033420 -1.397129 -0.015163 -0.329486 0.006939 -0.015809
    28 -0.022360 -0.957436 0.003159 -0.558428 0.008018 -0.026857
    29 -1.180681 -2.507217 -0.193859 -0.806133 0.251644 -0.384136
    30 -0.024967 -1.127840 0.017597 -1.079262 0.002409 -0.046128
    31 -0.020057 -0.906594 0.029622 -1.001921 0.005369 -0.041023
    32 0.606948 -1.197277 0.185379 0.389364 -0.893516 -0.592401
    33 1.481238 -0.216323 0.067511 0.047551 -0.212834 -0.759113
    34 0.995299 -0.190791 0.047917 0.101937 -0.253896 -1.103464
    35 0.120153 -0.050270 -0.054489 0.287569 3.110905 1.561085
    36 -5.001382 -6.203946 -4.208443 0.111256 -3.510543 0.461935
    37 0.096944 -8.399636 -0.036710 -0.157395 -0.174168 0.212265
    38 0.447953 -2.798986 -0.200443 -0.735873 0.010098 0.254020
    39 -0.032909 -1.499736 0.028378 -1.435653 0.023358 -0.027754
    40 -0.027022 -1.135516 -0.020210 -1.403578 0.024892 -0.027133
    41 -0.249534 -2.846964 -0.174213 -0.314880 0.133839 0.144563
    42 0.043235 -1.656596 0.068667 -1.454198 -0.022453 0.008066
    43 0.031729 -1.137392 0.051025 -1.500061 -0.016580 0.008779
    44 -0.963866 -2.785145 -0.085350 0.185452 0.162851 -0.182376
    45 0.028479 -1.403067 -0.017167 -0.873883 -0.021668 -0.032263
    46 0.021413 -0.961687 0.020046 0.229607 0.000491 0.010175
    47 1.164475 -2.543940 -0.170330 -0.641109 -0.235285 0.274225
    48 0.024032 -1.148574 -0.009538 -1.265292 0.022124 0.061853
    49 0.014898 -0.903521 -0.012035 -1.137822 0.013722 0.056028
    50 -0.586770 -1.264477 0.200161 -0.316722 -1.034155 -2.553877
    51 1.561899 0.035243 0.016848 -0.016099 -0.006259 0.794269
    52 1.114041 0.044518 -0.005766 -0.025854 -0.034738 0.943911
    53 -0.139399 -0.111698 0.014397 0.285382 -0.030687 1.580508
    54 -4.670914 8.155563 -0.333186 1.581475 -0.015633 -1.165454
  time 10
    0 -8.715110 -13.359783 -9.164342 1.395988 -3.052616 -1.029755
    1 3.096915 -0.000001 -3.559005 -3.141592 -1.570451 0.000000
    2 -3.157606 0.000000 -1.771385 0.000000 0.000000 0.000000
    3 1.347458 0.000000 -0.036606 0.000001 -3.141592 0.000000
    4 2.980681 -0.000001 -3.026972 0.000000 0.000000 0.000000
    5 -2.772562 0.000000 -3.715392 0.000000 -0.478942 0.000000
    6 -4.765770 -16.102359 -5.574389 1.538707 -0.134155 0.001303
    7 3.096915 -0.000002 -3.559005 -3.141592 -1.570451 0.000000
    8 -3.157606 0.000001 -1.771385 0.000000 0.000000 0.000000
    9 1.347458 0.000000 -0.036606 0.000001 -3.141592 0.000000
    10 2.980681 -0.000001 -3.026972 0.000000 0.000000 0.000000
    11 -2.772562 -0.000001 -3.715392 0.000000 -0.478942 0.000000
    12 -2.034303 -14.509614 -4.297006 -0.277786 4.994545 -4.431859
    13 -2.034303 -14.509614 -4.297006 -0.277834 4.430136 -1.290364
    14 35.886223 -19.098476 -5.245475 0.986223 -1.014512 -2.903868
    15 0.000002 40.432781 -0.000010 0.000000 0.000000 0.000000
    16 -1.209821 2.932418 -4.390140 -0.174699 0.222770 -0.216143
    17 7.192851 -8.666904 -3.991291 6.113251 -3.004515 -0.817968
    18 8.487869 1.938158 -0.372470 1.567811 -3.118841 0.298117
    19 -0.138329 -8.432328 -0.201793 -0.405121 -0.091631 0.107490
    20 -0.488518 -2.755602 -0.228260 -0.741569 0.047688 -0.381112
    21 0.039887 -1.534479 0.014229 -1.576912 -0.011122 0.035284
    22 0.028786 -1.185109 -0.132487 -1.218645 -0.015041 0.026822
    23 0.250027 -2.820665 -0.238396 -0.290347 -0.034584 -0.286546
    24 -0.049759 -1.598510 0.034071 -1.543204 0.000539 -0.041457
    25 -0.034142 -1.171750 0.045718 -1.169340 0.006568 -0.030800
    26 0.957766 -2.746780 -0.090302 0.050684 -0.147200 0.082289
    27 -0.033420 -1.397129 -0.015163 -0.329486 0.006939 -0.015809
    28 -0.022360 -0.957436 0.003159 -0.558428 0.008018 -0.026857
    29 -1.180681 -2.507217 -0.193859 -0.806133 0.251644 -0.384136
    30 -0.024967 -1.127840 0.017597 -1.079262 0.002409 -0.046128
    31 -0.020057 -0.906594 0.029622 -1.001921 0.005369 -0.041023
    32 0.606948 -1.197277 0.185379 0.389364 -0.893516 -0.592401
    33 1.481238 -0.216323 0.067511 0.047551 -0.212834 -0.759113
    34 0.995299 -0.190791 0.047917 0.101937 -0.253896 -1.103464
    35 0.120153 -0.050270 -0.054489 0.287569 3.110905 1.561085
    36 -4.477929 -6.289886 -4.005312 0.090574 -3.512944 0.418132
    37 0.100850 -8.399636 -0.040616 -0.146618 -0.152997 0.198441
    38 0.447953 -2.798986 -0.200443 -0.735873 0.010098 0.254020
    39 -0.032909 -1.499736 0.028378 -1.435653 0.023358 -0.027754
    40 -0.027022 -1.135516 -0.020210 -1.403578 0.024892 -0.027133
    41 -0.249534 -2.846964 -0.174213 -0.314880 0.133839 0.144563
    42 0.043235 -1.656596 0.068667 -1.454198 -0.022453 0.008066
    43 0.031729 -1.137392 0.051025 -1.500061 -0.016580 0.008779
    44 -0.963866 -2.785145 -0.085350 0.183142 0.162851 -0.182484
    45 0.028479 -1.403067 -0.017167 -0.871586 -0.021572 -0.032203
    46 0.021413 -0.961687 0.020046 0.221097 0.000515 0.009791
    47 1.164475 -2.543940 -0.170330 -0.641109 -0.235285 0.274225
    48 0.024032 -1.148574 -0.009538 -1.265292 0.022124 0.061853
    49 0.014898 -0.903521 -0.012035 -1.137822 0.013722 0.056028
    50 -0.586770 -1.264477 0.200161 -0.316722 -1.034155 -2.553877
    51 1.561899 0.035243 0.016848 -0.016099 -0.006259 0.794269
    52 1.114041 0.044518 -0.005766 -0.025854 -0.034738 0.943911
    53 -0.139399 -0.111698 0.014397 0.285382 -0.030687 1.580508
    54 -3.549786 8.749331 -0.301935 1.581763 -0.011810 -1.309834
  time 11
    0 -8.406507 -13.699637 -9.062777 1.402082 -3.054378 -0.999325
    1 3.096915 -0.000001 -3.559005 -3.141592 -1.570451 0.000000
    2 -3.157606 0.000000 -1.771385 0.000000 0.000000 0.000000
    3 1.347458 0.000000 -0.036606 0.000001 -3.141592 0.000000
    4 2.980681 -0.000001 -3.026972 0.000000 0.000000 0.000000
    5 -2.772562 0.000000 -3.715392 0.000000 -0.478942 0.000000
    6 -4.730613 -16.293771 -5.566576 1.535738 -0.115996 -0.024135
    7 3.096915 -0.000002 -3.559005 -3.141592 -1.570451 0.000000
    8 -3.157606 0.000001 -1.771385 0.000000 0.000000 0.000000
    9 1.347458 0.000000 -0.036606 0.000001 -3.141592 0.000000
    10 2.980681 -0.000001 -3.026972 0.000000 0.000000 0.000000
    11 -2.772562 -0.000001 -3.715392 0.000000 -0.478942 0.000000
    12 -1.936644 -14.771341 -4.343883 0.102207 4.992915 -4.521183
    13 -1.936644 -14.771341 -4.343883 0.416370 4.431766 -1.379688
    14 35.886223 -19.098476 -5.245475 0.986223 -1.014512 -2.903868
    15 0.000002 40.432781 -0.000010 0.000000 0.000000 0.000000
    16 -1.209821 2.932418 -4.390140 -0.174699 0.222770 -0.216143
    17 7.298323 -8.623934 -3.932695 6.120237 -3.014651 -0.789659
    18 8.476150 2.008472 -0.368563 1.567715 -3.118937 0.306437
    19 -0.138329 -8.432328 -0.201793 -0.405121 -0.091631 0.107490
    20 -0.488518 -2.755602 -0.228260 -0.741569 0.047688 -0.381112
    21 0.039887 -1.534479 0.014229 -1.576912 -0.011122 0.035284
    22 0.028786 -1.185109 -0.132487 -1.218645 -0.015041 0.026822
    23 0.250027 -2.820665 -0.238396 -0.290347 -0.034584 -0.286546
    24 -0.049759 -1.598510 0.034071 -1.543204 0.000539 -0.041457
    25 -0.034142 -1.171750 0.045718 -1.169340 0.006568 -0.030800
    26 0.957766 -2.746780 -0.090302 0.050684 -0.147200 0.082289
    27 -0.033420 -1.397129 -0.015163 -0.329486 0.006939 -0.015809
    28 -0.022360 -0.957436 0.003159 -0.558428 0.008018 -0.026857
    29 -1.180681 -2.507217 -0.193859 -0.806133 0.251644 -0.384136
    30 -0.024967 -1.127840 0.017597 -1.079262 0.002409 -0.046128
    31 -0.020057 -0.906594 0.029622 -1.001921 0.005369 -0.041023
    32 0.606948 -1.197277 0.185379 0.389364 -0.893516 -0.592401
    33 1.481238 -0.216323 0.067511 0.047551 -0.212834 -0.759113
    34 0.995299 -0.190791 0.047917 0.101937 -0.253896 -1.103464
    35 0.120153 -0.050270 -0.054489 0.287569 3.110905 1.561085
    36 -4.024790 -6.313324 -3.829525 0.072846 -3.513682 0.380546
    37 0.108663 -8.403542 -0.044522 -0.137487 -0.134428 0.184994
    38 0.447953 -2.798986 -0.200443 -0.735873 0.010098 0.254020
    39 -0.032909 -1.499736 0.028378 -1.435653 0.023358 -0.027754
    40 -0.027022 -1.135516 -0.020210 -1.403578 0.024892 -0.027133
    41 -0.249534 -2.846964 -0.174213 -0.314880 0.133839 0.144563
    42 0.043235 -1.656596 0.068667 -1.454198 -0.022453 0.008066
    43 0.031729 -1.137392 0.051025 -1.500061 -0.016580 0.008779
    44 -0.963866 -2.785145 -0.085350 0.180047 0.162851 -0.182616
    45 0.028479 -1.403067 -0.017167 -0.868509 -0.021452 -0.032131
    46 0.021413 -0.961687 0.020046 0.209770 0.000539 0.009276
    47 1.164475 -2.543940 -0.170330 -0.641109 -0.235285 0.274225
    48 0.024032 -1.148574 -0.009538 -1.265292 0.022124 0.061853
    49 0.014898 -0.903521 -0.012035 -1.137822 0.013722 0.056028
    50 -0.586770 -1.264477 0.200161 -0.316722 -1.034155 -2.553877
    51 1.561899 0.035243 0.016848 -0.016099 -0.006259 0.794269
    52 1.114041 0.044518 -0.005766 -0.025854 -0.034738 0.943911
    53 -0.139399 -0.111698 0.014397 0.285382 -0.030687 1.580508
    54 -2.534130 9.120436 -0.270684 1.581475 -0.008464 -1.433588
  time 12
    0 -8.176031 -13.945738 -8.988556 1.406557 -3.055398 -0.976837
    1 3.096915 -0.000001 -3.559005 -3.141592 -1.570451 0.000000
    2 -3.157606 0.000000 -1.771385 0.000000 0.000000 0.000000
    3 1.347458 0.000000 -0.036606 0.000001 -3.141592 0.000000
    4 2.980681 -0.000001 -3.026972 0.000000 0.000000 0.000000
    5 -2.772562 0.000000 -3.715392 0.000000 -0.478942 0.000000
    6 -4.652486 -16.375805 -5.558763 1.532768 -0.102377 -0.036280
    7 3.096915 -0.000002 -3.559005 -3.141592 -1.570451 0.000000
    8 -3.157606 0.000001 -1.771385 0.000000 0.000000 0.000000
    9 1.347458 0.000000 -0.036606 0.000001 -3.141592 0.000000
    10 2.980681 -0.000001 -3.026972 0.000000 0.000000 0.000000
    11 -2.772562 -0.000001 -3.715392 0.000000 -0.478942 0.000000
    12 -1.823359 -14.884626 -4.379040 0.466682 4.993299 -4.581851
    13 -1.823359 -14.884626 -4.379040 1.094958 4.431382 -1.440356
    14 35.886223 -19.098476 -5.245475 0.986223 -1.014512 -2.903868
    15 0.000002 40.432781 -0.000010 0.000000 0.000000 0.000000
    16 -1.209821 2.932418 -4.390140 -0.174699 0.222770 -0.216143
    17 7.376451 -8.592683 -3.889725 6.125693 -3.021919 -0.768917
    18 8.468338 2.063161 -0.368563 1.567619 -3.119129 0.312582
    19 -0.138329 -8.432328 -0.201793 -0.405102 -0.091631 0.107490
    20 -0.488518 -2.755602 -0.228260 -0.741569 0.047688 -0.381112
    21 0.039887 -1.534479 0.014229 -1.576912 -0.011122 0.035284
    22 0.028786 -1.185109 -0.132487 -1.218645 -0.015041 0.026822
    23 0.250027 -2.820665 -0.238396 -0.290347 -0.034584 -0.286546
    24 -0.049759 -1.598510 0.034071 -1.543204 0.000539 -0.041457
    25 -0.034142 -1.171750 0.045718 -1.169340 0.006568 -0.030800
    26 0.957766 -2.746780 -0.090302 0.050684 -0.147200 0.082289
    27 -0.033420 -1.397129 -0.015163 -0.329486 0.006939 -0.015809
    28 -0.022360 -0.957436 0.003159 -0.558428 0.008018 -0.026857
    29 -1.180681 -2.507217 -0.193859 -0.806133 0.251644 -0.384136
    30 -0.024967 -1.127840 0.017597 -1.079262 0.002409 -0.046128
    31 -0.020057 -0.906594 0.029622 -1.001921 0.005369 -0.041023
    32 0.606948 -1.197277 0.185379 0.389364 -0.893516 -0.592401
    33 1.481238 -0.216323 0.067511 0.047551 -0.212834 -0.759113
    34 0.995299 -0.190791 0.047917 0.101937 -0.253896 -1.103464
    35 0.120153 -0.050270 -0.054489 0.287569 3.110905 1.561085
    36 -3.739625 -6.305511 -3.720147 0.063315 -3.513221 0.361514
    37 0.108663 -8.407448 -0.044522 -0.131276 -0.121387 0.176657
    38 0.447953 -2.798986 -0.200443 -0.735873 0.010098 0.254020
    39 -0.032909 -1.499736 0.028378 -1.435653 0.023358 -0.027754
    40 -0.027022 -1.135516 -0.020210 -1.403578 0.024892 -0.027133
    41 -0.249534 -2.846964 -0.174213 -0.314880 0.133839 0.144563
    42 0.043235 -1.656596 0.068667 -1.454198 -0.022453 0.008066
    43 0.031729 -1.137392 0.051025 -1.500061 -0.016580 0.008779
    44 -0.963866 -2.785145 -0.085350 0.178507 0.162851 -0.182687
    45 0.028479 -1.403067 -0.017167 -0.866992 -0.021392 -0.032095
    46 0.021413 -0.961687 0.020046 0.204098 0.000551 0.009024
    47 1.164475 -2.543940 -0.170330 -0.641109 -0.235285 0.274225
    48 0.024032 -1.148574 -0.009538 -1.265292 0.022124 0.061853
    49 0.014898 -0.903521 -0.012035 -1.137822 0.013722 0.056028
    50 -0.586770 -1.264477 0.200161 -0.316722 -1.034155 -2.553877
    51 1.561899 0.035243 0.016848 -0.016099 -0.006259 0.794269
    52 1.114041 0.044518 -0.005766 -0.025854 -0.034738 0.943911
    53 -0.139399 -0.111698 0.014397 0.285382 -0.030687 1.580508
    54 -1.909111 9.284503 -0.255058 1.581092 -0.006552 -1.506966
  time 13
    0 -8.031495 -14.090274 -8.941679 1.409318 -3.056047 -0.963345
    1 3.096915 -0.000001 -3.559005 -3.141592 -1.570451 0.000000
    2 -3.157606 0.000000 -1.771385 0.000000 0.000000 0.000000
    3 1.347458 0.000000 -0.036606 0.000001 -3.141592 0.000000
    4 2.980681 -0.000001 -3.026972 0.000000 0.000000 0.000000
    5 -2.772562 0.000000 -3.715392 0.000000 -0.478942 0.000000
    6 -4.515763 -16.371899 -5.550951 1.529799 -0.094869 -0.030256
    7 3.096915 -0.000002 -3.559005 -3.141592 -1.570451 0.000000
    8 -3.157606 0.000001 -1.771385 0.000000 0.000000 0.000000
    9 1.347458 0.000000 -0.036606 0.000001 -3.141592 0.000000
    10 2.980681 -0.000001 -3.026972 0.000000 0.000000 0.000000
    11 -2.772562 -0.000001 -3.715392 0.000000 -0.478942 0.000000
    12 -1.682730 -14.861188 -4.394665 0.809318 4.995024 -4.603511
    13 -1.682730 -14.861188 -4.394665 -1.389748 4.995024 -4.603511
    14 35.886223 -19.098476 -5.245475 0.986223 -1.014512 -2.903868
    15 0.000002 40.432781 -0.000010 0.000000 0.000000 0.000000
    16 -1.209821 2.932418 -4.390140 -0.174699 0.222770 -0.216143
    17 7.423327 -8.569245 -3.862381 6.129042 -3.026222 -0.756304
    18 8.464431 2.094412 -0.368563 1.567619 -3.119129 0.316270
    19 -0.138329 -8.432328 -0.201793 -0.405102 -0.091631 0.107490
    20 -0.488518 -2.755602 -0.228260 -0.741569 0.047688 -0.381112
    21 0.039887 -1.534479 0.014229 -1.576912 -0.011122 0.035284
    22 0.028786 -1.185109 -0.132487 -1.218645 -0.015041 0.026822
    23 0.250027 -2.820665 -0.238396 -0.290347 -0.034584 -0.286546
    24 -0.049759 -1.598510 0.034071 -1.543204 0.000539 -0.041457
    25 -0.034142 -1.171750 0.045718 -1.169340 0.006568 -0.030800
    26 0.957766 -2.746780 -0.090302 0.050684 -0.147200 0.082289
    27 -0.033420 -1.397129 -0.015163 -0.329486 0.006939 -0.015809
    28 -0.022360 -0.957436 0.003159 -0.558428 0.008018 -0.026857
    29 -1.180681 -2.507217 -0.193859 -0.806133 0.251644 -0.384136
    30 -0.024967 -1.127840 0.017597 -1.079262 0.002409 -0.046128
    31 -0.020057 -0.906594 0.029622 -1.001921 0.005369 -0.041023
    32 0.606948 -1.197277 0.185379 0.389364 -0.893516 -0.592401
    33 1.481238 -0.216323 0.067511 0.047551 -0.212834 -0.759113
    34 0.995299 -0.190791 0.047917 0.101937 -0.253896 -1.103464
    35 0.120153 -0.050270 -0.054489 0.287569 3.110905 1.561085
    36 -3.669310 -6.297699 -3.696709 0.063982 -3.512205 0.366200
    37 0.112569 -8.407448 -0.048429 -0.128472 -0.115436 0.173941
    38 0.447953 -2.798986 -0.200443 -0.735873 0.010098 0.254020
    39 -0.032909 -1.499736 0.028378 -1.435653 0.023358 -0.027754
    40 -0.027022 -1.135516 -0.020210 -1.403578 0.024892 -0.027133
    41 -0.249534 -2.846964 -0.174213 -0.314880 0.133839 0.144563
    42 0.043235 -1.656596 0.068667 -1.454198 -0.022453 0.008066
    43 0.031729 -1.137392 0.051025 -1.500061 -0.016580 0.008779
    44 -0.963866 -2.785145 -0.085350 0.178507 0.162851 -0.182687
    45 0.028479 -1.403067 -0.017167 -0.866992 -0.021392 -0.032095
    46 0.021413 -0.961687 0.020046 0.204098 0.000551 0.009024
    47 1.164475 -2.543940 -0.170330 -0.641109 -0.235285 0.274225
    48 0.024032 -1.148574 -0.009538 -1.265292 0.022124 0.061853
    49 0.014898 -0.903521 -0.012035 -1.137822 0.013722 0.056028
    50 -0.586770 -1.264477 0.200161 -0.316722 -1.034155 -2.553877
    51 1.561899 0.035243 0.016848 -0.016099 -0.006259 0.794269
    52 1.114041 0.044518 -0.005766 -0.025854 -0.034738 0.943911
    53 -0.139399 -0.111698 0.014397 0.285382 -0.030687 1.580508
    54 -1.838796 9.300129 -0.251152 1.581092 -0.006361 -1.515235
  time 14
    0 -7.961180 -14.156682 -8.918241 1.410555 -3.056233 -0.957029
    1 3.096915 -0.000001 -3.559005 -3.141592 -1.570451 0.000000
    2 -3.157606 0.000000 -1.771385 0.000000 0.000000 0.000000
    3 1.347458 0.000000 -0.036606 0.000001 -3.141592 0.000000
    4 2.980681 -0.000001 -3.026972 0.000000 0.000000 0.000000
    5 -2.772562 0.000000 -3.715392 0.000000 -0.478942 0.000000
    6 -4.343883 -16.317209 -5.539232 1.527021 -0.091639 -0.011034
    7 3.096915 -0.000002 -3.559005 -3.141592 -1.570451 0.000000
    8 -3.157606 0.000001 -1.771385 0.000000 0.000000 0.000000
    9 1.347458 0.000000 -0.036606 0.000001 -3.141592 0.000000
    10 2.980681 -0.000001 -3.026972 0.000000 0.000000 0.000000
    11 -2.772562 -0.000001 -3.715392 0.000000 -0.478942 0.000000
    12 -1.542101 -14.751809 -4.398572 1.136244 4.997325 -4.596898
    13 -1.542101 -14.751809 -4.398572 -0.748524 4.997325 -4.596898
    14 35.886223 -19.098476 -5.245475 0.986223 -1.014512 -2.903868
    15 0.000002 40.432781 -0.000010 0.000000 0.000000 0.000000
    16 -1.209821 2.932418 -4.390140 -0.174699 0.222770 -0.216143
    17 7.442859 -8.561432 -3.850662 6.130574 -3.028134 -0.750418
    18 8.464431 2.106132 -0.368563 1.567619 -3.119225 0.317971
    19 -0.138329 -8.432328 -0.201793 -0.405102 -0.091631 0.107490
    20 -0.488518 -2.755602 -0.228260 -0.741569 0.047688 -0.381112
    21 0.039887 -1.534479 0.014229 -1.576912 -0.011122 0.035284
    22 0.028786 -1.185109 -0.132487 -1.218645 -0.015041 0.026822
    23 0.250027 -2.820665 -0.238396 -0.290347 -0.034584 -0.286546
    24 -0.049759 -1.598510 0.034071 -1.543204 0.000539 -0.041457
    25 -0.034142 -1.171750 0.045718 -1.169340 0.006568 -0.030800
    26 0.957766 -2.746780 -0.090302 0.050684 -0.147200 0.082289
    27 -0.033420 -1.397129 -0.015163 -0.329486 0.006939 -0.015809
    28 -0.022360 -0.957436 0.003159 -0.558428 0.008018 -0.026857
    29 -1.180681 -2.507217 -0.193859 -0.806133 0.251644 -0.384136
    30 -0.024967 -1.127840 0.017597 -1.079262 0.002409 -0.046128
    31 -0.020057 -0.906594 0.029622 -1.001921 0.005369 -0.041023
    32 0.606948 -1.197277 0.185379 0.389364 -0.893516 -0.592401
    33 1.481238 -0.216323 0.067511 0.047551 -0.212834 -0.759113
    34 0.995299 -0.190791 0.047917 0.101937 -0.253896 -1.103464
    35 0.120153 -0.050270 -0.054489 0.287569 3.110905 1.561085
    36 -3.747437 -6.297699 -3.735772 0.071225 -3.510728 0.386667
    37 0.112569 -8.407448 -0.048429 -0.128124 -0.114688 0.173618
    38 0.447953 -2.798986 -0.200443 -0.735873 0.010098 0.254020
    39 -0.032909 -1.499736 0.028378 -1.435653 0.023358 -0.027754
    40 -0.027022 -1.135516 -0.020210 -1.403578 0.024892 -0.027133
    41 -0.249534 -2.846964 -0.174213 -0.314880 0.133839 0.144563
    42 0.043235 -1.656596 0.068667 -1.454198 -0.022453 0.008066
    43 0.031729 -1.137392 0.051025 -1.500061 -0.016580 0.008779
    44 -0.963866 -2.785145 -0.085350 0.178507 0.162851 -0.182687
    45 0.028479 -1.403067 -0.017167 -0.866992 -0.021392 -0.032095
    46 0.021413 -0.961687 0.020046 0.204098 0.000551 0.009024
    47 1.164475 -2.543940 -0.170330 -0.641109 -0.235285 0.274225
    48 0.024032 -1.148574 -0.009538 -1.265292 0.022124 0.061853
    49 0.014898 -0.903521 -0.012035 -1.137822 0.013722 0.056028
    50 -0.586770 -1.264477 0.200161 -0.316722 -1.034155 -2.553877
    51 1.561899 0.035243 0.016848 -0.016099 -0.006259 0.794269
    52 1.114041 0.044518 -0.005766 -0.025854 -0.034738 0.943911
    53 -0.139399 -0.111698 0.014397 0.285382 -0.030687 1.580508
    54 -2.155212 9.225908 -0.262871 1.581283 -0.007317 -1.478451
  time 15
    0 -7.953368 -14.168401 -8.914335 1.410746 -3.056326 -0.956168
    1 3.096915 -0.000001 -3.559005 -3.141592 -1.570451 0.000000
    2 -3.157606 0.000000 -1.771385 0.000000 0.000000 0.000000
    3 1.347458 0.000000 -0.036606 0.000001 -3.141592 0.000000
    4 2.980681 -0.000001 -3.026972 0.000000 0.000000 0.000000
    5 -2.772562 0.000000 -3.715392 0.000000 -0.478942 0.000000
    6 -4.168096 -16.223457 -5.535325 1.524626 -0.090941 0.014596
    7 3.096915 -0.000002 -3.559005 -3.141592 -1.570451 0.000000
    8 -3.157606 0.000001 -1.771385 0.000000 0.000000 0.000000
    9 1.347458 0.000000 -0.036606 0.000001 -3.141592 0.000000
    10 2.980681 -0.000001 -3.026972 0.000000 0.000000 0.000000
    11 -2.772562 -0.000001 -3.715392 0.000000 -0.478942 0.000000
    12 -1.405378 -14.583835 -4.398572 1.453974 4.999626 -4.574854
    13 -1.405378 -14.583835 -4.398572 -0.116690 4.999626 -4.574854
    14 35.886223 -19.098476 -5.245475 0.986223 -1.014512 -2.903868
    15 0.000002 40.432781 -0.000010 0.000000 0.000000 0.000000
    16 -1.209821 2.932418 -4.390140 -0.174699 0.222770 -0.216143
    17 7.446765 -8.557526 -3.850662 6.130765 -3.028421 -0.749671
    18 8.460525 2.110038 -0.368563 1.567619 -3.119225 0.318160
    19 -0.138329 -8.432328 -0.201793 -0.405102 -0.091631 0.107490
    20 -0.488518 -2.755602 -0.228260 -0.741569 0.047688 -0.381112
    21 0.039887 -1.534479 0.014229 -1.576912 -0.011122 0.035284
    22 0.028786 -1.185109 -0.132487 -1.218645 -0.015041 0.026822
    23 0.250027 -2.820665 -0.238396 -0.290347 -0.034584 -0.286546
    24 -0.049759 -1.598510 0.034071 -1.543204 0.000539 -0.041457
    25 -0.034142 -1.171750 0.045718 -1.169340 0.006568 -0.030800
    26 0.957766 -2.746780 -0.090302 0.050684 -0.147200 0.082289
    27 -0.033420 -1.397129 -0.015163 -0.329486 0.006939 -0.015809
    28 -0.022360 -0.957436 0.003159 -0.558428 0.008018 -0.026857
    29 -1.180681 -2.507217 -0.193859 -0.806133 0.251644 -0.384136
    30 -0.024967 -1.127840 0.017597 -1.079262 0.002409 -0.046128
    31 -0.020057 -0.906594 0.029622 -1.001921 0.005369 -0.041023
    32 0.606948 -1.197277 0.185379 0.389364 -0.893516 -0.592401
    33 1.481238 -0.216323 0.067511 0.047551 -0.212834 -0.759113
    34 0.995299 -0.190791 0.047917 0.101937 -0.253896 -1.103464
    35 0.120153 -0.050270 -0.054489 0.287569 3.110905 1.561085
    36 -3.911505 -6.301605 -3.806087 0.081805 -3.508882 0.414785
    37 0.108663 -8.407448 -0.048429 -0.129167 -0.116932 0.174613
    38 0.447953 -2.798986 -0.200443 -0.735873 0.010098 0.254020
    39 -0.032909 -1.499736 0.028378 -1.435653 0.023358 -0.027754
    40 -0.027022 -1.135516 -0.020210 -1.403578 0.024892 -0.027133
    41 -0.249534 -2.846964 -0.174213 -0.314880 0.133839 0.144563
    42 0.043235 -1.656596 0.068667 -1.454198 -0.022453 0.008066
    43 0.031729 -1.137392 0.051025 -1.500061 -0.016580 0.008779
    44 -0.963866 -2.785145 -0.085350 0.178507 0.162851 -0.182687
    45 0.028479 -1.403067 -0.017167 -0.866992 -0.021392 -0.032095
    46 0.021413 -0.961687 0.020046 0.204098 0.000551 0.009024
    47 1.164475 -2.543940 -0.170330 -0.641109 -0.235285 0.274225
    48 0.024032 -1.148574 -0.009538 -1.265292 0.022124 0.061853
    49 0.014898 -0.903521 -0.012035 -1.137822 0.013722 0.056028
    50 -0.586770 -1.264477 0.200161 -0.316722 -1.034155 -2.553877
    51 1.561899 0.035243 0.016848 -0.016099 -0.006259 0.794269
    52 1.114041 0.044518 -0.005766 -0.025854 -0.034738 0.943911
    53 -0.139399 -0.111698 0.014397 0.285382 -0.030687 1.580508
    54 -2.663040 9.081372 -0.274590 1.581571 -0.008847 -1.418285
  time 16
    0 -7.988525 -14.133244 -8.926054 1.410175 -3.056140 -0.959230
    1 3.096915 -0.000001 -3.559005 -3.141592 -1.570451 0.000000
    2 -3.157606 0.000000 -1.771385 0.000000 0.000000 0.000000
    3 1.347458 0.000000 -0.036606 0.000001 -3.141592 0.000000
    4 2.980681 -0.000001 -3.026972 0.000000 0.000000 0.000000
    5 -2.772562 0.000000 -3.715392 0.000000 -0.478942 0.000000
    6 -4.007935 -16.114078 -5.531419 1.522519 -0.091028 0.039652
    7 3.096915 -0.000002 -3.559005 -3.141592 -1.570451 0.000000
    8 -3.157606 0.000001 -1.771385 0.000000 0.000000 0.000000
    9 1.347458 0.000000 -0.036606 0.000001 -3.141592 0.000000
    10 2.980681 -0.000001 -3.026972 0.000000 0.000000 0.000000
    11 -2.772562 -0.000001 -3.715392 0.000000 -0.478942 0.000000
    12 -1.284280 -14.400236 -4.398572 -1.372935 4.422945 -1.408824
    13 -1.284280 -14.400236 -4.398572 0.511888 5.001735 -4.550319
    14 35.886223 -19.098476 -5.245475 0.986223 -1.014512 -2.903868
    15 0.000002 40.432781 -0.000010 0.000000 0.000000 0.000000
    16 -1.209821 2.932418 -4.390140 -0.174699 0.222770 -0.216143
    17 7.435046 -8.565339 -3.854568 6.130000 -3.027465 -0.752474
    18 8.464431 2.102225 -0.368563 1.567619 -3.119225 0.317404
    19 -0.138329 -8.432328 -0.201793 -0.405102 -0.091631 0.107490
    20 -0.488518 -2.755602 -0.228260 -0.741569 0.047688 -0.381112
    21 0.039887 -1.534479 0.014229 -1.576912 -0.011122 0.035284
    22 0.028786 -1.185109 -0.132487 -1.218645 -0.015041 0.026822
    23 0.250027 -2.820665 -0.238396 -0.290347 -0.034584 -0.286546
    24 -0.049759 -1.598510 0.034071 -1.543204 0.000539 -0.041457
    25 -0.034142 -1.171750 0.045718 -1.169340 0.006568 -0.030800
    26 0.957766 -2.746780 -0.090302 0.050684 -0.147200 0.082289
    27 -0.033420 -1.397129 -0.015163 -0.329486 0.006939 -0.015809
    28 -0.022360 -0.957436 0.003159 -0.558428 0.008018 -0.026857
    29 -1.180681 -2.507217 -0.193859 -0.806133 0.251644 -0.384136
    30 -0.024967 -1.127840 0.017597 -1.079262 0.002409 -0.046128
    31 -0.020057 -0.906594 0.029622 -1.001921 0.005369 -0.041023
    32 0.606948 -1.197277 0.185379 0.389364 -0.893516 -0.592401
    33 1.481238 -0.216323 0.067511 0.047551 -0.212834 -0.759113
    34 0.995299 -0.190791 0.047917 0.101937 -0.253896 -1.103464
    35 0.120153 -0.050270 -0.054489 0.287569 3.110905 1.561085
    36 -4.083385 -6.297699 -3.876402 0.092385 -3.506850 0.442520
    37 0.108663 -8.407448 -0.044522 -0.130581 -0.119892 0.175958
    38 0.447953 -2.798986 -0.200443 -0.735873 0.010098 0.254020
    39 -0.032909 -1.499736 0.028378 -1.435653 0.023358 -0.027754
    40 -0.027022 -1.135516 -0.020210 -1.403578 0.024892 -0.027133
    41 -0.249534 -2.846964 -0.174213 -0.314880 0.133839 0.144563
    42 0.043235 -1.656596 0.068667 -1.454198 -0.022453 0.008066
    43 0.031729 -1.137392 0.051025 -1.500061 -0.016580 0.008779
    44 -0.963866 -2.785145 -0.085350 0.178507 0.162851 -0.182687
    45 0.028479 -1.403067 -0.017167 -0.866992 -0.021392 -0.032095
    46 0.021413 -0.961687 0.020046 0.204098 0.000551 0.009024
    47 1.164475 -2.543940 -0.170330 -0.641109 -0.235285 0.274225
    48 0.024032 -1.148574 -0.009538 -1.265292 0.022124 0.061853
    49 0.014898 -0.903521 -0.012035 -1.137822 0.013722 0.056028
    50 -0.586770 -1.264477 0.200161 -0.316722 -1.034155 -2.553877
    51 1.561899 0.035243 0.016848 -0.016099 -0.006259 0.794269
    52 1.114041 0.044518 -0.005766 -0.025854 -0.034738 0.943911
    53 -0.139399 -0.111698 0.014397 0.285382 -0.030687 1.580508
    54 -3.170868 8.901679 -0.290216 1.581667 -0.010472 -1.356598
  time 17
    0 -8.043214 -14.078555 -8.945585 1.409127 -3.055955 -0.964397
    1 3.096915 -0.000001 -3.559005 -3.141592 -1.570451 0.000000
    2 -3.157606 0.000000 -1.771385 0.000000 0.000000 0.000000
    3 1.347458 0.000000 -0.036606 0.000001 -3.141592 0.000000
    4 2.980681 -0.000001 -3.026972 0.000000 0.000000 0.000000
    5 -2.772562 0.000000 -3.715392 0.000000 -0.478942 0.000000
    6 -3.886837 -16.028138 -5.531419 1.520891 -0.090417 0.057439
    7 3.096915 -0.000002 -3.559005 -3.141592 -1.570451 0.000000
    8 -3.157606 0.000001 -1.771385 0.000000 0.000000 0.000000
    9 1.347458 0.000000 -0.036606 0.000001 -3.141592 0.000000
    10 2.980681 -0.000001 -3.026972 0.000000 0.000000 0.000000
    11 -2.772562 -0.000001 -3.715392 0.000000 -0.478942 0.000000
    12 -1.194434 -14.267419 -4.402478 -1.055875 4.421411 -1.394064
    13 -1.194434 -14.267419 -4.402478 1.143148 5.003269 -4.535559
    14 35.886223 -19.098476 -5.245475 0.986223 -1.014512 -2.903868
    15 0.000002 40.432781 -0.000010 0.000000 0.000000 0.000000
    16 -1.209821 2.932418 -4.390140 -0.174699 0.222770 -0.216143
    17 7.419421 -8.573151 -3.866287 6.128755 -3.025839 -0.757332
    18 8.464431 2.090506 -0.368563 1.567619 -3.119129 0.315891
    19 -0.138329 -8.432328 -0.201793 -0.405121 -0.091631 0.107490
    20 -0.488518 -2.755602 -0.228260 -0.741569 0.047688 -0.381112
    21 0.039887 -1.534479 0.014229 -1.576912 -0.011122 0.035284
    22 0.028786 -1.185109 -0.132487 -1.218645 -0.015041 0.026822
    23 0.250027 -2.820665 -0.238396 -0.290347 -0.034584 -0.286546
    24 -0.049759 -1.598510 0.034071 -1.543204 0.000539 -0.041457
    25 -0.034142 -1.171750 0.045718 -1.169340 0.006568 -0.030800
    26 0.957766 -2.746780 -0.090302 0.050684 -0.147200 0.082289
    27 -0.033420 -1.397129 -0.015163 -0.329486 0.006939 -0.015809
    28 -0.022360 -0.957436 0.003159 -0.558428 0.008018 -0.026857
    29 -1.180681 -2.507217 -0.193859 -0.806133 0.251644 -0.384136
    30 -0.024967 -1.127840 0.017597 -1.079262 0.002409 -0.046128
    31 -0.020057 -0.906594 0.029622 -1.001921 0.005369 -0.041023
    32 0.606948 -1.197277 0.185379 0.389364 -0.893516 -0.592401
    33 1.481238 -0.216323 0.067511 0.047551 -0.212834 -0.759113
    34 0.995299 -0.190791 0.047917 0.101937 -0.253896 -1.103464
    35 0.120153 -0.050270 -0.054489 0.287569 3.110905 1.561085
    36 -4.192764 -6.289886 -3.923278 0.099628 -3.505189 0.461839
    37 0.108663 -8.407448 -0.044522 -0.131276 -0.121387 0.176657
    38 0.447953 -2.798986 -0.200443 -0.735873 0.010098 0.254020
    39 -0.032909 -1.499736 0.028378 -1.435653 0.023358 -0.027754
    40 -0.027022 -1.135516 -0.020210 -1.403578 0.024892 -0.027133
    41 -0.249534 -2.846964 -0.174213 -0.314880 0.133839 0.144563
    42 0.043235 -1.656596 0.068667 -1.454198 -0.022453 0.008066
    43 0.031729 -1.137392 0.051025 -1.500061 -0.016580 0.008779
    44 -0.963866 -2.785145 -0.085350 0.178507 0.162851 -0.182687
    45 0.028479 -1.403067 -0.017167 -0.866992 -0.021392 -0.032095
    46 0.021413 -0.961687 0.020046 0.204098 0.000551 0.009024
    47 1.164475 -2.543940 -0.170330 -0.641109 -0.235285 0.274225
    48 0.024032 -1.148574 -0.009538 -1.265292 0.022124 0.061853
    49 0.014898 -0.903521 -0.012035 -1.137822 0.013722 0.056028
    50 -0.586770 -1.264477 0.200161 -0.316722 -1.034155 -2.553877
    51 1.561899 0.035243 0.016848 -0.016099 -0.006259 0.794269
    52 1.114041 0.044518 -0.005766 -0.025854 -0.034738 0.943911
    53 -0.139399 -0.111698 0.014397 0.285382 -0.030687 1.580508
    54 -3.506816 8.764956 -0.298029 1.581763 -0.011619 -1.315252
  time 18
    0 -8.105716 -14.016053 -8.965117 1.407889 -3.055676 -0.970235
    1 3.096915 -0.000001 -3.559005 -3.141592 -1.570451 0.000000
    2 -3.157606 0.000000 -1.771385 0.000000 0.000000 0.000000
    3 1.347458 0.000000 -0.036606 0.000001 -3.141592 0.000000
    4 2.980681 -0.000001 -3.026972 0.000000 0.000000 0.000000
    5 -2.772562 0.000000 -3.715392 0.000000 -0.478942 0.000000
    6 -3.843867 -16.004700 -5.527512 1.520220 -0.089719 0.062603
    7 3.096915 -0.000002 -3.559005 -3.141592 -1.570451 0.000000
    8 -3.157606 0.000001 -1.771385 0.000000 0.000000 0.000000
    9 1.347458 0.000000 -0.036606 0.000001 -3.141592 0.000000
    10 2.980681 -0.000001 -3.026972 0.000000 0.000000 0.000000
    11 -2.772562 -0.000001 -3.715392 0.000000 -0.478942 0.000000
    12 -1.159276 -14.228356 -4.402478 -0.739103 4.420836 -1.391477
    13 -1.159276 -14.228356 -4.402478 -1.367425 4.420836 -1.391477
    14 35.886223 -19.098476 -5.245475 0.986223 -1.014512 -2.903868
    15 0.000002 40.432781 -0.000010 0.000000 0.000000 0.000000
    16 -1.209821 2.932418 -4.390140 -0.174699 0.222770 -0.216143
    17 7.399889 -8.580964 -3.878006 6.127320 -3.024023 -0.762751
    18 8.468338 2.078787 -0.368563 1.567619 -3.119129 0.314379
    19 -0.138329 -8.432328 -0.201793 -0.405102 -0.091631 0.107490
    20 -0.488518 -2.755602 -0.228260 -0.741569 0.047688 -0.381112
    21 0.039887 -1.534479 0.014229 -1.576912 -0.011122 0.035284
    22 0.028786 -1.185109 -0.132487 -1.218645 -0.015041 0.026822
    23 0.250027 -2.820665 -0.238396 -0.290347 -0.034584 -0.286546
    24 -0.049759 -1.598510 0.034071 -1.543204 0.000539 -0.041457
    25 -0.034142 -1.171750 0.045718 -1.169340 0.006568 -0.030800
    26 0.957766 -2.746780 -0.090302 0.050684 -0.147200 0.082289
    27 -0.033420 -1.397129 -0.015163 -0.329486 0.006939 -0.015809
    28 -0.022360 -0.957436 0.003159 -0.558428 0.008018 -0.026857
    29 -1.180681 -2.507217 -0.193859 -0.806133 0.251644 -0.384136
    30 -0.024967 -1.127840 0.017597 -1.079262 0.002409 -0.046128
    31 -0.020057 -0.906594 0.029622 -1.001921 0.005369 -0.041023
    32 0.606948 -1.197277 0.185379 0.389364 -0.893516 -0.592401
    33 1.481238 -0.216323 0.067511 0.047551 -0.212834 -0.759113
    34 0.995299 -0.190791 0.047917 0.101937 -0.253896 -1.103464
    35 0.120153 -0.050270 -0.054489 0.287569 3.110905 1.561085
    36 -4.220108 -6.285980 -3.934997 0.101630 -3.504635 0.467386
    37 0.108663 -8.407448 -0.044522 -0.131276 -0.121387 0.176657
    38 0.447953 -2.798986 -0.200443 -0.735873 0.010098 0.254020
    39 -0.032909 -1.499736 0.028378 -1.435653 0.023358 -0.027754
    40 -0.027022 -1.135516 -0.020210 -1.403578 0.024892 -0.027133
    41 -0.249534 -2.846964 -0.174213 -0.314880 0.133839 0.144563
    42 0.043235 -1.656596 0.068667 -1.454198 -0.022453 0.008066
    43 0.031729 -1.137392 0.051025 -1.500061 -0.016580 0.008779
    44 -0.963866 -2.785145 -0.085350 0.178507 0.162851 -0.182687
    45 0.028479 -1.403067 -0.017167 -0.866992 -0.021392 -0.032095
    46 0.021413 -0.961687 0.020046 0.204098 0.000551 0.009024
    47 1.164475 -2.543940 -0.170330 -0.641109 -0.235285 0.274225
    48 0.024032 -1.148574 -0.009538 -1.265292 0.022124 0.061853
    49 0.014898 -0.903521 -0.012035 -1.137822 0.013722 0.056028
    50 -0.586770 -1.264477 0.200161 -0.316722 -1.034155 -2.553877
    51 1.561899 0.035243 0.016848 -0.016099 -0.006259 0.794269
    52 1.114041 0.044518 -0.005766 -0.025854 -0.034738 0.943911
    53 -0.139399 -0.111698 0.014397 0.285382 -0.030687 1.580508
    54 -3.592756 8.729799 -0.301935 1.581763 -0.011905 -1.304606
  time 19
    0 -8.152593 -13.965270 -8.980743 1.406937 -3.055491 -0.974923
    1 3.096915 -0.000001 -3.559005 -3.141592 -1.570451 0.000000
    2 -3.157606 0.000000 -1.771385 0.000000 0.000000 0.000000
    3 1.347458 0.000000 -0.036606 0.000001 -3.141592 0.000000
    4 2.980681 -0.000001 -3.026972 0.000000 0.000000 0.000000
    5 -2.772562 0.000000 -3.715392 0.000000 -0.478942 0.000000
    6 -3.863399 -16.016419 -5.527512 1.520603 -0.090068 0.060021
    7 3.096915 -0.000002 -3.559005 -3.141592 -1.570451 0.000000
    8 -3.157606 0.000001 -1.771385 0.000000 0.000000 0.000000
    9 1.347458 0.000000 -0.036606 0.000001 -3.141592 0.000000
    10 2.980681 -0.000001 -3.026972 0.000000 0.000000 0.000000
    11 -2.772562 -0.000001 -3.715392 0.000000 -0.478942 0.000000
    12 -1.174902 -14.247888 -4.402478 -0.426258 4.421124 -1.392723
    13 -1.174902 -14.247888 -4.402478 -0.740381 4.421124 -1.392723
    14 35.886223 -19.098476 -5.245475 0.986223 -1.014512 -2.903868
    15 0.000002 40.432781 -0.000010 0.000000 0.000000 0.000000
    16 -1.209821 2.932418 -4.390140 -0.174699 0.222770 -0.216143
    17 7.380357 -8.588777 -3.885819 6.126171 -3.022493 -0.767142
    18 8.468338 2.067068 -0.368563 1.567619 -3.119129 0.313055
    19 -0.138329 -8.432328 -0.201793 -0.405102 -0.091631 0.107490
    20 -0.488518 -2.755602 -0.228260 -0.741569 0.047688 -0.381112
    21 0.039887 -1.534479 0.014229 -1.576912 -0.011122 0.035284
    22 0.028786 -1.185109 -0.132487 -1.218645 -0.015041 0.026822
    23 0.250027 -2.820665 -0.238396 -0.290347 -0.034584 -0.286546
    24 -0.049759 -1.598510 0.034071 -1.543204 0.000539 -0.041457
    25 -0.034142 -1.171750 0.045718 -1.169340 0.006568 -0.030800
    26 0.957766 -2.746780 -0.090302 0.050684 -0.147200 0.082289
    27 -0.033420 -1.397129 -0.015163 -0.329486 0.006939 -0.015809
    28 -0.022360 -0.957436 0.003159 -0.558428 0.008018 -0.026857
    29 -1.180681 -2.507217 -0.193859 -0.806133 0.251644 -0.384136
    30 -0.024967 -1.127840 0.017597 -1.079262 0.002409 -0.046128
    31 -0.020057 -0.906594 0.029622 -1.001921 0.005369 -0.041023
    32 0.606948 -1.197277 0.185379 0.389364 -0.893516 -0.592401
    33 1.481238 -0.216323 0.067511 0.047551 -0.212834 -0.759113
    34 0.995299 -0.190791 0.047917 0.101937 -0.253896 -1.103464
    35 0.120153 -0.050270 -0.054489 0.287569 3.110905 1.561085
    36 -4.204483 -6.285980 -3.931091 0.100677 -3.504912 0.464613
    37 0.108663 -8.407448 -0.044522 -0.131276 -0.121387 0.176657
    38 0.447953 -2.798986 -0.200443 -0.735873 0.010098 0.254020
    39 -0.032909 -1.499736 0.028378 -1.435653 0.023358 -0.027754
    40 -0.027022 -1.135516 -0.020210 -1.403578 0.024892 -0.027133
    41 -0.249534 -2.846964 -0.174213 -0.314880 0.133839 0.144563
    42 0.043235 -1.656596 0.068667 -1.454198 -0.022453 0.008066
    43 0.031729 -1.137392 0.051025 -1.500061 -0.016580 0.008779
    44 -0.963866 -2.785145 -0.085350 0.178507 0.162851 -0.182687
    45 0.028479 -1.403067 -0.017167 -0.866992 -0.021392 -0.032095
    46 0.021413 -0.961687 0.020046 0.204098 0.000551 0.009024
    47 1.164475 -2.543940 -0.170330 -0.641109 -0.235285 0.274225
    48 0.024032 -1.148574 -0.009538 -1.265292 0.022124 0.061853
    49 0.014898 -0.903521 -0.012035 -1.137822 0.013722 0.056028
    50 -0.586770 -1.264477 0.200161 -0.316722 -1.034155 -2.553877
    51 1.561899 0.035243 0.016848 -0.016099 -0.006259 0.794269
    52 1.114041 0.044518 -0.005766 -0.025854 -0.034738 0.943911
    53 -0.139399 -0.111698 0.014397 0.285382 -0.030687 1.580508
    54 -3.549786 8.749331 -0.301935 1.581763 -0.011810 -1.309929
  time 20
    0 -8.176031 -13.945738 -8.988556 1.406557 -3.055398 -0.976837
    1 3.096915 -0.000001 -3.559005 -3.141592 -1.570451 0.000000
    2 -3.157606 0.000000 -1.771385 0.000000 0.000000 0.000000
    3 1.347458 0.000000 -0.036606 0.000001 -3.141592 0.000000
    4 2.980681 -0.000001 -3.026972 0.000000 0.000000 0.000000
    5 -2.772562 0.000000 -3.715392 0.000000 -0.478942 0.000000
    6 -3.886837 -16.028138 -5.531419 1.520891 -0.090417 0.057439
    7 3.096915 -0.000002 -3.559005 -3.141592 -1.570451 0.000000
    8 -3.157606 0.000001 -1.771385 0.000000 0.000000 0.000000
    9 1.347458 0.000000 -0.036606 0.000001 -3.141592 0.000000
    10 2.980681 -0.000001 -3.026972 0.000000 0.000000 0.000000
    11 -2.772562 -0.000001 -3.715392 0.000000 -0.478942 0.000000
    12 -1.194434 -14.267419 -4.402478 -0.113413 4.421411 -1.394064
    13 -1.194434 -14.267419 -4.402478 -0.113432 4.421411 -1.394064
    14 35.886223 -19.098476 -5.245475 0.986223 -1.014512 -2.903868
    15 0.000002 40.432781 -0.000010 0.000000 0.000000 0.000000
    16 -1.209821 2.932418 -4.390140 -0.174699 0.222770 -0.216143
    17 7.376451 -8.592683 -3.889725 6.125693 -3.021919 -0.768917
    18 8.468338 2.063161 -0.368563 1.567619 -3.119129 0.312582
    19 -0.138329 -8.432328 -0.201793 -0.405102 -0.091631 0.107490
    20 -0.488518 -2.755602 -0.228260 -0.741569 0.047688 -0.381112
    21 0.039887 -1.534479 0.014229 -1.576912 -0.011122 0.035284
    22 0.028786 -1.185109 -0.132487 -1.218645 -0.015041 0.026822
    23 0.250027 -2.820665 -0.238396 -0.290347 -0.034584 -0.286546
    24 -0.049759 -1.598510 0.034071 -1.543204 0.000539 -0.041457
    25 -0.034142 -1.171750 0.045718 -1.169340 0.006568 -0.030800
    26 0.957766 -2.746780 -0.090302 0.050684 -0.147200 0.082289
    27 -0.033420 -1.397129 -0.015163 -0.329486 0.006939 -0.015809
    28 -0.022360 -0.957436 0.003159 -0.558428 0.008018 -0.026857
    29 -1.180681 -2.507217 -0.193859 -0.806133 0.251644 -0.384136
    30 -0.024967 -1.127840 0.017597 -1.079262 0.002409 -0.046128
    31 -0.020057 -0.906594 0.029622 -1.001921 0.005369 -0.041023
    32 0.606948 -1.197277 0.185379 0.389364 -0.893516 -0.592401
    33 1.481238 -0.216323 0.067511 0.047551 -0.212834 -0.759113
    34 0.995299 -0.190791 0.047917 0.101937 -0.253896 -1.103464
    35 0.120153 -0.050270 -0.054489 0.287569 3.110905 1.561085
    36 -4.192764 -6.289886 -3.923278 0.099628 -3.505189 0.461839
    37 0.108663 -8.407448 -0.044522 -0.131276 -0.121387 0.176657
    38 0.447953 -2.798986 -0.200443 -0.735873 0.010098 0.254020
    39 -0.032909 -1.499736 0.028378 -1.435653 0.023358 -0.027754
    40 -0.027022 -1.135516 -0.020210 -1.403578 0.024892 -0.027133
    41 -0.249534 -2.846964 -0.174213 -0.314880 0.133839 0.144563
    42 0.043235 -1.656596 0.068667 -1.454198 -0.022453 0.008066
    43 0.031729 -1.137392 0.051025 -1.500061 -0.016580 0.008779
    44 -0.963866 -2.785145 -0.085350 0.178507 0.162851 -0.182687
    45 0.028479 -1.403067 -0.017167 -0.866992 -0.021392 -0.032095
    46 0.021413 -0.961687 0.020046 0.204098 0.000551 0.009024
    47 1.164475 -2.543940 -0.170330 -0.641109 -0.235285 0.274225
    48 0.024032 -1.148574 -0.009538 -1.265292 0.022124 0.061853
    49 0.014898 -0.903521 -0.012035 -1.137822 0.013722 0.056028
    50 -0.586770 -1.264477 0.200161 -0.316722 -1.034155 -2.553877
    51 1.561899 0.035243 0.016848 -0.016099 -0.006259 0.794269
    52 1.114041 0.044518 -0.005766 -0.025854 -0.034738 0.943911
    53 -0.139399 -0.111698 0.014397 0.285382 -0.030687 1.580508
    54 -3.506816 8.764956 -0.298029 1.581763 -0.011619 -1.315252
end
