version 1
nodes
  0 "argus5_root" -1
  1 "argus5_magazine" 0
  2 "argus5_lever" 0
  3 "argus5_scope_bone" 0
  4 "scope_R" 3
  5 "scope_L" 3
  6 "EF" 3
  7 "root" -1
  8 "Bone01" 7
  9 "Bone_L_Upper" 8
  10 "Bone_Lefthand" 8
  11 "Bone13" 10
  12 "Bone14" 11
  13 "Bone15" 12
  14 "Bone17" 10
  15 "Bone18" 14
  16 "Bone19" 15
  17 "Bone21" 10
  18 "Bone22" 17
  19 "Bone23" 18
  20 "Bone09" 10
  21 "Bone10" 20
  22 "Bone11" 21
  23 "Bone05" 10
  24 "Bone06" 23
  25 "Bone07" 24
  26 "Bone_Se_Hand-L" 10
  27 "Bone04" 7
  28 "Bone_Righthand" 27
  29 "Bone39" 28
  30 "Bone40" 29
  31 "Bone41" 30
  32 "Bone35" 28
  33 "Bone36" 32
  34 "Bone37" 33
  35 "Bone31" 28
  36 "Bone32" 35
  37 "Bone33" 36
  38 "Bone43" 28
  39 "Bone44" 38
  40 "Bone45" 39
  41 "Bone27" 28
  42 "Bone28" 41
  43 "Bone29" 42
  44 "Bone_Se_Hand-R" 28
  45 "Bone_R_Upper" 27
end
skeleton
  time 0
    0 4.615728 -5.026792 -4.454035 -1.564061 -3.089489 1.494542
    1 5.535558 -1.455844 -0.000001 0.000000 0.000000 -1.364276
    2 6.967555 -0.456137 0.775243 1.570767 -1.566682 1.570854
    3 0.582934 2.836327 -0.000001 0.000000 0.000000 0.000000
    4 0.793143 -0.094784 -0.021412 -1.570775 1.559439 1.570817
    5 0.793143 -0.094784 -0.021412 1.570775 1.582159 1.570775
    6 -0.205318 -0.032883 -0.000050 -1.570797 0.000000 0.000000
    7 -0.002752 -2.016952 -0.003287 0.000000 0.000000 0.000000
    8 6.212353 6.231988 -8.885972 5.014792 -1.423864 1.240176
    9 8.073794 1.039693 -0.372470 1.568903 -3.117093 0.205671
    10 -0.110985 -8.416703 -0.162730 -0.174548 -0.005265 -0.135666
    11 -0.488518 -2.755602 -0.228260 -0.636514 -0.072434 -0.337320
    12 0.047700 -1.530573 0.014229 -1.481141 -0.125802 0.203368
    13 0.028786 -1.126514 -0.105143 -0.742955 -0.013303 0.014298
    14 0.250027 -2.820665 -0.238396 -0.418648 -0.123606 -0.157124
    15 -0.057572 -1.598510 0.030164 -1.580137 -0.056699 0.100860
    16 -0.034142 -1.160031 0.053531 -0.902405 0.008281 -0.023154
    17 0.957766 -2.746780 -0.090302 -0.138913 -0.159269 0.186081
    18 -0.033420 -1.393223 -0.022976 -0.746922 0.007634 -0.036734
    19 -0.022360 -0.961342 -0.004654 -0.883172 0.005525 -0.043001
    20 -1.180681 -2.507217 -0.193859 -0.314555 -0.083781 -0.213847
    21 -0.024967 -1.127840 0.017597 -1.431112 0.098765 0.048910
    22 -0.020057 -0.902687 0.025715 -0.805420 0.007514 -0.032334
    23 0.583510 -1.208996 0.197098 -0.016291 -1.086293 -0.690834
    24 1.481238 -0.200698 -0.049680 0.017733 0.168348 -0.720722
    25 0.987486 -0.214230 -0.006773 -0.101489 -0.020928 -1.227553
    26 0.120153 -0.050270 -0.054489 0.287569 3.110905 1.561085
    27 -0.747346 -5.922687 -13.388411 -1.738826 -5.435732 -1.241976
    28 0.124289 -8.426980 -0.052335 0.403024 0.007430 0.422708
    29 0.447953 -2.798986 -0.200443 -1.083108 -0.024750 0.321985
    30 -0.032909 -1.499736 0.028378 -1.405033 0.023334 -0.026879
    31 -0.027022 -1.115984 -0.028023 -0.967278 0.021752 -0.015208
    32 -0.249534 -2.846964 -0.174213 -0.927167 -0.009008 0.151859
    33 0.043235 -1.656596 0.072574 -1.315085 -0.020930 0.005777
    34 0.031729 -1.137392 0.051025 -1.375111 -0.015333 0.007761
    35 -0.963866 -2.785145 -0.085350 -0.990983 0.136737 -0.225412
    36 0.028479 -1.403067 -0.017167 -0.965960 -0.135474 0.127432
    37 0.021413 -0.942156 0.012233 -0.964436 -0.025335 -0.033641
    38 1.164475 -2.543940 -0.170330 -1.202160 -0.161088 0.388818
    39 0.024032 -1.140761 -0.005631 -0.986046 0.010594 0.051247
    40 0.014898 -0.903521 -0.015942 -1.028794 0.009660 0.051438
    41 -0.586770 -1.264477 0.200161 0.221924 -1.275430 -2.979233
    42 1.569711 0.035243 0.016848 -0.019647 -0.007097 0.922310
    43 1.114041 0.040611 -0.005766 -0.028766 -0.034359 1.035400
    44 -0.045646 -0.072634 0.010491 0.230636 0.395471 1.618939
    45 -8.014766 2.643676 -0.454283 1.571756 -0.033031 -0.401121
  time 1
    0 4.611821 -5.042417 -4.461848 -1.563582 -3.093802 1.495316
    1 5.535558 -1.455844 -0.000001 0.000000 0.000000 -1.364276
    2 6.967555 -0.456137 0.775243 1.570767 -1.566682 1.570854
    3 0.579028 2.715230 -0.000001 0.000000 0.000000 0.000000
    4 0.793143 -0.094784 -0.021412 -1.570775 1.559439 1.570817
    5 0.793143 -0.094784 -0.021412 1.570775 1.582159 1.570775
    6 -0.205318 -0.032883 -0.000050 -1.570797 0.000000 0.000000
    7 -0.002752 -2.016952 -0.003287 0.000000 0.000000 0.000000
    8 6.212353 6.231988 -8.885972 5.015651 -1.424240 1.239314
    9 8.073794 1.043599 -0.372470 1.568807 -3.117188 0.205997
    10 -0.110985 -8.416703 -0.162730 -0.173615 -0.005939 -0.139576
    11 -0.488518 -2.755602 -0.228260 -0.636514 -0.072434 -0.337320
    12 0.047700 -1.530573 0.014229 -1.481141 -0.125802 0.203368
    13 0.028786 -1.126514 -0.105143 -0.742955 -0.013303 0.014298
    14 0.250027 -2.820665 -0.238396 -0.418648 -0.123606 -0.157124
    15 -0.057572 -1.598510 0.030164 -1.580137 -0.056699 0.100860
    16 -0.034142 -1.160031 0.053531 -0.902405 0.008281 -0.023154
    17 0.957766 -2.746780 -0.090302 -0.138913 -0.159269 0.186081
    18 -0.033420 -1.393223 -0.022976 -0.746922 0.007634 -0.036734
    19 -0.022360 -0.961342 -0.004654 -0.883172 0.005525 -0.043001
    20 -1.180681 -2.507217 -0.193859 -0.314555 -0.083781 -0.213847
    21 -0.024967 -1.127840 0.017597 -1.431112 0.098765 0.048910
    22 -0.020057 -0.902687 0.025715 -0.805420 0.007514 -0.032334
    23 0.583510 -1.208996 0.197098 -0.016291 -1.086293 -0.690834
    24 1.481238 -0.200698 -0.049680 0.017733 0.168348 -0.720722
    25 0.987486 -0.214230 -0.006773 -0.101489 -0.020928 -1.227553
    26 0.120153 -0.050270 -0.054489 0.287569 3.110905 1.561085
    27 -0.755159 -5.907062 -13.411849 -1.739833 -5.432110 -1.242261
    28 0.124289 -8.426980 -0.052335 0.403578 0.004614 0.422527
    29 0.447953 -2.798986 -0.200443 -1.083108 -0.024750 0.321985
    30 -0.032909 -1.499736 0.028378 -1.405033 0.023334 -0.026879
    31 -0.027022 -1.115984 -0.028023 -0.967278 0.021752 -0.015208
    32 -0.249534 -2.846964 -0.174213 -0.927167 -0.009008 0.151859
    33 0.043235 -1.656596 0.072574 -1.315085 -0.020930 0.005777
    34 0.031729 -1.137392 0.051025 -1.375111 -0.015333 0.007761
    35 -0.963866 -2.785145 -0.085350 -0.990983 0.136737 -0.225412
    36 0.028479 -1.403067 -0.017167 -0.965960 -0.135474 0.127432
    37 0.021413 -0.942156 0.012233 -0.964436 -0.025335 -0.033641
    38 1.164475 -2.543940 -0.170330 -1.202160 -0.161088 0.388818
    39 0.024032 -1.140761 -0.005631 -0.986046 0.010594 0.051247
    40 0.014898 -0.903521 -0.015942 -1.028794 0.009660 0.051438
    41 -0.586770 -1.264477 0.200161 0.221924 -1.275430 -2.979233
    42 1.569711 0.035243 0.016848 -0.019647 -0.007097 0.922310
    43 1.114041 0.040611 -0.005766 -0.028766 -0.034359 1.035400
    44 -0.045646 -0.072634 0.010491 0.230636 0.395471 1.618939
    45 -8.014766 2.635863 -0.454283 1.571732 -0.033055 -0.400023
  time 2
    0 4.611821 -4.968196 -4.524349 -1.561282 -3.071281 1.495482
    1 5.535558 -1.455844 -0.000001 0.000000 0.000000 -1.364276
    2 6.967555 -0.456137 0.775243 1.570767 -1.566682 1.570854
    3 0.582934 2.891016 -0.000001 0.000000 0.000000 0.000000
    4 0.793143 -0.094784 -0.021412 -1.570775 1.559439 1.570817
    5 0.793143 -0.094784 -0.021412 1.570775 1.582159 1.570775
    6 -0.205318 -0.032883 -0.000050 -1.570797 0.000000 0.000000
    7 -0.002752 -2.016952 -0.003287 0.000000 0.000000 0.000000
    8 6.212353 6.243707 -8.897691 5.033871 -1.432637 1.221131
    9 8.069888 1.098288 -0.372470 1.568807 -3.117284 0.212644
    10 -0.110985 -8.420609 -0.162730 -0.174548 -0.007146 -0.108111
    11 -0.488518 -2.755602 -0.228260 -0.636514 -0.072434 -0.337320
    12 0.047700 -1.530573 0.014229 -1.481141 -0.125802 0.203368
    13 0.028786 -1.126514 -0.105143 -0.742955 -0.013303 0.014298
    14 0.250027 -2.820665 -0.238396 -0.418648 -0.123606 -0.157124
    15 -0.057572 -1.598510 0.030164 -1.580137 -0.056699 0.100860
    16 -0.034142 -1.160031 0.053531 -0.902405 0.008281 -0.023154
    17 0.957766 -2.746780 -0.090302 -0.138913 -0.159269 0.186081
    18 -0.033420 -1.393223 -0.022976 -0.746922 0.007634 -0.036734
    19 -0.022360 -0.961342 -0.004654 -0.883172 0.005525 -0.043001
    20 -1.180681 -2.507217 -0.193859 -0.314555 -0.083781 -0.213847
    21 -0.024967 -1.127840 0.017597 -1.431112 0.098765 0.048910
    22 -0.020057 -0.902687 0.025715 -0.805420 0.007514 -0.032334
    23 0.583510 -1.208996 0.197098 -0.016291 -1.086293 -0.690834
    24 1.481238 -0.200698 -0.049680 0.017733 0.168348 -0.720722
    25 0.987486 -0.214230 -0.006773 -0.101489 -0.020928 -1.227553
    26 0.120153 -0.050270 -0.054489 0.287569 3.110905 1.561085
    27 -0.727814 -5.953938 -13.337628 -1.737742 -5.440593 -1.240642
    28 0.128195 -8.426980 -0.056241 0.401817 0.023353 0.414335
    29 0.447953 -2.798986 -0.200443 -1.083108 -0.024750 0.321985
    30 -0.032909 -1.499736 0.028378 -1.405033 0.023334 -0.026879
    31 -0.027022 -1.115984 -0.028023 -0.967278 0.021752 -0.015208
    32 -0.249534 -2.846964 -0.174213 -0.927167 -0.009008 0.151859
    33 0.043235 -1.656596 0.072574 -1.315085 -0.020930 0.005777
    34 0.031729 -1.137392 0.051025 -1.375111 -0.015333 0.007761
    35 -0.963866 -2.785145 -0.085350 -0.990983 0.136737 -0.225412
    36 0.028479 -1.403067 -0.017167 -0.965960 -0.135474 0.127432
    37 0.021413 -0.942156 0.012233 -0.964436 -0.025335 -0.033641
    38 1.164475 -2.543940 -0.170330 -1.202160 -0.161088 0.388818
    39 0.024032 -1.140761 -0.005631 -0.986046 0.010594 0.051247
    40 0.014898 -0.903521 -0.015942 -1.028794 0.009660 0.051438
    41 -0.586770 -1.264477 0.200161 0.221924 -1.275430 -2.979233
    42 1.569711 0.035243 0.016848 -0.019647 -0.007097 0.922310
    43 1.114041 0.040611 -0.005766 -0.028766 -0.034359 1.035400
    44 -0.045646 -0.072634 0.010491 0.230636 0.395471 1.618939
    45 -8.003047 2.694458 -0.450377 1.571887 -0.032923 -0.407238
  time 3
    0 4.615728 -4.979915 -4.465754 -1.562911 -3.074443 1.495316
    1 5.535558 -1.455844 -0.000001 0.000000 0.000000 -1.364276
    2 6.967555 -0.456137 0.775243 1.570767 -1.566682 1.570854
    3 0.586840 3.070709 -0.000001 0.000000 0.000000 0.000000
    4 0.793143 -0.094784 -0.021412 -1.570775 1.559439 1.570817
    5 0.793143 -0.094784 -0.021412 1.570775 1.582159 1.570775
    6 -0.205318 -0.032883 -0.000050 -1.570797 0.000000 0.000000
    7 -0.002752 -2.016952 -0.003287 0.000000 0.000000 0.000000
    8 6.212353 6.235894 -8.889878 5.020039 -1.426370 1.234912
    9 8.073794 1.059225 -0.372470 1.568807 -3.117188 0.207821
    10 -0.110985 -8.420609 -0.162730 -0.174479 -0.005735 -0.117905
    11 -0.488518 -2.755602 -0.228260 -0.636514 -0.072434 -0.337320
    12 0.047700 -1.530573 0.014229 -1.481141 -0.125802 0.203368
    13 0.028786 -1.126514 -0.105143 -0.742955 -0.013303 0.014298
    14 0.250027 -2.820665 -0.238396 -0.418648 -0.123606 -0.157124
    15 -0.057572 -1.598510 0.030164 -1.580137 -0.056699 0.100860
    16 -0.034142 -1.160031 0.053531 -0.902405 0.008281 -0.023154
    17 0.957766 -2.746780 -0.090302 -0.138913 -0.159269 0.186081
    18 -0.033420 -1.393223 -0.022976 -0.746922 0.007634 -0.036734
    19 -0.022360 -0.961342 -0.004654 -0.883172 0.005525 -0.043001
    20 -1.180681 -2.507217 -0.193859 -0.314555 -0.083781 -0.213847
    21 -0.024967 -1.127840 0.017597 -1.431112 0.098765 0.048910
    22 -0.020057 -0.902687 0.025715 -0.805420 0.007514 -0.032334
    23 0.583510 -1.208996 0.197098 -0.016291 -1.086293 -0.690834
    24 1.481238 -0.200698 -0.049680 0.017733 0.168348 -0.720722
    25 0.987486 -0.214230 -0.006773 -0.101489 -0.020928 -1.227553
    26 0.120153 -0.050270 -0.054489 0.287569 3.110905 1.561085
    27 -0.720001 -5.965657 -13.314190 -1.737045 -5.443261 -1.240261
    28 0.128195 -8.423074 -0.056241 0.401414 0.029599 0.423387
    29 0.447953 -2.798986 -0.200443 -1.083108 -0.024750 0.321985
    30 -0.032909 -1.499736 0.028378 -1.405033 0.023334 -0.026879
    31 -0.027022 -1.115984 -0.028023 -0.967278 0.021752 -0.015208
    32 -0.249534 -2.846964 -0.174213 -0.927167 -0.009008 0.151859
    33 0.043235 -1.656596 0.072574 -1.315085 -0.020930 0.005777
    34 0.031729 -1.137392 0.051025 -1.375111 -0.015333 0.007761
    35 -0.963866 -2.785145 -0.085350 -0.990983 0.136737 -0.225412
    36 0.028479 -1.403067 -0.017167 -0.965960 -0.135474 0.127432
    37 0.021413 -0.942156 0.012233 -0.964436 -0.025335 -0.033641
    38 1.164475 -2.543940 -0.170330 -1.202160 -0.161088 0.388818
    39 0.024032 -1.140761 -0.005631 -0.986046 0.010594 0.051247
    40 0.014898 -0.903521 -0.015942 -1.028794 0.009660 0.051438
    41 -0.586770 -1.264477 0.200161 0.221924 -1.275430 -2.979233
    42 1.569711 0.035243 0.016848 -0.019647 -0.007097 0.922310
    43 1.114041 0.040611 -0.005766 -0.028766 -0.034359 1.035400
    44 -0.045646 -0.072634 0.010491 0.230636 0.395471 1.618939
    45 -7.999140 2.706177 -0.450377 1.571911 -0.032899 -0.408728
  time 4
    0 4.619634 -5.003353 -4.387627 -1.565211 -3.081631 1.495040
    1 5.535558 -1.455844 -0.000001 0.000000 0.000000 -1.364276
    2 6.967555 -0.456137 0.775243 1.570767 -1.566682 1.570854
    3 0.586840 3.168368 -0.000001 0.000000 0.000000 0.000000
    4 0.793143 -0.094784 -0.021412 -1.570775 1.559439 1.570817
    5 0.793143 -0.094784 -0.021412 1.570775 1.582159 1.570775
    6 -0.205318 -0.032883 -0.000050 -1.570797 0.000000 0.000000
    7 -0.002752 -2.016952 -0.003287 0.000000 0.000000 0.000000
    8 6.208446 6.224175 -8.882065 5.002677 -1.417723 1.252139
    9 8.073794 1.004535 -0.372470 1.568903 -3.117093 0.201109
    10 -0.110985 -8.416703 -0.162730 -0.174275 -0.003822 -0.134204
    11 -0.488518 -2.755602 -0.228260 -0.636514 -0.072434 -0.337320
    12 0.047700 -1.530573 0.014229 -1.481141 -0.125802 0.203368
    13 0.028786 -1.126514 -0.105143 -0.742955 -0.013303 0.014298
    14 0.250027 -2.820665 -0.238396 -0.418648 -0.123606 -0.157124
    15 -0.057572 -1.598510 0.030164 -1.580137 -0.056699 0.100860
    16 -0.034142 -1.160031 0.053531 -0.902405 0.008281 -0.023154
    17 0.957766 -2.746780 -0.090302 -0.138913 -0.159269 0.186081
    18 -0.033420 -1.393223 -0.022976 -0.746922 0.007634 -0.036734
    19 -0.022360 -0.961342 -0.004654 -0.883172 0.005525 -0.043001
    20 -1.180681 -2.507217 -0.193859 -0.314555 -0.083781 -0.213847
    21 -0.024967 -1.127840 0.017597 -1.431112 0.098765 0.048910
    22 -0.020057 -0.902687 0.025715 -0.805420 0.007514 -0.032334
    23 0.583510 -1.208996 0.197098 -0.016291 -1.086293 -0.690834
    24 1.481238 -0.200698 -0.049680 0.017733 0.168348 -0.720722
    25 0.987486 -0.214230 -0.006773 -0.101489 -0.020928 -1.227553
    26 0.120153 -0.050270 -0.054489 0.287569 3.110905 1.561085
    27 -0.720001 -5.969564 -13.302470 -1.736502 -5.444977 -1.240070
    28 0.124289 -8.423074 -0.056241 0.401012 0.026476 0.431805
    29 0.447953 -2.798986 -0.200443 -1.083108 -0.024750 0.321985
    30 -0.032909 -1.499736 0.028378 -1.405033 0.023334 -0.026879
    31 -0.027022 -1.115984 -0.028023 -0.967278 0.021752 -0.015208
    32 -0.249534 -2.846964 -0.174213 -0.927167 -0.009008 0.151859
    33 0.043235 -1.656596 0.072574 -1.315085 -0.020930 0.005777
    34 0.031729 -1.137392 0.051025 -1.375111 -0.015333 0.007761
    35 -0.963866 -2.785145 -0.085350 -0.990983 0.136737 -0.225412
    36 0.028479 -1.403067 -0.017167 -0.965960 -0.135474 0.127432
    37 0.021413 -0.942156 0.012233 -0.964436 -0.025335 -0.033641
    38 1.164475 -2.543940 -0.170330 -1.202160 -0.161088 0.388818
    39 0.024032 -1.140761 -0.005631 -0.986046 0.010594 0.051247
    40 0.014898 -0.903521 -0.015942 -1.028794 0.009660 0.051438
    41 -0.586770 -1.264477 0.200161 0.221924 -1.275430 -2.979233
    42 1.569711 0.035243 0.016848 -0.019647 -0.007097 0.922310
    43 1.114041 0.040611 -0.005766 -0.028766 -0.034359 1.035400
    44 -0.045646 -0.072634 0.010491 0.230636 0.395471 1.618939
    45 -7.999140 2.710084 -0.450377 1.571923 -0.032899 -0.409355
  time 5
    0 4.623540 -5.026792 -4.309499 -1.567319 -3.089393 1.494763
    1 5.535558 -1.455844 -0.000001 0.000000 0.000000 -1.364276
    2 6.967555 -0.456137 0.775243 1.570767 -1.566682 1.570854
    3 0.586840 3.168368 -0.000001 0.000000 0.000000 0.000000
    4 0.793143 -0.094784 -0.021412 -1.570775 1.559439 1.570817
    5 0.793143 -0.094784 -0.021412 1.570775 1.582159 1.570775
    6 -0.205318 -0.032883 -0.000050 -1.570797 0.000000 0.000000
    7 -0.002752 -2.016952 -0.003287 0.000000 0.000000 0.000000
    8 6.208446 6.212456 -8.874252 4.987510 -1.409138 1.267260
    9 8.077701 0.949846 -0.372470 1.568999 -3.116902 0.194593
    10 -0.107078 -8.412796 -0.162730 -0.174047 -0.002066 -0.150941
    11 -0.488518 -2.755602 -0.228260 -0.636514 -0.072434 -0.337320
    12 0.047700 -1.530573 0.014229 -1.481141 -0.125802 0.203368
    13 0.028786 -1.126514 -0.105143 -0.742955 -0.013303 0.014298
    14 0.250027 -2.820665 -0.238396 -0.418648 -0.123606 -0.157124
    15 -0.057572 -1.598510 0.030164 -1.580137 -0.056699 0.100860
    16 -0.034142 -1.160031 0.053531 -0.902405 0.008281 -0.023154
    17 0.957766 -2.746780 -0.090302 -0.138913 -0.159269 0.186081
    18 -0.033420 -1.393223 -0.022976 -0.746922 0.007634 -0.036734
    19 -0.022360 -0.961342 -0.004654 -0.883172 0.005525 -0.043001
    20 -1.180681 -2.507217 -0.193859 -0.314555 -0.083781 -0.213847
    21 -0.024967 -1.127840 0.017597 -1.431112 0.098765 0.048910
    22 -0.020057 -0.902687 0.025715 -0.805420 0.007514 -0.032334
    23 0.583510 -1.208996 0.197098 -0.016291 -1.086293 -0.690834
    24 1.481238 -0.200698 -0.049680 0.017733 0.168348 -0.720722
    25 0.987486 -0.214230 -0.006773 -0.101489 -0.020928 -1.227553
    26 0.120153 -0.050270 -0.054489 0.287569 3.110905 1.561085
    27 -0.720001 -5.973470 -13.298564 -1.736115 -5.446216 -1.240070
    28 0.124289 -8.419168 -0.056241 0.400735 0.020843 0.439363
    29 0.447953 -2.798986 -0.200443 -1.083108 -0.024750 0.321985
    30 -0.032909 -1.499736 0.028378 -1.405033 0.023334 -0.026879
    31 -0.027022 -1.115984 -0.028023 -0.967278 0.021752 -0.015208
    32 -0.249534 -2.846964 -0.174213 -0.927167 -0.009008 0.151859
    33 0.043235 -1.656596 0.072574 -1.315085 -0.020930 0.005777
    34 0.031729 -1.137392 0.051025 -1.375111 -0.015333 0.007761
    35 -0.963866 -2.785145 -0.085350 -0.990983 0.136737 -0.225412
    36 0.028479 -1.403067 -0.017167 -0.965960 -0.135474 0.127432
    37 0.021413 -0.942156 0.012233 -0.964436 -0.025335 -0.033641
    38 1.164475 -2.543940 -0.170330 -1.202160 -0.161088 0.388818
    39 0.024032 -1.140761 -0.005631 -0.986046 0.010594 0.051247
    40 0.014898 -0.903521 -0.015942 -1.028794 0.009660 0.051438
    41 -0.586770 -1.264477 0.200161 0.221924 -1.275430 -2.979233
    42 1.569711 0.035243 0.016848 -0.019647 -0.007097 0.922310
    43 1.114041 0.040611 -0.005766 -0.028766 -0.034359 1.035400
    44 -0.045646 -0.072634 0.010491 0.230636 0.395471 1.618939
    45 -7.999140 2.710084 -0.450377 1.571923 -0.032899 -0.409198
  time 6
    0 4.627447 -5.042417 -4.254810 -1.568565 -3.094377 1.494542
    1 5.535558 -1.455844 -0.000001 0.000000 0.000000 -1.364276
    2 6.967555 -0.456137 0.775243 1.570767 -1.566682 1.570854
    3 0.586840 3.168368 -0.000001 0.000000 0.000000 0.000000
    4 0.793143 -0.094784 -0.021412 -1.570775 1.559439 1.570817
    5 0.793143 -0.094784 -0.021412 1.570775 1.582159 1.570775
    6 -0.205318 -0.032883 -0.000050 -1.570797 0.000000 0.000000
    7 -0.002752 -2.016952 -0.003287 0.000000 0.000000 0.000000
    8 6.208446 6.204643 -8.866440 4.978353 -1.403436 1.276447
    9 8.077701 0.914689 -0.372470 1.568999 -3.116902 0.190161
    10 -0.107078 -8.412796 -0.162730 -0.173911 -0.001110 -0.161978
    11 -0.488518 -2.755602 -0.228260 -0.636514 -0.072434 -0.337320
    12 0.047700 -1.530573 0.014229 -1.481141 -0.125802 0.203368
    13 0.028786 -1.126514 -0.105143 -0.742955 -0.013303 0.014298
    14 0.250027 -2.820665 -0.238396 -0.418648 -0.123606 -0.157124
    15 -0.057572 -1.598510 0.030164 -1.580137 -0.056699 0.100860
    16 -0.034142 -1.160031 0.053531 -0.902405 0.008281 -0.023154
    17 0.957766 -2.746780 -0.090302 -0.138913 -0.159269 0.186081
    18 -0.033420 -1.393223 -0.022976 -0.746922 0.007634 -0.036734
    19 -0.022360 -0.961342 -0.004654 -0.883172 0.005525 -0.043001
    20 -1.180681 -2.507217 -0.193859 -0.314555 -0.083781 -0.213847
    21 -0.024967 -1.127840 0.017597 -1.431112 0.098765 0.048910
    22 -0.020057 -0.902687 0.025715 -0.805420 0.007514 -0.032334
    23 0.583510 -1.208996 0.197098 -0.016291 -1.086293 -0.690834
    24 1.481238 -0.200698 -0.049680 0.017733 0.168348 -0.720722
    25 0.987486 -0.214230 -0.006773 -0.101489 -0.020928 -1.227553
    26 0.120153 -0.050270 -0.054489 0.287569 3.110905 1.561085
    27 -0.720001 -5.977376 -13.294658 -1.735805 -5.447074 -1.239975
    28 0.124289 -8.419168 -0.052335 0.400609 0.014959 0.443255
    29 0.447953 -2.798986 -0.200443 -1.083108 -0.024750 0.321985
    30 -0.032909 -1.499736 0.028378 -1.405033 0.023334 -0.026879
    31 -0.027022 -1.115984 -0.028023 -0.967278 0.021752 -0.015208
    32 -0.249534 -2.846964 -0.174213 -0.927167 -0.009008 0.151859
    33 0.043235 -1.656596 0.072574 -1.315085 -0.020930 0.005777
    34 0.031729 -1.137392 0.051025 -1.375111 -0.015333 0.007761
    35 -0.963866 -2.785145 -0.085350 -0.990983 0.136737 -0.225412
    36 0.028479 -1.403067 -0.017167 -0.965960 -0.135474 0.127432
    37 0.021413 -0.942156 0.012233 -0.964436 -0.025335 -0.033641
    38 1.164475 -2.543940 -0.170330 -1.202160 -0.161088 0.388818
    39 0.024032 -1.140761 -0.005631 -0.986046 0.010594 0.051247
    40 0.014898 -0.903521 -0.015942 -1.028794 0.009660 0.051438
    41 -0.586770 -1.264477 0.200161 0.221924 -1.275430 -2.979233
    42 1.569711 0.035243 0.016848 -0.019647 -0.007097 0.922310
    43 1.114041 0.040611 -0.005766 -0.028766 -0.034359 1.035400
    44 -0.045646 -0.072634 0.010491 0.230636 0.395471 1.618939
    45 -7.999140 2.706177 -0.450377 1.571923 -0.032899 -0.408963
  time 7
    0 4.627447 -5.046324 -4.243091 -1.568373 -3.095431 1.494542
    1 5.535558 -1.455844 -0.000001 0.000000 0.000000 -1.364276
    2 6.967555 -0.456137 0.775243 1.570767 -1.566682 1.570854
    3 0.586840 3.168368 -0.000001 0.000000 0.000000 0.000000
    4 0.793143 -0.094784 -0.021412 -1.570775 1.559439 1.570817
    5 0.793143 -0.094784 -0.021412 1.570775 1.582159 1.570775
    6 -0.205318 -0.032883 -0.000050 -1.570797 0.000000 0.000000
    7 -0.002752 -2.016952 -0.003287 0.000000 0.000000 0.000000
    8 6.208446 6.204643 -8.866440 4.975777 -1.401869 1.278936
    9 8.077701 0.902970 -0.372470 1.569095 -3.116807 0.188923
    10 -0.107078 -8.412796 -0.162730 -0.173820 -0.001408 -0.164755
    11 -0.488518 -2.755602 -0.228260 -0.636514 -0.072434 -0.337320
    12 0.047700 -1.530573 0.014229 -1.481141 -0.125802 0.203368
    13 0.028786 -1.126514 -0.105143 -0.742955 -0.013303 0.014298
    14 0.250027 -2.820665 -0.238396 -0.418648 -0.123606 -0.157124
    15 -0.057572 -1.598510 0.030164 -1.580137 -0.056699 0.100860
    16 -0.034142 -1.160031 0.053531 -0.902405 0.008281 -0.023154
    17 0.957766 -2.746780 -0.090302 -0.138913 -0.159269 0.186081
    18 -0.033420 -1.393223 -0.022976 -0.746922 0.007634 -0.036734
    19 -0.022360 -0.961342 -0.004654 -0.883172 0.005525 -0.043001
    20 -1.180681 -2.507217 -0.193859 -0.314555 -0.083781 -0.213847
    21 -0.024967 -1.127840 0.017597 -1.431112 0.098765 0.048910
    22 -0.020057 -0.902687 0.025715 -0.805420 0.007514 -0.032334
    23 0.583510 -1.208996 0.197098 -0.016291 -1.086293 -0.690834
    24 1.481238 -0.200698 -0.049680 0.017733 0.168348 -0.720722
    25 0.987486 -0.214230 -0.006773 -0.101489 -0.020928 -1.227553
    26 0.120153 -0.050270 -0.054489 0.287569 3.110905 1.561085
    27 -0.716095 -5.977376 -13.294658 -1.735805 -5.447264 -1.239975
    28 0.124289 -8.419168 -0.052335 0.400635 0.010275 0.442576
    29 0.447953 -2.798986 -0.200443 -1.083108 -0.024750 0.321985
    30 -0.032909 -1.499736 0.028378 -1.405033 0.023334 -0.026879
    31 -0.027022 -1.115984 -0.028023 -0.967278 0.021752 -0.015208
    32 -0.249534 -2.846964 -0.174213 -0.927167 -0.009008 0.151859
    33 0.043235 -1.656596 0.072574 -1.315085 -0.020930 0.005777
    34 0.031729 -1.137392 0.051025 -1.375111 -0.015333 0.007761
    35 -0.963866 -2.785145 -0.085350 -0.990983 0.136737 -0.225412
    36 0.028479 -1.403067 -0.017167 -0.965960 -0.135474 0.127432
    37 0.021413 -0.942156 0.012233 -0.964436 -0.025335 -0.033641
    38 1.164475 -2.543940 -0.170330 -1.202160 -0.161088 0.388818
    39 0.024032 -1.140761 -0.005631 -0.986046 0.010594 0.051247
    40 0.014898 -0.903521 -0.015942 -1.028794 0.009660 0.051438
    41 -0.586770 -1.264477 0.200161 0.221924 -1.275430 -2.979233
    42 1.569711 0.035243 0.016848 -0.019647 -0.007097 0.922310
    43 1.114041 0.040611 -0.005766 -0.028766 -0.034359 1.035400
    44 -0.045646 -0.072634 0.010491 0.230636 0.395471 1.618939
    45 -7.999140 2.710084 -0.450377 1.571923 -0.032899 -0.409120
  time 8
    0 4.623540 -5.042417 -4.250904 -1.567223 -3.094568 1.494597
    1 5.535558 -1.455844 -0.000001 0.000000 0.000000 -1.364276
    2 6.967555 -0.456137 0.775243 1.570767 -1.566682 1.570854
    3 0.586840 3.168368 -0.000001 0.000000 0.000000 0.000000
    4 0.793143 -0.094784 0.111405 -1.570775 1.559439 1.570817
    5 0.793143 -0.094784 -0.146416 1.570775 1.582159 1.570775
    6 -0.205318 -0.032883 -0.000050 -1.570797 0.000000 0.000000
    7 -0.002752 -2.016952 -0.003287 0.000000 0.000000 0.000000
    8 6.208446 6.204643 -8.866440 4.977208 -1.402746 1.277500
    9 8.077701 0.910783 -0.372470 1.569095 -3.116902 0.189640
    10 -0.107078 -8.412796 -0.162730 -0.173729 -0.002505 -0.162818
    11 -0.488518 -2.755602 -0.228260 -0.636514 -0.072434 -0.337320
    12 0.047700 -1.530573 0.014229 -1.481141 -0.125802 0.203368
    13 0.028786 -1.126514 -0.105143 -0.742955 -0.013303 0.014298
    14 0.250027 -2.820665 -0.238396 -0.418648 -0.123606 -0.157124
    15 -0.057572 -1.598510 0.030164 -1.580137 -0.056699 0.100860
    16 -0.034142 -1.160031 0.053531 -0.902405 0.008281 -0.023154
    17 0.957766 -2.746780 -0.090302 -0.138913 -0.159269 0.186081
    18 -0.033420 -1.393223 -0.022976 -0.746922 0.007634 -0.036734
    19 -0.022360 -0.961342 -0.004654 -0.883172 0.005525 -0.043001
    20 -1.180681 -2.507217 -0.193859 -0.314555 -0.083781 -0.213847
    21 -0.024967 -1.127840 0.017597 -1.431112 0.098765 0.048910
    22 -0.020057 -0.902687 0.025715 -0.805420 0.007514 -0.032334
    23 0.583510 -1.208996 0.197098 -0.016291 -1.086293 -0.690834
    24 1.481238 -0.200698 -0.049680 0.017733 0.168348 -0.720722
    25 0.987486 -0.214230 -0.006773 -0.101489 -0.020928 -1.227553
    26 0.120153 -0.050270 -0.054489 0.287569 3.110905 1.561085
    27 -0.716095 -5.977376 -13.294658 -1.735883 -5.446788 -1.240070
    28 0.124289 -8.423074 -0.052335 0.400886 0.007514 0.439815
    29 0.447953 -2.798986 -0.200443 -1.083108 -0.024750 0.321985
    30 -0.032909 -1.499736 0.028378 -1.405033 0.023334 -0.026879
    31 -0.027022 -1.115984 -0.028023 -0.967278 0.021752 -0.015208
    32 -0.249534 -2.846964 -0.174213 -0.927167 -0.009008 0.151859
    33 0.043235 -1.656596 0.072574 -1.315085 -0.020930 0.005777
    34 0.031729 -1.137392 0.051025 -1.375111 -0.015333 0.007761
    35 -0.963866 -2.785145 -0.085350 -0.990983 0.136737 -0.225412
    36 0.028479 -1.403067 -0.017167 -0.965960 -0.135474 0.127432
    37 0.021413 -0.942156 0.012233 -0.964436 -0.025335 -0.033641
    38 1.164475 -2.543940 -0.170330 -1.202160 -0.161088 0.388818
    39 0.024032 -1.140761 -0.005631 -0.986046 0.010594 0.051247
    40 0.014898 -0.903521 -0.015942 -1.028794 0.009660 0.051438
    41 -0.586770 -1.264477 0.200161 0.221924 -1.275430 -2.979233
    42 1.569711 0.035243 0.016848 -0.019647 -0.007097 0.922310
    43 1.114041 0.040611 -0.005766 -0.028766 -0.034359 1.035400
    44 -0.045646 -0.072634 0.010491 0.230636 0.395471 1.618939
    45 -7.999140 2.710084 -0.450377 1.571923 -0.032899 -0.409198
  time 9
    0 4.619634 -5.038511 -4.270435 -1.565786 -3.092843 1.494763
    1 5.535558 -1.455844 -0.000001 0.000000 0.000000 -1.364276
    2 6.967555 -0.456137 0.775243 1.570767 -1.566682 1.570854
    3 0.594653 3.109773 -0.000001 0.000000 0.000000 0.000000
    4 0.793143 -0.094784 0.306723 -1.570775 1.559439 1.570817
    5 0.793143 -0.094784 -0.330015 1.570775 1.582159 1.570775
    6 -0.205318 -0.032883 -0.000050 -1.570797 0.000000 0.000000
    7 -0.002752 -2.016952 -0.003287 0.000000 0.000000 0.000000
    8 6.208446 6.208550 -8.870346 4.979974 -1.404564 1.274725
    9 8.077701 0.922502 -0.372470 1.568999 -3.116902 0.190943
    10 -0.107078 -8.412796 -0.162730 -0.173660 -0.003775 -0.159237
    11 -0.488518 -2.755602 -0.228260 -0.636514 -0.072434 -0.337320
    12 0.047700 -1.530573 0.014229 -1.481141 -0.125802 0.203368
    13 0.028786 -1.126514 -0.105143 -0.742955 -0.013303 0.014298
    14 0.250027 -2.820665 -0.238396 -0.418648 -0.123606 -0.157124
    15 -0.057572 -1.598510 0.030164 -1.580137 -0.056699 0.100860
    16 -0.034142 -1.160031 0.053531 -0.902405 0.008281 -0.023154
    17 0.957766 -2.746780 -0.090302 -0.138913 -0.159269 0.186081
    18 -0.033420 -1.393223 -0.022976 -0.746922 0.007634 -0.036734
    19 -0.022360 -0.961342 -0.004654 -0.883172 0.005525 -0.043001
    20 -1.180681 -2.507217 -0.193859 -0.314555 -0.083781 -0.213847
    21 -0.024967 -1.127840 0.017597 -1.431112 0.098765 0.048910
    22 -0.020057 -0.902687 0.025715 -0.805420 0.007514 -0.032334
    23 0.583510 -1.208996 0.197098 -0.016291 -1.086293 -0.690834
    24 1.481238 -0.200698 -0.049680 0.017733 0.168348 -0.720722
    25 0.987486 -0.214230 -0.006773 -0.101489 -0.020928 -1.227553
    26 0.120153 -0.050270 -0.054489 0.287569 3.110905 1.561085
    27 -0.720001 -5.973470 -13.298564 -1.736038 -5.446216 -1.240070
    28 0.124289 -8.423074 -0.052335 0.401163 0.006371 0.436738
    29 0.447953 -2.798986 -0.200443 -1.083108 -0.024750 0.321985
    30 -0.032909 -1.499736 0.028378 -1.405033 0.023334 -0.026879
    31 -0.027022 -1.115984 -0.028023 -0.967278 0.021752 -0.015208
    32 -0.249534 -2.846964 -0.174213 -0.927167 -0.009008 0.151859
    33 0.043235 -1.656596 0.072574 -1.315085 -0.020930 0.005777
    34 0.031729 -1.137392 0.051025 -1.375111 -0.015333 0.007761
    35 -0.963866 -2.785145 -0.085350 -0.990983 0.136737 -0.225412
    36 0.028479 -1.403067 -0.017167 -0.965960 -0.135474 0.127432
    37 0.021413 -0.942156 0.012233 -0.964436 -0.025335 -0.033641
    38 1.164475 -2.543940 -0.170330 -1.202160 -0.161088 0.388818
    39 0.024032 -1.140761 -0.005631 -0.986046 0.010594 0.051247
    40 0.014898 -0.903521 -0.015942 -1.028794 0.009660 0.051438
    41 -0.586770 -1.264477 0.200161 0.221924 -1.275430 -2.979233
    42 1.569711 0.035243 0.016848 -0.019647 -0.007097 0.922310
    43 1.114041 0.040611 -0.005766 -0.028766 -0.034359 1.035400
    44 -0.045646 -0.072634 0.010491 0.230636 0.395471 1.618939
    45 -7.995234 2.710084 -0.450377 1.571923 -0.032887 -0.409355
  time 10
    0 4.615728 -5.034604 -4.282155 -1.564924 -3.091885 1.494818
    1 5.535558 -1.455844 -0.000001 0.000000 0.000000 -1.364276
    2 6.967555 -0.456137 0.775243 1.570767 -1.566682 1.570854
    3 0.594653 3.137118 -0.000001 0.000000 0.000000 0.000000
    4 0.793143 -0.098690 0.420008 -1.570775 1.559439 1.570817
    5 0.793143 -0.098690 -0.439394 1.570775 1.582159 1.570775
    6 -0.205318 -0.032883 -0.000050 -1.570797 0.000000 0.000000
    7 -0.002752 -2.016952 -0.003287 0.000000 0.000000 0.000000
    8 6.208446 6.208550 -8.870346 4.981787 -1.405692 1.273002
    9 8.077701 0.926408 -0.372470 1.568999 -3.116902 0.191790
    10 -0.107078 -8.412796 -0.162730 -0.173638 -0.004591 -0.157008
    11 -0.488518 -2.755602 -0.228260 -0.636514 -0.072434 -0.337320
    12 0.047700 -1.530573 0.014229 -1.481141 -0.125802 0.203368
    13 0.028786 -1.126514 -0.105143 -0.742955 -0.013303 0.014298
    14 0.250027 -2.820665 -0.238396 -0.418648 -0.123606 -0.157124
    15 -0.057572 -1.598510 0.030164 -1.580137 -0.056699 0.100860
    16 -0.034142 -1.160031 0.053531 -0.902405 0.008281 -0.023154
    17 0.957766 -2.746780 -0.090302 -0.138913 -0.159269 0.186081
    18 -0.033420 -1.393223 -0.022976 -0.746922 0.007634 -0.036734
    19 -0.022360 -0.961342 -0.004654 -0.883172 0.005525 -0.043001
    20 -1.180681 -2.507217 -0.193859 -0.314555 -0.083781 -0.213847
    21 -0.024967 -1.127840 0.017597 -1.431112 0.098765 0.048910
    22 -0.020057 -0.902687 0.025715 -0.805420 0.007514 -0.032334
    23 0.583510 -1.208996 0.197098 -0.016291 -1.086293 -0.690834
    24 1.481238 -0.200698 -0.049680 0.017733 0.168348 -0.720722
    25 0.987486 -0.214230 -0.006773 -0.101489 -0.020928 -1.227553
    26 0.120153 -0.050270 -0.054489 0.287569 3.110905 1.561085
    27 -0.720001 -5.973470 -13.298564 -1.736193 -5.445835 -1.240070
    28 0.124289 -8.423074 -0.052335 0.401364 0.005646 0.434837
    29 0.447953 -2.798986 -0.200443 -1.083108 -0.024750 0.321985
    30 -0.032909 -1.499736 0.028378 -1.405033 0.023334 -0.026879
    31 -0.027022 -1.115984 -0.028023 -0.967278 0.021752 -0.015208
    32 -0.249534 -2.846964 -0.174213 -0.927167 -0.009008 0.151859
    33 0.043235 -1.656596 0.072574 -1.315085 -0.020930 0.005777
    34 0.031729 -1.137392 0.051025 -1.375111 -0.015333 0.007761
    35 -0.963866 -2.785145 -0.085350 -0.990983 0.136737 -0.225412
    36 0.028479 -1.403067 -0.017167 -0.965960 -0.135474 0.127432
    37 0.021413 -0.942156 0.012233 -0.964436 -0.025335 -0.033641
    38 1.164475 -2.543940 -0.170330 -1.202160 -0.161088 0.388818
    39 0.024032 -1.140761 -0.005631 -0.986046 0.010594 0.051247
    40 0.014898 -0.903521 -0.015942 -1.028794 0.009660 0.051438
    41 -0.586770 -1.264477 0.200161 0.221924 -1.275430 -2.979233
    42 1.569711 0.035243 0.016848 -0.019647 -0.007097 0.922310
    43 1.114041 0.040611 -0.005766 -0.028766 -0.034359 1.035400
    44 -0.045646 -0.072634 0.010491 0.230636 0.395471 1.618939
    45 -7.995234 2.710084 -0.450377 1.571923 -0.032887 -0.409434
  time 11
    0 4.615728 -5.034604 -4.278248 -1.564732 -3.091501 1.494818
    1 5.535558 -1.455844 -0.000001 0.000000 0.000000 -1.364276
    2 6.967555 -0.456137 0.775243 1.570767 -1.566682 1.570854
    3 0.598559 3.160556 -0.000001 0.000000 0.000000 0.000000
    4 0.793143 -0.098690 0.470791 -1.570775 1.559439 1.570817
    5 0.793143 -0.098690 -0.494083 1.570775 1.582159 1.570775
    6 -0.205318 -0.032883 -0.000050 -1.570797 0.000000 0.000000
    7 -0.002752 -2.016952 -0.003287 0.000000 0.000000 0.000000
    8 6.208446 6.208550 -8.870346 4.981596 -1.405504 1.273193
    9 8.077701 0.926408 -0.372470 1.568999 -3.116902 0.191725
    10 -0.107078 -8.412796 -0.162730 -0.173660 -0.004794 -0.156788
    11 -0.488518 -2.755602 -0.228260 -0.636514 -0.072434 -0.337320
    12 0.047700 -1.530573 0.014229 -1.481141 -0.125802 0.203368
    13 0.028786 -1.126514 -0.105143 -0.742955 -0.013303 0.014298
    14 0.250027 -2.820665 -0.238396 -0.418648 -0.123606 -0.157124
    15 -0.057572 -1.598510 0.030164 -1.580137 -0.056699 0.100860
    16 -0.034142 -1.160031 0.053531 -0.902405 0.008281 -0.023154
    17 0.957766 -2.746780 -0.090302 -0.138913 -0.159269 0.186081
    18 -0.033420 -1.393223 -0.022976 -0.746922 0.007634 -0.036734
    19 -0.022360 -0.961342 -0.004654 -0.883172 0.005525 -0.043001
    20 -1.180681 -2.507217 -0.193859 -0.314555 -0.083781 -0.213847
    21 -0.024967 -1.127840 0.017597 -1.431112 0.098765 0.048910
    22 -0.020057 -0.902687 0.025715 -0.805420 0.007514 -0.032334
    23 0.583510 -1.208996 0.197098 -0.016291 -1.086293 -0.690834
    24 1.481238 -0.200698 -0.049680 0.017733 0.168348 -0.720722
    25 0.987486 -0.214230 -0.006773 -0.101489 -0.020928 -1.227553
    26 0.120153 -0.050270 -0.054489 0.287569 3.110905 1.561085
    27 -0.716095 -5.977376 -13.298564 -1.736115 -5.446121 -1.240070
    28 0.124289 -8.423074 -0.052335 0.401364 0.005479 0.434611
    29 0.447953 -2.798986 -0.200443 -1.083108 -0.024750 0.321985
    30 -0.032909 -1.499736 0.028378 -1.405033 0.023334 -0.026879
    31 -0.027022 -1.115984 -0.028023 -0.967278 0.021752 -0.015208
    32 -0.249534 -2.846964 -0.174213 -0.927167 -0.009008 0.151859
    33 0.043235 -1.656596 0.072574 -1.315085 -0.020930 0.005777
    34 0.031729 -1.137392 0.051025 -1.375111 -0.015333 0.007761
    35 -0.963866 -2.785145 -0.085350 -0.990983 0.136737 -0.225412
    36 0.028479 -1.403067 -0.017167 -0.965960 -0.135474 0.127432
    37 0.021413 -0.942156 0.012233 -0.964436 -0.025335 -0.033641
    38 1.164475 -2.543940 -0.170330 -1.202160 -0.161088 0.388818
    39 0.024032 -1.140761 -0.005631 -0.986046 0.010594 0.051247
    40 0.014898 -0.903521 -0.015942 -1.028794 0.009660 0.051438
    41 -0.586770 -1.264477 0.200161 0.221924 -1.275430 -2.979233
    42 1.569711 0.035243 0.016848 -0.019647 -0.007097 0.922310
    43 1.114041 0.040611 -0.005766 -0.028766 -0.034359 1.035400
    44 -0.045646 -0.072634 0.010491 0.230636 0.395471 1.618939
    45 -7.995234 2.713990 -0.450377 1.571935 -0.032887 -0.409669
  time 12
    0 4.615728 -5.030698 -4.274342 -1.564732 -3.091022 1.494708
    1 5.535558 -1.455844 -0.000001 0.000000 0.000000 -1.364276
    2 6.967555 -0.456137 0.775243 1.570767 -1.566682 1.570854
    3 0.598559 3.156649 -0.000001 0.000000 0.000000 0.000000
    4 0.793143 -0.098690 0.423914 -1.570775 1.559439 1.570817
    5 0.793143 -0.098690 -0.451113 1.570775 1.582159 1.570775
    6 -0.205318 -0.032883 -0.000050 -1.570797 0.000000 0.000000
    7 -0.002752 -2.016952 -0.003287 0.000000 0.000000 0.000000
    8 6.208446 6.208550 -8.870346 4.980642 -1.404940 1.274055
    9 8.077701 0.922502 -0.372470 1.568999 -3.116902 0.191269
    10 -0.107078 -8.412796 -0.162730 -0.173729 -0.004732 -0.156971
    11 -0.488518 -2.755602 -0.228260 -0.636514 -0.072434 -0.337320
    12 0.047700 -1.530573 0.014229 -1.481141 -0.125802 0.203368
    13 0.028786 -1.126514 -0.105143 -0.742955 -0.013303 0.014298
    14 0.250027 -2.820665 -0.238396 -0.418648 -0.123606 -0.157124
    15 -0.057572 -1.598510 0.030164 -1.580137 -0.056699 0.100860
    16 -0.034142 -1.160031 0.053531 -0.902405 0.008281 -0.023154
    17 0.957766 -2.746780 -0.090302 -0.138913 -0.159269 0.186081
    18 -0.033420 -1.393223 -0.022976 -0.746922 0.007634 -0.036734
    19 -0.022360 -0.961342 -0.004654 -0.883172 0.005525 -0.043001
    20 -1.180681 -2.507217 -0.193859 -0.314555 -0.083781 -0.213847
    21 -0.024967 -1.127840 0.017597 -1.431112 0.098765 0.048910
    22 -0.020057 -0.902687 0.025715 -0.805420 0.007514 -0.032334
    23 0.583510 -1.208996 0.197098 -0.016291 -1.086293 -0.690834
    24 1.481238 -0.200698 -0.049680 0.017733 0.168348 -0.720722
    25 0.987486 -0.214230 -0.006773 -0.101489 -0.020928 -1.227553
    26 0.120153 -0.050270 -0.054489 0.287569 3.110905 1.561085
    27 -0.716095 -5.977376 -13.290751 -1.735960 -5.446788 -1.239975
    28 0.124289 -8.423074 -0.052335 0.401263 0.005757 0.434973
    29 0.447953 -2.798986 -0.200443 -1.083108 -0.024750 0.321985
    30 -0.032909 -1.499736 0.028378 -1.405033 0.023334 -0.026879
    31 -0.027022 -1.115984 -0.028023 -0.967278 0.021752 -0.015208
    32 -0.249534 -2.846964 -0.174213 -0.927167 -0.009008 0.151859
    33 0.043235 -1.656596 0.072574 -1.315085 -0.020930 0.005777
    34 0.031729 -1.137392 0.051025 -1.375111 -0.015333 0.007761
    35 -0.963866 -2.785145 -0.085350 -0.990983 0.136737 -0.225412
    36 0.028479 -1.403067 -0.017167 -0.965960 -0.135474 0.127432
    37 0.021413 -0.942156 0.012233 -0.964436 -0.025335 -0.033641
    38 1.164475 -2.543940 -0.170330 -1.202160 -0.161088 0.388818
    39 0.024032 -1.140761 -0.005631 -0.986046 0.010594 0.051247
    40 0.014898 -0.903521 -0.015942 -1.028794 0.009660 0.051438
    41 -0.586770 -1.264477 0.200161 0.221924 -1.275430 -2.979233
    42 1.569711 0.035243 0.016848 -0.019647 -0.007097 0.922310
    43 1.114041 0.040611 -0.005766 -0.028766 -0.034359 1.035400
    44 -0.045646 -0.072634 0.010491 0.230636 0.395471 1.618939
    45 -7.995234 2.713990 -0.450377 1.571935 -0.032887 -0.409983
  time 13
    0 4.615728 -5.030698 -4.266529 -1.564924 -3.090831 1.494652
    1 5.535558 -1.455844 -0.000001 0.000000 0.000000 -1.364276
    2 6.967555 -0.456137 0.775243 1.570767 -1.566682 1.570854
    3 0.594653 3.144930 -0.000001 0.000000 0.000000 0.000000
    4 0.793143 -0.098690 0.431727 -1.570775 1.559439 1.570817
    5 0.793143 -0.098690 -0.462832 1.570775 1.582159 1.570775
    6 -0.205318 -0.032883 -0.000050 -1.570797 0.000000 0.000000
    7 -0.002752 -2.016952 -0.003287 0.000000 0.000000 0.000000
    8 6.208446 6.208550 -8.870346 4.979879 -1.404438 1.274820
    9 8.077701 0.922502 -0.372470 1.568999 -3.116902 0.190878
    10 -0.107078 -8.412796 -0.162730 -0.173797 -0.004575 -0.157264
    11 -0.488518 -2.755602 -0.228260 -0.636514 -0.072434 -0.337320
    12 0.047700 -1.530573 0.014229 -1.481141 -0.125802 0.203368
    13 0.028786 -1.126514 -0.105143 -0.742955 -0.013303 0.014298
    14 0.250027 -2.820665 -0.238396 -0.418648 -0.123606 -0.157124
    15 -0.057572 -1.598510 0.030164 -1.580137 -0.056699 0.100860
    16 -0.034142 -1.160031 0.053531 -0.902405 0.008281 -0.023154
    17 0.957766 -2.746780 -0.090302 -0.138913 -0.159269 0.186081
    18 -0.033420 -1.393223 -0.022976 -0.746922 0.007634 -0.036734
    19 -0.022360 -0.961342 -0.004654 -0.883172 0.005525 -0.043001
    20 -1.180681 -2.507217 -0.193859 -0.314555 -0.083781 -0.213847
    21 -0.024967 -1.127840 0.017597 -1.431112 0.098765 0.048910
    22 -0.020057 -0.902687 0.025715 -0.805420 0.007514 -0.032334
    23 0.583510 -1.208996 0.197098 -0.016291 -1.086293 -0.690834
    24 1.481238 -0.200698 -0.049680 0.017733 0.168348 -0.720722
    25 0.987486 -0.214230 -0.006773 -0.101489 -0.020928 -1.227553
    26 0.120153 -0.050270 -0.054489 0.287569 3.110905 1.561085
    27 -0.716095 -5.981283 -13.286845 -1.735805 -5.447360 -1.239880
    28 0.124289 -8.423074 -0.052335 0.401188 0.006231 0.435471
    29 0.447953 -2.798986 -0.200443 -1.083108 -0.024750 0.321985
    30 -0.032909 -1.499736 0.028378 -1.405033 0.023334 -0.026879
    31 -0.027022 -1.115984 -0.028023 -0.967278 0.021752 -0.015208
    32 -0.249534 -2.846964 -0.174213 -0.927167 -0.009008 0.151859
    33 0.043235 -1.656596 0.072574 -1.315085 -0.020930 0.005777
    34 0.031729 -1.137392 0.051025 -1.375111 -0.015333 0.007761
    35 -0.963866 -2.785145 -0.085350 -0.990983 0.136737 -0.225412
    36 0.028479 -1.403067 -0.017167 -0.965960 -0.135474 0.127432
    37 0.021413 -0.942156 0.012233 -0.964436 -0.025335 -0.033641
    38 1.164475 -2.543940 -0.170330 -1.202160 -0.161088 0.388818
    39 0.024032 -1.140761 -0.005631 -0.986046 0.010594 0.051247
    40 0.014898 -0.903521 -0.015942 -1.028794 0.009660 0.051438
    41 -0.586770 -1.264477 0.200161 0.221924 -1.275430 -2.979233
    42 1.569711 0.035243 0.016848 -0.019647 -0.007097 0.922310
    43 1.114041 0.040611 -0.005766 -0.028766 -0.034359 1.035400
    44 -0.045646 -0.072634 0.010491 0.230636 0.395471 1.618939
    45 -7.995234 2.717897 -0.450377 1.571947 -0.032875 -0.410296
  time 14
    0 4.615728 -5.030698 -4.270435 -1.565019 -3.091022 1.494652
    1 5.535558 -1.455844 -0.000001 0.000000 0.000000 -1.364276
    2 6.967555 -0.456137 0.775243 1.570767 -1.566682 1.570854
    3 0.594653 3.133211 -0.000001 0.000000 0.000000 0.000000
    4 0.793143 -0.098690 0.439540 -1.570775 1.559439 1.570817
    5 0.793143 -0.098690 -0.474551 1.570775 1.582159 1.570775
    6 -0.205318 -0.032883 -0.000050 -1.570797 0.000000 0.000000
    7 -0.002752 -2.016952 -0.003287 0.000000 0.000000 0.000000
    8 6.208446 6.208550 -8.870346 4.979974 -1.404564 1.274725
    9 8.077701 0.922502 -0.372470 1.568999 -3.116902 0.190943
    10 -0.107078 -8.412796 -0.162730 -0.173797 -0.004481 -0.157373
    11 -0.488518 -2.755602 -0.228260 -0.636514 -0.072434 -0.337320
    12 0.047700 -1.530573 0.014229 -1.481141 -0.125802 0.203368
    13 0.028786 -1.126514 -0.105143 -0.742955 -0.013303 0.014298
    14 0.250027 -2.820665 -0.238396 -0.418648 -0.123606 -0.157124
    15 -0.057572 -1.598510 0.030164 -1.580137 -0.056699 0.100860
    16 -0.034142 -1.160031 0.053531 -0.902405 0.008281 -0.023154
    17 0.957766 -2.746780 -0.090302 -0.138913 -0.159269 0.186081
    18 -0.033420 -1.393223 -0.022976 -0.746922 0.007634 -0.036734
    19 -0.022360 -0.961342 -0.004654 -0.883172 0.005525 -0.043001
    20 -1.180681 -2.507217 -0.193859 -0.314555 -0.083781 -0.213847
    21 -0.024967 -1.127840 0.017597 -1.431112 0.098765 0.048910
    22 -0.020057 -0.902687 0.025715 -0.805420 0.007514 -0.032334
    23 0.583510 -1.208996 0.197098 -0.016291 -1.086293 -0.690834
    24 1.481238 -0.200698 -0.049680 0.017733 0.168348 -0.720722
    25 0.987486 -0.214230 -0.006773 -0.101489 -0.020928 -1.227553
    26 0.120153 -0.050270 -0.054489 0.287569 3.110905 1.561085
    27 -0.716095 -5.981283 -13.290751 -1.735805 -5.447169 -1.239975
    28 0.124289 -8.423074 -0.052335 0.401188 0.006510 0.435697
    29 0.447953 -2.798986 -0.200443 -1.083108 -0.024750 0.321985
    30 -0.032909 -1.499736 0.028378 -1.405033 0.023334 -0.026879
    31 -0.027022 -1.115984 -0.028023 -0.967278 0.021752 -0.015208
    32 -0.249534 -2.846964 -0.174213 -0.927167 -0.009008 0.151859
    33 0.043235 -1.656596 0.072574 -1.315085 -0.020930 0.005777
    34 0.031729 -1.137392 0.051025 -1.375111 -0.015333 0.007761
    35 -0.963866 -2.785145 -0.085350 -0.990983 0.136737 -0.225412
    36 0.028479 -1.403067 -0.017167 -0.965960 -0.135474 0.127432
    37 0.021413 -0.942156 0.012233 -0.964436 -0.025335 -0.033641
    38 1.164475 -2.543940 -0.170330 -1.202160 -0.161088 0.388818
    39 0.024032 -1.140761 -0.005631 -0.986046 0.010594 0.051247
    40 0.014898 -0.903521 -0.015942 -1.028794 0.009660 0.051438
    41 -0.586770 -1.264477 0.200161 0.221924 -1.275430 -2.979233
    42 1.569711 0.035243 0.016848 -0.019647 -0.007097 0.922310
    43 1.114041 0.040611 -0.005766 -0.028766 -0.034359 1.035400
    44 -0.045646 -0.072634 0.010491 0.230636 0.395471 1.618939
    45 -7.995234 2.717897 -0.450377 1.571947 -0.032875 -0.410139
  time 15
    0 4.615728 -5.034604 -4.282155 -1.564924 -3.091885 1.494818
    1 5.535558 -1.455844 -0.000001 0.000000 0.000000 -1.364276
    2 6.967555 -0.456137 0.775243 1.570767 -1.566682 1.570854
    3 0.594653 3.125398 -0.000001 0.000000 0.000000 0.000000
    4 0.793143 -0.098690 0.439540 -1.570775 1.559439 1.570817
    5 0.793143 -0.098690 -0.474551 1.570775 1.582159 1.570775
    6 -0.205318 -0.032883 -0.000050 -1.570797 0.000000 0.000000
    7 -0.002752 -2.016952 -0.003287 0.000000 0.000000 0.000000
    8 6.208446 6.208550 -8.870346 4.981787 -1.405692 1.273002
    9 8.077701 0.926408 -0.372470 1.568999 -3.116902 0.191790
    10 -0.107078 -8.412796 -0.162730 -0.173638 -0.004591 -0.157008
    11 -0.488518 -2.755602 -0.228260 -0.636514 -0.072434 -0.337320
    12 0.047700 -1.530573 0.014229 -1.481141 -0.125802 0.203368
    13 0.028786 -1.126514 -0.105143 -0.742955 -0.013303 0.014298
    14 0.250027 -2.820665 -0.238396 -0.418648 -0.123606 -0.157124
    15 -0.057572 -1.598510 0.030164 -1.580137 -0.056699 0.100860
    16 -0.034142 -1.160031 0.053531 -0.902405 0.008281 -0.023154
    17 0.957766 -2.746780 -0.090302 -0.138913 -0.159269 0.186081
    18 -0.033420 -1.393223 -0.022976 -0.746922 0.007634 -0.036734
    19 -0.022360 -0.961342 -0.004654 -0.883172 0.005525 -0.043001
    20 -1.180681 -2.507217 -0.193859 -0.314555 -0.083781 -0.213847
    21 -0.024967 -1.127840 0.017597 -1.431112 0.098765 0.048910
    22 -0.020057 -0.902687 0.025715 -0.805420 0.007514 -0.032334
    23 0.583510 -1.208996 0.197098 -0.016291 -1.086293 -0.690834
    24 1.481238 -0.200698 -0.049680 0.017733 0.168348 -0.720722
    25 0.987486 -0.214230 -0.006773 -0.101489 -0.020928 -1.227553
    26 0.120153 -0.050270 -0.054489 0.287569 3.110905 1.561085
    27 -0.720001 -5.973470 -13.298564 -1.736193 -5.445835 -1.240070
    28 0.124289 -8.423074 -0.052335 0.401364 0.006315 0.435154
    29 0.447953 -2.798986 -0.200443 -1.083108 -0.024750 0.321985
    30 -0.032909 -1.499736 0.028378 -1.405033 0.023334 -0.026879
    31 -0.027022 -1.115984 -0.028023 -0.967278 0.021752 -0.015208
    32 -0.249534 -2.846964 -0.174213 -0.927167 -0.009008 0.151859
    33 0.043235 -1.656596 0.072574 -1.315085 -0.020930 0.005777
    34 0.031729 -1.137392 0.051025 -1.375111 -0.015333 0.007761
    35 -0.963866 -2.785145 -0.085350 -0.990983 0.136737 -0.225412
    36 0.028479 -1.403067 -0.017167 -0.965960 -0.135474 0.127432
    37 0.021413 -0.942156 0.012233 -0.964436 -0.025335 -0.033641
    38 1.164475 -2.543940 -0.170330 -1.202160 -0.161088 0.388818
    39 0.024032 -1.140761 -0.005631 -0.986046 0.010594 0.051247
    40 0.014898 -0.903521 -0.015942 -1.028794 0.009660 0.051438
    41 -0.586770 -1.264477 0.200161 0.221924 -1.275430 -2.979233
    42 1.569711 0.035243 0.016848 -0.019647 -0.007097 0.922310
    43 1.114041 0.040611 -0.005766 -0.028766 -0.034359 1.035400
    44 -0.045646 -0.072634 0.010491 0.230636 0.395471 1.618939
    45 -7.995234 2.710084 -0.450377 1.571923 -0.032887 -0.409434
  time 16
    0 4.615728 -5.042417 -4.309499 -1.564540 -3.093897 1.495261
    1 5.535558 -1.455844 -0.000001 0.000000 0.000000 -1.364276
    2 6.967555 -0.456137 0.775243 1.570767 -1.566682 1.570854
    3 0.594653 3.125398 -0.000001 0.000000 0.000000 0.000000
    4 0.793143 -0.098690 0.439540 -1.570775 1.559439 1.570817
    5 0.793143 -0.098690 -0.474551 1.570775 1.582159 1.570775
    6 -0.205318 -0.032883 -0.000050 -1.570797 0.000000 0.000000
    7 -0.002752 -2.016952 -0.003287 0.000000 0.000000 0.000000
    8 6.208446 6.212456 -8.874252 4.986365 -1.408449 1.268504
    9 8.077701 0.945940 -0.372470 1.568999 -3.116902 0.193941
    10 -0.107078 -8.412796 -0.162730 -0.173160 -0.005045 -0.156204
    11 -0.488518 -2.755602 -0.228260 -0.636514 -0.072434 -0.337320
    12 0.047700 -1.530573 0.014229 -1.481141 -0.125802 0.203368
    13 0.028786 -1.126514 -0.105143 -0.742955 -0.013303 0.014298
    14 0.250027 -2.820665 -0.238396 -0.418648 -0.123606 -0.157124
    15 -0.057572 -1.598510 0.030164 -1.580137 -0.056699 0.100860
    16 -0.034142 -1.160031 0.053531 -0.902405 0.008281 -0.023154
    17 0.957766 -2.746780 -0.090302 -0.138913 -0.159269 0.186081
    18 -0.033420 -1.393223 -0.022976 -0.746922 0.007634 -0.036734
    19 -0.022360 -0.961342 -0.004654 -0.883172 0.005525 -0.043001
    20 -1.180681 -2.507217 -0.193859 -0.314555 -0.083781 -0.213847
    21 -0.024967 -1.127840 0.017597 -1.431112 0.098765 0.048910
    22 -0.020057 -0.902687 0.025715 -0.805420 0.007514 -0.032334
    23 0.583510 -1.208996 0.197098 -0.016291 -1.086314 -0.690834
    24 1.481238 -0.200698 -0.049680 0.017733 0.168348 -0.720722
    25 0.987486 -0.214230 -0.006773 -0.101489 -0.020928 -1.227553
    26 0.120153 -0.050270 -0.054489 0.287569 3.110905 1.561085
    27 -0.723908 -5.957844 -13.325909 -1.737122 -5.442499 -1.240451
    28 0.124289 -8.423074 -0.052335 0.401867 0.005144 0.433434
    29 0.447953 -2.798986 -0.200443 -1.083108 -0.024750 0.321985
    30 -0.032909 -1.499736 0.028378 -1.405033 0.023334 -0.026879
    31 -0.027022 -1.115984 -0.028023 -0.967278 0.021752 -0.015208
    32 -0.249534 -2.846964 -0.174213 -0.927167 -0.009008 0.151859
    33 0.043235 -1.656596 0.072574 -1.315085 -0.020930 0.005777
    34 0.031729 -1.137392 0.051025 -1.375111 -0.015333 0.007761
    35 -0.963866 -2.785145 -0.085350 -0.990983 0.136737 -0.225412
    36 0.028479 -1.403067 -0.017167 -0.965960 -0.135474 0.127432
    37 0.021413 -0.942156 0.012233 -0.964436 -0.025335 -0.033641
    38 1.164475 -2.543940 -0.170330 -1.202160 -0.161088 0.388818
    39 0.024032 -1.140761 -0.005631 -0.986046 0.010594 0.051247
    40 0.014898 -0.903521 -0.015942 -1.028794 0.009660 0.051438
    41 -0.586770 -1.264477 0.200161 0.221924 -1.275430 -2.979233
    42 1.569711 0.035243 0.016848 -0.019647 -0.007097 0.922310
    43 1.114041 0.040611 -0.005766 -0.028766 -0.034359 1.035400
    44 -0.045646 -0.072634 0.010491 0.230636 0.395471 1.618939
    45 -7.999140 2.698365 -0.450377 1.571887 -0.032923 -0.407708
  time 17
    0 4.615728 -5.054136 -4.352469 -1.564061 -3.097156 1.495924
    1 5.535558 -1.455844 -0.000001 0.000000 0.000000 -1.364276
    2 6.967555 -0.456137 0.775243 1.570767 -1.566682 1.570854
    3 0.594653 3.125398 -0.000001 0.000000 0.000000 0.000000
    4 0.793143 -0.098690 0.439540 -1.570775 1.559439 1.570817
    5 0.793143 -0.098690 -0.474551 1.570775 1.582159 1.570775
    6 -0.205318 -0.032883 -0.000050 -1.570797 0.000000 0.000000
    7 -0.002752 -2.016952 -0.003287 0.000000 0.000000 0.000000
    8 6.208446 6.216362 -8.878159 4.993329 -1.412522 1.261518
    9 8.077701 0.969378 -0.372470 1.568999 -3.116997 0.197004
    10 -0.107078 -8.412796 -0.162730 -0.172455 -0.005735 -0.155071
    11 -0.488518 -2.755602 -0.228260 -0.636514 -0.072434 -0.337320
    12 0.047700 -1.530573 0.014229 -1.481141 -0.125802 0.203368
    13 0.028786 -1.126514 -0.105143 -0.742955 -0.013303 0.014298
    14 0.250027 -2.820665 -0.238396 -0.418648 -0.123606 -0.157124
    15 -0.057572 -1.598510 0.030164 -1.580137 -0.056699 0.100860
    16 -0.034142 -1.160031 0.053531 -0.902405 0.008281 -0.023154
    17 0.957766 -2.746780 -0.090302 -0.138913 -0.159269 0.186081
    18 -0.033420 -1.393223 -0.022976 -0.746922 0.007634 -0.036734
    19 -0.022360 -0.961342 -0.004654 -0.883172 0.005525 -0.043001
    20 -1.180681 -2.507217 -0.193859 -0.314555 -0.083781 -0.213847
    21 -0.024967 -1.127840 0.017597 -1.431112 0.098765 0.048910
    22 -0.020057 -0.902687 0.025715 -0.805420 0.007514 -0.032334
    23 0.583510 -1.208996 0.197098 -0.016291 -1.086293 -0.690834
    24 1.481238 -0.200698 -0.049680 0.017733 0.168348 -0.720722
    25 0.987486 -0.214230 -0.006773 -0.101489 -0.020928 -1.227553
    26 0.120153 -0.050270 -0.054489 0.287569 3.110905 1.561085
    27 -0.735627 -5.938313 -13.364972 -1.738516 -5.437257 -1.241023
    28 0.124289 -8.423074 -0.052335 0.402622 0.003108 0.430718
    29 0.447953 -2.798986 -0.200443 -1.083108 -0.024750 0.321985
    30 -0.032909 -1.499736 0.028378 -1.405033 0.023334 -0.026879
    31 -0.027022 -1.115984 -0.028023 -0.967278 0.021752 -0.015208
    32 -0.249534 -2.846964 -0.174213 -0.927167 -0.009008 0.151859
    33 0.043235 -1.656596 0.072574 -1.315085 -0.020930 0.005777
    34 0.031729 -1.137392 0.051025 -1.375111 -0.015333 0.007761
    35 -0.963866 -2.785145 -0.085350 -0.990983 0.136737 -0.225412
    36 0.028479 -1.403067 -0.017167 -0.965960 -0.135474 0.127432
    37 0.021413 -0.942156 0.012233 -0.964436 -0.025335 -0.033641
    38 1.164475 -2.543940 -0.170330 -1.202160 -0.161088 0.388818
    39 0.024032 -1.140761 -0.005631 -0.986046 0.010594 0.051247
    40 0.014898 -0.903521 -0.015942 -1.028794 0.009660 0.051438
    41 -0.586770 -1.264477 0.200161 0.221924 -1.275430 -2.979233
    42 1.569711 0.035243 0.016848 -0.019647 -0.007097 0.922310
    43 1.114041 0.040611 -0.005766 -0.028766 -0.034359 1.035400
    44 -0.045646 -0.072634 0.010491 0.230636 0.395471 1.618939
    45 -8.006953 2.678833 -0.454283 1.571840 -0.032959 -0.405199
  time 18
    0 4.611821 -5.065855 -4.403252 -1.563390 -3.100510 1.496643
    1 5.535558 -1.455844 -0.000001 0.000000 0.000000 -1.364276
    2 6.967555 -0.456137 0.775243 1.570767 -1.566682 1.570854
    3 0.594653 3.125398 -0.000001 0.000000 0.000000 0.000000
    4 0.793143 -0.098690 0.439540 -1.570775 1.559439 1.570817
    5 0.793143 -0.098690 -0.474551 1.570775 1.582159 1.570775
    6 -0.205318 -0.032883 -0.000050 -1.570797 0.000000 0.000000
    7 -0.002752 -2.016952 -0.003287 0.000000 0.000000 0.000000
    8 6.208446 6.224175 -8.882065 5.001437 -1.417034 1.253383
    9 8.073794 1.000629 -0.372470 1.568903 -3.117093 0.200458
    10 -0.107078 -8.412796 -0.162730 -0.171726 -0.006472 -0.153682
    11 -0.488518 -2.755602 -0.228260 -0.636514 -0.072434 -0.337320
    12 0.047700 -1.530573 0.014229 -1.481141 -0.125802 0.203368
    13 0.028786 -1.126514 -0.105143 -0.742955 -0.013303 0.014298
    14 0.250027 -2.820665 -0.238396 -0.418648 -0.123606 -0.157124
    15 -0.057572 -1.598510 0.030164 -1.580137 -0.056699 0.100860
    16 -0.034142 -1.160031 0.053531 -0.902405 0.008281 -0.023154
    17 0.957766 -2.746780 -0.090302 -0.138913 -0.159269 0.186081
    18 -0.033420 -1.393223 -0.022976 -0.746922 0.007634 -0.036734
    19 -0.022360 -0.961342 -0.004654 -0.883172 0.005525 -0.043001
    20 -1.180681 -2.507217 -0.193859 -0.314555 -0.083781 -0.213847
    21 -0.024967 -1.127840 0.017597 -1.431112 0.098765 0.048910
    22 -0.020057 -0.902687 0.025715 -0.805420 0.007514 -0.032334
    23 0.583510 -1.208996 0.197098 -0.016291 -1.086293 -0.690834
    24 1.481238 -0.200698 -0.049680 0.017733 0.168348 -0.720722
    25 0.987486 -0.214230 -0.006773 -0.101489 -0.020928 -1.227553
    26 0.120153 -0.050270 -0.054489 0.287569 3.110905 1.561085
    27 -0.747346 -5.914874 -13.404036 -1.740065 -5.431634 -1.241690
    28 0.124289 -8.423074 -0.048429 0.403452 0.000794 0.427641
    29 0.447953 -2.798986 -0.200443 -1.083108 -0.024750 0.321985
    30 -0.032909 -1.499736 0.028378 -1.405033 0.023334 -0.026879
    31 -0.027022 -1.115984 -0.028023 -0.967278 0.021752 -0.015208
    32 -0.249534 -2.846964 -0.174213 -0.927167 -0.009008 0.151859
    33 0.043235 -1.656596 0.072574 -1.315085 -0.020930 0.005777
    34 0.031729 -1.137392 0.051025 -1.375111 -0.015333 0.007761
    35 -0.963866 -2.785145 -0.085350 -0.990983 0.136737 -0.225412
    36 0.028479 -1.403067 -0.017167 -0.965960 -0.135474 0.127432
    37 0.021413 -0.942156 0.012233 -0.964436 -0.025335 -0.033641
    38 1.164475 -2.543940 -0.170330 -1.202160 -0.161088 0.388818
    39 0.024032 -1.140761 -0.005631 -0.986046 0.010594 0.051247
    40 0.014898 -0.903521 -0.015942 -1.028794 0.009660 0.051438
    41 -0.586770 -1.264477 0.200161 0.221924 -1.275430 -2.979233
    42 1.569711 0.035243 0.016848 -0.019647 -0.007097 0.922310
    43 1.114041 0.040611 -0.005766 -0.028766 -0.034359 1.035400
    44 -0.045646 -0.072634 0.010491 0.230636 0.395471 1.618939
    45 -8.010859 2.655395 -0.454283 1.571780 -0.033007 -0.402454
  time 19
    0 4.611821 -5.073668 -4.446222 -1.562911 -3.103097 1.497197
    1 5.535558 -1.455844 -0.000001 0.000000 0.000000 -1.364276
    2 6.967555 -0.456137 0.775243 1.570767 -1.566682 1.570854
    3 0.594653 3.125398 -0.000001 0.000000 0.000000 0.000000
    4 0.793143 -0.098690 0.439540 -1.570775 1.559439 1.570817
    5 0.793143 -0.098690 -0.474551 1.570775 1.582159 1.570775
    6 -0.205318 -0.032883 -0.000050 -1.570797 0.000000 0.000000
    7 -0.002752 -2.016952 -0.003287 0.000000 0.000000 0.000000
    8 6.208446 6.228082 -8.885972 5.009260 -1.421107 1.245631
    9 8.073794 1.024067 -0.372470 1.568903 -3.117093 0.203586
    10 -0.107078 -8.412796 -0.162730 -0.171158 -0.007084 -0.152001
    11 -0.488518 -2.755602 -0.228260 -0.636514 -0.072434 -0.337320
    12 0.047700 -1.530573 0.014229 -1.481141 -0.125802 0.203368
    13 0.028786 -1.126514 -0.105143 -0.742955 -0.013303 0.014298
    14 0.250027 -2.820665 -0.238396 -0.418648 -0.123606 -0.157124
    15 -0.057572 -1.598510 0.030164 -1.580137 -0.056699 0.100860
    16 -0.034142 -1.160031 0.053531 -0.902405 0.008281 -0.023154
    17 0.957766 -2.746780 -0.090302 -0.138913 -0.159269 0.186081
    18 -0.033420 -1.393223 -0.022976 -0.746922 0.007634 -0.036734
    19 -0.022360 -0.961342 -0.004654 -0.883172 0.005525 -0.043001
    20 -1.180681 -2.507217 -0.193859 -0.314555 -0.083781 -0.213847
    21 -0.024967 -1.127840 0.017597 -1.431112 0.098765 0.048910
    22 -0.020057 -0.902687 0.025715 -0.805420 0.007514 -0.032334
    23 0.583510 -1.208996 0.197098 -0.016291 -1.086293 -0.690834
    24 1.481238 -0.200698 -0.049680 0.017733 0.168348 -0.720722
    25 0.987486 -0.214230 -0.006773 -0.101489 -0.020928 -1.227553
    26 0.120153 -0.050270 -0.054489 0.287569 3.110905 1.561085
    27 -0.755159 -5.891436 -13.439193 -1.741305 -5.426868 -1.242261
    28 0.124289 -8.426980 -0.048429 0.404156 -0.001102 0.424790
    29 0.447953 -2.798986 -0.200443 -1.083108 -0.024750 0.321985
    30 -0.032909 -1.499736 0.028378 -1.405033 0.023334 -0.026879
    31 -0.027022 -1.115984 -0.028023 -0.967278 0.021752 -0.015208
    32 -0.249534 -2.846964 -0.174213 -0.927167 -0.009008 0.151859
    33 0.043235 -1.656596 0.072574 -1.315085 -0.020930 0.005777
    34 0.031729 -1.137392 0.051025 -1.375111 -0.015333 0.007761
    35 -0.963866 -2.785145 -0.085350 -0.990983 0.136737 -0.225412
    36 0.028479 -1.403067 -0.017167 -0.965960 -0.135474 0.127432
    37 0.021413 -0.942156 0.012233 -0.964436 -0.025335 -0.033641
    38 1.164475 -2.543940 -0.170330 -1.202160 -0.161088 0.388818
    39 0.024032 -1.140761 -0.005631 -0.986046 0.010594 0.051247
    40 0.014898 -0.903521 -0.015942 -1.028794 0.009660 0.051438
    41 -0.586770 -1.264477 0.200161 0.221924 -1.275430 -2.979233
    42 1.569711 0.035243 0.016848 -0.019647 -0.007097 0.922310
    43 1.114041 0.040611 -0.005766 -0.028766 -0.034359 1.035400
    44 -0.045646 -0.072634 0.010491 0.230636 0.395471 1.618939
    45 -8.014766 2.635863 -0.454283 1.571732 -0.033043 -0.400102
  time 20
    0 4.607915 -5.077574 -4.469660 -1.562624 -3.103960 1.497418
    1 5.535558 -1.455844 -0.000001 0.000000 0.000000 -1.364276
    2 6.967555 -0.456137 0.775243 1.570767 -1.566682 1.570854
    3 0.594653 3.125398 -0.000001 0.000000 0.000000 0.000000
    4 0.793143 -0.098690 0.439540 -1.570775 1.559439 1.570817
    5 0.793143 -0.098690 -0.474551 1.570775 1.582159 1.570775
    6 -0.205318 -0.032883 -0.000050 -1.570797 0.000000 0.000000
    7 -0.002752 -2.016952 -0.003287 0.000000 0.000000 0.000000
    8 6.212353 6.231988 -8.885972 5.014792 -1.423864 1.240176
    9 8.073794 1.039693 -0.372470 1.568903 -3.117093 0.205671
    10 -0.110985 -8.412796 -0.162730 -0.170998 -0.007366 -0.150028
    11 -0.488518 -2.755602 -0.228260 -0.636514 -0.072434 -0.337320
    12 0.047700 -1.530573 0.014229 -1.481141 -0.125802 0.203368
    13 0.028786 -1.126514 -0.105143 -0.742955 -0.013303 0.014298
    14 0.250027 -2.820665 -0.238396 -0.418648 -0.123606 -0.157124
    15 -0.057572 -1.598510 0.030164 -1.580137 -0.056699 0.100860
    16 -0.034142 -1.160031 0.053531 -0.902405 0.008281 -0.023154
    17 0.957766 -2.746780 -0.090302 -0.138913 -0.159269 0.186081
    18 -0.033420 -1.393223 -0.022976 -0.746922 0.007634 -0.036734
    19 -0.022360 -0.961342 -0.004654 -0.883172 0.005525 -0.043001
    20 -1.180681 -2.507217 -0.193859 -0.314555 -0.083781 -0.213847
    21 -0.024967 -1.127840 0.017597 -1.431112 0.098765 0.048910
    22 -0.020057 -0.902687 0.025715 -0.805420 0.007514 -0.032334
    23 0.583510 -1.208996 0.197098 -0.016291 -1.086293 -0.690834
    24 1.481238 -0.200698 -0.049680 0.017733 0.168348 -0.720722
    25 0.987486 -0.214230 -0.006773 -0.101489 -0.020928 -1.227553
    26 0.120153 -0.050270 -0.054489 0.287569 3.110905 1.561085
    27 -0.762971 -5.879717 -13.458725 -1.742002 -5.424295 -1.242642
    28 0.124289 -8.426980 -0.048429 0.404559 -0.001827 0.422798
    29 0.447953 -2.798986 -0.200443 -1.083108 -0.024750 0.321985
    30 -0.032909 -1.499736 0.028378 -1.405033 0.023334 -0.026879
    31 -0.027022 -1.115984 -0.028023 -0.967278 0.021752 -0.015208
    32 -0.249534 -2.846964 -0.174213 -0.927167 -0.009008 0.151859
    33 0.043235 -1.656596 0.072574 -1.315085 -0.020930 0.005777
    34 0.031729 -1.137392 0.051025 -1.375111 -0.015333 0.007761
    35 -0.963866 -2.785145 -0.085350 -0.990983 0.136737 -0.225412
    36 0.028479 -1.403067 -0.017167 -0.965960 -0.135474 0.127432
    37 0.021413 -0.942156 0.012233 -0.964436 -0.025335 -0.033641
    38 1.164475 -2.543940 -0.170330 -1.202160 -0.161088 0.388818
    39 0.024032 -1.140761 -0.005631 -0.986046 0.010594 0.051247
    40 0.014898 -0.903521 -0.015942 -1.028794 0.009660 0.051438
    41 -0.586770 -1.264477 0.200161 0.221924 -1.275430 -2.979233
    42 1.569711 0.035243 0.016848 -0.019647 -0.007097 0.922310
    43 1.114041 0.040611 -0.005766 -0.028766 -0.034359 1.035400
    44 -0.045646 -0.072634 0.010491 0.230636 0.395471 1.618939
    45 -8.018672 2.624144 -0.454283 1.571708 -0.033067 -0.398690
  time 21
    0 4.607915 -5.073668 -4.477473 -1.562624 -3.102810 1.497197
    1 5.535558 -1.455844 -0.000001 0.000000 0.000000 -1.364276
    2 6.967555 -0.456137 0.775243 1.570767 -1.566682 1.570854
    3 0.594653 3.125398 -0.000001 0.000000 0.000000 0.000000
    4 0.793143 -0.098690 0.439540 -1.570775 1.559439 1.570817
    5 0.793143 -0.098690 -0.474551 1.570775 1.582159 1.570775
    6 -0.205318 -0.032883 -0.000050 -1.570797 0.000000 0.000000
    7 -0.002752 -2.016952 -0.003287 0.000000 0.000000 0.000000
    8 6.212353 6.235894 -8.889878 5.017177 -1.425054 1.237783
    9 8.073794 1.047505 -0.372470 1.568807 -3.117188 0.206583
    10 -0.110985 -8.412796 -0.162730 -0.171294 -0.007272 -0.147616
    11 -0.488518 -2.755602 -0.228260 -0.636514 -0.072434 -0.337320
    12 0.047700 -1.530573 0.014229 -1.481141 -0.125802 0.203368
    13 0.028786 -1.126514 -0.105143 -0.742955 -0.013303 0.014298
    14 0.250027 -2.820665 -0.238396 -0.418648 -0.123606 -0.157124
    15 -0.057572 -1.598510 0.030164 -1.580137 -0.056699 0.100860
    16 -0.034142 -1.160031 0.053531 -0.902405 0.008281 -0.023154
    17 0.957766 -2.746780 -0.090302 -0.138913 -0.159269 0.186081
    18 -0.033420 -1.393223 -0.022976 -0.746922 0.007634 -0.036734
    19 -0.022360 -0.961342 -0.004654 -0.883172 0.005525 -0.043001
    20 -1.180681 -2.507217 -0.193859 -0.314555 -0.083781 -0.213847
    21 -0.024967 -1.127840 0.017597 -1.431112 0.098765 0.048910
    22 -0.020057 -0.902687 0.025715 -0.805420 0.007514 -0.032334
    23 0.583510 -1.208996 0.197098 -0.016291 -1.086293 -0.690834
    24 1.481238 -0.200698 -0.049680 0.017733 0.168348 -0.720722
    25 0.987486 -0.214230 -0.006773 -0.101489 -0.020928 -1.227553
    26 0.120153 -0.050270 -0.054489 0.287569 3.110905 1.561085
    27 -0.762971 -5.879717 -13.458725 -1.741924 -5.424486 -1.242642
    28 0.124289 -8.426980 -0.048429 0.404559 -0.001102 0.421984
    29 0.447953 -2.798986 -0.200443 -1.083108 -0.024750 0.321985
    30 -0.032909 -1.499736 0.028378 -1.405033 0.023334 -0.026879
    31 -0.027022 -1.115984 -0.028023 -0.967278 0.021752 -0.015208
    32 -0.249534 -2.846964 -0.174213 -0.927167 -0.009008 0.151859
    33 0.043235 -1.656596 0.072574 -1.315085 -0.020930 0.005777
    34 0.031729 -1.137392 0.051025 -1.375111 -0.015333 0.007761
    35 -0.963866 -2.785145 -0.085350 -0.990983 0.136737 -0.225412
    36 0.028479 -1.403067 -0.017167 -0.965960 -0.135474 0.127432
    37 0.021413 -0.942156 0.012233 -0.964436 -0.025335 -0.033641
    38 1.164475 -2.543940 -0.170330 -1.202160 -0.161088 0.388818
    39 0.024032 -1.140761 -0.005631 -0.986046 0.010594 0.051247
    40 0.014898 -0.903521 -0.015942 -1.028794 0.009660 0.051438
    41 -0.586770 -1.264477 0.200161 0.221924 -1.275430 -2.979233
    42 1.569711 0.035243 0.016848 -0.019647 -0.007097 0.922310
    43 1.114041 0.040611 -0.005766 -0.028766 -0.034359 1.035400
    44 -0.045646 -0.072634 0.010491 0.230636 0.395471 1.618939
    45 -8.018672 2.624144 -0.454283 1.571696 -0.033079 -0.398376
  time 22
    0 4.611821 -5.065855 -4.477473 -1.562911 -3.100127 1.496699
    1 5.535558 -1.455844 -0.000001 0.000000 0.000000 -1.364276
    2 6.967555 -0.456137 0.775243 1.570767 -1.566682 1.570854
    3 0.594653 3.125398 -0.000001 0.000000 0.000000 0.000000
    4 0.793143 -0.098690 0.439540 -1.570775 1.559439 1.570817
    5 0.793143 -0.098690 -0.474551 1.570775 1.582159 1.570775
    6 -0.205318 -0.032883 -0.000050 -1.570797 0.000000 0.000000
    7 -0.002752 -2.016952 -0.003287 0.000000 0.000000 0.000000
    8 6.212353 6.235894 -8.889878 5.017463 -1.425180 1.237496
    9 8.073794 1.047505 -0.372470 1.568807 -3.117188 0.206714
    10 -0.110985 -8.412796 -0.162730 -0.171977 -0.006896 -0.144802
    11 -0.488518 -2.755602 -0.228260 -0.636514 -0.072434 -0.337320
    12 0.047700 -1.530573 0.014229 -1.481141 -0.125802 0.203368
    13 0.028786 -1.126514 -0.105143 -0.742955 -0.013303 0.014298
    14 0.250027 -2.820665 -0.238396 -0.418648 -0.123606 -0.157124
    15 -0.057572 -1.598510 0.030164 -1.580137 -0.056699 0.100860
    16 -0.034142 -1.160031 0.053531 -0.902405 0.008281 -0.023154
    17 0.957766 -2.746780 -0.090302 -0.138913 -0.159269 0.186081
    18 -0.033420 -1.393223 -0.022976 -0.746922 0.007634 -0.036734
    19 -0.022360 -0.961342 -0.004654 -0.883172 0.005525 -0.043001
    20 -1.180681 -2.507217 -0.193859 -0.314555 -0.083781 -0.213847
    21 -0.024967 -1.127840 0.017597 -1.431112 0.098765 0.048910
    22 -0.020057 -0.902687 0.025715 -0.805420 0.007514 -0.032334
    23 0.583510 -1.208996 0.197098 -0.016291 -1.086293 -0.690834
    24 1.481238 -0.200698 -0.049680 0.017733 0.168348 -0.720722
    25 0.987486 -0.214230 -0.006773 -0.101489 -0.020928 -1.227553
    26 0.120153 -0.050270 -0.054489 0.287569 3.110905 1.561085
    27 -0.762971 -5.887530 -13.447006 -1.741382 -5.426487 -1.242547
    28 0.124289 -8.426980 -0.048429 0.404282 0.000599 0.421848
    29 0.447953 -2.798986 -0.200443 -1.083108 -0.024750 0.321985
    30 -0.032909 -1.499736 0.028378 -1.405033 0.023334 -0.026879
    31 -0.027022 -1.115984 -0.028023 -0.967278 0.021752 -0.015208
    32 -0.249534 -2.846964 -0.174213 -0.927167 -0.009008 0.151859
    33 0.043235 -1.656596 0.072574 -1.315085 -0.020930 0.005777
    34 0.031729 -1.137392 0.051025 -1.375111 -0.015333 0.007761
    35 -0.963866 -2.785145 -0.085350 -0.990983 0.136737 -0.225412
    36 0.028479 -1.403067 -0.017167 -0.965960 -0.135474 0.127432
    37 0.021413 -0.942156 0.012233 -0.964436 -0.025335 -0.033641
    38 1.164475 -2.543940 -0.170330 -1.202160 -0.161088 0.388818
    39 0.024032 -1.140761 -0.005631 -0.986046 0.010594 0.051247
    40 0.014898 -0.903521 -0.015942 -1.028794 0.009660 0.051438
    41 -0.586770 -1.264477 0.200161 0.221924 -1.275430 -2.979233
    42 1.569711 0.035243 0.016848 -0.019647 -0.007097 0.922310
    43 1.114041 0.040611 -0.005766 -0.028766 -0.034359 1.035400
    44 -0.045646 -0.072634 0.010491 0.230636 0.395471 1.618939
    45 -8.018672 2.624144 -0.454283 1.571708 -0.033067 -0.398768
  time 23
    0 4.611821 -5.050230 -4.469660 -1.563294 -3.096581 1.495980
    1 5.535558 -1.455844 -0.000001 0.000000 0.000000 -1.364276
    2 6.967555 -0.456137 0.775243 1.570767 -1.566682 1.570854
    3 0.594653 3.125398 -0.000001 0.000000 0.000000 0.000000
    4 0.793143 -0.098690 0.439540 -1.570775 1.559439 1.570817
    5 0.793143 -0.098690 -0.474551 1.570775 1.582159 1.570775
    6 -0.205318 -0.032883 -0.000050 -1.570797 0.000000 0.000000
    7 -0.002752 -2.016952 -0.003287 0.000000 0.000000 0.000000
    8 6.212353 6.235894 -8.889878 5.016605 -1.424741 1.238357
    9 8.073794 1.047505 -0.372470 1.568807 -3.117188 0.206323
    10 -0.110985 -8.416703 -0.162730 -0.172819 -0.006347 -0.141769
    11 -0.488518 -2.755602 -0.228260 -0.636514 -0.072434 -0.337320
    12 0.047700 -1.530573 0.014229 -1.481141 -0.125802 0.203368
    13 0.028786 -1.126514 -0.105143 -0.742955 -0.013303 0.014298
    14 0.250027 -2.820665 -0.238396 -0.418648 -0.123606 -0.157124
    15 -0.057572 -1.598510 0.030164 -1.580137 -0.056699 0.100860
    16 -0.034142 -1.160031 0.053531 -0.902405 0.008281 -0.023154
    17 0.957766 -2.746780 -0.090302 -0.138913 -0.159269 0.186081
    18 -0.033420 -1.393223 -0.022976 -0.746922 0.007634 -0.036734
    19 -0.022360 -0.961342 -0.004654 -0.883172 0.005525 -0.043001
    20 -1.180681 -2.507217 -0.193859 -0.314555 -0.083781 -0.213847
    21 -0.024967 -1.127840 0.017597 -1.431112 0.098765 0.048910
    22 -0.020057 -0.902687 0.025715 -0.805420 0.007514 -0.032334
    23 0.583510 -1.208996 0.197098 -0.016291 -1.086293 -0.690834
    24 1.481238 -0.200698 -0.049680 0.017733 0.168348 -0.720722
    25 0.987486 -0.214230 -0.006773 -0.101489 -0.020928 -1.227553
    26 0.120153 -0.050270 -0.054489 0.287569 3.110905 1.561085
    27 -0.755159 -5.899249 -13.427474 -1.740453 -5.429537 -1.242261
    28 0.124289 -8.426980 -0.052335 0.403880 0.002913 0.422119
    29 0.447953 -2.798986 -0.200443 -1.083108 -0.024750 0.321985
    30 -0.032909 -1.499736 0.028378 -1.405033 0.023334 -0.026879
    31 -0.027022 -1.115984 -0.028023 -0.967278 0.021752 -0.015208
    32 -0.249534 -2.846964 -0.174213 -0.927167 -0.009008 0.151859
    33 0.043235 -1.656596 0.072574 -1.315085 -0.020930 0.005777
    34 0.031729 -1.137392 0.051025 -1.375111 -0.015333 0.007761
    35 -0.963866 -2.785145 -0.085350 -0.990983 0.136737 -0.225412
    36 0.028479 -1.403067 -0.017167 -0.965960 -0.135474 0.127432
    37 0.021413 -0.942156 0.012233 -0.964436 -0.025335 -0.033641
    38 1.164475 -2.543940 -0.170330 -1.202160 -0.161088 0.388818
    39 0.024032 -1.140761 -0.005631 -0.986046 0.010594 0.051247
    40 0.014898 -0.903521 -0.015942 -1.028794 0.009660 0.051438
    41 -0.586770 -1.264477 0.200161 0.221924 -1.275430 -2.979233
    42 1.569711 0.035243 0.016848 -0.019647 -0.007097 0.922310
    43 1.114041 0.040611 -0.005766 -0.028766 -0.034359 1.035400
    44 -0.045646 -0.072634 0.010491 0.230636 0.395471 1.618939
    45 -8.014766 2.631956 -0.454283 1.571720 -0.033055 -0.399553
  time 24
    0 4.611821 -5.038511 -4.457941 -1.563774 -3.092747 1.495205
    1 5.535558 -1.455844 -0.000001 0.000000 0.000000 -1.364276
    2 6.967555 -0.456137 0.775243 1.570767 -1.566682 1.570854
    3 0.594653 3.125398 -0.000001 0.000000 0.000000 0.000000
    4 0.793143 -0.098690 0.439540 -1.570775 1.559439 1.570817
    5 0.793143 -0.098690 -0.474551 1.570775 1.582159 1.570775
    6 -0.205318 -0.032883 -0.000050 -1.570797 0.000000 0.000000
    7 -0.002752 -2.016952 -0.003287 0.000000 0.000000 0.000000
    8 6.212353 6.231988 -8.885972 5.015365 -1.424177 1.239602
    9 8.073794 1.043599 -0.372470 1.568807 -3.117188 0.205932
    10 -0.110985 -8.416703 -0.162730 -0.173729 -0.005767 -0.138662
    11 -0.488518 -2.755602 -0.228260 -0.636514 -0.072434 -0.337320
    12 0.047700 -1.530573 0.014229 -1.481141 -0.125802 0.203368
    13 0.028786 -1.126514 -0.105143 -0.742955 -0.013303 0.014298
    14 0.250027 -2.820665 -0.238396 -0.418648 -0.123606 -0.157124
    15 -0.057572 -1.598510 0.030164 -1.580137 -0.056699 0.100860
    16 -0.034142 -1.160031 0.053531 -0.902405 0.008281 -0.023154
    17 0.957766 -2.746780 -0.090302 -0.138913 -0.159269 0.186081
    18 -0.033420 -1.393223 -0.022976 -0.746922 0.007634 -0.036734
    19 -0.022360 -0.961342 -0.004654 -0.883172 0.005525 -0.043001
    20 -1.180681 -2.507217 -0.193859 -0.314555 -0.083781 -0.213847
    21 -0.024967 -1.127840 0.017597 -1.431112 0.098765 0.048910
    22 -0.020057 -0.902687 0.025715 -0.805420 0.007514 -0.032334
    23 0.583510 -1.208996 0.197098 -0.016291 -1.086293 -0.690834
    24 1.481238 -0.200698 -0.049680 0.017733 0.168348 -0.720722
    25 0.987486 -0.214230 -0.006773 -0.101489 -0.020928 -1.227553
    26 0.120153 -0.050270 -0.054489 0.287569 3.110905 1.561085
    27 -0.751252 -5.910968 -13.407942 -1.739523 -5.432873 -1.242071
    28 0.124289 -8.426980 -0.052335 0.403402 0.005367 0.422527
    29 0.447953 -2.798986 -0.200443 -1.083108 -0.024750 0.321985
    30 -0.032909 -1.499736 0.028378 -1.405033 0.023334 -0.026879
    31 -0.027022 -1.115984 -0.028023 -0.967278 0.021752 -0.015208
    32 -0.249534 -2.846964 -0.174213 -0.927167 -0.009008 0.151859
    33 0.043235 -1.656596 0.072574 -1.315085 -0.020930 0.005777
    34 0.031729 -1.137392 0.051025 -1.375111 -0.015333 0.007761
    35 -0.963866 -2.785145 -0.085350 -0.990983 0.136737 -0.225412
    36 0.028479 -1.403067 -0.017167 -0.965960 -0.135474 0.127432
    37 0.021413 -0.942156 0.012233 -0.964436 -0.025335 -0.033641
    38 1.164475 -2.543940 -0.170330 -1.202160 -0.161088 0.388818
    39 0.024032 -1.140761 -0.005631 -0.986046 0.010594 0.051247
    40 0.014898 -0.903521 -0.015942 -1.028794 0.009660 0.051438
    41 -0.586770 -1.264477 0.200161 0.221924 -1.275430 -2.979233
    42 1.569711 0.035243 0.016848 -0.019647 -0.007097 0.922310
    43 1.114041 0.040611 -0.005766 -0.028766 -0.034359 1.035400
    44 -0.045646 -0.072634 0.010491 0.230636 0.395471 1.618939
    45 -8.014766 2.639769 -0.454283 1.571744 -0.033043 -0.400415
  time 25
    0 4.615728 -5.026792 -4.454035 -1.564061 -3.089489 1.494542
    1 5.535558 -1.455844 -0.000001 0.000000 0.000000 -1.364276
    2 6.967555 -0.456137 0.775243 1.570767 -1.566682 1.570854
    3 0.594653 3.125398 -0.000001 0.000000 0.000000 0.000000
    4 0.793143 -0.098690 0.439540 -1.570775 1.559439 1.570817
    5 0.793143 -0.098690 -0.474551 1.570775 1.582159 1.570775
    6 -0.205318 -0.032883 -0.000050 -1.570797 0.000000 0.000000
    7 -0.002752 -2.016952 -0.003287 0.000000 0.000000 0.000000
    8 6.212353 6.231988 -8.885972 5.014792 -1.423864 1.240176
    9 8.073794 1.039693 -0.372470 1.568903 -3.117093 0.205671
    10 -0.110985 -8.416703 -0.162730 -0.174548 -0.005265 -0.135666
    11 -0.488518 -2.755602 -0.228260 -0.636514 -0.072434 -0.337320
    12 0.047700 -1.530573 0.014229 -1.481141 -0.125802 0.203368
    13 0.028786 -1.126514 -0.105143 -0.742955 -0.013303 0.014298
    14 0.250027 -2.820665 -0.238396 -0.418648 -0.123606 -0.157124
    15 -0.057572 -1.598510 0.030164 -1.580137 -0.056699 0.100860
    16 -0.034142 -1.160031 0.053531 -0.902405 0.008281 -0.023154
    17 0.957766 -2.746780 -0.090302 -0.138913 -0.159269 0.186081
    18 -0.033420 -1.393223 -0.022976 -0.746922 0.007634 -0.036734
    19 -0.022360 -0.961342 -0.004654 -0.883172 0.005525 -0.043001
    20 -1.180681 -2.507217 -0.193859 -0.314555 -0.083781 -0.213847
    21 -0.024967 -1.127840 0.017597 -1.431112 0.098765 0.048910
    22 -0.020057 -0.902687 0.025715 -0.805420 0.007514 -0.032334
    23 0.583510 -1.208996 0.197098 -0.016291 -1.086293 -0.690834
    24 1.481238 -0.200698 -0.049680 0.017733 0.168348 -0.720722
    25 0.987486 -0.214230 -0.006773 -0.101489 -0.020928 -1.227553
    26 0.120153 -0.050270 -0.054489 0.287569 3.110905 1.561085
    27 -0.747346 -5.922687 -13.388411 -1.738671 -5.435637 -1.241880
    28 0.124289 -8.426980 -0.052335 0.403024 0.007514 0.422708
    29 0.447953 -2.798986 -0.200443 -1.083108 -0.024750 0.321985
    30 -0.032909 -1.499736 0.028378 -1.405033 0.023334 -0.026879
    31 -0.027022 -1.115984 -0.028023 -0.967278 0.021752 -0.015208
    32 -0.249534 -2.846964 -0.174213 -0.927167 -0.009008 0.151859
    33 0.043235 -1.656596 0.072574 -1.315085 -0.020930 0.005777
    34 0.031729 -1.137392 0.051025 -1.375111 -0.015333 0.007761
    35 -0.963866 -2.785145 -0.085350 -0.990983 0.136737 -0.225412
    36 0.028479 -1.403067 -0.017167 -0.965960 -0.135474 0.127432
    37 0.021413 -0.942156 0.012233 -0.964436 -0.025335 -0.033641
    38 1.164475 -2.543940 -0.170330 -1.202160 -0.161088 0.388818
    39 0.024032 -1.140761 -0.005631 -0.986046 0.010594 0.051247
    40 0.014898 -0.903521 -0.015942 -1.028794 0.009660 0.051438
    41 -0.586770 -1.264477 0.200161 0.221924 -1.275430 -2.979233
    42 1.569711 0.035243 0.016848 -0.019647 -0.007097 0.922310
    43 1.114041 0.040611 -0.005766 -0.028766 -0.034359 1.035400
    44 -0.045646 -0.072634 0.010491 0.230636 0.395471 1.618939
    45 -8.014766 2.643676 -0.454283 1.571756 -0.033031 -0.401121
end
