version 1
nodes
  0 "argus5_root" -1
  1 "argus5_magazine" 0
  2 "argus5_lever" 0
  3 "argus5_scope_bone" 0
  4 "scope_R" 3
  5 "scope_L" 3
  6 "EF" 3
  7 "root" -1
  8 "Bone01" 7
  9 "Bone_L_Upper" 8
  10 "Bone_Lefthand" 8
  11 "Bone13" 10
  12 "Bone14" 11
  13 "Bone15" 12
  14 "Bone17" 10
  15 "Bone18" 14
  16 "Bone19" 15
  17 "Bone21" 10
  18 "Bone22" 17
  19 "Bone23" 18
  20 "Bone09" 10
  21 "Bone10" 20
  22 "Bone11" 21
  23 "Bone05" 10
  24 "Bone06" 23
  25 "Bone07" 24
  26 "Bone_Se_Hand-L" 10
  27 "Bone04" 7
  28 "Bone_Righthand" 27
  29 "Bone39" 28
  30 "Bone40" 29
  31 "Bone41" 30
  32 "Bone35" 28
  33 "Bone36" 32
  34 "Bone37" 33
  35 "Bone31" 28
  36 "Bone32" 35
  37 "Bone33" 36
  38 "Bone43" 28
  39 "Bone44" 38
  40 "Bone45" 39
  41 "Bone27" 28
  42 "Bone28" 41
  43 "Bone29" 42
  44 "Bone_Se_Hand-R" 28
  45 "Bone_R_Upper" 27
end
skeleton
  time 0
    0 4.615728 -5.026792 -4.454035 -1.564061 -3.089489 1.494542
    1 5.535558 -1.455844 -0.000001 0.000000 0.000000 -1.364276
    2 6.967555 -0.456137 0.775243 1.570767 -1.566682 1.570854
    3 0.594653 3.125398 -0.000001 0.000000 0.000000 0.000000
    4 0.793143 -0.098690 0.443446 -1.570775 1.559439 1.570817
    5 0.793143 -0.098690 -0.478457 1.570775 1.582159 1.570775
    6 -0.205318 -0.032883 -0.000050 -1.570797 0.000000 0.000000
    7 -0.002752 -2.016952 -0.003287 0.000000 0.000000 0.000000
    8 6.212353 6.231988 -8.885972 5.014792 -1.423864 1.240176
    9 8.073794 1.039693 -0.372470 1.568903 -3.117093 0.205671
    10 -0.110985 -8.416703 -0.162730 -0.174548 -0.005265 -0.135666
    11 -0.488518 -2.755602 -0.228260 -0.636514 -0.072434 -0.337320
    12 0.047700 -1.530573 0.014229 -1.481141 -0.125802 0.203368
    13 0.028786 -1.126514 -0.105143 -0.742955 -0.013303 0.014298
    14 0.250027 -2.820665 -0.238396 -0.418648 -0.123606 -0.157124
    15 -0.057572 -1.598510 0.030164 -1.580137 -0.056699 0.100860
    16 -0.034142 -1.160031 0.053531 -0.902405 0.008281 -0.023154
    17 0.957766 -2.746780 -0.090302 -0.138913 -0.159269 0.186081
    18 -0.033420 -1.393223 -0.022976 -0.746922 0.007634 -0.036734
    19 -0.022360 -0.961342 -0.004654 -0.883172 0.005525 -0.043001
    20 -1.180681 -2.507217 -0.193859 -0.314555 -0.083781 -0.213847
    21 -0.024967 -1.127840 0.017597 -1.431112 0.098765 0.048910
    22 -0.020057 -0.902687 0.025715 -0.805420 0.007514 -0.032334
    23 0.583510 -1.208996 0.197098 -0.016291 -1.086293 -0.690834
    24 1.481238 -0.200698 -0.049680 0.017733 0.168348 -0.720722
    25 0.987486 -0.214230 -0.006773 -0.101489 -0.020928 -1.227553
    26 0.120153 -0.050270 -0.054489 0.287569 3.110905 1.561085
    27 -0.747346 -5.922687 -13.388411 -1.738826 -5.435732 -1.241976
    28 0.124289 -8.426980 -0.052335 0.403024 0.007430 0.422708
    29 0.447953 -2.798986 -0.200443 -1.083108 -0.024750 0.321985
    30 -0.032909 -1.499736 0.028378 -1.405033 0.023334 -0.026879
    31 -0.027022 -1.115984 -0.028023 -0.967278 0.021752 -0.015208
    32 -0.249534 -2.846964 -0.174213 -0.927167 -0.009008 0.151859
    33 0.043235 -1.656596 0.072574 -1.315085 -0.020930 0.005777
    34 0.031729 -1.137392 0.051025 -1.375111 -0.015333 0.007761
    35 -0.963866 -2.785145 -0.085350 -0.990983 0.136737 -0.225412
    36 0.028479 -1.403067 -0.017167 -0.965960 -0.135474 0.127432
    37 0.021413 -0.942156 0.012233 -0.964436 -0.025335 -0.033641
    38 1.164475 -2.543940 -0.170330 -1.202160 -0.161088 0.388818
    39 0.024032 -1.140761 -0.005631 -0.986046 0.010594 0.051247
    40 0.014898 -0.903521 -0.015942 -1.028794 0.009660 0.051438
    41 -0.586770 -1.264477 0.200161 0.221924 -1.275430 -2.979233
    42 1.569711 0.035243 0.016848 -0.019647 -0.007097 0.922310
    43 1.114041 0.040611 -0.005766 -0.028766 -0.034359 1.035400
    44 -0.045646 -0.072634 0.010491 0.230636 0.395471 1.618939
    45 -8.014766 2.643676 -0.454283 1.571756 -0.033031 -0.401121
  time 1
    0 4.611821 -5.409616 -4.348563 -1.564924 -3.104343 1.494376
    1 5.535558 -1.455844 -0.000001 0.000000 0.000000 -1.364276
    2 4.479198 -0.456137 0.775243 1.570767 -1.566682 1.570854
    3 0.594653 3.125398 -0.000001 0.000000 0.000000 0.000000
    4 0.793143 -0.098690 0.443446 -1.570775 1.559439 1.570817
    5 0.793143 -0.098690 -0.478457 1.570775 1.582159 1.570775
    6 -0.205318 -0.032883 -0.000050 -1.570797 0.000000 0.000000
    7 -0.002752 -2.016952 -0.003287 0.000000 0.000000 0.000000
    8 6.208446 5.892134 -8.823470 5.001724 -1.417598 1.253383
    9 8.046450 1.481112 -0.364657 1.568232 -3.118143 0.259955
    10 -0.107078 -8.412796 -0.162730 -0.174184 -0.004983 -0.157227
    11 -0.488518 -2.755602 -0.228260 -0.636514 -0.072434 -0.337320
    12 0.047700 -1.530573 0.014229 -1.481141 -0.125802 0.203368
    13 0.028786 -1.126514 -0.105143 -0.742955 -0.013303 0.014298
    14 0.250027 -2.820665 -0.238396 -0.418648 -0.123606 -0.157124
    15 -0.057572 -1.598510 0.030164 -1.580137 -0.056699 0.100860
    16 -0.034142 -1.160031 0.053531 -0.902405 0.008281 -0.023154
    17 0.957766 -2.746780 -0.090302 -0.138913 -0.159269 0.186081
    18 -0.033420 -1.393223 -0.022976 -0.746922 0.007634 -0.036734
    19 -0.022360 -0.965249 -0.008561 -1.192548 0.000036 0.011673
    20 -1.180681 -2.507217 -0.193859 -0.314555 -0.083781 -0.213847
    21 -0.024967 -1.127840 0.017597 -1.431112 0.098765 0.048910
    22 -0.020057 -0.902687 0.025715 -0.805420 0.007514 -0.032334
    23 0.583510 -1.208996 0.197098 -0.016291 -1.086293 -0.690834
    24 1.481238 -0.200698 -0.049680 0.017733 0.168348 -0.720722
    25 0.987486 -0.214230 -0.006773 -0.101489 -0.020928 -1.227553
    26 0.120153 -0.050270 -0.054489 0.287569 3.110905 1.561085
    27 -0.747346 -6.063316 -13.255594 -1.740453 -5.406568 -1.261792
    28 0.124289 -8.426980 -0.052335 0.370019 0.007152 0.393607
    29 0.447953 -2.798986 -0.200443 -1.083108 -0.024750 0.321985
    30 -0.032909 -1.499736 0.028378 -1.405033 0.023334 -0.026879
    31 -0.027022 -1.115984 -0.028023 -0.967278 0.021752 -0.015208
    32 -0.249534 -2.846964 -0.174213 -0.927167 -0.009008 0.151859
    33 0.043235 -1.656596 0.072574 -1.315085 -0.020930 0.005777
    34 0.031729 -1.137392 0.051025 -1.375111 -0.015333 0.007761
    35 -0.963866 -2.785145 -0.085350 -0.990983 0.136737 -0.225412
    36 0.028479 -1.403067 -0.017167 -0.965960 -0.135474 0.127432
    37 0.021413 -0.942156 0.012233 -0.964436 -0.025335 -0.033641
    38 1.164475 -2.543940 -0.170330 -1.202160 -0.161088 0.388818
    39 0.024032 -1.140761 -0.005631 -0.986046 0.010594 0.051247
    40 0.014898 -0.903521 -0.015942 -1.028794 0.009660 0.051438
    41 -0.586770 -1.264477 0.200161 0.221924 -1.275430 -2.979233
    42 1.569711 0.035243 0.016848 -0.019647 -0.007097 0.922310
    43 1.114041 0.040611 -0.005766 -0.028766 -0.034359 1.035400
    44 -0.045646 -0.072634 0.010491 0.230636 0.395471 1.618939
    45 -7.878043 3.139784 -0.446471 1.573026 -0.031952 -0.463544
  time 2
    0 4.611821 -4.655687 -4.176683 -1.566361 -3.121018 1.492938
    1 5.535558 -1.455844 -0.000001 0.000000 0.000000 -1.364276
    2 4.092467 -0.456137 0.775243 1.570767 -1.566682 1.570854
    3 0.594653 3.125398 -0.000001 0.000000 0.000000 0.000000
    4 0.793143 -0.098690 0.443446 -1.570775 1.559439 1.570817
    5 0.793143 -0.098690 -0.478457 1.570775 1.582159 1.570775
    6 -0.205318 -0.032883 -0.000050 -1.570797 0.000000 0.000000
    7 -0.002752 -2.016952 -0.003287 0.000000 0.000000 0.000000
    8 6.208446 6.646063 -8.901597 4.956699 -1.386454 1.297502
    9 8.058169 0.145134 -0.384189 1.570341 -3.115280 0.095734
    10 -0.103172 -8.404984 -0.162730 -0.173183 -0.005077 -0.205941
    11 -0.488518 -2.755602 -0.228260 -0.636514 -0.072434 -0.337320
    12 0.047700 -1.530573 0.014229 -1.481141 -0.125802 0.203368
    13 0.028786 -1.126514 -0.105143 -0.742955 -0.013303 0.014298
    14 0.250027 -2.820665 -0.238396 -0.418648 -0.123606 -0.157124
    15 -0.057572 -1.598510 0.030164 -1.580137 -0.056699 0.100860
    16 -0.034142 -1.160031 0.053531 -0.902405 0.008281 -0.023154
    17 0.957766 -2.746780 -0.090302 -0.138913 -0.159269 0.186081
    18 -0.033420 -1.393223 -0.022976 -0.746922 0.007634 -0.036734
    19 -0.022360 -0.973062 -0.016373 -1.575473 0.035666 0.094510
    20 -1.180681 -2.507217 -0.193859 -0.314555 -0.083781 -0.213847
    21 -0.024967 -1.127840 0.017597 -1.431112 0.098765 0.048910
    22 -0.020057 -0.902687 0.025715 -0.805420 0.007514 -0.032334
    23 0.583510 -1.208996 0.197098 -0.016291 -1.086293 -0.690834
    24 1.481238 -0.200698 -0.049680 0.017733 0.168348 -0.720722
    25 0.987486 -0.214230 -0.006773 -0.101489 -0.020928 -1.227553
    26 0.120153 -0.050270 -0.054489 0.287569 3.110905 1.561085
    27 -0.837192 -5.700024 -13.642325 -1.736502 -5.469948 -1.226161
    28 0.120382 -8.415261 -0.052335 0.388283 0.006092 0.466517
    29 0.447953 -2.798986 -0.200443 -1.083108 -0.024750 0.321985
    30 -0.032909 -1.499736 0.028378 -1.405033 0.023334 -0.026879
    31 -0.027022 -1.115984 -0.028023 -0.967278 0.021752 -0.015208
    32 -0.249534 -2.846964 -0.174213 -0.927167 -0.009008 0.151859
    33 0.043235 -1.656596 0.072574 -1.315085 -0.020930 0.005777
    34 0.031729 -1.137392 0.051025 -1.375111 -0.015333 0.007761
    35 -0.963866 -2.785145 -0.085350 -0.990983 0.136737 -0.225412
    36 0.028479 -1.403067 -0.017167 -0.965960 -0.135474 0.127432
    37 0.021413 -0.942156 0.012233 -0.964436 -0.025335 -0.033641
    38 1.164475 -2.543940 -0.170330 -1.202160 -0.161088 0.388818
    39 0.024032 -1.140761 -0.005631 -0.986046 0.010594 0.051247
    40 0.014898 -0.903521 -0.015942 -1.028794 0.009660 0.051438
    41 -0.586770 -1.264477 0.200161 0.221924 -1.275430 -2.979233
    42 1.569711 0.035243 0.016848 -0.019647 -0.007097 0.922310
    43 1.114041 0.040611 -0.005766 -0.028766 -0.034359 1.035400
    44 -0.045646 -0.072634 0.010491 0.230636 0.395471 1.618939
    45 -8.159302 1.866308 -0.462096 1.569670 -0.034541 -0.304899
  time 3
    0 4.588383 -4.296301 -4.356376 -1.553424 -3.075210 1.501621
    1 5.535558 -1.455844 -0.000001 0.000000 0.000000 -1.364276
    2 4.115906 -0.456137 0.775243 1.570767 -1.566682 1.570854
    3 0.594653 3.125398 -0.000001 0.000000 0.000000 0.000000
    4 0.793143 -0.098690 0.443446 -1.570775 1.559439 1.570817
    5 0.793143 -0.098690 -0.478457 1.570775 1.582159 1.570775
    6 -0.205318 -0.032883 -0.000050 -1.570797 0.000000 0.000000
    7 -0.002752 -2.016952 -0.003287 0.000000 0.000000 0.000000
    8 6.216259 6.907790 -8.928942 4.985507 -1.407133 1.268121
    9 8.042543 -0.057997 -0.388095 1.570629 -3.114898 0.070449
    10 -0.110985 -8.416703 -0.166636 -0.165902 -0.015802 -0.137968
    11 -0.488518 -2.755602 -0.228260 -0.636514 -0.072434 -0.337320
    12 0.047700 -1.530573 0.014229 -1.481141 -0.125802 0.203368
    13 0.028786 -1.126514 -0.105143 -0.742955 -0.013303 0.014298
    14 0.250027 -2.820665 -0.238396 -0.418648 -0.123606 -0.157124
    15 -0.057572 -1.598510 0.030164 -1.580137 -0.056699 0.100860
    16 -0.034142 -1.160031 0.053531 -0.902405 0.008281 -0.023154
    17 0.957766 -2.746780 -0.090302 -0.138913 -0.159269 0.186081
    18 -0.033420 -1.393223 -0.022976 -0.746922 0.007634 -0.036734
    19 -0.022360 -0.965249 -0.012467 -1.244071 0.009947 0.032143
    20 -1.180681 -2.507217 -0.193859 -0.314555 -0.083781 -0.213847
    21 -0.024967 -1.127840 0.017597 -1.431112 0.098765 0.048910
    22 -0.020057 -0.902687 0.025715 -0.805420 0.007514 -0.032334
    23 0.583510 -1.208996 0.197098 -0.016291 -1.086293 -0.690834
    24 1.481238 -0.200698 -0.049680 0.017733 0.168348 -0.720722
    25 0.987486 -0.214230 -0.006773 -0.101489 -0.020928 -1.227553
    26 0.120153 -0.050270 -0.054489 0.287569 3.110905 1.561085
    27 -0.735627 -5.696118 -13.568104 -1.739058 -5.493393 -1.204725
    28 0.124289 -8.426980 -0.048429 0.441086 -0.001632 0.449500
    29 0.447953 -2.798986 -0.200443 -1.083108 -0.024750 0.321985
    30 -0.032909 -1.499736 0.028378 -1.405033 0.023334 -0.026879
    31 -0.027022 -1.115984 -0.028023 -0.967278 0.021752 -0.015208
    32 -0.249534 -2.846964 -0.174213 -0.927167 -0.009008 0.151859
    33 0.043235 -1.656596 0.072574 -1.315085 -0.020930 0.005777
    34 0.031729 -1.137392 0.051025 -1.375111 -0.015333 0.007761
    35 -0.963866 -2.785145 -0.085350 -0.990983 0.136737 -0.225412
    36 0.028479 -1.403067 -0.017167 -0.965960 -0.135474 0.127432
    37 0.021413 -0.942156 0.012233 -0.964436 -0.025335 -0.033641
    38 1.164475 -2.543940 -0.170330 -1.202160 -0.161088 0.388818
    39 0.024032 -1.140761 -0.005631 -0.986046 0.010594 0.051247
    40 0.014898 -0.903521 -0.015942 -1.028794 0.009660 0.051438
    41 -0.586770 -1.264477 0.200161 0.221924 -1.275430 -2.979233
    42 1.569711 0.035243 0.016848 -0.019647 -0.007097 0.922310
    43 1.114041 0.040611 -0.005766 -0.028766 -0.034359 1.035400
    44 -0.045646 -0.072634 0.010491 0.230636 0.395471 1.618939
    45 -8.171021 1.792087 -0.462096 1.569467 -0.034673 -0.295802
  time 4
    0 4.580570 -4.339271 -4.457941 -1.548824 -3.061697 1.505216
    1 5.535558 -1.455844 -0.000001 0.000000 0.000000 -1.364276
    2 5.557356 -0.456137 0.775243 1.570767 -1.566682 1.570854
    3 0.594653 3.125398 -0.000001 0.000000 0.000000 0.000000
    4 0.793143 -0.098690 0.443446 -1.570775 1.559439 1.570817
    5 0.793143 -0.098690 -0.478457 1.570775 1.582159 1.570775
    6 -0.205318 -0.032883 -0.000050 -1.570797 0.000000 0.000000
    7 -0.002752 -2.016952 -0.003287 0.000000 0.000000 0.000000
    8 6.216259 6.845288 -8.936754 5.004490 -1.418725 1.249268
    9 8.058169 0.125602 -0.384189 1.570341 -3.115280 0.093127
    10 -0.114891 -8.420609 -0.166636 -0.163172 -0.019675 -0.112204
    11 -0.488518 -2.755602 -0.228260 -0.636514 -0.072434 -0.337320
    12 0.047700 -1.530573 0.014229 -1.481141 -0.125802 0.203368
    13 0.028786 -1.126514 -0.105143 -0.742955 -0.013303 0.014298
    14 0.250027 -2.820665 -0.238396 -0.418648 -0.123606 -0.157124
    15 -0.057572 -1.598510 0.030164 -1.580137 -0.056699 0.100860
    16 -0.034142 -1.160031 0.053531 -0.902405 0.008281 -0.023154
    17 0.957766 -2.746780 -0.090302 -0.138913 -0.159269 0.186081
    18 -0.033420 -1.393223 -0.022976 -0.746922 0.007634 -0.036734
    19 -0.022360 -0.961342 -0.008561 -1.085021 0.004782 -0.000563
    20 -1.180681 -2.507217 -0.193859 -0.314555 -0.083781 -0.213847
    21 -0.024967 -1.127840 0.017597 -1.431112 0.098765 0.048910
    22 -0.020057 -0.902687 0.025715 -0.805420 0.007514 -0.032334
    23 0.583510 -1.208996 0.197098 -0.016291 -1.086293 -0.690834
    24 1.481238 -0.200698 -0.049680 0.017733 0.168348 -0.720722
    25 0.987486 -0.214230 -0.006773 -0.101489 -0.020928 -1.227553
    26 0.120153 -0.050270 -0.054489 0.287569 3.110905 1.561085
    27 -0.696563 -5.742994 -13.505602 -1.740298 -5.486817 -1.205868
    28 0.124289 -8.426980 -0.052335 0.445363 0.002411 0.436240
    29 0.447953 -2.798986 -0.200443 -1.083108 -0.024750 0.321985
    30 -0.032909 -1.499736 0.028378 -1.405033 0.023334 -0.026879
    31 -0.027022 -1.115984 -0.028023 -0.967278 0.021752 -0.015208
    32 -0.249534 -2.846964 -0.174213 -0.927167 -0.009008 0.151859
    33 0.043235 -1.656596 0.072574 -1.315085 -0.020930 0.005777
    34 0.031729 -1.137392 0.051025 -1.375111 -0.015333 0.007761
    35 -0.963866 -2.785145 -0.085350 -0.990983 0.136737 -0.225412
    36 0.028479 -1.403067 -0.017167 -0.965960 -0.135474 0.127432
    37 0.021413 -0.942156 0.012233 -0.964436 -0.025335 -0.033641
    38 1.164475 -2.543940 -0.170330 -1.202160 -0.161088 0.388818
    39 0.024032 -1.140761 -0.005631 -0.986046 0.010594 0.051247
    40 0.014898 -0.903521 -0.015942 -1.028794 0.009660 0.051438
    41 -0.586770 -1.264477 0.200161 0.221924 -1.275430 -2.979233
    42 1.569711 0.035243 0.016848 -0.019647 -0.007097 0.922310
    43 1.114041 0.040611 -0.005766 -0.028766 -0.034359 1.035400
    44 -0.045646 -0.072634 0.010491 0.230636 0.395471 1.618939
    45 -8.143676 1.971780 -0.462096 1.569970 -0.034349 -0.317995
  time 5
    0 4.576664 -4.456462 -4.539975 -1.545853 -3.054605 1.507760
    1 5.535558 -1.455844 -0.000001 0.000000 0.000000 -1.364276
    2 6.967555 -0.456137 0.775243 1.570767 -1.566682 1.570854
    3 0.594653 3.125398 -0.000001 0.000000 0.000000 0.000000
    4 0.793143 -0.098690 0.443446 -1.570775 1.559439 1.570817
    5 0.793143 -0.098690 -0.478457 1.570775 1.582159 1.570775
    6 -0.205318 -0.032883 -0.000050 -1.570797 0.000000 0.000000
    7 -0.002752 -2.016952 -0.003287 0.000000 0.000000 0.000000
    8 6.216259 6.720284 -8.940661 5.022710 -1.428376 1.231371
    9 8.073794 0.379516 -0.380282 1.569862 -3.115757 0.124473
    10 -0.114891 -8.424515 -0.166636 -0.161329 -0.022152 -0.094992
    11 -0.488518 -2.755602 -0.228260 -0.636514 -0.072434 -0.337320
    12 0.047700 -1.530573 0.014229 -1.481141 -0.125802 0.203368
    13 0.028786 -1.126514 -0.105143 -0.742955 -0.013303 0.014298
    14 0.250027 -2.820665 -0.238396 -0.418648 -0.123606 -0.157124
    15 -0.057572 -1.598510 0.030164 -1.580137 -0.056699 0.100860
    16 -0.034142 -1.160031 0.053531 -0.902405 0.008281 -0.023154
    17 0.957766 -2.746780 -0.090302 -0.138913 -0.159269 0.186081
    18 -0.033420 -1.393223 -0.022976 -0.746922 0.007634 -0.036734
    19 -0.022360 -0.961342 -0.004654 -0.961154 0.004243 -0.026606
    20 -1.180681 -2.507217 -0.193859 -0.314555 -0.083781 -0.213847
    21 -0.024967 -1.127840 0.017597 -1.431112 0.098765 0.048910
    22 -0.020057 -0.902687 0.025715 -0.805420 0.007514 -0.032334
    23 0.583510 -1.208996 0.197098 -0.016303 -1.086293 -0.690834
    24 1.481238 -0.200698 -0.049680 0.017733 0.168348 -0.720722
    25 0.987486 -0.214230 -0.006773 -0.101489 -0.020928 -1.227553
    26 0.120153 -0.050270 -0.054489 0.287569 3.110905 1.561085
    27 -0.677031 -5.801590 -13.443100 -1.741227 -5.474522 -1.211108
    28 0.128195 -8.430887 -0.052335 0.440608 0.008434 0.423703
    29 0.447953 -2.798986 -0.200443 -1.083108 -0.024750 0.321985
    30 -0.032909 -1.499736 0.028378 -1.405033 0.023334 -0.026879
    31 -0.027022 -1.115984 -0.028023 -0.967278 0.021752 -0.015208
    32 -0.249534 -2.846964 -0.174213 -0.927167 -0.009008 0.151859
    33 0.043235 -1.656596 0.072574 -1.315085 -0.020930 0.005777
    34 0.031729 -1.137392 0.051025 -1.375111 -0.015333 0.007761
    35 -0.963866 -2.785145 -0.085350 -0.990983 0.136737 -0.225412
    36 0.028479 -1.403067 -0.017167 -0.965960 -0.135474 0.127432
    37 0.021413 -0.942156 0.012233 -0.964436 -0.025335 -0.033641
    38 1.164475 -2.543940 -0.170330 -1.202160 -0.161088 0.388818
    39 0.024032 -1.140761 -0.005631 -0.986046 0.010594 0.051247
    40 0.014898 -0.903521 -0.015942 -1.028794 0.009660 0.051438
    41 -0.586770 -1.264477 0.200161 0.221924 -1.275430 -2.979233
    42 1.569711 0.035243 0.016848 -0.019647 -0.007097 0.922310
    43 1.114041 0.040611 -0.005766 -0.028766 -0.034359 1.035400
    44 -0.045646 -0.072634 0.010491 0.230636 0.395471 1.618939
    45 -8.108519 2.202256 -0.458190 1.570581 -0.033918 -0.346148
  time 6
    0 4.572757 -4.581466 -4.594664 -1.544799 -3.054222 1.508590
    1 5.535558 -1.455844 -0.000001 0.000000 0.000000 -1.364276
    2 6.967555 -0.456137 0.775243 1.570767 -1.566682 1.570854
    3 0.594653 3.125398 -0.000001 0.000000 0.000000 0.000000
    4 0.793143 -0.098690 0.443446 -1.570775 1.559439 1.570817
    5 0.793143 -0.098690 -0.478457 1.570775 1.582159 1.570775
    6 -0.205318 -0.032883 -0.000050 -1.570797 0.000000 0.000000
    7 -0.002752 -2.016952 -0.003287 0.000000 0.000000 0.000000
    8 6.216259 6.606999 -8.936754 5.035969 -1.434642 1.218451
    9 8.077701 0.594367 -0.380282 1.569574 -3.116234 0.150800
    10 -0.114891 -8.428422 -0.166636 -0.160919 -0.023093 -0.088012
    11 -0.488518 -2.755602 -0.228260 -0.636514 -0.072434 -0.337320
    12 0.047700 -1.530573 0.014229 -1.481141 -0.125802 0.203368
    13 0.028786 -1.126514 -0.105143 -0.742955 -0.013303 0.014298
    14 0.250027 -2.820665 -0.238396 -0.418648 -0.123606 -0.157124
    15 -0.057572 -1.598510 0.030164 -1.580137 -0.056699 0.100860
    16 -0.034142 -1.160031 0.053531 -0.902405 0.008281 -0.023154
    17 0.957766 -2.746780 -0.090302 -0.138913 -0.159269 0.186081
    18 -0.033420 -1.393223 -0.022976 -0.746922 0.007634 -0.036734
    19 -0.022360 -0.961342 -0.004654 -0.883172 0.005525 -0.043001
    20 -1.180681 -2.507217 -0.193859 -0.314555 -0.083781 -0.213847
    21 -0.024967 -1.127840 0.017597 -1.431112 0.098765 0.048910
    22 -0.020057 -0.902687 0.025715 -0.805420 0.007514 -0.032334
    23 0.583510 -1.208996 0.197098 -0.016303 -1.086293 -0.690834
    24 1.481238 -0.200698 -0.049680 0.017733 0.168348 -0.720722
    25 0.987486 -0.214230 -0.006773 -0.101489 -0.020928 -1.227553
    26 0.120153 -0.050270 -0.054489 0.287569 3.110905 1.561085
    27 -0.669219 -5.840653 -13.407942 -1.742079 -5.462037 -1.217015
    28 0.128195 -8.430887 -0.052335 0.434822 0.010916 0.414245
    29 0.447953 -2.798986 -0.200443 -1.083108 -0.024750 0.321985
    30 -0.032909 -1.499736 0.028378 -1.405033 0.023334 -0.026879
    31 -0.027022 -1.115984 -0.028023 -0.967278 0.021752 -0.015208
    32 -0.249534 -2.846964 -0.174213 -0.927167 -0.009008 0.151859
    33 0.043235 -1.656596 0.072574 -1.315085 -0.020930 0.005777
    34 0.031729 -1.137392 0.051025 -1.375111 -0.015333 0.007761
    35 -0.963866 -2.785145 -0.085350 -0.990983 0.136737 -0.225412
    36 0.028479 -1.403067 -0.017167 -0.965960 -0.135474 0.127432
    37 0.021413 -0.942156 0.012233 -0.964436 -0.025335 -0.033641
    38 1.164475 -2.543940 -0.170330 -1.202160 -0.161088 0.388818
    39 0.024032 -1.140761 -0.005631 -0.986046 0.010594 0.051247
    40 0.014898 -0.903521 -0.015942 -1.028794 0.009660 0.051438
    41 -0.586770 -1.264477 0.200161 0.221924 -1.275430 -2.979233
    42 1.569711 0.035243 0.016848 -0.019647 -0.007097 0.922310
    43 1.114041 0.040611 -0.005766 -0.028766 -0.034359 1.035400
    44 -0.045646 -0.072634 0.010491 0.230636 0.395471 1.618939
    45 -8.073361 2.374136 -0.458190 1.571049 -0.033582 -0.367479
  time 7
    0 4.572757 -4.690844 -4.618102 -1.545374 -3.061793 1.507207
    1 5.535558 -1.455844 -0.000001 0.000000 0.000000 -1.364276
    2 6.967555 -0.456137 0.775243 1.570767 -1.566682 1.570854
    3 0.594653 3.125398 -0.000001 0.000000 0.000000 0.000000
    4 0.793143 -0.098690 0.443446 -1.570775 1.559439 1.570817
    5 0.793143 -0.098690 -0.478457 1.570775 1.582159 1.570775
    6 -0.205318 -0.032883 -0.000050 -1.570797 0.000000 0.000000
    7 -0.002752 -2.016952 -0.003287 0.000000 0.000000 0.000000
    8 6.216259 6.517153 -8.932848 5.041693 -1.437336 1.212805
    9 8.081607 0.742809 -0.376376 1.569287 -3.116520 0.169177
    10 -0.114891 -8.424515 -0.166636 -0.162239 -0.022497 -0.092835
    11 -0.488518 -2.755602 -0.228260 -0.636514 -0.072434 -0.337320
    12 0.047700 -1.530573 0.014229 -1.481141 -0.125802 0.203368
    13 0.028786 -1.126514 -0.105143 -0.742955 -0.013303 0.014298
    14 0.250027 -2.820665 -0.238396 -0.418648 -0.123606 -0.157124
    15 -0.057572 -1.598510 0.030164 -1.580137 -0.056699 0.100860
    16 -0.034142 -1.160031 0.053531 -0.902405 0.008281 -0.023154
    17 0.957766 -2.746780 -0.090302 -0.138913 -0.159269 0.186081
    18 -0.033420 -1.393223 -0.022976 -0.746922 0.007634 -0.036734
    19 -0.022360 -0.961342 -0.004654 -0.854157 0.006352 -0.049029
    20 -1.180681 -2.507217 -0.193859 -0.314555 -0.083781 -0.213847
    21 -0.024967 -1.127840 0.017597 -1.431112 0.098765 0.048910
    22 -0.020057 -0.902687 0.025715 -0.805420 0.007514 -0.032334
    23 0.583510 -1.208996 0.197098 -0.016291 -1.086293 -0.690834
    24 1.481238 -0.200698 -0.049680 0.017733 0.168348 -0.720722
    25 0.987486 -0.214230 -0.006773 -0.101489 -0.020928 -1.227553
    26 0.120153 -0.050270 -0.054489 0.287569 3.110905 1.561085
    27 -0.684844 -5.848466 -13.423568 -1.743009 -5.450219 -1.222826
    28 0.128195 -8.430887 -0.052335 0.431401 0.008072 0.409855
    29 0.447953 -2.798986 -0.200443 -1.083108 -0.024750 0.321985
    30 -0.032909 -1.499736 0.028378 -1.405033 0.023334 -0.026879
    31 -0.027022 -1.115984 -0.028023 -0.967278 0.021752 -0.015208
    32 -0.249534 -2.846964 -0.174213 -0.927167 -0.009008 0.151859
    33 0.043235 -1.656596 0.072574 -1.315085 -0.020930 0.005777
    34 0.031729 -1.137392 0.051025 -1.375111 -0.015333 0.007761
    35 -0.963866 -2.785145 -0.085350 -0.990983 0.136737 -0.225412
    36 0.028479 -1.403067 -0.017167 -0.965960 -0.135474 0.127432
    37 0.021413 -0.942156 0.012233 -0.964436 -0.025335 -0.033641
    38 1.164475 -2.543940 -0.170330 -1.202160 -0.161088 0.388818
    39 0.024032 -1.140761 -0.005631 -0.986046 0.010594 0.051247
    40 0.014898 -0.903521 -0.015942 -1.028794 0.009660 0.051438
    41 -0.586770 -1.264477 0.200161 0.221924 -1.275430 -2.979233
    42 1.569711 0.035243 0.016848 -0.019647 -0.007097 0.922310
    43 1.114041 0.040611 -0.005766 -0.028766 -0.034359 1.035400
    44 -0.045646 -0.072634 0.010491 0.230636 0.395471 1.618939
    45 -8.053830 2.460076 -0.454283 1.571264 -0.033414 -0.377909
  time 8
    0 4.572757 -4.815848 -4.622009 -1.547387 -3.074922 1.504387
    1 5.535558 -1.455844 -0.000001 0.000000 0.000000 -1.364276
    2 6.967555 -0.456137 0.775243 1.570767 -1.566682 1.570854
    3 0.594653 3.125398 -0.000001 0.000000 0.000000 0.000000
    4 0.793143 -0.098690 0.443446 -1.570775 1.559439 1.570817
    5 0.793143 -0.098690 -0.478457 1.570775 1.582159 1.570775
    6 -0.205318 -0.032883 -0.000050 -1.570797 0.000000 0.000000
    7 -0.002752 -2.016952 -0.003287 0.000000 0.000000 0.000000
    8 6.216259 6.431213 -8.921129 5.042456 -1.437838 1.212230
    9 8.077701 0.871719 -0.376376 1.569095 -3.116807 0.185078
    10 -0.114891 -8.424515 -0.166636 -0.164651 -0.020851 -0.105626
    11 -0.488518 -2.755602 -0.228260 -0.636514 -0.072434 -0.337320
    12 0.047700 -1.530573 0.014229 -1.481141 -0.125802 0.203368
    13 0.028786 -1.126514 -0.105143 -0.742955 -0.013303 0.014298
    14 0.250027 -2.820665 -0.238396 -0.418648 -0.123606 -0.157124
    15 -0.057572 -1.598510 0.030164 -1.580137 -0.056699 0.100860
    16 -0.034142 -1.160031 0.053531 -0.902405 0.008281 -0.023154
    17 0.957766 -2.746780 -0.090302 -0.138913 -0.159269 0.186081
    18 -0.033420 -1.393223 -0.022976 -0.746922 0.007634 -0.036734
    19 -0.022360 -0.961342 -0.004654 -0.857386 0.006256 -0.048358
    20 -1.180681 -2.507217 -0.193859 -0.314555 -0.083781 -0.213847
    21 -0.024967 -1.127840 0.017597 -1.431112 0.098765 0.048910
    22 -0.020057 -0.902687 0.025715 -0.805420 0.007514 -0.032334
    23 0.583510 -1.208996 0.197098 -0.016291 -1.086293 -0.690834
    24 1.481238 -0.200698 -0.049680 0.017733 0.168348 -0.720722
    25 0.987486 -0.214230 -0.006773 -0.101489 -0.020928 -1.227553
    26 0.120153 -0.050270 -0.054489 0.287569 3.110905 1.561085
    27 -0.716095 -5.844560 -13.458725 -1.744093 -5.437734 -1.229305
    28 0.124289 -8.430887 -0.052335 0.428332 0.003276 0.409447
    29 0.447953 -2.798986 -0.200443 -1.083108 -0.024750 0.321985
    30 -0.032909 -1.499736 0.028378 -1.405033 0.023334 -0.026879
    31 -0.027022 -1.115984 -0.028023 -0.967278 0.021752 -0.015208
    32 -0.249534 -2.846964 -0.174213 -0.927167 -0.009008 0.151859
    33 0.043235 -1.656596 0.072574 -1.315085 -0.020930 0.005777
    34 0.031729 -1.137392 0.051025 -1.375111 -0.015333 0.007761
    35 -0.963866 -2.785145 -0.085350 -0.990983 0.136737 -0.225412
    36 0.028479 -1.403067 -0.017167 -0.965960 -0.135474 0.127432
    37 0.021413 -0.942156 0.012233 -0.964436 -0.025335 -0.033641
    38 1.164475 -2.543940 -0.170330 -1.202160 -0.161088 0.388818
    39 0.024032 -1.140761 -0.005631 -0.986046 0.010594 0.051247
    40 0.014898 -0.903521 -0.015942 -1.028794 0.009660 0.051438
    41 -0.586770 -1.264477 0.200161 0.221924 -1.275430 -2.979233
    42 1.569711 0.035243 0.016848 -0.019647 -0.007097 0.922310
    43 1.114041 0.040611 -0.005766 -0.028766 -0.034359 1.035400
    44 -0.045646 -0.072634 0.010491 0.230636 0.395471 1.618939
    45 -8.046017 2.506953 -0.454283 1.571396 -0.033319 -0.383947
  time 9
    0 4.576664 -4.925226 -4.614196 -1.549878 -3.088147 1.501400
    1 5.535558 -1.455844 -0.000001 0.000000 0.000000 -1.364276
    2 6.967555 -0.456137 0.775243 1.570767 -1.566682 1.570854
    3 0.594653 3.125398 -0.000001 0.000000 0.000000 0.000000
    4 0.793143 -0.098690 0.443446 -1.570775 1.559439 1.570817
    5 0.793143 -0.098690 -0.478457 1.570775 1.582159 1.570775
    6 -0.205318 -0.032883 -0.000050 -1.570797 0.000000 0.000000
    7 -0.002752 -2.016952 -0.003287 0.000000 0.000000 0.000000
    8 6.216259 6.356992 -8.913316 5.040262 -1.437086 1.214432
    9 8.077701 0.973284 -0.372470 1.568999 -3.116997 0.197395
    10 -0.114891 -8.420609 -0.166636 -0.167267 -0.018797 -0.119769
    11 -0.488518 -2.755602 -0.228260 -0.636514 -0.072434 -0.337320
    12 0.047700 -1.530573 0.014229 -1.481141 -0.125802 0.203368
    13 0.028786 -1.126514 -0.105143 -0.742955 -0.013303 0.014298
    14 0.250027 -2.820665 -0.238396 -0.418648 -0.123606 -0.157124
    15 -0.057572 -1.598510 0.030164 -1.580137 -0.056699 0.100860
    16 -0.034142 -1.160031 0.053531 -0.902405 0.008281 -0.023154
    17 0.957766 -2.746780 -0.090302 -0.138913 -0.159269 0.186081
    18 -0.033420 -1.393223 -0.022976 -0.746922 0.007634 -0.036734
    19 -0.022360 -0.961342 -0.004654 -0.873484 0.005789 -0.045014
    20 -1.180681 -2.507217 -0.193859 -0.314555 -0.083781 -0.213847
    21 -0.024967 -1.127840 0.017597 -1.431112 0.098765 0.048910
    22 -0.020057 -0.902687 0.025715 -0.805420 0.007514 -0.032334
    23 0.583510 -1.208996 0.197098 -0.016303 -1.086293 -0.690834
    24 1.481238 -0.200698 -0.049680 0.017733 0.168348 -0.720722
    25 0.987486 -0.214230 -0.006773 -0.101489 -0.020928 -1.227553
    26 0.120153 -0.050270 -0.054489 0.287569 3.110905 1.561085
    27 -0.743440 -5.836747 -13.497789 -1.744868 -5.427345 -1.235021
    28 0.124289 -8.430887 -0.048429 0.425187 -0.001353 0.410986
    29 0.447953 -2.798986 -0.200443 -1.083108 -0.024750 0.321985
    30 -0.032909 -1.499736 0.028378 -1.405033 0.023334 -0.026879
    31 -0.027022 -1.115984 -0.028023 -0.967278 0.021752 -0.015208
    32 -0.249534 -2.846964 -0.174213 -0.927167 -0.009008 0.151859
    33 0.043235 -1.656596 0.072574 -1.315085 -0.020930 0.005777
    34 0.031729 -1.137392 0.051025 -1.375111 -0.015333 0.007761
    35 -0.963866 -2.785145 -0.085350 -0.990983 0.136737 -0.225412
    36 0.028479 -1.403067 -0.017167 -0.965960 -0.135474 0.127432
    37 0.021413 -0.942156 0.012233 -0.964436 -0.025335 -0.033641
    38 1.164475 -2.543940 -0.170330 -1.202160 -0.161088 0.388818
    39 0.024032 -1.140761 -0.005631 -0.986046 0.010594 0.051247
    40 0.014898 -0.903521 -0.015942 -1.028794 0.009660 0.051438
    41 -0.586770 -1.264477 0.200161 0.221924 -1.275430 -2.979233
    42 1.569711 0.035243 0.016848 -0.019647 -0.007097 0.922310
    43 1.114041 0.040611 -0.005766 -0.028766 -0.034359 1.035400
    44 -0.045646 -0.072634 0.010491 0.230636 0.395471 1.618939
    45 -8.038204 2.534297 -0.454283 1.571468 -0.033259 -0.387319
  time 10
    0 4.580570 -4.995541 -4.602477 -1.552082 -3.095814 1.499243
    1 5.535558 -1.455844 -0.000001 0.000000 0.000000 -1.364276
    2 6.967555 -0.456137 0.775243 1.570767 -1.566682 1.570854
    3 0.594653 3.125398 -0.000001 0.000000 0.000000 0.000000
    4 0.793143 -0.098690 0.443446 -1.570775 1.559439 1.570817
    5 0.793143 -0.098690 -0.478457 1.570775 1.582159 1.570775
    6 -0.205318 -0.032883 -0.000050 -1.570797 0.000000 0.000000
    7 -0.002752 -2.016952 -0.003287 0.000000 0.000000 0.000000
    8 6.216259 6.306209 -8.905503 5.037591 -1.436020 1.217207
    9 8.073794 1.035786 -0.372470 1.568903 -3.117093 0.205084
    10 -0.110985 -8.416703 -0.166636 -0.169178 -0.016915 -0.128832
    11 -0.488518 -2.755602 -0.228260 -0.636514 -0.072434 -0.337320
    12 0.047700 -1.530573 0.014229 -1.481141 -0.125802 0.203368
    13 0.028786 -1.126514 -0.105143 -0.742955 -0.013303 0.014298
    14 0.250027 -2.820665 -0.238396 -0.418648 -0.123606 -0.157124
    15 -0.057572 -1.598510 0.030164 -1.580137 -0.056699 0.100860
    16 -0.034142 -1.160031 0.053531 -0.902405 0.008281 -0.023154
    17 0.957766 -2.746780 -0.090302 -0.138913 -0.159269 0.186081
    18 -0.033420 -1.393223 -0.022976 -0.746922 0.007634 -0.036734
    19 -0.022360 -0.961342 -0.004654 -0.883172 0.005525 -0.043001
    20 -1.180681 -2.507217 -0.193859 -0.314555 -0.083781 -0.213847
    21 -0.024967 -1.127840 0.017597 -1.431112 0.098765 0.048910
    22 -0.020057 -0.902687 0.025715 -0.805420 0.007514 -0.032334
    23 0.583510 -1.208996 0.197098 -0.016291 -1.086293 -0.690834
    24 1.481238 -0.200698 -0.049680 0.017733 0.168348 -0.720722
    25 0.987486 -0.214230 -0.006773 -0.101489 -0.020928 -1.227553
    26 0.120153 -0.050270 -0.054489 0.287569 3.110905 1.561085
    27 -0.762971 -5.836747 -13.513414 -1.745023 -5.421722 -1.238832
    28 0.124289 -8.430887 -0.048429 0.421565 -0.003807 0.412163
    29 0.447953 -2.798986 -0.200443 -1.083108 -0.024750 0.321985
    30 -0.032909 -1.499736 0.028378 -1.405033 0.023334 -0.026879
    31 -0.027022 -1.115984 -0.028023 -0.967278 0.021752 -0.015208
    32 -0.249534 -2.846964 -0.174213 -0.927167 -0.009008 0.151859
    33 0.043235 -1.656596 0.072574 -1.315085 -0.020930 0.005777
    34 0.031729 -1.137392 0.051025 -1.375111 -0.015333 0.007761
    35 -0.963866 -2.785145 -0.085350 -0.990983 0.136737 -0.225412
    36 0.028479 -1.403067 -0.017167 -0.965960 -0.135474 0.127432
    37 0.021413 -0.942156 0.012233 -0.964436 -0.025335 -0.033641
    38 1.164475 -2.543940 -0.170330 -1.202160 -0.161088 0.388818
    39 0.024032 -1.140761 -0.005631 -0.986046 0.010594 0.051247
    40 0.014898 -0.903521 -0.015942 -1.028794 0.009660 0.051438
    41 -0.586770 -1.264477 0.200161 0.221924 -1.275430 -2.979233
    42 1.569711 0.035243 0.016848 -0.019647 -0.007097 0.922310
    43 1.114041 0.040611 -0.005766 -0.028766 -0.034359 1.035400
    44 -0.045646 -0.072634 0.010491 0.230636 0.395471 1.618939
    45 -8.034298 2.553829 -0.454283 1.571516 -0.033223 -0.389907
  time 11
    0 4.584477 -5.026792 -4.586851 -1.553903 -3.097922 1.498082
    1 5.535558 -1.455844 -0.000001 0.000000 0.000000 -1.364276
    2 6.967555 -0.456137 0.775243 1.570767 -1.566682 1.570854
    3 0.594653 3.125398 -0.000001 0.000000 0.000000 0.000000
    4 0.793143 -0.098690 0.443446 -1.570775 1.559439 1.570817
    5 0.793143 -0.098690 -0.478457 1.570775 1.582159 1.570775
    6 -0.205318 -0.032883 -0.000050 -1.570797 0.000000 0.000000
    7 -0.002752 -2.016952 -0.003287 0.000000 0.000000 0.000000
    8 6.216259 6.278864 -8.901597 5.034920 -1.434767 1.219887
    9 8.073794 1.067037 -0.372470 1.568807 -3.117188 0.208799
    10 -0.110985 -8.416703 -0.166636 -0.170339 -0.015206 -0.132340
    11 -0.488518 -2.755602 -0.228260 -0.636514 -0.072434 -0.337320
    12 0.047700 -1.530573 0.014229 -1.481141 -0.125802 0.203368
    13 0.028786 -1.126514 -0.105143 -0.742955 -0.013303 0.014298
    14 0.250027 -2.820665 -0.238396 -0.418648 -0.123606 -0.157124
    15 -0.057572 -1.598510 0.030164 -1.580137 -0.056699 0.100860
    16 -0.034142 -1.160031 0.053531 -0.902405 0.008281 -0.023154
    17 0.957766 -2.746780 -0.090302 -0.138913 -0.159269 0.186081
    18 -0.033420 -1.393223 -0.022976 -0.746922 0.007634 -0.036734
    19 -0.022360 -0.961342 -0.004654 -0.883172 0.005525 -0.043001
    20 -1.180681 -2.507217 -0.193859 -0.314555 -0.083781 -0.213847
    21 -0.024967 -1.127840 0.017597 -1.431112 0.098765 0.048910
    22 -0.020057 -0.902687 0.025715 -0.805420 0.007514 -0.032334
    23 0.583510 -1.208996 0.197098 -0.016291 -1.086293 -0.690834
    24 1.481238 -0.200698 -0.049680 0.017733 0.168348 -0.720722
    25 0.987486 -0.214230 -0.006773 -0.101489 -0.020928 -1.227553
    26 0.120153 -0.050270 -0.054489 0.287569 3.110905 1.561085
    27 -0.766878 -5.844560 -13.505602 -1.744403 -5.420578 -1.240737
    28 0.124289 -8.430887 -0.048429 0.417489 -0.003891 0.412570
    29 0.447953 -2.798986 -0.200443 -1.083108 -0.024750 0.321985
    30 -0.032909 -1.499736 0.028378 -1.405033 0.023334 -0.026879
    31 -0.027022 -1.115984 -0.028023 -0.967278 0.021752 -0.015208
    32 -0.249534 -2.846964 -0.174213 -0.927167 -0.009008 0.151859
    33 0.043235 -1.656596 0.072574 -1.315085 -0.020930 0.005777
    34 0.031729 -1.137392 0.051025 -1.375111 -0.015333 0.007761
    35 -0.963866 -2.785145 -0.085350 -0.990983 0.136737 -0.225412
    36 0.028479 -1.403067 -0.017167 -0.965960 -0.135474 0.127432
    37 0.021413 -0.942156 0.012233 -0.964436 -0.025335 -0.033641
    38 1.164475 -2.543940 -0.170330 -1.202160 -0.161088 0.388818
    39 0.024032 -1.140761 -0.005631 -0.986046 0.010594 0.051247
    40 0.014898 -0.903521 -0.015942 -1.028794 0.009660 0.051438
    41 -0.586770 -1.264477 0.200161 0.221924 -1.275430 -2.979233
    42 1.569711 0.035243 0.016848 -0.019647 -0.007097 0.922310
    43 1.114041 0.040611 -0.005766 -0.028766 -0.034359 1.035400
    44 -0.045646 -0.072634 0.010491 0.230636 0.395471 1.618939
    45 -8.030391 2.577267 -0.454283 1.571576 -0.033175 -0.392573
  time 12
    0 4.588383 -5.042417 -4.563413 -1.555820 -3.098018 1.497197
    1 5.535558 -1.455844 -0.000001 0.000000 0.000000 -1.364276
    2 6.967555 -0.456137 0.775243 1.570767 -1.566682 1.570854
    3 0.594653 3.125398 -0.000001 0.000000 0.000000 0.000000
    4 0.793143 -0.098690 0.443446 -1.570775 1.559439 1.570817
    5 0.793143 -0.098690 -0.478457 1.570775 1.582159 1.570775
    6 -0.205318 -0.032883 -0.000050 -1.570797 0.000000 0.000000
    7 -0.002752 -2.016952 -0.003287 0.000000 0.000000 0.000000
    8 6.212353 6.259333 -8.897691 5.031486 -1.433013 1.223332
    9 8.073794 1.078756 -0.372470 1.568807 -3.117188 0.210298
    10 -0.110985 -8.416703 -0.166636 -0.171340 -0.013371 -0.134387
    11 -0.488518 -2.755602 -0.228260 -0.636514 -0.072434 -0.337320
    12 0.047700 -1.530573 0.014229 -1.481141 -0.125802 0.203368
    13 0.028786 -1.126514 -0.105143 -0.742955 -0.013303 0.014298
    14 0.250027 -2.820665 -0.238396 -0.418648 -0.123606 -0.157124
    15 -0.057572 -1.598510 0.030164 -1.580137 -0.056699 0.100860
    16 -0.034142 -1.160031 0.053531 -0.902405 0.008281 -0.023154
    17 0.957766 -2.746780 -0.090302 -0.138913 -0.159269 0.186081
    18 -0.033420 -1.393223 -0.022976 -0.746922 0.007634 -0.036734
    19 -0.022360 -0.961342 -0.004654 -0.883172 0.005525 -0.043001
    20 -1.180681 -2.507217 -0.193859 -0.314555 -0.083781 -0.213847
    21 -0.024967 -1.127840 0.017597 -1.431112 0.098765 0.048910
    22 -0.020057 -0.902687 0.025715 -0.805420 0.007514 -0.032334
    23 0.583510 -1.208996 0.197098 -0.016291 -1.086293 -0.690834
    24 1.481238 -0.200698 -0.049680 0.017733 0.168348 -0.720722
    25 0.987486 -0.214230 -0.006773 -0.101489 -0.020928 -1.227553
    26 0.120153 -0.050270 -0.054489 0.287569 3.110905 1.561085
    27 -0.766878 -5.856279 -13.489976 -1.743474 -5.421531 -1.241880
    28 0.124289 -8.426980 -0.048429 0.413288 -0.002971 0.413430
    29 0.447953 -2.798986 -0.200443 -1.083108 -0.024750 0.321985
    30 -0.032909 -1.499736 0.028378 -1.405033 0.023334 -0.026879
    31 -0.027022 -1.115984 -0.028023 -0.967278 0.021752 -0.015208
    32 -0.249534 -2.846964 -0.174213 -0.927167 -0.009008 0.151859
    33 0.043235 -1.656596 0.072574 -1.315085 -0.020930 0.005777
    34 0.031729 -1.137392 0.051025 -1.375111 -0.015333 0.007761
    35 -0.963866 -2.785145 -0.085350 -0.990983 0.136737 -0.225412
    36 0.028479 -1.403067 -0.017167 -0.965960 -0.135474 0.127432
    37 0.021413 -0.942156 0.012233 -0.964436 -0.025335 -0.033641
    38 1.164475 -2.543940 -0.170330 -1.202160 -0.161088 0.388818
    39 0.024032 -1.140761 -0.005631 -0.986046 0.010594 0.051247
    40 0.014898 -0.903521 -0.015942 -1.028794 0.009660 0.051438
    41 -0.586770 -1.264477 0.200161 0.221924 -1.275430 -2.979233
    42 1.569711 0.035243 0.016848 -0.019647 -0.007097 0.922310
    43 1.114041 0.040611 -0.005766 -0.028766 -0.034359 1.035400
    44 -0.045646 -0.072634 0.010491 0.230636 0.395471 1.618939
    45 -8.026485 2.592893 -0.454283 1.571624 -0.033139 -0.394612
  time 13
    0 4.596196 -5.046324 -4.539975 -1.557832 -3.096868 1.496422
    1 5.535558 -1.455844 -0.000001 0.000000 0.000000 -1.364276
    2 6.967555 -0.456137 0.775243 1.570767 -1.566682 1.570854
    3 0.594653 3.125398 -0.000001 0.000000 0.000000 0.000000
    4 0.793143 -0.098690 0.443446 -1.570775 1.559439 1.570817
    5 0.793143 -0.098690 -0.478457 1.570775 1.582159 1.570775
    6 -0.205318 -0.032883 -0.000050 -1.570797 0.000000 0.000000
    7 -0.002752 -2.016952 -0.003287 0.000000 0.000000 0.000000
    8 6.212353 6.247613 -8.893784 5.027670 -1.431007 1.227256
    9 8.073794 1.078756 -0.372470 1.568807 -3.117188 0.210167
    10 -0.110985 -8.416703 -0.166636 -0.172181 -0.011474 -0.135373
    11 -0.488518 -2.755602 -0.228260 -0.636514 -0.072434 -0.337320
    12 0.047700 -1.530573 0.014229 -1.481141 -0.125802 0.203368
    13 0.028786 -1.126514 -0.105143 -0.742955 -0.013303 0.014298
    14 0.250027 -2.820665 -0.238396 -0.418648 -0.123606 -0.157124
    15 -0.057572 -1.598510 0.030164 -1.580137 -0.056699 0.100860
    16 -0.034142 -1.160031 0.053531 -0.902405 0.008281 -0.023154
    17 0.957766 -2.746780 -0.090302 -0.138913 -0.159269 0.186081
    18 -0.033420 -1.393223 -0.022976 -0.746922 0.007634 -0.036734
    19 -0.022360 -0.961342 -0.004654 -0.883172 0.005525 -0.043001
    20 -1.180681 -2.507217 -0.193859 -0.314555 -0.083781 -0.213847
    21 -0.024967 -1.127840 0.017597 -1.431112 0.098765 0.048910
    22 -0.020057 -0.902687 0.025715 -0.805420 0.007514 -0.032334
    23 0.583510 -1.208996 0.197098 -0.016291 -1.086293 -0.690834
    24 1.481238 -0.200698 -0.049680 0.017733 0.168348 -0.720722
    25 0.987486 -0.214230 -0.006773 -0.101489 -0.020928 -1.227553
    26 0.120153 -0.050270 -0.054489 0.287569 3.110905 1.561085
    27 -0.766878 -5.871904 -13.470444 -1.742312 -5.423914 -1.242357
    28 0.124289 -8.426980 -0.048429 0.409188 -0.001297 0.414788
    29 0.447953 -2.798986 -0.200443 -1.083108 -0.024750 0.321985
    30 -0.032909 -1.499736 0.028378 -1.405033 0.023334 -0.026879
    31 -0.027022 -1.115984 -0.028023 -0.967278 0.021752 -0.015208
    32 -0.249534 -2.846964 -0.174213 -0.927167 -0.009008 0.151859
    33 0.043235 -1.656596 0.072574 -1.315085 -0.020930 0.005777
    34 0.031729 -1.137392 0.051025 -1.375111 -0.015333 0.007761
    35 -0.963866 -2.785145 -0.085350 -0.990983 0.136737 -0.225412
    36 0.028479 -1.403067 -0.017167 -0.965960 -0.135474 0.127432
    37 0.021413 -0.942156 0.012233 -0.964436 -0.025335 -0.033641
    38 1.164475 -2.543940 -0.170330 -1.202160 -0.161088 0.388818
    39 0.024032 -1.140761 -0.005631 -0.986046 0.010594 0.051247
    40 0.014898 -0.903521 -0.015942 -1.028794 0.009660 0.051438
    41 -0.586770 -1.264477 0.200161 0.221924 -1.275430 -2.979233
    42 1.569711 0.035243 0.016848 -0.019647 -0.007097 0.922310
    43 1.114041 0.040611 -0.005766 -0.028766 -0.034359 1.035400
    44 -0.045646 -0.072634 0.010491 0.230636 0.395471 1.618939
    45 -8.022579 2.604612 -0.454283 1.571660 -0.033115 -0.396259
  time 14
    0 4.600102 -5.042417 -4.512630 -1.559653 -3.094856 1.495869
    1 5.535558 -1.455844 -0.000001 0.000000 0.000000 -1.364276
    2 6.967555 -0.456137 0.775243 1.570767 -1.566682 1.570854
    3 0.594653 3.125398 -0.000001 0.000000 0.000000 0.000000
    4 0.793143 -0.098690 0.443446 -1.570775 1.559439 1.570817
    5 0.793143 -0.098690 -0.478457 1.570775 1.582159 1.570775
    6 -0.205318 -0.032883 -0.000050 -1.570797 0.000000 0.000000
    7 -0.002752 -2.016952 -0.003287 0.000000 0.000000 0.000000
    8 6.212353 6.243707 -8.893784 5.023759 -1.428940 1.231180
    9 8.073794 1.067037 -0.372470 1.568807 -3.117188 0.209060
    10 -0.110985 -8.416703 -0.166636 -0.172910 -0.009624 -0.135629
    11 -0.488518 -2.755602 -0.228260 -0.636514 -0.072434 -0.337320
    12 0.047700 -1.530573 0.014229 -1.481141 -0.125802 0.203368
    13 0.028786 -1.126514 -0.105143 -0.742955 -0.013303 0.014298
    14 0.250027 -2.820665 -0.238396 -0.418648 -0.123606 -0.157124
    15 -0.057572 -1.598510 0.030164 -1.580137 -0.056699 0.100860
    16 -0.034142 -1.160031 0.053531 -0.902405 0.008281 -0.023154
    17 0.957766 -2.746780 -0.090302 -0.138913 -0.159269 0.186081
    18 -0.033420 -1.393223 -0.022976 -0.746922 0.007634 -0.036734
    19 -0.022360 -0.961342 -0.004654 -0.883172 0.005525 -0.043001
    20 -1.180681 -2.507217 -0.193859 -0.314555 -0.083781 -0.213847
    21 -0.024967 -1.127840 0.017597 -1.431112 0.098765 0.048910
    22 -0.020057 -0.902687 0.025715 -0.805420 0.007514 -0.032334
    23 0.583510 -1.208996 0.197098 -0.016291 -1.086293 -0.690834
    24 1.481238 -0.200698 -0.049680 0.017733 0.168348 -0.720722
    25 0.987486 -0.214230 -0.006773 -0.101489 -0.020928 -1.227553
    26 0.120153 -0.050270 -0.054489 0.287569 3.110905 1.561085
    27 -0.762971 -5.887530 -13.450912 -1.741072 -5.427250 -1.242452
    28 0.124289 -8.426980 -0.048429 0.405339 0.000878 0.416553
    29 0.447953 -2.798986 -0.200443 -1.083108 -0.024750 0.321985
    30 -0.032909 -1.499736 0.028378 -1.405033 0.023334 -0.026879
    31 -0.027022 -1.115984 -0.028023 -0.967278 0.021752 -0.015208
    32 -0.249534 -2.846964 -0.174213 -0.927167 -0.009008 0.151859
    33 0.043235 -1.656596 0.072574 -1.315085 -0.020930 0.005777
    34 0.031729 -1.137392 0.051025 -1.375111 -0.015333 0.007761
    35 -0.963866 -2.785145 -0.085350 -0.990983 0.136737 -0.225412
    36 0.028479 -1.403067 -0.017167 -0.965960 -0.135474 0.127432
    37 0.021413 -0.942156 0.012233 -0.964436 -0.025335 -0.033641
    38 1.164475 -2.543940 -0.170330 -1.202160 -0.161088 0.388818
    39 0.024032 -1.140761 -0.005631 -0.986046 0.010594 0.051247
    40 0.014898 -0.903521 -0.015942 -1.028794 0.009660 0.051438
    41 -0.586770 -1.264477 0.200161 0.221924 -1.275430 -2.979233
    42 1.569711 0.035243 0.016848 -0.019647 -0.007097 0.922310
    43 1.114041 0.040611 -0.005766 -0.028766 -0.034359 1.035400
    44 -0.045646 -0.072634 0.010491 0.230636 0.395471 1.618939
    45 -8.018672 2.616331 -0.454283 1.571684 -0.033091 -0.397514
  time 15
    0 4.607915 -5.034604 -4.489192 -1.561474 -3.092556 1.495371
    1 5.535558 -1.455844 -0.000001 0.000000 0.000000 -1.364276
    2 6.967555 -0.456137 0.775243 1.570767 -1.566682 1.570854
    3 0.594653 3.125398 -0.000001 0.000000 0.000000 0.000000
    4 0.793143 -0.098690 0.443446 -1.570775 1.559439 1.570817
    5 0.793143 -0.098690 -0.478457 1.570775 1.582159 1.570775
    6 -0.205318 -0.032883 -0.000050 -1.570797 0.000000 0.000000
    7 -0.002752 -2.016952 -0.003287 0.000000 0.000000 0.000000
    8 6.212353 6.239801 -8.889878 5.020134 -1.426934 1.234816
    9 8.073794 1.055318 -0.372470 1.568807 -3.117188 0.207561
    10 -0.110985 -8.416703 -0.162730 -0.173547 -0.007915 -0.135520
    11 -0.488518 -2.755602 -0.228260 -0.636514 -0.072434 -0.337320
    12 0.047700 -1.530573 0.014229 -1.481141 -0.125802 0.203368
    13 0.028786 -1.126514 -0.105143 -0.742955 -0.013303 0.014298
    14 0.250027 -2.820665 -0.238396 -0.418648 -0.123606 -0.157124
    15 -0.057572 -1.598510 0.030164 -1.580137 -0.056699 0.100860
    16 -0.034142 -1.160031 0.053531 -0.902405 0.008281 -0.023154
    17 0.957766 -2.746780 -0.090302 -0.138913 -0.159269 0.186081
    18 -0.033420 -1.393223 -0.022976 -0.746922 0.007634 -0.036734
    19 -0.022360 -0.961342 -0.004654 -0.883172 0.005525 -0.043001
    20 -1.180681 -2.507217 -0.193859 -0.314555 -0.083781 -0.213847
    21 -0.024967 -1.127840 0.017597 -1.431112 0.098765 0.048910
    22 -0.020057 -0.902687 0.025715 -0.805420 0.007514 -0.032334
    23 0.583510 -1.208996 0.197098 -0.016291 -1.086293 -0.690834
    24 1.481238 -0.200698 -0.049680 0.017733 0.168348 -0.720722
    25 0.987486 -0.214230 -0.006773 -0.101489 -0.020928 -1.227553
    26 0.120153 -0.050270 -0.054489 0.287569 3.110905 1.561085
    27 -0.755159 -5.899249 -13.423568 -1.740065 -5.430776 -1.242166
    28 0.124289 -8.426980 -0.052335 0.404433 0.003582 0.418997
    29 0.447953 -2.798986 -0.200443 -1.083108 -0.024750 0.321985
    30 -0.032909 -1.499736 0.028378 -1.405033 0.023334 -0.026879
    31 -0.027022 -1.115984 -0.028023 -0.967278 0.021752 -0.015208
    32 -0.249534 -2.846964 -0.174213 -0.927167 -0.009008 0.151859
    33 0.043235 -1.656596 0.072574 -1.315085 -0.020930 0.005777
    34 0.031729 -1.137392 0.051025 -1.375111 -0.015333 0.007761
    35 -0.963866 -2.785145 -0.085350 -0.990983 0.136737 -0.225412
    36 0.028479 -1.403067 -0.017167 -0.965960 -0.135474 0.127432
    37 0.021413 -0.942156 0.012233 -0.964436 -0.025335 -0.033641
    38 1.164475 -2.543940 -0.170330 -1.202160 -0.161088 0.388818
    39 0.024032 -1.140761 -0.005631 -0.986046 0.010594 0.051247
    40 0.014898 -0.903521 -0.015942 -1.028794 0.009660 0.051438
    41 -0.586770 -1.264477 0.200161 0.221924 -1.275430 -2.979233
    42 1.569711 0.035243 0.016848 -0.019647 -0.007097 0.922310
    43 1.114041 0.040611 -0.005766 -0.028766 -0.034359 1.035400
    44 -0.045646 -0.072634 0.010491 0.230636 0.395471 1.618939
    45 -8.018672 2.628050 -0.454283 1.571708 -0.033067 -0.398847
  time 16
    0 4.611821 -5.026792 -4.469660 -1.562911 -3.090543 1.494984
    1 5.535558 -1.455844 -0.000001 0.000000 0.000000 -1.364276
    2 6.967555 -0.456137 0.775243 1.570767 -1.566682 1.570854
    3 0.594653 3.125398 -0.000001 0.000000 0.000000 0.000000
    4 0.793143 -0.098690 0.443446 -1.570775 1.559439 1.570817
    5 0.793143 -0.098690 -0.478457 1.570775 1.582159 1.570775
    6 -0.205318 -0.032883 -0.000050 -1.570797 0.000000 0.000000
    7 -0.002752 -2.016952 -0.003287 0.000000 0.000000 0.000000
    8 6.212353 6.235894 -8.889878 5.016986 -1.425180 1.237879
    9 8.073794 1.047505 -0.372470 1.568807 -3.117188 0.206257
    10 -0.110985 -8.416703 -0.162730 -0.174070 -0.006425 -0.135410
    11 -0.488518 -2.755602 -0.228260 -0.636514 -0.072434 -0.337320
    12 0.047700 -1.530573 0.014229 -1.481141 -0.125802 0.203368
    13 0.028786 -1.126514 -0.105143 -0.742955 -0.013303 0.014298
    14 0.250027 -2.820665 -0.238396 -0.418648 -0.123606 -0.157124
    15 -0.057572 -1.598510 0.030164 -1.580137 -0.056699 0.100860
    16 -0.034142 -1.160031 0.053531 -0.902405 0.008281 -0.023154
    17 0.957766 -2.746780 -0.090302 -0.138913 -0.159269 0.186081
    18 -0.033420 -1.393223 -0.022976 -0.746922 0.007634 -0.036734
    19 -0.022360 -0.961342 -0.004654 -0.883172 0.005525 -0.043001
    20 -1.180681 -2.507217 -0.193859 -0.314555 -0.083781 -0.213847
    21 -0.024967 -1.127840 0.017597 -1.431112 0.098765 0.048910
    22 -0.020057 -0.902687 0.025715 -0.805420 0.007514 -0.032334
    23 0.583510 -1.208996 0.197098 -0.016291 -1.086314 -0.690834
    24 1.481238 -0.200698 -0.049680 0.017733 0.168348 -0.720722
    25 0.987486 -0.214230 -0.006773 -0.101489 -0.020928 -1.227553
    26 0.120153 -0.050270 -0.054489 0.287569 3.110905 1.561085
    27 -0.751252 -5.914874 -13.404036 -1.739213 -5.433731 -1.241880
    28 0.124289 -8.426980 -0.052335 0.403628 0.005925 0.421124
    29 0.447953 -2.798986 -0.200443 -1.083108 -0.024750 0.321985
    30 -0.032909 -1.499736 0.028378 -1.405033 0.023334 -0.026879
    31 -0.027022 -1.115984 -0.028023 -0.967278 0.021752 -0.015208
    32 -0.249534 -2.846964 -0.174213 -0.927167 -0.009008 0.151859
    33 0.043235 -1.656596 0.072574 -1.315085 -0.020930 0.005777
    34 0.031729 -1.137392 0.051025 -1.375111 -0.015333 0.007761
    35 -0.963866 -2.785145 -0.085350 -0.990983 0.136737 -0.225412
    36 0.028479 -1.403067 -0.017167 -0.965960 -0.135474 0.127432
    37 0.021413 -0.942156 0.012233 -0.964436 -0.025335 -0.033641
    38 1.164475 -2.543940 -0.170330 -1.202160 -0.161088 0.388818
    39 0.024032 -1.140761 -0.005631 -0.986046 0.010594 0.051247
    40 0.014898 -0.903521 -0.015942 -1.028794 0.009660 0.051438
    41 -0.586770 -1.264477 0.200161 0.221924 -1.275430 -2.979233
    42 1.569711 0.035243 0.016848 -0.019647 -0.007097 0.922310
    43 1.114041 0.040611 -0.005766 -0.028766 -0.034359 1.035400
    44 -0.045646 -0.072634 0.010491 0.230636 0.395471 1.618939
    45 -8.014766 2.635863 -0.454283 1.571732 -0.033055 -0.400023
  time 17
    0 4.615728 -5.026792 -4.454035 -1.564061 -3.089489 1.494542
    1 5.535558 -1.455844 -0.000001 0.000000 0.000000 -1.364276
    2 6.967555 -0.456137 0.775243 1.570767 -1.566682 1.570854
    3 0.594653 3.125398 -0.000001 0.000000 0.000000 0.000000
    4 0.793143 -0.098690 0.443446 -1.570775 1.559439 1.570817
    5 0.793143 -0.098690 -0.478457 1.570775 1.582159 1.570775
    6 -0.205318 -0.032883 -0.000050 -1.570797 0.000000 0.000000
    7 -0.002752 -2.016952 -0.003287 0.000000 0.000000 0.000000
    8 6.212353 6.231988 -8.885972 5.014792 -1.423864 1.240176
    9 8.073794 1.039693 -0.372470 1.568903 -3.117093 0.205671
    10 -0.110985 -8.416703 -0.162730 -0.174548 -0.005265 -0.135666
    11 -0.488518 -2.755602 -0.228260 -0.636514 -0.072434 -0.337320
    12 0.047700 -1.530573 0.014229 -1.481141 -0.125802 0.203368
    13 0.028786 -1.126514 -0.105143 -0.742955 -0.013303 0.014298
    14 0.250027 -2.820665 -0.238396 -0.418648 -0.123606 -0.157124
    15 -0.057572 -1.598510 0.030164 -1.580137 -0.056699 0.100860
    16 -0.034142 -1.160031 0.053531 -0.902405 0.008281 -0.023154
    17 0.957766 -2.746780 -0.090302 -0.138913 -0.159269 0.186081
    18 -0.033420 -1.393223 -0.022976 -0.746922 0.007634 -0.036734
    19 -0.022360 -0.961342 -0.004654 -0.883172 0.005525 -0.043001
    20 -1.180681 -2.507217 -0.193859 -0.314555 -0.083781 -0.213847
    21 -0.024967 -1.127840 0.017597 -1.431112 0.098765 0.048910
    22 -0.020057 -0.902687 0.025715 -0.805420 0.007514 -0.032334
    23 0.583510 -1.208996 0.197098 -0.016291 -1.086293 -0.690834
    24 1.481238 -0.200698 -0.049680 0.017733 0.168348 -0.720722
    25 0.987486 -0.214230 -0.006773 -0.101489 -0.020928 -1.227553
    26 0.120153 -0.050270 -0.054489 0.287569 3.110905 1.561085
    27 -0.747346 -5.922687 -13.388411 -1.738594 -5.435637 -1.241785
    28 0.124289 -8.426980 -0.052335 0.403024 0.007542 0.422708
    29 0.447953 -2.798986 -0.200443 -1.083108 -0.024750 0.321985
    30 -0.032909 -1.499736 0.028378 -1.405033 0.023334 -0.026879
    31 -0.027022 -1.115984 -0.028023 -0.967278 0.021752 -0.015208
    32 -0.249534 -2.846964 -0.174213 -0.927167 -0.009008 0.151859
    33 0.043235 -1.656596 0.072574 -1.315085 -0.020930 0.005777
    34 0.031729 -1.137392 0.051025 -1.375111 -0.015333 0.007761
    35 -0.963866 -2.785145 -0.085350 -0.990983 0.136737 -0.225412
    36 0.028479 -1.403067 -0.017167 -0.965960 -0.135474 0.127432
    37 0.021413 -0.942156 0.012233 -0.964436 -0.025335 -0.033641
    38 1.164475 -2.543940 -0.170330 -1.202160 -0.161088 0.388818
    39 0.024032 -1.140761 -0.005631 -0.986046 0.010594 0.051247
    40 0.014898 -0.903521 -0.015942 -1.028794 0.009660 0.051438
    41 -0.586770 -1.264477 0.200161 0.221924 -1.275430 -2.979233
    42 1.569711 0.035243 0.016848 -0.019647 -0.007097 0.922310
    43 1.114041 0.040611 -0.005766 -0.028766 -0.034359 1.035400
    44 -0.045646 -0.072634 0.010491 0.230636 0.395471 1.618939
    45 -8.014766 2.643676 -0.454283 1.571756 -0.033031 -0.401121
  time 18
    0 4.615728 -5.026792 -4.446222 -1.564636 -3.089201 1.494321
    1 5.535558 -1.455844 -0.000001 0.000000 0.000000 -1.364276
    2 6.967555 -0.456137 0.775243 1.570767 -1.566682 1.570854
    3 0.594653 3.125398 -0.000001 0.000000 0.000000 0.000000
    4 0.793143 -0.098690 0.443446 -1.570775 1.559439 1.570817
    5 0.793143 -0.098690 -0.478457 1.570775 1.582159 1.570775
    6 -0.205318 -0.032883 -0.000050 -1.570797 0.000000 0.000000
    7 -0.002752 -2.016952 -0.003287 0.000000 0.000000 0.000000
    8 6.208446 6.228082 -8.885972 5.013743 -1.423237 1.241229
    9 8.073794 1.039693 -0.372470 1.568807 -3.117093 0.205736
    10 -0.110985 -8.416703 -0.162730 -0.174821 -0.004638 -0.135995
    11 -0.488518 -2.755602 -0.228260 -0.636514 -0.072434 -0.337320
    12 0.047700 -1.530573 0.014229 -1.481141 -0.125802 0.203368
    13 0.028786 -1.126514 -0.105143 -0.742955 -0.013303 0.014298
    14 0.250027 -2.820665 -0.238396 -0.418648 -0.123606 -0.157124
    15 -0.057572 -1.598510 0.030164 -1.580137 -0.056699 0.100860
    16 -0.034142 -1.160031 0.053531 -0.902405 0.008281 -0.023154
    17 0.957766 -2.746780 -0.090302 -0.138913 -0.159269 0.186081
    18 -0.033420 -1.393223 -0.022976 -0.746922 0.007634 -0.036734
    19 -0.022360 -0.961342 -0.004654 -0.883172 0.005525 -0.043001
    20 -1.180681 -2.507217 -0.193859 -0.314555 -0.083781 -0.213847
    21 -0.024967 -1.127840 0.017597 -1.431112 0.098765 0.048910
    22 -0.020057 -0.902687 0.025715 -0.805420 0.007514 -0.032334
    23 0.583510 -1.208996 0.197098 -0.016291 -1.086293 -0.690834
    24 1.481238 -0.200698 -0.049680 0.017733 0.168348 -0.720722
    25 0.987486 -0.214230 -0.006773 -0.101489 -0.020928 -1.227553
    26 0.120153 -0.050270 -0.054489 0.287569 3.110905 1.561085
    27 -0.747346 -5.926594 -13.384504 -1.738361 -5.436399 -1.241880
    28 0.124289 -8.423074 -0.052335 0.402672 0.008323 0.423432
    29 0.447953 -2.798986 -0.200443 -1.083108 -0.024750 0.321985
    30 -0.032909 -1.499736 0.028378 -1.405033 0.023334 -0.026879
    31 -0.027022 -1.115984 -0.028023 -0.967278 0.021752 -0.015208
    32 -0.249534 -2.846964 -0.174213 -0.927167 -0.009008 0.151859
    33 0.043235 -1.656596 0.072574 -1.315085 -0.020930 0.005777
    34 0.031729 -1.137392 0.051025 -1.375111 -0.015333 0.007761
    35 -0.963866 -2.785145 -0.085350 -0.990983 0.136737 -0.225412
    36 0.028479 -1.403067 -0.017167 -0.965960 -0.135474 0.127432
    37 0.021413 -0.942156 0.012233 -0.964436 -0.025335 -0.033641
    38 1.164475 -2.543940 -0.170330 -1.202160 -0.161088 0.388818
    39 0.024032 -1.140761 -0.005631 -0.986046 0.010594 0.051247
    40 0.014898 -0.903521 -0.015942 -1.028794 0.009660 0.051438
    41 -0.586770 -1.264477 0.200161 0.221924 -1.275430 -2.979233
    42 1.569711 0.035243 0.016848 -0.019647 -0.007097 0.922310
    43 1.114041 0.040611 -0.005766 -0.028766 -0.034359 1.035400
    44 -0.045646 -0.072634 0.010491 0.230636 0.395471 1.618939
    45 -8.010859 2.651488 -0.454283 1.571768 -0.033019 -0.401905
  time 19
    0 4.615728 -5.026792 -4.446222 -1.564732 -3.089010 1.494321
    1 5.535558 -1.455844 -0.000001 0.000000 0.000000 -1.364276
    2 6.967555 -0.456137 0.775243 1.570767 -1.566682 1.570854
    3 0.594653 3.125398 -0.000001 0.000000 0.000000 0.000000
    4 0.793143 -0.098690 0.443446 -1.570775 1.559439 1.570817
    5 0.793143 -0.098690 -0.478457 1.570775 1.582159 1.570775
    6 -0.205318 -0.032883 -0.000050 -1.570797 0.000000 0.000000
    7 -0.002752 -2.016952 -0.003287 0.000000 0.000000 0.000000
    8 6.208446 6.228082 -8.885972 5.013648 -1.423237 1.241229
    9 8.073794 1.043599 -0.372470 1.568807 -3.117188 0.205801
    10 -0.110985 -8.416703 -0.162730 -0.174821 -0.004528 -0.135885
    11 -0.488518 -2.755602 -0.228260 -0.636514 -0.072434 -0.337320
    12 0.047700 -1.530573 0.014229 -1.481141 -0.125802 0.203368
    13 0.028786 -1.126514 -0.105143 -0.742955 -0.013303 0.014298
    14 0.250027 -2.820665 -0.238396 -0.418648 -0.123606 -0.157124
    15 -0.057572 -1.598510 0.030164 -1.580137 -0.056699 0.100860
    16 -0.034142 -1.160031 0.053531 -0.902405 0.008281 -0.023154
    17 0.957766 -2.746780 -0.090302 -0.138913 -0.159269 0.186081
    18 -0.033420 -1.393223 -0.022976 -0.746922 0.007634 -0.036734
    19 -0.022360 -0.961342 -0.004654 -0.883172 0.005525 -0.043001
    20 -1.180681 -2.507217 -0.193859 -0.314555 -0.083781 -0.213847
    21 -0.024967 -1.127840 0.017597 -1.431112 0.098765 0.048910
    22 -0.020057 -0.902687 0.025715 -0.805420 0.007514 -0.032334
    23 0.583510 -1.208996 0.197098 -0.016291 -1.086293 -0.690834
    24 1.481238 -0.200698 -0.049680 0.017733 0.168348 -0.720722
    25 0.987486 -0.214230 -0.006773 -0.101489 -0.020928 -1.227553
    26 0.120153 -0.050270 -0.054489 0.287569 3.110905 1.561085
    27 -0.747346 -5.926594 -13.380598 -1.738284 -5.436495 -1.241880
    28 0.124289 -8.423074 -0.052335 0.402597 0.008462 0.423477
    29 0.447953 -2.798986 -0.200443 -1.083108 -0.024750 0.321985
    30 -0.032909 -1.499736 0.028378 -1.405033 0.023334 -0.026879
    31 -0.027022 -1.115984 -0.028023 -0.967278 0.021752 -0.015208
    32 -0.249534 -2.846964 -0.174213 -0.927167 -0.009008 0.151859
    33 0.043235 -1.656596 0.072574 -1.315085 -0.020930 0.005777
    34 0.031729 -1.137392 0.051025 -1.375111 -0.015333 0.007761
    35 -0.963866 -2.785145 -0.085350 -0.990983 0.136737 -0.225412
    36 0.028479 -1.403067 -0.017167 -0.965960 -0.135474 0.127432
    37 0.021413 -0.942156 0.012233 -0.964436 -0.025335 -0.033641
    38 1.164475 -2.543940 -0.170330 -1.202160 -0.161088 0.388818
    39 0.024032 -1.140761 -0.005631 -0.986046 0.010594 0.051247
    40 0.014898 -0.903521 -0.015942 -1.028794 0.009660 0.051438
    41 -0.586770 -1.264477 0.200161 0.221924 -1.275430 -2.979233
    42 1.569711 0.035243 0.016848 -0.019647 -0.007097 0.922310
    43 1.114041 0.040611 -0.005766 -0.028766 -0.034359 1.035400
    44 -0.045646 -0.072634 0.010491 0.230636 0.395471 1.618939
    45 -8.010859 2.651488 -0.454283 1.571780 -0.033019 -0.402062
  time 20
    0 4.615728 -5.026792 -4.450128 -1.564540 -3.089106 1.494486
    1 5.535558 -1.455844 -0.000001 0.000000 0.000000 -1.364276
    2 6.967555 -0.456137 0.775243 1.570767 -1.566682 1.570854
    3 0.594653 3.125398 -0.000001 0.000000 0.000000 0.000000
    4 0.793143 -0.098690 0.443446 -1.570775 1.559439 1.570817
    5 0.793143 -0.098690 -0.478457 1.570775 1.582159 1.570775
    6 -0.205318 -0.032883 -0.000050 -1.570797 0.000000 0.000000
    7 -0.002752 -2.016952 -0.003287 0.000000 0.000000 0.000000
    8 6.208446 6.231988 -8.885972 5.014220 -1.423488 1.240750
    9 8.073794 1.043599 -0.372470 1.568807 -3.117188 0.205801
    10 -0.110985 -8.416703 -0.162730 -0.174684 -0.004747 -0.135666
    11 -0.488518 -2.755602 -0.228260 -0.636514 -0.072434 -0.337320
    12 0.047700 -1.530573 0.014229 -1.481141 -0.125802 0.203368
    13 0.028786 -1.126514 -0.105143 -0.742955 -0.013303 0.014298
    14 0.250027 -2.820665 -0.238396 -0.418648 -0.123606 -0.157124
    15 -0.057572 -1.598510 0.030164 -1.580137 -0.056699 0.100860
    16 -0.034142 -1.160031 0.053531 -0.902405 0.008281 -0.023154
    17 0.957766 -2.746780 -0.090302 -0.138913 -0.159269 0.186081
    18 -0.033420 -1.393223 -0.022976 -0.746922 0.007634 -0.036734
    19 -0.022360 -0.961342 -0.004654 -0.883172 0.005525 -0.043001
    20 -1.180681 -2.507217 -0.193859 -0.314555 -0.083781 -0.213847
    21 -0.024967 -1.127840 0.017597 -1.431112 0.098765 0.048910
    22 -0.020057 -0.902687 0.025715 -0.805420 0.007514 -0.032334
    23 0.583510 -1.208996 0.197098 -0.016291 -1.086293 -0.690834
    24 1.481238 -0.200698 -0.049680 0.017733 0.168348 -0.720722
    25 0.987486 -0.214230 -0.006773 -0.101489 -0.020928 -1.227553
    26 0.120153 -0.050270 -0.054489 0.287569 3.110905 1.561085
    27 -0.747346 -5.926594 -13.384504 -1.738439 -5.436209 -1.241785
    28 0.124289 -8.423074 -0.052335 0.402697 0.008211 0.423115
    29 0.447953 -2.798986 -0.200443 -1.083108 -0.024750 0.321985
    30 -0.032909 -1.499736 0.028378 -1.405033 0.023334 -0.026879
    31 -0.027022 -1.115984 -0.028023 -0.967278 0.021752 -0.015208
    32 -0.249534 -2.846964 -0.174213 -0.927167 -0.009008 0.151859
    33 0.043235 -1.656596 0.072574 -1.315085 -0.020930 0.005777
    34 0.031729 -1.137392 0.051025 -1.375111 -0.015333 0.007761
    35 -0.963866 -2.785145 -0.085350 -0.990983 0.136737 -0.225412
    36 0.028479 -1.403067 -0.017167 -0.965960 -0.135474 0.127432
    37 0.021413 -0.942156 0.012233 -0.964436 -0.025335 -0.033641
    38 1.164475 -2.543940 -0.170330 -1.202160 -0.161088 0.388818
    39 0.024032 -1.140761 -0.005631 -0.986046 0.010594 0.051247
    40 0.014898 -0.903521 -0.015942 -1.028794 0.009660 0.051438
    41 -0.586770 -1.264477 0.200161 0.221924 -1.275430 -2.979233
    42 1.569711 0.035243 0.016848 -0.019647 -0.007097 0.922310
    43 1.114041 0.040611 -0.005766 -0.028766 -0.034359 1.035400
    44 -0.045646 -0.072634 0.010491 0.230636 0.395471 1.618939
    45 -8.010859 2.651488 -0.454283 1.571768 -0.033019 -0.401827
  time 21
    0 4.615728 -5.026792 -4.454035 -1.564253 -3.089297 1.494597
    1 5.535558 -1.455844 -0.000001 0.000000 0.000000 -1.364276
    2 6.967555 -0.456137 0.775243 1.570767 -1.566682 1.570854
    3 0.594653 3.125398 -0.000001 0.000000 0.000000 0.000000
    4 0.793143 -0.098690 0.443446 -1.570775 1.559439 1.570817
    5 0.793143 -0.098690 -0.478457 1.570775 1.582159 1.570775
    6 -0.205318 -0.032883 -0.000050 -1.570797 0.000000 0.000000
    7 -0.002752 -2.016952 -0.003287 0.000000 0.000000 0.000000
    8 6.212353 6.231988 -8.885972 5.014697 -1.423801 1.240176
    9 8.073794 1.043599 -0.372470 1.568807 -3.117188 0.205801
    10 -0.110985 -8.416703 -0.162730 -0.174548 -0.005061 -0.135520
    11 -0.488518 -2.755602 -0.228260 -0.636514 -0.072434 -0.337320
    12 0.047700 -1.530573 0.014229 -1.481141 -0.125802 0.203368
    13 0.028786 -1.126514 -0.105143 -0.742955 -0.013303 0.014298
    14 0.250027 -2.820665 -0.238396 -0.418648 -0.123606 -0.157124
    15 -0.057572 -1.598510 0.030164 -1.580137 -0.056699 0.100860
    16 -0.034142 -1.160031 0.053531 -0.902405 0.008281 -0.023154
    17 0.957766 -2.746780 -0.090302 -0.138913 -0.159269 0.186081
    18 -0.033420 -1.393223 -0.022976 -0.746922 0.007634 -0.036734
    19 -0.022360 -0.961342 -0.004654 -0.883172 0.005525 -0.043001
    20 -1.180681 -2.507217 -0.193859 -0.314555 -0.083781 -0.213847
    21 -0.024967 -1.127840 0.017597 -1.431112 0.098765 0.048910
    22 -0.020057 -0.902687 0.025715 -0.805420 0.007514 -0.032334
    23 0.583510 -1.208996 0.197098 -0.016291 -1.086293 -0.690834
    24 1.481238 -0.200698 -0.049680 0.017733 0.168348 -0.720722
    25 0.987486 -0.214230 -0.006773 -0.101489 -0.020928 -1.227553
    26 0.120153 -0.050270 -0.054489 0.287569 3.110905 1.561085
    27 -0.747346 -5.922687 -13.388411 -1.738594 -5.435827 -1.241785
    28 0.124289 -8.426980 -0.052335 0.402873 0.007821 0.422753
    29 0.447953 -2.798986 -0.200443 -1.083108 -0.024750 0.321985
    30 -0.032909 -1.499736 0.028378 -1.405033 0.023334 -0.026879
    31 -0.027022 -1.115984 -0.028023 -0.967278 0.021752 -0.015208
    32 -0.249534 -2.846964 -0.174213 -0.927167 -0.009008 0.151859
    33 0.043235 -1.656596 0.072574 -1.315085 -0.020930 0.005777
    34 0.031729 -1.137392 0.051025 -1.375111 -0.015333 0.007761
    35 -0.963866 -2.785145 -0.085350 -0.990983 0.136737 -0.225412
    36 0.028479 -1.403067 -0.017167 -0.965960 -0.135474 0.127432
    37 0.021413 -0.942156 0.012233 -0.964436 -0.025335 -0.033641
    38 1.164475 -2.543940 -0.170330 -1.202160 -0.161088 0.388818
    39 0.024032 -1.140761 -0.005631 -0.986046 0.010594 0.051247
    40 0.014898 -0.903521 -0.015942 -1.028794 0.009660 0.051438
    41 -0.586770 -1.264477 0.200161 0.221924 -1.275430 -2.979233
    42 1.569711 0.035243 0.016848 -0.019647 -0.007097 0.922310
    43 1.114041 0.040611 -0.005766 -0.028766 -0.034359 1.035400
    44 -0.045646 -0.072634 0.010491 0.230636 0.395471 1.618939
    45 -8.010859 2.647582 -0.454283 1.571768 -0.033031 -0.401513
  time 22
    0 4.615728 -5.026792 -4.454035 -1.564061 -3.089489 1.494542
    1 5.535558 -1.455844 -0.000001 0.000000 0.000000 -1.364276
    2 6.967555 -0.456137 0.775243 1.570767 -1.566682 1.570854
    3 0.594653 3.125398 -0.000001 0.000000 0.000000 0.000000
    4 0.793143 -0.098690 0.443446 -1.570775 1.559439 1.570817
    5 0.793143 -0.098690 -0.478457 1.570775 1.582159 1.570775
    6 -0.205318 -0.032883 -0.000050 -1.570797 0.000000 0.000000
    7 -0.002752 -2.016952 -0.003287 0.000000 0.000000 0.000000
    8 6.212353 6.231988 -8.885972 5.014792 -1.423864 1.240176
    9 8.073794 1.039693 -0.372470 1.568903 -3.117093 0.205671
    10 -0.110985 -8.416703 -0.162730 -0.174548 -0.005265 -0.135666
    11 -0.488518 -2.755602 -0.228260 -0.636514 -0.072434 -0.337320
    12 0.047700 -1.530573 0.014229 -1.481141 -0.125802 0.203368
    13 0.028786 -1.126514 -0.105143 -0.742955 -0.013303 0.014298
    14 0.250027 -2.820665 -0.238396 -0.418648 -0.123606 -0.157124
    15 -0.057572 -1.598510 0.030164 -1.580137 -0.056699 0.100860
    16 -0.034142 -1.160031 0.053531 -0.902405 0.008281 -0.023154
    17 0.957766 -2.746780 -0.090302 -0.138913 -0.159269 0.186081
    18 -0.033420 -1.393223 -0.022976 -0.746922 0.007634 -0.036734
    19 -0.022360 -0.961342 -0.004654 -0.883172 0.005525 -0.043001
    20 -1.180681 -2.507217 -0.193859 -0.314555 -0.083781 -0.213847
    21 -0.024967 -1.127840 0.017597 -1.431112 0.098765 0.048910
    22 -0.020057 -0.902687 0.025715 -0.805420 0.007514 -0.032334
    23 0.583510 -1.208996 0.197098 -0.016291 -1.086293 -0.690834
    24 1.481238 -0.200698 -0.049680 0.017733 0.168348 -0.720722
    25 0.987486 -0.214230 -0.006773 -0.101489 -0.020928 -1.227553
    26 0.120153 -0.050270 -0.054489 0.287569 3.110905 1.561085
    27 -0.747346 -5.922687 -13.388411 -1.738594 -5.435637 -1.241785
    28 0.124289 -8.426980 -0.052335 0.403024 0.007542 0.422708
    29 0.447953 -2.798986 -0.200443 -1.083108 -0.024750 0.321985
    30 -0.032909 -1.499736 0.028378 -1.405033 0.023334 -0.026879
    31 -0.027022 -1.115984 -0.028023 -0.967278 0.021752 -0.015208
    32 -0.249534 -2.846964 -0.174213 -0.927167 -0.009008 0.151859
    33 0.043235 -1.656596 0.072574 -1.315085 -0.020930 0.005777
    34 0.031729 -1.137392 0.051025 -1.375111 -0.015333 0.007761
    35 -0.963866 -2.785145 -0.085350 -0.990983 0.136737 -0.225412
    36 0.028479 -1.403067 -0.017167 -0.965960 -0.135474 0.127432
    37 0.021413 -0.942156 0.012233 -0.964436 -0.025335 -0.033641
    38 1.164475 -2.543940 -0.170330 -1.202160 -0.161088 0.388818
    39 0.024032 -1.140761 -0.005631 -0.986046 0.010594 0.051247
    40 0.014898 -0.903521 -0.015942 -1.028794 0.009660 0.051438
    41 -0.586770 -1.264477 0.200161 0.221924 -1.275430 -2.979233
    42 1.569711 0.035243 0.016848 -0.019647 -0.007097 0.922310
    43 1.114041 0.040611 -0.005766 -0.028766 -0.034359 1.035400
    44 -0.045646 -0.072634 0.010491 0.230636 0.395471 1.618939
    45 -8.014766 2.643676 -0.454283 1.571756 -0.033031 -0.401121
  time 23
    0 4.615728 -5.026792 -4.454035 -1.564061 -3.089681 1.494431
    1 5.535558 -1.455844 -0.000001 0.000000 0.000000 -1.364276
    2 6.967555 -0.456137 0.775243 1.570767 -1.566682 1.570854
    3 0.594653 3.125398 -0.000001 0.000000 0.000000 0.000000
    4 0.793143 -0.098690 0.443446 -1.570775 1.559439 1.570817
    5 0.793143 -0.098690 -0.478457 1.570775 1.582159 1.570775
    6 -0.205318 -0.032883 -0.000050 -1.570797 0.000000 0.000000
    7 -0.002752 -2.016952 -0.003287 0.000000 0.000000 0.000000
    8 6.212353 6.231988 -8.885972 5.014411 -1.423676 1.240463
    9 8.073794 1.039693 -0.372470 1.568903 -3.117093 0.205541
    10 -0.110985 -8.416703 -0.162730 -0.174639 -0.005343 -0.136068
    11 -0.488518 -2.755602 -0.228260 -0.636514 -0.072434 -0.337320
    12 0.047700 -1.530573 0.014229 -1.481141 -0.125802 0.203368
    13 0.028786 -1.126514 -0.105143 -0.742955 -0.013303 0.014298
    14 0.250027 -2.820665 -0.238396 -0.418648 -0.123606 -0.157124
    15 -0.057572 -1.598510 0.030164 -1.580137 -0.056699 0.100860
    16 -0.034142 -1.160031 0.053531 -0.902405 0.008281 -0.023154
    17 0.957766 -2.746780 -0.090302 -0.138913 -0.159269 0.186081
    18 -0.033420 -1.393223 -0.022976 -0.746922 0.007634 -0.036734
    19 -0.022360 -0.961342 -0.004654 -0.883172 0.005525 -0.043001
    20 -1.180681 -2.507217 -0.193859 -0.314555 -0.083781 -0.213847
    21 -0.024967 -1.127840 0.017597 -1.431112 0.098765 0.048910
    22 -0.020057 -0.902687 0.025715 -0.805420 0.007514 -0.032334
    23 0.583510 -1.208996 0.197098 -0.016291 -1.086293 -0.690834
    24 1.481238 -0.200698 -0.049680 0.017733 0.168348 -0.720722
    25 0.987486 -0.214230 -0.006773 -0.101489 -0.020928 -1.227553
    26 0.120153 -0.050270 -0.054489 0.287569 3.110905 1.561085
    27 -0.747346 -5.922687 -13.392317 -1.738594 -5.435732 -1.241785
    28 0.124289 -8.426980 -0.052335 0.403100 0.007403 0.422889
    29 0.447953 -2.798986 -0.200443 -1.083108 -0.024750 0.321985
    30 -0.032909 -1.499736 0.028378 -1.405033 0.023334 -0.026879
    31 -0.027022 -1.115984 -0.028023 -0.967278 0.021752 -0.015208
    32 -0.249534 -2.846964 -0.174213 -0.927167 -0.009008 0.151859
    33 0.043235 -1.656596 0.072574 -1.315085 -0.020930 0.005777
    34 0.031729 -1.137392 0.051025 -1.375111 -0.015333 0.007761
    35 -0.963866 -2.785145 -0.085350 -0.990983 0.136737 -0.225412
    36 0.028479 -1.403067 -0.017167 -0.965960 -0.135474 0.127432
    37 0.021413 -0.942156 0.012233 -0.964436 -0.025335 -0.033641
    38 1.164475 -2.543940 -0.170330 -1.202160 -0.161088 0.388818
    39 0.024032 -1.140761 -0.005631 -0.986046 0.010594 0.051247
    40 0.014898 -0.903521 -0.015942 -1.028794 0.009660 0.051438
    41 -0.586770 -1.264477 0.200161 0.221924 -1.275430 -2.979233
    42 1.569711 0.035243 0.016848 -0.019647 -0.007097 0.922310
    43 1.114041 0.040611 -0.005766 -0.028766 -0.034359 1.035400
    44 -0.045646 -0.072634 0.010491 0.230636 0.395471 1.618939
    45 -8.014766 2.643676 -0.454283 1.571756 -0.033031 -0.400886
  time 24
    0 4.615728 -5.026792 -4.454035 -1.563965 -3.089872 1.494321
    1 5.535558 -1.455844 -0.000001 0.000000 0.000000 -1.364276
    2 6.967555 -0.456137 0.775243 1.570767 -1.566682 1.570854
    3 0.594653 3.125398 -0.000001 0.000000 0.000000 0.000000
    4 0.793143 -0.098690 0.443446 -1.570775 1.559439 1.570817
    5 0.793143 -0.098690 -0.478457 1.570775 1.582159 1.570775
    6 -0.205318 -0.032883 -0.000050 -1.570797 0.000000 0.000000
    7 -0.002752 -2.016952 -0.003287 0.000000 0.000000 0.000000
    8 6.212353 6.231988 -8.885972 5.014125 -1.423551 1.240846
    9 8.073794 1.039693 -0.372470 1.568903 -3.117093 0.205410
    10 -0.110985 -8.416703 -0.162730 -0.174752 -0.005406 -0.136506
    11 -0.488518 -2.755602 -0.228260 -0.636514 -0.072434 -0.337320
    12 0.047700 -1.530573 0.014229 -1.481141 -0.125802 0.203368
    13 0.028786 -1.126514 -0.105143 -0.742955 -0.013303 0.014298
    14 0.250027 -2.820665 -0.238396 -0.418648 -0.123606 -0.157124
    15 -0.057572 -1.598510 0.030164 -1.580137 -0.056699 0.100860
    16 -0.034142 -1.160031 0.053531 -0.902405 0.008281 -0.023154
    17 0.957766 -2.746780 -0.090302 -0.138913 -0.159269 0.186081
    18 -0.033420 -1.393223 -0.022976 -0.746922 0.007634 -0.036734
    19 -0.022360 -0.961342 -0.004654 -0.883172 0.005525 -0.043001
    20 -1.180681 -2.507217 -0.193859 -0.314555 -0.083781 -0.213847
    21 -0.024967 -1.127840 0.017597 -1.431112 0.098765 0.048910
    22 -0.020057 -0.902687 0.025715 -0.805420 0.007514 -0.032334
    23 0.583510 -1.208996 0.197098 -0.016291 -1.086293 -0.690834
    24 1.481238 -0.200698 -0.049680 0.017733 0.168348 -0.720722
    25 0.987486 -0.214230 -0.006773 -0.101489 -0.020928 -1.227553
    26 0.120153 -0.050270 -0.054489 0.287569 3.110905 1.561085
    27 -0.751252 -5.922687 -13.392317 -1.738594 -5.435732 -1.241880
    28 0.124289 -8.426980 -0.052335 0.403201 0.007263 0.423070
    29 0.447953 -2.798986 -0.200443 -1.083108 -0.024750 0.321985
    30 -0.032909 -1.499736 0.028378 -1.405033 0.023334 -0.026879
    31 -0.027022 -1.115984 -0.028023 -0.967278 0.021752 -0.015208
    32 -0.249534 -2.846964 -0.174213 -0.927167 -0.009008 0.151859
    33 0.043235 -1.656596 0.072574 -1.315085 -0.020930 0.005777
    34 0.031729 -1.137392 0.051025 -1.375111 -0.015333 0.007761
    35 -0.963866 -2.785145 -0.085350 -0.990983 0.136737 -0.225412
    36 0.028479 -1.403067 -0.017167 -0.965960 -0.135474 0.127432
    37 0.021413 -0.942156 0.012233 -0.964436 -0.025335 -0.033641
    38 1.164475 -2.543940 -0.170330 -1.202160 -0.161088 0.388818
    39 0.024032 -1.140761 -0.005631 -0.986046 0.010594 0.051247
    40 0.014898 -0.903521 -0.015942 -1.028794 0.009660 0.051438
    41 -0.586770 -1.264477 0.200161 0.221924 -1.275430 -2.979233
    42 1.569711 0.035243 0.016848 -0.019647 -0.007097 0.922310
    43 1.114041 0.040611 -0.005766 -0.028766 -0.034359 1.035400
    44 -0.045646 -0.072634 0.010491 0.230636 0.395471 1.618939
    45 -8.014766 2.639769 -0.454283 1.571744 -0.033043 -0.400651
end
