// Created by Crowbar 0.49.0.0

$modelname "weapons/tfa_cso/c_thunderbolt_v6.mdl"

$Include "csonline_gmod.qci"

$bodygroup "weapon"
{
	studio "v_sfsniper"
}

$CDMaterials "models\weapons\tfa_cso\thunderbolt_v6\"

$attachment 0 "Bone02" 30 0 0

$definebone "root" "" -1.000000 1.629157 0.541027 0.000000 0.000000 0.000000 0.000000 0.000000 0.000000 -0.000000 0.000000 0.000000
$definebone "Bone01" "root" 8.610675 1.355009 -8.035786 -87.597498 177.381763 171.407643 0.000000 0.000000 0.000000 -0.000000 0.000000 -0.000001
$definebone "Bone_Lefthand" "Bone01" -0.071918 -8.498731 -0.104136 16.308615 2.681042 8.644500 -0.000000 0.000000 0.000000 0.000003 0.000000 -0.000000
$definebone "Bone02" "Bone_Lefthand" 2.493880 -1.690681 1.272952 2.890973 -89.500478 14.135783 0.000000 0.000000 0.000000 -0.000000 -0.000000 0.000001
$definebone "Dummy01" "Bone02" 6.849645 -2.184691 -0.000002 0.000001 -89.999983 0.000000 0.000000 0.000000 0.000000 0.000001 0.000000 0.000000
$definebone "Bone08" "Dummy01" 0.000000 0.000000 0.000000 0.000001 0.000000 0.000000 0.000000 0.000000 0.000000 0.000001 0.000000 0.000000
$definebone "Bone03" "Dummy01" 8.452023 -0.000010 0.000001 0.000001 0.000000 0.000058 0.000000 0.000000 0.000000 0.000001 0.000000 0.000000
$definebone "Bone38" "Bone02" 6.060306 -0.104643 0.000092 89.999983 -90.002845 0.000000 0.000000 0.000000 0.000000 -0.000001 -0.000000 0.000000
$definebone "Bone24" "Bone02" 8.188305 -0.071355 0.000072 89.999983 -90.000038 0.000000 0.000000 0.000000 0.000000 -0.000001 -0.000000 0.000000
$definebone "Bone16" "Bone02" 10.352280 -0.480001 -0.017868 89.999983 -90.000038 0.000000 0.000000 0.000000 0.000000 -0.000001 -0.000000 0.000000
$definebone "Bone26" "Bone02" 10.742474 3.131525 -0.044799 -0.000000 -0.000000 0.000001 0.000000 0.000000 0.000000 -0.000000 -0.000000 0.000001
$definebone "Bone42" "Bone02" 26.656214 0.370400 -0.007830 89.999983 89.999983 0.000000 0.000000 0.000000 0.000000 0.000001 0.000000 0.000000
$definebone "Bone47" "Bone02" 24.707989 0.370400 -0.007830 89.999983 90.000038 0.000000 0.000000 0.000000 -0.000000 0.000001 0.000000 0.000000
$definebone "Bone49" "Bone02" 22.876362 0.370399 -0.007829 89.999983 89.999983 0.000000 0.000000 0.000000 0.000000 0.000001 0.000000 0.000000
$definebone "Bone51" "Bone02" 21.046909 0.370399 -0.007829 89.999983 89.999983 0.000000 0.000000 0.000000 0.000000 0.000001 0.000000 0.000000
$definebone "Bone53" "Bone02" 19.084993 0.370398 -0.007826 89.999983 89.999983 0.000000 0.000000 0.000000 0.000000 0.000001 0.000000 0.000000
$definebone "Bone55" "Bone02" 17.106504 0.370398 -0.007827 89.999983 89.999983 0.000000 0.000000 0.000000 0.000000 0.000001 0.000000 0.000000
$definebone "Bone57" "Bone02" 15.228266 0.370400 -0.007825 89.999983 89.999983 0.000000 0.000000 0.000000 0.000000 0.000001 0.000000 0.000000
$definebone "Bone59" "Bone02" 13.395451 0.370399 -0.007825 89.999983 89.999983 0.000000 0.000000 0.000000 0.000000 0.000001 0.000000 0.000000
$definebone "Bone57(mirrored)" "Bone02" 15.228266 0.370400 -0.007825 -89.999983 -90.000038 0.000000 0.000000 0.000000 0.000000 -0.000001 0.000000 -0.000000
$definebone "Bone59(mirrored)" "Bone02" 13.395451 0.370399 -0.007825 -89.999983 -90.000038 0.000000 0.000000 0.000000 0.000000 -0.000001 0.000000 -0.000000
$definebone "Bone55(mirrored)" "Bone02" 17.106504 0.370398 -0.007827 -89.999983 -90.000038 0.000000 0.000000 0.000000 0.000000 -0.000001 0.000000 -0.000000
$definebone "Bone51(mirrored)" "Bone02" 21.046909 0.370399 -0.007829 -89.999983 -90.000038 0.000000 0.000000 0.000000 0.000000 -0.000001 0.000000 -0.000000
$definebone "Bone53(mirrored)" "Bone02" 19.084993 0.370398 -0.007826 -89.999983 -90.000038 0.000000 0.000000 0.000000 0.000000 -0.000001 0.000000 -0.000000
$definebone "Bone49(mirrored)" "Bone02" 22.876362 0.370399 -0.007829 -89.999983 -90.000038 0.000000 0.000000 0.000000 0.000000 -0.000001 0.000000 -0.000000
$definebone "Bone42(mirrored)" "Bone02" 26.656214 0.370400 -0.007830 -89.999983 -90.000038 0.000000 0.000000 0.000000 0.000000 -0.000001 0.000000 -0.000000
$definebone "Bone47(mirrored)" "Bone02" 24.707989 0.370400 -0.007830 -89.999983 -89.999983 0.000000 -0.000000 0.000000 0.000000 -0.000001 0.000000 -0.000000
$definebone "Bone34(mirrored)" "Bone02" 28.766008 0.370400 -0.007831 -89.999983 -90.000038 0.000000 0.000000 0.000000 0.000000 -0.000001 0.000000 -0.000000
$definebone "Bone34" "Bone02" 28.766008 0.370400 -0.007831 89.999983 89.999983 0.000000 0.000000 0.000000 0.000000 0.000001 0.000000 0.000000

$sequence "idle1" {
	"v_sfsniper_anims\idle1"
	{ event 5004 0 "ThunderBolt.Idle" }
	fps 30
	activity "ACT_VM_IDLE" 1
	snap
	loop
}
$sequence "shoot1" {
	"v_sfsniper_anims\shoot1"
	{ event 5001 0 "#I19 S0.1 R2 F0 P30 T0.01 A1 L0 O0 E20" }
	{ event 5001 2 "#I19 S0.2 R2 F0 P30 T0.01 A1 L0 O0 E20" }
	fps 30
	activity "ACT_VM_PRIMARYATTACK" 1
	snap
}
$sequence "draw" {
	"v_sfsniper_anims\draw"
	{ event 5004 7 "ThunderBolt.Draw" }
	fps 30
	activity "ACT_VM_DRAW" 1
	snap
}
