// Created by Crowbar 0.49.0.0

$modelname "w_as50g.mdl"
$cd "."
$cdtexture "."
$cliptotextures
$scale 1.0

$bodygroup "studio"
{
	studio "w_as50g"
}

$flags 0

$texturegroup "skinfamilies"
{
	{ "#256256as50g_p.bmp" }
}


$cbox 0 0 0 0 0 0

$bbox 0 0 0 0 0 0

$hbox 0 "as50-p" -33.610001 -0.93 -5.28 9.44 0.92 4.06

$sequence "idle" {
	"w_as50g_anims\idle"
	fps 30
}
