version 1
nodes
  0 "root" -1
  1 "Bone01" 0
  2 "Bone_Lefthand" 1
  3 "Bone08" 2
  4 "Dummy02" 3
  5 "Bone42" 4
  6 "Dummy03" 3
  7 "Bone47" 6
  8 "Bone26" 3
  9 "Bone24" 3
  10 "Bone16" 3
  11 "Dummy01" 5
  12 "Bone02" 11
  13 "Bone_L_Upper" 1
  14 "Bone13" 2
  15 "Bone14" 14
  16 "Bone15" 15
  17 "Bone17" 2
  18 "Bone18" 17
  19 "Bone19" 18
  20 "Bone21" 2
  21 "Bone22" 20
  22 "Bone23" 21
  23 "Bone09" 2
  24 "Bone10" 23
  25 "Bone11" 24
  26 "Bone05" 2
  27 "Bone06" 26
  28 "Bone07" 27
  29 "Bone_Se_Hand-L" 2
  30 "Bone04" 0
  31 "Bone_Righthand" 30
  32 "Bone39" 31
  33 "Bone40" 32
  34 "Bone41" 33
  35 "Bone35" 31
  36 "Bone36" 35
  37 "Bone37" 36
  38 "Bone31" 31
  39 "Bone32" 38
  40 "Bone33" 39
  41 "Bone43" 31
  42 "Bone44" 41
  43 "Bone45" 42
  44 "Bone27" 31
  45 "Bone28" 44
  46 "Bone29" 45
  47 "Bone_Se_Hand-R" 31
  48 "Bone_R_Upper" 30
end
skeleton
  time 0
    0 -0.349399 1.166145 0.203512 0.000000 0.000000 0.000000
    1 9.782007 3.188293 -12.399488 -1.595706 -1.321656 1.209859
    2 -0.071919 -8.498729 -0.104136 0.215122 0.075070 -0.253993
    3 4.238646 -4.266517 0.498798 -3.065845 0.124236 -1.536350
    4 2.319580 -1.456083 -0.000001 0.000000 0.000000 -1.570796
    5 1.490471 -0.000001 -0.000001 0.000000 0.000000 0.175233
    6 8.830292 -0.400003 -2.170229 0.000000 0.000000 -1.570796
    7 0.000000 0.000000 0.000000 0.000000 0.000000 0.000000
    8 1.430789 2.565281 -2.253419 -0.000001 -0.000001 0.115910
    9 4.989939 2.565243 -2.253418 -0.000001 -0.000001 0.115910
    10 16.804588 2.565286 -2.253421 -0.000001 -0.000001 0.115910
    11 0.591962 -4.172407 -0.000001 0.000000 0.000000 1.389440
    12 -0.460952 58.176624 -0.503922 0.000000 0.000000 0.000000
    13 1.257180 8.762585 -0.153713 -1.570562 0.002683 -1.566807
    14 -0.488518 -2.755602 -0.228260 -0.285957 0.018206 -0.220219
    15 0.039887 -1.479790 0.029854 -2.163980 0.000000 0.000001
    16 0.028786 -1.075731 -0.023109 -0.729241 0.000000 0.000000
    17 0.250027 -2.820665 -0.238396 -0.090819 0.062503 -0.167059
    18 -0.049759 -1.680544 0.100479 -2.122085 0.000000 -0.000002
    19 -0.034142 -1.148312 0.084782 -0.909626 0.000000 0.000000
    20 0.957766 -2.746780 -0.090302 0.349903 -0.123483 -0.019742
    21 -0.033420 -1.397129 -0.011257 -1.101918 0.000000 -0.000001
    22 -0.022360 -0.957436 0.018784 -0.799989 0.000000 0.000000
    23 -1.180681 -2.507217 -0.193859 0.014387 0.131222 -0.129547
    24 -0.024967 -1.123934 0.017597 -1.504420 0.000000 0.000001
    25 -0.020057 -0.890968 0.010090 -1.588318 0.000000 0.000000
    26 0.583510 -1.197277 0.185379 0.281706 -0.595144 -0.857319
    27 1.535927 0.010246 0.005009 -0.002964 -0.012979 -0.682290
    28 1.100771 0.004527 -0.010679 -0.016147 -0.001453 -1.484153
    29 0.120153 -0.050270 -0.054489 0.287569 3.110905 1.561085
    30 -0.567653 -11.032218 -13.689201 0.934731 -4.086680 1.404357
    31 0.096944 -8.450418 -0.009365 -0.333617 -1.431726 0.746550
    32 0.447953 -2.798986 -0.200443 -1.210185 0.118642 0.257028
    33 -0.032909 -1.480204 0.004940 -1.014331 0.000000 0.000002
    34 -0.027022 -1.076920 -0.020210 -0.486864 0.000000 0.000000
    35 -0.249534 -2.846964 -0.174213 -0.924990 0.119445 0.213547
    36 0.043235 -1.683941 0.096012 -1.290377 0.002823 -0.000167
    37 0.031729 -1.160830 0.058838 -0.456131 0.000642 0.008372
    38 -0.963866 -2.785145 -0.085350 -0.385535 0.170953 0.241411
    39 0.028479 -1.403067 0.006271 -1.058247 0.000000 0.000000
    40 0.021413 -0.957781 0.020046 -0.471292 0.000000 0.000000
    41 1.164475 -2.543940 -0.170330 -1.379512 0.036670 0.462095
    42 0.024032 -1.129042 0.017807 -0.836349 0.000000 0.000001
    43 0.014898 -0.883989 -0.019848 -0.452581 0.000000 0.000000
    44 -0.586770 -1.264477 0.200161 0.402031 -0.483616 -3.269282
    45 1.522835 0.058681 0.016848 0.001410 0.008985 0.696420
    46 1.117947 0.048424 -0.005766 -0.007218 -0.024143 0.346703
    47 -0.139399 -0.111698 0.014397 0.846771 0.171241 1.393752
    48 -6.260806 6.983652 -0.294122 1.580804 -0.005023 -0.912799
  time 1
    0 -0.349399 1.166145 0.203512 0.000000 0.000000 0.000000
    1 9.750757 3.727372 -12.102604 -1.592238 -1.323904 1.206474
    2 -0.071919 -8.498729 -0.104136 0.208279 0.074938 -0.253897
    3 4.238646 -4.266517 0.498798 -3.065845 0.124236 -1.536350
    4 2.319580 -1.456083 -0.000001 0.000000 0.000000 -1.570796
    5 1.627194 -0.000001 -0.000001 0.000000 0.000000 0.175233
    6 8.830292 -0.400003 -2.170229 0.000000 0.000000 -1.570796
    7 0.000000 0.000000 0.000000 0.000000 0.000000 0.000000
    8 1.430789 2.565281 -2.253419 -0.000001 -0.000001 0.765838
    9 4.989939 2.565243 -2.253418 -0.000001 -0.000001 0.765838
    10 16.804588 2.565286 -2.253421 -0.000001 -0.000001 0.765838
    11 0.591962 -4.172407 -0.000001 0.000000 0.000000 1.389440
    12 -0.140629 60.623484 -0.687521 0.000000 0.000000 0.000000
    13 1.257180 8.762585 -0.153713 -1.570562 0.002683 -1.566807
    14 -0.488518 -2.755602 -0.228260 -0.285957 0.018206 -0.220219
    15 0.039887 -1.479790 0.029854 -2.163980 0.000000 0.000001
    16 0.028786 -1.075731 -0.023109 -0.729241 0.000000 0.000000
    17 0.250027 -2.820665 -0.238396 -0.090819 0.062503 -0.167059
    18 -0.049759 -1.680544 0.100479 -2.122085 0.000000 -0.000002
    19 -0.034142 -1.148312 0.084782 -0.909626 0.000000 0.000000
    20 0.957766 -2.746780 -0.090302 0.349903 -0.123483 -0.019742
    21 -0.033420 -1.397129 -0.011257 -1.101918 0.000000 -0.000001
    22 -0.022360 -0.957436 0.018784 -0.799989 0.000000 0.000000
    23 -1.180681 -2.507217 -0.193859 0.014387 0.131222 -0.129547
    24 -0.024967 -1.123934 0.017597 -1.504420 0.000000 0.000001
    25 -0.020057 -0.890968 0.010090 -1.588318 0.000000 0.000000
    26 0.583510 -1.197277 0.185379 0.281706 -0.595144 -0.857319
    27 1.535927 0.010246 0.005009 -0.002964 -0.012979 -0.682290
    28 1.100771 0.004527 -0.010679 -0.016147 -0.001453 -1.484153
    29 0.120153 -0.050270 -0.054489 0.287569 3.110905 1.561085
    30 -0.645780 -10.442356 -13.419662 0.933950 -4.088502 1.396961
    31 0.096944 -8.450418 -0.009365 -0.333617 -1.431726 0.746550
    32 0.447953 -2.798986 -0.200443 -1.210185 0.118642 0.257028
    33 -0.032909 -1.480204 0.004940 -1.014331 0.000000 0.000002
    34 -0.027022 -1.076920 -0.020210 -0.486864 0.000000 0.000000
    35 -0.249534 -2.846964 -0.174213 -0.924990 0.119445 0.213547
    36 0.043235 -1.683941 0.096012 -1.290377 0.002823 -0.000167
    37 0.031729 -1.160830 0.058838 -0.456131 0.000642 0.008372
    38 -0.963866 -2.785145 -0.085350 -0.385535 0.170953 0.241411
    39 0.028479 -1.403067 0.006271 -1.058247 0.000000 0.000000
    40 0.021413 -0.957781 0.020046 -0.471292 0.000000 0.000000
    41 1.164475 -2.543940 -0.170330 -1.379512 0.036670 0.462095
    42 0.024032 -1.129042 0.017807 -0.836349 0.000000 0.000001
    43 0.014898 -0.883989 -0.019848 -0.452581 0.000000 0.000000
    44 -0.586770 -1.264477 0.200161 0.402031 -0.483616 -3.269282
    45 1.522835 0.058681 0.016848 0.001410 0.008985 0.696420
    46 1.117947 0.048424 -0.005766 -0.007218 -0.024143 0.346703
    47 -0.139399 -0.111698 0.014397 0.846771 0.171241 1.393752
    48 -6.260806 6.983652 -0.294122 1.580804 -0.005023 -0.912799
  time 2
    0 -0.349399 1.166145 0.203512 0.000000 0.000000 0.000000
    1 9.715599 3.555492 -11.797908 -1.588367 -1.326380 1.202685
    2 -0.071919 -8.498729 -0.104136 0.201268 0.074806 -0.253802
    3 4.238646 -4.266517 0.498798 -3.065845 0.124236 -1.536350
    4 2.319580 -1.456083 -0.000001 0.000000 0.000000 -1.570796
    5 1.701415 -0.000001 -0.000001 0.000000 0.000000 0.175233
    6 8.830292 -0.400003 -2.170229 0.000000 0.000000 -1.570796
    7 0.000000 0.000000 0.000000 0.000000 0.000000 0.000000
    8 1.430789 2.565281 -2.253419 -0.000001 -0.000001 1.483549
    9 4.989939 2.565243 -2.253418 -0.000001 -0.000001 1.483549
    10 16.804588 2.565286 -2.253421 -0.000001 -0.000001 1.483549
    11 0.591962 -4.172407 -0.000001 0.000000 0.000000 1.389440
    12 0.179693 62.611557 -0.867214 0.000000 0.000000 0.000000
    13 1.257180 8.762585 -0.153713 -1.570562 0.002683 -1.566807
    14 -0.488518 -2.755602 -0.228260 -0.285957 0.018206 -0.220219
    15 0.039887 -1.479790 0.029854 -2.163980 0.000000 0.000001
    16 0.028786 -1.075731 -0.023109 -0.729241 0.000000 0.000000
    17 0.250027 -2.820665 -0.238396 -0.090819 0.062503 -0.167059
    18 -0.049759 -1.680544 0.100479 -2.122085 0.000000 -0.000002
    19 -0.034142 -1.148312 0.084782 -0.909626 0.000000 0.000000
    20 0.957766 -2.746780 -0.090302 0.349903 -0.123483 -0.019742
    21 -0.033420 -1.397129 -0.011257 -1.101918 0.000000 -0.000001
    22 -0.022360 -0.957436 0.018784 -0.799989 0.000000 0.000000
    23 -1.180681 -2.507217 -0.193859 0.014387 0.131222 -0.129547
    24 -0.024967 -1.123934 0.017597 -1.504420 0.000000 0.000001
    25 -0.020057 -0.890968 0.010090 -1.588318 0.000000 0.000000
    26 0.583510 -1.197277 0.185379 0.281706 -0.595144 -0.857319
    27 1.535927 0.010246 0.005009 -0.002964 -0.012979 -0.682290
    28 1.100771 0.004527 -0.010679 -0.016147 -0.001453 -1.484153
    29 0.120153 -0.050270 -0.054489 0.287569 3.110905 1.561085
    30 -0.723908 -10.563454 -13.150122 0.933098 -4.090490 1.389284
    31 0.096944 -8.450418 -0.009365 -0.333617 -1.431726 0.746550
    32 0.447953 -2.798986 -0.200443 -1.210185 0.118642 0.257028
    33 -0.032909 -1.480204 0.004940 -1.014331 0.000000 0.000002
    34 -0.027022 -1.076920 -0.020210 -0.486864 0.000000 0.000000
    35 -0.249534 -2.846964 -0.174213 -0.924990 0.119445 0.213547
    36 0.043235 -1.683941 0.096012 -1.290377 0.002823 -0.000167
    37 0.031729 -1.160830 0.058838 -0.456131 0.000642 0.008372
    38 -0.963866 -2.785145 -0.085350 -0.385535 0.170953 0.241411
    39 0.028479 -1.403067 0.006271 -1.058247 0.000000 0.000000
    40 0.021413 -0.957781 0.020046 -0.471292 0.000000 0.000000
    41 1.164475 -2.543940 -0.170330 -1.379512 0.036670 0.462095
    42 0.024032 -1.129042 0.017807 -0.836349 0.000000 0.000001
    43 0.014898 -0.883989 -0.019848 -0.452581 0.000000 0.000000
    44 -0.586770 -1.264477 0.200161 0.402031 -0.483616 -3.269282
    45 1.522835 0.058681 0.016848 0.001410 0.008985 0.696420
    46 1.117947 0.048424 -0.005766 -0.007218 -0.024143 0.346703
    47 -0.139399 -0.111698 0.014397 0.846771 0.171241 1.393752
    48 -6.260806 6.983652 -0.294122 1.580804 -0.005023 -0.912799
  time 3
    0 -0.349399 1.166145 0.203512 0.000000 0.000000 0.000000
    1 9.782007 3.227357 -11.563525 -1.589174 -1.325836 1.203572
    2 -0.071919 -8.498729 -0.104136 0.194077 0.074674 -0.253694
    3 4.238646 -4.266517 0.498798 -3.065845 0.124236 -1.536350
    4 2.319580 -1.456083 -0.000001 0.000000 0.000000 -1.570796
    5 1.650632 -0.000001 -0.000001 0.000000 0.000000 0.175233
    6 8.830292 -0.400003 -2.170229 0.000000 0.000000 -1.570796
    7 0.000000 0.000000 0.000000 0.000000 0.000000 0.000000
    8 1.430789 2.565281 -2.253419 -0.000001 -0.000001 -3.517419
    9 4.989939 2.565243 -2.253418 -0.000001 -0.000001 -3.517419
    10 16.804588 2.565286 -2.253421 -0.000001 -0.000001 -3.517419
    11 0.591962 -4.172407 -0.000001 0.000000 0.000000 1.389440
    12 0.511734 64.191820 -1.043001 0.000000 0.000000 0.000000
    13 1.257180 8.762585 -0.153713 -1.570562 0.002683 -1.566807
    14 -0.488518 -2.755602 -0.228260 -0.285957 0.018206 -0.220219
    15 0.039887 -1.479790 0.029854 -2.163980 0.000000 0.000001
    16 0.028786 -1.075731 -0.023109 -0.729241 0.000000 0.000000
    17 0.250027 -2.820665 -0.238396 -0.090819 0.062503 -0.167059
    18 -0.049759 -1.680544 0.100479 -2.122085 0.000000 -0.000002
    19 -0.034142 -1.148312 0.084782 -0.909626 0.000000 0.000000
    20 0.957766 -2.746780 -0.090302 0.349903 -0.123483 -0.019742
    21 -0.033420 -1.397129 -0.011257 -1.101918 0.000000 -0.000001
    22 -0.022360 -0.957436 0.018784 -0.799989 0.000000 0.000000
    23 -1.180681 -2.507217 -0.193859 0.014387 0.131222 -0.129547
    24 -0.024967 -1.123934 0.017597 -1.504420 0.000000 0.000001
    25 -0.020057 -0.890968 0.010090 -1.588318 0.000000 0.000000
    26 0.583510 -1.197277 0.185379 0.281706 -0.595144 -0.857319
    27 1.535927 0.010246 0.005009 -0.002964 -0.012979 -0.682290
    28 1.100771 0.004527 -0.010679 -0.016147 -0.001453 -1.484153
    29 0.120153 -0.050270 -0.054489 0.287569 3.110905 1.561085
    30 -0.704376 -10.836900 -12.904021 0.933169 -4.089330 1.382168
    31 0.096944 -8.450418 -0.009365 -0.333617 -1.431726 0.746550
    32 0.447953 -2.798986 -0.200443 -1.210185 0.118642 0.257028
    33 -0.032909 -1.480204 0.004940 -1.014331 0.000000 0.000002
    34 -0.027022 -1.076920 -0.020210 -0.486864 0.000000 0.000000
    35 -0.249534 -2.846964 -0.174213 -0.924990 0.119445 0.213547
    36 0.043235 -1.683941 0.096012 -1.290377 0.002823 -0.000167
    37 0.031729 -1.160830 0.058838 -0.456131 0.000642 0.008372
    38 -0.963866 -2.785145 -0.085350 -0.385535 0.170953 0.241411
    39 0.028479 -1.403067 0.006271 -1.058247 0.000000 0.000000
    40 0.021413 -0.957781 0.020046 -0.471292 0.000000 0.000000
    41 1.164475 -2.543940 -0.170330 -1.379512 0.036670 0.462095
    42 0.024032 -1.129042 0.017807 -0.836349 0.000000 0.000001
    43 0.014898 -0.883989 -0.019848 -0.452581 0.000000 0.000000
    44 -0.586770 -1.264477 0.200161 0.402031 -0.483616 -3.269282
    45 1.522835 0.058681 0.016848 0.001410 0.008985 0.696420
    46 1.117947 0.048424 -0.005766 -0.007218 -0.024143 0.346703
    47 -0.139399 -0.111698 0.014397 0.846771 0.171241 1.393752
    48 -6.260806 6.983652 -0.294122 1.580804 -0.005023 -0.912799
  time 4
    0 -0.349399 1.166145 0.203512 0.000000 0.000000 0.000000
    1 9.942169 2.973443 -11.379926 -1.585787 -1.321919 1.200831
    2 -0.071919 -8.498729 -0.104136 0.186742 0.074531 -0.253586
    3 4.238646 -4.266517 0.498798 -3.065845 0.124236 -1.536350
    4 2.319580 -1.456083 -0.000001 0.000000 0.000000 -1.570796
    5 1.533441 -0.000001 -0.000001 0.000000 0.000000 0.175233
    6 8.830292 -0.400003 -2.170229 0.000000 0.000000 -1.570796
    7 0.000000 0.000000 0.000000 0.000000 0.000000 0.000000
    8 1.430789 2.565281 -2.253419 -0.000001 -0.000001 -1.872129
    9 4.989939 2.565243 -2.253418 -0.000001 -0.000001 -1.872129
    10 16.804588 2.565286 -2.253421 -0.000001 -0.000001 -1.872129
    11 0.591962 -4.172407 -0.000001 0.000000 0.000000 1.389440
    12 0.851588 65.364273 -1.218787 0.000000 0.000000 0.000000
    13 1.257180 8.762585 -0.153713 -1.570562 0.002683 -1.566807
    14 -0.488518 -2.755602 -0.228260 -0.285957 0.018206 -0.220219
    15 0.039887 -1.479790 0.029854 -2.163980 0.000000 0.000001
    16 0.028786 -1.075731 -0.023109 -0.729241 0.000000 0.000000
    17 0.250027 -2.820665 -0.238396 -0.090819 0.062503 -0.167059
    18 -0.049759 -1.680544 0.100479 -2.122085 0.000000 -0.000002
    19 -0.034142 -1.148312 0.084782 -0.909626 0.000000 0.000000
    20 0.957766 -2.746780 -0.090302 0.349903 -0.123483 -0.019742
    21 -0.033420 -1.397129 -0.011257 -1.101918 0.000000 -0.000001
    22 -0.022360 -0.957436 0.018784 -0.799989 0.000000 0.000000
    23 -1.180681 -2.507217 -0.193859 0.014387 0.131222 -0.129547
    24 -0.024967 -1.123934 0.017597 -1.504420 0.000000 0.000001
    25 -0.020057 -0.890968 0.010090 -1.588318 0.000000 0.000000
    26 0.583510 -1.197277 0.185379 0.281706 -0.595144 -0.857319
    27 1.535927 0.010246 0.005009 -0.002964 -0.012979 -0.682290
    28 1.100771 0.004527 -0.010679 -0.016147 -0.001453 -1.484153
    29 0.120153 -0.050270 -0.054489 0.287569 3.110905 1.561085
    30 -0.587185 -11.051750 -12.646200 0.930542 -4.085024 1.373274
    31 0.096944 -8.450418 -0.009365 -0.333617 -1.431726 0.746550
    32 0.447953 -2.798986 -0.200443 -1.210185 0.118642 0.257028
    33 -0.032909 -1.480204 0.004940 -1.014331 0.000000 0.000002
    34 -0.027022 -1.076920 -0.020210 -0.486864 0.000000 0.000000
    35 -0.249534 -2.846964 -0.174213 -0.924990 0.119445 0.213547
    36 0.043235 -1.683941 0.096012 -1.290377 0.002823 -0.000167
    37 0.031729 -1.160830 0.058838 -0.456131 0.000642 0.008372
    38 -0.963866 -2.785145 -0.085350 -0.385535 0.170953 0.241411
    39 0.028479 -1.403067 0.006271 -1.058247 0.000000 0.000000
    40 0.021413 -0.957781 0.020046 -0.471292 0.000000 0.000000
    41 1.164475 -2.543940 -0.170330 -1.379512 0.036670 0.462095
    42 0.024032 -1.129042 0.017807 -0.836349 0.000000 0.000001
    43 0.014898 -0.883989 -0.019848 -0.452581 0.000000 0.000000
    44 -0.586770 -1.264477 0.200161 0.402031 -0.483616 -3.269282
    45 1.522835 0.058681 0.016848 0.001410 0.008985 0.696420
    46 1.117947 0.048424 -0.005766 -0.007218 -0.024143 0.346703
    47 -0.139399 -0.111698 0.014397 0.846771 0.171241 1.393752
    48 -6.260806 6.983652 -0.294122 1.580804 -0.005023 -0.912799
  time 5
    0 -0.349399 1.166145 0.203512 0.000000 0.000000 0.000000
    1 10.129674 2.649215 -11.196327 -1.575222 -1.316686 1.191721
    2 -0.071919 -8.498729 -0.104136 0.179264 0.074387 -0.253478
    3 4.238646 -4.266517 0.498798 -3.065845 0.124236 -1.536350
    4 2.319580 -1.456083 -0.000001 0.000000 0.000000 -1.570796
    5 1.416250 -0.000001 -0.000001 0.000000 0.000000 0.175233
    6 8.830292 -0.400003 -2.170229 0.000000 0.000000 -1.570796
    7 0.000000 0.000000 0.000000 0.000000 0.000000 0.000000
    8 1.430789 2.565281 -2.253419 -0.000001 -0.000001 -0.307565
    9 4.989939 2.565243 -2.253418 -0.000001 -0.000001 -0.307565
    10 16.804588 2.565286 -2.253421 -0.000001 -0.000001 -0.307565
    11 0.591962 -4.172407 -0.000001 0.000000 0.000000 1.389440
    12 1.191443 66.192637 -1.390667 0.000000 0.000000 0.000000
    13 1.257180 8.762585 -0.153713 -1.570562 0.002683 -1.566807
    14 -0.488518 -2.755602 -0.228260 -0.285957 0.018206 -0.220219
    15 0.039887 -1.479790 0.029854 -2.163980 0.000000 0.000001
    16 0.028786 -1.075731 -0.023109 -0.729241 0.000000 0.000000
    17 0.250027 -2.820665 -0.238396 -0.090819 0.062503 -0.167059
    18 -0.049759 -1.680544 0.100479 -2.122085 0.000000 -0.000002
    19 -0.034142 -1.148312 0.084782 -0.909626 0.000000 0.000000
    20 0.957766 -2.746780 -0.090302 0.349903 -0.123483 -0.019742
    21 -0.033420 -1.397129 -0.011257 -1.101918 0.000000 -0.000001
    22 -0.022360 -0.957436 0.018784 -0.799989 0.000000 0.000000
    23 -1.180681 -2.507217 -0.193859 0.014387 0.131222 -0.129547
    24 -0.024967 -1.123934 0.017597 -1.504420 0.000000 0.000001
    25 -0.020057 -0.890968 0.010090 -1.588318 0.000000 0.000000
    26 0.583510 -1.197277 0.185379 0.281706 -0.595144 -0.857319
    27 1.535927 0.010246 0.005009 -0.002964 -0.012979 -0.682290
    28 1.100771 0.004527 -0.010679 -0.016147 -0.001453 -1.484153
    29 0.120153 -0.050270 -0.054489 0.287569 3.110905 1.561085
    30 -0.438743 -11.336915 -12.357129 0.924649 -4.079640 1.362226
    31 0.096944 -8.450418 -0.009365 -0.333617 -1.431726 0.746550
    32 0.447953 -2.798986 -0.200443 -1.210185 0.118642 0.257028
    33 -0.032909 -1.480204 0.004940 -1.014331 0.000000 0.000002
    34 -0.027022 -1.076920 -0.020210 -0.486864 0.000000 0.000000
    35 -0.249534 -2.846964 -0.174213 -0.924990 0.119445 0.213547
    36 0.043235 -1.683941 0.096012 -1.290377 0.002823 -0.000167
    37 0.031729 -1.160830 0.058838 -0.456131 0.000642 0.008372
    38 -0.963866 -2.785145 -0.085350 -0.385535 0.170953 0.241411
    39 0.028479 -1.403067 0.006271 -1.058247 0.000000 0.000000
    40 0.021413 -0.957781 0.020046 -0.471292 0.000000 0.000000
    41 1.164475 -2.543940 -0.170330 -1.379512 0.036670 0.462095
    42 0.024032 -1.129042 0.017807 -0.836349 0.000000 0.000001
    43 0.014898 -0.883989 -0.019848 -0.452581 0.000000 0.000000
    44 -0.586770 -1.264477 0.200161 0.402031 -0.483616 -3.269282
    45 1.522835 0.058681 0.016848 0.001410 0.008985 0.696420
    46 1.117947 0.048424 -0.005766 -0.007218 -0.024143 0.346703
    47 -0.139399 -0.111698 0.014397 0.846771 0.171241 1.393752
    48 -6.260806 6.983652 -0.294122 1.580804 -0.005023 -0.912799
  time 6
    0 -0.349399 1.166145 0.203512 0.000000 0.000000 0.000000
    1 10.356244 2.278109 -11.051791 -1.571190 -1.310486 1.188658
    2 -0.071919 -8.498729 -0.104136 0.171654 0.074255 -0.253370
    3 4.238646 -4.266517 0.498798 -3.065845 0.124236 -1.536350
    4 2.319580 -1.456083 -0.000001 0.000000 0.000000 -1.570796
    5 1.388905 -0.000001 -0.000001 0.000000 0.000000 0.175233
    6 8.830292 -0.400003 -2.170229 0.000000 0.000000 -1.570796
    7 0.000000 0.000000 0.000000 0.000000 0.000000 0.000000
    8 1.430789 2.565281 -2.253419 -0.000001 -0.000001 1.095835
    9 4.989939 2.565243 -2.253418 -0.000001 -0.000001 1.095835
    10 16.804588 2.565286 -2.253421 -0.000001 -0.000001 1.095835
    11 0.591962 -4.172407 -0.000001 0.000000 0.000000 1.389440
    12 1.539109 66.702399 -1.558641 0.000000 0.000000 0.000000
    13 1.257180 8.762585 -0.153713 -1.570562 0.002683 -1.566807
    14 -0.488518 -2.755602 -0.228260 -0.285957 0.018206 -0.220219
    15 0.039887 -1.479790 0.029854 -2.163980 0.000000 0.000001
    16 0.028786 -1.075731 -0.023109 -0.729241 0.000000 0.000000
    17 0.250027 -2.820665 -0.238396 -0.090819 0.062503 -0.167059
    18 -0.049759 -1.680544 0.100479 -2.122085 0.000000 -0.000002
    19 -0.034142 -1.148312 0.084782 -0.909626 0.000000 0.000000
    20 0.957766 -2.746780 -0.090302 0.349903 -0.123483 -0.019742
    21 -0.033420 -1.397129 -0.011257 -1.101918 0.000000 -0.000001
    22 -0.022360 -0.957436 0.018784 -0.799989 0.000000 0.000000
    23 -1.180681 -2.507217 -0.193859 0.014387 0.131222 -0.129547
    24 -0.024967 -1.123934 0.017597 -1.504420 0.000000 0.000001
    25 -0.020057 -0.890968 0.010090 -1.588318 0.000000 0.000000
    26 0.583510 -1.197277 0.185379 0.281706 -0.595144 -0.857319
    27 1.535927 0.010246 0.005009 -0.002964 -0.012979 -0.682290
    28 1.100771 0.004527 -0.010679 -0.016147 -0.001453 -1.484153
    29 0.120153 -0.050270 -0.054489 0.287569 3.110905 1.561085
    30 -0.251237 -11.668956 -12.095402 0.921241 -4.073014 1.352770
    31 0.096944 -8.450418 -0.009365 -0.333617 -1.431726 0.746550
    32 0.447953 -2.798986 -0.200443 -1.210185 0.118642 0.257028
    33 -0.032909 -1.480204 0.004940 -1.014331 0.000000 0.000002
    34 -0.027022 -1.076920 -0.020210 -0.486864 0.000000 0.000000
    35 -0.249534 -2.846964 -0.174213 -0.924990 0.119445 0.213547
    36 0.043235 -1.683941 0.096012 -1.290377 0.002823 -0.000167
    37 0.031729 -1.160830 0.058838 -0.456131 0.000642 0.008372
    38 -0.963866 -2.785145 -0.085350 -0.385535 0.170953 0.241411
    39 0.028479 -1.403067 0.006271 -1.058247 0.000000 0.000000
    40 0.021413 -0.957781 0.020046 -0.471292 0.000000 0.000000
    41 1.164475 -2.543940 -0.170330 -1.379512 0.036670 0.462095
    42 0.024032 -1.129042 0.017807 -0.836349 0.000000 0.000001
    43 0.014898 -0.883989 -0.019848 -0.452581 0.000000 0.000000
    44 -0.586770 -1.264477 0.200161 0.402031 -0.483616 -3.269282
    45 1.522835 0.058681 0.016848 0.001410 0.008985 0.696420
    46 1.117947 0.048424 -0.005766 -0.007218 -0.024143 0.346703
    47 -0.139399 -0.111698 0.014397 0.846771 0.171241 1.393752
    48 -6.260806 6.983652 -0.294122 1.580804 -0.005023 -0.912799
  time 7
    0 -0.349399 1.166145 0.203512 0.000000 0.000000 0.000000
    1 10.629690 1.879660 -10.985383 -1.586029 -1.303672 1.202685
    2 -0.071919 -8.498729 -0.104136 0.163936 0.074111 -0.253262
    3 4.238646 -4.266517 0.498798 -3.065845 0.124236 -1.536350
    4 2.319580 -1.456083 -0.000001 0.000000 0.000000 -1.570796
    5 1.431875 -0.000001 -0.000001 0.000000 0.000000 0.175233
    6 8.830292 -0.400003 -2.170229 0.000000 0.000000 -1.570796
    7 0.000000 0.000000 0.000000 0.000000 0.000000 0.000000
    8 1.430789 2.565281 -2.253419 -0.000001 -0.000001 -4.138777
    9 4.989939 2.565243 -2.253418 -0.000001 -0.000001 -4.138777
    10 16.804588 2.565286 -2.253421 -0.000001 -0.000001 -4.138777
    11 0.591962 -4.172407 -0.000001 0.000000 0.000000 1.389440
    12 1.890683 66.931792 -1.730522 0.000000 0.000000 0.000000
    13 1.257180 8.762585 -0.153713 -1.570562 0.002683 -1.566807
    14 -0.488518 -2.755602 -0.228260 -0.285957 0.018206 -0.220219
    15 0.039887 -1.479790 0.029854 -2.163980 0.000000 0.000001
    16 0.028786 -1.075731 -0.023109 -0.729241 0.000000 0.000000
    17 0.250027 -2.820665 -0.238396 -0.090819 0.062503 -0.167059
    18 -0.049759 -1.680544 0.100479 -2.122085 0.000000 -0.000002
    19 -0.034142 -1.148312 0.084782 -0.909626 0.000000 0.000000
    20 0.957766 -2.746780 -0.090302 0.349903 -0.123483 -0.019742
    21 -0.033420 -1.397129 -0.011257 -1.101918 0.000000 -0.000001
    22 -0.022360 -0.957436 0.018784 -0.799989 0.000000 0.000000
    23 -1.180681 -2.507217 -0.193859 0.014387 0.131222 -0.129547
    24 -0.024967 -1.123934 0.017597 -1.504420 0.000000 0.000001
    25 -0.020057 -0.890968 0.010090 -1.588318 0.000000 0.000000
    26 0.583510 -1.197277 0.185379 0.281706 -0.595144 -0.857319
    27 1.535927 0.010246 0.005009 -0.002964 -0.012979 -0.682290
    28 1.100771 0.004527 -0.010679 -0.016147 -0.001453 -1.484153
    29 0.120153 -0.050270 -0.054489 0.287569 3.110905 1.561085
    30 -0.028574 -12.016623 -11.931335 0.926069 -4.064980 1.348650
    31 0.096944 -8.450418 -0.009365 -0.333617 -1.431726 0.746550
    32 0.447953 -2.798986 -0.200443 -1.210185 0.118642 0.257028
    33 -0.032909 -1.480204 0.004940 -1.014331 0.000000 0.000002
    34 -0.027022 -1.076920 -0.020210 -0.486864 0.000000 0.000000
    35 -0.249534 -2.846964 -0.174213 -0.924990 0.119445 0.213547
    36 0.043235 -1.683941 0.096012 -1.290377 0.002823 -0.000167
    37 0.031729 -1.160830 0.058838 -0.456131 0.000642 0.008372
    38 -0.963866 -2.785145 -0.085350 -0.385535 0.170953 0.241411
    39 0.028479 -1.403067 0.006271 -1.058247 0.000000 0.000000
    40 0.021413 -0.957781 0.020046 -0.471292 0.000000 0.000000
    41 1.164475 -2.543940 -0.170330 -1.379512 0.036670 0.462095
    42 0.024032 -1.129042 0.017807 -0.836349 0.000000 0.000001
    43 0.014898 -0.883989 -0.019848 -0.452581 0.000000 0.000000
    44 -0.586770 -1.264477 0.200161 0.402031 -0.483616 -3.269282
    45 1.522835 0.058681 0.016848 0.001410 0.008985 0.696420
    46 1.117947 0.048424 -0.005766 -0.007218 -0.024143 0.346703
    47 -0.139399 -0.111698 0.014397 0.846771 0.171241 1.393752
    48 -6.260806 6.983652 -0.294122 1.580804 -0.005023 -0.912799
  time 8
    0 -0.349399 1.166145 0.203512 0.000000 0.000000 0.000000
    1 10.965637 1.477304 -11.036166 -1.630867 -1.296260 1.243798
    2 -0.071919 -8.498729 -0.104136 0.156122 0.073967 -0.253142
    3 4.238646 -4.266517 0.498798 -3.065845 0.124236 -1.536350
    4 2.319580 -1.456083 -0.000001 0.000000 0.000000 -1.570796
    5 1.467033 -0.000001 -0.000001 0.000000 0.000000 0.175233
    6 8.830292 -0.400003 -2.170229 0.000000 0.000000 -1.570796
    7 0.000000 0.000000 0.000000 0.000000 0.000000 0.000000
    8 1.430789 2.565281 -2.253419 -0.000001 -0.000001 -3.238331
    9 4.989939 2.565243 -2.253418 -0.000001 -0.000001 -3.238331
    10 16.804588 2.565286 -2.253421 -0.000001 -0.000001 -3.238331
    11 0.591962 -4.172407 -0.000001 0.000000 0.000000 1.389440
    12 2.246162 66.893560 -1.898495 0.000000 0.000000 0.000000
    13 1.257180 8.762585 -0.153713 -1.570562 0.002683 -1.566807
    14 -0.488518 -2.755602 -0.228260 -0.285957 0.018206 -0.220219
    15 0.039887 -1.479790 0.029854 -2.163980 0.000000 0.000001
    16 0.028786 -1.075731 -0.023109 -0.729241 0.000000 0.000000
    17 0.250027 -2.820665 -0.238396 -0.090819 0.062503 -0.167059
    18 -0.049759 -1.680544 0.100479 -2.122085 0.000000 -0.000002
    19 -0.034142 -1.148312 0.084782 -0.909626 0.000000 0.000000
    20 0.957766 -2.746780 -0.090302 0.349903 -0.123483 -0.019742
    21 -0.033420 -1.397129 -0.011257 -1.101918 0.000000 -0.000001
    22 -0.022360 -0.957436 0.018784 -0.799989 0.000000 0.000000
    23 -1.180681 -2.507217 -0.193859 0.014387 0.131222 -0.129547
    24 -0.024967 -1.123934 0.017597 -1.504420 0.000000 0.000001
    25 -0.020057 -0.890968 0.010090 -1.588318 0.000000 0.000000
    26 0.583510 -1.197277 0.185379 0.281706 -0.595144 -0.857319
    27 1.535927 0.010246 0.005009 -0.002964 -0.012979 -0.682290
    28 1.100771 0.004527 -0.010679 -0.016147 -0.001453 -1.484153
    29 0.120153 -0.050270 -0.054489 0.287569 3.110905 1.561085
    30 0.240965 -12.344758 -11.919616 0.944387 -4.055456 1.353332
    31 0.096944 -8.450418 -0.009365 -0.333617 -1.431726 0.746550
    32 0.447953 -2.798986 -0.200443 -1.210185 0.118642 0.257028
    33 -0.032909 -1.480204 0.004940 -1.014331 0.000000 0.000002
    34 -0.027022 -1.076920 -0.020210 -0.486864 0.000000 0.000000
    35 -0.249534 -2.846964 -0.174213 -0.924990 0.119445 0.213547
    36 0.043235 -1.683941 0.096012 -1.290377 0.002823 -0.000167
    37 0.031729 -1.160830 0.058838 -0.456131 0.000642 0.008372
    38 -0.963866 -2.785145 -0.085350 -0.385535 0.170953 0.241411
    39 0.028479 -1.403067 0.006271 -1.058247 0.000000 0.000000
    40 0.021413 -0.957781 0.020046 -0.471292 0.000000 0.000000
    41 1.164475 -2.543940 -0.170330 -1.379512 0.036670 0.462095
    42 0.024032 -1.129042 0.017807 -0.836349 0.000000 0.000001
    43 0.014898 -0.883989 -0.019848 -0.452581 0.000000 0.000000
    44 -0.586770 -1.264477 0.200161 0.402031 -0.483616 -3.269282
    45 1.522835 0.058681 0.016848 0.001410 0.008985 0.696420
    46 1.117947 0.048424 -0.005766 -0.007218 -0.024143 0.346703
    47 -0.139399 -0.111698 0.014397 0.846771 0.171241 1.393752
    48 -6.260806 6.983652 -0.294122 1.580804 -0.005023 -0.912799
  time 9
    0 -0.349399 1.166145 0.203512 0.000000 0.000000 0.000000
    1 11.387525 1.035884 -11.286173 -1.715706 -1.283141 1.323043
    2 -0.071919 -8.498729 -0.104136 0.148224 0.073824 -0.253023
    3 4.238646 -4.266517 0.498798 -3.065845 0.124236 -1.536350
    4 2.319580 -1.456083 -0.000001 0.000000 0.000000 -1.570796
    5 1.443595 -0.000001 -0.000001 0.000000 0.000000 0.175233
    6 8.830292 -0.400003 -2.170229 0.000000 0.000000 -1.570796
    7 0.000000 0.000000 0.000000 0.000000 0.000000 0.000000
    8 1.430789 2.565281 -2.253419 -0.000001 -0.000001 -2.399052
    9 4.989939 2.565243 -2.253418 -0.000001 -0.000001 -2.399052
    10 16.804588 2.565286 -2.253421 -0.000001 -0.000001 -2.399052
    11 0.591962 -4.172407 -0.000001 0.000000 0.000000 1.389440
    12 2.601642 66.651423 -2.062563 0.000000 0.000000 0.000000
    13 1.257180 8.762585 -0.153713 -1.570562 0.002683 -1.566807
    14 -0.488518 -2.755602 -0.228260 -0.285957 0.018206 -0.220219
    15 0.039887 -1.479790 0.029854 -2.163980 0.000000 0.000001
    16 0.028786 -1.075731 -0.023109 -0.729241 0.000000 0.000000
    17 0.250027 -2.820665 -0.238396 -0.090819 0.062503 -0.167059
    18 -0.049759 -1.680544 0.100479 -2.122085 0.000000 -0.000002
    19 -0.034142 -1.148312 0.084782 -0.909626 0.000000 0.000000
    20 0.957766 -2.746780 -0.090302 0.349903 -0.123483 -0.019742
    21 -0.033420 -1.397129 -0.011257 -1.101918 0.000000 -0.000001
    22 -0.022360 -0.957436 0.018784 -0.799989 0.000000 0.000000
    23 -1.180681 -2.507217 -0.193859 0.014387 0.131222 -0.129547
    24 -0.024967 -1.123934 0.017597 -1.504420 0.000000 0.000001
    25 -0.020057 -0.890968 0.010090 -1.588318 0.000000 0.000000
    26 0.583510 -1.197277 0.185379 0.281706 -0.595144 -0.857319
    27 1.535927 0.010246 0.005009 -0.002964 -0.012979 -0.682290
    28 1.100771 0.004527 -0.010679 -0.016147 -0.001453 -1.484153
    29 0.120153 -0.050270 -0.054489 0.287569 3.110905 1.561085
    30 0.592539 -12.719770 -12.103215 0.981236 -4.039968 1.372057
    31 0.096944 -8.450418 -0.009365 -0.333617 -1.431726 0.746550
    32 0.447953 -2.798986 -0.200443 -1.210185 0.118642 0.257028
    33 -0.032909 -1.480204 0.004940 -1.014331 0.000000 0.000002
    34 -0.027022 -1.076920 -0.020210 -0.486864 0.000000 0.000000
    35 -0.249534 -2.846964 -0.174213 -0.924990 0.119445 0.213547
    36 0.043235 -1.683941 0.096012 -1.290377 0.002823 -0.000167
    37 0.031729 -1.160830 0.058838 -0.456131 0.000642 0.008372
    38 -0.963866 -2.785145 -0.085350 -0.385535 0.170953 0.241411
    39 0.028479 -1.403067 0.006271 -1.058247 0.000000 0.000000
    40 0.021413 -0.957781 0.020046 -0.471292 0.000000 0.000000
    41 1.164475 -2.543940 -0.170330 -1.379512 0.036670 0.462095
    42 0.024032 -1.129042 0.017807 -0.836349 0.000000 0.000001
    43 0.014898 -0.883989 -0.019848 -0.452581 0.000000 0.000000
    44 -0.586770 -1.264477 0.200161 0.402031 -0.483616 -3.269282
    45 1.522835 0.058681 0.016848 0.001410 0.008985 0.696420
    46 1.117947 0.048424 -0.005766 -0.007218 -0.024143 0.346703
    47 -0.139399 -0.111698 0.014397 0.846771 0.171241 1.393752
    48 -6.260806 6.983652 -0.294122 1.580804 -0.005023 -0.912799
  time 10
    0 -0.349399 1.166145 0.203512 0.000000 0.000000 0.000000
    1 11.875821 0.535869 -11.711967 -1.822641 -1.261346 1.423893
    2 -0.071919 -8.498729 -0.104136 0.140242 0.073680 -0.252903
    3 4.238646 -4.266517 0.498798 -3.065845 0.124236 -1.536350
    4 2.319580 -1.456083 -0.000001 0.000000 0.000000 -1.570796
    5 1.416250 -0.000001 -0.000001 0.000000 0.000000 0.175233
    6 8.830292 -0.400003 -2.170229 0.000000 0.000000 -1.570796
    7 0.000000 0.000000 0.000000 0.000000 0.000000 0.000000
    8 1.430789 2.565281 -2.253419 -0.000001 -0.000001 -1.554020
    9 4.989939 2.565243 -2.253418 -0.000001 -0.000001 -1.554020
    10 16.804588 2.565286 -2.253421 -0.000001 -0.000001 -1.554020
    11 0.591962 -4.172407 -0.000001 0.000000 0.000000 1.389440
    12 2.961028 66.218125 -2.230537 0.000000 0.000000 0.000000
    13 1.257180 8.762585 -0.153713 -1.570562 0.002683 -1.566807
    14 -0.488518 -2.755602 -0.228260 -0.285957 0.018206 -0.220219
    15 0.039887 -1.479790 0.029854 -2.163980 0.000000 0.000001
    16 0.028786 -1.075731 -0.023109 -0.729241 0.000000 0.000000
    17 0.250027 -2.820665 -0.238396 -0.090819 0.062503 -0.167059
    18 -0.049759 -1.680544 0.100479 -2.122085 0.000000 -0.000002
    19 -0.034142 -1.148312 0.084782 -0.909626 0.000000 0.000000
    20 0.957766 -2.746780 -0.090302 0.349903 -0.123483 -0.019742
    21 -0.033420 -1.397129 -0.011257 -1.101918 0.000000 -0.000001
    22 -0.022360 -0.957436 0.018784 -0.799989 0.000000 0.000000
    23 -1.180681 -2.507217 -0.193859 0.014387 0.131222 -0.129547
    24 -0.024967 -1.123934 0.017597 -1.504420 0.000000 0.000001
    25 -0.020057 -0.890968 0.010090 -1.588318 0.000000 0.000000
    26 0.583510 -1.197277 0.185379 0.281706 -0.595144 -0.857319
    27 1.535927 0.010246 0.005009 -0.002964 -0.012979 -0.682290
    28 1.100771 0.004527 -0.010679 -0.016147 -0.001453 -1.484153
    29 0.120153 -0.050270 -0.054489 0.287569 3.110905 1.561085
    30 1.037865 -13.165096 -12.439163 1.031149 -4.017440 1.401455
    31 0.096944 -8.450418 -0.009365 -0.333617 -1.431726 0.746550
    32 0.447953 -2.798986 -0.200443 -1.210185 0.118642 0.257028
    33 -0.032909 -1.480204 0.004940 -1.014331 0.000000 0.000002
    34 -0.027022 -1.076920 -0.020210 -0.486864 0.000000 0.000000
    35 -0.249534 -2.846964 -0.174213 -0.924990 0.119445 0.213547
    36 0.043235 -1.683941 0.096012 -1.290377 0.002823 -0.000167
    37 0.031729 -1.160830 0.058838 -0.456131 0.000642 0.008372
    38 -0.963866 -2.785145 -0.085350 -0.385535 0.170953 0.241411
    39 0.028479 -1.403067 0.006271 -1.058247 0.000000 0.000000
    40 0.021413 -0.957781 0.020046 -0.471292 0.000000 0.000000
    41 1.164475 -2.543940 -0.170330 -1.379512 0.036670 0.462095
    42 0.024032 -1.129042 0.017807 -0.836349 0.000000 0.000001
    43 0.014898 -0.883989 -0.019848 -0.452581 0.000000 0.000000
    44 -0.586770 -1.264477 0.200161 0.402031 -0.483616 -3.269282
    45 1.522835 0.058681 0.016848 0.001410 0.008985 0.696420
    46 1.117947 0.048424 -0.005766 -0.007218 -0.024143 0.346703
    47 -0.139399 -0.111698 0.014397 0.846771 0.171241 1.393752
    48 -6.260806 6.983652 -0.294122 1.580804 -0.005023 -0.912799
  time 11
    0 -0.349399 1.166145 0.203512 0.000000 0.000000 0.000000
    1 12.403181 0.024134 -12.204170 -1.927237 -1.235108 1.520711
    2 -0.071919 -8.498729 -0.104136 0.132213 0.073536 -0.252783
    3 4.238646 -4.266517 0.498798 -3.065845 0.124236 -1.536350
    4 2.319580 -1.456083 -0.000001 0.000000 0.000000 -1.570796
    5 1.412344 -0.000001 -0.000001 0.000000 0.000000 0.175233
    6 8.830292 -0.400003 -2.170229 0.000000 0.000000 -1.570796
    7 0.000000 0.000000 0.000000 0.000000 0.000000 0.000000
    8 1.430789 2.565281 -2.253419 -0.000001 -0.000001 -0.726725
    9 4.989939 2.565243 -2.253418 -0.000001 -0.000001 -0.726725
    10 16.804588 2.565286 -2.253421 -0.000001 -0.000001 -0.726725
    11 0.591962 -4.172407 -0.000001 0.000000 0.000000 1.389440
    12 3.324320 65.644642 -2.394604 0.000000 0.000000 0.000000
    13 1.257180 8.762585 -0.153713 -1.570562 0.002683 -1.566807
    14 -0.488518 -2.755602 -0.228260 -0.285957 0.018206 -0.220219
    15 0.039887 -1.479790 0.029854 -2.163980 0.000000 0.000001
    16 0.028786 -1.075731 -0.023109 -0.729241 0.000000 0.000000
    17 0.250027 -2.820665 -0.238396 -0.090819 0.062503 -0.167059
    18 -0.049759 -1.680544 0.100479 -2.122085 0.000000 -0.000002
    19 -0.034142 -1.148312 0.084782 -0.909626 0.000000 0.000000
    20 0.957766 -2.746780 -0.090302 0.349903 -0.123483 -0.019742
    21 -0.033420 -1.397129 -0.011257 -1.101918 0.000000 -0.000001
    22 -0.022360 -0.957436 0.018784 -0.799989 0.000000 0.000000
    23 -1.180681 -2.507217 -0.193859 0.014387 0.131222 -0.129547
    24 -0.024967 -1.123934 0.017597 -1.504420 0.000000 0.000001
    25 -0.020057 -0.890968 0.010090 -1.588318 0.000000 0.000000
    26 0.583510 -1.197277 0.185379 0.281706 -0.595144 -0.857319
    27 1.535927 0.010246 0.005009 -0.002964 -0.012979 -0.682290
    28 1.100771 0.004527 -0.010679 -0.016147 -0.001453 -1.484153
    29 0.120153 -0.050270 -0.054489 0.287569 3.110905 1.561085
    30 1.506629 -13.614328 -12.857144 1.085251 -3.993007 1.432164
    31 0.096944 -8.450418 -0.009365 -0.333617 -1.431726 0.746550
    32 0.447953 -2.798986 -0.200443 -1.210185 0.118642 0.257028
    33 -0.032909 -1.480204 0.004940 -1.014331 0.000000 0.000002
    34 -0.027022 -1.076920 -0.020210 -0.486864 0.000000 0.000000
    35 -0.249534 -2.846964 -0.174213 -0.924990 0.119445 0.213547
    36 0.043235 -1.683941 0.096012 -1.290377 0.002823 -0.000167
    37 0.031729 -1.160830 0.058838 -0.456131 0.000642 0.008372
    38 -0.963866 -2.785145 -0.085350 -0.385535 0.170953 0.241411
    39 0.028479 -1.403067 0.006271 -1.058247 0.000000 0.000000
    40 0.021413 -0.957781 0.020046 -0.471292 0.000000 0.000000
    41 1.164475 -2.543940 -0.170330 -1.379512 0.036670 0.462095
    42 0.024032 -1.129042 0.017807 -0.836349 0.000000 0.000001
    43 0.014898 -0.883989 -0.019848 -0.452581 0.000000 0.000000
    44 -0.586770 -1.264477 0.200161 0.402031 -0.483616 -3.269282
    45 1.522835 0.058681 0.016848 0.001410 0.008985 0.696420
    46 1.117947 0.048424 -0.005766 -0.007218 -0.024143 0.346703
    47 -0.139399 -0.111698 0.014397 0.846771 0.171241 1.393752
    48 -6.260806 6.983652 -0.294122 1.580804 -0.005023 -0.912799
  time 12
    0 -0.349399 1.166145 0.203512 0.000000 0.000000 0.000000
    1 12.934447 -0.456349 -12.645590 1.124365 -1.930936 -1.541131
    2 -0.071919 -8.498729 -0.104136 0.124147 0.073380 -0.252651
    3 4.238646 -4.266517 0.498798 -3.065845 0.124236 -1.536350
    4 2.319580 -1.456083 -0.000001 0.000000 0.000000 -1.570796
    5 1.416250 -0.000001 -0.000001 0.000000 0.000000 0.175233
    6 8.830292 -0.400003 -2.170229 0.000000 0.000000 -1.570796
    7 0.000000 0.000000 0.000000 0.000000 0.000000 0.000000
    8 1.430789 2.565281 -2.253419 -0.000001 -0.000001 0.032979
    9 4.989939 2.565243 -2.253418 -0.000001 -0.000001 0.032979
    10 16.804588 2.565286 -2.253421 -0.000001 -0.000001 0.032979
    11 0.591962 -4.172407 -0.000001 0.000000 0.000000 1.389440
    12 3.687613 64.943719 -2.558672 0.000000 0.000000 0.000000
    13 1.257180 8.762585 -0.153713 -1.570562 0.002683 -1.566807
    14 -0.488518 -2.755602 -0.228260 -0.285957 0.018206 -0.220219
    15 0.039887 -1.479790 0.029854 -2.163980 0.000000 0.000001
    16 0.028786 -1.075731 -0.023109 -0.729241 0.000000 0.000000
    17 0.250027 -2.820665 -0.238396 -0.090819 0.062503 -0.167059
    18 -0.049759 -1.680544 0.100479 -2.122085 0.000000 -0.000002
    19 -0.034142 -1.148312 0.084782 -0.909626 0.000000 0.000000
    20 0.957766 -2.746780 -0.090302 0.349903 -0.123483 -0.019742
    21 -0.033420 -1.397129 -0.011257 -1.101918 0.000000 -0.000001
    22 -0.022360 -0.957436 0.018784 -0.799989 0.000000 0.000000
    23 -1.180681 -2.507217 -0.193859 0.014387 0.131222 -0.129547
    24 -0.024967 -1.123934 0.017597 -1.504420 0.000000 0.000001
    25 -0.020057 -0.890968 0.010090 -1.588318 0.000000 0.000000
    26 0.583510 -1.197277 0.185379 0.281706 -0.595144 -0.857319
    27 1.535927 0.010246 0.005009 -0.002964 -0.012979 -0.682290
    28 1.100771 0.004527 -0.010679 -0.016147 -0.001453 -1.484153
    29 0.120153 -0.050270 -0.054489 0.287569 3.110905 1.561085
    30 1.944142 -13.993246 -13.302470 1.136300 -3.972467 1.457349
    31 0.096944 -8.450418 -0.009365 -0.333617 -1.431726 0.746550
    32 0.447953 -2.798986 -0.200443 -1.210185 0.118642 0.257028
    33 -0.032909 -1.480204 0.004940 -1.014331 0.000000 0.000002
    34 -0.027022 -1.076920 -0.020210 -0.486864 0.000000 0.000000
    35 -0.249534 -2.846964 -0.174213 -0.924990 0.119445 0.213547
    36 0.043235 -1.683941 0.096012 -1.290377 0.002823 -0.000167
    37 0.031729 -1.160830 0.058838 -0.456131 0.000642 0.008372
    38 -0.963866 -2.785145 -0.085350 -0.385535 0.170953 0.241411
    39 0.028479 -1.403067 0.006271 -1.058247 0.000000 0.000000
    40 0.021413 -0.957781 0.020046 -0.471292 0.000000 0.000000
    41 1.164475 -2.543940 -0.170330 -1.379512 0.036670 0.462095
    42 0.024032 -1.129042 0.017807 -0.836349 0.000000 0.000001
    43 0.014898 -0.883989 -0.019848 -0.452581 0.000000 0.000000
    44 -0.586770 -1.264477 0.200161 0.402031 -0.483616 -3.269282
    45 1.522835 0.058681 0.016848 0.001410 0.008985 0.696420
    46 1.117947 0.048424 -0.005766 -0.007218 -0.024143 0.346703
    47 -0.139399 -0.111698 0.014397 0.846771 0.171241 1.393752
    48 -6.260806 6.983652 -0.294122 1.580804 -0.005023 -0.912799
  time 13
    0 -0.349399 1.166145 0.203512 0.000000 0.000000 0.000000
    1 13.430556 -0.858705 -12.930755 1.052671 -1.946092 -1.483249
    2 -0.071919 -8.498729 -0.104136 0.116033 0.073236 -0.252531
    3 4.238646 -4.266517 0.498798 -3.065845 0.124236 -1.536350
    4 2.319580 -1.456083 -0.000001 0.000000 0.000000 -1.570796
    5 1.416250 -0.000001 -0.000001 0.000000 0.000000 0.175233
    6 8.830292 -0.400003 -2.170229 0.000000 0.000000 -1.570796
    7 0.000000 0.000000 0.000000 0.000000 0.000000 0.000000
    8 1.430789 2.565281 -2.253419 -0.000001 -0.000001 0.675333
    9 4.989939 2.565243 -2.253418 -0.000001 -0.000001 0.675333
    10 16.804588 2.565286 -2.253421 -0.000001 -0.000001 0.675333
    11 0.591962 -4.172407 -0.000001 0.000000 0.000000 1.389440
    12 4.050905 64.166332 -2.718833 0.000000 0.000000 0.000000
    13 1.257180 8.762585 -0.153713 -1.570562 0.002683 -1.566807
    14 -0.488518 -2.755602 -0.228260 -0.285957 0.018206 -0.220219
    15 0.039887 -1.479790 0.029854 -2.163980 0.000000 0.000001
    16 0.028786 -1.075731 -0.023109 -0.729241 0.000000 0.000000
    17 0.250027 -2.820665 -0.238396 -0.090819 0.062503 -0.167059
    18 -0.049759 -1.680544 0.100479 -2.122085 0.000000 -0.000002
    19 -0.034142 -1.148312 0.084782 -0.909626 0.000000 0.000000
    20 0.957766 -2.746780 -0.090302 0.349903 -0.123483 -0.019742
    21 -0.033420 -1.397129 -0.011257 -1.101918 0.000000 -0.000001
    22 -0.022360 -0.957436 0.018784 -0.799989 0.000000 0.000000
    23 -1.180681 -2.507217 -0.193859 0.014387 0.131222 -0.129547
    24 -0.024967 -1.123934 0.017597 -1.504420 0.000000 0.000001
    25 -0.020057 -0.890968 0.010090 -1.588318 0.000000 0.000000
    26 0.583510 -1.197277 0.185379 0.281706 -0.595144 -0.857319
    27 1.535927 0.010246 0.005009 -0.002964 -0.012979 -0.682290
    28 1.100771 0.004527 -0.010679 -0.016147 -0.001453 -1.484153
    29 0.120153 -0.050270 -0.054489 0.287569 3.110905 1.561085
    30 2.291809 -14.243254 -13.708733 1.178758 -3.962197 1.471487
    31 0.096944 -8.450418 -0.009365 -0.333617 -1.431726 0.746550
    32 0.447953 -2.798986 -0.200443 -1.210185 0.118642 0.257028
    33 -0.032909 -1.480204 0.004940 -1.014331 0.000000 0.000002
    34 -0.027022 -1.076920 -0.020210 -0.486864 0.000000 0.000000
    35 -0.249534 -2.846964 -0.174213 -0.924990 0.119445 0.213547
    36 0.043235 -1.683941 0.096012 -1.290377 0.002823 -0.000167
    37 0.031729 -1.160830 0.058838 -0.456131 0.000642 0.008372
    38 -0.963866 -2.785145 -0.085350 -0.385535 0.170953 0.241411
    39 0.028479 -1.403067 0.006271 -1.058247 0.000000 0.000000
    40 0.021413 -0.957781 0.020046 -0.471292 0.000000 0.000000
    41 1.164475 -2.543940 -0.170330 -1.379512 0.036670 0.462095
    42 0.024032 -1.129042 0.017807 -0.836349 0.000000 0.000001
    43 0.014898 -0.883989 -0.019848 -0.452581 0.000000 0.000000
    44 -0.586770 -1.264477 0.200161 0.402031 -0.483616 -3.269282
    45 1.522835 0.058681 0.016848 0.001410 0.008985 0.696420
    46 1.117947 0.048424 -0.005766 -0.007218 -0.024143 0.346703
    47 -0.139399 -0.111698 0.014397 0.846771 0.171241 1.393752
    48 -6.260806 6.983652 -0.294122 1.580804 -0.005023 -0.912799
  time 14
    0 -0.349399 1.166145 0.203512 0.000000 0.000000 0.000000
    1 13.860257 -1.132151 -12.946380 0.999446 -1.944002 -1.448262
    2 -0.071919 -8.498729 -0.104136 0.107908 0.073092 -0.252399
    3 4.238646 -4.266517 0.498798 -3.065845 0.124236 -1.536350
    4 2.319580 -1.456083 -0.000001 0.000000 0.000000 -1.570796
    5 1.416250 -0.000001 -0.000001 0.000000 0.000000 0.175233
    6 8.830292 -0.400003 -2.170229 0.000000 0.000000 -1.570796
    7 0.000000 0.000000 0.000000 0.000000 0.000000 0.000000
    8 1.430789 2.565281 -2.253419 -0.000001 -0.000001 1.126323
    9 4.989939 2.565243 -2.253418 -0.000001 -0.000001 1.126323
    10 16.804588 2.565286 -2.253421 -0.000001 -0.000001 1.126323
    11 0.591962 -4.172407 -0.000001 0.000000 0.000000 1.389440
    12 4.418104 63.337968 -2.882900 0.000000 0.000000 0.000000
    13 1.257180 8.762585 -0.153713 -1.570562 0.002683 -1.566807
    14 -0.488518 -2.755602 -0.228260 -0.285957 0.018206 -0.220219
    15 0.039887 -1.479790 0.029854 -2.163980 0.000000 0.000001
    16 0.028786 -1.075731 -0.023109 -0.729241 0.000000 0.000000
    17 0.250027 -2.820665 -0.238396 -0.090819 0.062503 -0.167059
    18 -0.049759 -1.680544 0.100479 -2.122085 0.000000 -0.000002
    19 -0.034142 -1.148312 0.084782 -0.909626 0.000000 0.000000
    20 0.957766 -2.746780 -0.090302 0.349903 -0.123483 -0.019742
    21 -0.033420 -1.397129 -0.011257 -1.101918 0.000000 -0.000001
    22 -0.022360 -0.957436 0.018784 -0.799989 0.000000 0.000000
    23 -1.180681 -2.507217 -0.193859 0.014387 0.131222 -0.129547
    24 -0.024967 -1.123934 0.017597 -1.504420 0.000000 0.000001
    25 -0.020057 -0.890968 0.010090 -1.588318 0.000000 0.000000
    26 0.583510 -1.197277 0.185379 0.281706 -0.595144 -0.857319
    27 1.535927 0.010246 0.005009 -0.002964 -0.012979 -0.682290
    28 1.100771 0.004527 -0.010679 -0.016147 -0.001453 -1.484153
    29 0.120153 -0.050270 -0.054489 0.287569 3.110905 1.561085
    30 2.498847 -14.290130 -14.005617 1.207585 -3.968740 1.469989
    31 0.096944 -8.450418 -0.009365 -0.333617 -1.431726 0.746550
    32 0.447953 -2.798986 -0.200443 -1.210185 0.118642 0.257028
    33 -0.032909 -1.480204 0.004940 -1.014331 0.000000 0.000002
    34 -0.027022 -1.076920 -0.020210 -0.486864 0.000000 0.000000
    35 -0.249534 -2.846964 -0.174213 -0.924990 0.119445 0.213547
    36 0.043235 -1.683941 0.096012 -1.290377 0.002823 -0.000167
    37 0.031729 -1.160830 0.058838 -0.456131 0.000642 0.008372
    38 -0.963866 -2.785145 -0.085350 -0.385535 0.170953 0.241411
    39 0.028479 -1.403067 0.006271 -1.058247 0.000000 0.000000
    40 0.021413 -0.957781 0.020046 -0.471292 0.000000 0.000000
    41 1.164475 -2.543940 -0.170330 -1.379512 0.036670 0.462095
    42 0.024032 -1.129042 0.017807 -0.836349 0.000000 0.000001
    43 0.014898 -0.883989 -0.019848 -0.452581 0.000000 0.000000
    44 -0.586770 -1.264477 0.200161 0.402031 -0.483616 -3.269282
    45 1.522835 0.058681 0.016848 0.001410 0.008985 0.696420
    46 1.117947 0.048424 -0.005766 -0.007218 -0.024143 0.346703
    47 -0.139399 -0.111698 0.014397 0.846771 0.171241 1.393752
    48 -6.260806 6.983652 -0.294122 1.580804 -0.005023 -0.912799
  time 15
    0 -0.349399 1.166145 0.203512 0.000000 0.000000 0.000000
    1 14.243081 -1.276687 -12.645590 0.955978 -1.920047 -1.429963
    2 -0.071919 -8.498729 -0.104136 0.099782 0.072961 -0.252268
    3 4.238646 -4.266517 0.498798 -3.065845 0.124236 -1.536350
    4 2.319580 -1.456083 -0.000001 0.000000 0.000000 -1.570796
    5 1.416250 -0.000001 -0.000001 0.000000 0.000000 0.175233
    6 8.830292 -0.400003 -2.170229 0.000000 0.000000 -1.570796
    7 0.000000 0.000000 0.000000 0.000000 0.000000 0.000000
    8 1.430789 2.565281 -2.253419 -0.000001 -0.000001 1.398317
    9 4.989939 2.565243 -2.253418 -0.000001 -0.000001 1.398317
    10 16.804588 2.565286 -2.253421 -0.000001 -0.000001 1.398317
    11 0.591962 -4.172407 -0.000001 0.000000 0.000000 1.389440
    12 4.781396 62.496860 -3.046968 0.000000 0.000000 0.000000
    13 1.257180 8.762585 -0.153713 -1.570562 0.002683 -1.566807
    14 -0.488518 -2.755602 -0.228260 -0.285957 0.018206 -0.220219
    15 0.039887 -1.479790 0.029854 -2.163980 0.000000 0.000001
    16 0.028786 -1.075731 -0.023109 -0.729241 0.000000 0.000000
    17 0.250027 -2.820665 -0.238396 -0.090819 0.062503 -0.167059
    18 -0.049759 -1.680544 0.100479 -2.122085 0.000000 -0.000002
    19 -0.034142 -1.148312 0.084782 -0.909626 0.000000 0.000000
    20 0.957766 -2.746780 -0.090302 0.349903 -0.123483 -0.019742
    21 -0.033420 -1.397129 -0.011257 -1.101918 0.000000 -0.000001
    22 -0.022360 -0.957436 0.018784 -0.799989 0.000000 0.000000
    23 -1.180681 -2.507217 -0.193859 0.014387 0.131222 -0.129547
    24 -0.024967 -1.123934 0.017597 -1.504420 0.000000 0.000001
    25 -0.020057 -0.890968 0.010090 -1.588318 0.000000 0.000000
    26 0.583510 -1.197277 0.185379 0.281706 -0.595144 -0.857319
    27 1.535927 0.010246 0.005009 -0.002964 -0.012979 -0.682290
    28 1.100771 0.004527 -0.010679 -0.016147 -0.001453 -1.484153
    29 0.120153 -0.050270 -0.054489 0.287569 3.110905 1.561085
    30 2.565255 -14.079186 -14.185310 1.222495 -3.996320 1.450796
    31 0.096944 -8.450418 -0.009365 -0.333617 -1.431726 0.746550
    32 0.447953 -2.798986 -0.200443 -1.210185 0.118642 0.257028
    33 -0.032909 -1.480204 0.004940 -1.014331 0.000000 0.000002
    34 -0.027022 -1.076920 -0.020210 -0.486864 0.000000 0.000000
    35 -0.249534 -2.846964 -0.174213 -0.924990 0.119445 0.213547
    36 0.043235 -1.683941 0.096012 -1.290377 0.002823 -0.000167
    37 0.031729 -1.160830 0.058838 -0.456131 0.000642 0.008372
    38 -0.963866 -2.785145 -0.085350 -0.385535 0.170953 0.241411
    39 0.028479 -1.403067 0.006271 -1.058247 0.000000 0.000000
    40 0.021413 -0.957781 0.020046 -0.471292 0.000000 0.000000
    41 1.164475 -2.543940 -0.170330 -1.379512 0.036670 0.462095
    42 0.024032 -1.129042 0.017807 -0.836349 0.000000 0.000001
    43 0.014898 -0.883989 -0.019848 -0.452581 0.000000 0.000000
    44 -0.586770 -1.264477 0.200161 0.402031 -0.483616 -3.269282
    45 1.522835 0.058681 0.016848 0.001410 0.008985 0.696420
    46 1.117947 0.048424 -0.005766 -0.007218 -0.024143 0.346703
    47 -0.139399 -0.111698 0.014397 0.846771 0.171241 1.393752
    48 -6.260806 6.983652 -0.294122 1.580804 -0.005023 -0.912799
  time 16
    0 -0.349399 1.166145 0.203512 0.000000 0.000000 0.000000
    1 14.606373 -1.331376 -12.110417 0.910736 -1.879056 -1.416177
    2 -0.071919 -8.498729 -0.104136 0.091669 0.072817 -0.252136
    3 4.238646 -4.266517 0.498798 -3.065845 0.124236 -1.536350
    4 2.319580 -1.456083 -0.000001 0.000000 0.000000 -1.570796
    5 1.416250 -0.000001 -0.000001 0.000000 0.000000 0.175233
    6 8.830292 -0.400003 -2.170229 0.000000 0.000000 -1.570796
    7 0.000000 0.000000 0.000000 0.000000 0.000000 0.000000
    8 1.430789 2.565281 -2.253419 -0.000001 -0.000001 -4.712294
    9 4.989939 2.565243 -2.253418 -0.000001 -0.000001 -4.712294
    10 16.804588 2.565286 -2.253421 -0.000001 -0.000001 -4.712294
    11 0.591962 -4.172407 -0.000001 0.000000 0.000000 1.389440
    12 5.144688 61.681240 -3.207129 0.000000 0.000000 0.000000
    13 1.257180 8.762585 -0.153713 -1.570562 0.002683 -1.566807
    14 -0.488518 -2.755602 -0.228260 -0.285957 0.018206 -0.220219
    15 0.039887 -1.479790 0.029854 -2.163980 0.000000 0.000001
    16 0.028786 -1.075731 -0.023109 -0.729241 0.000000 0.000000
    17 0.250027 -2.820665 -0.238396 -0.090819 0.062503 -0.167059
    18 -0.049759 -1.680544 0.100479 -2.122085 0.000000 -0.000002
    19 -0.034142 -1.148312 0.084782 -0.909626 0.000000 0.000000
    20 0.957766 -2.746780 -0.090302 0.349903 -0.123483 -0.019742
    21 -0.033420 -1.397129 -0.011257 -1.101918 0.000000 -0.000001
    22 -0.022360 -0.957436 0.018784 -0.799989 0.000000 0.000000
    23 -1.180681 -2.507217 -0.193859 0.014387 0.131222 -0.129547
    24 -0.024967 -1.123934 0.017597 -1.504420 0.000000 0.000001
    25 -0.020057 -0.890968 0.010090 -1.588318 0.000000 0.000000
    26 0.583510 -1.197277 0.185379 0.281706 -0.595144 -0.857319
    27 1.535927 0.010246 0.005009 -0.002964 -0.012979 -0.682269
    28 1.100771 0.004527 -0.010679 -0.016147 -0.001453 -1.484153
    29 0.120153 -0.050270 -0.054489 0.287569 3.110905 1.561085
    30 2.537911 -13.641673 -14.298595 1.227323 -4.040465 1.417278
    31 0.096944 -8.450418 -0.009365 -0.333617 -1.431726 0.746550
    32 0.447953 -2.798986 -0.200443 -1.210185 0.118642 0.257028
    33 -0.032909 -1.480204 0.004940 -1.014331 0.000000 0.000002
    34 -0.027022 -1.076920 -0.020210 -0.486864 0.000000 0.000000
    35 -0.249534 -2.846964 -0.174213 -0.924990 0.119445 0.213547
    36 0.043235 -1.683941 0.096012 -1.290377 0.002823 -0.000167
    37 0.031729 -1.160830 0.058838 -0.456131 0.000642 0.008372
    38 -0.963866 -2.785145 -0.085350 -0.385535 0.170953 0.241411
    39 0.028479 -1.403067 0.006271 -1.058247 0.000000 0.000000
    40 0.021413 -0.957781 0.020046 -0.471292 0.000000 0.000000
    41 1.164475 -2.543940 -0.170330 -1.379512 0.036670 0.462095
    42 0.024032 -1.129042 0.017807 -0.836349 0.000000 0.000001
    43 0.014898 -0.883989 -0.019848 -0.452581 0.000000 0.000000
    44 -0.586770 -1.264477 0.200161 0.402031 -0.483616 -3.269282
    45 1.522835 0.058681 0.016848 0.001410 0.008985 0.696420
    46 1.117947 0.048424 -0.005766 -0.007218 -0.024143 0.346703
    47 -0.139399 -0.111698 0.014397 0.846771 0.171241 1.393752
    48 -6.260806 6.983652 -0.294122 1.580804 -0.005023 -0.912799
  time 17
    0 -0.349399 1.166145 0.203512 0.000000 0.000000 0.000000
    1 14.950134 -1.319657 -11.430709 0.859930 -1.827440 -1.400054
    2 -0.071919 -8.498729 -0.104136 0.083579 0.072673 -0.252016
    3 4.238646 -4.266517 0.498798 -3.065845 0.124236 -1.536350
    4 2.319580 -1.456083 -0.000001 0.000000 0.000000 -1.570796
    5 1.416250 -0.000001 -0.000001 0.000000 0.000000 0.175233
    6 8.830292 -0.400003 -2.170229 0.000000 0.000000 -1.570796
    7 0.000000 0.000000 0.000000 0.000000 0.000000 0.000000
    8 1.430789 2.565281 -2.253419 -0.000001 -0.000001 -4.646046
    9 4.989939 2.565243 -2.253418 -0.000001 -0.000001 -4.646046
    10 16.804588 2.565286 -2.253421 -0.000001 -0.000001 -4.646046
    11 0.591962 -4.172407 -0.000001 0.000000 0.000000 1.389440
    12 5.507981 60.916597 -3.371197 0.000000 0.000000 0.000000
    13 1.257180 8.762585 -0.153713 -1.570562 0.002683 -1.566807
    14 -0.488518 -2.755602 -0.228260 -0.285957 0.018206 -0.220219
    15 0.039887 -1.479790 0.029854 -2.163980 0.000000 0.000001
    16 0.028786 -1.075731 -0.023109 -0.729241 0.000000 0.000000
    17 0.250027 -2.820665 -0.238396 -0.090819 0.062503 -0.167059
    18 -0.049759 -1.680544 0.100479 -2.122085 0.000000 -0.000002
    19 -0.034142 -1.148312 0.084782 -0.909626 0.000000 0.000000
    20 0.957766 -2.746780 -0.090302 0.349903 -0.123483 -0.019742
    21 -0.033420 -1.397129 -0.011257 -1.101918 0.000000 -0.000001
    22 -0.022360 -0.957436 0.018784 -0.799989 0.000000 0.000000
    23 -1.180681 -2.507217 -0.193859 0.014387 0.131222 -0.129547
    24 -0.024967 -1.123934 0.017597 -1.504420 0.000000 0.000001
    25 -0.020057 -0.890968 0.010090 -1.588318 0.000000 0.000000
    26 0.583510 -1.197277 0.185379 0.281706 -0.595144 -0.857319
    27 1.535927 0.010246 0.005009 -0.002964 -0.012979 -0.682290
    28 1.100771 0.004527 -0.010679 -0.016147 -0.001453 -1.484153
    29 0.120153 -0.050270 -0.054489 0.287569 3.110905 1.561085
    30 2.463690 -13.024466 -14.333752 1.221217 -4.094548 1.371588
    31 0.096944 -8.450418 -0.009365 -0.333617 -1.431726 0.746550
    32 0.447953 -2.798986 -0.200443 -1.210185 0.118642 0.257028
    33 -0.032909 -1.480204 0.004940 -1.014331 0.000000 0.000002
    34 -0.027022 -1.076920 -0.020210 -0.486864 0.000000 0.000000
    35 -0.249534 -2.846964 -0.174213 -0.924990 0.119445 0.213547
    36 0.043235 -1.683941 0.096012 -1.290377 0.002823 -0.000167
    37 0.031729 -1.160830 0.058838 -0.456131 0.000642 0.008372
    38 -0.963866 -2.785145 -0.085350 -0.385535 0.170953 0.241411
    39 0.028479 -1.403067 0.006271 -1.058247 0.000000 0.000000
    40 0.021413 -0.957781 0.020046 -0.471292 0.000000 0.000000
    41 1.164475 -2.543940 -0.170330 -1.379512 0.036670 0.462095
    42 0.024032 -1.129042 0.017807 -0.836349 0.000000 0.000001
    43 0.014898 -0.883989 -0.019848 -0.452581 0.000000 0.000000
    44 -0.586770 -1.264477 0.200161 0.402031 -0.483616 -3.269282
    45 1.522835 0.058681 0.016848 0.001410 0.008985 0.696420
    46 1.117947 0.048424 -0.005766 -0.007218 -0.024143 0.346703
    47 -0.139399 -0.111698 0.014397 0.846771 0.171241 1.393752
    48 -6.260806 6.983652 -0.294122 1.580804 -0.005023 -0.912799
  time 18
    0 -0.349399 1.166145 0.203512 0.000000 0.000000 0.000000
    1 15.266550 -1.264967 -10.696311 0.797995 -1.771749 -1.373129
    2 -0.071919 -8.498729 -0.104136 0.075513 0.072541 -0.251884
    3 4.238646 -4.266517 0.498798 -3.065845 0.124236 -1.536350
    4 2.319580 -1.456083 -0.000001 0.000000 0.000000 -1.570796
    5 1.416250 -0.000001 -0.000001 0.000000 0.000000 0.175233
    6 8.830292 -0.400003 -2.170229 0.000000 0.000000 -1.570796
    7 0.000000 0.000000 0.000000 0.000000 0.000000 0.000000
    8 1.430789 2.565281 -2.253419 -0.000001 -0.000001 -4.679218
    9 4.989939 2.565243 -2.253418 -0.000001 -0.000001 -4.679218
    10 16.804588 2.565286 -2.253421 -0.000001 -0.000001 -4.679218
    11 0.591962 -4.172407 -0.000001 0.000000 0.000000 1.389440
    12 5.871273 60.228418 -3.535264 0.000000 0.000000 0.000000
    13 1.257180 8.762585 -0.153713 -1.570562 0.002683 -1.566807
    14 -0.488518 -2.755602 -0.228260 -0.285957 0.018206 -0.220219
    15 0.039887 -1.479790 0.029854 -2.163980 0.000000 0.000001
    16 0.028786 -1.075731 -0.023109 -0.729241 0.000000 0.000000
    17 0.250027 -2.820665 -0.238396 -0.090819 0.062503 -0.167059
    18 -0.049759 -1.680544 0.100479 -2.122085 0.000000 -0.000002
    19 -0.034142 -1.148312 0.084782 -0.909626 0.000000 0.000000
    20 0.957766 -2.746780 -0.090302 0.349903 -0.123483 -0.019742
    21 -0.033420 -1.397129 -0.011257 -1.101918 0.000000 -0.000001
    22 -0.022360 -0.957436 0.018784 -0.799989 0.000000 0.000000
    23 -1.180681 -2.507217 -0.193859 0.014387 0.131222 -0.129547
    24 -0.024967 -1.123934 0.017597 -1.504420 0.000000 0.000001
    25 -0.020057 -0.890968 0.010090 -1.588318 0.000000 0.000000
    26 0.583510 -1.197277 0.185379 0.281706 -0.595144 -0.857319
    27 1.535927 0.010246 0.005009 -0.002964 -0.012979 -0.682290
    28 1.100771 0.004527 -0.010679 -0.016147 -0.001453 -1.484153
    29 0.120153 -0.050270 -0.054489 0.287569 3.110905 1.561085
    30 2.377749 -12.293975 -14.294688 1.203679 -4.151862 1.315600
    31 0.096944 -8.450418 -0.009365 -0.333617 -1.431726 0.746550
    32 0.447953 -2.798986 -0.200443 -1.210185 0.118642 0.257028
    33 -0.032909 -1.480204 0.004940 -1.014331 0.000000 0.000002
    34 -0.027022 -1.076920 -0.020210 -0.486864 0.000000 0.000000
    35 -0.249534 -2.846964 -0.174213 -0.924990 0.119445 0.213547
    36 0.043235 -1.683941 0.096012 -1.290377 0.002823 -0.000167
    37 0.031729 -1.160830 0.058838 -0.456131 0.000642 0.008372
    38 -0.963866 -2.785145 -0.085350 -0.385535 0.170953 0.241411
    39 0.028479 -1.403067 0.006271 -1.058247 0.000000 0.000000
    40 0.021413 -0.957781 0.020046 -0.471292 0.000000 0.000000
    41 1.164475 -2.543940 -0.170330 -1.379512 0.036670 0.462095
    42 0.024032 -1.129042 0.017807 -0.836349 0.000000 0.000001
    43 0.014898 -0.883989 -0.019848 -0.452581 0.000000 0.000000
    44 -0.586770 -1.264477 0.200161 0.402031 -0.483616 -3.269282
    45 1.522835 0.058681 0.016848 0.001410 0.008985 0.696420
    46 1.117947 0.048424 -0.005766 -0.007218 -0.024143 0.346703
    47 -0.139399 -0.111698 0.014397 0.846771 0.171241 1.393752
    48 -6.260806 6.983652 -0.294122 1.580804 -0.005023 -0.912799
  time 19
    0 -0.349399 1.166145 0.203512 0.000000 0.000000 0.000000
    1 15.543902 -1.198559 -9.985352 0.714769 -1.718675 -1.322261
    2 -0.071919 -8.498729 -0.104136 0.067520 0.072397 -0.251752
    3 4.238646 -4.266517 0.498798 -3.065845 0.124236 -1.536350
    4 2.319580 -1.456083 -0.000001 0.000000 0.000000 -1.570796
    5 1.416250 -0.000001 -0.000001 0.000000 0.000000 0.175233
    6 8.830292 -0.400003 -2.170229 0.000000 0.000000 -1.570796
    7 0.000000 0.000000 0.000000 0.000000 0.000000 0.000000
    8 1.430789 2.565281 -2.253419 -0.000001 -0.000001 1.570698
    9 4.989939 2.565243 -2.253418 -0.000001 -0.000001 1.570698
    10 16.804588 2.565286 -2.253421 -0.000001 -0.000001 1.570698
    11 0.591962 -4.172407 -0.000001 0.000000 0.000000 1.389440
    12 6.230659 59.680423 -3.699332 0.000000 0.000000 0.000000
    13 1.257180 8.762585 -0.153713 -1.570562 0.002683 -1.566807
    14 -0.488518 -2.755602 -0.228260 -0.285957 0.018206 -0.220219
    15 0.039887 -1.479790 0.029854 -2.163980 0.000000 0.000001
    16 0.028786 -1.075731 -0.023109 -0.729241 0.000000 0.000000
    17 0.250027 -2.820665 -0.238396 -0.090819 0.062503 -0.167059
    18 -0.049759 -1.680544 0.100479 -2.122085 0.000000 -0.000002
    19 -0.034142 -1.148312 0.084782 -0.909626 0.000000 0.000000
    20 0.957766 -2.746780 -0.090302 0.349903 -0.123483 -0.019742
    21 -0.033420 -1.397129 -0.011257 -1.101918 0.000000 -0.000001
    22 -0.022360 -0.957436 0.018784 -0.799989 0.000000 0.000000
    23 -1.180681 -2.507217 -0.193859 0.014387 0.131222 -0.129547
    24 -0.024967 -1.123934 0.017597 -1.504420 0.000000 0.000001
    25 -0.020057 -0.890968 0.010090 -1.588318 0.000000 0.000000
    26 0.583510 -1.197277 0.185379 0.281706 -0.595144 -0.857319
    27 1.535927 0.010246 0.005009 -0.002964 -0.012979 -0.682290
    28 1.100771 0.004527 -0.010679 -0.016147 -0.001453 -1.484153
    29 0.120153 -0.050270 -0.054489 0.287569 3.110905 1.561085
    30 2.303528 -11.532233 -14.200935 1.176131 -4.205697 1.252778
    31 0.096944 -8.450418 -0.009365 -0.333617 -1.431726 0.746550
    32 0.447953 -2.798986 -0.200443 -1.210185 0.118642 0.257028
    33 -0.032909 -1.480204 0.004940 -1.014331 0.000000 0.000002
    34 -0.027022 -1.076920 -0.020210 -0.486864 0.000000 0.000000
    35 -0.249534 -2.846964 -0.174213 -0.924990 0.119445 0.213547
    36 0.043235 -1.683941 0.096012 -1.290377 0.002823 -0.000167
    37 0.031729 -1.160830 0.058838 -0.456131 0.000642 0.008372
    38 -0.963866 -2.785145 -0.085350 -0.385535 0.170953 0.241411
    39 0.028479 -1.403067 0.006271 -1.058247 0.000000 0.000000
    40 0.021413 -0.957781 0.020046 -0.471292 0.000000 0.000000
    41 1.164475 -2.543940 -0.170330 -1.379512 0.036670 0.462095
    42 0.024032 -1.129042 0.017807 -0.836349 0.000000 0.000001
    43 0.014898 -0.883989 -0.019848 -0.452581 0.000000 0.000000
    44 -0.586770 -1.264477 0.200161 0.402031 -0.483616 -3.269282
    45 1.522835 0.058681 0.016848 0.001410 0.008985 0.696420
    46 1.117947 0.048424 -0.005766 -0.007218 -0.024143 0.346703
    47 -0.139399 -0.111698 0.014397 0.846771 0.171241 1.393752
    48 -6.260806 6.983652 -0.294122 1.580804 -0.005023 -0.912799
  time 20
    0 -0.349399 1.166145 0.203512 0.000000 0.000000 0.000000
    1 15.786097 -1.136057 -9.391584 0.594447 -1.675120 -1.228667
    2 -0.071919 -8.498729 -0.104136 0.059574 0.072266 -0.251620
    3 4.238646 -4.266517 0.498798 -3.065845 0.124236 -1.536350
    4 2.319580 -1.456083 -0.000001 0.000000 0.000000 -1.570796
    5 1.416250 -0.000001 -0.000001 0.000000 0.000000 0.175233
    6 8.830292 -0.400003 -2.170229 0.000000 0.000000 -1.570796
    7 0.000000 0.000000 0.000000 0.000000 0.000000 0.000000
    8 1.430789 2.565281 -2.253419 -0.000001 -0.000001 1.570698
    9 4.989939 2.565243 -2.253418 -0.000001 -0.000001 1.570698
    10 16.804588 2.565286 -2.253421 -0.000001 -0.000001 1.570698
    11 0.591962 -4.172407 -0.000001 0.000000 0.000000 1.389440
    12 6.586138 59.272613 -3.863399 0.000000 0.000000 0.000000
    13 1.257180 8.762585 -0.153713 -1.570562 0.002683 -1.566807
    14 -0.488518 -2.755602 -0.228260 -0.285957 0.018206 -0.220219
    15 0.039887 -1.479790 0.029854 -2.163980 0.000000 0.000001
    16 0.028786 -1.075731 -0.023109 -0.729241 0.000000 0.000000
    17 0.250027 -2.820665 -0.238396 -0.090819 0.062503 -0.167059
    18 -0.049759 -1.680544 0.100479 -2.122085 0.000000 -0.000002
    19 -0.034142 -1.148312 0.084782 -0.909626 0.000000 0.000000
    20 0.957766 -2.746780 -0.090302 0.349903 -0.123483 -0.019742
    21 -0.033420 -1.397129 -0.011257 -1.101918 0.000000 -0.000001
    22 -0.022360 -0.957436 0.018784 -0.799989 0.000000 0.000000
    23 -1.180681 -2.507217 -0.193859 0.014387 0.131222 -0.129547
    24 -0.024967 -1.123934 0.017597 -1.504420 0.000000 0.000001
    25 -0.020057 -0.890968 0.010090 -1.588318 0.000000 0.000000
    26 0.583510 -1.197277 0.185379 0.281706 -0.595144 -0.857319
    27 1.535927 0.010246 0.005009 -0.002964 -0.012979 -0.682290
    28 1.100771 0.004527 -0.010679 -0.016147 -0.001453 -1.484153
    29 0.120153 -0.050270 -0.054489 0.287569 3.110905 1.561085
    30 2.260558 -10.848619 -14.087651 1.143471 -4.249924 1.190142
    31 0.096944 -8.450418 -0.009365 -0.333617 -1.431726 0.746550
    32 0.447953 -2.798986 -0.200443 -1.210185 0.118642 0.257028
    33 -0.032909 -1.480204 0.004940 -1.014331 0.000000 0.000002
    34 -0.027022 -1.076920 -0.020210 -0.486864 0.000000 0.000000
    35 -0.249534 -2.846964 -0.174213 -0.924990 0.119445 0.213547
    36 0.043235 -1.683941 0.096012 -1.290377 0.002823 -0.000167
    37 0.031729 -1.160830 0.058838 -0.456131 0.000642 0.008372
    38 -0.963866 -2.785145 -0.085350 -0.385535 0.170953 0.241411
    39 0.028479 -1.403067 0.006271 -1.058247 0.000000 0.000000
    40 0.021413 -0.957781 0.020046 -0.471292 0.000000 0.000000
    41 1.164475 -2.543940 -0.170330 -1.379512 0.036670 0.462095
    42 0.024032 -1.129042 0.017807 -0.836349 0.000000 0.000001
    43 0.014898 -0.883989 -0.019848 -0.452581 0.000000 0.000000
    44 -0.586770 -1.264477 0.200161 0.402031 -0.483616 -3.269282
    45 1.522835 0.058681 0.016848 0.001410 0.008985 0.696420
    46 1.117947 0.048424 -0.005766 -0.007218 -0.024143 0.346703
    47 -0.139399 -0.111698 0.014397 0.846771 0.171241 1.393752
    48 -6.260806 6.983652 -0.294122 1.580804 -0.005023 -0.912799
  time 21
    0 -0.349399 1.166145 0.203512 0.000000 0.000000 0.000000
    1 15.977509 -1.112619 -9.004854 0.439851 -1.647845 -1.092669
    2 -0.071919 -8.498729 -0.104136 0.051712 0.072134 -0.251489
    3 4.238646 -4.266517 0.498798 -3.065845 0.124236 -1.536350
    4 2.319580 -1.456083 -0.000001 0.000000 0.000000 -1.570796
    5 1.416250 -0.000001 -0.000001 0.000000 0.000000 0.175233
    6 8.830292 -0.400003 -2.170229 0.000000 0.000000 -1.570796
    7 0.000000 0.000000 0.000000 0.000000 0.000000 0.000000
    8 1.430789 2.565281 -2.253419 -0.000001 -0.000001 1.570698
    9 4.989939 2.565243 -2.253418 -0.000001 -0.000001 1.570698
    10 16.804588 2.565286 -2.253421 -0.000001 -0.000001 1.570698
    11 0.591962 -4.172407 -0.000001 0.000000 0.000000 1.389440
    12 6.941618 59.068708 -4.027467 0.000000 0.000000 0.000000
    13 1.257180 8.762585 -0.153713 -1.570562 0.002683 -1.566807
    14 -0.488518 -2.755602 -0.228260 -0.285957 0.018206 -0.220219
    15 0.039887 -1.479790 0.029854 -2.163980 0.000000 0.000001
    16 0.028786 -1.075731 -0.023109 -0.729241 0.000000 0.000000
    17 0.250027 -2.820665 -0.238396 -0.090819 0.062503 -0.167059
    18 -0.049759 -1.680544 0.100479 -2.122085 0.000000 -0.000002
    19 -0.034142 -1.148312 0.084782 -0.909626 0.000000 0.000000
    20 0.957766 -2.746780 -0.090302 0.349903 -0.123483 -0.019742
    21 -0.033420 -1.397129 -0.011257 -1.101918 0.000000 -0.000001
    22 -0.022360 -0.957436 0.018784 -0.799989 0.000000 0.000000
    23 -1.180681 -2.507217 -0.193859 0.014387 0.131222 -0.129547
    24 -0.024967 -1.123934 0.017597 -1.504420 0.000000 0.000001
    25 -0.020057 -0.890968 0.010090 -1.588318 0.000000 0.000000
    26 0.583510 -1.197277 0.185379 0.281706 -0.595144 -0.857319
    27 1.535927 0.010246 0.005009 -0.002964 -0.012979 -0.682290
    28 1.100771 0.004527 -0.010679 -0.016147 -0.001453 -1.484153
    29 0.120153 -0.050270 -0.054489 0.287569 3.110905 1.561085
    30 2.264465 -10.360323 -14.001711 1.116491 -4.279078 1.140146
    31 0.096944 -8.450418 -0.009365 -0.333617 -1.431726 0.746550
    32 0.447953 -2.798986 -0.200443 -1.210185 0.118642 0.257028
    33 -0.032909 -1.480204 0.004940 -1.014331 0.000000 0.000002
    34 -0.027022 -1.076920 -0.020210 -0.486864 0.000000 0.000000
    35 -0.249534 -2.846964 -0.174213 -0.924990 0.119445 0.213547
    36 0.043235 -1.683941 0.096012 -1.290377 0.002823 -0.000167
    37 0.031729 -1.160830 0.058838 -0.456131 0.000642 0.008372
    38 -0.963866 -2.785145 -0.085350 -0.385535 0.170953 0.241411
    39 0.028479 -1.403067 0.006271 -1.058247 0.000000 0.000000
    40 0.021413 -0.957781 0.020046 -0.471292 0.000000 0.000000
    41 1.164475 -2.543940 -0.170330 -1.379512 0.036670 0.462095
    42 0.024032 -1.129042 0.017807 -0.836349 0.000000 0.000001
    43 0.014898 -0.883989 -0.019848 -0.452581 0.000000 0.000000
    44 -0.586770 -1.264477 0.200161 0.402031 -0.483616 -3.269282
    45 1.522835 0.058681 0.016848 0.001410 0.008985 0.696420
    46 1.117947 0.048424 -0.005766 -0.007218 -0.024143 0.346703
    47 -0.139399 -0.111698 0.014397 0.846771 0.171241 1.393752
    48 -6.260806 6.983652 -0.294122 1.580804 -0.005023 -0.912799
  time 22
    0 -0.349399 1.166145 0.203512 0.000000 0.000000 0.000000
    1 16.118138 -1.112619 -8.805629 0.303642 -1.635200 -0.966748
    2 -0.071919 -8.498729 -0.104136 0.043119 0.071990 -0.251345
    3 4.238646 -4.266517 0.498798 -3.065845 0.124236 -1.536350
    4 2.319580 -1.456083 -0.000001 0.000000 0.000000 -1.570796
    5 1.416250 -0.000001 -0.000001 0.000000 0.000000 0.175233
    6 8.830292 -0.400003 -2.170229 0.000000 0.000000 -1.570796
    7 0.000000 0.000000 0.000000 0.000000 0.000000 0.000000
    8 1.430789 2.565281 -2.253419 -0.000001 -0.000001 1.570698
    9 4.989939 2.565243 -2.253418 -0.000001 -0.000001 1.570698
    10 16.804588 2.565286 -2.253421 -0.000001 -0.000001 1.570698
    11 0.591962 -4.172407 -0.000001 0.000000 0.000000 1.389440
    12 7.324442 58.826571 -4.207160 0.000000 0.000000 0.000000
    13 1.257180 8.762585 -0.153713 -1.570562 0.002683 -1.566807
    14 -0.488518 -2.755602 -0.228260 -0.285957 0.018206 -0.220219
    15 0.039887 -1.479790 0.029854 -2.163980 0.000000 0.000001
    16 0.028786 -1.075731 -0.023109 -0.729241 0.000000 0.000000
    17 0.250027 -2.820665 -0.238396 -0.090819 0.062503 -0.167059
    18 -0.049759 -1.680544 0.100479 -2.122085 0.000000 -0.000002
    19 -0.034142 -1.148312 0.084782 -0.909626 0.000000 0.000000
    20 0.957766 -2.746780 -0.090302 0.349903 -0.123483 -0.019742
    21 -0.033420 -1.397129 -0.011257 -1.101918 0.000000 -0.000001
    22 -0.022360 -0.957436 0.018784 -0.799989 0.000000 0.000000
    23 -1.180681 -2.507217 -0.193859 0.014387 0.131222 -0.129547
    24 -0.024967 -1.123934 0.017597 -1.504420 0.000000 0.000001
    25 -0.020057 -0.890968 0.010090 -1.588318 0.000000 0.000000
    26 0.583510 -1.197277 0.185379 0.281706 -0.595144 -0.857319
    27 1.535927 0.010246 0.005009 -0.002964 -0.012979 -0.682290
    28 1.100771 0.004527 -0.010679 -0.016147 -0.001453 -1.484153
    29 0.120153 -0.050270 -0.054489 0.287569 3.110905 1.561085
    30 2.299622 -10.063439 -13.958740 1.099451 -4.294152 1.106254
    31 0.096944 -8.450418 -0.009365 -0.333617 -1.431726 0.746550
    32 0.447953 -2.798986 -0.200443 -1.210185 0.118642 0.257028
    33 -0.032909 -1.480204 0.004940 -1.014331 0.000000 0.000002
    34 -0.027022 -1.076920 -0.020210 -0.486864 0.000000 0.000000
    35 -0.249534 -2.846964 -0.174213 -0.924990 0.119445 0.213547
    36 0.043235 -1.683941 0.096012 -1.290377 0.002823 -0.000167
    37 0.031729 -1.160830 0.058838 -0.456131 0.000642 0.008372
    38 -0.963866 -2.785145 -0.085350 -0.385535 0.170953 0.241411
    39 0.028479 -1.403067 0.006271 -1.058247 0.000000 0.000000
    40 0.021413 -0.957781 0.020046 -0.471292 0.000000 0.000000
    41 1.164475 -2.543940 -0.170330 -1.379512 0.036670 0.462095
    42 0.024032 -1.129042 0.017807 -0.836349 0.000000 0.000001
    43 0.014898 -0.883989 -0.019848 -0.452581 0.000000 0.000000
    44 -0.586770 -1.264477 0.200161 0.402031 -0.483616 -3.269282
    45 1.522835 0.058681 0.016848 0.001410 0.008985 0.696420
    46 1.117947 0.048424 -0.005766 -0.007218 -0.024143 0.346703
    47 -0.139399 -0.111698 0.014397 0.846771 0.171241 1.393752
    48 -6.260806 6.983652 -0.294122 1.580804 -0.005023 -0.912799
  time 23
    0 -0.349399 1.166145 0.203512 0.000000 0.000000 0.000000
    1 16.215798 -1.112619 -8.715782 0.220981 -1.629756 -0.888874
    2 -0.071919 -8.498729 -0.104136 0.033424 0.071834 -0.251177
    3 4.238646 -4.266517 0.498798 -3.065845 0.124236 -1.536350
    4 2.319580 -1.456083 -0.000001 0.000000 0.000000 -1.570796
    5 1.416250 -0.000001 -0.000001 0.000000 0.000000 0.175233
    6 8.830292 -0.400003 -2.170229 0.000000 0.000000 -1.570796
    7 0.000000 0.000000 0.000000 0.000000 0.000000 0.000000
    8 1.430789 2.565281 -2.253419 -0.000001 -0.000001 1.570698
    9 4.989939 2.565243 -2.253418 -0.000001 -0.000001 1.570698
    10 16.804588 2.565286 -2.253421 -0.000001 -0.000001 1.570698
    11 0.591962 -4.172407 -0.000001 0.000000 0.000000 1.389440
    12 7.750237 58.367785 -4.402478 0.000000 0.000000 0.000000
    13 1.257180 8.762585 -0.153713 -1.570562 0.002683 -1.566807
    14 -0.488518 -2.755602 -0.228260 -0.285957 0.018206 -0.220219
    15 0.039887 -1.479790 0.029854 -2.163980 0.000000 0.000001
    16 0.028786 -1.075731 -0.023109 -0.729241 0.000000 0.000000
    17 0.250027 -2.820665 -0.238396 -0.090819 0.062503 -0.167059
    18 -0.049759 -1.680544 0.100479 -2.122085 0.000000 -0.000002
    19 -0.034142 -1.148312 0.084782 -0.909626 0.000000 0.000000
    20 0.957766 -2.746780 -0.090302 0.349903 -0.123483 -0.019742
    21 -0.033420 -1.397129 -0.011257 -1.101918 0.000000 -0.000001
    22 -0.022360 -0.957436 0.018784 -0.799989 0.000000 0.000000
    23 -1.180681 -2.507217 -0.193859 0.014387 0.131222 -0.129547
    24 -0.024967 -1.123934 0.017597 -1.504420 0.000000 0.000001
    25 -0.020057 -0.890968 0.010090 -1.588318 0.000000 0.000000
    26 0.583510 -1.197277 0.185379 0.281706 -0.595144 -0.857319
    27 1.535927 0.010246 0.005009 -0.002964 -0.012979 -0.682290
    28 1.100771 0.004527 -0.010679 -0.016147 -0.001453 -1.484153
    29 0.120153 -0.050270 -0.054489 0.287569 3.110905 1.561085
    30 2.330873 -9.872026 -13.931396 1.087523 -4.301274 1.081256
    31 0.096944 -8.450418 -0.009365 -0.333617 -1.431726 0.746550
    32 0.447953 -2.798986 -0.200443 -1.210185 0.118642 0.257028
    33 -0.032909 -1.480204 0.004940 -1.014331 0.000000 0.000002
    34 -0.027022 -1.076920 -0.020210 -0.486864 0.000000 0.000000
    35 -0.249534 -2.846964 -0.174213 -0.924990 0.119445 0.213547
    36 0.043235 -1.683941 0.096012 -1.290377 0.002823 -0.000167
    37 0.031729 -1.160830 0.058838 -0.456131 0.000642 0.008372
    38 -0.963866 -2.785145 -0.085350 -0.385535 0.170953 0.241411
    39 0.028479 -1.403067 0.006271 -1.058247 0.000000 0.000000
    40 0.021413 -0.957781 0.020046 -0.471292 0.000000 0.000000
    41 1.164475 -2.543940 -0.170330 -1.379512 0.036670 0.462095
    42 0.024032 -1.129042 0.017807 -0.836349 0.000000 0.000001
    43 0.014898 -0.883989 -0.019848 -0.452581 0.000000 0.000000
    44 -0.586770 -1.264477 0.200161 0.402031 -0.483616 -3.269282
    45 1.522835 0.058681 0.016848 0.001410 0.008985 0.696420
    46 1.117947 0.048424 -0.005766 -0.007218 -0.024143 0.346703
    47 -0.139399 -0.111698 0.014397 0.846771 0.171241 1.393752
    48 -6.260806 6.983652 -0.294122 1.580804 -0.005023 -0.912799
  time 24
    0 -0.349399 1.166145 0.203512 0.000000 0.000000 0.000000
    1 16.278299 -1.112619 -8.704063 0.209126 -1.629071 -0.877669
    2 -0.071919 -8.498729 -0.104136 0.023237 0.071666 -0.250997
    3 4.238646 -4.266517 0.498798 -3.065845 0.124236 -1.536350
    4 2.319580 -1.456083 -0.000001 0.000000 0.000000 -1.570796
    5 1.416250 -0.000001 -0.000001 0.000000 0.000000 0.175233
    6 8.830292 -0.400003 -2.170229 0.000000 0.000000 -1.570796
    7 0.000000 0.000000 0.000000 0.000000 0.000000 0.000000
    8 1.430789 2.565281 -2.253419 -0.000001 -0.000001 1.570698
    9 4.989939 2.565243 -2.253418 -0.000001 -0.000001 1.570698
    10 16.804588 2.565286 -2.253421 -0.000001 -0.000001 1.570698
    11 0.591962 -4.172407 -0.000001 0.000000 0.000000 1.389440
    12 8.195563 57.768815 -4.605609 0.000000 0.000000 0.000000
    13 1.257180 8.762585 -0.153713 -1.570562 0.002683 -1.566807
    14 -0.488518 -2.755602 -0.228260 -0.285957 0.018206 -0.220219
    15 0.039887 -1.479790 0.029854 -2.163980 0.000000 0.000001
    16 0.028786 -1.075731 -0.023109 -0.729241 0.000000 0.000000
    17 0.250027 -2.820665 -0.238396 -0.090819 0.062503 -0.167059
    18 -0.049759 -1.680544 0.100479 -2.122085 0.000000 -0.000002
    19 -0.034142 -1.148312 0.084782 -0.909626 0.000000 0.000000
    20 0.957766 -2.746780 -0.090302 0.349903 -0.123483 -0.019742
    21 -0.033420 -1.397129 -0.011257 -1.101918 0.000000 -0.000001
    22 -0.022360 -0.957436 0.018784 -0.799989 0.000000 0.000000
    23 -1.180681 -2.507217 -0.193859 0.014387 0.131222 -0.129547
    24 -0.024967 -1.123934 0.017597 -1.504420 0.000000 0.000001
    25 -0.020057 -0.890968 0.010090 -1.588318 0.000000 0.000000
    26 0.583510 -1.197277 0.185379 0.281706 -0.595144 -0.857319
    27 1.535927 0.010246 0.005009 -0.002964 -0.012979 -0.682290
    28 1.100771 0.004527 -0.010679 -0.016147 -0.001453 -1.484153
    29 0.120153 -0.050270 -0.054489 0.287569 3.110905 1.561085
    30 2.358218 -9.766554 -13.919677 1.080920 -4.302185 1.064684
    31 0.096944 -8.450418 -0.009365 -0.333617 -1.431726 0.746550
    32 0.447953 -2.798986 -0.200443 -1.210185 0.118642 0.257028
    33 -0.032909 -1.480204 0.004940 -1.014331 0.000000 0.000002
    34 -0.027022 -1.076920 -0.020210 -0.486864 0.000000 0.000000
    35 -0.249534 -2.846964 -0.174213 -0.924990 0.119445 0.213547
    36 0.043235 -1.683941 0.096012 -1.290377 0.002823 -0.000167
    37 0.031729 -1.160830 0.058838 -0.456131 0.000642 0.008372
    38 -0.963866 -2.785145 -0.085350 -0.385535 0.170953 0.241411
    39 0.028479 -1.403067 0.006271 -1.058247 0.000000 0.000000
    40 0.021413 -0.957781 0.020046 -0.471292 0.000000 0.000000
    41 1.164475 -2.543940 -0.170330 -1.379512 0.036670 0.462095
    42 0.024032 -1.129042 0.017807 -0.836349 0.000000 0.000001
    43 0.014898 -0.883989 -0.019848 -0.452581 0.000000 0.000000
    44 -0.586770 -1.264477 0.200161 0.402031 -0.483616 -3.269282
    45 1.522835 0.058681 0.016848 0.001410 0.008985 0.696420
    46 1.117947 0.048424 -0.005766 -0.007218 -0.024143 0.346703
    47 -0.139399 -0.111698 0.014397 0.846771 0.171241 1.393752
    48 -6.260806 6.983652 -0.294122 1.580804 -0.005023 -0.912799
  time 25
    0 -0.349399 1.166145 0.203512 0.000000 0.000000 0.000000
    1 16.313457 -1.112619 -8.754846 0.251384 -1.631600 -0.917573
    2 -0.071919 -8.498729 -0.104136 0.013206 0.071510 -0.250829
    3 4.238646 -4.266517 0.498798 -3.065845 0.124236 -1.536350
    4 2.319580 -1.456083 -0.000001 0.000000 0.000000 -1.570796
    5 1.416250 -0.000001 -0.000001 0.000000 0.000000 0.175233
    6 8.830292 -0.400003 -2.170229 0.000000 0.000000 -1.570796
    7 0.000000 0.000000 0.000000 0.000000 0.000000 0.000000
    8 1.430789 2.565281 -2.253419 -0.000001 -0.000001 1.570698
    9 4.989939 2.565243 -2.253418 -0.000001 -0.000001 -4.712294
    10 16.804588 2.565286 -2.253421 -0.000001 -0.000001 1.570698
    11 0.591962 -4.172407 -0.000001 0.000000 0.000000 1.389440
    12 8.633076 57.093379 -4.804834 0.000000 0.000000 0.000000
    13 1.257180 8.762585 -0.153713 -1.570562 0.002683 -1.566807
    14 -0.488518 -2.755602 -0.228260 -0.285957 0.018206 -0.220219
    15 0.039887 -1.479790 0.029854 -2.163980 0.000000 0.000001
    16 0.028786 -1.075731 -0.023109 -0.729241 0.000000 0.000000
    17 0.250027 -2.820665 -0.238396 -0.090819 0.062503 -0.167059
    18 -0.049759 -1.680544 0.100479 -2.122085 0.000000 -0.000002
    19 -0.034142 -1.148312 0.084782 -0.909626 0.000000 0.000000
    20 0.957766 -2.746780 -0.090302 0.349903 -0.123483 -0.019742
    21 -0.033420 -1.397129 -0.011257 -1.101918 0.000000 -0.000001
    22 -0.022360 -0.957436 0.018784 -0.799989 0.000000 0.000000
    23 -1.180681 -2.507217 -0.193859 0.014387 0.131222 -0.129547
    24 -0.024967 -1.123934 0.017597 -1.504420 0.000000 0.000001
    25 -0.020057 -0.890968 0.010090 -1.588318 0.000000 0.000000
    26 0.583510 -1.197277 0.185379 0.281706 -0.595144 -0.857319
    27 1.535927 0.010246 0.005009 -0.002964 -0.012979 -0.682290
    28 1.100771 0.004527 -0.010679 -0.016147 -0.001453 -1.484153
    29 0.120153 -0.050270 -0.054489 0.287569 3.110905 1.561085
    30 2.381656 -9.723584 -13.915770 1.078861 -4.298955 1.055134
    31 0.096944 -8.450418 -0.009365 -0.333617 -1.431726 0.746550
    32 0.447953 -2.798986 -0.200443 -1.210185 0.118642 0.257028
    33 -0.032909 -1.480204 0.004940 -1.014331 0.000000 0.000002
    34 -0.027022 -1.076920 -0.020210 -0.486864 0.000000 0.000000
    35 -0.249534 -2.846964 -0.174213 -0.924990 0.119445 0.213547
    36 0.043235 -1.683941 0.096012 -1.290377 0.002823 -0.000167
    37 0.031729 -1.160830 0.058838 -0.456131 0.000642 0.008372
    38 -0.963866 -2.785145 -0.085350 -0.385535 0.170953 0.241411
    39 0.028479 -1.403067 0.006271 -1.058247 0.000000 0.000000
    40 0.021413 -0.957781 0.020046 -0.471292 0.000000 0.000000
    41 1.164475 -2.543940 -0.170330 -1.379512 0.036670 0.462095
    42 0.024032 -1.129042 0.017807 -0.836349 0.000000 0.000001
    43 0.014898 -0.883989 -0.019848 -0.452581 0.000000 0.000000
    44 -0.586770 -1.264477 0.200161 0.402031 -0.483616 -3.269282
    45 1.522835 0.058681 0.016848 0.001410 0.008985 0.696420
    46 1.117947 0.048424 -0.005766 -0.007218 -0.024143 0.346703
    47 -0.139399 -0.111698 0.014397 0.846771 0.171241 1.393752
    48 -6.260806 6.983652 -0.294122 1.580804 -0.005023 -0.912799
  time 26
    0 -0.349399 1.166145 0.203512 0.000000 0.000000 0.000000
    1 16.329082 -1.112619 -8.836880 0.316626 -1.636183 -0.978921
    2 -0.071919 -8.498729 -0.104136 0.003953 0.071355 -0.250662
    3 4.238646 -4.266517 0.498798 -3.065845 0.124236 -1.536350
    4 2.319580 -1.456083 -0.000001 0.000000 0.000000 -1.570796
    5 1.416250 -0.000001 -0.000001 0.000000 0.000000 0.175233
    6 8.830292 -0.400003 -2.170229 0.000000 0.000000 -1.570796
    7 0.000000 0.000000 0.000000 0.000000 0.000000 0.000000
    8 1.430789 2.565281 -2.253419 -0.000001 -0.000001 1.570698
    9 4.989939 2.565243 -2.253418 -0.000001 -0.000001 -4.712294
    10 16.804588 2.565286 -2.253421 -0.000001 -0.000001 1.570698
    11 0.591962 -4.172407 -0.000001 0.000000 0.000000 1.389440
    12 9.031526 56.417944 -4.984527 0.000000 0.000000 0.000000
    13 1.257180 8.762585 -0.153713 -1.570562 0.002683 -1.566807
    14 -0.488518 -2.755602 -0.228260 -0.285957 0.018206 -0.220219
    15 0.039887 -1.479790 0.029854 -2.163980 0.000000 0.000001
    16 0.028786 -1.075731 -0.023109 -0.729241 0.000000 0.000000
    17 0.250027 -2.820665 -0.238396 -0.090819 0.062503 -0.167059
    18 -0.049759 -1.680544 0.100479 -2.122085 0.000000 -0.000002
    19 -0.034142 -1.148312 0.084782 -0.909626 0.000000 0.000000
    20 0.957766 -2.746780 -0.090302 0.349903 -0.123483 -0.019742
    21 -0.033420 -1.397129 -0.011257 -1.101918 0.000000 -0.000001
    22 -0.022360 -0.957436 0.018784 -0.799989 0.000000 0.000000
    23 -1.180681 -2.507217 -0.193859 0.014387 0.131222 -0.129547
    24 -0.024967 -1.123934 0.017597 -1.504420 0.000000 0.000001
    25 -0.020057 -0.890968 0.010090 -1.588318 0.000000 0.000000
    26 0.583510 -1.197277 0.185379 0.281706 -0.595144 -0.857319
    27 1.535927 0.010246 0.005009 -0.002964 -0.012979 -0.682290
    28 1.100771 0.004527 -0.010679 -0.016147 -0.001453 -1.484153
    29 0.120153 -0.050270 -0.054489 0.287569 3.110905 1.561085
    30 2.401188 -9.727491 -13.923583 1.079926 -4.293323 1.050921
    31 0.096944 -8.450418 -0.009365 -0.333617 -1.431726 0.746550
    32 0.447953 -2.798986 -0.200443 -1.210185 0.118642 0.257028
    33 -0.032909 -1.480204 0.004940 -1.014331 0.000000 0.000002
    34 -0.027022 -1.076920 -0.020210 -0.486864 0.000000 0.000000
    35 -0.249534 -2.846964 -0.174213 -0.924990 0.119445 0.213547
    36 0.043235 -1.683941 0.096012 -1.290377 0.002823 -0.000167
    37 0.031729 -1.160830 0.058838 -0.456131 0.000642 0.008372
    38 -0.963866 -2.785145 -0.085350 -0.385535 0.170953 0.241411
    39 0.028479 -1.403067 0.006271 -1.058247 0.000000 0.000000
    40 0.021413 -0.957781 0.020046 -0.471292 0.000000 0.000000
    41 1.164475 -2.543940 -0.170330 -1.379512 0.036670 0.462095
    42 0.024032 -1.129042 0.017807 -0.836349 0.000000 0.000001
    43 0.014898 -0.883989 -0.019848 -0.452581 0.000000 0.000000
    44 -0.586770 -1.264477 0.200161 0.402031 -0.483616 -3.269282
    45 1.522835 0.058681 0.016848 0.001410 0.008985 0.696420
    46 1.117947 0.048424 -0.005766 -0.007218 -0.024143 0.346703
    47 -0.139399 -0.111698 0.014397 0.846771 0.171241 1.393752
    48 -6.260806 6.983652 -0.294122 1.580804 -0.005023 -0.912799
  time 27
    0 -0.349399 1.166145 0.203512 0.000000 0.000000 0.000000
    1 16.332989 -1.112619 -8.922820 0.379045 -1.641505 -1.036883
    2 -0.071919 -8.498729 -0.104136 -0.003884 0.071235 -0.250530
    3 4.238646 -4.266517 0.498798 -3.065845 0.124236 -1.536350
    4 2.319580 -1.456083 -0.000001 0.000000 0.000000 -1.570796
    5 1.416250 -0.000001 -0.000001 0.000000 0.000000 0.175233
    6 8.830292 -0.400003 -2.170229 0.000000 0.000000 -1.570796
    7 0.000000 0.000000 0.000000 0.000000 0.000000 0.000000
    8 1.430789 2.565281 -2.253419 -0.000001 -0.000001 1.570698
    9 4.989939 2.565243 -2.253418 -0.000001 -0.000001 -4.712294
    10 16.804588 2.565286 -2.253421 -0.000001 -0.000001 -4.712294
    11 0.591962 -4.172407 -0.000001 0.000000 0.000000 1.389440
    12 9.371380 55.818974 -5.140782 0.000000 0.000000 0.000000
    13 1.257180 8.762585 -0.153713 -1.570562 0.002683 -1.566807
    14 -0.488518 -2.755602 -0.228260 -0.285957 0.018206 -0.220219
    15 0.039887 -1.479790 0.029854 -2.163980 0.000000 0.000001
    16 0.028786 -1.075731 -0.023109 -0.729241 0.000000 0.000000
    17 0.250027 -2.820665 -0.238396 -0.090819 0.062503 -0.167059
    18 -0.049759 -1.680544 0.100479 -2.122085 0.000000 -0.000002
    19 -0.034142 -1.148312 0.084782 -0.909626 0.000000 0.000000
    20 0.957766 -2.746780 -0.090302 0.349903 -0.123483 -0.019742
    21 -0.033420 -1.397129 -0.011257 -1.101918 0.000000 -0.000001
    22 -0.022360 -0.957436 0.018784 -0.799989 0.000000 0.000000
    23 -1.180681 -2.507217 -0.193859 0.014387 0.131222 -0.129547
    24 -0.024967 -1.123934 0.017597 -1.504420 0.000000 0.000001
    25 -0.020057 -0.890968 0.010090 -1.588318 0.000000 0.000000
    26 0.583510 -1.197277 0.185379 0.281706 -0.595144 -0.857319
    27 1.535927 0.010246 0.005009 -0.002964 -0.012979 -0.682290
    28 1.100771 0.004527 -0.010679 -0.016147 -0.001453 -1.484153
    29 0.120153 -0.050270 -0.054489 0.287569 3.110905 1.561085
    30 2.416813 -9.747023 -13.931396 1.082553 -4.287112 1.049891
    31 0.096944 -8.450418 -0.009365 -0.333617 -1.431726 0.746550
    32 0.447953 -2.798986 -0.200443 -1.210185 0.118642 0.257028
    33 -0.032909 -1.480204 0.004940 -1.014331 0.000000 0.000002
    34 -0.027022 -1.076920 -0.020210 -0.486864 0.000000 0.000000
    35 -0.249534 -2.846964 -0.174213 -0.924990 0.119445 0.213547
    36 0.043235 -1.683941 0.096012 -1.290377 0.002823 -0.000167
    37 0.031729 -1.160830 0.058838 -0.456131 0.000642 0.008372
    38 -0.963866 -2.785145 -0.085350 -0.385535 0.170953 0.241411
    39 0.028479 -1.403067 0.006271 -1.058247 0.000000 0.000000
    40 0.021413 -0.957781 0.020046 -0.471292 0.000000 0.000000
    41 1.164475 -2.543940 -0.170330 -1.379512 0.036670 0.462095
    42 0.024032 -1.129042 0.017807 -0.836349 0.000000 0.000001
    43 0.014898 -0.883989 -0.019848 -0.452581 0.000000 0.000000
    44 -0.586770 -1.264477 0.200161 0.402031 -0.483616 -3.269282
    45 1.522835 0.058681 0.016848 0.001410 0.008985 0.696420
    46 1.117947 0.048424 -0.005766 -0.007218 -0.024143 0.346703
    47 -0.139399 -0.111698 0.014397 0.846771 0.171241 1.393752
    48 -6.260806 6.983652 -0.294122 1.580804 -0.005023 -0.912799
  time 28
    0 -0.349399 1.166145 0.203512 0.000000 0.000000 0.000000
    1 16.332989 -1.112619 -8.997041 0.423157 -1.645983 -1.077433
    2 -0.071919 -8.498729 -0.104136 -0.009685 0.071151 -0.250422
    3 4.238646 -4.266517 0.498798 -3.065845 0.124236 -1.536350
    4 2.319580 -1.456083 -0.000001 0.000000 0.000000 -1.570796
    5 1.416250 -0.000001 -0.000001 0.000000 0.000000 0.175233
    6 8.830292 -0.400003 -2.170229 0.000000 0.000000 -1.570796
    7 0.000000 0.000000 0.000000 0.000000 0.000000 0.000000
    8 1.430789 2.565281 -2.253419 -0.000001 -0.000001 -4.712294
    9 4.989939 2.565243 -2.253418 -0.000001 -0.000001 -4.712294
    10 16.804588 2.565286 -2.253421 -0.000001 -0.000001 -4.712294
    11 0.591962 -4.172407 -0.000001 0.000000 0.000000 1.389440
    12 9.621387 55.360188 -5.250160 0.000000 0.000000 0.000000
    13 1.257180 8.762585 -0.153713 -1.570562 0.002683 -1.566807
    14 -0.488518 -2.755602 -0.228260 -0.285957 0.018206 -0.220219
    15 0.039887 -1.479790 0.029854 -2.163980 0.000000 0.000001
    16 0.028786 -1.075731 -0.023109 -0.729241 0.000000 0.000000
    17 0.250027 -2.820665 -0.238396 -0.090819 0.062503 -0.167059
    18 -0.049759 -1.680544 0.100479 -2.122085 0.000000 -0.000002
    19 -0.034142 -1.148312 0.084782 -0.909626 0.000000 0.000000
    20 0.957766 -2.746780 -0.090302 0.349903 -0.123483 -0.019742
    21 -0.033420 -1.397129 -0.011257 -1.101918 0.000000 -0.000001
    22 -0.022360 -0.957436 0.018784 -0.799989 0.000000 0.000000
    23 -1.180681 -2.507217 -0.193859 0.014387 0.131222 -0.129547
    24 -0.024967 -1.123934 0.017597 -1.504420 0.000000 0.000001
    25 -0.020057 -0.890968 0.010090 -1.588318 0.000000 0.000000
    26 0.583510 -1.197277 0.185379 0.281706 -0.595144 -0.857319
    27 1.535927 0.010246 0.005009 -0.002964 -0.012979 -0.682290
    28 1.100771 0.004527 -0.010679 -0.016147 -0.001453 -1.484153
    29 0.120153 -0.050270 -0.054489 0.287569 3.110905 1.561085
    30 2.428532 -9.770461 -13.939209 1.084967 -4.282059 1.049891
    31 0.096944 -8.450418 -0.009365 -0.333617 -1.431726 0.746550
    32 0.447953 -2.798986 -0.200443 -1.210185 0.118642 0.257028
    33 -0.032909 -1.480204 0.004940 -1.014331 0.000000 0.000002
    34 -0.027022 -1.076920 -0.020210 -0.486864 0.000000 0.000000
    35 -0.249534 -2.846964 -0.174213 -0.924990 0.119445 0.213547
    36 0.043235 -1.683941 0.096012 -1.290377 0.002823 -0.000167
    37 0.031729 -1.160830 0.058838 -0.456131 0.000642 0.008372
    38 -0.963866 -2.785145 -0.085350 -0.385535 0.170953 0.241411
    39 0.028479 -1.403067 0.006271 -1.058247 0.000000 0.000000
    40 0.021413 -0.957781 0.020046 -0.471292 0.000000 0.000000
    41 1.164475 -2.543940 -0.170330 -1.379512 0.036670 0.462095
    42 0.024032 -1.129042 0.017807 -0.836349 0.000000 0.000001
    43 0.014898 -0.883989 -0.019848 -0.452581 0.000000 0.000000
    44 -0.586770 -1.264477 0.200161 0.402031 -0.483616 -3.269282
    45 1.522835 0.058681 0.016848 0.001410 0.008985 0.696420
    46 1.117947 0.048424 -0.005766 -0.007218 -0.024143 0.346703
    47 -0.139399 -0.111698 0.014397 0.846771 0.171241 1.393752
    48 -6.260806 6.983652 -0.294122 1.580804 -0.005023 -0.912799
  time 29
    0 -0.349399 1.166145 0.203512 0.000000 0.000000 0.000000
    1 16.336895 -1.112619 -9.024385 0.439851 -1.647845 -1.092669
    2 -0.071919 -8.498729 -0.104136 -0.012801 0.071103 -0.250374
    3 4.238646 -4.266517 0.498798 -3.065845 0.124236 -1.536350
    4 2.319580 -1.456083 -0.000001 0.000000 0.000000 -1.570796
    5 1.416250 -0.000001 -0.000001 0.000000 0.000000 0.175233
    6 8.830292 -0.400003 -2.170229 0.000000 0.000000 -1.570796
    7 0.000000 0.000000 0.000000 0.000000 0.000000 0.000000
    8 1.430789 2.565281 -2.253419 -0.000001 -0.000001 -4.712294
    9 4.989939 2.565243 -2.253418 -0.000001 -0.000001 -4.712294
    10 16.804588 2.565286 -2.253421 -0.000001 -0.000001 -4.712294
    11 0.591962 -4.172407 -0.000001 0.000000 0.000000 1.389440
    12 9.754204 55.130795 -5.312662 0.000000 0.000000 0.000000
    13 1.257180 8.762585 -0.153713 -1.570562 0.002683 -1.566807
    14 -0.488518 -2.755602 -0.228260 -0.285957 0.018206 -0.220219
    15 0.039887 -1.479790 0.029854 -2.163980 0.000000 0.000001
    16 0.028786 -1.075731 -0.023109 -0.729241 0.000000 0.000000
    17 0.250027 -2.820665 -0.238396 -0.090819 0.062503 -0.167059
    18 -0.049759 -1.680544 0.100479 -2.122085 0.000000 -0.000002
    19 -0.034142 -1.148312 0.084782 -0.909626 0.000000 0.000000
    20 0.957766 -2.746780 -0.090302 0.349903 -0.123483 -0.019742
    21 -0.033420 -1.397129 -0.011257 -1.101918 0.000000 -0.000001
    22 -0.022360 -0.957436 0.018784 -0.799989 0.000000 0.000000
    23 -1.180681 -2.507217 -0.193859 0.014387 0.131222 -0.129547
    24 -0.024967 -1.123934 0.017597 -1.504420 0.000000 0.000001
    25 -0.020057 -0.890968 0.010090 -1.588318 0.000000 0.000000
    26 0.583510 -1.197277 0.185379 0.281706 -0.595144 -0.857319
    27 1.535927 0.010246 0.005009 -0.002964 -0.012979 -0.682290
    28 1.100771 0.004527 -0.010679 -0.016147 -0.001453 -1.484153
    29 0.120153 -0.050270 -0.054489 0.287569 3.110905 1.561085
    30 2.436345 -9.774367 -13.943115 1.085606 -4.279989 1.048861
    31 0.096944 -8.450418 -0.009365 -0.333617 -1.431726 0.746550
    32 0.447953 -2.798986 -0.200443 -1.210185 0.118642 0.257028
    33 -0.032909 -1.480204 0.004940 -1.014331 0.000000 0.000002
    34 -0.027022 -1.076920 -0.020210 -0.486864 0.000000 0.000000
    35 -0.249534 -2.846964 -0.174213 -0.924990 0.119445 0.213547
    36 0.043235 -1.683941 0.096012 -1.290377 0.002823 -0.000167
    37 0.031729 -1.160830 0.058838 -0.456131 0.000642 0.008372
    38 -0.963866 -2.785145 -0.085350 -0.385535 0.170953 0.241411
    39 0.028479 -1.403067 0.006271 -1.058247 0.000000 0.000000
    40 0.021413 -0.957781 0.020046 -0.471292 0.000000 0.000000
    41 1.164475 -2.543940 -0.170330 -1.379512 0.036670 0.462095
    42 0.024032 -1.129042 0.017807 -0.836349 0.000000 0.000001
    43 0.014898 -0.883989 -0.019848 -0.452581 0.000000 0.000000
    44 -0.586770 -1.264477 0.200161 0.402031 -0.483616 -3.269282
    45 1.522835 0.058681 0.016848 0.001410 0.008985 0.696420
    46 1.117947 0.048424 -0.005766 -0.007218 -0.024143 0.346703
    47 -0.139399 -0.111698 0.014397 0.846771 0.171241 1.393752
    48 -6.260806 6.983652 -0.294122 1.580804 -0.005023 -0.912799
end
