// Created by Crowbar 0.34.0.0

$ModelName "weapons/tfa_cso/w_m950_v8.mdl"

$BodyGroup "studio"
{
	studio "v_m950"
}

$collisionmodel "v_m950.smd"
{
	$mass 9
}

$CDMaterials "models\weapons\tfa_cso\m950_v8"

$attachment "0" "root" -0.20 -10.10 -0.30 rotate -0 0 0

$Sequence "idle" {
	"anims\idle.smd"
	fps 30
}