version 1
nodes
  0 "Bone04" -1
  1 "Bone_Righthand" 0
  2 "NEXON_CSO_JKnife_Root" 1
  3 "Plane02" 2
  4 "Bone27" 1
  5 "Bone28" 4
  6 "Bone29" 5
  7 "Bone31" 1
  8 "Bone32" 7
  9 "Bone33" 8
  10 "Bone35" 1
  11 "Bone36" 10
  12 "Bone37" 11
  13 "Bone39" 1
  14 "Bone40" 13
  15 "Bone41" 14
  16 "Bone43" 1
  17 "Bone44" 16
  18 "Bone45" 17
  19 "Bone_Se_Hand-R" 1
  20 "Bone01" -1
  21 "Bone_Lefthand" 20
  22 "Bone05" 21
  23 "Bone06" 22
  24 "Bone07" 23
  25 "Bone21" 21
  26 "Bone22" 25
  27 "Bone23" 26
  28 "Bone17" 21
  29 "Bone18" 28
  30 "Bone19" 29
  31 "Bone13" 21
  32 "Bone14" 31
  33 "Bone15" 32
  34 "Bone09" 21
  35 "Bone10" 34
  36 "Bone11" 35
  37 "Bone_Se_Hand-L" 21
end
skeleton
  time 0
    0 -10.619022 -0.977604 -8.032327 0.435867 -2.653527 0.252947
    1 0.096946 -8.450419 -0.009363 -0.160372 -0.393060 0.510475
    2 -1.377217 -2.745359 0.715276 0.005971 3.115427 0.315588
    3 3.183929 -0.085375 0.002823 -1.570796 0.000000 0.000000
    4 -0.586769 -1.264477 0.200164 -0.311830 -0.632692 -2.691566
    5 1.522835 0.058679 0.016851 0.551096 -0.219937 0.477445
    6 1.117948 0.048424 -0.005765 0.063371 -0.105366 0.627262
    7 -0.963867 -2.785143 -0.085346 -0.154145 0.041172 -0.106338
    8 0.028478 -1.403067 0.006271 -0.253956 0.000000 0.000000
    9 0.021413 -0.957782 0.020047 -0.159794 0.000000 0.000000
    10 -0.249535 -2.846963 -0.174215 -0.387938 -0.016237 0.013050
    11 0.043234 -1.683940 0.096014 -0.653922 0.000000 0.000000
    12 0.031729 -1.160831 0.058837 -0.655878 0.000000 0.000000
    13 0.447951 -2.798983 -0.200441 -0.643133 0.020326 -0.016362
    14 -0.032909 -1.480207 0.004936 -0.805689 0.000000 0.000000
    15 -0.027023 -1.076921 -0.020212 -0.631652 0.000000 0.000000
    16 1.164474 -2.543939 -0.170327 -1.075038 -0.027804 -0.008910
    17 0.024032 -1.129040 0.017806 -0.927322 0.000000 0.000000
    18 0.014896 -0.883992 -0.019845 -0.523599 0.000000 0.000000
    19 -0.139399 -0.111698 0.014398 0.285534 -0.040597 1.576226
    20 8.200854 -0.872868 -7.343319 -1.428143 -1.269398 1.080003
    21 -0.071917 -8.498731 -0.104136 -0.290375 0.426233 -0.756308
    22 0.583509 -1.197273 0.185379 -0.010449 -0.280808 -0.577376
    23 1.535926 0.010247 0.005008 -0.122821 0.029078 -0.357293
    24 1.100770 0.004527 -0.010675 0.052273 0.108395 0.289826
    25 0.957766 -2.746777 -0.090301 -0.136927 0.016814 0.140568
    26 -0.033419 -1.397128 -0.011256 -1.731039 0.000000 0.000000
    27 -0.022361 -0.957434 0.018783 -1.056819 0.000000 0.000000
    28 0.250028 -2.820664 -0.238397 -0.592574 0.076760 -0.161114
    29 -0.049759 -1.680544 0.100479 -1.853495 0.049505 -0.014373
    30 -0.034141 -1.148311 0.084778 -1.276539 0.000000 0.000000
    31 -0.488517 -2.755599 -0.228262 -0.768163 0.097106 -0.216295
    32 0.039889 -1.479791 0.029852 -1.911444 0.000000 0.000000
    33 0.028785 -1.075733 -0.023111 -0.817588 0.000000 0.000000
    34 -1.180679 -2.507215 -0.193862 -0.768276 0.327071 -0.388124
    35 -0.024967 -1.123934 0.017594 -1.467257 0.003607 -0.034700
    36 -0.020058 -0.890964 0.010091 -1.299509 0.000000 0.000000
    37 0.120152 -0.050267 -0.054489 0.287569 3.110905 1.561085
end
triangles
cso_combatknife.BMP
  3 -5.353303 -10.676874 -4.552283 0.459011 0.352009 -0.815720 0.008016 0.160000
  3 -6.093203 -10.317800 -4.814225 0.413807 0.297405 -0.860415 0.104208 0.160000
  3 -6.169343 -10.041118 -4.219877 0.252716 0.882555 0.396525 0.104208 0.238000
cso_combatknife.BMP
  3 -6.169343 -10.041118 -4.219877 0.252716 0.882555 0.396525 0.104208 0.238000
  3 -6.093203 -10.317800 -4.814225 0.413807 0.297405 -0.860415 0.104208 0.160000
  3 -6.809919 -9.797795 -4.415211 0.183400 0.912002 0.366901 0.186373 0.238000
cso_combatknife.BMP
  3 -6.093203 -10.317800 -4.814225 0.413807 0.297405 -0.860415 0.104208 0.160000
  3 -6.733779 -10.074476 -5.009560 0.342991 0.332091 -0.878677 0.186373 0.160000
  3 -6.809919 -9.797795 -4.415211 0.183400 0.912002 0.366901 0.186373 0.238000
cso_combatknife.BMP
  3 -6.809919 -9.797795 -4.415211 0.183400 0.912002 0.366901 0.186373 0.238000
  3 -6.733779 -10.074476 -5.009560 0.342991 0.332091 -0.878677 0.186373 0.160000
  3 -7.425684 -9.648666 -4.563517 0.079802 0.937321 0.339207 0.260521 0.238000
cso_combatknife.BMP
  3 -6.733779 -10.074476 -5.009560 0.342991 0.332091 -0.878677 0.186373 0.160000
  3 -7.349544 -9.925347 -5.157866 0.238910 0.359515 -0.902037 0.260521 0.160000
  3 -7.425684 -9.648666 -4.563517 0.079802 0.937321 0.339207 0.260521 0.238000
cso_combatknife.BMP
  3 -7.425684 -9.648666 -4.563517 0.079802 0.937321 0.339207 0.260521 0.238000
  3 -7.349544 -9.925347 -5.157866 0.238910 0.359515 -0.902037 0.260521 0.160000
  3 -7.988695 -9.601816 -4.657452 -0.044099 0.947770 0.315890 0.326653 0.238000
cso_combatknife.BMP
  3 -7.349544 -9.925347 -5.157866 0.238910 0.359515 -0.902037 0.260521 0.160000
  3 -7.912555 -9.878497 -5.251801 0.114400 0.371899 -0.921197 0.326653 0.160000
  3 -7.988695 -9.601816 -4.657452 -0.044099 0.947770 0.315890 0.326653 0.238000
cso_combatknife.BMP
  3 -7.988695 -9.601816 -4.657452 -0.044099 0.947770 0.315890 0.326653 0.238000
  3 -7.912555 -9.878497 -5.251801 0.114400 0.371899 -0.921197 0.326653 0.160000
  3 -8.700085 -9.666738 -4.718363 -0.252789 0.927561 0.275188 0.400802 0.238000
cso_combatknife.BMP
  3 -7.912555 -9.878497 -5.251801 0.114400 0.371899 -0.921197 0.326653 0.160000
  3 -8.623945 -9.943420 -5.312712 -0.099101 0.369304 -0.924010 0.400802 0.160000
  3 -8.700085 -9.666738 -4.718363 -0.252789 0.927561 0.275188 0.400802 0.238000
cso_combatknife.BMP
  3 -8.700085 -9.666738 -4.718363 -0.252789 0.927561 0.275188 0.400802 0.238000
  3 -8.623945 -9.943420 -5.312712 -0.099101 0.369304 -0.924010 0.400802 0.160000
  3 -9.334952 -9.956838 -4.664646 -0.639201 0.713801 0.286200 0.490982 0.238000
cso_combatknife.BMP
  3 -8.623945 -9.943420 -5.312712 -0.099101 0.369304 -0.924010 0.400802 0.160000
  3 -9.258812 -10.233520 -5.258995 -0.493711 0.185004 -0.849719 0.490982 0.160000
  3 -9.334952 -9.956838 -4.664646 -0.639201 0.713801 0.286200 0.490982 0.238000
cso_combatknife.BMP
  3 -9.334952 -9.956838 -4.664646 -0.639201 0.713801 0.286200 0.490982 0.238000
  3 -9.258812 -10.233520 -5.258995 -0.493711 0.185004 -0.849719 0.490982 0.160000
  3 -9.448882 -10.242942 -4.546054 -0.842251 0.050303 0.536733 0.523046 0.238000
cso_combatknife.BMP
  3 -9.258812 -10.233520 -5.258995 -0.493711 0.185004 -0.849719 0.490982 0.160000
  3 -9.372742 -10.519624 -5.140403 -0.703450 -0.454132 -0.546738 0.523046 0.160000
  3 -9.448882 -10.242942 -4.546054 -0.842251 0.050303 0.536733 0.523046 0.238000
cso_combatknife.BMP
  3 -4.560930 -9.810278 -4.121290 0.953839 0.299812 -0.017401 0.985972 0.988000
  3 -4.431332 -10.215176 -3.916199 0.992272 0.090397 0.084998 0.985972 0.938000
  3 -4.355192 -10.491857 -4.510547 0.992272 0.090397 0.084998 0.913828 0.938000
cso_combatknife.BMP
  3 -4.355192 -10.491857 -4.510547 0.992272 0.090397 0.084998 0.913828 0.938000
  3 -4.431332 -10.215176 -3.916199 0.992272 0.090397 0.084998 0.985972 0.938000
  3 -4.449850 -10.938234 -4.314876 0.951635 -0.213208 0.221208 0.913828 0.884000
cso_combatknife.BMP
  3 -4.431332 -10.215176 -3.916199 0.992272 0.090397 0.084998 0.985972 0.938000
  3 -4.525989 -10.661553 -3.720527 0.951635 -0.213208 0.221208 0.985972 0.884000
  3 -4.449850 -10.938234 -4.314876 0.951635 -0.213208 0.221208 0.913828 0.884000
cso_combatknife.BMP
  3 -4.449850 -10.938234 -4.314876 0.951635 -0.213208 0.221208 0.913828 0.884000
  3 -4.525989 -10.661553 -3.720527 0.951635 -0.213208 0.221208 0.985972 0.884000
  3 -4.630742 -11.340328 -4.150867 0.854414 -0.420507 0.305205 0.913828 0.832000
cso_combatknife.BMP
  3 -4.525989 -10.661553 -3.720527 0.951635 -0.213208 0.221208 0.985972 0.884000
  3 -4.706882 -11.063646 -3.556518 0.854414 -0.420507 0.305205 0.985972 0.832000
  3 -4.630742 -11.340328 -4.150867 0.854414 -0.420507 0.305205 0.913828 0.832000
cso_combatknife.BMP
  3 -4.630742 -11.340328 -4.150867 0.854414 -0.420507 0.305205 0.913828 0.832000
  3 -4.706882 -11.063646 -3.556518 0.854414 -0.420507 0.305205 0.985972 0.832000
  3 -5.083181 -11.876574 -3.959194 0.653522 -0.650722 0.386613 0.913828 0.758000
cso_combatknife.BMP
  3 -4.706882 -11.063646 -3.556518 0.854414 -0.420507 0.305205 0.985972 0.832000
  3 -5.159321 -11.599892 -3.364845 0.653522 -0.650722 0.386613 0.985972 0.758000
  3 -5.083181 -11.876574 -3.959194 0.653522 -0.650722 0.386613 0.913828 0.758000
cso_combatknife.BMP
  3 -5.083181 -11.876574 -3.959194 0.653522 -0.650722 0.386613 0.913828 0.758000
  3 -5.159321 -11.599892 -3.364845 0.653522 -0.650722 0.386613 0.985972 0.758000
  3 -5.439275 -12.092623 -3.904236 0.415893 -0.802886 0.427092 0.913828 0.708000
cso_combatknife.BMP
  3 -5.159321 -11.599892 -3.364845 0.653522 -0.650722 0.386613 0.985972 0.758000
  3 -5.515415 -11.815941 -3.309888 0.415893 -0.802886 0.427092 0.985972 0.708000
  3 -5.439275 -12.092623 -3.904236 0.415893 -0.802886 0.427092 0.913828 0.708000
cso_combatknife.BMP
  3 -5.439275 -12.092623 -3.904236 0.415893 -0.802886 0.427092 0.913828 0.708000
  3 -5.515415 -11.815941 -3.309888 0.415893 -0.802886 0.427092 0.985972 0.708000
  3 -5.922311 -12.262280 -3.887137 0.311618 -0.845548 0.433524 0.913828 0.658000
cso_combatknife.BMP
  3 -5.515415 -11.815941 -3.309888 0.415893 -0.802886 0.427092 0.985972 0.708000
  3 -5.998451 -11.985599 -3.292789 0.311618 -0.845548 0.433524 0.985972 0.658000
  3 -5.922311 -12.262280 -3.887137 0.311618 -0.845548 0.433524 0.913828 0.658000
cso_combatknife.BMP
  3 -6.095459 -11.029351 -3.750369 -0.429612 -0.205906 0.879225 0.026052 0.148000
  3 -6.603553 -10.766341 -3.937896 -0.339213 -0.258710 0.904435 0.098196 0.148000
  3 -6.527413 -11.043023 -4.532244 -0.167295 -0.883476 -0.437588 0.098196 0.064000
cso_combatknife.BMP
  3 -6.527413 -11.043023 -4.532244 -0.167295 -0.883476 -0.437588 0.098196 0.064000
  3 -6.603553 -10.766341 -3.937896 -0.339213 -0.258710 0.904435 0.098196 0.148000
  3 -7.182520 -10.940524 -4.663883 -0.056602 -0.928135 -0.367914 0.182365 0.064000
cso_combatknife.BMP
  3 -6.603553 -10.766341 -3.937896 -0.339213 -0.258710 0.904435 0.098196 0.148000
  3 -7.258660 -10.663843 -4.069535 -0.221304 -0.329606 0.917815 0.182365 0.148000
  3 -7.182520 -10.940524 -4.663883 -0.056602 -0.928135 -0.367914 0.182365 0.064000
cso_combatknife.BMP
  3 -7.182520 -10.940524 -4.663883 -0.056602 -0.928135 -0.367914 0.182365 0.064000
  3 -7.258660 -10.663843 -4.069535 -0.221304 -0.329606 0.917815 0.182365 0.148000
  3 -7.797962 -10.868837 -4.776097 0.024001 -0.928120 -0.371508 0.258517 0.064000
cso_combatknife.BMP
  3 -7.258660 -10.663843 -4.069535 -0.221304 -0.329606 0.917815 0.182365 0.148000
  3 -7.874102 -10.592156 -4.181748 -0.143597 -0.319094 0.936781 0.258517 0.148000
  3 -7.797962 -10.868837 -4.776097 0.024001 -0.928120 -0.371508 0.258517 0.064000
cso_combatknife.BMP
  3 -7.797962 -10.868837 -4.776097 0.024001 -0.928120 -0.371508 0.258517 0.064000
  3 -7.874102 -10.592156 -4.181748 -0.143597 -0.319094 0.936781 0.258517 0.148000
  3 -8.624572 -10.910097 -4.862784 -0.070802 -0.949231 -0.306510 0.354709 0.064000
cso_combatknife.BMP
  3 -7.874102 -10.592156 -4.181748 -0.143597 -0.319094 0.936781 0.258517 0.148000
  3 -8.700712 -10.633415 -4.268435 -0.224394 -0.391090 0.892578 0.354709 0.148000
  3 -8.624572 -10.910097 -4.862784 -0.070802 -0.949231 -0.306510 0.354709 0.064000
cso_combatknife.BMP
  3 -8.624572 -10.910097 -4.862784 -0.070802 -0.949231 -0.306510 0.354709 0.064000
  3 -8.700712 -10.633415 -4.268435 -0.224394 -0.391090 0.892578 0.354709 0.148000
  3 -9.083365 -10.758035 -4.992346 -0.326101 -0.864804 -0.381802 0.426854 0.064000
cso_combatknife.BMP
  3 -8.700712 -10.633415 -4.268435 -0.224394 -0.391090 0.892578 0.354709 0.148000
  3 -9.159505 -10.481354 -4.397997 -0.480416 -0.304110 0.822628 0.426854 0.148000
  3 -9.083365 -10.758035 -4.992346 -0.326101 -0.864804 -0.381802 0.426854 0.064000
cso_combatknife.BMP
  3 -9.083365 -10.758035 -4.992346 -0.326101 -0.864804 -0.381802 0.426854 0.064000
  3 -9.159505 -10.481354 -4.397997 -0.480416 -0.304110 0.822628 0.426854 0.148000
  3 -9.372742 -10.519624 -5.140403 -0.703450 -0.454132 -0.546738 0.496994 0.064000
cso_combatknife.BMP
  3 -9.159505 -10.481354 -4.397997 -0.480416 -0.304110 0.822628 0.426854 0.148000
  3 -9.448882 -10.242942 -4.546054 -0.842251 0.050303 0.536733 0.496994 0.148000
  3 -9.372742 -10.519624 -5.140403 -0.703450 -0.454132 -0.546738 0.496994 0.064000
cso_combatknife.BMP
  3 3.571063 -13.150613 -1.890985 0.161401 -0.687003 -0.708503 0.006012 1.000000
  3 2.894842 -13.283721 -1.915649 0.161401 -0.687003 -0.708503 0.000000 0.910000
  3 2.969557 -13.119636 -2.060194 0.161401 -0.687003 -0.708503 0.024048 0.916000
cso_combatknife.BMP
  3 2.969557 -13.119636 -2.060194 0.161401 -0.687003 -0.708503 0.024048 0.916000
  3 2.894842 -13.283721 -1.915649 0.161401 -0.687003 -0.708503 0.000000 0.910000
  3 2.646411 -13.155703 -2.095906 0.161401 -0.687003 -0.708503 0.030060 0.888000
cso_combatknife.BMP
  3 2.894842 -13.283721 -1.915649 0.161401 -0.687003 -0.708503 0.000000 0.910000
  3 2.513615 -13.328134 -1.943812 0.123801 -0.697806 -0.705507 0.002004 0.870000
  3 2.646411 -13.155703 -2.095906 0.161401 -0.687003 -0.708503 0.030060 0.888000
cso_combatknife.BMP
  3 2.646411 -13.155703 -2.095906 0.161401 -0.687003 -0.708503 0.030060 0.888000
  3 2.513615 -13.328134 -1.943812 0.123801 -0.697806 -0.705507 0.002004 0.870000
  3 2.057977 -13.153699 -2.183326 0.102301 -0.666107 -0.738807 0.054108 0.820000
cso_combatknife.BMP
  3 2.513615 -13.328134 -1.943812 0.123801 -0.697806 -0.705507 0.002004 0.870000
  3 1.949883 -13.387429 -1.988426 0.102301 -0.666107 -0.738807 0.020040 0.794000
  3 2.057977 -13.153699 -2.183326 0.102301 -0.666107 -0.738807 0.054108 0.820000
cso_combatknife.BMP
  3 2.057977 -13.153699 -2.183326 0.102301 -0.666107 -0.738807 0.054108 0.820000
  3 1.949883 -13.387429 -1.988426 0.102301 -0.666107 -0.738807 0.020040 0.794000
  3 1.532222 -13.117627 -2.267471 0.088305 -0.635734 -0.766841 0.084168 0.756000
cso_combatknife.BMP
  3 1.949883 -13.387429 -1.988426 0.102301 -0.666107 -0.738807 0.020040 0.794000
  3 1.425494 -13.400095 -2.049708 0.088305 -0.635734 -0.766841 0.052104 0.720000
  3 1.532222 -13.117627 -2.267471 0.088305 -0.635734 -0.766841 0.084168 0.756000
cso_combatknife.BMP
  3 1.532222 -13.117627 -2.267471 0.088305 -0.635734 -0.766841 0.084168 0.756000
  3 1.425494 -13.400095 -2.049708 0.088305 -0.635734 -0.766841 0.052104 0.720000
  3 0.731867 -13.040789 -2.405771 0.044300 -0.610204 -0.791005 0.144289 0.666000
cso_combatknife.BMP
  3 1.425494 -13.400095 -2.049708 0.088305 -0.635734 -0.766841 0.052104 0.720000
  3 0.683431 -13.359458 -2.163688 0.044300 -0.610204 -0.791005 0.108216 0.636000
  3 0.731867 -13.040789 -2.405771 0.044300 -0.610204 -0.791005 0.144289 0.666000
cso_combatknife.BMP
  3 0.731867 -13.040789 -2.405771 0.044300 -0.610204 -0.791005 0.144289 0.666000
  3 0.683431 -13.359458 -2.163688 0.044300 -0.610204 -0.791005 0.108216 0.636000
  3 -0.254547 -13.184796 -2.365158 0.044300 -0.610204 -0.791005 0.196393 0.558000
cso_combatknife.BMP
  3 0.683431 -13.359458 -2.163688 -0.180307 0.205808 0.961838 0.108216 0.636000
  3 1.425494 -13.400095 -2.049708 -0.138596 0.165196 0.976474 0.052104 0.720000
  3 0.711101 -12.965331 -2.243676 -0.180307 0.205808 0.961838 0.144289 0.666000
cso_combatknife.BMP
  3 0.711101 -12.965331 -2.243676 -0.180307 0.205808 0.961838 0.144289 0.666000
  3 1.425494 -13.400095 -2.049708 -0.138596 0.165196 0.976474 0.052104 0.720000
  3 1.511457 -13.042168 -2.105376 -0.138596 0.165196 0.976474 0.084168 0.756000
cso_combatknife.BMP
  3 1.425494 -13.400095 -2.049708 -0.138596 0.165196 0.976474 0.052104 0.720000
  3 1.949883 -13.387429 -1.988426 -0.118401 0.136001 0.983608 0.020040 0.794000
  3 1.511457 -13.042168 -2.105376 -0.138596 0.165196 0.976474 0.084168 0.756000
cso_combatknife.BMP
  3 1.511457 -13.042168 -2.105376 -0.138596 0.165196 0.976474 0.084168 0.756000
  3 1.949883 -13.387429 -1.988426 -0.118401 0.136001 0.983608 0.020040 0.794000
  3 2.037212 -13.078241 -2.021231 -0.118401 0.136001 0.983608 0.054108 0.820000
cso_combatknife.BMP
  3 1.949883 -13.387429 -1.988426 -0.118401 0.136001 0.983608 0.020040 0.794000
  3 2.513615 -13.328134 -1.943812 -0.093798 0.091498 0.991378 0.002004 0.870000
  3 2.037212 -13.078241 -2.021231 -0.118401 0.136001 0.983608 0.054108 0.820000
cso_combatknife.BMP
  3 2.037212 -13.078241 -2.021231 -0.118401 0.136001 0.983608 0.054108 0.820000
  3 2.513615 -13.328134 -1.943812 -0.093798 0.091498 0.991378 0.002004 0.870000
  3 2.625654 -13.101490 -1.957234 -0.093798 0.091498 0.991378 0.030060 0.888000
cso_combatknife.BMP
  3 2.513615 -13.328134 -1.943812 -0.093798 0.091498 0.991378 0.002004 0.870000
  3 2.894842 -13.283721 -1.915649 -0.053398 0.107497 0.992770 0.000000 0.910000
  3 2.625654 -13.101490 -1.957234 -0.093798 0.091498 0.991378 0.030060 0.888000
cso_combatknife.BMP
  3 2.625654 -13.101490 -1.957234 -0.093798 0.091498 0.991378 0.030060 0.888000
  3 2.894842 -13.283721 -1.915649 -0.053398 0.107497 0.992770 0.000000 0.910000
  3 2.938341 -13.079783 -1.938386 -0.053398 0.107497 0.992770 0.024048 0.916000
cso_combatknife.BMP
  3 2.894842 -13.283721 -1.915649 -0.053398 0.107497 0.992770 0.000000 0.910000
  3 3.571063 -13.150613 -1.890985 -0.053398 0.107497 0.992770 0.006012 1.000000
  3 2.938341 -13.079783 -1.938386 -0.053398 0.107497 0.992770 0.024048 0.916000
cso_combatknife.BMP
  3 0.969762 -12.365129 -2.689829 0.275104 -0.100802 -0.956115 0.204409 0.744000
  3 1.820437 -12.460472 -2.436527 0.291315 -0.026901 -0.956249 0.136273 0.822000
  3 1.743143 -12.666209 -2.450595 0.291315 -0.026901 -0.956249 0.124248 0.804000
cso_combatknife.BMP
  3 1.743143 -12.666209 -2.450595 0.291315 -0.026901 -0.956249 0.124248 0.804000
  3 1.820437 -12.460472 -2.436527 0.291315 -0.026901 -0.956249 0.136273 0.822000
  3 2.228835 -12.855057 -2.300462 0.313894 0.012000 -0.949382 0.080160 0.848000
cso_combatknife.BMP
  3 1.820437 -12.460472 -2.436527 0.291315 -0.026901 -0.956249 0.136273 0.822000
  3 2.308538 -12.669355 -2.276758 0.313894 0.012000 -0.949382 0.092184 0.860000
  3 2.228835 -12.855057 -2.300462 0.313894 0.012000 -0.949382 0.080160 0.848000
cso_combatknife.BMP
  3 2.228835 -12.855057 -2.300462 0.313894 0.012000 -0.949382 0.080160 0.848000
  3 2.308538 -12.669355 -2.276758 0.313894 0.012000 -0.949382 0.092184 0.860000
  3 2.698197 -13.025655 -2.149812 0.313894 0.012000 -0.949382 0.042084 0.896000
cso_combatknife.BMP
  3 2.308538 -12.669355 -2.276758 0.313894 0.012000 -0.949382 0.092184 0.860000
  3 2.753521 -12.856095 -2.132822 0.313894 0.012000 -0.949382 0.056112 0.906000
  3 2.698197 -13.025655 -2.149812 0.313894 0.012000 -0.949382 0.042084 0.896000
cso_combatknife.BMP
  3 2.698197 -13.025655 -2.149812 0.313894 0.012000 -0.949382 0.042084 0.896000
  3 2.753521 -12.856095 -2.132822 0.313894 0.012000 -0.949382 0.056112 0.906000
  3 2.969557 -13.119636 -2.060194 0.291315 -0.026901 -0.956249 0.024048 0.916000
cso_combatknife.BMP
  3 2.753521 -12.856095 -2.132822 0.313894 0.012000 -0.949382 0.056112 0.906000
  3 3.041210 -12.968327 -2.043721 0.291315 -0.026901 -0.956249 0.038076 0.930000
  3 2.969557 -13.119636 -2.060194 0.291315 -0.026901 -0.956249 0.024048 0.916000
cso_combatknife.BMP
  3 2.969557 -13.119636 -2.060194 0.291315 -0.026901 -0.956249 0.024048 0.916000
  3 3.041210 -12.968327 -2.043721 0.291315 -0.026901 -0.956249 0.038076 0.930000
  3 3.571063 -13.150613 -1.890985 0.291315 -0.026901 -0.956249 0.006012 1.000000
cso_combatknife.BMP
  3 2.969557 -13.119636 -2.060194 0.156697 -0.430293 -0.888985 0.024048 0.916000
  3 2.646411 -13.155703 -2.095906 0.117503 -0.426711 -0.896722 0.030060 0.888000
  3 2.698197 -13.025655 -2.149812 0.117503 -0.426711 -0.896722 0.042084 0.896000
cso_combatknife.BMP
  3 2.698197 -13.025655 -2.149812 0.117503 -0.426711 -0.896722 0.042084 0.896000
  3 2.646411 -13.155703 -2.095906 0.117503 -0.426711 -0.896722 0.030060 0.888000
  3 2.228835 -12.855057 -2.300462 0.117503 -0.426711 -0.896722 0.080160 0.848000
cso_combatknife.BMP
  3 2.646411 -13.155703 -2.095906 0.117503 -0.426711 -0.896722 0.030060 0.888000
  3 2.057977 -13.153699 -2.183326 0.117503 -0.426711 -0.896722 0.054108 0.820000
  3 2.228835 -12.855057 -2.300462 0.117503 -0.426711 -0.896722 0.080160 0.848000
cso_combatknife.BMP
  3 2.228835 -12.855057 -2.300462 0.117503 -0.426711 -0.896722 0.080160 0.848000
  3 2.057977 -13.153699 -2.183326 0.117503 -0.426711 -0.896722 0.054108 0.820000
  3 1.743143 -12.666209 -2.450595 0.117503 -0.426711 -0.896722 0.124248 0.804000
cso_combatknife.BMP
  3 2.057977 -13.153699 -2.183326 0.117503 -0.426711 -0.896722 0.054108 0.820000
  3 1.532222 -13.117627 -2.267471 0.117503 -0.426711 -0.896722 0.084168 0.756000
  3 1.743143 -12.666209 -2.450595 0.117503 -0.426711 -0.896722 0.124248 0.804000
cso_combatknife.BMP
  3 1.743143 -12.666209 -2.450595 0.117503 -0.426711 -0.896722 0.124248 0.804000
  3 1.532222 -13.117627 -2.267471 0.117503 -0.426711 -0.896722 0.084168 0.756000
  3 0.969762 -12.365129 -2.689829 0.117503 -0.426711 -0.896722 0.204409 0.744000
cso_combatknife.BMP
  3 1.532222 -13.117627 -2.267471 0.117503 -0.426711 -0.896722 0.084168 0.756000
  3 0.731867 -13.040789 -2.405771 0.117503 -0.426711 -0.896722 0.144289 0.666000
  3 0.969762 -12.365129 -2.689829 0.117503 -0.426711 -0.896722 0.204409 0.744000
cso_combatknife.BMP
  3 0.969762 -12.365129 -2.689829 0.117503 -0.426711 -0.896722 0.204409 0.744000
  3 0.731867 -13.040789 -2.405771 0.117503 -0.426711 -0.896722 0.144289 0.666000
  3 -0.149185 -12.853590 -2.605785 0.117503 -0.426711 -0.896722 0.228457 0.592000
cso_combatknife.BMP
  3 2.208069 -12.779599 -2.138367 0.111001 0.750306 0.651705 0.080160 0.848000
  3 1.820437 -12.460472 -2.436527 0.082100 0.732499 0.675799 0.136273 0.822000
  3 1.722378 -12.590750 -2.288500 0.082100 0.732499 0.675799 0.124248 0.804000
cso_combatknife.BMP
  3 1.722378 -12.590750 -2.288500 0.082100 0.732499 0.675799 0.124248 0.804000
  3 1.820437 -12.460472 -2.436527 0.082100 0.732499 0.675799 0.136273 0.822000
  3 0.948997 -12.289670 -2.527734 0.059300 0.682901 0.728101 0.204409 0.744000
cso_combatknife.BMP
  3 1.820437 -12.460472 -2.436527 0.082100 0.732499 0.675799 0.136273 0.822000
  3 1.039829 -12.099290 -2.704665 0.059300 0.682901 0.728101 0.220441 0.764000
  3 0.948997 -12.289670 -2.527734 0.059300 0.682901 0.728101 0.204409 0.744000
cso_combatknife.BMP
  3 0.948997 -12.289670 -2.527734 0.059300 0.682901 0.728101 0.204409 0.744000
  3 1.039829 -12.099290 -2.704665 0.059300 0.682901 0.728101 0.220441 0.764000
  3 0.284975 -12.000889 -2.747233 0.045798 0.627375 0.777369 0.284569 0.698000
cso_combatknife.BMP
  3 1.039829 -12.099290 -2.704665 0.059300 0.682901 0.728101 0.220441 0.764000
  3 0.446544 -11.763292 -2.937083 0.045798 0.627375 0.777369 0.302605 0.728000
  3 0.284975 -12.000889 -2.747233 0.045798 0.627375 0.777369 0.284569 0.698000
cso_combatknife.BMP
  3 0.284975 -12.000889 -2.747233 0.045798 0.627375 0.777369 0.284569 0.698000
  3 0.446544 -11.763292 -2.937083 0.045798 0.627375 0.777369 0.302605 0.728000
  3 -0.246566 -11.692423 -2.958924 -0.014899 0.455982 0.889864 0.356713 0.670000
cso_combatknife.BMP
  3 0.446544 -11.763292 -2.937083 0.045798 0.627375 0.777369 0.302605 0.728000
  3 -0.247210 -11.537539 -3.031109 0.010100 0.517320 0.855733 0.374749 0.682000
  3 -0.246566 -11.692423 -2.958924 -0.014899 0.455982 0.889864 0.356713 0.670000
cso_combatknife.BMP
  3 -0.246566 -11.692423 -2.958924 -0.014899 0.455982 0.889864 0.356713 0.670000
  3 -0.247210 -11.537539 -3.031109 0.010100 0.517320 0.855733 0.374749 0.682000
  3 -0.440072 -11.578432 -3.036779 -0.109904 0.415714 0.902831 0.384770 0.660000
cso_combatknife.BMP
  3 -0.419307 -11.653890 -3.198874 0.117503 -0.426711 -0.896722 0.683367 0.416000
  3 -1.126429 -12.464529 -2.912092 0.117503 -0.426711 -0.896722 0.625251 0.322000
  3 -0.875360 -11.620551 -3.306131 0.117503 -0.426711 -0.896722 0.693387 0.388000
cso_combatknife.BMP
  3 -0.875360 -11.620551 -3.306131 0.117503 -0.426711 -0.896722 0.693387 0.388000
  3 -1.126429 -12.464529 -2.912092 0.117503 -0.426711 -0.896722 0.625251 0.322000
  3 -1.725984 -11.200440 -3.610672 0.117503 -0.426711 -0.896722 0.777555 0.340000
cso_combatknife.BMP
  3 -1.126429 -12.464529 -2.912092 0.117503 -0.426711 -0.896722 0.625251 0.322000
  3 -2.403798 -12.067899 -3.293685 0.117503 -0.426711 -0.896722 0.731463 0.238000
  3 -1.725984 -11.200440 -3.610672 0.117503 -0.426711 -0.896722 0.777555 0.340000
cso_combatknife.BMP
  3 -1.725984 -11.200440 -3.610672 0.117503 -0.426711 -0.896722 0.777555 0.340000
  3 -2.403798 -12.067899 -3.293685 0.117503 -0.426711 -0.896722 0.731463 0.238000
  3 -3.298032 -10.948702 -3.929251 0.117503 -0.426711 -0.896722 0.883768 0.220000
cso_combatknife.BMP
  3 -2.403798 -12.067899 -3.293685 0.117503 -0.426711 -0.896722 0.731463 0.238000
  3 -3.949271 -11.775507 -3.627784 0.117503 -0.426711 -0.896722 0.839679 0.122000
  3 -3.298032 -10.948702 -3.929251 0.117503 -0.426711 -0.896722 0.883768 0.220000
cso_combatknife.BMP
  3 -3.298032 -10.948702 -3.929251 0.117503 -0.426711 -0.896722 0.883768 0.220000
  3 -3.949271 -11.775507 -3.627784 0.117503 -0.426711 -0.896722 0.839679 0.122000
  3 -4.462599 -10.534456 -4.271280 0.117503 -0.426711 -0.896722 0.985972 0.146000
cso_combatknife.BMP
  3 -3.949271 -11.775507 -3.627784 0.117503 -0.426711 -0.896722 0.839679 0.122000
  3 -5.005523 -11.402264 -3.936849 0.117503 -0.426711 -0.896722 0.931864 0.056000
  3 -4.462599 -10.534456 -4.271280 0.117503 -0.426711 -0.896722 0.985972 0.146000
cso_combatknife.BMP
  3 -4.489133 -10.438037 -4.064158 0.404987 0.847673 -0.342689 0.833667 0.046000
  3 -3.324566 -10.852283 -3.722130 0.314606 0.875318 -0.367208 0.591182 0.046000
  3 -3.298032 -10.948702 -3.929251 0.314606 0.875318 -0.367208 0.591182 0.000000
cso_combatknife.BMP
  3 -3.298032 -10.948702 -3.929251 0.314606 0.875318 -0.367208 0.591182 0.000000
  3 -3.324566 -10.852283 -3.722130 0.314606 0.875318 -0.367208 0.591182 0.046000
  3 -1.725984 -11.200440 -3.610672 0.370687 0.859269 -0.352487 0.284569 0.000000
cso_combatknife.BMP
  3 -3.324566 -10.852283 -3.722130 0.314606 0.875318 -0.367208 0.591182 0.046000
  3 -1.752517 -11.104021 -3.403551 0.370687 0.859269 -0.352487 0.284569 0.046000
  3 -1.725984 -11.200440 -3.610672 0.370687 0.859269 -0.352487 0.284569 0.000000
cso_combatknife.BMP
  3 -1.725984 -11.200440 -3.610672 0.370687 0.859269 -0.352487 0.284569 0.000000
  3 -1.752517 -11.104021 -3.403551 0.370687 0.859269 -0.352487 0.284569 0.046000
  3 -0.875360 -11.620551 -3.306131 0.314606 0.875318 -0.367208 0.128257 0.000000
cso_combatknife.BMP
  3 -1.752517 -11.104021 -3.403551 0.370687 0.859269 -0.352487 0.284569 0.046000
  3 -0.901893 -11.524132 -3.099010 0.314606 0.875318 -0.367208 0.128257 0.046000
  3 -0.875360 -11.620551 -3.306131 0.314606 0.875318 -0.367208 0.128257 0.000000
cso_combatknife.BMP
  3 -0.875360 -11.620551 -3.306131 0.314606 0.875318 -0.367208 0.128257 0.000000
  3 -0.901893 -11.524132 -3.099010 0.314606 0.875318 -0.367208 0.128257 0.046000
  3 -0.419307 -11.653890 -3.198874 -0.000800 0.906540 -0.422119 0.050100 0.000000
cso_combatknife.BMP
  3 -0.901893 -11.524132 -3.099010 0.314606 0.875318 -0.367208 0.128257 0.046000
  3 -0.440072 -11.578432 -3.036779 -0.000800 0.906540 -0.422119 0.050100 0.046000
  3 -0.419307 -11.653890 -3.198874 -0.000800 0.906540 -0.422119 0.050100 0.000000
cso_combatknife.BMP
  3 -5.032056 -11.305845 -3.729728 -0.109904 0.415714 0.902831 0.931864 0.056000
  3 -3.975804 -11.679088 -3.420663 -0.109904 0.415714 0.902831 0.839679 0.122000
  3 -4.489133 -10.438037 -4.064158 -0.109904 0.415714 0.902831 0.985972 0.146000
cso_combatknife.BMP
  3 -4.489133 -10.438037 -4.064158 -0.109904 0.415714 0.902831 0.985972 0.146000
  3 -3.975804 -11.679088 -3.420663 -0.109904 0.415714 0.902831 0.839679 0.122000
  3 -3.324566 -10.852283 -3.722130 -0.109904 0.415714 0.902831 0.883768 0.220000
cso_combatknife.BMP
  3 -3.975804 -11.679088 -3.420663 -0.109904 0.415714 0.902831 0.839679 0.122000
  3 -2.430332 -11.971480 -3.086563 -0.109904 0.415714 0.902831 0.731463 0.238000
  3 -3.324566 -10.852283 -3.722130 -0.109904 0.415714 0.902831 0.883768 0.220000
cso_combatknife.BMP
  3 -3.324566 -10.852283 -3.722130 -0.109904 0.415714 0.902831 0.883768 0.220000
  3 -2.430332 -11.971480 -3.086563 -0.109904 0.415714 0.902831 0.731463 0.238000
  3 -1.752517 -11.104021 -3.403551 -0.109904 0.415714 0.902831 0.777555 0.340000
cso_combatknife.BMP
  3 -2.430332 -11.971480 -3.086563 -0.109904 0.415714 0.902831 0.731463 0.238000
  3 -1.147194 -12.389070 -2.749997 -0.109904 0.415714 0.902831 0.625251 0.322000
  3 -1.752517 -11.104021 -3.403551 -0.109904 0.415714 0.902831 0.777555 0.340000
cso_combatknife.BMP
  3 -1.752517 -11.104021 -3.403551 -0.109904 0.415714 0.902831 0.777555 0.340000
  3 -1.147194 -12.389070 -2.749997 -0.109904 0.415714 0.902831 0.625251 0.322000
  3 -0.901893 -11.524132 -3.099010 -0.109904 0.415714 0.902831 0.693387 0.388000
cso_combatknife.BMP
  3 -1.147194 -12.389070 -2.749997 -0.109904 0.415714 0.902831 0.625251 0.322000
  3 -0.440072 -11.578432 -3.036779 -0.109904 0.415714 0.902831 0.683367 0.416000
  3 -0.901893 -11.524132 -3.099010 -0.109904 0.415714 0.902831 0.693387 0.388000
cso_combatknife.BMP
  3 0.711101 -12.965331 -2.243676 -0.109904 0.415714 0.902831 0.144289 0.666000
  3 1.511457 -13.042168 -2.105376 -0.109904 0.415714 0.902831 0.084168 0.756000
  3 0.948997 -12.289670 -2.527734 -0.109904 0.415714 0.902831 0.204409 0.744000
cso_combatknife.BMP
  3 0.948997 -12.289670 -2.527734 -0.109904 0.415714 0.902831 0.204409 0.744000
  3 1.511457 -13.042168 -2.105376 -0.109904 0.415714 0.902831 0.084168 0.756000
  3 1.722378 -12.590750 -2.288500 -0.109904 0.415714 0.902831 0.124248 0.804000
cso_combatknife.BMP
  3 1.511457 -13.042168 -2.105376 -0.109904 0.415714 0.902831 0.084168 0.756000
  3 2.037212 -13.078241 -2.021231 -0.109904 0.415714 0.902831 0.054108 0.820000
  3 1.722378 -12.590750 -2.288500 -0.109904 0.415714 0.902831 0.124248 0.804000
cso_combatknife.BMP
  3 1.722378 -12.590750 -2.288500 -0.109904 0.415714 0.902831 0.124248 0.804000
  3 2.037212 -13.078241 -2.021231 -0.109904 0.415714 0.902831 0.054108 0.820000
  3 2.208069 -12.779599 -2.138367 -0.109904 0.415714 0.902831 0.080160 0.848000
cso_combatknife.BMP
  3 2.037212 -13.078241 -2.021231 -0.109904 0.415714 0.902831 0.054108 0.820000
  3 2.625654 -13.101490 -1.957234 -0.109904 0.415714 0.902831 0.030060 0.888000
  3 2.208069 -12.779599 -2.138367 -0.109904 0.415714 0.902831 0.080160 0.848000
cso_combatknife.BMP
  3 2.208069 -12.779599 -2.138367 -0.109904 0.415714 0.902831 0.080160 0.848000
  3 2.625654 -13.101490 -1.957234 -0.109904 0.415714 0.902831 0.030060 0.888000
  3 2.677440 -12.971443 -2.011139 -0.109904 0.415714 0.902831 0.042084 0.896000
cso_combatknife.BMP
  3 2.625654 -13.101490 -1.957234 -0.109904 0.415714 0.902831 0.030060 0.888000
  3 2.938341 -13.079783 -1.938386 -0.065000 0.404797 0.912093 0.024048 0.916000
  3 2.677440 -12.971443 -2.011139 -0.109904 0.415714 0.902831 0.042084 0.896000
cso_combatknife.BMP
  3 -5.308175 -11.738401 -3.563737 -0.018201 0.368016 0.929641 0.903808 0.008000
  3 -4.344096 -12.108085 -3.390287 -0.158199 0.239199 0.957996 0.823647 0.070000
  3 -5.032056 -11.305845 -3.729728 -0.072202 0.327109 0.942224 0.931864 0.056000
cso_combatknife.BMP
  3 -5.032056 -11.305845 -3.729728 -0.072202 0.327109 0.942224 0.931864 0.056000
  3 -4.344096 -12.108085 -3.390287 -0.158199 0.239199 0.957996 0.823647 0.070000
  3 -3.975804 -11.679088 -3.420663 -0.180307 0.205808 0.961838 0.839679 0.122000
cso_combatknife.BMP
  3 -4.344096 -12.108085 -3.390287 -0.158199 0.239199 0.957996 0.823647 0.070000
  3 -2.704441 -12.398718 -3.044941 -0.180307 0.205808 0.961838 0.709419 0.192000
  3 -3.975804 -11.679088 -3.420663 -0.180307 0.205808 0.961838 0.839679 0.122000
cso_combatknife.BMP
  3 -3.975804 -11.679088 -3.420663 -0.180307 0.205808 0.961838 0.839679 0.122000
  3 -2.704441 -12.398718 -3.044941 -0.180307 0.205808 0.961838 0.709419 0.192000
  3 -2.430332 -11.971480 -3.086563 -0.180307 0.205808 0.961838 0.731463 0.238000
cso_combatknife.BMP
  3 -2.704441 -12.398718 -3.044941 -0.180307 0.205808 0.961838 0.709419 0.192000
  3 -1.465684 -12.757078 -2.719424 -0.158199 0.239199 0.957996 0.611222 0.276000
  3 -2.430332 -11.971480 -3.086563 -0.180307 0.205808 0.961838 0.731463 0.238000
cso_combatknife.BMP
  3 -2.430332 -11.971480 -3.086563 -0.180307 0.205808 0.961838 0.731463 0.238000
  3 -1.465684 -12.757078 -2.719424 -0.158199 0.239199 0.957996 0.611222 0.276000
  3 -1.147194 -12.389070 -2.749997 -0.158199 0.239199 0.957996 0.625251 0.322000
cso_combatknife.BMP
  3 -5.353303 -10.676874 -4.552283 0.459011 0.352009 -0.815720 0.200401 0.956000
  3 -6.527413 -11.043023 -4.532244 -0.167295 -0.883476 -0.437588 0.284569 0.810000
  3 -6.093203 -10.317800 -4.814225 0.413807 0.297405 -0.860415 0.314629 0.930000
cso_combatknife.BMP
  3 -6.093203 -10.317800 -4.814225 0.413807 0.297405 -0.860415 0.314629 0.930000
  3 -6.527413 -11.043023 -4.532244 -0.167295 -0.883476 -0.437588 0.284569 0.810000
  3 -6.733779 -10.074476 -5.009560 0.342991 0.332091 -0.878677 0.410822 0.900000
cso_combatknife.BMP
  3 -6.527413 -11.043023 -4.532244 -0.167295 -0.883476 -0.437588 0.284569 0.810000
  3 -7.182520 -10.940524 -4.663883 -0.056602 -0.928135 -0.367914 0.366733 0.762000
  3 -6.733779 -10.074476 -5.009560 0.342991 0.332091 -0.878677 0.410822 0.900000
cso_combatknife.BMP
  3 -6.733779 -10.074476 -5.009560 0.342991 0.332091 -0.878677 0.410822 0.900000
  3 -7.182520 -10.940524 -4.663883 -0.056602 -0.928135 -0.367914 0.366733 0.762000
  3 -7.349544 -9.925347 -5.157866 0.238910 0.359515 -0.902037 0.488978 0.860000
cso_combatknife.BMP
  3 -7.182520 -10.940524 -4.663883 -0.056602 -0.928135 -0.367914 0.366733 0.762000
  3 -7.797962 -10.868837 -4.776097 0.024001 -0.928120 -0.371508 0.438878 0.714000
  3 -7.349544 -9.925347 -5.157866 0.238910 0.359515 -0.902037 0.488978 0.860000
cso_combatknife.BMP
  3 -7.349544 -9.925347 -5.157866 0.238910 0.359515 -0.902037 0.488978 0.860000
  3 -7.797962 -10.868837 -4.776097 0.024001 -0.928120 -0.371508 0.438878 0.714000
  3 -8.624572 -10.910097 -4.862784 -0.070802 -0.949231 -0.306510 0.523046 0.636000
cso_combatknife.BMP
  3 -4.525989 -10.661553 -3.720527 -0.109904 0.415714 0.902831 0.719439 0.634000
  3 -6.095459 -11.029351 -3.750369 -0.109904 0.415714 0.902831 0.997996 0.460000
  3 -4.706882 -11.063646 -3.556518 -0.109904 0.415714 0.902831 0.721443 0.536000
cso_combatknife.BMP
  3 -4.706882 -11.063646 -3.556518 -0.109904 0.415714 0.902831 0.721443 0.536000
  3 -6.095459 -11.029351 -3.750369 -0.109904 0.415714 0.902831 0.997996 0.460000
  3 -5.159321 -11.599892 -3.364845 -0.109904 0.415714 0.902831 0.769539 0.396000
cso_combatknife.BMP
  3 -6.095459 -11.029351 -3.750369 -0.109904 0.415714 0.902831 0.997996 0.460000
  3 -5.904760 -11.306896 -3.596737 -0.109904 0.415714 0.902831 0.937876 0.414000
  3 -5.159321 -11.599892 -3.364845 -0.109904 0.415714 0.902831 0.769539 0.396000
cso_combatknife.BMP
  3 -5.159321 -11.599892 -3.364845 -0.109904 0.415714 0.902831 0.769539 0.396000
  3 -5.904760 -11.306896 -3.596737 -0.109904 0.415714 0.902831 0.937876 0.414000
  3 -5.515415 -11.815941 -3.309888 -0.109904 0.415714 0.902831 0.823647 0.328000
cso_combatknife.BMP
  3 -5.904760 -11.306896 -3.596737 -0.109904 0.415714 0.902831 0.937876 0.414000
  3 -5.872076 -11.616077 -3.448619 -0.109904 0.415714 0.902831 0.909820 0.350000
  3 -5.515415 -11.815941 -3.309888 -0.109904 0.415714 0.902831 0.823647 0.328000
cso_combatknife.BMP
  3 -5.515415 -11.815941 -3.309888 -0.109904 0.415714 0.902831 0.823647 0.328000
  3 -5.872076 -11.616077 -3.448619 -0.109904 0.415714 0.902831 0.909820 0.350000
  3 -5.998451 -11.985599 -3.292789 -0.109904 0.415714 0.902831 0.903808 0.264000
cso_combatknife.BMP
  3 -1.126429 -12.464529 -2.912092 0.117503 -0.426711 -0.896722 0.340681 0.518000
  3 -0.419307 -11.653890 -3.198874 0.117503 -0.426711 -0.896722 0.384770 0.660000
  3 -0.149185 -12.853590 -2.605785 0.117503 -0.426711 -0.896722 0.228457 0.592000
cso_combatknife.BMP
  3 -0.149185 -12.853590 -2.605785 0.117503 -0.426711 -0.896722 0.228457 0.592000
  3 -0.419307 -11.653890 -3.198874 0.117503 -0.426711 -0.896722 0.384770 0.660000
  3 -0.225800 -11.767881 -3.121019 0.117503 -0.426711 -0.896722 0.356713 0.670000
cso_combatknife.BMP
  3 -0.419307 -11.653890 -3.198874 0.117503 -0.426711 -0.896722 0.384770 0.660000
  3 -0.226445 -11.612998 -3.193204 0.218597 -0.288196 -0.932287 0.374749 0.682000
  3 -0.225800 -11.767881 -3.121019 0.117503 -0.426711 -0.896722 0.356713 0.670000
cso_combatknife.BMP
  3 -0.225800 -11.767881 -3.121019 0.117503 -0.426711 -0.896722 0.356713 0.670000
  3 -0.226445 -11.612998 -3.193204 0.218597 -0.288196 -0.932287 0.374749 0.682000
  3 0.305740 -12.076348 -2.909328 0.294794 -0.184496 -0.937581 0.284569 0.698000
cso_combatknife.BMP
  3 -0.226445 -11.612998 -3.193204 0.218597 -0.288196 -0.932287 0.374749 0.682000
  3 0.446544 -11.763292 -2.937083 0.294794 -0.184496 -0.937581 0.302605 0.728000
  3 0.305740 -12.076348 -2.909328 0.294794 -0.184496 -0.937581 0.284569 0.698000
cso_combatknife.BMP
  3 0.305740 -12.076348 -2.909328 0.294794 -0.184496 -0.937581 0.284569 0.698000
  3 0.446544 -11.763292 -2.937083 0.294794 -0.184496 -0.937581 0.302605 0.728000
  3 1.039829 -12.099290 -2.704665 0.275104 -0.100802 -0.956115 0.220441 0.764000
cso_combatknife.BMP
  3 -5.005523 -11.402264 -3.936849 0.157104 -0.506312 -0.847919 0.931864 0.056000
  3 -3.949271 -11.775507 -3.627784 0.044300 -0.610204 -0.791005 0.839679 0.122000
  3 -4.344096 -12.108085 -3.390287 0.068202 -0.583521 -0.809229 0.823647 0.070000
cso_combatknife.BMP
  3 -4.344096 -12.108085 -3.390287 0.068202 -0.583521 -0.809229 0.823647 0.070000
  3 -3.949271 -11.775507 -3.627784 0.044300 -0.610204 -0.791005 0.839679 0.122000
  3 -2.704441 -12.398718 -3.044941 0.044300 -0.610204 -0.791005 0.709419 0.192000
cso_combatknife.BMP
  3 -3.949271 -11.775507 -3.627784 0.044300 -0.610204 -0.791005 0.839679 0.122000
  3 -2.403798 -12.067899 -3.293685 0.044300 -0.610204 -0.791005 0.731463 0.238000
  3 -2.704441 -12.398718 -3.044941 0.044300 -0.610204 -0.791005 0.709419 0.192000
cso_combatknife.BMP
  3 -2.704441 -12.398718 -3.044941 0.044300 -0.610204 -0.791005 0.709419 0.192000
  3 -2.403798 -12.067899 -3.293685 0.044300 -0.610204 -0.791005 0.731463 0.238000
  3 -1.465684 -12.757078 -2.719424 0.068202 -0.583521 -0.809229 0.611222 0.276000
cso_combatknife.BMP
  3 -2.403798 -12.067899 -3.293685 0.044300 -0.610204 -0.791005 0.731463 0.238000
  3 -1.126429 -12.464529 -2.912092 0.068202 -0.583521 -0.809229 0.625251 0.322000
  3 -1.465684 -12.757078 -2.719424 0.068202 -0.583521 -0.809229 0.611222 0.276000
cso_combatknife.BMP
  3 -4.630742 -11.340328 -4.150867 0.117503 -0.426711 -0.896722 0.721443 0.536000
  3 -5.083181 -11.876574 -3.959194 0.117503 -0.426711 -0.896722 0.769539 0.396000
  3 -6.019319 -11.306032 -4.344718 0.117503 -0.426711 -0.896722 0.997996 0.460000
cso_combatknife.BMP
  3 -6.019319 -11.306032 -4.344718 0.117503 -0.426711 -0.896722 0.997996 0.460000
  3 -5.083181 -11.876574 -3.959194 0.117503 -0.426711 -0.896722 0.769539 0.396000
  3 -5.828620 -11.583577 -4.191085 0.117503 -0.426711 -0.896722 0.937876 0.414000
cso_combatknife.BMP
  3 -5.083181 -11.876574 -3.959194 0.117503 -0.426711 -0.896722 0.769539 0.396000
  3 -5.439275 -12.092623 -3.904236 0.117503 -0.426711 -0.896722 0.823647 0.328000
  3 -5.828620 -11.583577 -4.191085 0.117503 -0.426711 -0.896722 0.937876 0.414000
cso_combatknife.BMP
  3 -5.828620 -11.583577 -4.191085 0.117503 -0.426711 -0.896722 0.937876 0.414000
  3 -5.439275 -12.092623 -3.904236 0.117503 -0.426711 -0.896722 0.823647 0.328000
  3 -5.795936 -11.892758 -4.042968 0.117503 -0.426711 -0.896722 0.909820 0.350000
cso_combatknife.BMP
  3 -5.439275 -12.092623 -3.904236 0.117503 -0.426711 -0.896722 0.823647 0.328000
  3 -5.922311 -12.262280 -3.887137 0.117503 -0.426711 -0.896722 0.903808 0.264000
  3 -5.795936 -11.892758 -4.042968 0.117503 -0.426711 -0.896722 0.909820 0.350000
cso_combatknife.BMP
  3 -4.484790 -10.086959 -4.715638 0.117503 -0.426711 -0.896722 0.791583 0.810000
  3 -4.355192 -10.491857 -4.510547 0.117503 -0.426711 -0.896722 0.735471 0.734000
  3 -4.679815 -10.446290 -4.573346 0.117503 -0.426711 -0.896722 0.801603 0.724000
cso_combatknife.BMP
  3 -4.679815 -10.446290 -4.573346 0.117503 -0.426711 -0.896722 0.801603 0.724000
  3 -4.355192 -10.491857 -4.510547 0.117503 -0.426711 -0.896722 0.735471 0.734000
  3 -4.956900 -10.646521 -4.515631 0.117503 -0.426711 -0.896722 0.841683 0.664000
cso_combatknife.BMP
  3 -4.355192 -10.491857 -4.510547 0.117503 -0.426711 -0.896722 0.735471 0.734000
  3 -4.449850 -10.938234 -4.314876 0.117503 -0.426711 -0.896722 0.719439 0.634000
  3 -4.956900 -10.646521 -4.515631 0.117503 -0.426711 -0.896722 0.841683 0.664000
cso_combatknife.BMP
  3 -4.956900 -10.646521 -4.515631 0.117503 -0.426711 -0.896722 0.841683 0.664000
  3 -4.449850 -10.938234 -4.314876 0.117503 -0.426711 -0.896722 0.719439 0.634000
  3 -5.353303 -10.676874 -4.552283 0.117503 -0.426711 -0.896722 0.915832 0.634000
cso_combatknife.BMP
  3 -4.449850 -10.938234 -4.314876 0.117503 -0.426711 -0.896722 0.719439 0.634000
  3 -6.019319 -11.306032 -4.344718 0.117503 -0.426711 -0.896722 0.997996 0.460000
  3 -5.353303 -10.676874 -4.552283 0.117503 -0.426711 -0.896722 0.915832 0.634000
cso_combatknife.BMP
  3 -7.349544 -9.925347 -5.157866 0.238910 0.359515 -0.902037 0.488978 0.860000
  3 -8.624572 -10.910097 -4.862784 -0.070802 -0.949231 -0.306510 0.523046 0.636000
  3 -7.912555 -9.878497 -5.251801 0.114400 0.371899 -0.921197 0.555110 0.814000
cso_combatknife.BMP
  3 -7.912555 -9.878497 -5.251801 0.114400 0.371899 -0.921197 0.555110 0.814000
  3 -8.624572 -10.910097 -4.862784 -0.070802 -0.949231 -0.306510 0.523046 0.636000
  3 -8.623945 -9.943420 -5.312712 -0.099101 0.369304 -0.924010 0.625251 0.744000
cso_combatknife.BMP
  3 -8.624572 -10.910097 -4.862784 -0.070802 -0.949231 -0.306510 0.523046 0.636000
  3 -9.083365 -10.758035 -4.992346 -0.326101 -0.864804 -0.381802 0.587174 0.612000
  3 -8.623945 -9.943420 -5.312712 -0.099101 0.369304 -0.924010 0.625251 0.744000
cso_combatknife.BMP
  3 -8.623945 -9.943420 -5.312712 -0.099101 0.369304 -0.924010 0.625251 0.744000
  3 -9.083365 -10.758035 -4.992346 -0.326101 -0.864804 -0.381802 0.587174 0.612000
  3 -9.258812 -10.233520 -5.258995 -0.493711 0.185004 -0.849719 0.661323 0.654000
cso_combatknife.BMP
  3 -9.083365 -10.758035 -4.992346 -0.326101 -0.864804 -0.381802 0.587174 0.612000
  3 -9.372742 -10.519624 -5.140403 -0.703450 -0.454132 -0.546738 0.643287 0.612000
  3 -9.258812 -10.233520 -5.258995 -0.493711 0.185004 -0.849719 0.661323 0.654000
cso_combatknife.BMP
  3 -5.998451 -11.985599 -3.292789 -0.949669 0.219293 -0.223693 0.749499 0.898000
  3 -5.872076 -11.616077 -3.448619 -0.987602 0.048800 -0.149200 0.807615 0.898000
  3 -5.795936 -11.892758 -4.042968 -0.987602 0.048800 -0.149200 0.807615 0.990000
cso_combatknife.BMP
  3 -5.795936 -11.892758 -4.042968 -0.987602 0.048800 -0.149200 0.807615 0.990000
  3 -5.872076 -11.616077 -3.448619 -0.987602 0.048800 -0.149200 0.807615 0.898000
  3 -5.828620 -11.583577 -4.191085 -0.942930 -0.331311 0.033401 0.851703 0.990000
cso_combatknife.BMP
  3 -5.872076 -11.616077 -3.448619 -0.987602 0.048800 -0.149200 0.807615 0.898000
  3 -5.904760 -11.306896 -3.596737 -0.942930 -0.331311 0.033401 0.851703 0.898000
  3 -5.828620 -11.583577 -4.191085 -0.942930 -0.331311 0.033401 0.851703 0.990000
cso_combatknife.BMP
  3 -5.828620 -11.583577 -4.191085 -0.942930 -0.331311 0.033401 0.851703 0.990000
  3 -5.904760 -11.306896 -3.596737 -0.942930 -0.331311 0.033401 0.851703 0.898000
  3 -6.019319 -11.306032 -4.344718 -0.843180 -0.520588 0.134297 0.899800 0.990000
cso_combatknife.BMP
  3 -5.904760 -11.306896 -3.596737 -0.942930 -0.331311 0.033401 0.851703 0.898000
  3 -6.095459 -11.029351 -3.750369 -0.843180 -0.520588 0.134297 0.899800 0.898000
  3 -6.019319 -11.306032 -4.344718 -0.843180 -0.520588 0.134297 0.899800 0.990000
cso_combatknife.BMP
  3 -5.429443 -10.400193 -3.957934 -0.038102 0.904051 -0.425724 0.523046 0.864000
  3 -5.033040 -10.369839 -3.921283 -0.326406 0.840216 -0.433008 0.581162 0.864000
  3 -4.956900 -10.646521 -4.515631 -0.326406 0.840216 -0.433008 0.581162 0.988000
cso_combatknife.BMP
  3 -4.956900 -10.646521 -4.515631 -0.326406 0.840216 -0.433008 0.581162 0.988000
  3 -5.033040 -10.369839 -3.921283 -0.326406 0.840216 -0.433008 0.581162 0.864000
  3 -4.679815 -10.446290 -4.573346 -0.754953 0.552166 -0.353778 0.635271 0.988000
cso_combatknife.BMP
  3 -5.033040 -10.369839 -3.921283 -0.326406 0.840216 -0.433008 0.581162 0.864000
  3 -4.755954 -10.169609 -3.978998 -0.754953 0.552166 -0.353778 0.635271 0.864000
  3 -4.679815 -10.446290 -4.573346 -0.754953 0.552166 -0.353778 0.635271 0.988000
cso_combatknife.BMP
  3 -4.679815 -10.446290 -4.573346 -0.754953 0.552166 -0.353778 0.635271 0.988000
  3 -4.755954 -10.169609 -3.978998 -0.754953 0.552166 -0.353778 0.635271 0.864000
  3 -4.484790 -10.086959 -4.715638 -0.883208 0.371603 -0.286103 0.715431 0.988000
cso_combatknife.BMP
  3 -4.755954 -10.169609 -3.978998 -0.754953 0.552166 -0.353778 0.635271 0.864000
  3 -4.560930 -9.810278 -4.121290 -0.883208 0.371603 -0.286103 0.715431 0.864000
  3 -4.484790 -10.086959 -4.715638 -0.883208 0.371603 -0.286103 0.715431 0.988000
cso_combatknife.BMP
  3 -6.095459 -11.029351 -3.750369 -0.109904 0.415714 0.902831 0.997996 0.460000
  3 -4.525989 -10.661553 -3.720527 -0.109904 0.415714 0.902831 0.719439 0.634000
  3 -5.429443 -10.400193 -3.957934 -0.109904 0.415714 0.902831 0.915832 0.634000
cso_combatknife.BMP
  3 -5.429443 -10.400193 -3.957934 -0.109904 0.415714 0.902831 0.915832 0.634000
  3 -4.525989 -10.661553 -3.720527 -0.109904 0.415714 0.902831 0.719439 0.634000
  3 -5.033040 -10.369839 -3.921283 -0.109904 0.415714 0.902831 0.841683 0.664000
cso_combatknife.BMP
  3 -4.525989 -10.661553 -3.720527 -0.109904 0.415714 0.902831 0.719439 0.634000
  3 -4.431332 -10.215176 -3.916199 -0.109904 0.415714 0.902831 0.735471 0.734000
  3 -5.033040 -10.369839 -3.921283 -0.109904 0.415714 0.902831 0.841683 0.664000
cso_combatknife.BMP
  3 -5.033040 -10.369839 -3.921283 -0.109904 0.415714 0.902831 0.841683 0.664000
  3 -4.431332 -10.215176 -3.916199 -0.109904 0.415714 0.902831 0.735471 0.734000
  3 -4.755954 -10.169609 -3.978998 -0.109904 0.415714 0.902831 0.801603 0.724000
cso_combatknife.BMP
  3 -4.431332 -10.215176 -3.916199 -0.109904 0.415714 0.902831 0.735471 0.734000
  3 -4.560930 -9.810278 -4.121290 -0.109904 0.415714 0.902831 0.791583 0.810000
  3 -4.755954 -10.169609 -3.978998 -0.109904 0.415714 0.902831 0.801603 0.724000
cso_combatknife.BMP
  3 -6.169343 -10.041118 -4.219877 0.252716 0.882555 0.396525 0.314629 0.930000
  3 -6.809919 -9.797795 -4.415211 0.183400 0.912002 0.366901 0.410822 0.900000
  3 -6.603553 -10.766341 -3.937896 -0.339213 -0.258710 0.904435 0.284569 0.810000
cso_combatknife.BMP
  3 -6.603553 -10.766341 -3.937896 -0.339213 -0.258710 0.904435 0.284569 0.810000
  3 -6.809919 -9.797795 -4.415211 0.183400 0.912002 0.366901 0.410822 0.900000
  3 -7.258660 -10.663843 -4.069535 -0.221304 -0.329606 0.917815 0.366733 0.762000
cso_combatknife.BMP
  3 -6.809919 -9.797795 -4.415211 0.183400 0.912002 0.366901 0.410822 0.900000
  3 -7.425684 -9.648666 -4.563517 0.079802 0.937321 0.339207 0.488978 0.860000
  3 -7.258660 -10.663843 -4.069535 -0.221304 -0.329606 0.917815 0.366733 0.762000
cso_combatknife.BMP
  3 -7.258660 -10.663843 -4.069535 -0.221304 -0.329606 0.917815 0.366733 0.762000
  3 -7.425684 -9.648666 -4.563517 0.079802 0.937321 0.339207 0.488978 0.860000
  3 -7.874102 -10.592156 -4.181748 -0.143597 -0.319094 0.936781 0.438878 0.714000
cso_combatknife.BMP
  3 -7.425684 -9.648666 -4.563517 0.079802 0.937321 0.339207 0.488978 0.860000
  3 -8.700712 -10.633415 -4.268435 -0.224394 -0.391090 0.892578 0.523046 0.636000
  3 -7.874102 -10.592156 -4.181748 -0.143597 -0.319094 0.936781 0.438878 0.714000
cso_combatknife.BMP
  3 -9.448882 -10.242942 -4.546054 -0.842251 0.050303 0.536733 0.643287 0.612000
  3 -9.159505 -10.481354 -4.397997 -0.480416 -0.304110 0.822628 0.587174 0.612000
  3 -9.334952 -9.956838 -4.664646 -0.639201 0.713801 0.286200 0.661323 0.654000
cso_combatknife.BMP
  3 -9.334952 -9.956838 -4.664646 -0.639201 0.713801 0.286200 0.661323 0.654000
  3 -9.159505 -10.481354 -4.397997 -0.480416 -0.304110 0.822628 0.587174 0.612000
  3 -8.700085 -9.666738 -4.718363 -0.252789 0.927561 0.275188 0.625251 0.744000
cso_combatknife.BMP
  3 -9.159505 -10.481354 -4.397997 -0.480416 -0.304110 0.822628 0.587174 0.612000
  3 -8.700712 -10.633415 -4.268435 -0.224394 -0.391090 0.892578 0.523046 0.636000
  3 -8.700085 -9.666738 -4.718363 -0.252789 0.927561 0.275188 0.625251 0.744000
cso_combatknife.BMP
  3 -8.700085 -9.666738 -4.718363 -0.252789 0.927561 0.275188 0.625251 0.744000
  3 -8.700712 -10.633415 -4.268435 -0.224394 -0.391090 0.892578 0.523046 0.636000
  3 -7.988695 -9.601816 -4.657452 -0.044099 0.947770 0.315890 0.555110 0.814000
cso_combatknife.BMP
  3 -8.700712 -10.633415 -4.268435 -0.224394 -0.391090 0.892578 0.523046 0.636000
  3 -7.425684 -9.648666 -4.563517 0.079802 0.937321 0.339207 0.488978 0.860000
  3 -7.988695 -9.601816 -4.657452 -0.044099 0.947770 0.315890 0.555110 0.814000
cso_combatknife.BMP
  3 -0.163283 -11.364498 -3.200853 -0.987602 0.048800 -0.149200 0.014028 0.484000
  3 -0.168593 -11.517614 -3.185777 -0.905108 0.329103 -0.269202 0.050100 0.470000
  3 -0.178976 -11.479885 -3.104730 -0.905108 0.329103 -0.269202 0.050100 0.498000
cso_combatknife.BMP
  3 -0.178976 -11.479885 -3.104730 -0.905108 0.329103 -0.269202 0.050100 0.498000
  3 -0.168593 -11.517614 -3.185777 -0.905108 0.329103 -0.269202 0.050100 0.470000
  3 -0.247210 -11.537539 -3.031109 -0.463386 0.779176 -0.422087 0.084168 0.512000
cso_combatknife.BMP
  3 -0.168593 -11.517614 -3.185777 -0.905108 0.329103 -0.269202 0.050100 0.470000
  3 -0.226445 -11.612998 -3.193204 -0.463386 0.779176 -0.422087 0.084168 0.456000
  3 -0.247210 -11.537539 -3.031109 -0.463386 0.779176 -0.422087 0.084168 0.512000
cso_combatknife.BMP
  3 -0.247210 -11.537539 -3.031109 -0.463386 0.779176 -0.422087 0.084168 0.512000
  3 -0.226445 -11.612998 -3.193204 -0.463386 0.779176 -0.422087 0.084168 0.456000
  3 -0.440072 -11.578432 -3.036779 -0.000800 0.906540 -0.422119 0.134269 0.512000
cso_combatknife.BMP
  3 -0.226445 -11.612998 -3.193204 -0.463386 0.779176 -0.422087 0.084168 0.456000
  3 -0.419307 -11.653890 -3.198874 -0.000800 0.906540 -0.422119 0.134269 0.456000
  3 -0.440072 -11.578432 -3.036779 -0.000800 0.906540 -0.422119 0.134269 0.512000
cso_combatknife.BMP
  3 2.208069 -12.779599 -2.138367 0.111001 0.750306 0.651705 0.080160 0.848000
  3 2.677440 -12.971443 -2.011139 0.082100 0.732499 0.675799 0.042084 0.896000
  3 2.308538 -12.669355 -2.276758 0.111001 0.750306 0.651705 0.092184 0.860000
cso_combatknife.BMP
  3 2.308538 -12.669355 -2.276758 0.111001 0.750306 0.651705 0.092184 0.860000
  3 2.677440 -12.971443 -2.011139 0.082100 0.732499 0.675799 0.042084 0.896000
  3 2.753521 -12.856095 -2.132822 0.082100 0.732499 0.675799 0.056112 0.906000
cso_combatknife.BMP
  3 2.677440 -12.971443 -2.011139 0.082100 0.732499 0.675799 0.042084 0.896000
  3 2.938341 -13.079783 -1.938386 0.031301 0.700028 0.713429 0.024048 0.916000
  3 2.753521 -12.856095 -2.132822 0.082100 0.732499 0.675799 0.056112 0.906000
cso_combatknife.BMP
  3 2.753521 -12.856095 -2.132822 0.082100 0.732499 0.675799 0.056112 0.906000
  3 2.938341 -13.079783 -1.938386 0.031301 0.700028 0.713429 0.024048 0.916000
  3 3.041210 -12.968327 -2.043721 0.031301 0.700028 0.713429 0.038076 0.930000
cso_combatknife.BMP
  3 2.938341 -13.079783 -1.938386 0.031301 0.700028 0.713429 0.024048 0.916000
  3 3.571063 -13.150613 -1.890985 0.031301 0.700028 0.713429 0.006012 1.000000
  3 3.041210 -12.968327 -2.043721 0.031301 0.700028 0.713429 0.038076 0.930000
cso_combatknife.BMP
  3 -0.169950 -12.778131 -2.443690 -0.109904 0.415714 0.902831 0.228457 0.592000
  3 -0.246566 -11.692423 -2.958924 -0.109904 0.415714 0.902831 0.356713 0.670000
  3 -1.147194 -12.389070 -2.749997 -0.109904 0.415714 0.902831 0.340681 0.518000
cso_combatknife.BMP
  3 -0.169950 -12.778131 -2.443690 -0.109904 0.415714 0.902831 0.228457 0.592000
  3 0.284975 -12.000889 -2.747233 -0.109904 0.415714 0.902831 0.284569 0.698000
  3 -0.246566 -11.692423 -2.958924 -0.109904 0.415714 0.902831 0.356713 0.670000
cso_combatknife.BMP
  3 -0.169950 -12.778131 -2.443690 -0.109904 0.415714 0.902831 0.228457 0.592000
  3 0.948997 -12.289670 -2.527734 -0.109904 0.415714 0.902831 0.204409 0.744000
  3 0.284975 -12.000889 -2.747233 -0.109904 0.415714 0.902831 0.284569 0.698000
cso_combatknife.BMP
  3 -0.169950 -12.778131 -2.443690 -0.109904 0.415714 0.902831 0.228457 0.592000
  3 0.711101 -12.965331 -2.243676 -0.109904 0.415714 0.902831 0.144289 0.666000
  3 0.948997 -12.289670 -2.527734 -0.109904 0.415714 0.902831 0.204409 0.744000
cso_combatknife.BMP
  3 -1.126429 -12.464529 -2.912092 0.068202 -0.583521 -0.809229 0.340681 0.518000
  3 -0.149185 -12.853590 -2.605785 0.044300 -0.610204 -0.791005 0.228457 0.592000
  3 -1.465684 -12.757078 -2.719424 0.068202 -0.583521 -0.809229 0.322645 0.474000
cso_combatknife.BMP
  3 -1.465684 -12.757078 -2.719424 0.068202 -0.583521 -0.809229 0.322645 0.474000
  3 -0.149185 -12.853590 -2.605785 0.044300 -0.610204 -0.791005 0.228457 0.592000
  3 -0.254547 -13.184796 -2.365158 0.044300 -0.610204 -0.791005 0.196393 0.558000
cso_combatknife.BMP
  3 -0.149185 -12.853590 -2.605785 0.044300 -0.610204 -0.791005 0.228457 0.592000
  3 0.731867 -13.040789 -2.405771 0.044300 -0.610204 -0.791005 0.144289 0.666000
  3 -0.254547 -13.184796 -2.365158 0.044300 -0.610204 -0.791005 0.196393 0.558000
cso_combatknife.BMP
  3 0.711101 -12.965331 -2.243676 -0.180307 0.205808 0.961838 0.144289 0.666000
  3 -0.169950 -12.778131 -2.443690 -0.180307 0.205808 0.961838 0.228457 0.592000
  3 -0.254547 -13.184796 -2.365158 -0.180307 0.205808 0.961838 0.196393 0.558000
cso_combatknife.BMP
  3 -0.254547 -13.184796 -2.365158 -0.180307 0.205808 0.961838 0.196393 0.558000
  3 -0.169950 -12.778131 -2.443690 -0.180307 0.205808 0.961838 0.228457 0.592000
  3 -1.465684 -12.757078 -2.719424 -0.158199 0.239199 0.957996 0.322645 0.474000
cso_combatknife.BMP
  3 -0.169950 -12.778131 -2.443690 -0.180307 0.205808 0.961838 0.228457 0.592000
  3 -1.147194 -12.389070 -2.749997 -0.158199 0.239199 0.957996 0.340681 0.518000
  3 -1.465684 -12.757078 -2.719424 -0.158199 0.239199 0.957996 0.322645 0.474000
cso_combatknife.BMP
  3 -6.169343 -10.041118 -4.219877 0.252716 0.882555 0.396525 0.314629 0.930000
  3 -6.603553 -10.766341 -3.937896 -0.339213 -0.258710 0.904435 0.284569 0.810000
  3 -5.429443 -10.400193 -3.957934 0.311297 0.888591 0.336897 0.200401 0.956000
cso_combatknife.BMP
  3 -5.429443 -10.400193 -3.957934 0.311297 0.888591 0.336897 0.200401 0.956000
  3 -6.603553 -10.766341 -3.937896 -0.339213 -0.258710 0.904435 0.284569 0.810000
  3 -6.095459 -11.029351 -3.750369 -0.429612 -0.205906 0.879225 0.204409 0.826000
cso_combatknife.BMP
  3 -0.226445 -11.612998 -3.193204 0.218597 -0.288196 -0.932287 0.374749 0.682000
  3 -0.168593 -11.517614 -3.185777 0.340317 -0.096505 -0.935346 0.378758 0.694000
  3 0.446544 -11.763292 -2.937083 0.294794 -0.184496 -0.937581 0.302605 0.728000
cso_combatknife.BMP
  3 0.446544 -11.763292 -2.937083 0.294794 -0.184496 -0.937581 0.302605 0.728000
  3 -0.168593 -11.517614 -3.185777 0.340317 -0.096505 -0.935346 0.378758 0.694000
  3 -0.163283 -11.364498 -3.200853 0.340317 -0.096505 -0.935346 0.390782 0.702000
cso_combatknife.BMP
  3 1.820437 -12.460472 -2.436527 0.291315 -0.026901 -0.956249 0.136273 0.822000
  3 0.969762 -12.365129 -2.689829 0.275104 -0.100802 -0.956115 0.204409 0.744000
  3 1.039829 -12.099290 -2.704665 0.275104 -0.100802 -0.956115 0.220441 0.764000
cso_combatknife.BMP
  3 1.039829 -12.099290 -2.704665 0.275104 -0.100802 -0.956115 0.220441 0.764000
  3 0.969762 -12.365129 -2.689829 0.275104 -0.100802 -0.956115 0.204409 0.744000
  3 0.305740 -12.076348 -2.909328 0.294794 -0.184496 -0.937581 0.284569 0.698000
cso_combatknife.BMP
  3 -0.225800 -11.767881 -3.121019 0.117503 -0.426711 -0.896722 0.356713 0.670000
  3 0.305740 -12.076348 -2.909328 0.117503 -0.426711 -0.896722 0.284569 0.698000
  3 -0.149185 -12.853590 -2.605785 0.117503 -0.426711 -0.896722 0.228457 0.592000
cso_combatknife.BMP
  3 -0.149185 -12.853590 -2.605785 0.117503 -0.426711 -0.896722 0.228457 0.592000
  3 0.305740 -12.076348 -2.909328 0.117503 -0.426711 -0.896722 0.284569 0.698000
  3 0.969762 -12.365129 -2.689829 0.117503 -0.426711 -0.896722 0.204409 0.744000
cso_combatknife.BMP
  3 -0.247210 -11.537539 -3.031109 0.010100 0.517320 0.855733 0.374749 0.682000
  3 0.446544 -11.763292 -2.937083 0.045798 0.627375 0.777369 0.302605 0.728000
  3 -0.178976 -11.479885 -3.104730 0.127600 0.676502 0.725302 0.378758 0.694000
cso_combatknife.BMP
  3 -0.178976 -11.479885 -3.104730 0.127600 0.676502 0.725302 0.378758 0.694000
  3 0.446544 -11.763292 -2.937083 0.045798 0.627375 0.777369 0.302605 0.728000
  3 -0.163283 -11.364498 -3.200853 0.127600 0.676502 0.725302 0.390782 0.702000
cso_combatknife.BMP
  3 -5.005523 -11.402264 -3.936849 0.157104 -0.506312 -0.847919 0.931864 0.056000
  3 -4.344096 -12.108085 -3.390287 0.068202 -0.583521 -0.809229 0.823647 0.070000
  3 -5.281641 -11.834821 -3.770858 0.211000 -0.465000 -0.859799 0.903808 0.008000
cso_combatknife.BMP
  3 -4.489133 -10.438037 -4.064158 0.404987 0.847673 -0.342689 0.833667 0.046000
  3 -3.298032 -10.948702 -3.929251 0.314606 0.875318 -0.367208 0.591182 0.000000
  3 -4.462599 -10.534456 -4.271280 0.404987 0.847673 -0.342689 0.833667 0.000000
cso_combatknife.BMP
  3 -5.308175 -11.738401 -3.563737 -0.389794 -0.852987 0.347095 0.741483 0.118000
  3 -5.281641 -11.834821 -3.770858 -0.389794 -0.852987 0.347095 0.741483 0.072000
  3 -4.344096 -12.108085 -3.390287 -0.389794 -0.852987 0.347095 0.537074 0.096000
cso_combatknife.BMP
  3 -6.019319 -11.306032 -4.344718 0.117503 -0.426711 -0.896722 0.997996 0.460000
  3 -4.449850 -10.938234 -4.314876 0.117503 -0.426711 -0.896722 0.719439 0.634000
  3 -4.630742 -11.340328 -4.150867 0.117503 -0.426711 -0.896722 0.721443 0.536000
cso_combatknife.BMP
  3 -6.527413 -11.043023 -4.532244 -0.167295 -0.883476 -0.437588 0.284569 0.810000
  3 -5.353303 -10.676874 -4.552283 0.459011 0.352009 -0.815720 0.200401 0.956000
  3 -6.019319 -11.306032 -4.344718 -0.255405 -0.838917 -0.480610 0.204409 0.826000
cso_combatknife.BMP
  3 -4.560930 -9.810278 -4.121290 0.953839 0.299812 -0.017401 0.985972 0.988000
  3 -4.355192 -10.491857 -4.510547 0.992272 0.090397 0.084998 0.913828 0.938000
  3 -4.484790 -10.086959 -4.715638 0.953839 0.299812 -0.017401 0.913828 0.988000
cso_combatknife.BMP
  3 -5.998451 -11.985599 -3.292789 -0.949669 0.219293 -0.223693 0.749499 0.898000
  3 -5.795936 -11.892758 -4.042968 -0.987602 0.048800 -0.149200 0.807615 0.990000
  3 -5.922311 -12.262280 -3.887137 -0.949669 0.219293 -0.223693 0.749499 0.990000
cso_combatknife.BMP
  3 -5.429443 -10.400193 -3.957934 -0.038102 0.904051 -0.425724 0.523046 0.864000
  3 -4.956900 -10.646521 -4.515631 -0.326406 0.840216 -0.433008 0.581162 0.988000
  3 -5.353303 -10.676874 -4.552283 -0.038102 0.904051 -0.425724 0.523046 0.988000
cso_combatknife.BMP
  3 -6.095459 -11.029351 -3.750369 -0.429612 -0.205906 0.879225 0.026052 0.148000
  3 -6.527413 -11.043023 -4.532244 -0.167295 -0.883476 -0.437588 0.098196 0.064000
  3 -6.019319 -11.306032 -4.344718 -0.255405 -0.838917 -0.480610 0.026052 0.064000
cso_combatknife.BMP
  3 -5.353303 -10.676874 -4.552283 0.459011 0.352009 -0.815720 0.008016 0.160000
  3 -6.169343 -10.041118 -4.219877 0.252716 0.882555 0.396525 0.104208 0.238000
  3 -5.429443 -10.400193 -3.957934 0.311297 0.888591 0.336897 0.008016 0.238000
cso_combatknife.BMP
  3 1.820437 -12.460472 -2.436527 0.082100 0.732499 0.675799 0.136273 0.822000
  3 2.208069 -12.779599 -2.138367 0.111001 0.750306 0.651705 0.080160 0.848000
  3 2.308538 -12.669355 -2.276758 0.111001 0.750306 0.651705 0.092184 0.860000
cso_combatknife.BMP
  3 -1.147194 -12.389070 -2.749997 -0.109904 0.415714 0.902831 0.340681 0.518000
  3 -0.246566 -11.692423 -2.958924 -0.109904 0.415714 0.902831 0.356713 0.670000
  3 -0.440072 -11.578432 -3.036779 -0.109904 0.415714 0.902831 0.384770 0.660000
cso_combatknife.BMP
  3 0.711101 -12.965331 -2.243676 -0.180307 0.205808 0.961838 0.144289 0.666000
  3 -0.254547 -13.184796 -2.365158 -0.180307 0.205808 0.961838 0.196393 0.558000
  3 0.683431 -13.359458 -2.163688 -0.180307 0.205808 0.961838 0.108216 0.636000
end
