// Created by Crowbar 0.58

$modelname "weapons/tfa_cso/c_combatknife.mdl"

$Include "csonline_gmod.qci"

$bodygroup "weapon"
{
	studio "v_combatknife_nexon_CSO_combat_Gibon_REF"
}

$CDMaterials "models\weapons\tfa_cso\combatknife"

$definebone "Bone04" "" -10.619022 -0.977604 -8.032327 -27.964101 -165.507206 -155.026663 -0.000000 0.000000 0.000000 -0.000000 -0.000002 0.000004
$definebone "Bone_Righthand" "Bone04" 0.096946 -8.450418 -0.009364 -22.520681 29.248062 -9.188636 0.000000 0.000000 0.000000 -0.000000 0.000001 -0.000001
$definebone "NEXON_CSO_JKnife_Root" "Bone_Righthand" -1.377217 -2.745358 0.715276 1.499180 -161.918147 -179.657883 0.000000 0.000000 0.000000 -0.000000 0.000002 0.000001
$definebone "Plane02" "NEXON_CSO_JKnife_Root" 3.183929 -0.085375 0.002823 -0.000000 0.000002 -89.999983 0.000000 0.000000 -0.000001 -0.000002 0.000000 0.000001

$sequence "Nexon_CSO_idle" {
	"v_combatknife_anims\Nexon_CSO_idle"
	fps 16
	activity "ACT_VM_IDLE" 1
	snap
	loop
}
$sequence "Nexon_CSO_slash1" {
	"v_combatknife_anims\Nexon_CSO_slash1"
	{ event 5004 1 "Combatknife.Slash" }
	fps 30
}
$sequence "Nexon_CSO_slash2" {
	"v_combatknife_anims\Nexon_CSO_slash2"
	fps 30
}
$sequence "Nexon_CSO_draw" {
	"v_combatknife_anims\Nexon_CSO_draw"
	{ event 5004 1 "Combatknife.Draw" }
	fps 32
	activity "ACT_VM_DRAW" 1
	snap
}
$sequence "Nexon_CSO_stab" {
	"v_combatknife_anims\Nexon_CSO_stab"
	{ event 5004 1 "Combatknife.Slash" }
	fps 35
	activity "ACT_VM_MISSRIGHT" 1
	snap
}
$sequence "Nexon_CSO_stab_miss" {
	"v_combatknife_anims\Nexon_CSO_stab_miss"
	fps 40
}
$sequence "Nexon_CSO_midslash1" {
	"v_combatknife_anims\Nexon_CSO_midslash1"
	{ event 5004 1 "Combatknife.Slash" }
	fps 55
	activity "ACT_VM_HITLEFT" 1
	snap
}
$sequence "Nexon_CSO_midslash2" {
	"v_combatknife_anims\Nexon_CSO_midslash2"
	fps 55
}
