// Created by Crowbar 0.49.0.0

$modelname "weapons/tfa_cso/w_m4a1red.mdl"

$bodygroup "studio"
{
	studio "w_m4a1red_w_ref"
}

$collisionmodel "w_m4a1red_w_ref.smd"
{
	$mass 9
}

$CDMaterials "models\weapons\tfa_cso\m4a1"

$attachment "0" "M4a1_new_PWS" -0.30 -20.30 2.60 rotate 0 -0 0

$sequence "idle" {
	"w_m4a1red_anims\idle"
	fps 30
}
