// Created by Crowbar 0.34.0.0

$ModelName "weapons/tfa_cso/w_x-90.mdl"

$BodyGroup "studio"
{
	studio "v_kronos3_ef"
}

$collisionmodel "v_kronos3_ef.smd"
{
	$mass 9
}

$CDMaterials "models\weapons\tfa_cso\x-90"

$attachment "0" "root" 0.60 -7.00 -0.30 rotate -0 0 -5

$Sequence "idle" {
	"anims\idle.smd"
	fps 30
}