version 1
nodes
  0 "Bone01" -1
  1 "Bone_Lefthand" 0
  2 "Bone03" 1
  3 "Bone56" 2
  4 "Bone54" 3
  5 "Bone25" 3
  6 "Bone48" 3
  7 "Bone50" 3
  8 "Bone52" 3
  9 "Bone 04" 1
  10 "Bone13" 9
  11 "Bone14" 10
  12 "Bone15" 11
  13 "Bone17" 9
  14 "Bone18" 13
  15 "Bone19" 14
  16 "Bone21" 9
  17 "Bone22" 16
  18 "Bone23" 17
  19 "Bone05" 9
  20 "Bone06" 19
  21 "Bone07" 20
  22 "Bone09" 9
  23 "Bone10" 22
  24 "Bone11" 23
  25 "Bone04" -1
  26 "Bone_Righthand" 25
  27 "Bone26" 26
  28 "Bone35" 27
  29 "Bone36" 28
  30 "Bone37" 29
  31 "Bone31" 27
  32 "Bone32" 31
  33 "Bone33" 32
  34 "Bone39" 27
  35 "Bone40" 34
  36 "Bone41" 35
  37 "Bone43" 27
  38 "Bone44" 37
  39 "Bone45" 38
  40 "Bone27" 27
  41 "Bone28" 40
  42 "Bone29" 41
end
skeleton
  time 0
    0 7.606551 2.665641 -8.194058 -0.774287 -1.331381 0.567272
    1 0.000000 -8.563285 0.000000 0.347509 -0.125220 -0.169570
    2 -0.435133 -3.043624 0.895601 -1.247037 1.437608 -1.233843
    3 0.000000 2.000727 0.853750 0.000000 0.000000 0.000000
    4 0.021119 -3.993921 3.201528 0.000000 0.000000 0.000000
    5 0.021119 -2.845553 1.084931 0.000000 0.000000 0.000000
    6 0.021119 -4.827049 0.994863 0.000000 0.000000 0.000000
    7 0.021119 -5.547592 1.535272 0.000000 0.000000 0.000000
    8 0.021119 -9.375484 3.809488 0.000000 0.000000 0.000000
    9 -0.003480 -0.404829 0.000001 0.000000 0.000000 0.000000
    10 -0.519309 -2.501156 -0.278957 -1.404591 -0.161672 -0.219512
    11 -0.010598 -1.208185 0.000001 -0.740030 0.000000 0.000000
    12 0.000000 -0.763066 0.000000 -1.343903 0.000000 0.000000
    13 0.105981 -2.607135 -0.278957 -1.135143 -0.167988 -0.238861
    14 0.000000 -1.250579 -0.000001 -0.966912 0.000000 0.000000
    15 0.000000 -0.932634 0.000000 -1.431181 0.000000 0.000000
    16 0.763063 -2.490557 -0.278957 -0.388796 -0.041323 0.031656
    17 -0.012322 -1.280917 0.000000 -0.689389 0.000000 0.000000
    18 -0.001697 -0.749371 0.000000 -0.593412 0.000000 0.000000
    19 0.354566 0.016267 0.318133 0.271703 -0.487906 -0.927541
    20 1.887165 0.012877 0.000000 -0.271037 -0.142581 -0.874135
    21 1.001873 -0.000270 0.000000 0.000000 0.000000 -0.902335
    22 -1.123359 -2.195094 -0.278957 -1.253823 -0.147135 -0.327965
    23 0.010772 -0.963791 0.000000 -0.542804 0.000000 0.000000
    24 -0.010412 -0.631916 -0.000001 -1.165881 0.000000 0.000000
    25 -0.800319 -9.330124 -10.486943 -0.726008 0.255020 0.648663
    26 0.089929 -8.543162 0.000001 0.570471 -0.049153 0.181509
    27 -0.000001 -0.359713 0.000000 0.000000 0.000000 0.000000
    28 -0.170479 -2.636147 -0.277655 -1.326477 0.000000 0.000000
    29 0.010598 -1.261177 0.000000 -0.687615 0.000000 0.000000
    30 -0.000001 -0.943233 -0.000001 -0.532326 0.000000 0.000000
    31 -0.827564 -2.508973 -0.277657 -0.851729 0.000000 0.000000
    32 -0.000001 -1.292971 0.000000 -1.167601 0.000000 0.000000
    33 0.000000 -0.752465 0.000000 -0.445059 0.000000 0.000000
    34 0.444212 -2.561960 -0.277655 -1.570265 -0.041073 -0.026169
    35 0.021022 -1.208186 0.000000 -0.427606 0.000000 0.000000
    36 0.010596 -0.741866 -0.000001 -0.453786 0.000000 0.000000
    37 1.047445 -2.222820 -0.277655 -1.508123 -0.078971 -0.038609
    38 -0.000001 -0.996223 -0.000002 -0.623094 0.000000 0.000000
    39 -0.000001 -0.614690 0.000001 -0.523599 0.000000 0.000000
    40 -0.308255 -0.007814 0.307166 0.124627 -0.099943 -2.491818
    41 1.978378 0.019544 0.000000 -0.098060 -0.036791 0.192024
    42 0.982426 0.003186 0.000001 0.000000 0.000000 0.383988
  time 1
    0 7.606551 2.665641 -8.194058 -0.774287 -1.331381 0.567272
    1 0.000000 -8.563285 0.000000 0.347509 -0.125220 -0.169570
    2 -0.435133 -3.043624 0.895601 -1.247037 1.437608 -1.233843
    3 0.000000 2.000727 0.853750 0.000000 0.000000 0.000000
    4 0.021119 -3.993921 3.201528 0.000000 0.000000 0.000000
    5 0.021119 -2.845553 1.084931 0.000000 0.000000 0.000000
    6 0.021119 -4.827049 0.994863 0.000000 0.000000 0.000000
    7 0.021119 -5.547592 1.535272 0.000000 0.000000 0.000000
    8 0.021119 -9.375484 3.809488 0.000000 0.000000 0.000000
    9 -0.003480 -0.404829 0.000001 0.000000 0.000000 0.000000
    10 -0.519309 -2.501156 -0.278957 -1.404591 -0.161672 -0.219512
    11 -0.010598 -1.208185 0.000001 -0.740030 0.000000 0.000000
    12 0.000000 -0.763066 0.000000 -1.343903 0.000000 0.000000
    13 0.105981 -2.607135 -0.278957 -1.135143 -0.167988 -0.238861
    14 0.000000 -1.250579 -0.000001 -0.966912 0.000000 0.000000
    15 0.000000 -0.932634 0.000000 -1.431181 0.000000 0.000000
    16 0.763063 -2.490557 -0.278957 -0.388796 -0.041323 0.031656
    17 -0.012322 -1.280917 0.000000 -0.689389 0.000000 0.000000
    18 -0.001697 -0.749371 0.000000 -0.593412 0.000000 0.000000
    19 0.354566 0.016267 0.318133 0.271703 -0.487906 -0.927541
    20 1.887165 0.012877 0.000000 -0.271037 -0.142581 -0.874135
    21 1.001873 -0.000270 0.000000 0.000000 0.000000 -0.902335
    22 -1.123359 -2.195094 -0.278957 -1.253823 -0.147135 -0.327965
    23 0.010772 -0.963791 0.000000 -0.542804 0.000000 0.000000
    24 -0.010412 -0.631916 -0.000001 -1.165881 0.000000 0.000000
    25 -0.800319 -9.330124 -10.486943 -0.726008 0.255020 0.648663
    26 0.089929 -8.543162 0.000001 0.570471 -0.049153 0.181509
    27 -0.000001 -0.359713 0.000000 0.000000 0.000000 0.000000
    28 -0.170479 -2.636147 -0.277655 -1.326477 0.000000 0.000000
    29 0.010598 -1.261177 0.000000 -0.687615 0.000000 0.000000
    30 -0.000001 -0.943233 -0.000001 -0.532326 0.000000 0.000000
    31 -0.827564 -2.508973 -0.277657 -0.851729 0.000000 0.000000
    32 -0.000001 -1.292971 0.000000 -1.167601 0.000000 0.000000
    33 0.000000 -0.752465 0.000000 -0.445059 0.000000 0.000000
    34 0.444212 -2.561960 -0.277655 -1.570265 -0.041073 -0.026169
    35 0.021022 -1.208186 0.000000 -0.427606 0.000000 0.000000
    36 0.010596 -0.741866 -0.000001 -0.453786 0.000000 0.000000
    37 1.047445 -2.222820 -0.277655 -1.508123 -0.078971 -0.038609
    38 -0.000001 -0.996223 -0.000002 -0.623094 0.000000 0.000000
    39 -0.000001 -0.614690 0.000001 -0.523599 0.000000 0.000000
    40 -0.308255 -0.007814 0.307166 0.124627 -0.099943 -2.491818
    41 1.978378 0.019544 0.000000 -0.098060 -0.036791 0.192024
    42 0.982426 0.003186 0.000001 0.000000 0.000000 0.383988
  time 2
    0 7.606551 2.665641 -8.194058 -0.774287 -1.331381 0.567272
    1 0.000000 -8.563285 0.000000 0.347509 -0.125220 -0.169570
    2 -0.435133 -3.043624 0.895601 -1.247037 1.437608 -1.233843
    3 0.000000 2.000727 0.853750 0.000000 0.000000 0.000000
    4 0.021119 -3.993921 3.201528 0.000000 0.000000 0.000000
    5 0.021119 -2.845553 1.084931 0.000000 0.000000 0.000000
    6 0.021119 -4.827049 0.994863 0.000000 0.000000 0.000000
    7 0.021119 -5.547592 1.535272 0.000000 0.000000 0.000000
    8 0.021119 -9.375484 3.809488 0.000000 0.000000 0.000000
    9 -0.003480 -0.404829 0.000001 0.000000 0.000000 0.000000
    10 -0.519309 -2.501156 -0.278957 -1.404591 -0.161672 -0.219512
    11 -0.010598 -1.208185 0.000001 -0.740030 0.000000 0.000000
    12 0.000000 -0.763066 0.000000 -1.343903 0.000000 0.000000
    13 0.105981 -2.607135 -0.278957 -1.135143 -0.167988 -0.238861
    14 0.000000 -1.250579 -0.000001 -0.966912 0.000000 0.000000
    15 0.000000 -0.932634 0.000000 -1.431181 0.000000 0.000000
    16 0.763063 -2.490557 -0.278957 -0.388796 -0.041323 0.031656
    17 -0.012322 -1.280917 0.000000 -0.689389 0.000000 0.000000
    18 -0.001697 -0.749371 0.000000 -0.593412 0.000000 0.000000
    19 0.354566 0.016267 0.318133 0.271703 -0.487906 -0.927541
    20 1.887165 0.012877 0.000000 -0.271037 -0.142581 -0.874135
    21 1.001873 -0.000270 0.000000 0.000000 0.000000 -0.902335
    22 -1.123359 -2.195094 -0.278957 -1.253823 -0.147135 -0.327965
    23 0.010772 -0.963791 0.000000 -0.542804 0.000000 0.000000
    24 -0.010412 -0.631916 -0.000001 -1.165881 0.000000 0.000000
    25 -0.800319 -9.330124 -10.486943 -0.726008 0.255020 0.648663
    26 0.089929 -8.543162 0.000001 0.570471 -0.049153 0.181509
    27 -0.000001 -0.359713 0.000000 0.000000 0.000000 0.000000
    28 -0.170479 -2.636147 -0.277655 -1.326477 0.000000 0.000000
    29 0.010598 -1.261177 0.000000 -0.687615 0.000000 0.000000
    30 -0.000001 -0.943233 -0.000001 -0.532326 0.000000 0.000000
    31 -0.827564 -2.508973 -0.277657 -0.851729 0.000000 0.000000
    32 -0.000001 -1.292971 0.000000 -1.167601 0.000000 0.000000
    33 0.000000 -0.752465 0.000000 -0.445059 0.000000 0.000000
    34 0.444212 -2.561960 -0.277655 -1.570265 -0.041073 -0.026169
    35 0.021022 -1.208186 0.000000 -0.427606 0.000000 0.000000
    36 0.010596 -0.741866 -0.000001 -0.453786 0.000000 0.000000
    37 1.047445 -2.222820 -0.277655 -1.508123 -0.078971 -0.038609
    38 -0.000001 -0.996223 -0.000002 -0.623094 0.000000 0.000000
    39 -0.000001 -0.614690 0.000001 -0.523599 0.000000 0.000000
    40 -0.308255 -0.007814 0.307166 0.124627 -0.099943 -2.491818
    41 1.978378 0.019544 0.000000 -0.098060 -0.036791 0.192024
    42 0.982426 0.003186 0.000001 0.000000 0.000000 0.383988
  time 3
    0 7.606551 2.665641 -8.194058 -0.774287 -1.331381 0.567272
    1 0.000000 -8.563285 0.000000 0.347509 -0.125220 -0.169570
    2 -0.435133 -3.043624 0.895601 -1.247037 1.437608 -1.233843
    3 0.000000 2.000727 0.853750 0.000000 0.000000 0.000000
    4 0.021119 -3.993921 3.201528 0.000000 0.000000 0.000000
    5 0.021119 -2.845553 1.084931 0.000000 0.000000 0.000000
    6 0.021119 -4.827049 0.994863 0.000000 0.000000 0.000000
    7 0.021119 -5.547592 1.535272 0.000000 0.000000 0.000000
    8 0.021119 -9.375484 3.809488 0.000000 0.000000 0.000000
    9 -0.003480 -0.404829 0.000001 0.000000 0.000000 0.000000
    10 -0.519309 -2.501156 -0.278957 -1.404591 -0.161672 -0.219512
    11 -0.010598 -1.208185 0.000001 -0.740030 0.000000 0.000000
    12 0.000000 -0.763066 0.000000 -1.343903 0.000000 0.000000
    13 0.105981 -2.607135 -0.278957 -1.135143 -0.167988 -0.238861
    14 0.000000 -1.250579 -0.000001 -0.966912 0.000000 0.000000
    15 0.000000 -0.932634 0.000000 -1.431181 0.000000 0.000000
    16 0.763063 -2.490557 -0.278957 -0.388796 -0.041323 0.031656
    17 -0.012322 -1.280917 0.000000 -0.689389 0.000000 0.000000
    18 -0.001697 -0.749371 0.000000 -0.593412 0.000000 0.000000
    19 0.354566 0.016267 0.318133 0.271703 -0.487906 -0.927541
    20 1.887165 0.012877 0.000000 -0.271037 -0.142581 -0.874135
    21 1.001873 -0.000270 0.000000 0.000000 0.000000 -0.902335
    22 -1.123359 -2.195094 -0.278957 -1.253823 -0.147135 -0.327965
    23 0.010772 -0.963791 0.000000 -0.542804 0.000000 0.000000
    24 -0.010412 -0.631916 -0.000001 -1.165881 0.000000 0.000000
    25 -0.800319 -9.330124 -10.486943 -0.726008 0.255020 0.648663
    26 0.089929 -8.543162 0.000001 0.570471 -0.049153 0.181509
    27 -0.000001 -0.359713 0.000000 0.000000 0.000000 0.000000
    28 -0.170479 -2.636147 -0.277655 -1.326477 0.000000 0.000000
    29 0.010598 -1.261177 0.000000 -0.687615 0.000000 0.000000
    30 -0.000001 -0.943233 -0.000001 -0.532326 0.000000 0.000000
    31 -0.827564 -2.508973 -0.277657 -0.851729 0.000000 0.000000
    32 -0.000001 -1.292971 0.000000 -1.167601 0.000000 0.000000
    33 0.000000 -0.752465 0.000000 -0.445059 0.000000 0.000000
    34 0.444212 -2.561960 -0.277655 -1.570265 -0.041073 -0.026169
    35 0.021022 -1.208186 0.000000 -0.427606 0.000000 0.000000
    36 0.010596 -0.741866 -0.000001 -0.453786 0.000000 0.000000
    37 1.047445 -2.222820 -0.277655 -1.508123 -0.078971 -0.038609
    38 -0.000001 -0.996223 -0.000002 -0.623094 0.000000 0.000000
    39 -0.000001 -0.614690 0.000001 -0.523599 0.000000 0.000000
    40 -0.308255 -0.007814 0.307166 0.124627 -0.099943 -2.491818
    41 1.978378 0.019544 0.000000 -0.098060 -0.036791 0.192024
    42 0.982426 0.003186 0.000001 0.000000 0.000000 0.383988
  time 4
    0 7.606551 2.665641 -8.194058 -0.774287 -1.331381 0.567272
    1 0.000000 -8.563285 0.000000 0.347509 -0.125220 -0.169570
    2 -0.435133 -3.043624 0.895601 -1.247037 1.437608 -1.233843
    3 0.000000 2.000727 0.853750 0.000000 0.000000 0.000000
    4 0.021119 -3.993921 3.201528 0.000000 0.000000 0.000000
    5 0.021119 -2.845553 1.084931 0.000000 0.000000 0.000000
    6 0.021119 -4.827049 0.994863 0.000000 0.000000 0.000000
    7 0.021119 -5.547592 1.535272 0.000000 0.000000 0.000000
    8 0.021119 -9.375484 3.809488 0.000000 0.000000 0.000000
    9 -0.003480 -0.404829 0.000001 0.000000 0.000000 0.000000
    10 -0.519309 -2.501156 -0.278957 -1.404591 -0.161672 -0.219512
    11 -0.010598 -1.208185 0.000001 -0.740030 0.000000 0.000000
    12 0.000000 -0.763066 0.000000 -1.343903 0.000000 0.000000
    13 0.105981 -2.607135 -0.278957 -1.135143 -0.167988 -0.238861
    14 0.000000 -1.250579 -0.000001 -0.966912 0.000000 0.000000
    15 0.000000 -0.932634 0.000000 -1.431181 0.000000 0.000000
    16 0.763063 -2.490557 -0.278957 -0.388796 -0.041323 0.031656
    17 -0.012322 -1.280917 0.000000 -0.689389 0.000000 0.000000
    18 -0.001697 -0.749371 0.000000 -0.593412 0.000000 0.000000
    19 0.354566 0.016267 0.318133 0.271703 -0.487906 -0.927541
    20 1.887165 0.012877 0.000000 -0.271037 -0.142581 -0.874135
    21 1.001873 -0.000270 0.000000 0.000000 0.000000 -0.902335
    22 -1.123359 -2.195094 -0.278957 -1.253823 -0.147135 -0.327965
    23 0.010772 -0.963791 0.000000 -0.542804 0.000000 0.000000
    24 -0.010412 -0.631916 -0.000001 -1.165881 0.000000 0.000000
    25 -0.800319 -9.330124 -10.486943 -0.726008 0.255020 0.648663
    26 0.089929 -8.543162 0.000001 0.570471 -0.049153 0.181509
    27 -0.000001 -0.359713 0.000000 0.000000 0.000000 0.000000
    28 -0.170479 -2.636147 -0.277655 -1.326477 0.000000 0.000000
    29 0.010598 -1.261177 0.000000 -0.687615 0.000000 0.000000
    30 -0.000001 -0.943233 -0.000001 -0.532326 0.000000 0.000000
    31 -0.827564 -2.508973 -0.277657 -0.851729 0.000000 0.000000
    32 -0.000001 -1.292971 0.000000 -1.167601 0.000000 0.000000
    33 0.000000 -0.752465 0.000000 -0.445059 0.000000 0.000000
    34 0.444212 -2.561960 -0.277655 -1.570265 -0.041073 -0.026169
    35 0.021022 -1.208186 0.000000 -0.427606 0.000000 0.000000
    36 0.010596 -0.741866 -0.000001 -0.453786 0.000000 0.000000
    37 1.047445 -2.222820 -0.277655 -1.508123 -0.078971 -0.038609
    38 -0.000001 -0.996223 -0.000002 -0.623094 0.000000 0.000000
    39 -0.000001 -0.614690 0.000001 -0.523599 0.000000 0.000000
    40 -0.308255 -0.007814 0.307166 0.124627 -0.099943 -2.491818
    41 1.978378 0.019544 0.000000 -0.098060 -0.036791 0.192024
    42 0.982426 0.003186 0.000001 0.000000 0.000000 0.383988
  time 5
    0 7.606551 2.665641 -8.194058 -0.774287 -1.331381 0.567272
    1 0.000000 -8.563285 0.000000 0.347509 -0.125220 -0.169570
    2 -0.435133 -3.043624 0.895601 -1.247037 1.437608 -1.233843
    3 0.000000 2.000727 0.853750 0.000000 0.000000 0.000000
    4 0.021119 -3.993921 3.201528 0.000000 0.000000 0.000000
    5 0.021119 -2.845553 1.084931 0.000000 0.000000 0.000000
    6 0.021119 -4.827049 0.994863 0.000000 0.000000 0.000000
    7 0.021119 -5.547592 1.535272 0.000000 0.000000 0.000000
    8 0.021119 -9.375484 3.809488 0.000000 0.000000 0.000000
    9 -0.003480 -0.404829 0.000001 0.000000 0.000000 0.000000
    10 -0.519309 -2.501156 -0.278957 -1.404591 -0.161672 -0.219512
    11 -0.010598 -1.208185 0.000001 -0.740030 0.000000 0.000000
    12 0.000000 -0.763066 0.000000 -1.343903 0.000000 0.000000
    13 0.105981 -2.607135 -0.278957 -1.135143 -0.167988 -0.238861
    14 0.000000 -1.250579 -0.000001 -0.966912 0.000000 0.000000
    15 0.000000 -0.932634 0.000000 -1.431181 0.000000 0.000000
    16 0.763063 -2.490557 -0.278957 -0.388796 -0.041323 0.031656
    17 -0.012322 -1.280917 0.000000 -0.689389 0.000000 0.000000
    18 -0.001697 -0.749371 0.000000 -0.593412 0.000000 0.000000
    19 0.354566 0.016267 0.318133 0.271703 -0.487906 -0.927541
    20 1.887165 0.012877 0.000000 -0.271037 -0.142581 -0.874135
    21 1.001873 -0.000270 0.000000 0.000000 0.000000 -0.902335
    22 -1.123359 -2.195094 -0.278957 -1.253823 -0.147135 -0.327965
    23 0.010772 -0.963791 0.000000 -0.542804 0.000000 0.000000
    24 -0.010412 -0.631916 -0.000001 -1.165881 0.000000 0.000000
    25 -0.800319 -9.330124 -10.486943 -0.726008 0.255020 0.648663
    26 0.089929 -8.543162 0.000001 0.570471 -0.049153 0.181509
    27 -0.000001 -0.359713 0.000000 0.000000 0.000000 0.000000
    28 -0.170479 -2.636147 -0.277655 -1.326477 0.000000 0.000000
    29 0.010598 -1.261177 0.000000 -0.687615 0.000000 0.000000
    30 -0.000001 -0.943233 -0.000001 -0.532326 0.000000 0.000000
    31 -0.827564 -2.508973 -0.277657 -0.851729 0.000000 0.000000
    32 -0.000001 -1.292971 0.000000 -1.167601 0.000000 0.000000
    33 0.000000 -0.752465 0.000000 -0.445059 0.000000 0.000000
    34 0.444212 -2.561960 -0.277655 -1.570265 -0.041073 -0.026169
    35 0.021022 -1.208186 0.000000 -0.427606 0.000000 0.000000
    36 0.010596 -0.741866 -0.000001 -0.453786 0.000000 0.000000
    37 1.047445 -2.222820 -0.277655 -1.508123 -0.078971 -0.038609
    38 -0.000001 -0.996223 -0.000002 -0.623094 0.000000 0.000000
    39 -0.000001 -0.614690 0.000001 -0.523599 0.000000 0.000000
    40 -0.308255 -0.007814 0.307166 0.124627 -0.099943 -2.491818
    41 1.978378 0.019544 0.000000 -0.098060 -0.036791 0.192024
    42 0.982426 0.003186 0.000001 0.000000 0.000000 0.383988
  time 6
    0 7.606551 2.665641 -8.194058 -0.774287 -1.331381 0.567272
    1 0.000000 -8.563285 0.000000 0.347509 -0.125220 -0.169570
    2 -0.435133 -3.043624 0.895601 -1.247037 1.437608 -1.233843
    3 0.000000 2.000727 0.853750 0.000000 0.000000 0.000000
    4 0.021119 -3.993921 3.201528 0.000000 0.000000 0.000000
    5 0.021119 -2.845553 1.084931 0.000000 0.000000 0.000000
    6 0.021119 -4.827049 0.994863 0.000000 0.000000 0.000000
    7 0.021119 -5.547592 1.535272 0.000000 0.000000 0.000000
    8 0.021119 -9.375484 3.809488 0.000000 0.000000 0.000000
    9 -0.003480 -0.404829 0.000001 0.000000 0.000000 0.000000
    10 -0.519309 -2.501156 -0.278957 -1.404591 -0.161672 -0.219512
    11 -0.010598 -1.208185 0.000001 -0.740030 0.000000 0.000000
    12 0.000000 -0.763066 0.000000 -1.343903 0.000000 0.000000
    13 0.105981 -2.607135 -0.278957 -1.135143 -0.167988 -0.238861
    14 0.000000 -1.250579 -0.000001 -0.966912 0.000000 0.000000
    15 0.000000 -0.932634 0.000000 -1.431181 0.000000 0.000000
    16 0.763063 -2.490557 -0.278957 -0.388796 -0.041323 0.031656
    17 -0.012322 -1.280917 0.000000 -0.689389 0.000000 0.000000
    18 -0.001697 -0.749371 0.000000 -0.593412 0.000000 0.000000
    19 0.354566 0.016267 0.318133 0.271703 -0.487906 -0.927541
    20 1.887165 0.012877 0.000000 -0.271037 -0.142581 -0.874135
    21 1.001873 -0.000270 0.000000 0.000000 0.000000 -0.902335
    22 -1.123359 -2.195094 -0.278957 -1.253823 -0.147135 -0.327965
    23 0.010772 -0.963791 0.000000 -0.542804 0.000000 0.000000
    24 -0.010412 -0.631916 -0.000001 -1.165881 0.000000 0.000000
    25 -0.800319 -9.330124 -10.486943 -0.726008 0.255020 0.648663
    26 0.089929 -8.543162 0.000001 0.570471 -0.049153 0.181509
    27 -0.000001 -0.359713 0.000000 0.000000 0.000000 0.000000
    28 -0.170479 -2.636147 -0.277655 -1.326477 0.000000 0.000000
    29 0.010598 -1.261177 0.000000 -0.687615 0.000000 0.000000
    30 -0.000001 -0.943233 -0.000001 -0.532326 0.000000 0.000000
    31 -0.827564 -2.508973 -0.277657 -0.851729 0.000000 0.000000
    32 -0.000001 -1.292971 0.000000 -1.167601 0.000000 0.000000
    33 0.000000 -0.752465 0.000000 -0.445059 0.000000 0.000000
    34 0.444212 -2.561960 -0.277655 -1.570265 -0.041073 -0.026169
    35 0.021022 -1.208186 0.000000 -0.427606 0.000000 0.000000
    36 0.010596 -0.741866 -0.000001 -0.453786 0.000000 0.000000
    37 1.047445 -2.222820 -0.277655 -1.508123 -0.078971 -0.038609
    38 -0.000001 -0.996223 -0.000002 -0.623094 0.000000 0.000000
    39 -0.000001 -0.614690 0.000001 -0.523599 0.000000 0.000000
    40 -0.308255 -0.007814 0.307166 0.124627 -0.099943 -2.491818
    41 1.978378 0.019544 0.000000 -0.098060 -0.036791 0.192024
    42 0.982426 0.003186 0.000001 0.000000 0.000000 0.383988
  time 7
    0 7.606551 2.665641 -8.194058 -0.774287 -1.331381 0.567272
    1 0.000000 -8.563285 0.000000 0.347509 -0.125220 -0.169570
    2 -0.435133 -3.043624 0.895601 -1.247037 1.437608 -1.233843
    3 0.000000 2.000727 0.853750 0.000000 0.000000 0.000000
    4 0.021119 -3.993921 3.201528 0.000000 0.000000 0.000000
    5 0.021119 -2.845553 1.084931 0.000000 0.000000 0.000000
    6 0.021119 -4.827049 0.994863 0.000000 0.000000 0.000000
    7 0.021119 -5.547592 1.535272 0.000000 0.000000 0.000000
    8 0.021119 -9.375484 3.809488 0.000000 0.000000 0.000000
    9 -0.003480 -0.404829 0.000001 0.000000 0.000000 0.000000
    10 -0.519309 -2.501156 -0.278957 -1.404591 -0.161672 -0.219512
    11 -0.010598 -1.208185 0.000001 -0.740030 0.000000 0.000000
    12 0.000000 -0.763066 0.000000 -1.343903 0.000000 0.000000
    13 0.105981 -2.607135 -0.278957 -1.135143 -0.167988 -0.238861
    14 0.000000 -1.250579 -0.000001 -0.966912 0.000000 0.000000
    15 0.000000 -0.932634 0.000000 -1.431181 0.000000 0.000000
    16 0.763063 -2.490557 -0.278957 -0.388796 -0.041323 0.031656
    17 -0.012322 -1.280917 0.000000 -0.689389 0.000000 0.000000
    18 -0.001697 -0.749371 0.000000 -0.593412 0.000000 0.000000
    19 0.354566 0.016267 0.318133 0.271703 -0.487906 -0.927541
    20 1.887165 0.012877 0.000000 -0.271037 -0.142581 -0.874135
    21 1.001873 -0.000270 0.000000 0.000000 0.000000 -0.902335
    22 -1.123359 -2.195094 -0.278957 -1.253823 -0.147135 -0.327965
    23 0.010772 -0.963791 0.000000 -0.542804 0.000000 0.000000
    24 -0.010412 -0.631916 -0.000001 -1.165881 0.000000 0.000000
    25 -0.800319 -9.330124 -10.486943 -0.726008 0.255020 0.648663
    26 0.089929 -8.543162 0.000001 0.570471 -0.049153 0.181509
    27 -0.000001 -0.359713 0.000000 0.000000 0.000000 0.000000
    28 -0.170479 -2.636147 -0.277655 -1.326477 0.000000 0.000000
    29 0.010598 -1.261177 0.000000 -0.687615 0.000000 0.000000
    30 -0.000001 -0.943233 -0.000001 -0.532326 0.000000 0.000000
    31 -0.827564 -2.508973 -0.277657 -0.851729 0.000000 0.000000
    32 -0.000001 -1.292971 0.000000 -1.167601 0.000000 0.000000
    33 0.000000 -0.752465 0.000000 -0.445059 0.000000 0.000000
    34 0.444212 -2.561960 -0.277655 -1.570265 -0.041073 -0.026169
    35 0.021022 -1.208186 0.000000 -0.427606 0.000000 0.000000
    36 0.010596 -0.741866 -0.000001 -0.453786 0.000000 0.000000
    37 1.047445 -2.222820 -0.277655 -1.508123 -0.078971 -0.038609
    38 -0.000001 -0.996223 -0.000002 -0.623094 0.000000 0.000000
    39 -0.000001 -0.614690 0.000001 -0.523599 0.000000 0.000000
    40 -0.308255 -0.007814 0.307166 0.124627 -0.099943 -2.491818
    41 1.978378 0.019544 0.000000 -0.098060 -0.036791 0.192024
    42 0.982426 0.003186 0.000001 0.000000 0.000000 0.383988
  time 8
    0 7.606551 2.665641 -8.194058 -0.774287 -1.331381 0.567272
    1 0.000000 -8.563285 0.000000 0.347509 -0.125220 -0.169570
    2 -0.435133 -3.043624 0.895601 -1.247037 1.437608 -1.233843
    3 0.000000 2.000727 0.853750 0.000000 0.000000 0.000000
    4 0.021119 -3.993921 3.201528 0.000000 0.000000 0.000000
    5 0.021119 -2.845553 1.084931 0.000000 0.000000 0.000000
    6 0.021119 -4.827049 0.994863 0.000000 0.000000 0.000000
    7 0.021119 -5.547592 1.535272 0.000000 0.000000 0.000000
    8 0.021119 -9.375484 3.809488 0.000000 0.000000 0.000000
    9 -0.003480 -0.404829 0.000001 0.000000 0.000000 0.000000
    10 -0.519309 -2.501156 -0.278957 -1.404591 -0.161672 -0.219512
    11 -0.010598 -1.208185 0.000001 -0.740030 0.000000 0.000000
    12 0.000000 -0.763066 0.000000 -1.343903 0.000000 0.000000
    13 0.105981 -2.607135 -0.278957 -1.135143 -0.167988 -0.238861
    14 0.000000 -1.250579 -0.000001 -0.966912 0.000000 0.000000
    15 0.000000 -0.932634 0.000000 -1.431181 0.000000 0.000000
    16 0.763063 -2.490557 -0.278957 -0.388796 -0.041323 0.031656
    17 -0.012322 -1.280917 0.000000 -0.689389 0.000000 0.000000
    18 -0.001697 -0.749371 0.000000 -0.593412 0.000000 0.000000
    19 0.354566 0.016267 0.318133 0.271703 -0.487906 -0.927541
    20 1.887165 0.012877 0.000000 -0.271037 -0.142581 -0.874135
    21 1.001873 -0.000270 0.000000 0.000000 0.000000 -0.902335
    22 -1.123359 -2.195094 -0.278957 -1.253823 -0.147135 -0.327965
    23 0.010772 -0.963791 0.000000 -0.542804 0.000000 0.000000
    24 -0.010412 -0.631916 -0.000001 -1.165881 0.000000 0.000000
    25 -0.800319 -9.330124 -10.486943 -0.726008 0.255020 0.648663
    26 0.089929 -8.543162 0.000001 0.570471 -0.049153 0.181509
    27 -0.000001 -0.359713 0.000000 0.000000 0.000000 0.000000
    28 -0.170479 -2.636147 -0.277655 -1.326477 0.000000 0.000000
    29 0.010598 -1.261177 0.000000 -0.687615 0.000000 0.000000
    30 -0.000001 -0.943233 -0.000001 -0.532326 0.000000 0.000000
    31 -0.827564 -2.508973 -0.277657 -0.851729 0.000000 0.000000
    32 -0.000001 -1.292971 0.000000 -1.167601 0.000000 0.000000
    33 0.000000 -0.752465 0.000000 -0.445059 0.000000 0.000000
    34 0.444212 -2.561960 -0.277655 -1.570265 -0.041073 -0.026169
    35 0.021022 -1.208186 0.000000 -0.427606 0.000000 0.000000
    36 0.010596 -0.741866 -0.000001 -0.453786 0.000000 0.000000
    37 1.047445 -2.222820 -0.277655 -1.508123 -0.078971 -0.038609
    38 -0.000001 -0.996223 -0.000002 -0.623094 0.000000 0.000000
    39 -0.000001 -0.614690 0.000001 -0.523599 0.000000 0.000000
    40 -0.308255 -0.007814 0.307166 0.124627 -0.099943 -2.491818
    41 1.978378 0.019544 0.000000 -0.098060 -0.036791 0.192024
    42 0.982426 0.003186 0.000001 0.000000 0.000000 0.383988
end
