// Created by Crowbar 0.49.0.0

$modelname "weapons/tfa_cso/c_awp.mdl"

$Include "csonline_gmod.qci"

$bodygroup "weapon"
{
	studio "v_awp_f_awm_template"
}

$CDMaterials "models\weapons\tfa_cso\awp"

$attachment 0 "Bone50" 0 -22 0
//$attachment 1 "Bone50" 0 -4.5 0

$definebone "Bone01" "" 8.108126 5.368201 -6.444005 -76.282511 32.505444 -44.363380 0.000000 0.000000 -0.000000 -0.000000 0.000000 -0.000002
$definebone "Bone_Lefthand" "Bone01" 0.000000 -8.563282 -0.000002 -2.975886 -21.003315 20.913131 -0.000000 0.000000 0.000000 -0.000000 0.000003 -0.000003
$definebone "Bone02" "Bone_Lefthand" -0.365362 -3.150734 0.772148 82.368872 -58.694022 -71.450029 0.000000 0.000000 0.000000 -0.000000 0.000004 0.000002
$definebone "Bone03" "Bone02" -0.000000 2.038369 1.408873 -0.000000 0.000004 0.000002 0.000000 0.000000 0.000000 -0.000000 0.000004 0.000002
$definebone "Bone50" "Bone03" 0.000001 -2.240707 2.058079 -0.000000 0.000004 0.000002 0.000000 0.000000 0.000000 -0.000000 0.000004 0.000002
$definebone "Bone25" "Bone03" 0.000000 -2.855214 0.622003 -0.000000 0.000004 0.000002 0.000000 0.000000 0.000000 -0.000000 0.000004 0.000002
$definebone "Bone48" "Bone03" 0.000000 -5.238306 0.651979 -0.000000 0.000004 0.000002 0.000000 0.000000 0.000000 -0.000000 0.000004 0.000002
$definebone "Bone51" "Bone50" 0.000000 -0.974219 0.000000 -0.000000 0.000004 0.000002 0.000000 0.000000 0.000000 -0.000000 0.000004 0.000002

$sequence "idle1" {
	"v_awp_anims\idle1"
	fps 16
	loop
	activity "ACT_VM_IDLE" 1
	snap
}
$sequence "shoot1" {
	"v_awp_anims\shoot1"
	{ event 5001 0 "31" }
	{ event 5004 15 "AWP.BoltUp" }
	{ event 5004 19 "AWP.BoltPull" }
	{ event 5004 32 "AWP.BoltDown" }
	fps 35
	activity "ACT_VM_PRIMARYATTACK" 1
	snap
}
$sequence "shoot2" {
	"v_awp_anims\shoot2"
	{ event 5001 0 "31" }
	{ event 5004 15 "AWP.BoltUp" }
	{ event 5004 19 "AWP.BoltPull" }
	{ event 5004 32 "AWP.BoltDown" }
	fps 35
	activity "ACT_VM_PRIMARYATTACK" 2
	snap
}
$sequence "shoot3" {
	"v_awp_anims\shoot3"
	{ event 5001 0 "31" }
	{ event 5004 15 "AWP.BoltUp" }
	{ event 5004 19 "AWP.BoltPull" }
	{ event 5004 32 "AWP.BoltDown" }
	fps 35
	activity "ACT_VM_PRIMARYATTACK" 3
	snap
}
$sequence "reload" {
	"v_awp_anims\reload"
	{ event 5004 26 "AWP.ClipOut" }
	{ event 5004 53 "AWP.ClipIn" }
	fps 30
	activity "ACT_VM_RELOAD" 1
	snap
}
$sequence "draw" {
	"v_awp_anims\draw"
	fps 30
	activity "ACT_VM_DRAW" 1
	snap
}
