// Created by Crowbar 0.58

$modelname "weapons/tfa_cso/w_m60_v6.mdl"

$bodygroup "studio"
{
	studio "w_m60_W_NEXON_M60E4_reference"
}

$collisionmodel "w_m60_W_NEXON_M60E4_reference.smd"
{
	$mass 9
}

$CDMaterials "models\weapons\tfa_cso\m60_v6"

$attachment "0" "[CSO]M60E4-pws" -54.20 -1.60 0.00 rotate -0 0 -0

$sequence "idle" {
	"w_m60_anims\idle"
	fps 30
}
