// Created by Crowbar 0.34.0.0

$ModelName "weapons/tfa_cso/w_awpz.mdl"

$BodyGroup "studio"
{
	studio "v_zgun"
}

$collisionmodel "v_zgun.smd"
{
	$mass 9
}

$CDMaterials "models\weapons\tfa_cso\awpz"

$attachment "0" "root" 1.50 -23.20 -6.10 rotate -0 0 0

$Sequence "idle" {
	"anims\idle.smd"
	fps 30
}