version 1
nodes
  0 "root" -1
  1 "Bone01" 0
  2 "Bone_Lefthand" 1
  3 "Bone02" 2
  4 "Bone03" 3
  5 "Dummy01" 4
  6 "Bone24" 5
  7 "Bone16" 5
  8 "Bone26" 3
  9 "Bone34" 3
  10 "Bone_L_Upper" 1
  11 "Bone13" 2
  12 "Bone14" 11
  13 "Bone15" 12
  14 "Bone17" 2
  15 "Bone18" 14
  16 "Bone19" 15
  17 "Bone21" 2
  18 "Bone22" 17
  19 "Bone23" 18
  20 "Bone09" 2
  21 "Bone10" 20
  22 "Bone11" 21
  23 "Bone05" 2
  24 "Bone06" 23
  25 "Bone07" 24
  26 "Bone_Se_Hand-L" 2
  27 "Bone04" 0
  28 "Bone_Righthand" 27
  29 "Bone39" 28
  30 "Bone40" 29
  31 "Bone41" 30
  32 "Bone35" 28
  33 "Bone36" 32
  34 "Bone37" 33
  35 "Bone31" 28
  36 "Bone32" 35
  37 "Bone33" 36
  38 "Bone43" 28
  39 "Bone44" 38
  40 "Bone45" 39
  41 "Bone27" 28
  42 "Bone28" 41
  43 "Bone29" 42
  44 "Bone_Se_Hand-R" 28
  45 "Bone_R_Upper" 27
end
skeleton
  time 0
    0 -0.944278 1.225283 0.541027 0.000000 0.000000 0.000000
    1 8.871383 -0.069257 -9.908420 -1.571120 -1.330246 1.223350
    2 -0.071918 -8.498729 -0.104136 0.222371 0.090247 -0.233943
    3 3.509751 -0.490461 0.743484 -3.051446 0.124854 -1.547391
    4 -4.604834 1.953982 0.000000 0.000000 0.000000 3.141592
    5 -1.491883 -2.192085 0.000001 0.000000 0.000000 -1.570796
    6 21.233133 0.000000 0.000000 0.000000 0.000000 0.000000
    7 0.000000 0.000000 0.000000 0.000000 0.000000 0.000000
    8 0.500716 -0.717737 -0.772266 3.141592 0.000000 1.570796
    9 0.531071 0.362873 -0.818099 -1.570796 1.570796 0.000000
    10 1.257180 8.762585 -0.153713 -1.570562 0.002683 -1.566807
    11 -0.488518 -2.755602 -0.228260 -0.186042 0.005934 -0.083631
    12 0.039887 -1.479790 0.029854 -2.165419 0.000000 0.000001
    13 0.028786 -1.075731 -0.023109 -1.399409 0.000000 0.000000
    14 0.250027 -2.820665 -0.238396 0.157693 -0.039690 0.158514
    15 -0.049759 -1.680544 0.100479 -1.621060 0.000000 -0.000002
    16 -0.034142 -1.148312 0.084782 -1.785312 0.000000 0.000000
    17 0.957766 -2.746780 -0.090302 0.178344 -0.172344 0.119866
    18 -0.033420 -1.397129 -0.011257 -1.242568 0.000000 -0.000001
    19 -0.022360 -0.957436 0.018784 -0.915050 0.000000 0.000000
    20 -1.180681 -2.507217 -0.193859 0.253911 0.096048 -0.028880
    21 -0.024967 -1.123934 0.017597 -1.613439 0.000000 0.000001
    22 -0.020057 -0.890968 0.010090 -1.691466 0.000000 0.000000
    23 0.583510 -1.197277 0.185379 0.344397 -0.598165 -0.858627
    24 1.535927 0.010246 0.005009 -0.002964 -0.012979 -0.682275
    25 1.100771 0.004527 -0.010679 -0.016147 -0.001453 -1.484192
    26 0.120153 -0.050270 -0.054489 0.287569 3.110905 1.561085
    27 -0.462181 -8.461827 -10.962555 -2.106711 -5.209161 -1.482244
    28 0.096944 -8.450418 -0.009365 -0.475320 -1.489847 0.915488
    29 0.447953 -2.798986 -0.200443 -1.057474 -0.010396 0.265094
    30 -0.032909 -1.480204 0.004940 -1.401033 0.000000 0.000002
    31 -0.027022 -1.076920 -0.020210 0.145969 0.000000 0.000000
    32 -0.249534 -2.846964 -0.174213 -0.654839 -0.000125 -0.008396
    33 0.043235 -1.683941 0.096012 -1.586065 0.002823 -0.000167
    34 0.031729 -1.160830 0.058838 0.081838 0.000642 0.008372
    35 -0.963866 -2.785145 -0.085350 -0.345511 0.163139 -0.105950
    36 0.028479 -1.403067 0.006271 -0.848512 0.000000 0.000000
    37 0.021413 -0.957781 0.020046 -0.907761 0.000000 0.000000
    38 1.164475 -2.543940 -0.170330 -1.209812 -0.013294 0.477915
    39 0.024032 -1.129042 0.017807 -1.453003 0.000000 0.000001
    40 0.014898 -0.883989 -0.019848 0.128215 0.000000 0.000000
    41 -0.586770 -1.264477 0.200161 0.126017 -0.445585 -2.743539
    42 1.522835 0.058681 0.016848 0.001410 0.008985 0.342268
    43 1.117947 0.048424 -0.005766 -0.008105 -0.023868 0.383222
    44 -0.139399 -0.111698 0.014397 1.209113 0.256026 1.369783
    45 -1.393470 8.839177 -0.239433 1.580804 -0.005023 -1.566847
  time 1
    0 -0.944278 1.225283 0.541027 0.000000 0.000000 0.000000
    1 8.234645 0.368256 -9.838105 -1.571120 -1.330246 1.223350
    2 -0.071918 -8.498729 -0.104136 0.240923 0.202962 -0.209642
    3 3.509751 -0.490461 0.743484 -3.051446 0.124854 -1.547391
    4 -4.604834 1.953982 0.000000 0.000000 0.000000 3.141592
    5 -1.491883 -2.192085 0.000001 0.000000 0.000000 -1.570796
    6 21.233133 0.000000 0.000000 0.000000 0.000000 0.000000
    7 0.000000 0.000000 0.000000 0.000000 0.000000 0.000000
    8 0.500716 -0.717737 -0.772266 3.141592 0.000000 1.570796
    9 0.531071 0.362873 -0.818099 -1.570796 1.570796 0.000000
    10 1.257180 8.762585 -0.153713 -1.570562 0.002683 -1.566807
    11 -0.488518 -2.755602 -0.228260 -0.186042 0.005934 -0.083631
    12 0.039887 -1.479790 0.029854 -2.165419 0.000000 0.000001
    13 0.028786 -1.075731 -0.023109 -1.399409 0.000000 0.000000
    14 0.250027 -2.820665 -0.238396 0.157693 -0.039690 0.158514
    15 -0.049759 -1.680544 0.100479 -1.621060 0.000000 -0.000002
    16 -0.034142 -1.148312 0.084782 -1.785312 0.000000 0.000000
    17 0.957766 -2.746780 -0.090302 0.178344 -0.172344 0.119866
    18 -0.033420 -1.397129 -0.011257 -1.242568 0.000000 -0.000001
    19 -0.022360 -0.957436 0.018784 -0.915050 0.000000 0.000000
    20 -1.180681 -2.507217 -0.193859 0.253911 0.096048 -0.028880
    21 -0.024967 -1.123934 0.017597 -1.613439 0.000000 0.000001
    22 -0.020057 -0.890968 0.010090 -1.691466 0.000000 0.000000
    23 0.583510 -1.197277 0.185379 0.344397 -0.598165 -0.858627
    24 1.535927 0.010246 0.005009 -0.002964 -0.012979 -0.682275
    25 1.100771 0.004527 -0.010679 -0.016147 -0.001453 -1.484192
    26 0.120153 -0.050270 -0.054489 0.287569 3.110905 1.561085
    27 -1.575496 -8.250883 -10.110967 0.790618 -4.236027 1.488279
    28 0.096944 -8.450418 -0.009365 -0.030351 -1.499638 0.479799
    29 0.447953 -2.798986 -0.200443 -1.057474 -0.010396 0.265094
    30 -0.032909 -1.480204 0.004940 -1.401033 0.000000 0.000002
    31 -0.027022 -1.076920 -0.020210 0.145969 0.000000 0.000000
    32 -0.249534 -2.846964 -0.174213 -0.654839 -0.000125 -0.008396
    33 0.043235 -1.683941 0.096012 -1.586065 0.002823 -0.000167
    34 0.031729 -1.160830 0.058838 0.081838 0.000642 0.008372
    35 -0.963866 -2.785145 -0.085350 -0.345511 0.163139 -0.105950
    36 0.028479 -1.403067 0.006271 -0.848512 0.000000 0.000000
    37 0.021413 -0.957781 0.020046 -0.907761 0.000000 0.000000
    38 1.164475 -2.543940 -0.170330 -1.209812 -0.013294 0.477915
    39 0.024032 -1.129042 0.017807 -1.453003 0.000000 0.000001
    40 0.014898 -0.883989 -0.019848 0.128215 0.000000 0.000000
    41 -0.586770 -1.264477 0.200161 0.126017 -0.445585 -2.743539
    42 1.522835 0.058681 0.016848 0.001410 0.008985 0.342268
    43 1.117947 0.048424 -0.005766 -0.008105 -0.023868 0.383222
    44 -0.139399 -0.111698 0.014397 1.209113 0.256026 1.369783
    45 -1.393470 8.839177 -0.239433 1.580804 -0.005023 -1.566847
  time 2
    0 -0.944278 1.225283 0.541027 0.000000 0.000000 0.000000
    1 8.383087 1.516729 -9.400592 -1.571120 -1.330246 1.223350
    2 -0.071918 -8.498729 -0.104136 0.223545 0.202554 -0.192929
    3 3.509751 -0.490461 0.743484 -3.051446 0.124854 -1.547391
    4 -4.604834 1.953982 0.000000 0.000000 0.000000 3.141592
    5 -1.491883 -2.192085 0.000001 0.000000 0.000000 -1.570796
    6 21.233133 0.000000 0.000000 0.000000 0.000000 0.000000
    7 0.000000 0.000000 0.000000 0.000000 0.000000 0.000000
    8 0.500716 -0.717737 -0.772266 6.252313 0.938825 4.649111
    9 -2.215107 0.362873 -0.818099 -1.570796 1.570796 0.000000
    10 1.257180 8.762585 -0.153713 -1.570562 0.002683 -1.566807
    11 -0.488518 -2.755602 -0.228260 -0.186042 0.005934 -0.083631
    12 0.039887 -1.479790 0.029854 -2.165419 0.000000 0.000001
    13 0.028786 -1.075731 -0.023109 -1.399409 0.000000 0.000000
    14 0.250027 -2.820665 -0.238396 0.157693 -0.039690 0.158514
    15 -0.049759 -1.680544 0.100479 -1.824412 0.021464 -0.015822
    16 -0.034142 -1.148312 0.084782 -1.785312 0.000000 0.000000
    17 0.957766 -2.746780 -0.090302 0.178344 -0.172344 0.119866
    18 -0.033420 -1.397129 -0.011257 -1.613537 0.039969 0.018347
    19 -0.022360 -0.957436 0.018784 -1.221249 -0.004866 0.035990
    20 -1.180681 -2.507217 -0.193859 0.253911 0.096048 -0.028880
    21 -0.024967 -1.123934 0.017597 -1.613439 0.000000 0.000001
    22 -0.020057 -0.890968 0.010090 -1.691466 0.000000 0.000000
    23 0.583510 -1.197277 0.185379 0.344397 -0.598165 -0.858627
    24 1.535927 0.010246 0.005009 -0.002964 -0.012979 -0.768545
    25 1.100771 0.004527 -0.010679 -0.015991 -0.002627 -1.557257
    26 0.120153 -0.050270 -0.054489 0.287569 3.110905 1.561085
    27 -1.403616 -6.985220 -9.622671 0.782634 -4.215306 1.457005
    28 0.096944 -8.450418 -0.009365 -0.152006 -1.498574 0.599203
    29 0.447953 -2.798986 -0.200443 -1.057474 -0.010396 0.265094
    30 -0.032909 -1.480204 0.004940 -1.401033 0.000000 0.000002
    31 -0.027022 -1.076920 -0.020210 0.145969 0.000000 0.000000
    32 -0.249534 -2.846964 -0.174213 -0.654839 -0.000125 -0.008396
    33 0.043235 -1.683941 0.096012 -1.586065 0.002823 -0.000167
    34 0.031729 -1.160830 0.058838 0.081838 0.000642 0.008372
    35 -0.963866 -2.785145 -0.085350 -0.345511 0.163139 -0.105950
    36 0.028479 -1.403067 0.006271 -0.848512 0.000000 0.000000
    37 0.021413 -0.957781 0.020046 -0.907761 0.000000 0.000000
    38 1.164475 -2.543940 -0.170330 -1.209812 -0.013294 0.477915
    39 0.024032 -1.129042 0.017807 -1.453003 0.000000 0.000001
    40 0.014898 -0.883989 -0.019848 0.128215 0.000000 0.000000
    41 -0.586770 -1.264477 0.200161 0.126017 -0.445585 -2.743539
    42 1.522835 0.058681 0.016848 0.001410 0.008985 0.438176
    43 1.117947 0.048424 -0.005766 -0.004653 -0.024767 0.241769
    44 -0.139399 -0.111698 0.014397 1.209113 0.256026 1.369783
    45 -1.393470 8.839177 -0.239433 1.580804 -0.005023 -1.566847
  time 3
    0 -0.944278 1.225283 0.541027 0.000000 0.000000 0.000000
    1 8.793255 1.419070 -9.420123 -1.571120 -1.330246 1.223350
    2 -0.071918 -8.498729 -0.104136 0.219566 0.090055 -0.217090
    3 3.509751 -0.490461 0.743484 -3.051446 0.124854 -1.547391
    4 -4.604834 1.953982 0.000000 0.000000 0.000000 3.141592
    5 -1.491883 -2.192085 0.000001 0.000000 0.000000 -1.570796
    6 21.233133 0.000000 0.000000 0.000000 0.000000 0.000000
    7 0.000000 0.000000 0.000000 0.000000 0.000000 0.000000
    8 0.500716 -0.717737 -0.772266 6.260654 0.844866 4.655535
    9 -2.215107 0.362873 -0.818099 -1.570796 1.570796 0.000000
    10 1.257180 8.762585 -0.153713 -1.570562 0.002683 -1.566807
    11 -0.488518 -2.755602 -0.228260 -0.186042 0.005934 -0.083631
    12 0.039887 -1.479790 0.029854 -2.165419 0.000000 0.000001
    13 0.028786 -1.075731 -0.023109 -1.399409 0.000000 0.000000
    14 0.250027 -2.820665 -0.238396 0.157693 -0.039690 0.158514
    15 -0.049759 -1.680544 0.100479 -1.824412 0.021464 -0.015822
    16 -0.034142 -1.148312 0.084782 -1.785312 0.000000 0.000000
    17 0.957766 -2.746780 -0.090302 0.178344 -0.172344 0.119866
    18 -0.033420 -1.397129 -0.011257 -1.613537 0.039969 0.018347
    19 -0.022360 -0.957436 0.018784 -1.221249 -0.004866 0.035990
    20 -1.180681 -2.507217 -0.193859 0.253911 0.096048 -0.028880
    21 -0.024967 -1.123934 0.017597 -1.613439 0.000000 0.000001
    22 -0.020057 -0.890968 0.010090 -1.691466 0.000000 0.000000
    23 0.583510 -1.197277 0.185379 0.344397 -0.598165 -0.858627
    24 1.535927 0.010246 0.005009 -0.002964 -0.012979 -0.768545
    25 1.100771 0.004527 -0.010679 -0.015991 -0.002627 -1.557257
    26 0.120153 -0.050270 -0.054489 0.287569 3.110905 1.561085
    27 -0.610623 -7.047722 -10.423476 -2.121577 -5.224678 -1.490229
    28 0.096944 -8.450418 -0.009365 -0.365484 -1.493934 0.808219
    29 0.447953 -2.798986 -0.200443 -1.057474 -0.010396 0.265094
    30 -0.032909 -1.480204 0.004940 -1.401033 0.000000 0.000002
    31 -0.027022 -1.076920 -0.020210 0.145969 0.000000 0.000000
    32 -0.249534 -2.846964 -0.174213 -0.654839 -0.000125 -0.008396
    33 0.043235 -1.683941 0.096012 -1.586065 0.002823 -0.000167
    34 0.031729 -1.160830 0.058838 0.081838 0.000642 0.008372
    35 -0.963866 -2.785145 -0.085350 -0.345511 0.163139 -0.105950
    36 0.028479 -1.403067 0.006271 -0.848512 0.000000 0.000000
    37 0.021413 -0.957781 0.020046 -0.907761 0.000000 0.000000
    38 1.164475 -2.543940 -0.170330 -1.209812 -0.013294 0.477915
    39 0.024032 -1.129042 0.017807 -1.453003 0.000000 0.000001
    40 0.014898 -0.883989 -0.019848 0.128215 0.000000 0.000000
    41 -0.586770 -1.264477 0.200161 0.126017 -0.445585 -2.743539
    42 1.522835 0.058681 0.016848 0.001410 0.008985 0.437810
    43 1.117947 0.048424 -0.005766 -0.004665 -0.024767 0.242306
    44 -0.139399 -0.111698 0.014397 1.209113 0.256026 1.369783
    45 -1.393470 8.839177 -0.239433 1.580804 -0.005023 -1.566847
  time 4
    0 -0.944278 1.225283 0.541027 0.000000 0.000000 0.000000
    1 9.101858 1.079216 -9.513876 -1.571120 -1.330246 1.223350
    2 -0.071918 -8.498729 -0.104136 0.221364 0.001069 -0.243174
    3 3.509751 -0.490461 0.743484 -3.051446 0.124854 -1.547391
    4 -4.604834 1.953982 0.000000 0.000000 0.000000 3.141592
    5 -1.491883 -2.192085 0.000001 0.000000 0.000000 -1.570796
    6 21.233133 0.000000 0.000000 0.000000 0.000000 0.000000
    7 0.000000 0.000000 0.000000 0.000000 0.000000 0.000000
    8 0.500716 -0.717737 -0.772266 6.252313 0.938825 4.649111
    9 -2.215107 0.362873 -0.818099 -1.570796 1.570796 0.000000
    10 1.257180 8.762585 -0.153713 -1.570562 0.002683 -1.566807
    11 -0.488518 -2.755602 -0.228260 -0.186042 0.005934 -0.083631
    12 0.039887 -1.479790 0.029854 -2.165419 0.000000 0.000001
    13 0.028786 -1.075731 -0.023109 -1.399409 0.000000 0.000000
    14 0.250027 -2.820665 -0.238396 0.157693 -0.039690 0.158514
    15 -0.049759 -1.680544 0.100479 -1.824412 0.021464 -0.015822
    16 -0.034142 -1.148312 0.084782 -1.785312 0.000000 0.000000
    17 0.957766 -2.746780 -0.090302 0.178344 -0.172344 0.119866
    18 -0.033420 -1.397129 -0.011257 -1.613537 0.039969 0.018347
    19 -0.022360 -0.957436 0.018784 -1.221249 -0.004866 0.035990
    20 -1.180681 -2.507217 -0.193859 0.253911 0.096048 -0.028880
    21 -0.024967 -1.123934 0.017597 -1.613439 0.000000 0.000001
    22 -0.020057 -0.890968 0.010090 -1.691466 0.000000 0.000000
    23 0.583510 -1.197277 0.185379 0.344397 -0.598165 -0.858627
    24 1.535927 0.010246 0.005009 -0.002964 -0.012979 -0.768545
    25 1.100771 0.004527 -0.010679 -0.015991 -0.002627 -1.557257
    26 0.120153 -0.050270 -0.054489 0.287569 3.110905 1.561085
    27 0.057366 -7.375857 -11.118810 -1.939232 -5.244737 -1.337183
    28 0.096944 -8.450418 -0.009365 -0.475320 -1.489847 0.915488
    29 0.447953 -2.798986 -0.200443 -1.057474 -0.010396 0.265094
    30 -0.032909 -1.480204 0.004940 -1.401033 0.000000 0.000002
    31 -0.027022 -1.076920 -0.020210 0.145969 0.000000 0.000000
    32 -0.249534 -2.846964 -0.174213 -0.654839 -0.000125 -0.008396
    33 0.043235 -1.683941 0.096012 -1.586065 0.002823 -0.000167
    34 0.031729 -1.160830 0.058838 0.081838 0.000642 0.008372
    35 -0.963866 -2.785145 -0.085350 -0.345511 0.163139 -0.105950
    36 0.028479 -1.403067 0.006271 -0.848512 0.000000 0.000000
    37 0.021413 -0.957781 0.020046 -0.907761 0.000000 0.000000
    38 1.164475 -2.543940 -0.170330 -1.209812 -0.013294 0.477915
    39 0.024032 -1.129042 0.017807 -1.453003 0.000000 0.000001
    40 0.014898 -0.883989 -0.019848 0.128215 0.000000 0.000000
    41 -0.586770 -1.264477 0.200161 0.126017 -0.445585 -2.743539
    42 1.522835 0.058681 0.016848 0.001410 0.008985 0.436774
    43 1.117947 0.048424 -0.005766 -0.004701 -0.024755 0.243829
    44 -0.139399 -0.111698 0.014397 1.209113 0.256026 1.369783
    45 -1.393470 8.839177 -0.239433 1.580804 -0.005023 -1.566847
  time 5
    0 -0.944278 1.225283 0.541027 0.000000 0.000000 0.000000
    1 9.097952 0.809676 -9.556846 -1.571120 -1.330246 1.223350
    2 -0.071918 -8.498729 -0.104136 0.221712 0.015726 -0.253926
    3 3.509751 -0.490461 0.743484 -3.051446 0.124854 -1.547391
    4 -4.604834 1.953982 0.000000 0.000000 0.000000 3.141592
    5 -1.491883 -2.192085 0.000001 0.000000 0.000000 -1.570796
    6 21.233133 0.000000 0.000000 0.000000 0.000000 0.000000
    7 0.000000 0.000000 0.000000 0.000000 0.000000 0.000000
    8 0.500716 -0.717737 -0.772266 6.257106 1.398745 4.658986
    9 -2.215107 0.362873 -0.818099 -1.570796 1.570796 0.000000
    10 1.257180 8.762585 -0.153713 -1.570562 0.002683 -1.566807
    11 -0.488518 -2.755602 -0.228260 -0.186042 0.005934 -0.083631
    12 0.039887 -1.479790 0.029854 -2.165419 0.000000 0.000001
    13 0.028786 -1.075731 -0.023109 -1.399409 0.000000 0.000000
    14 0.250027 -2.820665 -0.238396 0.157693 -0.039690 0.158514
    15 -0.049759 -1.680544 0.100479 -1.824412 0.021464 -0.015822
    16 -0.034142 -1.148312 0.084782 -1.785312 0.000000 0.000000
    17 0.957766 -2.746780 -0.090302 0.178344 -0.172344 0.119866
    18 -0.033420 -1.397129 -0.011257 -1.613537 0.039969 0.018347
    19 -0.022360 -0.957436 0.018784 -1.221249 -0.004866 0.035990
    20 -1.180681 -2.507217 -0.193859 0.253911 0.096048 -0.028880
    21 -0.024967 -1.123934 0.017597 -1.613439 0.000000 0.000001
    22 -0.020057 -0.890968 0.010090 -1.691466 0.000000 0.000000
    23 0.583510 -1.197277 0.185379 0.344397 -0.598165 -0.858627
    24 1.535927 0.010246 0.005009 -0.002964 -0.012979 -0.768545
    25 1.100771 0.004527 -0.010679 -0.015991 -0.002627 -1.557257
    26 0.120153 -0.050270 -0.054489 0.287569 3.110905 1.561085
    27 0.022209 -7.590707 -11.107091 -1.951988 -5.227611 -1.348685
    28 0.096944 -8.450418 -0.009365 -0.487309 -1.489294 0.927195
    29 0.447953 -2.798986 -0.200443 -1.057474 -0.010396 0.265094
    30 -0.032909 -1.480204 0.004940 -1.401033 0.000000 0.000002
    31 -0.027022 -1.076920 -0.020210 0.145969 0.000000 0.000000
    32 -0.249534 -2.846964 -0.174213 -0.654839 -0.000125 -0.008396
    33 0.043235 -1.683941 0.096012 -1.586065 0.002823 -0.000167
    34 0.031729 -1.160830 0.058838 0.081838 0.000642 0.008372
    35 -0.963866 -2.785145 -0.085350 -0.345511 0.163139 -0.105950
    36 0.028479 -1.403067 0.006271 -0.848512 0.000000 0.000000
    37 0.021413 -0.957781 0.020046 -0.907761 0.000000 0.000000
    38 1.164475 -2.543940 -0.170330 -1.209812 -0.013294 0.477915
    39 0.024032 -1.129042 0.017807 -1.453003 0.000000 0.000001
    40 0.014898 -0.883989 -0.019848 0.128215 0.000000 0.000000
    41 -0.586770 -1.264477 0.200161 0.126017 -0.445585 -2.743539
    42 1.522835 0.058681 0.016848 0.001410 0.008985 0.435127
    43 1.117947 0.048424 -0.005766 -0.004761 -0.024743 0.246293
    44 -0.139399 -0.111698 0.014397 1.209113 0.256026 1.369783
    45 -1.393470 8.839177 -0.239433 1.580804 -0.005023 -1.566847
  time 6
    0 -0.944278 1.225283 0.541027 0.000000 0.000000 0.000000
    1 8.972948 0.528417 -9.599816 -1.571120 -1.330246 1.223350
    2 -0.071918 -8.498729 -0.104136 0.221340 0.066146 -0.260447
    3 3.509751 -0.490461 0.743484 -3.051446 0.124854 -1.547391
    4 -4.604834 1.953982 0.000000 0.000000 0.000000 3.141592
    5 -1.491883 -2.192085 0.000001 0.000000 0.000000 -1.570796
    6 21.233133 0.000000 0.000000 0.000000 0.000000 0.000000
    7 0.000000 0.000000 0.000000 0.000000 0.000000 0.000000
    8 0.500716 -0.717737 -0.772266 3.126252 0.998460 1.539254
    9 -1.785406 0.362873 -0.818099 -1.570796 1.570796 0.000000
    10 1.257180 8.762585 -0.153713 -1.570562 0.002683 -1.566807
    11 -0.488518 -2.755602 -0.228260 -0.186042 0.005934 -0.083631
    12 0.039887 -1.479790 0.029854 -2.165419 0.000000 0.000001
    13 0.028786 -1.075731 -0.023109 -1.399409 0.000000 0.000000
    14 0.250027 -2.820665 -0.238396 0.157693 -0.039690 0.158514
    15 -0.049759 -1.680544 0.100479 -1.771731 0.015892 -0.011723
    16 -0.034142 -1.148312 0.084782 -1.785312 0.000000 0.000000
    17 0.957766 -2.746780 -0.090302 0.178344 -0.172344 0.119866
    18 -0.033420 -1.397129 -0.011257 -1.517380 0.029602 0.013590
    19 -0.022360 -0.957436 0.018784 -1.141839 -0.003607 0.026654
    20 -1.180681 -2.507217 -0.193859 0.253911 0.096048 -0.028880
    21 -0.024967 -1.123934 0.017597 -1.613439 0.000000 0.000001
    22 -0.020057 -0.890968 0.010090 -1.691466 0.000000 0.000000
    23 0.583510 -1.197277 0.185379 0.344397 -0.598165 -0.858627
    24 1.535927 0.010246 0.005009 -0.002964 -0.012979 -0.746167
    25 1.100771 0.004527 -0.010679 -0.016039 -0.002327 -1.538348
    26 0.120153 -0.050270 -0.054489 0.287569 3.110905 1.561085
    27 -0.247331 -7.793838 -10.868802 -2.035681 -5.196388 -1.422451
    28 0.096944 -8.450418 -0.009365 -0.497367 -1.488826 0.936957
    29 0.447953 -2.798986 -0.200443 -1.057474 -0.010396 0.265094
    30 -0.032909 -1.480204 0.004940 -1.401033 0.000000 0.000002
    31 -0.027022 -1.076920 -0.020210 0.145969 0.000000 0.000000
    32 -0.249534 -2.846964 -0.174213 -0.654839 -0.000125 -0.008396
    33 0.043235 -1.683941 0.096012 -1.586065 0.002823 -0.000167
    34 0.031729 -1.160830 0.058838 0.081838 0.000642 0.008372
    35 -0.963866 -2.785145 -0.085350 -0.345511 0.163139 -0.105950
    36 0.028479 -1.403067 0.006271 -0.848512 0.000000 0.000000
    37 0.021413 -0.957781 0.020046 -0.907761 0.000000 0.000000
    38 1.164475 -2.543940 -0.170330 -1.209812 -0.013294 0.477915
    39 0.024032 -1.129042 0.017807 -1.453003 0.000000 0.000001
    40 0.014898 -0.883989 -0.019848 0.128215 0.000000 0.000000
    41 -0.586770 -1.264477 0.200161 0.126017 -0.445585 -2.743539
    42 1.522835 0.058681 0.016848 0.001410 0.008985 0.432872
    43 1.117947 0.048424 -0.005766 -0.004845 -0.024719 0.249607
    44 -0.139399 -0.111698 0.014397 1.209113 0.256026 1.369783
    45 -1.393470 8.839177 -0.239433 1.580804 -0.005023 -1.566847
  time 7
    0 -0.944278 1.225283 0.541027 0.000000 0.000000 0.000000
    1 8.871383 0.278410 -9.642787 -1.571120 -1.330246 1.223350
    2 -0.071918 -8.498729 -0.104136 0.220621 0.101117 -0.270185
    3 3.509751 -0.490461 0.743484 -3.051446 0.124854 -1.547391
    4 -4.604834 1.953982 0.000000 0.000000 0.000000 3.141592
    5 -1.491883 -2.192085 0.000001 0.000000 0.000000 -1.570796
    6 21.233133 0.000000 0.000000 0.000000 0.000000 0.000000
    7 0.000000 0.000000 0.000000 0.000000 0.000000 0.000000
    8 0.500716 -0.717737 -0.772266 3.136798 0.305559 1.560921
    9 -0.840065 0.362873 -0.818099 -1.570796 1.570796 0.000000
    10 1.257180 8.762585 -0.153713 -1.570562 0.002683 -1.566807
    11 -0.488518 -2.755602 -0.228260 -0.186042 0.005934 -0.083631
    12 0.039887 -1.479790 0.029854 -2.165419 0.000000 0.000001
    13 0.028786 -1.075731 -0.023109 -1.399409 0.000000 0.000000
    14 0.250027 -2.820665 -0.238396 0.157693 -0.039690 0.158514
    15 -0.049759 -1.680544 0.100479 -1.673797 0.005561 -0.004101
    16 -0.034142 -1.148312 0.084782 -1.785312 0.000000 0.000000
    17 0.957766 -2.746780 -0.090302 0.178344 -0.172344 0.119866
    18 -0.033420 -1.397129 -0.011257 -1.338725 0.010355 0.004757
    19 -0.022360 -0.957436 0.018784 -0.994423 -0.001258 0.009324
    20 -1.180681 -2.507217 -0.193859 0.253911 0.096048 -0.028880
    21 -0.024967 -1.123934 0.017597 -1.613439 0.000000 0.000001
    22 -0.020057 -0.890968 0.010090 -1.691466 0.000000 0.000000
    23 0.583510 -1.197277 0.185379 0.344397 -0.598165 -0.858627
    24 1.535927 0.010246 0.005009 -0.002964 -0.012979 -0.704629
    25 1.100771 0.004527 -0.010679 -0.016111 -0.001764 -1.503149
    26 0.120153 -0.050270 -0.054489 0.287569 3.110905 1.561085
    27 -0.438743 -7.973531 -10.728173 -2.094781 -5.171882 -1.475590
    28 0.096944 -8.450418 -0.009365 -0.505549 -1.488443 0.944931
    29 0.447953 -2.798986 -0.200443 -1.057474 -0.010396 0.265094
    30 -0.032909 -1.480204 0.004940 -1.401033 0.000000 0.000002
    31 -0.027022 -1.076920 -0.020210 0.145969 0.000000 0.000000
    32 -0.249534 -2.846964 -0.174213 -0.654839 -0.000125 -0.008396
    33 0.043235 -1.683941 0.096012 -1.586065 0.002823 -0.000167
    34 0.031729 -1.160830 0.058838 0.081838 0.000642 0.008372
    35 -0.963866 -2.785145 -0.085350 -0.345511 0.163139 -0.105950
    36 0.028479 -1.403067 0.006271 -0.848512 0.000000 0.000000
    37 0.021413 -0.957781 0.020046 -0.907761 0.000000 0.000000
    38 1.164475 -2.543940 -0.170330 -1.209812 -0.013294 0.477915
    39 0.024032 -1.129042 0.017807 -1.453003 0.000000 0.000001
    40 0.014898 -0.883989 -0.019848 0.128215 0.000000 0.000000
    41 -0.586770 -1.264477 0.200161 0.126017 -0.445585 -2.743539
    42 1.522835 0.058681 0.016848 0.001410 0.008985 0.430097
    43 1.117947 0.048424 -0.005766 -0.004941 -0.024695 0.253683
    44 -0.139399 -0.111698 0.014397 1.209113 0.256026 1.369783
    45 -1.393470 8.839177 -0.239433 1.580804 -0.005023 -1.566847
  time 8
    0 -0.944278 1.225283 0.541027 0.000000 0.000000 0.000000
    1 8.844038 0.094811 -9.681850 -1.571120 -1.330246 1.223350
    2 -0.071918 -8.498729 -0.104136 0.219782 0.096575 -0.291269
    3 3.509751 -0.490461 0.743484 -3.051446 0.124854 -1.547391
    4 -4.604834 1.953982 0.000000 0.000000 0.000000 3.141592
    5 -1.491883 -2.192085 0.000001 0.000000 0.000000 -1.570796
    6 21.233133 0.000000 0.000000 0.000000 0.000000 0.000000
    7 0.000000 0.000000 0.000000 0.000000 0.000000 0.000000
    8 0.500716 -0.717737 -0.772266 3.141592 0.000000 1.570796
    9 0.105277 0.362873 -0.818099 -1.570796 1.570796 0.000000
    10 1.257180 8.762585 -0.153713 -1.570562 0.002683 -1.566807
    11 -0.488518 -2.755602 -0.228260 -0.186042 0.005934 -0.083631
    12 0.039887 -1.479790 0.029854 -2.165419 0.000000 0.000001
    13 0.028786 -1.075731 -0.023109 -1.399409 0.000000 0.000000
    14 0.250027 -2.820665 -0.238396 0.157693 -0.039690 0.158514
    15 -0.049759 -1.680544 0.100479 -1.621060 0.000000 -0.000002
    16 -0.034142 -1.148312 0.084782 -1.785312 0.000000 0.000000
    17 0.957766 -2.746780 -0.090302 0.178344 -0.172344 0.119866
    18 -0.033420 -1.397129 -0.011257 -1.242568 0.000000 -0.000001
    19 -0.022360 -0.957436 0.018784 -0.915050 0.000000 0.000000
    20 -1.180681 -2.507217 -0.193859 0.253911 0.096048 -0.028880
    21 -0.024967 -1.123934 0.017597 -1.613439 0.000000 0.000001
    22 -0.020057 -0.890968 0.010090 -1.691466 0.000000 0.000000
    23 0.583510 -1.197277 0.185379 0.344397 -0.598165 -0.858627
    24 1.535927 0.010246 0.005009 -0.002964 -0.012979 -0.682275
    25 1.100771 0.004527 -0.010679 -0.016147 -0.001453 -1.484192
    26 0.120153 -0.050270 -0.054489 0.287569 3.110905 1.561085
    27 -0.430930 -8.090722 -10.849271 -2.064313 -5.154946 -1.449638
    28 0.096944 -8.450418 -0.009365 -0.512027 -1.488145 0.951270
    29 0.447953 -2.798986 -0.200443 -1.057474 -0.010396 0.265094
    30 -0.032909 -1.480204 0.004940 -1.401033 0.000000 0.000002
    31 -0.027022 -1.076920 -0.020210 0.145969 0.000000 0.000000
    32 -0.249534 -2.846964 -0.174213 -0.654839 -0.000125 -0.008396
    33 0.043235 -1.683941 0.096012 -1.586065 0.002823 -0.000167
    34 0.031729 -1.160830 0.058838 0.081838 0.000642 0.008372
    35 -0.963866 -2.785145 -0.085350 -0.345511 0.163139 -0.105950
    36 0.028479 -1.403067 0.006271 -0.848512 0.000000 0.000000
    37 0.021413 -0.957781 0.020046 -0.907761 0.000000 0.000000
    38 1.164475 -2.543940 -0.170330 -1.209812 -0.013294 0.477915
    39 0.024032 -1.129042 0.017807 -1.453003 0.000000 0.000001
    40 0.014898 -0.883989 -0.019848 0.128215 0.000000 0.000000
    41 -0.586770 -1.264477 0.200161 0.126017 -0.445585 -2.743539
    42 1.522835 0.058681 0.016848 0.001410 0.008985 0.426866
    43 1.117947 0.048424 -0.005766 -0.005061 -0.024659 0.258476
    44 -0.139399 -0.111698 0.014397 1.209113 0.256026 1.369783
    45 -1.393470 8.839177 -0.239433 1.580804 -0.005023 -1.566847
  time 9
    0 -0.944278 1.225283 0.541027 0.000000 0.000000 0.000000
    1 8.832319 -0.057538 -9.728727 -1.571120 -1.330246 1.223350
    2 -0.071918 -8.498729 -0.104136 0.219447 0.076596 -0.315483
    3 3.509751 -0.490461 0.743484 -3.051446 0.124854 -1.547391
    4 -4.604834 1.953982 0.000000 0.000000 0.000000 3.141592
    5 -1.491883 -2.192085 0.000001 0.000000 0.000000 -1.570796
    6 21.233133 0.000000 0.000000 0.000000 0.000000 0.000000
    7 0.000000 0.000000 0.000000 0.000000 0.000000 0.000000
    8 0.500716 -0.717737 -0.772266 3.141592 0.000000 1.570796
    9 0.531071 0.362873 -0.818099 -1.570796 1.570796 0.000000
    10 1.257180 8.762585 -0.153713 -1.570562 0.002683 -1.566807
    11 -0.488518 -2.755602 -0.228260 -0.186042 0.005934 -0.083631
    12 0.039887 -1.479790 0.029854 -2.165419 0.000000 0.000001
    13 0.028786 -1.075731 -0.023109 -1.399409 0.000000 0.000000
    14 0.250027 -2.820665 -0.238396 0.157693 -0.039690 0.158514
    15 -0.049759 -1.680544 0.100479 -1.621060 0.000000 -0.000002
    16 -0.034142 -1.148312 0.084782 -1.785312 0.000000 0.000000
    17 0.957766 -2.746780 -0.090302 0.178344 -0.172344 0.119866
    18 -0.033420 -1.397129 -0.011257 -1.242568 0.000000 -0.000001
    19 -0.022360 -0.957436 0.018784 -0.915050 0.000000 0.000000
    20 -1.180681 -2.507217 -0.193859 0.253911 0.096048 -0.028880
    21 -0.024967 -1.123934 0.017597 -1.613439 0.000000 0.000001
    22 -0.020057 -0.890968 0.010090 -1.691466 0.000000 0.000000
    23 0.583510 -1.197277 0.185379 0.344397 -0.598165 -0.858627
    24 1.535927 0.010246 0.005009 -0.002964 -0.012979 -0.682275
    25 1.100771 0.004527 -0.010679 -0.016147 -0.001453 -1.484192
    26 0.120153 -0.050270 -0.054489 0.287569 3.110905 1.561085
    27 -0.352803 -8.180569 -11.075840 -1.995578 -5.143308 -1.389370
    28 0.096944 -8.450418 -0.009365 -0.517027 -1.487889 0.956132
    29 0.447953 -2.798986 -0.200443 -1.057474 -0.010396 0.265094
    30 -0.032909 -1.480204 0.004940 -1.401033 0.000000 0.000002
    31 -0.027022 -1.076920 -0.020210 0.145969 0.000000 0.000000
    32 -0.249534 -2.846964 -0.174213 -0.654839 -0.000125 -0.008396
    33 0.043235 -1.683941 0.096012 -1.586065 0.002823 -0.000167
    34 0.031729 -1.160830 0.058838 0.081838 0.000642 0.008372
    35 -0.963866 -2.785145 -0.085350 -0.345511 0.163139 -0.105950
    36 0.028479 -1.403067 0.006271 -0.848512 0.000000 0.000000
    37 0.021413 -0.957781 0.020046 -0.907761 0.000000 0.000000
    38 1.164475 -2.543940 -0.170330 -1.209812 -0.013294 0.477915
    39 0.024032 -1.129042 0.017807 -1.453003 0.000000 0.000001
    40 0.014898 -0.883989 -0.019848 0.128215 0.000000 0.000000
    41 -0.586770 -1.264477 0.200161 0.126017 -0.445585 -2.743539
    42 1.522835 0.058681 0.016848 0.001410 0.008985 0.423208
    43 1.117947 0.048424 -0.005766 -0.005193 -0.024635 0.263896
    44 -0.139399 -0.111698 0.014397 1.209113 0.256026 1.369783
    45 -1.393470 8.839177 -0.239433 1.580804 -0.005023 -1.566847
  time 10
    0 -0.944278 1.225283 0.541027 0.000000 0.000000 0.000000
    1 8.812787 -0.198167 -9.806854 -1.571120 -1.330246 1.223350
    2 -0.071918 -8.498729 -0.104136 0.219854 0.062287 -0.325710
    3 3.509751 -0.490461 0.743484 -3.051446 0.124854 -1.547391
    4 -4.604834 1.953982 0.000000 0.000000 0.000000 3.141592
    5 -1.491883 -2.192085 0.000001 0.000000 0.000000 -1.570796
    6 21.233133 0.000000 0.000000 0.000000 0.000000 0.000000
    7 0.000000 0.000000 0.000000 0.000000 0.000000 0.000000
    8 0.500716 -0.717737 -0.772266 3.141592 0.000000 1.570796
    9 0.531071 0.362873 -0.818099 -1.570796 1.570796 0.000000
    10 1.257180 8.762585 -0.153713 -1.570562 0.002683 -1.566807
    11 -0.488518 -2.755602 -0.228260 -0.186042 0.005934 -0.083631
    12 0.039887 -1.479790 0.029854 -2.165419 0.000000 0.000001
    13 0.028786 -1.075731 -0.023109 -1.399409 0.000000 0.000000
    14 0.250027 -2.820665 -0.238396 0.157693 -0.039690 0.158514
    15 -0.049759 -1.680544 0.100479 -1.621060 0.000000 -0.000002
    16 -0.034142 -1.148312 0.084782 -1.785312 0.000000 0.000000
    17 0.957766 -2.746780 -0.090302 0.178344 -0.172344 0.119866
    18 -0.033420 -1.397129 -0.011257 -1.242568 0.000000 -0.000001
    19 -0.022360 -0.957436 0.018784 -0.915050 0.000000 0.000000
    20 -1.180681 -2.507217 -0.193859 0.253911 0.096048 -0.028880
    21 -0.024967 -1.123934 0.017597 -1.613439 0.000000 0.000001
    22 -0.020057 -0.890968 0.010090 -1.691466 0.000000 0.000000
    23 0.583510 -1.197277 0.185379 0.344397 -0.598165 -0.858627
    24 1.535927 0.010246 0.005009 -0.002964 -0.012979 -0.682275
    25 1.100771 0.004527 -0.010679 -0.016147 -0.001453 -1.484192
    26 0.120153 -0.050270 -0.054489 0.287569 3.110905 1.561085
    27 -0.309833 -8.301666 -11.267252 -1.953548 -5.141983 -1.352202
    28 0.096944 -8.450418 -0.009365 -0.520607 -1.487719 0.959632
    29 0.447953 -2.798986 -0.200443 -1.057474 -0.010396 0.265094
    30 -0.032909 -1.480204 0.004940 -1.401033 0.000000 0.000002
    31 -0.027022 -1.076920 -0.020210 0.145969 0.000000 0.000000
    32 -0.249534 -2.846964 -0.174213 -0.654839 -0.000125 -0.008396
    33 0.043235 -1.683941 0.096012 -1.586065 0.002823 -0.000167
    34 0.031729 -1.160830 0.058838 0.081838 0.000642 0.008372
    35 -0.963866 -2.785145 -0.085350 -0.345511 0.163139 -0.105950
    36 0.028479 -1.403067 0.006271 -0.848512 0.000000 0.000000
    37 0.021413 -0.957781 0.020046 -0.907761 0.000000 0.000000
    38 1.164475 -2.543940 -0.170330 -1.209812 -0.013294 0.477915
    39 0.024032 -1.129042 0.017807 -1.453003 0.000000 0.000001
    40 0.014898 -0.883989 -0.019848 0.128215 0.000000 0.000000
    41 -0.586770 -1.264477 0.200161 0.126017 -0.445585 -2.743539
    42 1.522835 0.058681 0.016848 0.001410 0.008985 0.419153
    43 1.117947 0.048424 -0.005766 -0.005336 -0.024587 0.269808
    44 -0.139399 -0.111698 0.014397 1.209113 0.256026 1.369783
    45 -1.393470 8.839177 -0.239433 1.580804 -0.005023 -1.566847
  time 11
    0 -0.944278 1.225283 0.541027 0.000000 0.000000 0.000000
    1 8.773723 -0.366141 -9.955296 -1.571120 -1.330246 1.223350
    2 -0.071918 -8.498729 -0.104136 0.220729 0.062646 -0.310640
    3 3.509751 -0.490461 0.743484 -3.051446 0.124854 -1.547391
    4 -4.604834 1.953982 0.000000 0.000000 0.000000 3.141592
    5 -1.491883 -2.192085 0.000001 0.000000 0.000000 -1.570796
    6 21.233133 0.000000 0.000000 0.000000 0.000000 0.000000
    7 0.000000 0.000000 0.000000 0.000000 0.000000 0.000000
    8 0.500716 -0.717737 -0.772266 3.141592 0.000000 1.570796
    9 0.531071 0.362873 -0.818099 -1.570796 1.570796 0.000000
    10 1.257180 8.762585 -0.153713 -1.570562 0.002683 -1.566807
    11 -0.488518 -2.755602 -0.228260 -0.186042 0.005934 -0.083631
    12 0.039887 -1.479790 0.029854 -2.165419 0.000000 0.000001
    13 0.028786 -1.075731 -0.023109 -1.399409 0.000000 0.000000
    14 0.250027 -2.820665 -0.238396 0.157693 -0.039690 0.158514
    15 -0.049759 -1.680544 0.100479 -1.621060 0.000000 -0.000002
    16 -0.034142 -1.148312 0.084782 -1.785312 0.000000 0.000000
    17 0.957766 -2.746780 -0.090302 0.178344 -0.172344 0.119866
    18 -0.033420 -1.397129 -0.011257 -1.242568 0.000000 -0.000001
    19 -0.022360 -0.957436 0.018784 -0.915050 0.000000 0.000000
    20 -1.180681 -2.507217 -0.193859 0.253911 0.096048 -0.028880
    21 -0.024967 -1.123934 0.017597 -1.613439 0.000000 0.000001
    22 -0.020057 -0.890968 0.010090 -1.691466 0.000000 0.000000
    23 0.583510 -1.197277 0.185379 0.344397 -0.598165 -0.858627
    24 1.535927 0.010246 0.005009 -0.002964 -0.012979 -0.682275
    25 1.100771 0.004527 -0.010679 -0.016147 -0.001453 -1.484192
    26 0.120153 -0.050270 -0.054489 0.287569 3.110905 1.561085
    27 -0.368428 -8.520423 -11.380537 -1.973003 -5.154567 -1.369123
    28 0.096944 -8.450418 -0.009365 -0.522936 -1.487591 0.961888
    29 0.447953 -2.798986 -0.200443 -1.057474 -0.010396 0.265094
    30 -0.032909 -1.480204 0.004940 -1.401033 0.000000 0.000002
    31 -0.027022 -1.076920 -0.020210 0.145969 0.000000 0.000000
    32 -0.249534 -2.846964 -0.174213 -0.654839 -0.000125 -0.008396
    33 0.043235 -1.683941 0.096012 -1.586065 0.002823 -0.000167
    34 0.031729 -1.160830 0.058838 0.081838 0.000642 0.008372
    35 -0.963866 -2.785145 -0.085350 -0.345511 0.163139 -0.105950
    36 0.028479 -1.403067 0.006271 -0.848512 0.000000 0.000000
    37 0.021413 -0.957781 0.020046 -0.907761 0.000000 0.000000
    38 1.164475 -2.543940 -0.170330 -1.209812 -0.013294 0.477915
    39 0.024032 -1.129042 0.017807 -1.453003 0.000000 0.000001
    40 0.014898 -0.883989 -0.019848 0.128215 0.000000 0.000000
    41 -0.586770 -1.264477 0.200161 0.126017 -0.445585 -2.743539
    42 1.522835 0.058681 0.016848 0.001410 0.008985 0.414824
    43 1.117947 0.048424 -0.005766 -0.005492 -0.024551 0.276214
    44 -0.139399 -0.111698 0.014397 1.209113 0.256026 1.369783
    45 -1.393470 8.839177 -0.239433 1.580804 -0.005023 -1.566847
  time 12
    0 -0.944278 1.225283 0.541027 0.000000 0.000000 0.000000
    1 8.722941 -0.526302 -10.146708 -1.571120 -1.330246 1.223350
    2 -0.071918 -8.498729 -0.104136 0.222059 0.068662 -0.281601
    3 3.509751 -0.490461 0.743484 -3.051446 0.124854 -1.547391
    4 -4.604834 1.953982 0.000000 0.000000 0.000000 3.141592
    5 -1.491883 -2.192085 0.000001 0.000000 0.000000 -1.570796
    6 21.233133 0.000000 0.000000 0.000000 0.000000 0.000000
    7 0.000000 0.000000 0.000000 0.000000 0.000000 0.000000
    8 0.500716 -0.717737 -0.772266 3.141592 0.000000 1.570796
    9 0.531071 0.362873 -0.818099 -1.570796 1.570796 0.000000
    10 1.257180 8.762585 -0.153713 -1.570562 0.002683 -1.566807
    11 -0.488518 -2.755602 -0.228260 -0.186042 0.005934 -0.083631
    12 0.039887 -1.479790 0.029854 -2.165419 0.000000 0.000001
    13 0.028786 -1.075731 -0.023109 -1.399409 0.000000 0.000000
    14 0.250027 -2.820665 -0.238396 0.157693 -0.039690 0.158514
    15 -0.049759 -1.680544 0.100479 -1.621060 0.000000 -0.000002
    16 -0.034142 -1.148312 0.084782 -1.785312 0.000000 0.000000
    17 0.957766 -2.746780 -0.090302 0.178344 -0.172344 0.119866
    18 -0.033420 -1.397129 -0.011257 -1.242568 0.000000 -0.000001
    19 -0.022360 -0.957436 0.018784 -0.915050 0.000000 0.000000
    20 -1.180681 -2.507217 -0.193859 0.253911 0.096048 -0.028880
    21 -0.024967 -1.123934 0.017597 -1.613439 0.000000 0.000001
    22 -0.020057 -0.890968 0.010090 -1.691466 0.000000 0.000000
    23 0.583510 -1.197277 0.185379 0.344397 -0.598165 -0.858627
    24 1.535927 0.010246 0.005009 -0.002964 -0.012979 -0.682275
    25 1.100771 0.004527 -0.010679 -0.016147 -0.001453 -1.484192
    26 0.120153 -0.050270 -0.054489 0.287569 3.110905 1.561085
    27 -0.466087 -8.774337 -11.458664 -2.018062 -5.176518 -1.408097
    28 0.096944 -8.450418 -0.009365 -0.524129 -1.487549 0.963055
    29 0.447953 -2.798986 -0.200443 -1.057474 -0.010396 0.265094
    30 -0.032909 -1.480204 0.004940 -1.401033 0.000000 0.000002
    31 -0.027022 -1.076920 -0.020210 0.145969 0.000000 0.000000
    32 -0.249534 -2.846964 -0.174213 -0.654839 -0.000125 -0.008396
    33 0.043235 -1.683941 0.096012 -1.586065 0.002823 -0.000167
    34 0.031729 -1.160830 0.058838 0.081838 0.000642 0.008372
    35 -0.963866 -2.785145 -0.085350 -0.345511 0.163139 -0.105950
    36 0.028479 -1.403067 0.006271 -0.848512 0.000000 0.000000
    37 0.021413 -0.957781 0.020046 -0.907761 0.000000 0.000000
    38 1.164475 -2.543940 -0.170330 -1.209812 -0.013294 0.477915
    39 0.024032 -1.129042 0.017807 -1.453003 0.000000 0.000001
    40 0.014898 -0.883989 -0.019848 0.128215 0.000000 0.000000
    41 -0.586770 -1.264477 0.200161 0.126017 -0.445585 -2.743539
    42 1.522835 0.058681 0.016848 0.001410 0.008985 0.410221
    43 1.117947 0.048424 -0.005766 -0.005660 -0.024503 0.283022
    44 -0.139399 -0.111698 0.014397 1.209113 0.256026 1.369783
    45 -1.393470 8.839177 -0.239433 1.580804 -0.005023 -1.566847
  time 13
    0 -0.944278 1.225283 0.541027 0.000000 0.000000 0.000000
    1 8.687783 -0.631774 -10.283431 -1.571120 -1.330246 1.223350
    2 -0.071918 -8.498729 -0.104136 0.223401 0.074475 -0.255622
    3 3.509751 -0.490461 0.743484 -3.051446 0.124854 -1.547391
    4 -4.604834 1.953982 0.000000 0.000000 0.000000 3.141592
    5 -1.491883 -2.192085 0.000001 0.000000 0.000000 -1.570796
    6 21.233133 0.000000 0.000000 0.000000 0.000000 0.000000
    7 0.000000 0.000000 0.000000 0.000000 0.000000 0.000000
    8 0.500716 -0.717737 -0.772266 3.141592 0.000000 1.570796
    9 0.531071 0.362873 -0.818099 -1.570796 1.570796 0.000000
    10 1.257180 8.762585 -0.153713 -1.570562 0.002683 -1.566807
    11 -0.488518 -2.755602 -0.228260 -0.186042 0.005934 -0.083631
    12 0.039887 -1.479790 0.029854 -2.165419 0.000000 0.000001
    13 0.028786 -1.075731 -0.023109 -1.399409 0.000000 0.000000
    14 0.250027 -2.820665 -0.238396 0.157693 -0.039690 0.158514
    15 -0.049759 -1.680544 0.100479 -1.621060 0.000000 -0.000002
    16 -0.034142 -1.148312 0.084782 -1.785312 0.000000 0.000000
    17 0.957766 -2.746780 -0.090302 0.178344 -0.172344 0.119866
    18 -0.033420 -1.397129 -0.011257 -1.242568 0.000000 -0.000001
    19 -0.022360 -0.957436 0.018784 -0.915050 0.000000 0.000000
    20 -1.180681 -2.507217 -0.193859 0.253911 0.096048 -0.028880
    21 -0.024967 -1.123934 0.017597 -1.613439 0.000000 0.000001
    22 -0.020057 -0.890968 0.010090 -1.691466 0.000000 0.000000
    23 0.583510 -1.197277 0.185379 0.344397 -0.598165 -0.858627
    24 1.535927 0.010246 0.005009 -0.002964 -0.012979 -0.682275
    25 1.100771 0.004527 -0.010679 -0.016147 -0.001453 -1.484192
    26 0.120153 -0.050270 -0.054489 0.287569 3.110905 1.561085
    27 -0.544215 -8.957936 -11.497728 -2.056146 -5.196577 -1.440417
    28 0.096944 -8.450418 -0.009365 -0.524300 -1.487549 0.963211
    29 0.447953 -2.798986 -0.200443 -1.057474 -0.010396 0.265094
    30 -0.032909 -1.480204 0.004940 -1.401033 0.000000 0.000002
    31 -0.027022 -1.076920 -0.020210 0.145969 0.000000 0.000000
    32 -0.249534 -2.846964 -0.174213 -0.654839 -0.000125 -0.008396
    33 0.043235 -1.683941 0.096012 -1.586065 0.002823 -0.000167
    34 0.031729 -1.160830 0.058838 0.081838 0.000642 0.008372
    35 -0.963866 -2.785145 -0.085350 -0.345511 0.163139 -0.105950
    36 0.028479 -1.403067 0.006271 -0.848512 0.000000 0.000000
    37 0.021413 -0.957781 0.020046 -0.907761 0.000000 0.000000
    38 1.164475 -2.543940 -0.170330 -1.209812 -0.013294 0.477915
    39 0.024032 -1.129042 0.017807 -1.453003 0.000000 0.000001
    40 0.014898 -0.883989 -0.019848 0.128215 0.000000 0.000000
    41 -0.586770 -1.264477 0.200161 0.126017 -0.445585 -2.743539
    42 1.522835 0.058681 0.016848 0.001410 0.008985 0.405404
    43 1.117947 0.048424 -0.005766 -0.005828 -0.024467 0.290099
    44 -0.139399 -0.111698 0.014397 1.209113 0.256026 1.369783
    45 -1.393470 8.839177 -0.239433 1.580804 -0.005023 -1.566847
  time 14
    0 -0.944278 1.225283 0.541027 0.000000 0.000000 0.000000
    1 8.691690 -0.584898 -10.295150 -1.571120 -1.330246 1.223350
    2 -0.071918 -8.498729 -0.104136 0.224492 0.077136 -0.240220
    3 3.509751 -0.490461 0.743484 -3.051446 0.124854 -1.547391
    4 -4.604834 1.953982 0.000000 0.000000 0.000000 3.141592
    5 -1.491883 -2.192085 0.000001 0.000000 0.000000 -1.570796
    6 21.233133 0.000000 0.000000 0.000000 0.000000 0.000000
    7 0.000000 0.000000 0.000000 0.000000 0.000000 0.000000
    8 0.500716 -0.717737 -0.772266 3.141592 0.000000 1.570796
    9 0.531071 0.362873 -0.818099 -1.570796 1.570796 0.000000
    10 1.257180 8.762585 -0.153713 -1.570562 0.002683 -1.566807
    11 -0.488518 -2.755602 -0.228260 -0.186042 0.005934 -0.083631
    12 0.039887 -1.479790 0.029854 -2.165419 0.000000 0.000001
    13 0.028786 -1.075731 -0.023109 -1.399409 0.000000 0.000000
    14 0.250027 -2.820665 -0.238396 0.157693 -0.039690 0.158514
    15 -0.049759 -1.680544 0.100479 -1.621060 0.000000 -0.000002
    16 -0.034142 -1.148312 0.084782 -1.785312 0.000000 0.000000
    17 0.957766 -2.746780 -0.090302 0.178344 -0.172344 0.119866
    18 -0.033420 -1.397129 -0.011257 -1.242568 0.000000 -0.000001
    19 -0.022360 -0.957436 0.018784 -0.915050 0.000000 0.000000
    20 -1.180681 -2.507217 -0.193859 0.253911 0.096048 -0.028880
    21 -0.024967 -1.123934 0.017597 -1.613439 0.000000 0.000001
    22 -0.020057 -0.890968 0.010090 -1.691466 0.000000 0.000000
    23 0.583510 -1.197277 0.185379 0.344397 -0.598165 -0.858627
    24 1.535927 0.010246 0.005009 -0.002964 -0.012979 -0.682275
    25 1.100771 0.004527 -0.010679 -0.016147 -0.001453 -1.484192
    26 0.120153 -0.050270 -0.054489 0.287569 3.110905 1.561085
    27 -0.563747 -8.961842 -11.446945 -2.075876 -5.208972 -1.456673
    28 0.096944 -8.450418 -0.009365 -0.523561 -1.487549 0.962472
    29 0.447953 -2.798986 -0.200443 -1.057474 -0.010396 0.265094
    30 -0.032909 -1.480204 0.004940 -1.401033 0.000000 0.000002
    31 -0.027022 -1.076920 -0.020210 0.145969 0.000000 0.000000
    32 -0.249534 -2.846964 -0.174213 -0.654839 -0.000125 -0.008396
    33 0.043235 -1.683941 0.096012 -1.586065 0.002823 -0.000167
    34 0.031729 -1.160830 0.058838 0.081838 0.000642 0.008372
    35 -0.963866 -2.785145 -0.085350 -0.345511 0.163139 -0.105950
    36 0.028479 -1.403067 0.006271 -0.848512 0.000000 0.000000
    37 0.021413 -0.957781 0.020046 -0.907761 0.000000 0.000000
    38 1.164475 -2.543940 -0.170330 -1.209812 -0.013294 0.477915
    39 0.024032 -1.129042 0.017807 -1.453003 0.000000 0.000001
    40 0.014898 -0.883989 -0.019848 0.128215 0.000000 0.000000
    41 -0.586770 -1.264477 0.200161 0.126017 -0.445585 -2.743539
    42 1.522835 0.058681 0.016848 0.001410 0.008985 0.400435
    43 1.117947 0.048424 -0.005766 -0.006008 -0.024419 0.297445
    44 -0.139399 -0.111698 0.014397 1.209113 0.256026 1.369783
    45 -1.393470 8.839177 -0.239433 1.580804 -0.005023 -1.566847
  time 15
    0 -0.944278 1.225283 0.541027 0.000000 0.000000 0.000000
    1 8.715128 -0.487239 -10.232648 -1.571120 -1.330246 1.223350
    2 -0.071918 -8.498729 -0.104136 0.225091 0.081174 -0.231828
    3 3.509751 -0.490461 0.743484 -3.051446 0.124854 -1.547391
    4 -4.604834 1.953982 0.000000 0.000000 0.000000 3.141592
    5 -1.491883 -2.192085 0.000001 0.000000 0.000000 -1.570796
    6 21.233133 0.000000 0.000000 0.000000 0.000000 0.000000
    7 0.000000 0.000000 0.000000 0.000000 0.000000 0.000000
    8 0.500716 -0.717737 -0.772266 3.141592 0.000000 1.570796
    9 0.531071 0.362873 -0.818099 -1.570796 1.570796 0.000000
    10 1.257180 8.762585 -0.153713 -1.570562 0.002683 -1.566807
    11 -0.488518 -2.755602 -0.228260 -0.186042 0.005934 -0.083631
    12 0.039887 -1.479790 0.029854 -2.165419 0.000000 0.000001
    13 0.028786 -1.075731 -0.023109 -1.399409 0.000000 0.000000
    14 0.250027 -2.820665 -0.238396 0.157693 -0.039690 0.158514
    15 -0.049759 -1.680544 0.100479 -1.621060 0.000000 -0.000002
    16 -0.034142 -1.148312 0.084782 -1.785312 0.000000 0.000000
    17 0.957766 -2.746780 -0.090302 0.178344 -0.172344 0.119866
    18 -0.033420 -1.397129 -0.011257 -1.242568 0.000000 -0.000001
    19 -0.022360 -0.957436 0.018784 -0.915050 0.000000 0.000000
    20 -1.180681 -2.507217 -0.193859 0.253911 0.096048 -0.028880
    21 -0.024967 -1.123934 0.017597 -1.613439 0.000000 0.000001
    22 -0.020057 -0.890968 0.010090 -1.691466 0.000000 0.000000
    23 0.583510 -1.197277 0.185379 0.344397 -0.598165 -0.858627
    24 1.535927 0.010246 0.005009 -0.002964 -0.012979 -0.682275
    25 1.100771 0.004527 -0.010679 -0.016147 -0.001453 -1.484192
    26 0.120153 -0.050270 -0.054489 0.287569 3.110905 1.561085
    27 -0.559840 -8.887621 -11.337567 -2.091110 -5.214744 -1.469411
    28 0.096944 -8.450418 -0.009365 -0.521970 -1.487634 0.960955
    29 0.447953 -2.798986 -0.200443 -1.057474 -0.010396 0.265094
    30 -0.032909 -1.480204 0.004940 -1.401033 0.000000 0.000002
    31 -0.027022 -1.076920 -0.020210 0.145969 0.000000 0.000000
    32 -0.249534 -2.846964 -0.174213 -0.654839 -0.000125 -0.008396
    33 0.043235 -1.683941 0.096012 -1.586065 0.002823 -0.000167
    34 0.031729 -1.160830 0.058838 0.081838 0.000642 0.008372
    35 -0.963866 -2.785145 -0.085350 -0.345511 0.163139 -0.105950
    36 0.028479 -1.403067 0.006271 -0.848512 0.000000 0.000000
    37 0.021413 -0.957781 0.020046 -0.907761 0.000000 0.000000
    38 1.164475 -2.543940 -0.170330 -1.209812 -0.013294 0.477915
    39 0.024032 -1.129042 0.017807 -1.453003 0.000000 0.000001
    40 0.014898 -0.883989 -0.019848 0.128215 0.000000 0.000000
    41 -0.586770 -1.264477 0.200161 0.126017 -0.445585 -2.743539
    42 1.522835 0.058681 0.016848 0.001410 0.008985 0.395344
    43 1.117947 0.048424 -0.005766 -0.006187 -0.024371 0.304925
    44 -0.139399 -0.111698 0.014397 1.209113 0.256026 1.369783
    45 -1.393470 8.839177 -0.239433 1.580804 -0.005023 -1.566847
  time 16
    0 -0.944278 1.225283 0.541027 0.000000 0.000000 0.000000
    1 8.730753 -0.436456 -10.166240 -1.571120 -1.330246 1.223350
    2 -0.071918 -8.498729 -0.104136 0.225223 0.089252 -0.227702
    3 3.509751 -0.490461 0.743484 -3.051446 0.124854 -1.547391
    4 -4.604834 1.953982 0.000000 0.000000 0.000000 3.141592
    5 -1.491883 -2.192085 0.000001 0.000000 0.000000 -1.570796
    6 21.233133 0.000000 0.000000 0.000000 0.000000 0.000000
    7 0.000000 0.000000 0.000000 0.000000 0.000000 0.000000
    8 0.500716 -0.717737 -0.772266 3.141592 0.000000 1.570796
    9 0.531071 0.362873 -0.818099 -1.570796 1.570796 0.000000
    10 1.257180 8.762585 -0.153713 -1.570562 0.002683 -1.566807
    11 -0.488518 -2.755602 -0.228260 -0.186042 0.005934 -0.083631
    12 0.039887 -1.479790 0.029854 -2.165419 0.000000 0.000001
    13 0.028786 -1.075731 -0.023109 -1.399409 0.000000 0.000000
    14 0.250027 -2.820665 -0.238396 0.157693 -0.039690 0.158514
    15 -0.049759 -1.680544 0.100479 -1.621060 0.000000 -0.000002
    16 -0.034142 -1.148312 0.084782 -1.785312 0.000000 0.000000
    17 0.957766 -2.746780 -0.090302 0.178344 -0.172344 0.119866
    18 -0.033420 -1.397129 -0.011257 -1.242568 0.000000 -0.000001
    19 -0.022360 -0.957436 0.018784 -0.915050 0.000000 0.000000
    20 -1.180681 -2.507217 -0.193859 0.253911 0.096048 -0.028880
    21 -0.024967 -1.123934 0.017597 -1.613439 0.000000 0.000001
    22 -0.020057 -0.890968 0.010090 -1.691466 0.000000 0.000000
    23 0.583510 -1.197277 0.185379 0.344397 -0.598165 -0.858627
    24 1.535927 0.010246 0.005009 -0.002964 -0.012979 -0.682275
    25 1.100771 0.004527 -0.010679 -0.016147 -0.001453 -1.484192
    26 0.120153 -0.050270 -0.054489 0.287569 3.110905 1.561085
    27 -0.571559 -8.840745 -11.212563 -2.110014 -5.215027 -1.485666
    28 0.096944 -8.450418 -0.009365 -0.519697 -1.487762 0.958738
    29 0.447953 -2.798986 -0.200443 -1.057474 -0.010396 0.265094
    30 -0.032909 -1.480204 0.004940 -1.401033 0.000000 0.000002
    31 -0.027022 -1.076920 -0.020210 0.145969 0.000000 0.000000
    32 -0.249534 -2.846964 -0.174213 -0.654839 -0.000125 -0.008396
    33 0.043235 -1.683941 0.096012 -1.586065 0.002823 -0.000167
    34 0.031729 -1.160830 0.058838 0.081838 0.000642 0.008372
    35 -0.963866 -2.785145 -0.085350 -0.345511 0.163139 -0.105950
    36 0.028479 -1.403067 0.006271 -0.848512 0.000000 0.000000
    37 0.021413 -0.957781 0.020046 -0.907761 0.000000 0.000000
    38 1.164475 -2.543940 -0.170330 -1.209812 -0.013294 0.477915
    39 0.024032 -1.129042 0.017807 -1.453003 0.000000 0.000001
    40 0.014898 -0.883989 -0.019848 0.128215 0.000000 0.000000
    41 -0.586770 -1.264477 0.200161 0.126017 -0.445585 -2.743539
    42 1.522835 0.058681 0.016848 0.001410 0.008985 0.390222
    43 1.117947 0.048424 -0.005766 -0.006379 -0.024323 0.312495
    44 -0.139399 -0.111698 0.014397 1.209113 0.256026 1.369783
    45 -1.393470 8.839177 -0.239433 1.580804 -0.005023 -1.566847
  time 17
    0 -0.944278 1.225283 0.541027 0.000000 0.000000 0.000000
    1 8.746379 -0.385673 -10.088113 -1.571120 -1.330246 1.223350
    2 -0.071918 -8.498729 -0.104136 0.225259 0.099139 -0.224817
    3 3.509751 -0.490461 0.743484 -3.051446 0.124854 -1.547391
    4 -4.604834 1.953982 0.000000 0.000000 0.000000 3.141592
    5 -1.491883 -2.192085 0.000001 0.000000 0.000000 -1.570796
    6 21.233133 0.000000 0.000000 0.000000 0.000000 0.000000
    7 0.000000 0.000000 0.000000 0.000000 0.000000 0.000000
    8 0.500716 -0.717737 -0.772266 3.141592 0.000000 1.570796
    9 0.531071 0.362873 -0.818099 -1.570796 1.570796 0.000000
    10 1.257180 8.762585 -0.153713 -1.570562 0.002683 -1.566807
    11 -0.488518 -2.755602 -0.228260 -0.186042 0.005934 -0.083631
    12 0.039887 -1.479790 0.029854 -2.165419 0.000000 0.000001
    13 0.028786 -1.075731 -0.023109 -1.399409 0.000000 0.000000
    14 0.250027 -2.820665 -0.238396 0.157693 -0.039690 0.158514
    15 -0.049759 -1.680544 0.100479 -1.621060 0.000000 -0.000002
    16 -0.034142 -1.148312 0.084782 -1.785312 0.000000 0.000000
    17 0.957766 -2.746780 -0.090302 0.178344 -0.172344 0.119866
    18 -0.033420 -1.397129 -0.011257 -1.242568 0.000000 -0.000001
    19 -0.022360 -0.957436 0.018784 -0.915050 0.000000 0.000000
    20 -1.180681 -2.507217 -0.193859 0.253911 0.096048 -0.028880
    21 -0.024967 -1.123934 0.017597 -1.613439 0.000000 0.000001
    22 -0.020057 -0.890968 0.010090 -1.691466 0.000000 0.000000
    23 0.583510 -1.197277 0.185379 0.344397 -0.598165 -0.858627
    24 1.535927 0.010246 0.005009 -0.002964 -0.012979 -0.682275
    25 1.100771 0.004527 -0.010679 -0.016147 -0.001453 -1.484192
    26 0.120153 -0.050270 -0.054489 0.287569 3.110905 1.561085
    27 -0.587185 -8.786056 -11.064121 -2.131213 -5.213608 -1.504203
    28 0.096944 -8.450418 -0.009365 -0.516856 -1.487889 0.955976
    29 0.447953 -2.798986 -0.200443 -1.057474 -0.010396 0.265094
    30 -0.032909 -1.480204 0.004940 -1.401033 0.000000 0.000002
    31 -0.027022 -1.076920 -0.020210 0.145969 0.000000 0.000000
    32 -0.249534 -2.846964 -0.174213 -0.654839 -0.000125 -0.008396
    33 0.043235 -1.683941 0.096012 -1.586065 0.002823 -0.000167
    34 0.031729 -1.160830 0.058838 0.081838 0.000642 0.008372
    35 -0.963866 -2.785145 -0.085350 -0.345511 0.163139 -0.105950
    36 0.028479 -1.403067 0.006271 -0.848512 0.000000 0.000000
    37 0.021413 -0.957781 0.020046 -0.907761 0.000000 0.000000
    38 1.164475 -2.543940 -0.170330 -1.209812 -0.013294 0.477915
    39 0.024032 -1.129042 0.017807 -1.453003 0.000000 0.000001
    40 0.014898 -0.883989 -0.019848 0.128215 0.000000 0.000000
    41 -0.586770 -1.264477 0.200161 0.126017 -0.445585 -2.743539
    42 1.522835 0.058681 0.016848 0.001410 0.008985 0.385101
    43 1.117947 0.048424 -0.005766 -0.006559 -0.024275 0.320065
    44 -0.139399 -0.111698 0.014397 1.209113 0.256026 1.369783
    45 -1.393470 8.839177 -0.239433 1.580804 -0.005023 -1.566847
  time 18
    0 -0.944278 1.225283 0.541027 0.000000 0.000000 0.000000
    1 8.765911 -0.338796 -10.006079 -1.571120 -1.330246 1.223350
    2 -0.071918 -8.498729 -0.104136 0.225199 0.108883 -0.222999
    3 3.509751 -0.490461 0.743484 -3.051446 0.124854 -1.547391
    4 -4.604834 1.953982 0.000000 0.000000 0.000000 3.141592
    5 -1.491883 -2.192085 0.000001 0.000000 0.000000 -1.570796
    6 21.233133 0.000000 0.000000 0.000000 0.000000 0.000000
    7 0.000000 0.000000 0.000000 0.000000 0.000000 0.000000
    8 0.500716 -0.717737 -0.772266 3.141592 0.000000 1.570796
    9 0.531071 0.362873 -0.818099 -1.570796 1.570796 0.000000
    10 1.257180 8.762585 -0.153713 -1.570562 0.002683 -1.566807
    11 -0.488518 -2.755602 -0.228260 -0.186042 0.005934 -0.083631
    12 0.039887 -1.479790 0.029854 -2.165419 0.000000 0.000001
    13 0.028786 -1.075731 -0.023109 -1.399409 0.000000 0.000000
    14 0.250027 -2.820665 -0.238396 0.157693 -0.039690 0.158514
    15 -0.049759 -1.680544 0.100479 -1.621060 0.000000 -0.000002
    16 -0.034142 -1.148312 0.084782 -1.785312 0.000000 0.000000
    17 0.957766 -2.746780 -0.090302 0.178344 -0.172344 0.119866
    18 -0.033420 -1.397129 -0.011257 -1.242568 0.000000 -0.000001
    19 -0.022360 -0.957436 0.018784 -0.915050 0.000000 0.000000
    20 -1.180681 -2.507217 -0.193859 0.253911 0.096048 -0.028880
    21 -0.024967 -1.123934 0.017597 -1.613439 0.000000 0.000001
    22 -0.020057 -0.890968 0.010090 -1.691466 0.000000 0.000000
    23 0.583510 -1.197277 0.185379 0.344397 -0.598165 -0.858627
    24 1.535927 0.010246 0.005009 -0.002964 -0.012979 -0.682275
    25 1.100771 0.004527 -0.010679 -0.016147 -0.001453 -1.484192
    26 0.120153 -0.050270 -0.054489 0.287569 3.110905 1.561085
    27 -0.598904 -8.735273 -10.919585 -2.151402 -5.211432 -1.521789
    28 0.096944 -8.450418 -0.009365 -0.513504 -1.488060 0.952709
    29 0.447953 -2.798986 -0.200443 -1.057474 -0.010396 0.265094
    30 -0.032909 -1.480204 0.004940 -1.401033 0.000000 0.000002
    31 -0.027022 -1.076920 -0.020210 0.145969 0.000000 0.000000
    32 -0.249534 -2.846964 -0.174213 -0.654839 -0.000125 -0.008396
    33 0.043235 -1.683941 0.096012 -1.586065 0.002823 -0.000167
    34 0.031729 -1.160830 0.058838 0.081838 0.000642 0.008372
    35 -0.963866 -2.785145 -0.085350 -0.345511 0.163139 -0.105950
    36 0.028479 -1.403067 0.006271 -0.848512 0.000000 0.000000
    37 0.021413 -0.957781 0.020046 -0.907761 0.000000 0.000000
    38 1.164475 -2.543940 -0.170330 -1.209812 -0.013294 0.477915
    39 0.024032 -1.129042 0.017807 -1.453003 0.000000 0.000001
    40 0.014898 -0.883989 -0.019848 0.128215 0.000000 0.000000
    41 -0.586770 -1.264477 0.200161 0.126017 -0.445585 -2.743539
    42 1.522835 0.058681 0.016848 0.001410 0.008985 0.380010
    43 1.117947 0.048424 -0.005766 -0.006739 -0.024227 0.327545
    44 -0.139399 -0.111698 0.014397 1.209113 0.256026 1.369783
    45 -1.393470 8.839177 -0.239433 1.580804 -0.005023 -1.566847
  time 19
    0 -0.944278 1.225283 0.541027 0.000000 0.000000 0.000000
    1 8.781536 -0.295826 -9.931858 -1.571120 -1.330246 1.223350
    2 -0.071918 -8.498729 -0.104136 0.225043 0.116529 -0.222090
    3 3.509751 -0.490461 0.743484 -3.051446 0.124854 -1.547391
    4 -4.604834 1.953982 0.000000 0.000000 0.000000 3.141592
    5 -1.491883 -2.192085 0.000001 0.000000 0.000000 -1.570796
    6 21.233133 0.000000 0.000000 0.000000 0.000000 0.000000
    7 0.000000 0.000000 0.000000 0.000000 0.000000 0.000000
    8 0.500716 -0.717737 -0.772266 3.141592 0.000000 1.570796
    9 0.531071 0.362873 -0.818099 -1.570796 1.570796 0.000000
    10 1.257180 8.762585 -0.153713 -1.570562 0.002683 -1.566807
    11 -0.488518 -2.755602 -0.228260 -0.186042 0.005934 -0.083631
    12 0.039887 -1.479790 0.029854 -2.165419 0.000000 0.000001
    13 0.028786 -1.075731 -0.023109 -1.399409 0.000000 0.000000
    14 0.250027 -2.820665 -0.238396 0.157693 -0.039690 0.158514
    15 -0.049759 -1.680544 0.100479 -1.621060 0.000000 -0.000002
    16 -0.034142 -1.148312 0.084782 -1.785312 0.000000 0.000000
    17 0.957766 -2.746780 -0.090302 0.178344 -0.172344 0.119866
    18 -0.033420 -1.397129 -0.011257 -1.242568 0.000000 -0.000001
    19 -0.022360 -0.957436 0.018784 -0.915050 0.000000 0.000000
    20 -1.180681 -2.507217 -0.193859 0.253911 0.096048 -0.028880
    21 -0.024967 -1.123934 0.017597 -1.613439 0.000000 0.000001
    22 -0.020057 -0.890968 0.010090 -1.691466 0.000000 0.000000
    23 0.583510 -1.197277 0.185379 0.344397 -0.598165 -0.858627
    24 1.535927 0.010246 0.005009 -0.002964 -0.012979 -0.682275
    25 1.100771 0.004527 -0.010679 -0.016147 -0.001453 -1.484192
    26 0.120153 -0.050270 -0.054489 0.287569 3.110905 1.561085
    27 -0.602810 -8.688397 -10.798488 -2.166911 -5.209350 -1.535477
    28 0.096944 -8.450418 -0.009365 -0.509754 -1.488230 0.949053
    29 0.447953 -2.798986 -0.200443 -1.057474 -0.010396 0.265094
    30 -0.032909 -1.480204 0.004940 -1.401033 0.000000 0.000002
    31 -0.027022 -1.076920 -0.020210 0.145969 0.000000 0.000000
    32 -0.249534 -2.846964 -0.174213 -0.654839 -0.000125 -0.008396
    33 0.043235 -1.683941 0.096012 -1.586065 0.002823 -0.000167
    34 0.031729 -1.160830 0.058838 0.081838 0.000642 0.008372
    35 -0.963866 -2.785145 -0.085350 -0.345511 0.163139 -0.105950
    36 0.028479 -1.403067 0.006271 -0.848512 0.000000 0.000000
    37 0.021413 -0.957781 0.020046 -0.907761 0.000000 0.000000
    38 1.164475 -2.543940 -0.170330 -1.209812 -0.013294 0.477915
    39 0.024032 -1.129042 0.017807 -1.453003 0.000000 0.000001
    40 0.014898 -0.883989 -0.019848 0.128215 0.000000 0.000000
    41 -0.586770 -1.264477 0.200161 0.126017 -0.445585 -2.743539
    42 1.522835 0.058681 0.016848 0.001410 0.008985 0.375040
    43 1.117947 0.048424 -0.005766 -0.006918 -0.024179 0.334891
    44 -0.139399 -0.111698 0.014397 1.209113 0.256026 1.369783
    45 -1.393470 8.839177 -0.239433 1.580804 -0.005023 -1.566847
  time 20
    0 -0.944278 1.225283 0.541027 0.000000 0.000000 0.000000
    1 8.801068 -0.252856 -9.881075 -1.571120 -1.330246 1.223350
    2 -0.071918 -8.498729 -0.104136 0.224804 0.120100 -0.221880
    3 3.509751 -0.490461 0.743484 -3.051446 0.124854 -1.547391
    4 -4.604834 1.953982 0.000000 0.000000 0.000000 3.141592
    5 -1.491883 -2.192085 0.000001 0.000000 0.000000 -1.570796
    6 21.233133 0.000000 0.000000 0.000000 0.000000 0.000000
    7 0.000000 0.000000 0.000000 0.000000 0.000000 0.000000
    8 0.500716 -0.717737 -0.772266 3.141592 0.000000 1.570796
    9 0.531071 0.362873 -0.818099 -1.570796 1.570796 0.000000
    10 1.257180 8.762585 -0.153713 -1.570562 0.002683 -1.566807
    11 -0.488518 -2.755602 -0.228260 -0.186042 0.005934 -0.083631
    12 0.039887 -1.479790 0.029854 -2.165419 0.000000 0.000001
    13 0.028786 -1.075731 -0.023109 -1.399409 0.000000 0.000000
    14 0.250027 -2.820665 -0.238396 0.157693 -0.039690 0.158514
    15 -0.049759 -1.680544 0.100479 -1.621060 0.000000 -0.000002
    16 -0.034142 -1.148312 0.084782 -1.785312 0.000000 0.000000
    17 0.957766 -2.746780 -0.090302 0.178344 -0.172344 0.119866
    18 -0.033420 -1.397129 -0.011257 -1.242568 0.000000 -0.000001
    19 -0.022360 -0.957436 0.018784 -0.915050 0.000000 0.000000
    20 -1.180681 -2.507217 -0.193859 0.253911 0.096048 -0.028880
    21 -0.024967 -1.123934 0.017597 -1.613439 0.000000 0.000001
    22 -0.020057 -0.890968 0.010090 -1.691466 0.000000 0.000000
    23 0.583510 -1.197277 0.185379 0.344397 -0.598165 -0.858627
    24 1.535927 0.010246 0.005009 -0.002964 -0.012979 -0.682275
    25 1.100771 0.004527 -0.010679 -0.016147 -0.001453 -1.484192
    26 0.120153 -0.050270 -0.054489 0.287569 3.110905 1.561085
    27 -0.598904 -8.641520 -10.720360 -2.174069 -5.208215 -1.541751
    28 0.096944 -8.450418 -0.009365 -0.505776 -1.488443 0.945164
    29 0.447953 -2.798986 -0.200443 -1.057474 -0.010396 0.265094
    30 -0.032909 -1.480204 0.004940 -1.401033 0.000000 0.000002
    31 -0.027022 -1.076920 -0.020210 0.145969 0.000000 0.000000
    32 -0.249534 -2.846964 -0.174213 -0.654839 -0.000125 -0.008396
    33 0.043235 -1.683941 0.096012 -1.586065 0.002823 -0.000167
    34 0.031729 -1.160830 0.058838 0.081838 0.000642 0.008372
    35 -0.963866 -2.785145 -0.085350 -0.345511 0.163139 -0.105950
    36 0.028479 -1.403067 0.006271 -0.848512 0.000000 0.000000
    37 0.021413 -0.957781 0.020046 -0.907761 0.000000 0.000000
    38 1.164475 -2.543940 -0.170330 -1.209812 -0.013294 0.477915
    39 0.024032 -1.129042 0.017807 -1.453003 0.000000 0.000001
    40 0.014898 -0.883989 -0.019848 0.128215 0.000000 0.000000
    41 -0.586770 -1.264477 0.200161 0.126017 -0.445585 -2.743539
    42 1.522835 0.058681 0.016848 0.001410 0.008985 0.370224
    43 1.117947 0.048424 -0.005766 -0.007098 -0.024131 0.341968
    44 -0.139399 -0.111698 0.014397 1.209113 0.256026 1.369783
    45 -1.393470 8.839177 -0.239433 1.580804 -0.005023 -1.566847
  time 21
    0 -0.944278 1.225283 0.541027 0.000000 0.000000 0.000000
    1 8.816694 -0.209886 -9.842011 -1.571120 -1.330246 1.223350
    2 -0.071918 -8.498729 -0.104136 0.224372 0.118027 -0.222894
    3 3.509751 -0.490461 0.743484 -3.051446 0.124854 -1.547391
    4 -4.604834 1.953982 0.000000 0.000000 0.000000 3.141592
    5 -1.491883 -2.192085 0.000001 0.000000 0.000000 -1.570796
    6 21.233133 0.000000 0.000000 0.000000 0.000000 0.000000
    7 0.000000 0.000000 0.000000 0.000000 0.000000 0.000000
    8 0.500716 -0.717737 -0.772266 3.141592 0.000000 1.570796
    9 0.531071 0.362873 -0.818099 -1.570796 1.570796 0.000000
    10 1.257180 8.762585 -0.153713 -1.570562 0.002683 -1.566807
    11 -0.488518 -2.755602 -0.228260 -0.186042 0.005934 -0.083631
    12 0.039887 -1.479790 0.029854 -2.165419 0.000000 0.000001
    13 0.028786 -1.075731 -0.023109 -1.399409 0.000000 0.000000
    14 0.250027 -2.820665 -0.238396 0.157693 -0.039690 0.158514
    15 -0.049759 -1.680544 0.100479 -1.621060 0.000000 -0.000002
    16 -0.034142 -1.148312 0.084782 -1.785312 0.000000 0.000000
    17 0.957766 -2.746780 -0.090302 0.178344 -0.172344 0.119866
    18 -0.033420 -1.397129 -0.011257 -1.242568 0.000000 -0.000001
    19 -0.022360 -0.957436 0.018784 -0.915050 0.000000 0.000000
    20 -1.180681 -2.507217 -0.193859 0.253911 0.096048 -0.028880
    21 -0.024967 -1.123934 0.017597 -1.613439 0.000000 0.000001
    22 -0.020057 -0.890968 0.010090 -1.691466 0.000000 0.000000
    23 0.583510 -1.197277 0.185379 0.344397 -0.598165 -0.858627
    24 1.535927 0.010246 0.005009 -0.002964 -0.012979 -0.682275
    25 1.100771 0.004527 -0.010679 -0.016147 -0.001453 -1.484192
    26 0.120153 -0.050270 -0.054489 0.287569 3.110905 1.561085
    27 -0.575466 -8.594644 -10.696922 -2.169297 -5.208120 -1.537569
    28 0.096944 -8.450418 -0.009365 -0.501571 -1.488655 0.941080
    29 0.447953 -2.798986 -0.200443 -1.057474 -0.010396 0.265094
    30 -0.032909 -1.480204 0.004940 -1.401033 0.000000 0.000002
    31 -0.027022 -1.076920 -0.020210 0.145969 0.000000 0.000000
    32 -0.249534 -2.846964 -0.174213 -0.654839 -0.000125 -0.008396
    33 0.043235 -1.683941 0.096012 -1.586065 0.002823 -0.000167
    34 0.031729 -1.160830 0.058838 0.081838 0.000642 0.008372
    35 -0.963866 -2.785145 -0.085350 -0.345511 0.163139 -0.105950
    36 0.028479 -1.403067 0.006271 -0.848512 0.000000 0.000000
    37 0.021413 -0.957781 0.020046 -0.907761 0.000000 0.000000
    38 1.164475 -2.543940 -0.170330 -1.209812 -0.013294 0.477915
    39 0.024032 -1.129042 0.017807 -1.453003 0.000000 0.000001
    40 0.014898 -0.883989 -0.019848 0.128215 0.000000 0.000000
    41 -0.586770 -1.264477 0.200161 0.126017 -0.445585 -2.743539
    42 1.522835 0.058681 0.016848 0.001410 0.008985 0.365620
    43 1.117947 0.048424 -0.005766 -0.007266 -0.024083 0.348777
    44 -0.139399 -0.111698 0.014397 1.209113 0.256026 1.369783
    45 -1.393470 8.839177 -0.239433 1.580804 -0.005023 -1.566847
  time 22
    0 -0.944278 1.225283 0.541027 0.000000 0.000000 0.000000
    1 8.832319 -0.166916 -9.814667 -1.571120 -1.330246 1.223350
    2 -0.071918 -8.498729 -0.104136 0.223773 0.111591 -0.225237
    3 3.509751 -0.490461 0.743484 -3.051446 0.124854 -1.547391
    4 -4.604834 1.953982 0.000000 0.000000 0.000000 3.141592
    5 -1.491883 -2.192085 0.000001 0.000000 0.000000 -1.570796
    6 21.233133 0.000000 0.000000 0.000000 0.000000 0.000000
    7 0.000000 0.000000 0.000000 0.000000 0.000000 0.000000
    8 0.500716 -0.717737 -0.772266 3.141592 0.000000 1.570796
    9 0.531071 0.362873 -0.818099 -1.570796 1.570796 0.000000
    10 1.257180 8.762585 -0.153713 -1.570562 0.002683 -1.566807
    11 -0.488518 -2.755602 -0.228260 -0.186042 0.005934 -0.083631
    12 0.039887 -1.479790 0.029854 -2.165419 0.000000 0.000001
    13 0.028786 -1.075731 -0.023109 -1.399409 0.000000 0.000000
    14 0.250027 -2.820665 -0.238396 0.157693 -0.039690 0.158514
    15 -0.049759 -1.680544 0.100479 -1.621060 0.000000 -0.000002
    16 -0.034142 -1.148312 0.084782 -1.785312 0.000000 0.000000
    17 0.957766 -2.746780 -0.090302 0.178344 -0.172344 0.119866
    18 -0.033420 -1.397129 -0.011257 -1.242568 0.000000 -0.000001
    19 -0.022360 -0.957436 0.018784 -0.915050 0.000000 0.000000
    20 -1.180681 -2.507217 -0.193859 0.253911 0.096048 -0.028880
    21 -0.024967 -1.123934 0.017597 -1.613439 0.000000 0.000001
    22 -0.020057 -0.890968 0.010090 -1.691466 0.000000 0.000000
    23 0.583510 -1.197277 0.185379 0.344397 -0.598165 -0.858627
    24 1.535927 0.010246 0.005009 -0.002964 -0.012979 -0.682275
    25 1.100771 0.004527 -0.010679 -0.016147 -0.001453 -1.484192
    26 0.120153 -0.050270 -0.054489 0.287569 3.110905 1.561085
    27 -0.544215 -8.551674 -10.716454 -2.154981 -5.208404 -1.525116
    28 0.096944 -8.450418 -0.009365 -0.497367 -1.488826 0.936957
    29 0.447953 -2.798986 -0.200443 -1.057474 -0.010396 0.265094
    30 -0.032909 -1.480204 0.004940 -1.401033 0.000000 0.000002
    31 -0.027022 -1.076920 -0.020210 0.145969 0.000000 0.000000
    32 -0.249534 -2.846964 -0.174213 -0.654839 -0.000125 -0.008396
    33 0.043235 -1.683941 0.096012 -1.586065 0.002823 -0.000167
    34 0.031729 -1.160830 0.058838 0.081838 0.000642 0.008372
    35 -0.963866 -2.785145 -0.085350 -0.345511 0.163139 -0.105950
    36 0.028479 -1.403067 0.006271 -0.848512 0.000000 0.000000
    37 0.021413 -0.957781 0.020046 -0.907761 0.000000 0.000000
    38 1.164475 -2.543940 -0.170330 -1.209812 -0.013294 0.477915
    39 0.024032 -1.129042 0.017807 -1.453003 0.000000 0.000001
    40 0.014898 -0.883989 -0.019848 0.128215 0.000000 0.000000
    41 -0.586770 -1.264477 0.200161 0.126017 -0.445585 -2.743539
    42 1.522835 0.058681 0.016848 0.001410 0.008985 0.361261
    43 1.117947 0.048424 -0.005766 -0.007422 -0.024047 0.355182
    44 -0.139399 -0.111698 0.014397 1.209113 0.256026 1.369783
    45 -1.393470 8.839177 -0.239433 1.580804 -0.005023 -1.566847
  time 23
    0 -0.944278 1.225283 0.541027 0.000000 0.000000 0.000000
    1 8.847944 -0.127853 -9.799041 -1.571120 -1.330246 1.223350
    2 -0.071918 -8.498729 -0.104136 0.223138 0.103190 -0.228156
    3 3.509751 -0.490461 0.743484 -3.051446 0.124854 -1.547391
    4 -4.604834 1.953982 0.000000 0.000000 0.000000 3.141592
    5 -1.491883 -2.192085 0.000001 0.000000 0.000000 -1.570796
    6 21.233133 0.000000 0.000000 0.000000 0.000000 0.000000
    7 0.000000 0.000000 0.000000 0.000000 0.000000 0.000000
    8 0.500716 -0.717737 -0.772266 3.141592 0.000000 1.570796
    9 0.531071 0.362873 -0.818099 -1.570796 1.570796 0.000000
    10 1.257180 8.762585 -0.153713 -1.570562 0.002683 -1.566807
    11 -0.488518 -2.755602 -0.228260 -0.186042 0.005934 -0.083631
    12 0.039887 -1.479790 0.029854 -2.165419 0.000000 0.000001
    13 0.028786 -1.075731 -0.023109 -1.399409 0.000000 0.000000
    14 0.250027 -2.820665 -0.238396 0.157693 -0.039690 0.158514
    15 -0.049759 -1.680544 0.100479 -1.621060 0.000000 -0.000002
    16 -0.034142 -1.148312 0.084782 -1.785312 0.000000 0.000000
    17 0.957766 -2.746780 -0.090302 0.178344 -0.172344 0.119866
    18 -0.033420 -1.397129 -0.011257 -1.242568 0.000000 -0.000001
    19 -0.022360 -0.957436 0.018784 -0.915050 0.000000 0.000000
    20 -1.180681 -2.507217 -0.193859 0.253911 0.096048 -0.028880
    21 -0.024967 -1.123934 0.017597 -1.613439 0.000000 0.000001
    22 -0.020057 -0.890968 0.010090 -1.691466 0.000000 0.000000
    23 0.583510 -1.197277 0.185379 0.344397 -0.598165 -0.858627
    24 1.535927 0.010246 0.005009 -0.002964 -0.012979 -0.682275
    25 1.100771 0.004527 -0.010679 -0.016147 -0.001453 -1.484192
    26 0.120153 -0.050270 -0.054489 0.287569 3.110905 1.561085
    27 -0.505151 -8.508704 -10.759424 -2.136352 -5.209066 -1.509051
    28 0.096944 -8.450418 -0.009365 -0.493162 -1.489039 0.932874
    29 0.447953 -2.798986 -0.200443 -1.057474 -0.010396 0.265094
    30 -0.032909 -1.480204 0.004940 -1.401033 0.000000 0.000002
    31 -0.027022 -1.076920 -0.020210 0.145969 0.000000 0.000000
    32 -0.249534 -2.846964 -0.174213 -0.654839 -0.000125 -0.008396
    33 0.043235 -1.683941 0.096012 -1.586065 0.002823 -0.000167
    34 0.031729 -1.160830 0.058838 0.081838 0.000642 0.008372
    35 -0.963866 -2.785145 -0.085350 -0.345511 0.163139 -0.105950
    36 0.028479 -1.403067 0.006271 -0.848512 0.000000 0.000000
    37 0.021413 -0.957781 0.020046 -0.907761 0.000000 0.000000
    38 1.164475 -2.543940 -0.170330 -1.209812 -0.013294 0.477915
    39 0.024032 -1.129042 0.017807 -1.453003 0.000000 0.000001
    40 0.014898 -0.883989 -0.019848 0.128215 0.000000 0.000000
    41 -0.586770 -1.264477 0.200161 0.126017 -0.445585 -2.743539
    42 1.522835 0.058681 0.016848 0.001410 0.008985 0.357237
    43 1.117947 0.048424 -0.005766 -0.007566 -0.024012 0.361140
    44 -0.139399 -0.111698 0.014397 1.209113 0.256026 1.369783
    45 -1.393470 8.839177 -0.239433 1.580804 -0.005023 -1.566847
  time 24
    0 -0.944278 1.225283 0.541027 0.000000 0.000000 0.000000
    1 8.863570 -0.092695 -9.791229 -1.571120 -1.330246 1.223350
    2 -0.071918 -8.498729 -0.104136 0.222587 0.095196 -0.230884
    3 3.509751 -0.490461 0.743484 -3.051446 0.124854 -1.547391
    4 -4.604834 1.953982 0.000000 0.000000 0.000000 3.141592
    5 -1.491883 -2.192085 0.000001 0.000000 0.000000 -1.570796
    6 21.233133 0.000000 0.000000 0.000000 0.000000 0.000000
    7 0.000000 0.000000 0.000000 0.000000 0.000000 0.000000
    8 0.500716 -0.717737 -0.772266 3.141592 0.000000 1.570796
    9 0.531071 0.362873 -0.818099 -1.570796 1.570796 0.000000
    10 1.257180 8.762585 -0.153713 -1.570562 0.002683 -1.566807
    11 -0.488518 -2.755602 -0.228260 -0.186042 0.005934 -0.083631
    12 0.039887 -1.479790 0.029854 -2.165419 0.000000 0.000001
    13 0.028786 -1.075731 -0.023109 -1.399409 0.000000 0.000000
    14 0.250027 -2.820665 -0.238396 0.157693 -0.039690 0.158514
    15 -0.049759 -1.680544 0.100479 -1.621060 0.000000 -0.000002
    16 -0.034142 -1.148312 0.084782 -1.785312 0.000000 0.000000
    17 0.957766 -2.746780 -0.090302 0.178344 -0.172344 0.119866
    18 -0.033420 -1.397129 -0.011257 -1.242568 0.000000 -0.000001
    19 -0.022360 -0.957436 0.018784 -0.915050 0.000000 0.000000
    20 -1.180681 -2.507217 -0.193859 0.253911 0.096048 -0.028880
    21 -0.024967 -1.123934 0.017597 -1.613439 0.000000 0.000001
    22 -0.020057 -0.890968 0.010090 -1.691466 0.000000 0.000000
    23 0.583510 -1.197277 0.185379 0.344397 -0.598165 -0.858627
    24 1.535927 0.010246 0.005009 -0.002964 -0.012979 -0.682275
    25 1.100771 0.004527 -0.010679 -0.016147 -0.001453 -1.484192
    26 0.120153 -0.050270 -0.054489 0.287569 3.110905 1.561085
    27 -0.469994 -8.477453 -10.806301 -2.118824 -5.209823 -1.493746
    28 0.096944 -8.450418 -0.009365 -0.489127 -1.489209 0.928945
    29 0.447953 -2.798986 -0.200443 -1.057474 -0.010396 0.265094
    30 -0.032909 -1.480204 0.004940 -1.401033 0.000000 0.000002
    31 -0.027022 -1.076920 -0.020210 0.145969 0.000000 0.000000
    32 -0.249534 -2.846964 -0.174213 -0.654839 -0.000125 -0.008396
    33 0.043235 -1.683941 0.096012 -1.586065 0.002823 -0.000167
    34 0.031729 -1.160830 0.058838 0.081838 0.000642 0.008372
    35 -0.963866 -2.785145 -0.085350 -0.345511 0.163139 -0.105950
    36 0.028479 -1.403067 0.006271 -0.848512 0.000000 0.000000
    37 0.021413 -0.957781 0.020046 -0.907761 0.000000 0.000000
    38 1.164475 -2.543940 -0.170330 -1.209812 -0.013294 0.477915
    39 0.024032 -1.129042 0.017807 -1.453003 0.000000 0.000001
    40 0.014898 -0.883989 -0.019848 0.128215 0.000000 0.000000
    41 -0.586770 -1.264477 0.200161 0.126017 -0.445585 -2.743539
    42 1.522835 0.058681 0.016848 0.001410 0.008985 0.353579
    43 1.117947 0.048424 -0.005766 -0.007697 -0.023976 0.366515
    44 -0.139399 -0.111698 0.014397 1.209113 0.256026 1.369783
    45 -1.393470 8.839177 -0.239433 1.580804 -0.005023 -1.566847
  time 25
    0 -0.944278 1.225283 0.541027 0.000000 0.000000 0.000000
    1 8.871383 -0.069257 -9.791229 -1.571120 -1.330246 1.223350
    2 -0.071918 -8.498729 -0.104136 0.222215 0.089995 -0.232667
    3 3.509751 -0.490461 0.743484 -3.051446 0.124854 -1.547391
    4 -4.604834 1.953982 0.000000 0.000000 0.000000 3.141592
    5 -1.491883 -2.192085 0.000001 0.000000 0.000000 -1.570796
    6 21.233133 0.000000 0.000000 0.000000 0.000000 0.000000
    7 0.000000 0.000000 0.000000 0.000000 0.000000 0.000000
    8 0.500716 -0.717737 -0.772266 3.141592 0.000000 1.570796
    9 0.531071 0.362873 -0.818099 -1.570796 1.570796 0.000000
    10 1.257180 8.762585 -0.153713 -1.570562 0.002683 -1.566807
    11 -0.488518 -2.755602 -0.228260 -0.186042 0.005934 -0.083631
    12 0.039887 -1.479790 0.029854 -2.165419 0.000000 0.000001
    13 0.028786 -1.075731 -0.023109 -1.399409 0.000000 0.000000
    14 0.250027 -2.820665 -0.238396 0.157693 -0.039690 0.158514
    15 -0.049759 -1.680544 0.100479 -1.621060 0.000000 -0.000002
    16 -0.034142 -1.148312 0.084782 -1.785312 0.000000 0.000000
    17 0.957766 -2.746780 -0.090302 0.178344 -0.172344 0.119866
    18 -0.033420 -1.397129 -0.011257 -1.242568 0.000000 -0.000001
    19 -0.022360 -0.957436 0.018784 -0.915050 0.000000 0.000000
    20 -1.180681 -2.507217 -0.193859 0.253911 0.096048 -0.028880
    21 -0.024967 -1.123934 0.017597 -1.613439 0.000000 0.000001
    22 -0.020057 -0.890968 0.010090 -1.691466 0.000000 0.000000
    23 0.583510 -1.197277 0.185379 0.344397 -0.598165 -0.858627
    24 1.535927 0.010246 0.005009 -0.002964 -0.012979 -0.682275
    25 1.100771 0.004527 -0.010679 -0.016147 -0.001453 -1.484192
    26 0.120153 -0.050270 -0.054489 0.287569 3.110905 1.561085
    27 -0.446555 -8.450108 -10.841458 -2.107353 -5.210391 -1.483670
    28 0.096944 -8.450418 -0.009365 -0.485434 -1.489379 0.925328
    29 0.447953 -2.798986 -0.200443 -1.057474 -0.010396 0.265094
    30 -0.032909 -1.480204 0.004940 -1.401033 0.000000 0.000002
    31 -0.027022 -1.076920 -0.020210 0.145969 0.000000 0.000000
    32 -0.249534 -2.846964 -0.174213 -0.654839 -0.000125 -0.008396
    33 0.043235 -1.683941 0.096012 -1.586065 0.002823 -0.000167
    34 0.031729 -1.160830 0.058838 0.081838 0.000642 0.008372
    35 -0.963866 -2.785145 -0.085350 -0.345511 0.163139 -0.105950
    36 0.028479 -1.403067 0.006271 -0.848512 0.000000 0.000000
    37 0.021413 -0.957781 0.020046 -0.907761 0.000000 0.000000
    38 1.164475 -2.543940 -0.170330 -1.209812 -0.013294 0.477915
    39 0.024032 -1.129042 0.017807 -1.453003 0.000000 0.000001
    40 0.014898 -0.883989 -0.019848 0.128215 0.000000 0.000000
    41 -0.586770 -1.264477 0.200161 0.126017 -0.445585 -2.743539
    42 1.522835 0.058681 0.016848 0.001410 0.008985 0.350347
    43 1.117947 0.048424 -0.005766 -0.007805 -0.023940 0.371307
    44 -0.139399 -0.111698 0.014397 1.209113 0.256026 1.369783
    45 -1.393470 8.839177 -0.239433 1.580804 -0.005023 -1.566847
  time 26
    0 -0.944278 1.225283 0.541027 0.000000 0.000000 0.000000
    1 8.875289 -0.057538 -9.799041 -1.571120 -1.330246 1.223350
    2 -0.071918 -8.498729 -0.104136 0.222071 0.088077 -0.233349
    3 3.509751 -0.490461 0.743484 -3.051446 0.124854 -1.547391
    4 -4.604834 1.953982 0.000000 0.000000 0.000000 3.141592
    5 -1.491883 -2.192085 0.000001 0.000000 0.000000 -1.570796
    6 21.233133 0.000000 0.000000 0.000000 0.000000 0.000000
    7 0.000000 0.000000 0.000000 0.000000 0.000000 0.000000
    8 0.500716 -0.717737 -0.772266 3.141592 0.000000 1.570796
    9 0.531071 0.362873 -0.818099 -1.570796 1.570796 0.000000
    10 1.257180 8.762585 -0.153713 -1.570562 0.002683 -1.566807
    11 -0.488518 -2.755602 -0.228260 -0.186042 0.005934 -0.083631
    12 0.039887 -1.479790 0.029854 -2.165419 0.000000 0.000001
    13 0.028786 -1.075731 -0.023109 -1.399409 0.000000 0.000000
    14 0.250027 -2.820665 -0.238396 0.157693 -0.039690 0.158514
    15 -0.049759 -1.680544 0.100479 -1.621060 0.000000 -0.000002
    16 -0.034142 -1.148312 0.084782 -1.785312 0.000000 0.000000
    17 0.957766 -2.746780 -0.090302 0.178344 -0.172344 0.119866
    18 -0.033420 -1.397129 -0.011257 -1.242568 0.000000 -0.000001
    19 -0.022360 -0.957436 0.018784 -0.915050 0.000000 0.000000
    20 -1.180681 -2.507217 -0.193859 0.253911 0.096048 -0.028880
    21 -0.024967 -1.123934 0.017597 -1.613439 0.000000 0.000001
    22 -0.020057 -0.890968 0.010090 -1.691466 0.000000 0.000000
    23 0.583510 -1.197277 0.185379 0.344397 -0.598165 -0.858627
    24 1.535927 0.010246 0.005009 -0.002964 -0.012979 -0.682275
    25 1.100771 0.004527 -0.010679 -0.016147 -0.001453 -1.484192
    26 0.120153 -0.050270 -0.054489 0.287569 3.110905 1.561085
    27 -0.434836 -8.438389 -10.864896 -2.103132 -5.210675 -1.479867
    28 0.096944 -8.450418 -0.009365 -0.482082 -1.489549 0.922100
    29 0.447953 -2.798986 -0.200443 -1.057474 -0.010396 0.265094
    30 -0.032909 -1.480204 0.004940 -1.401033 0.000000 0.000002
    31 -0.027022 -1.076920 -0.020210 0.145969 0.000000 0.000000
    32 -0.249534 -2.846964 -0.174213 -0.654839 -0.000125 -0.008396
    33 0.043235 -1.683941 0.096012 -1.586065 0.002823 -0.000167
    34 0.031729 -1.160830 0.058838 0.081838 0.000642 0.008372
    35 -0.963866 -2.785145 -0.085350 -0.345511 0.163139 -0.105950
    36 0.028479 -1.403067 0.006271 -0.848512 0.000000 0.000000
    37 0.021413 -0.957781 0.020046 -0.907761 0.000000 0.000000
    38 1.164475 -2.543940 -0.170330 -1.209812 -0.013294 0.477915
    39 0.024032 -1.129042 0.017807 -1.453003 0.000000 0.000001
    40 0.014898 -0.883989 -0.019848 0.128215 0.000000 0.000000
    41 -0.586770 -1.264477 0.200161 0.126017 -0.445585 -2.743539
    42 1.522835 0.058681 0.016848 0.001410 0.008985 0.347573
    43 1.117947 0.048424 -0.005766 -0.007913 -0.023916 0.375383
    44 -0.139399 -0.111698 0.014397 1.209113 0.256026 1.369783
    45 -1.393470 8.839177 -0.239433 1.580804 -0.005023 -1.566847
  time 27
    0 -0.944278 1.225283 0.541027 0.000000 0.000000 0.000000
    1 8.875289 -0.053632 -9.818573 -1.571120 -1.330246 1.223350
    2 -0.071918 -8.498729 -0.104136 0.222059 0.087838 -0.233436
    3 3.509751 -0.490461 0.743484 -3.051446 0.124854 -1.547391
    4 -4.604834 1.953982 0.000000 0.000000 0.000000 3.141592
    5 -1.491883 -2.192085 0.000001 0.000000 0.000000 -1.570796
    6 21.233133 0.000000 0.000000 0.000000 0.000000 0.000000
    7 0.000000 0.000000 0.000000 0.000000 0.000000 0.000000
    8 0.500716 -0.717737 -0.772266 3.141592 0.000000 1.570796
    9 0.531071 0.362873 -0.818099 -1.570796 1.570796 0.000000
    10 1.257180 8.762585 -0.153713 -1.570562 0.002683 -1.566807
    11 -0.488518 -2.755602 -0.228260 -0.186042 0.005934 -0.083631
    12 0.039887 -1.479790 0.029854 -2.165419 0.000000 0.000001
    13 0.028786 -1.075731 -0.023109 -1.399409 0.000000 0.000000
    14 0.250027 -2.820665 -0.238396 0.157693 -0.039690 0.158514
    15 -0.049759 -1.680544 0.100479 -1.621060 0.000000 -0.000002
    16 -0.034142 -1.148312 0.084782 -1.785312 0.000000 0.000000
    17 0.957766 -2.746780 -0.090302 0.178344 -0.172344 0.119866
    18 -0.033420 -1.397129 -0.011257 -1.242568 0.000000 -0.000001
    19 -0.022360 -0.957436 0.018784 -0.915050 0.000000 0.000000
    20 -1.180681 -2.507217 -0.193859 0.253911 0.096048 -0.028880
    21 -0.024967 -1.123934 0.017597 -1.613439 0.000000 0.000001
    22 -0.020057 -0.890968 0.010090 -1.691466 0.000000 0.000000
    23 0.583510 -1.197277 0.185379 0.344397 -0.598165 -0.858627
    24 1.535927 0.010246 0.005009 -0.002964 -0.012979 -0.682275
    25 1.100771 0.004527 -0.010679 -0.016147 -0.001453 -1.484192
    26 0.120153 -0.050270 -0.054489 0.287569 3.110905 1.561085
    27 -0.438743 -8.438389 -10.884428 -2.102581 -5.210675 -1.479202
    28 0.096944 -8.450418 -0.009365 -0.479297 -1.489635 0.919377
    29 0.447953 -2.798986 -0.200443 -1.057474 -0.010396 0.265094
    30 -0.032909 -1.480204 0.004940 -1.401033 0.000000 0.000002
    31 -0.027022 -1.076920 -0.020210 0.145969 0.000000 0.000000
    32 -0.249534 -2.846964 -0.174213 -0.654839 -0.000125 -0.008396
    33 0.043235 -1.683941 0.096012 -1.586065 0.002823 -0.000167
    34 0.031729 -1.160830 0.058838 0.081838 0.000642 0.008372
    35 -0.963866 -2.785145 -0.085350 -0.345511 0.163139 -0.105950
    36 0.028479 -1.403067 0.006271 -0.848512 0.000000 0.000000
    37 0.021413 -0.957781 0.020046 -0.907761 0.000000 0.000000
    38 1.164475 -2.543940 -0.170330 -1.209812 -0.013294 0.477915
    39 0.024032 -1.129042 0.017807 -1.453003 0.000000 0.000001
    40 0.014898 -0.883989 -0.019848 0.128215 0.000000 0.000000
    41 -0.586770 -1.264477 0.200161 0.126017 -0.445585 -2.743539
    42 1.522835 0.058681 0.016848 0.001410 0.008985 0.345317
    43 1.117947 0.048424 -0.005766 -0.007985 -0.023892 0.378698
    44 -0.139399 -0.111698 0.014397 1.209113 0.256026 1.369783
    45 -1.393470 8.839177 -0.239433 1.580804 -0.005023 -1.566847
  time 28
    0 -0.944278 1.225283 0.541027 0.000000 0.000000 0.000000
    1 8.875289 -0.053632 -9.845918 -1.571120 -1.330246 1.223350
    2 -0.071918 -8.498729 -0.104136 0.222119 0.088557 -0.233174
    3 3.509751 -0.490461 0.743484 -3.051446 0.124854 -1.547391
    4 -4.604834 1.953982 0.000000 0.000000 0.000000 3.141592
    5 -1.491883 -2.192085 0.000001 0.000000 0.000000 -1.570796
    6 21.233133 0.000000 0.000000 0.000000 0.000000 0.000000
    7 0.000000 0.000000 0.000000 0.000000 0.000000 0.000000
    8 0.500716 -0.717737 -0.772266 3.141592 0.000000 1.570796
    9 0.531071 0.362873 -0.818099 -1.570796 1.570796 0.000000
    10 1.257180 8.762585 -0.153713 -1.570562 0.002683 -1.566807
    11 -0.488518 -2.755602 -0.228260 -0.186042 0.005934 -0.083631
    12 0.039887 -1.479790 0.029854 -2.165419 0.000000 0.000001
    13 0.028786 -1.075731 -0.023109 -1.399409 0.000000 0.000000
    14 0.250027 -2.820665 -0.238396 0.157693 -0.039690 0.158514
    15 -0.049759 -1.680544 0.100479 -1.621060 0.000000 -0.000002
    16 -0.034142 -1.148312 0.084782 -1.785312 0.000000 0.000000
    17 0.957766 -2.746780 -0.090302 0.178344 -0.172344 0.119866
    18 -0.033420 -1.397129 -0.011257 -1.242568 0.000000 -0.000001
    19 -0.022360 -0.957436 0.018784 -0.915050 0.000000 0.000000
    20 -1.180681 -2.507217 -0.193859 0.253911 0.096048 -0.028880
    21 -0.024967 -1.123934 0.017597 -1.613439 0.000000 0.000001
    22 -0.020057 -0.890968 0.010090 -1.691466 0.000000 0.000000
    23 0.583510 -1.197277 0.185379 0.344397 -0.598165 -0.858627
    24 1.535927 0.010246 0.005009 -0.002964 -0.012979 -0.682275
    25 1.100771 0.004527 -0.010679 -0.016147 -0.001453 -1.484192
    26 0.120153 -0.050270 -0.054489 0.287569 3.110905 1.561085
    27 -0.442649 -8.442295 -10.907866 -2.104233 -5.210580 -1.480438
    28 0.096944 -8.450418 -0.009365 -0.477195 -1.489762 0.917277
    29 0.447953 -2.798986 -0.200443 -1.057474 -0.010396 0.265094
    30 -0.032909 -1.480204 0.004940 -1.401033 0.000000 0.000002
    31 -0.027022 -1.076920 -0.020210 0.145969 0.000000 0.000000
    32 -0.249534 -2.846964 -0.174213 -0.654839 -0.000125 -0.008396
    33 0.043235 -1.683941 0.096012 -1.586065 0.002823 -0.000167
    34 0.031729 -1.160830 0.058838 0.081838 0.000642 0.008372
    35 -0.963866 -2.785145 -0.085350 -0.345511 0.163139 -0.105950
    36 0.028479 -1.403067 0.006271 -0.848512 0.000000 0.000000
    37 0.021413 -0.957781 0.020046 -0.907761 0.000000 0.000000
    38 1.164475 -2.543940 -0.170330 -1.209812 -0.013294 0.477915
    39 0.024032 -1.129042 0.017807 -1.453003 0.000000 0.000001
    40 0.014898 -0.883989 -0.019848 0.128215 0.000000 0.000000
    41 -0.586770 -1.264477 0.200161 0.126017 -0.445585 -2.743539
    42 1.522835 0.058681 0.016848 0.001410 0.008985 0.343640
    43 1.117947 0.048424 -0.005766 -0.008045 -0.023880 0.381162
    44 -0.139399 -0.111698 0.014397 1.209113 0.256026 1.369783
    45 -1.393470 8.839177 -0.239433 1.580804 -0.005023 -1.566847
  time 29
    0 -0.944278 1.225283 0.541027 0.000000 0.000000 0.000000
    1 8.871383 -0.061444 -9.877169 -1.571120 -1.330246 1.223350
    2 -0.071918 -8.498729 -0.104136 0.222191 0.089528 -0.232824
    3 3.509751 -0.490461 0.743484 -3.051446 0.124854 -1.547391
    4 -4.604834 1.953982 0.000000 0.000000 0.000000 3.141592
    5 -1.491883 -2.192085 0.000001 0.000000 0.000000 -1.570796
    6 21.233133 0.000000 0.000000 0.000000 0.000000 0.000000
    7 0.000000 0.000000 0.000000 0.000000 0.000000 0.000000
    8 0.500716 -0.717737 -0.772266 3.141592 0.000000 1.570796
    9 0.531071 0.362873 -0.818099 -1.570796 1.570796 0.000000
    10 1.257180 8.762585 -0.153713 -1.570562 0.002683 -1.566807
    11 -0.488518 -2.755602 -0.228260 -0.186042 0.005934 -0.083631
    12 0.039887 -1.479790 0.029854 -2.165419 0.000000 0.000001
    13 0.028786 -1.075731 -0.023109 -1.399409 0.000000 0.000000
    14 0.250027 -2.820665 -0.238396 0.157693 -0.039690 0.158514
    15 -0.049759 -1.680544 0.100479 -1.621060 0.000000 -0.000002
    16 -0.034142 -1.148312 0.084782 -1.785259 0.000000 0.000000
    17 0.957766 -2.746780 -0.090302 0.178344 -0.172344 0.119866
    18 -0.033420 -1.397129 -0.011257 -1.242568 0.000000 -0.000001
    19 -0.022360 -0.957436 0.018784 -0.915050 0.000000 0.000000
    20 -1.180681 -2.507217 -0.193859 0.253911 0.096048 -0.028880
    21 -0.024967 -1.123934 0.017597 -1.613439 0.000000 0.000001
    22 -0.020057 -0.890968 0.010090 -1.691466 0.000000 0.000000
    23 0.583510 -1.197277 0.185379 0.344397 -0.598165 -0.858627
    24 1.535927 0.010246 0.005009 -0.002964 -0.012979 -0.682275
    25 1.100771 0.004527 -0.010679 -0.016147 -0.001453 -1.484192
    26 0.120153 -0.050270 -0.054489 0.287569 3.110905 1.561085
    27 -0.454368 -8.454014 -10.931304 -2.106343 -5.210486 -1.482054
    28 0.096944 -8.450418 -0.009365 -0.475774 -1.489805 0.915955
    29 0.447953 -2.798986 -0.200443 -1.057474 -0.010396 0.265094
    30 -0.032909 -1.480204 0.004940 -1.401033 0.000000 0.000002
    31 -0.027022 -1.076920 -0.020210 0.145969 0.000000 0.000000
    32 -0.249534 -2.846964 -0.174213 -0.654839 -0.000125 -0.008396
    33 0.043235 -1.683941 0.096012 -1.586065 0.002823 -0.000167
    34 0.031729 -1.160830 0.058838 0.081838 0.000642 0.008372
    35 -0.963866 -2.785145 -0.085350 -0.345511 0.163139 -0.105950
    36 0.028479 -1.403067 0.006271 -0.848512 0.000000 0.000000
    37 0.021413 -0.957781 0.020046 -0.907761 0.000000 0.000000
    38 1.164475 -2.543940 -0.170330 -1.209812 -0.013294 0.477915
    39 0.024032 -1.129042 0.017807 -1.453003 0.000000 0.000001
    40 0.014898 -0.883989 -0.019848 0.128215 0.000000 0.000000
    41 -0.586770 -1.264477 0.200161 0.126017 -0.445585 -2.743539
    42 1.522835 0.058681 0.016848 0.001410 0.008985 0.342604
    43 1.117947 0.048424 -0.005766 -0.008081 -0.023868 0.382685
    44 -0.139399 -0.111698 0.014397 1.209113 0.256026 1.369783
    45 -1.393470 8.839177 -0.239433 1.580804 -0.005023 -1.566847
  time 30
    0 -0.944278 1.225283 0.541027 0.000000 0.000000 0.000000
    1 8.871383 -0.069257 -9.908420 -1.571120 -1.330246 1.223350
    2 -0.071918 -8.498729 -0.104136 0.222215 0.089995 -0.232667
    3 3.509751 -0.490461 0.743484 -3.051446 0.124854 -1.547391
    4 -4.604834 1.953982 0.000000 0.000000 0.000000 3.141592
    5 -1.491883 -2.192085 0.000001 0.000000 0.000000 -1.570796
    6 21.233133 0.000000 0.000000 0.000000 0.000000 0.000000
    7 0.000000 0.000000 0.000000 0.000000 0.000000 0.000000
    8 0.500716 -0.717737 -0.772266 3.141592 0.000000 1.570796
    9 0.531071 0.362873 -0.818099 -1.570796 1.570796 0.000000
    10 1.257180 8.762585 -0.153713 -1.570562 0.002683 -1.566807
    11 -0.488518 -2.755602 -0.228260 -0.186042 0.005934 -0.083631
    12 0.039887 -1.479790 0.029854 -2.165419 0.000000 0.000001
    13 0.028786 -1.075731 -0.023109 -1.399409 0.000000 0.000000
    14 0.250027 -2.820665 -0.238396 0.157693 -0.039690 0.158514
    15 -0.049759 -1.680544 0.100479 -1.621060 0.000000 -0.000002
    16 -0.034142 -1.148312 0.084782 -1.785312 0.000000 0.000000
    17 0.957766 -2.746780 -0.090302 0.178344 -0.172344 0.119866
    18 -0.033420 -1.397129 -0.011257 -1.242568 0.000000 -0.000001
    19 -0.022360 -0.957436 0.018784 -0.915050 0.000000 0.000000
    20 -1.180681 -2.507217 -0.193859 0.253911 0.096048 -0.028880
    21 -0.024967 -1.123934 0.017597 -1.613439 0.000000 0.000001
    22 -0.020057 -0.890968 0.010090 -1.691466 0.000000 0.000000
    23 0.583510 -1.197277 0.185379 0.344397 -0.598165 -0.858627
    24 1.535927 0.010246 0.005009 -0.002964 -0.012979 -0.682275
    25 1.100771 0.004527 -0.010679 -0.016147 -0.001453 -1.484192
    26 0.120153 -0.050270 -0.054489 0.287569 3.110905 1.561085
    27 -0.462181 -8.465734 -10.962555 -2.107353 -5.210391 -1.483004
    28 0.096944 -8.450418 -0.009365 -0.475320 -1.489847 0.915488
    29 0.447953 -2.798986 -0.200443 -1.057474 -0.010396 0.265094
    30 -0.032909 -1.480204 0.004940 -1.401033 0.000000 0.000002
    31 -0.027022 -1.076920 -0.020210 0.145969 0.000000 0.000000
    32 -0.249534 -2.846964 -0.174213 -0.654839 -0.000125 -0.008396
    33 0.043235 -1.683941 0.096012 -1.586065 0.002823 -0.000167
    34 0.031729 -1.160830 0.058838 0.081838 0.000642 0.008372
    35 -0.963866 -2.785145 -0.085350 -0.345511 0.163139 -0.105950
    36 0.028479 -1.403067 0.006271 -0.848512 0.000000 0.000000
    37 0.021413 -0.957781 0.020046 -0.907761 0.000000 0.000000
    38 1.164475 -2.543940 -0.170330 -1.209812 -0.013294 0.477915
    39 0.024032 -1.129042 0.017807 -1.453003 0.000000 0.000001
    40 0.014898 -0.883989 -0.019848 0.128215 0.000000 0.000000
    41 -0.586770 -1.264477 0.200161 0.126017 -0.445585 -2.743539
    42 1.522835 0.058681 0.016848 0.001410 0.008985 0.342268
    43 1.117947 0.048424 -0.005766 -0.008105 -0.023868 0.383222
    44 -0.139399 -0.111698 0.014397 1.209113 0.256026 1.369783
    45 -1.393470 8.839177 -0.239433 1.580804 -0.005023 -1.566847
end
