version 1
nodes
  0 "root" -1
  1 "Bone01" 0
  2 "Bone_Lefthand" 1
  3 "left_skull4_root" 2
  4 "left_skull4_grib" 3
  5 "left_skull4_magazine" 3
  6 "left_skull4_trigger" 3
  7 "Bone04" 0
  8 "Bone_Righthand" 7
  9 "right_skull4_root" 8
  10 "right_skull4_grib" 9
  11 "right_skull4_magazine" 9
  12 "right_skull4_trigger" 9
  13 "Bone_L_Upper" 1
  14 "Bone13" 2
  15 "Bone14" 14
  16 "Bone15" 15
  17 "Bone17" 2
  18 "Bone18" 17
  19 "Bone19" 18
  20 "Bone21" 2
  21 "Bone22" 20
  22 "Bone23" 21
  23 "Bone09" 2
  24 "Bone10" 23
  25 "Bone11" 24
  26 "Bone05" 2
  27 "Bone06" 26
  28 "Bone07" 27
  29 "Bone_Se_Hand-L" 2
  30 "Bone39" 8
  31 "Bone40" 30
  32 "Bone41" 31
  33 "Bone35" 8
  34 "Bone36" 33
  35 "Bone37" 34
  36 "Bone31" 8
  37 "Bone32" 36
  38 "Bone33" 37
  39 "Bone43" 8
  40 "Bone44" 39
  41 "Bone45" 40
  42 "Bone27" 8
  43 "Bone28" 42
  44 "Bone29" 43
  45 "Bone_Se_Hand-R" 8
  46 "Bone_R_Upper" 7
end
skeleton
  time 0
    0 0.000000 0.878933 -4.644612 -0.174533 0.000000 0.000000
    1 12.889416 4.357489 -7.910713 0.422454 -2.264821 -0.540887
    2 0.084337 -8.502637 0.173215 0.164431 0.543149 -0.359971
    3 1.776994 -2.723174 0.873419 0.134966 0.079135 3.004383
    4 -2.536482 9.152779 0.850404 0.000000 0.000000 -1.570796
    5 -1.546743 7.218124 0.000000 0.000000 0.000000 -0.002004
    6 -0.284830 1.799968 0.000000 0.000001 0.000000 0.000000
    7 -11.021444 5.345989 -7.558889 0.393734 2.082801 0.422417
    8 -0.227284 -8.466044 0.162515 0.053284 -0.334585 0.249785
    9 -1.471282 -3.093521 0.739297 3.070381 0.002168 0.135135
    10 -2.536482 9.152779 0.850403 0.000000 0.000000 -1.570796
    11 -1.546742 7.218122 -0.000001 0.000000 0.000000 -0.002004
    12 -0.284830 2.417173 0.000000 0.000001 0.000000 0.000000
    13 1.257180 8.762585 -0.153713 -1.570562 0.002683 -1.566807
    14 -0.488518 -2.755602 -0.228260 -0.647514 0.030346 -0.257527
    15 0.039887 -1.479790 0.029854 -1.670335 0.000000 0.000001
    16 0.028786 -1.075731 -0.023109 -1.197449 0.000000 0.000000
    17 0.250027 -2.820665 -0.238396 -0.482190 0.047366 -0.266951
    18 -0.049759 -1.680544 0.100479 -1.890537 0.000000 -0.000002
    19 -0.034142 -1.148312 0.084782 -1.087281 0.000000 0.000000
    20 0.953860 -3.043664 -0.031706 -0.200214 -0.028397 -0.018724
    21 -0.033420 -1.397129 -0.011257 -1.302073 0.136277 -0.074809
    22 -0.022360 -0.957436 0.018784 -0.829611 0.000000 0.000000
    23 -1.180681 -2.507217 -0.193859 -0.541359 0.150781 -0.464420
    24 -0.024967 -1.123934 0.017597 -1.488903 0.000000 0.000001
    25 -0.020057 -0.890968 0.010090 -1.277757 0.000000 0.000000
    26 0.583510 -1.197277 0.185379 0.316258 -1.087026 -0.583548
    27 1.535927 0.010246 0.005009 0.087412 0.030537 -1.135410
    28 1.100771 0.004527 -0.010679 -0.010778 0.012114 -0.550575
    29 0.120153 -0.050270 -0.054489 0.099906 3.110905 1.561085
    30 0.447953 -2.798986 -0.200443 -0.607948 0.000534 0.561976
    31 -0.032909 -1.480204 0.004940 -1.413633 0.000000 0.000002
    32 -0.027022 -1.076920 -0.020210 -1.481391 0.000000 0.000000
    33 -0.249534 -2.846964 -0.174213 -0.445831 0.004261 0.486845
    34 0.043235 -1.683941 0.096012 -1.469776 0.002823 -0.000167
    35 0.031729 -1.160830 0.058838 -1.698243 0.000642 0.008372
    36 -0.963866 -2.785145 -0.085350 0.057485 0.039254 0.065226
    37 0.028479 -1.403067 0.006271 -0.285462 0.000000 0.000000
    38 0.021413 -0.957781 0.020046 -0.387944 0.000000 0.000000
    39 1.164475 -2.543940 -0.170330 -0.557511 -0.035046 0.464229
    40 0.024032 -1.129042 0.017807 -1.373638 0.000000 0.000001
    41 0.014898 -0.883989 -0.019848 -1.103398 0.000000 0.000000
    42 -0.586770 -1.264477 0.200161 -0.683236 -0.842752 -2.270081
    43 1.522835 0.058681 0.016848 -0.059520 -0.122786 0.824758
    44 1.117947 0.048424 -0.005766 -0.016015 -0.019457 0.744725
    45 -0.041740 -0.115604 0.002678 0.136590 -0.022461 1.520273
    46 -1.393470 8.839177 -0.239433 1.580804 -0.005023 -1.566847
  time 1
    0 0.000000 2.222724 -4.644612 -0.174533 0.000000 0.000000
    1 12.889416 4.162170 -6.816930 0.422454 -2.264821 -0.540887
    2 0.084337 -8.502637 0.173215 0.140779 0.542410 -0.400395
    3 1.776994 -2.723174 0.873419 0.134966 0.079135 3.004383
    4 -2.540388 7.965242 0.795715 0.000000 0.000000 -1.570796
    5 -1.546743 7.218124 0.000000 0.000000 0.000000 -0.002004
    6 -0.284830 1.799968 0.000000 0.000001 0.000000 0.000000
    7 -11.033163 4.013917 -7.789365 0.393734 2.082801 0.422417
    8 -0.227284 -8.466044 0.162515 0.048858 -0.328129 0.250746
    9 -1.471282 -3.093521 0.739297 3.070381 0.002168 0.135135
    10 -2.536482 9.152779 0.850403 0.000000 0.000000 -1.570796
    11 -1.546742 7.218122 -0.000001 0.000000 0.000000 -0.002004
    12 -0.284830 2.417173 0.000000 0.000001 0.000000 0.000000
    13 1.257180 8.762585 -0.153713 -1.570562 0.002683 -1.566807
    14 -0.488518 -2.755602 -0.228260 -0.647514 0.030346 -0.257527
    15 0.039887 -1.479790 0.029854 -1.670335 0.000000 0.000001
    16 0.028786 -1.075731 -0.023109 -1.197449 0.000000 0.000000
    17 0.250027 -2.820665 -0.238396 -0.482190 0.047366 -0.266951
    18 -0.049759 -1.680544 0.100479 -1.890537 0.000000 -0.000002
    19 -0.034142 -1.148312 0.084782 -1.087281 0.000000 0.000000
    20 0.953860 -3.043664 -0.031706 -0.200214 -0.028397 -0.018724
    21 -0.033420 -1.397129 -0.011257 -1.302073 0.136277 -0.074809
    22 -0.022360 -0.957436 0.018784 -0.829611 0.000000 0.000000
    23 -1.180681 -2.507217 -0.193859 -0.541359 0.150781 -0.464420
    24 -0.024967 -1.123934 0.017597 -1.488903 0.000000 0.000001
    25 -0.020057 -0.890968 0.010090 -1.277757 0.000000 0.000000
    26 0.583510 -1.197277 0.185379 0.316258 -1.087026 -0.583548
    27 1.535927 0.010246 0.005009 0.087412 0.030537 -1.135410
    28 1.100771 0.004527 -0.010679 -0.010778 0.012114 -0.550575
    29 0.120153 -0.050270 -0.054489 0.099906 3.110905 1.561085
    30 0.447953 -2.798986 -0.200443 -0.607948 0.000534 0.561976
    31 -0.032909 -1.480204 0.004940 -1.413633 0.000000 0.000002
    32 -0.027022 -1.076920 -0.020210 -1.481391 0.000000 0.000000
    33 -0.249534 -2.846964 -0.174213 -0.445831 0.004261 0.486845
    34 0.043235 -1.683941 0.096012 -1.469776 0.002823 -0.000167
    35 0.031729 -1.160830 0.058838 -1.698243 0.000642 0.008372
    36 -0.963866 -2.785145 -0.085350 0.057485 0.039254 0.065226
    37 0.028479 -1.403067 0.006271 -0.285462 0.000000 0.000000
    38 0.021413 -0.957781 0.020046 -0.387944 0.000000 0.000000
    39 1.164475 -2.543940 -0.170330 -0.557511 -0.035046 0.464229
    40 0.024032 -1.129042 0.017807 -1.373638 0.000000 0.000001
    41 0.014898 -0.883989 -0.019848 -1.103430 0.000000 0.000000
    42 -0.586770 -1.264477 0.200161 -0.683236 -0.842752 -2.270081
    43 1.522835 0.058681 0.016848 -0.059520 -0.122786 0.824758
    44 1.117947 0.048424 -0.005766 -0.016015 -0.019457 0.744725
    45 -0.041740 -0.115604 0.002678 0.136590 -0.022461 1.520273
    46 -1.393470 8.839177 -0.239433 1.580804 -0.005023 -1.566847
  time 2
    0 0.000000 3.570421 -4.644612 -0.174533 0.000000 0.000000
    1 12.889416 4.205140 -7.059125 0.422454 -2.264821 -0.540887
    2 0.084337 -8.502637 0.173215 0.157010 0.540050 -0.361831
    3 1.776994 -2.723174 0.873419 0.134966 0.079135 3.004383
    4 -2.548201 7.250377 0.760558 0.000000 0.000000 -1.570796
    5 -1.546743 7.218124 0.000000 0.000000 0.000000 -0.002004
    6 -0.284830 1.799968 0.000000 0.000001 0.000000 0.000000
    7 -11.052695 2.689658 -8.019841 0.393734 2.082801 0.422417
    8 -0.227284 -8.466044 0.162515 0.039102 -0.313905 0.252933
    9 -1.471282 -3.093521 0.739297 3.070381 0.002168 0.135135
    10 -2.536482 9.152779 0.850403 0.000000 0.000000 -1.570796
    11 -1.546742 7.218122 -0.000001 0.000000 0.000000 -0.002004
    12 -0.284830 2.417173 0.000000 0.000001 0.000000 0.000000
    13 1.257180 8.762585 -0.153713 -1.570562 0.002683 -1.566807
    14 -0.488518 -2.755602 -0.228260 -0.647514 0.030346 -0.257527
    15 0.039887 -1.479790 0.029854 -1.670335 0.000000 0.000001
    16 0.028786 -1.075731 -0.023109 -1.197449 0.000000 0.000000
    17 0.250027 -2.820665 -0.238396 -0.482190 0.047366 -0.266951
    18 -0.049759 -1.680544 0.100479 -1.890537 0.000000 -0.000002
    19 -0.034142 -1.148312 0.084782 -1.087281 0.000000 0.000000
    20 0.953860 -3.043664 -0.031706 -0.200214 -0.028397 -0.018724
    21 -0.033420 -1.397129 -0.011257 -1.302073 0.136277 -0.074809
    22 -0.022360 -0.957436 0.018784 -0.829611 0.000000 0.000000
    23 -1.180681 -2.507217 -0.193859 -0.541359 0.150781 -0.464420
    24 -0.024967 -1.123934 0.017597 -1.488903 0.000000 0.000001
    25 -0.020057 -0.890968 0.010090 -1.277757 0.000000 0.000000
    26 0.583510 -1.197277 0.185379 0.316258 -1.087026 -0.583548
    27 1.535927 0.010246 0.005009 0.087412 0.030537 -1.135410
    28 1.100771 0.004527 -0.010679 -0.010778 0.012114 -0.550575
    29 0.120153 -0.050270 -0.054489 0.099906 3.110905 1.561085
    30 0.447953 -2.798986 -0.200443 -0.607948 0.000534 0.561976
    31 -0.032909 -1.480204 0.004940 -1.413633 0.000000 0.000002
    32 -0.027022 -1.076920 -0.020210 -1.481391 0.000000 0.000000
    33 -0.249534 -2.846964 -0.174213 -0.445831 0.004261 0.486845
    34 0.043235 -1.683941 0.096012 -1.469776 0.002823 -0.000167
    35 0.031729 -1.160830 0.058838 -1.698243 0.000642 0.008372
    36 -0.963866 -2.785145 -0.085350 0.057485 0.039254 0.065226
    37 0.028479 -1.403067 0.006271 -0.285462 0.000000 0.000000
    38 0.021413 -0.957781 0.020046 -0.387944 0.000000 0.000000
    39 1.164475 -2.543940 -0.170330 -0.557511 -0.035046 0.464229
    40 0.024032 -1.129042 0.017807 -1.373638 0.000000 0.000001
    41 0.014898 -0.883989 -0.019848 -1.103430 0.000000 0.000000
    42 -0.586770 -1.264477 0.200161 -0.683236 -0.842752 -2.270081
    43 1.522835 0.058681 0.016848 -0.059520 -0.122786 0.824758
    44 1.117947 0.048424 -0.005766 -0.016015 -0.019457 0.744725
    45 -0.041740 -0.115604 0.002678 0.136590 -0.022461 1.520273
    46 -1.393470 8.839177 -0.239433 1.580804 -0.005023 -1.566847
  time 3
    0 0.000000 3.468856 -4.644612 -0.174533 0.000000 0.000000
    1 12.889416 4.287174 -7.508357 0.422454 -2.264821 -0.540887
    2 0.084337 -8.502637 0.173215 0.187198 0.537480 -0.290245
    3 1.776994 -2.723174 0.873419 0.134966 0.079135 3.004383
    4 -2.548201 7.012088 0.748838 0.000000 0.000000 -1.570796
    5 -1.546743 7.218124 0.000000 0.000000 0.000000 -0.002004
    6 -0.284830 1.799968 0.000000 0.000001 0.000000 0.000000
    7 -11.080039 2.787317 -8.004215 0.393734 2.082801 0.422417
    8 -0.227284 -8.466044 0.162515 0.029346 -0.299680 0.255087
    9 -1.471282 -3.093521 0.739297 3.070381 0.002168 0.135135
    10 -2.536482 9.152779 0.850403 0.000000 0.000000 -1.570796
    11 -1.546742 7.218122 -0.000001 0.000000 0.000000 -0.002004
    12 -0.284830 2.417173 0.000000 0.000001 0.000000 0.000000
    13 1.257180 8.762585 -0.153713 -1.570562 0.002683 -1.566807
    14 -0.488518 -2.755602 -0.228260 -0.647514 0.030346 -0.257527
    15 0.039887 -1.479790 0.029854 -1.670335 0.000000 0.000001
    16 0.028786 -1.075731 -0.023109 -1.197449 0.000000 0.000000
    17 0.250027 -2.820665 -0.238396 -0.482190 0.047366 -0.266951
    18 -0.049759 -1.680544 0.100479 -1.890537 0.000000 -0.000002
    19 -0.034142 -1.148312 0.084782 -1.087281 0.000000 0.000000
    20 0.953860 -3.043664 -0.031706 -0.200214 -0.028397 -0.018724
    21 -0.033420 -1.397129 -0.011257 -1.302073 0.136277 -0.074809
    22 -0.022360 -0.957436 0.018784 -0.829611 0.000000 0.000000
    23 -1.180681 -2.507217 -0.193859 -0.541359 0.150781 -0.464420
    24 -0.024967 -1.123934 0.017597 -1.488903 0.000000 0.000001
    25 -0.020057 -0.890968 0.010090 -1.277757 0.000000 0.000000
    26 0.583510 -1.197277 0.185379 0.316258 -1.087026 -0.583548
    27 1.535927 0.010246 0.005009 0.087412 0.030537 -1.135410
    28 1.100771 0.004527 -0.010679 -0.010778 0.012114 -0.550575
    29 0.120153 -0.050270 -0.054489 0.099906 3.110905 1.561085
    30 0.447953 -2.798986 -0.200443 -0.607948 0.000534 0.561976
    31 -0.032909 -1.480204 0.004940 -1.413633 0.000000 0.000002
    32 -0.027022 -1.076920 -0.020210 -1.481391 0.000000 0.000000
    33 -0.249534 -2.846964 -0.174213 -0.445831 0.004261 0.486845
    34 0.043235 -1.683941 0.096012 -1.469776 0.002823 -0.000167
    35 0.031729 -1.160830 0.058838 -1.698243 0.000642 0.008372
    36 -0.963866 -2.785145 -0.085350 0.057485 0.039254 0.065226
    37 0.028479 -1.403067 0.006271 -0.285462 0.000000 0.000000
    38 0.021413 -0.957781 0.020046 -0.387944 0.000000 0.000000
    39 1.164475 -2.543940 -0.170330 -0.557511 -0.035046 0.464229
    40 0.024032 -1.129042 0.017807 -1.373638 0.000000 0.000001
    41 0.014898 -0.883989 -0.019848 -1.103398 0.000000 0.000000
    42 -0.586770 -1.264477 0.200161 -0.683236 -0.842752 -2.270081
    43 1.522835 0.058681 0.016848 -0.059520 -0.122786 0.824758
    44 1.117947 0.048424 -0.005766 -0.016015 -0.019457 0.744725
    45 -0.041740 -0.115604 0.002678 0.136590 -0.022461 1.520273
    46 -1.393470 8.839177 -0.239433 1.580804 -0.005023 -1.566847
  time 4
    0 0.000000 3.199316 -4.644612 -0.174533 0.000000 0.000000
    1 12.889416 4.330144 -7.750552 0.422454 -2.264821 -0.540887
    2 0.084337 -8.502637 0.173215 0.203461 0.536247 -0.251681
    3 1.776994 -2.723174 0.873419 0.134966 0.079135 3.004383
    4 -2.544295 7.258190 0.764464 0.000000 0.000000 -1.570796
    5 -1.546743 7.218124 0.000000 0.000000 0.000000 -0.002004
    6 -0.284830 1.799968 0.000000 0.000001 0.000000 0.000000
    7 -11.115197 3.056856 -7.957339 0.393734 2.082801 0.422417
    8 -0.227284 -8.466044 0.162515 0.024921 -0.293206 0.256048
    9 -1.471282 -3.093521 0.739297 3.070381 0.002168 0.135135
    10 -2.536482 9.152779 0.850403 0.000000 0.000000 -1.570796
    11 -1.546742 7.218122 -0.000001 0.000000 0.000000 -0.002004
    12 -0.284830 2.417173 0.000000 0.000001 0.000000 0.000000
    13 1.257180 8.762585 -0.153713 -1.570562 0.002683 -1.566807
    14 -0.488518 -2.755602 -0.228260 -0.647514 0.030346 -0.257527
    15 0.039887 -1.479790 0.029854 -1.670335 0.000000 0.000001
    16 0.028786 -1.075731 -0.023109 -1.197449 0.000000 0.000000
    17 0.250027 -2.820665 -0.238396 -0.482190 0.047366 -0.266951
    18 -0.049759 -1.680544 0.100479 -1.890537 0.000000 -0.000002
    19 -0.034142 -1.148312 0.084782 -1.087281 0.000000 0.000000
    20 0.953860 -3.043664 -0.031706 -0.200214 -0.028397 -0.018724
    21 -0.033420 -1.397129 -0.011257 -1.302073 0.136277 -0.074809
    22 -0.022360 -0.957436 0.018784 -0.829611 0.000000 0.000000
    23 -1.180681 -2.507217 -0.193859 -0.541359 0.150781 -0.464420
    24 -0.024967 -1.123934 0.017597 -1.488903 0.000000 0.000001
    25 -0.020057 -0.890968 0.010090 -1.277757 0.000000 0.000000
    26 0.583510 -1.197277 0.185379 0.316258 -1.087026 -0.583548
    27 1.535927 0.010246 0.005009 0.087412 0.030537 -1.135410
    28 1.100771 0.004527 -0.010679 -0.010778 0.012114 -0.550575
    29 0.120153 -0.050270 -0.054489 0.099906 3.110905 1.561085
    30 0.447953 -2.798986 -0.200443 -0.607948 0.000534 0.561976
    31 -0.032909 -1.480204 0.004940 -1.413633 0.000000 0.000002
    32 -0.027022 -1.076920 -0.020210 -1.481391 0.000000 0.000000
    33 -0.249534 -2.846964 -0.174213 -0.445831 0.004261 0.486845
    34 0.043235 -1.683941 0.096012 -1.469776 0.002823 -0.000167
    35 0.031729 -1.160830 0.058838 -1.698243 0.000642 0.008372
    36 -0.963866 -2.785145 -0.085350 0.057485 0.039254 0.065226
    37 0.028479 -1.403067 0.006271 -0.285462 0.000000 0.000000
    38 0.021413 -0.957781 0.020046 -0.387944 0.000000 0.000000
    39 1.164475 -2.543940 -0.170330 -0.557511 -0.035046 0.464229
    40 0.024032 -1.129042 0.017807 -1.373638 0.000000 0.000001
    41 0.014898 -0.883989 -0.019848 -1.103398 0.000000 0.000000
    42 -0.586770 -1.264477 0.200161 -0.683236 -0.842752 -2.270081
    43 1.522835 0.058681 0.016848 -0.059520 -0.122786 0.824758
    44 1.117947 0.048424 -0.005766 -0.016015 -0.019457 0.744725
    45 -0.041740 -0.115604 0.002678 0.136590 -0.022461 1.520273
    46 -1.393470 8.839177 -0.239433 1.580804 -0.005023 -1.566847
  time 5
    0 0.000000 2.804773 -4.644612 -0.174533 0.000000 0.000000
    1 12.889416 4.326238 -7.734927 0.422454 -2.264821 -0.540887
    2 0.084337 -8.502637 0.173215 0.201566 0.536353 -0.255876
    3 1.776994 -2.723174 0.873419 0.134966 0.079135 3.004383
    4 -2.540388 7.848051 0.791808 0.000000 0.000000 -1.570796
    5 -1.546743 7.218124 0.000000 0.000000 0.000000 -0.002004
    6 -0.284830 1.799968 0.000000 0.000001 0.000000 0.000000
    7 -11.142541 3.443587 -7.890931 0.393734 2.082801 0.422417
    8 -0.227284 -8.466044 0.162515 0.025382 -0.296321 0.255551
    9 -1.471282 -3.093521 0.739297 3.070381 0.002168 0.135135
    10 -2.536482 9.152779 0.850403 0.000000 0.000000 -1.570796
    11 -1.546742 7.218122 -0.000001 0.000000 0.000000 -0.002004
    12 -0.284830 2.417173 0.000000 0.000001 0.000000 0.000000
    13 1.257180 8.762585 -0.153713 -1.570562 0.002683 -1.566807
    14 -0.488518 -2.755602 -0.228260 -0.647514 0.030346 -0.257527
    15 0.039887 -1.479790 0.029854 -1.670335 0.000000 0.000001
    16 0.028786 -1.075731 -0.023109 -1.197449 0.000000 0.000000
    17 0.250027 -2.820665 -0.238396 -0.482190 0.047366 -0.266951
    18 -0.049759 -1.680544 0.100479 -1.890537 0.000000 -0.000002
    19 -0.034142 -1.148312 0.084782 -1.087281 0.000000 0.000000
    20 0.953860 -3.043664 -0.031706 -0.200214 -0.028397 -0.018724
    21 -0.033420 -1.397129 -0.011257 -1.302073 0.136277 -0.074809
    22 -0.022360 -0.957436 0.018784 -0.829611 0.000000 0.000000
    23 -1.180681 -2.507217 -0.193859 -0.541359 0.150781 -0.464420
    24 -0.024967 -1.123934 0.017597 -1.488903 0.000000 0.000001
    25 -0.020057 -0.890968 0.010090 -1.277757 0.000000 0.000000
    26 0.583510 -1.197277 0.185379 0.316258 -1.087026 -0.583548
    27 1.535927 0.010246 0.005009 0.087412 0.030537 -1.135410
    28 1.100771 0.004527 -0.010679 -0.010778 0.012114 -0.550575
    29 0.120153 -0.050270 -0.054489 0.099906 3.110905 1.561085
    30 0.447953 -2.798986 -0.200443 -0.607948 0.000534 0.561976
    31 -0.032909 -1.480204 0.004940 -1.413633 0.000000 0.000002
    32 -0.027022 -1.076920 -0.020210 -1.481391 0.000000 0.000000
    33 -0.249534 -2.846964 -0.174213 -0.445831 0.004261 0.486845
    34 0.043235 -1.683941 0.096012 -1.469776 0.002823 -0.000167
    35 0.031729 -1.160830 0.058838 -1.698243 0.000642 0.008372
    36 -0.963866 -2.785145 -0.085350 0.057485 0.039254 0.065226
    37 0.028479 -1.403067 0.006271 -0.285462 0.000000 0.000000
    38 0.021413 -0.957781 0.020046 -0.387944 0.000000 0.000000
    39 1.164475 -2.543940 -0.170330 -0.557511 -0.035046 0.464229
    40 0.024032 -1.129042 0.017807 -1.373638 0.000000 0.000001
    41 0.014898 -0.883989 -0.019848 -1.103398 0.000000 0.000000
    42 -0.586770 -1.264477 0.200161 -0.683236 -0.842752 -2.270081
    43 1.522835 0.058681 0.016848 -0.059520 -0.122786 0.824758
    44 1.117947 0.048424 -0.005766 -0.016015 -0.019457 0.744725
    45 -0.041740 -0.115604 0.002678 0.136590 -0.022461 1.520273
    46 -1.393470 8.839177 -0.239433 1.580804 -0.005023 -1.566847
  time 6
    0 0.000000 2.339915 -4.644612 -0.174533 0.000000 0.000000
    1 12.889416 4.318425 -7.695863 0.422454 -2.264821 -0.540887
    2 0.084337 -8.502637 0.173215 0.196419 0.536599 -0.267357
    3 1.776994 -2.723174 0.873419 0.134966 0.079135 3.004383
    4 -2.536482 8.551198 0.823059 0.000000 0.000000 -1.570796
    5 -1.546743 7.218124 0.000000 0.000000 0.000000 -0.002004
    6 -0.284830 1.811687 0.000000 0.000001 0.000000 0.000000
    7 -11.165979 3.904539 -7.812803 0.393734 2.082801 0.422417
    8 -0.227284 -8.466044 0.162515 0.026633 -0.304503 0.254159
    9 -1.471282 -3.093521 0.739297 3.070381 0.002168 0.135135
    10 -2.536482 9.152779 0.850403 0.000000 0.000000 -1.570796
    11 -1.546742 7.218122 -0.000001 0.000000 0.000000 -0.002004
    12 -0.284830 2.417173 0.000000 0.000001 0.000000 0.000000
    13 1.257180 8.762585 -0.153713 -1.570562 0.002683 -1.566807
    14 -0.488518 -2.755602 -0.228260 -0.647514 0.030346 -0.257527
    15 0.039887 -1.479790 0.029854 -1.670335 0.000000 0.000001
    16 0.028786 -1.075731 -0.023109 -1.197449 0.000000 0.000000
    17 0.250027 -2.820665 -0.238396 -0.482190 0.047366 -0.266951
    18 -0.049759 -1.680544 0.100479 -1.890537 0.000000 -0.000002
    19 -0.034142 -1.148312 0.084782 -1.087281 0.000000 0.000000
    20 0.953860 -3.031945 -0.035613 -0.200214 -0.028397 -0.018724
    21 -0.033420 -1.397129 -0.011257 -1.272232 0.136277 -0.074809
    22 -0.022360 -0.957436 0.018784 -0.815062 0.000000 0.000000
    23 -1.180681 -2.507217 -0.193859 -0.541359 0.150781 -0.464420
    24 -0.024967 -1.123934 0.017597 -1.488903 0.000000 0.000001
    25 -0.020057 -0.890968 0.010090 -1.277757 0.000000 0.000000
    26 0.583510 -1.197277 0.185379 0.316258 -1.087026 -0.583548
    27 1.535927 0.010246 0.005009 0.087412 0.030537 -1.135410
    28 1.100771 0.004527 -0.010679 -0.010778 0.012114 -0.550575
    29 0.120153 -0.050270 -0.054489 0.099906 3.110905 1.561085
    30 0.447953 -2.798986 -0.200443 -0.607948 0.000534 0.561976
    31 -0.032909 -1.480204 0.004940 -1.413633 0.000000 0.000002
    32 -0.027022 -1.076920 -0.020210 -1.481391 0.000000 0.000000
    33 -0.249534 -2.846964 -0.174213 -0.445831 0.004261 0.486845
    34 0.043235 -1.683941 0.096012 -1.469776 0.002823 -0.000167
    35 0.031729 -1.160830 0.058838 -1.698243 0.000642 0.008372
    36 -0.963866 -2.785145 -0.085350 0.057485 0.039254 0.065226
    37 0.028479 -1.403067 0.006271 -0.285462 0.000000 0.000000
    38 0.021413 -0.957781 0.020046 -0.387944 0.000000 0.000000
    39 1.164475 -2.543940 -0.170330 -0.557511 -0.035046 0.464229
    40 0.024032 -1.129042 0.017807 -1.373638 0.000000 0.000001
    41 0.014898 -0.883989 -0.019848 -1.103398 0.000000 0.000000
    42 -0.586770 -1.264477 0.200161 -0.683236 -0.842752 -2.270081
    43 1.522835 0.058681 0.016848 -0.059520 -0.122786 0.824758
    44 1.117947 0.048424 -0.005766 -0.016015 -0.019457 0.744725
    45 -0.041740 -0.115604 0.002678 0.136590 -0.022461 1.520273
    46 -1.393470 8.839177 -0.239433 1.580804 -0.005023 -1.566847
  time 7
    0 0.000000 1.847713 -4.644612 -0.174533 0.000000 0.000000
    1 12.889416 4.306706 -7.633361 0.422454 -2.264821 -0.540887
    2 0.084337 -8.502637 0.173215 0.188714 0.536987 -0.284514
    3 1.776994 -2.723174 0.873419 0.134966 0.079135 3.004383
    4 -2.532576 9.141060 0.850404 0.000000 0.000000 -1.570796
    5 -1.546743 7.218124 0.000000 0.000000 0.000000 -0.002004
    6 -0.284830 1.842938 0.000000 0.000001 0.000000 0.000000
    7 -11.173792 4.385022 -7.726863 0.393734 2.082801 0.422417
    8 -0.227284 -8.466044 0.162515 0.028461 -0.316100 0.252237
    9 -1.471282 -3.093521 0.739297 3.070381 0.002168 0.135135
    10 -2.536482 9.152779 0.850403 0.000000 0.000000 -1.570796
    11 -1.546742 7.218122 -0.000001 0.000000 0.000000 -0.002004
    12 -0.284830 2.417173 0.000000 0.000001 0.000000 0.000000
    13 1.257180 8.762585 -0.153713 -1.570562 0.002683 -1.566807
    14 -0.488518 -2.755602 -0.228260 -0.647514 0.030346 -0.257527
    15 0.039887 -1.479790 0.029854 -1.670335 0.000000 0.000001
    16 0.028786 -1.075731 -0.023109 -1.197449 0.000000 0.000000
    17 0.250027 -2.820665 -0.238396 -0.482190 0.047366 -0.266951
    18 -0.049759 -1.680544 0.100479 -1.890537 0.000000 -0.000002
    19 -0.034142 -1.148312 0.084782 -1.087281 0.000000 0.000000
    20 0.953860 -3.012413 -0.039519 -0.200214 -0.028397 -0.018724
    21 -0.033420 -1.397129 -0.011257 -1.191184 0.136277 -0.074809
    22 -0.022360 -0.957436 0.018784 -0.775612 0.000000 0.000000
    23 -1.180681 -2.507217 -0.193859 -0.541359 0.150781 -0.464420
    24 -0.024967 -1.123934 0.017597 -1.488903 0.000000 0.000001
    25 -0.020057 -0.890968 0.010090 -1.277757 0.000000 0.000000
    26 0.583510 -1.197277 0.185379 0.316258 -1.087026 -0.583548
    27 1.535927 0.010246 0.005009 0.087412 0.030537 -1.135410
    28 1.100771 0.004527 -0.010679 -0.010778 0.012114 -0.550575
    29 0.120153 -0.050270 -0.054489 0.099906 3.110905 1.561085
    30 0.447953 -2.798986 -0.200443 -0.607948 0.000534 0.561976
    31 -0.032909 -1.480204 0.004940 -1.413633 0.000000 0.000002
    32 -0.027022 -1.076920 -0.020210 -1.481391 0.000000 0.000000
    33 -0.249534 -2.846964 -0.174213 -0.445831 0.004261 0.486845
    34 0.043235 -1.683941 0.096012 -1.469776 0.002823 -0.000167
    35 0.031729 -1.160830 0.058838 -1.698243 0.000642 0.008372
    36 -0.963866 -2.785145 -0.085350 0.057485 0.039254 0.065226
    37 0.028479 -1.403067 0.006271 -0.285462 0.000000 0.000000
    38 0.021413 -0.957781 0.020046 -0.387944 0.000000 0.000000
    39 1.164475 -2.543940 -0.170330 -0.557511 -0.035046 0.464229
    40 0.024032 -1.129042 0.017807 -1.373638 0.000000 0.000001
    41 0.014898 -0.883989 -0.019848 -1.103430 0.000000 0.000000
    42 -0.586770 -1.264477 0.200161 -0.683236 -0.842752 -2.270081
    43 1.522835 0.058681 0.016848 -0.059520 -0.122786 0.824758
    44 1.117947 0.048424 -0.005766 -0.016015 -0.019457 0.744725
    45 -0.041740 -0.115604 0.002678 0.136590 -0.022461 1.520273
    46 -1.393470 8.839177 -0.239433 1.580804 -0.005023 -1.566847
  time 8
    0 0.000000 1.382855 -4.644612 -0.174533 0.000000 0.000000
    1 12.889416 4.294987 -7.555234 0.422454 -2.264821 -0.540887
    2 0.084337 -8.502637 0.173215 0.179177 0.537515 -0.305712
    3 1.776994 -2.723174 0.873419 0.134966 0.079135 3.004383
    4 -2.528669 9.383254 0.862123 0.000000 0.000000 -1.570796
    5 -1.546743 7.218124 0.000000 0.000000 0.000000 -0.002004
    6 -0.284830 1.889814 0.000000 0.000001 0.000000 0.000000
    7 -11.169886 4.845973 -7.644829 0.393734 2.082801 0.422417
    8 -0.227284 -8.466044 0.162515 0.030636 -0.329368 0.250017
    9 -1.471282 -3.093521 0.739297 3.070381 0.002168 0.135135
    10 -2.536482 9.152779 0.850403 0.000000 0.000000 -1.570796
    11 -1.546742 7.218122 -0.000001 0.000000 0.000000 -0.002004
    12 -0.284830 2.417173 0.000000 0.000001 0.000000 0.000000
    13 1.257180 8.762585 -0.153713 -1.570562 0.002683 -1.566807
    14 -0.488518 -2.755602 -0.228260 -0.647514 0.030346 -0.257527
    15 0.039887 -1.479790 0.029854 -1.670335 0.000000 0.000001
    16 0.028786 -1.075731 -0.023109 -1.197449 0.000000 0.000000
    17 0.250027 -2.820665 -0.238396 -0.482190 0.047366 -0.266951
    18 -0.049759 -1.680544 0.100479 -1.890537 0.000000 -0.000002
    19 -0.034142 -1.148312 0.084782 -1.087281 0.000000 0.000000
    20 0.953860 -2.977256 -0.043426 -0.200214 -0.028397 -0.018724
    21 -0.033420 -1.397129 -0.011257 -1.071781 0.136277 -0.074809
    22 -0.022360 -0.957436 0.018784 -0.717493 0.000000 0.000000
    23 -1.180681 -2.507217 -0.193859 -0.541359 0.150781 -0.464420
    24 -0.024967 -1.123934 0.017597 -1.488903 0.000000 0.000001
    25 -0.020057 -0.890968 0.010090 -1.277757 0.000000 0.000000
    26 0.583510 -1.197277 0.185379 0.316258 -1.087026 -0.583548
    27 1.535927 0.010246 0.005009 0.087412 0.030537 -1.135410
    28 1.100771 0.004527 -0.010679 -0.010778 0.012114 -0.550575
    29 0.120153 -0.050270 -0.054489 0.099906 3.110905 1.561085
    30 0.447953 -2.798986 -0.200443 -0.607948 0.000534 0.561976
    31 -0.032909 -1.480204 0.004940 -1.413633 0.000000 0.000002
    32 -0.027022 -1.076920 -0.020210 -1.481391 0.000000 0.000000
    33 -0.249534 -2.846964 -0.174213 -0.445831 0.004261 0.486845
    34 0.043235 -1.683941 0.096012 -1.469776 0.002823 -0.000167
    35 0.031729 -1.160830 0.058838 -1.698243 0.000642 0.008372
    36 -0.963866 -2.785145 -0.085350 0.057485 0.039254 0.065226
    37 0.028479 -1.403067 0.006271 -0.285462 0.000000 0.000000
    38 0.021413 -0.957781 0.020046 -0.387944 0.000000 0.000000
    39 1.164475 -2.543940 -0.170330 -0.557511 -0.035046 0.464229
    40 0.024032 -1.129042 0.017807 -1.373638 0.000000 0.000001
    41 0.014898 -0.883989 -0.019848 -1.103398 0.000000 0.000000
    42 -0.586770 -1.264477 0.200161 -0.683236 -0.842752 -2.270081
    43 1.522835 0.058681 0.016848 -0.059520 -0.122786 0.824758
    44 1.117947 0.048424 -0.005766 -0.016015 -0.019457 0.744725
    45 -0.041740 -0.115604 0.002678 0.136590 -0.022461 1.520273
    46 -1.393470 8.839177 -0.239433 1.580804 -0.005023 -1.566847
  time 9
    0 0.000000 0.988311 -4.644612 -0.174533 0.000000 0.000000
    1 12.889416 4.279361 -7.473200 0.422454 -2.264821 -0.540887
    2 0.084337 -8.502637 0.173215 0.168536 0.538078 -0.329340
    3 1.776994 -2.723174 0.873419 0.134966 0.079135 3.004383
    4 -2.532576 9.324659 0.858217 0.000000 0.000000 -1.570796
    5 -1.546743 7.218124 0.000000 0.000000 0.000000 -0.002004
    6 -0.284830 1.948410 0.000000 0.000001 0.000000 0.000000
    7 -11.165979 5.232704 -7.578421 0.393734 2.082801 0.422417
    8 -0.227284 -8.466044 0.162515 0.032945 -0.342654 0.247796
    9 -1.471282 -3.093521 0.739297 3.070381 0.002168 0.135135
    10 -2.536482 9.152779 0.850403 0.000000 0.000000 -1.570796
    11 -1.546742 7.218122 -0.000001 0.000000 0.000000 -0.002004
    12 -0.284830 2.417173 0.000000 0.000001 0.000000 0.000000
    13 1.257180 8.762585 -0.153713 -1.570562 0.002683 -1.566807
    14 -0.488518 -2.755602 -0.228260 -0.647514 0.030346 -0.257527
    15 0.039887 -1.479790 0.029854 -1.670335 0.000000 0.000001
    16 0.028786 -1.075731 -0.023109 -1.197449 0.000000 0.000000
    17 0.250027 -2.820665 -0.238396 -0.482190 0.047366 -0.266951
    18 -0.049759 -1.680544 0.100479 -1.890537 0.000000 -0.000002
    19 -0.034142 -1.148312 0.084782 -1.087313 0.000000 0.000000
    20 0.953860 -2.938192 -0.055145 -0.200214 -0.028397 -0.018724
    21 -0.033420 -1.397129 -0.011257 -0.926755 0.136277 -0.074809
    22 -0.022360 -0.957436 0.018784 -0.646911 0.000000 0.000000
    23 -1.180681 -2.507217 -0.193859 -0.541359 0.150781 -0.464420
    24 -0.024967 -1.123934 0.017597 -1.488903 0.000000 0.000001
    25 -0.020057 -0.890968 0.010090 -1.277757 0.000000 0.000000
    26 0.583510 -1.197277 0.185379 0.316258 -1.087026 -0.583548
    27 1.535927 0.010246 0.005009 0.087412 0.030537 -1.135410
    28 1.100771 0.004527 -0.010679 -0.010778 0.012114 -0.550575
    29 0.120153 -0.050270 -0.054489 0.099906 3.110905 1.561085
    30 0.447953 -2.798986 -0.200443 -0.607948 0.000534 0.561976
    31 -0.032909 -1.480204 0.004940 -1.413633 0.000000 0.000002
    32 -0.027022 -1.076920 -0.020210 -1.481391 0.000000 0.000000
    33 -0.249534 -2.846964 -0.174213 -0.445831 0.004261 0.486845
    34 0.043235 -1.683941 0.096012 -1.469776 0.002823 -0.000167
    35 0.031729 -1.160830 0.058838 -1.698243 0.000642 0.008372
    36 -0.963866 -2.785145 -0.085350 0.057485 0.039254 0.065226
    37 0.028479 -1.403067 0.006271 -0.285462 0.000000 0.000000
    38 0.021413 -0.957781 0.020046 -0.387944 0.000000 0.000000
    39 1.164475 -2.543940 -0.170330 -0.557511 -0.035046 0.464229
    40 0.024032 -1.129042 0.017807 -1.373638 0.000000 0.000001
    41 0.014898 -0.883989 -0.019848 -1.103398 0.000000 0.000000
    42 -0.586770 -1.264477 0.200161 -0.683236 -0.842752 -2.270081
    43 1.522835 0.058681 0.016848 -0.059520 -0.122786 0.824758
    44 1.117947 0.048424 -0.005766 -0.016015 -0.019457 0.744725
    45 -0.041740 -0.115604 0.002678 0.136590 -0.022461 1.520273
    46 -1.393470 8.839177 -0.239433 1.580804 -0.005023 -1.566847
  time 10
    0 0.000000 0.718772 -4.644612 -0.174533 0.000000 0.000000
    1 12.889416 4.263736 -7.383353 0.422454 -2.264821 -0.540887
    2 0.084337 -8.502637 0.173215 0.157547 0.538712 -0.353784
    3 1.776994 -2.723174 0.873419 0.134966 0.079135 3.004383
    4 -2.536482 9.211374 0.850404 0.000000 0.000000 -1.570796
    5 -1.546743 7.218124 0.000000 0.000000 0.000000 -0.002004
    6 -0.284830 2.010912 0.000000 0.000001 0.000000 0.000000
    7 -11.158167 5.502244 -7.531545 0.393734 2.082801 0.422417
    8 -0.227284 -8.466044 0.162515 0.035158 -0.354233 0.245874
    9 -1.471282 -3.093521 0.739297 3.070381 0.002168 0.135135
    10 -2.536482 9.152779 0.850403 0.000000 0.000000 -1.570796
    11 -1.546742 7.218122 -0.000001 0.000000 0.000000 -0.002004
    12 -0.284830 2.417173 0.000000 0.000001 0.000000 0.000000
    13 1.257180 8.762585 -0.153713 -1.570562 0.002683 -1.566807
    14 -0.488518 -2.755602 -0.228260 -0.647514 0.030346 -0.257527
    15 0.039887 -1.479790 0.029854 -1.670335 0.000000 0.000001
    16 0.028786 -1.075731 -0.023109 -1.197449 0.000000 0.000000
    17 0.250027 -2.820665 -0.238396 -0.482190 0.047366 -0.266951
    18 -0.049759 -1.680544 0.100479 -1.890537 0.000000 -0.000002
    19 -0.034142 -1.148312 0.084782 -1.087313 0.000000 0.000000
    20 0.957766 -2.895222 -0.062957 -0.200214 -0.028397 -0.018724
    21 -0.033420 -1.397129 -0.011257 -0.768956 0.136277 -0.074809
    22 -0.022360 -0.957436 0.018784 -0.570097 0.000000 0.000000
    23 -1.180681 -2.507217 -0.193859 -0.541359 0.150781 -0.464420
    24 -0.024967 -1.123934 0.017597 -1.488903 0.000000 0.000001
    25 -0.020057 -0.890968 0.010090 -1.277757 0.000000 0.000000
    26 0.583510 -1.197277 0.185379 0.316258 -1.087026 -0.583548
    27 1.535927 0.010246 0.005009 0.087412 0.030537 -1.135410
    28 1.100771 0.004527 -0.010679 -0.010778 0.012114 -0.550575
    29 0.120153 -0.050270 -0.054489 0.099906 3.110905 1.561085
    30 0.447953 -2.798986 -0.200443 -0.607948 0.000534 0.561976
    31 -0.032909 -1.480204 0.004940 -1.413633 0.000000 0.000002
    32 -0.027022 -1.076920 -0.020210 -1.481391 0.000000 0.000000
    33 -0.249534 -2.846964 -0.174213 -0.445831 0.004261 0.486845
    34 0.043235 -1.683941 0.096012 -1.469776 0.002823 -0.000167
    35 0.031729 -1.160830 0.058838 -1.698243 0.000642 0.008372
    36 -0.963866 -2.785145 -0.085350 0.057485 0.039254 0.065226
    37 0.028479 -1.403067 0.006271 -0.285462 0.000000 0.000000
    38 0.021413 -0.957781 0.020046 -0.387944 0.000000 0.000000
    39 1.164475 -2.543940 -0.170330 -0.557511 -0.035046 0.464229
    40 0.024032 -1.129042 0.017807 -1.373638 0.000000 0.000001
    41 0.014898 -0.883989 -0.019848 -1.103430 0.000000 0.000000
    42 -0.586770 -1.264477 0.200161 -0.683236 -0.842752 -2.270081
    43 1.522835 0.058681 0.016848 -0.059520 -0.122786 0.824758
    44 1.117947 0.048424 -0.005766 -0.016015 -0.019457 0.744725
    45 -0.041740 -0.115604 0.002678 0.136590 -0.022461 1.520273
    46 -1.393470 8.839177 -0.239433 1.580804 -0.005023 -1.566847
  time 11
    0 0.000000 0.617206 -4.644612 -0.174533 0.000000 0.000000
    1 12.889416 4.248110 -7.301320 0.422454 -2.264821 -0.540887
    2 0.084337 -8.502637 0.173215 0.146905 0.539346 -0.377431
    3 1.776994 -2.723174 0.873419 0.134966 0.079135 3.004383
    4 -2.536482 9.152779 0.850404 0.000000 0.000000 -1.570796
    5 -1.546743 7.218124 0.000000 0.000000 0.000000 -0.002004
    6 -0.284830 2.073414 0.000000 0.000001 0.000000 0.000000
    7 -11.146448 5.599903 -7.512013 0.393734 2.082801 0.422417
    8 -0.227284 -8.466044 0.162515 0.037082 -0.362433 0.244482
    9 -1.471282 -3.093521 0.739297 3.070381 0.002168 0.135135
    10 -2.536482 9.152779 0.850403 0.000000 0.000000 -1.570796
    11 -1.546742 7.218122 -0.000001 0.000000 0.000000 -0.002004
    12 -0.284830 2.417173 0.000000 0.000001 0.000000 0.000000
    13 1.257180 8.762585 -0.153713 -1.570562 0.002683 -1.566807
    14 -0.488518 -2.755602 -0.228260 -0.647514 0.030346 -0.257527
    15 0.039887 -1.479790 0.029854 -1.670335 0.000000 0.000001
    16 0.028786 -1.075731 -0.023109 -1.197449 0.000000 0.000000
    17 0.250027 -2.820665 -0.238396 -0.482190 0.047366 -0.266951
    18 -0.049759 -1.680544 0.100479 -1.890537 0.000000 -0.000002
    19 -0.034142 -1.148312 0.084782 -1.087281 0.000000 0.000000
    20 0.957766 -2.848346 -0.070770 -0.200214 -0.028397 -0.018724
    21 -0.033420 -1.397129 -0.011257 -0.611118 0.136277 -0.074809
    22 -0.022360 -0.957436 0.018784 -0.493309 0.000000 0.000000
    23 -1.180681 -2.507217 -0.193859 -0.541359 0.150781 -0.464420
    24 -0.024967 -1.123934 0.017597 -1.488903 0.000000 0.000001
    25 -0.020057 -0.890968 0.010090 -1.277757 0.000000 0.000000
    26 0.583510 -1.197277 0.185379 0.316258 -1.087026 -0.583548
    27 1.535927 0.010246 0.005009 0.087412 0.030537 -1.135410
    28 1.100771 0.004527 -0.010679 -0.010778 0.012114 -0.550575
    29 0.120153 -0.050270 -0.054489 0.099906 3.110905 1.561085
    30 0.447953 -2.798986 -0.200443 -0.607948 0.000534 0.561976
    31 -0.032909 -1.480204 0.004940 -1.413633 0.000000 0.000002
    32 -0.027022 -1.076920 -0.020210 -1.481391 0.000000 0.000000
    33 -0.249534 -2.846964 -0.174213 -0.445831 0.004261 0.486845
    34 0.043235 -1.683941 0.096012 -1.469776 0.002823 -0.000167
    35 0.031729 -1.160830 0.058838 -1.698243 0.000642 0.008372
    36 -0.963866 -2.785145 -0.085350 0.057485 0.039254 0.065226
    37 0.028479 -1.403067 0.006271 -0.285462 0.000000 0.000000
    38 0.021413 -0.957781 0.020046 -0.387944 0.000000 0.000000
    39 1.164475 -2.543940 -0.170330 -0.557511 -0.035046 0.464229
    40 0.024032 -1.129042 0.017807 -1.373638 0.000000 0.000001
    41 0.014898 -0.883989 -0.019848 -1.103430 0.000000 0.000000
    42 -0.586770 -1.264477 0.200161 -0.683236 -0.842752 -2.270081
    43 1.522835 0.058681 0.016848 -0.059520 -0.122786 0.824758
    44 1.117947 0.048424 -0.005766 -0.016015 -0.019457 0.744725
    45 -0.041740 -0.115604 0.002678 0.136590 -0.022461 1.520273
    46 -1.393470 8.839177 -0.239433 1.580804 -0.005023 -1.566847
  time 12
    0 0.000000 0.632832 -4.644612 -0.174533 0.000000 0.000000
    1 12.889416 4.236391 -7.223192 0.422454 -2.264821 -0.540887
    2 0.084337 -8.502637 0.173215 0.137368 0.539980 -0.398630
    3 1.776994 -2.723174 0.873419 0.134966 0.079135 3.004383
    4 -2.536482 9.152779 0.850404 0.000000 0.000000 -1.570796
    5 -1.546743 7.218124 0.000000 0.000000 0.000000 -0.002004
    6 -0.284830 2.132009 0.000000 0.000001 0.000000 0.000000
    7 -11.134728 5.584277 -7.515919 0.393734 2.082801 0.422417
    8 -0.227284 -8.466044 0.162515 0.038467 -0.365549 0.243985
    9 -1.471282 -3.093521 0.739297 3.070381 0.002168 0.135135
    10 -2.536482 9.152779 0.850403 0.000000 0.000000 -1.570796
    11 -1.546742 7.218122 -0.000001 0.000000 0.000000 -0.002004
    12 -0.284830 2.417173 0.000000 0.000001 0.000000 0.000000
    13 1.257180 8.762585 -0.153713 -1.570562 0.002683 -1.566807
    14 -0.488518 -2.755602 -0.228260 -0.647514 0.030346 -0.257527
    15 0.039887 -1.479790 0.029854 -1.670335 0.000000 0.000001
    16 0.028786 -1.075731 -0.023109 -1.197449 0.000000 0.000000
    17 0.250027 -2.820665 -0.238396 -0.482190 0.047366 -0.266951
    18 -0.049759 -1.680544 0.100479 -1.890537 0.000000 -0.000002
    19 -0.034142 -1.148312 0.084782 -1.087281 0.000000 0.000000
    20 0.957766 -2.809282 -0.078583 -0.200214 -0.028397 -0.018724
    21 -0.033420 -1.397129 -0.011257 -0.466091 0.136277 -0.074809
    22 -0.022360 -0.957436 0.018784 -0.422726 0.000000 0.000000
    23 -1.180681 -2.507217 -0.193859 -0.541359 0.150781 -0.464420
    24 -0.024967 -1.123934 0.017597 -1.488903 0.000000 0.000001
    25 -0.020057 -0.890968 0.010090 -1.277757 0.000000 0.000000
    26 0.583510 -1.197277 0.185379 0.316258 -1.087026 -0.583548
    27 1.535927 0.010246 0.005009 0.087412 0.030537 -1.135410
    28 1.100771 0.004527 -0.010679 -0.010778 0.012114 -0.550575
    29 0.120153 -0.050270 -0.054489 0.099906 3.110905 1.561085
    30 0.447953 -2.798986 -0.200443 -0.607948 0.000534 0.561976
    31 -0.032909 -1.480204 0.004940 -1.413633 0.000000 0.000002
    32 -0.027022 -1.076920 -0.020210 -1.481391 0.000000 0.000000
    33 -0.249534 -2.846964 -0.174213 -0.445831 0.004261 0.486845
    34 0.043235 -1.683941 0.096012 -1.469776 0.002823 -0.000167
    35 0.031729 -1.160830 0.058838 -1.698243 0.000642 0.008372
    36 -0.963866 -2.785145 -0.085350 0.057485 0.039254 0.065226
    37 0.028479 -1.403067 0.006271 -0.285462 0.000000 0.000000
    38 0.021413 -0.957781 0.020046 -0.387944 0.000000 0.000000
    39 1.164475 -2.543940 -0.170330 -0.557511 -0.035046 0.464229
    40 0.024032 -1.129042 0.017807 -1.373638 0.000000 0.000001
    41 0.014898 -0.883989 -0.019848 -1.103398 0.000000 0.000000
    42 -0.586770 -1.264477 0.200161 -0.683236 -0.842752 -2.270081
    43 1.522835 0.058681 0.016848 -0.059520 -0.122786 0.824758
    44 1.117947 0.048424 -0.005766 -0.016015 -0.019457 0.744725
    45 -0.041740 -0.115604 0.002678 0.136590 -0.022461 1.520273
    46 -1.393470 8.839177 -0.239433 1.580804 -0.005023 -1.566847
  time 13
    0 0.000000 0.675802 -4.644612 -0.174533 0.000000 0.000000
    1 12.889416 4.224672 -7.160690 0.422454 -2.264821 -0.540887
    2 0.084337 -8.502637 0.173215 0.129663 0.540579 -0.415786
    3 1.776994 -2.723174 0.873419 0.134966 0.079135 3.004383
    4 -2.536482 9.152779 0.850404 0.000000 0.000000 -1.570796
    5 -1.546743 7.218124 0.000000 0.000000 0.000000 -0.002004
    6 -0.284830 2.178886 0.000000 0.000001 0.000000 0.000000
    7 -11.119103 5.541307 -7.523732 0.393734 2.082801 0.422417
    8 -0.227284 -8.466044 0.162515 0.039391 -0.364760 0.244085
    9 -1.471282 -3.093521 0.739297 3.070381 0.002168 0.135135
    10 -2.536482 9.152779 0.850403 0.000000 0.000000 -1.570796
    11 -1.546742 7.218122 -0.000001 0.000000 0.000000 -0.002004
    12 -0.284830 2.417173 0.000000 0.000001 0.000000 0.000000
    13 1.257180 8.762585 -0.153713 -1.570562 0.002683 -1.566807
    14 -0.488518 -2.755602 -0.228260 -0.647514 0.030346 -0.257527
    15 0.039887 -1.479790 0.029854 -1.670335 0.000000 0.000001
    16 0.028786 -1.075731 -0.023109 -1.197449 0.000000 0.000000
    17 0.250027 -2.820665 -0.238396 -0.482190 0.047366 -0.266951
    18 -0.049759 -1.680544 0.100479 -1.890537 0.000000 -0.000002
    19 -0.034142 -1.148312 0.084782 -1.087281 0.000000 0.000000
    20 0.957766 -2.774125 -0.086396 -0.200214 -0.028397 -0.018724
    21 -0.033420 -1.397129 -0.011257 -0.346688 0.136277 -0.074809
    22 -0.022360 -0.957436 0.018784 -0.364582 0.000000 0.000000
    23 -1.180681 -2.507217 -0.193859 -0.541359 0.150781 -0.464420
    24 -0.024967 -1.123934 0.017597 -1.488903 0.000000 0.000001
    25 -0.020057 -0.890968 0.010090 -1.277757 0.000000 0.000000
    26 0.583510 -1.197277 0.185379 0.316258 -1.087026 -0.583548
    27 1.535927 0.010246 0.005009 0.087412 0.030537 -1.135410
    28 1.100771 0.004527 -0.010679 -0.010778 0.012114 -0.550575
    29 0.120153 -0.050270 -0.054489 0.099906 3.110905 1.561085
    30 0.447953 -2.798986 -0.200443 -0.607948 0.000534 0.561976
    31 -0.032909 -1.480204 0.004940 -1.413633 0.000000 0.000002
    32 -0.027022 -1.076920 -0.020210 -1.481391 0.000000 0.000000
    33 -0.249534 -2.846964 -0.174213 -0.445831 0.004261 0.486845
    34 0.043235 -1.683941 0.096012 -1.469776 0.002823 -0.000167
    35 0.031729 -1.160830 0.058838 -1.698243 0.000642 0.008372
    36 -0.963866 -2.785145 -0.085350 0.057485 0.039254 0.065226
    37 0.028479 -1.403067 0.006271 -0.285462 0.000000 0.000000
    38 0.021413 -0.957781 0.020046 -0.387944 0.000000 0.000000
    39 1.164475 -2.543940 -0.170330 -0.557511 -0.035046 0.464229
    40 0.024032 -1.129042 0.017807 -1.373638 0.000000 0.000001
    41 0.014898 -0.883989 -0.019848 -1.103398 0.000000 0.000000
    42 -0.586770 -1.264477 0.200161 -0.683236 -0.842752 -2.270081
    43 1.522835 0.058681 0.016848 -0.059520 -0.122786 0.824758
    44 1.117947 0.048424 -0.005766 -0.016015 -0.019457 0.744725
    45 -0.041740 -0.115604 0.002678 0.136590 -0.022461 1.520273
    46 -1.393470 8.839177 -0.239433 1.580804 -0.005023 -1.566847
  time 14
    0 0.000000 0.742210 -4.644612 -0.174533 0.000000 0.000000
    1 12.889416 4.216859 -7.121627 0.422454 -2.264821 -0.540887
    2 0.084337 -8.502637 0.173215 0.124485 0.541072 -0.427268
    3 1.776994 -2.723174 0.873419 0.134966 0.079135 3.004383
    4 -2.536482 9.152779 0.850404 0.000000 0.000000 -1.570796
    5 -1.546743 7.218124 0.000000 0.000000 0.000000 -0.002004
    6 -0.284830 2.210137 0.000000 0.000001 0.000000 0.000000
    7 -11.103477 5.478805 -7.535451 0.393734 2.082801 0.422417
    8 -0.227284 -8.466044 0.162515 0.040122 -0.362621 0.244350
    9 -1.471282 -3.093521 0.739297 3.070381 0.002168 0.135135
    10 -2.536482 9.152779 0.850403 0.000000 0.000000 -1.570796
    11 -1.546742 7.218122 -0.000001 0.000000 0.000000 -0.002004
    12 -0.284830 2.417173 0.000000 0.000001 0.000000 0.000000
    13 1.257180 8.762585 -0.153713 -1.570562 0.002683 -1.566807
    14 -0.488518 -2.755602 -0.228260 -0.647514 0.030346 -0.257527
    15 0.039887 -1.479790 0.029854 -1.670335 0.000000 0.000001
    16 0.028786 -1.075731 -0.023109 -1.197449 0.000000 0.000000
    17 0.250027 -2.820665 -0.238396 -0.482190 0.047366 -0.266951
    18 -0.049759 -1.680544 0.100479 -1.890537 0.000000 -0.000002
    19 -0.034142 -1.148312 0.084782 -1.087281 0.000000 0.000000
    20 0.957766 -2.754593 -0.090302 -0.200214 -0.028397 -0.018724
    21 -0.033420 -1.397129 -0.011257 -0.265640 0.136277 -0.074809
    22 -0.022360 -0.957436 0.018784 -0.325157 0.000000 0.000000
    23 -1.180681 -2.507217 -0.193859 -0.541359 0.150781 -0.464420
    24 -0.024967 -1.123934 0.017597 -1.488903 0.000000 0.000001
    25 -0.020057 -0.890968 0.010090 -1.277757 0.000000 0.000000
    26 0.583510 -1.197277 0.185379 0.316258 -1.087026 -0.583548
    27 1.535927 0.010246 0.005009 0.087412 0.030537 -1.135410
    28 1.100771 0.004527 -0.010679 -0.010778 0.012114 -0.550575
    29 0.120153 -0.050270 -0.054489 0.099906 3.110905 1.561085
    30 0.447953 -2.798986 -0.200443 -0.607948 0.000534 0.561976
    31 -0.032909 -1.480204 0.004940 -1.413633 0.000000 0.000002
    32 -0.027022 -1.076920 -0.020210 -1.481391 0.000000 0.000000
    33 -0.249534 -2.846964 -0.174213 -0.445831 0.004261 0.486845
    34 0.043235 -1.683941 0.096012 -1.469776 0.002823 -0.000167
    35 0.031729 -1.160830 0.058838 -1.698243 0.000642 0.008372
    36 -0.963866 -2.785145 -0.085350 0.057485 0.039254 0.065226
    37 0.028479 -1.403067 0.006271 -0.285462 0.000000 0.000000
    38 0.021413 -0.957781 0.020046 -0.387944 0.000000 0.000000
    39 1.164475 -2.543940 -0.170330 -0.557511 -0.035046 0.464229
    40 0.024032 -1.129042 0.017807 -1.373638 0.000000 0.000001
    41 0.014898 -0.883989 -0.019848 -1.103430 0.000000 0.000000
    42 -0.586770 -1.264477 0.200161 -0.683236 -0.842752 -2.270081
    43 1.522835 0.058681 0.016848 -0.059520 -0.122786 0.824758
    44 1.117947 0.048424 -0.005766 -0.016015 -0.019457 0.744725
    45 -0.041740 -0.115604 0.002678 0.136590 -0.022461 1.520273
    46 -1.393470 8.839177 -0.239433 1.580804 -0.005023 -1.566847
  time 15
    0 0.000000 0.824244 -4.644612 -0.174533 0.000000 0.000000
    1 12.889416 4.216859 -7.106001 0.422454 -2.264821 -0.540887
    2 0.084337 -8.502637 0.173215 0.122622 0.541459 -0.431462
    3 1.776994 -2.723174 0.873419 0.134966 0.079135 3.004383
    4 -2.536482 9.152779 0.850404 0.000000 0.000000 -1.570796
    5 -1.546743 7.218124 0.000000 0.000000 0.000000 -0.002004
    6 -0.284830 2.221856 0.000000 0.000001 0.000000 0.000000
    7 -11.091758 5.396772 -7.547170 0.393734 2.082801 0.422417
    8 -0.227284 -8.466044 0.162515 0.040680 -0.359468 0.244747
    9 -1.471282 -3.093521 0.739297 3.070381 0.002168 0.135135
    10 -2.536482 9.152779 0.850403 0.000000 0.000000 -1.570796
    11 -1.546742 7.218122 -0.000001 0.000000 0.000000 -0.002004
    12 -0.284830 2.417173 0.000000 0.000001 0.000000 0.000000
    13 1.257180 8.762585 -0.153713 -1.570562 0.002683 -1.566807
    14 -0.488518 -2.755602 -0.228260 -0.647514 0.030346 -0.257527
    15 0.039887 -1.479790 0.029854 -1.670335 0.000000 0.000001
    16 0.028786 -1.075731 -0.023109 -1.197449 0.000000 0.000000
    17 0.250027 -2.820665 -0.238396 -0.482190 0.047366 -0.266951
    18 -0.049759 -1.680544 0.100479 -1.890537 0.000000 -0.000002
    19 -0.034142 -1.148312 0.084782 -1.087281 0.000000 0.000000
    20 0.957766 -2.746780 -0.090302 -0.200214 -0.028397 -0.018724
    21 -0.033420 -1.397129 -0.011257 -0.235799 0.136277 -0.074809
    22 -0.022360 -0.957436 0.018784 -0.310609 0.000000 0.000000
    23 -1.180681 -2.507217 -0.193859 -0.541359 0.150781 -0.464420
    24 -0.024967 -1.123934 0.017597 -1.488903 0.000000 0.000001
    25 -0.020057 -0.890968 0.010090 -1.277757 0.000000 0.000000
    26 0.583510 -1.197277 0.185379 0.316258 -1.087026 -0.583548
    27 1.535927 0.010246 0.005009 0.087412 0.030537 -1.135410
    28 1.100771 0.004527 -0.010679 -0.010778 0.012114 -0.550575
    29 0.120153 -0.050270 -0.054489 0.099906 3.110905 1.561085
    30 0.447953 -2.798986 -0.200443 -0.607948 0.000534 0.561976
    31 -0.032909 -1.480204 0.004940 -1.413633 0.000000 0.000002
    32 -0.027022 -1.076920 -0.020210 -1.481391 0.000000 0.000000
    33 -0.249534 -2.846964 -0.174213 -0.445831 0.004261 0.486845
    34 0.043235 -1.683941 0.096012 -1.469776 0.002823 -0.000167
    35 0.031729 -1.160830 0.058838 -1.698243 0.000642 0.008372
    36 -0.963866 -2.785145 -0.085350 0.057485 0.039254 0.065226
    37 0.028479 -1.403067 0.006271 -0.285462 0.000000 0.000000
    38 0.021413 -0.957781 0.020046 -0.387944 0.000000 0.000000
    39 1.164475 -2.543940 -0.170330 -0.557511 -0.035046 0.464229
    40 0.024032 -1.129042 0.017807 -1.373638 0.000000 0.000001
    41 0.014898 -0.883989 -0.019848 -1.103398 0.000000 0.000000
    42 -0.586770 -1.264477 0.200161 -0.683236 -0.842752 -2.270081
    43 1.522835 0.058681 0.016848 -0.059520 -0.122786 0.824758
    44 1.117947 0.048424 -0.005766 -0.016015 -0.019457 0.744725
    45 -0.041740 -0.115604 0.002678 0.136590 -0.022461 1.520273
    46 -1.393470 8.839177 -0.239433 1.580804 -0.005023 -1.566847
  time 16
    0 0.000000 0.917997 -4.644612 -0.174533 0.000000 0.000000
    1 12.889416 4.220766 -7.129439 0.422454 -2.264821 -0.540887
    2 0.084337 -8.502637 0.173215 0.123790 0.541776 -0.429451
    3 1.776994 -2.723174 0.873419 0.134966 0.079135 3.004383
    4 -2.536482 9.152779 0.850404 0.000000 0.000000 -1.570796
    5 -1.546743 7.218124 0.000000 0.000000 0.000000 -0.002004
    6 -0.284830 2.221856 0.000000 0.000001 0.000000 0.000000
    7 -11.076133 5.303019 -7.566702 0.393734 2.082801 0.422417
    8 -0.227284 -8.466044 0.162515 0.041103 -0.355603 0.245244
    9 -1.471282 -3.093521 0.739297 3.070381 0.002168 0.135135
    10 -2.536482 9.152779 0.850403 0.000000 0.000000 -1.570796
    11 -1.546742 7.218122 -0.000001 0.000000 0.000000 -0.002004
    12 -0.284830 2.417173 0.000000 0.000001 0.000000 0.000000
    13 1.257180 8.762585 -0.153713 -1.570562 0.002683 -1.566807
    14 -0.488518 -2.755602 -0.228260 -0.647514 0.030346 -0.257527
    15 0.039887 -1.479790 0.029854 -1.670335 0.000000 0.000001
    16 0.028786 -1.075731 -0.023109 -1.197449 0.000000 0.000000
    17 0.250027 -2.820665 -0.238396 -0.482190 0.047366 -0.266951
    18 -0.049759 -1.680544 0.100479 -1.890537 0.000000 -0.000002
    19 -0.034142 -1.148312 0.084782 -1.087313 0.000000 0.000000
    20 0.957766 -2.746780 -0.090302 -0.200214 -0.028397 -0.018724
    21 -0.033420 -1.397129 -0.011257 -0.235799 0.136277 -0.074809
    22 -0.022360 -0.957436 0.018784 -0.310609 0.000000 0.000000
    23 -1.180681 -2.507217 -0.193859 -0.541359 0.150781 -0.464420
    24 -0.024967 -1.123934 0.017597 -1.488903 0.000000 0.000001
    25 -0.020057 -0.890968 0.010090 -1.277757 0.000000 0.000000
    26 0.583510 -1.197277 0.185379 0.316258 -1.087026 -0.583548
    27 1.535927 0.010246 0.005009 0.087412 0.030537 -1.135410
    28 1.100771 0.004527 -0.010679 -0.010778 0.012114 -0.550575
    29 0.120153 -0.050270 -0.054489 0.099906 3.110905 1.561085
    30 0.447953 -2.798986 -0.200443 -0.607948 0.000534 0.561976
    31 -0.032909 -1.480204 0.004940 -1.413633 0.000000 0.000002
    32 -0.027022 -1.076920 -0.020210 -1.481391 0.000000 0.000000
    33 -0.249534 -2.846964 -0.174213 -0.445831 0.004261 0.486845
    34 0.043235 -1.683941 0.096012 -1.469776 0.002823 -0.000167
    35 0.031729 -1.160830 0.058838 -1.698243 0.000642 0.008372
    36 -0.963866 -2.785145 -0.085350 0.057485 0.039254 0.065226
    37 0.028479 -1.403067 0.006271 -0.285462 0.000000 0.000000
    38 0.021413 -0.957781 0.020046 -0.387944 0.000000 0.000000
    39 1.164475 -2.543940 -0.170330 -0.557511 -0.035046 0.464229
    40 0.024032 -1.129042 0.017807 -1.373638 0.000000 0.000001
    41 0.014898 -0.883989 -0.019848 -1.103398 0.000000 0.000000
    42 -0.586770 -1.264477 0.200161 -0.683236 -0.842752 -2.270081
    43 1.522835 0.058681 0.016848 -0.059520 -0.122786 0.824758
    44 1.117947 0.048424 -0.005766 -0.016015 -0.019457 0.744725
    45 -0.041740 -0.115604 0.002678 0.136590 -0.022461 1.520273
    46 -1.393470 8.839177 -0.239433 1.580804 -0.005023 -1.566847
  time 17
    0 0.000000 1.023469 -4.644612 -0.174533 0.000000 0.000000
    1 12.889416 4.228579 -7.188035 0.422454 -2.264821 -0.540887
    2 0.084337 -8.502637 0.173215 0.126948 0.542058 -0.424023
    3 1.776994 -2.723174 0.873419 0.134966 0.079135 3.004383
    4 -2.536482 9.152779 0.850404 0.000000 0.000000 -1.570796
    5 -1.546743 7.218124 0.000000 0.000000 0.000000 -0.002004
    6 -0.284830 2.221856 0.000000 0.000001 0.000000 0.000000
    7 -11.060507 5.201453 -7.582327 0.393734 2.082801 0.422417
    8 -0.227284 -8.466044 0.162515 0.041469 -0.351380 0.245808
    9 -1.471282 -3.093521 0.739297 3.070381 0.002168 0.135135
    10 -2.536482 9.152779 0.850403 0.000000 0.000000 -1.570796
    11 -1.546742 7.218122 -0.000001 0.000000 0.000000 -0.002004
    12 -0.284830 2.417173 0.000000 0.000001 0.000000 0.000000
    13 1.257180 8.762585 -0.153713 -1.570562 0.002683 -1.566807
    14 -0.488518 -2.755602 -0.228260 -0.647514 0.030346 -0.257527
    15 0.039887 -1.479790 0.029854 -1.670335 0.000000 0.000001
    16 0.028786 -1.075731 -0.023109 -1.197449 0.000000 0.000000
    17 0.250027 -2.820665 -0.238396 -0.482190 0.047366 -0.266951
    18 -0.049759 -1.680544 0.100479 -1.890537 0.000000 -0.000002
    19 -0.034142 -1.148312 0.084782 -1.087281 0.000000 0.000000
    20 0.957766 -2.746780 -0.090302 -0.200214 -0.028397 -0.018724
    21 -0.033420 -1.397129 -0.011257 -0.235799 0.136277 -0.074809
    22 -0.022360 -0.957436 0.018784 -0.310609 0.000000 0.000000
    23 -1.180681 -2.507217 -0.193859 -0.541359 0.150781 -0.464420
    24 -0.024967 -1.123934 0.017597 -1.488903 0.000000 0.000001
    25 -0.020057 -0.890968 0.010090 -1.277757 0.000000 0.000000
    26 0.583510 -1.197277 0.185379 0.316258 -1.087026 -0.583548
    27 1.535927 0.010246 0.005009 0.087412 0.030537 -1.135410
    28 1.100771 0.004527 -0.010679 -0.010778 0.012114 -0.550575
    29 0.120153 -0.050270 -0.054489 0.099906 3.110905 1.561085
    30 0.447953 -2.798986 -0.200443 -0.607948 0.000534 0.561976
    31 -0.032909 -1.480204 0.004940 -1.413633 0.000000 0.000002
    32 -0.027022 -1.076920 -0.020210 -1.481391 0.000000 0.000000
    33 -0.249534 -2.846964 -0.174213 -0.445831 0.004261 0.486845
    34 0.043235 -1.683941 0.096012 -1.469776 0.002823 -0.000167
    35 0.031729 -1.160830 0.058838 -1.698243 0.000642 0.008372
    36 -0.963866 -2.785145 -0.085350 0.057485 0.039254 0.065226
    37 0.028479 -1.403067 0.006271 -0.285462 0.000000 0.000000
    38 0.021413 -0.957781 0.020046 -0.387944 0.000000 0.000000
    39 1.164475 -2.543940 -0.170330 -0.557511 -0.035046 0.464229
    40 0.024032 -1.129042 0.017807 -1.373638 0.000000 0.000001
    41 0.014898 -0.883989 -0.019848 -1.103430 0.000000 0.000000
    42 -0.586770 -1.264477 0.200161 -0.683236 -0.842752 -2.270081
    43 1.522835 0.058681 0.016848 -0.059520 -0.122786 0.824758
    44 1.117947 0.048424 -0.005766 -0.016015 -0.019457 0.744725
    45 -0.041740 -0.115604 0.002678 0.136590 -0.022461 1.520273
    46 -1.393470 8.839177 -0.239433 1.580804 -0.005023 -1.566847
  time 18
    0 0.000000 1.125034 -4.644612 -0.174533 0.000000 0.000000
    1 12.889416 4.244204 -7.277881 0.422454 -2.264821 -0.540887
    2 0.084337 -8.502637 0.173215 0.131653 0.542304 -0.416014
    3 1.776994 -2.723174 0.873419 0.134966 0.079135 3.004383
    4 -2.536482 9.152779 0.850404 0.000000 0.000000 -1.570796
    5 -1.546743 7.218124 0.000000 0.000000 0.000000 -0.002004
    6 -0.284830 2.221856 0.000000 0.000001 0.000000 0.000000
    7 -11.048788 5.099887 -7.601859 0.393734 2.082801 0.422417
    8 -0.227284 -8.466044 0.162515 0.041815 -0.347102 0.246404
    9 -1.471282 -3.093521 0.739297 3.070381 0.002168 0.135135
    10 -2.536482 9.152779 0.850403 0.000000 0.000000 -1.570796
    11 -1.546742 7.218122 -0.000001 0.000000 0.000000 -0.002004
    12 -0.284830 2.417173 0.000000 0.000001 0.000000 0.000000
    13 1.257180 8.762585 -0.153713 -1.570562 0.002683 -1.566807
    14 -0.488518 -2.755602 -0.228260 -0.647514 0.030346 -0.257527
    15 0.039887 -1.479790 0.029854 -1.670335 0.000000 0.000001
    16 0.028786 -1.075731 -0.023109 -1.197449 0.000000 0.000000
    17 0.250027 -2.820665 -0.238396 -0.482190 0.047366 -0.266951
    18 -0.049759 -1.680544 0.100479 -1.890537 0.000000 -0.000002
    19 -0.034142 -1.148312 0.084782 -1.087281 0.000000 0.000000
    20 0.957766 -2.746780 -0.090302 -0.200214 -0.028397 -0.018724
    21 -0.033420 -1.397129 -0.011257 -0.235799 0.136277 -0.074809
    22 -0.022360 -0.957436 0.018784 -0.310609 0.000000 0.000000
    23 -1.180681 -2.507217 -0.193859 -0.541359 0.150781 -0.464420
    24 -0.024967 -1.123934 0.017597 -1.488903 0.000000 0.000001
    25 -0.020057 -0.890968 0.010090 -1.277757 0.000000 0.000000
    26 0.583510 -1.197277 0.185379 0.316258 -1.087026 -0.583548
    27 1.535927 0.010246 0.005009 0.087412 0.030537 -1.135410
    28 1.100771 0.004527 -0.010679 -0.010778 0.012114 -0.550575
    29 0.120153 -0.050270 -0.054489 0.099906 3.110905 1.561085
    30 0.447953 -2.798986 -0.200443 -0.607948 0.000534 0.561976
    31 -0.032909 -1.480204 0.004940 -1.413633 0.000000 0.000002
    32 -0.027022 -1.076920 -0.020210 -1.481391 0.000000 0.000000
    33 -0.249534 -2.846964 -0.174213 -0.445831 0.004261 0.486845
    34 0.043235 -1.683941 0.096012 -1.469776 0.002823 -0.000167
    35 0.031729 -1.160830 0.058838 -1.698243 0.000642 0.008372
    36 -0.963866 -2.785145 -0.085350 0.057485 0.039254 0.065226
    37 0.028479 -1.403067 0.006271 -0.285462 0.000000 0.000000
    38 0.021413 -0.957781 0.020046 -0.387944 0.000000 0.000000
    39 1.164475 -2.543940 -0.170330 -0.557511 -0.035046 0.464229
    40 0.024032 -1.129042 0.017807 -1.373638 0.000000 0.000001
    41 0.014898 -0.883989 -0.019848 -1.103398 0.000000 0.000000
    42 -0.586770 -1.264477 0.200161 -0.683236 -0.842752 -2.270081
    43 1.522835 0.058681 0.016848 -0.059520 -0.122786 0.824758
    44 1.117947 0.048424 -0.005766 -0.016015 -0.019457 0.744725
    45 -0.041740 -0.115604 0.002678 0.136590 -0.022461 1.520273
    46 -1.393470 8.839177 -0.239433 1.580804 -0.005023 -1.566847
  time 19
    0 0.000000 1.230506 -4.644612 -0.174533 0.000000 0.000000
    1 12.889416 4.263736 -7.391166 0.422454 -2.264821 -0.540887
    2 0.084337 -8.502637 0.173215 0.137337 0.542515 -0.406297
    3 1.776994 -2.723174 0.873419 0.134966 0.079135 3.004383
    4 -2.536482 9.152779 0.850404 0.000000 0.000000 -1.570796
    5 -1.546743 7.218124 0.000000 0.000000 0.000000 -0.002004
    6 -0.284830 2.221856 0.000000 0.000001 0.000000 0.000000
    7 -11.037069 4.998322 -7.617485 0.393734 2.082801 0.422417
    8 -0.227284 -8.466044 0.162515 0.042181 -0.343086 0.247001
    9 -1.471282 -3.093521 0.739297 3.070381 0.002168 0.135135
    10 -2.536482 9.152779 0.850403 0.000000 0.000000 -1.570796
    11 -1.546742 7.218122 -0.000001 0.000000 0.000000 -0.002004
    12 -0.284830 2.417173 0.000000 0.000001 0.000000 0.000000
    13 1.257180 8.762585 -0.153713 -1.570562 0.002683 -1.566807
    14 -0.488518 -2.755602 -0.228260 -0.647514 0.030346 -0.257527
    15 0.039887 -1.479790 0.029854 -1.670335 0.000000 0.000001
    16 0.028786 -1.075731 -0.023109 -1.197449 0.000000 0.000000
    17 0.250027 -2.820665 -0.238396 -0.482190 0.047366 -0.266951
    18 -0.049759 -1.680544 0.100479 -1.890537 0.000000 -0.000002
    19 -0.034142 -1.148312 0.084782 -1.087281 0.000000 0.000000
    20 0.957766 -2.746780 -0.090302 -0.200214 -0.028397 -0.018724
    21 -0.033420 -1.397129 -0.011257 -0.235799 0.136277 -0.074809
    22 -0.022360 -0.957436 0.018784 -0.310609 0.000000 0.000000
    23 -1.180681 -2.507217 -0.193859 -0.541359 0.150781 -0.464420
    24 -0.024967 -1.123934 0.017597 -1.488903 0.000000 0.000001
    25 -0.020057 -0.890968 0.010090 -1.277757 0.000000 0.000000
    26 0.583510 -1.197277 0.185379 0.316258 -1.087026 -0.583548
    27 1.535927 0.010246 0.005009 0.087412 0.030537 -1.135410
    28 1.100771 0.004527 -0.010679 -0.010778 0.012114 -0.550575
    29 0.120153 -0.050270 -0.054489 0.099906 3.110905 1.561085
    30 0.447953 -2.798986 -0.200443 -0.607948 0.000534 0.561976
    31 -0.032909 -1.480204 0.004940 -1.413633 0.000000 0.000002
    32 -0.027022 -1.076920 -0.020210 -1.481391 0.000000 0.000000
    33 -0.249534 -2.846964 -0.174213 -0.445831 0.004261 0.486845
    34 0.043235 -1.683941 0.096012 -1.469776 0.002823 -0.000167
    35 0.031729 -1.160830 0.058838 -1.698243 0.000642 0.008372
    36 -0.963866 -2.785145 -0.085350 0.057485 0.039254 0.065226
    37 0.028479 -1.403067 0.006271 -0.285462 0.000000 0.000000
    38 0.021413 -0.957781 0.020046 -0.387944 0.000000 0.000000
    39 1.164475 -2.543940 -0.170330 -0.557511 -0.035046 0.464229
    40 0.024032 -1.129042 0.017807 -1.373638 0.000000 0.000001
    41 0.014898 -0.883989 -0.019848 -1.103398 0.000000 0.000000
    42 -0.586770 -1.264477 0.200161 -0.683236 -0.842752 -2.270081
    43 1.522835 0.058681 0.016848 -0.059520 -0.122786 0.824758
    44 1.117947 0.048424 -0.005766 -0.016015 -0.019457 0.744725
    45 -0.041740 -0.115604 0.002678 0.136590 -0.022461 1.520273
    46 -1.393470 8.839177 -0.239433 1.580804 -0.005023 -1.566847
  time 20
    0 0.000000 1.324259 -4.644612 -0.174533 0.000000 0.000000
    1 12.889416 4.287174 -7.508357 0.422454 -2.264821 -0.540887
    2 0.084337 -8.502637 0.173215 0.143526 0.542727 -0.395707
    3 1.776994 -2.723174 0.873419 0.134966 0.079135 3.004383
    4 -2.536482 9.152779 0.850404 0.000000 0.000000 -1.570796
    5 -1.546743 7.218124 0.000000 0.000000 0.000000 -0.002004
    6 -0.284830 2.221856 0.000000 0.000001 0.000000 0.000000
    7 -11.029256 4.904569 -7.637017 0.393734 2.082801 0.422417
    8 -0.227284 -8.466044 0.162515 0.042624 -0.339689 0.247564
    9 -1.471282 -3.093521 0.739297 3.070381 0.002168 0.135135
    10 -2.536482 9.152779 0.850403 0.000000 0.000000 -1.570796
    11 -1.546742 7.218122 -0.000001 0.000000 0.000000 -0.002004
    12 -0.284830 2.417173 0.000000 0.000001 0.000000 0.000000
    13 1.257180 8.762585 -0.153713 -1.570562 0.002683 -1.566807
    14 -0.488518 -2.755602 -0.228260 -0.647514 0.030346 -0.257527
    15 0.039887 -1.479790 0.029854 -1.670335 0.000000 0.000001
    16 0.028786 -1.075731 -0.023109 -1.197449 0.000000 0.000000
    17 0.250027 -2.820665 -0.238396 -0.482190 0.047366 -0.266951
    18 -0.049759 -1.680544 0.100479 -1.890537 0.000000 -0.000002
    19 -0.034142 -1.148312 0.084782 -1.087313 0.000000 0.000000
    20 0.957766 -2.746780 -0.090302 -0.200214 -0.028397 -0.018724
    21 -0.033420 -1.397129 -0.011257 -0.235799 0.136277 -0.074809
    22 -0.022360 -0.957436 0.018784 -0.310609 0.000000 0.000000
    23 -1.180681 -2.507217 -0.193859 -0.541359 0.150781 -0.464420
    24 -0.024967 -1.123934 0.017597 -1.488903 0.000000 0.000001
    25 -0.020057 -0.890968 0.010090 -1.277757 0.000000 0.000000
    26 0.583510 -1.197277 0.185379 0.316258 -1.087026 -0.583548
    27 1.535927 0.010246 0.005009 0.087412 0.030537 -1.135410
    28 1.100771 0.004527 -0.010679 -0.010778 0.012114 -0.550575
    29 0.120153 -0.050270 -0.054489 0.099906 3.110905 1.561085
    30 0.447953 -2.798986 -0.200443 -0.607948 0.000534 0.561976
    31 -0.032909 -1.480204 0.004940 -1.413633 0.000000 0.000002
    32 -0.027022 -1.076920 -0.020210 -1.481391 0.000000 0.000000
    33 -0.249534 -2.846964 -0.174213 -0.445831 0.004261 0.486845
    34 0.043235 -1.683941 0.096012 -1.469776 0.002823 -0.000167
    35 0.031729 -1.160830 0.058838 -1.698243 0.000642 0.008372
    36 -0.963866 -2.785145 -0.085350 0.057485 0.039254 0.065226
    37 0.028479 -1.403067 0.006271 -0.285462 0.000000 0.000000
    38 0.021413 -0.957781 0.020046 -0.387944 0.000000 0.000000
    39 1.164475 -2.543940 -0.170330 -0.557511 -0.035046 0.464229
    40 0.024032 -1.129042 0.017807 -1.373638 0.000000 0.000001
    41 0.014898 -0.883989 -0.019848 -1.103398 0.000000 0.000000
    42 -0.586770 -1.264477 0.200161 -0.683236 -0.842752 -2.270081
    43 1.522835 0.058681 0.016848 -0.059520 -0.122786 0.824758
    44 1.117947 0.048424 -0.005766 -0.016015 -0.019457 0.744725
    45 -0.041740 -0.115604 0.002678 0.136590 -0.022461 1.520273
    46 -1.393470 8.839177 -0.239433 1.580804 -0.005023 -1.566847
  time 21
    0 0.000000 1.406293 -4.644612 -0.174533 0.000000 0.000000
    1 12.889416 4.306706 -7.629455 0.422454 -2.264821 -0.540887
    2 0.084337 -8.502637 0.173215 0.149715 0.542868 -0.385136
    3 1.776994 -2.723174 0.873419 0.134966 0.079135 3.004383
    4 -2.536482 9.152779 0.850404 0.000000 0.000000 -1.570796
    5 -1.546743 7.218124 0.000000 0.000000 0.000000 -0.002004
    6 -0.284830 2.221856 0.000000 0.000001 0.000000 0.000000
    7 -11.025350 4.822535 -7.648736 0.393734 2.082801 0.422417
    8 -0.227284 -8.466044 0.162515 0.043162 -0.337212 0.248061
    9 -1.471282 -3.093521 0.739297 3.070381 0.002168 0.135135
    10 -2.536482 9.152779 0.850403 0.000000 0.000000 -1.570796
    11 -1.546742 7.218122 -0.000001 0.000000 0.000000 -0.002004
    12 -0.284830 2.417173 0.000000 0.000001 0.000000 0.000000
    13 1.257180 8.762585 -0.153713 -1.570562 0.002683 -1.566807
    14 -0.488518 -2.755602 -0.228260 -0.647514 0.030346 -0.257527
    15 0.039887 -1.479790 0.029854 -1.670335 0.000000 0.000001
    16 0.028786 -1.075731 -0.023109 -1.197449 0.000000 0.000000
    17 0.250027 -2.820665 -0.238396 -0.482190 0.047366 -0.266951
    18 -0.049759 -1.680544 0.100479 -1.890537 0.000000 -0.000002
    19 -0.034142 -1.148312 0.084782 -1.087281 0.000000 0.000000
    20 0.957766 -2.746780 -0.090302 -0.200214 -0.028397 -0.018724
    21 -0.033420 -1.397129 -0.011257 -0.235799 0.136277 -0.074809
    22 -0.022360 -0.957436 0.018784 -0.310609 0.000000 0.000000
    23 -1.180681 -2.507217 -0.193859 -0.541359 0.150781 -0.464420
    24 -0.024967 -1.123934 0.017597 -1.488903 0.000000 0.000001
    25 -0.020057 -0.890968 0.010090 -1.277757 0.000000 0.000000
    26 0.583510 -1.197277 0.185379 0.316258 -1.087026 -0.583548
    27 1.535927 0.010246 0.005009 0.087412 0.030537 -1.135410
    28 1.100771 0.004527 -0.010679 -0.010778 0.012114 -0.550575
    29 0.120153 -0.050270 -0.054489 0.099906 3.110905 1.561085
    30 0.447953 -2.798986 -0.200443 -0.607948 0.000534 0.561976
    31 -0.032909 -1.480204 0.004940 -1.413633 0.000000 0.000002
    32 -0.027022 -1.076920 -0.020210 -1.481391 0.000000 0.000000
    33 -0.249534 -2.846964 -0.174213 -0.445831 0.004261 0.486845
    34 0.043235 -1.683941 0.096012 -1.469776 0.002823 -0.000167
    35 0.031729 -1.160830 0.058838 -1.698243 0.000642 0.008372
    36 -0.963866 -2.785145 -0.085350 0.057485 0.039254 0.065226
    37 0.028479 -1.403067 0.006271 -0.285462 0.000000 0.000000
    38 0.021413 -0.957781 0.020046 -0.387944 0.000000 0.000000
    39 1.164475 -2.543940 -0.170330 -0.557511 -0.035046 0.464229
    40 0.024032 -1.129042 0.017807 -1.373638 0.000000 0.000001
    41 0.014898 -0.883989 -0.019848 -1.103398 0.000000 0.000000
    42 -0.586770 -1.264477 0.200161 -0.683236 -0.842752 -2.270081
    43 1.522835 0.058681 0.016848 -0.059520 -0.122786 0.824758
    44 1.117947 0.048424 -0.005766 -0.016015 -0.019457 0.744725
    45 -0.041740 -0.115604 0.002678 0.136590 -0.022461 1.520273
    46 -1.393470 8.839177 -0.239433 1.580804 -0.005023 -1.566847
  time 22
    0 0.000000 1.472701 -4.644612 -0.174533 0.000000 0.000000
    1 12.889416 4.326238 -7.738833 0.422454 -2.264821 -0.540887
    2 0.084337 -8.502637 0.173215 0.155399 0.542973 -0.375401
    3 1.776994 -2.723174 0.873419 0.134966 0.079135 3.004383
    4 -2.536482 9.152779 0.850404 0.000000 0.000000 -1.570796
    5 -1.546743 7.218124 0.000000 0.000000 0.000000 -0.002004
    6 -0.284830 2.221856 0.000000 0.000001 0.000000 0.000000
    7 -11.021444 4.756127 -7.660455 0.393734 2.082801 0.422417
    8 -0.227284 -8.466044 0.162515 0.043894 -0.336011 0.248426
    9 -1.471282 -3.093521 0.739297 3.070381 0.002168 0.135135
    10 -2.536482 9.152779 0.850403 0.000000 0.000000 -1.570796
    11 -1.546742 7.218122 -0.000001 0.000000 0.000000 -0.002004
    12 -0.284830 2.417173 0.000000 0.000001 0.000000 0.000000
    13 1.257180 8.762585 -0.153713 -1.570562 0.002683 -1.566807
    14 -0.488518 -2.755602 -0.228260 -0.647514 0.030346 -0.257527
    15 0.039887 -1.479790 0.029854 -1.670335 0.000000 0.000001
    16 0.028786 -1.075731 -0.023109 -1.197449 0.000000 0.000000
    17 0.250027 -2.820665 -0.238396 -0.482190 0.047366 -0.266951
    18 -0.049759 -1.680544 0.100479 -1.890537 0.000000 -0.000002
    19 -0.034142 -1.148312 0.084782 -1.087313 0.000000 0.000000
    20 0.957766 -2.746780 -0.090302 -0.200214 -0.028397 -0.018724
    21 -0.033420 -1.397129 -0.011257 -0.235799 0.136277 -0.074809
    22 -0.022360 -0.957436 0.018784 -0.310609 0.000000 0.000000
    23 -1.180681 -2.507217 -0.193859 -0.541359 0.150781 -0.464420
    24 -0.024967 -1.123934 0.017597 -1.488903 0.000000 0.000001
    25 -0.020057 -0.890968 0.010090 -1.277757 0.000000 0.000000
    26 0.583510 -1.197277 0.185379 0.316258 -1.087026 -0.583548
    27 1.535927 0.010246 0.005009 0.087412 0.030537 -1.135410
    28 1.100771 0.004527 -0.010679 -0.010778 0.012114 -0.550575
    29 0.120153 -0.050270 -0.054489 0.099906 3.110905 1.561085
    30 0.447953 -2.798986 -0.200443 -0.607948 0.000534 0.561976
    31 -0.032909 -1.480204 0.004940 -1.413633 0.000000 0.000002
    32 -0.027022 -1.076920 -0.020210 -1.481391 0.000000 0.000000
    33 -0.249534 -2.846964 -0.174213 -0.445831 0.004261 0.486845
    34 0.043235 -1.683941 0.096012 -1.469776 0.002823 -0.000167
    35 0.031729 -1.160830 0.058838 -1.698243 0.000642 0.008372
    36 -0.963866 -2.785145 -0.085350 0.057485 0.039254 0.065226
    37 0.028479 -1.403067 0.006271 -0.285462 0.000000 0.000000
    38 0.021413 -0.957781 0.020046 -0.387944 0.000000 0.000000
    39 1.164475 -2.543940 -0.170330 -0.557511 -0.035046 0.464229
    40 0.024032 -1.129042 0.017807 -1.373638 0.000000 0.000001
    41 0.014898 -0.883989 -0.019848 -1.103430 0.000000 0.000000
    42 -0.586770 -1.264477 0.200161 -0.683236 -0.842752 -2.270081
    43 1.522835 0.058681 0.016848 -0.059520 -0.122786 0.824758
    44 1.117947 0.048424 -0.005766 -0.016015 -0.019457 0.744725
    45 -0.041740 -0.115604 0.002678 0.136590 -0.022461 1.520273
    46 -1.393470 8.839177 -0.239433 1.580804 -0.005023 -1.566847
  time 23
    0 0.000000 1.515671 -4.644612 -0.174533 0.000000 0.000000
    1 12.889416 4.341863 -7.828679 0.422454 -2.264821 -0.540887
    2 0.084337 -8.502637 0.173215 0.160073 0.543079 -0.367392
    3 1.776994 -2.723174 0.873419 0.134966 0.079135 3.004383
    4 -2.536482 9.152779 0.850404 0.000000 0.000000 -1.570796
    5 -1.546743 7.218124 0.000000 0.000000 0.000000 -0.002004
    6 -0.284830 2.221856 0.000000 0.000001 0.000000 0.000000
    7 -11.021444 4.717063 -7.668267 0.393734 2.082801 0.422417
    8 -0.227284 -8.466044 0.162515 0.044933 -0.335579 0.248757
    9 -1.471282 -3.093521 0.739297 3.070381 0.002168 0.135135
    10 -2.536482 9.152779 0.850403 0.000000 0.000000 -1.570796
    11 -1.546742 7.218122 -0.000001 0.000000 0.000000 -0.002004
    12 -0.284830 2.417173 0.000000 0.000001 0.000000 0.000000
    13 1.257180 8.762585 -0.153713 -1.570562 0.002683 -1.566807
    14 -0.488518 -2.755602 -0.228260 -0.647514 0.030346 -0.257527
    15 0.039887 -1.479790 0.029854 -1.670335 0.000000 0.000001
    16 0.028786 -1.075731 -0.023109 -1.197449 0.000000 0.000000
    17 0.250027 -2.820665 -0.238396 -0.482190 0.047366 -0.266951
    18 -0.049759 -1.680544 0.100479 -1.890537 0.000000 -0.000002
    19 -0.034142 -1.148312 0.084782 -1.087281 0.000000 0.000000
    20 0.957766 -2.746780 -0.090302 -0.200214 -0.028397 -0.018724
    21 -0.033420 -1.397129 -0.011257 -0.235799 0.136277 -0.074809
    22 -0.022360 -0.957436 0.018784 -0.310609 0.000000 0.000000
    23 -1.180681 -2.507217 -0.193859 -0.541359 0.150781 -0.464420
    24 -0.024967 -1.123934 0.017597 -1.488903 0.000000 0.000001
    25 -0.020057 -0.890968 0.010090 -1.277757 0.000000 0.000000
    26 0.583510 -1.197277 0.185379 0.316258 -1.087026 -0.583548
    27 1.535927 0.010246 0.005009 0.087412 0.030537 -1.135410
    28 1.100771 0.004527 -0.010679 -0.010778 0.012114 -0.550575
    29 0.120153 -0.050270 -0.054489 0.099906 3.110905 1.561085
    30 0.447953 -2.798986 -0.200443 -0.607948 0.000534 0.561976
    31 -0.032909 -1.480204 0.004940 -1.413633 0.000000 0.000002
    32 -0.027022 -1.076920 -0.020210 -1.481391 0.000000 0.000000
    33 -0.249534 -2.846964 -0.174213 -0.445831 0.004261 0.486845
    34 0.043235 -1.683941 0.096012 -1.469776 0.002823 -0.000167
    35 0.031729 -1.160830 0.058838 -1.698243 0.000642 0.008372
    36 -0.963866 -2.785145 -0.085350 0.057485 0.039254 0.065226
    37 0.028479 -1.403067 0.006271 -0.285462 0.000000 0.000000
    38 0.021413 -0.957781 0.020046 -0.387944 0.000000 0.000000
    39 1.164475 -2.543940 -0.170330 -0.557511 -0.035046 0.464229
    40 0.024032 -1.129042 0.017807 -1.373638 0.000000 0.000001
    41 0.014898 -0.883989 -0.019848 -1.103398 0.000000 0.000000
    42 -0.586770 -1.264477 0.200161 -0.683236 -0.842752 -2.270081
    43 1.522835 0.058681 0.016848 -0.059520 -0.122786 0.824758
    44 1.117947 0.048424 -0.005766 -0.016015 -0.019457 0.744725
    45 -0.041740 -0.115604 0.002678 0.136590 -0.022461 1.520273
    46 -1.393470 8.839177 -0.239433 1.580804 -0.005023 -1.566847
  time 24
    0 0.000000 1.531297 -4.644612 -0.174533 0.000000 0.000000
    1 12.889416 4.353582 -7.891181 0.422454 -2.264821 -0.540887
    2 0.084337 -8.502637 0.173215 0.163262 0.543114 -0.361964
    3 1.776994 -2.723174 0.873419 0.134966 0.079135 3.004383
    4 -2.536482 9.152779 0.850404 0.000000 0.000000 -1.570796
    5 -1.546743 7.218124 0.000000 0.000000 0.000000 -0.002004
    6 -0.284830 2.221856 0.000000 0.000001 0.000000 0.000000
    7 -11.021444 4.701438 -7.672174 0.393734 2.082801 0.422417
    8 -0.227284 -8.466044 0.162515 0.046280 -0.335242 0.249022
    9 -1.471282 -3.093521 0.739297 3.070381 0.002168 0.135135
    10 -2.536482 9.152779 0.850403 0.000000 0.000000 -1.570796
    11 -1.546742 7.218122 -0.000001 0.000000 0.000000 -0.002004
    12 -0.284830 2.417173 0.000000 0.000001 0.000000 0.000000
    13 1.257180 8.762585 -0.153713 -1.570562 0.002683 -1.566807
    14 -0.488518 -2.755602 -0.228260 -0.647514 0.030346 -0.257527
    15 0.039887 -1.479790 0.029854 -1.670335 0.000000 0.000001
    16 0.028786 -1.075731 -0.023109 -1.197449 0.000000 0.000000
    17 0.250027 -2.820665 -0.238396 -0.482190 0.047366 -0.266951
    18 -0.049759 -1.680544 0.100479 -1.890537 0.000000 -0.000002
    19 -0.034142 -1.148312 0.084782 -1.087281 0.000000 0.000000
    20 0.957766 -2.746780 -0.090302 -0.200214 -0.028397 -0.018724
    21 -0.033420 -1.397129 -0.011257 -0.235799 0.136277 -0.074809
    22 -0.022360 -0.957436 0.018784 -0.310609 0.000000 0.000000
    23 -1.180681 -2.507217 -0.193859 -0.541359 0.150781 -0.464420
    24 -0.024967 -1.123934 0.017597 -1.488903 0.000000 0.000001
    25 -0.020057 -0.890968 0.010090 -1.277757 0.000000 0.000000
    26 0.583510 -1.197277 0.185379 0.316258 -1.087026 -0.583548
    27 1.535927 0.010246 0.005009 0.087412 0.030537 -1.135410
    28 1.100771 0.004527 -0.010679 -0.010778 0.012114 -0.550575
    29 0.120153 -0.050270 -0.054489 0.099906 3.110905 1.561085
    30 0.447953 -2.798986 -0.200443 -0.607948 0.000534 0.561976
    31 -0.032909 -1.480204 0.004940 -1.413633 0.000000 0.000002
    32 -0.027022 -1.076920 -0.020210 -1.481391 0.000000 0.000000
    33 -0.249534 -2.846964 -0.174213 -0.445831 0.004261 0.486845
    34 0.043235 -1.683941 0.096012 -1.469776 0.002823 -0.000167
    35 0.031729 -1.160830 0.058838 -1.698243 0.000642 0.008372
    36 -0.963866 -2.785145 -0.085350 0.057485 0.039254 0.065226
    37 0.028479 -1.403067 0.006271 -0.285462 0.000000 0.000000
    38 0.021413 -0.957781 0.020046 -0.387944 0.000000 0.000000
    39 1.164475 -2.543940 -0.170330 -0.557511 -0.035046 0.464229
    40 0.024032 -1.129042 0.017807 -1.373638 0.000000 0.000001
    41 0.014898 -0.883989 -0.019848 -1.103398 0.000000 0.000000
    42 -0.586770 -1.264477 0.200161 -0.683236 -0.842752 -2.270081
    43 1.522835 0.058681 0.016848 -0.059520 -0.122786 0.824758
    44 1.117947 0.048424 -0.005766 -0.016015 -0.019457 0.744725
    45 -0.041740 -0.115604 0.002678 0.136590 -0.022461 1.520273
    46 -1.393470 8.839177 -0.239433 1.580804 -0.005023 -1.566847
  time 25
    0 0.000000 1.523484 -4.644612 -0.174533 0.000000 0.000000
    1 12.889416 4.357489 -7.910713 0.422454 -2.264821 -0.540887
    2 0.084337 -8.502637 0.173215 0.164431 0.543149 -0.359971
    3 1.776994 -2.723174 0.873419 0.134966 0.079135 3.004383
    4 -2.536482 9.152779 0.850404 0.000000 0.000000 -1.570796
    5 -1.546743 7.218124 0.000000 0.000000 0.000000 -0.002004
    6 -0.284830 2.221856 0.000000 0.000001 0.000000 0.000000
    7 -11.021444 4.709251 -7.668267 0.393734 2.082801 0.422417
    8 -0.227284 -8.466044 0.162515 0.047838 -0.334998 0.249254
    9 -1.471282 -3.093521 0.739297 3.070381 0.002168 0.135135
    10 -2.536482 9.152779 0.850403 0.000000 0.000000 -1.570796
    11 -1.546742 7.218122 -0.000001 0.000000 0.000000 -0.002004
    12 -0.284830 2.417173 0.000000 0.000001 0.000000 0.000000
    13 1.257180 8.762585 -0.153713 -1.570562 0.002683 -1.566807
    14 -0.488518 -2.755602 -0.228260 -0.647514 0.030346 -0.257527
    15 0.039887 -1.479790 0.029854 -1.670335 0.000000 0.000001
    16 0.028786 -1.075731 -0.023109 -1.197449 0.000000 0.000000
    17 0.250027 -2.820665 -0.238396 -0.482190 0.047366 -0.266951
    18 -0.049759 -1.680544 0.100479 -1.890537 0.000000 -0.000002
    19 -0.034142 -1.148312 0.084782 -1.087281 0.000000 0.000000
    20 0.957766 -2.746780 -0.090302 -0.200214 -0.028397 -0.018724
    21 -0.033420 -1.397129 -0.011257 -0.235799 0.136277 -0.074809
    22 -0.022360 -0.957436 0.018784 -0.310609 0.000000 0.000000
    23 -1.180681 -2.507217 -0.193859 -0.541359 0.150781 -0.464420
    24 -0.024967 -1.123934 0.017597 -1.488903 0.000000 0.000001
    25 -0.020057 -0.890968 0.010090 -1.277757 0.000000 0.000000
    26 0.583510 -1.197277 0.185379 0.316258 -1.087026 -0.583548
    27 1.535927 0.010246 0.005009 0.087412 0.030537 -1.135410
    28 1.100771 0.004527 -0.010679 -0.010778 0.012114 -0.550575
    29 0.120153 -0.050270 -0.054489 0.099906 3.110905 1.561085
    30 0.447953 -2.798986 -0.200443 -0.607948 0.000534 0.561976
    31 -0.032909 -1.480204 0.004940 -1.413633 0.000000 0.000002
    32 -0.027022 -1.076920 -0.020210 -1.481391 0.000000 0.000000
    33 -0.249534 -2.846964 -0.174213 -0.445831 0.004261 0.486845
    34 0.043235 -1.683941 0.096012 -1.469776 0.002823 -0.000167
    35 0.031729 -1.160830 0.058838 -1.698243 0.000642 0.008372
    36 -0.963866 -2.785145 -0.085350 0.057485 0.039254 0.065226
    37 0.028479 -1.403067 0.006271 -0.285462 0.000000 0.000000
    38 0.021413 -0.957781 0.020046 -0.387944 0.000000 0.000000
    39 1.164475 -2.543940 -0.170330 -0.557511 -0.035046 0.464229
    40 0.024032 -1.129042 0.017807 -1.373638 0.000000 0.000001
    41 0.014898 -0.883989 -0.019848 -1.103398 0.000000 0.000000
    42 -0.586770 -1.264477 0.200161 -0.683236 -0.842752 -2.270081
    43 1.522835 0.058681 0.016848 -0.059520 -0.122786 0.824758
    44 1.117947 0.048424 -0.005766 -0.016015 -0.019457 0.744725
    45 -0.041740 -0.115604 0.002678 0.136590 -0.022461 1.520273
    46 -1.393470 8.839177 -0.239433 1.580804 -0.005023 -1.566847
  time 26
    0 0.000000 1.500046 -4.644612 -0.174533 0.000000 0.000000
    1 12.889416 4.357489 -7.910713 0.422454 -2.264821 -0.540887
    2 0.084337 -8.502637 0.173215 0.164431 0.543149 -0.359971
    3 1.776994 -2.723174 0.873419 0.134966 0.079135 3.004383
    4 -2.536482 9.152779 0.850404 0.000000 0.000000 -1.570796
    5 -1.546743 7.218124 0.000000 0.000000 0.000000 -0.002004
    6 -0.284830 2.221856 0.000000 0.000001 0.000000 0.000000
    7 -11.021444 4.732689 -7.664361 0.393734 2.082801 0.422417
    8 -0.227284 -8.466044 0.162515 0.049416 -0.334810 0.249420
    9 -1.471282 -3.093521 0.739297 3.070381 0.002168 0.135135
    10 -2.536482 9.152779 0.850403 0.000000 0.000000 -1.570796
    11 -1.546742 7.218122 -0.000001 0.000000 0.000000 -0.002004
    12 -0.284830 2.417173 0.000000 0.000001 0.000000 0.000000
    13 1.257180 8.762585 -0.153713 -1.570562 0.002683 -1.566807
    14 -0.488518 -2.755602 -0.228260 -0.647514 0.030346 -0.257527
    15 0.039887 -1.479790 0.029854 -1.670335 0.000000 0.000001
    16 0.028786 -1.075731 -0.023109 -1.197449 0.000000 0.000000
    17 0.250027 -2.820665 -0.238396 -0.482190 0.047366 -0.266951
    18 -0.049759 -1.680544 0.100479 -1.890537 0.000000 -0.000002
    19 -0.034142 -1.148312 0.084782 -1.087281 0.000000 0.000000
    20 0.957766 -2.746780 -0.090302 -0.200214 -0.028397 -0.018724
    21 -0.033420 -1.397129 -0.011257 -0.235799 0.136277 -0.074809
    22 -0.022360 -0.957436 0.018784 -0.310609 0.000000 0.000000
    23 -1.180681 -2.507217 -0.193859 -0.541359 0.150781 -0.464420
    24 -0.024967 -1.123934 0.017597 -1.488903 0.000000 0.000001
    25 -0.020057 -0.890968 0.010090 -1.277757 0.000000 0.000000
    26 0.583510 -1.197277 0.185379 0.316258 -1.087026 -0.583548
    27 1.535927 0.010246 0.005009 0.087412 0.030537 -1.135410
    28 1.100771 0.004527 -0.010679 -0.010778 0.012114 -0.550575
    29 0.120153 -0.050270 -0.054489 0.099906 3.110905 1.561085
    30 0.447953 -2.798986 -0.200443 -0.607948 0.000534 0.561976
    31 -0.032909 -1.480204 0.004940 -1.413633 0.000000 0.000002
    32 -0.027022 -1.076920 -0.020210 -1.481391 0.000000 0.000000
    33 -0.249534 -2.846964 -0.174213 -0.445831 0.004261 0.486845
    34 0.043235 -1.683941 0.096012 -1.469776 0.002823 -0.000167
    35 0.031729 -1.160830 0.058838 -1.698243 0.000642 0.008372
    36 -0.963866 -2.785145 -0.085350 0.057485 0.039254 0.065226
    37 0.028479 -1.403067 0.006271 -0.285462 0.000000 0.000000
    38 0.021413 -0.957781 0.020046 -0.387944 0.000000 0.000000
    39 1.164475 -2.543940 -0.170330 -0.557511 -0.035046 0.464229
    40 0.024032 -1.129042 0.017807 -1.373638 0.000000 0.000001
    41 0.014898 -0.883989 -0.019848 -1.103430 0.000000 0.000000
    42 -0.586770 -1.264477 0.200161 -0.683236 -0.842752 -2.270081
    43 1.522835 0.058681 0.016848 -0.059520 -0.122786 0.824758
    44 1.117947 0.048424 -0.005766 -0.016015 -0.019457 0.744725
    45 -0.041740 -0.115604 0.002678 0.136590 -0.022461 1.520273
    46 -1.393470 8.839177 -0.239433 1.580804 -0.005023 -1.566847
  time 27
    0 0.000000 1.472701 -4.644612 -0.174533 0.000000 0.000000
    1 12.889416 4.357489 -7.910713 0.422454 -2.264821 -0.540887
    2 0.084337 -8.502637 0.173215 0.164431 0.543149 -0.359971
    3 1.776994 -2.723174 0.873419 0.134966 0.079135 3.004383
    4 -2.536482 9.152779 0.850404 0.000000 0.000000 -1.570796
    5 -1.546743 7.218124 0.000000 0.000000 0.000000 -0.002004
    6 -0.284830 2.221856 0.000000 0.000001 0.000000 0.000000
    7 -11.021444 4.760033 -7.660455 0.393734 2.082801 0.422417
    8 -0.227284 -8.466044 0.162515 0.050898 -0.334697 0.249586
    9 -1.471282 -3.093521 0.739297 3.070381 0.002168 0.135135
    10 -2.536482 9.152779 0.850403 0.000000 0.000000 -1.570796
    11 -1.546742 7.218122 -0.000001 0.000000 0.000000 -0.002004
    12 -0.284830 2.417173 0.000000 0.000001 0.000000 0.000000
    13 1.257180 8.762585 -0.153713 -1.570562 0.002683 -1.566807
    14 -0.488518 -2.755602 -0.228260 -0.647514 0.030346 -0.257527
    15 0.039887 -1.479790 0.029854 -1.670335 0.000000 0.000001
    16 0.028786 -1.075731 -0.023109 -1.197449 0.000000 0.000000
    17 0.250027 -2.820665 -0.238396 -0.482190 0.047366 -0.266951
    18 -0.049759 -1.680544 0.100479 -1.890537 0.000000 -0.000002
    19 -0.034142 -1.148312 0.084782 -1.087281 0.000000 0.000000
    20 0.957766 -2.746780 -0.090302 -0.200214 -0.028397 -0.018724
    21 -0.033420 -1.397129 -0.011257 -0.235799 0.136277 -0.074809
    22 -0.022360 -0.957436 0.018784 -0.310609 0.000000 0.000000
    23 -1.180681 -2.507217 -0.193859 -0.541359 0.150781 -0.464420
    24 -0.024967 -1.123934 0.017597 -1.488903 0.000000 0.000001
    25 -0.020057 -0.890968 0.010090 -1.277757 0.000000 0.000000
    26 0.583510 -1.197277 0.185379 0.316258 -1.087026 -0.583548
    27 1.535927 0.010246 0.005009 0.087412 0.030537 -1.135410
    28 1.100771 0.004527 -0.010679 -0.010778 0.012114 -0.550575
    29 0.120153 -0.050270 -0.054489 0.099906 3.110905 1.561085
    30 0.447953 -2.798986 -0.200443 -0.607948 0.000534 0.561976
    31 -0.032909 -1.480204 0.004940 -1.413633 0.000000 0.000002
    32 -0.027022 -1.076920 -0.020210 -1.481391 0.000000 0.000000
    33 -0.249534 -2.846964 -0.174213 -0.445831 0.004261 0.486845
    34 0.043235 -1.683941 0.096012 -1.469776 0.002823 -0.000167
    35 0.031729 -1.160830 0.058838 -1.698243 0.000642 0.008372
    36 -0.963866 -2.785145 -0.085350 0.057485 0.039254 0.065226
    37 0.028479 -1.403067 0.006271 -0.285462 0.000000 0.000000
    38 0.021413 -0.957781 0.020046 -0.387944 0.000000 0.000000
    39 1.164475 -2.543940 -0.170330 -0.557511 -0.035046 0.464229
    40 0.024032 -1.129042 0.017807 -1.373638 0.000000 0.000001
    41 0.014898 -0.883989 -0.019848 -1.103398 0.000000 0.000000
    42 -0.586770 -1.264477 0.200161 -0.683236 -0.842752 -2.270081
    43 1.522835 0.058681 0.016848 -0.059520 -0.122786 0.824758
    44 1.117947 0.048424 -0.005766 -0.016015 -0.019457 0.744725
    45 -0.041740 -0.115604 0.002678 0.136590 -0.022461 1.520273
    46 -1.393470 8.839177 -0.239433 1.580804 -0.005023 -1.566847
  time 28
    0 0.000000 1.441450 -4.644612 -0.174533 0.000000 0.000000
    1 12.889416 4.357489 -7.910713 0.422454 -2.264821 -0.540887
    2 0.084337 -8.502637 0.173215 0.164431 0.543149 -0.359971
    3 1.776994 -2.723174 0.873419 0.134966 0.079135 3.004383
    4 -2.536482 9.152779 0.850404 0.000000 0.000000 -1.570796
    5 -1.546743 7.218124 0.000000 0.000000 0.000000 -0.002004
    6 -0.284830 2.221856 0.000000 0.000001 0.000000 0.000000
    7 -11.021444 4.787378 -7.656548 0.393734 2.082801 0.422417
    8 -0.227284 -8.466044 0.162515 0.052129 -0.334622 0.249685
    9 -1.471282 -3.093521 0.739297 3.070381 0.002168 0.135135
    10 -2.536482 9.152779 0.850403 0.000000 0.000000 -1.570796
    11 -1.546742 7.218122 -0.000001 0.000000 0.000000 -0.002004
    12 -0.284830 2.417173 0.000000 0.000001 0.000000 0.000000
    13 1.257180 8.762585 -0.153713 -1.570562 0.002683 -1.566807
    14 -0.488518 -2.755602 -0.228260 -0.647514 0.030346 -0.257527
    15 0.039887 -1.479790 0.029854 -1.670335 0.000000 0.000001
    16 0.028786 -1.075731 -0.023109 -1.197449 0.000000 0.000000
    17 0.250027 -2.820665 -0.238396 -0.482190 0.047366 -0.266951
    18 -0.049759 -1.680544 0.100479 -1.890537 0.000000 -0.000002
    19 -0.034142 -1.148312 0.084782 -1.087281 0.000000 0.000000
    20 0.957766 -2.746780 -0.090302 -0.200214 -0.028397 -0.018724
    21 -0.033420 -1.397129 -0.011257 -0.235799 0.136277 -0.074809
    22 -0.022360 -0.957436 0.018784 -0.310609 0.000000 0.000000
    23 -1.180681 -2.507217 -0.193859 -0.541359 0.150781 -0.464420
    24 -0.024967 -1.123934 0.017597 -1.488903 0.000000 0.000001
    25 -0.020057 -0.890968 0.010090 -1.277757 0.000000 0.000000
    26 0.583510 -1.197277 0.185379 0.316258 -1.087026 -0.583548
    27 1.535927 0.010246 0.005009 0.087412 0.030537 -1.135410
    28 1.100771 0.004527 -0.010679 -0.010778 0.012114 -0.550575
    29 0.120153 -0.050270 -0.054489 0.099906 3.110905 1.561085
    30 0.447953 -2.798986 -0.200443 -0.607948 0.000534 0.561976
    31 -0.032909 -1.480204 0.004940 -1.413633 0.000000 0.000002
    32 -0.027022 -1.076920 -0.020210 -1.481391 0.000000 0.000000
    33 -0.249534 -2.846964 -0.174213 -0.445831 0.004261 0.486845
    34 0.043235 -1.683941 0.096012 -1.469776 0.002823 -0.000167
    35 0.031729 -1.160830 0.058838 -1.698243 0.000642 0.008372
    36 -0.963866 -2.785145 -0.085350 0.057485 0.039254 0.065226
    37 0.028479 -1.403067 0.006271 -0.285462 0.000000 0.000000
    38 0.021413 -0.957781 0.020046 -0.387944 0.000000 0.000000
    39 1.164475 -2.543940 -0.170330 -0.557511 -0.035046 0.464229
    40 0.024032 -1.129042 0.017807 -1.373638 0.000000 0.000001
    41 0.014898 -0.883989 -0.019848 -1.103430 0.000000 0.000000
    42 -0.586770 -1.264477 0.200161 -0.683236 -0.842752 -2.270081
    43 1.522835 0.058681 0.016848 -0.059520 -0.122786 0.824758
    44 1.117947 0.048424 -0.005766 -0.016015 -0.019457 0.744725
    45 -0.041740 -0.115604 0.002678 0.136590 -0.022461 1.520273
    46 -1.393470 8.839177 -0.239433 1.580804 -0.005023 -1.566847
  time 29
    0 0.000000 1.418012 -4.644612 -0.174533 0.000000 0.000000
    1 12.889416 4.357489 -7.910713 0.422454 -2.264821 -0.540887
    2 0.084337 -8.502637 0.173215 0.164431 0.543149 -0.359971
    3 1.776994 -2.723174 0.873419 0.134966 0.079135 3.004383
    4 -2.536482 9.152779 0.850404 0.000000 0.000000 -1.570796
    5 -1.546743 7.218124 0.000000 0.000000 0.000000 -0.002004
    6 -0.284830 2.221856 0.000000 0.000001 0.000000 0.000000
    7 -11.021444 4.810816 -7.652642 0.393734 2.082801 0.422417
    8 -0.227284 -8.466044 0.162515 0.052976 -0.334603 0.249752
    9 -1.471282 -3.093521 0.739297 3.070381 0.002168 0.135135
    10 -2.536482 9.152779 0.850403 0.000000 0.000000 -1.570796
    11 -1.546742 7.218122 -0.000001 0.000000 0.000000 -0.002004
    12 -0.284830 2.417173 0.000000 0.000001 0.000000 0.000000
    13 1.257180 8.762585 -0.153713 -1.570562 0.002683 -1.566807
    14 -0.488518 -2.755602 -0.228260 -0.647514 0.030346 -0.257527
    15 0.039887 -1.479790 0.029854 -1.670335 0.000000 0.000001
    16 0.028786 -1.075731 -0.023109 -1.197449 0.000000 0.000000
    17 0.250027 -2.820665 -0.238396 -0.482190 0.047366 -0.266951
    18 -0.049759 -1.680544 0.100479 -1.890537 0.000000 -0.000002
    19 -0.034142 -1.148312 0.084782 -1.087281 0.000000 0.000000
    20 0.957766 -2.746780 -0.090302 -0.200214 -0.028397 -0.018724
    21 -0.033420 -1.397129 -0.011257 -0.235799 0.136277 -0.074809
    22 -0.022360 -0.957436 0.018784 -0.310609 0.000000 0.000000
    23 -1.180681 -2.507217 -0.193859 -0.541359 0.150781 -0.464420
    24 -0.024967 -1.123934 0.017597 -1.488903 0.000000 0.000001
    25 -0.020057 -0.890968 0.010090 -1.277757 0.000000 0.000000
    26 0.583510 -1.197277 0.185379 0.316258 -1.087026 -0.583548
    27 1.535927 0.010246 0.005009 0.087412 0.030537 -1.135410
    28 1.100771 0.004527 -0.010679 -0.010778 0.012114 -0.550575
    29 0.120153 -0.050270 -0.054489 0.099906 3.110905 1.561085
    30 0.447953 -2.798986 -0.200443 -0.607948 0.000534 0.561976
    31 -0.032909 -1.480204 0.004940 -1.413633 0.000000 0.000002
    32 -0.027022 -1.076920 -0.020210 -1.481391 0.000000 0.000000
    33 -0.249534 -2.846964 -0.174213 -0.445831 0.004261 0.486845
    34 0.043235 -1.683941 0.096012 -1.469776 0.002823 -0.000167
    35 0.031729 -1.160830 0.058838 -1.698243 0.000642 0.008372
    36 -0.963866 -2.785145 -0.085350 0.057485 0.039254 0.065226
    37 0.028479 -1.403067 0.006271 -0.285462 0.000000 0.000000
    38 0.021413 -0.957781 0.020046 -0.387944 0.000000 0.000000
    39 1.164475 -2.543940 -0.170330 -0.557511 -0.035046 0.464229
    40 0.024032 -1.129042 0.017807 -1.373638 0.000000 0.000001
    41 0.014898 -0.883989 -0.019848 -1.103398 0.000000 0.000000
    42 -0.586770 -1.264477 0.200161 -0.683236 -0.842752 -2.270081
    43 1.522835 0.058681 0.016848 -0.059520 -0.122786 0.824758
    44 1.117947 0.048424 -0.005766 -0.016015 -0.019457 0.744725
    45 -0.041740 -0.115604 0.002678 0.136590 -0.022461 1.520273
    46 -1.393470 8.839177 -0.239433 1.580804 -0.005023 -1.566847
  time 30
    0 0.000000 1.410199 -4.644612 -0.174533 0.000000 0.000000
    1 12.889416 4.357489 -7.910713 0.422454 -2.264821 -0.540887
    2 0.084337 -8.502637 0.173215 0.164431 0.543149 -0.359971
    3 1.776994 -2.723174 0.873419 0.134966 0.079135 3.004383
    4 -2.536482 9.152779 0.850404 0.000000 0.000000 -1.570796
    5 -1.546743 7.218124 0.000000 0.000000 0.000000 -0.002004
    6 -0.284830 2.221856 0.000000 0.000001 0.000000 0.000000
    7 -11.021444 4.818629 -7.648736 0.393734 2.082801 0.422417
    8 -0.227284 -8.466044 0.162515 0.053284 -0.334585 0.249785
    9 -1.471282 -3.093521 0.739297 3.070381 0.002168 0.135135
    10 -2.536482 9.152779 0.850403 0.000000 0.000000 -1.570796
    11 -1.546742 7.218122 -0.000001 0.000000 0.000000 -0.002004
    12 -0.284830 2.417173 0.000000 0.000001 0.000000 0.000000
    13 1.257180 8.762585 -0.153713 -1.570562 0.002683 -1.566807
    14 -0.488518 -2.755602 -0.228260 -0.647514 0.030346 -0.257527
    15 0.039887 -1.479790 0.029854 -1.670335 0.000000 0.000001
    16 0.028786 -1.075731 -0.023109 -1.197449 0.000000 0.000000
    17 0.250027 -2.820665 -0.238396 -0.482190 0.047366 -0.266951
    18 -0.049759 -1.680544 0.100479 -1.890537 0.000000 -0.000002
    19 -0.034142 -1.148312 0.084782 -1.087281 0.000000 0.000000
    20 0.957766 -2.746780 -0.090302 -0.200214 -0.028397 -0.018724
    21 -0.033420 -1.397129 -0.011257 -0.235799 0.136277 -0.074809
    22 -0.022360 -0.957436 0.018784 -0.310609 0.000000 0.000000
    23 -1.180681 -2.507217 -0.193859 -0.541359 0.150781 -0.464420
    24 -0.024967 -1.123934 0.017597 -1.488903 0.000000 0.000001
    25 -0.020057 -0.890968 0.010090 -1.277757 0.000000 0.000000
    26 0.583510 -1.197277 0.185379 0.316258 -1.087026 -0.583548
    27 1.535927 0.010246 0.005009 0.087412 0.030537 -1.135410
    28 1.100771 0.004527 -0.010679 -0.010778 0.012114 -0.550575
    29 0.120153 -0.050270 -0.054489 0.099906 3.110905 1.561085
    30 0.447953 -2.798986 -0.200443 -0.607948 0.000534 0.561976
    31 -0.032909 -1.480204 0.004940 -1.413633 0.000000 0.000002
    32 -0.027022 -1.076920 -0.020210 -1.481391 0.000000 0.000000
    33 -0.249534 -2.846964 -0.174213 -0.445831 0.004261 0.486845
    34 0.043235 -1.683941 0.096012 -1.469776 0.002823 -0.000167
    35 0.031729 -1.160830 0.058838 -1.698243 0.000642 0.008372
    36 -0.963866 -2.785145 -0.085350 0.057485 0.039254 0.065226
    37 0.028479 -1.403067 0.006271 -0.285462 0.000000 0.000000
    38 0.021413 -0.957781 0.020046 -0.387944 0.000000 0.000000
    39 1.164475 -2.543940 -0.170330 -0.557511 -0.035046 0.464229
    40 0.024032 -1.129042 0.017807 -1.373638 0.000000 0.000001
    41 0.014898 -0.883989 -0.019848 -1.103398 0.000000 0.000000
    42 -0.586770 -1.264477 0.200161 -0.683236 -0.842752 -2.270081
    43 1.522835 0.058681 0.016848 -0.059520 -0.122786 0.824758
    44 1.117947 0.048424 -0.005766 -0.016015 -0.019457 0.744725
    45 -0.041740 -0.115604 0.002678 0.136590 -0.022461 1.520273
    46 -1.393470 8.839177 -0.239433 1.580804 -0.005023 -1.566847
end
