version 1
nodes
  0 "root" -1
  1 "Bone01" 0
  2 "Bone_Lefthand" 1
  3 "hk-g11_root" 2
  4 "hk-g11_trigger" 3
  5 "hk-g11_bullet" 3
  6 "hk-g11_handle01" 3
  7 "hk-g11_handle02" 6
  8 "Bone_L_Upper" 1
  9 "Bone13" 2
  10 "Bone14" 9
  11 "Bone15" 10
  12 "Bone17" 2
  13 "Bone18" 12
  14 "Bone19" 13
  15 "Bone21" 2
  16 "Bone22" 15
  17 "Bone23" 16
  18 "Bone09" 2
  19 "Bone10" 18
  20 "Bone11" 19
  21 "Bone05" 2
  22 "Bone06" 21
  23 "Bone07" 22
  24 "Bone_Se_Hand-L" 2
  25 "Bone04" 0
  26 "Bone_Righthand" 25
  27 "Bone39" 26
  28 "Bone40" 27
  29 "Bone41" 28
  30 "Bone35" 26
  31 "Bone36" 30
  32 "Bone37" 31
  33 "Bone31" 26
  34 "Bone32" 33
  35 "Bone33" 34
  36 "Bone43" 26
  37 "Bone44" 36
  38 "Bone45" 37
  39 "Bone27" 26
  40 "Bone28" 39
  41 "Bone29" 40
  42 "Bone_Se_Hand-R" 26
  43 "Bone_R_Upper" 25
end
skeleton
  time 0
    0 4.945132 -7.491934 -10.211464 0.000000 -0.075235 -0.000003
    1 7.384263 3.561215 -0.030885 0.750898 -2.386457 -1.389558
    2 -0.071920 -8.498735 -0.104136 0.178716 0.515885 -0.471964
    3 1.301309 -2.858450 0.533806 -0.317190 -0.156087 -3.649922
    4 -0.633172 1.164522 0.000000 0.066347 0.000000 -0.413666
    5 -2.865860 0.319623 0.000002 0.000000 0.000000 1.961197
    6 0.471631 -4.176224 -0.013908 0.390400 -1.570796 0.000000
    7 0.798002 0.010359 -0.002600 0.000002 1.570796 0.000000
    8 1.257180 8.762585 -0.153713 -1.570562 0.002683 -1.566807
    9 -0.488518 -2.755602 -0.228260 -0.721249 -0.081949 -0.452612
    10 0.039887 -1.479790 0.029854 -1.744424 0.000000 0.000001
    11 0.028786 -1.075731 -0.023109 -1.070625 0.000000 0.000000
    12 0.125023 -3.051141 -0.574344 -0.799992 -0.047048 -0.393136
    13 -0.049759 -1.680544 0.100479 -1.558614 0.000000 -0.000002
    14 -0.034142 -1.148312 0.084782 -1.112872 0.000000 0.000000
    15 0.957766 -2.746780 -0.090302 0.325113 -0.158969 -0.144550
    16 -0.033420 -1.397129 -0.011257 -1.883896 0.000000 -0.000001
    17 -0.022360 -0.957436 0.018784 -0.774559 0.000000 0.000000
    18 -1.200213 -2.612689 -0.084481 -0.819559 0.107002 -0.434663
    19 -0.024967 -1.123934 0.017597 -1.746587 0.000000 0.000001
    20 -0.020057 -0.890968 0.010090 -0.424577 0.000000 0.000000
    21 0.583510 -1.197277 0.185379 0.041775 -0.932219 -0.526993
    22 1.535927 0.010246 0.005009 -0.115188 0.228157 -1.325298
    23 1.100771 0.004527 -0.010679 -0.031080 0.118321 -0.649585
    24 0.018587 -0.093240 -0.167774 3.423244 6.142883 -1.288278
    25 -6.817844 -3.649180 0.733114 -0.988728 -5.397259 -0.067634
    26 0.096944 -8.450418 -0.009365 -0.088840 -0.882257 0.488076
    27 0.447953 -2.798986 -0.200443 -0.805857 -0.098878 0.556583
    28 -0.032909 -1.480204 0.004940 -1.135932 0.000000 0.000002
    29 -0.027022 -1.076920 -0.020210 0.165353 0.000000 0.000000
    30 -0.249534 -2.846964 -0.174213 -0.518785 -0.091543 0.444345
    31 0.043235 -1.683941 0.096012 -1.409884 0.002823 -0.000167
    32 0.031729 -1.160830 0.058838 0.106677 0.000642 0.008372
    33 -0.963866 -2.785145 -0.085350 -0.084261 0.036917 0.292995
    34 0.028479 -1.403067 0.006271 -1.244457 0.000000 0.000000
    35 0.021413 -0.957781 0.020046 -0.446116 0.000000 0.000000
    36 1.164475 -2.543940 -0.170330 -0.843965 -0.017414 0.527819
    37 0.024032 -1.129042 0.017807 -1.014874 0.000000 0.000001
    38 0.014898 -0.883989 -0.019848 0.153136 0.000000 0.000000
    39 -0.500830 -1.428545 0.403292 -0.012660 0.012671 -2.752590
    40 1.522835 0.058681 0.016848 -0.200387 0.025296 0.309832
    41 1.117947 0.048424 -0.005766 -0.004773 -0.024752 0.246797
    42 -0.115961 -0.170294 -0.005135 0.565529 0.160611 1.289258
    43 -1.393470 8.839177 -0.239433 1.580804 -0.005023 -1.566847
  time 1
    0 4.945132 -6.726285 -10.211464 0.013914 -0.075217 -0.001060
    1 7.384263 3.561215 -0.030885 0.750898 -2.386457 -1.389558
    2 -0.071920 -8.498735 -0.104136 0.178716 0.515885 -0.471964
    3 1.301309 -2.858450 0.533806 -0.317190 -0.156087 -3.649922
    4 -0.633172 1.164522 0.000000 0.066347 0.000000 -0.413666
    5 -2.533819 -0.485089 0.000002 0.000000 0.000000 1.961197
    6 0.471631 -4.176224 -0.013908 0.390400 -1.570796 0.000000
    7 0.798002 0.010359 -0.002600 0.000002 1.570796 0.000000
    8 1.257180 8.762585 -0.153713 -1.570562 0.002683 -1.566807
    9 -0.488518 -2.755602 -0.228260 -0.721249 -0.081949 -0.452612
    10 0.039887 -1.479790 0.029854 -1.744424 0.000000 0.000001
    11 0.028786 -1.075731 -0.023109 -1.070625 0.000000 0.000000
    12 0.125023 -3.051141 -0.574344 -0.799992 -0.047048 -0.393136
    13 -0.049759 -1.680544 0.100479 -1.558614 0.000000 -0.000002
    14 -0.034142 -1.148312 0.084782 -1.112872 0.000000 0.000000
    15 0.957766 -2.746780 -0.090302 0.325113 -0.158969 -0.144550
    16 -0.033420 -1.397129 -0.011257 -1.883896 0.000000 -0.000001
    17 -0.022360 -0.957436 0.018784 -0.774559 0.000000 0.000000
    18 -1.200213 -2.612689 -0.084481 -0.819559 0.107002 -0.434663
    19 -0.024967 -1.123934 0.017597 -1.746587 0.000000 0.000001
    20 -0.020057 -0.890968 0.010090 -0.424577 0.000000 0.000000
    21 0.583510 -1.197277 0.185379 0.041775 -0.932219 -0.526993
    22 1.535927 0.010246 0.005009 -0.115188 0.228157 -1.325298
    23 1.100771 0.004527 -0.010679 -0.031080 0.118321 -0.649585
    24 0.018587 -0.093240 -0.167774 3.423244 6.142883 -1.288278
    25 -6.817844 -3.649180 0.733114 -0.988728 -5.397259 -0.067634
    26 0.096944 -8.450418 -0.009365 -0.088840 -0.882257 0.488076
    27 0.447953 -2.798986 -0.200443 -0.805857 -0.098878 0.556583
    28 -0.032909 -1.480204 0.004940 -1.135932 0.000000 0.000002
    29 -0.027022 -1.076920 -0.020210 0.165353 0.000000 0.000000
    30 -0.249534 -2.846964 -0.174213 -0.518785 -0.091543 0.444345
    31 0.043235 -1.683941 0.096012 -1.409884 0.002823 -0.000167
    32 0.031729 -1.160830 0.058838 0.106677 0.000642 0.008372
    33 -0.963866 -2.785145 -0.085350 -0.084261 0.036917 0.292995
    34 0.028479 -1.403067 0.006271 -1.244457 0.000000 0.000000
    35 0.021413 -0.957781 0.020046 -0.446116 0.000000 0.000000
    36 1.164475 -2.543940 -0.170330 -0.843965 -0.017414 0.527819
    37 0.024032 -1.129042 0.017807 -1.014874 0.000000 0.000001
    38 0.014898 -0.883989 -0.019848 0.153136 0.000000 0.000000
    39 -0.500830 -1.428545 0.403292 -0.012660 0.012671 -2.752590
    40 1.522835 0.058681 0.016848 -0.200387 0.025296 0.309832
    41 1.117947 0.048424 -0.005766 -0.004773 -0.024752 0.246797
    42 -0.115961 -0.170294 -0.005135 0.568027 0.179992 1.301926
    43 -1.393470 8.839177 -0.239433 1.580804 -0.005023 -1.566847
  time 2
    0 4.956851 -6.331742 -10.195839 -0.013267 -0.075180 0.000958
    1 7.384263 3.561215 -0.030885 0.750898 -2.386457 -1.389558
    2 -0.071920 -8.498735 -0.104136 0.178716 0.515885 -0.471964
    3 1.301309 -2.858450 0.533806 -0.317190 -0.156087 -3.649938
    4 -0.633172 1.164522 0.000000 0.066347 0.000000 -0.413666
    5 -2.873673 0.335248 0.000002 0.000000 0.000000 1.961197
    6 0.471631 -4.176224 -0.013908 0.390400 -1.570796 0.000000
    7 0.798002 0.010359 -0.002600 0.000002 1.570796 0.000000
    8 1.257180 8.762585 -0.153713 -1.570562 0.002683 -1.566807
    9 -0.488518 -2.755602 -0.228260 -0.721249 -0.081949 -0.452612
    10 0.039887 -1.479790 0.029854 -1.744424 0.000000 0.000001
    11 0.028786 -1.075731 -0.023109 -1.070625 0.000000 0.000000
    12 0.125023 -3.051141 -0.574344 -0.799992 -0.047048 -0.393136
    13 -0.049759 -1.680544 0.100479 -1.558614 0.000000 -0.000002
    14 -0.034142 -1.148312 0.084782 -1.112839 0.000000 0.000000
    15 0.957766 -2.746780 -0.090302 0.325113 -0.158969 -0.144550
    16 -0.033420 -1.397129 -0.011257 -1.883896 0.000000 -0.000001
    17 -0.022360 -0.957436 0.018784 -0.774559 0.000000 0.000000
    18 -1.200213 -2.612689 -0.084481 -0.819559 0.107002 -0.434663
    19 -0.024967 -1.123934 0.017597 -1.746587 0.000000 0.000001
    20 -0.020057 -0.890968 0.010090 -0.424577 0.000000 0.000000
    21 0.583510 -1.197277 0.185379 0.041775 -0.932219 -0.526993
    22 1.535927 0.010246 0.005009 -0.115188 0.228157 -1.325298
    23 1.100771 0.004527 -0.010679 -0.031080 0.118321 -0.649585
    24 0.018587 -0.093240 -0.167774 3.423244 6.142883 -1.288278
    25 -6.817844 -3.649180 0.733114 -0.988728 -5.397259 -0.067634
    26 0.096944 -8.450418 -0.009365 -0.088840 -0.882257 0.488076
    27 0.447953 -2.798986 -0.200443 -0.805857 -0.098878 0.556583
    28 -0.032909 -1.480204 0.004940 -1.135932 0.000000 0.000002
    29 -0.027022 -1.076920 -0.020210 0.165353 0.000000 0.000000
    30 -0.249534 -2.846964 -0.174213 -0.518785 -0.091543 0.444345
    31 0.043235 -1.683941 0.096012 -1.409884 0.002823 -0.000167
    32 0.031729 -1.160830 0.058838 0.106677 0.000642 0.008372
    33 -0.963866 -2.785145 -0.085350 -0.084261 0.036917 0.292995
    34 0.028479 -1.403067 0.006271 -1.244457 0.000000 0.000000
    35 0.021413 -0.957781 0.020046 -0.446116 0.000000 0.000000
    36 1.164475 -2.543940 -0.170330 -0.843965 -0.017414 0.527819
    37 0.024032 -1.129042 0.017807 -1.014874 0.000000 0.000001
    38 0.014898 -0.883989 -0.019848 0.153136 0.000000 0.000000
    39 -0.500830 -1.428545 0.403292 -0.012660 0.012671 -2.752590
    40 1.522835 0.058681 0.016848 -0.200387 0.025296 0.309832
    41 1.117947 0.048424 -0.005766 -0.004773 -0.024752 0.246797
    42 -0.115961 -0.170294 -0.005135 0.572662 0.215960 1.325452
    43 -1.393470 8.839177 -0.239433 1.580804 -0.005023 -1.566847
  time 3
    0 4.964664 -6.159862 -10.172400 -0.040460 -0.075180 0.003024
    1 7.384263 3.561215 -0.030885 0.750898 -2.386457 -1.389558
    2 -0.071920 -8.498735 -0.104136 0.178716 0.515885 -0.471964
    3 1.301309 -2.858450 0.533806 -0.317190 -0.156087 -3.649922
    4 -0.633172 1.164522 0.000000 0.066347 0.000000 -0.413666
    5 -3.615883 2.139991 0.000002 0.000000 0.000000 1.961197
    6 0.471631 -4.176224 -0.013908 0.390400 -1.570796 0.000000
    7 0.798002 0.010359 -0.002600 0.000002 1.570796 0.000000
    8 1.257180 8.762585 -0.153713 -1.570562 0.002683 -1.566807
    9 -0.488518 -2.755602 -0.228260 -0.721249 -0.081949 -0.452612
    10 0.039887 -1.479790 0.029854 -1.744424 0.000000 0.000001
    11 0.028786 -1.075731 -0.023109 -1.070625 0.000000 0.000000
    12 0.125023 -3.051141 -0.574344 -0.799992 -0.047048 -0.393136
    13 -0.049759 -1.680544 0.100479 -1.558614 0.000000 -0.000002
    14 -0.034142 -1.148312 0.084782 -1.112839 0.000000 0.000000
    15 0.957766 -2.746780 -0.090302 0.325113 -0.158969 -0.144550
    16 -0.033420 -1.397129 -0.011257 -1.883896 0.000000 -0.000001
    17 -0.022360 -0.957436 0.018784 -0.774559 0.000000 0.000000
    18 -1.200213 -2.612689 -0.084481 -0.819559 0.107002 -0.434663
    19 -0.024967 -1.123934 0.017597 -1.746587 0.000000 0.000001
    20 -0.020057 -0.890968 0.010090 -0.424577 0.000000 0.000000
    21 0.583510 -1.197277 0.185379 0.041775 -0.932219 -0.526993
    22 1.535927 0.010246 0.005009 -0.115188 0.228157 -1.325298
    23 1.100771 0.004527 -0.010679 -0.031080 0.118321 -0.649585
    24 0.018587 -0.093240 -0.167774 3.423244 6.142883 -1.288278
    25 -6.817844 -3.649180 0.733114 -0.988728 -5.397259 -0.067634
    26 0.096944 -8.450418 -0.009365 -0.088840 -0.882257 0.488076
    27 0.447953 -2.798986 -0.200443 -0.805857 -0.098878 0.556583
    28 -0.032909 -1.480204 0.004940 -1.135932 0.000000 0.000002
    29 -0.027022 -1.076920 -0.020210 0.165353 0.000000 0.000000
    30 -0.249534 -2.846964 -0.174213 -0.518785 -0.091543 0.444345
    31 0.043235 -1.683941 0.096012 -1.409884 0.002823 -0.000167
    32 0.031729 -1.160830 0.058838 0.106677 0.000642 0.008372
    33 -0.963866 -2.785145 -0.085350 -0.084261 0.036917 0.292995
    34 0.028479 -1.403067 0.006271 -1.244457 0.000000 0.000000
    35 0.021413 -0.957781 0.020046 -0.446116 0.000000 0.000000
    36 1.164475 -2.543940 -0.170330 -0.843965 -0.017414 0.527819
    37 0.024032 -1.129042 0.017807 -1.014874 0.000000 0.000001
    38 0.014898 -0.883989 -0.019848 0.153136 0.000000 0.000000
    39 -0.500830 -1.428545 0.403292 -0.012660 0.012671 -2.752590
    40 1.522835 0.058681 0.016848 -0.200387 0.025296 0.309832
    41 1.117947 0.048424 -0.005766 -0.004773 -0.024752 0.246797
    42 -0.115961 -0.170294 -0.005135 0.575159 0.235341 1.338120
    43 -1.393470 8.839177 -0.239433 1.580804 -0.005023 -1.566847
  time 4
    0 4.960757 -6.241896 -10.148962 -0.038590 -0.075180 0.002880
    1 7.384263 3.561215 -0.030885 0.750898 -2.386457 -1.389558
    2 -0.071920 -8.498735 -0.104136 0.178716 0.515885 -0.471964
    3 1.301309 -2.858450 0.533806 -0.317190 -0.156087 -3.649922
    4 -0.633172 1.164522 0.000000 0.064489 0.000000 -0.386909
    5 -4.358093 3.944733 0.000002 0.000000 0.000000 1.961197
    6 0.471631 -4.176224 -0.013908 0.390400 -1.570796 0.000000
    7 0.798002 0.010359 -0.002600 0.000002 1.570796 0.000000
    8 1.257180 8.762585 -0.153713 -1.570562 0.002683 -1.566807
    9 -0.488518 -2.755602 -0.228260 -0.721249 -0.081949 -0.452612
    10 0.039887 -1.479790 0.029854 -1.744424 0.000000 0.000001
    11 0.028786 -1.075731 -0.023109 -1.070625 0.000000 0.000000
    12 0.125023 -3.051141 -0.574344 -0.799992 -0.047048 -0.393136
    13 -0.049759 -1.680544 0.100479 -1.558614 0.000000 -0.000002
    14 -0.034142 -1.148312 0.084782 -1.112872 0.000000 0.000000
    15 0.957766 -2.746780 -0.090302 0.325113 -0.158969 -0.144550
    16 -0.033420 -1.397129 -0.011257 -1.883896 0.000000 -0.000001
    17 -0.022360 -0.957436 0.018784 -0.774559 0.000000 0.000000
    18 -1.200213 -2.612689 -0.084481 -0.819559 0.107002 -0.434663
    19 -0.024967 -1.123934 0.017597 -1.746587 0.000000 0.000001
    20 -0.020057 -0.890968 0.010090 -0.424577 0.000000 0.000000
    21 0.583510 -1.197277 0.185379 0.041775 -0.932219 -0.526993
    22 1.535927 0.010246 0.005009 -0.115188 0.228157 -1.325298
    23 1.100771 0.004527 -0.010679 -0.031080 0.118321 -0.649585
    24 0.018587 -0.093240 -0.167774 3.423244 6.142883 -1.288278
    25 -6.817844 -3.649180 0.733114 -0.988728 -5.397259 -0.067634
    26 0.096944 -8.450418 -0.009365 -0.088840 -0.882257 0.488076
    27 0.447953 -2.798986 -0.200443 -0.805857 -0.098878 0.556583
    28 -0.032909 -1.480204 0.004940 -1.135932 0.000000 0.000002
    29 -0.027022 -1.076920 -0.020210 0.165353 0.000000 0.000000
    30 -0.249534 -2.846964 -0.174213 -0.518785 -0.091543 0.444345
    31 0.043235 -1.683941 0.096012 -1.409884 0.002823 -0.000167
    32 0.031729 -1.160830 0.058838 0.106677 0.000642 0.008372
    33 -0.963866 -2.785145 -0.085350 -0.084261 0.036917 0.292995
    34 0.028479 -1.403067 0.006271 -1.244457 0.000000 0.000000
    35 0.021413 -0.957781 0.020046 -0.446116 0.000000 0.000000
    36 1.164475 -2.543940 -0.170330 -0.843965 -0.017414 0.527819
    37 0.024032 -1.129042 0.017807 -1.014874 0.000000 0.000001
    38 0.014898 -0.883989 -0.019848 0.153136 0.000000 0.000000
    39 -0.500830 -1.428545 0.403292 -0.012660 0.012671 -2.752590
    40 1.522835 0.058681 0.016848 -0.200363 0.025582 0.311236
    41 1.117947 0.048424 -0.005766 -0.004533 -0.024765 0.236991
    42 -0.115961 -0.170294 -0.005135 0.574773 0.230227 1.336322
    43 -1.393470 8.839177 -0.239433 1.580804 -0.005023 -1.566847
  time 5
    0 4.952945 -6.452839 -10.125524 -0.033545 -0.075180 0.002495
    1 7.384263 3.561215 -0.030885 0.750898 -2.386457 -1.389558
    2 -0.071920 -8.498735 -0.104136 0.178716 0.515885 -0.471964
    3 1.301309 -2.858450 0.533806 -0.317190 -0.156087 -3.649922
    4 -0.633172 1.164522 0.000000 0.059444 0.000000 -0.314210
    5 -4.694041 4.765071 0.000002 0.000000 0.000000 1.961197
    6 0.471631 -4.176224 -0.013908 0.390400 -1.570796 0.000000
    7 0.798002 0.010359 -0.002600 0.000002 1.570796 0.000000
    8 1.257180 8.762585 -0.153713 -1.570562 0.002683 -1.566807
    9 -0.488518 -2.755602 -0.228260 -0.721249 -0.081949 -0.452612
    10 0.039887 -1.479790 0.029854 -1.744424 0.000000 0.000001
    11 0.028786 -1.075731 -0.023109 -1.070625 0.000000 0.000000
    12 0.125023 -3.051141 -0.574344 -0.799992 -0.047048 -0.393136
    13 -0.049759 -1.680544 0.100479 -1.558614 0.000000 -0.000002
    14 -0.034142 -1.148312 0.084782 -1.112872 0.000000 0.000000
    15 0.957766 -2.746780 -0.090302 0.325113 -0.158969 -0.144550
    16 -0.033420 -1.397129 -0.011257 -1.860613 0.000000 -0.000001
    17 -0.022360 -0.957436 0.018784 -0.787098 0.000000 0.000000
    18 -1.200213 -2.612689 -0.084481 -0.819559 0.107002 -0.434663
    19 -0.024967 -1.123934 0.017597 -1.746587 0.000000 0.000001
    20 -0.020057 -0.890968 0.010090 -0.424577 0.000000 0.000000
    21 0.583510 -1.197277 0.185379 0.041775 -0.932219 -0.526993
    22 1.535927 0.010246 0.005009 -0.115188 0.228157 -1.325298
    23 1.100771 0.004527 -0.010679 -0.031080 0.118321 -0.649585
    24 0.018587 -0.093240 -0.167774 3.423244 6.142883 -1.288278
    25 -6.817844 -3.649180 0.733114 -0.988728 -5.397259 -0.067634
    26 0.096944 -8.450418 -0.009365 -0.088840 -0.882257 0.488076
    27 0.447953 -2.798986 -0.200443 -0.805857 -0.098878 0.556583
    28 -0.032909 -1.480204 0.004940 -1.135932 0.000000 0.000002
    29 -0.027022 -1.076920 -0.020210 0.165353 0.000000 0.000000
    30 -0.249534 -2.846964 -0.174213 -0.518785 -0.091543 0.444345
    31 0.043235 -1.683941 0.096012 -1.409884 0.002823 -0.000167
    32 0.031729 -1.160830 0.058838 0.106677 0.000642 0.008372
    33 -0.963866 -2.785145 -0.085350 -0.084261 0.036917 0.292995
    34 0.028479 -1.403067 0.006271 -1.244457 0.000000 0.000000
    35 0.021413 -0.957781 0.020046 -0.446116 0.000000 0.000000
    36 1.164475 -2.543940 -0.170330 -0.843965 -0.017414 0.527819
    37 0.024032 -1.129042 0.017807 -1.014874 0.000000 0.000001
    38 0.014898 -0.883989 -0.019848 0.153136 0.000000 0.000000
    39 -0.500830 -1.428545 0.403292 -0.012660 0.012671 -2.752590
    40 1.522835 0.058681 0.016848 -0.200279 0.026380 0.315135
    41 1.117947 0.048424 -0.005766 -0.003874 -0.024803 0.210637
    42 -0.115961 -0.170294 -0.005135 0.573756 0.216357 1.331420
    43 -1.393470 8.839177 -0.239433 1.580804 -0.005023 -1.566847
  time 6
    0 4.945132 -6.726285 -10.102086 -0.026114 -0.075180 0.001919
    1 7.384263 3.561215 -0.030885 0.750898 -2.386457 -1.389558
    2 -0.071920 -8.498735 -0.104136 0.178716 0.515885 -0.471964
    3 1.301309 -2.858450 0.533806 -0.317190 -0.156087 -3.649922
    4 -0.633172 1.164522 0.000000 0.052013 0.000000 -0.207120
    5 -4.694041 4.765071 0.000002 0.000000 0.000000 1.961197
    6 0.471631 -4.176224 -0.013908 0.390400 -1.570796 0.000000
    7 0.798002 0.010359 -0.002600 0.000002 1.570796 0.000000
    8 1.257180 8.762585 -0.153713 -1.570562 0.002683 -1.566807
    9 -0.488518 -2.755602 -0.228260 -0.721249 -0.081949 -0.452612
    10 0.039887 -1.479790 0.029854 -1.744424 0.000000 0.000001
    11 0.028786 -1.075731 -0.023109 -1.070625 0.000000 0.000000
    12 0.125023 -3.051141 -0.574344 -0.799992 -0.047048 -0.393136
    13 -0.049759 -1.680544 0.100479 -1.558614 0.000000 -0.000002
    14 -0.034142 -1.148312 0.084782 -1.112872 0.000000 0.000000
    15 0.957766 -2.746780 -0.090302 0.325086 -0.158969 -0.144550
    16 -0.033420 -1.397129 -0.011257 -1.796091 0.000000 -0.000001
    17 -0.022360 -0.957436 0.018784 -0.821501 0.000000 0.000000
    18 -1.200213 -2.612689 -0.084481 -0.819559 0.107002 -0.434663
    19 -0.024967 -1.123934 0.017597 -1.746587 0.000000 0.000001
    20 -0.020057 -0.890968 0.010090 -0.424577 0.000000 0.000000
    21 0.583510 -1.197277 0.185379 0.041775 -0.932219 -0.526993
    22 1.535927 0.010246 0.005009 -0.115188 0.228157 -1.325298
    23 1.100771 0.004527 -0.010679 -0.031080 0.118321 -0.649585
    24 0.018587 -0.093240 -0.167774 3.423244 6.142883 -1.288278
    25 -6.817844 -3.649180 0.733114 -0.988728 -5.397259 -0.067634
    26 0.096944 -8.450418 -0.009365 -0.088840 -0.882257 0.488076
    27 0.447953 -2.798986 -0.200443 -0.805857 -0.098878 0.556583
    28 -0.032909 -1.480204 0.004940 -1.135932 0.000000 0.000002
    29 -0.027022 -1.076920 -0.020210 0.165353 0.000000 0.000000
    30 -0.249534 -2.846964 -0.174213 -0.518785 -0.091543 0.444345
    31 0.043235 -1.683941 0.096012 -1.409884 0.002823 -0.000167
    32 0.031729 -1.160830 0.058838 0.106677 0.000642 0.008372
    33 -0.963866 -2.785145 -0.085350 -0.084261 0.036917 0.292995
    34 0.028479 -1.403067 0.006271 -1.244457 0.000000 0.000000
    35 0.021413 -0.957781 0.020046 -0.446116 0.000000 0.000000
    36 1.164475 -2.543940 -0.170330 -0.843965 -0.017414 0.527819
    37 0.024032 -1.129042 0.017807 -1.014874 0.000000 0.000001
    38 0.014898 -0.883989 -0.019848 0.153136 0.000000 0.000000
    39 -0.500830 -1.428545 0.403292 -0.012660 0.012671 -2.752590
    40 1.522835 0.058681 0.016848 -0.200135 0.027615 0.321179
    41 1.117947 0.048424 -0.005766 -0.002916 -0.024854 0.172370
    42 -0.115961 -0.170294 -0.005135 0.572237 0.195929 1.324206
    43 -1.393470 8.839177 -0.239433 1.580804 -0.005023 -1.566847
  time 7
    0 4.937319 -6.995825 -10.086460 -0.017078 -0.075180 0.001246
    1 7.384263 3.561215 -0.030885 0.750898 -2.386457 -1.389558
    2 -0.071920 -8.498735 -0.104136 0.178716 0.515885 -0.471964
    3 1.301309 -2.858450 0.533806 -0.317190 -0.156087 -3.649922
    4 -0.633172 1.164522 0.000000 0.042989 0.000000 -0.077046
    5 -4.694041 4.765071 0.000002 0.000000 0.000000 1.961197
    6 0.471631 -4.176224 -0.013908 0.390400 -1.570796 0.000000
    7 0.798002 0.010359 -0.002600 0.000002 1.570796 0.000000
    8 1.257180 8.762585 -0.153713 -1.570562 0.002683 -1.566807
    9 -0.488518 -2.755602 -0.228260 -0.721249 -0.081949 -0.452612
    10 0.039887 -1.479790 0.029854 -1.744424 0.000000 0.000001
    11 0.028786 -1.075731 -0.023109 -1.070625 0.000000 0.000000
    12 0.125023 -3.051141 -0.574344 -0.799992 -0.047048 -0.393136
    13 -0.049759 -1.680544 0.100479 -1.558614 0.000000 -0.000002
    14 -0.034142 -1.148312 0.084782 -1.112872 0.000000 0.000000
    15 0.957766 -2.746780 -0.090302 0.325059 -0.158969 -0.144550
    16 -0.033420 -1.397129 -0.011257 -1.698266 0.000000 -0.000001
    17 -0.022360 -0.957436 0.018784 -0.872905 0.000000 0.000000
    18 -1.200213 -2.612689 -0.084481 -0.819559 0.107002 -0.434663
    19 -0.024967 -1.123934 0.017597 -1.746587 0.000000 0.000001
    20 -0.020057 -0.890968 0.010090 -0.424577 0.000000 0.000000
    21 0.583510 -1.197277 0.185379 0.041775 -0.932219 -0.526993
    22 1.535927 0.010246 0.005009 -0.115188 0.228157 -1.325298
    23 1.100771 0.004527 -0.010679 -0.031080 0.118321 -0.649585
    24 0.018587 -0.093240 -0.167774 3.423244 6.142883 -1.288278
    25 -6.817844 -3.649180 0.733114 -0.988728 -5.397259 -0.067634
    26 0.096944 -8.450418 -0.009365 -0.088840 -0.882257 0.488076
    27 0.447953 -2.798986 -0.200443 -0.805857 -0.098878 0.556583
    28 -0.032909 -1.480204 0.004940 -1.135932 0.000000 0.000002
    29 -0.027022 -1.076920 -0.020210 0.165353 0.000000 0.000000
    30 -0.249534 -2.846964 -0.174213 -0.518785 -0.091543 0.444345
    31 0.043235 -1.683941 0.096012 -1.409884 0.002823 -0.000167
    32 0.031729 -1.160830 0.058838 0.106677 0.000642 0.008372
    33 -0.963866 -2.785145 -0.085350 -0.084261 0.036917 0.292995
    34 0.028479 -1.403067 0.006271 -1.244457 0.000000 0.000000
    35 0.021413 -0.957781 0.020046 -0.446116 0.000000 0.000000
    36 1.164475 -2.543940 -0.170330 -0.843965 -0.017414 0.527819
    37 0.024032 -1.129042 0.017807 -1.014874 0.000000 0.000001
    38 0.014898 -0.883989 -0.019848 0.153136 0.000000 0.000000
    39 -0.500830 -1.428545 0.403292 -0.012660 0.012671 -2.752590
    40 1.522835 0.058681 0.016848 -0.199931 0.029211 0.329056
    41 1.117947 0.048424 -0.005766 -0.001765 -0.024918 0.126807
    42 -0.115961 -0.170294 -0.005135 0.570409 0.171103 1.315433
    43 -1.393470 8.839177 -0.239433 1.580804 -0.005023 -1.566847
  time 8
    0 4.933413 -7.198956 -10.078647 -0.007251 -0.075180 0.000525
    1 7.384263 3.561215 -0.030885 0.750898 -2.386457 -1.389558
    2 -0.071920 -8.498735 -0.104136 0.178716 0.515885 -0.471964
    3 1.301309 -2.858450 0.533806 -0.317190 -0.156087 -3.649922
    4 -0.633172 1.164522 0.000000 0.033173 0.000000 0.064493
    5 -4.694041 4.765071 0.000002 0.000000 0.000000 1.961197
    6 0.471631 -4.176224 -0.013908 0.390400 -1.570796 0.000000
    7 0.798002 0.010359 -0.002600 0.000002 1.570796 0.000000
    8 1.257180 8.762585 -0.153713 -1.570562 0.002683 -1.566807
    9 -0.488518 -2.755602 -0.228260 -0.721249 -0.081949 -0.452612
    10 0.039887 -1.479790 0.029854 -1.744424 0.000000 0.000001
    11 0.028786 -1.075731 -0.023109 -1.070625 0.000000 0.000000
    12 0.125023 -3.051141 -0.574344 -0.799992 -0.047048 -0.393136
    13 -0.049759 -1.680544 0.100479 -1.558614 0.000000 -0.000002
    14 -0.034142 -1.148312 0.084782 -1.112839 0.000000 0.000000
    15 0.957766 -2.746780 -0.090302 0.324991 -0.158969 -0.144550
    16 -0.033420 -1.397129 -0.011257 -1.575189 0.000000 -0.000001
    17 -0.022360 -0.957436 0.018784 -0.936405 0.000000 0.000000
    18 -1.200213 -2.612689 -0.084481 -0.819559 0.107002 -0.434663
    19 -0.024967 -1.123934 0.017597 -1.746587 0.000000 0.000001
    20 -0.020057 -0.890968 0.010090 -0.424577 0.000000 0.000000
    21 0.583510 -1.197277 0.185379 0.041775 -0.932219 -0.526993
    22 1.535927 0.010246 0.005009 -0.115188 0.228157 -1.325298
    23 1.100771 0.004527 -0.010679 -0.031080 0.118321 -0.649585
    24 0.018587 -0.093240 -0.167774 3.423244 6.142883 -1.288278
    25 -6.817844 -3.649180 0.733114 -0.988728 -5.397259 -0.067634
    26 0.096944 -8.450418 -0.009365 -0.088840 -0.882257 0.488076
    27 0.447953 -2.798986 -0.200443 -0.805857 -0.098878 0.556583
    28 -0.032909 -1.480204 0.004940 -1.135932 0.000000 0.000002
    29 -0.027022 -1.076920 -0.020210 0.165353 0.000000 0.000000
    30 -0.249534 -2.846964 -0.174213 -0.518785 -0.091543 0.444345
    31 0.043235 -1.683941 0.096012 -1.409884 0.002823 -0.000167
    32 0.031729 -1.160830 0.058838 0.106677 0.000642 0.008372
    33 -0.963866 -2.785145 -0.085350 -0.084261 0.036917 0.292995
    34 0.028479 -1.403067 0.006271 -1.244457 0.000000 0.000000
    35 0.021413 -0.957781 0.020046 -0.446116 0.000000 0.000000
    36 1.164475 -2.543940 -0.170330 -0.843965 -0.017414 0.527819
    37 0.024032 -1.129042 0.017807 -1.014874 0.000000 0.000001
    38 0.014898 -0.883989 -0.019848 0.153136 0.000000 0.000000
    39 -0.500830 -1.428545 0.403292 -0.012660 0.012671 -2.752590
    40 1.522835 0.058681 0.016848 -0.199667 0.031094 0.338336
    41 1.117947 0.048424 -0.005766 -0.000555 -0.024981 0.078582
    42 -0.115961 -0.170294 -0.005135 0.568400 0.144104 1.305893
    43 -1.393470 8.839177 -0.239433 1.580804 -0.005023 -1.566847
  time 9
    0 4.937319 -7.339585 -10.102086 0.002577 -0.075180 -0.000195
    1 7.384263 3.561215 -0.030885 0.750898 -2.386457 -1.389558
    2 -0.071920 -8.498735 -0.104136 0.178548 0.514136 -0.472327
    3 1.301309 -2.858450 0.533806 -0.317190 -0.156087 -3.649922
    4 -0.633172 1.164522 0.000000 0.023346 0.000000 0.206001
    5 -4.694041 4.765071 0.000002 0.000000 0.000000 1.961197
    6 0.471631 -4.176224 -0.013908 0.390400 -1.570796 0.000000
    7 0.798002 0.010359 -0.002600 0.000002 1.570796 0.000000
    8 1.257180 8.762585 -0.153713 -1.570562 0.002683 -1.566807
    9 -0.488518 -2.755602 -0.228260 -0.721249 -0.081949 -0.452612
    10 0.039887 -1.479790 0.029854 -1.744424 0.000000 0.000001
    11 0.028786 -1.075731 -0.023109 -1.070625 0.000000 0.000000
    12 0.125023 -3.051141 -0.574344 -0.799992 -0.047060 -0.393136
    13 -0.049759 -1.680544 0.100479 -1.558614 0.000000 -0.000002
    14 -0.034142 -1.148312 0.084782 -1.112839 0.000000 0.000000
    15 0.957766 -2.746780 -0.090302 0.324895 -0.158969 -0.144550
    16 -0.033420 -1.397129 -0.011257 -1.434967 0.000000 -0.000001
    17 -0.022360 -0.957436 0.018784 -1.007220 0.000000 0.000000
    18 -1.200213 -2.612689 -0.084481 -0.819559 0.107002 -0.434663
    19 -0.024967 -1.123934 0.017597 -1.746587 0.000000 0.000001
    20 -0.020057 -0.890968 0.010090 -0.424577 0.000000 0.000000
    21 0.583510 -1.197277 0.185379 0.041775 -0.932219 -0.526993
    22 1.535927 0.010246 0.005009 -0.115188 0.228157 -1.325298
    23 1.100771 0.004527 -0.010679 -0.031080 0.118321 -0.649585
    24 0.018587 -0.093240 -0.167774 3.423244 6.142883 -1.288278
    25 -6.817844 -3.649180 0.733114 -0.988728 -5.397259 -0.067634
    26 0.096944 -8.450418 -0.009365 -0.088840 -0.882257 0.488076
    27 0.447953 -2.798986 -0.200443 -0.805857 -0.098878 0.556583
    28 -0.032909 -1.480204 0.004940 -1.135932 0.000000 0.000002
    29 -0.027022 -1.076920 -0.020210 0.165353 0.000000 0.000000
    30 -0.249534 -2.846964 -0.174213 -0.518785 -0.091543 0.444345
    31 0.043235 -1.683941 0.096012 -1.409884 0.002823 -0.000167
    32 0.031729 -1.160830 0.058838 0.106677 0.000642 0.008372
    33 -0.963866 -2.785145 -0.085350 -0.084261 0.036917 0.292995
    34 0.028479 -1.403067 0.006271 -1.244457 0.000000 0.000000
    35 0.021413 -0.957781 0.020046 -0.446116 0.000000 0.000000
    36 1.164475 -2.543940 -0.170330 -0.843965 -0.017414 0.527819
    37 0.024032 -1.129042 0.017807 -1.014874 0.000000 0.000001
    38 0.014898 -0.883989 -0.019848 0.153136 0.000000 0.000000
    39 -0.500830 -1.428545 0.403292 -0.012660 0.012671 -2.752590
    40 1.522835 0.058681 0.016848 -0.199332 0.033187 0.348708
    41 1.117947 0.048424 -0.005766 0.000596 -0.025045 0.032328
    42 -0.115961 -0.170294 -0.005135 0.566405 0.117092 1.296353
    43 -1.393470 8.839177 -0.239433 1.580804 -0.005023 -1.566847
  time 10
    0 4.937319 -7.464589 -10.156775 0.011601 -0.075180 -0.000916
    1 7.384263 3.561215 -0.030885 0.750898 -2.386457 -1.389558
    2 -0.071920 -8.498735 -0.104136 0.178129 0.509965 -0.473188
    3 1.301309 -2.858450 0.533806 -0.317190 -0.156087 -3.649938
    4 -0.633172 1.164522 0.000000 0.014322 0.000000 0.336076
    5 -4.694041 4.765071 0.000002 0.000000 0.000000 1.961197
    6 0.471631 -4.176224 -0.013908 0.390400 -1.570796 0.000000
    7 0.798002 0.010359 -0.002600 0.000002 1.570796 0.000000
    8 1.257180 8.762585 -0.153713 -1.570562 0.002683 -1.566807
    9 -0.488518 -2.755602 -0.228260 -0.721249 -0.081949 -0.452612
    10 0.039887 -1.479790 0.029854 -1.744424 0.000000 0.000001
    11 0.028786 -1.075731 -0.023109 -1.070625 0.000000 0.000000
    12 0.125023 -3.051141 -0.574344 -0.799992 -0.047048 -0.393136
    13 -0.049759 -1.680544 0.100479 -1.558614 0.000000 -0.000002
    14 -0.034142 -1.148312 0.084782 -1.112872 0.000000 0.000000
    15 0.957766 -2.746780 -0.090302 0.324786 -0.158969 -0.144550
    16 -0.033420 -1.397129 -0.011257 -1.285479 0.000000 -0.000001
    17 -0.022360 -0.957436 0.018784 -1.080447 0.000000 0.000000
    18 -1.200213 -2.612689 -0.084481 -0.819559 0.107002 -0.434663
    19 -0.024967 -1.123934 0.017597 -1.746587 0.000000 0.000001
    20 -0.020057 -0.890968 0.010090 -0.424577 0.000000 0.000000
    21 0.583510 -1.197277 0.185379 0.041775 -0.932219 -0.526993
    22 1.535927 0.010246 0.005009 -0.115188 0.228157 -1.325298
    23 1.100771 0.004527 -0.010679 -0.031080 0.118321 -0.649585
    24 0.018587 -0.093240 -0.167774 3.423244 6.142883 -1.288278
    25 -6.817844 -3.649180 0.733114 -0.988728 -5.397259 -0.067634
    26 0.096944 -8.450418 -0.009365 -0.088840 -0.882257 0.488076
    27 0.447953 -2.798986 -0.200443 -0.805857 -0.098878 0.556583
    28 -0.032909 -1.480204 0.004940 -1.135932 0.000000 0.000002
    29 -0.027022 -1.076920 -0.020210 0.165353 0.000000 0.000000
    30 -0.249534 -2.846964 -0.174213 -0.518785 -0.091543 0.444345
    31 0.043235 -1.683941 0.096012 -1.409884 0.002823 -0.000167
    32 0.031729 -1.160830 0.058838 0.106677 0.000642 0.008372
    33 -0.963866 -2.785145 -0.085350 -0.084261 0.036917 0.292995
    34 0.028479 -1.403067 0.006271 -1.244457 0.000000 0.000000
    35 0.021413 -0.957781 0.020046 -0.446116 0.000000 0.000000
    36 1.164475 -2.543940 -0.170330 -0.843965 -0.017414 0.527819
    37 0.024032 -1.129042 0.017807 -1.014874 0.000000 0.000001
    38 0.014898 -0.883989 -0.019848 0.153136 0.000000 0.000000
    39 -0.500830 -1.428545 0.403292 -0.012660 0.012671 -2.752590
    40 1.522835 0.058681 0.016848 -0.198936 0.035416 0.359783
    41 1.117947 0.048424 -0.005766 0.001591 -0.025083 -0.007354
    42 -0.115961 -0.170294 -0.005135 0.564577 0.092279 1.287593
    43 -1.393470 8.839177 -0.239433 1.580804 -0.005023 -1.566847
  time 11
    0 4.941225 -7.562248 -10.227090 0.019044 -0.075180 -0.001444
    1 7.384263 3.561215 -0.030885 0.750898 -2.386457 -1.389558
    2 -0.071920 -8.498735 -0.104136 0.177625 0.505003 -0.474201
    3 1.301309 -2.858450 0.533806 -0.317190 -0.156087 -3.649922
    4 -0.633172 1.164522 0.000000 0.006891 0.000000 0.443195
    5 -4.694041 4.765071 0.000002 0.000000 0.000000 1.961197
    6 0.471631 -4.176224 -0.013908 0.390400 -1.570796 0.000000
    7 0.798002 0.010359 -0.002600 0.000002 1.570796 0.000000
    8 1.257180 8.762585 -0.153713 -1.570562 0.002683 -1.566807
    9 -0.488518 -2.755602 -0.228260 -0.721249 -0.081949 -0.452612
    10 0.039887 -1.479790 0.029854 -1.744424 0.000000 0.000001
    11 0.028786 -1.075731 -0.023109 -1.070625 0.000000 0.000000
    12 0.125023 -3.051141 -0.574344 -0.799992 -0.047060 -0.393136
    13 -0.049759 -1.680544 0.100479 -1.558614 0.000000 -0.000002
    14 -0.034142 -1.148312 0.084782 -1.112872 0.000000 0.000000
    15 0.957766 -2.746780 -0.090302 0.324623 -0.158969 -0.144550
    16 -0.033420 -1.397129 -0.011257 -1.134774 0.000000 -0.000001
    17 -0.022360 -0.957436 0.018784 -1.151262 0.000000 0.000000
    18 -1.200213 -2.612689 -0.084481 -0.819559 0.107002 -0.434663
    19 -0.024967 -1.123934 0.017597 -1.746587 0.000000 0.000001
    20 -0.020057 -0.890968 0.010090 -0.424577 0.000000 0.000000
    21 0.583510 -1.197277 0.185379 0.041775 -0.932219 -0.526993
    22 1.535927 0.010246 0.005009 -0.115188 0.228157 -1.325298
    23 1.100771 0.004527 -0.010679 -0.031080 0.118321 -0.649585
    24 0.018587 -0.093240 -0.167774 3.423244 6.142883 -1.288278
    25 -6.817844 -3.649180 0.733114 -0.988728 -5.397259 -0.067634
    26 0.096944 -8.450418 -0.009365 -0.088840 -0.882257 0.488076
    27 0.447953 -2.798986 -0.200443 -0.805857 -0.098878 0.556583
    28 -0.032909 -1.480204 0.004940 -1.135932 0.000000 0.000002
    29 -0.027022 -1.076920 -0.020210 0.165353 0.000000 0.000000
    30 -0.249534 -2.846964 -0.174213 -0.518785 -0.091543 0.444345
    31 0.043235 -1.683941 0.096012 -1.409884 0.002823 -0.000167
    32 0.031729 -1.160830 0.058838 0.106677 0.000642 0.008372
    33 -0.963866 -2.785145 -0.085350 -0.084261 0.036917 0.292995
    34 0.028479 -1.403067 0.006271 -1.244457 0.000000 0.000000
    35 0.021413 -0.957781 0.020046 -0.446116 0.000000 0.000000
    36 1.164475 -2.543940 -0.170330 -0.843965 -0.017414 0.527819
    37 0.024032 -1.129042 0.017807 -1.014874 0.000000 0.000001
    38 0.014898 -0.883989 -0.019848 0.153136 0.000000 0.000000
    39 -0.500830 -1.428545 0.403292 -0.012660 0.012671 -2.752590
    40 1.522835 0.058681 0.016848 -0.198457 0.037706 0.371247
    41 1.117947 0.048424 -0.005766 0.002298 -0.025096 -0.035831
    42 -0.115961 -0.170294 -0.005135 0.563057 0.071837 1.280366
    43 -1.393470 8.839177 -0.239433 1.580804 -0.005023 -1.566847
  time 12
    0 4.945132 -7.628657 -10.293498 0.024089 -0.075198 -0.001829
    1 7.384263 3.561215 -0.030885 0.750898 -2.386457 -1.389558
    2 -0.071920 -8.498735 -0.104136 0.177218 0.500833 -0.475062
    3 1.301309 -2.858450 0.533806 -0.317190 -0.156087 -3.649922
    4 -0.633172 1.164522 0.000000 0.001846 0.000000 0.515864
    5 -4.694041 4.765071 0.000002 0.000000 0.000000 1.961197
    6 0.471631 -4.176224 -0.013908 0.390400 -1.570796 0.000000
    7 0.798002 0.010359 -0.002600 0.000002 1.570796 0.000000
    8 1.257180 8.762585 -0.153713 -1.570562 0.002683 -1.566807
    9 -0.488518 -2.755602 -0.228260 -0.721249 -0.081949 -0.452612
    10 0.039887 -1.479790 0.029854 -1.744424 0.000000 0.000001
    11 0.028786 -1.075731 -0.023109 -1.070625 0.000000 0.000000
    12 0.125023 -3.051141 -0.574344 -0.799992 -0.047048 -0.393136
    13 -0.049759 -1.680544 0.100479 -1.558614 0.000000 -0.000002
    14 -0.034142 -1.148312 0.084782 -1.112872 0.000000 0.000000
    15 0.957766 -2.746780 -0.090302 0.324432 -0.158969 -0.144550
    16 -0.033420 -1.397129 -0.011257 -0.990961 0.000000 -0.000001
    17 -0.022360 -0.957436 0.018784 -1.214762 0.000000 0.000000
    18 -1.200213 -2.612689 -0.084481 -0.819559 0.107002 -0.434663
    19 -0.024967 -1.123934 0.017597 -1.746587 0.000000 0.000001
    20 -0.020057 -0.890968 0.010090 -0.424577 0.000000 0.000000
    21 0.583510 -1.197277 0.185379 0.041775 -0.932219 -0.526993
    22 1.535927 0.010246 0.005009 -0.115188 0.228157 -1.325298
    23 1.100771 0.004527 -0.010679 -0.031080 0.118321 -0.649585
    24 0.018587 -0.093240 -0.167774 3.423244 6.142883 -1.288278
    25 -6.817844 -3.649180 0.733114 -0.988728 -5.397259 -0.067634
    26 0.096944 -8.450418 -0.009365 -0.088840 -0.882257 0.488076
    27 0.447953 -2.798986 -0.200443 -0.805857 -0.098878 0.556583
    28 -0.032909 -1.480204 0.004940 -1.135932 0.000000 0.000002
    29 -0.027022 -1.076920 -0.020210 0.165353 0.000000 0.000000
    30 -0.249534 -2.846964 -0.174213 -0.518785 -0.091543 0.444345
    31 0.043235 -1.683941 0.096012 -1.409884 0.002823 -0.000167
    32 0.031729 -1.160830 0.058838 0.106677 0.000642 0.008372
    33 -0.963866 -2.785145 -0.085350 -0.084261 0.036917 0.292995
    34 0.028479 -1.403067 0.006271 -1.244457 0.000000 0.000000
    35 0.021413 -0.957781 0.020046 -0.446116 0.000000 0.000000
    36 1.164475 -2.543940 -0.170330 -0.843965 -0.017414 0.527819
    37 0.024032 -1.129042 0.017807 -1.014874 0.000000 0.000001
    38 0.014898 -0.883989 -0.019848 0.153136 0.000000 0.000000
    39 -0.500830 -1.428545 0.403292 -0.012660 0.012671 -2.752590
    40 1.522835 0.058681 0.016848 -0.197810 0.040432 0.384972
    41 1.117947 0.048424 -0.005766 0.002789 -0.025096 -0.055428
    42 -0.115961 -0.170294 -0.005135 0.562040 0.057967 1.275476
    43 -1.393470 8.839177 -0.239433 1.580804 -0.005023 -1.566847
  time 13
    0 4.945132 -7.652095 -10.344281 0.025959 -0.075198 -0.001973
    1 7.384263 3.561215 -0.030885 0.750898 -2.386457 -1.389558
    2 -0.071920 -8.498735 -0.104136 0.177038 0.499095 -0.475425
    3 1.301309 -2.858450 0.533806 -0.317190 -0.156087 -3.649922
    4 -0.633172 1.164522 0.000000 0.000000 0.000000 0.542622
    5 -4.694041 4.765071 0.000002 0.000000 0.000000 1.961197
    6 0.471631 -4.176224 -0.013908 0.390400 -1.570796 0.000000
    7 0.798002 0.010359 -0.002600 0.000002 1.570796 0.000000
    8 1.257180 8.762585 -0.153713 -1.570562 0.002683 -1.566807
    9 -0.488518 -2.755602 -0.228260 -0.721249 -0.081949 -0.452612
    10 0.039887 -1.479790 0.029854 -1.744424 0.000000 0.000001
    11 0.028786 -1.075731 -0.023109 -1.070625 0.000000 0.000000
    12 0.125023 -3.051141 -0.574344 -0.799992 -0.047048 -0.393136
    13 -0.049759 -1.680544 0.100479 -1.558614 0.000000 -0.000002
    14 -0.034142 -1.148312 0.084782 -1.112872 0.000000 0.000000
    15 0.957766 -2.746780 -0.090302 0.324200 -0.158969 -0.144550
    16 -0.033420 -1.397129 -0.011257 -0.861918 0.000000 -0.000001
    17 -0.022360 -0.957436 0.018784 -1.266166 0.000000 0.000000
    18 -1.200213 -2.612689 -0.084481 -0.819559 0.107002 -0.434663
    19 -0.024967 -1.123934 0.017597 -1.746587 0.000000 0.000001
    20 -0.020057 -0.890968 0.010090 -0.424577 0.000000 0.000000
    21 0.583510 -1.197277 0.185379 0.041775 -0.932219 -0.526993
    22 1.535927 0.010246 0.005009 -0.115188 0.228157 -1.325298
    23 1.100771 0.004527 -0.010679 -0.031080 0.118321 -0.649585
    24 0.018587 -0.093240 -0.167774 3.423244 6.142883 -1.288278
    25 -6.817844 -3.649180 0.733114 -0.988728 -5.397259 -0.067634
    26 0.096944 -8.450418 -0.009365 -0.088840 -0.882257 0.488076
    27 0.447953 -2.798986 -0.200443 -0.805857 -0.098878 0.556583
    28 -0.032909 -1.480204 0.004940 -1.135932 0.000000 0.000002
    29 -0.027022 -1.076920 -0.020210 0.165353 0.000000 0.000000
    30 -0.249534 -2.846964 -0.174213 -0.518785 -0.091543 0.444345
    31 0.043235 -1.683941 0.096012 -1.409884 0.002823 -0.000167
    32 0.031729 -1.160830 0.058838 0.106677 0.000642 0.008372
    33 -0.963866 -2.785145 -0.085350 -0.084261 0.036917 0.292995
    34 0.028479 -1.403067 0.006271 -1.244457 0.000000 0.000000
    35 0.021413 -0.957781 0.020046 -0.446116 0.000000 0.000000
    36 1.164475 -2.543940 -0.170330 -0.843965 -0.017414 0.527819
    37 0.024032 -1.129042 0.017807 -1.014874 0.000000 0.000001
    38 0.014898 -0.883989 -0.019848 0.153136 0.000000 0.000000
    39 -0.500830 -1.428545 0.403292 -0.012660 0.012671 -2.752590
    40 1.522835 0.058681 0.016848 -0.196959 0.043820 0.402129
    41 1.117947 0.048424 -0.005766 0.003197 -0.025071 -0.071739
    42 -0.115961 -0.170294 -0.005135 0.561654 0.052853 1.273667
    43 -1.393470 8.839177 -0.239433 1.580804 -0.005023 -1.566847
  time 14
    0 4.945132 -7.624750 -10.375532 0.025443 -0.075198 -0.001925
    1 7.384263 3.561215 -0.030885 0.750898 -2.386457 -1.389558
    2 -0.071920 -8.498735 -0.104136 0.177350 0.502043 -0.474813
    3 1.301309 -2.858450 0.533806 -0.317190 -0.156087 -3.649922
    4 -0.633172 1.164522 0.000000 0.000000 0.000000 0.542622
    5 -4.694041 4.765071 0.000002 0.000000 0.000000 1.961197
    6 0.471631 -4.176224 -0.013908 0.390400 -1.570796 0.000000
    7 0.798002 0.010359 -0.002600 0.000002 1.570796 0.000000
    8 1.257180 8.762585 -0.153713 -1.570562 0.002683 -1.566807
    9 -0.488518 -2.755602 -0.228260 -0.721249 -0.081949 -0.452612
    10 0.039887 -1.479790 0.029854 -1.744424 0.000000 0.000001
    11 0.028786 -1.075731 -0.023109 -1.070625 0.000000 0.000000
    12 0.125023 -3.051141 -0.574344 -0.799992 -0.047048 -0.393136
    13 -0.049759 -1.680544 0.100479 -1.558614 0.000000 -0.000002
    14 -0.034142 -1.148312 0.084782 -1.112839 0.000000 0.000000
    15 0.957766 -2.746780 -0.090302 0.323928 -0.158969 -0.144550
    16 -0.033420 -1.397129 -0.011257 -0.755695 0.000000 -0.000001
    17 -0.022360 -0.957436 0.018784 -1.300528 0.000000 0.000000
    18 -1.200213 -2.612689 -0.084481 -0.819559 0.107002 -0.434663
    19 -0.024967 -1.123934 0.017597 -1.746587 0.000000 0.000001
    20 -0.020057 -0.890968 0.010090 -0.424577 0.000000 0.000000
    21 0.583510 -1.197277 0.185379 0.041775 -0.932219 -0.526993
    22 1.535927 0.010246 0.005009 -0.115188 0.228157 -1.325298
    23 1.100771 0.004527 -0.010679 -0.031080 0.118321 -0.649585
    24 0.018587 -0.093240 -0.167774 3.423244 6.142883 -1.288278
    25 -6.817844 -3.649180 0.733114 -0.988728 -5.397259 -0.067634
    26 0.096944 -8.450418 -0.009365 -0.088840 -0.882257 0.488076
    27 0.447953 -2.798986 -0.200443 -0.805857 -0.098878 0.556583
    28 -0.032909 -1.480204 0.004940 -1.135932 0.000000 0.000002
    29 -0.027022 -1.076920 -0.020210 0.165353 0.000000 0.000000
    30 -0.249534 -2.846964 -0.174213 -0.518785 -0.091543 0.444345
    31 0.043235 -1.683941 0.096012 -1.409884 0.002823 -0.000167
    32 0.031729 -1.160830 0.058838 0.106677 0.000642 0.008372
    33 -0.963866 -2.785145 -0.085350 -0.084261 0.036917 0.292995
    34 0.028479 -1.403067 0.006271 -1.244457 0.000000 0.000000
    35 0.021413 -0.957781 0.020046 -0.446116 0.000000 0.000000
    36 1.164475 -2.543940 -0.170330 -0.843965 -0.017414 0.527819
    37 0.024032 -1.129042 0.017807 -1.014874 0.000000 0.000001
    38 0.014898 -0.883989 -0.019848 0.153136 0.000000 0.000000
    39 -0.500830 -1.428545 0.403292 -0.012660 0.012671 -2.752590
    40 1.522835 0.058681 0.016848 -0.195988 0.047646 0.421431
    41 1.117947 0.048424 -0.005766 0.003532 -0.025032 -0.085016
    42 -0.115961 -0.170294 -0.005135 0.561731 0.054973 1.273978
    43 -1.393470 8.839177 -0.239433 1.580804 -0.005023 -1.566847
  time 15
    0 4.945132 -7.558342 -10.398970 0.024029 -0.075198 -0.001829
    1 7.384263 3.561215 -0.030885 0.750898 -2.386457 -1.389558
    2 -0.071920 -8.498735 -0.104136 0.178117 0.509450 -0.473264
    3 1.301309 -2.858450 0.533806 -0.317190 -0.156087 -3.649922
    4 -0.633172 1.164522 0.000000 0.000000 0.000000 0.542622
    5 -4.694041 4.765071 0.000002 0.000000 0.000000 1.961197
    6 0.471631 -4.176224 -0.013908 0.390400 -1.570796 0.000000
    7 0.798002 0.010359 -0.002600 0.000002 1.570796 0.000000
    8 1.257180 8.762585 -0.153713 -1.570562 0.002683 -1.566807
    9 -0.488518 -2.755602 -0.228260 -0.721249 -0.081949 -0.452612
    10 0.039887 -1.479790 0.029854 -1.744424 0.000000 0.000001
    11 0.028786 -1.075731 -0.023109 -1.070625 0.000000 0.000000
    12 0.125023 -3.051141 -0.574344 -0.799992 -0.047060 -0.393136
    13 -0.049759 -1.680544 0.100479 -1.558614 0.000000 -0.000002
    14 -0.034142 -1.148312 0.084782 -1.112872 0.000000 0.000000
    15 0.957766 -2.746780 -0.090302 0.323587 -0.158969 -0.144550
    16 -0.033420 -1.397129 -0.011257 -0.680342 0.000000 -0.000001
    17 -0.022360 -0.957436 0.018784 -1.313108 0.000000 0.000000
    18 -1.200213 -2.612689 -0.084481 -0.819559 0.107002 -0.434663
    19 -0.024967 -1.123934 0.017597 -1.746587 0.000000 0.000001
    20 -0.020057 -0.890968 0.010090 -0.424577 0.000000 0.000000
    21 0.583510 -1.197277 0.185379 0.041775 -0.932219 -0.526993
    22 1.535927 0.010246 0.005009 -0.115188 0.228157 -1.325298
    23 1.100771 0.004527 -0.010679 -0.031080 0.118321 -0.649585
    24 0.018587 -0.093240 -0.167774 3.423244 6.142883 -1.288278
    25 -6.817844 -3.649180 0.733114 -0.988728 -5.397259 -0.067634
    26 0.096944 -8.450418 -0.009365 -0.088840 -0.882257 0.488076
    27 0.447953 -2.798986 -0.200443 -0.805857 -0.098878 0.556583
    28 -0.032909 -1.480204 0.004940 -1.135932 0.000000 0.000002
    29 -0.027022 -1.076920 -0.020210 0.165353 0.000000 0.000000
    30 -0.249534 -2.846964 -0.174213 -0.518785 -0.091543 0.444345
    31 0.043235 -1.683941 0.096012 -1.409884 0.002823 -0.000167
    32 0.031729 -1.160830 0.058838 0.106677 0.000642 0.008372
    33 -0.963866 -2.785145 -0.085350 -0.084261 0.036917 0.292995
    34 0.028479 -1.403067 0.006271 -1.244457 0.000000 0.000000
    35 0.021413 -0.957781 0.020046 -0.446116 0.000000 0.000000
    36 1.164475 -2.543940 -0.170330 -0.843965 -0.017414 0.527819
    37 0.024032 -1.129042 0.017807 -1.014874 0.000000 0.000001
    38 0.014898 -0.883989 -0.019848 0.153136 0.000000 0.000000
    39 -0.500830 -1.428545 0.403292 -0.012660 0.012671 -2.752590
    40 1.522835 0.058681 0.016848 -0.194958 0.051607 0.441474
    41 1.117947 0.048424 -0.005766 0.003796 -0.024994 -0.095548
    42 -0.115961 -0.170294 -0.005135 0.561950 0.060842 1.274817
    43 -1.393470 8.839177 -0.239433 1.580804 -0.005023 -1.566847
  time 16
    0 4.945132 -7.464589 -10.418502 0.021896 -0.075198 -0.001684
    1 7.384263 3.561215 -0.030885 0.750898 -2.386457 -1.389558
    2 -0.071920 -8.498735 -0.104136 0.179123 0.519061 -0.471237
    3 1.301309 -2.858450 0.533806 -0.317190 -0.156087 -3.649938
    4 -0.633172 1.164522 0.000000 0.000000 0.000000 0.542622
    5 -4.694041 4.765071 0.000002 0.000000 0.000000 1.961197
    6 0.471631 -4.176224 -0.013908 0.390400 -1.570796 0.000000
    7 0.798002 0.010359 -0.002600 0.000002 1.570796 0.000000
    8 1.257180 8.762585 -0.153713 -1.570562 0.002683 -1.566807
    9 -0.488518 -2.755602 -0.228260 -0.721249 -0.081949 -0.452612
    10 0.039887 -1.479790 0.029854 -1.744424 0.000000 0.000001
    11 0.028786 -1.075731 -0.023109 -1.070625 0.000000 0.000000
    12 0.125023 -3.051141 -0.574344 -0.799992 -0.047048 -0.393136
    13 -0.049759 -1.680544 0.100479 -1.558614 0.000000 -0.000002
    14 -0.034142 -1.148312 0.084782 -1.112872 0.000000 0.000000
    15 0.957766 -2.746780 -0.090302 0.321896 -0.158969 -0.144550
    16 -0.033420 -1.397129 -0.011257 -0.628621 0.000000 -0.000001
    17 -0.022360 -0.957436 0.018784 -1.295022 0.000000 0.000000
    18 -1.200213 -2.612689 -0.084481 -0.819559 0.107002 -0.434663
    19 -0.024967 -1.123934 0.017597 -1.746587 0.000000 0.000001
    20 -0.020057 -0.890968 0.010090 -0.424577 0.000000 0.000000
    21 0.583510 -1.197277 0.185379 0.041775 -0.932219 -0.526993
    22 1.535927 0.010246 0.005009 -0.115188 0.228157 -1.325298
    23 1.100771 0.004527 -0.010679 -0.031080 0.118321 -0.649585
    24 0.018587 -0.093240 -0.167774 3.423244 6.142883 -1.288278
    25 -6.817844 -3.649180 0.733114 -0.988728 -5.397259 -0.067634
    26 0.096944 -8.450418 -0.009365 -0.088840 -0.882257 0.488076
    27 0.447953 -2.798986 -0.200443 -0.805857 -0.098878 0.556583
    28 -0.032909 -1.480204 0.004940 -1.135932 0.000000 0.000002
    29 -0.027022 -1.076920 -0.020210 0.165353 0.000000 0.000000
    30 -0.249534 -2.846964 -0.174213 -0.518785 -0.091543 0.444345
    31 0.043235 -1.683941 0.096012 -1.409884 0.002823 -0.000167
    32 0.031729 -1.160830 0.058838 0.106677 0.000642 0.008372
    33 -0.963866 -2.785145 -0.085350 -0.084261 0.036917 0.292995
    34 0.028479 -1.403067 0.006271 -1.244457 0.000000 0.000000
    35 0.021413 -0.957781 0.020046 -0.446116 0.000000 0.000000
    36 1.164475 -2.543940 -0.170330 -0.843965 -0.017414 0.527819
    37 0.024032 -1.129042 0.017807 -1.014874 0.000000 0.000001
    38 0.014898 -0.883989 -0.019848 0.153136 0.000000 0.000000
    39 -0.500830 -1.428545 0.403292 -0.012660 0.012671 -2.752590
    40 1.522835 0.058681 0.016848 -0.193939 0.055447 0.460932
    41 1.117947 0.048424 -0.005766 0.003988 -0.024943 -0.103552
    42 -0.115961 -0.170294 -0.005135 0.562259 0.069691 1.276099
    43 -1.393470 8.839177 -0.239433 1.580804 -0.005023 -1.566847
  time 17
    0 4.945132 -7.355211 -10.434127 0.019223 -0.075217 -0.001492
    1 7.384263 3.561215 -0.030885 0.750898 -2.386457 -1.389558
    2 -0.071920 -8.498735 -0.104136 0.180118 0.528673 -0.469229
    3 1.301309 -2.858450 0.533806 -0.317190 -0.156087 -3.649922
    4 -0.633172 1.164522 0.000000 0.000000 0.000000 0.542622
    5 -4.694041 4.765071 0.000002 0.000000 0.000000 1.961197
    6 0.471631 -4.176224 -0.013908 0.390400 -1.570796 0.000000
    7 0.798002 0.010359 -0.002600 0.000002 1.570796 0.000000
    8 1.257180 8.762585 -0.153713 -1.570562 0.002683 -1.566807
    9 -0.488518 -2.755602 -0.228260 -0.721249 -0.081949 -0.452612
    10 0.039887 -1.479790 0.029854 -1.744424 0.000000 0.000001
    11 0.028786 -1.075731 -0.023109 -1.070625 0.000000 0.000000
    12 0.125023 -3.051141 -0.574344 -0.799992 -0.047048 -0.393136
    13 -0.049759 -1.680544 0.100479 -1.558614 0.000000 -0.000002
    14 -0.034142 -1.148312 0.084782 -1.112872 0.000000 0.000000
    15 0.957766 -2.746780 -0.090302 0.317902 -0.158969 -0.144550
    16 -0.033420 -1.397129 -0.011257 -0.587093 0.000000 -0.000001
    17 -0.022360 -0.957436 0.018784 -1.245990 0.000000 0.000000
    18 -1.200213 -2.612689 -0.084481 -0.819559 0.107002 -0.434663
    19 -0.024967 -1.123934 0.017597 -1.746587 0.000000 0.000001
    20 -0.020057 -0.890968 0.010090 -0.424577 0.000000 0.000000
    21 0.583510 -1.197277 0.185379 0.041775 -0.932219 -0.526993
    22 1.535927 0.010246 0.005009 -0.115188 0.228157 -1.325298
    23 1.100771 0.004527 -0.010679 -0.031080 0.118321 -0.649585
    24 0.018587 -0.093240 -0.167774 3.423244 6.142883 -1.288278
    25 -6.817844 -3.649180 0.733114 -0.988728 -5.397259 -0.067634
    26 0.096944 -8.450418 -0.009365 -0.088840 -0.882257 0.488076
    27 0.447953 -2.798986 -0.200443 -0.805857 -0.098878 0.556583
    28 -0.032909 -1.480204 0.004940 -1.135932 0.000000 0.000002
    29 -0.027022 -1.076920 -0.020210 0.165353 0.000000 0.000000
    30 -0.249534 -2.846964 -0.174213 -0.518785 -0.091543 0.444345
    31 0.043235 -1.683941 0.096012 -1.409884 0.002823 -0.000167
    32 0.031729 -1.160830 0.058838 0.106677 0.000642 0.008372
    33 -0.963866 -2.785145 -0.085350 -0.084261 0.036917 0.292995
    34 0.028479 -1.403067 0.006271 -1.244457 0.000000 0.000000
    35 0.021413 -0.957781 0.020046 -0.446116 0.000000 0.000000
    36 1.164475 -2.543940 -0.170330 -0.843965 -0.017414 0.527819
    37 0.024032 -1.129042 0.017807 -1.014874 0.000000 0.000001
    38 0.014898 -0.883989 -0.019848 0.153136 0.000000 0.000000
    39 -0.500830 -1.428545 0.403292 -0.012660 0.012671 -2.752590
    40 1.522835 0.058681 0.016848 -0.193028 0.058896 0.478440
    41 1.117947 0.048424 -0.005766 0.004131 -0.024905 -0.109331
    42 -0.115961 -0.170294 -0.005135 0.562658 0.080793 1.277705
    43 -1.393470 8.839177 -0.239433 1.580804 -0.005023 -1.566847
  time 18
    0 4.945132 -7.249739 -10.441940 0.016191 -0.075217 -0.001252
    1 7.384263 3.561215 -0.030885 0.750898 -2.386457 -1.389558
    2 -0.071920 -8.498735 -0.104136 0.180897 0.536068 -0.467680
    3 1.301309 -2.858450 0.533806 -0.317190 -0.156087 -3.649922
    4 -0.633172 1.164522 0.000000 0.000000 0.000000 0.542622
    5 -4.694041 4.765071 0.000002 0.000000 0.000000 1.961197
    6 0.471631 -4.176224 -0.013908 0.390400 -1.570796 0.000000
    7 0.798002 0.010359 -0.002600 0.000002 1.570796 0.000000
    8 1.257180 8.762585 -0.153713 -1.570562 0.002683 -1.566807
    9 -0.488518 -2.755602 -0.228260 -0.721249 -0.081949 -0.452612
    10 0.039887 -1.479790 0.029854 -1.744424 0.000000 0.000001
    11 0.028786 -1.075731 -0.023109 -1.070625 0.000000 0.000000
    12 0.125023 -3.051141 -0.574344 -0.799992 -0.047048 -0.393136
    13 -0.049759 -1.680544 0.100479 -1.558614 0.000000 -0.000002
    14 -0.034142 -1.148312 0.084782 -1.112839 0.000000 0.000000
    15 0.957766 -2.746780 -0.090302 0.312191 -0.158969 -0.144550
    16 -0.033420 -1.397129 -0.011257 -0.554658 0.000000 -0.000001
    17 -0.022360 -0.957436 0.018784 -1.173728 0.000000 0.000000
    18 -1.200213 -2.612689 -0.084481 -0.819559 0.107002 -0.434663
    19 -0.024967 -1.123934 0.017597 -1.746587 0.000000 0.000001
    20 -0.020057 -0.890968 0.010090 -0.424577 0.000000 0.000000
    21 0.583510 -1.197277 0.185379 0.041775 -0.932219 -0.526993
    22 1.535927 0.010246 0.005009 -0.115188 0.228157 -1.325298
    23 1.100771 0.004527 -0.010679 -0.031080 0.118321 -0.649585
    24 0.018587 -0.093240 -0.167774 3.423244 6.142883 -1.288278
    25 -6.817844 -3.649180 0.733114 -0.988728 -5.397259 -0.067634
    26 0.096944 -8.450418 -0.009365 -0.088840 -0.882257 0.488076
    27 0.447953 -2.798986 -0.200443 -0.805857 -0.098878 0.556583
    28 -0.032909 -1.480204 0.004940 -1.135932 0.000000 0.000002
    29 -0.027022 -1.076920 -0.020210 0.165353 0.000000 0.000000
    30 -0.249534 -2.846964 -0.174213 -0.518785 -0.091543 0.444345
    31 0.043235 -1.683941 0.096012 -1.409884 0.002823 -0.000167
    32 0.031729 -1.160830 0.058838 0.106677 0.000642 0.008372
    33 -0.963866 -2.785145 -0.085350 -0.084261 0.036917 0.292995
    34 0.028479 -1.403067 0.006271 -1.244457 0.000000 0.000000
    35 0.021413 -0.957781 0.020046 -0.446116 0.000000 0.000000
    36 1.164475 -2.543940 -0.170330 -0.843965 -0.017414 0.527819
    37 0.024032 -1.129042 0.017807 -1.014874 0.000000 0.000001
    38 0.014898 -0.883989 -0.019848 0.153136 0.000000 0.000000
    39 -0.500830 -1.428545 0.403292 -0.012660 0.012671 -2.752590
    40 1.522835 0.058681 0.016848 -0.192285 0.061682 0.492594
    41 1.117947 0.048424 -0.005766 0.004227 -0.024867 -0.113123
    42 -0.115961 -0.170294 -0.005135 0.563122 0.093391 1.279527
    43 -1.393470 8.839177 -0.239433 1.580804 -0.005023 -1.566847
  time 19
    0 4.945132 -7.155986 -10.441940 0.012979 -0.075217 -0.001012
    1 7.384263 3.561215 -0.030885 0.750898 -2.386457 -1.389558
    2 -0.071920 -8.498735 -0.104136 0.181209 0.539028 -0.467068
    3 1.301309 -2.858450 0.533806 -0.317190 -0.156087 -3.649922
    4 -0.633172 1.164522 0.000000 0.000000 0.000000 0.542622
    5 -4.694041 4.765071 0.000002 0.000000 0.000000 1.961197
    6 0.471631 -4.176224 -0.013908 0.390400 -1.570796 0.000000
    7 0.798002 0.010359 -0.002600 0.000002 1.570796 0.000000
    8 1.257180 8.762585 -0.153713 -1.570562 0.002683 -1.566807
    9 -0.488518 -2.755602 -0.228260 -0.721249 -0.081949 -0.452612
    10 0.039887 -1.479790 0.029854 -1.744424 0.000000 0.000001
    11 0.028786 -1.075731 -0.023109 -1.070625 0.000000 0.000000
    12 0.125023 -3.051141 -0.574344 -0.799992 -0.047048 -0.393136
    13 -0.049759 -1.680544 0.100479 -1.558614 0.000000 -0.000002
    14 -0.034142 -1.148312 0.084782 -1.112872 0.000000 0.000000
    15 0.957766 -2.746780 -0.090302 0.305347 -0.158969 -0.144550
    16 -0.033420 -1.397129 -0.011257 -0.530217 0.000000 -0.000001
    17 -0.022360 -0.957436 0.018784 -1.085953 0.000000 0.000000
    18 -1.200213 -2.612689 -0.084481 -0.819559 0.107002 -0.434663
    19 -0.024967 -1.123934 0.017597 -1.746587 0.000000 0.000001
    20 -0.020057 -0.890968 0.010090 -0.424577 0.000000 0.000000
    21 0.583510 -1.197277 0.185379 0.041775 -0.932219 -0.526993
    22 1.535927 0.010246 0.005009 -0.115188 0.228157 -1.325298
    23 1.100771 0.004527 -0.010679 -0.031080 0.118321 -0.649585
    24 0.018587 -0.093240 -0.167774 3.423244 6.142883 -1.288278
    25 -6.817844 -3.649180 0.733114 -0.988728 -5.397259 -0.067634
    26 0.096944 -8.450418 -0.009365 -0.088840 -0.882257 0.488076
    27 0.447953 -2.798986 -0.200443 -0.805857 -0.098878 0.556583
    28 -0.032909 -1.480204 0.004940 -1.135932 0.000000 0.000002
    29 -0.027022 -1.076920 -0.020210 0.165353 0.000000 0.000000
    30 -0.249534 -2.846964 -0.174213 -0.518785 -0.091543 0.444345
    31 0.043235 -1.683941 0.096012 -1.409884 0.002823 -0.000167
    32 0.031729 -1.160830 0.058838 0.106677 0.000642 0.008372
    33 -0.963866 -2.785145 -0.085350 -0.084261 0.036917 0.292995
    34 0.028479 -1.403067 0.006271 -1.244457 0.000000 0.000000
    35 0.021413 -0.957781 0.020046 -0.446116 0.000000 0.000000
    36 1.164475 -2.543940 -0.170330 -0.843965 -0.017414 0.527819
    37 0.024032 -1.129042 0.017807 -1.014874 0.000000 0.000001
    38 0.014898 -0.883989 -0.019848 0.153136 0.000000 0.000000
    39 -0.500830 -1.428545 0.403292 -0.012660 0.012671 -2.752590
    40 1.522835 0.058681 0.016848 -0.191782 0.063565 0.502109
    41 1.117947 0.048424 -0.005766 0.004287 -0.024841 -0.115212
    42 -0.115961 -0.170294 -0.005135 0.563598 0.106732 1.281456
    43 -1.393470 8.839177 -0.239433 1.580804 -0.005023 -1.566847
  time 20
    0 4.945132 -7.062233 -10.430221 0.009755 -0.075217 -0.000772
    1 7.384263 3.561215 -0.030885 0.750898 -2.386457 -1.389558
    2 -0.071920 -8.498735 -0.104136 0.181017 0.537314 -0.467431
    3 1.301309 -2.858450 0.533806 -0.317190 -0.156087 -3.649922
    4 -0.633172 1.164522 0.000000 0.000000 0.000000 0.542622
    5 -4.694041 4.765071 0.000002 0.000000 0.000000 1.961197
    6 0.471631 -4.176224 -0.013908 0.390400 -1.570796 0.000000
    7 0.798002 0.010359 -0.002600 0.000002 1.570796 0.000000
    8 1.257180 8.762585 -0.153713 -1.570562 0.002683 -1.566807
    9 -0.488518 -2.755602 -0.228260 -0.721249 -0.081949 -0.452612
    10 0.039887 -1.479790 0.029854 -1.744424 0.000000 0.000001
    11 0.028786 -1.075731 -0.023109 -1.070625 0.000000 0.000000
    12 0.125023 -3.051141 -0.574344 -0.799992 -0.047048 -0.393136
    13 -0.049759 -1.680544 0.100479 -1.558614 0.000000 -0.000002
    14 -0.034142 -1.148312 0.084782 -1.112872 0.000000 0.000000
    15 0.957766 -2.746780 -0.090302 0.297959 -0.158969 -0.144550
    16 -0.033420 -1.397129 -0.011257 -0.512667 0.000000 -0.000001
    17 -0.022360 -0.957436 0.018784 -0.990461 0.000000 0.000000
    18 -1.200213 -2.612689 -0.084481 -0.819559 0.107002 -0.434663
    19 -0.024967 -1.123934 0.017597 -1.746587 0.000000 0.000001
    20 -0.020057 -0.890968 0.010090 -0.424577 0.000000 0.000000
    21 0.583510 -1.197277 0.185379 0.041775 -0.932219 -0.526993
    22 1.535927 0.010246 0.005009 -0.115188 0.228157 -1.325298
    23 1.100771 0.004527 -0.010679 -0.031080 0.118321 -0.649585
    24 0.018587 -0.093240 -0.167774 3.423244 6.142883 -1.288278
    25 -6.817844 -3.649180 0.733114 -0.988728 -5.397259 -0.067634
    26 0.096944 -8.450418 -0.009365 -0.088840 -0.882257 0.488076
    27 0.447953 -2.798986 -0.200443 -0.805857 -0.098878 0.556583
    28 -0.032909 -1.480204 0.004940 -1.135932 0.000000 0.000002
    29 -0.027022 -1.076920 -0.020210 0.165353 0.000000 0.000000
    30 -0.249534 -2.846964 -0.174213 -0.518785 -0.091543 0.444345
    31 0.043235 -1.683941 0.096012 -1.409884 0.002823 -0.000167
    32 0.031729 -1.160830 0.058838 0.106677 0.000642 0.008372
    33 -0.963866 -2.785145 -0.085350 -0.084261 0.036917 0.292995
    34 0.028479 -1.403067 0.006271 -1.244457 0.000000 0.000000
    35 0.021413 -0.957781 0.020046 -0.446116 0.000000 0.000000
    36 1.164475 -2.543940 -0.170330 -0.843965 -0.017414 0.527819
    37 0.024032 -1.129042 0.017807 -1.014874 0.000000 0.000001
    38 0.014898 -0.883989 -0.019848 0.153136 0.000000 0.000000
    39 -0.500830 -1.428545 0.403292 -0.012660 0.012671 -2.752590
    40 1.522835 0.058681 0.016848 -0.191602 0.064242 0.505579
    41 1.117947 0.048424 -0.005766 0.004299 -0.024829 -0.115852
    42 -0.115961 -0.170294 -0.005135 0.564075 0.120086 1.283386
    43 -1.393470 8.839177 -0.239433 1.580804 -0.005023 -1.566847
  time 21
    0 4.945132 -6.952855 -10.398970 0.006723 -0.075235 -0.000531
    1 7.384263 3.561215 -0.030885 0.750898 -2.386457 -1.389558
    2 -0.071920 -8.498735 -0.104136 0.180562 0.533035 -0.468330
    3 1.301309 -2.858450 0.533806 -0.317190 -0.156087 -3.649922
    4 -0.633172 1.164522 0.000000 0.000000 0.000000 0.542622
    5 -4.694041 4.765071 0.000002 0.000000 0.000000 1.961197
    6 0.471631 -4.176224 -0.013908 0.390400 -1.570796 0.000000
    7 0.798002 0.010359 -0.002600 0.000002 1.570796 0.000000
    8 1.257180 8.762585 -0.153713 -1.570562 0.002683 -1.566807
    9 -0.488518 -2.755602 -0.228260 -0.721249 -0.081949 -0.452612
    10 0.039887 -1.479790 0.029854 -1.744424 0.000000 0.000001
    11 0.028786 -1.075731 -0.023109 -1.070625 0.000000 0.000000
    12 0.125023 -3.051141 -0.574344 -0.799992 -0.047048 -0.393136
    13 -0.049759 -1.680544 0.100479 -1.558614 0.000000 -0.000002
    14 -0.034142 -1.148312 0.084782 -1.112872 0.000000 0.000000
    15 0.957766 -2.746780 -0.090302 0.290598 -0.158969 -0.144550
    16 -0.033420 -1.397129 -0.011257 -0.500794 0.000000 -0.000001
    17 -0.022360 -0.957436 0.018784 -0.894969 0.000000 0.000000
    18 -1.200213 -2.612689 -0.084481 -0.819559 0.107002 -0.434663
    19 -0.024967 -1.123934 0.017597 -1.746587 0.000000 0.000001
    20 -0.020057 -0.890968 0.010090 -0.424577 0.000000 0.000000
    21 0.583510 -1.197277 0.185379 0.041775 -0.932219 -0.526993
    22 1.535927 0.010246 0.005009 -0.115188 0.228157 -1.325298
    23 1.100771 0.004527 -0.010679 -0.031080 0.118321 -0.649585
    24 0.018587 -0.093240 -0.167774 3.423244 6.142883 -1.288278
    25 -6.817844 -3.649180 0.733114 -0.988728 -5.397259 -0.067634
    26 0.096944 -8.450418 -0.009365 -0.088840 -0.882257 0.488076
    27 0.447953 -2.798986 -0.200443 -0.805857 -0.098878 0.556583
    28 -0.032909 -1.480204 0.004940 -1.135932 0.000000 0.000002
    29 -0.027022 -1.076920 -0.020210 0.165353 0.000000 0.000000
    30 -0.249534 -2.846964 -0.174213 -0.518785 -0.091543 0.444345
    31 0.043235 -1.683941 0.096012 -1.409884 0.002823 -0.000167
    32 0.031729 -1.160830 0.058838 0.106677 0.000642 0.008372
    33 -0.963866 -2.785145 -0.085350 -0.084261 0.036917 0.292995
    34 0.028479 -1.403067 0.006271 -1.244457 0.000000 0.000000
    35 0.021413 -0.957781 0.020046 -0.446116 0.000000 0.000000
    36 1.164475 -2.543940 -0.170330 -0.843965 -0.017414 0.527819
    37 0.024032 -1.129042 0.017807 -1.014874 0.000000 0.000001
    38 0.014898 -0.883989 -0.019848 0.153136 0.000000 0.000000
    39 -0.500830 -1.428545 0.403292 -0.012660 0.012671 -2.752590
    40 1.522835 0.058681 0.016848 -0.191602 0.064242 0.505579
    41 1.117947 0.048424 -0.005766 0.004299 -0.024829 -0.115852
    42 -0.115961 -0.170294 -0.005135 0.564525 0.132671 1.285208
    43 -1.393470 8.839177 -0.239433 1.580804 -0.005023 -1.566847
  time 22
    0 4.945132 -6.843476 -10.356000 0.004051 -0.075235 -0.000339
    1 7.384263 3.561215 -0.030885 0.750898 -2.386457 -1.389558
    2 -0.071920 -8.498735 -0.104136 0.179962 0.527463 -0.469516
    3 1.301309 -2.858450 0.533806 -0.317190 -0.156087 -3.649922
    4 -0.633172 1.164522 0.000000 0.000000 0.000000 0.542622
    5 -4.694041 4.765071 0.000002 0.000000 0.000000 1.961197
    6 0.471631 -4.176224 -0.013908 0.390400 -1.570796 0.000000
    7 0.798002 0.010359 -0.002600 0.000002 1.570796 0.000000
    8 1.257180 8.762585 -0.153713 -1.570562 0.002683 -1.566807
    9 -0.488518 -2.755602 -0.228260 -0.721249 -0.081949 -0.452612
    10 0.039887 -1.479790 0.029854 -1.744424 0.000000 0.000001
    11 0.028786 -1.075731 -0.023109 -1.070625 0.000000 0.000000
    12 0.125023 -3.051141 -0.574344 -0.799992 -0.047060 -0.393136
    13 -0.049759 -1.680544 0.100479 -1.558614 0.000000 -0.000002
    14 -0.034142 -1.148312 0.084782 -1.112872 0.000000 0.000000
    15 0.957766 -2.746780 -0.090302 0.283864 -0.158969 -0.144550
    16 -0.033420 -1.397129 -0.011257 -0.493554 0.000000 -0.000001
    17 -0.022360 -0.957436 0.018784 -0.807234 0.000000 0.000000
    18 -1.200213 -2.612689 -0.084481 -0.819559 0.107002 -0.434663
    19 -0.024967 -1.123934 0.017597 -1.746587 0.000000 0.000001
    20 -0.020057 -0.890968 0.010090 -0.424577 0.000000 0.000000
    21 0.583510 -1.197277 0.185379 0.041775 -0.932219 -0.526993
    22 1.535927 0.010246 0.005009 -0.115188 0.228157 -1.325298
    23 1.100771 0.004527 -0.010679 -0.031080 0.118321 -0.649585
    24 0.018587 -0.093240 -0.167774 3.423244 6.142883 -1.288278
    25 -6.817844 -3.649180 0.733114 -0.988728 -5.397259 -0.067634
    26 0.096944 -8.450418 -0.009365 -0.088840 -0.882257 0.488076
    27 0.447953 -2.798986 -0.200443 -0.805857 -0.098878 0.556583
    28 -0.032909 -1.480204 0.004940 -1.135932 0.000000 0.000002
    29 -0.027022 -1.076920 -0.020210 0.165353 0.000000 0.000000
    30 -0.249534 -2.846964 -0.174213 -0.518785 -0.091543 0.444345
    31 0.043235 -1.683941 0.096012 -1.409884 0.002823 -0.000167
    32 0.031729 -1.160830 0.058838 0.106677 0.000642 0.008372
    33 -0.963866 -2.785145 -0.085350 -0.084261 0.036917 0.292995
    34 0.028479 -1.403067 0.006271 -1.244457 0.000000 0.000000
    35 0.021413 -0.957781 0.020046 -0.446116 0.000000 0.000000
    36 1.164475 -2.543940 -0.170330 -0.843965 -0.017414 0.527819
    37 0.024032 -1.129042 0.017807 -1.014874 0.000000 0.000001
    38 0.014898 -0.883989 -0.019848 0.153136 0.000000 0.000000
    39 -0.500830 -1.428545 0.403292 -0.012660 0.012671 -2.752590
    40 1.522835 0.058681 0.016848 -0.191602 0.064242 0.505579
    41 1.117947 0.048424 -0.005766 0.004299 -0.024829 -0.115852
    42 -0.115961 -0.170294 -0.005135 0.564924 0.143773 1.286814
    43 -1.393470 8.839177 -0.239433 1.580804 -0.005023 -1.566847
  time 23
    0 4.945132 -6.749724 -10.309123 0.001918 -0.075235 -0.000147
    1 7.384263 3.561215 -0.030885 0.750898 -2.386457 -1.389558
    2 -0.071920 -8.498735 -0.104136 0.179363 0.521878 -0.470702
    3 1.301309 -2.858450 0.533806 -0.317190 -0.156087 -3.649922
    4 -0.633172 1.164522 0.000000 0.000000 0.000000 0.542622
    5 -4.694041 4.765071 0.000002 0.000000 0.000000 1.961197
    6 0.471631 -4.176224 -0.013908 0.390400 -1.570796 0.000000
    7 0.798002 0.010359 -0.002600 0.000002 1.570796 0.000000
    8 1.257180 8.762585 -0.153713 -1.570562 0.002683 -1.566807
    9 -0.488518 -2.755602 -0.228260 -0.721249 -0.081949 -0.452612
    10 0.039887 -1.479790 0.029854 -1.744424 0.000000 0.000001
    11 0.028786 -1.075731 -0.023109 -1.070625 0.000000 0.000000
    12 0.125023 -3.051141 -0.574344 -0.799992 -0.047048 -0.393136
    13 -0.049759 -1.680544 0.100479 -1.558614 0.000000 -0.000002
    14 -0.034142 -1.148312 0.084782 -1.112872 0.000000 0.000000
    15 0.957766 -2.746780 -0.090302 0.278329 -0.158969 -0.144550
    16 -0.033420 -1.397129 -0.011257 -0.489789 0.000000 -0.000001
    17 -0.022360 -0.957436 0.018784 -0.734972 0.000000 0.000000
    18 -1.200213 -2.612689 -0.084481 -0.819559 0.107002 -0.434663
    19 -0.024967 -1.123934 0.017597 -1.746587 0.000000 0.000001
    20 -0.020057 -0.890968 0.010090 -0.424577 0.000000 0.000000
    21 0.583510 -1.197277 0.185379 0.041775 -0.932219 -0.526993
    22 1.535927 0.010246 0.005009 -0.115188 0.228157 -1.325298
    23 1.100771 0.004527 -0.010679 -0.031080 0.118321 -0.649585
    24 0.018587 -0.093240 -0.167774 3.423244 6.142883 -1.288278
    25 -6.817844 -3.649180 0.733114 -0.988728 -5.397259 -0.067634
    26 0.096944 -8.450418 -0.009365 -0.088840 -0.882257 0.488076
    27 0.447953 -2.798986 -0.200443 -0.805857 -0.098878 0.556583
    28 -0.032909 -1.480204 0.004940 -1.135932 0.000000 0.000002
    29 -0.027022 -1.076920 -0.020210 0.165353 0.000000 0.000000
    30 -0.249534 -2.846964 -0.174213 -0.518785 -0.091543 0.444345
    31 0.043235 -1.683941 0.096012 -1.409884 0.002823 -0.000167
    32 0.031729 -1.160830 0.058838 0.106677 0.000642 0.008372
    33 -0.963866 -2.785145 -0.085350 -0.084261 0.036917 0.292995
    34 0.028479 -1.403067 0.006271 -1.244457 0.000000 0.000000
    35 0.021413 -0.957781 0.020046 -0.446116 0.000000 0.000000
    36 1.164475 -2.543940 -0.170330 -0.843965 -0.017414 0.527819
    37 0.024032 -1.129042 0.017807 -1.014874 0.000000 0.000001
    38 0.014898 -0.883989 -0.019848 0.153136 0.000000 0.000000
    39 -0.500830 -1.428545 0.403292 -0.012660 0.012671 -2.752590
    40 1.522835 0.058681 0.016848 -0.191602 0.064242 0.505579
    41 1.117947 0.048424 -0.005766 0.004299 -0.024829 -0.115852
    42 -0.115961 -0.170294 -0.005135 0.565246 0.152635 1.288096
    43 -1.393470 8.839177 -0.239433 1.580804 -0.005023 -1.566847
  time 24
    0 4.945132 -6.683315 -10.266153 0.000503 -0.075235 -0.000051
    1 7.384263 3.561215 -0.030885 0.750898 -2.386457 -1.389558
    2 -0.071920 -8.498735 -0.104136 0.178908 0.517599 -0.471600
    3 1.301309 -2.858450 0.533806 -0.317190 -0.156087 -3.649922
    4 -0.633172 1.164522 0.000000 0.000000 0.000000 0.542622
    5 -4.694041 4.765071 0.000002 0.000000 0.000000 1.961197
    6 0.471631 -4.176224 -0.013908 0.390400 -1.570796 0.000000
    7 0.798002 0.010359 -0.002600 0.000002 1.570796 0.000000
    8 1.257180 8.762585 -0.153713 -1.570562 0.002683 -1.566807
    9 -0.488518 -2.755602 -0.228260 -0.721249 -0.081949 -0.452612
    10 0.039887 -1.479790 0.029854 -1.744424 0.000000 0.000001
    11 0.028786 -1.075731 -0.023109 -1.070625 0.000000 0.000000
    12 0.125023 -3.051141 -0.574344 -0.799992 -0.047048 -0.393136
    13 -0.049759 -1.680544 0.100479 -1.558614 0.000000 -0.000002
    14 -0.034142 -1.148312 0.084782 -1.112872 0.000000 0.000000
    15 0.957766 -2.746780 -0.090302 0.274581 -0.158969 -0.144550
    16 -0.033420 -1.397129 -0.011257 -0.488341 0.000000 -0.000001
    17 -0.022360 -0.957436 0.018784 -0.685899 0.000000 0.000000
    18 -1.200213 -2.612689 -0.084481 -0.819559 0.107002 -0.434663
    19 -0.024967 -1.123934 0.017597 -1.746587 0.000000 0.000001
    20 -0.020057 -0.890968 0.010090 -0.424577 0.000000 0.000000
    21 0.583510 -1.197277 0.185379 0.041775 -0.932219 -0.526993
    22 1.535927 0.010246 0.005009 -0.115188 0.228157 -1.325298
    23 1.100771 0.004527 -0.010679 -0.031080 0.118321 -0.649585
    24 0.018587 -0.093240 -0.167774 3.423244 6.142883 -1.288278
    25 -6.817844 -3.649180 0.733114 -0.988728 -5.397259 -0.067634
    26 0.096944 -8.450418 -0.009365 -0.088840 -0.882257 0.488076
    27 0.447953 -2.798986 -0.200443 -0.805857 -0.098878 0.556583
    28 -0.032909 -1.480204 0.004940 -1.135932 0.000000 0.000002
    29 -0.027022 -1.076920 -0.020210 0.165353 0.000000 0.000000
    30 -0.249534 -2.846964 -0.174213 -0.518785 -0.091543 0.444345
    31 0.043235 -1.683941 0.096012 -1.409884 0.002823 -0.000167
    32 0.031729 -1.160830 0.058838 0.106677 0.000642 0.008372
    33 -0.963866 -2.785145 -0.085350 -0.084261 0.036917 0.292995
    34 0.028479 -1.403067 0.006271 -1.244457 0.000000 0.000000
    35 0.021413 -0.957781 0.020046 -0.446116 0.000000 0.000000
    36 1.164475 -2.543940 -0.170330 -0.843965 -0.017414 0.527819
    37 0.024032 -1.129042 0.017807 -1.014874 0.000000 0.000001
    38 0.014898 -0.883989 -0.019848 0.153136 0.000000 0.000000
    39 -0.500830 -1.428545 0.403292 -0.012660 0.012671 -2.752590
    40 1.522835 0.058681 0.016848 -0.191602 0.064242 0.505579
    41 1.117947 0.048424 -0.005766 0.004299 -0.024829 -0.115852
    42 -0.115961 -0.170294 -0.005135 0.565452 0.158491 1.288947
    43 -1.393470 8.839177 -0.239433 1.580804 -0.005023 -1.566847
  time 25
    0 4.945132 -6.659877 -10.238809 0.000000 -0.075235 -0.000003
    1 7.384263 3.561215 -0.030885 0.750898 -2.386457 -1.389558
    2 -0.071920 -8.498735 -0.104136 0.178716 0.515885 -0.471964
    3 1.301309 -2.858450 0.533806 -0.317190 -0.156087 -3.649922
    4 -0.633172 1.164522 0.000000 0.000000 0.000000 0.542622
    5 -4.694041 4.765071 0.000002 0.000000 0.000000 1.961197
    6 0.471631 -4.176224 -0.013908 0.390400 -1.570796 0.000000
    7 0.798002 0.010359 -0.002600 0.000002 1.570796 0.000000
    8 1.257180 8.762585 -0.153713 -1.570562 0.002683 -1.566807
    9 -0.488518 -2.755602 -0.228260 -0.721249 -0.081949 -0.452612
    10 0.039887 -1.479790 0.029854 -1.744424 0.000000 0.000001
    11 0.028786 -1.075731 -0.023109 -1.070625 0.000000 0.000000
    12 0.125023 -3.051141 -0.574344 -0.799992 -0.047048 -0.393136
    13 -0.049759 -1.680544 0.100479 -1.558614 0.000000 -0.000002
    14 -0.034142 -1.148312 0.084782 -1.112872 0.000000 0.000000
    15 0.957766 -2.746780 -0.090302 0.273204 -0.158969 -0.144550
    16 -0.033420 -1.397129 -0.011257 -0.488110 0.000000 -0.000001
    17 -0.022360 -0.957436 0.018784 -0.667854 0.000000 0.000000
    18 -1.200213 -2.612689 -0.084481 -0.819559 0.107002 -0.434663
    19 -0.024967 -1.123934 0.017597 -1.746587 0.000000 0.000001
    20 -0.020057 -0.890968 0.010090 -0.424577 0.000000 0.000000
    21 0.583510 -1.197277 0.185379 0.041775 -0.932219 -0.526993
    22 1.535927 0.010246 0.005009 -0.115188 0.228157 -1.325298
    23 1.100771 0.004527 -0.010679 -0.031080 0.118321 -0.649585
    24 0.018587 -0.093240 -0.167774 3.423244 6.142883 -1.288278
    25 -6.817844 -3.649180 0.733114 -0.988728 -5.397259 -0.067634
    26 0.096944 -8.450418 -0.009365 -0.088840 -0.882257 0.488076
    27 0.447953 -2.798986 -0.200443 -0.805857 -0.098878 0.556583
    28 -0.032909 -1.480204 0.004940 -1.135932 0.000000 0.000002
    29 -0.027022 -1.076920 -0.020210 0.165353 0.000000 0.000000
    30 -0.249534 -2.846964 -0.174213 -0.518785 -0.091543 0.444345
    31 0.043235 -1.683941 0.096012 -1.409884 0.002823 -0.000167
    32 0.031729 -1.160830 0.058838 0.106677 0.000642 0.008372
    33 -0.963866 -2.785145 -0.085350 -0.084261 0.036917 0.292995
    34 0.028479 -1.403067 0.006271 -1.244457 0.000000 0.000000
    35 0.021413 -0.957781 0.020046 -0.446116 0.000000 0.000000
    36 1.164475 -2.543940 -0.170330 -0.843965 -0.017414 0.527819
    37 0.024032 -1.129042 0.017807 -1.014874 0.000000 0.000001
    38 0.014898 -0.883989 -0.019848 0.153136 0.000000 0.000000
    39 -0.500830 -1.428545 0.403292 -0.012660 0.012671 -2.752590
    40 1.522835 0.058681 0.016848 -0.191602 0.064242 0.505579
    41 1.117947 0.048424 -0.005766 0.004299 -0.024829 -0.115852
    42 -0.115961 -0.170294 -0.005135 0.565529 0.160611 1.289258
    43 -1.393470 8.839177 -0.239433 1.580804 -0.005023 -1.566847
  time 26
    0 4.945132 -6.671596 -10.227090 0.000000 -0.075235 -0.000003
    1 7.384263 3.561215 -0.030885 0.750898 -2.386457 -1.389558
    2 -0.071920 -8.498735 -0.104136 0.178716 0.515885 -0.471964
    3 1.301309 -2.858450 0.533806 -0.317190 -0.156087 -3.649922
    4 -0.633172 1.164522 0.000000 0.000000 0.000000 0.542622
    5 -4.694041 4.765071 0.000002 0.000000 0.000000 1.961197
    6 0.471631 -4.176224 -0.013908 0.390400 -1.570796 0.000000
    7 0.798002 0.010359 -0.002600 0.000002 1.570796 0.000000
    8 1.257180 8.762585 -0.153713 -1.570562 0.002683 -1.566807
    9 -0.488518 -2.755602 -0.228260 -0.721249 -0.081949 -0.452612
    10 0.039887 -1.479790 0.029854 -1.744424 0.000000 0.000001
    11 0.028786 -1.075731 -0.023109 -1.070625 0.000000 0.000000
    12 0.125023 -3.051141 -0.574344 -0.799992 -0.047048 -0.393136
    13 -0.049759 -1.680544 0.100479 -1.558614 0.000000 -0.000002
    14 -0.034142 -1.148312 0.084782 -1.112872 0.000000 0.000000
    15 0.957766 -2.746780 -0.090302 0.273204 -0.158969 -0.144550
    16 -0.033420 -1.397129 -0.011257 -0.488110 0.000000 -0.000001
    17 -0.022360 -0.957436 0.018784 -0.678947 0.000000 0.000000
    18 -1.200213 -2.612689 -0.084481 -0.819559 0.107002 -0.434663
    19 -0.024967 -1.123934 0.017597 -1.746587 0.000000 0.000001
    20 -0.020057 -0.890968 0.010090 -0.424577 0.000000 0.000000
    21 0.583510 -1.197277 0.185379 0.041775 -0.932219 -0.526993
    22 1.535927 0.010246 0.005009 -0.115188 0.228157 -1.325298
    23 1.100771 0.004527 -0.010679 -0.031080 0.118321 -0.649585
    24 0.018587 -0.093240 -0.167774 3.423244 6.142883 -1.288278
    25 -6.817844 -3.649180 0.733114 -0.988728 -5.397259 -0.067634
    26 0.096944 -8.450418 -0.009365 -0.088840 -0.882257 0.488076
    27 0.447953 -2.798986 -0.200443 -0.805857 -0.098878 0.556583
    28 -0.032909 -1.480204 0.004940 -1.135932 0.000000 0.000002
    29 -0.027022 -1.076920 -0.020210 0.165353 0.000000 0.000000
    30 -0.249534 -2.846964 -0.174213 -0.518785 -0.091543 0.444345
    31 0.043235 -1.683941 0.096012 -1.409884 0.002823 -0.000167
    32 0.031729 -1.160830 0.058838 0.106677 0.000642 0.008372
    33 -0.963866 -2.785145 -0.085350 -0.084261 0.036917 0.292995
    34 0.028479 -1.403067 0.006271 -1.244457 0.000000 0.000000
    35 0.021413 -0.957781 0.020046 -0.446116 0.000000 0.000000
    36 1.164475 -2.543940 -0.170330 -0.843965 -0.017414 0.527819
    37 0.024032 -1.129042 0.017807 -1.014874 0.000000 0.000001
    38 0.014898 -0.883989 -0.019848 0.153136 0.000000 0.000000
    39 -0.500830 -1.428545 0.403292 -0.012660 0.012671 -2.752590
    40 1.522835 0.058681 0.016848 -0.191602 0.064242 0.505579
    41 1.117947 0.048424 -0.005766 0.004299 -0.024829 -0.115852
    42 -0.115961 -0.170294 -0.005135 0.565529 0.160611 1.289258
    43 -1.393470 8.839177 -0.239433 1.580804 -0.005023 -1.566847
  time 27
    0 4.945132 -6.706753 -10.219277 0.000000 -0.075235 -0.000003
    1 7.384263 3.561215 -0.030885 0.750898 -2.386457 -1.389558
    2 -0.071920 -8.498735 -0.104136 0.178716 0.515885 -0.471964
    3 1.301309 -2.858450 0.533806 -0.317190 -0.156087 -3.649922
    4 -0.633172 1.164522 0.000000 0.000000 0.000000 0.542622
    5 -4.694041 4.765071 0.000002 0.000000 0.000000 1.961197
    6 0.471631 -4.176224 -0.013908 0.390400 -1.570796 0.000000
    7 0.798002 0.010359 -0.002600 0.000002 1.570796 0.000000
    8 1.257180 8.762585 -0.153713 -1.570562 0.002683 -1.566807
    9 -0.488518 -2.755602 -0.228260 -0.721249 -0.081949 -0.452612
    10 0.039887 -1.479790 0.029854 -1.744424 0.000000 0.000001
    11 0.028786 -1.075731 -0.023109 -1.070625 0.000000 0.000000
    12 0.125023 -3.051141 -0.574344 -0.799992 -0.047048 -0.393136
    13 -0.049759 -1.680544 0.100479 -1.558614 0.000000 -0.000002
    14 -0.034142 -1.148312 0.084782 -1.112872 0.000000 0.000000
    15 0.957766 -2.746780 -0.090302 0.273204 -0.158969 -0.144550
    16 -0.033420 -1.397129 -0.011257 -0.488110 0.000000 -0.000001
    17 -0.022360 -0.957436 0.018784 -0.705432 0.000000 0.000000
    18 -1.200213 -2.612689 -0.084481 -0.819559 0.107002 -0.434663
    19 -0.024967 -1.123934 0.017597 -1.746587 0.000000 0.000001
    20 -0.020057 -0.890968 0.010090 -0.424577 0.000000 0.000000
    21 0.583510 -1.197277 0.185379 0.041775 -0.932219 -0.526993
    22 1.535927 0.010246 0.005009 -0.115188 0.228157 -1.325298
    23 1.100771 0.004527 -0.010679 -0.031080 0.118321 -0.649585
    24 0.018587 -0.093240 -0.167774 3.423244 6.142883 -1.288278
    25 -6.817844 -3.649180 0.733114 -0.988728 -5.397259 -0.067634
    26 0.096944 -8.450418 -0.009365 -0.088840 -0.882257 0.488076
    27 0.447953 -2.798986 -0.200443 -0.805857 -0.098878 0.556583
    28 -0.032909 -1.480204 0.004940 -1.135932 0.000000 0.000002
    29 -0.027022 -1.076920 -0.020210 0.165353 0.000000 0.000000
    30 -0.249534 -2.846964 -0.174213 -0.518785 -0.091543 0.444345
    31 0.043235 -1.683941 0.096012 -1.409884 0.002823 -0.000167
    32 0.031729 -1.160830 0.058838 0.106677 0.000642 0.008372
    33 -0.963866 -2.785145 -0.085350 -0.084261 0.036917 0.292995
    34 0.028479 -1.403067 0.006271 -1.244457 0.000000 0.000000
    35 0.021413 -0.957781 0.020046 -0.446116 0.000000 0.000000
    36 1.164475 -2.543940 -0.170330 -0.843965 -0.017414 0.527819
    37 0.024032 -1.129042 0.017807 -1.014874 0.000000 0.000001
    38 0.014898 -0.883989 -0.019848 0.153136 0.000000 0.000000
    39 -0.500830 -1.428545 0.403292 -0.012660 0.012671 -2.752590
    40 1.522835 0.058681 0.016848 -0.191602 0.064242 0.505579
    41 1.117947 0.048424 -0.005766 0.004299 -0.024829 -0.115852
    42 -0.115961 -0.170294 -0.005135 0.565529 0.160611 1.289258
    43 -1.393470 8.839177 -0.239433 1.580804 -0.005023 -1.566847
  time 28
    0 4.945132 -6.745817 -10.211464 0.000000 -0.075235 -0.000003
    1 7.384263 3.561215 -0.030885 0.750898 -2.386457 -1.389558
    2 -0.071920 -8.498735 -0.104136 0.178716 0.515885 -0.471964
    3 1.301309 -2.858450 0.533806 -0.317190 -0.156087 -3.649922
    4 -0.633172 1.164522 0.000000 0.000000 0.000000 0.542622
    5 -4.694041 4.765071 0.000002 0.000000 0.000000 1.961197
    6 0.471631 -4.176224 -0.013908 0.390400 -1.570796 0.000000
    7 0.798002 0.010359 -0.002600 0.000002 1.570796 0.000000
    8 1.257180 8.762585 -0.153713 -1.570562 0.002683 -1.566807
    9 -0.488518 -2.755602 -0.228260 -0.721249 -0.081949 -0.452612
    10 0.039887 -1.479790 0.029854 -1.744424 0.000000 0.000001
    11 0.028786 -1.075731 -0.023109 -1.070625 0.000000 0.000000
    12 0.125023 -3.051141 -0.574344 -0.799992 -0.047048 -0.393136
    13 -0.049759 -1.680544 0.100479 -1.558614 0.000000 -0.000002
    14 -0.034142 -1.148312 0.084782 -1.112872 0.000000 0.000000
    15 0.957766 -2.746780 -0.090302 0.273204 -0.158969 -0.144550
    16 -0.033420 -1.397129 -0.011257 -0.488110 0.000000 -0.000001
    17 -0.022360 -0.957436 0.018784 -0.737021 0.000000 0.000000
    18 -1.200213 -2.612689 -0.084481 -0.819559 0.107002 -0.434663
    19 -0.024967 -1.123934 0.017597 -1.746587 0.000000 0.000001
    20 -0.020057 -0.890968 0.010090 -0.424577 0.000000 0.000000
    21 0.583510 -1.197277 0.185379 0.041775 -0.932219 -0.526993
    22 1.535927 0.010246 0.005009 -0.115188 0.228157 -1.325298
    23 1.100771 0.004527 -0.010679 -0.031080 0.118321 -0.649585
    24 0.018587 -0.093240 -0.167774 3.423244 6.142883 -1.288278
    25 -6.817844 -3.649180 0.733114 -0.988728 -5.397259 -0.067634
    26 0.096944 -8.450418 -0.009365 -0.088840 -0.882257 0.488076
    27 0.447953 -2.798986 -0.200443 -0.805857 -0.098878 0.556583
    28 -0.032909 -1.480204 0.004940 -1.135932 0.000000 0.000002
    29 -0.027022 -1.076920 -0.020210 0.165353 0.000000 0.000000
    30 -0.249534 -2.846964 -0.174213 -0.518785 -0.091543 0.444345
    31 0.043235 -1.683941 0.096012 -1.409884 0.002823 -0.000167
    32 0.031729 -1.160830 0.058838 0.106677 0.000642 0.008372
    33 -0.963866 -2.785145 -0.085350 -0.084261 0.036917 0.292995
    34 0.028479 -1.403067 0.006271 -1.244457 0.000000 0.000000
    35 0.021413 -0.957781 0.020046 -0.446116 0.000000 0.000000
    36 1.164475 -2.543940 -0.170330 -0.843965 -0.017414 0.527819
    37 0.024032 -1.129042 0.017807 -1.014874 0.000000 0.000001
    38 0.014898 -0.883989 -0.019848 0.153136 0.000000 0.000000
    39 -0.500830 -1.428545 0.403292 -0.012660 0.012671 -2.752590
    40 1.522835 0.058681 0.016848 -0.191602 0.064242 0.505579
    41 1.117947 0.048424 -0.005766 0.004299 -0.024829 -0.115852
    42 -0.115961 -0.170294 -0.005135 0.565529 0.160611 1.289258
    43 -1.393470 8.839177 -0.239433 1.580804 -0.005023 -1.566847
  time 29
    0 4.945132 -6.777068 -10.211464 0.000000 -0.075235 -0.000003
    1 7.384263 3.561215 -0.030885 0.750898 -2.386457 -1.389558
    2 -0.071920 -8.498735 -0.104136 0.178716 0.515885 -0.471964
    3 1.301309 -2.858450 0.533806 -0.317190 -0.156087 -3.649922
    4 -0.633172 1.164522 0.000000 0.000000 0.000000 0.542622
    5 -4.694041 4.765071 0.000002 0.000000 0.000000 1.961197
    6 0.471631 -4.176224 -0.013908 0.390400 -1.570796 0.000000
    7 0.798002 0.010359 -0.002600 0.000002 1.570796 0.000000
    8 1.257180 8.762585 -0.153713 -1.570562 0.002683 -1.566807
    9 -0.488518 -2.755602 -0.228260 -0.721249 -0.081949 -0.452612
    10 0.039887 -1.479790 0.029854 -1.744424 0.000000 0.000001
    11 0.028786 -1.075731 -0.023109 -1.070625 0.000000 0.000000
    12 0.125023 -3.051141 -0.574344 -0.799992 -0.047048 -0.393136
    13 -0.049759 -1.680544 0.100479 -1.558614 0.000000 -0.000002
    14 -0.034142 -1.148312 0.084782 -1.112872 0.000000 0.000000
    15 0.957766 -2.746780 -0.090302 0.273204 -0.158969 -0.144550
    16 -0.033420 -1.397129 -0.011257 -0.488110 0.000000 -0.000001
    17 -0.022360 -0.957436 0.018784 -0.763467 0.000000 0.000000
    18 -1.200213 -2.612689 -0.084481 -0.819559 0.107002 -0.434663
    19 -0.024967 -1.123934 0.017597 -1.746587 0.000000 0.000001
    20 -0.020057 -0.890968 0.010090 -0.424577 0.000000 0.000000
    21 0.583510 -1.197277 0.185379 0.041775 -0.932219 -0.526993
    22 1.535927 0.010246 0.005009 -0.115188 0.228157 -1.325298
    23 1.100771 0.004527 -0.010679 -0.031080 0.118321 -0.649585
    24 0.018587 -0.093240 -0.167774 3.423244 6.142883 -1.288278
    25 -6.817844 -3.649180 0.733114 -0.988728 -5.397259 -0.067634
    26 0.096944 -8.450418 -0.009365 -0.088840 -0.882257 0.488076
    27 0.447953 -2.798986 -0.200443 -0.805857 -0.098878 0.556583
    28 -0.032909 -1.480204 0.004940 -1.135932 0.000000 0.000002
    29 -0.027022 -1.076920 -0.020210 0.165353 0.000000 0.000000
    30 -0.249534 -2.846964 -0.174213 -0.518785 -0.091543 0.444345
    31 0.043235 -1.683941 0.096012 -1.409884 0.002823 -0.000167
    32 0.031729 -1.160830 0.058838 0.106677 0.000642 0.008372
    33 -0.963866 -2.785145 -0.085350 -0.084261 0.036917 0.292995
    34 0.028479 -1.403067 0.006271 -1.244457 0.000000 0.000000
    35 0.021413 -0.957781 0.020046 -0.446116 0.000000 0.000000
    36 1.164475 -2.543940 -0.170330 -0.843965 -0.017414 0.527819
    37 0.024032 -1.129042 0.017807 -1.014874 0.000000 0.000001
    38 0.014898 -0.883989 -0.019848 0.153136 0.000000 0.000000
    39 -0.500830 -1.428545 0.403292 -0.012660 0.012671 -2.752590
    40 1.522835 0.058681 0.016848 -0.191602 0.064242 0.505579
    41 1.117947 0.048424 -0.005766 0.004299 -0.024829 -0.115852
    42 -0.115961 -0.170294 -0.005135 0.565529 0.160611 1.289258
    43 -1.393470 8.839177 -0.239433 1.580804 -0.005023 -1.566847
  time 30
    0 4.945132 -6.792694 -10.211464 0.000000 -0.075235 -0.000003
    1 7.384263 3.561215 -0.030885 0.750898 -2.386457 -1.389558
    2 -0.071920 -8.498735 -0.104136 0.178716 0.515885 -0.471964
    3 1.301309 -2.858450 0.533806 -0.317190 -0.156087 -3.649922
    4 -0.633172 1.164522 0.000000 0.000000 0.000000 0.542622
    5 -4.694041 4.765071 0.000002 0.000000 0.000000 1.961197
    6 0.471631 -4.176224 -0.013908 0.390400 -1.570796 0.000000
    7 0.798002 0.010359 -0.002600 0.000002 1.570796 0.000000
    8 1.257180 8.762585 -0.153713 -1.570562 0.002683 -1.566807
    9 -0.488518 -2.755602 -0.228260 -0.721249 -0.081949 -0.452612
    10 0.039887 -1.479790 0.029854 -1.744424 0.000000 0.000001
    11 0.028786 -1.075731 -0.023109 -1.070625 0.000000 0.000000
    12 0.125023 -3.051141 -0.574344 -0.799992 -0.047048 -0.393136
    13 -0.049759 -1.680544 0.100479 -1.558614 0.000000 -0.000002
    14 -0.034142 -1.148312 0.084782 -1.112872 0.000000 0.000000
    15 0.957766 -2.746780 -0.090302 0.273204 -0.158969 -0.144550
    16 -0.033420 -1.397129 -0.011257 -0.488110 0.000000 -0.000001
    17 -0.022360 -0.957436 0.018784 -0.774559 0.000000 0.000000
    18 -1.200213 -2.612689 -0.084481 -0.819559 0.107002 -0.434663
    19 -0.024967 -1.123934 0.017597 -1.746587 0.000000 0.000001
    20 -0.020057 -0.890968 0.010090 -0.424577 0.000000 0.000000
    21 0.583510 -1.197277 0.185379 0.041775 -0.932219 -0.526993
    22 1.535927 0.010246 0.005009 -0.115188 0.228157 -1.325298
    23 1.100771 0.004527 -0.010679 -0.031080 0.118321 -0.649585
    24 0.018587 -0.093240 -0.167774 3.423244 6.142883 -1.288278
    25 -6.817844 -3.649180 0.733114 -0.988728 -5.397259 -0.067634
    26 0.096944 -8.450418 -0.009365 -0.088840 -0.882257 0.488076
    27 0.447953 -2.798986 -0.200443 -0.805857 -0.098878 0.556583
    28 -0.032909 -1.480204 0.004940 -1.135932 0.000000 0.000002
    29 -0.027022 -1.076920 -0.020210 0.165353 0.000000 0.000000
    30 -0.249534 -2.846964 -0.174213 -0.518785 -0.091543 0.444345
    31 0.043235 -1.683941 0.096012 -1.409884 0.002823 -0.000167
    32 0.031729 -1.160830 0.058838 0.106677 0.000642 0.008372
    33 -0.963866 -2.785145 -0.085350 -0.084261 0.036917 0.292995
    34 0.028479 -1.403067 0.006271 -1.244457 0.000000 0.000000
    35 0.021413 -0.957781 0.020046 -0.446116 0.000000 0.000000
    36 1.164475 -2.543940 -0.170330 -0.843965 -0.017414 0.527819
    37 0.024032 -1.129042 0.017807 -1.014874 0.000000 0.000001
    38 0.014898 -0.883989 -0.019848 0.153136 0.000000 0.000000
    39 -0.500830 -1.428545 0.403292 -0.012660 0.012671 -2.752590
    40 1.522835 0.058681 0.016848 -0.191602 0.064242 0.505579
    41 1.117947 0.048424 -0.005766 0.004299 -0.024829 -0.115852
    42 -0.115961 -0.170294 -0.005135 0.565529 0.160611 1.289258
    43 -1.393470 8.839177 -0.239433 1.580804 -0.005023 -1.566847
end
