// Created by Crowbar 0.34.0.0
version 1
nodes
  0 "Bip01" -1
  1 "Bip01 Pelvis" 0
  2 "Bip01 Spine" 1
  3 "Bip01 Spine1" 2
  4 "Bip01 Spine2" 3
  5 "Bip01 Spine3" 4
  6 "Bip01 Neck" 5
  7 "Bip01 L Clavicle" 6
  8 "Bip01 L UpperArm" 7
  9 "Bip01 L Forearm" 8
  10 "Bip01 L Hand" 9
  11 "storm_giant_p" 10
end
skeleton
  time 0
    0 -0.001543 -0.648457 33.899609 -0.025849 0.174554 0.001624
    1 -2.276912 0.000003 -1.238190 -1.570795 -1.570796 0.000000
    2 1.796589 0.711909 0.000646 -0.199059 -0.018532 -0.168896
    3 4.119305 -0.003202 -0.000132 0.040640 0.119731 0.219550
    4 4.119572 -0.003128 0.000172 -0.052552 0.034177 0.299417
    5 4.118973 -0.003262 0.000049 -0.014787 0.028769 0.112361
    6 4.119862 -0.003267 -0.000536 0.153682 -0.137389 0.344794
    7 0.237312 0.266277 1.696164 0.572905 -1.110068 2.272999
    8 5.849108 -0.000002 0.000000 0.255686 -0.081878 -1.073086
    9 9.697660 0.000000 0.000004 0.000000 0.000000 -1.281447
    10 10.762131 0.000000 -0.000004 -1.208219 0.015940 0.167943
    11 4.859030 0.384644 -40.063412 -0.046299 3.119568 -1.570254
  time 1
    0 -0.001543 -0.648457 33.899609 -0.025849 0.174554 0.001624
    1 -2.276912 0.000003 -1.238190 -1.570795 -1.570796 0.000000
    2 1.796589 0.711909 0.000646 -0.202415 -0.012600 -0.162436
    3 4.119305 -0.003202 -0.000132 0.041335 0.119887 0.270233
    4 4.119572 -0.003128 0.000172 -0.048993 0.045814 0.264530
    5 4.118973 -0.003262 0.000049 -0.001017 0.031693 0.139722
    6 4.119862 -0.003267 -0.000536 0.150147 -0.141248 0.370309
    7 0.241218 0.262371 1.696164 0.613341 -1.116624 2.208318
    8 5.849108 -0.000002 0.000000 0.145871 -0.010402 -1.197798
    9 9.697660 0.000000 0.000004 0.000000 0.000000 -1.117857
    10 10.762131 0.000000 -0.000004 -1.234298 -0.073070 0.126944
    11 4.859030 0.384644 -40.063412 -0.046299 3.119568 -1.570254
end
