// Created by Crowbar 0.34.0.0

$ModelName "weapons/tfa_cso/w_g11_v6.mdl"

$BodyGroup "studio"
{
	studio "v_g11_v_ref"
}

$collisionmodel "v_g11_v_ref.smd"
{
	$mass 9
}

$CDMaterials "models\weapons\tfa_cso\g11_v6"

$attachment "0" "root" 0.10 -12.60 -0.70 rotate -0 0 0

$Sequence "idle" {
	"anims\idle.smd"
	fps 30
}