version 1
nodes
  0 "Bone04" -1
  1 "Bone_Righthand" 0
  2 "NEXON_CSO_infi_Root_R" 1
  3 "NEXON_CSO_infi_Dummy_R" 2
  4 "NEXON_CSO_infi_Triigger_R" 3
  5 "NEXON_CSO_infi_Nori_R" 3
  6 "NEXON_CSO_infi_Slide_R" 3
  7 "NEXON_CSO_infi_Magazine_R" 3
  8 "NEXON_CSO_infi_Bullet_R" 7
  9 "Bone01" -1
  10 "Bone_Lefthand" 9
  11 "NEXON_CSO_infi_Root_L" 10
  12 "NEXON_CSO_infi_Dummy_L" 11
  13 "NEXON_CSO_infi_Slide_L" 12
  14 "NEXON_CSO_infi_Nori_L" 12
  15 "NEXON_CSO_infi_Triigger_L" 12
  16 "NEXON_CSO_infi_Magazine_L" 12
  17 "NEXON_CSO_infi_Bullet_L" 16
  18 "Bone27" 1
  19 "Bone28" 18
  20 "Bone29" 19
  21 "Bone31" 1
  22 "Bone32" 21
  23 "Bone33" 22
  24 "Bone35" 1
  25 "Bone36" 24
  26 "Bone37" 25
  27 "Bone39" 1
  28 "Bone40" 27
  29 "Bone41" 28
  30 "Bone43" 1
  31 "Bone44" 30
  32 "Bone45" 31
  33 "Bone_Se_Hand-R" 1
  34 "Bone05" 10
  35 "Bone06" 34
  36 "Bone07" 35
  37 "Bone21" 10
  38 "Bone22" 37
  39 "Bone23" 38
  40 "Bone17" 10
  41 "Bone18" 40
  42 "Bone19" 41
  43 "Bone13" 10
  44 "Bone14" 43
  45 "Bone15" 44
  46 "Bone09" 10
  47 "Bone10" 46
  48 "Bone11" 47
  49 "Bone_Se_Hand-L" 10
end
skeleton
  time 0
    0 -11.960718 0.864584 -7.922828 0.847156 1.867272 1.276235
    1 0.096946 -8.450420 -0.009364 0.352763 -0.231470 0.212837
    2 -0.192877 -2.997167 0.750521 0.973027 -1.502063 -0.975592
    3 0.000000 -1.808650 1.012937 0.000000 0.000000 0.000000
    4 0.000000 0.706666 0.002903 0.000000 0.000000 0.000000
    5 0.000000 2.290614 1.335354 0.000000 0.000000 0.000000
    6 -0.115835 -1.983282 1.652799 0.000000 0.000000 0.000000
    7 -0.194965 1.740244 -0.776688 0.000000 0.000000 0.000000
    8 0.000000 -0.273072 1.043217 0.000000 0.000000 0.000000
    9 11.470110 0.978882 -7.922828 0.777557 -1.819456 -1.208763
    10 -0.071918 -8.498731 -0.104137 0.352798 0.302533 -0.041828
    11 0.270583 -2.982786 0.320373 0.554706 1.379928 0.480518
    12 -0.000001 -1.808650 1.012938 0.000000 0.000000 0.000000
    13 -0.115835 -1.983282 1.652800 0.000000 0.000000 0.000000
    14 0.000000 2.290614 1.335354 0.000000 0.000000 0.000000
    15 0.000001 0.706665 0.002903 0.000000 0.000000 0.000000
    16 -0.194964 1.736338 -0.761062 0.000000 0.000000 0.000000
    17 0.000000 -0.273071 1.043216 0.000000 0.000000 0.000000
    18 -0.586769 -1.264477 0.200164 -0.224469 -0.772272 -2.217911
    19 1.522835 0.058680 0.016850 -0.042975 0.166884 0.909410
    20 1.117947 0.048424 -0.005765 -0.000024 0.000000 0.654951
    21 -0.963867 -2.785143 -0.085346 0.230928 0.199964 -0.171417
    22 0.028478 -1.403067 0.006272 -1.008258 -0.000007 -0.000010
    23 0.021412 -0.957782 0.020047 -0.332307 -0.000003 -0.000008
    24 -0.249534 -2.846963 -0.174215 -0.001196 0.000966 -0.025445
    25 0.043235 -1.683940 0.096015 -2.021659 -0.002971 -0.000336
    26 0.031729 -1.160830 0.058836 -1.017648 0.000000 0.000000
    27 0.447951 -2.798983 -0.200441 -0.016250 0.053282 0.116306
    28 -0.032909 -1.480207 0.004935 -1.783731 0.000000 0.000000
    29 -0.027023 -1.076921 -0.020212 -0.898892 0.000000 0.000000
    30 1.164474 -2.543939 -0.170327 0.050355 -0.000995 -0.002105
    31 0.024033 -1.129040 0.017807 -1.291468 -0.100239 0.187007
    32 0.014896 -0.883992 -0.019846 -1.038734 0.074161 0.017318
    33 -0.138841 -0.113067 0.013658 0.285538 -0.040593 1.576220
    34 0.583509 -1.197274 0.185379 -0.077873 -0.765978 -0.796238
    35 1.535926 0.010247 0.005009 -0.072801 0.036313 -1.031055
    36 1.100770 0.004528 -0.010675 0.000000 0.000000 -0.670693
    37 0.957766 -2.746777 -0.090301 0.182590 -0.051003 0.111154
    38 -0.033419 -1.397128 -0.011255 -0.842508 -0.018348 -0.065735
    39 -0.022361 -0.957433 0.018783 -0.642317 0.000000 0.000000
    40 0.250029 -2.820664 -0.238396 -0.282660 0.057277 -0.106688
    41 -0.049759 -1.680544 0.100479 -2.012794 0.000000 0.000000
    42 -0.034141 -1.148311 0.084779 -1.037503 0.000000 0.000000
    43 -0.488517 -2.755600 -0.228261 -0.195785 0.054586 -0.144146
    44 0.039889 -1.479791 0.029854 -2.042748 0.000000 0.000000
    45 0.028785 -1.075733 -0.023110 -0.841838 0.000000 0.000000
    46 -1.180679 -2.507216 -0.193861 0.008677 0.244088 -0.056758
    47 -0.024967 -1.123934 0.017595 -1.466594 0.000000 0.000000
    48 -0.020058 -0.890965 0.010091 -1.308778 0.000000 0.000000
    49 0.120180 -0.051600 -0.055246 0.287567 -3.172226 1.561008
  time 1
    0 -11.960718 0.864584 -7.922828 0.847156 1.867272 1.276235
    1 0.096946 -8.450420 -0.009364 0.352763 -0.231470 0.212837
    2 -0.192877 -2.997167 0.750521 0.973027 -1.502063 -0.975592
    3 0.000000 -1.808650 1.012937 0.000000 0.000000 0.000000
    4 0.000000 0.706666 0.002903 0.000000 0.000000 0.000000
    5 0.000000 2.290614 1.335354 0.000000 0.000000 0.000000
    6 -0.115835 -1.983282 1.652799 0.000000 0.000000 0.000000
    7 -0.194965 1.740244 -0.776688 0.000000 0.000000 0.000000
    8 0.000000 -0.273072 1.043217 0.000000 0.000000 0.000000
    9 11.470110 0.978882 -7.922828 0.777557 -1.819456 -1.208763
    10 -0.071918 -8.498731 -0.104137 0.352798 0.302533 -0.041828
    11 0.270583 -2.982786 0.320373 0.554706 1.379928 0.480518
    12 -0.000001 -1.808650 1.012938 0.000000 0.000000 0.000000
    13 -0.115835 -1.983282 1.652800 0.000000 0.000000 0.000000
    14 0.000000 2.290614 1.335354 0.000000 0.000000 0.000000
    15 0.000001 0.706665 0.002903 0.000000 0.000000 0.000000
    16 -0.194964 1.736338 -0.761062 0.000000 0.000000 0.000000
    17 0.000000 -0.273071 1.043216 0.000000 0.000000 0.000000
    18 -0.586769 -1.264477 0.200164 -0.224469 -0.772272 -2.217911
    19 1.522835 0.058680 0.016850 -0.042975 0.166884 0.909410
    20 1.117947 0.048424 -0.005765 -0.000024 0.000000 0.654951
    21 -0.963867 -2.785143 -0.085346 0.230928 0.199964 -0.171417
    22 0.028478 -1.403067 0.006272 -1.008258 -0.000007 -0.000010
    23 0.021412 -0.957782 0.020047 -0.332307 -0.000003 -0.000008
    24 -0.249534 -2.846963 -0.174215 -0.001196 0.000966 -0.025445
    25 0.043235 -1.683940 0.096015 -2.021659 -0.002971 -0.000336
    26 0.031729 -1.160830 0.058836 -1.017648 0.000000 0.000000
    27 0.447951 -2.798983 -0.200441 -0.016250 0.053282 0.116306
    28 -0.032909 -1.480207 0.004935 -1.783731 0.000000 0.000000
    29 -0.027023 -1.076921 -0.020212 -0.898892 0.000000 0.000000
    30 1.164474 -2.543939 -0.170327 0.050355 -0.000995 -0.002105
    31 0.024033 -1.129040 0.017807 -1.291468 -0.100239 0.187007
    32 0.014896 -0.883992 -0.019846 -1.038734 0.074161 0.017318
    33 -0.138841 -0.113067 0.013658 0.285538 -0.040593 1.576220
    34 0.583509 -1.197274 0.185379 -0.077873 -0.765978 -0.796238
    35 1.535926 0.010247 0.005009 -0.072801 0.036313 -1.031055
    36 1.100770 0.004528 -0.010675 0.000000 0.000000 -0.670693
    37 0.957766 -2.746777 -0.090301 0.182590 -0.051003 0.111154
    38 -0.033419 -1.397128 -0.011255 -0.842508 -0.018348 -0.065735
    39 -0.022361 -0.957433 0.018783 -0.642317 0.000000 0.000000
    40 0.250029 -2.820664 -0.238396 -0.282660 0.057277 -0.106688
    41 -0.049759 -1.680544 0.100479 -2.012794 0.000000 0.000000
    42 -0.034141 -1.148311 0.084779 -1.037503 0.000000 0.000000
    43 -0.488517 -2.755600 -0.228261 -0.195785 0.054586 -0.144146
    44 0.039889 -1.479791 0.029854 -2.042748 0.000000 0.000000
    45 0.028785 -1.075733 -0.023110 -0.841838 0.000000 0.000000
    46 -1.180679 -2.507216 -0.193861 0.008677 0.244088 -0.056758
    47 -0.024967 -1.123934 0.017595 -1.466594 0.000000 0.000000
    48 -0.020058 -0.890965 0.010091 -1.308778 0.000000 0.000000
    49 0.120180 -0.051600 -0.055246 0.287567 -3.172226 1.561008
end
