version 1
nodes
  0 "Bone01" -1
  1 "Bone_Lefthand" 0
  2 "Bone_MP7A1_L" 1
  3 "Bone_EyeonSite_Front_L" 2
  4 "Bone_EyeonSite_Back_L" 2
  5 "Bone_Magazine_L" 2
  6 "Bone_Trigger_L" 2
  7 "Bone_Hand_Grib_L" 2
  8 "Bone_SlidingStock_L" 2
  9 "Bone_ChargeHandle_L" 2
  10 "Bone04" -1
  11 "Bone_Righthand" 10
  12 "Bone_MP7A1_R" 11
  13 "Bone_EyeonSite_Front_R" 12
  14 "Bone_EyeonSite_Back_R" 12
  15 "Bone_Magazine_R" 12
  16 "Bone_Trigger_R" 12
  17 "Bone_Hand_Grib_R" 12
  18 "Bone_Hand_GribLock_R" 17
  19 "Bone_SlidingStock_R" 12
  20 "Bone_ChargeHandle_R" 12
  21 "Bone4" 1
  22 "Bone13" 21
  23 "Bone14" 22
  24 "Bone15" 23
  25 "Bone17" 21
  26 "Bone18" 25
  27 "Bone19" 26
  28 "Bone21" 21
  29 "Bone22" 28
  30 "Bone23" 29
  31 "Bone05" 21
  32 "Bone06" 31
  33 "Bone07" 32
  34 "Bone09" 21
  35 "Bone10" 34
  36 "Bone11" 35
  37 "Bone26" 11
  38 "Bone35" 37
  39 "Bone36" 38
  40 "Bone37" 39
  41 "Bone31" 37
  42 "Bone32" 41
  43 "Bone33" 42
  44 "Bone39" 37
  45 "Bone40" 44
  46 "Bone41" 45
  47 "Bone43" 37
  48 "Bone44" 47
  49 "Bone45" 48
  50 "Bone27" 37
  51 "Bone28" 50
  52 "Bone29" 51
end
skeleton
  time 0
    0 14.150201 -3.568177 -11.441727 0.517886 -2.190353 -0.910377
    1 -0.021283 -8.563257 -0.000750 0.415607 0.350005 -0.328048
    2 -0.350898 -2.752587 0.514683 0.536110 1.767884 0.542634
    3 0.000000 -5.680970 4.733543 1.570796 0.000000 0.000000
    4 0.000000 2.240248 4.862545 -1.570796 0.000000 0.000000
    5 0.000000 -0.030803 -0.185498 0.000000 0.000000 0.000000
    6 0.000000 -1.489114 1.895751 0.087266 0.000000 0.000000
    7 0.000000 -6.270583 1.350241 1.570796 0.000000 0.000000
    8 0.000000 5.114959 2.564909 0.000000 0.000000 0.000000
    9 0.000000 4.784919 4.090397 -1.570796 -3.141592 -0.000001
    10 -14.743998 -5.981083 -11.924803 0.697648 2.041932 1.107015
    11 0.089929 -8.543166 0.000003 0.194157 -0.388293 0.174606
    12 0.431291 -2.480750 0.566680 1.315037 -1.359682 -1.195261
    13 0.000000 -5.680965 4.733542 1.570796 0.000000 0.000000
    14 0.000001 2.240247 4.862545 -1.570796 0.000000 0.000000
    15 0.000000 -0.030803 -0.185497 0.000000 0.000000 0.000000
    16 0.000000 -1.489114 1.895751 0.087266 0.000000 0.000000
    17 0.000000 -6.270579 1.350240 1.570796 0.000000 0.000000
    18 0.000000 0.355522 -2.249654 -1.570796 -3.141592 1.570796
    19 0.000001 5.114957 2.564910 0.000000 0.000000 0.000000
    20 0.000001 4.784917 4.090397 -1.570796 -3.141592 -0.000001
    21 -0.003480 -0.404827 0.000000 -0.000001 0.000000 0.000000
    22 -0.519309 -2.501154 -0.278957 -0.055823 0.159103 -0.101314
    23 -0.010598 -1.208184 -0.000001 -1.297208 -0.173311 -0.018970
    24 -0.000001 -0.763066 0.000000 -0.764828 -0.064118 0.059360
    25 0.105982 -2.607132 -0.278958 -0.243330 -0.074707 0.002974
    26 0.000000 -1.250579 0.000001 -0.787802 0.000000 0.000000
    27 -0.000001 -0.932635 0.000001 -1.655650 0.000000 0.000000
    28 0.763065 -2.490555 -0.278958 -0.118666 0.173955 0.234657
    29 -0.012322 -1.280917 0.000000 -0.397870 -0.078283 -0.101829
    30 -0.001695 -0.738091 0.129482 -1.554481 0.010997 0.011408
    31 0.354567 0.016267 0.318133 0.332140 -0.490594 -1.265606
    32 1.887164 0.012878 0.000000 0.122251 0.246529 -0.375236
    33 1.001873 -0.000270 0.000000 -0.034899 0.000000 -0.092945
    34 -1.123359 -2.195092 -0.278957 -0.208864 0.033771 -0.106283
    35 0.010771 -0.963791 0.000001 -0.580307 0.023406 0.035690
    36 -0.010412 -0.631916 0.000000 -1.043753 0.000000 0.000000
    37 0.000000 -0.359713 0.000000 0.000000 0.000000 0.000000
    38 -0.170478 -2.636148 -0.277655 -0.530743 0.075354 0.129527
    39 0.010599 -1.261177 0.000002 -1.252346 0.000000 0.000000
    40 -0.000002 -0.943233 0.000000 -1.208493 0.000000 0.000000
    41 -0.827562 -2.508972 -0.277656 0.032257 0.011706 -0.024514
    42 0.000001 -1.292972 0.000000 -0.322196 -0.048813 0.033389
    43 -0.000002 -0.752466 -0.000002 -0.876587 -0.009049 0.017023
    44 0.444213 -2.561962 -0.277655 -0.432451 0.143605 0.180950
    45 0.021022 -1.208187 0.000001 -0.966197 0.000000 0.000000
    46 0.010597 -0.741867 -0.000002 -1.240102 0.000000 0.000000
    47 1.047446 -2.222822 -0.277655 -0.287540 0.038255 0.161483
    48 0.000000 -0.996224 -0.000001 -0.664029 0.000000 0.000000
    49 0.000000 -0.614691 0.000000 -1.344689 0.000000 0.000000
    50 -0.308256 -0.007814 0.307165 -0.987918 -0.823553 -1.831620
    51 1.978378 0.019544 0.000000 0.099985 0.407896 0.869471
    52 0.980611 0.058421 -0.012628 0.185445 -0.212474 0.577857
  time 1
    0 14.150201 -3.435360 -11.586263 0.527872 -2.197123 -0.918579
    1 -0.021283 -8.563257 -0.000750 0.421771 0.346533 -0.315748
    2 -0.350898 -2.752587 0.514683 0.536110 1.767884 0.542634
    3 0.000000 -5.680970 4.745262 1.570796 0.000000 0.000000
    4 0.000000 2.240248 4.862545 -1.570796 0.000000 0.000000
    5 0.000000 -0.030803 -0.185498 0.000000 0.000000 0.000000
    6 0.000000 -1.489114 1.895751 0.087266 0.000000 0.000000
    7 0.000000 -6.270583 1.350241 1.570796 0.000000 0.000000
    8 0.000000 5.114959 2.564909 0.000000 0.000000 0.000000
    9 0.000000 4.784919 4.090397 -1.570796 -3.141592 -0.000001
    10 -14.732279 -5.945925 -11.920897 0.695597 2.040111 1.105057
    11 0.089929 -8.543166 0.000003 0.196058 -0.388446 0.167774
    12 0.431291 -2.480750 0.566680 1.315037 -1.359682 -1.195261
    13 0.000000 -5.680965 4.733542 1.570796 0.000000 0.000000
    14 0.000001 2.240247 4.862545 -1.570796 0.000000 0.000000
    15 0.000000 -0.030803 -0.185497 0.000000 0.000000 0.000000
    16 0.000000 -1.489114 1.895751 0.087266 0.000000 0.000000
    17 0.000000 -6.270579 1.350240 1.570796 0.000000 0.000000
    18 0.000000 0.355522 -2.249654 -1.570796 -3.141592 1.570796
    19 0.000001 5.114957 2.564910 0.000000 0.000000 0.000000
    20 0.000001 4.784917 4.090397 -1.570796 -3.141592 -0.000001
    21 -0.003480 -0.404827 0.000000 -0.000001 0.000000 0.000000
    22 -0.519309 -2.501154 -0.278957 -0.055823 0.159103 -0.101314
    23 -0.010598 -1.208184 -0.000001 -1.297208 -0.173311 -0.018970
    24 -0.000001 -0.763066 0.000000 -0.764828 -0.064118 0.059360
    25 0.105982 -2.607132 -0.278958 -0.243330 -0.074707 0.002974
    26 0.000000 -1.250579 0.000001 -0.787802 0.000000 0.000000
    27 -0.000001 -0.932635 0.000001 -1.655650 0.000000 0.000000
    28 0.763065 -2.490555 -0.278958 -0.118666 0.173955 0.234657
    29 -0.012322 -1.280917 0.000000 -0.397870 -0.078283 -0.101829
    30 -0.001695 -0.738091 0.129482 -1.554481 0.010997 0.011408
    31 0.354567 0.016267 0.318133 0.332140 -0.490594 -1.265606
    32 1.887164 0.012878 0.000000 0.120566 0.258490 -0.382185
    33 1.001873 -0.000270 0.000000 -0.034839 0.001546 -0.048438
    34 -1.123359 -2.195092 -0.278957 -0.208864 0.033771 -0.106283
    35 0.010771 -0.963791 0.000001 -0.580307 0.023406 0.035690
    36 -0.010412 -0.631916 0.000000 -1.043753 0.000000 0.000000
    37 0.000000 -0.359713 0.000000 0.000000 0.000000 0.000000
    38 -0.170478 -2.636148 -0.277655 -0.530743 0.075354 0.129527
    39 0.010599 -1.261177 0.000002 -1.252346 0.000000 0.000000
    40 -0.000002 -0.943233 0.000000 -1.208493 0.000000 0.000000
    41 -0.827562 -2.508972 -0.277656 0.032257 0.011706 -0.024514
    42 0.000001 -1.292972 0.000000 -0.322196 -0.048813 0.033389
    43 -0.000002 -0.752466 -0.000002 -0.876587 -0.009049 0.017023
    44 0.444213 -2.561962 -0.277655 -0.432451 0.143605 0.180950
    45 0.021022 -1.208187 0.000001 -0.966197 0.000000 0.000000
    46 0.010597 -0.741867 -0.000002 -1.240102 0.000000 0.000000
    47 1.047446 -2.222822 -0.277655 -0.287540 0.038255 0.161483
    48 0.000000 -0.996224 -0.000001 -0.664029 0.000000 0.000000
    49 0.000000 -0.614691 0.000000 -1.344689 0.000000 0.000000
    50 -0.308256 -0.007814 0.307165 -0.987918 -0.823553 -1.831620
    51 1.978378 0.019544 0.000000 0.099985 0.407896 0.869471
    52 0.980611 0.058421 -0.012628 0.185445 -0.212474 0.577857
  time 2
    0 14.150201 -4.025222 -11.754237 0.525329 -2.194268 -0.916767
    1 -0.021283 -8.563257 -0.000750 0.422633 0.346154 -0.314474
    2 -0.350898 -2.752587 0.514683 0.536110 1.767884 0.542634
    3 0.000000 -5.680970 4.760888 1.570796 0.000000 0.000000
    4 0.000000 2.240248 4.862545 -1.570796 0.000000 0.000000
    5 0.000000 -0.030803 -0.185498 0.000000 0.000000 0.000000
    6 0.000000 -1.489114 1.895751 0.087266 0.000000 0.000000
    7 0.000000 -6.270583 1.350241 1.570796 0.000000 0.000000
    8 0.000000 5.114959 2.564909 0.000000 0.000000 0.000000
    9 0.000000 4.784919 4.090397 -1.570796 -3.141592 -0.000001
    10 -14.720560 -5.899049 -11.913084 0.692889 2.037619 1.102634
    11 0.089929 -8.543166 0.000003 0.200249 -0.389108 0.154062
    12 0.431291 -2.480750 0.566680 1.315037 -1.359682 -1.195261
    13 0.000000 -5.680965 4.733542 1.570796 0.000000 0.000000
    14 0.000001 2.240247 4.862545 -1.570796 0.000000 0.000000
    15 0.000000 -0.030803 -0.185497 0.000000 0.000000 0.000000
    16 0.000000 -1.489114 1.895751 0.087266 0.000000 0.000000
    17 0.000000 -6.270579 1.350240 1.570796 0.000000 0.000000
    18 0.000000 0.355522 -2.249654 -1.570796 -3.141592 1.570796
    19 0.000001 5.114957 2.564910 0.000000 0.000000 0.000000
    20 0.000001 4.784917 4.090397 -1.570796 -3.141592 -0.000001
    21 -0.003480 -0.404827 0.000000 -0.000001 0.000000 0.000000
    22 -0.519309 -2.501154 -0.278957 -0.055823 0.159103 -0.101314
    23 -0.010598 -1.208184 -0.000001 -1.297208 -0.173311 -0.018970
    24 -0.000001 -0.763066 0.000000 -0.764828 -0.064118 0.059360
    25 0.105982 -2.607132 -0.278958 -0.243330 -0.074707 0.002974
    26 0.000000 -1.250579 0.000001 -0.787802 0.000000 0.000000
    27 -0.000001 -0.932635 0.000001 -1.655650 0.000000 0.000000
    28 0.763065 -2.490555 -0.278958 -0.118666 0.173955 0.234657
    29 -0.012322 -1.280917 0.000000 -0.397870 -0.078283 -0.101829
    30 -0.001695 -0.738091 0.129482 -1.554481 0.010997 0.011408
    31 0.354567 0.016267 0.318133 0.332140 -0.490594 -1.265606
    32 1.887164 0.012878 0.000000 0.117469 0.280685 -0.395066
    33 1.001873 -0.000270 0.000000 -0.034755 0.003104 -0.003895
    34 -1.123359 -2.195092 -0.278957 -0.208864 0.033771 -0.106283
    35 0.010771 -0.963791 0.000001 -0.580307 0.023406 0.035690
    36 -0.010412 -0.631916 0.000000 -1.043753 0.000000 0.000000
    37 0.000000 -0.359713 0.000000 0.000000 0.000000 0.000000
    38 -0.170478 -2.636148 -0.277655 -0.530743 0.075354 0.129527
    39 0.010599 -1.261177 0.000002 -1.252346 0.000000 0.000000
    40 -0.000002 -0.943233 0.000000 -1.208493 0.000000 0.000000
    41 -0.827562 -2.508972 -0.277656 0.032257 0.011706 -0.024514
    42 0.000001 -1.292972 0.000000 -0.322196 -0.048813 0.033389
    43 -0.000002 -0.752466 -0.000002 -0.876587 -0.009049 0.017023
    44 0.444213 -2.561962 -0.277655 -0.432451 0.143605 0.180950
    45 0.021022 -1.208187 0.000001 -0.966197 0.000000 0.000000
    46 0.010597 -0.741867 -0.000002 -1.240102 0.000000 0.000000
    47 1.047446 -2.222822 -0.277655 -0.287540 0.038255 0.161483
    48 0.000000 -0.996224 -0.000001 -0.664029 0.000000 0.000000
    49 0.000000 -0.614691 0.000000 -1.344689 0.000000 0.000000
    50 -0.308256 -0.007814 0.307165 -0.987918 -0.823553 -1.831620
    51 1.978378 0.019544 0.000000 0.099985 0.407896 0.869471
    52 0.980611 0.058421 -0.012628 0.185445 -0.212474 0.577857
  time 3
    0 14.150201 -4.329919 -11.781582 0.515249 -2.185703 -0.908756
    1 -0.021283 -8.563257 -0.000750 0.418193 0.348900 -0.324228
    2 -0.350898 -2.752587 0.514683 0.536110 1.767884 0.542634
    3 0.003906 -5.677064 4.780419 1.570796 0.000000 0.000000
    4 0.000000 2.240248 4.862545 -1.570796 0.000000 0.000000
    5 0.000000 -0.030803 -0.185498 0.000000 0.000000 0.000000
    6 0.000000 -1.489114 1.895751 0.087266 0.000000 0.000000
    7 0.000000 -6.270583 1.350241 1.570796 0.000000 0.000000
    8 0.000000 5.114959 2.564909 0.000000 0.000000 0.000000
    9 0.000000 4.784919 4.090397 -1.570796 -3.141592 -0.000001
    10 -14.720560 -5.899049 -11.913084 0.692807 2.037619 1.102634
    11 0.089929 -8.543166 0.000003 0.204375 -0.390483 0.143731
    12 0.431291 -2.480750 0.566680 1.315037 -1.359682 -1.195261
    13 0.000000 -5.680965 4.733542 1.570796 0.000000 0.000000
    14 0.000001 2.240247 4.862545 -1.570796 0.000000 0.000000
    15 0.000000 -0.030803 -0.185497 0.000000 0.000000 0.000000
    16 0.000000 -1.489114 1.895751 0.087266 0.000000 0.000000
    17 0.000000 -6.270579 1.350240 1.570796 0.000000 0.000000
    18 0.000000 0.355522 -2.249654 -1.570796 -3.141592 1.570796
    19 0.000001 5.114957 2.564910 0.000000 0.000000 0.000000
    20 0.000001 4.784917 4.090397 -1.570796 -3.141592 -0.000001
    21 -0.003480 -0.404827 0.000000 -0.000001 0.000000 0.000000
    22 -0.519309 -2.501154 -0.278957 -0.055823 0.159103 -0.101314
    23 -0.010598 -1.208184 -0.000001 -1.297208 -0.173311 -0.018970
    24 -0.000001 -0.763066 0.000000 -0.764828 -0.064118 0.059360
    25 0.105982 -2.607132 -0.278958 -0.243330 -0.074707 0.002974
    26 0.000000 -1.250579 0.000001 -0.787802 0.000000 0.000000
    27 -0.000001 -0.932635 0.000001 -1.655650 0.000000 0.000000
    28 0.763065 -2.490555 -0.278958 -0.118666 0.173955 0.234657
    29 -0.012322 -1.280917 0.000000 -0.397870 -0.078283 -0.101829
    30 -0.001695 -0.738091 0.129482 -1.554481 0.010997 0.011408
    31 0.354567 0.016267 0.318133 0.332140 -0.490594 -1.265606
    32 1.887164 0.012878 0.000000 0.115783 0.292634 -0.402016
    33 1.001873 -0.000270 0.000000 -0.034731 0.002409 -0.023848
    34 -1.123359 -2.195092 -0.278957 -0.208864 0.033771 -0.106283
    35 0.010771 -0.963791 0.000001 -0.580307 0.023406 0.035690
    36 -0.010412 -0.631916 0.000000 -1.043753 0.000000 0.000000
    37 0.000000 -0.359713 0.000000 0.000000 0.000000 0.000000
    38 -0.170478 -2.636148 -0.277655 -0.530743 0.075354 0.129527
    39 0.010599 -1.261177 0.000002 -1.252346 0.000000 0.000000
    40 -0.000002 -0.943233 0.000000 -1.208493 0.000000 0.000000
    41 -0.827562 -2.508972 -0.277656 0.032257 0.011706 -0.024514
    42 0.000001 -1.292972 0.000000 -0.322196 -0.048813 0.033389
    43 -0.000002 -0.752466 -0.000002 -0.876587 -0.009049 0.017023
    44 0.444213 -2.561962 -0.277655 -0.432451 0.143605 0.180950
    45 0.021022 -1.208187 0.000001 -0.966197 0.000000 0.000000
    46 0.010597 -0.741867 -0.000002 -1.240102 0.000000 0.000000
    47 1.047446 -2.222822 -0.277655 -0.287540 0.038255 0.161483
    48 0.000000 -0.996224 -0.000001 -0.664029 0.000000 0.000000
    49 0.000000 -0.614691 0.000000 -1.344689 0.000000 0.000000
    50 -0.308256 -0.007814 0.307165 -0.987918 -0.823553 -1.831620
    51 1.978378 0.019544 0.000000 0.099985 0.407896 0.869471
    52 0.980611 0.058421 -0.012628 0.185445 -0.212474 0.577857
  time 4
    0 14.150201 -4.708837 -11.715173 0.502437 -2.175507 -0.898552
    1 -0.021283 -8.563257 -0.000750 0.406900 0.357849 -0.350190
    2 -0.350898 -2.752587 0.514683 0.536110 1.767884 0.542634
    3 0.003906 -5.677064 4.799951 1.570796 0.000000 0.000000
    4 0.000000 2.240248 4.862545 -1.570796 0.000000 0.000000
    5 0.000000 -0.030803 -0.185498 0.000000 0.000000 0.000000
    6 0.000000 -1.489114 1.895751 0.087266 0.000000 0.000000
    7 0.000000 -6.270583 1.350241 1.570796 0.000000 0.000000
    8 0.000000 5.114959 2.564909 0.000000 0.000000 0.000000
    9 0.000000 4.784919 4.090397 -1.570796 -3.141592 -0.000001
    10 -14.728373 -5.922487 -11.916990 0.694284 2.038961 1.103939
    11 0.089929 -8.543166 0.000003 0.207889 -0.393360 0.141571
    12 0.431291 -2.480750 0.566680 1.315037 -1.359682 -1.195261
    13 0.000000 -5.680965 4.733542 1.570796 0.000000 0.000000
    14 0.000001 2.240247 4.862545 -1.570796 0.000000 0.000000
    15 0.000000 -0.030803 -0.185497 0.000000 0.000000 0.000000
    16 0.000000 -1.489114 1.895751 0.087266 0.000000 0.000000
    17 0.000000 -6.270579 1.350240 1.570796 0.000000 0.000000
    18 0.000000 0.355522 -2.249654 -1.570796 -3.141592 1.570796
    19 0.000001 5.114957 2.564910 0.000000 0.000000 0.000000
    20 0.000001 4.784917 4.090397 -1.570796 -3.141592 -0.000001
    21 -0.003480 -0.404827 0.000000 -0.000001 0.000000 0.000000
    22 -0.519309 -2.501154 -0.278957 -0.055823 0.159103 -0.101314
    23 -0.010598 -1.208184 -0.000001 -1.297208 -0.173311 -0.018970
    24 -0.000001 -0.763066 0.000000 -0.764828 -0.064118 0.059360
    25 0.105982 -2.607132 -0.278958 -0.243330 -0.074707 0.002974
    26 0.000000 -1.250579 0.000001 -0.787802 0.000000 0.000000
    27 -0.000001 -0.932635 0.000001 -1.655650 0.000000 0.000000
    28 0.763065 -2.490555 -0.278958 -0.118666 0.173955 0.234657
    29 -0.012322 -1.280917 0.000000 -0.397870 -0.078283 -0.101829
    30 -0.001695 -0.738091 0.129482 -1.554481 0.010997 0.011408
    31 0.354567 0.016267 0.318133 0.332140 -0.490594 -1.265606
    32 1.887164 0.012878 0.000000 0.124915 0.285383 -0.397432
    33 1.001873 -0.000270 0.000000 -0.034719 0.000743 -0.071339
    34 -1.123359 -2.195092 -0.278957 -0.208864 0.033771 -0.106283
    35 0.010771 -0.963791 0.000001 -0.580307 0.023406 0.035690
    36 -0.010412 -0.631916 0.000000 -1.043753 0.000000 0.000000
    37 0.000000 -0.359713 0.000000 0.000000 0.000000 0.000000
    38 -0.170478 -2.636148 -0.277655 -0.530743 0.075354 0.129527
    39 0.010599 -1.261177 0.000002 -1.252346 0.000000 0.000000
    40 -0.000002 -0.943233 0.000000 -1.208493 0.000000 0.000000
    41 -0.827562 -2.508972 -0.277656 0.032257 0.011706 -0.024514
    42 0.000001 -1.292972 0.000000 -0.322196 -0.048813 0.033389
    43 -0.000002 -0.752466 -0.000002 -0.876587 -0.009049 0.017023
    44 0.444213 -2.561962 -0.277655 -0.432451 0.143605 0.180950
    45 0.021022 -1.208187 0.000001 -0.966197 0.000000 0.000000
    46 0.010597 -0.741867 -0.000002 -1.240102 0.000000 0.000000
    47 1.047446 -2.222822 -0.277655 -0.287540 0.038255 0.161483
    48 0.000000 -0.996224 -0.000001 -0.664029 0.000000 0.000000
    49 0.000000 -0.614691 0.000000 -1.344689 0.000000 0.000000
    50 -0.308256 -0.007814 0.307165 -0.987918 -0.823553 -1.831620
    51 1.978378 0.019544 0.000000 0.099985 0.407896 0.869471
    52 0.980611 0.058421 -0.012628 0.185445 -0.212474 0.577857
  time 5
    0 14.150201 -5.079942 -11.605795 0.491980 -2.167757 -0.889874
    1 -0.021283 -8.563257 -0.000750 0.388754 0.372983 -0.392359
    2 -0.350898 -2.752587 0.514683 0.536110 1.767884 0.542634
    3 0.007813 -5.673157 4.827296 1.570796 0.000000 0.000000
    4 0.000000 2.240248 4.862545 -1.570796 0.000000 0.000000
    5 0.000000 -0.030803 -0.185498 0.000000 0.000000 0.000000
    6 0.000000 -1.489114 1.895751 0.087266 0.000000 0.000000
    7 0.000000 -6.270583 1.350241 1.570796 0.000000 0.000000
    8 0.000000 5.114959 2.564909 0.000000 0.000000 0.000000
    9 0.000000 4.784919 4.090397 -1.570796 -3.141592 -0.000001
    10 -14.736185 -5.957644 -11.920897 0.696253 2.040686 1.105710
    11 0.089929 -8.543166 0.000003 0.211467 -0.397409 0.143708
    12 0.431291 -2.480750 0.566680 1.315037 -1.359682 -1.195261
    13 0.000000 -5.680965 4.733542 1.570796 0.000000 0.000000
    14 0.000001 2.240247 4.862545 -1.570796 0.000000 0.000000
    15 0.000000 -0.030803 -0.185497 0.000000 0.000000 0.000000
    16 0.000000 -1.489114 1.895751 0.087266 0.000000 0.000000
    17 0.000000 -6.270579 1.350240 1.570796 0.000000 0.000000
    18 0.000000 0.355522 -2.249654 -1.570796 -3.141592 1.570796
    19 0.000001 5.114957 2.564910 0.000000 0.000000 0.000000
    20 0.000001 4.784917 4.090397 -1.570796 -3.141592 -0.000001
    21 -0.003480 -0.404827 0.000000 -0.000001 0.000000 0.000000
    22 -0.519309 -2.501154 -0.278957 -0.055823 0.159103 -0.101314
    23 -0.010598 -1.208184 -0.000001 -1.297208 -0.173311 -0.018970
    24 -0.000001 -0.763066 0.000000 -0.764828 -0.064118 0.059360
    25 0.105982 -2.607132 -0.278958 -0.243330 -0.074707 0.002974
    26 0.000000 -1.250579 0.000001 -0.787802 0.000000 0.000000
    27 -0.000001 -0.932635 0.000001 -1.655650 0.000000 0.000000
    28 0.763065 -2.490555 -0.278958 -0.118666 0.173955 0.234657
    29 -0.012322 -1.280917 0.000000 -0.397870 -0.078283 -0.101829
    30 -0.001695 -0.738091 0.129482 -1.554481 0.010997 0.011408
    31 0.354567 0.016267 0.318133 0.332140 -0.490594 -1.265606
    32 1.887164 0.012878 0.000000 0.145046 0.269432 -0.387367
    33 1.001873 -0.000270 0.000000 -0.034707 -0.001210 -0.128069
    34 -1.123359 -2.195092 -0.278957 -0.208864 0.033771 -0.106283
    35 0.010771 -0.963791 0.000001 -0.580307 0.023406 0.035690
    36 -0.010412 -0.631916 0.000000 -1.043753 0.000000 0.000000
    37 0.000000 -0.359713 0.000000 0.000000 0.000000 0.000000
    38 -0.170478 -2.636148 -0.277655 -0.530743 0.075354 0.129527
    39 0.010599 -1.261177 0.000002 -1.252346 0.000000 0.000000
    40 -0.000002 -0.943233 0.000000 -1.208493 0.000000 0.000000
    41 -0.827562 -2.508972 -0.277656 0.032257 0.011706 -0.024514
    42 0.000001 -1.292972 0.000000 -0.322196 -0.048813 0.033389
    43 -0.000002 -0.752466 -0.000002 -0.876587 -0.009049 0.017023
    44 0.444213 -2.561962 -0.277655 -0.432451 0.143605 0.180950
    45 0.021022 -1.208187 0.000001 -0.966197 0.000000 0.000000
    46 0.010597 -0.741867 -0.000002 -1.240102 0.000000 0.000000
    47 1.047446 -2.222822 -0.277655 -0.287540 0.038255 0.161483
    48 0.000000 -0.996224 -0.000001 -0.664029 0.000000 0.000000
    49 0.000000 -0.614691 0.000000 -1.344689 0.000000 0.000000
    50 -0.308256 -0.007814 0.307165 -0.987918 -0.823553 -1.831620
    51 1.978378 0.019544 0.000000 0.099985 0.407896 0.869471
    52 0.980611 0.058421 -0.012628 0.185445 -0.212474 0.577857
  time 6
    0 14.150201 -5.365107 -11.496417 0.488494 -2.166289 -0.886823
    1 -0.021283 -8.563257 -0.000750 0.366083 0.389696 -0.442951
    2 -0.350898 -2.752587 0.514683 0.536110 1.767884 0.542634
    3 0.007813 -5.673157 4.850734 1.570796 0.000000 0.000000
    4 0.000000 2.240248 4.862545 -1.570796 0.000000 0.000000
    5 0.000000 -0.030803 -0.185498 0.000000 0.000000 0.000000
    6 0.000000 -1.489114 1.895751 0.087266 0.000000 0.000000
    7 0.000000 -6.270583 1.350241 1.570796 0.000000 0.000000
    8 0.000000 5.114959 2.564909 0.000000 0.000000 0.000000
    9 0.000000 4.784919 4.090397 -1.570796 -3.141592 -0.000001
    10 -14.743998 -5.981083 -11.924803 0.697648 2.041932 1.107015
    11 0.089929 -8.543166 0.000003 0.214723 -0.401330 0.147441
    12 0.431291 -2.480750 0.566680 1.315037 -1.359682 -1.195261
    13 0.000000 -5.680965 4.733542 1.570796 0.000000 0.000000
    14 0.000001 2.240247 4.862545 -1.570796 0.000000 0.000000
    15 0.000000 -0.030803 -0.185497 0.000000 0.000000 0.000000
    16 0.000000 -1.489114 1.895751 0.087266 0.000000 0.000000
    17 0.000000 -6.270579 1.350240 1.570796 0.000000 0.000000
    18 0.000000 0.355522 -2.249654 -1.570796 -3.141592 1.570796
    19 0.000001 5.114957 2.564910 0.000000 0.000000 0.000000
    20 0.000001 4.784917 4.090397 -1.570796 -3.141592 -0.000001
    21 -0.003480 -0.404827 0.000000 -0.000001 0.000000 0.000000
    22 -0.519309 -2.501154 -0.278957 -0.055823 0.159103 -0.101314
    23 -0.010598 -1.208184 -0.000001 -1.297208 -0.173311 -0.018970
    24 -0.000001 -0.763066 0.000000 -0.764828 -0.064118 0.059360
    25 0.105982 -2.607132 -0.278958 -0.243330 -0.074707 0.002974
    26 0.000000 -1.250579 0.000001 -0.787802 0.000000 0.000000
    27 -0.000001 -0.932635 0.000001 -1.655650 0.000000 0.000000
    28 0.763065 -2.490555 -0.278958 -0.118666 0.173955 0.234657
    29 -0.012322 -1.280917 0.000000 -0.397870 -0.078283 -0.101829
    30 -0.001695 -0.738091 0.129482 -1.554481 0.010997 0.011408
    31 0.354567 0.016267 0.318133 0.332140 -0.490594 -1.265606
    32 1.887164 0.012878 0.000000 0.165176 0.253480 -0.377303
    33 1.001873 -0.000270 0.000000 -0.034695 -0.002876 -0.175596
    34 -1.123359 -2.195092 -0.278957 -0.208864 0.033771 -0.106283
    35 0.010771 -0.963791 0.000001 -0.580307 0.023406 0.035690
    36 -0.010412 -0.631916 0.000000 -1.043753 0.000000 0.000000
    37 0.000000 -0.359713 0.000000 0.000000 0.000000 0.000000
    38 -0.170478 -2.636148 -0.277655 -0.530743 0.075354 0.129527
    39 0.010599 -1.261177 0.000002 -1.252346 0.000000 0.000000
    40 -0.000002 -0.943233 0.000000 -1.208493 0.000000 0.000000
    41 -0.827562 -2.508972 -0.277656 0.032257 0.011706 -0.024514
    42 0.000001 -1.292972 0.000000 -0.322196 -0.048813 0.033389
    43 -0.000002 -0.752466 -0.000002 -0.876587 -0.009049 0.017023
    44 0.444213 -2.561962 -0.277655 -0.432451 0.143605 0.180950
    45 0.021022 -1.208187 0.000001 -0.966197 0.000000 0.000000
    46 0.010597 -0.741867 -0.000002 -1.240102 0.000000 0.000000
    47 1.047446 -2.222822 -0.277655 -0.287540 0.038255 0.161483
    48 0.000000 -0.996224 -0.000001 -0.664029 0.000000 0.000000
    49 0.000000 -0.614691 0.000000 -1.344689 0.000000 0.000000
    50 -0.308256 -0.007814 0.307165 -0.987918 -0.823553 -1.831620
    51 1.978378 0.019544 0.000000 0.099985 0.407896 0.869471
    52 0.980611 0.058421 -0.012628 0.185445 -0.212474 0.577857
  time 7
    0 14.150201 -5.486204 -11.441727 0.497067 -2.175262 -0.893307
    1 -0.021283 -8.563257 -0.000750 0.341170 0.403347 -0.494238
    2 -0.350898 -2.752587 0.514683 0.536110 1.767884 0.542634
    3 0.011719 -5.669251 4.878079 1.570796 0.000000 0.000000
    4 0.000000 2.240248 4.862545 -1.570796 0.000000 0.000000
    5 0.000000 -0.030803 -0.185498 0.000000 0.000000 0.000000
    6 0.000000 -1.489114 1.895751 0.087266 0.000000 0.000000
    7 0.000000 -6.270583 1.350241 1.570796 0.000000 0.000000
    8 0.000000 5.114959 2.564909 0.000000 0.000000 0.000000
    9 0.000000 4.784919 4.090397 -1.570796 -3.141592 -0.000001
    10 -14.747905 -5.992802 -11.924803 0.698140 2.042411 1.107481
    11 0.089929 -8.543166 0.000003 0.217205 -0.403748 0.150094
    12 0.431291 -2.480750 0.566680 1.315037 -1.359682 -1.195261
    13 0.000000 -5.680965 4.733542 1.570796 0.000000 0.000000
    14 0.000001 2.240247 4.862545 -1.570796 0.000000 0.000000
    15 0.000000 -0.030803 -0.185497 0.000000 0.000000 0.000000
    16 0.000000 -1.489114 1.895751 0.087266 0.000000 0.000000
    17 0.000000 -6.270579 1.350240 1.570796 0.000000 0.000000
    18 0.000000 0.355522 -2.249654 -1.570796 -3.141592 1.570796
    19 0.000001 5.114957 2.564910 0.000000 0.000000 0.000000
    20 0.000001 4.784917 4.090397 -1.570796 -3.141592 -0.000001
    21 -0.003480 -0.404827 0.000000 -0.000001 0.000000 0.000000
    22 -0.519309 -2.501154 -0.278957 -0.055823 0.159103 -0.101314
    23 -0.010598 -1.208184 -0.000001 -1.297208 -0.173311 -0.018970
    24 -0.000001 -0.763066 0.000000 -0.764828 -0.064118 0.059360
    25 0.105982 -2.607132 -0.278958 -0.243330 -0.074707 0.002974
    26 0.000000 -1.250579 0.000001 -0.787802 0.000000 0.000000
    27 -0.000001 -0.932635 0.000001 -1.655650 0.000000 0.000000
    28 0.763065 -2.490555 -0.278958 -0.118666 0.173955 0.234657
    29 -0.012322 -1.280917 0.000000 -0.397870 -0.078283 -0.101829
    30 -0.001695 -0.738091 0.129482 -1.554481 0.010997 0.011408
    31 0.354567 0.016267 0.318133 0.332140 -0.490594 -1.265606
    32 1.887164 0.012878 0.000000 0.174308 0.246229 -0.372719
    33 1.001873 -0.000270 0.000000 -0.034695 -0.003571 -0.195513
    34 -1.123359 -2.195092 -0.278957 -0.208864 0.033771 -0.106283
    35 0.010771 -0.963791 0.000001 -0.580307 0.023406 0.035690
    36 -0.010412 -0.631916 0.000000 -1.043753 0.000000 0.000000
    37 0.000000 -0.359713 0.000000 0.000000 0.000000 0.000000
    38 -0.170478 -2.636148 -0.277655 -0.530743 0.075354 0.129527
    39 0.010599 -1.261177 0.000002 -1.252346 0.000000 0.000000
    40 -0.000002 -0.943233 0.000000 -1.208493 0.000000 0.000000
    41 -0.827562 -2.508972 -0.277656 0.032257 0.011706 -0.024514
    42 0.000001 -1.292972 0.000000 -0.322196 -0.048813 0.033389
    43 -0.000002 -0.752466 -0.000002 -0.876587 -0.009049 0.017023
    44 0.444213 -2.561962 -0.277655 -0.432451 0.143605 0.180950
    45 0.021022 -1.208187 0.000001 -0.966197 0.000000 0.000000
    46 0.010597 -0.741867 -0.000002 -1.240102 0.000000 0.000000
    47 1.047446 -2.222822 -0.277655 -0.287540 0.038255 0.161483
    48 0.000000 -0.996224 -0.000001 -0.664029 0.000000 0.000000
    49 0.000000 -0.614691 0.000000 -1.344689 0.000000 0.000000
    50 -0.308256 -0.007814 0.307165 -0.987918 -0.823553 -1.831620
    51 1.978378 0.019544 0.000000 0.099985 0.407896 0.869471
    52 0.980611 0.058421 -0.012628 0.185445 -0.212474 0.577857
  time 8
    0 14.150201 -5.384638 -11.453447 0.520053 -2.197041 -0.910950
    1 -0.021283 -8.563257 -0.000750 0.316343 0.409265 -0.538463
    2 -0.350898 -2.752587 0.514683 0.536110 1.767884 0.542634
    3 0.015625 -5.669251 4.901517 1.570796 0.000000 0.000000
    4 0.000000 2.240248 4.862545 -1.570796 0.000000 0.000000
    5 0.000000 -0.030803 -0.185498 0.000000 0.000000 0.000000
    6 0.000000 -1.489114 1.895751 0.087266 0.000000 0.000000
    7 0.000000 -6.270583 1.350241 1.570796 0.000000 0.000000
    8 0.000000 5.114959 2.564909 0.000000 0.000000 0.000000
    9 0.000000 4.784919 4.090397 -1.570796 -3.141592 -0.000001
    10 -14.747905 -5.996708 -11.924803 0.698386 2.042603 1.107667
    11 0.089929 -8.543166 0.000003 0.218720 -0.403901 0.151033
    12 0.431291 -2.480750 0.566680 1.315037 -1.359682 -1.195261
    13 0.000000 -5.680965 4.733542 1.570796 0.000000 0.000000
    14 0.000001 2.240247 4.862545 -1.570796 0.000000 0.000000
    15 0.000000 -0.030803 -0.185497 0.000000 0.000000 0.000000
    16 0.000000 -1.489114 1.895751 0.087266 0.000000 0.000000
    17 0.000000 -6.270579 1.350240 1.570796 0.000000 0.000000
    18 0.000000 0.355522 -2.249654 -1.570796 -3.141592 1.570796
    19 0.000001 5.114957 2.564910 0.000000 0.000000 0.000000
    20 0.000001 4.784917 4.090397 -1.570796 -3.141592 -0.000001
    21 -0.003480 -0.404827 0.000000 -0.000001 0.000000 0.000000
    22 -0.519309 -2.501154 -0.278957 -0.055823 0.159103 -0.101314
    23 -0.010598 -1.208184 -0.000001 -1.297208 -0.173311 -0.018970
    24 -0.000001 -0.763066 0.000000 -0.764828 -0.064118 0.059360
    25 0.105982 -2.607132 -0.278958 -0.243330 -0.074707 0.002974
    26 0.000000 -1.250579 0.000001 -0.787802 0.000000 0.000000
    27 -0.000001 -0.932635 0.000001 -1.655650 0.000000 0.000000
    28 0.763065 -2.490555 -0.278958 -0.118666 0.173955 0.234657
    29 -0.012322 -1.280917 0.000000 -0.397870 -0.078283 -0.101829
    30 -0.001695 -0.738091 0.129482 -1.554481 0.010997 0.011408
    31 0.354567 0.016267 0.318133 0.332140 -0.490594 -1.265606
    32 1.887164 0.012878 0.000000 0.173648 0.246277 -0.373079
    33 1.001873 -0.000270 0.000000 -0.034719 -0.003200 -0.184835
    34 -1.123359 -2.195092 -0.278957 -0.208864 0.033771 -0.106283
    35 0.010771 -0.963791 0.000001 -0.580307 0.023406 0.035690
    36 -0.010412 -0.631916 0.000000 -1.043753 0.000000 0.000000
    37 0.000000 -0.359713 0.000000 0.000000 0.000000 0.000000
    38 -0.170478 -2.636148 -0.277655 -0.530743 0.075354 0.129527
    39 0.010599 -1.261177 0.000002 -1.252346 0.000000 0.000000
    40 -0.000002 -0.943233 0.000000 -1.208493 0.000000 0.000000
    41 -0.827562 -2.508972 -0.277656 0.032257 0.011706 -0.024514
    42 0.000001 -1.292972 0.000000 -0.322196 -0.048813 0.033389
    43 -0.000002 -0.752466 -0.000002 -0.876587 -0.009049 0.017023
    44 0.444213 -2.561962 -0.277655 -0.432451 0.143605 0.180950
    45 0.021022 -1.208187 0.000001 -0.966197 0.000000 0.000000
    46 0.010597 -0.741867 -0.000002 -1.240102 0.000000 0.000000
    47 1.047446 -2.222822 -0.277655 -0.287540 0.038255 0.161483
    48 0.000000 -0.996224 -0.000001 -0.664029 0.000000 0.000000
    49 0.000000 -0.614691 0.000000 -1.344689 0.000000 0.000000
    50 -0.308256 -0.007814 0.307165 -0.987918 -0.823553 -1.831620
    51 1.978378 0.019544 0.000000 0.099985 0.407896 0.869471
    52 0.980611 0.058421 -0.012628 0.185445 -0.212474 0.577857
  time 9
    0 14.150201 -5.091661 -11.500323 0.553307 -2.228283 -0.936602
    1 -0.021283 -8.563257 -0.000750 0.289016 0.400932 -0.580343
    2 -0.350898 -2.752587 0.514683 0.536110 1.767884 0.542634
    3 0.015625 -5.665345 4.924955 1.570796 0.000000 0.000000
    4 0.000000 2.240248 4.862545 -1.570796 0.000000 0.000000
    5 0.000000 -0.030803 -0.185498 0.000000 0.000000 0.000000
    6 0.000000 -1.489114 1.895751 0.087266 0.000000 0.000000
    7 0.000000 -6.270583 1.350241 1.570796 0.000000 0.000000
    8 0.000000 5.114959 2.564909 0.000000 0.000000 0.000000
    9 0.000000 4.784919 4.090397 -1.570796 -3.141592 -0.000001
    10 -14.747905 -5.996708 -11.924803 0.698386 2.042603 1.107667
    11 0.089929 -8.543166 0.000003 0.219397 -0.402221 0.151573
    12 0.431291 -2.480750 0.566680 1.315037 -1.359682 -1.195261
    13 0.000000 -5.680965 4.733542 1.570796 0.000000 0.000000
    14 0.000001 2.240247 4.862545 -1.570796 0.000000 0.000000
    15 0.000000 -0.030803 -0.185497 0.000000 0.000000 0.000000
    16 0.000000 -1.489114 1.895751 0.087266 0.000000 0.000000
    17 0.000000 -6.270579 1.350240 1.570796 0.000000 0.000000
    18 0.000000 0.355522 -2.249654 -1.570796 -3.141592 1.570796
    19 0.000001 5.114957 2.564910 0.000000 0.000000 0.000000
    20 0.000001 4.784917 4.090397 -1.570796 -3.141592 -0.000001
    21 -0.003480 -0.404827 0.000000 -0.000001 0.000000 0.000000
    22 -0.519309 -2.501154 -0.278957 -0.055823 0.159103 -0.101314
    23 -0.010598 -1.208184 -0.000001 -1.297208 -0.173311 -0.018970
    24 -0.000001 -0.763066 0.000000 -0.764828 -0.064118 0.059360
    25 0.105982 -2.607132 -0.278958 -0.243330 -0.074707 0.002974
    26 0.000000 -1.250579 0.000001 -0.787802 0.000000 0.000000
    27 -0.000001 -0.932635 0.000001 -1.655650 0.000000 0.000000
    28 0.763065 -2.490555 -0.278958 -0.118666 0.173955 0.234657
    29 -0.012322 -1.280917 0.000000 -0.310081 -0.078283 -0.101829
    30 -0.001695 -0.738091 0.129482 -1.558165 0.010997 0.011408
    31 0.354567 0.016267 0.318133 0.332140 -0.490594 -1.265606
    32 1.887164 0.012878 0.000000 0.171758 0.246397 -0.374067
    33 1.001873 -0.000270 0.000000 -0.034767 -0.002313 -0.159418
    34 -1.123359 -2.195092 -0.278957 -0.208864 0.033771 -0.106283
    35 0.010771 -0.963791 0.000001 -0.580307 0.023406 0.035690
    36 -0.010412 -0.631916 0.000000 -1.043753 0.000000 0.000000
    37 0.000000 -0.359713 0.000000 0.000000 0.000000 0.000000
    38 -0.170478 -2.636148 -0.277655 -0.530743 0.075354 0.129527
    39 0.010599 -1.261177 0.000002 -1.252346 0.000000 0.000000
    40 -0.000002 -0.943233 0.000000 -1.208493 0.000000 0.000000
    41 -0.827562 -2.508972 -0.277656 0.032257 0.011706 -0.024514
    42 0.000001 -1.292972 0.000000 -0.322196 -0.048813 0.033389
    43 -0.000002 -0.752466 -0.000002 -0.876587 -0.009049 0.017023
    44 0.444213 -2.561962 -0.277655 -0.432451 0.143605 0.180950
    45 0.021022 -1.208187 0.000001 -0.966197 0.000000 0.000000
    46 0.010597 -0.741867 -0.000002 -1.240102 0.000000 0.000000
    47 1.047446 -2.222822 -0.277655 -0.287540 0.038255 0.161483
    48 0.000000 -0.996224 -0.000001 -0.664029 0.000000 0.000000
    49 0.000000 -0.614691 0.000000 -1.344689 0.000000 0.000000
    50 -0.308256 -0.007814 0.307165 -0.987918 -0.823553 -1.831620
    51 1.978378 0.019544 0.000000 0.099985 0.407896 0.869471
    52 0.980611 0.058421 -0.012628 0.185445 -0.212474 0.577857
  time 10
    0 14.150201 -4.689305 -11.570638 0.592026 -2.264664 -0.966546
    1 -0.021283 -8.563257 -0.000750 0.257121 0.380085 -0.626073
    2 -0.350898 -2.752587 0.514683 0.536110 1.767884 0.542634
    3 0.019532 -5.665345 4.944487 1.570796 0.000000 0.000000
    4 0.000000 2.240248 4.862545 -1.570796 0.000000 0.000000
    5 0.000000 -0.030803 -0.185498 0.000000 0.000000 0.000000
    6 0.000000 -1.489114 1.895751 0.087266 0.000000 0.000000
    7 0.000000 -6.270583 1.350241 1.570796 0.000000 0.000000
    8 0.000000 5.114959 2.564909 0.000000 0.000000 0.000000
    9 0.000000 4.784919 4.090397 -1.570796 -3.141592 -0.000001
    10 -14.747905 -5.992802 -11.924803 0.698140 2.042411 1.107481
    11 0.089929 -8.543166 0.000003 0.219397 -0.399318 0.151878
    12 0.431291 -2.480750 0.566680 1.315037 -1.359682 -1.195261
    13 0.000000 -5.680965 4.733542 1.570796 0.000000 0.000000
    14 0.000001 2.240247 4.862545 -1.570796 0.000000 0.000000
    15 0.000000 -0.030803 -0.185497 0.000000 0.000000 0.000000
    16 0.000000 -1.489114 1.895751 0.087266 0.000000 0.000000
    17 0.000000 -6.270579 1.350240 1.570796 0.000000 0.000000
    18 0.000000 0.355522 -2.249654 -1.570796 -3.141592 1.570796
    19 0.000001 5.114957 2.564910 0.000000 0.000000 0.000000
    20 0.000001 4.784917 4.090397 -1.570796 -3.141592 -0.000001
    21 -0.003480 -0.404827 0.000000 -0.000001 0.000000 0.000000
    22 -0.519309 -2.501154 -0.278957 -0.055823 0.159103 -0.101314
    23 -0.010598 -1.208184 -0.000001 -1.297208 -0.173311 -0.018970
    24 -0.000001 -0.763066 0.000000 -0.764828 -0.064118 0.059360
    25 0.105982 -2.607132 -0.278958 -0.243330 -0.074707 0.002974
    26 0.000000 -1.250579 0.000001 -0.787802 0.000000 0.000000
    27 -0.000001 -0.932635 0.000001 -1.655650 0.000000 0.000000
    28 0.763065 -2.490555 -0.278958 -0.118666 0.173955 0.234657
    29 -0.012322 -1.280917 0.000000 -0.116952 -0.078283 -0.101829
    30 -0.001695 -0.738091 0.129482 -1.565046 0.010997 0.011408
    31 0.354567 0.016267 0.318133 0.332140 -0.490594 -1.265606
    32 1.887164 0.012878 0.000000 0.168843 0.246577 -0.375625
    33 1.001873 -0.000270 0.000000 -0.034827 -0.001246 -0.129076
    34 -1.123359 -2.195092 -0.278957 -0.208864 0.033771 -0.106283
    35 0.010771 -0.963791 0.000001 -0.580307 0.023406 0.035690
    36 -0.010412 -0.631916 0.000000 -1.043753 0.000000 0.000000
    37 0.000000 -0.359713 0.000000 0.000000 0.000000 0.000000
    38 -0.170478 -2.636148 -0.277655 -0.530743 0.075354 0.129527
    39 0.010599 -1.261177 0.000002 -1.252346 0.000000 0.000000
    40 -0.000002 -0.943233 0.000000 -1.208493 0.000000 0.000000
    41 -0.827562 -2.508972 -0.277656 0.032257 0.011706 -0.024514
    42 0.000001 -1.292972 0.000000 -0.322196 -0.048813 0.033389
    43 -0.000002 -0.752466 -0.000002 -0.876587 -0.009049 0.017023
    44 0.444213 -2.561962 -0.277655 -0.432451 0.143605 0.180950
    45 0.021022 -1.208187 0.000001 -0.966197 0.000000 0.000000
    46 0.010597 -0.741867 -0.000002 -1.240102 0.000000 0.000000
    47 1.047446 -2.222822 -0.277655 -0.287540 0.038255 0.161483
    48 0.000000 -0.996224 -0.000001 -0.664029 0.000000 0.000000
    49 0.000000 -0.614691 0.000000 -1.344689 0.000000 0.000000
    50 -0.308256 -0.007814 0.307165 -0.987918 -0.823553 -1.831620
    51 1.978378 0.019544 0.000000 0.099985 0.407896 0.869471
    52 0.980611 0.058421 -0.012628 0.185445 -0.212474 0.577857
  time 11
    0 14.150201 -4.251791 -11.640952 0.631592 -2.301615 -0.997063
    1 -0.021283 -8.563257 -0.000750 0.223803 0.354645 -0.669864
    2 -0.350898 -2.752587 0.514683 0.536110 1.767884 0.542634
    3 0.019532 -5.661438 4.960112 1.570796 0.000000 0.000000
    4 0.000000 2.240248 4.862545 -1.570796 0.000000 0.000000
    5 0.000000 -0.030803 -0.185498 0.000000 0.000000 0.000000
    6 0.000000 -1.489114 1.895751 0.087266 0.000000 0.000000
    7 0.000000 -6.270583 1.350241 1.570796 0.000000 0.000000
    8 0.000000 5.114959 2.564909 0.000000 0.000000 0.000000
    9 0.000000 4.784919 4.090397 -1.570796 -3.141592 -0.000001
    10 -14.743998 -5.988895 -11.924803 0.697894 2.042124 1.107294
    11 0.089929 -8.543166 0.000003 0.218881 -0.395754 0.152113
    12 0.431291 -2.480750 0.566680 1.315037 -1.359682 -1.195261
    13 0.000000 -5.680965 4.733542 1.570796 0.000000 0.000000
    14 0.000001 2.240247 4.862545 -1.570796 0.000000 0.000000
    15 0.000000 -0.030803 -0.185497 0.000000 0.000000 0.000000
    16 0.000000 -1.489114 1.895751 0.087266 0.000000 0.000000
    17 0.000000 -6.270579 1.350240 1.570796 0.000000 0.000000
    18 0.000000 0.355522 -2.249654 -1.570796 -3.141592 1.570796
    19 0.000001 5.114957 2.564910 0.000000 0.000000 0.000000
    20 0.000001 4.784917 4.090397 -1.570796 -3.141592 -0.000001
    21 -0.003480 -0.404827 0.000000 -0.000001 0.000000 0.000000
    22 -0.519309 -2.501154 -0.278957 -0.055823 0.159103 -0.101314
    23 -0.010598 -1.208184 -0.000001 -1.297208 -0.173311 -0.018970
    24 -0.000001 -0.763066 0.000000 -0.764828 -0.064118 0.059360
    25 0.105982 -2.607132 -0.278958 -0.243330 -0.074707 0.002974
    26 0.000000 -1.250579 0.000001 -0.787802 0.000000 0.000000
    27 -0.000001 -0.932635 0.000001 -1.655650 0.000000 0.000000
    28 0.763065 -2.490555 -0.278958 -0.118666 0.173955 0.234657
    29 -0.012322 -1.280917 0.000000 0.076157 -0.078283 -0.101829
    30 -0.001695 -0.738091 0.129482 -1.568775 0.010997 0.011408
    31 0.354567 0.016267 0.318133 0.332140 -0.490594 -1.265606
    32 1.887164 0.012878 0.000000 0.165063 0.246805 -0.377662
    33 1.001873 -0.000270 0.000000 -0.034875 -0.000372 -0.103622
    34 -1.123359 -2.195092 -0.278957 -0.208864 0.033771 -0.106283
    35 0.010771 -0.963791 0.000001 -0.580307 0.023406 0.035690
    36 -0.010412 -0.631916 0.000000 -1.043753 0.000000 0.000000
    37 0.000000 -0.359713 0.000000 0.000000 0.000000 0.000000
    38 -0.170478 -2.636148 -0.277655 -0.530743 0.075354 0.129527
    39 0.010599 -1.261177 0.000002 -1.252346 0.000000 0.000000
    40 -0.000002 -0.943233 0.000000 -1.208493 0.000000 0.000000
    41 -0.827562 -2.508972 -0.277656 0.032257 0.011706 -0.024514
    42 0.000001 -1.292972 0.000000 -0.322196 -0.048813 0.033389
    43 -0.000002 -0.752466 -0.000002 -0.876587 -0.009049 0.017023
    44 0.444213 -2.561962 -0.277655 -0.432451 0.143605 0.180950
    45 0.021022 -1.208187 0.000001 -0.966197 0.000000 0.000000
    46 0.010597 -0.741867 -0.000002 -1.240102 0.000000 0.000000
    47 1.047446 -2.222822 -0.277655 -0.287540 0.038255 0.161483
    48 0.000000 -0.996224 -0.000001 -0.664029 0.000000 0.000000
    49 0.000000 -0.614691 0.000000 -1.344689 0.000000 0.000000
    50 -0.308256 -0.007814 0.307165 -0.987918 -0.823553 -1.831620
    51 1.978378 0.019544 0.000000 0.099985 0.407896 0.869471
    52 0.980611 0.058421 -0.012628 0.185445 -0.212474 0.577857
  time 12
    0 14.150201 -3.853342 -11.695641 0.666919 -2.334733 -1.024336
    1 -0.021283 -8.563257 -0.000750 0.192123 0.332440 -0.706042
    2 -0.350898 -2.752587 0.514683 0.536110 1.767884 0.542634
    3 0.019532 -5.661438 4.967925 1.570796 0.000000 0.000000
    4 0.000000 2.240248 4.862545 -1.570796 0.000000 0.000000
    5 0.000000 -0.030803 -0.185498 0.000000 0.000000 0.000000
    6 0.000000 -1.489114 1.895751 0.087266 0.000000 0.000000
    7 0.000000 -6.270583 1.350241 1.570796 0.000000 0.000000
    8 0.000000 5.114959 2.564909 0.000000 0.000000 0.000000
    9 0.000000 4.784919 4.090397 -1.570796 -3.141592 -0.000001
    10 -14.743998 -5.984989 -11.924803 0.697730 2.041932 1.107015
    11 0.089929 -8.543166 0.000003 0.217979 -0.392138 0.152442
    12 0.431291 -2.480750 0.566680 1.315037 -1.359682 -1.195261
    13 0.000000 -5.680965 4.733542 1.570796 0.000000 0.000000
    14 0.000001 2.240247 4.862545 -1.570796 0.000000 0.000000
    15 0.000000 -0.030803 -0.185497 0.000000 0.000000 0.000000
    16 0.000000 -1.489114 1.895751 0.087266 0.000000 0.000000
    17 0.000000 -6.270579 1.350240 1.570796 0.000000 0.000000
    18 0.000000 0.355522 -2.249654 -1.570796 -3.141592 1.570796
    19 0.000001 5.114957 2.564910 0.000000 0.000000 0.000000
    20 0.000001 4.784917 4.090397 -1.570796 -3.141592 -0.000001
    21 -0.003480 -0.404827 0.000000 -0.000001 0.000000 0.000000
    22 -0.519309 -2.501154 -0.278957 -0.055823 0.159103 -0.101314
    23 -0.010598 -1.208184 -0.000001 -1.297208 -0.173311 -0.018970
    24 -0.000001 -0.763066 0.000000 -0.764828 -0.064118 0.059360
    25 0.105982 -2.607132 -0.278958 -0.243330 -0.074707 0.002974
    26 0.000000 -1.250579 0.000001 -0.787802 0.000000 0.000000
    27 -0.000001 -0.932635 0.000001 -1.655650 0.000000 0.000000
    28 0.763065 -2.490555 -0.278958 -0.118666 0.173955 0.234657
    29 -0.012322 -1.280917 0.000000 0.163947 -0.078283 -0.101829
    30 -0.001695 -0.738091 0.129482 -1.503119 0.010997 0.011408
    31 0.354567 0.016267 0.318133 0.332140 -0.490594 -1.265606
    32 1.887164 0.012878 0.000000 0.160576 0.247080 -0.380058
    33 1.001873 -0.000270 0.000000 -0.034899 0.000000 -0.092945
    34 -1.123359 -2.195092 -0.278957 -0.208864 0.033771 -0.106283
    35 0.010771 -0.963791 0.000001 -0.580307 0.023406 0.035690
    36 -0.010412 -0.631916 0.000000 -1.043753 0.000000 0.000000
    37 0.000000 -0.359713 0.000000 0.000000 0.000000 0.000000
    38 -0.170478 -2.636148 -0.277655 -0.530743 0.075354 0.129527
    39 0.010599 -1.261177 0.000002 -1.252346 0.000000 0.000000
    40 -0.000002 -0.943233 0.000000 -1.208493 0.000000 0.000000
    41 -0.827562 -2.508972 -0.277656 0.032257 0.011706 -0.024514
    42 0.000001 -1.292972 0.000000 -0.322196 -0.048813 0.033389
    43 -0.000002 -0.752466 -0.000002 -0.876587 -0.009049 0.017023
    44 0.444213 -2.561962 -0.277655 -0.432451 0.143605 0.180950
    45 0.021022 -1.208187 0.000001 -0.966197 0.000000 0.000000
    46 0.010597 -0.741867 -0.000002 -1.240102 0.000000 0.000000
    47 1.047446 -2.222822 -0.277655 -0.287540 0.038255 0.161483
    48 0.000000 -0.996224 -0.000001 -0.664029 0.000000 0.000000
    49 0.000000 -0.614691 0.000000 -1.344689 0.000000 0.000000
    50 -0.308256 -0.007814 0.307165 -0.987918 -0.823553 -1.831620
    51 1.978378 0.019544 0.000000 0.099985 0.407896 0.869471
    52 0.980611 0.058421 -0.012628 0.185445 -0.212474 0.577857
  time 13
    0 14.150201 -3.568177 -11.715173 0.693390 -2.359612 -1.044744
    1 -0.021283 -8.563257 -0.000750 0.165184 0.321393 -0.728849
    2 -0.350898 -2.752587 0.514683 0.536110 1.767884 0.542634
    3 0.019532 -5.661438 4.971831 1.570796 0.000000 0.000000
    4 0.000000 2.240248 4.862545 -1.570796 0.000000 0.000000
    5 0.000000 -0.030803 -0.185498 0.000000 0.000000 0.000000
    6 0.000000 -1.489114 1.895751 0.087266 0.000000 0.000000
    7 0.000000 -6.270583 1.350241 1.570796 0.000000 0.000000
    8 0.000000 5.114959 2.564909 0.000000 0.000000 0.000000
    9 0.000000 4.784919 4.090397 -1.570796 -3.141592 -0.000001
    10 -14.743998 -5.981083 -11.924803 0.697648 2.041932 1.107015
    11 0.089929 -8.543166 0.000003 0.216850 -0.389006 0.153052
    12 0.431291 -2.480750 0.566680 1.315037 -1.359682 -1.195261
    13 0.000000 -5.680965 4.733542 1.570796 0.000000 0.000000
    14 0.000001 2.240247 4.862545 -1.570796 0.000000 0.000000
    15 0.000000 -0.030803 -0.185497 0.000000 0.000000 0.000000
    16 0.000000 -1.489114 1.895751 0.087266 0.000000 0.000000
    17 0.000000 -6.270579 1.350240 1.570796 0.000000 0.000000
    18 0.000000 0.355522 -2.249654 -1.570796 -3.141592 1.570796
    19 0.000001 5.114957 2.564910 0.000000 0.000000 0.000000
    20 0.000001 4.784917 4.090397 -1.570796 -3.141592 -0.000001
    21 -0.003480 -0.404827 0.000000 -0.000001 0.000000 0.000000
    22 -0.519309 -2.501154 -0.278957 -0.055823 0.159103 -0.101314
    23 -0.010598 -1.208184 -0.000001 -1.297208 -0.173311 -0.018970
    24 -0.000001 -0.763066 0.000000 -0.764828 -0.064118 0.059360
    25 0.105982 -2.607132 -0.278958 -0.243330 -0.074707 0.002974
    26 0.000000 -1.250579 0.000001 -0.787802 0.000000 0.000000
    27 -0.000001 -0.932635 0.000001 -1.655650 0.000000 0.000000
    28 0.763065 -2.490555 -0.278958 -0.118666 0.173955 0.234657
    29 -0.012322 -1.280917 0.000000 0.163947 -0.078283 -0.101829
    30 -0.001695 -0.738091 0.129482 -1.358712 0.010997 0.011408
    31 0.354567 0.016267 0.318133 0.332140 -0.490594 -1.265606
    32 1.887164 0.012878 0.000000 0.155589 0.247392 -0.382724
    33 1.001873 -0.000270 0.000000 -0.034899 0.000000 -0.092945
    34 -1.123359 -2.195092 -0.278957 -0.208864 0.033771 -0.106283
    35 0.010771 -0.963791 0.000001 -0.580307 0.023406 0.035690
    36 -0.010412 -0.631916 0.000000 -1.043753 0.000000 0.000000
    37 0.000000 -0.359713 0.000000 0.000000 0.000000 0.000000
    38 -0.170478 -2.636148 -0.277655 -0.530743 0.075354 0.129527
    39 0.010599 -1.261177 0.000002 -1.252346 0.000000 0.000000
    40 -0.000002 -0.943233 0.000000 -1.208493 0.000000 0.000000
    41 -0.827562 -2.508972 -0.277656 0.032257 0.011706 -0.024514
    42 0.000001 -1.292972 0.000000 -0.322196 -0.048813 0.033389
    43 -0.000002 -0.752466 -0.000002 -0.876587 -0.009049 0.017023
    44 0.444213 -2.561962 -0.277655 -0.432451 0.143605 0.180950
    45 0.021022 -1.208187 0.000001 -0.966197 0.000000 0.000000
    46 0.010597 -0.741867 -0.000002 -1.240102 0.000000 0.000000
    47 1.047446 -2.222822 -0.277655 -0.287540 0.038255 0.161483
    48 0.000000 -0.996224 -0.000001 -0.664029 0.000000 0.000000
    49 0.000000 -0.614691 0.000000 -1.344689 0.000000 0.000000
    50 -0.308256 -0.007814 0.307165 -0.987918 -0.823553 -1.831620
    51 1.978378 0.019544 0.000000 0.099985 0.407896 0.869471
    52 0.980611 0.058421 -0.012628 0.185445 -0.212474 0.577857
  time 14
    0 14.150201 -3.388484 -11.703454 0.711855 -2.376824 -1.058953
    1 -0.021283 -8.563257 -0.000750 0.146090 0.329363 -0.732583
    2 -0.350898 -2.752587 0.514683 0.536110 1.767884 0.542634
    3 0.019532 -5.661438 4.971831 1.570796 0.000000 0.000000
    4 0.000000 2.240248 4.862545 -1.570796 0.000000 0.000000
    5 0.000000 -0.030803 -0.185498 0.000000 0.000000 0.000000
    6 0.000000 -1.489114 1.895751 0.087266 0.000000 0.000000
    7 0.000000 -6.270583 1.350241 1.570796 0.000000 0.000000
    8 0.000000 5.114959 2.564909 0.000000 0.000000 0.000000
    9 0.000000 4.784919 4.090397 -1.570796 -3.141592 -0.000001
    10 -14.743998 -5.981083 -11.924803 0.697648 2.041932 1.107015
    11 0.089929 -8.543166 0.000003 0.215690 -0.386995 0.154086
    12 0.431291 -2.480750 0.566680 1.315037 -1.359682 -1.195261
    13 0.000000 -5.680965 4.733542 1.570796 0.000000 0.000000
    14 0.000001 2.240247 4.862545 -1.570796 0.000000 0.000000
    15 0.000000 -0.030803 -0.185497 0.000000 0.000000 0.000000
    16 0.000000 -1.489114 1.895751 0.087266 0.000000 0.000000
    17 0.000000 -6.270579 1.350240 1.570796 0.000000 0.000000
    18 0.000000 0.355522 -2.249654 -1.570796 -3.141592 1.570796
    19 0.000001 5.114957 2.564910 0.000000 0.000000 0.000000
    20 0.000001 4.784917 4.090397 -1.570796 -3.141592 -0.000001
    21 -0.003480 -0.404827 0.000000 -0.000001 0.000000 0.000000
    22 -0.519309 -2.501154 -0.278957 -0.055823 0.159103 -0.101314
    23 -0.010598 -1.208184 -0.000001 -1.297208 -0.173311 -0.018970
    24 -0.000001 -0.763066 0.000000 -0.764828 -0.064118 0.059360
    25 0.105982 -2.607132 -0.278958 -0.243330 -0.074707 0.002974
    26 0.000000 -1.250579 0.000001 -0.787802 0.000000 0.000000
    27 -0.000001 -0.932635 0.000001 -1.655650 0.000000 0.000000
    28 0.763065 -2.490555 -0.278958 -0.118666 0.173955 0.234657
    29 -0.012322 -1.280917 0.000000 0.163947 -0.078283 -0.101829
    30 -0.001695 -0.738091 0.129482 -1.214349 0.010997 0.011408
    31 0.354567 0.016267 0.318133 0.332140 -0.490594 -1.265606
    32 1.887164 0.012878 0.000000 0.150238 0.247728 -0.385570
    33 1.001873 -0.000270 0.000000 -0.034899 0.000000 -0.092945
    34 -1.123359 -2.195092 -0.278957 -0.208864 0.033771 -0.106283
    35 0.010771 -0.963791 0.000001 -0.580307 0.023406 0.035690
    36 -0.010412 -0.631916 0.000000 -1.043753 0.000000 0.000000
    37 0.000000 -0.359713 0.000000 0.000000 0.000000 0.000000
    38 -0.170478 -2.636148 -0.277655 -0.530743 0.075354 0.129527
    39 0.010599 -1.261177 0.000002 -1.252346 0.000000 0.000000
    40 -0.000002 -0.943233 0.000000 -1.208493 0.000000 0.000000
    41 -0.827562 -2.508972 -0.277656 0.032257 0.011706 -0.024514
    42 0.000001 -1.292972 0.000000 -0.322196 -0.048813 0.033389
    43 -0.000002 -0.752466 -0.000002 -0.876587 -0.009049 0.017023
    44 0.444213 -2.561962 -0.277655 -0.432451 0.143605 0.180950
    45 0.021022 -1.208187 0.000001 -0.966197 0.000000 0.000000
    46 0.010597 -0.741867 -0.000002 -1.240102 0.000000 0.000000
    47 1.047446 -2.222822 -0.277655 -0.287540 0.038255 0.161483
    48 0.000000 -0.996224 -0.000001 -0.664029 0.000000 0.000000
    49 0.000000 -0.614691 0.000000 -1.344689 0.000000 0.000000
    50 -0.308256 -0.007814 0.307165 -0.987918 -0.823553 -1.831620
    51 1.978378 0.019544 0.000000 0.099985 0.407896 0.869471
    52 0.980611 0.058421 -0.012628 0.185445 -0.212474 0.577857
  time 15
    0 14.150201 -3.247854 -11.676110 0.726174 -2.390283 -1.070015
    1 -0.021283 -8.563257 -0.000750 0.137254 0.360389 -0.709631
    2 -0.350898 -2.752587 0.514683 0.536110 1.767884 0.542634
    3 0.019532 -5.661438 4.971831 1.570796 0.000000 0.000000
    4 0.000000 2.240248 4.862545 -1.570796 0.000000 0.000000
    5 0.000000 0.039512 -0.478476 0.007359 0.000000 0.000000
    6 0.000000 -1.489114 1.895751 0.087266 0.000000 0.000000
    7 0.000000 -6.270583 1.350241 1.570796 0.000000 0.000000
    8 0.000000 5.114959 2.564909 0.000000 0.000000 0.000000
    9 0.000000 4.784919 4.090397 -1.570796 -3.141592 -0.000001
    10 -14.743998 -5.981083 -11.924803 0.697648 2.041932 1.107015
    11 0.089929 -8.543166 0.000003 0.214014 -0.386002 0.155846
    12 0.431291 -2.480750 0.566680 1.315037 -1.359682 -1.195261
    13 0.000000 -5.680965 4.733542 1.570796 0.000000 0.000000
    14 0.000001 2.240247 4.862545 -1.570796 0.000000 0.000000
    15 0.000000 -0.030803 -0.185497 0.000000 0.000000 0.000000
    16 0.000000 -1.489114 1.895751 0.087266 0.000000 0.000000
    17 0.000000 -6.270579 1.350240 1.570796 0.000000 0.000000
    18 0.000000 0.355522 -2.249654 -1.570796 -3.141592 1.570796
    19 0.000001 5.114957 2.564910 0.000000 0.000000 0.000000
    20 0.000001 4.784917 4.090397 -1.570796 -3.141592 -0.000001
    21 -0.003480 -0.404827 0.000000 -0.000001 0.000000 0.000000
    22 -0.519309 -2.501154 -0.278957 -0.055823 0.159103 -0.101314
    23 -0.010598 -1.208184 -0.000001 -1.297208 -0.173311 -0.018970
    24 -0.000001 -0.763066 0.000000 -0.764828 -0.064118 0.059360
    25 0.105982 -2.607132 -0.278958 -0.243330 -0.074707 0.002974
    26 0.000000 -1.250579 0.000001 -0.787802 0.000000 0.000000
    27 -0.000001 -0.932635 0.000001 -1.655650 0.000000 0.000000
    28 0.763065 -2.490555 -0.278958 -0.118666 0.173955 0.234657
    29 -0.012322 -1.280917 0.000000 0.163947 -0.078283 -0.101829
    30 -0.001695 -0.738091 0.129482 -1.148738 0.010997 0.011408
    31 0.354567 0.016267 0.318133 0.332140 -0.490594 -1.265606
    32 1.887164 0.012878 0.000000 0.144704 0.248063 -0.388536
    33 1.001873 -0.000270 0.000000 -0.034899 0.000000 -0.092945
    34 -1.123359 -2.195092 -0.278957 -0.208864 0.033771 -0.106283
    35 0.010771 -0.963791 0.000001 -0.580307 0.023406 0.035690
    36 -0.010412 -0.631916 0.000000 -1.043753 0.000000 0.000000
    37 0.000000 -0.359713 0.000000 0.000000 0.000000 0.000000
    38 -0.170478 -2.636148 -0.277655 -0.530743 0.075354 0.129527
    39 0.010599 -1.261177 0.000002 -1.252346 0.000000 0.000000
    40 -0.000002 -0.943233 0.000000 -1.208493 0.000000 0.000000
    41 -0.827562 -2.508972 -0.277656 0.032257 0.011706 -0.024514
    42 0.000001 -1.292972 0.000000 -0.322196 -0.048813 0.033389
    43 -0.000002 -0.752466 -0.000002 -0.876587 -0.009049 0.017023
    44 0.444213 -2.561962 -0.277655 -0.432451 0.143605 0.180950
    45 0.021022 -1.208187 0.000001 -0.966197 0.000000 0.000000
    46 0.010597 -0.741867 -0.000002 -1.240102 0.000000 0.000000
    47 1.047446 -2.222822 -0.277655 -0.287540 0.038255 0.161483
    48 0.000000 -0.996224 -0.000001 -0.664029 0.000000 0.000000
    49 0.000000 -0.614691 0.000000 -1.344689 0.000000 0.000000
    50 -0.308256 -0.007814 0.307165 -0.987918 -0.823553 -1.831620
    51 1.978378 0.019544 0.000000 0.099985 0.407896 0.869471
    52 0.980611 0.058421 -0.012628 0.185445 -0.212474 0.577857
  time 16
    0 14.150201 -3.150195 -11.629233 0.736442 -2.399908 -1.077931
    1 -0.021283 -8.563257 -0.000750 0.136090 0.407876 -0.664770
    2 -0.350898 -2.752587 0.514683 0.536110 1.767884 0.542634
    3 0.019532 -5.661438 4.971831 1.570796 0.000000 0.000000
    4 0.000000 2.240248 4.862545 -1.570796 0.000000 0.000000
    5 0.000000 0.230924 -1.267562 0.027109 0.000000 0.000000
    6 0.000000 -1.489114 1.895751 0.087266 0.000000 0.000000
    7 0.000000 -6.270583 1.350241 1.570796 0.000000 0.000000
    8 0.000000 5.114959 2.564909 0.000000 0.000000 0.000000
    9 0.000000 4.784919 4.090397 -1.570796 -3.141592 -0.000001
    10 -14.743998 -5.981083 -11.924803 0.697648 2.041932 1.107015
    11 0.089929 -8.543166 0.000003 0.211531 -0.385594 0.158288
    12 0.431291 -2.480750 0.566680 1.315037 -1.359682 -1.195261
    13 0.000000 -5.680965 4.733542 1.570796 0.000000 0.000000
    14 0.000001 2.240247 4.862545 -1.570796 0.000000 0.000000
    15 0.000000 -0.030803 -0.185497 0.000000 0.000000 0.000000
    16 0.000000 -1.489114 1.895751 0.087266 0.000000 0.000000
    17 0.000000 -6.270579 1.350240 1.570796 0.000000 0.000000
    18 0.000000 0.355522 -2.249654 -1.570796 -3.141592 1.570796
    19 0.000001 5.114957 2.564910 0.000000 0.000000 0.000000
    20 0.000001 4.784917 4.090397 -1.570796 -3.141592 -0.000001
    21 -0.003480 -0.404827 0.000000 -0.000001 0.000000 0.000000
    22 -0.519309 -2.501154 -0.278957 -0.055823 0.159103 -0.101314
    23 -0.010598 -1.208184 -0.000001 -1.297208 -0.173311 -0.018970
    24 -0.000001 -0.763066 0.000000 -0.764828 -0.064118 0.059360
    25 0.105982 -2.607132 -0.278958 -0.243330 -0.074707 0.002974
    26 0.000000 -1.250579 0.000001 -0.787802 0.000000 0.000000
    27 -0.000001 -0.932635 0.000001 -1.655650 0.000000 0.000000
    28 0.763065 -2.490555 -0.278958 -0.118666 0.173955 0.234657
    29 -0.012322 -1.280917 0.000000 0.163947 -0.078283 -0.101829
    30 -0.001695 -0.738091 0.129482 -1.151756 0.010997 0.011408
    31 0.354567 0.016267 0.318133 0.332140 -0.490594 -1.265606
    32 1.887164 0.012878 0.000000 0.139193 0.248411 -0.391471
    33 1.001873 -0.000270 0.000000 -0.034899 0.000000 -0.092945
    34 -1.123359 -2.195092 -0.278957 -0.208864 0.033771 -0.106283
    35 0.010771 -0.963791 0.000001 -0.580307 0.023406 0.035690
    36 -0.010412 -0.631916 0.000000 -1.043753 0.000000 0.000000
    37 0.000000 -0.359713 0.000000 0.000000 0.000000 0.000000
    38 -0.170478 -2.636148 -0.277655 -0.530743 0.075354 0.129527
    39 0.010599 -1.261177 0.000002 -1.252346 0.000000 0.000000
    40 -0.000002 -0.943233 0.000000 -1.208493 0.000000 0.000000
    41 -0.827562 -2.508972 -0.277656 0.032257 0.011706 -0.024514
    42 0.000001 -1.292972 0.000000 -0.322196 -0.048813 0.033389
    43 -0.000002 -0.752466 -0.000002 -0.876587 -0.009049 0.017023
    44 0.444213 -2.561962 -0.277655 -0.432451 0.143605 0.180950
    45 0.021022 -1.208187 0.000001 -0.966197 0.000000 0.000000
    46 0.010597 -0.741867 -0.000002 -1.240102 0.000000 0.000000
    47 1.047446 -2.222822 -0.277655 -0.287540 0.038255 0.161483
    48 0.000000 -0.996224 -0.000001 -0.664029 0.000000 0.000000
    49 0.000000 -0.614691 0.000000 -1.344689 0.000000 0.000000
    50 -0.308256 -0.007814 0.307165 -0.987918 -0.823553 -1.831620
    51 1.978378 0.019544 0.000000 0.099985 0.407896 0.869471
    52 0.980611 0.058421 -0.012628 0.185445 -0.212474 0.577857
  time 17
    0 14.150201 -3.087693 -11.570638 0.742565 -2.405700 -1.082603
    1 -0.021283 -8.563257 -0.000750 0.138202 0.463853 -0.610820
    2 -0.350898 -2.752587 0.514683 0.536110 1.767884 0.542634
    3 0.019532 -5.661438 4.971831 1.570796 0.000000 0.000000
    4 0.000000 2.240248 4.862545 -1.570796 0.000000 0.000000
    5 0.000000 0.512182 -2.412128 0.055692 0.000000 0.000000
    6 0.000000 -1.489114 1.895751 0.087266 0.000000 0.000000
    7 0.000000 -6.270583 1.350241 1.570796 0.000000 0.000000
    8 0.000000 5.114959 2.564909 0.000000 0.000000 0.000000
    9 0.000000 4.784919 4.090397 -1.570796 -3.141592 -0.000001
    10 -14.743998 -5.981083 -11.924803 0.697648 2.041932 1.107015
    11 0.089929 -8.543166 0.000003 0.208534 -0.385620 0.161176
    12 0.431291 -2.480750 0.566680 1.315037 -1.359682 -1.195261
    13 0.000000 -5.680965 4.733542 1.570796 0.000000 0.000000
    14 0.000001 2.240247 4.862545 -1.570796 0.000000 0.000000
    15 0.000000 -0.030803 -0.185497 0.000000 0.000000 0.000000
    16 0.000000 -1.489114 1.895751 0.087266 0.000000 0.000000
    17 0.000000 -6.270579 1.350240 1.570796 0.000000 0.000000
    18 0.000000 0.355522 -2.249654 -1.570796 -3.141592 1.570796
    19 0.000001 5.114957 2.564910 0.000000 0.000000 0.000000
    20 0.000001 4.784917 4.090397 -1.570796 -3.141592 -0.000001
    21 -0.003480 -0.404827 0.000000 -0.000001 0.000000 0.000000
    22 -0.519309 -2.501154 -0.278957 -0.055823 0.159103 -0.101314
    23 -0.010598 -1.208184 -0.000001 -1.297208 -0.173311 -0.018970
    24 -0.000001 -0.763066 0.000000 -0.764828 -0.064118 0.059360
    25 0.105982 -2.607132 -0.278958 -0.243330 -0.074707 0.002974
    26 0.000000 -1.250579 0.000001 -0.787802 0.000000 0.000000
    27 -0.000001 -0.932635 0.000001 -1.655650 0.000000 0.000000
    28 0.763065 -2.490555 -0.278958 -0.118666 0.173955 0.234657
    29 -0.012322 -1.280917 0.000000 0.163947 -0.078283 -0.101829
    30 -0.001695 -0.738091 0.129482 -1.159702 0.010997 0.011408
    31 0.354567 0.016267 0.318133 0.332140 -0.490594 -1.265606
    32 1.887164 0.012878 0.000000 0.133842 0.248734 -0.394317
    33 1.001873 -0.000270 0.000000 -0.034899 0.000000 -0.092945
    34 -1.123359 -2.195092 -0.278957 -0.208864 0.033771 -0.106283
    35 0.010771 -0.963791 0.000001 -0.580307 0.023406 0.035690
    36 -0.010412 -0.631916 0.000000 -1.043753 0.000000 0.000000
    37 0.000000 -0.359713 0.000000 0.000000 0.000000 0.000000
    38 -0.170478 -2.636148 -0.277655 -0.530743 0.075354 0.129527
    39 0.010599 -1.261177 0.000002 -1.252346 0.000000 0.000000
    40 -0.000002 -0.943233 0.000000 -1.208493 0.000000 0.000000
    41 -0.827562 -2.508972 -0.277656 0.032257 0.011706 -0.024514
    42 0.000001 -1.292972 0.000000 -0.322196 -0.048813 0.033389
    43 -0.000002 -0.752466 -0.000002 -0.876587 -0.009049 0.017023
    44 0.444213 -2.561962 -0.277655 -0.432451 0.143605 0.180950
    45 0.021022 -1.208187 0.000001 -0.966197 0.000000 0.000000
    46 0.010597 -0.741867 -0.000002 -1.240102 0.000000 0.000000
    47 1.047446 -2.222822 -0.277655 -0.287540 0.038255 0.161483
    48 0.000000 -0.996224 -0.000001 -0.664029 0.000000 0.000000
    49 0.000000 -0.614691 0.000000 -1.344689 0.000000 0.000000
    50 -0.308256 -0.007814 0.307165 -0.987918 -0.823553 -1.831620
    51 1.978378 0.019544 0.000000 0.099985 0.407896 0.869471
    52 0.980611 0.058421 -0.012628 0.185445 -0.212474 0.577857
  time 18
    0 14.150201 -3.068161 -11.492510 0.744544 -2.407576 -1.084225
    1 -0.021283 -8.563257 -0.000750 0.139323 0.520304 -0.560575
    2 -0.350898 -2.752587 0.514683 0.536110 1.767884 0.542634
    3 0.019532 -5.661438 4.971831 1.570796 0.000000 0.000000
    4 0.000000 2.240248 4.862545 -1.570796 0.000000 0.000000
    5 0.000000 0.844224 -3.767639 0.089585 0.000000 0.000000
    6 0.000000 -1.489114 1.895751 0.087266 0.000000 0.000000
    7 0.000000 -6.270583 1.350241 1.570796 0.000000 0.000000
    8 0.000000 5.114959 2.564909 0.000000 0.000000 0.000000
    9 0.000000 4.784919 4.090397 -1.570796 -3.141592 -0.000001
    10 -14.743998 -5.981083 -11.924803 0.697648 2.041932 1.107015
    11 0.089929 -8.543166 0.000003 0.205246 -0.385951 0.164275
    12 0.431291 -2.480750 0.566680 1.315037 -1.359682 -1.195261
    13 0.000000 -5.680965 4.733542 1.570796 0.000000 0.000000
    14 0.000001 2.240247 4.862545 -1.570796 0.000000 0.000000
    15 0.000000 -0.030803 -0.185497 0.000000 0.000000 0.000000
    16 0.000000 -1.489114 1.895751 0.087266 0.000000 0.000000
    17 0.000000 -6.270579 1.350240 1.570796 0.000000 0.000000
    18 0.000000 0.355522 -2.249654 -1.570796 -3.141592 1.570796
    19 0.000001 5.114957 2.564910 0.000000 0.000000 0.000000
    20 0.000001 4.784917 4.090397 -1.570796 -3.141592 -0.000001
    21 -0.003480 -0.404827 0.000000 -0.000001 0.000000 0.000000
    22 -0.519309 -2.501154 -0.278957 -0.055823 0.159103 -0.101314
    23 -0.010598 -1.208184 -0.000001 -1.297208 -0.173311 -0.018970
    24 -0.000001 -0.763066 0.000000 -0.764828 -0.064118 0.059360
    25 0.105982 -2.607132 -0.278958 -0.243330 -0.074707 0.002974
    26 0.000000 -1.250579 0.000001 -0.787802 0.000000 0.000000
    27 -0.000001 -0.932635 0.000001 -1.655650 0.000000 0.000000
    28 0.763065 -2.490555 -0.278958 -0.118666 0.173955 0.234657
    29 -0.012322 -1.280917 0.000000 0.163947 -0.078283 -0.101829
    30 -0.001695 -0.738091 0.129482 -1.170934 0.010997 0.011408
    31 0.354567 0.016267 0.318133 0.332140 -0.490594 -1.265606
    32 1.887164 0.012878 0.000000 0.128832 0.249046 -0.397013
    33 1.001873 -0.000270 0.000000 -0.034899 0.000000 -0.092945
    34 -1.123359 -2.195092 -0.278957 -0.208864 0.033771 -0.106283
    35 0.010771 -0.963791 0.000001 -0.580307 0.023406 0.035690
    36 -0.010412 -0.631916 0.000000 -1.043753 0.000000 0.000000
    37 0.000000 -0.359713 0.000000 0.000000 0.000000 0.000000
    38 -0.170478 -2.636148 -0.277655 -0.530743 0.075354 0.129527
    39 0.010599 -1.261177 0.000002 -1.252346 0.000000 0.000000
    40 -0.000002 -0.943233 0.000000 -1.208493 0.000000 0.000000
    41 -0.827562 -2.508972 -0.277656 0.032257 0.011706 -0.024514
    42 0.000001 -1.292972 0.000000 -0.322196 -0.048813 0.033389
    43 -0.000002 -0.752466 -0.000002 -0.876587 -0.009049 0.017023
    44 0.444213 -2.561962 -0.277655 -0.432451 0.143605 0.180950
    45 0.021022 -1.208187 0.000001 -0.966197 0.000000 0.000000
    46 0.010597 -0.741867 -0.000002 -1.240102 0.000000 0.000000
    47 1.047446 -2.222822 -0.277655 -0.287540 0.038255 0.161483
    48 0.000000 -0.996224 -0.000001 -0.664029 0.000000 0.000000
    49 0.000000 -0.614691 0.000000 -1.344689 0.000000 0.000000
    50 -0.308256 -0.007814 0.307165 -0.987918 -0.823553 -1.831620
    51 1.978378 0.019544 0.000000 0.099985 0.407896 0.869471
    52 0.980611 0.058421 -0.012628 0.185445 -0.212474 0.577857
  time 19
    0 14.150201 -3.087693 -11.402664 0.742565 -2.405700 -1.082603
    1 -0.021283 -8.563257 -0.000750 0.135099 0.569210 -0.526886
    2 -0.350898 -2.752587 0.514683 0.536110 1.767884 0.542634
    3 0.019532 -5.661438 4.971831 1.570796 0.000000 0.000000
    4 0.000000 2.240248 4.862545 -1.570796 0.000000 0.000000
    5 0.000000 1.191891 -5.193463 0.125239 0.000000 0.000000
    6 0.000000 -1.489114 1.895751 0.087266 0.000000 0.000000
    7 0.000000 -6.270583 1.350241 1.570796 0.000000 0.000000
    8 0.000000 5.114959 2.564909 0.000000 0.000000 0.000000
    9 0.000000 4.784919 4.090397 -1.570796 -3.141592 -0.000001
    10 -14.743998 -5.981083 -11.924803 0.697648 2.041932 1.107015
    11 0.089929 -8.543166 0.000003 0.201990 -0.386486 0.167375
    12 0.431291 -2.480750 0.566680 1.315037 -1.359682 -1.195261
    13 0.000000 -5.680965 4.733542 1.570796 0.000000 0.000000
    14 0.000001 2.240247 4.862545 -1.570796 0.000000 0.000000
    15 0.000000 -0.030803 -0.185497 0.000000 0.000000 0.000000
    16 0.000000 -1.489114 1.895751 0.087266 0.000000 0.000000
    17 0.000000 -6.270579 1.350240 1.570796 0.000000 0.000000
    18 0.000000 0.355522 -2.249654 -1.570796 -3.141592 1.570796
    19 0.000001 5.114957 2.564910 0.000000 0.000000 0.000000
    20 0.000001 4.784917 4.090397 -1.570796 -3.141592 -0.000001
    21 -0.003480 -0.404827 0.000000 -0.000001 0.000000 0.000000
    22 -0.519309 -2.501154 -0.278957 -0.055823 0.159103 -0.101314
    23 -0.010598 -1.208184 -0.000001 -1.297208 -0.173311 -0.018970
    24 -0.000001 -0.763066 0.000000 -0.764828 -0.064118 0.059360
    25 0.105982 -2.607132 -0.278958 -0.243330 -0.074707 0.002974
    26 0.000000 -1.250579 0.000001 -0.787802 0.000000 0.000000
    27 -0.000001 -0.932635 0.000001 -1.655650 0.000000 0.000000
    28 0.763065 -2.490555 -0.278958 -0.118666 0.173955 0.234657
    29 -0.012322 -1.280917 0.000000 0.163947 -0.078283 -0.101829
    30 -0.001695 -0.738091 0.129482 -1.183807 0.010997 0.011408
    31 0.354567 0.016267 0.318133 0.332140 -0.490594 -1.265606
    32 1.887164 0.012878 0.000000 0.124346 0.249322 -0.399379
    33 1.001873 -0.000270 0.000000 -0.034899 0.000000 -0.092945
    34 -1.123359 -2.195092 -0.278957 -0.208864 0.033771 -0.106283
    35 0.010771 -0.963791 0.000001 -0.580307 0.023406 0.035690
    36 -0.010412 -0.631916 0.000000 -1.043753 0.000000 0.000000
    37 0.000000 -0.359713 0.000000 0.000000 0.000000 0.000000
    38 -0.170478 -2.636148 -0.277655 -0.530743 0.075354 0.129527
    39 0.010599 -1.261177 0.000002 -1.252346 0.000000 0.000000
    40 -0.000002 -0.943233 0.000000 -1.208493 0.000000 0.000000
    41 -0.827562 -2.508972 -0.277656 0.032257 0.011706 -0.024514
    42 0.000001 -1.292972 0.000000 -0.322196 -0.048813 0.033389
    43 -0.000002 -0.752466 -0.000002 -0.876587 -0.009049 0.017023
    44 0.444213 -2.561962 -0.277655 -0.432451 0.143605 0.180950
    45 0.021022 -1.208187 0.000001 -0.966197 0.000000 0.000000
    46 0.010597 -0.741867 -0.000002 -1.240102 0.000000 0.000000
    47 1.047446 -2.222822 -0.277655 -0.287540 0.038255 0.161483
    48 0.000000 -0.996224 -0.000001 -0.664029 0.000000 0.000000
    49 0.000000 -0.614691 0.000000 -1.344689 0.000000 0.000000
    50 -0.308256 -0.007814 0.307165 -0.987918 -0.823553 -1.831620
    51 1.978378 0.019544 0.000000 0.099985 0.407896 0.869471
    52 0.980611 0.058421 -0.012628 0.185445 -0.212474 0.577857
  time 20
    0 14.150201 -3.150195 -11.293285 0.736442 -2.399908 -1.077931
    1 -0.021283 -8.563257 -0.000750 0.122168 0.616871 -0.511749
    2 -0.350898 -2.752587 0.514683 0.536110 1.767884 0.542634
    3 0.019532 -5.661438 4.971831 1.570796 0.000000 0.000000
    4 0.000000 2.240248 4.862545 -1.570796 0.000000 0.000000
    5 0.000000 1.523932 -6.545067 0.159131 0.000000 0.000000
    6 0.000000 -1.489114 1.895751 0.087266 0.000000 0.000000
    7 0.000000 -6.270583 1.350241 1.570796 0.000000 0.000000
    8 0.000000 5.114959 2.564909 0.000000 0.000000 0.000000
    9 0.000000 4.784919 4.090397 -1.570796 -3.141592 -0.000001
    10 -14.743998 -5.981083 -11.924803 0.697648 2.041932 1.107015
    11 0.089929 -8.543166 0.000003 0.198960 -0.387097 0.170169
    12 0.431291 -2.480750 0.566680 1.315037 -1.359682 -1.195261
    13 0.000000 -5.680965 4.733542 1.570796 0.000000 0.000000
    14 0.000001 2.240247 4.862545 -1.570796 0.000000 0.000000
    15 0.000000 -0.030803 -0.185497 0.000000 0.000000 0.000000
    16 0.000000 -1.489114 1.895751 0.087266 0.000000 0.000000
    17 0.000000 -6.270579 1.350240 1.570796 0.000000 0.000000
    18 0.000000 0.355522 -2.249654 -1.570796 -3.141592 1.570796
    19 0.000001 5.114957 2.564910 0.000000 0.000000 0.000000
    20 0.000001 4.784917 4.090397 -1.570796 -3.141592 -0.000001
    21 -0.003480 -0.404827 0.000000 -0.000001 0.000000 0.000000
    22 -0.519309 -2.501154 -0.278957 -0.055823 0.159103 -0.101314
    23 -0.010598 -1.208184 -0.000001 -1.297208 -0.173311 -0.018970
    24 -0.000001 -0.763066 0.000000 -0.764828 -0.064118 0.059360
    25 0.105982 -2.607132 -0.278958 -0.243330 -0.074707 0.002974
    26 0.000000 -1.250579 0.000001 -0.787802 0.000000 0.000000
    27 -0.000001 -0.932635 0.000001 -1.655650 0.000000 0.000000
    28 0.763065 -2.490555 -0.278958 -0.118666 0.173955 0.234657
    29 -0.012322 -1.280917 0.000000 0.163947 -0.078283 -0.101829
    30 -0.001695 -0.738091 0.129482 -1.196681 0.010997 0.011408
    31 0.354567 0.016267 0.318133 0.332140 -0.490594 -1.265606
    32 1.887164 0.012878 0.000000 0.120566 0.249561 -0.401416
    33 1.001873 -0.000270 0.000000 -0.034899 0.000000 -0.092945
    34 -1.123359 -2.195092 -0.278957 -0.208864 0.033771 -0.106283
    35 0.010771 -0.963791 0.000001 -0.580307 0.023406 0.035690
    36 -0.010412 -0.631916 0.000000 -1.043753 0.000000 0.000000
    37 0.000000 -0.359713 0.000000 0.000000 0.000000 0.000000
    38 -0.170478 -2.636148 -0.277655 -0.530743 0.075354 0.129527
    39 0.010599 -1.261177 0.000002 -1.252346 0.000000 0.000000
    40 -0.000002 -0.943233 0.000000 -1.208493 0.000000 0.000000
    41 -0.827562 -2.508972 -0.277656 0.032257 0.011706 -0.024514
    42 0.000001 -1.292972 0.000000 -0.322196 -0.048813 0.033389
    43 -0.000002 -0.752466 -0.000002 -0.876587 -0.009049 0.017023
    44 0.444213 -2.561962 -0.277655 -0.432451 0.143605 0.180950
    45 0.021022 -1.208187 0.000001 -0.966197 0.000000 0.000000
    46 0.010597 -0.741867 -0.000002 -1.240102 0.000000 0.000000
    47 1.047446 -2.222822 -0.277655 -0.287540 0.038255 0.161483
    48 0.000000 -0.996224 -0.000001 -0.664029 0.000000 0.000000
    49 0.000000 -0.614691 0.000000 -1.344689 0.000000 0.000000
    50 -0.308256 -0.007814 0.307165 -0.987918 -0.823553 -1.831620
    51 1.978378 0.019544 0.000000 0.099985 0.407896 0.869471
    52 0.980611 0.058421 -0.012628 0.185445 -0.212474 0.577857
  time 21
    0 14.150201 -3.247854 -11.164375 0.726174 -2.390283 -1.070015
    1 -0.021283 -8.563257 -0.000750 0.104540 0.666535 -0.505931
    2 -0.350898 -2.752587 0.514683 0.536110 1.767884 0.542634
    3 0.019532 -5.661438 4.971831 1.570796 0.000000 0.000000
    4 0.000000 2.240248 4.862545 -1.570796 0.000000 0.000000
    5 0.000000 1.805191 -7.689633 0.187715 0.000000 0.000000
    6 0.000000 -1.489114 1.895751 0.087266 0.000000 0.000000
    7 0.000000 -6.270583 1.350241 1.570796 0.000000 0.000000
    8 0.000000 5.114959 2.564909 0.000000 0.000000 0.000000
    9 0.000000 4.784919 4.090397 -1.570796 -3.141592 -0.000001
    10 -14.743998 -5.981083 -11.924803 0.697648 2.041932 1.107015
    11 0.089929 -8.543166 0.000003 0.196478 -0.387682 0.172470
    12 0.431291 -2.480750 0.566680 1.315037 -1.359682 -1.195261
    13 0.000000 -5.680965 4.733542 1.570796 0.000000 0.000000
    14 0.000001 2.240247 4.862545 -1.570796 0.000000 0.000000
    15 0.000000 -0.030803 -0.185497 0.000000 0.000000 0.000000
    16 0.000000 -1.489114 1.895751 0.087266 0.000000 0.000000
    17 0.000000 -6.270579 1.350240 1.570796 0.000000 0.000000
    18 0.000000 0.355522 -2.249654 -1.570796 -3.141592 1.570796
    19 0.000001 5.114957 2.564910 0.000000 0.000000 0.000000
    20 0.000001 4.784917 4.090397 -1.570796 -3.141592 -0.000001
    21 -0.003480 -0.404827 0.000000 -0.000001 0.000000 0.000000
    22 -0.519309 -2.501154 -0.278957 -0.055823 0.159103 -0.101314
    23 -0.010598 -1.208184 -0.000001 -1.297208 -0.173311 -0.018970
    24 -0.000001 -0.763066 0.000000 -0.764828 -0.064118 0.059360
    25 0.105982 -2.607132 -0.278958 -0.243330 -0.074707 0.002974
    26 0.000000 -1.250579 0.000001 -0.787802 0.000000 0.000000
    27 -0.000001 -0.932635 0.000001 -1.655650 0.000000 0.000000
    28 0.763065 -2.490555 -0.278958 -0.118666 0.173955 0.234657
    29 -0.012322 -1.280917 0.000000 0.163947 -0.078283 -0.101829
    30 -0.001695 -0.738091 0.129482 -1.207957 0.010997 0.011408
    31 0.354567 0.016267 0.318133 0.332140 -0.490594 -1.265606
    32 1.887164 0.012878 0.000000 0.117651 0.249741 -0.402974
    33 1.001873 -0.000270 0.000000 -0.034899 0.000000 -0.092945
    34 -1.123359 -2.195092 -0.278957 -0.208864 0.033771 -0.106283
    35 0.010771 -0.963791 0.000001 -0.580307 0.023406 0.035690
    36 -0.010412 -0.631916 0.000000 -1.043753 0.000000 0.000000
    37 0.000000 -0.359713 0.000000 0.000000 0.000000 0.000000
    38 -0.170478 -2.636148 -0.277655 -0.530743 0.075354 0.129527
    39 0.010599 -1.261177 0.000002 -1.252346 0.000000 0.000000
    40 -0.000002 -0.943233 0.000000 -1.208493 0.000000 0.000000
    41 -0.827562 -2.508972 -0.277656 0.032257 0.011706 -0.024514
    42 0.000001 -1.292972 0.000000 -0.322196 -0.048813 0.033389
    43 -0.000002 -0.752466 -0.000002 -0.876587 -0.009049 0.017023
    44 0.444213 -2.561962 -0.277655 -0.432451 0.143605 0.180950
    45 0.021022 -1.208187 0.000001 -0.966197 0.000000 0.000000
    46 0.010597 -0.741867 -0.000002 -1.240102 0.000000 0.000000
    47 1.047446 -2.222822 -0.277655 -0.287540 0.038255 0.161483
    48 0.000000 -0.996224 -0.000001 -0.664029 0.000000 0.000000
    49 0.000000 -0.614691 0.000000 -1.344689 0.000000 0.000000
    50 -0.308256 -0.007814 0.307165 -0.987918 -0.823553 -1.831620
    51 1.978378 0.019544 0.000000 0.099985 0.407896 0.869471
    52 0.980611 0.058421 -0.012628 0.185445 -0.212474 0.577857
  time 22
    0 14.150201 -3.388484 -11.023746 0.711855 -2.376824 -1.058953
    1 -0.021283 -8.563257 -0.000750 0.088980 0.705579 -0.505410
    2 -0.350898 -2.752587 0.514683 0.536110 1.767884 0.542634
    3 0.019532 -5.661438 4.971831 1.570796 0.000000 0.000000
    4 0.000000 2.240248 4.862545 -1.570796 0.000000 0.000000
    5 0.000000 2.000509 -8.478720 0.207465 0.000000 0.000000
    6 0.000000 -1.489114 1.895751 0.087266 0.000000 0.000000
    7 0.000000 -6.270583 1.350241 1.570796 0.000000 0.000000
    8 0.000000 5.114959 2.564909 0.000000 0.000000 0.000000
    9 0.000000 4.784919 4.090397 -1.570796 -3.141592 -0.000001
    10 -14.743998 -5.981083 -11.924803 0.697648 2.041932 1.107015
    11 0.089929 -8.543166 0.000003 0.194769 -0.388115 0.174043
    12 0.431291 -2.480750 0.566680 1.315037 -1.359682 -1.195261
    13 0.000000 -5.680965 4.733542 1.570796 0.000000 0.000000
    14 0.000001 2.240247 4.862545 -1.570796 0.000000 0.000000
    15 0.000000 -0.030803 -0.185497 0.000000 0.000000 0.000000
    16 0.000000 -1.489114 1.895751 0.087266 0.000000 0.000000
    17 0.000000 -6.270579 1.350240 1.570796 0.000000 0.000000
    18 0.000000 0.355522 -2.249654 -1.570796 -3.141592 1.570796
    19 0.000001 5.114957 2.564910 0.000000 0.000000 0.000000
    20 0.000001 4.784917 4.090397 -1.570796 -3.141592 -0.000001
    21 -0.003480 -0.404827 0.000000 -0.000001 0.000000 0.000000
    22 -0.519309 -2.501154 -0.278957 -0.055823 0.159103 -0.101314
    23 -0.010598 -1.208184 -0.000001 -1.297208 -0.173311 -0.018970
    24 -0.000001 -0.763066 0.000000 -0.764828 -0.064118 0.059360
    25 0.105982 -2.607132 -0.278958 -0.243330 -0.074707 0.002974
    26 0.000000 -1.250579 0.000001 -0.787802 0.000000 0.000000
    27 -0.000001 -0.932635 0.000001 -1.655650 0.000000 0.000000
    28 0.763065 -2.490555 -0.278958 -0.118666 0.173955 0.234657
    29 -0.012322 -1.280917 0.000000 0.163947 -0.078283 -0.101829
    30 -0.001695 -0.738091 0.129482 -1.215903 0.010997 0.011408
    31 0.354567 0.016267 0.318133 0.332140 -0.490594 -1.265606
    32 1.887164 0.012878 0.000000 0.115761 0.249861 -0.403963
    33 1.001873 -0.000270 0.000000 -0.034899 0.000000 -0.092945
    34 -1.123359 -2.195092 -0.278957 -0.208864 0.033771 -0.106283
    35 0.010771 -0.963791 0.000001 -0.580307 0.023406 0.035690
    36 -0.010412 -0.631916 0.000000 -1.043753 0.000000 0.000000
    37 0.000000 -0.359713 0.000000 0.000000 0.000000 0.000000
    38 -0.170478 -2.636148 -0.277655 -0.530743 0.075354 0.129527
    39 0.010599 -1.261177 0.000002 -1.252346 0.000000 0.000000
    40 -0.000002 -0.943233 0.000000 -1.208493 0.000000 0.000000
    41 -0.827562 -2.508972 -0.277656 0.032257 0.011706 -0.024514
    42 0.000001 -1.292972 0.000000 -0.322196 -0.048813 0.033389
    43 -0.000002 -0.752466 -0.000002 -0.876587 -0.009049 0.017023
    44 0.444213 -2.561962 -0.277655 -0.432451 0.143605 0.180950
    45 0.021022 -1.208187 0.000001 -0.966197 0.000000 0.000000
    46 0.010597 -0.741867 -0.000002 -1.240102 0.000000 0.000000
    47 1.047446 -2.222822 -0.277655 -0.287540 0.038255 0.161483
    48 0.000000 -0.996224 -0.000001 -0.664029 0.000000 0.000000
    49 0.000000 -0.614691 0.000000 -1.344689 0.000000 0.000000
    50 -0.308256 -0.007814 0.307165 -0.987918 -0.823553 -1.831620
    51 1.978378 0.019544 0.000000 0.099985 0.407896 0.869471
    52 0.980611 0.058421 -0.012628 0.185445 -0.212474 0.577857
  time 23
    0 14.150201 -3.568177 -10.871397 0.693390 -2.359612 -1.044744
    1 -0.021283 -8.563257 -0.000750 0.082256 0.721408 -0.506163
    2 -0.350898 -2.752587 0.514683 0.536110 1.767884 0.542634
    3 0.019532 -5.661438 4.971831 1.570796 0.000000 0.000000
    4 0.000000 2.240248 4.862545 -1.570796 0.000000 0.000000
    5 0.000000 2.070824 -8.775604 0.214836 0.000000 0.000000
    6 0.000000 -1.489114 1.895751 0.087266 0.000000 0.000000
    7 0.000000 -6.270583 1.350241 1.570796 0.000000 0.000000
    8 0.000000 5.114959 2.564909 0.000000 0.000000 0.000000
    9 0.000000 4.784919 4.090397 -1.570796 -3.141592 -0.000001
    10 -14.743998 -5.981083 -11.924803 0.697648 2.041932 1.107015
    11 0.089929 -8.543166 0.000003 0.194157 -0.388293 0.174606
    12 0.431291 -2.480750 0.566680 1.315037 -1.359682 -1.195261
    13 0.000000 -5.680965 4.733542 1.570796 0.000000 0.000000
    14 0.000001 2.240247 4.862545 -1.570796 0.000000 0.000000
    15 0.000000 -0.030803 -0.185497 0.000000 0.000000 0.000000
    16 0.000000 -1.489114 1.895751 0.087266 0.000000 0.000000
    17 0.000000 -6.270579 1.350240 1.570796 0.000000 0.000000
    18 0.000000 0.355522 -2.249654 -1.570796 -3.141592 1.570796
    19 0.000001 5.114957 2.564910 0.000000 0.000000 0.000000
    20 0.000001 4.784917 4.090397 -1.570796 -3.141592 -0.000001
    21 -0.003480 -0.404827 0.000000 -0.000001 0.000000 0.000000
    22 -0.519309 -2.501154 -0.278957 -0.055823 0.159103 -0.101314
    23 -0.010598 -1.208184 -0.000001 -1.297208 -0.173311 -0.018970
    24 -0.000001 -0.763066 0.000000 -0.764828 -0.064118 0.059360
    25 0.105982 -2.607132 -0.278958 -0.243330 -0.074707 0.002974
    26 0.000000 -1.250579 0.000001 -0.787802 0.000000 0.000000
    27 -0.000001 -0.932635 0.000001 -1.655650 0.000000 0.000000
    28 0.763065 -2.490555 -0.278958 -0.118666 0.173955 0.234657
    29 -0.012322 -1.280917 0.000000 0.163947 -0.078283 -0.101829
    30 -0.001695 -0.738091 0.129482 -1.218877 0.010997 0.011408
    31 0.354567 0.016267 0.318133 0.332140 -0.490594 -1.265606
    32 1.887164 0.012878 0.000000 0.115100 0.249897 -0.404322
    33 1.001873 -0.000270 0.000000 -0.034899 0.000000 -0.092945
    34 -1.123359 -2.195092 -0.278957 -0.208864 0.033771 -0.106283
    35 0.010771 -0.963791 0.000001 -0.580307 0.023406 0.035690
    36 -0.010412 -0.631916 0.000000 -1.043753 0.000000 0.000000
    37 0.000000 -0.359713 0.000000 0.000000 0.000000 0.000000
    38 -0.170478 -2.636148 -0.277655 -0.530743 0.075354 0.129527
    39 0.010599 -1.261177 0.000002 -1.252346 0.000000 0.000000
    40 -0.000002 -0.943233 0.000000 -1.208493 0.000000 0.000000
    41 -0.827562 -2.508972 -0.277656 0.032257 0.011706 -0.024514
    42 0.000001 -1.292972 0.000000 -0.322196 -0.048813 0.033389
    43 -0.000002 -0.752466 -0.000002 -0.876587 -0.009049 0.017023
    44 0.444213 -2.561962 -0.277655 -0.432451 0.143605 0.180950
    45 0.021022 -1.208187 0.000001 -0.966197 0.000000 0.000000
    46 0.010597 -0.741867 -0.000002 -1.240102 0.000000 0.000000
    47 1.047446 -2.222822 -0.277655 -0.287540 0.038255 0.161483
    48 0.000000 -0.996224 -0.000001 -0.664029 0.000000 0.000000
    49 0.000000 -0.614691 0.000000 -1.344689 0.000000 0.000000
    50 -0.308256 -0.007814 0.307165 -0.987918 -0.823553 -1.831620
    51 1.978378 0.019544 0.000000 0.099985 0.407896 0.869471
    52 0.980611 0.058421 -0.012628 0.185445 -0.212474 0.577857
end
