version 1
nodes
  0 "Bone01" -1
  1 "Bone_Lefthand" 0
  2 "Bone_USAS" 1
  3 "Bone_Cover" 2
  4 "Bone_Reload" 2
  5 "Bone_Magazine" 2
  6 "Bone_Trigger" 2
  7 "Bone4" 1
  8 "Bone13" 7
  9 "Bone14" 8
  10 "Bone15" 9
  11 "Bone17" 7
  12 "Bone18" 11
  13 "Bone19" 12
  14 "Bone21" 7
  15 "Bone22" 14
  16 "Bone23" 15
  17 "Bone05" 7
  18 "Bone06" 17
  19 "Bone07" 18
  20 "Bone09" 7
  21 "Bone10" 20
  22 "Bone11" 21
  23 "Bone04" -1
  24 "Bone_Righthand" 23
  25 "Bone26" 24
  26 "Bone35" 25
  27 "Bone36" 26
  28 "Bone37" 27
  29 "Bone31" 25
  30 "Bone32" 29
  31 "Bone33" 30
  32 "Bone39" 25
  33 "Bone40" 32
  34 "Bone41" 33
  35 "Bone43" 25
  36 "Bone44" 35
  37 "Bone45" 36
  38 "Bone27" 25
  39 "Bone28" 38
  40 "Bone29" 39
end
skeleton
  time 0
    0 9.292973 2.576984 -7.660806 0.253714 -2.022360 -6.605084
    1 -0.021281 -8.563254 -0.000751 0.015635 0.292578 -0.150107
    2 0.255781 -2.632861 1.783856 0.291615 1.732588 0.285179
    3 0.478895 -4.251642 3.616764 0.000000 2.739448 0.000000
    4 1.019533 -9.934201 3.484482 0.000000 0.000000 -0.015484
    5 1.000000 -5.088156 2.193883 -0.065377 0.000000 0.000000
    6 1.000000 -1.827747 1.296099 0.383196 0.000000 0.000000
    7 -0.003480 -0.404828 0.000000 -0.000001 0.000000 0.000000
    8 -0.519309 -2.501154 -0.278957 -0.879568 -0.036235 -0.324918
    9 -0.010598 -1.208185 -0.000002 -1.185576 0.000000 0.000000
    10 -0.000001 -0.763066 0.000000 -0.741497 0.000000 0.000000
    11 0.105981 -2.607134 -0.278958 -0.872556 -0.035899 -0.258089
    12 0.000000 -1.250579 0.000000 -0.794537 0.000000 0.000000
    13 -0.000001 -0.932634 0.000000 -1.567302 0.000000 0.000000
    14 0.763064 -2.490556 -0.278958 -0.313873 0.040172 0.012324
    15 -0.012322 -1.280917 0.000000 -0.148512 0.000000 0.000000
    16 -0.001696 -0.738090 0.129481 -1.486845 0.000000 0.000000
    17 0.354567 0.016267 0.318133 0.308709 -0.503867 -0.874878
    18 1.887165 0.012877 0.000000 -0.095972 -0.113059 -1.028586
    19 1.001874 -0.000270 0.000000 0.000000 0.000000 -0.250165
    20 -1.123359 -2.195093 -0.278957 -1.061907 0.026409 -0.326972
    21 0.010772 -0.963791 0.000001 -0.810998 0.000000 0.000000
    22 -0.010413 -0.631916 0.000000 -0.691889 0.000000 0.000000
    23 1.511579 -11.713811 -9.786016 5.726177 0.340883 0.464373
    24 0.089929 -8.543165 0.000003 0.353849 -0.703673 0.095606
    25 0.000000 -0.359714 0.000000 0.000000 0.000000 0.000000
    26 -0.170479 -2.636148 -0.277655 -1.096381 -0.102575 0.176833
    27 0.010599 -1.261177 0.000001 -0.342296 0.000000 0.000000
    28 -0.000001 -0.943234 -0.000001 -0.603058 0.000000 0.000000
    29 -0.827561 -2.508971 -0.277655 -0.698044 -0.046319 0.035345
    30 0.000001 -1.292971 0.000000 -0.666149 0.000000 0.000000
    31 -0.000002 -0.752465 -0.000001 -0.728972 -0.248766 0.191906
    32 0.444213 -2.561961 -0.277655 -1.385709 -0.042325 0.216626
    33 0.021023 -1.208187 0.000000 0.024116 0.000000 0.000000
    34 0.010596 -0.741866 -0.000002 -0.638013 0.000000 0.000000
    35 1.047446 -2.222821 -0.277655 -1.388406 -0.050027 0.240249
    36 -0.000001 -0.996223 -0.000002 0.067244 -0.000010 0.000000
    37 -0.000001 -0.614691 0.000000 -0.777386 -0.000010 -0.000006
    38 -0.308256 -0.007813 0.307165 -0.177047 -0.254644 -2.503340
    39 1.978378 0.019543 0.000000 0.064693 -0.036940 0.143369
    40 0.980610 0.058420 -0.012628 0.222133 0.037811 -0.122267
  time 1
    0 9.781269 4.608296 -7.789716 0.283318 -2.027683 -6.699079
    1 -0.021281 -8.563254 -0.000751 0.172545 0.286128 -0.031874
    2 0.255781 -2.632861 1.783856 0.291615 1.732588 0.285179
    3 0.478895 -4.251642 3.616764 0.000000 2.550414 0.000000
    4 1.007814 -8.910732 3.484482 0.000000 0.000000 -0.053224
    5 1.000000 -5.088156 2.193883 -0.065377 0.000000 0.000000
    6 1.000000 -1.827747 1.296099 0.365264 0.000000 0.000000
    7 -0.003480 -0.404828 0.000000 -0.000001 0.000000 0.000000
    8 -0.519309 -2.501154 -0.278957 -0.879568 -0.036235 -0.324918
    9 -0.010598 -1.208185 -0.000002 -1.185576 0.000000 0.000000
    10 -0.000001 -0.763066 0.000000 -0.741497 0.000000 0.000000
    11 0.105981 -2.607134 -0.278958 -0.872556 -0.035899 -0.258089
    12 0.000000 -1.250579 0.000000 -0.794537 0.000000 0.000000
    13 -0.000001 -0.932634 0.000000 -1.567302 0.000000 0.000000
    14 0.763064 -2.490556 -0.278958 -0.313873 0.040172 0.012324
    15 -0.012322 -1.280917 0.000000 -0.054708 0.000000 0.000000
    16 -0.001696 -0.738090 0.129481 -1.476500 0.000000 0.000000
    17 0.354567 0.016267 0.318133 0.308709 -0.503867 -0.874878
    18 1.887165 0.012877 0.000000 -0.095972 -0.113059 -1.028586
    19 1.001874 -0.000270 0.000000 0.000000 0.000000 -0.250165
    20 -1.123359 -2.195093 -0.278957 -1.061907 0.026409 -0.326972
    21 0.010772 -0.963791 0.000001 -0.810998 0.000000 0.000000
    22 -0.010413 -0.631916 0.000000 -0.691889 0.000000 0.000000
    23 0.870934 -10.323143 -8.660982 5.644921 0.425112 0.574719
    24 0.089929 -8.543165 0.000003 0.297246 -0.703673 0.095606
    25 0.000000 -0.359714 0.000000 0.000000 0.000000 0.000000
    26 -0.170479 -2.636148 -0.277655 -1.181663 -0.102575 0.176833
    27 0.010599 -1.261177 0.000001 -0.251758 0.000000 0.000000
    28 -0.000001 -0.943234 -0.000001 -0.512866 0.000000 0.000000
    29 -0.827561 -2.508971 -0.277655 -0.783319 -0.046319 0.035345
    30 0.000001 -1.292971 0.000000 -0.582091 0.000000 0.000000
    31 -0.000002 -0.752465 -0.000001 -0.638774 -0.248766 0.191906
    32 0.444213 -2.561961 -0.277655 -1.471010 -0.042325 0.216626
    33 0.021023 -1.208187 0.000000 0.114704 0.000000 0.000000
    34 0.010596 -0.741866 -0.000002 -0.547822 0.000000 0.000000
    35 1.047446 -2.222821 -0.277655 -1.473681 -0.050027 0.240249
    36 -0.000001 -0.996223 -0.000002 0.157844 -0.000010 0.000000
    37 -0.000001 -0.614691 0.000000 -0.687161 -0.000010 -0.000006
    38 -0.308256 -0.007813 0.307165 -0.174659 -0.308665 -2.500599
    39 1.978378 0.019543 0.000000 0.062033 -0.082613 0.174575
    40 0.980610 0.058420 -0.012628 0.220407 0.047986 -0.167362
  time 2
    0 9.855490 5.256753 -7.809248 0.240658 -2.020585 -6.669915
    1 -0.021281 -8.563254 -0.000751 0.161530 0.321012 -0.030164
    2 0.255781 -2.632861 1.783856 0.291615 1.732588 0.285179
    3 0.537491 -4.251642 3.636296 0.000000 1.163216 0.000000
    4 1.062503 -9.492781 3.484482 0.000000 0.000000 -0.126725
    5 1.000000 -5.088156 2.193883 -0.065377 0.000000 0.000000
    6 1.000000 -1.827747 1.296099 0.277048 0.000000 0.000000
    7 -0.003480 -0.404828 0.000000 -0.000001 0.000000 0.000000
    8 -0.519309 -2.501154 -0.278957 -0.879568 -0.036235 -0.324918
    9 -0.010598 -1.208185 -0.000002 -1.185576 0.000000 0.000000
    10 -0.000001 -0.763066 0.000000 -0.741497 0.000000 0.000000
    11 0.105981 -2.607134 -0.278958 -0.872556 -0.035899 -0.258089
    12 0.000000 -1.250579 0.000000 -0.794537 0.000000 0.000000
    13 -0.000001 -0.932634 0.000000 -1.567302 0.000000 0.000000
    14 0.763064 -2.490556 -0.278958 -0.313873 0.040172 0.012324
    15 -0.012322 -1.280917 0.000000 0.039083 0.000000 0.000000
    16 -0.001696 -0.738090 0.129481 -1.416014 0.000000 0.000000
    17 0.354567 0.016267 0.318133 0.308709 -0.503867 -0.874878
    18 1.887165 0.012877 0.000000 -0.095972 -0.113059 -1.028586
    19 1.001874 -0.000270 0.000000 0.000000 0.000000 -0.250165
    20 -1.123359 -2.195093 -0.278957 -1.061907 0.026409 -0.326972
    21 0.010772 -0.963791 0.000001 -0.810998 0.000000 0.000000
    22 -0.010413 -0.631916 0.000000 -0.691889 0.000000 0.000000
    23 0.374826 -9.959851 -8.559416 5.702183 0.462622 0.630596
    24 0.089929 -8.543165 0.000003 0.176565 -0.695480 0.098465
    25 0.000000 -0.359714 0.000000 0.000000 0.000000 0.000000
    26 -0.170479 -2.636148 -0.277655 -1.227588 -0.102575 0.176833
    27 0.010599 -1.261177 0.000001 -0.202964 0.000000 0.000000
    28 -0.000001 -0.943234 -0.000001 -0.464291 0.000000 0.000000
    29 -0.827561 -2.508971 -0.277655 -0.829247 -0.046319 0.035345
    30 0.000001 -1.292971 0.000000 -0.520265 0.000000 0.000000
    31 -0.000002 -0.752465 -0.000001 -0.590192 -0.248766 0.191906
    32 0.444213 -2.561961 -0.277655 -1.516929 -0.042325 0.216626
    33 0.021023 -1.208187 0.000000 0.163473 0.000000 0.000000
    34 0.010596 -0.741866 -0.000002 -0.499227 0.000000 0.000000
    35 1.047446 -2.222821 -0.277655 -1.519608 -0.050027 0.240249
    36 -0.000001 -0.996223 -0.000002 0.206622 -0.000010 0.000000
    37 -0.000001 -0.614691 0.000000 -0.638594 -0.000010 -0.000006
    38 -0.308256 -0.007813 0.307165 -0.174800 -0.274562 -2.500238
    39 1.978378 0.019543 0.000000 0.061182 -0.083165 0.184747
    40 0.980610 0.058420 -0.012628 0.220923 0.044882 -0.153567
  time 3
    0 9.730486 5.178626 -7.781903 0.189817 -2.011982 -6.610630
    1 -0.021281 -8.563254 -0.000751 0.140882 0.366244 -0.031317
    2 0.255781 -2.632861 1.783856 0.291615 1.732588 0.285179
    3 0.642963 -4.251642 3.671453 0.000000 0.369039 0.000000
    4 1.000001 -10.977201 3.484482 0.000000 0.000000 -0.177983
    5 1.000000 -5.088156 2.193883 -0.065377 0.000000 0.000000
    6 1.000000 -1.827747 1.296099 -0.038573 0.000000 0.000000
    7 -0.003480 -0.404828 0.000000 -0.000001 0.000000 0.000000
    8 -0.519309 -2.501154 -0.278957 -0.879568 -0.036235 -0.324918
    9 -0.010598 -1.208185 -0.000002 -1.185576 0.000000 0.000000
    10 -0.000001 -0.763066 0.000000 -0.741497 0.000000 0.000000
    11 0.105981 -2.607134 -0.278958 -0.872556 -0.035899 -0.258089
    12 0.000000 -1.250579 0.000000 -0.794537 0.000000 0.000000
    13 -0.000001 -0.932634 0.000000 -1.567302 0.000000 0.000000
    14 0.763064 -2.490556 -0.278958 -0.313873 0.040172 0.012324
    15 -0.012322 -1.280917 0.000000 0.014275 0.000000 0.000000
    16 -0.001696 -0.738090 0.129481 -1.143752 0.000000 0.000000
    17 0.354567 0.016267 0.318133 0.308709 -0.503867 -0.874878
    18 1.887165 0.012877 0.000000 -0.095972 -0.113059 -1.028586
    19 1.001874 -0.000270 0.000000 0.000000 0.000000 -0.250165
    20 -1.123359 -2.195093 -0.278957 -1.061907 0.026409 -0.326972
    21 0.010772 -0.963791 0.000001 -0.810998 0.000000 0.000000
    22 -0.010413 -0.631916 0.000000 -0.691889 0.000000 0.000000
    23 0.109192 -9.905162 -8.520352 5.783916 0.473739 0.658503
    24 0.089929 -8.543165 0.000003 0.091340 -0.672831 0.106073
    25 0.000000 -0.359714 0.000000 0.000000 0.000000 0.000000
    26 -0.170479 -2.636148 -0.277655 -1.219654 -0.102575 0.176833
    27 0.010599 -1.261177 0.000001 -0.204296 0.000000 0.000000
    28 -0.000001 -0.943234 -0.000001 -0.468427 0.000000 0.000000
    29 -0.827561 -2.508971 -0.277655 -0.827460 -0.046319 0.035345
    30 0.000001 -1.292971 0.000000 -0.490850 0.000000 0.000000
    31 -0.000002 -0.752465 -0.000001 -0.592092 -0.248766 0.191906
    32 0.444213 -2.561961 -0.277655 -1.515433 -0.039005 0.217250
    33 0.021023 -1.208187 0.000000 0.159560 0.000803 -0.005669
    34 0.010596 -0.741866 -0.000002 -0.499299 0.000000 0.000000
    35 1.047446 -2.222821 -0.277655 -1.519341 -0.049727 0.240333
    36 -0.000001 -0.996223 -0.000002 0.202206 -0.000010 0.000000
    37 -0.000001 -0.614691 0.000000 -0.638696 -0.000010 -0.000006
    38 -0.308256 -0.007813 0.307165 -0.175643 -0.224376 -2.499913
    39 1.978378 0.019543 0.000000 0.060690 -0.083536 0.190695
    40 0.980610 0.058420 -0.012628 0.222049 0.038027 -0.123235
  time 4
    0 9.496104 4.760644 -7.723307 0.185771 -2.011766 -6.574485
    1 -0.021281 -8.563254 -0.000751 0.113572 0.366655 -0.045873
    2 0.255781 -2.632861 1.783856 0.291615 1.732588 0.285179
    3 0.697652 -4.251642 3.687079 0.000000 0.000000 0.000000
    4 1.000001 -13.266334 3.484482 0.000000 0.000000 0.000000
    5 1.000000 -5.088156 2.193883 -0.065377 0.000000 0.000000
    6 1.000000 -1.827747 1.296099 -0.312155 0.000000 0.000000
    7 -0.003480 -0.404828 0.000000 -0.000001 0.000000 0.000000
    8 -0.519309 -2.501154 -0.278957 -0.879568 -0.036235 -0.324918
    9 -0.010598 -1.208185 -0.000002 -1.185576 0.000000 0.000000
    10 -0.000001 -0.763066 0.000000 -0.741497 0.000000 0.000000
    11 0.105981 -2.607134 -0.278958 -0.872556 -0.035899 -0.258089
    12 0.000000 -1.250579 0.000000 -0.794537 0.000000 0.000000
    13 -0.000001 -0.932634 0.000000 -1.567302 0.000000 0.000000
    14 0.763064 -2.490556 -0.278958 -0.313873 0.040172 0.012324
    15 -0.012322 -1.280917 0.000000 -0.031794 0.000000 0.000000
    16 -0.001696 -0.738090 0.129481 -0.743263 0.000000 0.000000
    17 0.354567 0.016267 0.318133 0.308709 -0.503867 -0.874878
    18 1.887165 0.012877 0.000000 -0.095972 -0.113059 -1.028586
    19 1.001874 -0.000270 0.000000 0.000000 0.000000 -0.250165
    20 -1.123359 -2.195093 -0.278957 -1.061907 0.026409 -0.326972
    21 0.010772 -0.963791 0.000001 -0.810998 0.000000 0.000000
    22 -0.010413 -0.631916 0.000000 -0.691889 0.000000 0.000000
    23 0.382638 -10.194233 -8.469570 5.799689 0.460508 0.640709
    24 0.089929 -8.543165 0.000003 0.120336 -0.636509 0.119963
    25 0.000000 -0.359714 0.000000 0.000000 0.000000 0.000000
    26 -0.170479 -2.636148 -0.277655 -1.198425 -0.102575 0.176833
    27 0.010599 -1.261177 0.000001 -0.208454 0.000000 0.000000
    28 -0.000001 -0.943234 -0.000001 -0.481060 0.000000 0.000000
    29 -0.827561 -2.508971 -0.277655 -0.822449 -0.046319 0.035345
    30 0.000001 -1.292971 0.000000 -0.461579 0.000000 0.000000
    31 -0.000002 -0.752465 -0.000001 -0.597368 -0.248766 0.191906
    32 0.444213 -2.561961 -0.277655 -1.510199 -0.031095 0.218736
    33 0.021023 -1.208187 0.000000 0.149817 0.002732 -0.019187
    34 0.010596 -0.741866 -0.000002 -0.499514 0.000000 0.000000
    35 1.047446 -2.222821 -0.277655 -1.518038 -0.048960 0.240560
    36 -0.000001 -0.996223 -0.000002 0.190112 -0.000010 0.000000
    37 -0.000001 -0.614691 0.000000 -0.639051 -0.000010 -0.000006
    38 -0.308256 -0.007813 0.307165 -0.186084 -0.194149 -2.470783
    39 1.978378 0.019543 0.000000 0.060463 -0.083752 0.193483
    40 0.980610 0.058420 -0.012628 0.223188 0.031183 -0.092903
  time 5
    0 9.097654 3.897337 -7.617836 0.204527 -2.015315 -6.544173
    1 -0.021281 -8.563254 -0.000751 0.078651 0.340636 -0.070331
    2 0.255781 -2.632861 1.783856 0.291615 1.732588 0.285179
    3 0.697652 -4.251642 3.687079 0.000000 0.118638 0.000000
    4 1.003907 -13.071015 3.484482 0.001055 -0.042581 -0.024952
    5 1.000000 -5.088156 2.193883 -0.065377 0.000000 0.000000
    6 1.000000 -1.827747 1.296099 -0.312155 0.000000 0.000000
    7 -0.003480 -0.404828 0.000000 -0.000001 0.000000 0.000000
    8 -0.519309 -2.501154 -0.278957 -0.879568 -0.036235 -0.324918
    9 -0.010598 -1.208185 -0.000002 -1.185576 0.000000 0.000000
    10 -0.000001 -0.763066 0.000000 -0.741497 0.000000 0.000000
    11 0.105981 -2.607134 -0.278958 -0.872556 -0.035899 -0.258089
    12 0.000000 -1.250579 0.000000 -0.794537 0.000000 0.000000
    13 -0.000001 -0.932634 0.000000 -1.567302 0.000000 0.000000
    14 0.763064 -2.490556 -0.278958 -0.313873 0.040172 0.012324
    15 -0.012322 -1.280917 0.000000 -0.056602 0.000000 0.000000
    16 -0.001696 -0.738090 0.129481 -0.537882 0.000000 0.000000
    17 0.354567 0.016267 0.318133 0.308709 -0.503867 -0.874878
    18 1.887165 0.012877 0.000000 -0.095972 -0.113059 -1.028586
    19 1.001874 -0.000270 0.000000 0.000000 0.000000 -0.250165
    20 -1.123359 -2.195093 -0.278957 -1.061907 0.026409 -0.326972
    21 0.010772 -0.963791 0.000001 -0.810998 0.000000 0.000000
    22 -0.010413 -0.631916 0.000000 -0.691889 0.000000 0.000000
    23 0.800620 -10.682529 -8.403161 5.813741 0.428181 0.592769
    24 0.089929 -8.543165 0.000003 0.181050 -0.594230 0.135744
    25 0.000000 -0.359714 0.000000 0.000000 0.000000 0.000000
    26 -0.170479 -2.636148 -0.277655 -1.167870 -0.102575 0.176833
    27 0.010599 -1.261177 0.000001 -0.215601 0.000000 0.000000
    28 -0.000001 -0.943234 -0.000001 -0.502445 0.000000 0.000000
    29 -0.827561 -2.508971 -0.277655 -0.814649 -0.046319 0.035345
    30 0.000001 -1.292971 0.000000 -0.433067 0.000000 0.000000
    31 -0.000002 -0.752465 -0.000001 -0.605640 -0.248766 0.191906
    32 0.444213 -2.561961 -0.277655 -1.499979 -0.021663 0.220509
    33 0.021023 -1.208187 0.000000 0.137118 0.005034 -0.035319
    34 0.010596 -0.741866 -0.000002 -0.499945 0.000000 0.000000
    35 1.047446 -2.222821 -0.277655 -1.514986 -0.047906 0.240872
    36 -0.000001 -0.996223 -0.000002 0.172073 -0.000010 0.000000
    37 -0.000001 -0.614691 0.000000 -0.639661 -0.000010 -0.000006
    38 -0.308256 -0.007813 0.307165 -0.199476 -0.180005 -2.431624
    39 1.978378 0.019543 0.000000 0.060415 -0.083824 0.194201
    40 0.980610 0.058420 -0.012628 0.223703 0.028068 -0.079135
  time 6
    0 8.804677 3.194190 -7.531895 0.220248 -2.016445 -6.522276
    1 -0.021281 -8.563254 -0.000751 0.048534 0.309457 -0.093317
    2 0.255781 -2.632861 1.783856 0.291615 1.732588 0.285179
    3 0.697652 -4.251642 3.687079 0.000000 0.000000 0.000000
    4 1.000001 -13.266334 3.484482 0.000000 0.000000 0.000000
    5 1.000000 -5.088156 2.193883 -0.065377 0.000000 0.000000
    6 1.000000 -1.827747 1.296099 -0.312155 0.000000 0.000000
    7 -0.003480 -0.404828 0.000000 -0.000001 0.000000 0.000000
    8 -0.519309 -2.501154 -0.278957 -0.879568 -0.036235 -0.324918
    9 -0.010598 -1.208185 -0.000002 -1.185576 0.000000 0.000000
    10 -0.000001 -0.763066 0.000000 -0.741497 0.000000 0.000000
    11 0.105981 -2.607134 -0.278958 -0.872556 -0.035899 -0.258089
    12 0.000000 -1.250579 0.000000 -0.794537 0.000000 0.000000
    13 -0.000001 -0.932634 0.000000 -1.567302 0.000000 0.000000
    14 0.763064 -2.490556 -0.278958 -0.313873 0.040172 0.012324
    15 -0.012322 -1.280917 0.000000 -0.008759 0.000000 0.000000
    16 -0.001696 -0.738090 0.129481 -0.676383 0.000000 0.000000
    17 0.354567 0.016267 0.318133 0.308709 -0.503867 -0.874878
    18 1.887165 0.012877 0.000000 -0.095972 -0.113059 -1.028586
    19 1.001874 -0.000270 0.000000 0.000000 0.000000 -0.250165
    20 -1.123359 -2.195093 -0.278957 -1.061907 0.026409 -0.326972
    21 0.010772 -0.963791 0.000001 -0.810998 0.000000 0.000000
    22 -0.010413 -0.631916 0.000000 -0.691889 0.000000 0.000000
    23 0.945155 -11.112230 -8.223468 5.838596 0.416246 0.576255
    24 0.089929 -8.543165 0.000003 0.234156 -0.559474 0.143271
    25 0.000000 -0.359714 0.000000 0.000000 0.000000 0.000000
    26 -0.170479 -2.636148 -0.277655 -1.131902 -0.102575 0.176833
    27 0.010599 -1.261177 0.000001 -0.225964 0.000000 0.000000
    28 -0.000001 -0.943234 -0.000001 -0.532873 0.000000 0.000000
    29 -0.827561 -2.508971 -0.277655 -0.804453 -0.046319 0.035345
    30 0.000001 -1.292971 0.000000 -0.405817 0.000000 0.000000
    31 -0.000002 -0.752465 -0.000001 -0.616446 -0.248766 0.191906
    32 0.444213 -2.561961 -0.277655 -1.483584 -0.013766 0.221996
    33 0.021023 -1.208187 0.000000 0.124392 0.006963 -0.048849
    34 0.010596 -0.741866 -0.000002 -0.500663 0.000000 0.000000
    35 1.047446 -2.222821 -0.277655 -1.509386 -0.046779 0.241207
    36 -0.000001 -0.996223 -0.000002 0.149762 -0.000010 0.000000
    37 -0.000001 -0.614691 0.000000 -0.640525 -0.000010 -0.000006
    38 -0.308256 -0.007813 0.307165 -0.205422 -0.182149 -2.414291
    39 1.978378 0.019543 0.000000 0.061733 -0.069143 0.178282
    40 0.980610 0.058420 -0.012628 0.222960 0.032166 -0.097340
  time 7
    0 8.753894 2.909025 -7.500644 0.222455 -2.010745 -6.513479
    1 -0.021281 -8.563254 -0.000751 0.035736 0.294334 -0.103498
    2 0.255781 -2.632861 1.783856 0.291615 1.732588 0.285179
    3 0.697652 -4.251642 3.687079 0.000000 0.000000 0.000000
    4 1.000001 -13.266334 3.484482 0.000000 0.000000 0.000000
    5 1.000000 -5.088156 2.193883 -0.065377 0.000000 0.000000
    6 1.000000 -1.827747 1.296099 -0.312155 0.000000 0.000000
    7 -0.003480 -0.404828 0.000000 -0.000001 0.000000 0.000000
    8 -0.519309 -2.501154 -0.278957 -0.879568 -0.036235 -0.324918
    9 -0.010598 -1.208185 -0.000002 -1.185576 0.000000 0.000000
    10 -0.000001 -0.763066 0.000000 -0.741497 0.000000 0.000000
    11 0.105981 -2.607134 -0.278958 -0.872556 -0.035899 -0.258089
    12 0.000000 -1.250579 0.000000 -0.794537 0.000000 0.000000
    13 -0.000001 -0.932634 0.000000 -1.567302 0.000000 0.000000
    14 0.763064 -2.490556 -0.278958 -0.313873 0.040172 0.012324
    15 -0.012322 -1.280917 0.000000 0.039083 0.000000 0.000000
    16 -0.001696 -0.738090 0.129481 -0.814848 0.000000 0.000000
    17 0.354567 0.016267 0.318133 0.308709 -0.503867 -0.874878
    18 1.887165 0.012877 0.000000 -0.095972 -0.113059 -1.028586
    19 1.001874 -0.000270 0.000000 0.000000 0.000000 -0.250165
    20 -1.123359 -2.195093 -0.278957 -1.061907 0.026409 -0.326972
    21 0.010772 -0.963791 0.000001 -0.810998 0.000000 0.000000
    22 -0.010413 -0.631916 0.000000 -0.691889 0.000000 0.000000
    23 0.964687 -11.534118 -8.407068 5.840603 0.420747 0.583552
    24 0.089929 -8.543165 0.000003 0.255435 -0.543228 0.135114
    25 0.000000 -0.359714 0.000000 0.000000 0.000000 0.000000
    26 -0.170479 -2.636148 -0.277655 -1.094463 -0.102575 0.176833
    27 0.010599 -1.261177 0.000001 -0.239738 0.000000 0.000000
    28 -0.000001 -0.943234 -0.000001 -0.572598 0.000000 0.000000
    29 -0.827561 -2.508971 -0.277655 -0.792296 -0.046319 0.035345
    30 0.000001 -1.292971 0.000000 -0.380444 0.000000 0.000000
    31 -0.000002 -0.752465 -0.000001 -0.629277 -0.248766 0.191906
    32 0.444213 -2.561961 -0.277655 -1.459849 -0.010446 0.222619
    33 0.021023 -1.208187 0.000000 0.114540 0.007778 -0.054518
    34 0.010596 -0.741866 -0.000002 -0.501775 0.000000 0.000000
    35 1.047446 -2.222821 -0.277655 -1.500497 -0.045760 0.241519
    36 -0.000001 -0.996223 -0.000002 0.124883 -0.000010 0.000000
    37 -0.000001 -0.614691 0.000000 -0.641795 -0.000010 -0.000006
    38 -0.308256 -0.007813 0.307165 -0.209777 -0.186912 -2.401520
    39 1.978378 0.019543 0.000000 0.064633 -0.036820 0.143311
    40 0.980610 0.058420 -0.012628 0.221318 0.041191 -0.137433
  time 8
    0 8.867179 2.842617 -7.496738 0.219972 -2.000313 -6.517017
    1 -0.021281 -8.563254 -0.000751 0.038329 0.294334 -0.103498
    2 0.255781 -2.632861 1.783856 0.291615 1.732588 0.285179
    3 0.697652 -4.251642 3.687079 0.000000 0.000000 0.000000
    4 1.000001 -13.266334 3.484482 0.000000 0.000000 0.000000
    5 1.000000 -5.088156 2.193883 -0.065377 0.000000 0.000000
    6 1.000000 -1.827747 1.296099 -0.312155 0.000000 0.000000
    7 -0.003480 -0.404828 0.000000 -0.000001 0.000000 0.000000
    8 -0.519309 -2.501154 -0.278957 -0.879568 -0.036235 -0.324918
    9 -0.010598 -1.208185 -0.000002 -1.185576 0.000000 0.000000
    10 -0.000001 -0.763066 0.000000 -0.741497 0.000000 0.000000
    11 0.105981 -2.607134 -0.278958 -0.872556 -0.035899 -0.258089
    12 0.000000 -1.250579 0.000000 -0.794537 0.000000 0.000000
    13 -0.000001 -0.932634 0.000000 -1.567302 0.000000 0.000000
    14 0.763064 -2.490556 -0.278958 -0.313873 0.040172 0.012324
    15 -0.012322 -1.280917 0.000000 0.039083 0.000000 0.000000
    16 -0.001696 -0.738090 0.129481 -0.814848 0.000000 0.000000
    17 0.354567 0.016267 0.318133 0.308709 -0.503867 -0.874878
    18 1.887165 0.012877 0.000000 -0.095972 -0.113059 -1.028586
    19 1.001874 -0.000270 0.000000 0.000000 0.000000 -0.250165
    20 -1.123359 -2.195093 -0.278957 -1.061907 0.026409 -0.326972
    21 0.010772 -0.963791 0.000001 -0.810998 0.000000 0.000000
    22 -0.010413 -0.631916 0.000000 -0.691889 0.000000 0.000000
    23 0.980313 -11.850534 -8.754735 5.809822 0.425316 0.587968
    24 0.089929 -8.543165 0.000003 0.272229 -0.540264 0.118946
    25 0.000000 -0.359714 0.000000 0.000000 0.000000 0.000000
    26 -0.170479 -2.636148 -0.277655 -1.048643 -0.102575 0.176833
    27 0.010599 -1.261177 0.000001 -0.259295 0.000000 0.000000
    28 -0.000001 -0.943234 -0.000001 -0.631754 0.000000 0.000000
    29 -0.827561 -2.508971 -0.277655 -0.778613 -0.046319 0.035345
    30 0.000001 -1.292971 0.000000 -0.357454 0.000000 0.000000
    31 -0.000002 -0.752465 -0.000001 -0.643754 -0.248766 0.191906
    32 0.444213 -2.561961 -0.277655 -1.422073 -0.012807 0.222175
    33 0.021023 -1.208187 0.000000 0.108519 0.007203 -0.050479
    34 0.010596 -0.741866 -0.000002 -0.525319 0.000000 0.000000
    35 1.047446 -2.222821 -0.277655 -1.476792 -0.044730 0.241831
    36 -0.000001 -0.996223 -0.000002 0.099166 -0.000010 0.000000
    37 -0.000001 -0.614691 0.000000 -0.643420 -0.000010 -0.000006
    38 -0.308256 -0.007813 0.307165 -0.213804 -0.191799 -2.389526
    39 1.978378 0.019543 0.000000 0.067534 -0.004486 0.108340
    40 0.980610 0.058420 -0.012628 0.219688 0.050215 -0.177527
  time 9
    0 9.050778 2.905119 -7.508457 0.215192 -1.988537 -6.526962
    1 -0.021281 -8.563254 -0.000751 0.044490 0.294334 -0.103498
    2 0.255781 -2.632861 1.783856 0.291615 1.732588 0.285179
    3 0.697652 -4.251642 3.687079 0.000000 0.000000 0.000000
    4 1.000001 -13.266334 3.484482 0.000000 0.000000 0.000000
    5 1.000000 -5.088156 2.193883 -0.065377 0.000000 0.000000
    6 1.000000 -1.827747 1.296099 -0.312155 0.000000 0.000000
    7 -0.003480 -0.404828 0.000000 -0.000001 0.000000 0.000000
    8 -0.519309 -2.501154 -0.278957 -0.879568 -0.036235 -0.324918
    9 -0.010598 -1.208185 -0.000002 -1.185576 0.000000 0.000000
    10 -0.000001 -0.763066 0.000000 -0.741497 0.000000 0.000000
    11 0.105981 -2.607134 -0.278958 -0.872556 -0.035899 -0.258089
    12 0.000000 -1.250579 0.000000 -0.794537 0.000000 0.000000
    13 -0.000001 -0.932634 0.000000 -1.567302 0.000000 0.000000
    14 0.763064 -2.490556 -0.278958 -0.313873 0.040172 0.012324
    15 -0.012322 -1.280917 0.000000 0.039083 0.000000 0.000000
    16 -0.001696 -0.738090 0.129481 -0.814848 0.000000 0.000000
    17 0.354567 0.016267 0.318133 0.308709 -0.503867 -0.874878
    18 1.887165 0.012877 0.000000 -0.095972 -0.113059 -1.028586
    19 1.001874 -0.000270 0.000000 0.000000 0.000000 -0.250165
    20 -1.123359 -2.195093 -0.278957 -1.061907 0.026409 -0.326972
    21 0.010772 -0.963791 0.000001 -0.810998 0.000000 0.000000
    22 -0.010413 -0.631916 0.000000 -0.691889 0.000000 0.000000
    23 1.007657 -11.979444 -9.141465 5.765179 0.423679 0.581760
    24 0.089929 -8.543165 0.000003 0.307152 -0.540432 0.098691
    25 0.000000 -0.359714 0.000000 0.000000 0.000000 0.000000
    26 -0.170479 -2.636148 -0.277655 -0.990974 -0.102575 0.176833
    27 0.010599 -1.261177 0.000001 -0.284633 0.000000 0.000000
    28 -0.000001 -0.943234 -0.000001 -0.711012 0.000000 0.000000
    29 -0.827561 -2.508971 -0.277655 -0.763885 -0.046319 0.035345
    30 0.000001 -1.292971 0.000000 -0.337423 0.000000 0.000000
    31 -0.000002 -0.752465 -0.000001 -0.659329 -0.248766 0.191906
    32 0.444213 -2.561961 -0.277655 -1.370559 -0.018703 0.221073
    33 0.021023 -1.208187 0.000000 0.104496 0.005753 -0.040376
    34 0.010596 -0.741866 -0.000002 -0.582133 0.000000 0.000000
    35 1.047446 -2.222821 -0.277655 -1.434155 -0.043519 0.242190
    36 -0.000001 -0.996223 -0.000002 0.074286 -0.000010 0.000000
    37 -0.000001 -0.614691 0.000000 -0.645452 -0.000010 -0.000006
    38 -0.308256 -0.007813 0.307165 -0.218580 -0.194293 -2.374465
    39 1.978378 0.019543 0.000000 0.068852 0.010207 0.092421
    40 0.980610 0.058420 -0.012628 0.218933 0.054314 -0.195731
  time 10
    0 9.222658 3.006684 -7.524083 0.210503 -1.978965 -6.537289
    1 -0.021281 -8.563254 -0.000751 0.051841 0.294334 -0.103498
    2 0.255781 -2.632861 1.783856 0.291615 1.732588 0.285179
    3 0.697652 -4.251642 3.687079 0.000000 0.000000 0.000000
    4 1.000001 -13.266334 3.484482 0.000000 0.000000 0.000000
    5 1.000000 -5.088156 2.193883 -0.065377 0.000000 0.000000
    6 1.000000 -1.827747 1.296099 -0.312155 0.000000 0.000000
    7 -0.003480 -0.404828 0.000000 -0.000001 0.000000 0.000000
    8 -0.519309 -2.501154 -0.278957 -0.879568 -0.036235 -0.324918
    9 -0.010598 -1.208185 -0.000002 -1.185576 0.000000 0.000000
    10 -0.000001 -0.763066 0.000000 -0.741497 0.000000 0.000000
    11 0.105981 -2.607134 -0.278958 -0.872556 -0.035899 -0.258089
    12 0.000000 -1.250579 0.000000 -0.794537 0.000000 0.000000
    13 -0.000001 -0.932634 0.000000 -1.567302 0.000000 0.000000
    14 0.763064 -2.490556 -0.278958 -0.313873 0.040172 0.012324
    15 -0.012322 -1.280917 0.000000 0.039083 0.000000 0.000000
    16 -0.001696 -0.738090 0.129481 -0.814848 0.000000 0.000000
    17 0.354567 0.016267 0.318133 0.308709 -0.503867 -0.874878
    18 1.887165 0.012877 0.000000 -0.095972 -0.113059 -1.028586
    19 1.001874 -0.000270 0.000000 0.000000 0.000000 -0.250165
    20 -1.123359 -2.195093 -0.278957 -1.061907 0.026409 -0.326972
    21 0.010772 -0.963791 0.000001 -0.810998 0.000000 0.000000
    22 -0.010413 -0.631916 0.000000 -0.691889 0.000000 0.000000
    23 1.038908 -12.041946 -9.571166 5.712889 0.419519 0.571967
    24 0.089929 -8.543165 0.000003 0.348536 -0.541242 0.074980
    25 0.000000 -0.359714 0.000000 0.000000 0.000000 0.000000
    26 -0.170479 -2.636148 -0.277655 -0.930468 -0.102575 0.176833
    27 0.010599 -1.261177 0.000001 -0.312279 0.000000 0.000000
    28 -0.000001 -0.943234 -0.000001 -0.796587 0.000000 0.000000
    29 -0.827561 -2.508971 -0.277655 -0.748460 -0.046319 0.035345
    30 0.000001 -1.292971 0.000000 -0.320856 0.000000 0.000000
    31 -0.000002 -0.752465 -0.000001 -0.675621 -0.248766 0.191906
    32 0.444213 -2.561961 -0.277655 -1.314504 -0.026385 0.219623
    33 0.021023 -1.208187 0.000000 0.101129 0.003883 -0.027253
    34 0.010596 -0.741866 -0.000002 -0.655492 0.000000 0.000000
    35 1.047446 -2.222821 -0.277655 -1.382924 -0.042297 0.242550
    36 -0.000001 -0.996223 -0.000002 0.051975 -0.000010 0.000000
    37 -0.000001 -0.614691 0.000000 -0.647993 -0.000010 -0.000006
    38 -0.308256 -0.007813 0.307165 -0.226352 -0.194520 -2.348960
    39 1.978378 0.019543 0.000000 0.067426 0.009021 0.110323
    40 0.980610 0.058420 -0.012628 0.219329 0.053175 -0.190515
  time 11
    0 9.296879 3.061374 -7.531895 0.208480 -1.975040 -6.542070
    1 -0.021281 -8.563254 -0.000751 0.058026 0.294334 -0.103498
    2 0.255781 -2.632861 1.783856 0.291615 1.732588 0.285179
    3 0.697652 -4.251642 3.687079 0.000000 0.000000 0.000000
    4 1.000001 -13.266334 3.484482 0.000000 0.000000 0.000000
    5 1.000000 -5.088156 2.193883 -0.065377 0.000000 0.000000
    6 1.000000 -1.827747 1.296099 -0.312155 0.000000 0.000000
    7 -0.003480 -0.404828 0.000000 -0.000001 0.000000 0.000000
    8 -0.519309 -2.501154 -0.278957 -0.879568 -0.036235 -0.324918
    9 -0.010598 -1.208185 -0.000002 -1.185576 0.000000 0.000000
    10 -0.000001 -0.763066 0.000000 -0.741497 0.000000 0.000000
    11 0.105981 -2.607134 -0.278958 -0.872556 -0.035899 -0.258089
    12 0.000000 -1.250579 0.000000 -0.794537 0.000000 0.000000
    13 -0.000001 -0.932634 0.000000 -1.567302 0.000000 0.000000
    14 0.763064 -2.490556 -0.278958 -0.313873 0.040172 0.012324
    15 -0.012322 -1.280917 0.000000 0.039083 0.000000 0.000000
    16 -0.001696 -0.738090 0.129481 -0.814848 0.000000 0.000000
    17 0.354567 0.016267 0.318133 0.308709 -0.503867 -0.874878
    18 1.887165 0.012877 0.000000 -0.095972 -0.113059 -1.028586
    19 1.001874 -0.000270 0.000000 0.000000 0.000000 -0.250165
    20 -1.123359 -2.195093 -0.278957 -1.061907 0.026409 -0.326972
    21 0.010772 -0.963791 0.000001 -0.810998 0.000000 0.000000
    22 -0.010413 -0.631916 0.000000 -0.691889 0.000000 0.000000
    23 1.077972 -12.084916 -9.965709 5.665283 0.412767 0.559934
    24 0.089929 -8.543165 0.000003 0.383138 -0.543060 0.055291
    25 0.000000 -0.359714 0.000000 0.000000 0.000000 0.000000
    26 -0.170479 -2.636148 -0.277655 -0.876109 -0.102575 0.176833
    27 0.010599 -1.261177 0.000001 -0.338657 0.000000 0.000000
    28 -0.000001 -0.943234 -0.000001 -0.874788 0.000000 0.000000
    29 -0.827561 -2.508971 -0.277655 -0.732860 -0.046319 0.035345
    30 0.000001 -1.292971 0.000000 -0.308332 0.000000 0.000000
    31 -0.000002 -0.752465 -0.000001 -0.692124 -0.248766 0.191906
    32 0.444213 -2.561961 -0.277655 -1.263074 -0.034055 0.218184
    33 0.021023 -1.208187 0.000000 0.097079 0.002013 -0.014130
    34 0.010596 -0.741866 -0.000002 -0.728635 0.000000 0.000000
    35 1.047446 -2.222821 -0.277655 -1.333501 -0.041218 0.242873
    36 -0.000001 -0.996223 -0.000002 0.033936 -0.000010 0.000000
    37 -0.000001 -0.614691 0.000000 -0.650990 -0.000010 -0.000006
    38 -0.308256 -0.007813 0.307165 -0.234874 -0.194561 -2.320281
    39 1.978378 0.019543 0.000000 0.064777 0.006816 0.143541
    40 0.980610 0.058420 -0.012628 0.220192 0.049903 -0.175752
  time 12
    0 9.277347 3.061374 -7.531895 0.208940 -1.976815 -6.541209
    1 -0.021281 -8.563254 -0.000751 0.060595 0.294334 -0.103498
    2 0.255781 -2.632861 1.783856 0.291615 1.732588 0.285179
    3 0.697652 -4.251642 3.687079 0.000000 0.000000 0.000000
    4 1.000001 -13.266334 3.484482 0.000000 0.000000 0.000000
    5 1.000000 -5.088156 2.193883 -0.065377 0.000000 0.000000
    6 1.000000 -1.827747 1.296099 -0.312155 0.000000 0.000000
    7 -0.003480 -0.404828 0.000000 -0.000001 0.000000 0.000000
    8 -0.519309 -2.501154 -0.278957 -0.879568 -0.036235 -0.324918
    9 -0.010598 -1.208185 -0.000002 -1.185576 0.000000 0.000000
    10 -0.000001 -0.763066 0.000000 -0.741497 0.000000 0.000000
    11 0.105981 -2.607134 -0.278958 -0.872556 -0.035899 -0.258089
    12 0.000000 -1.250579 0.000000 -0.794537 0.000000 0.000000
    13 -0.000001 -0.932634 0.000000 -1.567302 0.000000 0.000000
    14 0.763064 -2.490556 -0.278958 -0.313873 0.040172 0.012324
    15 -0.012322 -1.280917 0.000000 0.039083 0.000000 0.000000
    16 -0.001696 -0.738090 0.129481 -0.814848 0.000000 0.000000
    17 0.354567 0.016267 0.318133 0.308709 -0.503867 -0.874878
    18 1.887165 0.012877 0.000000 -0.095972 -0.113059 -1.028586
    19 1.001874 -0.000270 0.000000 0.000000 0.000000 -0.250165
    20 -1.123359 -2.195093 -0.278957 -1.061907 0.026409 -0.326972
    21 0.010772 -0.963791 0.000001 -0.810998 0.000000 0.000000
    22 -0.010413 -0.631916 0.000000 -0.691889 0.000000 0.000000
    23 1.148287 -12.147418 -10.239155 5.629913 0.404788 0.547965
    24 0.089929 -8.543165 0.000003 0.397609 -0.546331 0.047069
    25 0.000000 -0.359714 0.000000 0.000000 0.000000 0.000000
    26 -0.170479 -2.636148 -0.277655 -0.836884 -0.102575 0.176833
    27 0.010599 -1.261177 0.000001 -0.360358 0.000000 0.000000
    28 -0.000001 -0.943234 -0.000001 -0.931795 0.000000 0.000000
    29 -0.827561 -2.508971 -0.277655 -0.717478 -0.046319 0.035345
    30 0.000001 -1.292971 0.000000 -0.300428 0.000000 0.000000
    31 -0.000002 -0.752465 -0.000001 -0.708417 -0.248766 0.191906
    32 0.444213 -2.561961 -0.277655 -1.225464 -0.039964 0.217070
    33 0.021023 -1.208187 0.000000 0.090976 0.000575 -0.004039
    34 0.010596 -0.741866 -0.000002 -0.784803 0.000000 0.000000
    35 1.047446 -2.222821 -0.277655 -1.296226 -0.040451 0.243101
    36 -0.000001 -0.996223 -0.000002 0.021871 -0.000010 0.000000
    37 -0.000001 -0.614691 0.000000 -0.654546 -0.000010 -0.000006
    38 -0.308256 -0.007813 0.307165 -0.238901 -0.194809 -2.306663
    39 1.978378 0.019543 0.000000 0.063363 0.005629 0.161386
    40 0.980610 0.058420 -0.012628 0.221114 0.044762 -0.152922
  time 13
    0 9.222658 3.061374 -7.531895 0.210319 -1.981493 -6.538914
    1 -0.021281 -8.563254 -0.000751 0.059263 0.294362 -0.103458
    2 0.255781 -2.632861 1.783856 0.291615 1.732588 0.285179
    3 0.697652 -4.251642 3.687079 0.000000 0.000000 0.000000
    4 1.000001 -13.266334 3.484482 0.000000 0.000000 0.000000
    5 1.000000 -5.088156 2.193883 -0.065377 0.000000 0.000000
    6 1.000000 -1.827747 1.296099 -0.312155 0.000000 0.000000
    7 -0.003480 -0.404828 0.000000 -0.000001 0.000000 0.000000
    8 -0.519309 -2.501154 -0.278957 -0.879568 -0.036235 -0.324918
    9 -0.010598 -1.208185 -0.000002 -1.185576 0.000000 0.000000
    10 -0.000001 -0.763066 0.000000 -0.741497 0.000000 0.000000
    11 0.105981 -2.607134 -0.278958 -0.872556 -0.035899 -0.258089
    12 0.000000 -1.250579 0.000000 -0.794537 0.000000 0.000000
    13 -0.000001 -0.932634 0.000000 -1.567302 0.000000 0.000000
    14 0.763064 -2.490556 -0.278958 -0.313873 0.040172 0.012324
    15 -0.012322 -1.280917 0.000000 0.039083 0.000000 0.000000
    16 -0.001696 -0.738090 0.129481 -0.814848 0.000000 0.000000
    17 0.354567 0.016267 0.318133 0.308709 -0.503867 -0.874878
    18 1.887165 0.012877 0.000000 -0.095972 -0.113059 -1.028586
    19 1.001874 -0.000270 0.000000 0.000000 0.000000 -0.250165
    20 -1.123359 -2.195093 -0.278957 -1.061907 0.026409 -0.326972
    21 0.010772 -0.963791 0.000001 -0.810998 0.000000 0.000000
    22 -0.010413 -0.631916 0.000000 -0.691889 0.000000 0.000000
    23 1.253759 -12.245077 -10.407129 5.601904 0.396535 0.536572
    24 0.089929 -8.543165 0.000003 0.396355 -0.558075 0.049767
    25 0.000000 -0.359714 0.000000 0.000000 0.000000 0.000000
    26 -0.170479 -2.636148 -0.277655 -0.821829 -0.102575 0.176833
    27 0.010599 -1.261177 0.000001 -0.373839 0.000000 0.000000
    28 -0.000001 -0.943234 -0.000001 -0.953854 0.000000 0.000000
    29 -0.827561 -2.508971 -0.277655 -0.702706 -0.046319 0.035345
    30 0.000001 -1.292971 0.000000 -0.297685 0.000000 0.000000
    31 -0.000002 -0.752465 -0.000001 -0.723991 -0.248766 0.191906
    32 0.444213 -2.561961 -0.277655 -1.210896 -0.042325 0.216626
    33 0.021023 -1.208187 0.000000 0.081507 0.000000 0.000000
    34 0.010596 -0.741866 -0.000002 -0.807234 0.000000 0.000000
    35 1.047446 -2.222821 -0.277655 -1.281500 -0.040164 0.243185
    36 -0.000001 -0.996223 -0.000002 0.017455 -0.000010 0.000000
    37 -0.000001 -0.614691 0.000000 -0.658661 -0.000010 -0.000006
    38 -0.308256 -0.007813 0.307165 -0.235577 -0.195489 -2.317683
    39 1.978378 0.019543 0.000000 0.063555 0.005785 0.159000
    40 0.980610 0.058420 -0.012628 0.222085 0.036948 -0.118503
  time 14
    0 9.140625 3.061374 -7.531895 0.212158 -1.988107 -6.535759
    1 -0.021281 -8.563254 -0.000751 0.055814 0.294444 -0.103339
    2 0.255781 -2.632861 1.783856 0.291615 1.732588 0.285179
    3 0.697652 -4.251642 3.687079 0.000000 0.000000 0.000000
    4 1.000001 -13.266334 3.484482 0.000000 0.000000 0.000000
    5 1.000000 -5.088156 2.193883 -0.065377 0.000000 0.000000
    6 1.000000 -1.827747 1.296099 -0.312155 0.000000 0.000000
    7 -0.003480 -0.404828 0.000000 -0.000001 0.000000 0.000000
    8 -0.519309 -2.501154 -0.278957 -0.879568 -0.036235 -0.324918
    9 -0.010598 -1.208185 -0.000002 -1.185576 0.000000 0.000000
    10 -0.000001 -0.763066 0.000000 -0.741497 0.000000 0.000000
    11 0.105981 -2.607134 -0.278958 -0.872556 -0.035899 -0.258089
    12 0.000000 -1.250579 0.000000 -0.794537 0.000000 0.000000
    13 -0.000001 -0.932634 0.000000 -1.567302 0.000000 0.000000
    14 0.763064 -2.490556 -0.278958 -0.313873 0.040172 0.012324
    15 -0.012322 -1.280917 0.000000 0.039083 0.000000 0.000000
    16 -0.001696 -0.738090 0.129481 -0.814848 0.000000 0.000000
    17 0.354567 0.016267 0.318133 0.308709 -0.503867 -0.874878
    18 1.887165 0.012877 0.000000 -0.095972 -0.113059 -1.028586
    19 1.001874 -0.000270 0.000000 0.000000 0.000000 -0.250165
    20 -1.123359 -2.195093 -0.278957 -1.061907 0.026409 -0.326972
    21 0.010772 -0.963791 0.000001 -0.810998 0.000000 0.000000
    22 -0.010413 -0.631916 0.000000 -0.691889 0.000000 0.000000
    23 1.390482 -12.362268 -10.543852 5.576380 0.387396 0.524923
    24 0.089929 -8.543165 0.000003 0.393124 -0.581731 0.056696
    25 0.000000 -0.359714 0.000000 0.000000 0.000000 0.000000
    26 -0.170479 -2.636148 -0.277655 -0.838749 -0.102575 0.176833
    27 0.010599 -1.261177 0.000001 -0.380824 0.000000 0.000000
    28 -0.000001 -0.943234 -0.000001 -0.931474 0.000000 0.000000
    29 -0.827561 -2.508971 -0.277655 -0.689068 -0.046319 0.035345
    30 0.000001 -1.292971 0.000000 -0.328111 0.000000 0.000000
    31 -0.000002 -0.752465 -0.000001 -0.738468 -0.248766 0.191906
    32 0.444213 -2.561961 -0.277655 -1.220424 -0.042325 0.216626
    33 0.021023 -1.208187 0.000000 0.065606 0.000000 0.000000
    34 0.010596 -0.741866 -0.000002 -0.798297 0.000000 0.000000
    35 1.047446 -2.222821 -0.277655 -1.286004 -0.040895 0.242969
    36 -0.000001 -0.996223 -0.000002 0.017542 -0.000010 0.000000
    37 -0.000001 -0.614691 0.000000 -0.674156 -0.000010 -0.000006
    38 -0.308256 -0.007813 0.307165 -0.227102 -0.196458 -2.346110
    39 1.978378 0.019543 0.000000 0.064058 0.006180 0.152880
    40 0.980610 0.058420 -0.012628 0.223224 0.026965 -0.074618
  time 15
    0 9.050778 3.061374 -7.531895 0.214364 -1.995742 -6.532125
    1 -0.021281 -8.563254 -0.000751 0.051103 0.294526 -0.103140
    2 0.255781 -2.632861 1.783856 0.291615 1.732588 0.285179
    3 0.697652 -4.251642 3.687079 0.000000 0.000000 0.000000
    4 1.000001 -13.266334 3.484482 0.000000 0.000000 0.000000
    5 1.000000 -5.088156 2.193883 -0.065377 0.000000 0.000000
    6 1.000000 -1.827747 1.296099 -0.312155 0.000000 0.000000
    7 -0.003480 -0.404828 0.000000 -0.000001 0.000000 0.000000
    8 -0.519309 -2.501154 -0.278957 -0.879568 -0.036235 -0.324918
    9 -0.010598 -1.208185 -0.000002 -1.185576 0.000000 0.000000
    10 -0.000001 -0.763066 0.000000 -0.741497 0.000000 0.000000
    11 0.105981 -2.607134 -0.278958 -0.872556 -0.035899 -0.258089
    12 0.000000 -1.250579 0.000000 -0.794537 0.000000 0.000000
    13 -0.000001 -0.932634 0.000000 -1.567302 0.000000 0.000000
    14 0.763064 -2.490556 -0.278958 -0.313873 0.040172 0.012324
    15 -0.012322 -1.280917 0.000000 0.039083 0.000000 0.000000
    16 -0.001696 -0.738090 0.129481 -0.814848 0.000000 0.000000
    17 0.354567 0.016267 0.318133 0.308709 -0.503867 -0.874878
    18 1.887165 0.012877 0.000000 -0.095972 -0.113059 -1.028586
    19 1.001874 -0.000270 0.000000 0.000000 0.000000 -0.250165
    20 -1.123359 -2.195093 -0.278957 -1.061907 0.026409 -0.326972
    21 0.010772 -0.963791 0.000001 -0.810998 0.000000 0.000000
    22 -0.010413 -0.631916 0.000000 -0.691889 0.000000 0.000000
    23 1.538924 -12.487272 -10.649324 5.554011 0.378257 0.513850
    24 0.089929 -8.543165 0.000003 0.388718 -0.612294 0.066177
    25 0.000000 -0.359714 0.000000 0.000000 0.000000 0.000000
    26 -0.170479 -2.636148 -0.277655 -0.881101 -0.102575 0.176833
    27 0.010599 -1.261177 0.000001 -0.385599 0.000000 0.000000
    28 -0.000001 -0.943234 -0.000001 -0.875493 0.000000 0.000000
    29 -0.827561 -2.508971 -0.277655 -0.676910 -0.046319 0.035345
    30 0.000001 -1.292971 0.000000 -0.404121 0.000000 0.000000
    31 -0.000002 -0.752465 -0.000001 -0.751300 -0.248766 0.191906
    32 0.444213 -2.561961 -0.277655 -1.244297 -0.042325 0.216626
    33 0.021023 -1.208187 0.000000 0.043684 0.000000 0.000000
    34 0.010596 -0.741866 -0.000002 -0.775938 0.000000 0.000000
    35 1.047446 -2.222821 -0.277655 -1.297293 -0.042716 0.242418
    36 -0.000001 -0.996223 -0.000002 0.017715 -0.000010 0.000000
    37 -0.000001 -0.614691 0.000000 -0.705958 -0.000010 -0.000006
    38 -0.308256 -0.007813 0.307165 -0.215489 -0.197572 -2.384962
    39 1.978378 0.019543 0.000000 0.064717 0.006732 0.144518
    40 0.980610 0.058420 -0.012628 0.224302 0.017066 -0.031136
  time 16
    0 8.960932 3.061374 -7.531895 0.216479 -2.003324 -6.528492
    1 -0.021281 -8.563254 -0.000751 0.045989 0.294636 -0.102941
    2 0.255781 -2.632861 1.783856 0.291615 1.732588 0.285179
    3 0.697652 -4.251642 3.687079 0.000000 0.000000 0.000000
    4 1.000001 -13.266334 3.484482 0.000000 0.000000 0.000000
    5 1.000000 -5.088156 2.193883 -0.065377 0.000000 0.000000
    6 1.000000 -1.827747 1.296099 -0.312155 0.000000 0.000000
    7 -0.003480 -0.404828 0.000000 -0.000001 0.000000 0.000000
    8 -0.519309 -2.501154 -0.278957 -0.879568 -0.036235 -0.324918
    9 -0.010598 -1.208185 -0.000002 -1.185576 0.000000 0.000000
    10 -0.000001 -0.763066 0.000000 -0.741497 0.000000 0.000000
    11 0.105981 -2.607134 -0.278958 -0.872556 -0.035899 -0.258089
    12 0.000000 -1.250579 0.000000 -0.794537 0.000000 0.000000
    13 -0.000001 -0.932634 0.000000 -1.567302 0.000000 0.000000
    14 0.763064 -2.490556 -0.278958 -0.313873 0.040172 0.012324
    15 -0.012322 -1.280917 0.000000 0.039083 0.000000 0.000000
    16 -0.001696 -0.738090 0.129481 -0.814848 0.000000 0.000000
    17 0.354567 0.016267 0.318133 0.308709 -0.503867 -0.874878
    18 1.887165 0.012877 0.000000 -0.095972 -0.113059 -1.028586
    19 1.001874 -0.000270 0.000000 0.000000 0.000000 -0.250165
    20 -1.123359 -2.195093 -0.278957 -1.061907 0.026409 -0.326972
    21 0.010772 -0.963791 0.000001 -0.810998 0.000000 0.000000
    22 -0.010413 -0.631916 0.000000 -0.691889 0.000000 0.000000
    23 1.683459 -12.600557 -10.723545 5.535370 0.369664 0.503993
    24 0.089929 -8.543165 0.000003 0.383913 -0.644757 0.076514
    25 0.000000 -0.359714 0.000000 0.000000 0.000000 0.000000
    26 -0.170479 -2.636148 -0.277655 -0.936143 -0.102575 0.176833
    27 0.010599 -1.261177 0.000001 -0.388621 0.000000 0.000000
    28 -0.000001 -0.943234 -0.000001 -0.802711 0.000000 0.000000
    29 -0.827561 -2.508971 -0.277655 -0.666714 -0.046319 0.035345
    30 0.000001 -1.292971 0.000000 -0.503013 0.000000 0.000000
    31 -0.000002 -0.752465 -0.000001 -0.762105 -0.248766 0.191906
    32 0.444213 -2.561961 -0.277655 -1.275343 -0.042325 0.216626
    33 0.021023 -1.208187 0.000000 0.019737 0.000000 0.000000
    34 0.010596 -0.741866 -0.000002 -0.746903 0.000000 0.000000
    35 1.047446 -2.222821 -0.277655 -1.311989 -0.045089 0.241711
    36 -0.000001 -0.996223 -0.000002 0.017975 -0.000010 0.000000
    37 -0.000001 -0.614691 0.000000 -0.745635 -0.000010 -0.000006
    38 -0.308256 -0.007813 0.307165 -0.202847 -0.198685 -2.427295
    39 1.978378 0.019543 0.000000 0.065460 0.007331 0.135380
    40 0.980610 0.058420 -0.012628 0.225117 0.009467 0.002181
  time 17
    0 8.882804 3.061374 -7.531895 0.218409 -2.009992 -6.525336
    1 -0.021281 -8.563254 -0.000751 0.041279 0.294746 -0.102782
    2 0.255781 -2.632861 1.783856 0.291615 1.732588 0.285179
    3 0.697652 -4.251642 3.687079 0.000000 0.000000 0.000000
    4 1.000001 -13.266334 3.484482 0.000000 0.000000 0.000000
    5 1.000000 -5.088156 2.193883 -0.065377 0.000000 0.000000
    6 1.000000 -1.827747 1.296099 -0.312155 0.000000 0.000000
    7 -0.003480 -0.404828 0.000000 -0.000001 0.000000 0.000000
    8 -0.519309 -2.501154 -0.278957 -0.879568 -0.036235 -0.324918
    9 -0.010598 -1.208185 -0.000002 -1.185576 0.000000 0.000000
    10 -0.000001 -0.763066 0.000000 -0.741497 0.000000 0.000000
    11 0.105981 -2.607134 -0.278958 -0.872556 -0.035899 -0.258089
    12 0.000000 -1.250579 0.000000 -0.794537 0.000000 0.000000
    13 -0.000001 -0.932634 0.000000 -1.567302 0.000000 0.000000
    14 0.763064 -2.490556 -0.278958 -0.313873 0.040172 0.012324
    15 -0.012322 -1.280917 0.000000 0.039083 0.000000 0.000000
    16 -0.001696 -0.738090 0.129481 -0.814848 0.000000 0.000000
    17 0.354567 0.016267 0.318133 0.308709 -0.503867 -0.874878
    18 1.887165 0.012877 0.000000 -0.095972 -0.113059 -1.028586
    19 1.001874 -0.000270 0.000000 0.000000 0.000000 -0.250165
    20 -1.123359 -2.195093 -0.278957 -1.061907 0.026409 -0.326972
    21 0.010772 -0.963791 0.000001 -0.810998 0.000000 0.000000
    22 -0.010413 -0.631916 0.000000 -0.691889 0.000000 0.000000
    23 1.808463 -12.698216 -10.774327 5.521127 0.362571 0.496056
    24 0.089929 -8.543165 0.000003 0.379480 -0.674173 0.085996
    25 0.000000 -0.359714 0.000000 0.000000 0.000000 0.000000
    26 -0.170479 -2.636148 -0.277655 -0.991185 -0.102575 0.176833
    27 0.010599 -1.261177 0.000001 -0.390245 0.000000 0.000000
    28 -0.000001 -0.943234 -0.000001 -0.729993 0.000000 0.000000
    29 -0.827561 -2.508971 -0.277655 -0.658870 -0.046319 0.035345
    30 0.000001 -1.292971 0.000000 -0.601906 0.000000 0.000000
    31 -0.000002 -0.752465 -0.000001 -0.770378 -0.248766 0.191906
    32 0.444213 -2.561961 -0.277655 -1.306362 -0.042325 0.216626
    33 0.021023 -1.208187 0.000000 -0.002294 0.000000 0.000000
    34 0.010596 -0.741866 -0.000002 -0.717868 0.000000 0.000000
    35 1.047446 -2.222821 -0.277655 -1.326656 -0.047462 0.241004
    36 -0.000001 -0.996223 -0.000002 0.018206 -0.000010 0.000000
    37 -0.000001 -0.614691 0.000000 -0.784549 -0.000010 -0.000006
    38 -0.308256 -0.007813 0.307165 -0.191235 -0.199675 -2.466166
    39 1.978378 0.019543 0.000000 0.066131 0.007870 0.126990
    40 0.980610 0.058420 -0.012628 0.225441 0.006447 0.015465
  time 18
    0 8.824209 3.061374 -7.531895 0.219697 -2.014670 -6.523137
    1 -0.021281 -8.563254 -0.000751 0.037829 0.294828 -0.102663
    2 0.255781 -2.632861 1.783856 0.291615 1.732588 0.285179
    3 0.697652 -4.251642 3.687079 0.000000 0.000000 0.000000
    4 1.000001 -13.266334 3.484482 0.000000 0.000000 0.000000
    5 1.000000 -5.088156 2.193883 -0.065377 0.000000 0.000000
    6 1.000000 -1.827747 1.296099 -0.312155 0.000000 0.000000
    7 -0.003480 -0.404828 0.000000 -0.000001 0.000000 0.000000
    8 -0.519309 -2.501154 -0.278957 -0.879568 -0.036235 -0.324918
    9 -0.010598 -1.208185 -0.000002 -1.185576 0.000000 0.000000
    10 -0.000001 -0.763066 0.000000 -0.741497 0.000000 0.000000
    11 0.105981 -2.607134 -0.278958 -0.872556 -0.035899 -0.258089
    12 0.000000 -1.250579 0.000000 -0.794537 0.000000 0.000000
    13 -0.000001 -0.932634 0.000000 -1.567302 0.000000 0.000000
    14 0.763064 -2.490556 -0.278958 -0.313873 0.040172 0.012324
    15 -0.012322 -1.280917 0.000000 0.039083 0.000000 0.000000
    16 -0.001696 -0.738090 0.129481 -0.814848 0.000000 0.000000
    17 0.354567 0.016267 0.318133 0.308709 -0.503867 -0.874878
    18 1.887165 0.012877 0.000000 -0.095972 -0.113059 -1.028586
    19 1.001874 -0.000270 0.000000 0.000000 0.000000 -0.250165
    20 -1.123359 -2.195093 -0.278957 -1.061907 0.026409 -0.326972
    21 0.010772 -0.963791 0.000001 -0.810998 0.000000 0.000000
    22 -0.010413 -0.631916 0.000000 -0.691889 0.000000 0.000000
    23 1.894403 -12.768531 -10.805578 5.512141 0.357661 0.490743
    24 0.089929 -8.543165 0.000003 0.376250 -0.695452 0.092925
    25 0.000000 -0.359714 0.000000 0.000000 0.000000 0.000000
    26 -0.170479 -2.636148 -0.277655 -1.033510 -0.102575 0.176833
    27 0.010599 -1.261177 0.000001 -0.390927 0.000000 0.000000
    28 -0.000001 -0.943234 -0.000001 -0.674012 0.000000 0.000000
    29 -0.827561 -2.508971 -0.277655 -0.653859 -0.046319 0.035345
    30 0.000001 -1.292971 0.000000 -0.677988 0.000000 0.000000
    31 -0.000002 -0.752465 -0.000001 -0.775654 -0.248766 0.191906
    32 0.444213 -2.561961 -0.277655 -1.330235 -0.042325 0.216626
    33 0.021023 -1.208187 0.000000 -0.018414 0.000000 0.000000
    34 0.010596 -0.741866 -0.000002 -0.695509 0.000000 0.000000
    35 1.047446 -2.222821 -0.277655 -1.337945 -0.049296 0.240464
    36 -0.000001 -0.996223 -0.000002 0.018408 -0.000010 0.000000
    37 -0.000001 -0.614691 0.000000 -0.814167 -0.000010 -0.000006
    38 -0.308256 -0.007813 0.307165 -0.182760 -0.200376 -2.494574
    39 1.978378 0.019543 0.000000 0.066623 0.008278 0.120840
    40 0.980610 0.058420 -0.012628 0.224650 0.017042 -0.030867
  time 19
    0 8.804677 3.061374 -7.531895 0.220248 -2.016445 -6.522276
    1 -0.021281 -8.563254 -0.000751 0.036497 0.294856 -0.102583
    2 0.255781 -2.632861 1.783856 0.291615 1.732588 0.285179
    3 0.697652 -4.251642 3.687079 0.000000 0.000000 0.000000
    4 1.000001 -13.266334 3.484482 0.000000 0.000000 0.000000
    5 1.000000 -5.088156 2.193883 -0.065377 0.000000 0.000000
    6 1.000000 -1.827747 1.296099 -0.312155 0.000000 0.000000
    7 -0.003480 -0.404828 0.000000 -0.000001 0.000000 0.000000
    8 -0.519309 -2.501154 -0.278957 -0.879568 -0.036235 -0.324918
    9 -0.010598 -1.208185 -0.000002 -1.185576 0.000000 0.000000
    10 -0.000001 -0.763066 0.000000 -0.741497 0.000000 0.000000
    11 0.105981 -2.607134 -0.278958 -0.872556 -0.035899 -0.258089
    12 0.000000 -1.250579 0.000000 -0.794537 0.000000 0.000000
    13 -0.000001 -0.932634 0.000000 -1.567302 0.000000 0.000000
    14 0.763064 -2.490556 -0.278958 -0.313873 0.040172 0.012324
    15 -0.012322 -1.280917 0.000000 0.039083 0.000000 0.000000
    16 -0.001696 -0.738090 0.129481 -0.814848 0.000000 0.000000
    17 0.354567 0.016267 0.318133 0.308709 -0.503867 -0.874878
    18 1.887165 0.012877 0.000000 -0.095972 -0.113059 -1.028586
    19 1.001874 -0.000270 0.000000 0.000000 0.000000 -0.250165
    20 -1.123359 -2.195093 -0.278957 -1.061907 0.026409 -0.326972
    21 0.010772 -0.963791 0.000001 -0.810998 0.000000 0.000000
    22 -0.010413 -0.631916 0.000000 -0.691889 0.000000 0.000000
    23 1.925654 -12.791969 -10.813391 5.508890 0.355887 0.488823
    24 0.089929 -8.543165 0.000003 0.374995 -0.703673 0.095606
    25 0.000000 -0.359714 0.000000 0.000000 0.000000 0.000000
    26 -0.170479 -2.636148 -0.277655 -1.050456 -0.102575 0.176833
    27 0.010599 -1.261177 0.000001 -0.391089 0.000000 0.000000
    28 -0.000001 -0.943234 -0.000001 -0.651632 0.000000 0.000000
    29 -0.827561 -2.508971 -0.277655 -0.652116 -0.046319 0.035345
    30 0.000001 -1.292971 0.000000 -0.708413 0.000000 0.000000
    31 -0.000002 -0.752465 -0.000001 -0.777553 -0.248766 0.191906
    32 0.444213 -2.561961 -0.277655 -1.339790 -0.042325 0.216626
    33 0.021023 -1.208187 0.000000 -0.024681 0.000000 0.000000
    34 0.010596 -0.741866 -0.000002 -0.686572 0.000000 0.000000
    35 1.047446 -2.222821 -0.277655 -1.342479 -0.050027 0.240249
    36 -0.000001 -0.996223 -0.000002 0.018465 -0.000010 0.000000
    37 -0.000001 -0.614691 0.000000 -0.825953 -0.000010 -0.000006
    38 -0.308256 -0.007813 0.307165 -0.179435 -0.200623 -2.505595
    39 1.978378 0.019543 0.000000 0.066814 0.008433 0.118455
    40 0.980610 0.058420 -0.012628 0.223859 0.027636 -0.077199
end
