// Created by Crowbar 0.49.0.0

$modelname "weapons/tfa_cso/c_skull_2.mdl"

$Include "csonline_gmod.qci"

$bodygroup "weapon"
{
	studio "v_skull2"
}
$bodygroup "weapon"
{
	studio "v_skull2r"
}

$CDMaterials "models\weapons\tfa_cso\skull_2"

$attachment 2 "skull_rootR" 2.405 0 6.655
$attachment 0 "skull2_root" 2.405 0 6.655
//$attachment 1 "skull2_root" 1.455 -0.516 1.333
//$attachment 3 "skull_rootR" 1.455 0.516 1.333

$definebone "skull2_root" "" 0.000000 0.000000 0.000000 -89.999983 90.000038 0.000000 0.000000 0.000000 0.000000 -0.000000 0.000000 0.000000
$definebone "skull_rootR" "" -6.214702 0.000000 0.000000 -89.999983 90.000038 0.000000 0.000000 0.000000 0.000000 -0.000000 0.000000 0.000000
$definebone "hearer" "skull2_root" 0.418357 0.000000 1.812177 -0.000000 0.000000 0.000000 0.000000 -0.000000 0.000000 -0.000000 0.000000 0.000000
$definebone "megazine" "hearer" 1.255247 0.000000 -2.562982 -89.980216 0.000057 0.000000 0.000000 -0.000000 0.000000 -0.000000 0.000000 -0.000000
$definebone "megazine01" "megazine" -3.998293 -0.000000 -0.032907 -0.000000 0.000000 -0.000000 0.000000 -0.000000 0.000000 -0.000000 0.000000 -0.000000
$definebone "bullet02" "megazine01" 0.508304 -0.400167 -0.292394 -0.000000 0.000000 -0.000000 0.000000 0.000000 0.000000 -0.000000 0.000000 -0.000000
$definebone "bullet03" "megazine01" 0.508304 -0.500561 0.149986 -0.000000 0.000000 -0.000000 0.000000 0.000000 0.000000 -0.000000 0.000000 -0.000000
$definebone "bullet04" "megazine01" 0.508304 -0.219529 0.503522 -0.000000 0.000000 -0.000000 0.000000 0.000000 -0.000000 -0.000000 0.000000 -0.000000
$definebone "bullet05" "megazine01" 0.508305 0.230272 0.494288 -0.000000 0.000000 -0.000000 0.000000 0.000000 0.000000 -0.000000 0.000000 -0.000000
$definebone "bullet06" "megazine01" 0.508305 0.512872 0.150937 -0.000000 0.000000 -0.000000 0.000000 0.000000 0.000000 -0.000000 0.000000 -0.000000
$definebone "bullet07" "megazine01" 0.508304 0.406262 -0.290190 -0.000000 0.000000 -0.000000 0.000000 0.000000 0.000000 -0.000000 0.000000 -0.000000
$definebone "bullet01" "megazine01" 0.508304 0.006030 -0.484782 -0.000000 0.000000 -0.000000 0.000000 0.000000 0.000000 -0.000000 0.000000 -0.000000
$definebone "bulletA" "megazine01" 0.405524 -0.000000 -0.000000 -0.000000 0.000000 -0.000000 0.000000 -0.000000 0.000000 -0.000000 0.000000 -0.000000
$definebone "trigger" "skull2_root" 0.541184 0.000000 0.089454 0.000036 180.000007 180.000007 0.000000 0.000000 0.000000 0.000000 0.000000 0.000000
$definebone "s_01" "skull2_root" 1.811521 0.000000 -1.594476 -0.000000 0.000000 0.000000 0.000000 0.000000 0.000000 -0.000000 0.000000 0.000000
$definebone "triggerR" "skull_rootR" 0.533493 0.000000 0.037427 0.000036 180.000007 -179.999939 0.000000 0.000000 0.000000 -0.000000 0.000000 0.000000
$definebone "s_01R" "skull_rootR" 1.885424 0.000000 -1.545072 -0.000057 0.000000 0.000000 0.000000 0.000000 0.000000 0.000000 0.000000 0.000000
$definebone "headerR" "skull_rootR" 0.427977 0.000000 1.798103 -0.000000 0.000000 0.000000 0.000000 0.000000 0.000000 -0.000000 0.000000 0.000000
$definebone "megazineR" "headerR" 1.266162 0.000000 -2.560429 -89.980216 0.000057 0.000000 0.000000 0.000000 0.000000 -0.000000 0.000000 -0.000000
$definebone "megazineR01" "headerR" 1.297713 -0.000000 -6.432054 -89.980216 0.000057 0.000000 0.000000 -0.000000 0.000000 -0.000000 0.000000 -0.000000
$definebone "bulletR02" "megazineR01" 0.402199 -0.399016 -0.297801 -0.000000 0.000000 -0.000000 0.000000 0.000000 0.000000 -0.000000 0.000000 -0.000000
$definebone "bulletR03" "megazineR01" 0.402200 -0.494431 0.141990 -0.000000 0.000000 -0.000000 0.000000 0.000000 0.000000 -0.000000 0.000000 -0.000000
$definebone "bulletR04" "megazineR01" 0.402201 -0.217810 0.496141 -0.000000 0.000000 -0.000000 0.000000 0.000000 0.000000 -0.000000 0.000000 -0.000000
$definebone "bulletR05" "megazineR01" 0.402200 0.229651 0.500709 -0.000000 0.000000 -0.000000 0.000000 0.000000 0.000000 -0.000000 0.000000 -0.000000
$definebone "bulletR06" "megazineR01" 0.402200 0.513784 0.150789 -0.000000 0.000000 -0.000000 0.000000 0.000000 -0.000000 -0.000000 0.000000 -0.000000
$definebone "bulletR07" "megazineR01" 0.402199 0.410830 -0.286850 -0.000000 0.000000 -0.000000 0.000000 0.000000 0.000000 -0.000000 0.000000 -0.000000
$definebone "bulletR01" "megazineR01" 0.402200 0.005702 -0.486186 -0.000000 0.000000 -0.000000 0.000000 0.000000 0.000000 -0.000000 0.000000 -0.000000
$definebone "megazineRA" "megazineR01" 0.395757 -0.000000 0.000000 -0.000000 0.000000 -0.000000 0.000000 0.000000 0.000000 -0.000000 0.000000 -0.000000

$sequence "idle1" {
	"v_skull2_anims\idle1"
	fps 30
	loop
}
$sequence "reload1" {
	"v_skull2_anims\reload1"
	{ event 5004 11 "weapons/skull2_clipout.wav" }
	{ event 5004 31 "weapons/skull2_clipin.wav" }
	fps 30
}
$sequence "draw" {
	"v_skull2_anims\draw"
	{ event 5004 3 "weapons/skull2_draw.wav" }
	fps 30
}
$sequence "shoot1" {
	"v_skull2_anims\shoot1"
	{ event 5001 0 "21" }
	fps 30
}
$sequence "shoot_empty" {
	"v_skull2_anims\shoot_empty"
	fps 30
}
$sequence "idle2" {
	"v_skull2_anims\idle2"
	fps 30
	loop
	activity "ACT_VM_IDLE" 1
	snap
}
$sequence "idle_leftempty" {
	"v_skull2_anims\idle_leftempty"
	fps 30
	loop
}
$sequence "shoot_left1" {
	"v_skull2_anims\shoot_left1"
	{ event 5001 0 "31" }
	{ event 5001 0 "21" }
	fps 30
	activity "ACT_VM_PRIMARYATTACK" 1
	snap
}
$sequence "shoot_left2" {
	"v_skull2_anims\shoot_left2"
	{ event 5001 0 "21" }
	{ event 5001 0 "11" }
	fps 30
	activity "ACT_VM_PRIMARYATTACK" 1
	snap
}
$sequence "shoot_leftlast" {
	"v_skull2_anims\shoot_leftlast"
	{ event 5001 0 "31" }
	{ event 5001 0 "21" }
	fps 30
}
$sequence "shoot_right1" {
	"v_skull2_anims\shoot_right1"
	{ event 5021 0 "31" }
	{ event 5021 0 "21" }
	fps 30
	activity "ACT_VM_SECONDARYATTACK" 1
	snap
}
$sequence "shoot_right2" {
	"v_skull2_anims\shoot_right2"
	{ event 5021 0 "21" }
	{ event 5021 0 "11" }
	fps 30
	activity "ACT_VM_SECONDARYATTACK" 1
	snap
}
$sequence "shoot_rightlast" {
	"v_skull2_anims\shoot_rightlast"
	{ event 5021 0 "31" }
	{ event 5021 0 "21" }
	fps 30
}
$sequence "reload2" {
	"v_skull2_anims\reload2"
	{ event 5004 13 "SKULL2.ReloadLeft" }
	{ event 5004 55 "SKULL2.ReloadRight" }
	fps 30
	activity "ACT_VM_RELOAD" 1
	snap
}
$sequence "draw2" {
	"v_skull2_anims\draw2"
	{ event 5004 6 "SKULL2.Draw" }
	fps 30
	activity "ACT_VM_DRAW" 1
	snap
}
$sequence "draw3" {
	"v_skull2_anims\draw3"
	{ event 5004 44 "weapons/skull2_draw3.wav" }
	fps 30
}
$sequence "draw4" {
	"v_skull2_anims\draw4"
	{ event 5004 57 "weapons/skull2_draw4.wav" }
	fps 30
}
