"VertexLitGeneric"
{
	$basetexture	"models\weapons\tfa_cso\storm_giant_tw\$20@001_sg_1"
	$bumpmap "models\weapons\tfa_cso\storm_giant_tw\$20@001_sg_1_n"
	$phongexponenttexture "models\weapons\v_models\Request CSO\Dragon TMP S"
	
	$phong "1"
	$phongexponent "20"
	$phongfresnelranges "[0.15 0.65 1.00]"
	$phongalbedotint "1"
	$phongboost "16"
}