"VertexLitGeneric"
{
	$basetexture	"models\weapons\tfa_cso\usas12camo\cso_camo_usas12"
	$bumpmap "models\weapons\tfa_cso\usas12camo\cso_camo_usas12_n"
	$phongexponenttexture "models\weapons\v_models\Request CSO\Dragon TMP S"
	
	$phong "1"
	$phongexponent "20"
	$phongfresnelranges "[0.15 0.65 1.00]"
	$phongalbedotint "1"
	$phongboost "32"
	
	$alphatest "1"
	$ambientocclusion "0"
}