// Created by Crowbar 0.49.0.0

$modelname "weapons/tfa_cso/c_groza_v8.mdl"

$Include "csonline_gmod.qci"

$bodygroup "weapon"
{
	studio "v_groza"
}

$CDMaterials "models\weapons\tfa_cso\groza_v8\"

$attachment 0 "groza_root" 0 8 0
//$attachment 1 "groza_root" 0 0 0

$sequence "idle1" {
	"v_groza_anims\idle1"
	fps 30
	loop
	activity "ACT_VM_IDLE" 1
	snap
}
$sequence "reload" {
	"v_groza_anims\reload"
	{ event 5004 16 "Groza.ClipOut" }
	{ event 5004 46 "Groza.ClipIn" }
	fps 30
	activity "ACT_VM_RELOAD" 1
	snap
}
$sequence "draw" {
	"v_groza_anims\draw"
	fps 30
	activity "ACT_VM_DRAW" 1
	snap
}
$sequence "shoot1" {
	"v_groza_anims\shoot1"
	{ event 5001 0 "#I3 S0.15 R2 F0 P30 T0.01 A1 L0 O0" }
	fps 30
	activity "ACT_VM_PRIMARYATTACK" 1
	snap
}
$sequence "shoot2" {
	"v_groza_anims\shoot2"
	{ event 5001 0 "#I3 S0.15 R2 F0 P30 T0.01 A1 L0 O0" }
	fps 30
	activity "ACT_VM_PRIMARYATTACK" 2
	snap
}
