version 1
nodes
  0 "root" -1
  1 "Dummy01" 0
  2 "Bone02" 1
  3 "Dummy02" 2
  4 "Bone08" 3
  5 "Bone16" 2
  6 "Bone01" 0
  7 "Bone_L_Upper" 6
  8 "Bone_Lefthand" 6
  9 "Bone13" 8
  10 "Bone14" 9
  11 "Bone15" 10
  12 "Bone17" 8
  13 "Bone18" 12
  14 "Bone19" 13
  15 "Bone21" 8
  16 "Bone22" 15
  17 "Bone23" 16
  18 "Bone09" 8
  19 "Bone10" 18
  20 "Bone11" 19
  21 "Bone05" 8
  22 "Bone06" 21
  23 "Bone07" 22
  24 "Bone_Se_Hand-L" 8
  25 "Bone04" 0
  26 "Bone_Righthand" 25
  27 "Bone39" 26
  28 "Bone40" 27
  29 "Bone41" 28
  30 "Bone35" 26
  31 "Bone36" 30
  32 "Bone37" 31
  33 "Bone31" 26
  34 "Bone32" 33
  35 "Bone33" 34
  36 "Bone43" 26
  37 "Bone44" 36
  38 "Bone45" 37
  39 "Bone27" 26
  40 "Bone28" 39
  41 "Bone29" 40
  42 "Bone_Se_Hand-R" 26
  43 "Bone_R_Upper" 25
end
skeleton
  time 0
    0 -4.216559 -1.137629 3.564076 0.000000 0.000000 -0.000030
    1 10.083801 -20.264349 -7.480446 -0.785398 -0.012260 1.570796
    2 0.000000 0.000001 0.000000 0.000000 0.000000 0.000000
    3 9.922577 -1.457112 0.131531 0.000000 0.000000 -1.570796
    4 0.000000 0.000000 0.000000 0.000000 0.000000 0.000000
    5 11.928089 9.009401 5.177745 -0.238066 0.209952 -1.657587
    6 9.427294 -11.381831 -15.456485 5.493436 -0.158657 -0.087227
    7 1.257180 8.762585 -0.153713 -1.570562 0.002683 -1.566807
    8 -0.071921 -8.498736 -0.104134 -0.472255 0.902090 -0.329749
    9 -0.488518 -2.755602 -0.228260 -0.668758 0.010332 -0.264490
    10 0.039887 -1.479790 0.029854 -1.760276 0.000000 0.000001
    11 0.028786 -1.075731 -0.023109 -0.273888 0.000000 0.000000
    12 0.250027 -2.820665 -0.238396 -0.290798 0.120592 -0.035025
    13 -0.049759 -1.680544 0.100479 -1.958546 0.000000 -0.000002
    14 -0.034142 -1.148312 0.084782 -0.288083 0.000000 0.000000
    15 0.957766 -2.746780 -0.090302 0.096211 -0.162277 0.191558
    16 -0.033420 -1.397129 -0.011257 -0.941332 0.000000 -0.000001
    17 -0.022360 -0.957436 0.018784 -0.562942 0.000000 0.000000
    18 -1.180681 -2.507217 -0.193859 -0.134109 0.013294 -0.477915
    19 -0.024967 -1.123934 0.017597 -1.563043 0.000000 0.000001
    20 -0.020057 -0.890968 0.010090 -0.584386 0.000000 0.000000
    21 0.583510 -1.197277 0.185379 0.258132 -0.351791 -0.633692
    22 1.535927 0.010246 0.005009 -0.002964 -0.012979 0.000887
    23 1.100771 0.004527 -0.010679 -0.009867 0.012869 -0.477808
    24 0.120153 -0.050270 -0.054489 0.287569 3.110905 1.561085
    25 -2.204422 1.718171 -12.232125 0.459605 -3.261965 0.421916
    26 0.096944 -8.450418 -0.009365 -0.227443 0.026833 0.579232
    27 0.447953 -2.798986 -0.200443 -0.639268 0.120967 0.053422
    28 -0.032909 -1.480204 0.004940 -1.530125 0.000000 0.000002
    29 -0.027022 -1.076920 -0.020210 0.203175 0.000000 0.000000
    30 -0.249534 -2.846964 -0.174213 -0.430114 0.063993 -0.049275
    31 0.043235 -1.683941 0.096012 -1.938920 0.002823 -0.000167
    32 0.031729 -1.160830 0.058838 0.305256 0.000642 0.008372
    33 -0.963866 -2.785145 -0.085350 -0.246193 -0.199371 -0.509723
    34 0.028479 -1.403067 0.006271 -1.769899 0.000000 0.000000
    35 0.021413 -0.957781 0.020046 -0.249909 0.000000 0.000000
    36 1.164475 -2.543940 -0.170330 -0.444882 -0.042668 0.257890
    37 0.024032 -1.129042 0.017807 -1.179669 0.000000 0.000001
    38 0.014898 -0.883989 -0.019848 -0.816029 0.000000 0.000000
    39 -0.586770 -1.264477 0.200161 0.558595 -0.921413 -3.129819
    40 1.522835 0.058681 0.016848 0.001410 0.008985 1.201452
    41 1.117947 0.048424 -0.005766 -0.020293 -0.014939 0.992055
    42 -0.139399 -0.111698 0.014397 0.119905 0.051977 1.163458
    43 -1.393470 8.839177 -0.239433 1.580804 -0.005023 -1.566847
  time 1
    0 -4.216559 -1.137629 3.564076 0.000000 0.000000 -0.000030
    1 10.083801 -20.264349 -7.480446 -0.785398 -0.012260 1.570796
    2 0.605487 -0.234381 0.234382 0.000632 0.035829 0.035841
    3 9.922577 -1.457112 0.131531 0.000000 0.000000 -1.570796
    4 0.000000 0.000000 0.000000 0.000000 0.000000 0.000000
    5 11.689800 6.419478 4.685543 -0.238066 0.209952 -1.657587
    6 8.829620 -11.194325 -15.140069 5.442266 -0.162879 -0.078966
    7 1.257180 8.762585 -0.153713 -1.570562 0.002683 -1.566807
    8 -0.071921 -8.498736 -0.104134 -0.559978 1.017286 -0.258335
    9 -0.488518 -2.755602 -0.228260 -0.794160 0.010332 -0.264490
    10 0.039887 -1.479790 0.029854 -1.760276 0.000000 0.000001
    11 0.028786 -1.075731 -0.023109 0.103630 0.000000 0.000000
    12 0.250027 -2.820665 -0.238396 -0.404796 0.120592 -0.035025
    13 -0.049759 -1.680544 0.100479 -1.958546 0.000000 -0.000002
    14 -0.034142 -1.148312 0.084782 -0.132607 0.000000 0.000000
    15 0.957766 -2.746780 -0.090302 -0.345502 -0.011930 0.136896
    16 -0.033420 -1.397129 -0.011257 -1.677856 0.000000 -0.000001
    17 -0.022360 -0.957436 0.018784 -0.562942 0.000000 0.000000
    18 -1.180681 -2.507217 -0.193859 -0.134109 0.013294 -0.477915
    19 -0.024967 -1.123934 0.017597 -1.698478 0.000000 0.000001
    20 -0.020057 -0.890968 0.010090 -0.981281 0.000000 0.000000
    21 0.583510 -1.197277 0.185379 0.258132 -0.351791 -0.633692
    22 1.535927 0.010246 0.005009 -0.002964 -0.012979 0.000887
    23 1.100771 0.004527 -0.010679 -0.009867 0.012869 -0.477808
    24 0.120153 -0.050270 -0.054489 0.287569 3.110905 1.561085
    25 -0.024668 1.870519 -11.505541 0.506030 -3.241145 0.426978
    26 0.096944 -8.450418 -0.009365 -0.227443 0.026833 0.579232
    27 0.447953 -2.798986 -0.200443 -0.639268 0.120967 0.053422
    28 -0.032909 -1.480204 0.004940 -1.530125 0.000000 0.000002
    29 -0.027022 -1.076920 -0.020210 0.203175 0.000000 0.000000
    30 -0.249534 -2.846964 -0.174213 -0.430114 0.063993 -0.049275
    31 0.043235 -1.683941 0.096012 -1.938920 0.002823 -0.000167
    32 0.031729 -1.160830 0.058838 0.305256 0.000642 0.008372
    33 -0.963866 -2.785145 -0.085350 -0.246193 -0.199371 -0.509723
    34 0.028479 -1.403067 0.006271 -1.769899 0.000000 0.000000
    35 0.021413 -0.957781 0.020046 -0.249909 0.000000 0.000000
    36 1.164475 -2.543940 -0.170330 -0.444882 -0.042668 0.257890
    37 0.024032 -1.129042 0.017807 -1.179669 0.000000 0.000001
    38 0.014898 -0.883989 -0.019848 -0.816029 0.000000 0.000000
    39 -0.586770 -1.264477 0.200161 0.558595 -0.921413 -3.129819
    40 1.522835 0.058681 0.016848 0.001410 0.008985 1.201452
    41 1.117947 0.048424 -0.005766 -0.020293 -0.014939 0.992055
    42 -0.139399 -0.111698 0.014397 0.119905 0.051977 1.163458
    43 -1.393470 8.839177 -0.239433 1.580804 -0.005023 -1.566847
  time 2
    0 -4.216559 -1.137629 3.564076 0.000000 0.000000 -0.000030
    1 10.083801 -20.264349 -7.480446 -0.785398 -0.012260 1.570796
    2 0.890652 -0.382823 0.382824 0.000997 0.051309 0.051336
    3 9.922577 -1.457112 0.131531 0.000000 0.000000 -1.570796
    4 0.000000 0.000000 0.000000 0.000000 0.000000 0.000000
    5 11.431980 5.013186 4.900393 -0.288468 0.297482 -1.621332
    6 8.915560 -11.088853 -15.136162 5.420159 -0.164874 -0.075367
    7 1.257180 8.762585 -0.153713 -1.570562 0.002683 -1.566807
    8 -0.071921 -8.498736 -0.104134 -0.545921 0.998623 -0.269351
    9 -0.488518 -2.755602 -0.228260 -0.794160 0.010332 -0.264490
    10 0.039887 -1.479790 0.029854 -1.760276 0.000000 0.000001
    11 0.028786 -1.075731 -0.023109 0.103630 0.000000 0.000000
    12 0.250027 -2.820665 -0.238396 -0.404796 0.120592 -0.035025
    13 -0.049759 -1.680544 0.100479 -1.958546 0.000000 -0.000002
    14 -0.034142 -1.148312 0.084782 -0.132607 0.000000 0.000000
    15 0.957766 -2.746780 -0.090302 -0.345502 -0.011930 0.136896
    16 -0.033420 -1.397129 -0.011257 -1.677856 0.000000 -0.000001
    17 -0.022360 -0.957436 0.018784 -0.562942 0.000000 0.000000
    18 -1.180681 -2.507217 -0.193859 -0.134109 0.013294 -0.477915
    19 -0.024967 -1.123934 0.017597 -1.698478 0.000000 0.000001
    20 -0.020057 -0.890968 0.010090 -0.981281 0.000000 0.000000
    21 0.583510 -1.197277 0.185379 0.258132 -0.351791 -0.633692
    22 1.535927 0.010246 0.005009 -0.002964 -0.012979 0.000887
    23 1.100771 0.004527 -0.010679 -0.009867 0.012869 -0.477808
    24 0.120153 -0.050270 -0.054489 0.287569 3.110905 1.561085
    25 0.549569 1.663482 -11.017244 0.547351 -3.122981 0.428602
    26 0.096944 -8.450418 -0.009365 -0.227443 0.026833 0.579232
    27 0.447953 -2.798986 -0.200443 -0.639268 0.120967 0.053422
    28 -0.032909 -1.480204 0.004940 -1.530125 0.000000 0.000002
    29 -0.027022 -1.076920 -0.020210 0.203175 0.000000 0.000000
    30 -0.249534 -2.846964 -0.174213 -0.430114 0.063993 -0.049275
    31 0.043235 -1.683941 0.096012 -1.938920 0.002823 -0.000167
    32 0.031729 -1.160830 0.058838 0.305256 0.000642 0.008372
    33 -0.963866 -2.785145 -0.085350 -0.246193 -0.199371 -0.509723
    34 0.028479 -1.403067 0.006271 -1.769899 0.000000 0.000000
    35 0.021413 -0.957781 0.020046 -0.249909 0.000000 0.000000
    36 1.164475 -2.543940 -0.170330 -0.444882 -0.042668 0.257890
    37 0.024032 -1.129042 0.017807 -1.179669 0.000000 0.000001
    38 0.014898 -0.883989 -0.019848 -0.816029 0.000000 0.000000
    39 -0.586770 -1.264477 0.200161 0.558595 -0.921413 -3.129819
    40 1.522835 0.058681 0.016848 0.001410 0.008985 1.201452
    41 1.117947 0.048424 -0.005766 -0.020293 -0.014939 0.992055
    42 -0.139399 -0.111698 0.014397 0.119905 0.051977 1.163458
    43 -1.393470 8.839177 -0.239433 1.580804 -0.005023 -1.566847
  time 3
    0 -4.216559 -1.137629 3.564076 0.000000 0.000000 -0.000030
    1 10.083801 -20.264349 -7.480446 -0.785398 -0.012260 1.570796
    2 0.914090 -0.457044 0.457045 0.001114 0.050705 0.050739
    3 9.922577 -1.457112 0.131531 0.000000 0.000000 -1.570796
    4 0.000000 0.000000 0.000000 0.000000 0.000000 0.000000
    5 11.232755 4.255350 5.009771 -0.325054 0.352224 -1.596517
    6 9.064002 -11.061509 -15.093192 5.421009 -0.164664 -0.075530
    7 1.257180 8.762585 -0.153713 -1.570562 0.002683 -1.566807
    8 -0.071921 -8.498736 -0.104134 -0.521239 0.965968 -0.289149
    9 -0.488518 -2.755602 -0.228260 -0.794160 0.010332 -0.264490
    10 0.039887 -1.479790 0.029854 -1.760276 0.000000 0.000001
    11 0.028786 -1.075731 -0.023109 0.103630 0.000000 0.000000
    12 0.250027 -2.820665 -0.238396 -0.404796 0.120592 -0.035025
    13 -0.049759 -1.680544 0.100479 -1.958546 0.000000 -0.000002
    14 -0.034142 -1.148312 0.084782 -0.132607 0.000000 0.000000
    15 0.957766 -2.746780 -0.090302 -0.345502 -0.011930 0.136896
    16 -0.033420 -1.397129 -0.011257 -1.677856 0.000000 -0.000001
    17 -0.022360 -0.957436 0.018784 -0.562942 0.000000 0.000000
    18 -1.180681 -2.507217 -0.193859 -0.134109 0.013294 -0.477915
    19 -0.024967 -1.123934 0.017597 -1.698478 0.000000 0.000001
    20 -0.020057 -0.890968 0.010090 -0.981281 0.000000 0.000000
    21 0.583510 -1.197277 0.185379 0.258132 -0.351791 -0.633692
    22 1.535927 0.010246 0.005009 -0.002964 -0.012979 0.000887
    23 1.100771 0.004527 -0.010679 -0.009867 0.012869 -0.477808
    24 0.120153 -0.050270 -0.054489 0.287569 3.110905 1.561085
    25 0.815202 1.354879 -10.587544 0.567683 -3.051846 0.426883
    26 0.096944 -8.450418 -0.009365 -0.227443 0.026833 0.579232
    27 0.447953 -2.798986 -0.200443 -0.639268 0.120967 0.053422
    28 -0.032909 -1.480204 0.004940 -1.530125 0.000000 0.000002
    29 -0.027022 -1.076920 -0.020210 0.203175 0.000000 0.000000
    30 -0.249534 -2.846964 -0.174213 -0.430114 0.063993 -0.049275
    31 0.043235 -1.683941 0.096012 -1.938920 0.002823 -0.000167
    32 0.031729 -1.160830 0.058838 0.305256 0.000642 0.008372
    33 -0.963866 -2.785145 -0.085350 -0.246193 -0.199371 -0.509723
    34 0.028479 -1.403067 0.006271 -1.769899 0.000000 0.000000
    35 0.021413 -0.957781 0.020046 -0.249909 0.000000 0.000000
    36 1.164475 -2.543940 -0.170330 -0.444882 -0.042668 0.257890
    37 0.024032 -1.129042 0.017807 -1.179669 0.000000 0.000001
    38 0.014898 -0.883989 -0.019848 -0.816029 0.000000 0.000000
    39 -0.586770 -1.264477 0.200161 0.558595 -0.921413 -3.129819
    40 1.522835 0.058681 0.016848 0.001410 0.008985 1.201452
    41 1.117947 0.048424 -0.005766 -0.020293 -0.014939 0.992055
    42 -0.139399 -0.111698 0.014397 0.119905 0.051977 1.163458
    43 -1.393470 8.839177 -0.239433 1.580804 -0.005023 -1.566847
  time 4
    0 -4.216559 -1.137629 3.564076 0.000000 0.000000 -0.000030
    1 10.083801 -20.264349 -7.480446 -0.785398 -0.012260 1.570796
    2 0.847682 -0.476576 0.476577 0.001130 0.046709 0.046733
    3 9.922577 -1.457112 0.131531 0.000000 0.000000 -1.570796
    4 0.000000 0.000000 0.000000 0.000000 0.000000 0.000000
    5 11.088220 4.505358 4.462880 -0.295920 0.243464 -1.617065
    6 9.251508 -11.081040 -15.108818 5.426729 -0.164013 -0.076430
    7 1.257180 8.762585 -0.153713 -1.570562 0.002683 -1.566807
    8 -0.071921 -8.498736 -0.104134 -0.491294 0.926759 -0.313773
    9 -0.488518 -2.755602 -0.228260 -0.794160 0.010332 -0.264490
    10 0.039887 -1.479790 0.029854 -1.760276 0.000000 0.000001
    11 0.028786 -1.075731 -0.023109 0.103630 0.000000 0.000000
    12 0.250027 -2.820665 -0.238396 -0.404796 0.120592 -0.035025
    13 -0.049759 -1.680544 0.100479 -1.958546 0.000000 -0.000002
    14 -0.034142 -1.148312 0.084782 -0.132607 0.000000 0.000000
    15 0.957766 -2.746780 -0.090302 -0.345502 -0.011930 0.136896
    16 -0.033420 -1.397129 -0.011257 -1.677856 0.000000 -0.000001
    17 -0.022360 -0.957436 0.018784 -0.562942 0.000000 0.000000
    18 -1.180681 -2.507217 -0.193859 -0.134109 0.013294 -0.477915
    19 -0.024967 -1.123934 0.017597 -1.698478 0.000000 0.000001
    20 -0.020057 -0.890968 0.010090 -0.981281 0.000000 0.000000
    21 0.583510 -1.197277 0.185379 0.258132 -0.351791 -0.633692
    22 1.535927 0.010246 0.005009 -0.002964 -0.012979 0.000887
    23 1.100771 0.004527 -0.010679 -0.009867 0.012869 -0.477808
    24 0.120153 -0.050270 -0.054489 0.287569 3.110905 1.561085
    25 1.389438 1.268939 -10.915679 0.573939 -3.169279 0.429270
    26 0.096944 -8.450418 -0.009365 -0.227443 0.026833 0.579232
    27 0.447953 -2.798986 -0.200443 -0.639268 0.120967 0.053422
    28 -0.032909 -1.480204 0.004940 -1.530125 0.000000 0.000002
    29 -0.027022 -1.076920 -0.020210 0.203175 0.000000 0.000000
    30 -0.249534 -2.846964 -0.174213 -0.430114 0.063993 -0.049275
    31 0.043235 -1.683941 0.096012 -1.938920 0.002823 -0.000167
    32 0.031729 -1.160830 0.058838 0.305256 0.000642 0.008372
    33 -0.963866 -2.785145 -0.085350 -0.246193 -0.199371 -0.509723
    34 0.028479 -1.403067 0.006271 -1.769899 0.000000 0.000000
    35 0.021413 -0.957781 0.020046 -0.249909 0.000000 0.000000
    36 1.164475 -2.543940 -0.170330 -0.444882 -0.042668 0.257890
    37 0.024032 -1.129042 0.017807 -1.179669 0.000000 0.000001
    38 0.014898 -0.883989 -0.019848 -0.816029 0.000000 0.000000
    39 -0.586770 -1.264477 0.200161 0.558595 -0.921413 -3.129819
    40 1.522835 0.058681 0.016848 0.001410 0.008985 1.201452
    41 1.117947 0.048424 -0.005766 -0.020293 -0.014939 0.992055
    42 -0.139399 -0.111698 0.014397 0.119905 0.051977 1.163458
    43 -1.393470 8.839177 -0.239433 1.580804 -0.005023 -1.566847
  time 5
    0 -4.216559 -1.137629 3.564076 0.000000 0.000000 -0.000030
    1 10.083801 -20.264349 -7.480446 -0.785398 -0.012260 1.570796
    2 0.718772 -0.425793 0.425794 0.001031 0.041806 0.041849
    3 9.922577 -1.457112 0.131531 0.000000 0.000000 -1.570796
    4 0.000000 0.000000 0.000000 0.000000 0.000000 0.000000
    5 11.029624 5.325695 3.931613 -0.253590 0.127366 -1.648392
    6 9.435107 -11.155261 -15.222102 5.433686 -0.163362 -0.077575
    7 1.257180 8.762585 -0.153713 -1.570562 0.002683 -1.566807
    8 -0.071921 -8.498736 -0.104134 -0.461477 0.888194 -0.338911
    9 -0.488518 -2.755602 -0.228260 -0.794160 0.010332 -0.264490
    10 0.039887 -1.479790 0.029854 -1.760276 0.000000 0.000001
    11 0.028786 -1.075731 -0.023109 0.103630 0.000000 0.000000
    12 0.250027 -2.820665 -0.238396 -0.404796 0.120592 -0.035025
    13 -0.049759 -1.680544 0.100479 -1.958546 0.000000 -0.000002
    14 -0.034142 -1.148312 0.084782 -0.132607 0.000000 0.000000
    15 0.957766 -2.746780 -0.090302 -0.345502 -0.011930 0.136896
    16 -0.033420 -1.397129 -0.011257 -1.677856 0.000000 -0.000001
    17 -0.022360 -0.957436 0.018784 -0.562942 0.000000 0.000000
    18 -1.180681 -2.507217 -0.193859 -0.134109 0.013294 -0.477915
    19 -0.024967 -1.123934 0.017597 -1.698478 0.000000 0.000001
    20 -0.020057 -0.890968 0.010090 -0.981281 0.000000 0.000000
    21 0.583510 -1.197277 0.185379 0.258132 -0.351791 -0.633692
    22 1.535927 0.010246 0.005009 -0.002964 -0.012979 0.000887
    23 1.100771 0.004527 -0.010679 -0.009867 0.012869 -0.477808
    24 0.120153 -0.050270 -0.054489 0.287569 3.110905 1.561085
    25 1.557412 1.229875 -11.552417 0.569823 -3.301414 0.431467
    26 0.096944 -8.450418 -0.009365 -0.227443 0.026833 0.579232
    27 0.447953 -2.798986 -0.200443 -0.639268 0.120967 0.053422
    28 -0.032909 -1.480204 0.004940 -1.530125 0.000000 0.000002
    29 -0.027022 -1.076920 -0.020210 0.203175 0.000000 0.000000
    30 -0.249534 -2.846964 -0.174213 -0.430114 0.063993 -0.049275
    31 0.043235 -1.683941 0.096012 -1.938920 0.002823 -0.000167
    32 0.031729 -1.160830 0.058838 0.305256 0.000642 0.008372
    33 -0.963866 -2.785145 -0.085350 -0.246193 -0.199371 -0.509723
    34 0.028479 -1.403067 0.006271 -1.769899 0.000000 0.000000
    35 0.021413 -0.957781 0.020046 -0.249909 0.000000 0.000000
    36 1.164475 -2.543940 -0.170330 -0.444882 -0.042668 0.257890
    37 0.024032 -1.129042 0.017807 -1.179669 0.000000 0.000001
    38 0.014898 -0.883989 -0.019848 -0.816029 0.000000 0.000000
    39 -0.586770 -1.264477 0.200161 0.558595 -0.921413 -3.129819
    40 1.522835 0.058681 0.016848 0.001410 0.008985 1.201452
    41 1.117947 0.048424 -0.005766 -0.020293 -0.014939 0.992055
    42 -0.139399 -0.111698 0.014397 0.119905 0.051977 1.163458
    43 -1.393470 8.839177 -0.239433 1.580804 -0.005023 -1.566847
  time 6
    0 -4.216559 -1.137629 3.564076 0.000000 0.000000 -0.000030
    1 10.083801 -20.264349 -7.480446 -0.785398 -0.012260 1.570796
    2 0.472671 -0.300789 0.300790 0.000798 0.032354 0.032362
    3 9.922577 -1.457112 0.131531 0.000000 0.000000 -1.570796
    4 0.000000 0.000000 0.000000 0.000000 0.000000 0.000000
    5 11.072594 6.399947 4.068336 -0.240447 0.120028 -1.656663
    6 9.587456 -11.284172 -15.370544 5.447213 -0.162207 -0.079784
    7 1.257180 8.762585 -0.153713 -1.570562 0.002683 -1.566807
    8 -0.071921 -8.498736 -0.104134 -0.437150 0.857231 -0.359781
    9 -0.488518 -2.755602 -0.228260 -0.794160 0.010332 -0.264490
    10 0.039887 -1.479790 0.029854 -1.760276 0.000000 0.000001
    11 0.028786 -1.075731 -0.023109 0.103630 0.000000 0.000000
    12 0.250027 -2.820665 -0.238396 -0.404796 0.120592 -0.035025
    13 -0.049759 -1.680544 0.100479 -1.958546 0.000000 -0.000002
    14 -0.034142 -1.148312 0.084782 -0.132607 0.000000 0.000000
    15 0.957766 -2.746780 -0.090302 -0.345502 -0.011930 0.136896
    16 -0.033420 -1.397129 -0.011257 -1.677856 0.000000 -0.000001
    17 -0.022360 -0.957436 0.018784 -0.562942 0.000000 0.000000
    18 -1.180681 -2.507217 -0.193859 -0.134109 0.013294 -0.477915
    19 -0.024967 -1.123934 0.017597 -1.698478 0.000000 0.000001
    20 -0.020057 -0.890968 0.010090 -0.981281 0.000000 0.000000
    21 0.583510 -1.197277 0.185379 0.258132 -0.351791 -0.633692
    22 1.535927 0.010246 0.005009 -0.002964 -0.012979 0.000887
    23 1.100771 0.004527 -0.010679 -0.009867 0.012869 -0.477808
    24 0.120153 -0.050270 -0.054489 0.287569 3.110905 1.561085
    25 0.701917 1.108777 -11.974305 0.546446 -3.321047 0.429652
    26 0.096944 -8.450418 -0.009365 -0.227443 0.026833 0.579232
    27 0.447953 -2.798986 -0.200443 -0.639268 0.120967 0.053422
    28 -0.032909 -1.480204 0.004940 -1.530125 0.000000 0.000002
    29 -0.027022 -1.076920 -0.020210 0.203175 0.000000 0.000000
    30 -0.249534 -2.846964 -0.174213 -0.430114 0.063993 -0.049275
    31 0.043235 -1.683941 0.096012 -1.938920 0.002823 -0.000167
    32 0.031729 -1.160830 0.058838 0.305256 0.000642 0.008372
    33 -0.963866 -2.785145 -0.085350 -0.246193 -0.199371 -0.509723
    34 0.028479 -1.403067 0.006271 -1.769899 0.000000 0.000000
    35 0.021413 -0.957781 0.020046 -0.249909 0.000000 0.000000
    36 1.164475 -2.543940 -0.170330 -0.444882 -0.042668 0.257890
    37 0.024032 -1.129042 0.017807 -1.179669 0.000000 0.000001
    38 0.014898 -0.883989 -0.019848 -0.816029 0.000000 0.000000
    39 -0.586770 -1.264477 0.200161 0.558595 -0.921413 -3.129819
    40 1.522835 0.058681 0.016848 0.001410 0.008985 1.201452
    41 1.117947 0.048424 -0.005766 -0.020293 -0.014939 0.992055
    42 -0.139399 -0.111698 0.014397 0.119905 0.051977 1.163458
    43 -1.393470 8.839177 -0.239433 1.580804 -0.005023 -1.566847
  time 7
    0 -4.216559 -1.137629 3.564076 0.000000 0.000000 -0.000030
    1 10.083801 -20.264349 -7.480446 -0.785398 -0.012260 1.570796
    2 0.199225 -0.156254 0.156255 0.000515 0.021860 0.021891
    3 9.922577 -1.457112 0.131531 0.000000 0.000000 -1.570796
    4 0.000000 0.000000 0.000000 0.000000 0.000000 0.000000
    5 11.154628 7.599202 4.435535 -0.235893 0.145981 -1.657631
    6 9.673396 -11.436520 -15.499455 5.462208 -0.160989 -0.082238
    7 1.257180 8.762585 -0.153713 -1.570562 0.002683 -1.566807
    8 -0.071921 -8.498736 -0.104134 -0.423856 0.840523 -0.371311
    9 -0.488518 -2.755602 -0.228260 -0.794160 0.010332 -0.264490
    10 0.039887 -1.479790 0.029854 -1.760276 0.000000 0.000001
    11 0.028786 -1.075731 -0.023109 0.103630 0.000000 0.000000
    12 0.250027 -2.820665 -0.238396 -0.404796 0.120592 -0.035025
    13 -0.049759 -1.680544 0.100479 -1.958546 0.000000 -0.000002
    14 -0.034142 -1.148312 0.084782 -0.132607 0.000000 0.000000
    15 0.957766 -2.746780 -0.090302 -0.345502 -0.011930 0.136896
    16 -0.033420 -1.397129 -0.011257 -1.677856 0.000000 -0.000001
    17 -0.022360 -0.957436 0.018784 -0.562942 0.000000 0.000000
    18 -1.180681 -2.507217 -0.193859 -0.134109 0.013294 -0.477915
    19 -0.024967 -1.123934 0.017597 -1.698478 0.000000 0.000001
    20 -0.020057 -0.890968 0.010090 -0.981281 0.000000 0.000000
    21 0.583510 -1.197277 0.185379 0.258132 -0.351791 -0.633692
    22 1.535927 0.010246 0.005009 -0.002964 -0.012979 0.000887
    23 1.100771 0.004527 -0.010679 -0.009867 0.012869 -0.477808
    24 0.120153 -0.050270 -0.054489 0.287569 3.110905 1.561085
    25 -0.505151 0.987680 -12.349316 0.516484 -3.306345 0.427551
    26 0.096944 -8.450418 -0.009365 -0.227443 0.026833 0.579232
    27 0.447953 -2.798986 -0.200443 -0.639268 0.120967 0.053422
    28 -0.032909 -1.480204 0.004940 -1.530125 0.000000 0.000002
    29 -0.027022 -1.076920 -0.020210 0.203175 0.000000 0.000000
    30 -0.249534 -2.846964 -0.174213 -0.430114 0.063993 -0.049275
    31 0.043235 -1.683941 0.096012 -1.938920 0.002823 -0.000167
    32 0.031729 -1.160830 0.058838 0.305256 0.000642 0.008372
    33 -0.963866 -2.785145 -0.085350 -0.246193 -0.199371 -0.509723
    34 0.028479 -1.403067 0.006271 -1.769899 0.000000 0.000000
    35 0.021413 -0.957781 0.020046 -0.249909 0.000000 0.000000
    36 1.164475 -2.543940 -0.170330 -0.444882 -0.042668 0.257890
    37 0.024032 -1.129042 0.017807 -1.179669 0.000000 0.000001
    38 0.014898 -0.883989 -0.019848 -0.816029 0.000000 0.000000
    39 -0.586770 -1.264477 0.200161 0.558595 -0.921413 -3.129819
    40 1.522835 0.058681 0.016848 0.001410 0.008985 1.201452
    41 1.117947 0.048424 -0.005766 -0.020293 -0.014939 0.992055
    42 -0.139399 -0.111698 0.014397 0.119905 0.051977 1.163458
    43 -1.393470 8.839177 -0.239433 1.580804 -0.005023 -1.566847
  time 8
    0 -4.216559 -1.137629 3.564076 0.000000 0.000000 -0.000030
    1 10.083801 -20.264349 -7.480446 -0.785398 -0.012260 1.570796
    2 -0.019532 -0.039063 0.039064 0.000299 0.013851 0.013879
    3 9.922577 -1.457112 0.131531 0.000000 0.000000 -1.570796
    4 0.000000 0.000000 0.000000 0.000000 0.000000 0.000000
    5 11.193691 8.349225 4.705075 -0.234547 0.167935 -1.657147
    6 9.696834 -11.561524 -15.589301 5.473648 -0.160127 -0.084037
    7 1.257180 8.762585 -0.153713 -1.570562 0.002683 -1.566807
    8 -0.071921 -8.498736 -0.104134 -0.420653 0.836519 -0.374104
    9 -0.488518 -2.755602 -0.228260 -0.793457 0.010332 -0.264490
    10 0.039887 -1.479790 0.029854 -1.760276 0.000000 0.000001
    11 0.028786 -1.075731 -0.023109 0.101544 0.000000 0.000000
    12 0.250027 -2.820665 -0.238396 -0.404167 0.120592 -0.035025
    13 -0.049759 -1.680544 0.100479 -1.958546 0.000000 -0.000002
    14 -0.034142 -1.148312 0.084782 -0.133480 0.000000 0.000000
    15 0.957766 -2.746780 -0.090302 -0.345502 -0.011930 0.136896
    16 -0.033420 -1.397129 -0.011257 -1.677856 0.000000 -0.000001
    17 -0.022360 -0.957436 0.018784 -0.562942 0.000000 0.000000
    18 -1.180681 -2.507217 -0.193859 -0.134109 0.013294 -0.477915
    19 -0.024967 -1.123934 0.017597 -1.693788 0.000000 0.000001
    20 -0.020057 -0.890968 0.010090 -0.967669 0.000000 0.000000
    21 0.583510 -1.197277 0.185379 0.258132 -0.351791 -0.633692
    22 1.535927 0.010246 0.005009 -0.002964 -0.012979 0.000887
    23 1.100771 0.004527 -0.010679 -0.009867 0.012869 -0.477808
    24 0.120153 -0.050270 -0.054489 0.287569 3.110905 1.561085
    25 -1.305957 0.858770 -12.552448 0.495082 -3.292191 0.426310
    26 0.096944 -8.450418 -0.009365 -0.227443 0.026833 0.579232
    27 0.447953 -2.798986 -0.200443 -0.639268 0.120967 0.053422
    28 -0.032909 -1.480204 0.004940 -1.530125 0.000000 0.000002
    29 -0.027022 -1.076920 -0.020210 0.203175 0.000000 0.000000
    30 -0.249534 -2.846964 -0.174213 -0.430114 0.063993 -0.049275
    31 0.043235 -1.683941 0.096012 -1.938920 0.002823 -0.000167
    32 0.031729 -1.160830 0.058838 0.305256 0.000642 0.008372
    33 -0.963866 -2.785145 -0.085350 -0.246193 -0.199371 -0.509723
    34 0.028479 -1.403067 0.006271 -1.769899 0.000000 0.000000
    35 0.021413 -0.957781 0.020046 -0.249909 0.000000 0.000000
    36 1.164475 -2.543940 -0.170330 -0.444882 -0.042668 0.257890
    37 0.024032 -1.129042 0.017807 -1.179669 0.000000 0.000001
    38 0.014898 -0.883989 -0.019848 -0.816029 0.000000 0.000000
    39 -0.586770 -1.264477 0.200161 0.558595 -0.921413 -3.129819
    40 1.522835 0.058681 0.016848 0.001410 0.008985 1.201452
    41 1.117947 0.048424 -0.005766 -0.020293 -0.014939 0.992055
    42 -0.139399 -0.111698 0.014397 0.119905 0.051977 1.163458
    43 -1.393470 8.839177 -0.239433 1.580804 -0.005023 -1.566847
  time 9
    0 -4.216559 -1.137629 3.564076 0.000000 0.000000 -0.000030
    1 10.083801 -20.264349 -7.480446 -0.785398 -0.012260 1.570796
    2 -0.171880 0.031252 -0.031251 0.000183 0.009537 0.009522
    3 9.922577 -1.457112 0.131531 0.000000 0.000000 -1.570796
    4 0.000000 0.000000 0.000000 0.000000 0.000000 0.000000
    5 11.174160 8.634390 4.814453 -0.233616 0.175494 -1.657807
    6 9.692928 -11.663089 -15.659616 5.479832 -0.159686 -0.085019
    7 1.257180 8.762585 -0.153713 -1.570562 0.002683 -1.566807
    8 -0.071921 -8.498736 -0.104134 -0.422127 0.838354 -0.372830
    9 -0.488518 -2.755602 -0.228260 -0.791461 0.010332 -0.264490
    10 0.039887 -1.479790 0.029854 -1.760276 0.000000 0.000001
    11 0.028786 -1.075731 -0.023109 0.095570 0.000000 0.000000
    12 0.250027 -2.820665 -0.238396 -0.402364 0.120592 -0.035025
    13 -0.049759 -1.680544 0.100479 -1.958546 0.000000 -0.000002
    14 -0.034142 -1.148312 0.084782 -0.135939 0.000000 0.000000
    15 0.957766 -2.746780 -0.090302 -0.345502 -0.011930 0.136896
    16 -0.033420 -1.397129 -0.011257 -1.677856 0.000000 -0.000001
    17 -0.022360 -0.957436 0.018784 -0.562942 0.000000 0.000000
    18 -1.180681 -2.507217 -0.193859 -0.134109 0.013294 -0.477915
    19 -0.024967 -1.123934 0.017597 -1.681377 0.000000 0.000001
    20 -0.020057 -0.890968 0.010090 -0.931196 0.000000 0.000000
    21 0.583510 -1.197277 0.185379 0.258132 -0.351791 -0.633692
    22 1.535927 0.010246 0.005009 -0.002964 -0.012979 0.000887
    23 1.100771 0.004527 -0.010679 -0.009867 0.012869 -0.477808
    24 0.120153 -0.050270 -0.054489 0.287569 3.110905 1.561085
    25 -1.606747 0.725953 -12.626669 0.484793 -3.288629 0.425259
    26 0.096944 -8.450418 -0.009365 -0.227443 0.026833 0.579232
    27 0.447953 -2.798986 -0.200443 -0.639268 0.120967 0.053422
    28 -0.032909 -1.480204 0.004940 -1.530125 0.000000 0.000002
    29 -0.027022 -1.076920 -0.020210 0.203175 0.000000 0.000000
    30 -0.249534 -2.846964 -0.174213 -0.430114 0.063993 -0.049275
    31 0.043235 -1.683941 0.096012 -1.938920 0.002823 -0.000167
    32 0.031729 -1.160830 0.058838 0.305256 0.000642 0.008372
    33 -0.963866 -2.785145 -0.085350 -0.246193 -0.199371 -0.509723
    34 0.028479 -1.403067 0.006271 -1.769899 0.000000 0.000000
    35 0.021413 -0.957781 0.020046 -0.249909 0.000000 0.000000
    36 1.164475 -2.543940 -0.170330 -0.444882 -0.042668 0.257890
    37 0.024032 -1.129042 0.017807 -1.179669 0.000000 0.000001
    38 0.014898 -0.883989 -0.019848 -0.816029 0.000000 0.000000
    39 -0.586770 -1.264477 0.200161 0.558595 -0.921413 -3.129819
    40 1.522835 0.058681 0.016848 0.001410 0.008985 1.201452
    41 1.117947 0.048424 -0.005766 -0.020293 -0.014939 0.992055
    42 -0.139399 -0.111698 0.014397 0.119905 0.051977 1.163458
    43 -1.393470 8.839177 -0.239433 1.580804 -0.005023 -1.566847
  time 10
    0 -4.216559 -1.137629 3.564076 0.000000 0.000000 -0.000030
    1 10.083801 -20.264349 -7.480446 -0.785398 -0.012260 1.570796
    2 -0.292978 0.093754 -0.093753 0.000100 0.007387 0.007379
    3 9.922577 -1.457112 0.131531 0.000000 0.000000 -1.570796
    4 0.000000 0.000000 0.000000 0.000000 0.000000 0.000000
    5 11.142909 8.829708 4.908206 -0.233512 0.182927 -1.658115
    6 9.669489 -11.756842 -15.726024 5.482923 -0.159476 -0.085509
    7 1.257180 8.762585 -0.153713 -1.570562 0.002683 -1.566807
    8 -0.071921 -8.498736 -0.104134 -0.427186 0.844694 -0.368428
    9 -0.488518 -2.755602 -0.228260 -0.788313 0.010332 -0.264490
    10 0.039887 -1.479790 0.029854 -1.760276 0.000000 0.000001
    11 0.028786 -1.075731 -0.023109 0.086055 0.000000 0.000000
    12 0.250027 -2.820665 -0.238396 -0.399482 0.120592 -0.035025
    13 -0.049759 -1.680544 0.100479 -1.958546 0.000000 -0.000002
    14 -0.034142 -1.148312 0.084782 -0.139865 0.000000 0.000000
    15 0.957766 -2.746780 -0.090302 -0.333119 -0.016137 0.138430
    16 -0.033420 -1.397129 -0.011257 -1.657203 0.000000 -0.000001
    17 -0.022360 -0.957436 0.018784 -0.562942 0.000000 0.000000
    18 -1.180681 -2.507217 -0.193859 -0.134109 0.013294 -0.477915
    19 -0.024967 -1.123934 0.017597 -1.663361 0.000000 0.000001
    20 -0.020057 -0.890968 0.010090 -0.878378 0.000000 0.000000
    21 0.583510 -1.197277 0.185379 0.258132 -0.351791 -0.633692
    22 1.535927 0.010246 0.005009 -0.002964 -0.012979 0.000887
    23 1.100771 0.004527 -0.010679 -0.009867 0.012869 -0.477808
    24 0.120153 -0.050270 -0.054489 0.287569 3.110905 1.561085
    25 -1.829410 0.593137 -12.696983 0.478207 -3.283516 0.424591
    26 0.096944 -8.450418 -0.009365 -0.227443 0.026833 0.579232
    27 0.447953 -2.798986 -0.200443 -0.639268 0.120967 0.053422
    28 -0.032909 -1.480204 0.004940 -1.530125 0.000000 0.000002
    29 -0.027022 -1.076920 -0.020210 0.203175 0.000000 0.000000
    30 -0.249534 -2.846964 -0.174213 -0.430114 0.063993 -0.049275
    31 0.043235 -1.683941 0.096012 -1.938920 0.002823 -0.000167
    32 0.031729 -1.160830 0.058838 0.305256 0.000642 0.008372
    33 -0.963866 -2.785145 -0.085350 -0.246193 -0.199371 -0.509723
    34 0.028479 -1.403067 0.006271 -1.769899 0.000000 0.000000
    35 0.021413 -0.957781 0.020046 -0.249909 0.000000 0.000000
    36 1.164475 -2.543940 -0.170330 -0.444882 -0.042668 0.257890
    37 0.024032 -1.129042 0.017807 -1.179669 0.000000 0.000001
    38 0.014898 -0.883989 -0.019848 -0.816029 0.000000 0.000000
    39 -0.586770 -1.264477 0.200161 0.558595 -0.921413 -3.129819
    40 1.522835 0.058681 0.016848 0.001410 0.008985 1.201452
    41 1.117947 0.048424 -0.005766 -0.020293 -0.014939 0.992055
    42 -0.139399 -0.111698 0.014397 0.119905 0.051977 1.163458
    43 -1.393470 8.839177 -0.239433 1.580804 -0.005023 -1.566847
  time 11
    0 -4.216559 -1.137629 3.564076 0.000000 0.000000 -0.000030
    1 10.083801 -20.264349 -7.480446 -0.785398 -0.012260 1.570796
    2 -0.382824 0.144537 -0.144536 0.000066 0.006884 0.006887
    3 9.922577 -1.457112 0.131531 0.000000 0.000000 -1.570796
    4 0.000000 0.000000 0.000000 0.000000 0.000000 0.000000
    5 11.099939 8.946899 4.990240 -0.234030 0.190014 -1.658203
    6 9.630426 -11.842782 -15.788526 5.483619 -0.159455 -0.085591
    7 1.257180 8.762585 -0.153713 -1.570562 0.002683 -1.566807
    8 -0.071921 -8.498736 -0.104134 -0.434761 0.854204 -0.361859
    9 -0.488518 -2.755602 -0.228260 -0.784096 0.010332 -0.264490
    10 0.039887 -1.479790 0.029854 -1.760276 0.000000 0.000001
    11 0.028786 -1.075731 -0.023109 0.073348 0.000000 0.000000
    12 0.250027 -2.820665 -0.238396 -0.395657 0.120592 -0.035025
    13 -0.049759 -1.680544 0.100479 -1.958546 0.000000 -0.000002
    14 -0.034142 -1.148312 0.084782 -0.145101 0.000000 0.000000
    15 0.957766 -2.746780 -0.090302 -0.299446 -0.027606 0.142601
    16 -0.033420 -1.397129 -0.011257 -1.601064 0.000000 -0.000001
    17 -0.022360 -0.957436 0.018784 -0.562942 0.000000 0.000000
    18 -1.180681 -2.507217 -0.193859 -0.134109 0.013294 -0.477915
    19 -0.024967 -1.123934 0.017597 -1.641971 0.000000 0.000001
    20 -0.020057 -0.890968 0.010090 -0.815787 0.000000 0.000000
    21 0.583510 -1.197277 0.185379 0.258132 -0.351791 -0.633692
    22 1.535927 0.010246 0.005009 -0.002964 -0.012979 0.000887
    23 1.100771 0.004527 -0.010679 -0.009867 0.012869 -0.477808
    24 0.120153 -0.050270 -0.054489 0.287569 3.110905 1.561085
    25 -1.989571 0.460320 -12.763391 0.474503 -3.277397 0.424209
    26 0.096944 -8.450418 -0.009365 -0.227443 0.026833 0.579232
    27 0.447953 -2.798986 -0.200443 -0.639268 0.120967 0.053422
    28 -0.032909 -1.480204 0.004940 -1.530125 0.000000 0.000002
    29 -0.027022 -1.076920 -0.020210 0.203175 0.000000 0.000000
    30 -0.249534 -2.846964 -0.174213 -0.430114 0.063993 -0.049275
    31 0.043235 -1.683941 0.096012 -1.938920 0.002823 -0.000167
    32 0.031729 -1.160830 0.058838 0.305256 0.000642 0.008372
    33 -0.963866 -2.785145 -0.085350 -0.246193 -0.199371 -0.509723
    34 0.028479 -1.403067 0.006271 -1.769899 0.000000 0.000000
    35 0.021413 -0.957781 0.020046 -0.249909 0.000000 0.000000
    36 1.164475 -2.543940 -0.170330 -0.444882 -0.042668 0.257890
    37 0.024032 -1.129042 0.017807 -1.179669 0.000000 0.000001
    38 0.014898 -0.883989 -0.019848 -0.816029 0.000000 0.000000
    39 -0.586770 -1.264477 0.200161 0.558595 -0.921413 -3.129819
    40 1.522835 0.058681 0.016848 0.001410 0.008985 1.201452
    41 1.117947 0.048424 -0.005766 -0.020293 -0.014939 0.992055
    42 -0.139399 -0.111698 0.014397 0.119905 0.051977 1.163458
    43 -1.393470 8.839177 -0.239433 1.580804 -0.005023 -1.566847
  time 12
    0 -4.216559 -1.137629 3.564076 0.000000 0.000000 -0.000030
    1 10.083801 -20.264349 -7.480446 -0.785398 -0.012260 1.570796
    2 -0.453139 0.183600 -0.183599 0.000050 0.007522 0.007520
    3 9.922577 -1.457112 0.131531 0.000000 0.000000 -1.570796
    4 0.000000 0.000000 0.000000 0.000000 0.000000 0.000000
    5 11.053062 9.009401 5.060554 -0.234910 0.196439 -1.658159
    6 9.583549 -11.917003 -15.847121 5.482692 -0.159560 -0.085509
    7 1.257180 8.762585 -0.153713 -1.570562 0.002683 -1.566807
    8 -0.071921 -8.498736 -0.104134 -0.443734 0.865574 -0.354105
    9 -0.488518 -2.755602 -0.228260 -0.778952 0.010332 -0.264490
    10 0.039887 -1.479790 0.029854 -1.760276 0.000000 0.000001
    11 0.028786 -1.075731 -0.023109 0.057859 0.000000 0.000000
    12 0.250027 -2.820665 -0.238396 -0.390985 0.120592 -0.035025
    13 -0.049759 -1.680544 0.100479 -1.958546 0.000000 -0.000002
    14 -0.034142 -1.148312 0.084782 -0.151486 0.000000 0.000000
    15 0.957766 -2.746780 -0.090302 -0.249671 -0.044540 0.148749
    16 -0.033420 -1.397129 -0.011257 -1.518086 0.000000 -0.000001
    17 -0.022360 -0.957436 0.018784 -0.562942 0.000000 0.000000
    18 -1.180681 -2.507217 -0.193859 -0.134109 0.013294 -0.477915
    19 -0.024967 -1.123934 0.017597 -1.619494 0.000000 0.000001
    20 -0.020057 -0.890968 0.010090 -0.749880 0.000000 0.000000
    21 0.583510 -1.197277 0.185379 0.258132 -0.351791 -0.633692
    22 1.535927 0.010246 0.005009 -0.002964 -0.012979 0.000887
    23 1.100771 0.004527 -0.010679 -0.009867 0.012869 -0.477808
    24 0.120153 -0.050270 -0.054489 0.287569 3.110905 1.561085
    25 -2.098950 0.343129 -12.825893 0.473022 -3.271005 0.424018
    26 0.096944 -8.450418 -0.009365 -0.227463 0.026833 0.579232
    27 0.447953 -2.798986 -0.200443 -0.639268 0.120967 0.053422
    28 -0.032909 -1.480204 0.004940 -1.530125 0.000000 0.000002
    29 -0.027022 -1.076920 -0.020210 0.203175 0.000000 0.000000
    30 -0.249534 -2.846964 -0.174213 -0.430114 0.063993 -0.049275
    31 0.043235 -1.683941 0.096012 -1.938920 0.002823 -0.000167
    32 0.031729 -1.160830 0.058838 0.305256 0.000642 0.008372
    33 -0.963866 -2.785145 -0.085350 -0.246193 -0.199371 -0.509723
    34 0.028479 -1.403067 0.006271 -1.769899 0.000000 0.000000
    35 0.021413 -0.957781 0.020046 -0.249909 0.000000 0.000000
    36 1.164475 -2.543940 -0.170330 -0.444882 -0.042668 0.257890
    37 0.024032 -1.129042 0.017807 -1.179669 0.000000 0.000001
    38 0.014898 -0.883989 -0.019848 -0.816029 0.000000 0.000000
    39 -0.586770 -1.264477 0.200161 0.558595 -0.921413 -3.129819
    40 1.522835 0.058681 0.016848 0.001410 0.008985 1.201452
    41 1.117947 0.048424 -0.005766 -0.020293 -0.014939 0.992055
    42 -0.139399 -0.111698 0.014397 0.119905 0.051977 1.163458
    43 -1.393470 8.839177 -0.239433 1.580804 -0.005023 -1.566847
  time 13
    0 -4.216559 -1.137629 3.564076 0.000000 0.000000 -0.000030
    1 10.083801 -20.264349 -7.480446 -0.785398 -0.012260 1.570796
    2 -0.503922 0.214851 -0.214850 0.000050 0.008815 0.008820
    3 9.922577 -1.457112 0.131531 0.000000 0.000000 -1.570796
    4 0.000000 0.000000 0.000000 0.000000 0.000000 0.000000
    5 11.006186 9.028933 5.115243 -0.235945 0.201920 -1.657983
    6 9.532766 -11.983412 -15.897904 5.480914 -0.159707 -0.085182
    7 1.257180 8.762585 -0.153713 -1.570562 0.002683 -1.566807
    8 -0.071921 -8.498736 -0.104134 -0.453038 0.877420 -0.346106
    9 -0.488518 -2.755602 -0.228260 -0.772993 0.010332 -0.264490
    10 0.039887 -1.479790 0.029854 -1.760276 0.000000 0.000001
    11 0.028786 -1.075731 -0.023109 0.039968 0.000000 0.000000
    12 0.250027 -2.820665 -0.238396 -0.385575 0.120592 -0.035025
    13 -0.049759 -1.680544 0.100479 -1.958546 0.000000 -0.000002
    14 -0.034142 -1.148312 0.084782 -0.158824 0.000000 0.000000
    15 0.957766 -2.746780 -0.090302 -0.188999 -0.065202 0.156263
    16 -0.033420 -1.397129 -0.011257 -1.416920 0.000000 -0.000001
    17 -0.022360 -0.957436 0.018784 -0.562942 0.000000 0.000000
    18 -1.180681 -2.507217 -0.193859 -0.134109 0.013294 -0.477915
    19 -0.024967 -1.123934 0.017597 -1.598160 0.000000 0.000001
    20 -0.020057 -0.890968 0.010090 -0.687289 0.000000 0.000000
    21 0.583510 -1.197277 0.185379 0.258132 -0.351791 -0.633692
    22 1.535927 0.010246 0.005009 -0.002964 -0.012979 0.000887
    23 1.100771 0.004527 -0.010679 -0.009867 0.012869 -0.477808
    24 0.120153 -0.050270 -0.054489 0.287569 3.110905 1.561085
    25 -2.161452 0.233751 -12.876676 0.473022 -3.264978 0.423826
    26 0.096944 -8.450418 -0.009365 -0.227463 0.026833 0.579232
    27 0.447953 -2.798986 -0.200443 -0.639268 0.120967 0.053422
    28 -0.032909 -1.480204 0.004940 -1.530125 0.000000 0.000002
    29 -0.027022 -1.076920 -0.020210 0.203175 0.000000 0.000000
    30 -0.249534 -2.846964 -0.174213 -0.430114 0.063993 -0.049275
    31 0.043235 -1.683941 0.096012 -1.938920 0.002823 -0.000167
    32 0.031729 -1.160830 0.058838 0.305256 0.000642 0.008372
    33 -0.963866 -2.785145 -0.085350 -0.246193 -0.199371 -0.509723
    34 0.028479 -1.403067 0.006271 -1.769899 0.000000 0.000000
    35 0.021413 -0.957781 0.020046 -0.249909 0.000000 0.000000
    36 1.164475 -2.543940 -0.170330 -0.444882 -0.042668 0.257890
    37 0.024032 -1.129042 0.017807 -1.179669 0.000000 0.000001
    38 0.014898 -0.883989 -0.019848 -0.816029 0.000000 0.000000
    39 -0.586770 -1.264477 0.200161 0.558595 -0.921413 -3.129819
    40 1.522835 0.058681 0.016848 0.001410 0.008985 1.201452
    41 1.117947 0.048424 -0.005766 -0.020293 -0.014939 0.992055
    42 -0.139399 -0.111698 0.014397 0.119905 0.051977 1.163458
    43 -1.393470 8.839177 -0.239433 1.580804 -0.005023 -1.566847
  time 14
    0 -4.216559 -1.137629 3.564076 0.000000 0.000000 -0.000030
    1 10.083801 -20.264349 -7.480446 -0.785398 -0.012260 1.570796
    2 -0.542985 0.238290 -0.238289 0.000066 0.010225 0.010225
    3 9.922577 -1.457112 0.131531 0.000000 0.000000 -1.570796
    4 0.000000 0.000000 0.000000 0.000000 0.000000 0.000000
    5 10.967122 9.025027 5.154307 -0.236980 0.206203 -1.657807
    6 9.481984 -12.038101 -15.940874 5.478904 -0.159896 -0.084855
    7 1.257180 8.762585 -0.153713 -1.570562 0.002683 -1.566807
    8 -0.071921 -8.498736 -0.104134 -0.461604 0.888384 -0.338799
    9 -0.488518 -2.755602 -0.228260 -0.766387 0.010332 -0.264490
    10 0.039887 -1.479790 0.029854 -1.760276 0.000000 0.000001
    11 0.028786 -1.075731 -0.023109 0.019990 0.000000 0.000000
    12 0.250027 -2.820665 -0.238396 -0.379551 0.120592 -0.035025
    13 -0.049759 -1.680544 0.100479 -1.958546 0.000000 -0.000002
    14 -0.034142 -1.148312 0.084782 -0.167074 0.000000 0.000000
    15 0.957766 -2.746780 -0.090302 -0.122602 -0.087793 0.164485
    16 -0.033420 -1.397129 -0.011257 -1.306213 0.000000 -0.000001
    17 -0.022360 -0.957436 0.018784 -0.562942 0.000000 0.000000
    18 -1.180681 -2.507217 -0.193859 -0.134109 0.013294 -0.477915
    19 -0.024967 -1.123934 0.017597 -1.580144 0.000000 0.000001
    20 -0.020057 -0.890968 0.010090 -0.634471 0.000000 0.000000
    21 0.583510 -1.197277 0.185379 0.258132 -0.351791 -0.633692
    22 1.535927 0.010246 0.005009 -0.002964 -0.012979 0.000887
    23 1.100771 0.004527 -0.010679 -0.009867 0.012869 -0.477808
    24 0.120153 -0.050270 -0.054489 0.287569 3.110905 1.561085
    25 -2.192703 0.143904 -12.919646 0.473680 -3.259865 0.423731
    26 0.096944 -8.450418 -0.009365 -0.227463 0.026833 0.579232
    27 0.447953 -2.798986 -0.200443 -0.639268 0.120967 0.053422
    28 -0.032909 -1.480204 0.004940 -1.530125 0.000000 0.000002
    29 -0.027022 -1.076920 -0.020210 0.203175 0.000000 0.000000
    30 -0.249534 -2.846964 -0.174213 -0.430114 0.063993 -0.049275
    31 0.043235 -1.683941 0.096012 -1.938920 0.002823 -0.000167
    32 0.031729 -1.160830 0.058838 0.305256 0.000642 0.008372
    33 -0.963866 -2.785145 -0.085350 -0.246193 -0.199371 -0.509723
    34 0.028479 -1.403067 0.006271 -1.769899 0.000000 0.000000
    35 0.021413 -0.957781 0.020046 -0.249909 0.000000 0.000000
    36 1.164475 -2.543940 -0.170330 -0.444882 -0.042668 0.257890
    37 0.024032 -1.129042 0.017807 -1.179669 0.000000 0.000001
    38 0.014898 -0.883989 -0.019848 -0.816029 0.000000 0.000000
    39 -0.586770 -1.264477 0.200161 0.558595 -0.921413 -3.129819
    40 1.522835 0.058681 0.016848 0.001410 0.008985 1.201452
    41 1.117947 0.048424 -0.005766 -0.020293 -0.014939 0.992055
    42 -0.139399 -0.111698 0.014397 0.119905 0.051977 1.163458
    43 -1.393470 8.839177 -0.239433 1.580804 -0.005023 -1.566847
  time 15
    0 -4.216559 -1.137629 3.564076 0.000000 0.000000 -0.000030
    1 10.083801 -20.264349 -7.480446 -0.785398 -0.012260 1.570796
    2 -0.574236 0.257821 -0.257820 0.000066 0.011232 0.011244
    3 9.922577 -1.457112 0.131531 0.000000 0.000000 -1.570796
    4 0.000000 0.000000 0.000000 0.000000 0.000000 0.000000
    5 10.939777 9.009401 5.177745 -0.237756 0.208975 -1.657675
    6 9.446826 -12.081071 -15.976032 5.477435 -0.160022 -0.084610
    7 1.257180 8.762585 -0.153713 -1.570562 0.002683 -1.566807
    8 -0.071921 -8.498736 -0.104134 -0.468366 0.897060 -0.333056
    9 -0.488518 -2.755602 -0.228260 -0.759190 0.010332 -0.264490
    10 0.039887 -1.479790 0.029854 -1.760276 0.000000 0.000001
    11 0.028786 -1.075731 -0.023109 -0.001599 0.000000 0.000000
    12 0.250027 -2.820665 -0.238396 -0.373021 0.120592 -0.035025
    13 -0.049759 -1.680544 0.100479 -1.958546 0.000000 -0.000002
    14 -0.034142 -1.148312 0.084782 -0.175958 0.000000 0.000000
    15 0.957766 -2.746780 -0.090302 -0.055685 -0.110575 0.172766
    16 -0.033420 -1.397129 -0.011257 -1.194616 0.000000 -0.000001
    17 -0.022360 -0.957436 0.018784 -0.562942 0.000000 0.000000
    18 -1.180681 -2.507217 -0.193859 -0.134109 0.013294 -0.477915
    19 -0.024967 -1.123934 0.017597 -1.567676 0.000000 0.000001
    20 -0.020057 -0.890968 0.010090 -0.597998 0.000000 0.000000
    21 0.583510 -1.197277 0.185379 0.258132 -0.351791 -0.633692
    22 1.535927 0.010246 0.005009 -0.002964 -0.012979 0.000887
    23 1.100771 0.004527 -0.010679 -0.009867 0.012869 -0.477808
    24 0.120153 -0.050270 -0.054489 0.287569 3.110905 1.561085
    25 -2.204422 0.077496 -12.950897 0.474339 -3.256486 0.423731
    26 0.096944 -8.450418 -0.009365 -0.227463 0.026833 0.579232
    27 0.447953 -2.798986 -0.200443 -0.639268 0.120967 0.053422
    28 -0.032909 -1.480204 0.004940 -1.530125 0.000000 0.000002
    29 -0.027022 -1.076920 -0.020210 0.203175 0.000000 0.000000
    30 -0.249534 -2.846964 -0.174213 -0.430114 0.063993 -0.049275
    31 0.043235 -1.683941 0.096012 -1.938920 0.002823 -0.000167
    32 0.031729 -1.160830 0.058838 0.305256 0.000642 0.008372
    33 -0.963866 -2.785145 -0.085350 -0.246193 -0.199371 -0.509723
    34 0.028479 -1.403067 0.006271 -1.769899 0.000000 0.000000
    35 0.021413 -0.957781 0.020046 -0.249909 0.000000 0.000000
    36 1.164475 -2.543940 -0.170330 -0.444882 -0.042668 0.257890
    37 0.024032 -1.129042 0.017807 -1.179669 0.000000 0.000001
    38 0.014898 -0.883989 -0.019848 -0.816029 0.000000 0.000000
    39 -0.586770 -1.264477 0.200161 0.558595 -0.921413 -3.129819
    40 1.522835 0.058681 0.016848 0.001410 0.008985 1.201452
    41 1.117947 0.048424 -0.005766 -0.020293 -0.014939 0.992055
    42 -0.139399 -0.111698 0.014397 0.119905 0.051977 1.163458
    43 -1.393470 8.839177 -0.239433 1.580804 -0.005023 -1.566847
  time 16
    0 -4.216559 -1.137629 3.564076 0.000000 0.000000 -0.000030
    1 10.083801 -20.264349 -7.480446 -0.785398 -0.012260 1.570796
    2 -0.605487 0.277353 -0.277352 0.000050 0.011367 0.011350
    3 9.922577 -1.457112 0.131531 0.000000 0.000000 -1.570796
    4 0.000000 0.000000 0.000000 0.000000 0.000000 0.000000
    5 10.928058 8.997682 5.185558 -0.238066 0.209952 -1.657587
    6 9.427294 -12.112322 -16.003376 5.477204 -0.160043 -0.084610
    7 1.257180 8.762585 -0.153713 -1.570562 0.002683 -1.566807
    8 -0.071921 -8.498736 -0.104134 -0.472255 0.902090 -0.329749
    9 -0.488518 -2.755602 -0.228260 -0.751572 0.010332 -0.264490
    10 0.039887 -1.479790 0.029854 -1.760276 0.000000 0.000001
    11 0.028786 -1.075731 -0.023109 -0.024517 0.000000 0.000000
    12 0.250027 -2.820665 -0.238396 -0.366095 0.120592 -0.035025
    13 -0.049759 -1.680544 0.100479 -1.958546 0.000000 -0.000002
    14 -0.034142 -1.148312 0.084782 -0.185397 0.000000 0.000000
    15 0.957766 -2.746780 -0.090302 0.006534 -0.131752 0.180460
    16 -0.033420 -1.397129 -0.011257 -1.090881 0.000000 -0.000001
    17 -0.022360 -0.957436 0.018784 -0.562942 0.000000 0.000000
    18 -1.180681 -2.507217 -0.193859 -0.134109 0.013294 -0.477915
    19 -0.024967 -1.123934 0.017597 -1.563043 0.000000 0.000001
    20 -0.020057 -0.890968 0.010090 -0.584386 0.000000 0.000000
    21 0.583510 -1.197277 0.185379 0.258132 -0.351791 -0.633692
    22 1.535927 0.010246 0.005009 -0.002964 -0.012979 0.000887
    23 1.100771 0.004527 -0.010679 -0.009867 0.012869 -0.477808
    24 0.120153 -0.050270 -0.054489 0.287569 3.110905 1.561085
    25 -2.204422 0.034526 -12.966523 0.474339 -3.255390 0.423635
    26 0.096944 -8.450418 -0.009365 -0.227463 0.026833 0.579232
    27 0.447953 -2.798986 -0.200443 -0.639268 0.120967 0.053422
    28 -0.032909 -1.480204 0.004940 -1.530125 0.000000 0.000002
    29 -0.027022 -1.076920 -0.020210 0.203175 0.000000 0.000000
    30 -0.249534 -2.846964 -0.174213 -0.430114 0.063993 -0.049275
    31 0.043235 -1.683941 0.096012 -1.938920 0.002823 -0.000167
    32 0.031729 -1.160830 0.058838 0.305256 0.000642 0.008372
    33 -0.963866 -2.785145 -0.085350 -0.246193 -0.199371 -0.509723
    34 0.028479 -1.403067 0.006271 -1.769899 0.000000 0.000000
    35 0.021413 -0.957781 0.020046 -0.249909 0.000000 0.000000
    36 1.164475 -2.543940 -0.170330 -0.444882 -0.042668 0.257890
    37 0.024032 -1.129042 0.017807 -1.179669 0.000000 0.000001
    38 0.014898 -0.883989 -0.019848 -0.816029 0.000000 0.000000
    39 -0.586770 -1.264477 0.200161 0.558595 -0.921413 -3.129819
    40 1.522835 0.058681 0.016848 0.001410 0.008985 1.201452
    41 1.117947 0.048424 -0.005766 -0.020293 -0.014939 0.992055
    42 -0.139399 -0.111698 0.014397 0.119905 0.051977 1.163458
    43 -1.393470 8.839177 -0.239433 1.580804 -0.005023 -1.566847
  time 17
    0 -4.216559 -1.137629 3.564076 0.000000 0.000000 -0.000030
    1 10.083801 -20.264349 -7.480446 -0.785398 -0.012260 1.570796
    2 -0.628925 0.292979 -0.292978 0.000033 0.010846 0.010822
    3 9.922577 -1.457112 0.131531 0.000000 0.000000 -1.570796
    4 0.000000 0.000000 0.000000 0.000000 0.000000 0.000000
    5 10.928058 8.997682 5.185558 -0.238066 0.209952 -1.657587
    6 9.415575 -12.131854 -16.019002 5.477976 -0.160001 -0.084773
    7 1.257180 8.762585 -0.153713 -1.570562 0.002683 -1.566807
    8 -0.071921 -8.498736 -0.104134 -0.474060 0.904425 -0.328230
    9 -0.488518 -2.755602 -0.228260 -0.743645 0.010332 -0.264490
    10 0.039887 -1.479790 0.029854 -1.760276 0.000000 0.000001
    11 0.028786 -1.075731 -0.023109 -0.048382 0.000000 0.000000
    12 0.250027 -2.820665 -0.238396 -0.358882 0.120592 -0.035025
    13 -0.049759 -1.680544 0.100479 -1.958546 0.000000 -0.000002
    14 -0.034142 -1.148312 0.084782 -0.195234 0.000000 0.000000
    15 0.957766 -2.746780 -0.090302 0.058910 -0.149585 0.186944
    16 -0.033420 -1.397129 -0.011257 -1.003552 0.000000 -0.000001
    17 -0.022360 -0.957436 0.018784 -0.562942 0.000000 0.000000
    18 -1.180681 -2.507217 -0.193859 -0.134109 0.013294 -0.477915
    19 -0.024967 -1.123934 0.017597 -1.563043 0.000000 0.000001
    20 -0.020057 -0.890968 0.010090 -0.584386 0.000000 0.000000
    21 0.583510 -1.197277 0.185379 0.258132 -0.351791 -0.633692
    22 1.535927 0.010246 0.005009 -0.002964 -0.012979 0.000887
    23 1.100771 0.004527 -0.010679 -0.009867 0.012869 -0.477808
    24 0.120153 -0.050270 -0.054489 0.287569 3.110905 1.561085
    25 -2.204422 0.014994 -12.974335 0.473680 -3.255755 0.423540
    26 0.096944 -8.450418 -0.009365 -0.227463 0.026833 0.579232
    27 0.447953 -2.798986 -0.200443 -0.639268 0.120967 0.053422
    28 -0.032909 -1.480204 0.004940 -1.530125 0.000000 0.000002
    29 -0.027022 -1.076920 -0.020210 0.203175 0.000000 0.000000
    30 -0.249534 -2.846964 -0.174213 -0.430114 0.063993 -0.049275
    31 0.043235 -1.683941 0.096012 -1.938920 0.002823 -0.000167
    32 0.031729 -1.160830 0.058838 0.305256 0.000642 0.008372
    33 -0.963866 -2.785145 -0.085350 -0.246193 -0.199371 -0.509723
    34 0.028479 -1.403067 0.006271 -1.769899 0.000000 0.000000
    35 0.021413 -0.957781 0.020046 -0.249909 0.000000 0.000000
    36 1.164475 -2.543940 -0.170330 -0.444882 -0.042668 0.257890
    37 0.024032 -1.129042 0.017807 -1.179669 0.000000 0.000001
    38 0.014898 -0.883989 -0.019848 -0.816029 0.000000 0.000000
    39 -0.586770 -1.264477 0.200161 0.558595 -0.921413 -3.129819
    40 1.522835 0.058681 0.016848 0.001410 0.008985 1.201452
    41 1.117947 0.048424 -0.005766 -0.020293 -0.014939 0.992055
    42 -0.139399 -0.111698 0.014397 0.119905 0.051977 1.163458
    43 -1.393470 8.839177 -0.239433 1.580804 -0.005023 -1.566847
  time 18
    0 -4.216559 -1.137629 3.564076 0.000000 0.000000 -0.000030
    1 10.083801 -20.264349 -7.480446 -0.785398 -0.012260 1.570796
    2 -0.644551 0.304698 -0.304697 0.000017 0.010292 0.010260
    3 9.922577 -1.457112 0.131531 0.000000 0.000000 -1.570796
    4 0.000000 0.000000 0.000000 0.000000 0.000000 0.000000
    5 10.928058 8.997682 5.185558 -0.238066 0.209952 -1.657587
    6 9.407763 -12.139666 -16.026814 5.478749 -0.159938 -0.084855
    7 1.257180 8.762585 -0.153713 -1.570562 0.002683 -1.566807
    8 -0.071921 -8.498736 -0.104134 -0.475331 0.906046 -0.327157
    9 -0.488518 -2.755602 -0.228260 -0.735549 0.010332 -0.264490
    10 0.039887 -1.479790 0.029854 -1.760276 0.000000 0.000001
    11 0.028786 -1.075731 -0.023109 -0.072817 0.000000 0.000000
    12 0.250027 -2.820665 -0.238396 -0.351506 0.120592 -0.035025
    13 -0.049759 -1.680544 0.100479 -1.958546 0.000000 -0.000002
    14 -0.034142 -1.148312 0.084782 -0.205268 0.000000 0.000000
    15 0.957766 -2.746780 -0.090302 0.096211 -0.162277 0.191558
    16 -0.033420 -1.397129 -0.011257 -0.941332 0.000000 -0.000001
    17 -0.022360 -0.957436 0.018784 -0.562942 0.000000 0.000000
    18 -1.180681 -2.507217 -0.193859 -0.134109 0.013294 -0.477915
    19 -0.024967 -1.123934 0.017597 -1.563043 0.000000 0.000001
    20 -0.020057 -0.890968 0.010090 -0.584386 0.000000 0.000000
    21 0.583510 -1.197277 0.185379 0.258132 -0.351791 -0.633692
    22 1.535927 0.010246 0.005009 -0.002964 -0.012979 0.000887
    23 1.100771 0.004527 -0.010679 -0.009867 0.012869 -0.477808
    24 0.120153 -0.050270 -0.054489 0.287569 3.110905 1.561085
    25 -2.204422 0.003275 -12.974335 0.472939 -3.256029 0.423444
    26 0.096944 -8.450418 -0.009365 -0.227463 0.026833 0.579232
    27 0.447953 -2.798986 -0.200443 -0.639268 0.120967 0.053422
    28 -0.032909 -1.480204 0.004940 -1.530125 0.000000 0.000002
    29 -0.027022 -1.076920 -0.020210 0.203175 0.000000 0.000000
    30 -0.249534 -2.846964 -0.174213 -0.430114 0.063993 -0.049275
    31 0.043235 -1.683941 0.096012 -1.938920 0.002823 -0.000167
    32 0.031729 -1.160830 0.058838 0.305256 0.000642 0.008372
    33 -0.963866 -2.785145 -0.085350 -0.246193 -0.199371 -0.509723
    34 0.028479 -1.403067 0.006271 -1.769899 0.000000 0.000000
    35 0.021413 -0.957781 0.020046 -0.249909 0.000000 0.000000
    36 1.164475 -2.543940 -0.170330 -0.444882 -0.042668 0.257890
    37 0.024032 -1.129042 0.017807 -1.179669 0.000000 0.000001
    38 0.014898 -0.883989 -0.019848 -0.816029 0.000000 0.000000
    39 -0.586770 -1.264477 0.200161 0.558595 -0.921413 -3.129819
    40 1.522835 0.058681 0.016848 0.001410 0.008985 1.201452
    41 1.117947 0.048424 -0.005766 -0.020293 -0.014939 0.992055
    42 -0.139399 -0.111698 0.014397 0.119905 0.051977 1.163458
    43 -1.393470 8.839177 -0.239433 1.580804 -0.005023 -1.566847
  time 19
    0 -4.216559 -1.137629 3.564076 0.000000 0.000000 -0.000030
    1 10.083801 -20.264349 -7.480446 -0.785398 -0.012260 1.570796
    2 -0.648457 0.308604 -0.308603 0.000000 0.009671 0.009663
    3 9.922577 -1.457112 0.131531 0.000000 0.000000 -1.570796
    4 0.000000 0.000000 0.000000 0.000000 0.000000 0.000000
    5 10.928058 8.997682 5.185558 -0.238066 0.209952 -1.657587
    6 9.403856 -12.135760 -16.022908 5.479677 -0.159875 -0.085019
    7 1.257180 8.762585 -0.153713 -1.570562 0.002683 -1.566807
    8 -0.071921 -8.498736 -0.104134 -0.476144 0.907095 -0.326487
    9 -0.488518 -2.755602 -0.228260 -0.727369 0.010332 -0.264490
    10 0.039887 -1.479790 0.029854 -1.760276 0.000000 0.000001
    11 0.028786 -1.075731 -0.023109 -0.097409 0.000000 0.000000
    12 0.250027 -2.820665 -0.238396 -0.344088 0.120592 -0.035025
    13 -0.049759 -1.680544 0.100479 -1.958546 0.000000 -0.000002
    14 -0.034142 -1.148312 0.084782 -0.215422 0.000000 0.000000
    15 0.957766 -2.746780 -0.090302 0.121925 -0.171026 0.194734
    16 -0.033420 -1.397129 -0.011257 -0.898455 0.000000 -0.000001
    17 -0.022360 -0.957436 0.018784 -0.562942 0.000000 0.000000
    18 -1.180681 -2.507217 -0.193859 -0.134109 0.013294 -0.477915
    19 -0.024967 -1.123934 0.017597 -1.563043 0.000000 0.000001
    20 -0.020057 -0.890968 0.010090 -0.584386 0.000000 0.000000
    21 0.583510 -1.197277 0.185379 0.258132 -0.351791 -0.633692
    22 1.535927 0.010246 0.005009 -0.002964 -0.012979 0.000887
    23 1.100771 0.004527 -0.010679 -0.009867 0.012869 -0.477808
    24 0.120153 -0.050270 -0.054489 0.287569 3.110905 1.561085
    25 -2.204422 0.003275 -12.962616 0.472199 -3.256395 0.423349
    26 0.096944 -8.450418 -0.009365 -0.227463 0.026833 0.579232
    27 0.447953 -2.798986 -0.200443 -0.639268 0.120967 0.053422
    28 -0.032909 -1.480204 0.004940 -1.530125 0.000000 0.000002
    29 -0.027022 -1.076920 -0.020210 0.203175 0.000000 0.000000
    30 -0.249534 -2.846964 -0.174213 -0.430114 0.063993 -0.049275
    31 0.043235 -1.683941 0.096012 -1.938920 0.002823 -0.000167
    32 0.031729 -1.160830 0.058838 0.305256 0.000642 0.008372
    33 -0.963866 -2.785145 -0.085350 -0.246193 -0.199371 -0.509723
    34 0.028479 -1.403067 0.006271 -1.769899 0.000000 0.000000
    35 0.021413 -0.957781 0.020046 -0.249909 0.000000 0.000000
    36 1.164475 -2.543940 -0.170330 -0.444882 -0.042668 0.257890
    37 0.024032 -1.129042 0.017807 -1.179669 0.000000 0.000001
    38 0.014898 -0.883989 -0.019848 -0.816029 0.000000 0.000000
    39 -0.586770 -1.264477 0.200161 0.558595 -0.921413 -3.129819
    40 1.522835 0.058681 0.016848 0.001410 0.008985 1.201452
    41 1.117947 0.048424 -0.005766 -0.020293 -0.014939 0.992055
    42 -0.139399 -0.111698 0.014397 0.119905 0.051977 1.163458
    43 -1.393470 8.839177 -0.239433 1.580804 -0.005023 -1.566847
  time 20
    0 -4.216559 -1.137629 3.564076 0.000000 0.000000 -0.000030
    1 10.083801 -20.264349 -7.480446 -0.785398 -0.012260 1.570796
    2 -0.644551 0.308604 -0.308603 0.000000 0.009033 0.008995
    3 9.922577 -1.457112 0.131531 0.000000 0.000000 -1.570796
    4 0.000000 0.000000 0.000000 0.000000 0.000000 0.000000
    5 10.928058 8.997682 5.185558 -0.238066 0.209952 -1.657587
    6 9.399950 -12.124041 -16.015095 5.480605 -0.159812 -0.085182
    7 1.257180 8.762585 -0.153713 -1.570562 0.002683 -1.566807
    8 -0.071921 -8.498736 -0.104134 -0.476551 0.907595 -0.326152
    9 -0.488518 -2.755602 -0.228260 -0.719245 0.010332 -0.264490
    10 0.039887 -1.479790 0.029854 -1.760276 0.000000 0.000001
    11 0.028786 -1.075731 -0.023109 -0.121844 0.000000 0.000000
    12 0.250027 -2.820665 -0.238396 -0.336711 0.120592 -0.035025
    13 -0.049759 -1.680544 0.100479 -1.958546 0.000000 -0.000002
    14 -0.034142 -1.148312 0.084782 -0.225456 0.000000 0.000000
    15 0.957766 -2.746780 -0.090302 0.142955 -0.178181 0.197335
    16 -0.033420 -1.397129 -0.011257 -0.863387 0.000000 -0.000001
    17 -0.022360 -0.957436 0.018784 -0.562942 0.000000 0.000000
    18 -1.180681 -2.507217 -0.193859 -0.134109 0.013294 -0.477915
    19 -0.024967 -1.123934 0.017597 -1.563043 0.000000 0.000001
    20 -0.020057 -0.890968 0.010090 -0.584386 0.000000 0.000000
    21 0.583510 -1.197277 0.185379 0.258132 -0.351791 -0.633692
    22 1.535927 0.010246 0.005009 -0.002964 -0.012979 0.000887
    23 1.100771 0.004527 -0.010679 -0.009867 0.012869 -0.477808
    24 0.120153 -0.050270 -0.054489 0.287569 3.110905 1.561085
    25 -2.204422 0.014994 -12.943084 0.471293 -3.256851 0.423253
    26 0.096944 -8.450418 -0.009365 -0.227463 0.026833 0.579232
    27 0.447953 -2.798986 -0.200443 -0.639268 0.120967 0.053422
    28 -0.032909 -1.480204 0.004940 -1.530125 0.000000 0.000002
    29 -0.027022 -1.076920 -0.020210 0.203175 0.000000 0.000000
    30 -0.249534 -2.846964 -0.174213 -0.430114 0.063993 -0.049275
    31 0.043235 -1.683941 0.096012 -1.938920 0.002823 -0.000167
    32 0.031729 -1.160830 0.058838 0.305256 0.000642 0.008372
    33 -0.963866 -2.785145 -0.085350 -0.246193 -0.199371 -0.509723
    34 0.028479 -1.403067 0.006271 -1.769899 0.000000 0.000000
    35 0.021413 -0.957781 0.020046 -0.249909 0.000000 0.000000
    36 1.164475 -2.543940 -0.170330 -0.444882 -0.042668 0.257890
    37 0.024032 -1.129042 0.017807 -1.179669 0.000000 0.000001
    38 0.014898 -0.883989 -0.019848 -0.816029 0.000000 0.000000
    39 -0.586770 -1.264477 0.200161 0.558595 -0.921413 -3.129819
    40 1.522835 0.058681 0.016848 0.001410 0.008985 1.201452
    41 1.117947 0.048424 -0.005766 -0.020293 -0.014939 0.992055
    42 -0.139399 -0.111698 0.014397 0.119905 0.051977 1.163458
    43 -1.393470 8.839177 -0.239433 1.580804 -0.005023 -1.566847
  time 21
    0 -4.216559 -1.137629 3.564076 0.000000 0.000000 -0.000030
    1 10.083801 -20.264349 -7.480446 -0.785398 -0.012260 1.570796
    2 -0.625019 0.300791 -0.300790 0.000000 0.008328 0.008328
    3 9.922577 -1.457112 0.131531 0.000000 0.000000 -1.570796
    4 0.000000 0.000000 0.000000 0.000000 0.000000 0.000000
    5 10.928058 8.997682 5.185558 -0.238066 0.209952 -1.657587
    6 9.396044 -12.100603 -15.995564 5.481609 -0.159728 -0.085346
    7 1.257180 8.762585 -0.153713 -1.570562 0.002683 -1.566807
    8 -0.071921 -8.498736 -0.104134 -0.476602 0.907667 -0.326107
    9 -0.488518 -2.755602 -0.228260 -0.711346 0.010332 -0.264490
    10 0.039887 -1.479790 0.029854 -1.760276 0.000000 0.000001
    11 0.028786 -1.075731 -0.023109 -0.145709 0.000000 0.000000
    12 0.250027 -2.820665 -0.238396 -0.329498 0.120592 -0.035025
    13 -0.049759 -1.680544 0.100479 -1.958546 0.000000 -0.000002
    14 -0.034142 -1.148312 0.084782 -0.235292 0.000000 0.000000
    15 0.957766 -2.746780 -0.090302 0.159317 -0.183753 0.199360
    16 -0.033420 -1.397129 -0.011257 -0.836130 0.000000 -0.000001
    17 -0.022360 -0.957436 0.018784 -0.562942 0.000000 0.000000
    18 -1.180681 -2.507217 -0.193859 -0.134109 0.013294 -0.477915
    19 -0.024967 -1.123934 0.017597 -1.563043 0.000000 0.000001
    20 -0.020057 -0.890968 0.010090 -0.584386 0.000000 0.000000
    21 0.583510 -1.197277 0.185379 0.258132 -0.351791 -0.633692
    22 1.535927 0.010246 0.005009 -0.002964 -0.012979 0.000887
    23 1.100771 0.004527 -0.010679 -0.009867 0.012869 -0.477808
    24 0.120153 -0.050270 -0.054489 0.287569 3.110905 1.561085
    25 -2.204422 0.038432 -12.911834 0.470388 -3.257216 0.423158
    26 0.096944 -8.450418 -0.009365 -0.227463 0.026833 0.579232
    27 0.447953 -2.798986 -0.200443 -0.639268 0.120967 0.053422
    28 -0.032909 -1.480204 0.004940 -1.530125 0.000000 0.000002
    29 -0.027022 -1.076920 -0.020210 0.203175 0.000000 0.000000
    30 -0.249534 -2.846964 -0.174213 -0.430114 0.063993 -0.049275
    31 0.043235 -1.683941 0.096012 -1.938920 0.002823 -0.000167
    32 0.031729 -1.160830 0.058838 0.305256 0.000642 0.008372
    33 -0.963866 -2.785145 -0.085350 -0.246193 -0.199371 -0.509723
    34 0.028479 -1.403067 0.006271 -1.769899 0.000000 0.000000
    35 0.021413 -0.957781 0.020046 -0.249909 0.000000 0.000000
    36 1.164475 -2.543940 -0.170330 -0.444882 -0.042668 0.257890
    37 0.024032 -1.129042 0.017807 -1.179669 0.000000 0.000001
    38 0.014898 -0.883989 -0.019848 -0.816029 0.000000 0.000000
    39 -0.586770 -1.264477 0.200161 0.558595 -0.921413 -3.129819
    40 1.522835 0.058681 0.016848 0.001410 0.008985 1.201452
    41 1.117947 0.048424 -0.005766 -0.020293 -0.014939 0.992055
    42 -0.139399 -0.111698 0.014397 0.119905 0.051977 1.163458
    43 -1.393470 8.839177 -0.239433 1.580804 -0.005023 -1.566847
  time 22
    0 -4.216559 -1.137629 3.564076 0.000000 0.000000 -0.000030
    1 10.083801 -20.264349 -7.480446 -0.785398 -0.012260 1.570796
    2 -0.597674 0.289072 -0.289071 -0.000017 0.007589 0.007555
    3 9.922577 -1.457112 0.131531 0.000000 0.000000 -1.570796
    4 0.000000 0.000000 0.000000 0.000000 0.000000 0.000000
    5 10.928058 8.997682 5.185558 -0.238066 0.209952 -1.657587
    6 9.396044 -12.061539 -15.972125 5.482614 -0.159644 -0.085509
    7 1.257180 8.762585 -0.153713 -1.570562 0.002683 -1.566807
    8 -0.071921 -8.498736 -0.104134 -0.476373 0.907381 -0.326286
    9 -0.488518 -2.755602 -0.228260 -0.703728 0.010332 -0.264490
    10 0.039887 -1.479790 0.029854 -1.760276 0.000000 0.000001
    11 0.028786 -1.075731 -0.023109 -0.168627 0.000000 0.000000
    12 0.250027 -2.820665 -0.238396 -0.322572 0.120592 -0.035025
    13 -0.049759 -1.680544 0.100479 -1.958546 0.000000 -0.000002
    14 -0.034142 -1.148312 0.084782 -0.244732 0.000000 0.000000
    15 0.957766 -2.746780 -0.090302 0.171011 -0.187732 0.200810
    16 -0.033420 -1.397129 -0.011257 -0.816630 0.000000 -0.000001
    17 -0.022360 -0.957436 0.018784 -0.562942 0.000000 0.000000
    18 -1.180681 -2.507217 -0.193859 -0.134109 0.013294 -0.477915
    19 -0.024967 -1.123934 0.017597 -1.563043 0.000000 0.000001
    20 -0.020057 -0.890968 0.010090 -0.584386 0.000000 0.000000
    21 0.583510 -1.197277 0.185379 0.258132 -0.351791 -0.633692
    22 1.535927 0.010246 0.005009 -0.002964 -0.012979 0.000887
    23 1.100771 0.004527 -0.010679 -0.009867 0.012869 -0.477808
    24 0.120153 -0.050270 -0.054489 0.287569 3.110905 1.561085
    25 -2.204422 0.069683 -12.872770 0.469482 -3.257673 0.423062
    26 0.096944 -8.450418 -0.009365 -0.227463 0.026833 0.579232
    27 0.447953 -2.798986 -0.200443 -0.639268 0.120967 0.053422
    28 -0.032909 -1.480204 0.004940 -1.530125 0.000000 0.000002
    29 -0.027022 -1.076920 -0.020210 0.203175 0.000000 0.000000
    30 -0.249534 -2.846964 -0.174213 -0.430114 0.063993 -0.049275
    31 0.043235 -1.683941 0.096012 -1.938920 0.002823 -0.000167
    32 0.031729 -1.160830 0.058838 0.305256 0.000642 0.008372
    33 -0.963866 -2.785145 -0.085350 -0.246193 -0.199371 -0.509723
    34 0.028479 -1.403067 0.006271 -1.769899 0.000000 0.000000
    35 0.021413 -0.957781 0.020046 -0.249909 0.000000 0.000000
    36 1.164475 -2.543940 -0.170330 -0.444882 -0.042668 0.257890
    37 0.024032 -1.129042 0.017807 -1.179669 0.000000 0.000001
    38 0.014898 -0.883989 -0.019848 -0.816029 0.000000 0.000000
    39 -0.586770 -1.264477 0.200161 0.558595 -0.921413 -3.129819
    40 1.522835 0.058681 0.016848 0.001410 0.008985 1.201452
    41 1.117947 0.048424 -0.005766 -0.020293 -0.014939 0.992055
    42 -0.139399 -0.111698 0.014397 0.119905 0.051977 1.163458
    43 -1.393470 8.839177 -0.239433 1.580804 -0.005023 -1.566847
  time 23
    0 -4.216559 -1.137629 3.564076 0.000000 0.000000 -0.000030
    1 10.083801 -20.264349 -7.480446 -0.785398 -0.012260 1.570796
    2 -0.558611 0.273447 -0.273446 -0.000017 0.006800 0.006782
    3 9.922577 -1.457112 0.131531 0.000000 0.000000 -1.570796
    4 0.000000 0.000000 0.000000 0.000000 0.000000 0.000000
    5 10.928058 8.997682 5.185558 -0.238066 0.209952 -1.657587
    6 9.396044 -12.014663 -15.936968 5.483774 -0.159539 -0.085673
    7 1.257180 8.762585 -0.153713 -1.570562 0.002683 -1.566807
    8 -0.071921 -8.498736 -0.104134 -0.475941 0.906809 -0.326666
    9 -0.488518 -2.755602 -0.228260 -0.696531 0.010332 -0.264490
    10 0.039887 -1.479790 0.029854 -1.760276 0.000000 0.000001
    11 0.028786 -1.075731 -0.023109 -0.190279 0.000000 0.000000
    12 0.250027 -2.820665 -0.238396 -0.316042 0.120592 -0.035025
    13 -0.049759 -1.680544 0.100479 -1.958546 0.000000 -0.000002
    14 -0.034142 -1.148312 0.084782 -0.253656 0.000000 0.000000
    15 0.957766 -2.746780 -0.090302 0.178021 -0.190117 0.201673
    16 -0.033420 -1.397129 -0.011257 -0.804941 0.000000 -0.000001
    17 -0.022360 -0.957436 0.018784 -0.562942 0.000000 0.000000
    18 -1.180681 -2.507217 -0.193859 -0.134109 0.013294 -0.477915
    19 -0.024967 -1.123934 0.017597 -1.563043 0.000000 0.000001
    20 -0.020057 -0.890968 0.010090 -0.584386 0.000000 0.000000
    21 0.583510 -1.197277 0.185379 0.258132 -0.351791 -0.633692
    22 1.535927 0.010246 0.005009 -0.002964 -0.012979 0.000887
    23 1.100771 0.004527 -0.010679 -0.009867 0.012869 -0.477808
    24 0.120153 -0.050270 -0.054489 0.287569 3.110905 1.561085
    25 -2.204422 0.112653 -12.825893 0.468412 -3.258130 0.422967
    26 0.096944 -8.450418 -0.009365 -0.227463 0.026833 0.579232
    27 0.447953 -2.798986 -0.200443 -0.639268 0.120967 0.053422
    28 -0.032909 -1.480204 0.004940 -1.530125 0.000000 0.000002
    29 -0.027022 -1.076920 -0.020210 0.203175 0.000000 0.000000
    30 -0.249534 -2.846964 -0.174213 -0.430114 0.063993 -0.049275
    31 0.043235 -1.683941 0.096012 -1.938920 0.002823 -0.000167
    32 0.031729 -1.160830 0.058838 0.305256 0.000642 0.008372
    33 -0.963866 -2.785145 -0.085350 -0.246193 -0.199371 -0.509723
    34 0.028479 -1.403067 0.006271 -1.769899 0.000000 0.000000
    35 0.021413 -0.957781 0.020046 -0.249909 0.000000 0.000000
    36 1.164475 -2.543940 -0.170330 -0.444882 -0.042668 0.257890
    37 0.024032 -1.129042 0.017807 -1.179669 0.000000 0.000001
    38 0.014898 -0.883989 -0.019848 -0.816029 0.000000 0.000000
    39 -0.586770 -1.264477 0.200161 0.558595 -0.921413 -3.129819
    40 1.522835 0.058681 0.016848 0.001410 0.008985 1.201452
    41 1.117947 0.048424 -0.005766 -0.020293 -0.014939 0.992055
    42 -0.139399 -0.111698 0.014397 0.119905 0.051977 1.163458
    43 -1.393470 8.839177 -0.239433 1.580804 -0.005023 -1.566847
  time 24
    0 -4.216559 -1.137629 3.564076 0.000000 0.000000 -0.000030
    1 10.083801 -20.264349 -7.480446 -0.785398 -0.012260 1.570796
    2 -0.511734 0.250009 -0.250008 -0.000017 0.005960 0.005938
    3 9.922577 -1.457112 0.131531 0.000000 0.000000 -1.570796
    4 0.000000 0.000000 0.000000 0.000000 0.000000 0.000000
    5 10.928058 8.997682 5.185558 -0.238066 0.209952 -1.657587
    6 9.399950 -11.959973 -15.893998 5.484933 -0.159434 -0.085837
    7 1.257180 8.762585 -0.153713 -1.570562 0.002683 -1.566807
    8 -0.071921 -8.498736 -0.104134 -0.475356 0.906046 -0.327157
    9 -0.488518 -2.755602 -0.228260 -0.689897 0.010332 -0.264490
    10 0.039887 -1.479790 0.029854 -1.760276 0.000000 0.000001
    11 0.028786 -1.075731 -0.023109 -0.210225 0.000000 0.000000
    12 0.250027 -2.820665 -0.238396 -0.310018 0.120592 -0.035025
    13 -0.049759 -1.680544 0.100479 -1.958546 0.000000 -0.000002
    14 -0.034142 -1.148312 0.084782 -0.261866 0.000000 0.000000
    15 0.957766 -2.746780 -0.090302 0.180363 -0.190908 0.201961
    16 -0.033420 -1.397129 -0.011257 -0.801062 0.000000 -0.000001
    17 -0.022360 -0.957436 0.018784 -0.562942 0.000000 0.000000
    18 -1.180681 -2.507217 -0.193859 -0.134109 0.013294 -0.477915
    19 -0.024967 -1.123934 0.017597 -1.563043 0.000000 0.000001
    20 -0.020057 -0.890968 0.010090 -0.584386 0.000000 0.000000
    21 0.583510 -1.197277 0.185379 0.258132 -0.351791 -0.633692
    22 1.535927 0.010246 0.005009 -0.002964 -0.012979 0.000887
    23 1.100771 0.004527 -0.010679 -0.009867 0.012869 -0.477808
    24 0.120153 -0.050270 -0.054489 0.287569 3.110905 1.561085
    25 -2.204422 0.167342 -12.767298 0.467342 -3.258586 0.422776
    26 0.096944 -8.450418 -0.009365 -0.227463 0.026833 0.579232
    27 0.447953 -2.798986 -0.200443 -0.639268 0.120967 0.053422
    28 -0.032909 -1.480204 0.004940 -1.530125 0.000000 0.000002
    29 -0.027022 -1.076920 -0.020210 0.203175 0.000000 0.000000
    30 -0.249534 -2.846964 -0.174213 -0.430114 0.063993 -0.049275
    31 0.043235 -1.683941 0.096012 -1.938920 0.002823 -0.000167
    32 0.031729 -1.160830 0.058838 0.305256 0.000642 0.008372
    33 -0.963866 -2.785145 -0.085350 -0.246193 -0.199371 -0.509723
    34 0.028479 -1.403067 0.006271 -1.769899 0.000000 0.000000
    35 0.021413 -0.957781 0.020046 -0.249909 0.000000 0.000000
    36 1.164475 -2.543940 -0.170330 -0.444882 -0.042668 0.257890
    37 0.024032 -1.129042 0.017807 -1.179669 0.000000 0.000001
    38 0.014898 -0.883989 -0.019848 -0.816029 0.000000 0.000000
    39 -0.586770 -1.264477 0.200161 0.558595 -0.921413 -3.129819
    40 1.522835 0.058681 0.016848 0.001410 0.008985 1.201452
    41 1.117947 0.048424 -0.005766 -0.020293 -0.014939 0.992055
    42 -0.139399 -0.111698 0.014397 0.119905 0.051977 1.163458
    43 -1.393470 8.839177 -0.239433 1.580804 -0.005023 -1.566847
  time 25
    0 -4.216559 -1.137629 3.564076 0.000000 0.000000 -0.000030
    1 10.083801 -20.264349 -7.480446 -0.785398 -0.012260 1.570796
    2 -0.453139 0.222664 -0.222663 -0.000017 0.005070 0.005060
    3 9.922577 -1.457112 0.131531 0.000000 0.000000 -1.570796
    4 0.000000 0.000000 0.000000 0.000000 0.000000 0.000000
    5 10.928058 8.997682 5.185558 -0.238066 0.209952 -1.657587
    6 9.403856 -11.889659 -15.843215 5.486247 -0.159329 -0.086082
    7 1.257180 8.762585 -0.153713 -1.570562 0.002683 -1.566807
    8 -0.071921 -8.498736 -0.104134 -0.474670 0.905188 -0.327716
    9 -0.488518 -2.755602 -0.228260 -0.683966 0.010332 -0.264490
    10 0.039887 -1.479790 0.029854 -1.760276 0.000000 0.000001
    11 0.028786 -1.075731 -0.023109 -0.228117 0.000000 0.000000
    12 0.250027 -2.820665 -0.238396 -0.304608 0.120592 -0.035025
    13 -0.049759 -1.680544 0.100479 -1.958546 0.000000 -0.000002
    14 -0.034142 -1.148312 0.084782 -0.269243 0.000000 0.000000
    15 0.957766 -2.746780 -0.090302 0.178021 -0.190117 0.201673
    16 -0.033420 -1.397129 -0.011257 -0.804941 0.000000 -0.000001
    17 -0.022360 -0.957436 0.018784 -0.562942 0.000000 0.000000
    18 -1.180681 -2.507217 -0.193859 -0.134109 0.013294 -0.477915
    19 -0.024967 -1.123934 0.017597 -1.563043 0.000000 0.000001
    20 -0.020057 -0.890968 0.010090 -0.584386 0.000000 0.000000
    21 0.583510 -1.197277 0.185379 0.258132 -0.351791 -0.633692
    22 1.535927 0.010246 0.005009 -0.002964 -0.012979 0.000887
    23 1.100771 0.004527 -0.010679 -0.009867 0.012869 -0.477808
    24 0.120153 -0.050270 -0.054489 0.287569 3.110905 1.561085
    25 -2.204422 0.233751 -12.700890 0.466190 -3.259134 0.422680
    26 0.096944 -8.450418 -0.009365 -0.227463 0.026833 0.579232
    27 0.447953 -2.798986 -0.200443 -0.639268 0.120967 0.053422
    28 -0.032909 -1.480204 0.004940 -1.530125 0.000000 0.000002
    29 -0.027022 -1.076920 -0.020210 0.203175 0.000000 0.000000
    30 -0.249534 -2.846964 -0.174213 -0.430114 0.063993 -0.049275
    31 0.043235 -1.683941 0.096012 -1.938920 0.002823 -0.000167
    32 0.031729 -1.160830 0.058838 0.305256 0.000642 0.008372
    33 -0.963866 -2.785145 -0.085350 -0.246193 -0.199371 -0.509723
    34 0.028479 -1.403067 0.006271 -1.769899 0.000000 0.000000
    35 0.021413 -0.957781 0.020046 -0.249909 0.000000 0.000000
    36 1.164475 -2.543940 -0.170330 -0.444882 -0.042668 0.257890
    37 0.024032 -1.129042 0.017807 -1.179669 0.000000 0.000001
    38 0.014898 -0.883989 -0.019848 -0.816029 0.000000 0.000000
    39 -0.586770 -1.264477 0.200161 0.558595 -0.921413 -3.129819
    40 1.522835 0.058681 0.016848 0.001410 0.008985 1.201452
    41 1.117947 0.048424 -0.005766 -0.020293 -0.014939 0.992055
    42 -0.139399 -0.111698 0.014397 0.119905 0.051977 1.163458
    43 -1.393470 8.839177 -0.239433 1.580804 -0.005023 -1.566847
  time 26
    0 -4.216559 -1.137629 3.564076 0.000000 0.000000 -0.000030
    1 10.083801 -20.264349 -7.480446 -0.785398 -0.012260 1.570796
    2 -0.382824 0.187507 -0.187506 -0.000017 0.004147 0.004146
    3 9.922577 -1.457112 0.131531 0.000000 0.000000 -1.570796
    4 0.000000 0.000000 0.000000 0.000000 0.000000 0.000000
    5 10.928058 8.997682 5.185558 -0.238066 0.209952 -1.657587
    6 9.407763 -11.811531 -15.780713 5.487561 -0.159203 -0.086246
    7 1.257180 8.762585 -0.153713 -1.570562 0.002683 -1.566807
    8 -0.071921 -8.498736 -0.104134 -0.473983 0.904282 -0.328319
    9 -0.488518 -2.755602 -0.228260 -0.678821 0.010332 -0.264490
    10 0.039887 -1.479790 0.029854 -1.760276 0.000000 0.000001
    11 0.028786 -1.075731 -0.023109 -0.243605 0.000000 0.000000
    12 0.250027 -2.820665 -0.238396 -0.299936 0.120592 -0.035025
    13 -0.049759 -1.680544 0.100479 -1.958546 0.000000 -0.000002
    14 -0.034142 -1.148312 0.084782 -0.275629 0.000000 0.000000
    15 0.957766 -2.746780 -0.090302 0.171011 -0.187732 0.200810
    16 -0.033420 -1.397129 -0.011257 -0.816630 0.000000 -0.000001
    17 -0.022360 -0.957436 0.018784 -0.562942 0.000000 0.000000
    18 -1.180681 -2.507217 -0.193859 -0.134109 0.013294 -0.477915
    19 -0.024967 -1.123934 0.017597 -1.563043 0.000000 0.000001
    20 -0.020057 -0.890968 0.010090 -0.584386 0.000000 0.000000
    21 0.583510 -1.197277 0.185379 0.258132 -0.351791 -0.633692
    22 1.535927 0.010246 0.005009 -0.002964 -0.012979 0.000887
    23 1.100771 0.004527 -0.010679 -0.009867 0.012869 -0.477808
    24 0.120153 -0.050270 -0.054489 0.287569 3.110905 1.561085
    25 -2.204422 0.307972 -12.622762 0.464955 -3.259591 0.422585
    26 0.096944 -8.450418 -0.009365 -0.227463 0.026833 0.579232
    27 0.447953 -2.798986 -0.200443 -0.639268 0.120967 0.053422
    28 -0.032909 -1.480204 0.004940 -1.530125 0.000000 0.000002
    29 -0.027022 -1.076920 -0.020210 0.203175 0.000000 0.000000
    30 -0.249534 -2.846964 -0.174213 -0.430114 0.063993 -0.049275
    31 0.043235 -1.683941 0.096012 -1.938920 0.002823 -0.000167
    32 0.031729 -1.160830 0.058838 0.305256 0.000642 0.008372
    33 -0.963866 -2.785145 -0.085350 -0.246193 -0.199371 -0.509723
    34 0.028479 -1.403067 0.006271 -1.769899 0.000000 0.000000
    35 0.021413 -0.957781 0.020046 -0.249909 0.000000 0.000000
    36 1.164475 -2.543940 -0.170330 -0.444882 -0.042668 0.257890
    37 0.024032 -1.129042 0.017807 -1.179669 0.000000 0.000001
    38 0.014898 -0.883989 -0.019848 -0.816029 0.000000 0.000000
    39 -0.586770 -1.264477 0.200161 0.558595 -0.921413 -3.129819
    40 1.522835 0.058681 0.016848 0.001410 0.008985 1.201452
    41 1.117947 0.048424 -0.005766 -0.020293 -0.014939 0.992055
    42 -0.139399 -0.111698 0.014397 0.119905 0.051977 1.163458
    43 -1.393470 8.839177 -0.239433 1.580804 -0.005023 -1.566847
  time 27
    0 -4.216559 -1.137629 3.564076 0.000000 0.000000 -0.000030
    1 10.083801 -20.264349 -7.480446 -0.785398 -0.012260 1.570796
    2 -0.300790 0.148443 -0.148442 -0.000017 0.003173 0.003162
    3 9.922577 -1.457112 0.131531 0.000000 0.000000 -1.570796
    4 0.000000 0.000000 0.000000 0.000000 0.000000 0.000000
    5 10.928058 8.997682 5.185558 -0.238066 0.209952 -1.657587
    6 9.411669 -11.717779 -15.714305 5.488953 -0.159077 -0.086491
    7 1.257180 8.762585 -0.153713 -1.570562 0.002683 -1.566807
    8 -0.071921 -8.498736 -0.104134 -0.473323 0.903448 -0.328856
    9 -0.488518 -2.755602 -0.228260 -0.674605 0.010332 -0.264490
    10 0.039887 -1.479790 0.029854 -1.760276 0.000000 0.000001
    11 0.028786 -1.075731 -0.023109 -0.256313 0.000000 0.000000
    12 0.250027 -2.820665 -0.238396 -0.296112 0.120592 -0.035025
    13 -0.049759 -1.680544 0.100479 -1.958546 0.000000 -0.000002
    14 -0.034142 -1.148312 0.084782 -0.280825 0.000000 0.000000
    15 0.957766 -2.746780 -0.090302 0.159317 -0.183753 0.199360
    16 -0.033420 -1.397129 -0.011257 -0.836130 0.000000 -0.000001
    17 -0.022360 -0.957436 0.018784 -0.562942 0.000000 0.000000
    18 -1.180681 -2.507217 -0.193859 -0.134109 0.013294 -0.477915
    19 -0.024967 -1.123934 0.017597 -1.563043 0.000000 0.000001
    20 -0.020057 -0.890968 0.010090 -0.584386 0.000000 0.000000
    21 0.583510 -1.197277 0.185379 0.258132 -0.351791 -0.633692
    22 1.535927 0.010246 0.005009 -0.002964 -0.012979 0.000887
    23 1.100771 0.004527 -0.010679 -0.009867 0.012869 -0.477808
    24 0.120153 -0.050270 -0.054489 0.287569 3.110905 1.561085
    25 -2.204422 0.393912 -12.536822 0.463720 -3.260230 0.422394
    26 0.096944 -8.450418 -0.009365 -0.227463 0.026833 0.579232
    27 0.447953 -2.798986 -0.200443 -0.639268 0.120967 0.053422
    28 -0.032909 -1.480204 0.004940 -1.530125 0.000000 0.000002
    29 -0.027022 -1.076920 -0.020210 0.203175 0.000000 0.000000
    30 -0.249534 -2.846964 -0.174213 -0.430114 0.063993 -0.049275
    31 0.043235 -1.683941 0.096012 -1.938920 0.002823 -0.000167
    32 0.031729 -1.160830 0.058838 0.305256 0.000642 0.008372
    33 -0.963866 -2.785145 -0.085350 -0.246193 -0.199371 -0.509723
    34 0.028479 -1.403067 0.006271 -1.769899 0.000000 0.000000
    35 0.021413 -0.957781 0.020046 -0.249909 0.000000 0.000000
    36 1.164475 -2.543940 -0.170330 -0.444882 -0.042668 0.257890
    37 0.024032 -1.129042 0.017807 -1.179669 0.000000 0.000001
    38 0.014898 -0.883989 -0.019848 -0.816029 0.000000 0.000000
    39 -0.586770 -1.264477 0.200161 0.558595 -0.921413 -3.129819
    40 1.522835 0.058681 0.016848 0.001410 0.008985 1.201452
    41 1.117947 0.048424 -0.005766 -0.020293 -0.014939 0.992055
    42 -0.139399 -0.111698 0.014397 0.119905 0.051977 1.163458
    43 -1.393470 8.839177 -0.239433 1.580804 -0.005023 -1.566847
  time 28
    0 -4.216559 -1.137629 3.564076 0.000000 0.000000 -0.000030
    1 10.083801 -20.264349 -7.480446 -0.785398 -0.012260 1.570796
    2 -0.210944 0.105473 -0.105472 -0.000017 0.002166 0.002143
    3 9.922577 -1.457112 0.131531 0.000000 0.000000 -1.570796
    4 0.000000 0.000000 0.000000 0.000000 0.000000 0.000000
    5 10.928058 8.997682 5.185558 -0.238066 0.209952 -1.657587
    6 9.415575 -11.616213 -15.636178 5.490344 -0.158951 -0.086736
    7 1.257180 8.762585 -0.153713 -1.570562 0.002683 -1.566807
    8 -0.071921 -8.498736 -0.104134 -0.472789 0.902733 -0.329325
    9 -0.488518 -2.755602 -0.228260 -0.671428 0.010332 -0.264490
    10 0.039887 -1.479790 0.029854 -1.760276 0.000000 0.000001
    11 0.028786 -1.075731 -0.023109 -0.265827 0.000000 0.000000
    12 0.250027 -2.820665 -0.238396 -0.293229 0.120592 -0.035025
    13 -0.049759 -1.680544 0.100479 -1.958546 0.000000 -0.000002
    14 -0.034142 -1.148312 0.084782 -0.284751 0.000000 0.000000
    15 0.957766 -2.746780 -0.090302 0.142955 -0.178181 0.197335
    16 -0.033420 -1.397129 -0.011257 -0.863387 0.000000 -0.000001
    17 -0.022360 -0.957436 0.018784 -0.562942 0.000000 0.000000
    18 -1.180681 -2.507217 -0.193859 -0.134109 0.013294 -0.477915
    19 -0.024967 -1.123934 0.017597 -1.563043 0.000000 0.000001
    20 -0.020057 -0.890968 0.010090 -0.584386 0.000000 0.000000
    21 0.583510 -1.197277 0.185379 0.258132 -0.351791 -0.633692
    22 1.535927 0.010246 0.005009 -0.002964 -0.012979 0.000887
    23 1.100771 0.004527 -0.010679 -0.009867 0.012869 -0.477808
    24 0.120153 -0.050270 -0.054489 0.287569 3.110905 1.561085
    25 -2.204422 0.491571 -12.446976 0.462403 -3.260778 0.422203
    26 0.096944 -8.450418 -0.009365 -0.227463 0.026833 0.579232
    27 0.447953 -2.798986 -0.200443 -0.639268 0.120967 0.053422
    28 -0.032909 -1.480204 0.004940 -1.530125 0.000000 0.000002
    29 -0.027022 -1.076920 -0.020210 0.203175 0.000000 0.000000
    30 -0.249534 -2.846964 -0.174213 -0.430114 0.063993 -0.049275
    31 0.043235 -1.683941 0.096012 -1.938920 0.002823 -0.000167
    32 0.031729 -1.160830 0.058838 0.305256 0.000642 0.008372
    33 -0.963866 -2.785145 -0.085350 -0.246193 -0.199371 -0.509723
    34 0.028479 -1.403067 0.006271 -1.769899 0.000000 0.000000
    35 0.021413 -0.957781 0.020046 -0.249909 0.000000 0.000000
    36 1.164475 -2.543940 -0.170330 -0.444882 -0.042668 0.257890
    37 0.024032 -1.129042 0.017807 -1.179669 0.000000 0.000001
    38 0.014898 -0.883989 -0.019848 -0.816029 0.000000 0.000000
    39 -0.586770 -1.264477 0.200161 0.558595 -0.921413 -3.129819
    40 1.522835 0.058681 0.016848 0.001410 0.008985 1.201452
    41 1.117947 0.048424 -0.005766 -0.020293 -0.014939 0.992055
    42 -0.139399 -0.111698 0.014397 0.119905 0.051977 1.163458
    43 -1.393470 8.839177 -0.239433 1.580804 -0.005023 -1.566847
  time 29
    0 -4.216559 -1.137629 3.564076 0.000000 0.000000 -0.000030
    1 10.083801 -20.264349 -7.480446 -0.785398 -0.012260 1.570796
    2 -0.109378 0.054690 -0.054689 0.000000 0.001091 0.001089
    3 9.922577 -1.457112 0.131531 0.000000 0.000000 -1.570796
    4 0.000000 0.000000 0.000000 0.000000 0.000000 0.000000
    5 10.928058 8.997682 5.185558 -0.238066 0.209952 -1.657587
    6 9.419482 -11.506835 -15.550237 5.491890 -0.158804 -0.086982
    7 1.257180 8.762585 -0.153713 -1.570562 0.002683 -1.566807
    8 -0.071921 -8.498736 -0.104134 -0.472407 0.902256 -0.329638
    9 -0.488518 -2.755602 -0.228260 -0.669461 0.010332 -0.264490
    10 0.039887 -1.479790 0.029854 -1.760276 0.000000 0.000001
    11 0.028786 -1.075731 -0.023109 -0.271802 0.000000 0.000000
    12 0.250027 -2.820665 -0.238396 -0.291426 0.120592 -0.035025
    13 -0.049759 -1.680544 0.100479 -1.958546 0.000000 -0.000002
    14 -0.034142 -1.148312 0.084782 -0.287210 0.000000 0.000000
    15 0.957766 -2.746780 -0.090302 0.121925 -0.171026 0.194734
    16 -0.033420 -1.397129 -0.011257 -0.898455 0.000000 -0.000001
    17 -0.022360 -0.957436 0.018784 -0.562942 0.000000 0.000000
    18 -1.180681 -2.507217 -0.193859 -0.134109 0.013294 -0.477915
    19 -0.024967 -1.123934 0.017597 -1.563043 0.000000 0.000001
    20 -0.020057 -0.890968 0.010090 -0.584386 0.000000 0.000000
    21 0.583510 -1.197277 0.185379 0.258132 -0.351791 -0.633692
    22 1.535927 0.010246 0.005009 -0.002964 -0.012979 0.000887
    23 1.100771 0.004527 -0.010679 -0.009867 0.012869 -0.477808
    24 0.120153 -0.050270 -0.054489 0.287569 3.110905 1.561085
    25 -2.204422 0.597043 -12.345410 0.461004 -3.261417 0.422107
    26 0.096944 -8.450418 -0.009365 -0.227463 0.026833 0.579232
    27 0.447953 -2.798986 -0.200443 -0.639268 0.120967 0.053422
    28 -0.032909 -1.480204 0.004940 -1.530125 0.000000 0.000002
    29 -0.027022 -1.076920 -0.020210 0.203175 0.000000 0.000000
    30 -0.249534 -2.846964 -0.174213 -0.430114 0.063993 -0.049275
    31 0.043235 -1.683941 0.096012 -1.938920 0.002823 -0.000167
    32 0.031729 -1.160830 0.058838 0.305256 0.000642 0.008372
    33 -0.963866 -2.785145 -0.085350 -0.246193 -0.199371 -0.509723
    34 0.028479 -1.403067 0.006271 -1.769899 0.000000 0.000000
    35 0.021413 -0.957781 0.020046 -0.249909 0.000000 0.000000
    36 1.164475 -2.543940 -0.170330 -0.444882 -0.042668 0.257890
    37 0.024032 -1.129042 0.017807 -1.179669 0.000000 0.000001
    38 0.014898 -0.883989 -0.019848 -0.816029 0.000000 0.000000
    39 -0.586770 -1.264477 0.200161 0.558595 -0.921413 -3.129819
    40 1.522835 0.058681 0.016848 0.001410 0.008985 1.201452
    41 1.117947 0.048424 -0.005766 -0.020293 -0.014939 0.992055
    42 -0.139399 -0.111698 0.014397 0.119905 0.051977 1.163458
    43 -1.393470 8.839177 -0.239433 1.580804 -0.005023 -1.566847
  time 30
    0 -4.216559 -1.137629 3.564076 0.000000 0.000000 -0.000030
    1 10.083801 -20.264349 -7.480446 -0.785398 -0.012260 1.570796
    2 0.000000 0.000001 0.000000 0.000000 0.000000 0.000000
    3 9.922577 -1.457112 0.131531 0.000000 0.000000 -1.570796
    4 0.000000 0.000000 0.000000 0.000000 0.000000 0.000000
    5 10.928058 8.997682 5.185558 -0.238066 0.209952 -1.657587
    6 9.427294 -11.381831 -15.456485 5.493436 -0.158657 -0.087227
    7 1.257180 8.762585 -0.153713 -1.570562 0.002683 -1.566807
    8 -0.071921 -8.498736 -0.104134 -0.472255 0.902090 -0.329749
    9 -0.488518 -2.755602 -0.228260 -0.668758 0.010332 -0.264490
    10 0.039887 -1.479790 0.029854 -1.760276 0.000000 0.000001
    11 0.028786 -1.075731 -0.023109 -0.273888 0.000000 0.000000
    12 0.250027 -2.820665 -0.238396 -0.290798 0.120592 -0.035025
    13 -0.049759 -1.680544 0.100479 -1.958546 0.000000 -0.000002
    14 -0.034142 -1.148312 0.084782 -0.288083 0.000000 0.000000
    15 0.957766 -2.746780 -0.090302 0.096211 -0.162277 0.191558
    16 -0.033420 -1.397129 -0.011257 -0.941332 0.000000 -0.000001
    17 -0.022360 -0.957436 0.018784 -0.562942 0.000000 0.000000
    18 -1.180681 -2.507217 -0.193859 -0.134109 0.013294 -0.477915
    19 -0.024967 -1.123934 0.017597 -1.563043 0.000000 0.000001
    20 -0.020057 -0.890968 0.010090 -0.584386 0.000000 0.000000
    21 0.583510 -1.197277 0.185379 0.258132 -0.351791 -0.633692
    22 1.535927 0.010246 0.005009 -0.002964 -0.012979 0.000887
    23 1.100771 0.004527 -0.010679 -0.009867 0.012869 -0.477808
    24 0.120153 -0.050270 -0.054489 0.287569 3.110905 1.561085
    25 -2.204422 0.718140 -12.232125 0.459605 -3.261965 0.421916
    26 0.096944 -8.450418 -0.009365 -0.227463 0.026833 0.579232
    27 0.447953 -2.798986 -0.200443 -0.639268 0.120967 0.053422
    28 -0.032909 -1.480204 0.004940 -1.530125 0.000000 0.000002
    29 -0.027022 -1.076920 -0.020210 0.203175 0.000000 0.000000
    30 -0.249534 -2.846964 -0.174213 -0.430114 0.063993 -0.049275
    31 0.043235 -1.683941 0.096012 -1.938920 0.002823 -0.000167
    32 0.031729 -1.160830 0.058838 0.305256 0.000642 0.008372
    33 -0.963866 -2.785145 -0.085350 -0.246193 -0.199371 -0.509723
    34 0.028479 -1.403067 0.006271 -1.769899 0.000000 0.000000
    35 0.021413 -0.957781 0.020046 -0.249909 0.000000 0.000000
    36 1.164475 -2.543940 -0.170330 -0.444882 -0.042668 0.257890
    37 0.024032 -1.129042 0.017807 -1.179669 0.000000 0.000001
    38 0.014898 -0.883989 -0.019848 -0.816029 0.000000 0.000000
    39 -0.586770 -1.264477 0.200161 0.558595 -0.921413 -3.129819
    40 1.522835 0.058681 0.016848 0.001410 0.008985 1.201452
    41 1.117947 0.048424 -0.005766 -0.020293 -0.014939 0.992055
    42 -0.139399 -0.111698 0.014397 0.119905 0.051977 1.163458
    43 -1.393470 8.839177 -0.239433 1.580804 -0.005023 -1.566847
end
