// Created by Crowbar 0.49.0.0

$modelname "weapons/tfa_cso/c_m16a1.mdl"

$Include "csonline_gmod.qci"

$bodygroup "weapon"
{
	studio "v_m16a1_v_ref"
}

$CDMaterials "models\weapons\tfa_cso\m16a1"

$attachment 0 "Bone50" 0 -18.5 0
//$attachment 1 "Bone50" 0 -1.25 0
//$attachment 2 "Bone50" 0 -14.25 0


$sequence "idle" {
	"v_m16a1_anims\idle"
	fps 16
	loop
	activity "ACT_VM_IDLE" 1
	snap
}
$sequence "shoot1" {
	"v_m16a1_anims\shoot1"
	{ event 5001 0 "#I3 S0.15 R2 F0 P30 T0.01 A1 L0 O0" }
	fps 20
	activity "ACT_VM_PRIMARYATTACK" 1
	snap
}
$sequence "shoot2" {
	"v_m16a1_anims\shoot2"
	{ event 5001 0 "#I3 S0.15 R2 F0 P30 T0.01 A1 L0 O0" }
	fps 20
	activity "ACT_VM_PRIMARYATTACK" 2
	snap
}
$sequence "shoot3" {
	"v_m16a1_anims\shoot3"
	{ event 5001 0 "#I3 S0.15 R2 F0 P30 T0.01 A1 L0 O0" }
	fps 20
	activity "ACT_VM_PRIMARYATTACK" 3
	snap
}
$sequence "shoot_alt" {
	"v_m16a1_anims\shoot_alt"
	{ event 5001 0 "#I25 S0.1 R1.8 F0 P30 T0.01 A1 L0 O0" }
	fps 20
}
$sequence "reload" {
	"v_m16a1_anims\reload"
	{ event 5004 18 "M16A1.ClipOut" }
	{ event 5004 57 "M16A1.CLipIn" }
	{ event 5004 87 "M16A1.BoltPull" }
	fps 37
	activity "ACT_VM_RELOAD" 1
	snap
}
$sequence "draw" {
	"v_m16a1_anims\draw"
	{ event 5004 1 "M16A1.Deploy" }
	{ event 5004 16 "M16A1.BoltPull" }
	fps 40
	activity "ACT_VM_DRAW" 1
	snap
}