// Created by Crowbar 0.49.0.0

$modelname "weapons/tfa_cso/c_pkm_v6.mdl"

$Include "csonline_gmod.qci"

$bodygroup "weapon"
{
	studio "v_pkm_ref_pkm"
}

$CDMaterials "models\weapons\tfa_cso\pkm_v6\"

$attachment 0 "pkm_root" 28 -1.3 0
//$attachment 1 "pkm_root" 5 0.2 -2

$definebone "root" "" 0.000000 0.000000 0.000000 0.000000 0.000000 0.000000 0.000000 0.000000 0.000000 -0.000000 0.000000 0.000000
$definebone "Bone01" "root" 6.677123 4.910084 -6.748979 -80.763368 100.118970 -103.387407 0.000000 0.000000 0.000000 0.000000 -0.000001 -0.000000
$definebone "Bone_Lefthand" "Bone01" -0.071918 -8.498728 -0.104137 16.439536 -0.545228 -1.831345 0.000000 -0.000000 0.000000 0.000001 -0.000001 0.000000
$definebone "pkm_root" "Bone_Lefthand" 3.684036 -3.760118 7.146574 7.204805 -97.369231 -166.043444 0.000000 0.000000 0.000000 0.000000 -0.000001 -0.000003
$definebone "trigger" "pkm_root" 2.689171 0.593730 -0.000000 0.000002 59.331101 -0.000001 0.000000 0.000000 0.000000 0.000002 -0.000002 -0.000001
$definebone "magazine" "pkm_root" 6.773118 4.766942 -0.000001 -0.000003 -89.999983 89.999983 0.000000 0.000000 0.000000 0.000001 0.000003 0.000000
$definebone "bullet13" "magazine" 2.591804 -3.354442 1.127110 89.999983 89.999881 0.000000 0.000000 0.000000 0.000000 0.000000 -0.000001 -0.000003
$definebone "bullet12" "bullet13" 0.000000 -0.486002 -0.000017 0.000000 0.000056 179.999966 0.000000 0.000000 0.000000 -0.000000 0.000001 -0.000003
$definebone "bullet11" "bullet12" -0.000001 0.487466 -0.000032 -0.000000 0.000001 -179.999966 0.000000 0.000000 0.000000 0.000000 -0.000001 -0.000003
$definebone "bullet10" "bullet11" 0.000001 -0.492183 -0.013676 0.000000 -0.000001 179.999966 0.000000 -0.000000 0.000000 -0.000000 0.000001 -0.000003
$definebone "bullet09" "bullet10" 0.000000 0.490505 -0.104796 -0.000000 0.000001 -179.999966 0.000000 0.000000 0.000000 0.000000 -0.000001 -0.000003
$definebone "bullet08" "bullet09" -0.000002 -0.495221 0.171921 0.000000 -0.000001 179.999966 0.000000 0.000000 0.000000 -0.000000 0.000001 -0.000003
$definebone "bullet07" "bullet08" 0.000000 0.501056 -0.186734 -0.000000 0.000001 -179.999966 0.000000 0.000000 0.000000 0.000000 -0.000001 -0.000003
$definebone "bullet06" "bullet07" 0.000000 -0.421237 0.288713 0.000000 -0.000001 179.999966 0.000000 0.000000 0.000000 -0.000000 0.000001 -0.000003
$definebone "bullet05" "bullet06" -0.000002 0.324773 -0.392147 -0.000000 0.000001 -179.999966 0.000000 0.000000 0.000000 0.000000 -0.000001 -0.000003
$definebone "bullet04" "bullet05" -0.000001 -0.006677 0.578269 0.000000 -0.000001 179.999966 0.000000 0.000000 0.000000 -0.000000 0.000001 -0.000003
$definebone "bullet03" "bullet04" -0.000001 -0.001755 -0.596257 -0.000000 0.000001 -179.999966 0.000000 0.000000 0.000000 0.000000 -0.000001 -0.000003
$definebone "bullet02" "bullet03" 0.000001 0.106629 0.545063 0.000000 -0.000001 179.999966 0.000000 0.000000 0.000000 -0.000000 0.000001 -0.000003
$definebone "bullet01" "bullet02" 0.000000 -0.241343 -0.496625 -0.000000 0.000001 -179.999966 0.000000 0.000000 0.000000 0.000000 -0.000001 -0.000003
$definebone "cover_magazine" "magazine" 3.563064 -4.602958 0.011033 0.000001 4.596843 179.999911 0.000000 0.000000 0.000000 -0.000001 -0.000003 0.000000
$definebone "reload" "pkm_root" 5.341237 -0.511789 -0.617692 89.999983 -89.999983 0.000000 0.000000 0.000000 0.000000 0.000003 0.000000 0.000001
$definebone "cover1" "pkm_root" 8.711886 -2.432071 0.000000 -0.000000 179.999966 0.000003 0.000000 0.000000 0.000000 -0.000000 -0.000001 0.000003
$definebone "cover2" "cover1" 1.765141 0.083877 -2.035539 33.270115 -89.999983 90.000038 0.000000 0.000000 0.000000 0.000001 -0.000003 -0.000001
$definebone "switch" "cover1" 8.386957 -0.305542 0.000000 -0.000000 -0.000001 -179.999966 0.000000 0.000000 -0.000000 0.000000 0.000001 0.000003
$definebone "handle" "pkm_root" 12.358776 -1.315801 -0.300405 89.999983 -89.999983 0.000000 0.000000 0.000000 0.000000 0.000003 0.000000 0.000001
$definebone "prop" "pkm_root" 17.598587 -0.123469 -0.000001 0.000003 89.999983 0.000000 0.000000 0.000000 -0.000000 0.000003 0.000001 0.000000


$sequence "idle1" {
	"v_pkm_anims\idle1"
	fps 20
	loop
	activity "ACT_VM_IDLE" 1
	snap
}
$sequence "shoot1" {
	"v_pkm_anims\shoot1"
	{ event 5001 0 "31" }
	{ event 5001 1 "125" }
	fps 30
	activity "ACT_VM_PRIMARYATTACK" 1
	snap
}
$sequence "shoot2" {
	"v_pkm_anims\shoot2"
	{ event 5001 0 "21" }
	{ event 5001 1 "125" }
	fps 30
	activity "ACT_VM_PRIMARYATTACK" 2
	snap
}
$sequence "reload" {
	"v_pkm_anims\reload"
	{ event 5004 8 "PKM.ClipOut1" }
	{ event 5004 30 "PKM.ClipOut2" }
	{ event 5004 56 "PKM.ClipIn1" }
	{ event 5004 78 "PKM.ClipIn2" }
	{ event 5004 111 "PKM.ClipIn3" }
	fps 30
	activity "ACT_VM_RELOAD" 1
	snap
}
$sequence "draw" {
	"v_pkm_anims\draw"
	{ event 5004 7 "PKM.Draw" }
	fps 30
	activity "ACT_VM_DRAW" 1
	snap
}
