// Created by Crowbar 0.49.0.0

$modelname "weapons/tfa_cso/c_usp.mdl"

$Include "csonline_gmod.qci"

$bodygroup "weapon"
{
	studio "v_usp_f_usp_template"
}

$CDMaterials "models\weapons\tfa_cso\usp\"

$attachment 0 "Bone 04" 2.6 -13.3 2
//$attachment 1 "Bone54" 0 -1.5 0
//$attachment 2 "Bone 04" 2.6 -8.1 1.5

$definebone "Bone01" "" 6.608080 0.168823 -6.694013 -76.282511 32.503552 -44.363380 0.000000 0.000000 0.000000 0.000001 -0.000000 -0.000001
$definebone "Bone_Lefthand" "Bone01" 0.000000 -8.563285 0.000000 -6.704636 -9.545305 19.890631 0.000000 0.000000 0.000000 0.000002 0.000001 -0.000002
$definebone "Bone 04" "Bone_Lefthand" -0.003479 -0.404830 0.000000 0.000002 0.000001 -0.000002 0.000000 0.000000 0.000000 0.000002 0.000001 -0.000002
$definebone "Bone02" "Bone_Lefthand" -0.251103 -3.675759 0.760353 82.189423 -67.251136 -67.975614 0.000000 0.000000 0.000000 -0.000001 0.000002 0.000001
$definebone "Bone03" "Bone02" -0.000000 2.696692 0.690915 -0.000001 0.000002 0.000001 0.000000 0.000000 0.000000 -0.000001 0.000002 0.000001
$definebone "Bone52" "Bone03" 0.000922 -0.883960 1.569312 -0.000001 0.000002 0.000001 0.000000 0.000000 -0.000000 -0.000001 0.000002 0.000001
$definebone "Bone54" "Bone03" 0.000922 -1.179973 2.023393 -0.000001 0.000002 0.000001 0.000000 0.000000 0.000000 -0.000001 0.000002 0.000001
$definebone "Bone56" "Bone03" -0.001984 -7.144155 2.100413 -0.000001 0.000002 0.000001 0.000000 0.000000 -0.000000 -0.000001 0.000002 0.000001
$definebone "Bone58" "Bone03" -0.002861 -1.798471 1.044055 -0.000001 0.000002 0.000001 0.000000 0.000000 -0.000000 -0.000001 0.000002 0.000001
$definebone "Bone25" "Bone03" 0.000922 -3.415221 1.347102 -0.000001 0.000002 0.000001 0.000000 0.000000 0.000000 -0.000001 0.000002 0.000001

$sequence "idle" {
	"v_usp_anims\idle"
	fps 16
	activity "ACT_VM_IDLE_SILENCED" 1
	snap
	loop
}
$sequence "shoot1" {
	"v_usp_anims\shoot1"
	{ event 5001 0 "11" }
	fps 30
	activity "ACT_VM_PRIMARYATTACK_SILENCED" 1
	snap
}
$sequence "shoot2" {
	"v_usp_anims\shoot2"
	{ event 5001 0 "11" }
	fps 30
	activity "ACT_VM_PRIMARYATTACK_SILENCED" 2
	snap
}
$sequence "shoot3" {
	"v_usp_anims\shoot3"
	{ event 5001 0 "11" }
	fps 30
	activity "ACT_VM_PRIMARYATTACK_SILENCED" 3
	snap
}
$sequence "shootlast" {
	"v_usp_anims\shootlast"
	{ event 5001 0 "11" }
	fps 32
}
$sequence "reload" {
	"v_usp_anims\reload"
	{ event 5004 17 "Usp.Clipout" }
	{ event 5004 40 "Usp.Clipin" }
	{ event 5004 82 "Usp.SlideRelease" }
	fps 37
	activity "ACT_VM_RELOAD_SILENCED" 1
	snap
}
$sequence "draw" {
	"v_usp_anims\draw"
	{ event 5004 1 "weapons/de_deploy.wav" }
	{ event 5004 26 "Usp.Slideback" }
	fps 48
	activity "ACT_VM_DRAW_SILENCED" 1
	snap
}
$sequence "add_silencer" {
	"v_usp_anims\add_silencer"
	{ event 5004 38 "Usp.SilencerOn" }
	fps 37
	activity "ACT_VM_ATTACH_SILENCER" 1
	snap
}
$sequence "idle_unsil" {
	"v_usp_anims\idle_unsil"
	fps 16
	loop
	activity "ACT_VM_IDLE" 1
	snap
}
$sequence "shoot1_unsil" {
	"v_usp_anims\shoot1_unsil"
	{ event 5021 0 "11" }
	fps 30
	activity "ACT_VM_PRIMARYATTACK" 1
	snap
}
$sequence "shoot2_unsil" {
	"v_usp_anims\shoot2_unsil"
	{ event 5021 0 "11" }
	fps 30
	activity "ACT_VM_PRIMARYATTACK" 2
	snap
}
$sequence "shoot3_unsil" {
	"v_usp_anims\shoot3_unsil"
	{ event 5021 0 "11" }
	fps 30
	activity "ACT_VM_PRIMARYATTACK" 3
	snap
}
$sequence "shootlast_unsil" {
	"v_usp_anims\shootlast_unsil"
	{ event 5021 0 "11" }
	fps 32
	activity "ACT_VM_PRIMARYATTACK_EMPTY" 1
	snap
}
$sequence "reload_unsil" {
	"v_usp_anims\reload_unsil"
	{ event 5004 17 "Usp.Clipout" }
	{ event 5004 40 "Usp.Clipin" }
	{ event 5004 82 "Usp.SlideRelease" }
	fps 37
	activity "ACT_VM_RELOAD" 1
	snap
}
$sequence "draw_unsil" {
	"v_usp_anims\draw_unsil"
	{ event 5004 1 "weapons/de_deploy.wav" }
	{ event 5004 26 "Usp.Slideback" }
	fps 48
	activity "ACT_VM_DRAW" 1
	snap
}
$sequence "detach_silencer" {
	"v_usp_anims\detach_silencer"
	{ event 5004 29 "Usp.SilencerOff" }
	fps 37
	activity "ACT_VM_DETACH_SILENCER" 1
	snap
}
