version 1
nodes
  0 "root" -1
  1 "Bone01" 0
  2 "Bone_Lefthand" 1
  3 "Dummy02" 2
  4 "Bone02" 3
  5 "Dummy01" 4
  6 "Bone08" 5
  7 "Bone03" 5
  8 "Bone24" 4
  9 "Bone16" 4
  10 "Bone26" 4
  11 "Bone_L_Upper" 1
  12 "Bone13" 2
  13 "Bone14" 12
  14 "Bone15" 13
  15 "Bone17" 2
  16 "Bone18" 15
  17 "Bone19" 16
  18 "Bone21" 2
  19 "Bone22" 18
  20 "Bone23" 19
  21 "Bone09" 2
  22 "Bone10" 21
  23 "Bone11" 22
  24 "Bone05" 2
  25 "Bone06" 24
  26 "Bone07" 25
  27 "Bone_Se_Hand-L" 2
  28 "Bone04" 0
  29 "Bone_Righthand" 28
  30 "Bone39" 29
  31 "Bone40" 30
  32 "Bone41" 31
  33 "Bone35" 29
  34 "Bone36" 33
  35 "Bone37" 34
  36 "Bone31" 29
  37 "Bone32" 36
  38 "Bone33" 37
  39 "Bone43" 29
  40 "Bone44" 39
  41 "Bone45" 40
  42 "Bone27" 29
  43 "Bone28" 42
  44 "Bone29" 43
  45 "Bone_Se_Hand-R" 29
  46 "Bone_R_Upper" 28
end
skeleton
  time 0
    0 -0.999830 1.628925 1.837942 0.000000 0.000000 0.000000
    1 9.213061 3.032097 -9.113669 -0.149964 -1.612728 -0.045697
    2 -0.071918 -8.498730 -0.104136 0.151113 0.283294 0.053585
    3 2.895287 -1.754041 1.313274 0.246376 0.052132 -1.568741
    4 0.000002 0.000000 0.000000 0.000000 0.000000 -0.000001
    5 6.494406 -3.211587 0.000000 -0.000001 0.000000 -1.501248
    6 -0.000002 0.000002 0.000000 0.000000 0.000000 0.000000
    7 12.389346 -0.862831 0.000007 0.000002 0.000000 0.000000
    8 5.464948 0.934905 0.501473 -1.570796 0.000000 -1.570796
    9 14.981817 0.785508 0.038393 -1.570797 -1.570796 0.000000
    10 2.962811 -1.683644 0.000000 0.000000 0.000000 -1.570796
    11 1.257180 8.762585 -0.153713 -1.570562 0.002683 -1.566807
    12 -0.488518 -2.755602 -0.228260 -0.871637 -0.202562 -0.209541
    13 0.039887 -1.479790 0.029854 -2.058999 0.000000 0.000001
    14 0.028786 -1.075731 -0.023109 -0.606348 0.000000 0.000000
    15 0.250027 -2.820665 -0.238396 -0.797118 -0.167517 -0.114938
    16 -0.049759 -1.680544 0.100479 -1.934788 0.000000 -0.000002
    17 -0.034142 -1.148312 0.084782 -0.925906 0.000000 0.000000
    18 0.957766 -2.746780 -0.090302 0.005853 -0.162684 0.097910
    19 -0.033420 -1.397129 -0.011257 -0.520985 0.000000 -0.000001
    20 -0.022360 -0.957436 0.018784 -0.975478 0.000000 0.000000
    21 -1.180681 -2.507217 -0.193859 -0.671414 -0.081516 -0.261329
    22 -0.024967 -1.123934 0.017597 -2.056303 0.000000 0.000001
    23 -0.020057 -0.890968 0.010090 -0.677843 0.000000 0.000000
    24 0.583510 -1.197277 0.185379 0.180205 -0.812060 -1.291294
    25 1.535927 0.010246 0.005009 -0.002964 -0.012979 -0.506650
    26 1.100771 0.004527 -0.010679 -0.015488 -0.004784 -1.694062
    27 0.120153 -0.050270 -0.054489 0.287569 3.110905 1.561085
    28 0.705823 -13.305725 -12.720421 -1.753527 -5.377333 -0.933880
    29 0.096944 -8.450418 -0.009365 0.441504 -1.298311 0.044599
    30 0.447953 -2.798986 -0.200443 -0.867750 -0.067958 0.142839
    31 -0.032909 -1.480204 0.004940 -1.563671 0.000000 0.000002
    32 -0.027022 -1.076920 -0.020210 0.067112 0.000000 0.000000
    33 -0.249534 -2.846964 -0.174213 -0.411782 -0.046302 0.113811
    34 0.043235 -1.683941 0.096012 -1.755602 0.002823 -0.000167
    35 0.031729 -1.160830 0.058838 -0.271631 0.000642 0.008372
    36 -0.963866 -2.785145 -0.085350 0.029165 0.013044 0.093174
    37 0.028479 -1.403067 0.006271 -1.265374 0.000000 0.000000
    38 0.021413 -0.957781 0.020046 -0.738159 0.000000 0.000000
    39 1.164475 -2.543940 -0.170330 -1.086001 -0.190582 0.231608
    40 0.024032 -1.129042 0.017807 -1.235601 0.000000 0.000001
    41 0.014898 -0.883989 -0.019848 -0.241922 0.000000 0.000000
    42 -0.586770 -1.264477 0.200161 0.031359 -0.425403 -2.681131
    43 1.522835 0.058681 0.016848 0.001410 0.008985 0.513078
    44 1.117947 0.048424 -0.005766 0.001267 -0.025174 0.005124
    45 -0.139399 -0.111698 0.014397 0.730903 0.255277 1.513298
    46 -1.393470 8.839177 -0.239433 1.580804 -0.005023 -1.566847
  time 1
    0 -0.999830 1.628925 1.837942 0.000000 0.000000 0.000000
    1 9.037275 5.719679 -7.879257 -0.151034 -1.612435 -0.044616
    2 -0.071918 -8.498730 -0.104136 0.157956 0.361110 0.110505
    3 2.895287 -1.754041 1.313274 0.246376 0.052132 -1.568741
    4 0.000002 0.000000 0.000000 0.000000 0.000000 -0.000001
    5 6.494406 -3.211587 0.000000 -0.000001 0.000000 -1.501248
    6 -0.000002 0.000002 0.000000 0.000000 0.000000 0.000000
    7 14.170650 1.172388 -1.414099 0.002725 0.087473 -0.038304
    8 5.464948 0.934905 0.501473 -1.570796 -1.447730 -1.570796
    9 14.981817 0.785508 0.038393 -1.570797 -1.570796 0.000000
    10 2.962811 -1.683644 0.000000 0.000000 0.000000 -1.570796
    11 1.257180 8.762585 -0.153713 -1.570562 0.002683 -1.566807
    12 -0.488518 -2.755602 -0.228260 -0.871637 -0.202562 -0.209541
    13 0.039887 -1.479790 0.029854 -2.058999 0.000000 0.000001
    14 0.028786 -1.075731 -0.023109 -0.606348 0.000000 0.000000
    15 0.250027 -2.820665 -0.238396 -0.797118 -0.167517 -0.114938
    16 -0.049759 -1.680544 0.100479 -1.934788 0.000000 -0.000002
    17 -0.034142 -1.148312 0.084782 -0.925879 0.000000 0.000000
    18 0.957766 -2.746780 -0.090302 0.005853 -0.162684 0.097910
    19 -0.033420 -1.397129 -0.011257 -0.520985 0.000000 -0.000001
    20 -0.022360 -0.957436 0.018784 -0.975478 0.000000 0.000000
    21 -1.180681 -2.507217 -0.193859 -0.671414 -0.081516 -0.261329
    22 -0.024967 -1.123934 0.017597 -2.056303 0.000000 0.000001
    23 -0.020057 -0.890968 0.010090 -0.677843 0.000000 0.000000
    24 0.583510 -1.197277 0.185379 0.180205 -0.812060 -1.291294
    25 1.535927 0.010246 0.005009 -0.002964 -0.012979 -0.506650
    26 1.100771 0.004527 -0.010679 -0.015488 -0.004784 -1.694062
    27 0.120153 -0.050270 -0.054489 0.287569 3.110905 1.561085
    28 -0.348896 -11.708020 -10.556293 -1.908020 -5.361831 -0.892809
    29 0.096944 -8.450418 -0.009365 0.881654 -1.153005 -0.329424
    30 0.447953 -2.798986 -0.200443 -0.867750 -0.067958 0.142839
    31 -0.032909 -1.480204 0.004940 -1.563671 0.000000 0.000002
    32 -0.027022 -1.076920 -0.020210 0.067112 0.000000 0.000000
    33 -0.249534 -2.846964 -0.174213 -0.411782 -0.046302 0.113811
    34 0.043235 -1.683941 0.096012 -1.755602 0.002823 -0.000167
    35 0.031729 -1.160830 0.058838 -0.271631 0.000642 0.008372
    36 -0.963866 -2.785145 -0.085350 0.029165 0.013044 0.093174
    37 0.028479 -1.403067 0.006271 -1.265374 0.000000 0.000000
    38 0.021413 -0.957781 0.020046 -0.738159 0.000000 0.000000
    39 1.164475 -2.543940 -0.170330 -1.086001 -0.190582 0.231608
    40 0.024032 -1.129042 0.017807 -1.235601 0.000000 0.000001
    41 0.014898 -0.883989 -0.019848 -0.241922 0.000000 0.000000
    42 -0.586770 -1.264477 0.200161 0.031359 -0.425403 -2.681131
    43 1.522835 0.058681 0.016848 0.001410 0.008985 0.513078
    44 1.117947 0.048424 -0.005766 0.001267 -0.025174 0.005124
    45 -0.139399 -0.111698 0.014397 0.711942 0.298326 1.601817
    46 -1.393470 8.839177 -0.239433 1.580804 -0.005023 -1.566847
  time 2
    0 -0.999830 1.628925 1.837942 0.000000 0.000000 0.000000
    1 9.185717 7.426762 -7.504245 -0.153320 -1.611815 -0.042354
    2 -0.071918 -8.498730 -0.104136 0.149531 0.233043 0.073068
    3 2.895287 -1.754041 1.313274 0.246376 0.052132 -1.568741
    4 0.000002 0.000000 0.000000 0.000000 0.000000 -0.000001
    5 6.494406 -3.211587 0.000000 -0.000001 0.000000 -1.501248
    6 -0.000002 0.000002 0.000000 0.000000 0.000000 0.000000
    7 14.592538 2.969318 0.613307 -0.001904 -0.044403 -0.029091
    8 5.464948 0.934905 0.501473 1.570796 -1.315086 -4.712388
    9 14.981817 0.785508 0.038393 -1.570797 -1.570796 0.000000
    10 2.962811 -1.683644 0.000000 0.000000 0.000000 -1.570796
    11 1.257180 8.762585 -0.153713 -1.570562 0.002683 -1.566807
    12 -0.488518 -2.755602 -0.228260 -0.871637 -0.202562 -0.209541
    13 0.039887 -1.479790 0.029854 -2.058999 0.000000 0.000001
    14 0.028786 -1.075731 -0.023109 -0.606348 0.000000 0.000000
    15 0.250027 -2.820665 -0.238396 -0.797118 -0.167517 -0.114938
    16 -0.049759 -1.680544 0.100479 -1.934788 0.000000 -0.000002
    17 -0.034142 -1.148312 0.084782 -0.925906 0.000000 0.000000
    18 0.957766 -2.746780 -0.090302 0.005853 -0.162684 0.097910
    19 -0.033420 -1.397129 -0.011257 -0.520985 0.000000 -0.000001
    20 -0.022360 -0.957436 0.018784 -0.975478 0.000000 0.000000
    21 -1.180681 -2.507217 -0.193859 -0.671414 -0.081516 -0.261329
    22 -0.024967 -1.123934 0.017597 -2.056303 0.000000 0.000001
    23 -0.020057 -0.890968 0.010090 -0.677843 0.000000 0.000000
    24 0.583510 -1.197277 0.185379 0.180205 -0.812060 -1.291294
    25 1.535927 0.010246 0.005009 -0.002964 -0.012979 -0.506650
    26 1.100771 0.004527 -0.010679 -0.015488 -0.004784 -1.694062
    27 0.120153 -0.050270 -0.054489 0.287569 3.110905 1.561085
    28 0.233153 -9.993124 -11.275065 -1.746151 -5.445025 -0.758517
    29 0.096944 -8.450418 -0.009365 0.887511 -1.149651 -0.333922
    30 0.447953 -2.798986 -0.200443 -0.867750 -0.067958 0.142839
    31 -0.032909 -1.480204 0.004940 -1.563671 0.000000 0.000002
    32 -0.027022 -1.076920 -0.020210 0.067112 0.000000 0.000000
    33 -0.249534 -2.846964 -0.174213 -0.411782 -0.046302 0.113811
    34 0.043235 -1.683941 0.096012 -1.755602 0.002823 -0.000167
    35 0.031729 -1.160830 0.058838 -0.271631 0.000642 0.008372
    36 -0.963866 -2.785145 -0.085350 0.029165 0.013044 0.093174
    37 0.028479 -1.403067 0.006271 -1.265374 0.000000 0.000000
    38 0.021413 -0.957781 0.020046 -0.738159 0.000000 0.000000
    39 1.164475 -2.543940 -0.170330 -1.086001 -0.190582 0.231608
    40 0.024032 -1.129042 0.017807 -1.235601 0.000000 0.000001
    41 0.014898 -0.883989 -0.019848 -0.241922 0.000000 0.000000
    42 -0.586770 -1.264477 0.200161 0.031359 -0.425403 -2.681131
    43 1.522835 0.058681 0.016848 0.001410 0.008985 0.513078
    44 1.117947 0.048424 -0.005766 0.001267 -0.025174 0.005124
    45 -0.139399 -0.111698 0.014397 0.711942 0.298326 1.601817
    46 -1.393470 8.839177 -0.239433 1.580804 -0.005023 -1.566847
  time 3
    0 -0.999830 1.628925 1.837942 0.000000 0.000000 0.000000
    1 9.166185 6.540017 -7.578466 -0.155071 -1.611359 -0.040585
    2 -0.071918 -8.498730 -0.104136 0.149579 0.224126 0.095575
    3 2.895287 -1.754041 1.313274 0.246376 0.052132 -1.568741
    4 0.000002 0.000000 0.000000 0.000000 0.000000 -0.000001
    5 6.494406 -3.211587 0.000000 -0.000001 0.000000 -1.501248
    6 -0.000002 0.000002 0.000000 0.000000 0.000000 0.000000
    7 14.666759 1.734905 0.648464 -0.001178 -0.048310 -0.052827
    8 5.464948 0.934905 0.501473 -1.570796 -0.913212 -1.570796
    9 14.981817 0.785508 0.038393 -1.570797 -1.570796 0.000000
    10 2.962811 -1.683644 0.000000 0.000000 0.000000 -1.570796
    11 1.257180 8.762585 -0.153713 -1.570562 0.002683 -1.566807
    12 -0.488518 -2.755602 -0.228260 -0.871637 -0.202562 -0.209541
    13 0.039887 -1.479790 0.029854 -2.058999 0.000000 0.000001
    14 0.028786 -1.075731 -0.023109 -0.606348 0.000000 0.000000
    15 0.250027 -2.820665 -0.238396 -0.797118 -0.167517 -0.114938
    16 -0.049759 -1.680544 0.100479 -1.934788 0.000000 -0.000002
    17 -0.034142 -1.148312 0.084782 -0.925906 0.000000 0.000000
    18 0.957766 -2.746780 -0.090302 0.005853 -0.162684 0.097910
    19 -0.033420 -1.397129 -0.011257 -0.520985 0.000000 -0.000001
    20 -0.022360 -0.957436 0.018784 -0.975478 0.000000 0.000000
    21 -1.180681 -2.507217 -0.193859 -0.671414 -0.081516 -0.261329
    22 -0.024967 -1.123934 0.017597 -2.056303 0.000000 0.000001
    23 -0.020057 -0.890968 0.010090 -0.677843 0.000000 0.000000
    24 0.583510 -1.197277 0.185379 0.180205 -0.812060 -1.291294
    25 1.535927 0.010246 0.005009 -0.002964 -0.012979 -0.506650
    26 1.100771 0.004527 -0.010679 -0.015488 -0.004784 -1.694062
    27 0.120153 -0.050270 -0.054489 0.287569 3.110905 1.561085
    28 0.217527 -10.934559 -11.157874 -1.767811 -5.464470 -0.772557
    29 0.096944 -8.450418 -0.009365 0.891019 -1.147632 -0.336605
    30 0.447953 -2.798986 -0.200443 -0.867750 -0.067958 0.142839
    31 -0.032909 -1.480204 0.004940 -1.563671 0.000000 0.000002
    32 -0.027022 -1.076920 -0.020210 0.067112 0.000000 0.000000
    33 -0.249534 -2.846964 -0.174213 -0.411782 -0.046302 0.113811
    34 0.043235 -1.683941 0.096012 -1.755602 0.002823 -0.000167
    35 0.031729 -1.160830 0.058838 -0.271631 0.000642 0.008372
    36 -0.963866 -2.785145 -0.085350 0.029165 0.013044 0.093174
    37 0.028479 -1.403067 0.006271 -1.265374 0.000000 0.000000
    38 0.021413 -0.957781 0.020046 -0.738159 0.000000 0.000000
    39 1.164475 -2.543940 -0.170330 -1.086001 -0.190582 0.231608
    40 0.024032 -1.129042 0.017807 -1.235601 0.000000 0.000001
    41 0.014898 -0.883989 -0.019848 -0.241922 0.000000 0.000000
    42 -0.586770 -1.264477 0.200161 0.031359 -0.425403 -2.681131
    43 1.522835 0.058681 0.016848 0.001410 0.008985 0.513078
    44 1.117947 0.048424 -0.005766 0.001267 -0.025174 0.005124
    45 -0.139399 -0.111698 0.014397 0.711942 0.298326 1.601817
    46 -1.393470 8.839177 -0.239433 1.580804 -0.005023 -1.566847
  time 4
    0 -0.999830 1.628925 1.837942 0.000000 0.000000 0.000000
    1 9.111496 5.188413 -7.734721 -0.154487 -1.611522 -0.041175
    2 -0.071918 -8.498730 -0.104136 0.151041 0.237429 0.127935
    3 2.895287 -1.754041 1.313274 0.246376 0.052132 -1.568741
    4 0.000002 0.000000 0.000000 0.000000 0.000000 -0.000001
    5 6.494406 -3.211587 0.000000 -0.000001 0.000000 -1.501248
    6 -0.000002 0.000002 0.000000 0.000000 0.000000 0.000000
    7 14.608163 -0.022961 0.316423 0.000002 -0.029062 -0.081692
    8 5.464948 0.934905 0.501473 -1.570796 0.000000 -1.570796
    9 14.981817 0.785508 0.038393 -1.570797 -1.570796 0.000000
    10 2.962811 -1.683644 0.000000 0.000000 0.000000 -1.570796
    11 1.257180 8.762585 -0.153713 -1.570562 0.002683 -1.566807
    12 -0.488518 -2.755602 -0.228260 -0.871637 -0.202562 -0.209541
    13 0.039887 -1.479790 0.029854 -2.058999 0.000000 0.000001
    14 0.028786 -1.075731 -0.023109 -0.606348 0.000000 0.000000
    15 0.250027 -2.820665 -0.238396 -0.797118 -0.167517 -0.114938
    16 -0.049759 -1.680544 0.100479 -1.934788 0.000000 -0.000002
    17 -0.034142 -1.148312 0.084782 -0.925906 0.000000 0.000000
    18 0.957766 -2.746780 -0.090302 0.005853 -0.162684 0.097910
    19 -0.033420 -1.397129 -0.011257 -0.520985 0.000000 -0.000001
    20 -0.022360 -0.957436 0.018784 -0.975478 0.000000 0.000000
    21 -1.180681 -2.507217 -0.193859 -0.671414 -0.081516 -0.261329
    22 -0.024967 -1.123934 0.017597 -2.056303 0.000000 0.000001
    23 -0.020057 -0.890968 0.010090 -0.677843 0.000000 0.000000
    24 0.583510 -1.197277 0.185379 0.180205 -0.812060 -1.291294
    25 1.535927 0.010246 0.005009 -0.002964 -0.012979 -0.506650
    26 1.100771 0.004527 -0.010679 -0.015488 -0.004784 -1.694062
    27 0.120153 -0.050270 -0.054489 0.287569 3.110905 1.561085
    28 0.088617 -12.340852 -10.911772 -1.817265 -5.471441 -0.809808
    29 0.096944 -8.450418 -0.009365 0.892211 -1.146916 -0.337532
    30 0.447953 -2.798986 -0.200443 -0.867750 -0.067958 0.142839
    31 -0.032909 -1.480204 0.004940 -1.563671 0.000000 0.000002
    32 -0.027022 -1.076920 -0.020210 0.067112 0.000000 0.000000
    33 -0.249534 -2.846964 -0.174213 -0.411782 -0.046302 0.113811
    34 0.043235 -1.683941 0.096012 -1.755602 0.002823 -0.000167
    35 0.031729 -1.160830 0.058838 -0.271631 0.000642 0.008372
    36 -0.963866 -2.785145 -0.085350 0.029165 0.013044 0.093174
    37 0.028479 -1.403067 0.006271 -1.265374 0.000000 0.000000
    38 0.021413 -0.957781 0.020046 -0.738159 0.000000 0.000000
    39 1.164475 -2.543940 -0.170330 -1.086001 -0.190582 0.231608
    40 0.024032 -1.129042 0.017807 -1.235601 0.000000 0.000001
    41 0.014898 -0.883989 -0.019848 -0.241922 0.000000 0.000000
    42 -0.586770 -1.264477 0.200161 0.031359 -0.425403 -2.681131
    43 1.522835 0.058681 0.016848 0.001410 0.008985 0.513078
    44 1.117947 0.048424 -0.005766 0.001267 -0.025174 0.005124
    45 -0.139399 -0.111698 0.014397 0.711942 0.298326 1.601817
    46 -1.393470 8.839177 -0.239433 1.580804 -0.005023 -1.566847
  time 5
    0 -0.999830 1.628925 1.837942 0.000000 0.000000 0.000000
    1 9.076338 4.168851 -7.906601 -0.149964 -1.612728 -0.045697
    2 -0.071918 -8.498730 -0.104136 0.152144 0.249054 0.140290
    3 2.895287 -1.754041 1.313274 0.246376 0.052132 -1.568741
    4 0.000002 0.000000 0.000000 0.000000 0.000000 -0.000001
    5 6.494406 -3.211587 0.000000 -0.000001 0.000000 -1.501248
    6 -0.000002 0.000002 0.000000 0.000000 0.000000 0.000000
    7 14.369875 -1.151902 0.093760 0.000093 -0.016484 -0.091449
    8 5.464948 0.934905 0.501473 -1.570796 -0.194632 -1.570796
    9 14.981817 0.785508 0.038393 -1.570797 -1.570796 0.000000
    10 2.962811 -1.683644 0.000000 0.000000 0.000000 -1.570796
    11 1.257180 8.762585 -0.153713 -1.570562 0.002683 -1.566807
    12 -0.488518 -2.755602 -0.228260 -0.871637 -0.202562 -0.209541
    13 0.039887 -1.479790 0.029854 -2.058999 0.000000 0.000001
    14 0.028786 -1.075731 -0.023109 -0.606348 0.000000 0.000000
    15 0.250027 -2.820665 -0.238396 -0.797118 -0.167517 -0.114938
    16 -0.049759 -1.680544 0.100479 -1.934788 0.000000 -0.000002
    17 -0.034142 -1.148312 0.084782 -0.925879 0.000000 0.000000
    18 0.957766 -2.746780 -0.090302 0.005853 -0.162684 0.097910
    19 -0.033420 -1.397129 -0.011257 -0.520985 0.000000 -0.000001
    20 -0.022360 -0.957436 0.018784 -0.975478 0.000000 0.000000
    21 -1.180681 -2.507217 -0.193859 -0.671414 -0.081516 -0.261329
    22 -0.024967 -1.123934 0.017597 -2.056303 0.000000 0.000001
    23 -0.020057 -0.890968 0.010090 -0.677843 0.000000 0.000000
    24 0.583510 -1.197277 0.185379 0.180205 -0.812060 -1.291294
    25 1.535927 0.010246 0.005009 -0.002964 -0.012979 -0.506650
    26 1.100771 0.004527 -0.010679 -0.015488 -0.004784 -1.694062
    27 0.120153 -0.050270 -0.054489 0.287569 3.110905 1.561085
    28 0.010490 -13.344789 -10.896147 -1.840090 -5.469974 -0.828910
    29 0.096944 -8.450418 -0.009365 0.891086 -1.147567 -0.336663
    30 0.447953 -2.798986 -0.200443 -0.867750 -0.067958 0.142839
    31 -0.032909 -1.480204 0.004940 -1.563671 0.000000 0.000002
    32 -0.027022 -1.076920 -0.020210 0.067112 0.000000 0.000000
    33 -0.249534 -2.846964 -0.174213 -0.411782 -0.046302 0.113811
    34 0.043235 -1.683941 0.096012 -1.755602 0.002823 -0.000167
    35 0.031729 -1.160830 0.058838 -0.271631 0.000642 0.008372
    36 -0.963866 -2.785145 -0.085350 0.029165 0.013044 0.093174
    37 0.028479 -1.403067 0.006271 -1.265374 0.000000 0.000000
    38 0.021413 -0.957781 0.020046 -0.738159 0.000000 0.000000
    39 1.164475 -2.543940 -0.170330 -1.086001 -0.190582 0.231608
    40 0.024032 -1.129042 0.017807 -1.235601 0.000000 0.000001
    41 0.014898 -0.883989 -0.019848 -0.241922 0.000000 0.000000
    42 -0.586770 -1.264477 0.200161 0.031359 -0.425403 -2.681131
    43 1.522835 0.058681 0.016848 0.001410 0.008985 0.513078
    44 1.117947 0.048424 -0.005766 0.001267 -0.025174 0.005124
    45 -0.139399 -0.111698 0.014397 0.711942 0.298326 1.601817
    46 -1.393470 8.839177 -0.239433 1.580804 -0.005023 -1.566847
  time 6
    0 -0.999830 1.628925 1.837942 0.000000 0.000000 0.000000
    1 9.068526 3.649303 -8.070669 -0.136930 -1.615922 -0.058723
    2 -0.071918 -8.498730 -0.104136 0.151688 0.250660 0.125565
    3 2.895287 -1.754041 1.313274 0.246376 0.052132 -1.568741
    4 0.000002 0.000000 0.000000 0.000000 0.000000 -0.000001
    5 6.494406 -3.211587 0.000000 -0.000001 0.000000 -1.501248
    6 -0.000002 0.000002 0.000000 0.000000 0.000000 0.000000
    7 14.026114 -1.429254 0.144543 -0.000452 -0.020963 -0.077562
    8 5.464948 0.934905 0.501473 -1.570796 0.000000 -1.570796
    9 14.981817 0.785508 0.038393 -1.570797 -1.570796 0.000000
    10 2.962811 -1.683644 0.000000 0.000000 0.000000 -1.570796
    11 1.257180 8.762585 -0.153713 -1.570562 0.002683 -1.566807
    12 -0.488518 -2.755602 -0.228260 -0.871637 -0.202562 -0.209541
    13 0.039887 -1.479790 0.029854 -2.058999 0.000000 0.000001
    14 0.028786 -1.075731 -0.023109 -0.606348 0.000000 0.000000
    15 0.250027 -2.820665 -0.238396 -0.797118 -0.167517 -0.114938
    16 -0.049759 -1.680544 0.100479 -1.934788 0.000000 -0.000002
    17 -0.034142 -1.148312 0.084782 -0.925879 0.000000 0.000000
    18 0.957766 -2.746780 -0.090302 0.005853 -0.162684 0.097910
    19 -0.033420 -1.397129 -0.011257 -0.520985 0.000000 -0.000001
    20 -0.022360 -0.957436 0.018784 -0.975478 0.000000 0.000000
    21 -1.180681 -2.507217 -0.193859 -0.671414 -0.081516 -0.261329
    22 -0.024967 -1.123934 0.017597 -2.056303 0.000000 0.000001
    23 -0.020057 -0.890968 0.010090 -0.677843 0.000000 0.000000
    24 0.583510 -1.197277 0.185379 0.180205 -0.812060 -1.291294
    25 1.535927 0.010246 0.005009 -0.002964 -0.012979 -0.506650
    26 1.100771 0.004527 -0.010679 -0.015488 -0.004784 -1.694062
    27 0.120153 -0.050270 -0.054489 0.287569 3.110905 1.561085
    28 0.022209 -13.786208 -11.224282 -1.821069 -5.462728 -0.817640
    29 0.096944 -8.450418 -0.009365 0.887611 -1.149618 -0.333999
    30 0.447953 -2.798986 -0.200443 -0.867750 -0.067958 0.142839
    31 -0.032909 -1.480204 0.004940 -1.563671 0.000000 0.000002
    32 -0.027022 -1.076920 -0.020210 0.067112 0.000000 0.000000
    33 -0.249534 -2.846964 -0.174213 -0.411782 -0.046302 0.113811
    34 0.043235 -1.683941 0.096012 -1.755602 0.002823 -0.000167
    35 0.031729 -1.160830 0.058838 -0.271631 0.000642 0.008372
    36 -0.963866 -2.785145 -0.085350 0.029165 0.013044 0.093174
    37 0.028479 -1.403067 0.006271 -1.265374 0.000000 0.000000
    38 0.021413 -0.957781 0.020046 -0.738159 0.000000 0.000000
    39 1.164475 -2.543940 -0.170330 -1.086001 -0.190582 0.231608
    40 0.024032 -1.129042 0.017807 -1.235601 0.000000 0.000001
    41 0.014898 -0.883989 -0.019848 -0.241922 0.000000 0.000000
    42 -0.586770 -1.264477 0.200161 0.031359 -0.425403 -2.681131
    43 1.522835 0.058681 0.016848 0.001410 0.008985 0.513078
    44 1.117947 0.048424 -0.005766 0.001267 -0.025174 0.005124
    45 -0.139399 -0.111698 0.014397 0.711942 0.298326 1.601817
    46 -1.393470 8.839177 -0.239433 1.580804 -0.005023 -1.566847
  time 7
    0 -0.999830 1.628925 1.837942 0.000000 0.000000 0.000000
    1 9.068526 3.266479 -8.258175 -0.119275 -1.620843 -0.076419
    2 -0.071918 -8.498730 -0.104136 0.150765 0.250708 0.100259
    3 2.895287 -1.754041 1.313274 0.246376 0.052132 -1.568741
    4 0.000002 0.000000 0.000000 0.000000 0.000000 -0.000001
    5 6.494406 -3.211587 0.000000 -0.000001 0.000000 -1.501248
    6 -0.000002 0.000002 0.000000 0.000000 0.000000 0.000000
    7 13.627665 -1.448786 0.265640 -0.001450 -0.030777 -0.054098
    8 5.464948 0.934905 0.501473 -1.570796 0.000000 -1.570796
    9 14.981817 0.785508 0.038393 -1.570797 -1.570796 0.000000
    10 2.962811 -1.683644 0.000000 0.000000 0.000000 -1.570796
    11 1.257180 8.762585 -0.153713 -1.570562 0.002683 -1.566807
    12 -0.488518 -2.755602 -0.228260 -0.871637 -0.202562 -0.209541
    13 0.039887 -1.479790 0.029854 -2.058999 0.000000 0.000001
    14 0.028786 -1.075731 -0.023109 -0.606348 0.000000 0.000000
    15 0.250027 -2.820665 -0.238396 -0.797118 -0.167517 -0.114938
    16 -0.049759 -1.680544 0.100479 -1.934788 0.000000 -0.000002
    17 -0.034142 -1.148312 0.084782 -0.925906 0.000000 0.000000
    18 0.957766 -2.746780 -0.090302 0.005853 -0.162684 0.097910
    19 -0.033420 -1.397129 -0.011257 -0.520985 0.000000 -0.000001
    20 -0.022360 -0.957436 0.018784 -0.975478 0.000000 0.000000
    21 -1.180681 -2.507217 -0.193859 -0.671414 -0.081516 -0.261329
    22 -0.024967 -1.123934 0.017597 -2.056303 0.000000 0.000001
    23 -0.020057 -0.890968 0.010090 -0.677843 0.000000 0.000000
    24 0.583510 -1.197277 0.185379 0.180205 -0.812060 -1.291294
    25 1.535927 0.010246 0.005009 -0.002964 -0.012979 -0.506650
    26 1.100771 0.004527 -0.010679 -0.015488 -0.004784 -1.694062
    27 0.120153 -0.050270 -0.054489 0.287569 3.110905 1.561085
    28 0.065179 -14.067467 -11.689140 -1.786288 -5.452363 -0.794717
    29 0.096944 -8.450418 -0.009365 0.881654 -1.153005 -0.329424
    30 0.447953 -2.798986 -0.200443 -0.867750 -0.067958 0.142839
    31 -0.032909 -1.480204 0.004940 -1.563671 0.000000 0.000002
    32 -0.027022 -1.076920 -0.020210 0.067112 0.000000 0.000000
    33 -0.249534 -2.846964 -0.174213 -0.411782 -0.046302 0.113811
    34 0.043235 -1.683941 0.096012 -1.755602 0.002823 -0.000167
    35 0.031729 -1.160830 0.058838 -0.271631 0.000642 0.008372
    36 -0.963866 -2.785145 -0.085350 0.029165 0.013044 0.093174
    37 0.028479 -1.403067 0.006271 -1.265374 0.000000 0.000000
    38 0.021413 -0.957781 0.020046 -0.738159 0.000000 0.000000
    39 1.164475 -2.543940 -0.170330 -1.086001 -0.190582 0.231608
    40 0.024032 -1.129042 0.017807 -1.235601 0.000000 0.000001
    41 0.014898 -0.883989 -0.019848 -0.241922 0.000000 0.000000
    42 -0.586770 -1.264477 0.200161 0.031359 -0.425403 -2.681131
    43 1.522835 0.058681 0.016848 0.001410 0.008985 0.513078
    44 1.117947 0.048424 -0.005766 0.001267 -0.025174 0.005124
    45 -0.139399 -0.111698 0.014397 0.711942 0.298326 1.601817
    46 -1.393470 8.839177 -0.239433 1.580804 -0.005023 -1.566847
  time 8
    0 -0.999830 1.628925 1.837942 0.000000 0.000000 0.000000
    1 9.072432 2.993033 -8.437868 -0.105171 -1.626090 -0.090526
    2 -0.071918 -8.498730 -0.104136 0.149639 0.250612 0.069373
    3 2.895287 -1.754041 1.313274 0.246376 0.052132 -1.568741
    4 0.000002 0.000000 0.000000 0.000000 0.000000 -0.000001
    5 6.494406 -3.211587 0.000000 -0.000001 0.000000 -1.501248
    6 -0.000002 0.000002 0.000000 0.000000 0.000000 0.000000
    7 13.213589 -1.296438 0.410176 -0.002812 -0.042021 -0.025234
    8 5.464948 0.934905 0.501473 -1.570796 0.000000 -1.570796
    9 14.981817 0.785508 0.038393 -1.570797 -1.570796 0.000000
    10 2.962811 -1.683644 0.000000 0.000000 0.000000 -1.570796
    11 1.257180 8.762585 -0.153713 -1.570562 0.002683 -1.566807
    12 -0.488518 -2.755602 -0.228260 -0.871637 -0.202562 -0.209541
    13 0.039887 -1.479790 0.029854 -2.058999 0.000000 0.000001
    14 0.028786 -1.075731 -0.023109 -0.606348 0.000000 0.000000
    15 0.250027 -2.820665 -0.238396 -0.797118 -0.167517 -0.114938
    16 -0.049759 -1.680544 0.100479 -1.934788 0.000000 -0.000002
    17 -0.034142 -1.148312 0.084782 -0.925906 0.000000 0.000000
    18 0.957766 -2.746780 -0.090302 0.005853 -0.162684 0.097910
    19 -0.033420 -1.397129 -0.011257 -0.520985 0.000000 -0.000001
    20 -0.022360 -0.957436 0.018784 -0.975478 0.000000 0.000000
    21 -1.180681 -2.507217 -0.193859 -0.671414 -0.081516 -0.261329
    22 -0.024967 -1.123934 0.017597 -2.056303 0.000000 0.000001
    23 -0.020057 -0.890968 0.010090 -0.677843 0.000000 0.000000
    24 0.583510 -1.197277 0.185379 0.180205 -0.812060 -1.291294
    25 1.535927 0.010246 0.005009 -0.002964 -0.012979 -0.506650
    26 1.100771 0.004527 -0.010679 -0.015488 -0.004784 -1.694062
    27 0.120153 -0.050270 -0.054489 0.287569 3.110905 1.561085
    28 0.143306 -14.188564 -12.208687 -1.742735 -5.439430 -0.770074
    29 0.096944 -8.450418 -0.009365 0.865107 -1.162221 -0.316568
    30 0.447953 -2.798986 -0.200443 -0.867750 -0.067958 0.142839
    31 -0.032909 -1.480204 0.004940 -1.563671 0.000000 0.000002
    32 -0.027022 -1.076920 -0.020210 0.067112 0.000000 0.000000
    33 -0.249534 -2.846964 -0.174213 -0.411782 -0.046302 0.113811
    34 0.043235 -1.683941 0.096012 -1.755602 0.002823 -0.000167
    35 0.031729 -1.160830 0.058838 -0.271631 0.000642 0.008372
    36 -0.963866 -2.785145 -0.085350 0.029165 0.013044 0.093174
    37 0.028479 -1.403067 0.006271 -1.265374 0.000000 0.000000
    38 0.021413 -0.957781 0.020046 -0.738159 0.000000 0.000000
    39 1.164475 -2.543940 -0.170330 -1.086001 -0.190582 0.231608
    40 0.024032 -1.129042 0.017807 -1.235601 0.000000 0.000001
    41 0.014898 -0.883989 -0.019848 -0.241922 0.000000 0.000000
    42 -0.586770 -1.264477 0.200161 0.031359 -0.425403 -2.681131
    43 1.522835 0.058681 0.016848 0.001410 0.008985 0.513078
    44 1.117947 0.048424 -0.005766 0.001267 -0.025174 0.005124
    45 -0.139399 -0.111698 0.014397 0.712765 0.296480 1.598005
    46 -1.393470 8.839177 -0.239433 1.580804 -0.005023 -1.566847
  time 9
    0 -0.999830 1.628925 1.837942 0.000000 0.000000 0.000000
    1 9.080245 2.813340 -8.598029 -0.098654 -1.630262 -0.097014
    2 -0.071918 -8.498730 -0.104136 0.148572 0.251775 0.037927
    3 2.895287 -1.754041 1.313274 0.246376 0.052132 -1.568741
    4 0.000002 0.000000 0.000000 0.000000 0.000000 -0.000001
    5 6.494406 -3.211587 0.000000 -0.000001 0.000000 -1.501248
    6 -0.000002 0.000002 0.000000 0.000000 0.000000 0.000000
    7 12.819046 -1.050336 0.527367 -0.004174 -0.050978 0.004856
    8 5.464948 0.934905 0.501473 -1.570796 0.000000 -1.570796
    9 14.981817 0.785508 0.038393 -1.570797 -1.570796 0.000000
    10 2.962811 -1.683644 0.000000 0.000000 0.000000 -1.570796
    11 1.257180 8.762585 -0.153713 -1.570562 0.002683 -1.566807
    12 -0.488518 -2.755602 -0.228260 -0.871637 -0.202562 -0.209541
    13 0.039887 -1.479790 0.029854 -2.058999 0.000000 0.000001
    14 0.028786 -1.075731 -0.023109 -0.606348 0.000000 0.000000
    15 0.250027 -2.820665 -0.238396 -0.797118 -0.167517 -0.114938
    16 -0.049759 -1.680544 0.100479 -1.934788 0.000000 -0.000002
    17 -0.034142 -1.148312 0.084782 -0.925906 0.000000 0.000000
    18 0.957766 -2.746780 -0.090302 0.005853 -0.162684 0.097910
    19 -0.033420 -1.397129 -0.011257 -0.520985 0.000000 -0.000001
    20 -0.022360 -0.957436 0.018784 -0.975478 0.000000 0.000000
    21 -1.180681 -2.507217 -0.193859 -0.671414 -0.081516 -0.261329
    22 -0.024967 -1.123934 0.017597 -2.056303 0.000000 0.000001
    23 -0.020057 -0.890968 0.010090 -0.677843 0.000000 0.000000
    24 0.583510 -1.197277 0.185379 0.180205 -0.812060 -1.291294
    25 1.535927 0.010246 0.005009 -0.002964 -0.012979 -0.506650
    26 1.100771 0.004527 -0.010679 -0.015488 -0.004784 -1.694062
    27 0.120153 -0.050270 -0.054489 0.287569 3.110905 1.561085
    28 0.252685 -14.169033 -12.681358 -1.698173 -5.423286 -0.752882
    29 0.096944 -8.450418 -0.009365 0.831384 -1.179676 -0.289949
    30 0.447953 -2.798986 -0.200443 -0.867750 -0.067958 0.142839
    31 -0.032909 -1.480204 0.004940 -1.563671 0.000000 0.000002
    32 -0.027022 -1.076920 -0.020210 0.067112 0.000000 0.000000
    33 -0.249534 -2.846964 -0.174213 -0.411782 -0.046302 0.113811
    34 0.043235 -1.683941 0.096012 -1.755602 0.002823 -0.000167
    35 0.031729 -1.160830 0.058838 -0.271631 0.000642 0.008372
    36 -0.963866 -2.785145 -0.085350 0.029165 0.013044 0.093174
    37 0.028479 -1.403067 0.006271 -1.265374 0.000000 0.000000
    38 0.021413 -0.957781 0.020046 -0.738159 0.000000 0.000000
    39 1.164475 -2.543940 -0.170330 -1.086001 -0.190582 0.231608
    40 0.024032 -1.129042 0.017807 -1.235601 0.000000 0.000001
    41 0.014898 -0.883989 -0.019848 -0.241922 0.000000 0.000000
    42 -0.586770 -1.264477 0.200161 0.031359 -0.425403 -2.681131
    43 1.522835 0.058681 0.016848 0.001410 0.008985 0.513078
    44 1.117947 0.048424 -0.005766 0.001267 -0.025174 0.005124
    45 -0.139399 -0.111698 0.014397 0.714910 0.291603 1.587974
    46 -1.393470 8.839177 -0.239433 1.580804 -0.005023 -1.566847
  time 10
    0 -0.999830 1.628925 1.837942 0.000000 0.000000 0.000000
    1 9.091964 2.700056 -8.711313 -0.102739 -1.631891 -0.092984
    2 -0.071918 -8.498730 -0.104136 0.147709 0.255670 0.010830
    3 2.895287 -1.754041 1.313274 0.246376 0.052132 -1.568741
    4 0.000002 0.000000 0.000000 0.000000 0.000000 -0.000001
    5 6.494406 -3.211587 0.000000 -0.000001 0.000000 -1.501248
    6 -0.000002 0.000002 0.000000 0.000000 0.000000 0.000000
    7 12.494817 -0.792516 0.562524 -0.005172 -0.054027 0.032087
    8 5.464948 0.934905 0.501473 -1.570796 0.000000 -1.570796
    9 14.981817 0.785508 0.038393 -1.570797 -1.570796 0.000000
    10 2.962811 -1.683644 0.000000 0.000000 0.000000 -1.570796
    11 1.257180 8.762585 -0.153713 -1.570562 0.002683 -1.566807
    12 -0.488518 -2.755602 -0.228260 -0.871637 -0.202562 -0.209541
    13 0.039887 -1.479790 0.029854 -2.058999 0.000000 0.000001
    14 0.028786 -1.075731 -0.023109 -0.606348 0.000000 0.000000
    15 0.250027 -2.820665 -0.238396 -0.797118 -0.167517 -0.114938
    16 -0.049759 -1.680544 0.100479 -1.934788 0.000000 -0.000002
    17 -0.034142 -1.148312 0.084782 -0.925906 0.000000 0.000000
    18 0.957766 -2.746780 -0.090302 0.005853 -0.162684 0.097910
    19 -0.033420 -1.397129 -0.011257 -0.520985 0.000000 -0.000001
    20 -0.022360 -0.957436 0.018784 -0.975478 0.000000 0.000000
    21 -1.180681 -2.507217 -0.193859 -0.671414 -0.081516 -0.261329
    22 -0.024967 -1.123934 0.017597 -2.056303 0.000000 0.000001
    23 -0.020057 -0.890968 0.010090 -0.677843 0.000000 0.000000
    24 0.583510 -1.197277 0.185379 0.180205 -0.812060 -1.291294
    25 1.535927 0.010246 0.005009 -0.002964 -0.012979 -0.506650
    26 1.100771 0.004527 -0.010679 -0.015488 -0.004784 -1.694062
    27 0.120153 -0.050270 -0.054489 0.287569 3.110905 1.561085
    28 0.365969 -14.059654 -13.036837 -1.661762 -5.403841 -0.747437
    29 0.096944 -8.450418 -0.009365 0.782074 -1.202342 -0.250087
    30 0.447953 -2.798986 -0.200443 -0.867750 -0.067958 0.142839
    31 -0.032909 -1.480204 0.004940 -1.563671 0.000000 0.000002
    32 -0.027022 -1.076920 -0.020210 0.067112 0.000000 0.000000
    33 -0.249534 -2.846964 -0.174213 -0.411782 -0.046302 0.113811
    34 0.043235 -1.683941 0.096012 -1.755602 0.002823 -0.000167
    35 0.031729 -1.160830 0.058838 -0.271631 0.000642 0.008372
    36 -0.963866 -2.785145 -0.085350 0.029165 0.013044 0.093174
    37 0.028479 -1.403067 0.006271 -1.265374 0.000000 0.000000
    38 0.021413 -0.957781 0.020046 -0.738159 0.000000 0.000000
    39 1.164475 -2.543940 -0.170330 -1.086001 -0.190582 0.231608
    40 0.024032 -1.129042 0.017807 -1.235601 0.000000 0.000001
    41 0.014898 -0.883989 -0.019848 -0.241922 0.000000 0.000000
    42 -0.586770 -1.264477 0.200161 0.031359 -0.425403 -2.681131
    43 1.522835 0.058681 0.016848 0.001410 0.008985 0.513078
    44 1.117947 0.048424 -0.005766 0.001267 -0.025174 0.005124
    45 -0.139399 -0.111698 0.014397 0.717948 0.284711 1.573809
    46 -1.393470 8.839177 -0.239433 1.580804 -0.005023 -1.566847
  time 11
    0 -0.999830 1.628925 1.837942 0.000000 0.000000 0.000000
    1 9.103683 2.645367 -8.793347 -0.115287 -1.631631 -0.080449
    2 -0.071918 -8.498730 -0.104136 0.147014 0.267786 -0.013636
    3 2.895287 -1.754041 1.313274 0.246376 0.052132 -1.568741
    4 0.000002 0.000000 0.000000 0.000000 0.000000 -0.000001
    5 6.494406 -3.211587 0.000000 -0.000001 0.000000 -1.501248
    6 -0.000002 0.000002 0.000000 0.000000 0.000000 0.000000
    7 12.213559 -0.499538 0.472678 -0.005081 -0.046595 0.059090
    8 5.464948 0.934905 0.501473 -1.570796 0.000000 -1.570796
    9 14.981817 0.785508 0.038393 -1.570797 -1.570796 0.000000
    10 2.962811 -1.683644 0.000000 0.000000 0.000000 -1.570796
    11 1.257180 8.762585 -0.153713 -1.570562 0.002683 -1.566807
    12 -0.488518 -2.755602 -0.228260 -0.871637 -0.202562 -0.209541
    13 0.039887 -1.479790 0.029854 -2.058999 0.000000 0.000001
    14 0.028786 -1.075731 -0.023109 -0.606348 0.000000 0.000000
    15 0.250027 -2.820665 -0.238396 -0.797118 -0.167517 -0.114938
    16 -0.049759 -1.680544 0.100479 -1.934788 0.000000 -0.000002
    17 -0.034142 -1.148312 0.084782 -0.925906 0.000000 0.000000
    18 0.957766 -2.746780 -0.090302 0.005853 -0.162684 0.097910
    19 -0.033420 -1.397129 -0.011257 -0.520985 0.000000 -0.000001
    20 -0.022360 -0.957436 0.018784 -0.975478 0.000000 0.000000
    21 -1.180681 -2.507217 -0.193859 -0.671414 -0.081516 -0.261329
    22 -0.024967 -1.123934 0.017597 -2.056303 0.000000 0.000001
    23 -0.020057 -0.890968 0.010090 -0.677843 0.000000 0.000000
    24 0.583510 -1.197277 0.185379 0.180205 -0.812060 -1.291294
    25 1.535927 0.010246 0.005009 -0.002964 -0.012979 -0.506650
    26 1.100771 0.004527 -0.010679 -0.015488 -0.004784 -1.694062
    27 0.120153 -0.050270 -0.054489 0.287569 3.110905 1.561085
    28 0.448003 -13.876055 -13.267313 -1.636453 -5.375865 -0.753455
    29 0.096944 -8.450418 -0.009365 0.718898 -1.227189 -0.197678
    30 0.447953 -2.798986 -0.200443 -0.867750 -0.067958 0.142839
    31 -0.032909 -1.480204 0.004940 -1.563671 0.000000 0.000002
    32 -0.027022 -1.076920 -0.020210 0.067112 0.000000 0.000000
    33 -0.249534 -2.846964 -0.174213 -0.411782 -0.046302 0.113811
    34 0.043235 -1.683941 0.096012 -1.755602 0.002823 -0.000167
    35 0.031729 -1.160830 0.058838 -0.271631 0.000642 0.008372
    36 -0.963866 -2.785145 -0.085350 0.029165 0.013044 0.093174
    37 0.028479 -1.403067 0.006271 -1.265374 0.000000 0.000000
    38 0.021413 -0.957781 0.020046 -0.738159 0.000000 0.000000
    39 1.164475 -2.543940 -0.170330 -1.086001 -0.190582 0.231608
    40 0.024032 -1.129042 0.017807 -1.235601 0.000000 0.000001
    41 0.014898 -0.883989 -0.019848 -0.241922 0.000000 0.000000
    42 -0.586770 -1.264477 0.200161 0.031359 -0.425403 -2.681131
    43 1.522835 0.058681 0.016848 0.001410 0.008985 0.513078
    44 1.117947 0.048424 -0.005766 0.001267 -0.025174 0.005124
    45 -0.139399 -0.111698 0.014397 0.721431 0.276802 1.557558
    46 -1.393470 8.839177 -0.239433 1.580804 -0.005023 -1.566847
  time 12
    0 -0.999830 1.628925 1.837942 0.000000 0.000000 0.000000
    1 9.115402 2.637554 -8.859755 -0.131385 -1.630946 -0.064376
    2 -0.071918 -8.498730 -0.104136 0.146211 0.284840 -0.035266
    3 2.895287 -1.754041 1.313274 0.246376 0.052132 -1.568741
    4 0.000002 0.000000 0.000000 0.000000 0.000000 -0.000001
    5 6.494406 -3.211587 0.000000 -0.000001 0.000000 -1.501248
    6 -0.000002 0.000002 0.000000 0.000000 0.000000 0.000000
    7 11.955739 -0.187029 0.316423 -0.004083 -0.033350 0.084324
    8 5.464948 0.934905 0.501473 -1.570796 0.000000 -1.570796
    9 14.981817 0.785508 0.038393 -1.570797 -1.570796 0.000000
    10 2.962811 -1.683644 0.000000 0.000000 0.000000 -1.570796
    11 1.257180 8.762585 -0.153713 -1.570562 0.002683 -1.566807
    12 -0.488518 -2.755602 -0.228260 -0.871637 -0.202562 -0.209541
    13 0.039887 -1.479790 0.029854 -2.058999 0.000000 0.000001
    14 0.028786 -1.075731 -0.023109 -0.606348 0.000000 0.000000
    15 0.250027 -2.820665 -0.238396 -0.797118 -0.167517 -0.114938
    16 -0.049759 -1.680544 0.100479 -1.934788 0.000000 -0.000002
    17 -0.034142 -1.148312 0.084782 -0.925906 0.000000 0.000000
    18 0.957766 -2.746780 -0.090302 0.005853 -0.162684 0.097910
    19 -0.033420 -1.397129 -0.011257 -0.520985 0.000000 -0.000001
    20 -0.022360 -0.957436 0.018784 -0.975478 0.000000 0.000000
    21 -1.180681 -2.507217 -0.193859 -0.671414 -0.081516 -0.261329
    22 -0.024967 -1.123934 0.017597 -2.056303 0.000000 0.000001
    23 -0.020057 -0.890968 0.010090 -0.677843 0.000000 0.000000
    24 0.583510 -1.197277 0.185379 0.180205 -0.812060 -1.291294
    25 1.535927 0.010246 0.005009 -0.002964 -0.012979 -0.506650
    26 1.100771 0.004527 -0.010679 -0.015488 -0.004784 -1.694062
    27 0.120153 -0.050270 -0.054489 0.287569 3.110905 1.561085
    28 0.514411 -13.653392 -13.427474 -1.620305 -5.344220 -0.766922
    29 0.096944 -8.450418 -0.009365 0.645098 -1.251385 -0.134807
    30 0.447953 -2.798986 -0.200443 -0.867750 -0.067958 0.142839
    31 -0.032909 -1.480204 0.004940 -1.563671 0.000000 0.000002
    32 -0.027022 -1.076920 -0.020210 0.067112 0.000000 0.000000
    33 -0.249534 -2.846964 -0.174213 -0.411782 -0.046302 0.113811
    34 0.043235 -1.683941 0.096012 -1.755602 0.002823 -0.000167
    35 0.031729 -1.160830 0.058838 -0.271631 0.000642 0.008372
    36 -0.963866 -2.785145 -0.085350 0.029165 0.013044 0.093174
    37 0.028479 -1.403067 0.006271 -1.265374 0.000000 0.000000
    38 0.021413 -0.957781 0.020046 -0.738159 0.000000 0.000000
    39 1.164475 -2.543940 -0.170330 -1.086001 -0.190582 0.231608
    40 0.024032 -1.129042 0.017807 -1.235601 0.000000 0.000001
    41 0.014898 -0.883989 -0.019848 -0.241922 0.000000 0.000000
    42 -0.586770 -1.264477 0.200161 0.031359 -0.425403 -2.681131
    43 1.522835 0.058681 0.016848 0.001410 0.008985 0.513078
    44 1.117947 0.048424 -0.005766 0.001267 -0.025174 0.005124
    45 -0.139399 -0.111698 0.014397 0.724915 0.268904 1.541306
    46 -1.393470 8.839177 -0.239433 1.580804 -0.005023 -1.566847
  time 13
    0 -0.999830 1.628925 1.837942 0.000000 0.000000 0.000000
    1 9.131028 2.664898 -8.914445 -0.150791 -1.629936 -0.044960
    2 -0.071918 -8.498730 -0.104136 0.145684 0.295147 -0.045829
    3 2.895287 -1.754041 1.313274 0.246376 0.052132 -1.568741
    4 0.000002 0.000000 0.000000 0.000000 0.000000 -0.000001
    5 6.494406 -3.211587 0.000000 -0.000001 0.000000 -1.501248
    6 -0.000002 0.000002 0.000000 0.000000 0.000000 0.000000
    7 11.791671 0.004383 0.214857 -0.003266 -0.024298 0.097758
    8 5.464948 0.934905 0.501473 -1.570796 0.000000 -1.570796
    9 14.981817 0.785508 0.038393 -1.570797 -1.570796 0.000000
    10 2.962811 -1.683644 0.000000 0.000000 0.000000 -1.570796
    11 1.257180 8.762585 -0.153713 -1.570562 0.002683 -1.566807
    12 -0.488518 -2.755602 -0.228260 -0.871637 -0.202562 -0.209541
    13 0.039887 -1.479790 0.029854 -2.058999 0.000000 0.000001
    14 0.028786 -1.075731 -0.023109 -0.606348 0.000000 0.000000
    15 0.250027 -2.820665 -0.238396 -0.797118 -0.167517 -0.114938
    16 -0.049759 -1.680544 0.100479 -1.934788 0.000000 -0.000002
    17 -0.034142 -1.148312 0.084782 -0.925906 0.000000 0.000000
    18 0.957766 -2.746780 -0.090302 0.005853 -0.162684 0.097910
    19 -0.033420 -1.397129 -0.011257 -0.520985 0.000000 -0.000001
    20 -0.022360 -0.957436 0.018784 -0.975478 0.000000 0.000000
    21 -1.180681 -2.507217 -0.193859 -0.671414 -0.081516 -0.261329
    22 -0.024967 -1.123934 0.017597 -2.056303 0.000000 0.000001
    23 -0.020057 -0.890968 0.010090 -0.677843 0.000000 0.000000
    24 0.583510 -1.197277 0.185379 0.180205 -0.812060 -1.291294
    25 1.535927 0.010246 0.005009 -0.002964 -0.012979 -0.506650
    26 1.100771 0.004527 -0.010679 -0.015488 -0.004784 -1.694062
    27 0.120153 -0.050270 -0.054489 0.287569 3.110905 1.561085
    28 0.588632 -13.450261 -13.505602 -1.615103 -5.323858 -0.787649
    29 0.096944 -8.450418 -0.009365 0.566731 -1.272389 -0.066646
    30 0.447953 -2.798986 -0.200443 -0.867750 -0.067958 0.142839
    31 -0.032909 -1.480204 0.004940 -1.563671 0.000000 0.000002
    32 -0.027022 -1.076920 -0.020210 0.067112 0.000000 0.000000
    33 -0.249534 -2.846964 -0.174213 -0.411782 -0.046302 0.113811
    34 0.043235 -1.683941 0.096012 -1.755602 0.002823 -0.000167
    35 0.031729 -1.160830 0.058838 -0.271631 0.000642 0.008372
    36 -0.963866 -2.785145 -0.085350 0.029165 0.013044 0.093174
    37 0.028479 -1.403067 0.006271 -1.265374 0.000000 0.000000
    38 0.021413 -0.957781 0.020046 -0.738159 0.000000 0.000000
    39 1.164475 -2.543940 -0.170330 -1.086001 -0.190582 0.231608
    40 0.024032 -1.129042 0.017807 -1.235601 0.000000 0.000001
    41 0.014898 -0.883989 -0.019848 -0.241922 0.000000 0.000000
    42 -0.586770 -1.264477 0.200161 0.031359 -0.425403 -2.681131
    43 1.522835 0.058681 0.016848 0.001410 0.008985 0.513078
    44 1.117947 0.048424 -0.005766 0.001267 -0.025174 0.005124
    45 -0.139399 -0.111698 0.014397 0.727952 0.262001 1.527129
    46 -1.393470 8.839177 -0.239433 1.580804 -0.005023 -1.566847
  time 14
    0 -0.999830 1.628925 1.837942 0.000000 0.000000 0.000000
    1 9.146653 2.715681 -8.961321 -0.173358 -1.628665 -0.022447
    2 -0.071918 -8.498730 -0.104136 0.145660 0.296573 -0.045996
    3 2.895287 -1.754041 1.313274 0.246376 0.052132 -1.568741
    4 0.000002 0.000000 0.000000 0.000000 0.000000 -0.000001
    5 6.494406 -3.211587 0.000000 -0.000001 0.000000 -1.501248
    6 -0.000002 0.000002 0.000000 0.000000 0.000000 0.000000
    7 11.721356 0.078604 0.195325 -0.002994 -0.021725 0.099528
    8 5.464948 0.934905 0.501473 -1.570796 0.000000 -1.570796
    9 14.981817 0.785508 0.038393 -1.570797 -1.570796 0.000000
    10 2.962811 -1.683644 0.000000 0.000000 0.000000 -1.570796
    11 1.257180 8.762585 -0.153713 -1.570562 0.002683 -1.566807
    12 -0.488518 -2.755602 -0.228260 -0.871637 -0.202562 -0.209541
    13 0.039887 -1.479790 0.029854 -2.058999 0.000000 0.000001
    14 0.028786 -1.075731 -0.023109 -0.606348 0.000000 0.000000
    15 0.250027 -2.820665 -0.238396 -0.797118 -0.167517 -0.114938
    16 -0.049759 -1.680544 0.100479 -1.934788 0.000000 -0.000002
    17 -0.034142 -1.148312 0.084782 -0.925906 0.000000 0.000000
    18 0.957766 -2.746780 -0.090302 0.005853 -0.162684 0.097910
    19 -0.033420 -1.397129 -0.011257 -0.520985 0.000000 -0.000001
    20 -0.022360 -0.957436 0.018784 -0.975478 0.000000 0.000000
    21 -1.180681 -2.507217 -0.193859 -0.671414 -0.081516 -0.261329
    22 -0.024967 -1.123934 0.017597 -2.056303 0.000000 0.000001
    23 -0.020057 -0.890968 0.010090 -0.677843 0.000000 0.000000
    24 0.583510 -1.197277 0.185379 0.180205 -0.812060 -1.291294
    25 1.535927 0.010246 0.005009 -0.002964 -0.012979 -0.506650
    26 1.100771 0.004527 -0.010679 -0.015488 -0.004784 -1.694062
    27 0.120153 -0.050270 -0.054489 0.287569 3.110905 1.561085
    28 0.670666 -13.294006 -13.536853 -1.616967 -5.317070 -0.810190
    29 0.096944 -8.450418 -0.009365 0.494189 -1.288412 -0.002501
    30 0.447953 -2.798986 -0.200443 -0.867750 -0.067958 0.142839
    31 -0.032909 -1.480204 0.004940 -1.563671 0.000000 0.000002
    32 -0.027022 -1.076920 -0.020210 0.067112 0.000000 0.000000
    33 -0.249534 -2.846964 -0.174213 -0.411782 -0.046302 0.113811
    34 0.043235 -1.683941 0.096012 -1.755602 0.002823 -0.000167
    35 0.031729 -1.160830 0.058838 -0.271631 0.000642 0.008372
    36 -0.963866 -2.785145 -0.085350 0.029165 0.013044 0.093174
    37 0.028479 -1.403067 0.006271 -1.265374 0.000000 0.000000
    38 0.021413 -0.957781 0.020046 -0.738159 0.000000 0.000000
    39 1.164475 -2.543940 -0.170330 -1.086001 -0.190582 0.231608
    40 0.024032 -1.129042 0.017807 -1.235601 0.000000 0.000001
    41 0.014898 -0.883989 -0.019848 -0.241922 0.000000 0.000000
    42 -0.586770 -1.264477 0.200161 0.031359 -0.425403 -2.681131
    43 1.522835 0.058681 0.016848 0.001410 0.008985 0.513078
    44 1.117947 0.048424 -0.005766 0.001267 -0.025174 0.005124
    45 -0.139399 -0.111698 0.014397 0.730097 0.257123 1.517098
    46 -1.393470 8.839177 -0.239433 1.580804 -0.005023 -1.566847
  time 15
    0 -0.999830 1.628925 1.837942 0.000000 0.000000 0.000000
    1 9.162279 2.785996 -9.000385 -0.198648 -1.627198 0.002868
    2 -0.071918 -8.498730 -0.104136 0.145828 0.295398 -0.042469
    3 2.895287 -1.754041 1.313274 0.246376 0.052132 -1.568741
    4 0.000002 0.000000 0.000000 0.000000 0.000000 -0.000001
    5 6.494406 -3.211587 0.000000 -0.000001 0.000000 -1.501248
    6 -0.000002 0.000002 0.000000 0.000000 0.000000 0.000000
    7 11.686199 0.121575 0.199232 -0.002994 -0.020772 0.097349
    8 5.464948 0.934905 0.501473 -1.570796 0.000000 -1.570796
    9 14.981817 0.785508 0.038393 -1.570797 -1.570796 0.000000
    10 2.962811 -1.683644 0.000000 0.000000 0.000000 -1.570796
    11 1.257180 8.762585 -0.153713 -1.570562 0.002683 -1.566807
    12 -0.488518 -2.755602 -0.228260 -0.871637 -0.202562 -0.209541
    13 0.039887 -1.479790 0.029854 -2.058999 0.000000 0.000001
    14 0.028786 -1.075731 -0.023109 -0.606348 0.000000 0.000000
    15 0.250027 -2.820665 -0.238396 -0.797118 -0.167517 -0.114938
    16 -0.049759 -1.680544 0.100479 -1.934788 0.000000 -0.000002
    17 -0.034142 -1.148312 0.084782 -0.925879 0.000000 0.000000
    18 0.957766 -2.746780 -0.090302 0.005853 -0.162684 0.097910
    19 -0.033420 -1.397129 -0.011257 -0.520985 0.000000 -0.000001
    20 -0.022360 -0.957436 0.018784 -0.975478 0.000000 0.000000
    21 -1.180681 -2.507217 -0.193859 -0.671414 -0.081516 -0.261329
    22 -0.024967 -1.123934 0.017597 -2.056303 0.000000 0.000001
    23 -0.020057 -0.890968 0.010090 -0.677843 0.000000 0.000000
    24 0.583510 -1.197277 0.185379 0.180205 -0.812060 -1.291294
    25 1.535927 0.010246 0.005009 -0.002964 -0.012979 -0.506650
    26 1.100771 0.004527 -0.010679 -0.015488 -0.004784 -1.694062
    27 0.120153 -0.050270 -0.054489 0.287569 3.110905 1.561085
    28 0.733168 -13.165096 -13.548572 -1.621469 -5.315511 -0.827955
    29 0.096944 -8.450418 -0.009365 0.441504 -1.298311 0.044599
    30 0.447953 -2.798986 -0.200443 -0.867750 -0.067958 0.142839
    31 -0.032909 -1.480204 0.004940 -1.563671 0.000000 0.000002
    32 -0.027022 -1.076920 -0.020210 0.067112 0.000000 0.000000
    33 -0.249534 -2.846964 -0.174213 -0.411782 -0.046302 0.113811
    34 0.043235 -1.683941 0.096012 -1.755602 0.002823 -0.000167
    35 0.031729 -1.160830 0.058838 -0.271631 0.000642 0.008372
    36 -0.963866 -2.785145 -0.085350 0.029165 0.013044 0.093174
    37 0.028479 -1.403067 0.006271 -1.265374 0.000000 0.000000
    38 0.021413 -0.957781 0.020046 -0.738159 0.000000 0.000000
    39 1.164475 -2.543940 -0.170330 -1.086001 -0.190582 0.231608
    40 0.024032 -1.129042 0.017807 -1.235601 0.000000 0.000001
    41 0.014898 -0.883989 -0.019848 -0.241922 0.000000 0.000000
    42 -0.586770 -1.264477 0.200161 0.031359 -0.425403 -2.681131
    43 1.522835 0.058681 0.016848 0.001410 0.008985 0.513078
    44 1.117947 0.048424 -0.005766 0.001267 -0.025174 0.005124
    45 -0.139399 -0.111698 0.014397 0.730903 0.255277 1.513298
    46 -1.393470 8.839177 -0.239433 1.580804 -0.005023 -1.566847
  time 16
    0 -0.999830 1.628925 1.837942 0.000000 0.000000 0.000000
    1 9.177904 2.860217 -9.031636 -0.226467 -1.625601 0.030640
    2 -0.071918 -8.498730 -0.104136 0.146139 0.292522 -0.036162
    3 2.895287 -1.754041 1.313274 0.246376 0.052132 -1.568741
    4 0.000002 0.000000 0.000000 0.000000 0.000000 -0.000001
    5 6.494406 -3.211587 0.000000 -0.000001 0.000000 -1.501248
    6 -0.000002 0.000002 0.000000 0.000000 0.000000 0.000000
    7 11.686199 0.133294 0.210951 -0.002994 -0.020772 0.092221
    8 5.464948 0.934905 0.501473 -1.570796 0.000000 -1.570796
    9 14.981817 0.785508 0.038393 -1.570797 -1.570796 0.000000
    10 2.962811 -1.683644 0.000000 0.000000 0.000000 -1.570796
    11 1.257180 8.762585 -0.153713 -1.570562 0.002683 -1.566807
    12 -0.488518 -2.755602 -0.228260 -0.871637 -0.202562 -0.209541
    13 0.039887 -1.479790 0.029854 -2.058999 0.000000 0.000001
    14 0.028786 -1.075731 -0.023109 -0.606348 0.000000 0.000000
    15 0.250027 -2.820665 -0.238396 -0.797118 -0.167517 -0.114938
    16 -0.049759 -1.680544 0.100479 -1.934788 0.000000 -0.000002
    17 -0.034142 -1.148312 0.084782 -0.925879 0.000000 0.000000
    18 0.957766 -2.746780 -0.090302 0.005853 -0.162684 0.097910
    19 -0.033420 -1.397129 -0.011257 -0.520985 0.000000 -0.000001
    20 -0.022360 -0.957436 0.018784 -0.975478 0.000000 0.000000
    21 -1.180681 -2.507217 -0.193859 -0.671414 -0.081516 -0.261329
    22 -0.024967 -1.123934 0.017597 -2.056303 0.000000 0.000001
    23 -0.020057 -0.890968 0.010090 -0.677843 0.000000 0.000000
    24 0.583510 -1.197277 0.185379 0.180205 -0.812060 -1.291294
    25 1.535927 0.010246 0.005009 -0.002964 -0.012979 -0.506650
    26 1.100771 0.004527 -0.010679 -0.015488 -0.004784 -1.694062
    27 0.120153 -0.050270 -0.054489 0.287569 3.110905 1.561085
    28 0.776138 -13.075249 -13.544665 -1.627913 -5.317987 -0.841041
    29 0.096944 -8.450418 -0.009365 0.411289 -1.303424 0.071779
    30 0.447953 -2.798986 -0.200443 -0.867750 -0.067958 0.142839
    31 -0.032909 -1.480204 0.004940 -1.563671 0.000000 0.000002
    32 -0.027022 -1.076920 -0.020210 0.067112 0.000000 0.000000
    33 -0.249534 -2.846964 -0.174213 -0.411782 -0.046302 0.113811
    34 0.043235 -1.683941 0.096012 -1.755602 0.002823 -0.000167
    35 0.031729 -1.160830 0.058838 -0.271631 0.000642 0.008372
    36 -0.963866 -2.785145 -0.085350 0.029165 0.013044 0.093174
    37 0.028479 -1.403067 0.006271 -1.265374 0.000000 0.000000
    38 0.021413 -0.957781 0.020046 -0.738159 0.000000 0.000000
    39 1.164475 -2.543940 -0.170330 -1.086001 -0.190582 0.231608
    40 0.024032 -1.129042 0.017807 -1.235601 0.000000 0.000001
    41 0.014898 -0.883989 -0.019848 -0.241922 0.000000 0.000000
    42 -0.586770 -1.264477 0.200161 0.031359 -0.425403 -2.681131
    43 1.522835 0.058681 0.016848 0.001410 0.008985 0.513078
    44 1.117947 0.048424 -0.005766 0.001267 -0.025174 0.005124
    45 -0.139399 -0.111698 0.014397 0.730903 0.255277 1.513298
    46 -1.393470 8.839177 -0.239433 1.580804 -0.005023 -1.566847
  time 17
    0 -0.999830 1.628925 1.837942 0.000000 0.000000 0.000000
    1 9.193529 2.934438 -9.062887 -0.256281 -1.623907 0.060428
    2 -0.071918 -8.498730 -0.104136 0.146523 0.288903 -0.027969
    3 2.895287 -1.754041 1.313274 0.246376 0.052132 -1.568741
    4 0.000002 0.000000 0.000000 0.000000 0.000000 -0.000001
    5 6.494406 -3.211587 0.000000 -0.000001 0.000000 -1.501248
    6 -0.000002 0.000002 0.000000 0.000000 0.000000 0.000000
    7 11.701825 0.117668 0.226576 -0.003084 -0.021058 0.085096
    8 5.464948 0.934905 0.501473 -1.570796 0.000000 -1.570796
    9 14.981817 0.785508 0.038393 -1.570797 -1.570796 0.000000
    10 2.962811 -1.683644 0.000000 0.000000 0.000000 -1.570796
    11 1.257180 8.762585 -0.153713 -1.570562 0.002683 -1.566807
    12 -0.488518 -2.755602 -0.228260 -0.871637 -0.202562 -0.209541
    13 0.039887 -1.479790 0.029854 -2.058999 0.000000 0.000001
    14 0.028786 -1.075731 -0.023109 -0.606348 0.000000 0.000000
    15 0.250027 -2.820665 -0.238396 -0.797118 -0.167517 -0.114938
    16 -0.049759 -1.680544 0.100479 -1.934788 0.000000 -0.000002
    17 -0.034142 -1.148312 0.084782 -0.925879 0.000000 0.000000
    18 0.957766 -2.746780 -0.090302 0.005853 -0.162684 0.097910
    19 -0.033420 -1.397129 -0.011257 -0.520985 0.000000 -0.000001
    20 -0.022360 -0.957436 0.018784 -0.975478 0.000000 0.000000
    21 -1.180681 -2.507217 -0.193859 -0.671414 -0.081516 -0.261329
    22 -0.024967 -1.123934 0.017597 -2.056303 0.000000 0.000001
    23 -0.020057 -0.890968 0.010090 -0.677843 0.000000 0.000000
    24 0.583510 -1.197277 0.185379 0.180205 -0.812060 -1.291294
    25 1.535927 0.010246 0.005009 -0.002964 -0.012979 -0.506650
    26 1.100771 0.004527 -0.010679 -0.015488 -0.004784 -1.694062
    27 0.120153 -0.050270 -0.054489 0.287569 3.110905 1.561085
    28 0.803483 -13.008841 -13.529040 -1.635987 -5.322849 -0.851834
    29 0.096944 -8.450418 -0.009365 0.394808 -1.306029 0.086642
    30 0.447953 -2.798986 -0.200443 -0.867750 -0.067958 0.142839
    31 -0.032909 -1.480204 0.004940 -1.563671 0.000000 0.000002
    32 -0.027022 -1.076920 -0.020210 0.067112 0.000000 0.000000
    33 -0.249534 -2.846964 -0.174213 -0.411782 -0.046302 0.113811
    34 0.043235 -1.683941 0.096012 -1.755602 0.002823 -0.000167
    35 0.031729 -1.160830 0.058838 -0.271631 0.000642 0.008372
    36 -0.963866 -2.785145 -0.085350 0.029165 0.013044 0.093174
    37 0.028479 -1.403067 0.006271 -1.265374 0.000000 0.000000
    38 0.021413 -0.957781 0.020046 -0.738159 0.000000 0.000000
    39 1.164475 -2.543940 -0.170330 -1.086001 -0.190582 0.231608
    40 0.024032 -1.129042 0.017807 -1.235601 0.000000 0.000001
    41 0.014898 -0.883989 -0.019848 -0.241922 0.000000 0.000000
    42 -0.586770 -1.264477 0.200161 0.031359 -0.425403 -2.681131
    43 1.522835 0.058681 0.016848 0.001410 0.008985 0.513078
    44 1.117947 0.048424 -0.005766 0.001267 -0.025174 0.005124
    45 -0.139399 -0.111698 0.014397 0.730903 0.255277 1.513298
    46 -1.393470 8.839177 -0.239433 1.580804 -0.005023 -1.566847
  time 18
    0 -0.999830 1.628925 1.837942 0.000000 0.000000 0.000000
    1 9.205249 2.996940 -9.090231 -0.287456 -1.622212 0.091592
    2 -0.071918 -8.498730 -0.104136 0.146930 0.285427 -0.018750
    3 2.895287 -1.754041 1.313274 0.246376 0.052132 -1.568741
    4 0.000002 0.000000 0.000000 0.000000 0.000000 -0.000001
    5 6.494406 -3.211587 0.000000 -0.000001 0.000000 -1.501248
    6 -0.000002 0.000002 0.000000 0.000000 0.000000 0.000000
    7 11.733075 0.078604 0.238296 -0.003084 -0.020868 0.076972
    8 5.464948 0.934905 0.501473 -1.570796 0.000000 -1.570796
    9 14.981817 0.785508 0.038393 -1.570797 -1.570796 0.000000
    10 2.962811 -1.683644 0.000000 0.000000 0.000000 -1.570796
    11 1.257180 8.762585 -0.153713 -1.570562 0.002683 -1.566807
    12 -0.488518 -2.755602 -0.228260 -0.871637 -0.202562 -0.209541
    13 0.039887 -1.479790 0.029854 -2.058999 0.000000 0.000001
    14 0.028786 -1.075731 -0.023109 -0.606348 0.000000 0.000000
    15 0.250027 -2.820665 -0.238396 -0.797118 -0.167517 -0.114938
    16 -0.049759 -1.680544 0.100479 -1.934788 0.000000 -0.000002
    17 -0.034142 -1.148312 0.084782 -0.925879 0.000000 0.000000
    18 0.957766 -2.746780 -0.090302 0.005853 -0.162684 0.097910
    19 -0.033420 -1.397129 -0.011257 -0.520985 0.000000 -0.000001
    20 -0.022360 -0.957436 0.018784 -0.975478 0.000000 0.000000
    21 -1.180681 -2.507217 -0.193859 -0.671414 -0.081516 -0.261329
    22 -0.024967 -1.123934 0.017597 -2.056303 0.000000 0.000001
    23 -0.020057 -0.890968 0.010090 -0.677843 0.000000 0.000000
    24 0.583510 -1.197277 0.185379 0.180205 -0.812060 -1.291294
    25 1.535927 0.010246 0.005009 -0.002964 -0.012979 -0.506650
    26 1.100771 0.004527 -0.010679 -0.015488 -0.004784 -1.694062
    27 0.120153 -0.050270 -0.054489 0.287569 3.110905 1.561085
    28 0.819108 -12.977590 -13.501695 -1.645536 -5.328627 -0.861003
    29 0.096944 -8.450418 -0.009365 0.389910 -1.306778 0.091082
    30 0.447953 -2.798986 -0.200443 -0.867750 -0.067958 0.142839
    31 -0.032909 -1.480204 0.004940 -1.563671 0.000000 0.000002
    32 -0.027022 -1.076920 -0.020210 0.067112 0.000000 0.000000
    33 -0.249534 -2.846964 -0.174213 -0.411782 -0.046302 0.113811
    34 0.043235 -1.683941 0.096012 -1.755602 0.002823 -0.000167
    35 0.031729 -1.160830 0.058838 -0.271631 0.000642 0.008372
    36 -0.963866 -2.785145 -0.085350 0.029165 0.013044 0.093174
    37 0.028479 -1.403067 0.006271 -1.265374 0.000000 0.000000
    38 0.021413 -0.957781 0.020046 -0.738159 0.000000 0.000000
    39 1.164475 -2.543940 -0.170330 -1.086001 -0.190582 0.231608
    40 0.024032 -1.129042 0.017807 -1.235601 0.000000 0.000001
    41 0.014898 -0.883989 -0.019848 -0.241922 0.000000 0.000000
    42 -0.586770 -1.264477 0.200161 0.031359 -0.425403 -2.681131
    43 1.522835 0.058681 0.016848 0.001410 0.008985 0.513078
    44 1.117947 0.048424 -0.005766 0.001267 -0.025174 0.005124
    45 -0.139399 -0.111698 0.014397 0.730903 0.255277 1.513298
    46 -1.393470 8.839177 -0.239433 1.580804 -0.005023 -1.566847
  time 19
    0 -0.999830 1.628925 1.837942 0.000000 0.000000 0.000000
    1 9.213061 3.032097 -9.113669 -0.319264 -1.620550 0.123345
    2 -0.071918 -8.498730 -0.104136 0.147338 0.283042 -0.009400
    3 2.895287 -1.754041 1.313274 0.246376 0.052132 -1.568741
    4 0.000002 0.000000 0.000000 0.000000 0.000000 -0.000001
    5 6.494406 -3.211587 0.000000 -0.000001 0.000000 -1.501248
    6 -0.000002 0.000002 0.000000 0.000000 0.000000 0.000000
    7 11.764326 0.016103 0.230483 -0.002903 -0.019629 0.068848
    8 5.464948 0.934905 0.501473 -1.570796 0.000000 -1.570796
    9 14.981817 0.785508 0.038393 -1.570797 -1.570796 0.000000
    10 2.962811 -1.683644 0.000000 0.000000 0.000000 -1.570796
    11 1.257180 8.762585 -0.153713 -1.570562 0.002683 -1.566807
    12 -0.488518 -2.755602 -0.228260 -0.871637 -0.202562 -0.209541
    13 0.039887 -1.479790 0.029854 -2.058999 0.000000 0.000001
    14 0.028786 -1.075731 -0.023109 -0.606348 0.000000 0.000000
    15 0.250027 -2.820665 -0.238396 -0.797118 -0.167517 -0.114938
    16 -0.049759 -1.680544 0.100479 -1.934788 0.000000 -0.000002
    17 -0.034142 -1.148312 0.084782 -0.925879 0.000000 0.000000
    18 0.957766 -2.746780 -0.090302 0.005853 -0.162684 0.097910
    19 -0.033420 -1.397129 -0.011257 -0.520985 0.000000 -0.000001
    20 -0.022360 -0.957436 0.018784 -0.975478 0.000000 0.000000
    21 -1.180681 -2.507217 -0.193859 -0.671414 -0.081516 -0.261329
    22 -0.024967 -1.123934 0.017597 -2.056303 0.000000 0.000001
    23 -0.020057 -0.890968 0.010090 -0.677843 0.000000 0.000000
    24 0.583510 -1.197277 0.185379 0.180205 -0.812060 -1.291294
    25 1.535927 0.010246 0.005009 -0.002964 -0.012979 -0.506650
    26 1.100771 0.004527 -0.010679 -0.015488 -0.004784 -1.694062
    27 0.120153 -0.050270 -0.054489 0.287569 3.110905 1.561085
    28 0.819108 -12.977590 -13.466538 -1.656250 -5.334131 -0.868835
    29 0.096944 -8.450418 -0.009365 0.393815 -1.306160 0.087530
    30 0.447953 -2.798986 -0.200443 -0.867750 -0.067958 0.142839
    31 -0.032909 -1.480204 0.004940 -1.563671 0.000000 0.000002
    32 -0.027022 -1.076920 -0.020210 0.067112 0.000000 0.000000
    33 -0.249534 -2.846964 -0.174213 -0.411782 -0.046302 0.113811
    34 0.043235 -1.683941 0.096012 -1.755602 0.002823 -0.000167
    35 0.031729 -1.160830 0.058838 -0.271631 0.000642 0.008372
    36 -0.963866 -2.785145 -0.085350 0.029165 0.013044 0.093174
    37 0.028479 -1.403067 0.006271 -1.265374 0.000000 0.000000
    38 0.021413 -0.957781 0.020046 -0.738159 0.000000 0.000000
    39 1.164475 -2.543940 -0.170330 -1.086001 -0.190582 0.231608
    40 0.024032 -1.129042 0.017807 -1.235601 0.000000 0.000001
    41 0.014898 -0.883989 -0.019848 -0.241922 0.000000 0.000000
    42 -0.586770 -1.264477 0.200161 0.031359 -0.425403 -2.681131
    43 1.522835 0.058681 0.016848 0.001410 0.008985 0.513078
    44 1.117947 0.048424 -0.005766 0.001267 -0.025174 0.005124
    45 -0.139399 -0.111698 0.014397 0.730903 0.255277 1.513298
    46 -1.393470 8.839177 -0.239433 1.580804 -0.005023 -1.566847
  time 20
    0 -0.999830 1.628925 1.837942 0.000000 0.000000 0.000000
    1 9.216968 3.043816 -9.125389 -0.350536 -1.618953 0.154657
    2 -0.071918 -8.498730 -0.104136 0.147841 0.281532 0.002189
    3 2.895287 -1.754041 1.313274 0.246376 0.052132 -1.568741
    4 0.000002 0.000000 0.000000 0.000000 0.000000 -0.000001
    5 6.494406 -3.211587 0.000000 -0.000001 0.000000 -1.501248
    6 -0.000002 0.000002 0.000000 0.000000 0.000000 0.000000
    7 11.826828 -0.097182 0.207045 -0.002630 -0.017151 0.058591
    8 5.464948 0.934905 0.501473 -1.570796 0.000000 -1.570796
    9 14.981817 0.785508 0.038393 -1.570797 -1.570796 0.000000
    10 2.962811 -1.683644 0.000000 0.000000 0.000000 -1.570796
    11 1.257180 8.762585 -0.153713 -1.570562 0.002683 -1.566807
    12 -0.488518 -2.755602 -0.228260 -0.871637 -0.202562 -0.209541
    13 0.039887 -1.479790 0.029854 -2.058999 0.000000 0.000001
    14 0.028786 -1.075731 -0.023109 -0.606348 0.000000 0.000000
    15 0.250027 -2.820665 -0.238396 -0.797118 -0.167517 -0.114938
    16 -0.049759 -1.680544 0.100479 -1.934788 0.000000 -0.000002
    17 -0.034142 -1.148312 0.084782 -0.925906 0.000000 0.000000
    18 0.957766 -2.746780 -0.090302 0.005853 -0.162684 0.097910
    19 -0.033420 -1.397129 -0.011257 -0.520985 0.000000 -0.000001
    20 -0.022360 -0.957436 0.018784 -0.975478 0.000000 0.000000
    21 -1.180681 -2.507217 -0.193859 -0.671414 -0.081516 -0.261329
    22 -0.024967 -1.123934 0.017597 -2.056303 0.000000 0.000001
    23 -0.020057 -0.890968 0.010090 -0.677843 0.000000 0.000000
    24 0.583510 -1.197277 0.185379 0.180205 -0.812060 -1.291294
    25 1.535927 0.010246 0.005009 -0.002964 -0.012979 -0.506650
    26 1.100771 0.004527 -0.010679 -0.015488 -0.004784 -1.694062
    27 0.120153 -0.050270 -0.054489 0.287569 3.110905 1.561085
    28 0.803483 -13.012747 -13.392317 -1.670768 -5.340735 -0.878386
    29 0.096944 -8.450418 -0.009365 0.403578 -1.304662 0.078728
    30 0.447953 -2.798986 -0.200443 -0.867750 -0.067958 0.142839
    31 -0.032909 -1.480204 0.004940 -1.563671 0.000000 0.000002
    32 -0.027022 -1.076920 -0.020210 0.067112 0.000000 0.000000
    33 -0.249534 -2.846964 -0.174213 -0.411782 -0.046302 0.113811
    34 0.043235 -1.683941 0.096012 -1.755602 0.002823 -0.000167
    35 0.031729 -1.160830 0.058838 -0.271631 0.000642 0.008372
    36 -0.963866 -2.785145 -0.085350 0.029165 0.013044 0.093174
    37 0.028479 -1.403067 0.006271 -1.265374 0.000000 0.000000
    38 0.021413 -0.957781 0.020046 -0.738159 0.000000 0.000000
    39 1.164475 -2.543940 -0.170330 -1.086001 -0.190582 0.231608
    40 0.024032 -1.129042 0.017807 -1.235601 0.000000 0.000001
    41 0.014898 -0.883989 -0.019848 -0.241922 0.000000 0.000000
    42 -0.586770 -1.264477 0.200161 0.031359 -0.425403 -2.681131
    43 1.522835 0.058681 0.016848 0.001410 0.008985 0.513078
    44 1.117947 0.048424 -0.005766 0.001267 -0.025174 0.005124
    45 -0.139399 -0.111698 0.014397 0.730903 0.255277 1.513298
    46 -1.393470 8.839177 -0.239433 1.580804 -0.005023 -1.566847
  time 21
    0 -0.999830 1.628925 1.837942 0.000000 0.000000 0.000000
    1 9.216968 3.047723 -9.121482 -0.380009 -1.617454 0.184100
    2 -0.071918 -8.498730 -0.104136 0.148464 0.280166 0.016988
    3 2.895287 -1.754041 1.313274 0.246376 0.052132 -1.568741
    4 0.000002 0.000000 0.000000 0.000000 0.000000 -0.000001
    5 6.494406 -3.211587 0.000000 -0.000001 0.000000 -1.501248
    6 -0.000002 0.000002 0.000000 0.000000 0.000000 0.000000
    7 11.936207 -0.261250 0.167981 -0.002267 -0.013912 0.045112
    8 5.464948 0.934905 0.501473 -1.570796 0.000000 -1.570796
    9 14.981817 0.785508 0.038393 -1.570797 -1.570796 0.000000
    10 2.962811 -1.683644 0.000000 0.000000 0.000000 -1.570796
    11 1.257180 8.762585 -0.153713 -1.570562 0.002683 -1.566807
    12 -0.488518 -2.755602 -0.228260 -0.871637 -0.202562 -0.209541
    13 0.039887 -1.479790 0.029854 -2.058999 0.000000 0.000001
    14 0.028786 -1.075731 -0.023109 -0.606348 0.000000 0.000000
    15 0.250027 -2.820665 -0.238396 -0.797118 -0.167517 -0.114938
    16 -0.049759 -1.680544 0.100479 -1.934788 0.000000 -0.000002
    17 -0.034142 -1.148312 0.084782 -0.925906 0.000000 0.000000
    18 0.957766 -2.746780 -0.090302 0.005853 -0.162684 0.097910
    19 -0.033420 -1.397129 -0.011257 -0.520985 0.000000 -0.000001
    20 -0.022360 -0.957436 0.018784 -0.975478 0.000000 0.000000
    21 -1.180681 -2.507217 -0.193859 -0.671414 -0.081516 -0.261329
    22 -0.024967 -1.123934 0.017597 -2.056303 0.000000 0.000001
    23 -0.020057 -0.890968 0.010090 -0.677843 0.000000 0.000000
    24 0.583510 -1.197277 0.185379 0.180205 -0.812060 -1.291294
    25 1.535927 0.010246 0.005009 -0.002964 -0.012979 -0.506650
    26 1.100771 0.004527 -0.010679 -0.015488 -0.004784 -1.694062
    27 0.120153 -0.050270 -0.054489 0.287569 3.110905 1.561085
    28 0.780044 -13.079156 -13.271219 -1.689400 -5.349540 -0.890325
    29 0.096944 -8.450418 -0.009365 0.416087 -1.302643 0.067455
    30 0.447953 -2.798986 -0.200443 -0.867750 -0.067958 0.142839
    31 -0.032909 -1.480204 0.004940 -1.563671 0.000000 0.000002
    32 -0.027022 -1.076920 -0.020210 0.067112 0.000000 0.000000
    33 -0.249534 -2.846964 -0.174213 -0.411782 -0.046302 0.113811
    34 0.043235 -1.683941 0.096012 -1.755602 0.002823 -0.000167
    35 0.031729 -1.160830 0.058838 -0.271631 0.000642 0.008372
    36 -0.963866 -2.785145 -0.085350 0.029165 0.013044 0.093174
    37 0.028479 -1.403067 0.006271 -1.265374 0.000000 0.000000
    38 0.021413 -0.957781 0.020046 -0.738159 0.000000 0.000000
    39 1.164475 -2.543940 -0.170330 -1.086001 -0.190582 0.231608
    40 0.024032 -1.129042 0.017807 -1.235601 0.000000 0.000001
    41 0.014898 -0.883989 -0.019848 -0.241922 0.000000 0.000000
    42 -0.586770 -1.264477 0.200161 0.031359 -0.425403 -2.681131
    43 1.522835 0.058681 0.016848 0.001410 0.008985 0.513078
    44 1.117947 0.048424 -0.005766 0.001267 -0.025174 0.005124
    45 -0.139399 -0.111698 0.014397 0.730903 0.255277 1.513298
    46 -1.393470 8.839177 -0.239433 1.580804 -0.005023 -1.566847
  time 22
    0 -0.999830 1.628925 1.837942 0.000000 0.000000 0.000000
    1 9.216968 3.039910 -9.109763 -0.406126 -1.616117 0.210251
    2 -0.071918 -8.498730 -0.104136 0.149112 0.279063 0.032385
    3 2.895287 -1.754041 1.313274 0.246376 0.052132 -1.568741
    4 0.000002 0.000000 0.000000 0.000000 0.000000 -0.000001
    5 6.494406 -3.211587 0.000000 -0.000001 0.000000 -1.501248
    6 -0.000002 0.000002 0.000000 0.000000 0.000000 0.000000
    7 12.061211 -0.448755 0.125011 -0.001813 -0.010577 0.030861
    8 5.464948 0.934905 0.501473 -1.570796 0.000000 -1.570796
    9 14.981817 0.785508 0.038393 -1.570797 -1.570796 0.000000
    10 2.962811 -1.683644 0.000000 0.000000 0.000000 -1.570796
    11 1.257180 8.762585 -0.153713 -1.570562 0.002683 -1.566807
    12 -0.488518 -2.755602 -0.228260 -0.871637 -0.202562 -0.209541
    13 0.039887 -1.479790 0.029854 -2.058999 0.000000 0.000001
    14 0.028786 -1.075731 -0.023109 -0.606348 0.000000 0.000000
    15 0.250027 -2.820665 -0.238396 -0.797118 -0.167517 -0.114938
    16 -0.049759 -1.680544 0.100479 -1.934788 0.000000 -0.000002
    17 -0.034142 -1.148312 0.084782 -0.925879 0.000000 0.000000
    18 0.957766 -2.746780 -0.090302 0.005853 -0.162684 0.097910
    19 -0.033420 -1.397129 -0.011257 -0.520985 0.000000 -0.000001
    20 -0.022360 -0.957436 0.018784 -0.975478 0.000000 0.000000
    21 -1.180681 -2.507217 -0.193859 -0.671414 -0.081516 -0.261329
    22 -0.024967 -1.123934 0.017597 -2.056303 0.000000 0.000001
    23 -0.020057 -0.890968 0.010090 -0.677843 0.000000 0.000000
    24 0.583510 -1.197277 0.185379 0.180205 -0.812060 -1.291294
    25 1.535927 0.010246 0.005009 -0.002964 -0.012979 -0.506650
    26 1.100771 0.004527 -0.010679 -0.015488 -0.004784 -1.694062
    27 0.120153 -0.050270 -0.054489 0.287569 3.110905 1.561085
    28 0.752700 -13.157283 -13.126684 -1.708731 -5.358896 -0.902742
    29 0.096944 -8.450418 -0.009365 0.428398 -1.300558 0.056355
    30 0.447953 -2.798986 -0.200443 -0.867750 -0.067958 0.142839
    31 -0.032909 -1.480204 0.004940 -1.563671 0.000000 0.000002
    32 -0.027022 -1.076920 -0.020210 0.067112 0.000000 0.000000
    33 -0.249534 -2.846964 -0.174213 -0.411782 -0.046302 0.113811
    34 0.043235 -1.683941 0.096012 -1.755602 0.002823 -0.000167
    35 0.031729 -1.160830 0.058838 -0.271631 0.000642 0.008372
    36 -0.963866 -2.785145 -0.085350 0.029165 0.013044 0.093174
    37 0.028479 -1.403067 0.006271 -1.265374 0.000000 0.000000
    38 0.021413 -0.957781 0.020046 -0.738159 0.000000 0.000000
    39 1.164475 -2.543940 -0.170330 -1.086001 -0.190582 0.231608
    40 0.024032 -1.129042 0.017807 -1.235601 0.000000 0.000001
    41 0.014898 -0.883989 -0.019848 -0.241922 0.000000 0.000000
    42 -0.586770 -1.264477 0.200161 0.031359 -0.425403 -2.681131
    43 1.522835 0.058681 0.016848 0.001410 0.008985 0.513078
    44 1.117947 0.048424 -0.005766 0.001267 -0.025174 0.005124
    45 -0.139399 -0.111698 0.014397 0.730903 0.255277 1.513298
    46 -1.393470 8.839177 -0.239433 1.580804 -0.005023 -1.566847
  time 23
    0 -0.999830 1.628925 1.837942 0.000000 0.000000 0.000000
    1 9.213061 3.032097 -9.090231 -0.427088 -1.614944 0.231141
    2 -0.071918 -8.498730 -0.104136 0.149699 0.278320 0.045803
    3 2.895287 -1.754041 1.313274 0.246376 0.052132 -1.568741
    4 0.000002 0.000000 0.000000 0.000000 0.000000 -0.000001
    5 6.494406 -3.211587 0.000000 -0.000001 0.000000 -1.501248
    6 -0.000002 0.000002 0.000000 0.000000 0.000000 0.000000
    7 12.170589 -0.616729 0.085947 -0.001450 -0.007337 0.018335
    8 5.464948 0.934905 0.501473 -1.570796 0.000000 -1.570796
    9 14.981817 0.785508 0.038393 -1.570797 -1.570796 0.000000
    10 2.962811 -1.683644 0.000000 0.000000 0.000000 -1.570796
    11 1.257180 8.762585 -0.153713 -1.570562 0.002683 -1.566807
    12 -0.488518 -2.755602 -0.228260 -0.871637 -0.202562 -0.209541
    13 0.039887 -1.479790 0.029854 -2.058999 0.000000 0.000001
    14 0.028786 -1.075731 -0.023109 -0.606348 0.000000 0.000000
    15 0.250027 -2.820665 -0.238396 -0.797118 -0.167517 -0.114938
    16 -0.049759 -1.680544 0.100479 -1.934788 0.000000 -0.000002
    17 -0.034142 -1.148312 0.084782 -0.925879 0.000000 0.000000
    18 0.957766 -2.746780 -0.090302 0.005853 -0.162684 0.097910
    19 -0.033420 -1.397129 -0.011257 -0.520985 0.000000 -0.000001
    20 -0.022360 -0.957436 0.018784 -0.975478 0.000000 0.000000
    21 -1.180681 -2.507217 -0.193859 -0.671414 -0.081516 -0.261329
    22 -0.024967 -1.123934 0.017597 -2.056303 0.000000 0.000001
    23 -0.020057 -0.890968 0.010090 -0.677843 0.000000 0.000000
    24 0.583510 -1.197277 0.185379 0.180205 -0.812060 -1.291294
    25 1.535927 0.010246 0.005009 -0.002964 -0.012979 -0.506650
    26 1.100771 0.004527 -0.010679 -0.015488 -0.004784 -1.694062
    27 0.120153 -0.050270 -0.054489 0.287569 3.110905 1.561085
    28 0.729262 -13.223691 -12.993867 -1.725656 -5.367060 -0.913726
    29 0.096944 -8.450418 -0.009365 0.437764 -1.298963 0.047939
    30 0.447953 -2.798986 -0.200443 -0.867750 -0.067958 0.142839
    31 -0.032909 -1.480204 0.004940 -1.563671 0.000000 0.000002
    32 -0.027022 -1.076920 -0.020210 0.067112 0.000000 0.000000
    33 -0.249534 -2.846964 -0.174213 -0.411782 -0.046302 0.113811
    34 0.043235 -1.683941 0.096012 -1.755602 0.002823 -0.000167
    35 0.031729 -1.160830 0.058838 -0.271631 0.000642 0.008372
    36 -0.963866 -2.785145 -0.085350 0.029165 0.013044 0.093174
    37 0.028479 -1.403067 0.006271 -1.265374 0.000000 0.000000
    38 0.021413 -0.957781 0.020046 -0.738159 0.000000 0.000000
    39 1.164475 -2.543940 -0.170330 -1.086001 -0.190582 0.231608
    40 0.024032 -1.129042 0.017807 -1.235601 0.000000 0.000001
    41 0.014898 -0.883989 -0.019848 -0.241922 0.000000 0.000000
    42 -0.586770 -1.264477 0.200161 0.031359 -0.425403 -2.681131
    43 1.522835 0.058681 0.016848 0.001410 0.008985 0.513078
    44 1.117947 0.048424 -0.005766 0.001267 -0.025174 0.005124
    45 -0.139399 -0.111698 0.014397 0.730903 0.255277 1.513298
    46 -1.393470 8.839177 -0.239433 1.580804 -0.005023 -1.566847
  time 24
    0 -0.999830 1.628925 1.837942 0.000000 0.000000 0.000000
    1 9.213061 3.032097 -9.086325 -0.440901 -1.613966 0.244954
    2 -0.071918 -8.498730 -0.104136 0.150130 0.278057 0.054649
    3 2.895287 -1.754041 1.313274 0.246376 0.052132 -1.568741
    4 0.000002 0.000000 0.000000 0.000000 0.000000 -0.000001
    5 6.494406 -3.211587 0.000000 -0.000001 0.000000 -1.501248
    6 -0.000002 0.000002 0.000000 0.000000 0.000000 0.000000
    7 12.240903 -0.726108 0.050790 -0.001087 -0.004764 0.010075
    8 5.464948 0.934905 0.501473 -1.570796 0.000000 -1.570796
    9 14.981817 0.785508 0.038393 -1.570797 -1.570796 0.000000
    10 2.962811 -1.683644 0.000000 0.000000 0.000000 -1.570796
    11 1.257180 8.762585 -0.153713 -1.570562 0.002683 -1.566807
    12 -0.488518 -2.755602 -0.228260 -0.871637 -0.202562 -0.209541
    13 0.039887 -1.479790 0.029854 -2.058999 0.000000 0.000001
    14 0.028786 -1.075731 -0.023109 -0.606348 0.000000 0.000000
    15 0.250027 -2.820665 -0.238396 -0.797118 -0.167517 -0.114938
    16 -0.049759 -1.680544 0.100479 -1.934788 0.000000 -0.000002
    17 -0.034142 -1.148312 0.084782 -0.925879 0.000000 0.000000
    18 0.957766 -2.746780 -0.090302 0.005853 -0.162684 0.097910
    19 -0.033420 -1.397129 -0.011257 -0.520985 0.000000 -0.000001
    20 -0.022360 -0.957436 0.018784 -0.975478 0.000000 0.000000
    21 -1.180681 -2.507217 -0.193859 -0.671414 -0.081516 -0.261329
    22 -0.024967 -1.123934 0.017597 -2.056303 0.000000 0.000001
    23 -0.020057 -0.890968 0.010090 -0.677843 0.000000 0.000000
    24 0.583510 -1.197277 0.185379 0.180205 -0.812060 -1.291294
    25 1.535927 0.010246 0.005009 -0.002964 -0.012979 -0.506650
    26 1.100771 0.004527 -0.010679 -0.015488 -0.004784 -1.694062
    27 0.120153 -0.050270 -0.054489 0.287569 3.110905 1.561085
    28 0.717543 -13.262755 -12.904021 -1.737223 -5.372196 -0.921845
    29 0.096944 -8.450418 -0.009365 0.441504 -1.298311 0.044599
    30 0.447953 -2.798986 -0.200443 -0.867750 -0.067958 0.142839
    31 -0.032909 -1.480204 0.004940 -1.563671 0.000000 0.000002
    32 -0.027022 -1.076920 -0.020210 0.067112 0.000000 0.000000
    33 -0.249534 -2.846964 -0.174213 -0.411782 -0.046302 0.113811
    34 0.043235 -1.683941 0.096012 -1.755602 0.002823 -0.000167
    35 0.031729 -1.160830 0.058838 -0.271631 0.000642 0.008372
    36 -0.963866 -2.785145 -0.085350 0.029165 0.013044 0.093174
    37 0.028479 -1.403067 0.006271 -1.265374 0.000000 0.000000
    38 0.021413 -0.957781 0.020046 -0.738159 0.000000 0.000000
    39 1.164475 -2.543940 -0.170330 -1.086001 -0.190582 0.231608
    40 0.024032 -1.129042 0.017807 -1.235601 0.000000 0.000001
    41 0.014898 -0.883989 -0.019848 -0.241922 0.000000 0.000000
    42 -0.586770 -1.264477 0.200161 0.031359 -0.425403 -2.681131
    43 1.522835 0.058681 0.016848 0.001410 0.008985 0.513078
    44 1.117947 0.048424 -0.005766 0.001267 -0.025174 0.005124
    45 -0.139399 -0.111698 0.014397 0.730903 0.255277 1.513298
    46 -1.393470 8.839177 -0.239433 1.580804 -0.005023 -1.566847
  time 25
    0 -0.999830 1.628925 1.837942 0.000000 0.000000 0.000000
    1 9.213061 3.032097 -9.086325 -0.433168 -1.613184 0.237286
    2 -0.071918 -8.498730 -0.104136 0.150406 0.278332 0.058568
    3 2.895287 -1.754041 1.313274 0.246376 0.052132 -1.568741
    4 0.000002 0.000000 0.000000 0.000000 0.000000 -0.000001
    5 6.494406 -3.211587 0.000000 -0.000001 0.000000 -1.501248
    6 -0.000002 0.000002 0.000000 0.000000 0.000000 0.000000
    7 12.276061 -0.776890 0.031258 -0.000815 -0.003144 0.005855
    8 5.464948 0.934905 0.501473 -1.570796 0.000000 -1.570796
    9 14.981817 0.785508 0.038393 -1.570797 -1.570796 0.000000
    10 2.962811 -1.683644 0.000000 0.000000 0.000000 -1.570796
    11 1.257180 8.762585 -0.153713 -1.570562 0.002683 -1.566807
    12 -0.488518 -2.755602 -0.228260 -0.871637 -0.202562 -0.209541
    13 0.039887 -1.479790 0.029854 -2.058999 0.000000 0.000001
    14 0.028786 -1.075731 -0.023109 -0.606348 0.000000 0.000000
    15 0.250027 -2.820665 -0.238396 -0.797118 -0.167517 -0.114938
    16 -0.049759 -1.680544 0.100479 -1.934788 0.000000 -0.000002
    17 -0.034142 -1.148312 0.084782 -0.925906 0.000000 0.000000
    18 0.957766 -2.746780 -0.090302 0.005853 -0.162684 0.097910
    19 -0.033420 -1.397129 -0.011257 -0.520985 0.000000 -0.000001
    20 -0.022360 -0.957436 0.018784 -0.975478 0.000000 0.000000
    21 -1.180681 -2.507217 -0.193859 -0.671414 -0.081516 -0.261329
    22 -0.024967 -1.123934 0.017597 -2.056303 0.000000 0.000001
    23 -0.020057 -0.890968 0.010090 -0.677843 0.000000 0.000000
    24 0.583510 -1.197277 0.185379 0.180205 -0.812060 -1.291294
    25 1.535927 0.010246 0.005009 -0.002964 -0.012979 -0.506650
    26 1.100771 0.004527 -0.010679 -0.015488 -0.004784 -1.694062
    27 0.120153 -0.050270 -0.054489 0.287569 3.110905 1.561085
    28 0.709730 -13.278380 -12.857144 -1.743589 -5.374489 -0.926716
    29 0.096944 -8.450418 -0.009365 0.441504 -1.298311 0.044599
    30 0.447953 -2.798986 -0.200443 -0.867750 -0.067958 0.142839
    31 -0.032909 -1.480204 0.004940 -1.563671 0.000000 0.000002
    32 -0.027022 -1.076920 -0.020210 0.067112 0.000000 0.000000
    33 -0.249534 -2.846964 -0.174213 -0.411782 -0.046302 0.113811
    34 0.043235 -1.683941 0.096012 -1.755602 0.002823 -0.000167
    35 0.031729 -1.160830 0.058838 -0.271631 0.000642 0.008372
    36 -0.963866 -2.785145 -0.085350 0.029165 0.013044 0.093174
    37 0.028479 -1.403067 0.006271 -1.265374 0.000000 0.000000
    38 0.021413 -0.957781 0.020046 -0.738159 0.000000 0.000000
    39 1.164475 -2.543940 -0.170330 -1.086001 -0.190582 0.231608
    40 0.024032 -1.129042 0.017807 -1.235601 0.000000 0.000001
    41 0.014898 -0.883989 -0.019848 -0.241922 0.000000 0.000000
    42 -0.586770 -1.264477 0.200161 0.031359 -0.425403 -2.681131
    43 1.522835 0.058681 0.016848 0.001410 0.008985 0.513078
    44 1.117947 0.048424 -0.005766 0.001267 -0.025174 0.005124
    45 -0.139399 -0.111698 0.014397 0.730903 0.255277 1.513298
    46 -1.393470 8.839177 -0.239433 1.580804 -0.005023 -1.566847
  time 26
    0 -0.999830 1.628925 1.837942 0.000000 0.000000 0.000000
    1 9.213061 3.032097 -9.090231 -0.396448 -1.612695 0.200567
    2 -0.071918 -8.498730 -0.104136 0.150610 0.279039 0.059538
    3 2.895287 -1.754041 1.313274 0.246376 0.052132 -1.568741
    4 0.000002 0.000000 0.000000 0.000000 0.000000 -0.000001
    5 6.494406 -3.211587 0.000000 -0.000001 0.000000 -1.501248
    6 -0.000002 0.000002 0.000000 0.000000 0.000000 0.000000
    7 12.307312 -0.812048 0.019539 -0.000633 -0.002096 0.003449
    8 5.464948 0.934905 0.501473 -1.570796 0.000000 -1.570796
    9 14.981817 0.785508 0.038393 -1.570797 -1.570796 0.000000
    10 2.962811 -1.683644 0.000000 0.000000 0.000000 -1.570796
    11 1.257180 8.762585 -0.153713 -1.570562 0.002683 -1.566807
    12 -0.488518 -2.755602 -0.228260 -0.871637 -0.202562 -0.209541
    13 0.039887 -1.479790 0.029854 -2.058999 0.000000 0.000001
    14 0.028786 -1.075731 -0.023109 -0.606348 0.000000 0.000000
    15 0.250027 -2.820665 -0.238396 -0.797118 -0.167517 -0.114938
    16 -0.049759 -1.680544 0.100479 -1.934788 0.000000 -0.000002
    17 -0.034142 -1.148312 0.084782 -0.925879 0.000000 0.000000
    18 0.957766 -2.746780 -0.090302 0.005853 -0.162684 0.097910
    19 -0.033420 -1.397129 -0.011257 -0.520985 0.000000 -0.000001
    20 -0.022360 -0.957436 0.018784 -0.975478 0.000000 0.000000
    21 -1.180681 -2.507217 -0.193859 -0.671414 -0.081516 -0.261329
    22 -0.024967 -1.123934 0.017597 -2.056303 0.000000 0.000001
    23 -0.020057 -0.890968 0.010090 -0.677843 0.000000 0.000000
    24 0.583510 -1.197277 0.185379 0.180205 -0.812060 -1.291294
    25 1.535927 0.010246 0.005009 -0.002964 -0.012979 -0.506650
    26 1.100771 0.004527 -0.010679 -0.015488 -0.004784 -1.694062
    27 0.120153 -0.050270 -0.054489 0.287569 3.110905 1.561085
    28 0.709730 -13.286193 -12.818081 -1.747316 -5.375773 -0.929581
    29 0.096944 -8.450418 -0.009365 0.441504 -1.298311 0.044599
    30 0.447953 -2.798986 -0.200443 -0.867750 -0.067958 0.142839
    31 -0.032909 -1.480204 0.004940 -1.563671 0.000000 0.000002
    32 -0.027022 -1.076920 -0.020210 0.067112 0.000000 0.000000
    33 -0.249534 -2.846964 -0.174213 -0.411782 -0.046302 0.113811
    34 0.043235 -1.683941 0.096012 -1.755602 0.002823 -0.000167
    35 0.031729 -1.160830 0.058838 -0.271631 0.000642 0.008372
    36 -0.963866 -2.785145 -0.085350 0.029165 0.013044 0.093174
    37 0.028479 -1.403067 0.006271 -1.265374 0.000000 0.000000
    38 0.021413 -0.957781 0.020046 -0.738159 0.000000 0.000000
    39 1.164475 -2.543940 -0.170330 -1.086001 -0.190582 0.231608
    40 0.024032 -1.129042 0.017807 -1.235601 0.000000 0.000001
    41 0.014898 -0.883989 -0.019848 -0.241922 0.000000 0.000000
    42 -0.586770 -1.264477 0.200161 0.031359 -0.425403 -2.681131
    43 1.522835 0.058681 0.016848 0.001410 0.008985 0.513078
    44 1.117947 0.048424 -0.005766 0.001267 -0.025174 0.005124
    45 -0.139399 -0.111698 0.014397 0.730903 0.255277 1.513298
    46 -1.393470 8.839177 -0.239433 1.580804 -0.005023 -1.566847
  time 27
    0 -0.999830 1.628925 1.837942 0.000000 0.000000 0.000000
    1 9.213061 3.032097 -9.094138 -0.339739 -1.612435 0.143892
    2 -0.071918 -8.498730 -0.104136 0.150753 0.280034 0.058530
    3 2.895287 -1.754041 1.313274 0.246376 0.052132 -1.568741
    4 0.000002 0.000000 0.000000 0.000000 0.000000 -0.000001
    5 6.494406 -3.211587 0.000000 -0.000001 0.000000 -1.501248
    6 -0.000002 0.000002 0.000000 0.000000 0.000000 0.000000
    7 12.330750 -0.827673 0.011726 -0.000452 -0.001429 0.002269
    8 5.464948 0.934905 0.501473 -1.570796 0.000000 -1.570796
    9 14.981817 0.785508 0.038393 -1.570797 -1.570796 0.000000
    10 2.962811 -1.683644 0.000000 0.000000 0.000000 -1.570796
    11 1.257180 8.762585 -0.153713 -1.570562 0.002683 -1.566807
    12 -0.488518 -2.755602 -0.228260 -0.871637 -0.202562 -0.209541
    13 0.039887 -1.479790 0.029854 -2.058999 0.000000 0.000001
    14 0.028786 -1.075731 -0.023109 -0.606348 0.000000 0.000000
    15 0.250027 -2.820665 -0.238396 -0.797118 -0.167517 -0.114938
    16 -0.049759 -1.680544 0.100479 -1.934788 0.000000 -0.000002
    17 -0.034142 -1.148312 0.084782 -0.925906 0.000000 0.000000
    18 0.957766 -2.746780 -0.090302 0.005853 -0.162684 0.097910
    19 -0.033420 -1.397129 -0.011257 -0.520985 0.000000 -0.000001
    20 -0.022360 -0.957436 0.018784 -0.975478 0.000000 0.000000
    21 -1.180681 -2.507217 -0.193859 -0.671414 -0.081516 -0.261329
    22 -0.024967 -1.123934 0.017597 -2.056303 0.000000 0.000001
    23 -0.020057 -0.890968 0.010090 -0.677843 0.000000 0.000000
    24 0.583510 -1.197277 0.185379 0.180205 -0.812060 -1.291294
    25 1.535927 0.010246 0.005009 -0.002964 -0.012979 -0.506650
    26 1.100771 0.004527 -0.010679 -0.015488 -0.004784 -1.694062
    27 0.120153 -0.050270 -0.054489 0.287569 3.110905 1.561085
    28 0.705823 -13.294006 -12.790736 -1.749257 -5.376324 -0.931014
    29 0.096944 -8.450418 -0.009365 0.441504 -1.298311 0.044599
    30 0.447953 -2.798986 -0.200443 -0.867750 -0.067958 0.142839
    31 -0.032909 -1.480204 0.004940 -1.563671 0.000000 0.000002
    32 -0.027022 -1.076920 -0.020210 0.067112 0.000000 0.000000
    33 -0.249534 -2.846964 -0.174213 -0.411782 -0.046302 0.113811
    34 0.043235 -1.683941 0.096012 -1.755602 0.002823 -0.000167
    35 0.031729 -1.160830 0.058838 -0.271631 0.000642 0.008372
    36 -0.963866 -2.785145 -0.085350 0.029165 0.013044 0.093174
    37 0.028479 -1.403067 0.006271 -1.265374 0.000000 0.000000
    38 0.021413 -0.957781 0.020046 -0.738159 0.000000 0.000000
    39 1.164475 -2.543940 -0.170330 -1.086001 -0.190582 0.231608
    40 0.024032 -1.129042 0.017807 -1.235601 0.000000 0.000001
    41 0.014898 -0.883989 -0.019848 -0.241922 0.000000 0.000000
    42 -0.586770 -1.264477 0.200161 0.031359 -0.425403 -2.681131
    43 1.522835 0.058681 0.016848 0.001410 0.008985 0.513078
    44 1.117947 0.048424 -0.005766 0.001267 -0.025174 0.005124
    45 -0.139399 -0.111698 0.014397 0.730903 0.255277 1.513298
    46 -1.393470 8.839177 -0.239433 1.580804 -0.005023 -1.566847
  time 28
    0 -0.999830 1.628925 1.837942 0.000000 0.000000 0.000000
    1 9.213061 3.032097 -9.101950 -0.273109 -1.612402 0.077337
    2 -0.071918 -8.498730 -0.104136 0.150873 0.281173 0.056552
    3 2.895287 -1.754041 1.313274 0.246376 0.052132 -1.568741
    4 0.000002 0.000000 0.000000 0.000000 0.000000 -0.000001
    5 6.494406 -3.211587 0.000000 -0.000001 0.000000 -1.501248
    6 -0.000002 0.000002 0.000000 0.000000 0.000000 0.000000
    7 12.350282 -0.835486 0.007820 -0.000270 -0.001048 0.001725
    8 5.464948 0.934905 0.501473 -1.570796 0.000000 -1.570796
    9 14.981817 0.785508 0.038393 -1.570797 -1.570796 0.000000
    10 2.962811 -1.683644 0.000000 0.000000 0.000000 -1.570796
    11 1.257180 8.762585 -0.153713 -1.570562 0.002683 -1.566807
    12 -0.488518 -2.755602 -0.228260 -0.871637 -0.202562 -0.209541
    13 0.039887 -1.479790 0.029854 -2.058999 0.000000 0.000001
    14 0.028786 -1.075731 -0.023109 -0.606348 0.000000 0.000000
    15 0.250027 -2.820665 -0.238396 -0.797118 -0.167517 -0.114938
    16 -0.049759 -1.680544 0.100479 -1.934788 0.000000 -0.000002
    17 -0.034142 -1.148312 0.084782 -0.925906 0.000000 0.000000
    18 0.957766 -2.746780 -0.090302 0.005853 -0.162684 0.097910
    19 -0.033420 -1.397129 -0.011257 -0.520985 0.000000 -0.000001
    20 -0.022360 -0.957436 0.018784 -0.975478 0.000000 0.000000
    21 -1.180681 -2.507217 -0.193859 -0.671414 -0.081516 -0.261329
    22 -0.024967 -1.123934 0.017597 -2.056303 0.000000 0.000001
    23 -0.020057 -0.890968 0.010090 -0.677843 0.000000 0.000000
    24 0.583510 -1.197277 0.185379 0.180205 -0.812060 -1.291294
    25 1.535927 0.010246 0.005009 -0.002964 -0.012979 -0.506650
    26 1.100771 0.004527 -0.010679 -0.015488 -0.004784 -1.694062
    27 0.120153 -0.050270 -0.054489 0.287569 3.110905 1.561085
    28 0.705823 -13.297912 -12.767298 -1.750421 -5.376507 -0.931683
    29 0.096944 -8.450418 -0.009365 0.441504 -1.298311 0.044599
    30 0.447953 -2.798986 -0.200443 -0.867750 -0.067958 0.142839
    31 -0.032909 -1.480204 0.004940 -1.563671 0.000000 0.000002
    32 -0.027022 -1.076920 -0.020210 0.067112 0.000000 0.000000
    33 -0.249534 -2.846964 -0.174213 -0.411782 -0.046302 0.113811
    34 0.043235 -1.683941 0.096012 -1.755602 0.002823 -0.000167
    35 0.031729 -1.160830 0.058838 -0.271631 0.000642 0.008372
    36 -0.963866 -2.785145 -0.085350 0.029165 0.013044 0.093174
    37 0.028479 -1.403067 0.006271 -1.265374 0.000000 0.000000
    38 0.021413 -0.957781 0.020046 -0.738159 0.000000 0.000000
    39 1.164475 -2.543940 -0.170330 -1.086001 -0.190582 0.231608
    40 0.024032 -1.129042 0.017807 -1.235601 0.000000 0.000001
    41 0.014898 -0.883989 -0.019848 -0.241922 0.000000 0.000000
    42 -0.586770 -1.264477 0.200161 0.031359 -0.425403 -2.681131
    43 1.522835 0.058681 0.016848 0.001410 0.008985 0.513078
    44 1.117947 0.048424 -0.005766 0.001267 -0.025174 0.005124
    45 -0.139399 -0.111698 0.014397 0.730903 0.255277 1.513298
    46 -1.393470 8.839177 -0.239433 1.580804 -0.005023 -1.566847
  time 29
    0 -0.999830 1.628925 1.837942 0.000000 0.000000 0.000000
    1 9.213061 3.032097 -9.109763 -0.206770 -1.612565 0.011027
    2 -0.071918 -8.498730 -0.104136 0.150981 0.282311 0.054574
    3 2.895287 -1.754041 1.313274 0.246376 0.052132 -1.568741
    4 0.000002 0.000000 0.000000 0.000000 0.000000 -0.000001
    5 6.494406 -3.211587 0.000000 -0.000001 0.000000 -1.501248
    6 -0.000002 0.000002 0.000000 0.000000 0.000000 0.000000
    7 12.369814 -0.843299 0.003913 -0.000089 -0.000572 0.001135
    8 5.464948 0.934905 0.501473 -1.570796 0.000000 -1.570796
    9 14.981817 0.785508 0.038393 -1.570797 -1.570796 0.000000
    10 2.962811 -1.683644 0.000000 0.000000 0.000000 -1.570796
    11 1.257180 8.762585 -0.153713 -1.570562 0.002683 -1.566807
    12 -0.488518 -2.755602 -0.228260 -0.871637 -0.202562 -0.209541
    13 0.039887 -1.479790 0.029854 -2.058999 0.000000 0.000001
    14 0.028786 -1.075731 -0.023109 -0.606348 0.000000 0.000000
    15 0.250027 -2.820665 -0.238396 -0.797118 -0.167517 -0.114938
    16 -0.049759 -1.680544 0.100479 -1.934788 0.000000 -0.000002
    17 -0.034142 -1.148312 0.084782 -0.925879 0.000000 0.000000
    18 0.957766 -2.746780 -0.090302 0.005853 -0.162684 0.097910
    19 -0.033420 -1.397129 -0.011257 -0.520985 0.000000 -0.000001
    20 -0.022360 -0.957436 0.018784 -0.975478 0.000000 0.000000
    21 -1.180681 -2.507217 -0.193859 -0.671414 -0.081516 -0.261329
    22 -0.024967 -1.123934 0.017597 -2.056303 0.000000 0.000001
    23 -0.020057 -0.890968 0.010090 -0.677843 0.000000 0.000000
    24 0.583510 -1.197277 0.185379 0.180205 -0.812060 -1.291294
    25 1.535927 0.010246 0.005009 -0.002964 -0.012979 -0.506650
    26 1.100771 0.004527 -0.010679 -0.015488 -0.004784 -1.694062
    27 0.120153 -0.050270 -0.054489 0.287569 3.110905 1.561085
    28 0.705823 -13.301819 -12.743860 -1.751508 -5.376782 -0.932447
    29 0.096944 -8.450418 -0.009365 0.441504 -1.298311 0.044599
    30 0.447953 -2.798986 -0.200443 -0.867750 -0.067958 0.142839
    31 -0.032909 -1.480204 0.004940 -1.563671 0.000000 0.000002
    32 -0.027022 -1.076920 -0.020210 0.067112 0.000000 0.000000
    33 -0.249534 -2.846964 -0.174213 -0.411782 -0.046302 0.113811
    34 0.043235 -1.683941 0.096012 -1.755602 0.002823 -0.000167
    35 0.031729 -1.160830 0.058838 -0.271631 0.000642 0.008372
    36 -0.963866 -2.785145 -0.085350 0.029165 0.013044 0.093174
    37 0.028479 -1.403067 0.006271 -1.265374 0.000000 0.000000
    38 0.021413 -0.957781 0.020046 -0.738159 0.000000 0.000000
    39 1.164475 -2.543940 -0.170330 -1.086001 -0.190582 0.231608
    40 0.024032 -1.129042 0.017807 -1.235601 0.000000 0.000001
    41 0.014898 -0.883989 -0.019848 -0.241922 0.000000 0.000000
    42 -0.586770 -1.264477 0.200161 0.031359 -0.425403 -2.681131
    43 1.522835 0.058681 0.016848 0.001410 0.008985 0.513078
    44 1.117947 0.048424 -0.005766 0.001267 -0.025174 0.005124
    45 -0.139399 -0.111698 0.014397 0.730903 0.255277 1.513298
    46 -1.393470 8.839177 -0.239433 1.580804 -0.005023 -1.566847
  time 30
    0 -0.999830 1.628925 1.837942 0.000000 0.000000 0.000000
    1 9.213061 3.032097 -9.113669 -0.149964 -1.612728 -0.045697
    2 -0.071918 -8.498730 -0.104136 0.151113 0.283294 0.053585
    3 2.895287 -1.754041 1.313274 0.246376 0.052132 -1.568741
    4 0.000002 0.000000 0.000000 0.000000 0.000000 -0.000001
    5 6.494406 -3.211587 0.000000 -0.000001 0.000000 -1.501248
    6 -0.000002 0.000002 0.000000 0.000000 0.000000 0.000000
    7 12.389346 -0.862831 0.000007 0.000002 0.000000 0.000000
    8 5.464948 0.934905 0.501473 -1.570796 0.000000 -1.570796
    9 14.981817 0.785508 0.038393 -1.570797 -1.570796 0.000000
    10 2.962811 -1.683644 0.000000 0.000000 0.000000 -1.570796
    11 1.257180 8.762585 -0.153713 -1.570562 0.002683 -1.566807
    12 -0.488518 -2.755602 -0.228260 -0.871637 -0.202562 -0.209541
    13 0.039887 -1.479790 0.029854 -2.058999 0.000000 0.000001
    14 0.028786 -1.075731 -0.023109 -0.606348 0.000000 0.000000
    15 0.250027 -2.820665 -0.238396 -0.797118 -0.167517 -0.114938
    16 -0.049759 -1.680544 0.100479 -1.934788 0.000000 -0.000002
    17 -0.034142 -1.148312 0.084782 -0.925906 0.000000 0.000000
    18 0.957766 -2.746780 -0.090302 0.005853 -0.162684 0.097910
    19 -0.033420 -1.397129 -0.011257 -0.520985 0.000000 -0.000001
    20 -0.022360 -0.957436 0.018784 -0.975478 0.000000 0.000000
    21 -1.180681 -2.507217 -0.193859 -0.671414 -0.081516 -0.261329
    22 -0.024967 -1.123934 0.017597 -2.056303 0.000000 0.000001
    23 -0.020057 -0.890968 0.010090 -0.677843 0.000000 0.000000
    24 0.583510 -1.197277 0.185379 0.180205 -0.812060 -1.291294
    25 1.535927 0.010246 0.005009 -0.002964 -0.012979 -0.506650
    26 1.100771 0.004527 -0.010679 -0.015488 -0.004784 -1.694062
    27 0.120153 -0.050270 -0.054489 0.287569 3.110905 1.561085
    28 0.705823 -13.305725 -12.720421 -1.753527 -5.377333 -0.933880
    29 0.096944 -8.450418 -0.009365 0.441504 -1.298311 0.044599
    30 0.447953 -2.798986 -0.200443 -0.867750 -0.067958 0.142839
    31 -0.032909 -1.480204 0.004940 -1.563671 0.000000 0.000002
    32 -0.027022 -1.076920 -0.020210 0.067112 0.000000 0.000000
    33 -0.249534 -2.846964 -0.174213 -0.411782 -0.046302 0.113811
    34 0.043235 -1.683941 0.096012 -1.755602 0.002823 -0.000167
    35 0.031729 -1.160830 0.058838 -0.271631 0.000642 0.008372
    36 -0.963866 -2.785145 -0.085350 0.029165 0.013044 0.093174
    37 0.028479 -1.403067 0.006271 -1.265374 0.000000 0.000000
    38 0.021413 -0.957781 0.020046 -0.738159 0.000000 0.000000
    39 1.164475 -2.543940 -0.170330 -1.086001 -0.190582 0.231608
    40 0.024032 -1.129042 0.017807 -1.235601 0.000000 0.000001
    41 0.014898 -0.883989 -0.019848 -0.241922 0.000000 0.000000
    42 -0.586770 -1.264477 0.200161 0.031359 -0.425403 -2.681131
    43 1.522835 0.058681 0.016848 0.001410 0.008985 0.513078
    44 1.117947 0.048424 -0.005766 0.001267 -0.025174 0.005124
    45 -0.139399 -0.111698 0.014397 0.730903 0.255277 1.513298
    46 -1.393470 8.839177 -0.239433 1.580804 -0.005023 -1.566847
end
