// Created by Crowbar 0.34.0.0

$ModelName "weapons/tfa_cso/w_hk121.mdl"

$BodyGroup "studio"
{
	studio "v_hk121_12"
}

$collisionmodel "v_hk121_12.smd"
{
	$mass 9
}

$CDMaterials "models\weapons\tfa_cso\hk121"

$attachment "0" "root" -0.30 -18.10 0.60 rotate -0 0 0

$Sequence "idle" {
	"anims\idle.smd"
	fps 30
}