// Created by Crowbar 0.49.0.0

$modelname "weapons/tfa_cso/w_rpg7_rocket.mdl"

$bodygroup "studio"
{
	studio "rpg7_rocket"
}

$collisionmodel "rpg7_rocket.smd"
{
	$mass 9
}

$CDMaterials "models\weapons\tfa_cso\rpg7"

$sequence "idle" {
	"rpg7_rocket_anims\idle"
	fps 30
	loop
}
