// Created by Crowbar 0.34.0.0

$ModelName "weapons/tfa_cso/w_tmpdragon.mdl"

$BodyGroup "studio"
{
	studio "v_tmpdragon_v_ref"
}

$collisionmodel "v_tmpdragon_v_ref.smd"
{
	$mass 9
}

$CDMaterials "models\weapons\tfa_cso\tmpdragon"

$attachment "0" "root" 0.00 -5.80 -0.60 rotate -0 0 0

$Sequence "idle" {
	"anims\idle.smd"
	fps 30
}