version 1
nodes
  0 "Bone01" -1
  1 "Bone_Lefthand" 0
  2 "BONE_SteyrTMP" 1
  3 "Bone03" 2
  4 "BONE_Magazine" 3
  5 "BONE_Trigger" 3
  6 "BONE_Ejector" 3
  7 "Bone 04" 1
  8 "Bone13" 7
  9 "Bone14" 8
  10 "Bone15" 9
  11 "Bone17" 7
  12 "Bone18" 11
  13 "Bone19" 12
  14 "Bone21" 7
  15 "Bone22" 14
  16 "Bone23" 15
  17 "Bone05" 7
  18 "Bone06" 17
  19 "Bone07" 18
  20 "Bone09" 7
  21 "Bone10" 20
  22 "Bone11" 21
  23 "Bone04" -1
  24 "Bone_Righthand" 23
  25 "Bone26" 24
  26 "Bone35" 25
  27 "Bone36" 26
  28 "Bone37" 27
  29 "Bone31" 25
  30 "Bone32" 29
  31 "Bone33" 30
  32 "Bone39" 25
  33 "Bone40" 32
  34 "Bone41" 33
  35 "Bone43" 25
  36 "Bone44" 35
  37 "Bone45" 36
  38 "Bone27" 25
  39 "Bone28" 38
  40 "Bone29" 39
end
skeleton
  time 0
    0 8.106566 1.446853 -7.819047 -0.886939 -1.299135 0.683705
    1 0.000001 -8.563286 0.000002 0.325637 -0.110431 -0.209690
    2 -0.369222 -3.628151 0.519134 -1.186399 1.434476 -1.173754
    3 0.000000 2.607914 0.629496 0.000000 0.000000 0.000000
    4 0.000000 -1.303957 1.019184 0.000000 0.000000 0.000000
    5 -0.000001 -2.729255 1.453836 0.174532 0.000000 0.000000
    6 -0.000001 -0.239809 2.158269 0.000000 0.000000 0.000000
    7 -0.003480 -0.404830 0.000001 0.000000 0.000000 0.000000
    8 -0.519308 -2.501153 -0.278957 -1.003564 0.000000 -0.122173
    9 -0.010598 -1.208185 0.000001 -1.221727 0.000000 0.000000
    10 0.000000 -0.763067 0.000000 -1.178108 0.000000 0.000000
    11 0.105981 -2.607133 -0.278957 -0.890118 0.000000 -0.148353
    12 0.000001 -1.250579 0.000000 -1.300264 0.000000 0.000000
    13 0.000000 -0.932634 0.000000 -1.274094 0.000000 0.000000
    14 0.763064 -2.490556 -0.278957 -0.339274 0.025479 0.214361
    15 -0.012322 -1.280917 0.000001 -1.221731 0.000000 0.000000
    16 -0.001697 -0.749371 0.000000 -0.759207 0.000000 0.000000
    17 0.354567 0.016268 0.318133 0.342077 -0.443527 -1.083976
    18 1.887165 0.012878 0.000000 -0.301502 -0.049640 -0.559682
    19 1.001874 -0.000270 0.000000 0.000000 0.000000 -0.759198
    20 -1.123358 -2.195092 -0.278957 -0.864264 0.002816 -0.081154
    21 0.010772 -0.963791 0.000001 -0.575966 0.000000 0.000000
    22 -0.010412 -0.631916 -0.000001 -1.431159 0.000000 0.000000
    23 -1.194861 -5.560478 -9.596290 -1.661463 1.210529 -0.901018
    24 0.089932 -8.543163 0.000002 0.341036 0.121183 0.296043
    25 0.000000 -0.359713 0.000000 0.000000 0.000000 0.000000
    26 -0.170479 -2.636148 -0.277654 -1.160687 0.000000 0.000000
    27 0.010599 -1.261177 0.000001 -0.881370 0.000000 0.000000
    28 -0.000001 -0.943233 0.000000 -0.916292 0.000000 0.000000
    29 -0.827562 -2.508974 -0.277655 -1.239206 0.000000 0.000000
    30 0.000000 -1.292971 0.000000 -0.811549 0.000000 0.000000
    31 0.000000 -0.752466 0.000000 -1.160644 0.000000 0.000000
    32 0.444214 -2.561961 -0.277654 -1.116425 -0.047988 -0.024479
    33 0.021022 -1.208186 0.000000 -0.733035 0.000000 0.000000
    34 0.010598 -0.741867 -0.000001 -0.846473 0.000000 0.000000
    35 1.047446 -2.222822 -0.277654 -0.854492 -0.053779 -0.039460
    36 0.000000 -0.996223 -0.000002 -0.584707 0.000000 0.000000
    37 -0.000001 -0.614690 0.000000 -0.916284 0.000000 0.000000
    38 -0.308253 -0.007814 0.307165 0.078469 -0.558446 -2.106404
    39 1.978378 0.019544 -0.000001 -0.000002 -0.000010 0.567231
    40 0.982426 0.003186 0.000000 0.000000 0.000000 0.593405
  time 1
    0 8.106566 0.978089 -7.725295 -0.838622 -1.314380 0.633708
    1 0.000001 -8.563286 0.000002 0.333235 -0.114709 -0.187938
    2 -0.369222 -3.628151 0.519134 -1.186399 1.434476 -1.173754
    3 0.000000 2.607914 0.629496 0.000000 0.000000 0.000000
    4 0.000000 -1.303957 1.019184 0.000000 0.000000 0.000000
    5 -0.000001 -2.744880 1.453836 0.159970 0.000000 0.000000
    6 -0.000001 -0.239809 1.560594 0.000000 0.000000 0.000000
    7 -0.003480 -0.404830 0.000001 0.000000 0.000000 0.000000
    8 -0.519308 -2.501153 -0.278957 -1.003564 0.000000 -0.122173
    9 -0.010598 -1.208185 0.000001 -1.221727 0.000000 0.000000
    10 0.000000 -0.763067 0.000000 -1.178108 0.000000 0.000000
    11 0.105981 -2.607133 -0.278957 -0.890118 0.000000 -0.148353
    12 0.000001 -1.250579 0.000000 -1.300264 0.000000 0.000000
    13 0.000000 -0.932634 0.000000 -1.274094 0.000000 0.000000
    14 0.763064 -2.490556 -0.278957 -0.335619 0.025479 0.214361
    15 -0.012322 -1.280917 0.000001 -1.185350 0.000000 0.000000
    16 -0.001697 -0.749371 0.000000 -0.745401 0.000000 0.000000
    17 0.354567 0.016268 0.318133 0.342077 -0.443527 -1.083976
    18 1.887165 0.012878 0.000000 -0.301502 -0.049640 -0.559682
    19 1.001874 -0.000270 0.000000 0.000000 0.000000 -0.759198
    20 -1.123358 -2.195092 -0.278957 -0.864264 0.002816 -0.081154
    21 0.010772 -0.963791 0.000001 -0.575966 0.000000 0.000000
    22 -0.010412 -0.631916 -0.000001 -1.431159 0.000000 0.000000
    23 -1.034700 -5.931583 -9.529882 -1.660891 1.224617 -0.928296
    24 0.089932 -8.543163 0.000002 0.242474 0.115954 0.248141
    25 0.000000 -0.359713 0.000000 0.000000 0.000000 0.000000
    26 -0.170479 -2.636148 -0.277654 -1.160687 0.000000 0.000000
    27 0.010599 -1.261177 0.000001 -0.881370 0.000000 0.000000
    28 -0.000001 -0.943233 0.000000 -0.916292 0.000000 0.000000
    29 -0.827562 -2.508974 -0.277655 -1.239206 0.000000 0.000000
    30 0.000000 -1.292971 0.000000 -0.811549 0.000000 0.000000
    31 0.000000 -0.752466 0.000000 -1.160644 0.000000 0.000000
    32 0.444214 -2.561961 -0.277654 -1.116425 -0.047988 -0.024479
    33 0.021022 -1.208186 0.000000 -0.733035 0.000000 0.000000
    34 0.010598 -0.741867 -0.000001 -0.846473 0.000000 0.000000
    35 1.047446 -2.222822 -0.277654 -0.854492 -0.053779 -0.039460
    36 0.000000 -0.996223 -0.000002 -0.584707 0.000000 0.000000
    37 -0.000001 -0.614690 0.000000 -0.916284 0.000000 0.000000
    38 -0.308253 -0.007814 0.307165 0.078469 -0.558446 -2.106404
    39 1.978378 0.019544 -0.000001 -0.000002 -0.000010 0.567231
    40 0.982426 0.003186 0.000000 0.000000 0.000000 0.593405
  time 2
    0 8.106566 0.814022 -7.647167 -0.784383 -1.328975 0.577617
    1 0.000001 -8.563286 0.000002 0.340761 -0.119180 -0.166222
    2 -0.369222 -3.628151 0.519134 -1.186399 1.434476 -1.173754
    3 0.000000 2.607914 0.629496 0.000000 0.000000 0.000000
    4 0.000000 -1.303957 1.019184 0.000000 0.000000 0.000000
    5 -0.000001 -2.756600 1.453836 0.145421 0.000000 0.000000
    6 -0.000001 -0.239809 1.955138 0.000000 0.000000 0.000000
    7 -0.003480 -0.404830 0.000001 0.000000 0.000000 0.000000
    8 -0.519308 -2.501153 -0.278957 -1.003564 0.000000 -0.122173
    9 -0.010598 -1.208185 0.000001 -1.221727 0.000000 0.000000
    10 0.000000 -0.763067 0.000000 -1.178108 0.000000 0.000000
    11 0.105981 -2.607133 -0.278957 -0.890118 0.000000 -0.148353
    12 0.000001 -1.250579 0.000000 -1.300264 0.000000 0.000000
    13 0.000000 -0.932634 0.000000 -1.274094 0.000000 0.000000
    14 0.763064 -2.490556 -0.278957 -0.331987 0.025479 0.214361
    15 -0.012322 -1.280917 0.000001 -1.148996 0.000000 0.000000
    16 -0.001697 -0.749371 0.000000 -0.731570 0.000000 0.000000
    17 0.354567 0.016268 0.318133 0.342077 -0.443527 -1.083976
    18 1.887165 0.012878 0.000000 -0.301502 -0.049640 -0.559682
    19 1.001874 -0.000270 0.000000 0.000000 0.000000 -0.759198
    20 -1.123358 -2.195092 -0.278957 -0.864264 0.002816 -0.081154
    21 0.010772 -0.963791 0.000001 -0.575966 0.000000 0.000000
    22 -0.010412 -0.631916 -0.000001 -1.431159 0.000000 0.000000
    23 -0.878445 -6.080025 -9.486912 -1.661558 1.238664 -0.956749
    24 0.089932 -8.543163 0.000002 0.144344 0.106071 0.201017
    25 0.000000 -0.359713 0.000000 0.000000 0.000000 0.000000
    26 -0.170479 -2.636148 -0.277654 -1.160687 0.000000 0.000000
    27 0.010599 -1.261177 0.000001 -0.881370 0.000000 0.000000
    28 -0.000001 -0.943233 0.000000 -0.916292 0.000000 0.000000
    29 -0.827562 -2.508974 -0.277655 -1.239206 0.000000 0.000000
    30 0.000000 -1.292971 0.000000 -0.811549 0.000000 0.000000
    31 0.000000 -0.752466 0.000000 -1.160644 0.000000 0.000000
    32 0.444214 -2.561961 -0.277654 -1.116425 -0.047988 -0.024479
    33 0.021022 -1.208186 0.000000 -0.733035 0.000000 0.000000
    34 0.010598 -0.741867 -0.000001 -0.846473 0.000000 0.000000
    35 1.047446 -2.222822 -0.277654 -0.854492 -0.053779 -0.039460
    36 0.000000 -0.996223 -0.000002 -0.584707 0.000000 0.000000
    37 -0.000001 -0.614690 0.000000 -0.916284 0.000000 0.000000
    38 -0.308253 -0.007814 0.307165 0.078469 -0.558446 -2.106404
    39 1.978378 0.019544 -0.000001 -0.000002 -0.000010 0.567231
    40 0.982426 0.003186 0.000000 0.000000 0.000000 0.593405
  time 3
    0 8.106566 0.825741 -7.580759 -0.751506 -1.336656 0.543792
    1 0.000001 -8.563286 0.000002 0.345939 -0.120726 -0.156262
    2 -0.369222 -3.628151 0.519134 -1.186399 1.434476 -1.173754
    3 0.000000 2.607914 0.629496 0.000000 0.000000 0.000000
    4 0.000000 -1.303957 1.019184 0.000000 0.000000 0.000000
    5 -0.000001 -2.772225 1.453836 0.130896 0.000000 0.000000
    6 -0.000001 -0.239809 2.158269 0.000000 0.000000 0.000000
    7 -0.003480 -0.404830 0.000001 0.000000 0.000000 0.000000
    8 -0.519308 -2.501153 -0.278957 -1.003564 0.000000 -0.122173
    9 -0.010598 -1.208185 0.000001 -1.221727 0.000000 0.000000
    10 0.000000 -0.763067 0.000000 -1.178108 0.000000 0.000000
    11 0.105981 -2.607133 -0.278957 -0.890118 0.000000 -0.148353
    12 0.000001 -1.250579 0.000000 -1.300264 0.000000 0.000000
    13 0.000000 -0.932634 0.000000 -1.274094 0.000000 0.000000
    14 0.763064 -2.490556 -0.278957 -0.328356 0.025479 0.214361
    15 -0.012322 -1.280917 0.000001 -1.112641 0.000000 0.000000
    16 -0.001697 -0.749371 0.000000 -0.717752 0.000000 0.000000
    17 0.354567 0.016268 0.318133 0.342077 -0.443527 -1.083976
    18 1.887165 0.012878 0.000000 -0.301502 -0.049640 -0.559682
    19 1.001874 -0.000270 0.000000 0.000000 0.000000 -0.759198
    20 -1.123358 -2.195092 -0.278957 -0.864264 0.002816 -0.081154
    21 0.010772 -0.963791 0.000001 -0.575966 0.000000 0.000000
    22 -0.010412 -0.631916 -0.000001 -1.431159 0.000000 0.000000
    23 -0.733909 -6.009710 -9.479099 -1.663464 1.252792 -0.986376
    24 0.089932 -8.543163 0.000002 0.085728 0.097772 0.179613
    25 0.000000 -0.359713 0.000000 0.000000 0.000000 0.000000
    26 -0.170479 -2.636148 -0.277654 -1.160687 0.000000 0.000000
    27 0.010599 -1.261177 0.000001 -0.881370 0.000000 0.000000
    28 -0.000001 -0.943233 0.000000 -0.916292 0.000000 0.000000
    29 -0.827562 -2.508974 -0.277655 -1.239206 0.000000 0.000000
    30 0.000000 -1.292971 0.000000 -0.811549 0.000000 0.000000
    31 0.000000 -0.752466 0.000000 -1.160644 0.000000 0.000000
    32 0.444214 -2.561961 -0.277654 -1.116425 -0.047988 -0.024479
    33 0.021022 -1.208186 0.000000 -0.733035 0.000000 0.000000
    34 0.010598 -0.741867 -0.000001 -0.846473 0.000000 0.000000
    35 1.047446 -2.222822 -0.277654 -0.854492 -0.053779 -0.039460
    36 0.000000 -0.996223 -0.000002 -0.584707 0.000000 0.000000
    37 -0.000001 -0.614690 0.000000 -0.916284 0.000000 0.000000
    38 -0.308253 -0.007814 0.307165 0.078469 -0.558446 -2.106404
    39 1.978378 0.019544 -0.000001 -0.000002 -0.000010 0.567231
    40 0.982426 0.003186 0.000000 0.000000 0.000000 0.593405
  time 4
    0 8.106566 0.907774 -7.549508 -0.743187 -1.338489 0.535193
    1 0.000001 -8.563286 0.000002 0.348647 -0.118233 -0.161344
    2 -0.369222 -3.628151 0.519134 -1.186399 1.434476 -1.173754
    3 0.000000 2.607914 0.629496 0.000000 0.000000 0.000000
    4 0.000000 -1.303957 1.019184 0.000000 0.000000 0.000000
    5 -0.000001 -2.783944 1.453836 0.116334 0.000000 0.000000
    6 -0.000001 -0.239809 2.158269 0.000000 0.000000 0.000000
    7 -0.003480 -0.404830 0.000001 0.000000 0.000000 0.000000
    8 -0.519308 -2.501153 -0.278957 -1.003564 0.000000 -0.122173
    9 -0.010598 -1.208185 0.000001 -1.221727 0.000000 0.000000
    10 0.000000 -0.763067 0.000000 -1.178108 0.000000 0.000000
    11 0.105981 -2.607133 -0.278957 -0.890118 0.000000 -0.148353
    12 0.000001 -1.250579 0.000000 -1.300264 0.000000 0.000000
    13 0.000000 -0.932634 0.000000 -1.274094 0.000000 0.000000
    14 0.763064 -2.490556 -0.278957 -0.324713 0.025479 0.214361
    15 -0.012322 -1.280917 0.000001 -1.076260 0.000000 0.000000
    16 -0.001697 -0.749371 0.000000 -0.703946 0.000000 0.000000
    17 0.354567 0.016268 0.318133 0.342077 -0.443527 -1.083976
    18 1.887165 0.012878 0.000000 -0.301502 -0.049640 -0.559682
    19 1.001874 -0.000270 0.000000 0.000000 0.000000 -0.759198
    20 -1.123358 -2.195092 -0.278957 -0.864264 0.002816 -0.081154
    21 0.010772 -0.963791 0.000001 -0.575966 0.000000 0.000000
    22 -0.010412 -0.631916 -0.000001 -1.431159 0.000000 0.000000
    23 -0.718284 -5.947209 -9.529882 -1.650411 1.248229 -0.975717
    24 0.089932 -8.543163 0.000002 0.063736 0.094155 0.181554
    25 0.000000 -0.359713 0.000000 0.000000 0.000000 0.000000
    26 -0.170479 -2.636148 -0.277654 -1.160687 0.000000 0.000000
    27 0.010599 -1.261177 0.000001 -0.881370 0.000000 0.000000
    28 -0.000001 -0.943233 0.000000 -0.916292 0.000000 0.000000
    29 -0.827562 -2.508974 -0.277655 -1.239206 0.000000 0.000000
    30 0.000000 -1.292971 0.000000 -0.811549 0.000000 0.000000
    31 0.000000 -0.752466 0.000000 -1.160644 0.000000 0.000000
    32 0.444214 -2.561961 -0.277654 -1.116425 -0.047988 -0.024479
    33 0.021022 -1.208186 0.000000 -0.733035 0.000000 0.000000
    34 0.010598 -0.741867 -0.000001 -0.846473 0.000000 0.000000
    35 1.047446 -2.222822 -0.277654 -0.854492 -0.053779 -0.039460
    36 0.000000 -0.996223 -0.000002 -0.584707 0.000000 0.000000
    37 -0.000001 -0.614690 0.000000 -0.916284 0.000000 0.000000
    38 -0.308253 -0.007814 0.307165 0.078469 -0.558446 -2.106404
    39 1.978378 0.019544 -0.000001 -0.000002 -0.000010 0.567231
    40 0.982426 0.003186 0.000000 0.000000 0.000000 0.593405
  time 5
    0 8.106566 1.021059 -7.526070 -0.739926 -1.339185 0.531833
    1 0.000001 -8.563286 0.000002 0.350349 -0.113655 -0.173784
    2 -0.369222 -3.628151 0.519134 -1.186399 1.434476 -1.173754
    3 0.000000 2.607914 0.629496 0.000000 0.000000 0.000000
    4 0.000000 -1.303957 1.019184 0.000000 0.000000 0.000000
    5 -0.000001 -2.795663 1.453836 0.101797 0.000000 0.000000
    6 -0.000001 -0.239809 2.158269 0.000000 0.000000 0.000000
    7 -0.003480 -0.404830 0.000001 0.000000 0.000000 0.000000
    8 -0.519308 -2.501153 -0.278957 -1.003564 0.000000 -0.122173
    9 -0.010598 -1.208185 0.000001 -1.221727 0.000000 0.000000
    10 0.000000 -0.763067 0.000000 -1.178108 0.000000 0.000000
    11 0.105981 -2.607133 -0.278957 -0.890118 0.000000 -0.148353
    12 0.000001 -1.250579 0.000000 -1.300264 0.000000 0.000000
    13 0.000000 -0.932634 0.000000 -1.274094 0.000000 0.000000
    14 0.763064 -2.490556 -0.278957 -0.321069 0.025479 0.214361
    15 -0.012322 -1.280917 0.000001 -1.039906 0.000000 0.000000
    16 -0.001697 -0.749371 0.000000 -0.690128 0.000000 0.000000
    17 0.354567 0.016268 0.318133 0.342077 -0.443527 -1.083976
    18 1.887165 0.012878 0.000000 -0.301502 -0.049640 -0.559682
    19 1.001874 -0.000270 0.000000 0.000000 0.000000 -0.759198
    20 -1.123358 -2.195092 -0.278957 -0.864264 0.002816 -0.081154
    21 0.010772 -0.963791 0.000001 -0.575966 0.000000 0.000000
    22 -0.010412 -0.631916 -0.000001 -1.431159 0.000000 0.000000
    23 -0.757348 -5.896426 -9.604103 -1.637643 1.243667 -0.965330
    24 0.089932 -8.543163 0.000002 0.048935 0.091716 0.188074
    25 0.000000 -0.359713 0.000000 0.000000 0.000000 0.000000
    26 -0.170479 -2.636148 -0.277654 -1.160687 0.000000 0.000000
    27 0.010599 -1.261177 0.000001 -0.881370 0.000000 0.000000
    28 -0.000001 -0.943233 0.000000 -0.916292 0.000000 0.000000
    29 -0.827562 -2.508974 -0.277655 -1.239206 0.000000 0.000000
    30 0.000000 -1.292971 0.000000 -0.811549 0.000000 0.000000
    31 0.000000 -0.752466 0.000000 -1.160644 0.000000 0.000000
    32 0.444214 -2.561961 -0.277654 -1.116425 -0.047988 -0.024479
    33 0.021022 -1.208186 0.000000 -0.733035 0.000000 0.000000
    34 0.010598 -0.741867 -0.000001 -0.846473 0.000000 0.000000
    35 1.047446 -2.222822 -0.277654 -0.854492 -0.053779 -0.039460
    36 0.000000 -0.996223 -0.000002 -0.584707 0.000000 0.000000
    37 -0.000001 -0.614690 0.000000 -0.916284 0.000000 0.000000
    38 -0.308253 -0.007814 0.307165 0.078469 -0.558446 -2.106404
    39 1.978378 0.019544 -0.000001 -0.000002 -0.000010 0.567231
    40 0.982426 0.003186 0.000000 0.000000 0.000000 0.593405
  time 6
    0 8.106566 1.091374 -7.502632 -0.740858 -1.338976 0.532858
    1 0.000001 -8.563286 0.000002 0.351248 -0.108453 -0.188872
    2 -0.369222 -3.628151 0.519134 -1.186399 1.434476 -1.173754
    3 0.000000 2.607914 0.629496 0.000000 0.000000 0.000000
    4 0.000000 -1.303957 1.019184 0.000000 0.000000 0.000000
    5 -0.000001 -2.807382 1.453836 0.087260 0.000000 0.000000
    6 -0.000001 -0.239809 2.158269 0.000000 0.000000 0.000000
    7 -0.003480 -0.404830 0.000001 0.000000 0.000000 0.000000
    8 -0.519308 -2.501153 -0.278957 -1.003564 0.000000 -0.122173
    9 -0.010598 -1.208185 0.000001 -1.221727 0.000000 0.000000
    10 0.000000 -0.763067 0.000000 -1.178108 0.000000 0.000000
    11 0.105981 -2.607133 -0.278957 -0.890118 0.000000 -0.148353
    12 0.000001 -1.250579 0.000000 -1.300264 0.000000 0.000000
    13 0.000000 -0.932634 0.000000 -1.274094 0.000000 0.000000
    14 0.763064 -2.490556 -0.278957 -0.317450 0.025479 0.214361
    15 -0.012322 -1.280917 0.000001 -1.003565 0.000000 0.000000
    16 -0.001697 -0.749371 0.000000 -0.676297 0.000000 0.000000
    17 0.354567 0.016268 0.318133 0.342077 -0.443527 -1.083976
    18 1.887165 0.012878 0.000000 -0.301502 -0.049640 -0.559682
    19 1.001874 -0.000270 0.000000 0.000000 0.000000 -0.759198
    20 -1.123358 -2.195092 -0.278957 -0.864264 0.002816 -0.081154
    21 0.010772 -0.963791 0.000001 -0.575966 0.000000 0.000000
    22 -0.010412 -0.631916 -0.000001 -1.431159 0.000000 0.000000
    23 -0.772973 -5.853456 -9.697856 -1.625257 1.239024 -0.955213
    24 0.089932 -8.543163 0.000002 0.039875 0.090230 0.198225
    25 0.000000 -0.359713 0.000000 0.000000 0.000000 0.000000
    26 -0.170479 -2.636148 -0.277654 -1.160687 0.000000 0.000000
    27 0.010599 -1.261177 0.000001 -0.881370 0.000000 0.000000
    28 -0.000001 -0.943233 0.000000 -0.916292 0.000000 0.000000
    29 -0.827562 -2.508974 -0.277655 -1.239206 0.000000 0.000000
    30 0.000000 -1.292971 0.000000 -0.811549 0.000000 0.000000
    31 0.000000 -0.752466 0.000000 -1.160644 0.000000 0.000000
    32 0.444214 -2.561961 -0.277654 -1.116425 -0.047988 -0.024479
    33 0.021022 -1.208186 0.000000 -0.733035 0.000000 0.000000
    34 0.010598 -0.741867 -0.000001 -0.846473 0.000000 0.000000
    35 1.047446 -2.222822 -0.277654 -0.854492 -0.053779 -0.039460
    36 0.000000 -0.996223 -0.000002 -0.584707 0.000000 0.000000
    37 -0.000001 -0.614690 0.000000 -0.916284 0.000000 0.000000
    38 -0.308253 -0.007814 0.307165 0.078469 -0.558446 -2.106404
    39 1.978378 0.019544 -0.000001 -0.000002 -0.000010 0.567231
    40 0.982426 0.003186 0.000000 0.000000 0.000000 0.593405
  time 7
    0 8.106566 1.146063 -7.487006 -0.744851 -1.338117 0.536901
    1 0.000001 -8.563286 0.000002 0.351571 -0.104067 -0.201852
    2 -0.369222 -3.628151 0.519134 -1.186399 1.434476 -1.173754
    3 0.000000 2.607914 0.629496 0.000000 0.000000 0.000000
    4 0.000000 -1.303957 1.019184 0.000000 0.000000 0.000000
    5 -0.000001 -2.819101 1.453836 0.072711 0.000000 0.000000
    6 -0.000001 -0.239809 2.158269 0.000000 0.000000 0.000000
    7 -0.003480 -0.404830 0.000001 0.000000 0.000000 0.000000
    8 -0.519308 -2.501153 -0.278957 -1.003564 0.000000 -0.122173
    9 -0.010598 -1.208185 0.000001 -1.221727 0.000000 0.000000
    10 0.000000 -0.763067 0.000000 -1.178108 0.000000 0.000000
    11 0.105981 -2.607133 -0.278957 -0.890118 0.000000 -0.148353
    12 0.000001 -1.250579 0.000000 -1.300264 0.000000 0.000000
    13 0.000000 -0.932634 0.000000 -1.274094 0.000000 0.000000
    14 0.763064 -2.490556 -0.278957 -0.313807 0.025479 0.214361
    15 -0.012322 -1.280917 0.000001 -0.967184 0.000000 0.000000
    16 -0.001697 -0.749371 0.000000 -0.662479 0.000000 0.000000
    17 0.354567 0.016268 0.318133 0.342077 -0.443527 -1.083976
    18 1.887165 0.012878 0.000000 -0.301502 -0.049640 -0.559682
    19 1.001874 -0.000270 0.000000 0.000000 0.000000 -0.759198
    20 -1.123358 -2.195092 -0.278957 -0.864264 0.002816 -0.081154
    21 0.010772 -0.963791 0.000001 -0.575966 0.000000 0.000000
    22 -0.010412 -0.631916 -0.000001 -1.431159 0.000000 0.000000
    23 -0.792505 -5.826111 -9.795515 -1.613061 1.234382 -0.945458
    24 0.089932 -8.543163 0.000002 0.035105 0.089473 0.211084
    25 0.000000 -0.359713 0.000000 0.000000 0.000000 0.000000
    26 -0.170479 -2.636148 -0.277654 -1.160687 0.000000 0.000000
    27 0.010599 -1.261177 0.000001 -0.881370 0.000000 0.000000
    28 -0.000001 -0.943233 0.000000 -0.916292 0.000000 0.000000
    29 -0.827562 -2.508974 -0.277655 -1.239206 0.000000 0.000000
    30 0.000000 -1.292971 0.000000 -0.811549 0.000000 0.000000
    31 0.000000 -0.752466 0.000000 -1.160644 0.000000 0.000000
    32 0.444214 -2.561961 -0.277654 -1.116425 -0.047988 -0.024479
    33 0.021022 -1.208186 0.000000 -0.733035 0.000000 0.000000
    34 0.010598 -0.741867 -0.000001 -0.846473 0.000000 0.000000
    35 1.047446 -2.222822 -0.277654 -0.854492 -0.053779 -0.039460
    36 0.000000 -0.996223 -0.000002 -0.584707 0.000000 0.000000
    37 -0.000001 -0.614690 0.000000 -0.916284 0.000000 0.000000
    38 -0.308253 -0.007814 0.307165 0.078469 -0.558446 -2.106404
    39 1.978378 0.019544 -0.000001 -0.000002 -0.000010 0.567231
    40 0.982426 0.003186 0.000000 0.000000 0.000000 0.593405
  time 8
    0 8.106566 1.185127 -7.471381 -0.750907 -1.336795 0.543108
    1 0.000001 -8.563286 0.000002 0.351679 -0.102018 -0.207988
    2 -0.369222 -3.628151 0.519134 -1.186399 1.434476 -1.173754
    3 0.000000 2.607914 0.629496 0.000000 0.000000 0.000000
    4 0.000000 -1.303957 1.019184 0.000000 0.000000 0.000000
    5 -0.000001 -2.834727 1.453836 0.058161 0.000000 0.000000
    6 -0.000001 -0.239809 2.158269 0.000000 0.000000 0.000000
    7 -0.003480 -0.404830 0.000001 0.000000 0.000000 0.000000
    8 -0.519308 -2.501153 -0.278957 -1.003564 0.000000 -0.122173
    9 -0.010598 -1.208185 0.000001 -1.221727 0.000000 0.000000
    10 0.000000 -0.763067 0.000000 -1.178108 0.000000 0.000000
    11 0.105981 -2.607133 -0.278957 -0.890118 0.000000 -0.148353
    12 0.000001 -1.250579 0.000000 -1.300264 0.000000 0.000000
    13 0.000000 -0.932634 0.000000 -1.274094 0.000000 0.000000
    14 0.763064 -2.490556 -0.278957 -0.310163 0.025479 0.214361
    15 -0.012322 -1.280917 0.000001 -0.930829 0.000000 0.000000
    16 -0.001697 -0.749371 0.000000 -0.648673 0.000000 0.000000
    17 0.354567 0.016268 0.318133 0.342077 -0.443527 -1.083976
    18 1.887165 0.012878 0.000000 -0.301502 -0.049640 -0.559682
    19 1.001874 -0.000270 0.000000 0.000000 0.000000 -0.759198
    20 -1.123358 -2.195092 -0.278957 -0.864264 0.002816 -0.081154
    21 0.010772 -0.963791 0.000001 -0.575966 0.000000 0.000000
    22 -0.010412 -0.631916 -0.000001 -1.431159 0.000000 0.000000
    23 -0.800318 -5.814392 -9.842391 -1.601247 1.229659 -0.936064
    24 0.089932 -8.543163 0.000002 0.033223 0.089178 0.225741
    25 0.000000 -0.359713 0.000000 0.000000 0.000000 0.000000
    26 -0.170479 -2.636148 -0.277654 -1.160687 0.000000 0.000000
    27 0.010599 -1.261177 0.000001 -0.881370 0.000000 0.000000
    28 -0.000001 -0.943233 0.000000 -0.916292 0.000000 0.000000
    29 -0.827562 -2.508974 -0.277655 -1.239206 0.000000 0.000000
    30 0.000000 -1.292971 0.000000 -0.811549 0.000000 0.000000
    31 0.000000 -0.752466 0.000000 -1.160644 0.000000 0.000000
    32 0.444214 -2.561961 -0.277654 -1.116425 -0.047988 -0.024479
    33 0.021022 -1.208186 0.000000 -0.733035 0.000000 0.000000
    34 0.010598 -0.741867 -0.000001 -0.846473 0.000000 0.000000
    35 1.047446 -2.222822 -0.277654 -0.854492 -0.053779 -0.039460
    36 0.000000 -0.996223 -0.000002 -0.584707 0.000000 0.000000
    37 -0.000001 -0.614690 0.000000 -0.916284 0.000000 0.000000
    38 -0.308253 -0.007814 0.307165 0.078469 -0.558446 -2.106404
    39 1.978378 0.019544 -0.000001 -0.000002 -0.000010 0.567231
    40 0.982426 0.003186 0.000000 0.000000 0.000000 0.593405
  time 9
    0 8.106566 1.204659 -7.463568 -0.757895 -1.335240 0.550340
    1 0.000001 -8.563286 0.000002 0.351284 -0.103432 -0.204117
    2 -0.369222 -3.628151 0.519134 -1.186399 1.434476 -1.173754
    3 0.000000 2.607914 0.629496 0.000000 0.000000 0.000000
    4 0.000000 -1.303957 1.019184 0.000000 0.000000 0.000000
    5 -0.000001 -2.846446 1.453836 0.043624 0.000000 0.000000
    6 -0.000001 -0.239809 2.158269 0.000000 0.000000 0.000000
    7 -0.003480 -0.404830 0.000001 0.000000 0.000000 0.000000
    8 -0.519308 -2.501153 -0.278957 -1.003564 0.000000 -0.122173
    9 -0.010598 -1.208185 0.000001 -1.221727 0.000000 0.000000
    10 0.000000 -0.763067 0.000000 -1.178108 0.000000 0.000000
    11 0.105981 -2.607133 -0.278957 -0.890118 0.000000 -0.148353
    12 0.000001 -1.250579 0.000000 -1.300264 0.000000 0.000000
    13 0.000000 -0.932634 0.000000 -1.274094 0.000000 0.000000
    14 0.763064 -2.490556 -0.278957 -0.306544 0.025479 0.214361
    15 -0.012322 -1.280917 0.000001 -0.894475 0.000000 0.000000
    16 -0.001697 -0.749371 0.000000 -0.634855 0.000000 0.000000
    17 0.354567 0.016268 0.318133 0.342077 -0.443527 -1.083976
    18 1.887165 0.012878 0.000000 -0.301502 -0.049640 -0.559682
    19 1.001874 -0.000270 0.000000 0.000000 0.000000 -0.759198
    20 -1.123358 -2.195092 -0.278957 -0.864264 0.002816 -0.081154
    21 0.010772 -0.963791 0.000001 -0.575966 0.000000 0.000000
    22 -0.010412 -0.631916 -0.000001 -1.431159 0.000000 0.000000
    23 -0.765160 -5.787047 -9.803328 -1.589718 1.224897 -0.926851
    24 0.089932 -8.543163 0.000002 0.032780 0.089094 0.241273
    25 0.000000 -0.359713 0.000000 0.000000 0.000000 0.000000
    26 -0.170479 -2.636148 -0.277654 -1.160687 0.000000 0.000000
    27 0.010599 -1.261177 0.000001 -0.881370 0.000000 0.000000
    28 -0.000001 -0.943233 0.000000 -0.916292 0.000000 0.000000
    29 -0.827562 -2.508974 -0.277655 -1.239206 0.000000 0.000000
    30 0.000000 -1.292971 0.000000 -0.811549 0.000000 0.000000
    31 0.000000 -0.752466 0.000000 -1.160644 0.000000 0.000000
    32 0.444214 -2.561961 -0.277654 -1.116425 -0.047988 -0.024479
    33 0.021022 -1.208186 0.000000 -0.733035 0.000000 0.000000
    34 0.010598 -0.741867 -0.000001 -0.846473 0.000000 0.000000
    35 1.047446 -2.222822 -0.277654 -0.854492 -0.053779 -0.039460
    36 0.000000 -0.996223 -0.000002 -0.584707 0.000000 0.000000
    37 -0.000001 -0.614690 0.000000 -0.916284 0.000000 0.000000
    38 -0.308253 -0.007814 0.307165 0.078469 -0.558446 -2.106404
    39 1.978378 0.019544 -0.000001 -0.000002 -0.000010 0.567231
    40 0.982426 0.003186 0.000000 0.000000 0.000000 0.593405
  time 10
    0 8.106566 1.208565 -7.451849 -0.764750 -1.333639 0.557402
    1 0.000001 -8.563286 0.000002 0.350121 -0.107459 -0.193055
    2 -0.369222 -3.628151 0.519134 -1.186399 1.434476 -1.173754
    3 0.000000 2.607914 0.629496 0.000000 0.000000 0.000000
    4 0.000000 -1.303957 1.019184 0.000000 0.000000 0.000000
    5 -0.000001 -2.858165 1.453836 0.029087 0.000000 0.000000
    6 -0.000001 -0.239809 2.158269 0.000000 0.000000 0.000000
    7 -0.003480 -0.404830 0.000001 0.000000 0.000000 0.000000
    8 -0.519308 -2.501153 -0.278957 -1.003564 0.000000 -0.122173
    9 -0.010598 -1.208185 0.000001 -1.221727 0.000000 0.000000
    10 0.000000 -0.763067 0.000000 -1.178108 0.000000 0.000000
    11 0.105981 -2.607133 -0.278957 -0.890118 0.000000 -0.148353
    12 0.000001 -1.250579 0.000000 -1.300264 0.000000 0.000000
    13 0.000000 -0.932634 0.000000 -1.274094 0.000000 0.000000
    14 0.763064 -2.490556 -0.278957 -0.302889 0.025479 0.214361
    15 -0.012322 -1.280917 0.000001 -0.858094 0.000000 0.000000
    16 -0.001697 -0.749371 0.000000 -0.621024 0.000000 0.000000
    17 0.354567 0.016268 0.318133 0.342077 -0.443527 -1.083976
    18 1.887165 0.012878 0.000000 -0.301502 -0.049640 -0.559682
    19 1.001874 -0.000270 0.000000 0.000000 0.000000 -0.759198
    20 -1.123358 -2.195092 -0.278957 -0.864264 0.002816 -0.081154
    21 0.010772 -0.963791 0.000001 -0.575966 0.000000 0.000000
    22 -0.010412 -0.631916 -0.000001 -1.431159 0.000000 0.000000
    23 -0.690939 -5.716733 -9.713481 -1.578475 1.220174 -0.918090
    24 0.089932 -8.543163 0.000002 0.032324 0.089038 0.256829
    25 0.000000 -0.359713 0.000000 0.000000 0.000000 0.000000
    26 -0.170479 -2.636148 -0.277654 -1.160687 0.000000 0.000000
    27 0.010599 -1.261177 0.000001 -0.881370 0.000000 0.000000
    28 -0.000001 -0.943233 0.000000 -0.916292 0.000000 0.000000
    29 -0.827562 -2.508974 -0.277655 -1.239206 0.000000 0.000000
    30 0.000000 -1.292971 0.000000 -0.811549 0.000000 0.000000
    31 0.000000 -0.752466 0.000000 -1.160644 0.000000 0.000000
    32 0.444214 -2.561961 -0.277654 -1.116425 -0.047988 -0.024479
    33 0.021022 -1.208186 0.000000 -0.733035 0.000000 0.000000
    34 0.010598 -0.741867 -0.000001 -0.846473 0.000000 0.000000
    35 1.047446 -2.222822 -0.277654 -0.854492 -0.053779 -0.039460
    36 0.000000 -0.996223 -0.000002 -0.584707 0.000000 0.000000
    37 -0.000001 -0.614690 0.000000 -0.916284 0.000000 0.000000
    38 -0.308253 -0.007814 0.307165 0.078469 -0.558446 -2.106404
    39 1.978378 0.019544 -0.000001 -0.000002 -0.000010 0.567231
    40 0.982426 0.003186 0.000000 0.000000 0.000000 0.593405
  time 11
    0 8.106566 1.196846 -7.444036 -0.770540 -1.332293 0.563381
    1 0.000001 -8.563286 0.000002 0.348587 -0.112492 -0.179105
    2 -0.369222 -3.628151 0.519134 -1.186399 1.434476 -1.173754
    3 0.000000 2.607914 0.629496 0.000000 0.000000 0.000000
    4 0.000000 -1.303957 1.019184 0.000000 0.000000 0.000000
    5 -0.000001 -2.869884 1.453836 0.014525 0.000000 0.000000
    6 -0.000001 -0.239809 2.158269 0.000000 0.000000 0.000000
    7 -0.003480 -0.404830 0.000001 0.000000 0.000000 0.000000
    8 -0.519308 -2.501153 -0.278957 -1.003564 0.000000 -0.122173
    9 -0.010598 -1.208185 0.000001 -1.221727 0.000000 0.000000
    10 0.000000 -0.763067 0.000000 -1.178108 0.000000 0.000000
    11 0.105981 -2.607133 -0.278957 -0.890118 0.000000 -0.148353
    12 0.000001 -1.250579 0.000000 -1.300264 0.000000 0.000000
    13 0.000000 -0.932634 0.000000 -1.274094 0.000000 0.000000
    14 0.763064 -2.490556 -0.278957 -0.299257 0.025479 0.214361
    15 -0.012322 -1.280917 0.000001 -0.821740 0.000000 0.000000
    16 -0.001697 -0.749371 0.000000 -0.607206 0.000000 0.000000
    17 0.354567 0.016268 0.318133 0.342077 -0.443527 -1.083976
    18 1.887165 0.012878 0.000000 -0.301502 -0.049640 -0.559682
    19 1.001874 -0.000270 0.000000 0.000000 0.000000 -0.759198
    20 -1.123358 -2.195092 -0.278957 -0.864264 0.002816 -0.081154
    21 0.010772 -0.963791 0.000001 -0.575966 0.000000 0.000000
    22 -0.010412 -0.631916 -0.000001 -1.431159 0.000000 0.000000
    23 -0.612812 -5.650325 -9.627541 -1.567423 1.215332 -0.909328
    24 0.089932 -8.543163 0.000002 0.030443 0.088800 0.271487
    25 0.000000 -0.359713 0.000000 0.000000 0.000000 0.000000
    26 -0.170479 -2.636148 -0.277654 -1.160687 0.000000 0.000000
    27 0.010599 -1.261177 0.000001 -0.881370 0.000000 0.000000
    28 -0.000001 -0.943233 0.000000 -0.916292 0.000000 0.000000
    29 -0.827562 -2.508974 -0.277655 -1.239206 0.000000 0.000000
    30 0.000000 -1.292971 0.000000 -0.811549 0.000000 0.000000
    31 0.000000 -0.752466 0.000000 -1.160644 0.000000 0.000000
    32 0.444214 -2.561961 -0.277654 -1.116425 -0.047988 -0.024479
    33 0.021022 -1.208186 0.000000 -0.733035 0.000000 0.000000
    34 0.010598 -0.741867 -0.000001 -0.846473 0.000000 0.000000
    35 1.047446 -2.222822 -0.277654 -0.854492 -0.053779 -0.039460
    36 0.000000 -0.996223 -0.000002 -0.584707 0.000000 0.000000
    37 -0.000001 -0.614690 0.000000 -0.916284 0.000000 0.000000
    38 -0.308253 -0.007814 0.307165 0.078469 -0.558446 -2.106404
    39 1.978378 0.019544 -0.000001 -0.000002 -0.000010 0.567231
    40 0.982426 0.003186 0.000000 0.000000 0.000000 0.593405
  time 12
    0 8.106566 1.165595 -7.444036 -0.774334 -1.331388 0.567253
    1 0.000001 -8.563286 0.000002 0.347149 -0.117022 -0.166593
    2 -0.369222 -3.628151 0.519134 -1.186399 1.434476 -1.173754
    3 0.000000 2.607914 0.629496 0.000000 0.000000 0.000000
    4 0.000000 -1.303957 1.019184 0.000000 0.000000 0.000000
    5 -0.000001 -2.877697 1.453836 0.000000 0.000000 0.000000
    6 -0.000001 -0.239809 2.158269 0.000000 0.000000 0.000000
    7 -0.003480 -0.404830 0.000001 0.000000 0.000000 0.000000
    8 -0.519308 -2.501153 -0.278957 -1.003564 0.000000 -0.122173
    9 -0.010598 -1.208185 0.000001 -1.221727 0.000000 0.000000
    10 0.000000 -0.763067 0.000000 -1.178108 0.000000 0.000000
    11 0.105981 -2.607133 -0.278957 -0.890118 0.000000 -0.148353
    12 0.000001 -1.250579 0.000000 -1.300264 0.000000 0.000000
    13 0.000000 -0.932634 0.000000 -1.274094 0.000000 0.000000
    14 0.763064 -2.490556 -0.278957 -0.295638 0.025479 0.214361
    15 -0.012322 -1.280917 0.000001 -0.785385 0.000000 0.000000
    16 -0.001697 -0.749371 0.000000 -0.593412 0.000000 0.000000
    17 0.354567 0.016268 0.318133 0.342077 -0.443527 -1.083976
    18 1.887165 0.012878 0.000000 -0.301502 -0.049640 -0.559682
    19 1.001874 -0.000270 0.000000 0.000000 0.000000 -0.759198
    20 -1.123358 -2.195092 -0.278957 -0.864264 0.002816 -0.081154
    21 0.010772 -0.963791 0.000001 -0.575966 0.000000 0.000000
    22 -0.010412 -0.631916 -0.000001 -1.431159 0.000000 0.000000
    23 -0.577655 -5.619074 -9.588477 -1.556752 1.210529 -0.901018
    24 0.089932 -8.543163 0.000002 0.025661 0.088295 0.284334
    25 0.000000 -0.359713 0.000000 0.000000 0.000000 0.000000
    26 -0.170479 -2.636148 -0.277654 -1.160687 0.000000 0.000000
    27 0.010599 -1.261177 0.000001 -0.881370 0.000000 0.000000
    28 -0.000001 -0.943233 0.000000 -0.916292 0.000000 0.000000
    29 -0.827562 -2.508974 -0.277655 -1.239206 0.000000 0.000000
    30 0.000000 -1.292971 0.000000 -0.811549 0.000000 0.000000
    31 0.000000 -0.752466 0.000000 -1.160644 0.000000 0.000000
    32 0.444214 -2.561961 -0.277654 -1.116425 -0.047988 -0.024479
    33 0.021022 -1.208186 0.000000 -0.733035 0.000000 0.000000
    34 0.010598 -0.741867 -0.000001 -0.846473 0.000000 0.000000
    35 1.047446 -2.222822 -0.277654 -0.854492 -0.053779 -0.039460
    36 0.000000 -0.996223 -0.000002 -0.584707 0.000000 0.000000
    37 -0.000001 -0.614690 0.000000 -0.916284 0.000000 0.000000
    38 -0.308253 -0.007814 0.307165 0.078469 -0.558446 -2.106404
    39 1.978378 0.019544 -0.000001 -0.000002 -0.000010 0.567231
    40 0.982426 0.003186 0.000000 0.000000 0.000000 0.593405
end
