// Created by Crowbar 0.49.0.0

$modelname "weapons/tfa_cso/c_m3.mdl"

$bodygroup "weapon"
{
	studio "v_m3_f_m3_template"
}
$bodygroup "hands"
{
	studio "v_m3_f_m3_Male_hand_Low"
}

$CDMaterials "models\weapons\tfa_cso\m3\"

$attachment 0 "Bone48" 0 -13.5 0
//$attachment 1 "Bone48" 0 -3.5 0

$definebone "Bone01" "" 5.190068 -1.510915 -14.315339 -22.541306 33.779934 -82.322236 0.000000 0.000001 0.000000 -0.000002 0.000000 -0.000002
$definebone "Bone_Lefthand" "Bone01" -0.000001 -8.563283 0.000000 32.777259 -8.555289 21.297304 0.000000 0.000000 0.000000 -0.000000 0.000000 0.000001
$definebone "Bone02" "Bone_Lefthand" -0.293234 -3.282020 0.672796 82.368865 -70.694071 -71.449954 -0.000000 -0.000000 0.000000 0.000002 0.000001 0.000000
$definebone "Bone03" "Bone02" -0.000002 2.163130 0.753818 0.000002 0.000001 0.000000 0.000000 0.000000 0.000000 0.000002 0.000001 0.000000
$definebone "Bone48" "Bone03" 0.000000 -5.102122 2.443444 0.000002 0.000001 0.000000 0.000000 0.000000 0.000000 0.000002 0.000001 0.000000
$definebone "Bone50" "Bone03" 0.000000 -4.967292 1.445704 0.000002 0.000001 0.000000 0.000000 0.000000 0.000000 0.000002 0.000001 0.000000
$definebone "Bone52" "Bone03" 0.000002 -10.293060 1.701879 0.000002 0.000001 0.000000 0.000000 0.000000 0.000000 0.000002 0.000001 0.000000
$definebone "Bone25" "Bone03" 0.000002 -3.052706 1.526597 0.000002 0.000001 0.000000 0.000000 0.000000 0.000000 0.000002 0.000001 0.000000
$definebone "Bone54" "Bone03" 0.004669 5.953094 -2.702796 0.000002 0.000001 0.000000 0.000000 0.000000 0.000000 0.000002 0.000001 0.000000
$definebone "Bone 04" "Bone_Lefthand" -0.003480 -0.404829 0.000001 -0.000000 0.000000 0.000001 0.000000 0.000000 0.000001 -0.000000 0.000000 0.000001
$definebone "Bone13" "Bone 04" -0.519310 -2.501155 -0.278956 -0.000001 -6.999996 -78.799682 -0.000000 0.000001 0.000000 -0.000002 0.000000 0.000001
$definebone "Bone14" "Bone13" -0.010598 -1.208184 -0.000000 -0.000002 0.000000 -52.000218 0.000000 0.000000 0.000000 -0.000000 -0.000002 -0.000002
$definebone "Bone15" "Bone14" 0.000000 -0.763067 -0.000000 -0.000000 -0.000002 -65.600641 -0.000000 0.000000 0.000000 0.000001 0.000000 -0.000001
$definebone "Bone17" "Bone 04" 0.105980 -2.607134 -0.278956 -0.000001 -8.499999 -49.800402 0.000000 0.000000 0.000000 -0.000002 0.000000 0.000001
$definebone "Bone18" "Bone17" -0.000001 -1.250579 0.000000 -0.000002 0.000000 -79.399693 -0.000000 0.000000 0.000000 0.000002 -0.000001 -0.000002
$definebone "Bone19" "Bone18" -0.000000 -0.932634 0.000000 0.000002 -0.000001 -51.701018 0.000000 -0.000000 0.000000 0.000002 0.000002 0.000002
$definebone "Bone21" "Bone 04" 0.763064 -2.490556 -0.278956 4.479096 19.929362 -19.511737 0.000000 0.000000 0.000000 -0.000001 -0.000004 0.000003
$definebone "Bone22" "Bone21" -0.012322 -1.280917 0.000000 -0.000001 -0.000004 -31.699571 0.000000 0.000000 0.000000 0.000001 -0.000003 0.000001
$definebone "Bone23" "Bone22" -0.001697 -0.749371 -0.000001 0.000001 -0.000003 -33.999999 0.000000 0.000000 0.000000 0.000003 -0.000002 0.000002
$definebone "Bone05" "Bone 04" 0.354567 0.016267 0.318132 -23.272572 -68.260474 22.138177 0.000000 0.000000 0.000000 0.000004 0.000000 -0.000007
$definebone "Bone06" "Bone05" 1.887164 0.012878 0.000000 1.531289 -18.134977 -17.435455 0.000000 -0.000000 -0.000000 0.000003 -0.000004 0.000000
$definebone "Bone07" "Bone06" 1.001874 -0.000270 0.000000 -0.000000 -50.800045 -0.000004 0.000000 -0.000000 0.000000 -0.000000 -0.000005 -0.000004
$definebone "Bone09" "Bone 04" -1.123360 -2.195093 -0.278956 -0.000001 -4.999973 -69.099686 0.000000 0.000000 0.000000 -0.000000 0.000002 0.000003
$definebone "Bone10" "Bone09" 0.010772 -0.963791 0.000000 -0.000000 0.000002 -44.599606 -0.000000 0.000000 0.000000 0.000002 0.000001 0.000002
$definebone "Bone11" "Bone10" -0.010412 -0.631916 -0.000001 0.000002 0.000001 -57.500495 0.000000 0.000000 -0.000000 -0.000000 0.000000 -0.000006
$definebone "Bone04" "" -11.494730 12.977448 -17.506691 -13.758536 -143.078203 -137.193463 0.000000 0.000000 0.000000 -0.000001 0.000000 -0.000004
$definebone "Bone_Righthand" "Bone04" 0.089930 -8.543160 0.000001 9.603004 37.804906 33.711687 0.000000 0.000000 0.000000 -0.000000 -0.000002 0.000000
$definebone "Bone26" "Bone_Righthand" -0.000000 -0.359711 0.000001 -0.000000 -0.000002 0.000000 0.000000 0.000001 0.000000 -0.000000 -0.000002 0.000000
$definebone "Bone35" "Bone26" -0.170480 -2.636147 -0.277655 -0.000000 -0.000002 -55.289282 0.000000 0.000000 0.000000 0.000001 -0.000001 -0.000006
$definebone "Bone36" "Bone35" 0.010599 -1.261177 0.000002 0.000001 -0.000001 -10.438380 0.000000 0.000000 0.000000 0.000001 -0.000001 -0.000004
$definebone "Bone37" "Bone36" -0.000001 -0.943233 -0.000000 0.000001 -0.000001 -35.317010 0.000000 -0.000000 0.000000 0.000002 -0.000000 0.000002
$definebone "Bone31" "Bone26" -0.827563 -2.508974 -0.277656 -1.978997 -2.575677 -42.969424 0.000000 0.000001 0.000000 0.000001 -0.000002 -0.000005
$definebone "Bone32" "Bone31" 0.000000 -1.292972 0.000001 0.000001 -0.000002 -17.509426 0.000000 -0.000001 0.000000 0.000002 -0.000002 -0.000002
$definebone "Bone33" "Bone32" 0.000000 -0.752466 0.000000 0.000002 -0.000002 -20.399994 -0.000000 0.000000 0.000000 0.000002 -0.000001 0.000002
$definebone "Bone39" "Bone26" 0.444213 -2.561959 -0.277655 -2.648556 -1.409421 -52.380376 0.000000 0.000000 0.000000 0.000001 -0.000002 -0.000001
$definebone "Bone40" "Bone39" 0.021022 -1.208185 -0.000001 0.000001 -0.000002 -13.700110 0.000000 -0.000001 0.000000 0.000001 -0.000002 -0.000001
$definebone "Bone41" "Bone40" 0.010597 -0.741867 -0.000000 0.000001 -0.000002 -36.882329 0.000000 -0.000000 -0.000001 0.000002 -0.000001 -0.000001
$definebone "Bone43" "Bone26" 1.047445 -2.222821 -0.277655 -4.524706 -2.212135 -52.652133 0.000000 0.000000 0.000000 0.000001 -0.000003 -0.000005
$definebone "Bone44" "Bone43" 0.000000 -0.996222 0.000001 0.000001 -0.000003 -49.500004 0.000000 0.000000 0.000000 0.000003 -0.000001 -0.000001
$definebone "Bone45" "Bone44" -0.000000 -0.614690 0.000000 0.000003 -0.000001 -30.000018 -0.000000 -0.000000 0.000000 0.000003 0.000001 0.000007
$definebone "Bone27" "Bone26" -0.308254 -0.007814 0.307167 -9.063505 -134.035566 9.991524 0.000000 -0.000000 -0.000000 -0.000001 0.000005 0.000003
$definebone "Bone28" "Bone27" 1.978379 0.019544 -0.000001 -1.943875 11.319189 -5.389066 0.000000 0.000000 -0.000000 -0.000001 0.000005 0.000001
$definebone "Bone29" "Bone28" 0.982426 0.003186 0.000000 -0.000002 -8.049423 0.000002 0.000000 0.000000 0.000000 -0.000002 0.000003 0.000002

$sequence "idle" {
	"v_m3_anims\idle"
	fps 12
	snap
	activity "ACT_VM_IDLE" 1
	loop
}
$sequence "shoot1" {
	"v_m3_anims\shoot1"
	{ event 5001 0 "21" }
	fps 32
	activity "ACT_VM_PRIMARYATTACK" 1
	snap
}
$sequence "shoot2" {
	"v_m3_anims\shoot2"
	{ event 5001 0 "21" }
	fps 37
	activity "ACT_VM_PRIMARYATTACK" 2
	snap
}
$sequence "insert" {
	"v_m3_anims\insert"
	{ event 5004 0 "M3.Insert" }
	fps 65
	activity "ACT_VM_RELOAD" 1
	snap
}
$sequence "after_reload" {
	"v_m3_anims\after_reload"
	{ event 5004 0 "M3.Pump" }
	fps 38
	activity "ACT_SHOTGUN_RELOAD_FINISH" 1
	snap
}
$sequence "start_reload" {
	"v_m3_anims\start_reload"
	fps 30
	activity "ACT_SHOTGUN_RELOAD_START" 1
	snap
}
$sequence "draw" {
	"v_m3_anims\draw"
	{ event 5004 11 "M3.Pump" }
	fps 30
	activity "ACT_VM_DRAW" 1
	snap
}
