version 1
nodes
  0 "Bone01" -1
  1 "Bone_Lefthand" 0
  2 "Bone02" 1
  3 "Bone03" 2
  4 "Bone25" 3
  5 "Bone52" 3
  6 "Bone50" 3
  7 "Bone48" 3
  8 "Bone54" 3
  9 "Bone 04" 1
  10 "Bone13" 9
  11 "Bone14" 10
  12 "Bone15" 11
  13 "Bone17" 9
  14 "Bone18" 13
  15 "Bone19" 14
  16 "Bone21" 9
  17 "Bone22" 16
  18 "Bone23" 17
  19 "Bone05" 9
  20 "Bone06" 19
  21 "Bone07" 20
  22 "Bone09" 9
  23 "Bone10" 22
  24 "Bone11" 23
  25 "Bone04" -1
  26 "Bone_Righthand" 25
  27 "Bone26" 26
  28 "Bone35" 27
  29 "Bone36" 28
  30 "Bone37" 29
  31 "Bone31" 27
  32 "Bone32" 31
  33 "Bone33" 32
  34 "Bone39" 27
  35 "Bone40" 34
  36 "Bone41" 35
  37 "Bone43" 27
  38 "Bone44" 37
  39 "Bone45" 38
  40 "Bone27" 27
  41 "Bone28" 40
  42 "Bone29" 41
end
skeleton
  time 0
    0 5.190068 -1.510915 -14.315339 -1.436794 -0.393420 0.589571
    1 -0.000001 -8.563283 0.000000 0.371708 0.572071 -0.149318
    2 -0.293234 -3.282020 0.672796 -1.247037 1.437608 -1.233844
    3 -0.000002 2.163130 0.753818 0.000000 0.000000 0.000000
    4 0.000002 -3.052707 1.526597 0.000000 0.000000 0.000000
    5 0.000003 -10.293062 1.701879 0.000000 0.000000 0.000000
    6 0.000000 -4.967293 1.445704 0.000000 0.000000 0.000000
    7 0.000000 -5.102123 2.443444 0.000000 0.000000 0.000000
    8 0.004669 5.953095 -2.702796 0.000000 0.000000 0.000000
    9 -0.003480 -0.404829 0.000000 0.000000 0.000000 0.000000
    10 -0.519310 -2.501155 -0.278957 -1.375314 0.000000 -0.122173
    11 -0.010598 -1.208185 0.000000 -0.907575 0.000000 0.000000
    12 0.000000 -0.763066 0.000000 -1.144947 0.000000 0.000000
    13 0.105980 -2.607134 -0.278957 -0.869181 0.000000 -0.148353
    14 -0.000001 -1.250579 0.000000 -1.385786 0.000000 0.000000
    15 0.000000 -0.932634 0.000000 -0.902353 0.000000 0.000000
    16 0.763064 -2.490556 -0.278957 -0.340544 0.078175 0.347833
    17 -0.012322 -1.280917 0.000000 -0.553262 0.000000 0.000000
    18 -0.001697 -0.749371 0.000000 -0.593412 0.000000 0.000000
    19 0.354567 0.016267 0.318132 0.386384 -0.406183 -1.191370
    20 1.887164 0.012878 0.000000 -0.304306 0.026726 -0.316515
    21 1.001874 -0.000270 0.000000 0.000000 0.000000 -0.886628
    22 -1.123360 -2.195093 -0.278957 -1.206017 0.000000 -0.087266
    23 0.010772 -0.963791 0.000000 -0.778410 0.000000 0.000000
    24 -0.010412 -0.631916 -0.000001 -1.003573 0.000000 0.000000
    25 -11.494730 12.977448 -17.506691 0.747115 -2.901461 0.644407
    26 0.089929 -8.543160 0.000000 0.588380 0.167604 0.659820
    27 0.000000 -0.359712 0.000000 0.000000 0.000000 0.000000
    28 -0.170480 -2.636147 -0.277655 -0.964980 0.000000 0.000000
    29 0.010599 -1.261177 0.000001 -0.182184 0.000000 0.000000
    30 -0.000001 -0.943233 -0.000001 -0.616398 0.000000 0.000000
    31 -0.827563 -2.508973 -0.277656 -0.749958 -0.034540 -0.044954
    32 0.000000 -1.292972 0.000001 -0.305597 0.000000 0.000000
    33 0.000000 -0.752466 0.000000 -0.356047 0.000000 0.000000
    34 0.444213 -2.561959 -0.277655 -0.914210 -0.046226 -0.024599
    35 0.021022 -1.208185 -0.000001 -0.239112 0.000000 0.000000
    36 0.010597 -0.741867 -0.000001 -0.643718 0.000000 0.000000
    37 1.047445 -2.222821 -0.277655 -0.918953 -0.078971 -0.038609
    38 0.000000 -0.996222 0.000000 -0.863938 0.000000 0.000000
    39 -0.000001 -0.614690 0.000000 -0.523599 0.000000 0.000000
    40 -0.308254 -0.007814 0.307166 0.174385 -0.158188 -2.339362
    41 1.978379 0.019544 0.000000 -0.094057 -0.033927 0.197557
    42 0.982426 0.003186 0.000000 0.000000 0.000000 -0.140489
end
triangles
CSO_M3.BMP
  2 4.846362 -6.028463 -1.978439 0.155999 0.781494 0.604095 0.650980 0.900398
  2 5.187275 -6.234094 -1.992382 0.789388 0.417794 0.449793 0.650980 0.928287
  2 5.062701 -5.113995 -3.613018 0.792822 0.448812 0.412311 0.521569 0.888446
CSO_M3.BMP
  2 5.062701 -5.113995 -3.613018 0.792822 0.448812 0.412311 0.521569 0.888446
  2 5.187275 -6.234094 -1.992382 0.789388 0.417794 0.449793 0.650980 0.928287
  2 5.287310 -6.561911 -2.235342 0.996483 -0.045299 0.070499 0.647059 0.972112
CSO_M3.BMP
  2 5.187275 -6.234094 -1.992382 0.789388 0.417794 0.449793 0.650980 0.928287
  2 4.294985 -7.944785 0.064474 0.853199 0.165900 0.494499 0.843137 0.924303
  2 5.287310 -6.561911 -2.235342 0.996483 -0.045299 0.070499 0.647059 0.972112
CSO_M3.BMP
  2 5.287310 -6.561911 -2.235342 0.996483 -0.045299 0.070499 0.647059 0.972112
  2 4.294985 -7.944785 0.064474 0.853199 0.165900 0.494499 0.843137 0.924303
  2 3.775057 -9.566742 1.382362 0.923410 -0.002700 0.383804 0.992157 0.972112
CSO_M3.BMP
  2 4.294985 -7.944785 0.064474 0.853199 0.165900 0.494499 0.843137 0.924303
  2 3.838957 -8.852913 1.181453 0.853199 0.165900 0.494499 0.952941 0.920319
  2 3.775057 -9.566742 1.382362 0.923410 -0.002700 0.383804 0.992157 0.972112
CSO_M3.BMP
  2 3.775057 -9.566742 1.382362 0.923410 -0.002700 0.383804 0.992157 0.972112
  2 3.838957 -8.852913 1.181453 0.853199 0.165900 0.494499 0.952941 0.920319
  2 3.675779 -9.224909 1.623597 0.740168 0.360884 0.567375 0.992157 0.920319
CSO_M3.BMP
  2 3.838957 -8.852913 1.181453 0.853199 0.165900 0.494499 0.952941 0.920319
  2 3.399899 -8.823185 1.404263 0.120403 0.736518 0.665616 0.968627 0.896414
  2 3.675779 -9.224909 1.623597 0.740168 0.360884 0.567375 0.992157 0.920319
CSO_M3.BMP
  2 3.675779 -9.224909 1.623597 0.740168 0.360884 0.567375 0.992157 0.920319
  2 3.399899 -8.823185 1.404263 0.120403 0.736518 0.665616 0.968627 0.896414
  2 3.322567 -9.025318 1.641037 0.091298 0.755386 0.648888 0.992157 0.900398
CSO_M3.BMP
  2 3.399899 -8.823185 1.404263 0.120403 0.736518 0.665616 0.968627 0.896414
  2 2.903563 -8.829698 1.191405 -0.230893 0.794976 0.560983 0.968627 0.860558
  2 3.322567 -9.025318 1.641037 0.091298 0.755386 0.648888 0.992157 0.900398
CSO_M3.BMP
  2 3.322567 -9.025318 1.641037 0.091298 0.755386 0.648888 0.992157 0.900398
  2 2.903563 -8.829698 1.191405 -0.230893 0.794976 0.560983 0.968627 0.860558
  2 2.055178 -9.013723 1.120853 -0.553385 0.740580 0.381190 0.992157 0.804781
CSO_M3.BMP
  2 2.903563 -8.829698 1.191405 -0.230893 0.794976 0.560983 0.968627 0.860558
  2 3.857856 -6.947207 -1.065552 -0.230893 0.794976 0.560983 0.756863 0.860558
  2 2.055178 -9.013723 1.120853 -0.553385 0.740580 0.381190 0.992157 0.804781
CSO_M3.BMP
  2 2.055178 -9.013723 1.120853 -0.553385 0.740580 0.381190 0.992157 0.804781
  2 3.857856 -6.947207 -1.065552 -0.230893 0.794976 0.560983 0.756863 0.860558
  2 3.835717 -5.503067 -3.138851 -0.315300 0.740101 0.594000 0.588235 0.800797
CSO_M3.BMP
  2 3.857856 -6.947207 -1.065552 -0.230893 0.794976 0.560983 0.756863 0.860558
  2 4.846362 -6.028463 -1.978439 0.155999 0.781494 0.604095 0.650980 0.900398
  2 3.835717 -5.503067 -3.138851 -0.315300 0.740101 0.594000 0.588235 0.800797
CSO_M3.BMP
  2 3.835717 -5.503067 -3.138851 -0.315300 0.740101 0.594000 0.588235 0.800797
  2 4.846362 -6.028463 -1.978439 0.155999 0.781494 0.604095 0.650980 0.900398
  2 4.755659 -4.914537 -3.576389 0.199498 0.770991 0.604793 0.525490 0.848606
CSO_M3.BMP
  2 4.846362 -6.028463 -1.978439 0.155999 0.781494 0.604095 0.650980 0.900398
  2 5.062701 -5.113995 -3.613018 0.792822 0.448812 0.412311 0.521569 0.888446
  2 4.755659 -4.914537 -3.576389 0.199498 0.770991 0.604793 0.525490 0.848606
CSO_M3.BMP
  2 4.755659 -4.914537 -3.576389 0.199498 0.770991 0.604793 0.525490 0.848606
  2 5.062701 -5.113995 -3.613018 0.792822 0.448812 0.412311 0.521569 0.888446
  2 6.657159 -0.322810 -9.318203 0.947846 0.056303 0.313715 0.000000 0.816733
CSO_M3.BMP
  2 5.062701 -5.113995 -3.613018 0.792822 0.448812 0.412311 0.521569 0.888446
  2 6.856511 -1.106001 -9.855391 0.972090 -0.064399 0.225598 0.000000 0.896414
  2 6.657159 -0.322810 -9.318203 0.947846 0.056303 0.313715 0.000000 0.816733
CSO_M3.BMP
  2 1.389962 -12.745268 5.118710 -0.943281 0.001000 -0.331993 0.466667 0.302789
  2 1.344543 -12.572259 5.229188 -0.954392 0.283898 -0.092399 0.466667 0.322709
  2 2.143778 -11.115948 2.977571 -0.923410 0.002700 -0.383804 0.231373 0.286853
CSO_M3.BMP
  2 2.143778 -11.115948 2.977571 -0.923410 0.002700 -0.383804 0.231373 0.286853
  2 1.344543 -12.572259 5.229188 -0.954392 0.283898 -0.092399 0.466667 0.322709
  2 2.066036 -10.831645 3.166590 -0.938913 0.319304 -0.128402 0.231373 0.310757
CSO_M3.BMP
  2 1.344543 -12.572259 5.229188 -0.954392 0.283898 -0.092399 0.466667 0.322709
  2 1.461517 -12.451585 5.391529 -0.569972 0.707466 0.417880 0.466667 0.334661
  2 2.066036 -10.831645 3.166590 -0.938913 0.319304 -0.128402 0.231373 0.310757
CSO_M3.BMP
  2 2.066036 -10.831645 3.166590 -0.938913 0.319304 -0.128402 0.231373 0.310757
  2 1.461517 -12.451585 5.391529 -0.569972 0.707466 0.417880 0.466667 0.334661
  2 2.231488 -10.655510 3.395067 -0.553385 0.740580 0.381190 0.231373 0.330677
CSO_M3.BMP
  2 1.461517 -12.451585 5.391529 -0.569972 0.707466 0.417880 0.466667 0.334661
  2 1.673903 -12.452197 5.479801 0.112501 0.707103 0.698103 0.466667 0.354582
  2 2.231488 -10.655510 3.395067 -0.553385 0.740580 0.381190 0.231373 0.330677
CSO_M3.BMP
  2 2.231488 -10.655510 3.395067 -0.553385 0.740580 0.381190 0.231373 0.330677
  2 1.673903 -12.452197 5.479801 0.112501 0.707103 0.698103 0.466667 0.354582
  2 2.527738 -10.642345 3.516156 0.120403 0.736518 0.665616 0.231373 0.354582
CSO_M3.BMP
  2 1.673903 -12.452197 5.479801 0.112501 0.707103 0.698103 0.466667 0.354582
  2 1.882433 -12.581752 5.446177 0.744120 0.283908 0.604716 0.466667 0.374502
  2 2.527738 -10.642345 3.516156 0.120403 0.736518 0.665616 0.231373 0.354582
CSO_M3.BMP
  2 2.527738 -10.642345 3.516156 0.120403 0.736518 0.665616 0.231373 0.354582
  2 1.882433 -12.581752 5.446177 0.744120 0.283908 0.604716 0.466667 0.374502
  2 2.804012 -10.847790 3.475348 0.756004 0.311302 0.575803 0.231373 0.378486
CSO_M3.BMP
  2 1.882433 -12.581752 5.446177 0.744120 0.283908 0.604716 0.466667 0.374502
  2 2.875584 -11.094228 3.301434 0.923410 -0.002700 0.383804 0.231373 0.398406
  2 2.804012 -10.847790 3.475348 0.756004 0.311302 0.575803 0.231373 0.378486
CSO_M3.BMP
  2 2.804012 -10.847790 3.475348 0.756004 0.311302 0.575803 0.231373 0.378486
  2 2.875584 -11.094228 3.301434 0.923410 -0.002700 0.383804 0.231373 0.398406
  2 3.635632 -9.189736 1.485934 0.756004 0.311302 0.575803 0.003922 0.378486
CSO_M3.BMP
  2 2.875584 -11.094228 3.301434 0.923410 -0.002700 0.383804 0.231373 0.398406
  2 3.717990 -9.458166 1.311973 0.923410 -0.002700 0.383804 0.003922 0.398406
  2 3.635632 -9.189736 1.485934 0.756004 0.311302 0.575803 0.003922 0.378486
CSO_M3.BMP
  5 1.998018 -10.805310 3.814276 -0.119107 0.639935 0.759142 0.670588 0.191235
  5 1.340485 -11.027732 3.805376 0.056302 0.640820 0.765624 0.698039 0.143426
  5 1.926063 -11.104641 3.959271 -0.119107 0.639935 0.759142 0.698039 0.191235
CSO_M3.BMP
  5 1.926063 -11.104641 3.959271 -0.119107 0.639935 0.759142 0.698039 0.191235
  5 1.340485 -11.027732 3.805376 0.056302 0.640820 0.765624 0.698039 0.143426
  5 0.172372 -13.339092 6.599876 0.145891 0.730855 0.666759 0.988235 0.143426
CSO_M3.BMP
  5 1.340485 -11.027732 3.805376 0.056302 0.640820 0.765624 0.698039 0.143426
  5 0.474727 -11.996402 5.178199 -0.124702 0.830415 0.543010 0.835294 0.115538
  5 0.172372 -13.339092 6.599876 0.145891 0.730855 0.666759 0.988235 0.143426
CSO_M3.BMP
  5 0.172372 -13.339092 6.599876 0.145891 0.730855 0.666759 0.988235 0.143426
  5 0.474727 -11.996402 5.178199 -0.124702 0.830415 0.543010 0.835294 0.115538
  5 -0.129294 -13.173289 6.597282 0.000700 0.769474 0.638678 0.988235 0.115538
CSO_M3.BMP
  5 0.474727 -11.996402 5.178199 -0.124702 0.830415 0.543010 0.835294 0.115538
  5 -0.500763 -12.575412 5.436785 -0.557187 0.791482 0.251194 0.901961 0.059761
  5 -0.129294 -13.173289 6.597282 0.000700 0.769474 0.638678 0.988235 0.115538
CSO_M3.BMP
  5 -0.129294 -13.173289 6.597282 0.000700 0.769474 0.638678 0.988235 0.115538
  5 -0.500763 -12.575412 5.436785 -0.557187 0.791482 0.251194 0.901961 0.059761
  5 -0.835705 -13.250683 6.237985 -0.590290 0.726788 0.351194 0.988235 0.059761
CSO_M3.BMP
  5 -0.500763 -12.575412 5.436785 -0.557187 0.791482 0.251194 0.901961 0.059761
  5 -0.804869 -12.805330 4.942258 -0.800195 0.491697 -0.343398 0.894118 0.031873
  5 -0.835705 -13.250683 6.237985 -0.590290 0.726788 0.351194 0.988235 0.059761
CSO_M3.BMP
  5 -0.835705 -13.250683 6.237985 -0.590290 0.726788 0.351194 0.988235 0.059761
  5 -0.804869 -12.805330 4.942258 -0.800195 0.491697 -0.343398 0.894118 0.031873
  5 -1.175809 -13.557611 5.855592 -0.935177 0.336992 -0.108997 0.988235 0.031873
CSO_M3.BMP
  5 -0.804869 -12.805330 4.942258 -0.800195 0.491697 -0.343398 0.894118 0.031873
  5 -0.656352 -13.236545 4.634042 -0.640066 0.038398 -0.767360 0.894118 0.000000
  5 -1.175809 -13.557611 5.855592 -0.935177 0.336992 -0.108997 0.988235 0.031873
CSO_M3.BMP
  5 -1.175809 -13.557611 5.855592 -0.935177 0.336992 -0.108997 0.988235 0.031873
  5 -0.656352 -13.236545 4.634042 -0.640066 0.038398 -0.767360 0.894118 0.000000
  5 -1.034217 -13.996748 5.537928 -0.923410 0.002700 -0.383804 0.988235 0.000000
CSO_M3.BMP
  5 -1.641096 -14.796975 6.653829 -0.923410 0.002700 -0.383804 0.839216 0.637450
  5 -2.088299 -15.218694 7.726891 -0.935177 0.336992 -0.108997 0.929412 0.665339
  5 -1.735755 -14.502813 6.857565 -0.935177 0.336992 -0.108997 0.839216 0.665339
CSO_M3.BMP
  5 -1.735755 -14.502813 6.857565 -0.935177 0.336992 -0.108997 0.839216 0.665339
  5 -2.088299 -15.218694 7.726891 -0.935177 0.336992 -0.108997 0.929412 0.665339
  5 -1.470280 -14.273233 7.158424 -0.537175 0.746066 0.393482 0.839216 0.697211
CSO_M3.BMP
  5 -2.088299 -15.218694 7.726891 -0.935177 0.336992 -0.108997 0.929412 0.665339
  5 -1.828199 -14.987230 8.040694 -0.537175 0.746066 0.393482 0.929412 0.697211
  5 -1.470280 -14.273233 7.158424 -0.537175 0.746066 0.393482 0.839216 0.697211
CSO_M3.BMP
  5 -1.470280 -14.273233 7.158424 -0.537175 0.746066 0.393482 0.839216 0.697211
  5 -1.828199 -14.987230 8.040694 -0.537175 0.746066 0.393482 0.929412 0.697211
  5 -1.112457 -14.266321 7.313713 0.115795 0.745765 0.656069 0.839216 0.729084
CSO_M3.BMP
  5 -1.828199 -14.987230 8.040694 -0.537175 0.746066 0.393482 0.929412 0.697211
  5 -1.474992 -14.996191 8.180925 0.115795 0.745765 0.656069 0.929412 0.729084
  5 -1.112457 -14.266321 7.313713 0.115795 0.745765 0.656069 0.839216 0.729084
CSO_M3.BMP
  5 -1.112457 -14.266321 7.313713 0.115795 0.745765 0.656069 0.839216 0.729084
  5 -1.474992 -14.996191 8.180925 0.115795 0.745765 0.656069 0.929412 0.729084
  5 -0.708455 -14.513716 7.277964 0.737177 0.343489 0.581881 0.839216 0.756972
CSO_M3.BMP
  5 -1.474992 -14.996191 8.180925 0.115795 0.745765 0.656069 0.929412 0.729084
  5 -1.060999 -15.229597 8.147290 0.737177 0.343489 0.581881 0.929412 0.756972
  5 -0.708455 -14.513716 7.277964 0.737177 0.343489 0.581881 0.839216 0.756972
CSO_M3.BMP
  5 -0.708455 -14.513716 7.277964 0.737177 0.343489 0.581881 0.839216 0.756972
  5 -1.060999 -15.229597 8.147290 0.737177 0.343489 0.581881 0.929412 0.756972
  5 -0.609178 -14.823777 7.063007 0.935025 -0.340509 0.098903 0.839216 0.776892
CSO_M3.BMP
  5 -1.060999 -15.229597 8.147290 0.737177 0.343489 0.581881 0.929412 0.756972
  5 -0.961722 -15.539658 7.932333 0.935025 -0.340509 0.098903 0.929412 0.776892
  5 -0.609178 -14.823777 7.063007 0.935025 -0.340509 0.098903 0.839216 0.776892
CSO_M3.BMP
  2 0.279868 -15.972311 9.252447 0.923410 -0.002700 0.383804 0.909804 0.386454
  2 1.882433 -12.581752 5.446177 0.756004 0.311302 0.575803 0.466667 0.374502
  2 0.236001 -15.821269 9.359039 0.756004 0.311302 0.575803 0.909804 0.374502
CSO_M3.BMP
  2 0.236001 -15.821269 9.359039 0.756004 0.311302 0.575803 0.909804 0.374502
  2 1.882433 -12.581752 5.446177 0.756004 0.311302 0.575803 0.466667 0.374502
  2 0.050519 -15.657667 9.389555 0.158391 0.728060 0.666964 0.909804 0.354582
CSO_M3.BMP
  2 1.882433 -12.581752 5.446177 0.756004 0.311302 0.575803 0.466667 0.374502
  2 1.673903 -12.452197 5.479801 0.120403 0.736518 0.665616 0.466667 0.354582
  2 0.050519 -15.657667 9.389555 0.158391 0.728060 0.666964 0.909804 0.354582
CSO_M3.BMP
  2 0.050519 -15.657667 9.389555 0.158391 0.728060 0.666964 0.909804 0.354582
  2 1.673903 -12.452197 5.479801 0.120403 0.736518 0.665616 0.466667 0.354582
  2 -0.161866 -15.657056 9.301283 -0.553385 0.740580 0.381190 0.909804 0.334661
CSO_M3.BMP
  2 1.673903 -12.452197 5.479801 0.120403 0.736518 0.665616 0.466667 0.354582
  2 1.461517 -12.451585 5.391529 -0.553385 0.740580 0.381190 0.466667 0.334661
  2 -0.161866 -15.657056 9.301283 -0.553385 0.740580 0.381190 0.909804 0.334661
CSO_M3.BMP
  2 -0.161866 -15.657056 9.301283 -0.553385 0.740580 0.381190 0.909804 0.334661
  2 1.461517 -12.451585 5.391529 -0.553385 0.740580 0.381190 0.466667 0.334661
  2 -0.301889 -15.811776 9.142050 -0.938913 0.319304 -0.128402 0.909804 0.322709
CSO_M3.BMP
  2 1.461517 -12.451585 5.391529 -0.553385 0.740580 0.381190 0.466667 0.334661
  2 1.344543 -12.572259 5.229188 -0.938913 0.319304 -0.128402 0.466667 0.322709
  2 -0.301889 -15.811776 9.142050 -0.938913 0.319304 -0.128402 0.909804 0.322709
CSO_M3.BMP
  2 -0.301889 -15.811776 9.142050 -0.938913 0.319304 -0.128402 0.909804 0.322709
  2 1.344543 -12.572259 5.229188 -0.938913 0.319304 -0.128402 0.466667 0.322709
  2 -0.253405 -15.978718 9.024238 -0.923410 0.002700 -0.383804 0.909804 0.302789
CSO_M3.BMP
  2 1.344543 -12.572259 5.229188 -0.938913 0.319304 -0.128402 0.466667 0.322709
  2 1.389962 -12.745268 5.118710 -0.923410 0.002700 -0.383804 0.466667 0.302789
  2 -0.253405 -15.978718 9.024238 -0.923410 0.002700 -0.383804 0.909804 0.302789
CSO_M3.BMP
  2 -0.381605 -15.763369 8.630677 0.923410 -0.002700 0.383804 0.694118 0.521912
  2 2.770688 -9.212940 1.091558 0.756004 0.311302 0.575803 0.003922 0.501992
  2 -0.436258 -15.558563 8.763595 0.756004 0.311302 0.575803 0.694118 0.501992
CSO_M3.BMP
  2 -0.436258 -15.558563 8.763595 0.756004 0.311302 0.575803 0.694118 0.501992
  2 2.770688 -9.212940 1.091558 0.756004 0.311302 0.575803 0.003922 0.501992
  2 -0.686343 -15.413002 8.793088 0.120403 0.736518 0.665616 0.694118 0.490040
CSO_M3.BMP
  2 2.770688 -9.212940 1.091558 0.756004 0.311302 0.575803 0.003922 0.501992
  2 2.526735 -9.055246 1.106381 0.120403 0.736518 0.665616 0.003922 0.490040
  2 -0.686343 -15.413002 8.793088 0.120403 0.736518 0.665616 0.694118 0.490040
CSO_M3.BMP
  2 -0.686343 -15.413002 8.793088 0.120403 0.736518 0.665616 0.694118 0.490040
  2 2.526735 -9.055246 1.106381 0.120403 0.736518 0.665616 0.003922 0.490040
  2 -0.926431 -15.412310 8.693302 -0.553385 0.740580 0.381190 0.694118 0.470120
CSO_M3.BMP
  2 2.526735 -9.055246 1.106381 0.120403 0.736518 0.665616 0.003922 0.490040
  2 2.286647 -9.054554 1.006595 -0.553385 0.740580 0.381190 0.003922 0.470120
  2 -0.926431 -15.412310 8.693302 -0.553385 0.740580 0.381190 0.694118 0.470120
CSO_M3.BMP
  2 -0.926431 -15.412310 8.693302 -0.553385 0.740580 0.381190 0.694118 0.470120
  2 2.286647 -9.054554 1.006595 -0.553385 0.740580 0.381190 0.003922 0.470120
  2 -1.080341 -15.564650 8.489331 -0.938913 0.319304 -0.128402 0.694118 0.450199
CSO_M3.BMP
  2 2.286647 -9.054554 1.006595 -0.553385 0.740580 0.381190 0.003922 0.470120
  2 2.129671 -9.212961 0.809959 -0.938913 0.319304 -0.128402 0.003922 0.450199
  2 -1.080341 -15.564650 8.489331 -0.938913 0.319304 -0.128402 0.694118 0.450199
CSO_M3.BMP
  2 -1.080341 -15.564650 8.489331 -0.938913 0.319304 -0.128402 0.694118 0.450199
  2 2.129671 -9.212961 0.809959 -0.938913 0.319304 -0.128402 0.003922 0.450199
  2 -1.030305 -15.753557 8.367633 -0.923410 0.002700 -0.383804 0.694118 0.430279
CSO_M3.BMP
  2 2.129671 -9.212961 0.809959 -0.938913 0.319304 -0.128402 0.003922 0.450199
  2 2.191250 -9.409844 0.686489 -0.923410 0.002700 -0.383804 0.003922 0.430279
  2 -1.030305 -15.753557 8.367633 -0.923410 0.002700 -0.383804 0.694118 0.430279
CSO_M3.BMP
  5 1.146163 -10.667826 3.571912 -0.379797 0.756793 0.531995 0.670588 0.115538
  5 1.477246 -10.026183 2.727650 -0.458594 0.795089 0.396894 0.584314 0.115538
  5 0.700624 -10.976317 3.130518 -0.908900 0.397300 -0.126700 0.670588 0.071713
CSO_M3.BMP
  5 1.146163 -10.667826 3.571912 -0.379797 0.756793 0.531995 0.670588 0.115538
  5 1.702588 -10.380599 3.251300 -0.071599 0.795890 0.601192 0.623529 0.151394
  5 1.477246 -10.026183 2.727650 -0.458594 0.795089 0.396894 0.584314 0.115538
CSO_M3.BMP
  5 1.146163 -10.667826 3.571912 -0.379797 0.756793 0.531995 0.670588 0.115538
  5 1.998018 -10.805310 3.814276 -0.119107 0.639935 0.759142 0.670588 0.191235
  5 1.702588 -10.380599 3.251300 -0.071599 0.795890 0.601192 0.623529 0.151394
CSO_M3.BMP
  5 1.146163 -10.667826 3.571912 -0.379797 0.756793 0.531995 0.670588 0.115538
  5 1.340485 -11.027732 3.805376 0.056302 0.640820 0.765624 0.698039 0.143426
  5 1.998018 -10.805310 3.814276 -0.119107 0.639935 0.759142 0.670588 0.191235
CSO_M3.BMP
  5 1.146163 -10.667826 3.571912 -0.379797 0.756793 0.531995 0.670588 0.115538
  5 0.474727 -11.996402 5.178199 -0.124702 0.830415 0.543010 0.835294 0.115538
  5 1.340485 -11.027732 3.805376 0.056302 0.640820 0.765624 0.698039 0.143426
CSO_M3.BMP
  5 1.146163 -10.667826 3.571912 -0.379797 0.756793 0.531995 0.670588 0.115538
  5 0.041416 -12.262401 4.681625 -0.766442 0.599333 -0.231013 0.835294 0.071713
  5 0.474727 -11.996402 5.178199 -0.124702 0.830415 0.543010 0.835294 0.115538
CSO_M3.BMP
  5 1.146163 -10.667826 3.571912 -0.379797 0.756793 0.531995 0.670588 0.115538
  5 0.700624 -10.976317 3.130518 -0.908900 0.397300 -0.126700 0.670588 0.071713
  5 0.041416 -12.262401 4.681625 -0.766442 0.599333 -0.231013 0.835294 0.071713
CSO_M3.BMP
  5 -0.609178 -14.823777 7.063007 0.976176 -0.201495 -0.080498 0.839216 0.776892
  5 -0.607569 -14.231253 6.776629 0.803306 0.431303 0.410703 0.796078 0.749004
  5 -0.708455 -14.513716 7.277964 0.778587 0.476892 0.407893 0.839216 0.756972
CSO_M3.BMP
  5 -0.708455 -14.513716 7.277964 0.778587 0.476892 0.407893 0.839216 0.756972
  5 -0.607569 -14.231253 6.776629 0.803306 0.431303 0.410703 0.796078 0.749004
  5 -1.112457 -14.266321 7.313713 0.160604 0.855819 0.491711 0.839216 0.729084
CSO_M3.BMP
  5 -0.607569 -14.231253 6.776629 0.803306 0.431303 0.410703 0.796078 0.749004
  5 -0.934631 -14.009775 6.809468 0.188808 0.840637 0.507622 0.796078 0.725100
  5 -1.112457 -14.266321 7.313713 0.160604 0.855819 0.491711 0.839216 0.729084
CSO_M3.BMP
  5 -1.112457 -14.266321 7.313713 0.160604 0.855819 0.491711 0.839216 0.729084
  5 -0.934631 -14.009775 6.809468 0.188808 0.840637 0.507622 0.796078 0.725100
  5 -1.470280 -14.273233 7.158424 -0.462808 0.860015 0.214904 0.839216 0.697211
CSO_M3.BMP
  5 -0.934631 -14.009775 6.809468 0.188808 0.840637 0.507622 0.796078 0.725100
  5 -1.220890 -14.008951 6.690492 -0.474915 0.863827 0.168105 0.796078 0.701195
  5 -1.470280 -14.273233 7.158424 -0.462808 0.860015 0.214904 0.839216 0.697211
CSO_M3.BMP
  5 -1.470280 -14.273233 7.158424 -0.462808 0.860015 0.214904 0.839216 0.697211
  5 -1.220890 -14.008951 6.690492 -0.474915 0.863827 0.168105 0.796078 0.701195
  5 -1.735755 -14.502813 6.857565 -0.800195 0.491697 -0.343398 0.839216 0.665339
CSO_M3.BMP
  5 -1.220890 -14.008951 6.690492 -0.474915 0.863827 0.168105 0.796078 0.701195
  5 -1.374004 -14.229045 6.458082 -0.801710 0.463006 -0.378005 0.796078 0.681275
  5 -1.735755 -14.502813 6.857565 -0.800195 0.491697 -0.343398 0.839216 0.665339
CSO_M3.BMP
  2 0.333684 -14.172802 7.259417 0.756004 0.311302 0.575803 0.549020 0.227092
  2 0.252653 -13.451983 6.703760 0.120403 0.736518 0.665616 0.486275 0.199203
  2 -0.007986 -13.949415 7.301363 0.120403 0.736518 0.665616 0.549020 0.199203
CSO_M3.BMP
  2 -0.007986 -13.949415 7.301363 0.120403 0.736518 0.665616 0.549020 0.199203
  2 0.252653 -13.451983 6.703760 0.120403 0.736518 0.665616 0.486275 0.199203
  2 -0.367361 -13.934361 7.149960 -0.553385 0.740580 0.381190 0.549020 0.159363
CSO_M3.BMP
  2 0.252653 -13.451983 6.703760 0.120403 0.736518 0.665616 0.486275 0.199203
  2 -0.128256 -13.442943 6.552015 -0.553385 0.740580 0.381190 0.486275 0.159363
  2 -0.367361 -13.934361 7.149960 -0.553385 0.740580 0.381190 0.549020 0.159363
CSO_M3.BMP
  2 -0.367361 -13.934361 7.149960 -0.553385 0.740580 0.381190 0.549020 0.159363
  2 -0.128256 -13.442943 6.552015 -0.553385 0.740580 0.381190 0.486275 0.159363
  2 -0.582806 -14.162218 6.885074 -0.938913 0.319304 -0.128402 0.549020 0.135458
CSO_M3.BMP
  2 -0.128256 -13.442943 6.552015 -0.553385 0.740580 0.381190 0.486275 0.159363
  2 -0.343701 -13.670800 6.287129 -0.938913 0.319304 -0.128402 0.486275 0.135458
  2 -0.582806 -14.162218 6.885074 -0.938913 0.319304 -0.128402 0.549020 0.135458
CSO_M3.BMP
  2 -0.582806 -14.162218 6.885074 -0.938913 0.319304 -0.128402 0.549020 0.135458
  2 -0.343701 -13.670800 6.287129 -0.938913 0.319304 -0.128402 0.486275 0.135458
  2 -0.478154 -14.505934 6.630894 -0.923410 0.002700 -0.383804 0.549020 0.135458
CSO_M3.BMP
  2 -0.343701 -13.670800 6.287129 -0.938913 0.319304 -0.128402 0.486275 0.135458
  2 -0.239049 -14.014516 6.032949 -0.923410 0.002700 -0.383804 0.486275 0.135458
  2 -0.478154 -14.505934 6.630894 -0.923410 0.002700 -0.383804 0.549020 0.135458
CSO_M3.BMP
  2 2.804012 -10.847790 3.475348 0.756004 0.311302 0.575803 0.231373 0.378486
  2 3.370144 -9.006283 1.526695 0.120403 0.736518 0.665616 0.003922 0.354582
  2 2.527738 -10.642345 3.516156 0.120403 0.736518 0.665616 0.231373 0.354582
CSO_M3.BMP
  2 2.527738 -10.642345 3.516156 0.120403 0.736518 0.665616 0.231373 0.354582
  2 3.370144 -9.006283 1.526695 0.120403 0.736518 0.665616 0.003922 0.354582
  2 2.231488 -10.655510 3.395067 -0.553385 0.740580 0.381190 0.231373 0.330677
CSO_M3.BMP
  2 3.370144 -9.006283 1.526695 0.120403 0.736518 0.665616 0.003922 0.354582
  2 3.050808 -9.003496 1.409151 -0.553385 0.740580 0.381190 0.003922 0.330677
  2 2.231488 -10.655510 3.395067 -0.553385 0.740580 0.381190 0.231373 0.330677
CSO_M3.BMP
  2 2.231488 -10.655510 3.395067 -0.553385 0.740580 0.381190 0.231373 0.330677
  2 3.050808 -9.003496 1.409151 -0.553385 0.740580 0.381190 0.003922 0.330677
  2 2.066036 -10.831645 3.166590 -0.938913 0.319304 -0.128402 0.231373 0.310757
CSO_M3.BMP
  2 3.050808 -9.003496 1.409151 -0.553385 0.740580 0.381190 0.003922 0.330677
  2 2.887665 -9.187581 1.175063 -0.938913 0.319304 -0.128402 0.003922 0.310757
  2 2.066036 -10.831645 3.166590 -0.938913 0.319304 -0.128402 0.231373 0.310757
CSO_M3.BMP
  2 2.066036 -10.831645 3.166590 -0.938913 0.319304 -0.128402 0.231373 0.310757
  2 2.887665 -9.187581 1.175063 -0.938913 0.319304 -0.128402 0.003922 0.310757
  2 2.143778 -11.115948 2.977571 -0.923410 0.002700 -0.383804 0.231373 0.286853
CSO_M3.BMP
  2 2.887665 -9.187581 1.175063 -0.938913 0.319304 -0.128402 0.003922 0.310757
  2 2.963098 -9.463934 0.991654 -0.923410 0.002700 -0.383804 0.003922 0.286853
  2 2.143778 -11.115948 2.977571 -0.923410 0.002700 -0.383804 0.231373 0.286853
CSO_M3.BMP
  2 3.835717 -5.503067 -3.138851 -0.315300 0.740101 0.594000 0.588235 0.800797
  2 2.647727 -7.659176 -0.946848 -0.782659 0.599269 0.168291 0.819608 0.784861
  2 2.055178 -9.013723 1.120853 -0.553385 0.740580 0.381190 0.992157 0.804781
CSO_M3.BMP
  2 3.835717 -5.503067 -3.138851 -0.315300 0.740101 0.594000 0.588235 0.800797
  2 3.545283 -5.895690 -3.094174 -0.621608 0.505007 0.598808 0.615686 0.784861
  2 2.647727 -7.659176 -0.946848 -0.782659 0.599269 0.168291 0.819608 0.784861
CSO_M3.BMP
  2 3.835717 -5.503067 -3.138851 -0.315300 0.740101 0.594000 0.588235 0.800797
  2 2.685968 -6.016589 -3.294325 -0.396997 0.365297 0.841993 0.627451 0.725100
  2 3.545283 -5.895690 -3.094174 -0.621608 0.505007 0.598808 0.615686 0.784861
CSO_M3.BMP
  2 3.835717 -5.503067 -3.138851 -0.315300 0.740101 0.594000 0.588235 0.800797
  2 2.759362 -5.589230 -3.441895 -0.348306 0.569809 0.744312 0.600000 0.725100
  2 2.685968 -6.016589 -3.294325 -0.396997 0.365297 0.841993 0.627451 0.725100
CSO_M3.BMP
  2 3.835717 -5.503067 -3.138851 -0.315300 0.740101 0.594000 0.588235 0.800797
  2 3.050660 -5.031133 -4.112845 -0.230893 0.794976 0.560983 0.537255 0.725100
  2 2.759362 -5.589230 -3.441895 -0.348306 0.569809 0.744312 0.600000 0.725100
CSO_M3.BMP
  2 3.835717 -5.503067 -3.138851 -0.315300 0.740101 0.594000 0.588235 0.800797
  2 3.661877 -4.767444 -4.252780 -0.230893 0.794976 0.560983 0.505882 0.760956
  2 3.050660 -5.031133 -4.112845 -0.230893 0.794976 0.560983 0.537255 0.725100
CSO_M3.BMP
  2 3.835717 -5.503067 -3.138851 -0.315300 0.740101 0.594000 0.588235 0.800797
  2 4.755659 -4.914537 -3.576389 0.199498 0.770991 0.604793 0.525490 0.848606
  2 3.661877 -4.767444 -4.252780 -0.230893 0.794976 0.560983 0.505882 0.760956
CSO_M3.BMP
  2 3.613602 -7.800275 -0.509839 0.264893 0.576485 0.772979 0.364706 0.175299
  2 4.294985 -7.944785 0.064474 -0.435176 0.617667 0.655064 0.380392 0.223108
  2 4.068377 -7.555353 -0.117164 -0.660893 0.011500 0.750392 0.364706 0.203187
CSO_M3.BMP
  2 3.613602 -7.800275 -0.509839 0.264893 0.576485 0.772979 0.364706 0.175299
  2 3.838957 -8.852913 1.181453 -0.281608 0.911027 0.301209 0.458824 0.219124
  2 4.294985 -7.944785 0.064474 -0.435176 0.617667 0.655064 0.380392 0.223108
CSO_M3.BMP
  2 3.613602 -7.800275 -0.509839 0.264893 0.576485 0.772979 0.364706 0.175299
  2 2.965901 -9.076109 1.013653 0.527593 0.841989 0.112698 0.474510 0.175299
  2 3.838957 -8.852913 1.181453 -0.281608 0.911027 0.301209 0.458824 0.219124
CSO_M3.BMP
  2 3.613602 -7.800275 -0.509839 0.264893 0.576485 0.772979 0.364706 0.175299
  2 2.903563 -8.829698 1.191405 0.870619 0.426609 -0.245005 0.474510 0.167331
  2 2.965901 -9.076109 1.013653 0.527593 0.841989 0.112698 0.474510 0.175299
CSO_M3.BMP
  2 3.613602 -7.800275 -0.509839 0.264893 0.576485 0.772979 0.364706 0.175299
  2 3.857856 -6.947207 -1.065552 0.923410 -0.002700 0.383804 0.309804 0.167331
  2 2.903563 -8.829698 1.191405 0.870619 0.426609 -0.245005 0.474510 0.167331
CSO_M3.BMP
  2 3.613602 -7.800275 -0.509839 0.264893 0.576485 0.772979 0.364706 0.175299
  2 3.937869 -7.189462 -1.259745 0.034300 0.764596 0.643597 0.313725 0.175299
  2 3.857856 -6.947207 -1.065552 0.923410 -0.002700 0.383804 0.309804 0.167331
CSO_M3.BMP
  2 3.613602 -7.800275 -0.509839 0.264893 0.576485 0.772979 0.364706 0.175299
  2 3.765959 -7.562425 -0.249426 -0.884593 0.466096 0.015800 0.364706 0.187251
  2 3.937869 -7.189462 -1.259745 0.034300 0.764596 0.643597 0.313725 0.175299
CSO_M3.BMP
  2 0.944926 -15.162961 8.700134 -0.439501 0.886802 0.142900 0.403922 0.661355
  2 1.122142 -15.025109 8.274704 -0.923410 0.002700 -0.383804 0.454902 0.661355
  2 0.986484 -15.306054 8.599152 -0.543865 0.396575 -0.739553 0.403922 0.661355
CSO_M3.BMP
  2 0.944926 -15.162961 8.700134 -0.439501 0.886802 0.142900 0.403922 0.661355
  2 1.073659 -14.889939 8.366238 -0.514587 0.753881 0.408490 0.454902 0.661355
  2 1.122142 -15.025109 8.274704 -0.923410 0.002700 -0.383804 0.454902 0.661355
CSO_M3.BMP
  2 0.944926 -15.162961 8.700134 -0.439501 0.886802 0.142900 0.403922 0.661355
  2 1.365183 -14.837968 8.394743 0.216399 0.976297 -0.004000 0.462745 0.697211
  2 1.073659 -14.889939 8.366238 -0.514587 0.753881 0.408490 0.454902 0.661355
CSO_M3.BMP
  2 0.944926 -15.162961 8.700134 -0.439501 0.886802 0.142900 0.403922 0.661355
  2 1.058118 -15.207682 8.792263 -0.230893 0.794976 0.560983 0.400000 0.681275
  2 1.365183 -14.837968 8.394743 0.216399 0.976297 -0.004000 0.462745 0.697211
CSO_M3.BMP
  2 0.944926 -15.162961 8.700134 -0.439501 0.886802 0.142900 0.403922 0.661355
  2 0.421325 -15.388110 8.785866 -0.230893 0.794976 0.560983 0.376471 0.621514
  2 1.058118 -15.207682 8.792263 -0.230893 0.794976 0.560983 0.400000 0.681275
CSO_M3.BMP
  2 0.944926 -15.162961 8.700134 -0.439501 0.886802 0.142900 0.403922 0.661355
  2 0.510273 -15.230406 8.599003 -0.108201 0.988611 -0.104601 0.396078 0.621514
  2 0.421325 -15.388110 8.785866 -0.230893 0.794976 0.560983 0.376471 0.621514
CSO_M3.BMP
  2 0.944926 -15.162961 8.700134 -0.439501 0.886802 0.142900 0.403922 0.661355
  2 0.986484 -15.306054 8.599152 -0.543865 0.396575 -0.739553 0.423529 0.661355
  2 0.510273 -15.230406 8.599003 -0.108201 0.988611 -0.104601 0.396078 0.621514
CSO_M3.BMP
  5 -0.629925 -12.852121 5.276631 -0.590290 0.726788 0.351194 0.639216 0.701195
  5 -0.934631 -14.009775 6.809468 0.145891 0.730855 0.666759 0.796078 0.725100
  5 -0.355209 -12.844969 5.397378 0.115795 0.745765 0.656069 0.639216 0.725100
CSO_M3.BMP
  5 -0.355209 -12.844969 5.397378 0.115795 0.745765 0.656069 0.639216 0.725100
  5 -0.934631 -14.009775 6.809468 0.145891 0.730855 0.666759 0.796078 0.725100
  5 -0.030456 -13.058497 5.370149 0.759610 0.308404 0.572608 0.639216 0.749004
CSO_M3.BMP
  5 -0.934631 -14.009775 6.809468 0.145891 0.730855 0.666759 0.796078 0.725100
  5 -0.607569 -14.231253 6.776629 0.759610 0.308404 0.572608 0.796078 0.749004
  5 -0.030456 -13.058497 5.370149 0.759610 0.308404 0.572608 0.639216 0.749004
CSO_M3.BMP
  5 -0.030456 -13.058497 5.370149 0.759610 0.308404 0.572608 0.639216 0.749004
  5 -0.607569 -14.231253 6.776629 0.759610 0.308404 0.572608 0.796078 0.749004
  5 0.022646 -13.241338 5.241117 0.941472 -0.306691 0.139896 0.639216 0.768924
CSO_M3.BMP
  5 -0.607569 -14.231253 6.776629 0.759610 0.308404 0.572608 0.796078 0.749004
  5 -0.559085 -14.398194 6.658817 0.941472 -0.306691 0.139896 0.796078 0.768924
  5 0.022646 -13.241338 5.241117 0.941472 -0.306691 0.139896 0.639216 0.768924
CSO_M3.BMP
  5 -0.500763 -12.575412 5.436785 -0.557187 0.791482 0.251194 0.901961 0.059761
  5 0.041416 -12.262401 4.681625 -0.766442 0.599333 -0.231013 0.835294 0.071713
  5 -0.804869 -12.805330 4.942258 -0.800195 0.491697 -0.343398 0.894118 0.031873
CSO_M3.BMP
  5 -0.804869 -12.805330 4.942258 -0.800195 0.491697 -0.343398 0.894118 0.031873
  5 0.041416 -12.262401 4.681625 -0.766442 0.599333 -0.231013 0.835294 0.071713
  5 0.207648 -12.834772 4.277696 -0.569625 -0.055402 -0.820036 0.835294 0.023904
CSO_M3.BMP
  5 0.041416 -12.262401 4.681625 -0.766442 0.599333 -0.231013 0.835294 0.071713
  5 0.700624 -10.976317 3.130518 -0.908900 0.397300 -0.126700 0.670588 0.071713
  5 0.207648 -12.834772 4.277696 -0.569625 -0.055402 -0.820036 0.835294 0.023904
CSO_M3.BMP
  5 0.207648 -12.834772 4.277696 -0.569625 -0.055402 -0.820036 0.835294 0.023904
  5 0.700624 -10.976317 3.130518 -0.908900 0.397300 -0.126700 0.670588 0.071713
  5 0.855313 -11.540712 2.728362 -0.899373 0.045699 -0.434787 0.670588 0.023904
CSO_M3.BMP
  5 0.700624 -10.976317 3.130518 -0.908900 0.397300 -0.126700 0.670588 0.071713
  5 1.355676 -10.861709 1.972126 -0.869726 0.108703 -0.481415 0.584314 0.035857
  5 0.855313 -11.540712 2.728362 -0.899373 0.045699 -0.434787 0.670588 0.023904
CSO_M3.BMP
  2 0.677441 -13.993327 6.433571 0.306583 0.606666 -0.733459 0.478431 0.139442
  2 0.465063 -14.246890 6.135072 0.306583 0.606666 -0.733459 0.490196 0.119522
  2 0.598941 -13.691269 6.650594 0.306583 0.606666 -0.733459 0.450980 0.139442
CSO_M3.BMP
  2 0.598941 -13.691269 6.650594 0.306583 0.606666 -0.733459 0.450980 0.139442
  2 0.465063 -14.246890 6.135072 0.306583 0.606666 -0.733459 0.490196 0.119522
  2 0.252653 -13.451983 6.703760 0.306583 0.606666 -0.733459 0.435294 0.119522
CSO_M3.BMP
  2 0.465063 -14.246890 6.135072 0.306583 0.606666 -0.733459 0.490196 0.119522
  2 0.111099 -14.251946 5.996566 0.306583 0.606666 -0.733459 0.490196 0.095618
  2 0.252653 -13.451983 6.703760 0.306583 0.606666 -0.733459 0.435294 0.119522
CSO_M3.BMP
  2 0.252653 -13.451983 6.703760 0.306583 0.606666 -0.733459 0.435294 0.119522
  2 0.111099 -14.251946 5.996566 0.306583 0.606666 -0.733459 0.490196 0.095618
  2 -0.128256 -13.442943 6.552015 0.306583 0.606666 -0.733459 0.435294 0.095618
CSO_M3.BMP
  2 0.111099 -14.251946 5.996566 0.306583 0.606666 -0.733459 0.490196 0.095618
  2 -0.343701 -13.670800 6.287129 0.306583 0.606666 -0.733459 0.450980 0.075697
  2 -0.128256 -13.442943 6.552015 0.306583 0.606666 -0.733459 0.435294 0.095618
CSO_M3.BMP
  8 2.168038 -1.045327 -10.791854 0.306583 0.606666 -0.733459 0.172549 0.211155
  8 2.304237 -0.878917 -10.597283 0.306583 0.606666 -0.733459 0.156863 0.231076
  8 2.459719 -1.415750 -10.949043 0.306583 0.606666 -0.733459 0.207843 0.231076
CSO_M3.BMP
  8 2.459719 -1.415750 -10.949043 0.306583 0.606666 -0.733459 0.207843 0.231076
  8 2.304237 -0.878917 -10.597283 0.306583 0.606666 -0.733459 0.156863 0.231076
  8 2.672862 -1.402346 -10.862496 0.306583 0.606666 -0.733459 0.207843 0.250996
CSO_M3.BMP
  8 2.304237 -0.878917 -10.597283 0.306583 0.606666 -0.733459 0.156863 0.231076
  8 2.532025 -0.885649 -10.494000 0.306583 0.606666 -0.733459 0.156863 0.250996
  8 2.672862 -1.402346 -10.862496 0.306583 0.606666 -0.733459 0.207843 0.250996
CSO_M3.BMP
  8 2.672862 -1.402346 -10.862496 0.306583 0.606666 -0.733459 0.207843 0.250996
  8 2.532025 -0.885649 -10.494000 0.306583 0.606666 -0.733459 0.156863 0.250996
  8 2.832904 -1.237873 -10.673194 0.306583 0.606666 -0.733459 0.192157 0.266932
CSO_M3.BMP
  8 2.532025 -0.885649 -10.494000 0.306583 0.606666 -0.733459 0.156863 0.250996
  8 2.770568 -1.055005 -10.547999 0.306583 0.606666 -0.733459 0.176471 0.266932
  8 2.832904 -1.237873 -10.673194 0.306583 0.606666 -0.733459 0.192157 0.266932
CSO_M3.BMP
  2 2.056042 -8.848249 0.494580 -0.735783 0.234595 -0.635286 0.960784 0.254980
  2 2.757147 -8.503971 0.295266 -0.845028 0.122004 -0.520617 0.909804 0.254980
  2 2.179960 -9.291543 0.193358 -0.735783 0.234595 -0.635286 0.960784 0.302789
CSO_M3.BMP
  2 2.179960 -9.291543 0.193358 -0.735783 0.234595 -0.635286 0.960784 0.302789
  2 2.757147 -8.503971 0.295266 -0.845028 0.122004 -0.520617 0.909804 0.254980
  2 2.884130 -8.941199 -0.013290 -0.845028 0.122004 -0.520617 0.909804 0.302789
CSO_M3.BMP
  2 2.757147 -8.503971 0.295266 -0.845028 0.122004 -0.520617 0.909804 0.254980
  2 2.647727 -7.659176 -0.946848 -0.964888 -0.114899 -0.236197 0.823529 0.254980
  2 2.884130 -8.941199 -0.013290 -0.845028 0.122004 -0.520617 0.909804 0.302789
CSO_M3.BMP
  2 2.884130 -8.941199 -0.013290 -0.845028 0.122004 -0.520617 0.909804 0.302789
  2 2.647727 -7.659176 -0.946848 -0.964888 -0.114899 -0.236197 0.823529 0.254980
  2 2.778570 -8.094547 -1.238622 -0.964888 -0.114899 -0.236197 0.823529 0.302789
CSO_M3.BMP
  2 2.647727 -7.659176 -0.946848 -0.964888 -0.114899 -0.236197 0.823529 0.254980
  2 3.672264 -6.269374 -3.350174 -0.923410 0.002700 -0.383804 0.619608 0.302789
  2 2.778570 -8.094547 -1.238622 -0.964888 -0.114899 -0.236197 0.823529 0.302789
CSO_M3.BMP
  2 3.545283 -5.895690 -3.094174 -0.876069 0.466784 0.120896 0.333333 0.290837
  2 2.685968 -6.016589 -3.294325 -0.170794 0.704275 0.689076 0.349020 0.227092
  2 3.105511 -6.120607 -3.027747 -0.255100 0.702399 0.664499 0.356863 0.262948
CSO_M3.BMP
  2 3.105511 -6.120607 -3.027747 -0.255100 0.702399 0.664499 0.356863 0.262948
  2 2.685968 -6.016589 -3.294325 -0.170794 0.704275 0.689076 0.349020 0.227092
  2 2.687054 -6.198382 -3.089751 0.032500 0.717402 0.695901 0.368627 0.235060
CSO_M3.BMP
  2 2.685968 -6.016589 -3.294325 -0.170794 0.704275 0.689076 0.349020 0.227092
  2 2.235352 -6.976598 -2.190727 -0.230893 0.794976 0.560983 0.458824 0.227092
  2 2.687054 -6.198382 -3.089751 0.032500 0.717402 0.695901 0.368627 0.235060
CSO_M3.BMP
  2 2.687054 -6.198382 -3.089751 0.032500 0.717402 0.695901 0.368627 0.235060
  2 2.235352 -6.976598 -2.190727 -0.230893 0.794976 0.560983 0.458824 0.227092
  2 2.312255 -6.952518 -2.193200 -0.230893 0.794976 0.560983 0.458824 0.235060
CSO_M3.BMP
  2 2.235352 -6.976598 -2.190727 -0.230893 0.794976 0.560983 0.458824 0.227092
  2 2.941481 -7.213705 -1.546319 -0.230893 0.794976 0.560983 0.490196 0.294821
  2 2.312255 -6.952518 -2.193200 -0.230893 0.794976 0.560983 0.458824 0.235060
CSO_M3.BMP
  8 2.770568 -1.055005 -10.547999 0.752796 0.316998 0.576897 0.145098 0.247012
  8 2.532025 -0.885649 -10.494000 0.140100 0.733402 0.665202 0.145098 0.223108
  8 2.280815 -2.029865 -9.350339 0.752796 0.316998 0.576897 0.000000 0.247012
CSO_M3.BMP
  8 2.280815 -2.029865 -9.350339 0.752796 0.316998 0.576897 0.000000 0.247012
  8 2.532025 -0.885649 -10.494000 0.140100 0.733402 0.665202 0.145098 0.223108
  8 2.029179 -1.862338 -9.316961 0.140100 0.733402 0.665202 0.000000 0.223108
CSO_M3.BMP
  8 2.532025 -0.885649 -10.494000 0.140100 0.733402 0.665202 0.145098 0.223108
  8 2.304237 -0.878917 -10.597283 -0.575994 0.731692 0.364496 0.145098 0.199203
  8 2.029179 -1.862338 -9.316961 0.140100 0.733402 0.665202 0.000000 0.223108
CSO_M3.BMP
  8 2.029179 -1.862338 -9.316961 0.140100 0.733402 0.665202 0.000000 0.223108
  8 2.304237 -0.878917 -10.597283 -0.575994 0.731692 0.364496 0.145098 0.199203
  8 1.816036 -1.875743 -9.403508 -0.575994 0.731692 0.364496 0.000000 0.199203
CSO_M3.BMP
  8 2.304237 -0.878917 -10.597283 -0.575994 0.731692 0.364496 0.145098 0.199203
  8 1.679837 -2.042152 -9.598079 -0.827892 0.550195 0.108999 0.000000 0.183267
  8 1.816036 -1.875743 -9.403508 -0.575994 0.731692 0.364496 0.000000 0.199203
CSO_M3.BMP
  2 4.909970 -6.753935 -1.120334 0.343289 0.621180 -0.704477 0.407843 0.247012
  2 4.919206 -6.817505 -1.169053 0.343289 0.621180 -0.704477 0.411765 0.247012
  2 4.836099 -6.817266 -1.203594 0.306583 0.606666 -0.733459 0.411765 0.235060
CSO_M3.BMP
  2 4.836099 -6.817266 -1.203594 0.306583 0.606666 -0.733459 0.411765 0.235060
  2 4.919206 -6.817505 -1.169053 0.343289 0.621180 -0.704477 0.411765 0.247012
  2 4.986925 -7.256430 -1.517420 0.306583 0.606666 -0.733459 0.447059 0.235060
CSO_M3.BMP
  2 4.919206 -6.817505 -1.169053 0.343289 0.621180 -0.704477 0.411765 0.247012
  2 5.049255 -7.248667 -1.484944 0.379004 0.581206 -0.720108 0.447059 0.247012
  2 4.986925 -7.256430 -1.517420 0.306583 0.606666 -0.733459 0.447059 0.235060
CSO_M3.BMP
  2 4.986925 -7.256430 -1.517420 0.306583 0.606666 -0.733459 0.447059 0.235060
  2 5.049255 -7.248667 -1.484944 0.379004 0.581206 -0.720108 0.447059 0.247012
  2 5.067725 -7.312264 -1.529825 0.397110 0.603414 -0.691517 0.454902 0.247012
CSO_M3.BMP
  2 5.049255 -7.248667 -1.484944 0.379004 0.581206 -0.720108 0.447059 0.247012
  2 5.200897 -7.265462 -1.380913 0.652894 0.435696 -0.619595 0.447059 0.262948
  2 5.067725 -7.312264 -1.529825 0.397110 0.603414 -0.691517 0.454902 0.247012
CSO_M3.BMP
  5 2.190618 -11.116422 2.124094 0.319814 0.608527 -0.726232 0.215686 0.243028
  5 1.814327 -11.155052 1.934851 0.319814 0.608527 -0.726232 0.211765 0.199203
  5 1.876624 -10.067048 2.860792 0.319814 0.608527 -0.726232 0.298039 0.243028
CSO_M3.BMP
  5 1.876624 -10.067048 2.860792 0.319814 0.608527 -0.726232 0.298039 0.243028
  5 1.814327 -11.155052 1.934851 0.319814 0.608527 -0.726232 0.211765 0.199203
  5 1.477246 -10.026183 2.727650 0.319814 0.608527 -0.726232 0.305882 0.199203
CSO_M3.BMP
  5 1.814327 -11.155052 1.934851 0.319814 0.608527 -0.726232 0.211765 0.199203
  5 1.355676 -10.861709 1.972126 0.319814 0.608527 -0.726232 0.239216 0.167331
  5 1.477246 -10.026183 2.727650 0.319814 0.608527 -0.726232 0.305882 0.199203
CSO_M3.BMP
  5 1.477246 -10.026183 2.727650 0.319814 0.608527 -0.726232 0.305882 0.199203
  5 1.355676 -10.861709 1.972126 0.319814 0.608527 -0.726232 0.239216 0.167331
  5 1.207155 -10.303408 2.385455 0.319814 0.608527 -0.726232 0.282353 0.167331
CSO_M3.BMP
  2 3.765959 -7.562425 -0.249426 -0.230893 0.794976 0.560983 0.823529 0.876494
  2 4.068377 -7.555353 -0.117164 0.158391 0.728060 0.666964 0.823529 0.900398
  2 4.066382 -6.949676 -0.994063 -0.230893 0.794976 0.560983 0.752941 0.876494
CSO_M3.BMP
  2 4.066382 -6.949676 -0.994063 -0.230893 0.794976 0.560983 0.752941 0.876494
  2 4.068377 -7.555353 -0.117164 0.158391 0.728060 0.666964 0.823529 0.900398
  2 4.846362 -6.028463 -1.978439 0.155999 0.781494 0.604095 0.650980 0.900398
CSO_M3.BMP
  2 4.068377 -7.555353 -0.117164 0.158391 0.728060 0.666964 0.823529 0.900398
  2 4.294985 -7.944785 0.064474 0.853199 0.165900 0.494499 0.843137 0.924303
  2 4.846362 -6.028463 -1.978439 0.155999 0.781494 0.604095 0.650980 0.900398
CSO_M3.BMP
  2 4.846362 -6.028463 -1.978439 0.155999 0.781494 0.604095 0.650980 0.900398
  2 4.294985 -7.944785 0.064474 0.853199 0.165900 0.494499 0.843137 0.924303
  2 5.187275 -6.234094 -1.992382 0.789388 0.417794 0.449793 0.650980 0.928287
CSO_M3.BMP
  7 4.414609 -7.729064 -0.281096 0.404315 0.614622 0.677325 0.607843 0.645418
  7 4.082930 -7.523459 -0.263316 0.104000 0.743500 0.660600 0.607843 0.597610
  7 3.711000 -9.146339 1.401986 0.444289 0.589986 0.674184 0.807843 0.645418
CSO_M3.BMP
  7 3.711000 -9.146339 1.401986 0.444289 0.589986 0.674184 0.807843 0.645418
  7 4.082930 -7.523459 -0.263316 0.104000 0.743500 0.660600 0.607843 0.597610
  7 3.362404 -8.930875 1.434484 0.104000 0.743500 0.660600 0.807843 0.597610
CSO_M3.BMP
  7 4.082930 -7.523459 -0.263316 0.104000 0.743500 0.660600 0.607843 0.597610
  7 3.557340 -7.507927 -0.483801 -0.230893 0.794976 0.560983 0.607843 0.533865
  7 3.362404 -8.930875 1.434484 0.104000 0.743500 0.660600 0.807843 0.597610
CSO_M3.BMP
  7 3.362404 -8.930875 1.434484 0.104000 0.743500 0.660600 0.807843 0.597610
  7 3.557340 -7.507927 -0.483801 -0.230893 0.794976 0.560983 0.607843 0.533865
  7 2.842982 -8.921435 1.225171 -0.230893 0.794976 0.560983 0.807843 0.533865
CSO_M3.BMP
  2 5.156604 -5.453945 -3.841308 0.987095 -0.159199 -0.017300 0.517647 0.924303
  2 5.061874 -6.803758 -2.502341 0.854385 -0.395893 -0.336594 0.647059 1.000000
  2 4.972685 -5.693571 -4.130018 0.731810 -0.592808 -0.336204 0.517647 0.960159
CSO_M3.BMP
  2 5.156604 -5.453945 -3.841308 0.987095 -0.159199 -0.017300 0.517647 0.924303
  2 5.287310 -6.561911 -2.235342 0.996483 -0.045299 0.070499 0.647059 0.972112
  2 5.061874 -6.803758 -2.502341 0.854385 -0.395893 -0.336594 0.647059 1.000000
CSO_M3.BMP
  2 5.156604 -5.453945 -3.841308 0.987095 -0.159199 -0.017300 0.517647 0.924303
  2 5.062701 -5.113995 -3.613018 0.792822 0.448812 0.412311 0.521569 0.888446
  2 5.287310 -6.561911 -2.235342 0.996483 -0.045299 0.070499 0.647059 0.972112
CSO_M3.BMP
  2 5.156604 -5.453945 -3.841308 0.987095 -0.159199 -0.017300 0.517647 0.924303
  2 6.856511 -1.106001 -9.855391 0.972090 -0.064399 0.225598 0.000000 0.896414
  2 5.062701 -5.113995 -3.613018 0.792822 0.448812 0.412311 0.521569 0.888446
CSO_M3.BMP
  2 5.081598 -6.838067 -1.090912 0.034300 0.764596 0.643597 0.701961 0.446215
  2 5.370500 -7.375874 -0.174288 -0.230893 0.794976 0.560983 0.760784 0.505976
  2 5.319596 -6.940167 -0.830465 -0.273297 0.784191 0.557094 0.713725 0.478088
CSO_M3.BMP
  2 5.081598 -6.838067 -1.090912 0.034300 0.764596 0.643597 0.701961 0.446215
  2 5.145312 -7.522902 -0.076446 -0.230893 0.794976 0.560983 0.776471 0.490040
  2 5.370500 -7.375874 -0.174288 -0.230893 0.794976 0.560983 0.760784 0.505976
CSO_M3.BMP
  2 5.081598 -6.838067 -1.090912 0.034300 0.764596 0.643597 0.701961 0.446215
  2 4.680000 -7.651013 -0.104231 0.034300 0.764596 0.643597 0.792157 0.446215
  2 5.145312 -7.522902 -0.076446 -0.230893 0.794976 0.560983 0.776471 0.490040
CSO_M3.BMP
  2 5.081598 -6.838067 -1.090912 0.034300 0.764596 0.643597 0.701961 0.446215
  2 4.909970 -6.753935 -1.120334 0.206508 0.709826 0.673425 0.701961 0.426295
  2 4.680000 -7.651013 -0.104231 0.034300 0.764596 0.643597 0.792157 0.446215
CSO_M3.BMP
  2 0.813191 -14.843825 7.872852 0.555896 0.580995 -0.594495 0.490196 0.657371
  2 0.783176 -14.708708 7.972062 0.277507 0.956025 -0.094903 0.478431 0.621514
  2 1.414423 -14.959122 8.301485 0.555896 0.580995 -0.594495 0.478431 0.721116
CSO_M3.BMP
  2 1.414423 -14.959122 8.301485 0.555896 0.580995 -0.594495 0.478431 0.721116
  2 0.783176 -14.708708 7.972062 0.277507 0.956025 -0.094903 0.478431 0.621514
  2 1.365183 -14.837968 8.394743 0.216399 0.976297 -0.004000 0.462745 0.697211
CSO_M3.BMP
  2 0.783176 -14.708708 7.972062 0.277507 0.956025 -0.094903 0.478431 0.621514
  2 0.675796 -14.884585 8.177090 -0.230893 0.794976 0.560983 0.454902 0.621514
  2 1.365183 -14.837968 8.394743 0.216399 0.976297 -0.004000 0.462745 0.697211
CSO_M3.BMP
  2 1.365183 -14.837968 8.394743 0.216399 0.976297 -0.004000 0.462745 0.697211
  2 0.675796 -14.884585 8.177090 -0.230893 0.794976 0.560983 0.454902 0.621514
  2 1.073659 -14.889939 8.366238 -0.514587 0.753881 0.408490 0.454902 0.661355
CSO_M3.BMP
  2 5.081598 -6.838067 -1.090912 0.613866 0.563769 -0.552570 0.411765 0.262948
  2 4.919206 -6.817505 -1.169053 0.343289 0.621180 -0.704477 0.411765 0.247012
  2 4.909970 -6.753935 -1.120334 0.343289 0.621180 -0.704477 0.407843 0.247012
CSO_M3.BMP
  2 5.081598 -6.838067 -1.090912 0.613866 0.563769 -0.552570 0.411765 0.262948
  2 5.055412 -6.873498 -1.158431 0.489605 0.679506 -0.546405 0.419608 0.258964
  2 4.919206 -6.817505 -1.169053 0.343289 0.621180 -0.704477 0.411765 0.247012
CSO_M3.BMP
  2 5.081598 -6.838067 -1.090912 0.613866 0.563769 -0.552570 0.411765 0.262948
  2 5.348058 -6.989774 -0.873232 0.721183 0.519487 -0.458289 0.419608 0.298805
  2 5.055412 -6.873498 -1.158431 0.489605 0.679506 -0.546405 0.419608 0.258964
CSO_M3.BMP
  2 5.081598 -6.838067 -1.090912 0.613866 0.563769 -0.552570 0.411765 0.262948
  2 5.319596 -6.940167 -0.830465 0.721183 0.519487 -0.458289 0.411765 0.298805
  2 5.348058 -6.989774 -0.873232 0.721183 0.519487 -0.458289 0.419608 0.298805
CSO_M3.BMP
  5 -0.934631 -14.009775 6.809468 0.145891 0.730855 0.666759 0.796078 0.725100
  5 -0.629925 -12.852121 5.276631 -0.590290 0.726788 0.351194 0.639216 0.701195
  5 -1.220890 -14.008951 6.690492 -0.590290 0.726788 0.351194 0.796078 0.701195
CSO_M3.BMP
  5 -1.220890 -14.008951 6.690492 -0.590290 0.726788 0.351194 0.796078 0.701195
  5 -0.629925 -12.852121 5.276631 -0.590290 0.726788 0.351194 0.639216 0.701195
  5 -1.374004 -14.229045 6.458082 -0.945315 0.284104 -0.160203 0.796078 0.681275
CSO_M3.BMP
  5 -0.629925 -12.852121 5.276631 -0.590290 0.726788 0.351194 0.639216 0.701195
  5 -0.794583 -13.064238 5.045992 -0.945315 0.284104 -0.160203 0.639216 0.681275
  5 -1.374004 -14.229045 6.458082 -0.945315 0.284104 -0.160203 0.796078 0.681275
CSO_M3.BMP
  7 3.274060 -8.604889 0.971852 0.928215 -0.020000 0.371506 0.823529 0.617530
  7 3.316189 -8.515747 0.845049 0.940065 0.321588 -0.113396 0.823529 0.593625
  7 3.219218 -8.118321 1.133231 0.619098 0.741898 0.257499 0.909804 0.593625
CSO_M3.BMP
  7 3.219218 -8.118321 1.133231 0.619098 0.741898 0.257499 0.909804 0.593625
  7 3.316189 -8.515747 0.845049 0.940065 0.321588 -0.113396 0.823529 0.593625
  7 3.114504 -8.087642 1.046665 -0.066202 0.948622 -0.309407 0.909804 0.573705
CSO_M3.BMP
  7 3.316189 -8.515747 0.845049 0.940065 0.321588 -0.113396 0.823529 0.593625
  7 3.215334 -8.483212 0.775266 0.052800 0.585298 -0.809097 0.823529 0.573705
  7 3.114504 -8.087642 1.046665 -0.066202 0.948622 -0.309407 0.909804 0.573705
CSO_M3.BMP
  7 2.979997 -8.158292 1.109246 -0.503520 0.858633 -0.096004 0.945098 0.561753
  7 3.034790 -8.245373 1.237366 -0.230893 0.794976 0.560983 0.921569 0.589641
  7 3.114504 -8.087642 1.046665 -0.066202 0.948622 -0.309407 0.968627 0.589641
CSO_M3.BMP
  7 3.114504 -8.087642 1.046665 -0.066202 0.948622 -0.309407 0.968627 0.589641
  7 3.034790 -8.245373 1.237366 -0.230893 0.794976 0.560983 0.921569 0.589641
  7 3.219218 -8.118321 1.133231 0.619098 0.741898 0.257499 0.960784 0.613546
CSO_M3.BMP
  7 3.034790 -8.245373 1.237366 -0.230893 0.794976 0.560983 0.921569 0.589641
  7 3.170164 -8.215386 1.250585 0.404315 0.614622 0.677325 0.933333 0.613546
  7 3.219218 -8.118321 1.133231 0.619098 0.741898 0.257499 0.960784 0.613546
CSO_M3.BMP
  4 2.660449 -6.553210 -2.740503 -0.230893 0.794976 0.560983 0.968627 0.673307
  4 3.115086 -6.489558 -2.661423 -0.230893 0.794976 0.560983 0.945098 0.717131
  4 3.087201 -6.398347 -2.802146 -0.230893 0.794976 0.560983 0.933333 0.705179
CSO_M3.BMP
  4 3.087201 -6.398347 -2.802146 -0.230893 0.794976 0.560983 0.933333 0.705179
  4 3.115086 -6.489558 -2.661423 -0.230893 0.794976 0.560983 0.945098 0.717131
  4 3.604496 -6.490969 -2.458013 -0.230893 0.794976 0.560983 0.933333 0.776892
CSO_M3.BMP
  4 3.115086 -6.489558 -2.661423 -0.230893 0.794976 0.560983 0.945098 0.717131
  4 3.524746 -6.630473 -2.293154 -0.230893 0.794976 0.560983 0.960784 0.780876
  4 3.604496 -6.490969 -2.458013 -0.230893 0.794976 0.560983 0.933333 0.776892
CSO_M3.BMP
  2 3.050660 -5.031133 -4.112845 -0.230893 0.794976 0.560983 0.537255 0.725100
  2 1.113000 -4.965742 -4.895978 -0.465914 0.489615 0.737022 0.537255 0.577689
  2 2.759362 -5.589230 -3.441895 -0.348306 0.569809 0.744312 0.600000 0.725100
CSO_M3.BMP
  2 2.759362 -5.589230 -3.441895 -0.348306 0.569809 0.744312 0.600000 0.725100
  2 1.113000 -4.965742 -4.895978 -0.465914 0.489615 0.737022 0.537255 0.577689
  2 2.685968 -6.016589 -3.294325 -0.396997 0.365297 0.841993 0.627451 0.725100
CSO_M3.BMP
  2 1.113000 -4.965742 -4.895978 -0.465914 0.489615 0.737022 0.537255 0.577689
  2 1.041877 -5.351053 -4.753581 -0.660893 0.011500 0.750392 0.560784 0.577689
  2 2.685968 -6.016589 -3.294325 -0.396997 0.365297 0.841993 0.627451 0.725100
CSO_M3.BMP
  2 5.213053 -7.360883 -0.759425 0.306583 0.606666 -0.733459 0.533333 0.127490
  2 5.190728 -7.458001 -0.862719 0.306583 0.606666 -0.733459 0.513725 0.119522
  2 5.118400 -7.257352 -0.713359 0.306583 0.606666 -0.733459 0.552941 0.119522
CSO_M3.BMP
  2 5.118400 -7.257352 -0.713359 0.306583 0.606666 -0.733459 0.552941 0.119522
  2 5.190728 -7.458001 -0.862719 0.306583 0.606666 -0.733459 0.513725 0.119522
  2 4.902154 -7.258596 -0.818414 0.306583 0.606666 -0.733459 0.552941 0.075697
CSO_M3.BMP
  2 5.190728 -7.458001 -0.862719 0.306583 0.606666 -0.733459 0.513725 0.119522
  2 4.954499 -7.455453 -0.945722 0.306583 0.606666 -0.733459 0.513725 0.075697
  2 4.902154 -7.258596 -0.818414 0.306583 0.606666 -0.733459 0.552941 0.075697
CSO_M3.BMP
  2 5.437343 -7.313825 -1.090302 -0.230893 0.794976 0.560983 0.811765 0.517928
  2 5.150072 -7.199432 -1.388446 -0.230893 0.794976 0.560983 0.803922 0.482072
  2 5.487490 -7.763548 -0.432401 -0.230893 0.794976 0.560983 0.866667 0.545817
CSO_M3.BMP
  2 5.487490 -7.763548 -0.432401 -0.230893 0.794976 0.560983 0.866667 0.545817
  2 5.150072 -7.199432 -1.388446 -0.230893 0.794976 0.560983 0.803922 0.482072
  2 5.256134 -7.904483 -0.345731 -0.230893 0.794976 0.560983 0.890196 0.529880
CSO_M3.BMP
  2 5.150072 -7.199432 -1.388446 -0.230893 0.794976 0.560983 0.803922 0.482072
  2 4.730799 -8.016535 -0.385324 -0.230893 0.794976 0.560983 0.901961 0.482072
  2 5.256134 -7.904483 -0.345731 -0.230893 0.794976 0.560983 0.890196 0.529880
CSO_M3.BMP
  2 5.049255 -7.248667 -1.484944 0.379004 0.581206 -0.720108 0.447059 0.247012
  2 5.150072 -7.199432 -1.388446 0.613531 0.387719 -0.687934 0.443137 0.258964
  2 5.200897 -7.265462 -1.380913 0.652894 0.435696 -0.619595 0.447059 0.262948
CSO_M3.BMP
  2 5.200897 -7.265462 -1.380913 0.652894 0.435696 -0.619595 0.447059 0.262948
  2 5.150072 -7.199432 -1.388446 0.613531 0.387719 -0.687934 0.443137 0.258964
  2 5.441204 -7.375512 -1.126076 0.721183 0.519487 -0.458289 0.447059 0.298805
CSO_M3.BMP
  2 5.150072 -7.199432 -1.388446 0.613531 0.387719 -0.687934 0.443137 0.258964
  2 5.437343 -7.313825 -1.090302 0.721183 0.519487 -0.458289 0.443137 0.298805
  2 5.441204 -7.375512 -1.126076 0.721183 0.519487 -0.458289 0.447059 0.298805
CSO_M3.BMP
  5 -0.656352 -13.236545 4.634042 -0.640066 0.038398 -0.767360 0.894118 0.035857
  5 0.207648 -12.834772 4.277696 -0.569625 -0.055402 -0.820036 0.835294 0.071713
  5 -0.191387 -13.608886 4.711308 -0.169705 -0.400312 -0.900528 0.901961 0.059761
CSO_M3.BMP
  5 -0.191387 -13.608886 4.711308 -0.169705 -0.400312 -0.900528 0.901961 0.059761
  5 0.207648 -12.834772 4.277696 -0.569625 -0.055402 -0.820036 0.835294 0.071713
  5 0.814876 -13.182749 4.325509 -0.169705 -0.400312 -0.900528 0.835294 0.115538
CSO_M3.BMP
  2 0.750461 -13.065987 6.290366 0.923410 -0.002700 0.383804 0.431373 0.115538
  2 0.958251 -13.781451 5.785456 0.923410 -0.002700 0.383804 0.431373 0.163347
  2 2.829151 -8.952859 1.317477 0.923410 -0.002700 0.383804 0.000000 0.115538
CSO_M3.BMP
  2 2.829151 -8.952859 1.317477 0.923410 -0.002700 0.383804 0.000000 0.115538
  2 0.958251 -13.781451 5.785456 0.923410 -0.002700 0.383804 0.431373 0.163347
  2 3.036941 -9.668323 0.812567 0.923410 -0.002700 0.383804 0.000000 0.163347
CSO_M3.BMP
  5 2.231205 -11.608219 3.247654 0.917586 -0.013900 0.397294 0.670588 0.250996
  5 1.926063 -11.104641 3.959271 0.917586 -0.013900 0.397294 0.698039 0.191235
  5 0.974216 -14.113736 6.280701 0.917586 -0.013900 0.397294 0.988235 0.250996
CSO_M3.BMP
  5 0.974216 -14.113736 6.280701 0.917586 -0.013900 0.397294 0.988235 0.250996
  5 1.926063 -11.104641 3.959271 0.917586 -0.013900 0.397294 0.698039 0.191235
  5 0.770286 -13.428187 6.776115 0.917586 -0.013900 0.397294 0.988235 0.191235
CSO_M3.BMP
  5 2.231205 -11.608219 3.247654 0.917586 -0.013900 0.397294 0.670588 0.250996
  5 2.415196 -11.262452 2.833418 0.917586 -0.013900 0.397294 0.623529 0.250996
  5 1.998018 -10.805310 3.814276 0.917586 -0.013900 0.397294 0.670588 0.191235
CSO_M3.BMP
  5 1.998018 -10.805310 3.814276 0.917586 -0.013900 0.397294 0.670588 0.191235
  5 2.415196 -11.262452 2.833418 0.917586 -0.013900 0.397294 0.623529 0.250996
  5 2.182766 -10.445526 3.398315 0.917586 -0.013900 0.397294 0.627451 0.191235
CSO_M3.BMP
  5 2.415196 -11.262452 2.833418 0.319814 0.608527 -0.726232 0.623529 0.250996
  5 2.047350 -11.423986 2.518782 0.319814 0.608527 -0.726232 0.596078 0.262948
  5 2.182766 -10.445526 3.398315 0.319814 0.608527 -0.726232 0.627451 0.191235
CSO_M3.BMP
  5 2.182766 -10.445526 3.398315 0.319814 0.608527 -0.726232 0.627451 0.191235
  5 2.047350 -11.423986 2.518782 0.319814 0.608527 -0.726232 0.596078 0.262948
  5 1.702588 -10.380599 3.251300 0.319814 0.608527 -0.726232 0.596078 0.187251
CSO_M3.BMP
  2 -0.115236 -13.230295 5.792600 -0.923410 0.002700 -0.383804 0.431373 0.035857
  2 1.958079 -9.115284 0.832656 -0.923410 0.002700 -0.383804 0.000000 0.035857
  2 -0.009031 -13.627748 5.508257 -0.923410 0.002700 -0.383804 0.431373 0.000000
CSO_M3.BMP
  2 -0.009031 -13.627748 5.508257 -0.923410 0.002700 -0.383804 0.431373 0.000000
  2 1.958079 -9.115284 0.832656 -0.923410 0.002700 -0.383804 0.000000 0.035857
  2 2.069658 -9.514620 0.535368 -0.923410 0.002700 -0.383804 0.000000 0.000000
CSO_M3.BMP
  2 0.085602 -13.064072 6.014036 -0.724621 0.648418 0.233407 0.431373 0.059761
  2 2.173526 -8.950970 1.044985 -0.724621 0.648418 0.233407 0.000000 0.059761
  2 -0.115236 -13.230295 5.792600 -0.724621 0.648418 0.233407 0.431373 0.035857
CSO_M3.BMP
  2 -0.115236 -13.230295 5.792600 -0.724621 0.648418 0.233407 0.431373 0.035857
  2 2.173526 -8.950970 1.044985 -0.724621 0.648418 0.233407 0.000000 0.059761
  2 1.958079 -9.115284 0.832656 -0.724621 0.648418 0.233407 0.000000 0.035857
CSO_M3.BMP
  2 0.750461 -13.065987 6.290366 -0.230893 0.794976 0.560983 0.431373 0.115538
  2 2.829151 -8.952859 1.317477 -0.230893 0.794976 0.560983 0.000000 0.115538
  2 0.085602 -13.064072 6.014036 -0.230893 0.794976 0.560983 0.431373 0.059761
CSO_M3.BMP
  2 0.085602 -13.064072 6.014036 -0.230893 0.794976 0.560983 0.431373 0.059761
  2 2.829151 -8.952859 1.317477 -0.230893 0.794976 0.560983 0.000000 0.115538
  2 2.173526 -8.950970 1.044985 -0.230893 0.794976 0.560983 0.000000 0.059761
CSO_M3.BMP
  2 -0.096695 -15.058050 7.819783 -0.938180 -0.033799 -0.344493 0.270588 0.529880
  2 -0.136701 -14.936922 7.916879 -0.943281 0.001000 -0.331993 0.270588 0.529880
  2 0.041162 -14.730376 7.412198 -0.950710 0.116401 -0.287403 0.215686 0.529880
CSO_M3.BMP
  2 0.041162 -14.730376 7.412198 -0.950710 0.116401 -0.287403 0.215686 0.529880
  2 -0.136701 -14.936922 7.916879 -0.943281 0.001000 -0.331993 0.270588 0.529880
  2 0.024999 -14.611185 7.504026 -0.950154 0.149108 -0.273815 0.215686 0.529880
CSO_M3.BMP
  2 0.420419 -15.059540 8.034706 0.923410 -0.002700 0.383804 0.270588 0.617530
  2 0.585978 -14.731945 7.638635 0.929349 -0.052297 0.365480 0.215686 0.617530
  2 0.374244 -14.932320 8.120630 0.923410 -0.002700 0.383804 0.270588 0.617530
CSO_M3.BMP
  2 0.374244 -14.932320 8.120630 0.923410 -0.002700 0.383804 0.270588 0.617530
  2 0.585978 -14.731945 7.638635 0.929349 -0.052297 0.365480 0.215686 0.617530
  2 0.563646 -14.606661 7.719290 0.929349 -0.052297 0.365480 0.215686 0.617530
CSO_M3.BMP
  2 0.041162 -14.730376 7.412198 0.306583 0.606666 -0.733459 0.192157 0.529880
  2 0.024999 -14.611185 7.504026 0.306583 0.606666 -0.733459 0.215686 0.529880
  2 0.585978 -14.731945 7.638635 0.306583 0.606666 -0.733459 0.192157 0.617530
CSO_M3.BMP
  2 0.585978 -14.731945 7.638635 0.306583 0.606666 -0.733459 0.192157 0.617530
  2 0.024999 -14.611185 7.504026 0.306583 0.606666 -0.733459 0.215686 0.529880
  2 0.563646 -14.606661 7.719290 0.306583 0.606666 -0.733459 0.215686 0.617530
CSO_M3.BMP
  2 0.374244 -14.932320 8.120630 -0.230893 0.794976 0.560983 0.270588 0.617530
  2 0.563646 -14.606661 7.719290 -0.230893 0.794976 0.560983 0.215686 0.617530
  2 -0.136701 -14.936922 7.916879 -0.230893 0.794976 0.560983 0.270588 0.529880
CSO_M3.BMP
  2 -0.136701 -14.936922 7.916879 -0.230893 0.794976 0.560983 0.270588 0.529880
  2 0.563646 -14.606661 7.719290 -0.230893 0.794976 0.560983 0.215686 0.617530
  2 0.024999 -14.611185 7.504026 -0.230893 0.794976 0.560983 0.215686 0.529880
CSO_M3.BMP
  5 -0.175124 -13.465038 4.959789 0.816209 -0.564006 -0.125301 0.639216 0.725100
  5 0.022646 -13.241338 5.241117 0.941472 -0.306691 0.139896 0.639216 0.749004
  5 -0.747620 -14.621921 6.381327 0.816209 -0.564006 -0.125301 0.796078 0.725100
CSO_M3.BMP
  5 -0.747620 -14.621921 6.381327 0.816209 -0.564006 -0.125301 0.796078 0.725100
  5 0.022646 -13.241338 5.241117 0.941472 -0.306691 0.139896 0.639216 0.749004
  5 -0.559085 -14.398194 6.658817 0.941472 -0.306691 0.139896 0.796078 0.749004
CSO_M3.BMP
  5 -0.747620 -14.621921 6.381327 0.854615 -0.460208 -0.240504 0.796078 0.725100
  5 -0.559085 -14.398194 6.658817 0.983980 -0.177196 -0.019600 0.796078 0.749004
  5 -0.881579 -15.061281 6.752701 0.829771 -0.459484 -0.316789 0.839216 0.729084
CSO_M3.BMP
  5 -0.881579 -15.061281 6.752701 0.829771 -0.459484 -0.316789 0.839216 0.729084
  5 -0.559085 -14.398194 6.658817 0.983980 -0.177196 -0.019600 0.796078 0.749004
  5 -0.609178 -14.823777 7.063007 0.976176 -0.201495 -0.080498 0.839216 0.756972
CSO_M3.BMP
  5 -0.609178 -14.823777 7.063007 0.935025 -0.340509 0.098903 0.839216 0.756972
  5 -0.961722 -15.539658 7.932333 0.935025 -0.340509 0.098903 0.929412 0.756972
  5 -0.881579 -15.061281 6.752701 0.762537 -0.615930 -0.197909 0.839216 0.729084
CSO_M3.BMP
  5 -0.881579 -15.061281 6.752701 0.762537 -0.615930 -0.197909 0.839216 0.729084
  5 -0.961722 -15.539658 7.932333 0.935025 -0.340509 0.098903 0.929412 0.756972
  5 -1.234122 -15.777161 7.622027 0.762537 -0.615930 -0.197909 0.929412 0.729084
CSO_M3.BMP
  5 -0.736864 -13.231206 4.932018 -0.923410 0.002700 -0.383804 0.639216 0.665339
  5 -1.320145 -14.397869 6.327325 -0.923410 0.002700 -0.383804 0.796078 0.665339
  5 -0.794583 -13.064238 5.045992 -0.945315 0.284104 -0.160203 0.639216 0.681275
CSO_M3.BMP
  5 -0.794583 -13.064238 5.045992 -0.945315 0.284104 -0.160203 0.639216 0.681275
  5 -1.320145 -14.397869 6.327325 -0.923410 0.002700 -0.383804 0.796078 0.665339
  5 -1.374004 -14.229045 6.458082 -0.945315 0.284104 -0.160203 0.796078 0.681275
CSO_M3.BMP
  2 0.333684 -14.172802 7.259417 0.756004 0.311302 0.575803 0.549020 0.250996
  2 0.432961 -14.482863 7.044461 0.943615 -0.294805 0.150602 0.549020 0.227092
  2 0.598941 -13.691269 6.650594 0.756004 0.311302 0.575803 0.486275 0.250996
CSO_M3.BMP
  2 0.598941 -13.691269 6.650594 0.756004 0.311302 0.575803 0.486275 0.250996
  2 0.432961 -14.482863 7.044461 0.943615 -0.294805 0.150602 0.549020 0.227092
  2 0.677441 -13.993327 6.433571 0.943615 -0.294805 0.150602 0.486275 0.227092
CSO_M3.BMP
  2 0.432961 -14.482863 7.044461 0.943615 -0.294805 0.150602 0.549020 0.227092
  2 0.220583 -14.736425 6.745962 0.830022 -0.546915 -0.109303 0.549020 0.199203
  2 0.677441 -13.993327 6.433571 0.943615 -0.294805 0.150602 0.486275 0.227092
CSO_M3.BMP
  2 0.677441 -13.993327 6.433571 0.943615 -0.294805 0.150602 0.486275 0.227092
  2 0.220583 -14.736425 6.745962 0.830022 -0.546915 -0.109303 0.549020 0.199203
  2 0.465063 -14.246890 6.135072 0.830022 -0.546915 -0.109303 0.486275 0.199203
CSO_M3.BMP
  5 -1.735755 -14.502813 6.857565 -0.800195 0.491697 -0.343398 0.839216 0.665339
  5 -1.374004 -14.229045 6.458082 -0.801710 0.463006 -0.378005 0.796078 0.681275
  5 -1.641096 -14.796975 6.653829 -0.797292 0.175898 -0.577395 0.839216 0.637450
CSO_M3.BMP
  5 -1.641096 -14.796975 6.653829 -0.797292 0.175898 -0.577395 0.839216 0.637450
  5 -1.374004 -14.229045 6.458082 -0.801710 0.463006 -0.378005 0.796078 0.681275
  5 -1.320145 -14.397869 6.327325 -0.797292 0.175898 -0.577395 0.796078 0.665339
CSO_M3.BMP
  2 1.999791 -9.617228 0.598536 -0.923410 0.002700 -0.383804 0.992157 0.302789
  2 1.875874 -9.173933 0.899758 -0.923410 0.002700 -0.383804 0.992157 0.254980
  2 2.179960 -9.291543 0.193358 -0.735783 0.234595 -0.635286 0.960784 0.302789
CSO_M3.BMP
  2 2.179960 -9.291543 0.193358 -0.735783 0.234595 -0.635286 0.960784 0.302789
  2 1.875874 -9.173933 0.899758 -0.923410 0.002700 -0.383804 0.992157 0.254980
  2 2.056042 -8.848249 0.494580 -0.735783 0.234595 -0.635286 0.960784 0.254980
CSO_M3.BMP
  2 2.685968 -6.016589 -3.294325 -0.923410 0.002700 -0.383804 0.925490 0.442231
  2 2.794481 -6.390221 -3.558000 -0.923410 0.002700 -0.383804 0.949020 0.442231
  2 2.235352 -6.976598 -2.190727 -0.923410 0.002700 -0.383804 0.929412 0.370518
CSO_M3.BMP
  2 2.235352 -6.976598 -2.190727 -0.923410 0.002700 -0.383804 0.929412 0.370518
  2 2.794481 -6.390221 -3.558000 -0.923410 0.002700 -0.383804 0.949020 0.442231
  2 2.329255 -7.316548 -2.419017 -0.923410 0.002700 -0.383804 0.949020 0.370518
CSO_M3.BMP
  7 3.618164 -7.782370 -0.658104 0.315606 0.581010 -0.750213 0.607843 0.533865
  7 3.557340 -7.507927 -0.483801 0.315606 0.581010 -0.750213 0.607843 0.533865
  7 4.414609 -7.729064 -0.281096 0.315606 0.581010 -0.750213 0.607843 0.645418
CSO_M3.BMP
  7 4.414609 -7.729064 -0.281096 0.315606 0.581010 -0.750213 0.607843 0.645418
  7 3.557340 -7.507927 -0.483801 0.315606 0.581010 -0.750213 0.607843 0.533865
  7 4.082930 -7.523459 -0.263316 0.315606 0.581010 -0.750213 0.607843 0.597610
CSO_M3.BMP
  6 2.861169 -7.478662 -1.043496 0.406685 0.602678 -0.686575 0.454902 0.605578
  6 2.946585 -7.486851 -1.014565 0.406685 0.602678 -0.686575 0.454902 0.605578
  6 3.007378 -7.933698 -1.372380 0.406685 0.602678 -0.686575 0.454902 0.525896
CSO_M3.BMP
  6 3.007378 -7.933698 -1.372380 0.406685 0.602678 -0.686575 0.454902 0.525896
  6 2.946585 -7.486851 -1.014565 0.406685 0.602678 -0.686575 0.454902 0.605578
  6 3.075119 -7.946044 -1.327007 0.406685 0.602678 -0.686575 0.454902 0.525896
CSO_M3.BMP
  6 2.146446 -8.709907 0.407057 -0.230893 0.794976 0.560983 0.286275 0.605578
  6 2.946585 -7.486851 -1.014565 -0.230893 0.794976 0.560983 0.454902 0.605578
  6 2.050245 -8.711498 0.351896 -0.230893 0.794976 0.560983 0.278431 0.617530
CSO_M3.BMP
  6 2.050245 -8.711498 0.351896 -0.230893 0.794976 0.560983 0.278431 0.617530
  6 2.946585 -7.486851 -1.014565 -0.230893 0.794976 0.560983 0.454902 0.605578
  6 2.861169 -7.478662 -1.043496 -0.230893 0.794976 0.560983 0.447059 0.617530
CSO_M3.BMP
  6 2.050245 -8.711498 0.351896 -0.886983 0.065099 -0.457191 0.286275 0.605578
  6 2.861169 -7.478662 -1.043496 -0.886983 0.065099 -0.457191 0.454902 0.605578
  6 2.196455 -9.166535 0.023012 -0.886983 0.065099 -0.457191 0.286275 0.525896
CSO_M3.BMP
  6 2.196455 -9.166535 0.023012 -0.886983 0.065099 -0.457191 0.286275 0.525896
  6 2.861169 -7.478662 -1.043496 -0.886983 0.065099 -0.457191 0.454902 0.605578
  6 3.007378 -7.933698 -1.372380 -0.886983 0.065099 -0.457191 0.454902 0.525896
CSO_M3.BMP
  6 2.146446 -8.709907 0.407057 0.890809 -0.059201 0.450505 0.286275 0.605578
  6 2.292656 -9.164944 0.078174 0.890809 -0.059201 0.450505 0.286275 0.525896
  6 2.946585 -7.486851 -1.014565 0.890809 -0.059201 0.450505 0.454902 0.605578
CSO_M3.BMP
  6 2.946585 -7.486851 -1.014565 0.890809 -0.059201 0.450505 0.454902 0.605578
  6 2.292656 -9.164944 0.078174 0.890809 -0.059201 0.450505 0.286275 0.525896
  6 3.075119 -7.946044 -1.327007 0.890809 -0.059201 0.450505 0.454902 0.525896
CSO_M3.BMP
  7 3.215334 -8.483212 0.775266 0.052800 0.585298 -0.809097 0.823529 0.561753
  7 3.088510 -8.563695 0.819292 -0.513607 0.405406 -0.756210 0.823529 0.573705
  7 3.114504 -8.087642 1.046665 -0.066202 0.948622 -0.309407 0.909804 0.561753
CSO_M3.BMP
  7 3.114504 -8.087642 1.046665 -0.066202 0.948622 -0.309407 0.909804 0.561753
  7 3.088510 -8.563695 0.819292 -0.513607 0.405406 -0.756210 0.823529 0.573705
  7 2.979997 -8.158292 1.109246 -0.503520 0.858633 -0.096004 0.909804 0.573705
CSO_M3.BMP
  2 3.838957 -8.852913 1.181453 -0.281608 0.911027 0.301209 0.313725 0.247012
  2 2.965901 -9.076109 1.013653 0.527593 0.841989 0.112698 0.325490 0.191235
  2 3.399899 -8.823185 1.404263 -0.054299 0.869187 -0.491493 0.341176 0.231076
CSO_M3.BMP
  2 3.399899 -8.823185 1.404263 -0.054299 0.869187 -0.491493 0.341176 0.231076
  2 2.965901 -9.076109 1.013653 0.527593 0.841989 0.112698 0.325490 0.191235
  2 2.903563 -8.829698 1.191405 0.870619 0.426609 -0.245005 0.349020 0.191235
CSO_M3.BMP
  4 3.666832 -6.673836 -2.583208 0.501304 0.592905 -0.630205 0.964706 0.764940
  4 3.137237 -6.587255 -2.923844 0.501304 0.592905 -0.630205 0.964706 0.733068
  4 3.604496 -6.490969 -2.458013 0.501304 0.592905 -0.630205 0.980392 0.764940
CSO_M3.BMP
  4 3.604496 -6.490969 -2.458013 0.501304 0.592905 -0.630205 0.980392 0.764940
  4 3.137237 -6.587255 -2.923844 0.501304 0.592905 -0.630205 0.964706 0.733068
  4 3.087201 -6.398347 -2.802146 0.501304 0.592905 -0.630205 0.980392 0.733068
CSO_M3.BMP
  4 2.722028 -6.750094 -2.863973 -0.314620 0.464229 -0.827953 0.964706 0.701195
  4 2.660449 -6.553210 -2.740503 -0.314620 0.464229 -0.827953 0.980392 0.701195
  4 3.137237 -6.587255 -2.923844 -0.314620 0.464229 -0.827953 0.964706 0.733068
CSO_M3.BMP
  4 3.137237 -6.587255 -2.923844 -0.314620 0.464229 -0.827953 0.964706 0.733068
  4 2.660449 -6.553210 -2.740503 -0.314620 0.464229 -0.827953 0.980392 0.701195
  4 3.087201 -6.398347 -2.802146 -0.314620 0.464229 -0.827953 0.980392 0.733068
CSO_M3.BMP
  7 2.928406 -9.183799 1.043875 -0.925225 0.002400 -0.379410 0.807843 0.533865
  7 2.842982 -8.921435 1.225171 -0.925225 0.002400 -0.379410 0.807843 0.533865
  7 3.618164 -7.782370 -0.658104 -0.925225 0.002400 -0.379410 0.607843 0.533865
CSO_M3.BMP
  7 3.618164 -7.782370 -0.658104 -0.925225 0.002400 -0.379410 0.607843 0.533865
  7 2.842982 -8.921435 1.225171 -0.925225 0.002400 -0.379410 0.807843 0.533865
  7 3.557340 -7.507927 -0.483801 -0.925225 0.002400 -0.379410 0.607843 0.533865
CSO_M3.BMP
  2 2.235352 -6.976598 -2.190727 -0.230893 0.794976 0.560983 0.458824 0.227092
  2 2.592928 -7.238870 -1.671928 -0.230893 0.794976 0.560983 0.490196 0.266932
  2 2.941481 -7.213705 -1.546319 -0.230893 0.794976 0.560983 0.490196 0.294821
CSO_M3.BMP
  2 2.941481 -7.213705 -1.546319 -0.230893 0.794976 0.560983 0.490196 0.294821
  2 2.592928 -7.238870 -1.671928 -0.230893 0.794976 0.560983 0.490196 0.266932
  2 2.754424 -7.565539 -1.124747 -0.230893 0.794976 0.560983 0.533333 0.294821
CSO_M3.BMP
  8 2.770568 -1.055005 -10.547999 0.752796 0.316998 0.576897 0.149020 0.266932
  8 2.280815 -2.029865 -9.350339 0.752796 0.316998 0.576897 0.000000 0.266932
  8 2.832904 -1.237873 -10.673194 0.913009 0.030400 0.406804 0.149020 0.247012
CSO_M3.BMP
  8 2.832904 -1.237873 -10.673194 0.913009 0.030400 0.406804 0.149020 0.247012
  8 2.280815 -2.029865 -9.350339 0.752796 0.316998 0.576897 0.000000 0.266932
  8 2.342394 -2.226749 -9.473809 0.913009 0.030400 0.406804 0.000000 0.247012
CSO_M3.BMP
  2 3.037656 -7.543378 -1.806061 0.694717 0.537113 -0.478412 0.988235 0.306773
  2 2.387690 -7.292415 -2.429166 0.694717 0.537113 -0.478412 0.988235 0.382470
  2 2.941481 -7.213705 -1.546319 0.694717 0.537113 -0.478412 0.952941 0.306773
CSO_M3.BMP
  2 2.941481 -7.213705 -1.546319 0.694717 0.537113 -0.478412 0.952941 0.306773
  2 2.387690 -7.292415 -2.429166 0.694717 0.537113 -0.478412 0.988235 0.382470
  2 2.312255 -6.952518 -2.193200 0.694717 0.537113 -0.478412 0.952941 0.382470
CSO_M3.BMP
  2 2.647727 -7.659176 -0.946848 -0.782659 0.599269 0.168291 0.819608 0.784861
  2 2.056042 -8.848249 0.494580 -0.782659 0.599269 0.168291 0.952941 0.784861
  2 2.055178 -9.013723 1.120853 -0.553385 0.740580 0.381190 0.992157 0.804781
CSO_M3.BMP
  2 2.055178 -9.013723 1.120853 -0.553385 0.740580 0.381190 0.992157 0.804781
  2 2.056042 -8.848249 0.494580 -0.782659 0.599269 0.168291 0.952941 0.784861
  2 1.875874 -9.173933 0.899758 -0.782659 0.599269 0.168291 0.992157 0.784861
CSO_M3.BMP
  2 5.156604 -5.453945 -3.841308 0.987095 -0.159199 -0.017300 0.521569 0.888446
  2 4.972685 -5.693571 -4.130018 0.731810 -0.592808 -0.336204 0.525490 0.848606
  2 6.856511 -1.106001 -9.855391 0.972090 -0.064399 0.225598 0.000000 0.816733
CSO_M3.BMP
  2 6.856511 -1.106001 -9.855391 0.972090 -0.064399 0.225598 0.000000 0.816733
  2 4.972685 -5.693571 -4.130018 0.731810 -0.592808 -0.336204 0.525490 0.848606
  2 3.873529 -5.544595 -4.793465 0.230893 -0.794976 -0.560983 0.505882 0.760956
CSO_M3.BMP
  2 5.090085 -7.344193 -0.619781 -0.230893 0.794976 0.560983 0.568627 0.119522
  2 5.118400 -7.257352 -0.713359 -0.230893 0.794976 0.560983 0.552941 0.119522
  2 4.849998 -7.343502 -0.719567 -0.230893 0.794976 0.560983 0.568627 0.075697
CSO_M3.BMP
  2 4.849998 -7.343502 -0.719567 -0.230893 0.794976 0.560983 0.568627 0.075697
  2 5.118400 -7.257352 -0.713359 -0.230893 0.794976 0.560983 0.552941 0.119522
  2 4.902154 -7.258596 -0.818414 -0.230893 0.794976 0.560983 0.552941 0.075697
CSO_M3.BMP
  2 5.190728 -7.458001 -0.862719 0.935191 -0.335497 0.113399 0.627451 0.023904
  2 5.213053 -7.360883 -0.759425 0.935191 -0.335497 0.113399 0.607843 0.023904
  2 5.145496 -7.534984 -0.754424 0.935191 -0.335497 0.113399 0.627451 0.003984
CSO_M3.BMP
  2 5.145496 -7.534984 -0.754424 0.935191 -0.335497 0.113399 0.627451 0.003984
  2 5.213053 -7.360883 -0.759425 0.935191 -0.335497 0.113399 0.607843 0.023904
  2 5.163962 -7.439721 -0.667913 0.935191 -0.335497 0.113399 0.607843 0.003984
CSO_M3.BMP
  2 5.163962 -7.439721 -0.667913 0.756004 0.311302 0.575803 0.607843 0.003984
  2 5.213053 -7.360883 -0.759425 0.756004 0.311302 0.575803 0.607843 0.023904
  2 5.090085 -7.344193 -0.619781 0.756004 0.311302 0.575803 0.588235 0.003984
CSO_M3.BMP
  2 5.090085 -7.344193 -0.619781 0.756004 0.311302 0.575803 0.588235 0.003984
  2 5.213053 -7.360883 -0.759425 0.756004 0.311302 0.575803 0.607843 0.023904
  2 5.118400 -7.257352 -0.713359 0.756004 0.311302 0.575803 0.588235 0.023904
CSO_M3.BMP
  2 4.894069 -7.016503 -1.057841 0.306583 0.606666 -0.733459 0.462745 0.019920
  2 5.037957 -7.018785 -1.013217 0.306583 0.606666 -0.733459 0.443137 0.019920
  2 4.977185 -7.302688 -1.259805 0.306583 0.606666 -0.733459 0.462745 0.067729
CSO_M3.BMP
  2 4.977185 -7.302688 -1.259805 0.306583 0.606666 -0.733459 0.462745 0.067729
  2 5.037957 -7.018785 -1.013217 0.306583 0.606666 -0.733459 0.443137 0.019920
  2 5.115698 -7.303087 -1.202236 0.306583 0.606666 -0.733459 0.443137 0.067729
CSO_M3.BMP
  2 4.608903 -7.562467 -0.401561 -0.230893 0.794976 0.560983 0.576471 0.019920
  2 4.762024 -7.564775 -0.353099 -0.230893 0.794976 0.560983 0.576471 0.000000
  2 4.894069 -7.016503 -1.057841 -0.230893 0.794976 0.560983 0.462745 0.019920
CSO_M3.BMP
  2 4.894069 -7.016503 -1.057841 -0.230893 0.794976 0.560983 0.462745 0.019920
  2 4.762024 -7.564775 -0.353099 -0.230893 0.794976 0.560983 0.576471 0.000000
  2 5.037957 -7.018785 -1.013217 -0.230893 0.794976 0.560983 0.462745 0.000000
CSO_M3.BMP
  2 4.842832 -7.843011 -0.549453 0.923410 -0.002700 0.383804 0.576471 0.019920
  2 5.115698 -7.303087 -1.202236 0.923410 -0.002700 0.383804 0.462745 0.019920
  2 4.762024 -7.564775 -0.353099 0.923410 -0.002700 0.383804 0.576471 0.067729
CSO_M3.BMP
  2 4.762024 -7.564775 -0.353099 0.923410 -0.002700 0.383804 0.576471 0.067729
  2 5.115698 -7.303087 -1.202236 0.923410 -0.002700 0.383804 0.462745 0.019920
  2 5.037957 -7.018785 -1.013217 0.923410 -0.002700 0.383804 0.462745 0.067729
CSO_M3.BMP
  2 4.730799 -8.016535 -0.385324 -0.680617 0.678417 0.276607 0.901961 0.482072
  2 5.150072 -7.199432 -1.388446 -0.680617 0.678417 0.276607 0.803922 0.482072
  2 4.643834 -8.081695 -0.489205 -0.680617 0.678417 0.276607 0.901961 0.470120
CSO_M3.BMP
  2 4.643834 -8.081695 -0.489205 -0.680617 0.678417 0.276607 0.901961 0.470120
  2 5.150072 -7.199432 -1.388446 -0.680617 0.678417 0.276607 0.803922 0.482072
  2 5.049255 -7.248667 -1.484944 -0.680617 0.678417 0.276607 0.803922 0.470120
CSO_M3.BMP
  2 5.049255 -7.248667 -1.484944 0.923410 -0.002700 0.383804 0.803922 0.470120
  2 4.919206 -6.817505 -1.169053 0.923410 -0.002700 0.383804 0.803922 0.414343
  2 4.643834 -8.081695 -0.489205 0.923410 -0.002700 0.383804 0.901961 0.470120
CSO_M3.BMP
  2 4.643834 -8.081695 -0.489205 0.923410 -0.002700 0.383804 0.901961 0.470120
  2 4.919206 -6.817505 -1.169053 0.923410 -0.002700 0.383804 0.803922 0.414343
  2 4.512233 -7.628568 -0.169428 0.923410 -0.002700 0.383804 0.901961 0.414343
CSO_M3.BMP
  2 4.557660 -8.087522 -0.516411 -0.923410 0.002700 -0.383804 0.792157 0.418327
  2 4.426060 -7.634395 -0.196635 -0.923410 0.002700 -0.383804 0.792157 0.418327
  2 4.986925 -7.256430 -1.517420 -0.923410 0.002700 -0.383804 0.701961 0.418327
CSO_M3.BMP
  2 4.986925 -7.256430 -1.517420 -0.923410 0.002700 -0.383804 0.701961 0.418327
  2 4.426060 -7.634395 -0.196635 -0.923410 0.002700 -0.383804 0.792157 0.418327
  2 4.836099 -6.817266 -1.203594 -0.923410 0.002700 -0.383804 0.701961 0.418327
CSO_M3.BMP
  2 4.909970 -6.753935 -1.120334 -0.782659 0.599269 0.168291 0.701961 0.426295
  2 4.836099 -6.817266 -1.203594 -0.782659 0.599269 0.168291 0.701961 0.418327
  2 4.493763 -7.564971 -0.124547 -0.782659 0.599269 0.168291 0.792157 0.426295
CSO_M3.BMP
  2 4.493763 -7.564971 -0.124547 -0.782659 0.599269 0.168291 0.792157 0.426295
  2 4.836099 -6.817266 -1.203594 -0.782659 0.599269 0.168291 0.701961 0.418327
  2 4.426060 -7.634395 -0.196635 -0.782659 0.599269 0.168291 0.792157 0.418327
CSO_M3.BMP
  2 5.437343 -7.313825 -1.090302 0.970648 0.228111 0.076204 0.811765 0.525896
  2 5.487490 -7.763548 -0.432401 0.970648 0.228111 0.076204 0.866667 0.553785
  2 5.441204 -7.375512 -1.126076 0.970648 0.228111 0.076204 0.811765 0.517928
CSO_M3.BMP
  2 5.441204 -7.375512 -1.126076 0.970648 0.228111 0.076204 0.811765 0.517928
  2 5.487490 -7.763548 -0.432401 0.970648 0.228111 0.076204 0.866667 0.553785
  2 5.505960 -7.827145 -0.477282 0.970648 0.228111 0.076204 0.866667 0.545817
CSO_M3.BMP
  2 5.319596 -6.940167 -0.830465 0.970648 0.228111 0.076204 0.713725 0.486056
  2 5.370500 -7.375874 -0.174288 0.970648 0.228111 0.076204 0.760784 0.513944
  2 5.348058 -6.989774 -0.873232 0.970648 0.228111 0.076204 0.713725 0.478088
CSO_M3.BMP
  2 5.348058 -6.989774 -0.873232 0.970648 0.228111 0.076204 0.713725 0.478088
  2 5.370500 -7.375874 -0.174288 0.970648 0.228111 0.076204 0.760784 0.513944
  2 5.398205 -7.439498 -0.215331 0.970648 0.228111 0.076204 0.760784 0.505976
CSO_M3.BMP
  5 2.231205 -11.608219 3.247654 0.901776 -0.041699 0.430188 0.670588 0.250996
  5 1.998018 -10.805310 3.814276 0.901776 -0.041699 0.430188 0.670588 0.191235
  5 1.926063 -11.104641 3.959271 0.901776 -0.041699 0.430188 0.698039 0.191235
CSO_M3.BMP
  5 2.047350 -11.423986 2.518782 0.928795 0.038400 0.368598 0.596078 0.262948
  5 2.190618 -11.116422 2.124094 0.928795 0.038400 0.368598 0.552941 0.262948
  5 1.702588 -10.380599 3.251300 0.928795 0.038400 0.368598 0.596078 0.187251
CSO_M3.BMP
  5 1.702588 -10.380599 3.251300 0.917586 -0.013900 0.397294 0.596078 0.187251
  5 2.190618 -11.116422 2.124094 0.917586 -0.013900 0.397294 0.552941 0.262948
  5 1.876624 -10.067048 2.860792 0.917586 -0.013900 0.397294 0.552941 0.187251
CSO_M3.BMP
  5 1.355676 -10.861709 1.972126 -0.869726 0.108703 -0.481415 0.584314 0.035857
  5 0.700624 -10.976317 3.130518 -0.908900 0.397300 -0.126700 0.670588 0.071713
  5 1.207155 -10.303408 2.385455 -0.878211 0.432205 -0.204803 0.584314 0.079681
CSO_M3.BMP
  5 0.700624 -10.976317 3.130518 -0.908900 0.397300 -0.126700 0.670588 0.071713
  5 1.477246 -10.026183 2.727650 -0.458594 0.795089 0.396894 0.584314 0.115538
  5 1.207155 -10.303408 2.385455 -0.878211 0.432205 -0.204803 0.584314 0.079681
CSO_M3.BMP
  5 1.477246 -10.026183 2.727650 -0.458594 0.795089 0.396894 0.584314 0.115538
  5 1.702588 -10.380599 3.251300 -0.071599 0.795890 0.601192 0.623529 0.151394
  5 1.876624 -10.067048 2.860792 -0.123300 0.788001 0.603201 0.584314 0.151394
CSO_M3.BMP
  5 2.182766 -10.445526 3.398315 -0.071599 0.795890 0.601192 0.627451 0.191235
  5 1.702588 -10.380599 3.251300 -0.071599 0.795890 0.601192 0.623529 0.151394
  5 1.998018 -10.805310 3.814276 -0.119107 0.639935 0.759142 0.670588 0.191235
CSO_M3.BMP
  5 1.926063 -11.104641 3.959271 -0.119107 0.639935 0.759142 0.698039 0.191235
  5 0.172372 -13.339092 6.599876 0.145891 0.730855 0.666759 0.988235 0.143426
  5 0.770286 -13.428187 6.776115 -0.071599 0.795890 0.601192 0.988235 0.191235
CSO_M3.BMP
  5 -0.804869 -12.805330 4.942258 -0.800195 0.491697 -0.343398 0.894118 0.031873
  5 0.207648 -12.834772 4.277696 -0.569625 -0.055402 -0.820036 0.835294 0.023904
  5 -0.656352 -13.236545 4.634042 -0.640066 0.038398 -0.767360 0.894118 0.000000
CSO_M3.BMP
  5 0.474727 -11.996402 5.178199 -0.124702 0.830415 0.543010 0.835294 0.115538
  5 0.041416 -12.262401 4.681625 -0.766442 0.599333 -0.231013 0.835294 0.071713
  5 -0.500763 -12.575412 5.436785 -0.557187 0.791482 0.251194 0.901961 0.059761
CSO_M3.BMP
  2 -0.239049 -14.014516 6.032949 0.306583 0.606666 -0.733459 0.478431 0.075697
  2 -0.343701 -13.670800 6.287129 0.306583 0.606666 -0.733459 0.450980 0.075697
  2 0.111099 -14.251946 5.996566 0.306583 0.606666 -0.733459 0.490196 0.095618
CSO_M3.BMP
  5 -0.607569 -14.231253 6.776629 0.803306 0.431303 0.410703 0.796078 0.749004
  5 -0.609178 -14.823777 7.063007 0.976176 -0.201495 -0.080498 0.839216 0.776892
  5 -0.559085 -14.398194 6.658817 0.983980 -0.177196 -0.019600 0.796078 0.768924
CSO_M3.BMP
  5 -2.010557 -15.534768 7.511593 -0.923410 0.002700 -0.383804 0.929412 0.637450
  5 -2.088299 -15.218694 7.726891 -0.935177 0.336992 -0.108997 0.929412 0.665339
  5 -1.641096 -14.796975 6.653829 -0.923410 0.002700 -0.383804 0.839216 0.637450
CSO_M3.BMP
  2 0.252653 -13.451983 6.703760 0.120403 0.736518 0.665616 0.486275 0.199203
  2 0.333684 -14.172802 7.259417 0.756004 0.311302 0.575803 0.549020 0.227092
  2 0.598941 -13.691269 6.650594 0.756004 0.311302 0.575803 0.486275 0.227092
CSO_M3.BMP
  2 2.875584 -11.094228 3.301434 0.923410 -0.002700 0.383804 0.231373 0.398406
  2 1.882433 -12.581752 5.446177 0.744120 0.283908 0.604716 0.466667 0.374502
  2 1.914000 -12.738834 5.343082 0.911841 -0.024401 0.409818 0.466667 0.390438
CSO_M3.BMP
  2 3.370144 -9.006283 1.526695 0.120403 0.736518 0.665616 0.003922 0.354582
  2 2.804012 -10.847790 3.475348 0.756004 0.311302 0.575803 0.231373 0.378486
  2 3.635632 -9.189736 1.485934 0.756004 0.311302 0.575803 0.003922 0.378486
CSO_M3.BMP
  2 2.770688 -9.212940 1.091558 0.756004 0.311302 0.575803 0.003922 0.501992
  2 -0.381605 -15.763369 8.630677 0.923410 -0.002700 0.383804 0.694118 0.521912
  2 2.819173 -9.411654 0.947467 0.943615 -0.294805 0.150602 0.003922 0.521912
CSO_M3.BMP
  2 1.882433 -12.581752 5.446177 0.756004 0.311302 0.575803 0.466667 0.374502
  2 0.279868 -15.972311 9.252447 0.923410 -0.002700 0.383804 0.909804 0.386454
  2 1.914000 -12.738834 5.343082 0.923410 -0.002700 0.383804 0.466667 0.390438
CSO_M3.BMP
  2 2.673740 -9.578036 0.749058 0.830022 -0.546915 -0.109303 0.003922 0.490040
  2 2.819173 -9.411654 0.947467 0.943615 -0.294805 0.150602 0.003922 0.501992
  2 -0.543197 -15.937649 8.418983 0.830022 -0.546915 -0.109303 0.694118 0.490040
CSO_M3.BMP
  2 2.778570 -8.094547 -1.238622 -0.230893 0.794976 0.560983 0.282353 0.625498
  2 2.179960 -9.291543 0.193358 -0.230893 0.794976 0.560983 0.349020 0.625498
  2 2.884130 -8.941199 -0.013290 -0.230893 0.794976 0.560983 0.325490 0.669323
CSO_M3.BMP
  8 2.304237 -0.878917 -10.597283 -0.575994 0.731692 0.364496 0.145098 0.199203
  8 2.168038 -1.045327 -10.791854 -0.827892 0.550195 0.108999 0.145098 0.183267
  8 1.679837 -2.042152 -9.598079 -0.827892 0.550195 0.108999 0.000000 0.183267
CSO_M3.BMP
  2 3.545283 -5.895690 -3.094174 -0.876069 0.466784 0.120896 0.619608 0.262948
  2 3.672264 -6.269374 -3.350174 -0.923410 0.002700 -0.383804 0.619608 0.302789
  2 2.647727 -7.659176 -0.946848 -0.964888 -0.114899 -0.236197 0.823529 0.254980
CSO_M3.BMP
  7 3.170164 -8.215386 1.250585 0.404315 0.614622 0.677325 0.909804 0.617530
  7 3.274060 -8.604889 0.971852 0.928215 -0.020000 0.371506 0.823529 0.617530
  7 3.219218 -8.118321 1.133231 0.619098 0.741898 0.257499 0.909804 0.593625
CSO_M3.BMP
  2 3.765959 -7.562425 -0.249426 -0.884593 0.466096 0.015800 0.364706 0.187251
  2 4.066382 -6.949676 -0.994063 -0.884593 0.466096 0.015800 0.309804 0.187251
  2 3.937869 -7.189462 -1.259745 0.034300 0.764596 0.643597 0.313725 0.175299
CSO_M3.BMP
  8 2.459719 -1.415750 -10.949043 0.306583 0.606666 -0.733459 0.207843 0.231076
  8 2.231926 -1.250160 -10.920934 0.352291 0.605785 -0.713383 0.192157 0.211155
  8 2.168038 -1.045327 -10.791854 0.306583 0.606666 -0.733459 0.172549 0.211155
CSO_M3.BMP
  2 1.176581 -5.848112 -5.081129 -0.671715 -0.510311 0.537012 0.929412 0.505976
  2 2.794481 -6.390221 -3.558000 -0.671715 -0.510311 0.537012 0.929412 0.573705
  2 1.041877 -5.351053 -4.753581 -0.660893 0.011500 0.750392 0.913725 0.505976
CSO_M3.BMP
  2 3.545283 -5.895690 -3.094174 -0.876069 0.466784 0.120896 0.333333 0.290837
  2 3.105511 -6.120607 -3.027747 -0.255100 0.702399 0.664499 0.356863 0.262948
  2 3.422757 -6.224803 -2.749541 -0.315300 0.740101 0.594000 0.372549 0.294821
CSO_M3.BMP
  2 4.066382 -6.949676 -0.994063 -0.230893 0.794976 0.560983 0.752941 0.876494
  2 4.846362 -6.028463 -1.978439 0.155999 0.781494 0.604095 0.650980 0.900398
  2 3.857856 -6.947207 -1.065552 -0.230893 0.794976 0.560983 0.756863 0.860558
CSO_M3.BMP
  2 4.909970 -6.753935 -1.120334 0.206508 0.709826 0.673425 0.701961 0.426295
  2 4.493763 -7.564971 -0.124547 0.206508 0.709826 0.673425 0.792157 0.426295
  2 4.680000 -7.651013 -0.104231 0.034300 0.764596 0.643597 0.792157 0.446215
CSO_M3.BMP
  2 0.540288 -15.365522 8.499793 0.094297 0.592178 -0.800271 0.415686 0.621514
  2 0.510273 -15.230406 8.599003 -0.108201 0.988611 -0.104601 0.396078 0.621514
  2 0.986484 -15.306054 8.599152 -0.543865 0.396575 -0.739553 0.423529 0.661355
end
