version 1
nodes
  0 "phantom_1" -1
  1 "phantom_11" -1
  2 "phantom_22" -1
  3 "phantom_2" -1
  4 "stab_fx_bone" -1
  5 "root" -1
  6 "Bone01" 5
  7 "Bone_L_Upper" 6
  8 "Bone_Lefthand" 6
  9 "Bone13" 8
  10 "Bone14" 9
  11 "Bone15" 10
  12 "Bone17" 8
  13 "Bone18" 12
  14 "Bone19" 13
  15 "Bone21" 8
  16 "Bone22" 15
  17 "Bone23" 16
  18 "Bone09" 8
  19 "Bone10" 18
  20 "Bone11" 19
  21 "Bone05" 8
  22 "Bone06" 21
  23 "Bone07" 22
  24 "Bone_Se_Hand-L" 8
  25 "Bone04" 5
  26 "Bone_Righthand" 25
  27 "Bone39" 26
  28 "Bone40" 27
  29 "Bone41" 28
  30 "Bone35" 26
  31 "Bone36" 30
  32 "Bone37" 31
  33 "Bone31" 26
  34 "Bone32" 33
  35 "Bone33" 34
  36 "Bone43" 26
  37 "Bone44" 36
  38 "Bone45" 37
  39 "Bone27" 26
  40 "Bone28" 39
  41 "Bone29" 40
  42 "Bone_Se_Hand-R" 26
  43 "Bone_R_Upper" 25
end
skeleton
  time 0
    0 0.000000 -0.000002 48.828247 -3.141592 1.570796 0.000000
    1 0.000000 -9.548562 37.551598 -3.141592 1.570796 0.000000
    2 -0.000001 -30.405510 37.551598 -3.141592 1.570796 0.000000
    3 -0.000001 -20.525276 48.828247 -3.141592 1.570796 0.000000
    4 -24.928131 39.600525 5.355363 0.000000 0.000000 0.000000
    5 0.001265 -0.569176 -20.601572 0.000000 0.000000 0.000000
    6 9.310103 -5.299614 -12.557959 3.138909 -0.000224 -1.566807
    7 1.257180 8.762585 -0.153713 -1.570562 0.002683 -1.566807
    8 -0.071921 -8.498736 -0.104134 -0.025046 0.287591 0.014898
    9 -0.488518 -2.755602 -0.228260 0.106454 0.010332 -0.264490
    10 0.039887 -1.479790 0.029854 -0.055395 0.000000 0.000001
    11 0.028786 -1.075731 -0.023109 0.002099 0.000000 0.000000
    12 0.250027 -2.820665 -0.238396 0.041826 -0.002921 0.008443
    13 -0.049759 -1.680544 0.100479 0.019826 0.000000 -0.000002
    14 -0.034142 -1.148312 0.084782 -0.040115 0.000000 0.000000
    15 0.957766 -2.746780 -0.090302 -0.017221 -0.162277 0.191558
    16 -0.033420 -1.397129 -0.011257 0.013931 0.000000 -0.000001
    17 -0.022360 -0.957436 0.018784 0.003845 0.000000 0.000000
    18 -1.180681 -2.507217 -0.193859 0.082999 0.013294 -0.477915
    19 -0.024967 -1.123934 0.017597 -0.018065 0.000000 0.000001
    20 -0.020057 -0.890968 0.010090 -0.060797 0.000000 0.000000
    21 0.583510 -1.197277 0.185379 0.158049 -0.404973 -0.364290
    22 1.535927 0.010246 0.005009 -0.002964 -0.012979 0.000887
    23 1.100771 0.004527 -0.010679 -0.002796 0.015973 0.003458
    24 0.120153 -0.050270 -0.054489 0.287569 3.110905 1.561085
    25 -9.310107 -5.231260 -12.513384 0.004984 -3.131565 -1.566847
    26 0.096944 -8.450418 -0.009365 -0.032965 -0.297907 -0.004663
    27 0.447953 -2.798986 -0.200443 0.106456 -0.010396 0.265094
    28 -0.032909 -1.480204 0.004940 -0.055403 0.000000 0.000002
    29 -0.027022 -1.076920 -0.020210 0.002094 0.000000 0.000000
    30 -0.249534 -2.846964 -0.174213 0.041903 -0.000125 -0.008396
    31 0.043235 -1.683941 0.096012 0.019757 0.002823 -0.000167
    32 0.031729 -1.160830 0.058838 -0.040181 0.000642 0.008372
    33 -0.963866 -2.785145 -0.085350 -0.017227 0.162276 -0.191556
    34 0.028479 -1.403067 0.006271 0.013941 0.000000 0.000000
    35 0.021413 -0.957781 0.020046 0.003851 0.000000 0.000000
    36 1.164475 -2.543940 -0.170330 0.083003 -0.013294 0.477915
    37 0.024032 -1.129042 0.017807 -0.018074 0.000000 0.000001
    38 0.014898 -0.883989 -0.019848 -0.060801 0.000000 0.000000
    39 -0.586770 -1.264477 0.200161 -0.152092 -0.410513 -2.814816
    40 1.522835 0.058681 0.016848 0.001410 0.008985 -0.046880
    41 1.117947 0.048424 -0.005766 -0.000243 -0.025198 0.065422
    42 -0.139399 -0.111698 0.014397 0.285382 -0.030687 1.580508
    43 -1.393470 8.839177 -0.239433 1.580804 -0.005023 -1.566847
end
triangles
$0b_stabfxm.bmp
  4 -25.278131 52.800525 -0.304637 -0.959791 0.010492 0.280521 1.000000 0.376471
  4 -25.508131 51.960525 -0.854637 -0.931500 0.110028 0.346702 1.000000 0.388235
  4 -22.978131 46.470525 7.795363 -0.959791 0.010492 0.280521 0.000000 0.376471
$0b_stabfxm.bmp
  4 -22.978131 46.470525 7.795363 -0.959791 0.010492 0.280521 0.000000 0.376471
  4 -25.508131 51.960525 -0.854637 -0.931500 0.110028 0.346702 1.000000 0.388235
  4 -23.098131 46.060525 7.525363 -0.931500 0.110028 0.346702 0.000000 0.388235
$0b_stabfxm.bmp
  4 -25.508131 51.960525 -0.854637 -0.931500 0.110028 0.346702 1.000000 0.388235
  4 -25.988131 50.740525 -1.474637 -0.890337 0.214721 0.401490 1.000000 0.400000
  4 -23.098131 46.060525 7.525363 -0.931500 0.110028 0.346702 0.000000 0.388235
$0b_stabfxm.bmp
  4 -23.098131 46.060525 7.525363 -0.931500 0.110028 0.346702 0.000000 0.388235
  4 -25.988131 50.740525 -1.474637 -0.890337 0.214721 0.401490 1.000000 0.400000
  4 -23.238131 45.680525 7.335363 0.895085 0.351975 -0.273744 0.000000 0.400000
$0b_stabfxm.bmp
  4 -25.988131 50.740525 -1.474637 -0.890337 0.214721 0.401490 1.000000 0.400000
  4 -26.478131 49.720525 -1.824637 -0.847399 0.305753 0.434085 1.000000 0.407843
  4 -23.238131 45.680525 7.335363 0.895085 0.351975 -0.273744 0.000000 0.400000
$0b_stabfxm.bmp
  4 -23.238131 45.680525 7.335363 0.895085 0.351975 -0.273744 0.000000 0.400000
  4 -26.478131 49.720525 -1.824637 -0.847399 0.305753 0.434085 1.000000 0.407843
  4 -23.228131 45.700525 7.345363 -0.458220 0.731201 0.505351 0.000000 0.407843
$0b_stabfxm.bmp
  4 -26.478131 49.720525 -1.824637 -0.847399 0.305753 0.434085 1.000000 0.407843
  4 -27.038131 48.650525 -2.054637 -0.810341 0.376596 0.448913 1.000000 0.419608
  4 -23.228131 45.700525 7.345363 -0.458220 0.731201 0.505351 0.000000 0.407843
$0b_stabfxm.bmp
  4 -23.228131 45.700525 7.345363 -0.458220 0.731201 0.505351 0.000000 0.407843
  4 -27.038131 48.650525 -2.054637 -0.810341 0.376596 0.448913 1.000000 0.419608
  4 -23.358131 45.430525 7.275363 -0.829060 0.337474 0.445836 0.000000 0.419608
$0b_stabfxm.bmp
  4 -27.038131 48.650525 -2.054637 -0.810341 0.376596 0.448913 1.000000 0.419608
  4 -27.658131 47.550525 -2.134637 -0.776398 0.436833 0.454294 1.000000 0.427451
  4 -23.358131 45.430525 7.275363 -0.829060 0.337474 0.445836 0.000000 0.419608
$0b_stabfxm.bmp
  4 -23.358131 45.430525 7.275363 -0.829060 0.337474 0.445836 0.000000 0.419608
  4 -27.658131 47.550525 -2.134637 -0.776398 0.436833 0.454294 1.000000 0.427451
  4 -23.478131 45.190525 7.265363 -0.776398 0.436833 0.454294 0.000000 0.427451
$0b_stabfxm.bmp
  4 -27.658131 47.550525 -2.134637 -0.776398 0.436833 0.454294 1.000000 0.427451
  4 -28.298131 46.420525 -2.054637 -0.746884 0.488144 0.451530 1.000000 0.439216
  4 -23.478131 45.190525 7.265363 -0.776398 0.436833 0.454294 0.000000 0.427451
$0b_stabfxm.bmp
  4 -23.478131 45.190525 7.265363 -0.776398 0.436833 0.454294 0.000000 0.427451
  4 -28.298131 46.420525 -2.054637 -0.746884 0.488144 0.451530 1.000000 0.439216
  4 -23.588131 44.990525 7.285363 -0.746884 0.488144 0.451530 0.000000 0.439216
$0b_stabfxm.bmp
  4 -28.298131 46.420525 -2.054637 -0.746884 0.488144 0.451530 1.000000 0.439216
  4 -29.188131 44.790525 -1.644637 -0.723885 0.528948 0.442951 1.000000 0.447059
  4 -23.588131 44.990525 7.285363 -0.746884 0.488144 0.451530 0.000000 0.439216
$0b_stabfxm.bmp
  4 -23.588131 44.990525 7.285363 -0.746884 0.488144 0.451530 0.000000 0.439216
  4 -29.188131 44.790525 -1.644637 -0.723885 0.528948 0.442951 1.000000 0.447059
  4 -23.678131 44.800525 7.345363 -0.202214 -0.975619 0.085310 0.000000 0.447059
$0b_stabfxm.bmp
  4 -29.188131 44.790525 -1.644637 -0.723885 0.528948 0.442951 1.000000 0.447059
  4 -29.758131 43.650525 -1.164637 -0.723885 0.528948 0.442951 1.000000 0.458824
  4 -23.678131 44.800525 7.345363 -0.202214 -0.975619 0.085310 0.000000 0.447059
$0b_stabfxm.bmp
  4 -23.678131 44.800525 7.345363 -0.202214 -0.975619 0.085310 0.000000 0.447059
  4 -29.758131 43.650525 -1.164637 -0.723885 0.528948 0.442951 1.000000 0.458824
  4 -23.508131 45.120525 7.235363 -0.739814 0.408051 0.534948 0.000000 0.458824
$0b_stabfxm.bmp
  4 -29.758131 43.650525 -1.164637 -0.723885 0.528948 0.442951 1.000000 0.458824
  4 -30.238131 42.550525 -0.534637 -0.723885 0.528948 0.442951 1.000000 0.466667
  4 -23.508131 45.120525 7.235363 -0.739814 0.408051 0.534948 0.000000 0.458824
$0b_stabfxm.bmp
  4 -23.508131 45.120525 7.235363 -0.739814 0.408051 0.534948 0.000000 0.458824
  4 -30.238131 42.550525 -0.534637 -0.723885 0.528948 0.442951 1.000000 0.466667
  4 -23.568131 44.970525 7.315363 -0.723885 0.528948 0.442951 0.000000 0.466667
$0b_stabfxm.bmp
  4 -30.238131 42.550525 -0.534637 -0.723885 0.528948 0.442951 1.000000 0.466667
  4 -30.608131 41.480525 0.215363 -0.723885 0.528948 0.442951 1.000000 0.478431
  4 -23.568131 44.970525 7.315363 -0.723885 0.528948 0.442951 0.000000 0.466667
$0b_stabfxm.bmp
  4 -23.568131 44.970525 7.315363 -0.723885 0.528948 0.442951 0.000000 0.466667
  4 -30.608131 41.480525 0.215363 -0.723885 0.528948 0.442951 1.000000 0.478431
  4 -23.608131 44.820525 7.425363 -0.723885 0.528948 0.442951 0.000000 0.478431
$0b_stabfxm.bmp
  4 -30.608131 41.480525 0.215363 -0.723885 0.528948 0.442951 1.000000 0.478431
  4 -30.908131 40.050525 1.415363 -0.723885 0.528948 0.442951 1.000000 0.486275
  4 -23.608131 44.820525 7.425363 -0.723885 0.528948 0.442951 0.000000 0.478431
$0b_stabfxm.bmp
  4 -23.608131 44.820525 7.425363 -0.723885 0.528948 0.442951 0.000000 0.478431
  4 -30.908131 40.050525 1.415363 -0.723885 0.528948 0.442951 1.000000 0.486275
  4 -23.618131 44.670525 7.555363 0.444838 -0.846546 0.292368 0.000000 0.486275
$0b_stabfxm.bmp
  4 -30.908131 40.050525 1.415363 -0.723885 0.528948 0.442951 1.000000 0.486275
  4 -30.928131 39.140525 2.325363 -0.720023 0.474946 0.505958 1.000000 0.498039
  4 -23.618131 44.670525 7.555363 0.444838 -0.846546 0.292368 0.000000 0.486275
$0b_stabfxm.bmp
  4 -23.618131 44.670525 7.555363 0.444838 -0.846546 0.292368 0.000000 0.486275
  4 -30.928131 39.140525 2.325363 -0.720023 0.474946 0.505958 1.000000 0.498039
  4 -23.588131 44.880525 7.365363 -0.545150 -0.025218 0.837959 0.000000 0.498039
$0b_stabfxm.bmp
  4 -30.928131 39.140525 2.325363 -0.720023 0.474946 0.505958 1.000000 0.498039
  4 -30.818131 38.280525 3.225363 -0.712850 0.432731 0.551896 1.000000 0.509804
  4 -23.588131 44.880525 7.365363 -0.545150 -0.025218 0.837959 0.000000 0.498039
$0b_stabfxm.bmp
  4 -23.588131 44.880525 7.365363 -0.545150 -0.025218 0.837959 0.000000 0.498039
  4 -30.818131 38.280525 3.225363 -0.712850 0.432731 0.551896 1.000000 0.509804
  4 -23.548131 44.680525 7.575363 -0.712850 0.432731 0.551896 0.000000 0.509804
$0b_stabfxm.bmp
  4 -30.818131 38.280525 3.225363 -0.712850 0.432731 0.551896 1.000000 0.509804
  4 -30.558131 37.490525 4.095363 -0.693262 0.375950 0.614858 1.000000 0.517647
  4 -23.548131 44.680525 7.575363 -0.712850 0.432731 0.551896 0.000000 0.509804
$0b_stabfxm.bmp
  4 -23.548131 44.680525 7.575363 -0.712850 0.432731 0.551896 0.000000 0.509804
  4 -30.558131 37.490525 4.095363 -0.693262 0.375950 0.614858 1.000000 0.517647
  4 -23.468131 44.470525 7.815363 -0.662883 0.327933 0.673087 0.000000 0.517647
$0b_stabfxm.bmp
  4 -30.558131 37.490525 4.095363 -0.693262 0.375950 0.614858 1.000000 0.517647
  4 -30.028131 36.560525 5.135363 -0.662883 0.327933 0.673087 1.000000 0.529412
  4 -23.468131 44.470525 7.815363 -0.662883 0.327933 0.673087 0.000000 0.517647
$0b_stabfxm.bmp
  4 -23.468131 44.470525 7.815363 -0.662883 0.327933 0.673087 0.000000 0.517647
  4 -30.028131 36.560525 5.135363 -0.662883 0.327933 0.673087 1.000000 0.529412
  4 -23.448131 44.450525 7.845363 -0.625459 0.271038 0.731669 0.000000 0.529412
$0b_stabfxm.bmp
  4 -30.028131 36.560525 5.135363 -0.662883 0.327933 0.673087 1.000000 0.529412
  4 -29.528131 35.930525 5.795363 -0.599735 0.242716 0.762500 1.000000 0.537255
  4 -23.448131 44.450525 7.845363 -0.625459 0.271038 0.731669 0.000000 0.529412
$0b_stabfxm.bmp
  4 -23.448131 44.450525 7.845363 -0.625459 0.271038 0.731669 0.000000 0.529412
  4 -29.528131 35.930525 5.795363 -0.599735 0.242716 0.762500 1.000000 0.537255
  4 -23.208131 44.160525 8.155363 -0.599735 0.242716 0.762500 0.000000 0.537255
$0b_stabfxm.bmp
  4 -29.528131 35.930525 5.795363 -0.599735 0.242716 0.762500 1.000000 0.537255
  4 -28.958131 35.360525 6.355363 -0.528995 0.172975 0.830809 1.000000 0.549020
  4 -23.208131 44.160525 8.155363 -0.599735 0.242716 0.762500 0.000000 0.537255
$0b_stabfxm.bmp
  4 -23.208131 44.160525 8.155363 -0.599735 0.242716 0.762500 0.000000 0.537255
  4 -28.958131 35.360525 6.355363 -0.528995 0.172975 0.830809 1.000000 0.549020
  4 -22.878131 43.840525 8.465363 -0.528995 0.172975 0.830809 0.000000 0.549020
$0b_stabfxm.bmp
  4 -28.958131 35.360525 6.355363 -0.528995 0.172975 0.830809 1.000000 0.549020
  4 -28.278131 34.780525 6.835363 -0.436853 0.096150 0.894379 1.000000 0.556863
  4 -22.878131 43.840525 8.465363 -0.528995 0.172975 0.830809 0.000000 0.549020
$0b_stabfxm.bmp
  4 -22.878131 43.840525 8.465363 -0.528995 0.172975 0.830809 0.000000 0.549020
  4 -28.278131 34.780525 6.835363 -0.436853 0.096150 0.894379 1.000000 0.556863
  4 -22.518131 43.540525 8.705363 -0.436853 0.096150 0.894379 0.000000 0.556863
$0b_stabfxm.bmp
  4 -28.278131 34.780525 6.835363 -0.436853 0.096150 0.894379 1.000000 0.556863
  4 -27.688131 34.330525 7.105363 -0.339070 0.023268 0.940473 1.000000 0.568627
  4 -22.518131 43.540525 8.705363 -0.436853 0.096150 0.894379 0.000000 0.556863
$0b_stabfxm.bmp
  4 -22.518131 43.540525 8.705363 -0.436853 0.096150 0.894379 0.000000 0.556863
  4 -27.688131 34.330525 7.105363 -0.339070 0.023268 0.940473 1.000000 0.568627
  4 -21.958131 43.120525 8.955363 -0.339070 0.023268 0.940473 0.000000 0.568627
$0b_stabfxm.bmp
  4 -27.688131 34.330525 7.105363 -0.339070 0.023268 0.940473 1.000000 0.568627
  4 -27.118131 33.920525 7.275363 -0.236766 -0.049435 0.970308 1.000000 0.576471
  4 -21.958131 43.120525 8.955363 -0.339070 0.023268 0.940473 0.000000 0.568627
$0b_stabfxm.bmp
  4 -21.958131 43.120525 8.955363 -0.339070 0.023268 0.940473 0.000000 0.568627
  4 -27.118131 33.920525 7.275363 -0.236766 -0.049435 0.970308 1.000000 0.576471
  4 -21.308131 42.660525 9.135363 -0.236766 -0.049435 0.970308 0.000000 0.576471
$0b_stabfxm.bmp
  4 -27.118131 33.920525 7.275363 -0.236766 -0.049435 0.970308 1.000000 0.576471
  4 -26.728131 33.640525 7.325363 -0.133963 -0.122871 0.983340 1.000000 0.588235
  4 -21.308131 42.660525 9.135363 -0.236766 -0.049435 0.970308 0.000000 0.576471
$0b_stabfxm.bmp
  4 -21.308131 42.660525 9.135363 -0.236766 -0.049435 0.970308 0.000000 0.576471
  4 -26.728131 33.640525 7.325363 -0.133963 -0.122871 0.983340 1.000000 0.588235
  4 -20.468131 42.040525 9.215363 -0.133963 -0.122871 0.983340 0.000000 0.588235
$0b_stabfxm.bmp
  4 -26.728131 33.640525 7.325363 -0.133963 -0.122871 0.983340 1.000000 0.588235
  4 -26.308131 33.310525 7.305363 -0.089950 -0.153074 0.984112 1.000000 0.600000
  4 -20.468131 42.040525 9.215363 -0.133963 -0.122871 0.983340 0.000000 0.588235
$0b_stabfxm.bmp
  4 -20.468131 42.040525 9.215363 -0.133963 -0.122871 0.983340 0.000000 0.588235
  4 -26.308131 33.310525 7.305363 -0.089950 -0.153074 0.984112 1.000000 0.600000
  4 -19.678131 41.440525 9.165363 -0.022946 -0.203890 0.978725 0.000000 0.600000
$0b_stabfxm.bmp
  4 -26.308131 33.310525 7.305363 -0.089950 -0.153074 0.984112 1.000000 0.600000
  4 -26.188131 33.220525 7.305363 -0.022946 -0.203890 0.978725 1.000000 0.607843
  4 -19.678131 41.440525 9.165363 -0.022946 -0.203890 0.978725 0.000000 0.600000
$0b_stabfxm.bmp
  4 -19.678131 41.440525 9.165363 -0.022946 -0.203890 0.978725 0.000000 0.600000
  4 -26.188131 33.220525 7.305363 -0.022946 -0.203890 0.978725 1.000000 0.607843
  4 -18.638131 40.560525 8.925363 0.060985 -0.273732 0.959871 0.000000 0.607843
$0b_stabfxm.bmp
  4 -26.188131 33.220525 7.305363 -0.022946 -0.203890 0.978725 1.000000 0.607843
  4 -25.918131 32.960525 7.205363 0.100239 -0.313093 0.944418 1.000000 0.619608
  4 -18.638131 40.560525 8.925363 0.060985 -0.273732 0.959871 0.000000 0.607843
$0b_stabfxm.bmp
  4 -18.638131 40.560525 8.925363 0.060985 -0.273732 0.959871 0.000000 0.607843
  4 -25.918131 32.960525 7.205363 0.100239 -0.313093 0.944418 1.000000 0.619608
  4 -17.868131 39.800525 8.595363 0.100239 -0.313093 0.944418 0.000000 0.619608
$0b_stabfxm.bmp
  4 -25.918131 32.960525 7.205363 0.100239 -0.313093 0.944418 1.000000 0.619608
  4 -25.698131 32.710525 7.085363 -0.407644 0.388840 0.826214 1.000000 0.627451
  4 -17.868131 39.800525 8.595363 0.100239 -0.313093 0.944418 0.000000 0.619608
$0b_stabfxm.bmp
  4 -17.868131 39.800525 8.595363 0.100239 -0.313093 0.944418 0.000000 0.619608
  4 -25.698131 32.710525 7.085363 -0.407644 0.388840 0.826214 1.000000 0.627451
  4 -17.148131 38.970525 8.165363 0.159974 -0.376122 0.912656 0.000000 0.627451
$0b_stabfxm.bmp
  4 -25.698131 32.710525 7.085363 -0.407644 0.388840 0.826214 1.000000 0.627451
  4 -25.768131 32.810525 7.145363 -0.040089 -0.144282 0.988724 1.000000 0.639216
  4 -17.148131 38.970525 8.165363 0.159974 -0.376122 0.912656 0.000000 0.627451
$0b_stabfxm.bmp
  4 -17.148131 38.970525 8.165363 0.159974 -0.376122 0.912656 0.000000 0.627451
  4 -25.768131 32.810525 7.145363 -0.040089 -0.144282 0.988724 1.000000 0.639216
  4 -16.328131 37.730525 7.455363 0.186707 -0.413535 0.891139 0.000000 0.639216
$0b_stabfxm.bmp
  4 -25.768131 32.810525 7.145363 -0.040089 -0.144282 0.988724 1.000000 0.639216
  4 -25.648131 32.570525 7.015363 0.017248 -0.062344 0.997906 1.000000 0.647059
  4 -16.328131 37.730525 7.455363 0.186707 -0.413535 0.891139 0.000000 0.639216
$0b_stabfxm.bmp
  4 -16.328131 37.730525 7.455363 0.186707 -0.413535 0.891139 0.000000 0.639216
  4 -25.648131 32.570525 7.015363 0.017248 -0.062344 0.997906 1.000000 0.647059
  4 -15.858131 36.750525 6.875363 0.186707 -0.413535 0.891139 0.000000 0.647059
$0b_stabfxm.bmp
  4 -25.648131 32.570525 7.015363 0.017248 -0.062344 0.997906 1.000000 0.647059
  4 -25.678131 32.720525 7.095363 -0.170658 0.662606 0.729266 1.000000 0.658824
  4 -15.858131 36.750525 6.875363 0.186707 -0.413535 0.891139 0.000000 0.647059
$0b_stabfxm.bmp
  4 -15.858131 36.750525 6.875363 0.186707 -0.413535 0.891139 0.000000 0.647059
  4 -25.678131 32.720525 7.095363 -0.170658 0.662606 0.729266 1.000000 0.658824
  4 -15.418131 35.330525 6.065363 0.186707 -0.413535 0.891139 0.000000 0.658824
$0b_stabfxm.bmp
  4 -25.678131 32.720525 7.095363 -0.170658 0.662606 0.729266 1.000000 0.658824
  4 -25.628131 32.440525 6.965363 0.202150 -0.561888 0.802133 1.000000 0.666667
  4 -15.418131 35.330525 6.065363 0.186707 -0.413535 0.891139 0.000000 0.658824
$0b_stabfxm.bmp
  4 -15.418131 35.330525 6.065363 0.186707 -0.413535 0.891139 0.000000 0.658824
  4 -25.628131 32.440525 6.965363 0.202150 -0.561888 0.802133 1.000000 0.666667
  4 -15.248131 34.270525 5.515363 0.186707 -0.413535 0.891139 0.000000 0.666667
$0b_stabfxm.bmp
  4 -25.628131 32.440525 6.965363 0.202150 -0.561888 0.802133 1.000000 0.666667
  4 -25.618131 32.490525 6.975363 -0.125916 0.500508 -0.856526 1.000000 0.678431
  4 -15.248131 34.270525 5.515363 0.186707 -0.413535 0.891139 0.000000 0.666667
$0b_stabfxm.bmp
  4 -15.248131 34.270525 5.515363 0.186707 -0.413535 0.891139 0.000000 0.666667
  4 -25.618131 32.490525 6.975363 -0.125916 0.500508 -0.856526 1.000000 0.678431
  4 -15.188131 32.830525 4.885363 0.195416 -0.363732 0.910775 0.000000 0.678431
$0b_stabfxm.bmp
  4 -25.618131 32.490525 6.975363 -0.125916 0.500508 -0.856526 1.000000 0.678431
  4 -25.628131 32.110525 6.845363 0.201152 -0.290062 0.935629 1.000000 0.686275
  4 -15.188131 32.830525 4.885363 0.195416 -0.363732 0.910775 0.000000 0.678431
$0b_stabfxm.bmp
  4 -15.188131 32.830525 4.885363 0.195416 -0.363732 0.910775 0.000000 0.678431
  4 -25.628131 32.110525 6.845363 0.201152 -0.290062 0.935629 1.000000 0.686275
  4 -15.268131 31.770525 4.515363 0.201152 -0.290062 0.935629 0.000000 0.686275
$0b_stabfxm.bmp
  4 -25.628131 32.110525 6.845363 0.201152 -0.290062 0.935629 1.000000 0.686275
  4 -25.688131 31.680525 6.745363 0.217140 -0.182536 0.958922 1.000000 0.698039
  4 -15.268131 31.770525 4.515363 0.201152 -0.290062 0.935629 0.000000 0.686275
$0b_stabfxm.bmp
  4 -15.268131 31.770525 4.515363 0.201152 -0.290062 0.935629 0.000000 0.686275
  4 -25.688131 31.680525 6.745363 0.217140 -0.182536 0.958922 1.000000 0.698039
  4 -15.438131 30.490525 4.195363 0.217140 -0.182536 0.958922 0.000000 0.698039
$0b_stabfxm.bmp
  4 -25.688131 31.680525 6.745363 0.217140 -0.182536 0.958922 1.000000 0.698039
  4 -25.738131 31.390525 6.725363 0.235036 -0.090449 0.967769 1.000000 0.709804
  4 -15.438131 30.490525 4.195363 0.217140 -0.182536 0.958922 0.000000 0.698039
$0b_stabfxm.bmp
  4 -15.438131 30.490525 4.195363 0.217140 -0.182536 0.958922 0.000000 0.698039
  4 -25.738131 31.390525 6.725363 0.235036 -0.090449 0.967769 1.000000 0.709804
  4 -15.608131 29.550525 4.075363 0.235036 -0.090449 0.967769 0.000000 0.709804
$0b_stabfxm.bmp
  4 -25.738131 31.390525 6.725363 0.235036 -0.090449 0.967769 1.000000 0.709804
  4 -25.858131 30.790524 6.715363 0.256070 -0.002390 0.966655 1.000000 0.717647
  4 -15.608131 29.550525 4.075363 0.235036 -0.090449 0.967769 0.000000 0.709804
$0b_stabfxm.bmp
  4 -15.608131 29.550525 4.075363 0.235036 -0.090449 0.967769 0.000000 0.709804
  4 -25.858131 30.790524 6.715363 0.256070 -0.002390 0.966655 1.000000 0.717647
  4 -15.818131 28.560525 4.045363 0.256070 -0.002390 0.966655 0.000000 0.717647
$0b_stabfxm.bmp
  4 -25.858131 30.790524 6.715363 0.256070 -0.002390 0.966655 1.000000 0.717647
  4 -25.988131 30.170525 6.785363 0.278847 0.106777 0.954381 1.000000 0.729412
  4 -15.818131 28.560525 4.045363 0.256070 -0.002390 0.966655 0.000000 0.717647
$0b_stabfxm.bmp
  4 -15.818131 28.560525 4.045363 0.256070 -0.002390 0.966655 0.000000 0.717647
  4 -25.988131 30.170525 6.785363 0.278847 0.106777 0.954381 1.000000 0.729412
  4 -15.978131 27.780525 4.125363 0.278847 0.106777 0.954381 0.000000 0.729412
$0b_stabfxm.bmp
  4 -25.988131 30.170525 6.785363 0.278847 0.106777 0.954381 1.000000 0.729412
  4 -26.128131 29.340525 6.965363 0.297044 0.208296 0.931868 1.000000 0.737255
  4 -15.978131 27.780525 4.125363 0.278847 0.106777 0.954381 0.000000 0.729412
$0b_stabfxm.bmp
  4 -15.978131 27.780525 4.125363 0.278847 0.106777 0.954381 0.000000 0.729412
  4 -26.128131 29.340525 6.965363 0.297044 0.208296 0.931868 1.000000 0.737255
  4 -16.088131 27.140525 4.255363 0.297044 0.208296 0.931868 0.000000 0.737255
$0b_stabfxm.bmp
  4 -26.128131 29.340525 6.965363 0.297044 0.208296 0.931868 1.000000 0.737255
  4 -26.218131 28.490525 7.245363 0.309387 0.305486 0.900532 1.000000 0.749020
  4 -16.088131 27.140525 4.255363 0.297044 0.208296 0.931868 0.000000 0.737255
$0b_stabfxm.bmp
  4 -16.088131 27.140525 4.255363 0.297044 0.208296 0.931868 0.000000 0.737255
  4 -26.218131 28.490525 7.245363 0.309387 0.305486 0.900532 1.000000 0.749020
  4 -16.158131 26.550525 4.445363 0.309387 0.305486 0.900532 0.000000 0.749020
$0b_stabfxm.bmp
  4 -26.218131 28.490525 7.245363 0.309387 0.305486 0.900532 1.000000 0.749020
  4 -26.258131 27.410525 7.675363 0.313260 0.387153 0.867168 1.000000 0.756863
  4 -16.158131 26.550525 4.445363 0.309387 0.305486 0.900532 0.000000 0.749020
$0b_stabfxm.bmp
  4 -16.158131 26.550525 4.445363 0.309387 0.305486 0.900532 0.000000 0.749020
  4 -26.258131 27.410525 7.675363 0.313260 0.387153 0.867168 1.000000 0.756863
  4 -16.168131 26.210525 4.575363 0.313260 0.387153 0.867168 0.000000 0.756863
$0b_stabfxm.bmp
  4 -26.258131 27.410525 7.675363 0.313260 0.387153 0.867168 1.000000 0.756863
  4 -26.198131 26.490525 8.115363 0.310681 0.450713 0.836860 1.000000 0.768627
  4 -16.168131 26.210525 4.575363 0.313260 0.387153 0.867168 0.000000 0.756863
$0b_stabfxm.bmp
  4 -16.168131 26.210525 4.575363 0.313260 0.387153 0.867168 0.000000 0.756863
  4 -26.198131 26.490525 8.115363 0.310681 0.450713 0.836860 1.000000 0.768627
  4 -16.148131 25.750525 4.785363 0.310681 0.450713 0.836860 0.000000 0.768627
$0b_stabfxm.bmp
  4 -26.198131 26.490525 8.115363 0.310681 0.450713 0.836860 1.000000 0.768627
  4 -25.998131 25.300525 8.735363 0.304342 0.495110 0.813783 1.000000 0.776471
  4 -16.148131 25.750525 4.785363 0.310681 0.450713 0.836860 0.000000 0.768627
$0b_stabfxm.bmp
  4 -16.148131 25.750525 4.785363 0.310681 0.450713 0.836860 0.000000 0.768627
  4 -25.998131 25.300525 8.735363 0.304342 0.495110 0.813783 1.000000 0.776471
  4 -16.108131 25.600525 4.865363 0.310681 0.450713 0.836860 0.000000 0.776471
$0b_stabfxm.bmp
  4 -25.998131 25.300525 8.735363 0.304342 0.495110 0.813783 1.000000 0.776471
  4 -25.728131 24.370525 9.225363 0.304342 0.495110 0.813783 1.000000 0.788235
  4 -16.108131 25.600525 4.865363 0.310681 0.450713 0.836860 0.000000 0.776471
$0b_stabfxm.bmp
  4 -16.108131 25.600525 4.865363 0.310681 0.450713 0.836860 0.000000 0.776471
  4 -25.728131 24.370525 9.225363 0.304342 0.495110 0.813783 1.000000 0.788235
  4 -16.098131 25.480525 4.915363 0.310681 0.450713 0.836860 0.000000 0.788235
$0b_stabfxm.bmp
  4 -25.728131 24.370525 9.225363 0.304342 0.495110 0.813783 1.000000 0.788235
  4 -25.258131 23.200525 9.825363 0.304342 0.495110 0.813783 1.000000 0.800000
  4 -16.098131 25.480525 4.915363 0.310681 0.450713 0.836860 0.000000 0.788235
$0b_stabfxm.bmp
  4 -16.098131 25.480525 4.915363 0.310681 0.450713 0.836860 0.000000 0.788235
  4 -25.258131 23.200525 9.825363 0.304342 0.495110 0.813783 1.000000 0.800000
  4 -16.028131 25.150525 5.095363 0.304342 0.495110 0.813783 0.000000 0.800000
$0b_stabfxm.bmp
  4 -25.258131 23.200525 9.825363 0.304342 0.495110 0.813783 1.000000 0.800000
  4 -24.588131 22.110525 10.265363 0.304342 0.495110 0.813783 1.000000 0.807843
  4 -16.028131 25.150525 5.095363 0.304342 0.495110 0.813783 0.000000 0.800000
$0b_stabfxm.bmp
  4 -16.028131 25.150525 5.095363 0.304342 0.495110 0.813783 0.000000 0.800000
  4 -24.588131 22.110525 10.265363 0.304342 0.495110 0.813783 1.000000 0.807843
  4 -15.958131 25.000525 5.165363 0.304342 0.495110 0.813783 0.000000 0.807843
$0b_stabfxm.bmp
  4 -24.588131 22.110525 10.265363 0.304342 0.495110 0.813783 1.000000 0.807843
  4 -24.098131 21.280525 10.585363 0.310681 0.450713 0.836860 1.000000 0.819608
  4 -15.958131 25.000525 5.165363 0.304342 0.495110 0.813783 0.000000 0.807843
$0b_stabfxm.bmp
  4 -15.958131 25.000525 5.165363 0.304342 0.495110 0.813783 0.000000 0.807843
  4 -24.098131 21.280525 10.585363 0.310681 0.450713 0.836860 1.000000 0.819608
  4 -15.718131 24.580524 5.315363 0.310681 0.450713 0.836860 0.000000 0.819608
$0b_stabfxm.bmp
  4 -24.098131 21.280525 10.585363 0.310681 0.450713 0.836860 1.000000 0.819608
  4 -23.488131 20.320524 10.855363 0.359143 0.425707 0.830536 1.000000 0.827451
  4 -15.718131 24.580524 5.315363 0.310681 0.450713 0.836860 0.000000 0.819608
$0b_stabfxm.bmp
  4 -15.718131 24.580524 5.315363 0.310681 0.450713 0.836860 0.000000 0.819608
  4 -23.488131 20.320524 10.855363 0.359143 0.425707 0.830536 1.000000 0.827451
  4 -15.538131 24.290524 5.385363 0.359143 0.425707 0.830536 0.000000 0.827451
$0b_stabfxm.bmp
  4 -23.488131 20.320524 10.855363 0.359143 0.425707 0.830536 1.000000 0.827451
  4 -22.938131 19.490524 11.015363 0.398122 0.367758 0.840389 1.000000 0.839216
  4 -15.538131 24.290524 5.385363 0.359143 0.425707 0.830536 0.000000 0.827451
$0b_stabfxm.bmp
  4 -15.538131 24.290524 5.385363 0.359143 0.425707 0.830536 0.000000 0.827451
  4 -22.938131 19.490524 11.015363 0.398122 0.367758 0.840389 1.000000 0.839216
  4 -15.268131 23.860525 5.455363 0.398122 0.367758 0.840389 0.000000 0.839216
$0b_stabfxm.bmp
  4 -22.938131 19.490524 11.015363 0.398122 0.367758 0.840389 1.000000 0.839216
  4 -22.498131 18.790525 11.065363 0.438124 0.306335 0.845107 1.000000 0.847059
  4 -15.268131 23.860525 5.455363 0.398122 0.367758 0.840389 0.000000 0.839216
$0b_stabfxm.bmp
  4 -15.268131 23.860525 5.455363 0.398122 0.367758 0.840389 0.000000 0.839216
  4 -22.498131 18.790525 11.065363 0.438124 0.306335 0.845107 1.000000 0.847059
  4 -14.888131 23.270525 5.495363 0.438124 0.306335 0.845107 0.000000 0.847059
$0b_stabfxm.bmp
  4 -22.498131 18.790525 11.065363 0.438124 0.306335 0.845107 1.000000 0.847059
  4 -22.108131 18.140526 11.075363 0.475387 0.245412 0.844855 1.000000 0.858824
  4 -14.888131 23.270525 5.495363 0.438124 0.306335 0.845107 0.000000 0.847059
$0b_stabfxm.bmp
  4 -14.888131 23.270525 5.495363 0.438124 0.306335 0.845107 0.000000 0.847059
  4 -22.108131 18.140526 11.075363 0.475387 0.245412 0.844855 1.000000 0.858824
  4 -14.508131 22.600525 5.485363 0.475387 0.245412 0.844855 0.000000 0.858824
$0b_stabfxm.bmp
  4 -22.108131 18.140526 11.075363 0.475387 0.245412 0.844855 1.000000 0.858824
  4 -21.778131 17.530525 11.035363 0.509586 0.183787 0.840562 1.000000 0.866667
  4 -14.508131 22.600525 5.485363 0.475387 0.245412 0.844855 0.000000 0.858824
$0b_stabfxm.bmp
  4 -14.508131 22.600525 5.485363 0.475387 0.245412 0.844855 0.000000 0.858824
  4 -21.778131 17.530525 11.035363 0.509586 0.183787 0.840562 1.000000 0.866667
  4 -14.128131 21.870525 5.435363 0.509586 0.183787 0.840562 0.000000 0.866667
$0b_stabfxm.bmp
  4 -21.778131 17.530525 11.035363 0.509586 0.183787 0.840562 1.000000 0.866667
  4 -21.558131 17.040525 10.985363 0.533095 0.135952 0.835061 1.000000 0.878431
  4 -14.128131 21.870525 5.435363 0.509586 0.183787 0.840562 0.000000 0.866667
$0b_stabfxm.bmp
  4 -14.128131 21.870525 5.435363 0.509586 0.183787 0.840562 0.000000 0.866667
  4 -21.558131 17.040525 10.985363 0.533095 0.135952 0.835061 1.000000 0.878431
  4 -13.728131 20.980524 5.345363 0.533095 0.135952 0.835061 0.000000 0.878431
$0b_stabfxm.bmp
  4 -21.558131 17.040525 10.985363 0.533095 0.135952 0.835061 1.000000 0.878431
  4 -21.398131 16.620525 10.945363 0.533095 0.135952 0.835061 1.000000 0.886275
  4 -13.728131 20.980524 5.345363 0.533095 0.135952 0.835061 0.000000 0.878431
$0b_stabfxm.bmp
  4 -13.728131 20.980524 5.345363 0.533095 0.135952 0.835061 0.000000 0.878431
  4 -21.398131 16.620525 10.945363 0.533095 0.135952 0.835061 1.000000 0.886275
  4 -13.348131 19.980524 5.225363 0.554022 0.086552 0.827991 0.000000 0.886275
$0b_stabfxm.bmp
  4 -21.398131 16.620525 10.945363 0.533095 0.135952 0.835061 1.000000 0.886275
  4 -21.278131 16.240524 10.905363 0.554022 0.086552 0.827991 1.000000 0.898039
  4 -13.348131 19.980524 5.225363 0.554022 0.086552 0.827991 0.000000 0.886275
$0b_stabfxm.bmp
  4 -13.348131 19.980524 5.225363 0.554022 0.086552 0.827991 0.000000 0.886275
  4 -21.278131 16.240524 10.905363 0.554022 0.086552 0.827991 1.000000 0.898039
  4 -13.038131 18.910524 5.095363 0.554022 0.086552 0.827991 0.000000 0.898039
$0b_stabfxm.bmp
  4 -21.278131 16.240524 10.905363 0.554022 0.086552 0.827991 1.000000 0.898039
  4 -21.138131 15.670525 10.865363 0.554022 0.086552 0.827991 1.000000 0.909804
  4 -13.038131 18.910524 5.095363 0.554022 0.086552 0.827991 0.000000 0.898039
$0b_stabfxm.bmp
  4 -13.038131 18.910524 5.095363 0.554022 0.086552 0.827991 0.000000 0.898039
  4 -21.138131 15.670525 10.865363 0.554022 0.086552 0.827991 1.000000 0.909804
  4 -12.818131 18.000525 5.015363 0.554022 0.086552 0.827991 0.000000 0.909804
$0b_stabfxm.bmp
  4 -21.138131 15.670525 10.865363 0.554022 0.086552 0.827991 1.000000 0.909804
  4 -21.038131 15.240524 10.845363 0.554022 0.086552 0.827991 1.000000 0.917647
  4 -12.818131 18.000525 5.015363 0.554022 0.086552 0.827991 0.000000 0.909804
$0b_stabfxm.bmp
  4 -12.818131 18.000525 5.015363 0.554022 0.086552 0.827991 0.000000 0.909804
  4 -21.038131 15.240524 10.845363 0.554022 0.086552 0.827991 1.000000 0.917647
  4 -12.598131 16.950525 4.965363 0.554022 0.086552 0.827991 0.000000 0.917647
$0b_stabfxm.bmp
  4 -21.038131 15.240524 10.845363 0.554022 0.086552 0.827991 1.000000 0.917647
  4 -20.948131 14.720526 10.845363 0.533095 0.135952 0.835061 1.000000 0.929412
  4 -12.598131 16.950525 4.965363 0.554022 0.086552 0.827991 0.000000 0.917647
$0b_stabfxm.bmp
  4 -12.598131 16.950525 4.965363 0.554022 0.086552 0.827991 0.000000 0.917647
  4 -20.948131 14.720526 10.845363 0.533095 0.135952 0.835061 1.000000 0.929412
  4 -12.428131 15.960526 4.955363 0.533095 0.135952 0.835061 0.000000 0.929412
$0b_stabfxm.bmp
  4 -20.948131 14.720526 10.845363 0.533095 0.135952 0.835061 1.000000 0.929412
  4 -20.828131 14.040525 10.885363 0.545911 0.166965 0.821039 1.000000 0.937255
  4 -12.428131 15.960526 4.955363 0.533095 0.135952 0.835061 0.000000 0.929412
$0b_stabfxm.bmp
  4 -12.428131 15.960526 4.955363 0.533095 0.135952 0.835061 0.000000 0.929412
  4 -20.828131 14.040525 10.885363 0.545911 0.166965 0.821039 1.000000 0.937255
  4 -12.288131 15.140526 4.995363 0.533095 0.135952 0.835061 0.000000 0.937255
$0b_stabfxm.bmp
  4 -20.828131 14.040525 10.885363 0.545911 0.166965 0.821039 1.000000 0.937255
  4 -20.698131 13.360525 10.965363 0.538896 0.209395 0.815932 1.000000 0.949020
  4 -12.288131 15.140526 4.995363 0.533095 0.135952 0.835061 0.000000 0.937255
$0b_stabfxm.bmp
  4 -12.288131 15.140526 4.995363 0.533095 0.135952 0.835061 0.000000 0.937255
  4 -20.698131 13.360525 10.965363 0.538896 0.209395 0.815932 1.000000 0.949020
  4 -12.148131 14.340525 5.065363 0.545911 0.166965 0.821039 0.000000 0.949020
$0b_stabfxm.bmp
  4 -20.698131 13.360525 10.965363 0.538896 0.209395 0.815932 1.000000 0.949020
  4 -20.518131 12.560524 11.075363 0.531557 0.248208 0.809839 1.000000 0.956863
  4 -12.148131 14.340525 5.065363 0.545911 0.166965 0.821039 0.000000 0.949020
$0b_stabfxm.bmp
  4 -12.148131 14.340525 5.065363 0.545911 0.166965 0.821039 0.000000 0.949020
  4 -20.518131 12.560524 11.075363 0.531557 0.248208 0.809839 1.000000 0.956863
  4 -12.008131 13.660524 5.155363 0.538896 0.209395 0.815932 0.000000 0.956863
$0b_stabfxm.bmp
  4 -20.518131 12.560524 11.075363 0.531557 0.248208 0.809839 1.000000 0.956863
  4 -20.318131 11.760525 11.205363 0.531557 0.248208 0.809839 1.000000 0.968627
  4 -12.008131 13.660524 5.155363 0.538896 0.209395 0.815932 0.000000 0.956863
$0b_stabfxm.bmp
  4 -12.008131 13.660524 5.155363 0.538896 0.209395 0.815932 0.000000 0.956863
  4 -20.318131 11.760525 11.205363 0.531557 0.248208 0.809839 1.000000 0.968627
  4 -11.848131 13.000525 5.245363 0.531557 0.248208 0.809839 0.000000 0.968627
$0b_stabfxm.bmp
  4 -20.318131 11.760525 11.205363 0.531557 0.248208 0.809839 1.000000 0.968627
  4 -20.088131 10.940525 11.345363 0.523519 0.286299 0.802472 1.000000 0.976471
  4 -11.848131 13.000525 5.245363 0.531557 0.248208 0.809839 0.000000 0.968627
$0b_stabfxm.bmp
  4 -11.848131 13.000525 5.245363 0.531557 0.248208 0.809839 0.000000 0.968627
  4 -20.088131 10.940525 11.345363 0.523519 0.286299 0.802472 1.000000 0.976471
  4 -11.668131 12.360525 5.355363 0.523519 0.286299 0.802472 0.000000 0.976471
$0b_stabfxm.bmp
  4 -20.088131 10.940525 11.345363 0.523519 0.286299 0.802472 1.000000 0.976471
  4 -19.878131 10.220526 11.465363 0.523519 0.286299 0.802472 1.000000 0.988235
  4 -11.668131 12.360525 5.355363 0.523519 0.286299 0.802472 0.000000 0.976471
$0b_stabfxm.bmp
  4 -11.668131 12.360525 5.355363 0.523519 0.286299 0.802472 0.000000 0.976471
  4 -19.878131 10.220526 11.465363 0.523519 0.286299 0.802472 1.000000 0.988235
  4 -11.458131 11.640526 5.465363 0.523519 0.286299 0.802472 0.000000 0.988235
$0b_stabfxm.bmp
  4 -19.878131 10.220526 11.465363 0.523519 0.286299 0.802472 1.000000 0.988235
  4 -19.668131 9.500525 11.585363 0.523519 0.286299 0.802472 1.000000 0.996078
  4 -11.458131 11.640526 5.465363 0.523519 0.286299 0.802472 0.000000 0.988235
$0b_stabfxm.bmp
  4 -11.458131 11.640526 5.465363 0.523519 0.286299 0.802472 0.000000 0.988235
  4 -19.668131 9.500525 11.585363 0.523519 0.286299 0.802472 1.000000 0.996078
  4 -11.248131 10.920525 5.585363 0.523519 0.286299 0.802472 0.000000 0.996078
$0b_stabfxm.bmp
  4 -24.408131 62.910524 2.745363 0.484535 0.006150 -0.874750 1.000000 0.000000
  4 -24.848131 62.330524 2.505363 0.484535 0.006150 -0.874750 1.000000 0.007843
  4 -31.348131 69.700525 -1.054637 0.484535 0.006150 -0.874750 0.000000 0.000000
$0b_stabfxm.bmp
  4 -31.348131 69.700525 -1.054637 0.484535 0.006150 -0.874750 0.000000 0.000000
  4 -24.848131 62.330524 2.505363 0.484535 0.006150 -0.874750 1.000000 0.007843
  4 -31.788131 69.120525 -1.294637 0.484535 0.006150 -0.874750 0.000000 0.007843
$0b_stabfxm.bmp
  4 -24.848131 62.330524 2.505363 0.484535 0.006150 -0.874750 1.000000 0.007843
  4 -25.268131 61.750525 2.265363 0.484535 0.006150 -0.874750 1.000000 0.019608
  4 -31.788131 69.120525 -1.294637 0.484535 0.006150 -0.874750 0.000000 0.007843
$0b_stabfxm.bmp
  4 -31.788131 69.120525 -1.294637 0.484535 0.006150 -0.874750 0.000000 0.007843
  4 -25.268131 61.750525 2.265363 0.484535 0.006150 -0.874750 1.000000 0.019608
  4 -32.218131 68.550526 -1.544637 0.484535 0.006150 -0.874750 0.000000 0.019608
$0b_stabfxm.bmp
  4 -25.268131 61.750525 2.265363 0.484535 0.006150 -0.874750 1.000000 0.019608
  4 -25.698131 61.170525 2.015363 0.484535 0.006150 -0.874750 1.000000 0.027451
  4 -32.218131 68.550526 -1.544637 0.484535 0.006150 -0.874750 0.000000 0.019608
$0b_stabfxm.bmp
  4 -32.218131 68.550526 -1.544637 0.484535 0.006150 -0.874750 0.000000 0.019608
  4 -25.698131 61.170525 2.015363 0.484535 0.006150 -0.874750 1.000000 0.027451
  4 -32.648131 67.970526 -1.784637 0.460546 -0.023600 -0.887322 0.000000 0.027451
$0b_stabfxm.bmp
  4 -25.698131 61.170525 2.015363 0.484535 0.006150 -0.874750 1.000000 0.027451
  4 -26.088131 60.670525 1.835363 0.412530 -0.085124 -0.906958 1.000000 0.039216
  4 -32.648131 67.970526 -1.784637 0.460546 -0.023600 -0.887322 0.000000 0.027451
$0b_stabfxm.bmp
  4 -32.648131 67.970526 -1.784637 0.460546 -0.023600 -0.887322 0.000000 0.027451
  4 -26.088131 60.670525 1.835363 0.412530 -0.085124 -0.906958 1.000000 0.039216
  4 -33.158131 67.310524 -1.994637 0.412530 -0.085124 -0.906958 0.000000 0.039216
$0b_stabfxm.bmp
  4 -26.088131 60.670525 1.835363 0.412530 -0.085124 -0.906958 1.000000 0.039216
  4 -26.468131 60.200525 1.755363 0.338760 -0.174200 -0.924606 1.000000 0.047059
  4 -33.158131 67.310524 -1.994637 0.412530 -0.085124 -0.906958 0.000000 0.039216
$0b_stabfxm.bmp
  4 -33.158131 67.310524 -1.994637 0.412530 -0.085124 -0.906958 0.000000 0.039216
  4 -26.468131 60.200525 1.755363 0.338760 -0.174200 -0.924606 1.000000 0.047059
  4 -33.738132 66.610525 -2.114637 0.338760 -0.174200 -0.924606 0.000000 0.047059
$0b_stabfxm.bmp
  4 -26.468131 60.200525 1.755363 0.338760 -0.174200 -0.924606 1.000000 0.047059
  4 -26.818131 59.780525 1.735363 0.265401 -0.260110 -0.928388 1.000000 0.058824
  4 -33.738132 66.610525 -2.114637 0.338760 -0.174200 -0.924606 0.000000 0.047059
$0b_stabfxm.bmp
  4 -33.738132 66.610525 -2.114637 0.338760 -0.174200 -0.924606 0.000000 0.047059
  4 -26.818131 59.780525 1.735363 0.265401 -0.260110 -0.928388 1.000000 0.058824
  4 -34.368131 65.870525 -2.114637 0.265401 -0.260110 -0.928388 0.000000 0.058824
$0b_stabfxm.bmp
  4 -26.818131 59.780525 1.735363 0.265401 -0.260110 -0.928388 1.000000 0.058824
  4 -27.138131 59.400524 1.775363 0.194872 -0.341672 -0.919394 1.000000 0.066667
  4 -34.368131 65.870525 -2.114637 0.265401 -0.260110 -0.928388 0.000000 0.058824
$0b_stabfxm.bmp
  4 -34.368131 65.870525 -2.114637 0.265401 -0.260110 -0.928388 0.000000 0.058824
  4 -27.138131 59.400524 1.775363 0.194872 -0.341672 -0.919394 1.000000 0.066667
  4 -35.028131 65.090525 -1.994637 0.169667 -0.368564 -0.913988 0.000000 0.066667
$0b_stabfxm.bmp
  4 -27.138131 59.400524 1.775363 0.194872 -0.341672 -0.919394 1.000000 0.066667
  4 -27.408131 59.070524 1.865363 0.129241 -0.417859 -0.899272 1.000000 0.078431
  4 -35.028131 65.090525 -1.994637 0.169667 -0.368564 -0.913988 0.000000 0.066667
$0b_stabfxm.bmp
  4 -35.028131 65.090525 -1.994637 0.169667 -0.368564 -0.913988 0.000000 0.066667
  4 -27.408131 59.070524 1.865363 0.129241 -0.417859 -0.899272 1.000000 0.078431
  4 -35.698132 64.290525 -1.724637 0.098083 -0.452235 -0.886489 0.000000 0.078431
$0b_stabfxm.bmp
  4 -27.408131 59.070524 1.865363 0.129241 -0.417859 -0.899272 1.000000 0.078431
  4 -27.648131 58.780525 1.995363 0.070098 -0.487861 -0.870102 1.000000 0.086275
  4 -35.698132 64.290525 -1.724637 0.098083 -0.452235 -0.886489 0.000000 0.078431
$0b_stabfxm.bmp
  4 -35.698132 64.290525 -1.724637 0.098083 -0.452235 -0.886489 0.000000 0.078431
  4 -27.648131 58.780525 1.995363 0.070098 -0.487861 -0.870102 1.000000 0.086275
  4 -36.358131 63.480524 -1.304637 0.033792 -0.530326 -0.847120 0.000000 0.086275
$0b_stabfxm.bmp
  4 -27.648131 58.780525 1.995363 0.070098 -0.487861 -0.870102 1.000000 0.086275
  4 -27.838131 58.530525 2.135363 0.033792 -0.530326 -0.847120 1.000000 0.098039
  4 -36.358131 63.480524 -1.304637 0.033792 -0.530326 -0.847120 0.000000 0.086275
$0b_stabfxm.bmp
  4 -36.358131 63.480524 -1.304637 0.033792 -0.530326 -0.847120 0.000000 0.086275
  4 -27.838131 58.530525 2.135363 0.033792 -0.530326 -0.847120 1.000000 0.098039
  4 -36.988132 62.650524 -0.744637 -0.021208 -0.601839 -0.798336 0.000000 0.098039
$0b_stabfxm.bmp
  4 -27.838131 58.530525 2.135363 0.033792 -0.530326 -0.847120 1.000000 0.098039
  4 -27.988131 58.320524 2.285363 -0.021208 -0.601839 -0.798336 1.000000 0.109804
  4 -36.988132 62.650524 -0.744637 -0.021208 -0.601839 -0.798336 0.000000 0.098039
$0b_stabfxm.bmp
  4 -36.988132 62.650524 -0.744637 -0.021208 -0.601839 -0.798336 0.000000 0.098039
  4 -27.988131 58.320524 2.285363 -0.021208 -0.601839 -0.798336 1.000000 0.109804
  4 -37.538131 61.830524 -0.024637 -0.065548 -0.666020 -0.743048 0.000000 0.109804
$0b_stabfxm.bmp
  4 -27.988131 58.320524 2.285363 -0.021208 -0.601839 -0.798336 1.000000 0.109804
  4 -28.098131 58.150524 2.435363 -0.065548 -0.666020 -0.743048 1.000000 0.117647
  4 -37.538131 61.830524 -0.024637 -0.065548 -0.666020 -0.743048 0.000000 0.109804
$0b_stabfxm.bmp
  4 -37.538131 61.830524 -0.024637 -0.065548 -0.666020 -0.743048 0.000000 0.109804
  4 -28.098131 58.150524 2.435363 -0.065548 -0.666020 -0.743048 1.000000 0.117647
  4 -38.008131 61.010525 0.825363 -0.098592 -0.722370 -0.684442 0.000000 0.117647
$0b_stabfxm.bmp
  4 -28.098131 58.150524 2.435363 -0.065548 -0.666020 -0.743048 1.000000 0.117647
  4 -28.188131 58.000525 2.585363 -0.098592 -0.722370 -0.684442 1.000000 0.129412
  4 -38.008131 61.010525 0.825363 -0.098592 -0.722370 -0.684442 0.000000 0.117647
$0b_stabfxm.bmp
  4 -38.008131 61.010525 0.825363 -0.098592 -0.722370 -0.684442 0.000000 0.117647
  4 -28.188131 58.000525 2.585363 -0.098592 -0.722370 -0.684442 1.000000 0.129412
  4 -38.348131 60.220526 1.795363 -0.120474 -0.770646 -0.625772 0.000000 0.129412
$0b_stabfxm.bmp
  4 -28.188131 58.000525 2.585363 -0.098592 -0.722370 -0.684442 1.000000 0.129412
  4 -28.238131 57.880526 2.715363 -0.098592 -0.722370 -0.684442 1.000000 0.137255
  4 -38.348131 60.220526 1.795363 -0.120474 -0.770646 -0.625772 0.000000 0.129412
$0b_stabfxm.bmp
  4 -38.348131 60.220526 1.795363 -0.120474 -0.770646 -0.625772 0.000000 0.129412
  4 -28.238131 57.880526 2.715363 -0.098592 -0.722370 -0.684442 1.000000 0.137255
  4 -38.558131 59.440525 2.855363 -0.132101 -0.810853 -0.570147 0.000000 0.137255
$0b_stabfxm.bmp
  4 -28.238131 57.880526 2.715363 -0.098592 -0.722370 -0.684442 1.000000 0.137255
  4 -28.278131 57.780525 2.835363 -0.132101 -0.810853 -0.570147 1.000000 0.149020
  4 -38.558131 59.440525 2.855363 -0.132101 -0.810853 -0.570147 0.000000 0.137255
$0b_stabfxm.bmp
  4 -38.558131 59.440525 2.855363 -0.132101 -0.810853 -0.570147 0.000000 0.137255
  4 -28.278131 57.780525 2.835363 -0.132101 -0.810853 -0.570147 1.000000 0.149020
  4 -38.608131 58.700525 4.005363 -0.134928 -0.840745 -0.524349 0.000000 0.149020
$0b_stabfxm.bmp
  4 -28.278131 57.780525 2.835363 -0.132101 -0.810853 -0.570147 1.000000 0.149020
  4 -28.208131 57.430525 3.385363 -0.131343 -0.876595 -0.462957 1.000000 0.156863
  4 -38.608131 58.700525 4.005363 -0.134928 -0.840745 -0.524349 0.000000 0.149020
$0b_stabfxm.bmp
  4 -38.608131 58.700525 4.005363 -0.134928 -0.840745 -0.524349 0.000000 0.149020
  4 -28.208131 57.430525 3.385363 -0.131343 -0.876595 -0.462957 1.000000 0.156863
  4 -38.578131 58.370525 4.555363 -0.131343 -0.876595 -0.462957 0.000000 0.156863
$0b_stabfxm.bmp
  4 -28.208131 57.430525 3.385363 -0.131343 -0.876595 -0.462957 1.000000 0.156863
  4 -28.148131 57.370525 3.495363 0.071488 0.823657 0.562564 1.000000 0.168627
  4 -38.578131 58.370525 4.555363 -0.131343 -0.876595 -0.462957 0.000000 0.156863
$0b_stabfxm.bmp
  4 -38.578131 58.370525 4.555363 -0.131343 -0.876595 -0.462957 0.000000 0.156863
  4 -28.148131 57.370525 3.495363 0.071488 0.823657 0.562564 1.000000 0.168627
  4 -38.378131 57.690525 5.735363 -0.131343 -0.876595 -0.462957 0.000000 0.168627
$0b_stabfxm.bmp
  4 -28.148131 57.370525 3.495363 0.071488 0.823657 0.562564 1.000000 0.168627
  4 -28.318131 57.620525 3.045363 -0.004401 0.992951 0.118443 1.000000 0.176471
  4 -38.378131 57.690525 5.735363 -0.131343 -0.876595 -0.462957 0.000000 0.168627
$0b_stabfxm.bmp
  4 -38.378131 57.690525 5.735363 -0.131343 -0.876595 -0.462957 0.000000 0.168627
  4 -28.318131 57.620525 3.045363 -0.004401 0.992951 0.118443 1.000000 0.176471
  4 -37.998131 57.040525 6.915363 -0.131343 -0.876595 -0.462957 0.000000 0.176471
$0b_stabfxm.bmp
  4 -28.318131 57.620525 3.045363 -0.004401 0.992951 0.118443 1.000000 0.176471
  4 -28.308131 57.560524 3.135363 -0.131343 -0.876595 -0.462957 1.000000 0.188235
  4 -37.998131 57.040525 6.915363 -0.131343 -0.876595 -0.462957 0.000000 0.176471
$0b_stabfxm.bmp
  4 -37.998131 57.040525 6.915363 -0.131343 -0.876595 -0.462957 0.000000 0.176471
  4 -28.308131 57.560524 3.135363 -0.131343 -0.876595 -0.462957 1.000000 0.188235
  4 -37.138131 56.150524 8.575363 -0.112763 -0.902343 -0.416006 0.000000 0.188235
$0b_stabfxm.bmp
  4 -28.308131 57.560524 3.135363 -0.131343 -0.876595 -0.462957 1.000000 0.188235
  4 -28.288131 57.510525 3.225363 -0.131343 -0.876595 -0.462957 1.000000 0.200000
  4 -37.138131 56.150524 8.575363 -0.112763 -0.902343 -0.416006 0.000000 0.188235
$0b_stabfxm.bmp
  4 -37.138131 56.150524 8.575363 -0.112763 -0.902343 -0.416006 0.000000 0.188235
  4 -28.288131 57.510525 3.225363 -0.131343 -0.876595 -0.462957 1.000000 0.200000
  4 -36.348131 55.580524 9.615363 -0.112763 -0.902343 -0.416006 0.000000 0.200000
$0b_stabfxm.bmp
  4 -28.288131 57.510525 3.225363 -0.131343 -0.876595 -0.462957 1.000000 0.200000
  4 -28.248131 57.460526 3.315363 -0.112763 -0.902343 -0.416006 1.000000 0.207843
  4 -36.348131 55.580524 9.615363 -0.112763 -0.902343 -0.416006 0.000000 0.200000
$0b_stabfxm.bmp
  4 -36.348131 55.580524 9.615363 -0.112763 -0.902343 -0.416006 0.000000 0.200000
  4 -28.248131 57.460526 3.315363 -0.112763 -0.902343 -0.416006 1.000000 0.207843
  4 -35.418131 55.040524 10.545363 -0.112763 -0.902343 -0.416006 0.000000 0.207843
$0b_stabfxm.bmp
  4 -28.248131 57.460526 3.315363 -0.112763 -0.902343 -0.416006 1.000000 0.207843
  4 -28.188131 57.410524 3.395363 -0.112763 -0.902343 -0.416006 1.000000 0.219608
  4 -35.418131 55.040524 10.545363 -0.112763 -0.902343 -0.416006 0.000000 0.207843
$0b_stabfxm.bmp
  4 -35.418131 55.040524 10.545363 -0.112763 -0.902343 -0.416006 0.000000 0.207843
  4 -28.188131 57.410524 3.395363 -0.112763 -0.902343 -0.416006 1.000000 0.219608
  4 -34.378131 54.530525 11.335363 -0.112763 -0.902343 -0.416006 0.000000 0.219608
$0b_stabfxm.bmp
  4 -28.188131 57.410524 3.395363 -0.112763 -0.902343 -0.416006 1.000000 0.219608
  4 -28.088131 57.360525 3.475363 -0.131343 -0.876595 -0.462957 1.000000 0.227451
  4 -34.378131 54.530525 11.335363 -0.112763 -0.902343 -0.416006 0.000000 0.219608
$0b_stabfxm.bmp
  4 -34.378131 54.530525 11.335363 -0.112763 -0.902343 -0.416006 0.000000 0.219608
  4 -28.088131 57.360525 3.475363 -0.131343 -0.876595 -0.462957 1.000000 0.227451
  4 -33.238132 54.030525 11.965363 -0.162232 -0.881526 -0.443388 0.000000 0.227451
$0b_stabfxm.bmp
  4 -28.088131 57.360525 3.475363 -0.131343 -0.876595 -0.462957 1.000000 0.227451
  4 -27.968131 57.310524 3.545363 -0.162232 -0.881526 -0.443388 1.000000 0.239216
  4 -33.238132 54.030525 11.965363 -0.162232 -0.881526 -0.443388 0.000000 0.227451
$0b_stabfxm.bmp
  4 -33.238132 54.030525 11.965363 -0.162232 -0.881526 -0.443388 0.000000 0.227451
  4 -27.968131 57.310524 3.545363 -0.162232 -0.881526 -0.443388 1.000000 0.239216
  4 -32.048131 53.550525 12.435363 -0.202571 -0.865527 -0.458069 0.000000 0.239216
$0b_stabfxm.bmp
  4 -27.968131 57.310524 3.545363 -0.162232 -0.881526 -0.443388 1.000000 0.239216
  4 -27.818131 57.240524 3.595363 -0.247192 -0.848630 -0.467678 1.000000 0.247059
  4 -32.048131 53.550525 12.435363 -0.202571 -0.865527 -0.458069 0.000000 0.239216
$0b_stabfxm.bmp
  4 -32.048131 53.550525 12.435363 -0.202571 -0.865527 -0.458069 0.000000 0.239216
  4 -27.818131 57.240524 3.595363 -0.247192 -0.848630 -0.467678 1.000000 0.247059
  4 -30.838131 53.070525 12.725363 -0.247192 -0.848630 -0.467678 0.000000 0.247059
$0b_stabfxm.bmp
  4 -27.818131 57.240524 3.595363 -0.247192 -0.848630 -0.467678 1.000000 0.247059
  4 -27.618131 57.150524 3.625363 -0.319723 -0.820012 -0.474718 1.000000 0.258824
  4 -30.838131 53.070525 12.725363 -0.247192 -0.848630 -0.467678 0.000000 0.247059
$0b_stabfxm.bmp
  4 -30.838131 53.070525 12.725363 -0.247192 -0.848630 -0.467678 0.000000 0.247059
  4 -27.618131 57.150524 3.625363 -0.319723 -0.820012 -0.474718 1.000000 0.258824
  4 -29.628131 52.590525 12.845363 -0.319723 -0.820012 -0.474718 0.000000 0.258824
$0b_stabfxm.bmp
  4 -27.618131 57.150524 3.625363 -0.319723 -0.820012 -0.474718 1.000000 0.258824
  4 -27.388131 57.050526 3.625363 -0.402556 -0.785433 -0.470152 1.000000 0.266667
  4 -29.628131 52.590525 12.845363 -0.319723 -0.820012 -0.474718 0.000000 0.258824
$0b_stabfxm.bmp
  4 -29.628131 52.590525 12.845363 -0.319723 -0.820012 -0.474718 0.000000 0.258824
  4 -27.388131 57.050526 3.625363 -0.402556 -0.785433 -0.470152 1.000000 0.266667
  4 -28.458131 52.110525 12.805363 -0.402556 -0.785433 -0.470152 0.000000 0.266667
$0b_stabfxm.bmp
  4 -27.388131 57.050526 3.625363 -0.402556 -0.785433 -0.470152 1.000000 0.266667
  4 -27.128131 56.930525 3.575363 -0.491261 -0.744762 -0.451654 1.000000 0.278431
  4 -28.458131 52.110525 12.805363 -0.402556 -0.785433 -0.470152 0.000000 0.266667
$0b_stabfxm.bmp
  4 -28.458131 52.110525 12.805363 -0.402556 -0.785433 -0.470152 0.000000 0.266667
  4 -27.128131 56.930525 3.575363 -0.491261 -0.744762 -0.451654 1.000000 0.278431
  4 -27.358131 51.610525 12.605363 -0.491261 -0.744762 -0.451654 0.000000 0.278431
$0b_stabfxm.bmp
  4 -27.128131 56.930525 3.575363 -0.491261 -0.744762 -0.451654 1.000000 0.278431
  4 -26.838131 56.770525 3.475363 -0.581491 -0.697782 -0.418293 1.000000 0.286275
  4 -27.358131 51.610525 12.605363 -0.491261 -0.744762 -0.451654 0.000000 0.278431
$0b_stabfxm.bmp
  4 -27.358131 51.610525 12.605363 -0.491261 -0.744762 -0.451654 0.000000 0.278431
  4 -26.838131 56.770525 3.475363 -0.581491 -0.697782 -0.418293 1.000000 0.286275
  4 -26.358131 51.110525 12.285363 -0.581491 -0.697782 -0.418293 0.000000 0.286275
$0b_stabfxm.bmp
  4 -26.838131 56.770525 3.475363 -0.581491 -0.697782 -0.418293 1.000000 0.286275
  4 -26.528131 56.580524 3.305363 -0.669182 -0.644267 -0.370291 1.000000 0.298039
  4 -26.358131 51.110525 12.285363 -0.581491 -0.697782 -0.418293 0.000000 0.286275
$0b_stabfxm.bmp
  4 -26.358131 51.110525 12.285363 -0.581491 -0.697782 -0.418293 0.000000 0.286275
  4 -26.528131 56.580524 3.305363 -0.669182 -0.644267 -0.370291 1.000000 0.298039
  4 -25.458131 50.590525 11.845363 -0.641358 -0.663999 -0.384402 0.000000 0.298039
$0b_stabfxm.bmp
  4 -26.528131 56.580524 3.305363 -0.669182 -0.644267 -0.370291 1.000000 0.298039
  4 -26.218131 56.350525 3.075363 -0.750770 -0.583983 -0.308720 1.000000 0.309804
  4 -25.458131 50.590525 11.845363 -0.641358 -0.663999 -0.384402 0.000000 0.298039
$0b_stabfxm.bmp
  4 -25.458131 50.590525 11.845363 -0.641358 -0.663999 -0.384402 0.000000 0.298039
  4 -26.218131 56.350525 3.075363 -0.750770 -0.583983 -0.308720 1.000000 0.309804
  4 -24.698131 50.060525 11.335363 -0.723527 -0.607448 -0.327896 0.000000 0.309804
$0b_stabfxm.bmp
  4 -26.218131 56.350525 3.075363 -0.750770 -0.583983 -0.308720 1.000000 0.309804
  4 -25.908131 56.070524 2.775363 -0.822967 -0.516942 -0.235579 1.000000 0.317647
  4 -24.698131 50.060525 11.335363 -0.723527 -0.607448 -0.327896 0.000000 0.309804
$0b_stabfxm.bmp
  4 -24.698131 50.060525 11.335363 -0.723527 -0.607448 -0.327896 0.000000 0.309804
  4 -25.908131 56.070524 2.775363 -0.822967 -0.516942 -0.235579 1.000000 0.317647
  4 -24.068131 49.520525 10.765363 -0.799172 -0.542789 -0.258271 0.000000 0.317647
$0b_stabfxm.bmp
  4 -25.908131 56.070524 2.775363 -0.822967 -0.516942 -0.235579 1.000000 0.317647
  4 -25.628131 55.730524 2.395363 -0.885620 -0.439644 -0.149634 1.000000 0.329412
  4 -24.068131 49.520525 10.765363 -0.799172 -0.542789 -0.258271 0.000000 0.317647
$0b_stabfxm.bmp
  4 -24.068131 49.520525 10.765363 -0.799172 -0.542789 -0.258271 0.000000 0.317647
  4 -25.628131 55.730524 2.395363 -0.885620 -0.439644 -0.149634 1.000000 0.329412
  4 -23.578131 48.970525 10.175363 -0.867740 -0.465820 -0.173316 0.000000 0.329412
$0b_stabfxm.bmp
  4 -25.628131 55.730524 2.395363 -0.885620 -0.439644 -0.149634 1.000000 0.329412
  4 -25.428131 55.360525 1.985363 -0.931427 -0.358936 -0.060064 1.000000 0.337255
  4 -23.578131 48.970525 10.175363 -0.867740 -0.465820 -0.173316 0.000000 0.329412
$0b_stabfxm.bmp
  4 -23.578131 48.970525 10.175363 -0.867740 -0.465820 -0.173316 0.000000 0.329412
  4 -25.428131 55.360525 1.985363 -0.931427 -0.358936 -0.060064 1.000000 0.337255
  4 -23.218131 48.380525 9.535363 -0.931427 -0.358936 -0.060064 0.000000 0.337255
$0b_stabfxm.bmp
  4 -25.428131 55.360525 1.985363 -0.931427 -0.358936 -0.060064 1.000000 0.337255
  4 -25.238131 54.830524 1.455363 -0.961337 -0.273688 0.030445 1.000000 0.349020
  4 -23.218131 48.380525 9.535363 -0.931427 -0.358936 -0.060064 0.000000 0.337255
$0b_stabfxm.bmp
  4 -23.218131 48.380525 9.535363 -0.931427 -0.358936 -0.060064 0.000000 0.337255
  4 -25.238131 54.830524 1.455363 -0.961337 -0.273688 0.030445 1.000000 0.349020
  4 -23.018131 47.880525 9.015363 -0.961337 -0.273688 0.030445 0.000000 0.349020
$0b_stabfxm.bmp
  4 -25.238131 54.830524 1.455363 -0.961337 -0.273688 0.030445 1.000000 0.349020
  4 -25.148131 54.240525 0.875363 -0.976119 -0.179950 0.121695 1.000000 0.356863
  4 -23.018131 47.880525 9.015363 -0.961337 -0.273688 0.030445 0.000000 0.349020
$0b_stabfxm.bmp
  4 -23.018131 47.880525 9.015363 -0.961337 -0.273688 0.030445 0.000000 0.349020
  4 -25.148131 54.240525 0.875363 -0.976119 -0.179950 0.121695 1.000000 0.356863
  4 -22.928131 47.390525 8.545363 -0.976119 -0.179950 0.121695 0.000000 0.356863
$0b_stabfxm.bmp
  4 -25.148131 54.240525 0.875363 -0.976119 -0.179950 0.121695 1.000000 0.356863
  4 -25.158131 53.560525 0.285363 -0.974866 -0.084581 0.206114 1.000000 0.368627
  4 -22.928131 47.390525 8.545363 -0.976119 -0.179950 0.121695 0.000000 0.356863
$0b_stabfxm.bmp
  4 -22.928131 47.390525 8.545363 -0.976119 -0.179950 0.121695 0.000000 0.356863
  4 -25.158131 53.560525 0.285363 -0.974866 -0.084581 0.206114 1.000000 0.368627
  4 -22.918131 46.920525 8.135363 -0.974866 -0.084581 0.206114 0.000000 0.368627
$0b_stabfxm.bmp
  4 -25.158131 53.560525 0.285363 -0.974866 -0.084581 0.206114 1.000000 0.368627
  4 -25.278131 52.800525 -0.304637 -0.959791 0.010492 0.280521 1.000000 0.376471
  4 -22.918131 46.920525 8.135363 -0.974866 -0.084581 0.206114 0.000000 0.368627
$0b_stabfxm.bmp
  4 -22.918131 46.920525 8.135363 -0.974866 -0.084581 0.206114 0.000000 0.368627
  4 -25.278131 52.800525 -0.304637 -0.959791 0.010492 0.280521 1.000000 0.376471
  4 -22.978131 46.470525 7.795363 -0.959791 0.010492 0.280521 0.000000 0.376471
end
