version 1
nodes
  0 "root" -1
  1 "Bone01" 0
  2 "Bone_Lefthand" 1
  3 "Bone02" 2
  4 "Bone47" 3
  5 "Bone49" 3
  6 "Bone26" 3
  7 "Bone24" 3
  8 "Dummy01" 3
  9 "Bone08" 8
  10 "Bone16" 8
  11 "Bone34" 3
  12 "Bone38" 11
  13 "Bone42" 12
  14 "Bone_L_Upper" 1
  15 "Bone13" 2
  16 "Bone14" 15
  17 "Bone15" 16
  18 "Bone17" 2
  19 "Bone18" 18
  20 "Bone19" 19
  21 "Bone21" 2
  22 "Bone22" 21
  23 "Bone23" 22
  24 "Bone09" 2
  25 "Bone10" 24
  26 "Bone11" 25
  27 "Bone05" 2
  28 "Bone06" 27
  29 "Bone07" 28
  30 "Bone_Se_Hand-L" 2
  31 "Bone04" 0
  32 "Bone_Righthand" 31
  33 "Bone39" 32
  34 "Bone40" 33
  35 "Bone41" 34
  36 "Bone35" 32
  37 "Bone36" 36
  38 "Bone37" 37
  39 "Bone31" 32
  40 "Bone32" 39
  41 "Bone33" 40
  42 "Bone43" 32
  43 "Bone44" 42
  44 "Bone45" 43
  45 "Bone27" 32
  46 "Bone28" 45
  47 "Bone29" 46
  48 "Bone_Se_Hand-R" 32
  49 "Bone_R_Upper" 31
end
skeleton
  time 0
    0 -1.701054 -1.756239 3.259746 0.000000 0.000000 0.000000
    1 9.213061 4.706442 -8.820692 -0.117591 -1.624205 -0.078121
    2 -0.071918 -8.498730 -0.104137 0.150845 0.279811 0.049468
    3 2.902373 -1.028308 1.363887 0.246174 3.088492 1.568953
    4 9.016968 -0.977799 -0.495297 1.570796 1.570796 0.000000
    5 4.408684 -0.044232 0.000002 0.000001 0.000000 -1.570796
    6 3.872081 1.346180 0.000001 0.000000 0.000000 2.043748
    7 6.106668 1.919336 0.000002 0.000000 0.000000 1.570795
    8 7.604102 4.136611 0.000002 0.000001 0.000000 1.348977
    9 23.985891 20.395915 -0.074224 -0.000001 0.000000 0.000000
    10 0.000000 0.000000 0.000000 0.000000 0.000000 0.000000
    11 1.218365 -1.897359 0.000000 0.000002 0.000001 -1.685017
    12 0.585307 -0.000003 0.000000 -0.000002 0.000000 -0.249335
    13 0.606010 0.000000 0.000000 -0.000002 0.000000 -0.267288
    14 1.257180 8.762585 -0.153713 -1.570562 0.002683 -1.566807
    15 -0.488518 -2.755602 -0.228260 -0.871614 -0.202562 -0.209541
    16 0.039887 -1.479790 0.029854 -2.058952 0.000000 0.000001
    17 0.028786 -1.075731 -0.023109 -0.606348 0.000000 0.000000
    18 0.250027 -2.820665 -0.238396 -0.797118 -0.167517 -0.114938
    19 -0.049759 -1.680544 0.100479 -1.934764 0.000000 -0.000002
    20 -0.034142 -1.148312 0.084782 -0.925906 0.000000 0.000000
    21 0.957766 -2.746780 -0.090302 0.020255 -0.194156 0.008841
    22 -0.033420 -1.397129 -0.011257 -1.230839 0.000000 -0.000001
    23 -0.022360 -0.957436 0.018784 -0.975516 0.000000 0.000000
    24 -1.180681 -2.507217 -0.193859 -0.671429 -0.081516 -0.261329
    25 -0.024967 -1.123934 0.017597 -2.056303 0.000000 0.000001
    26 -0.020057 -0.890968 0.010090 -0.677843 0.000000 0.000000
    27 0.583510 -1.197277 0.185379 0.180209 -0.812070 -1.291294
    28 1.535927 0.010246 0.005009 -0.002964 -0.012979 -0.506650
    29 1.100771 0.004527 -0.010679 -0.015488 -0.004784 -1.694062
    30 0.120153 -0.050270 -0.054489 0.287569 3.110905 1.561085
    31 -0.583278 -9.059502 -13.087620 0.442987 -3.273719 0.917906
    32 0.096944 -8.450418 -0.009365 -0.171351 -1.236953 0.379483
    33 0.447953 -2.798986 -0.200443 -1.198628 -0.014267 0.163836
    34 -0.032909 -1.480204 0.004940 -1.683884 0.000000 0.000002
    35 -0.027022 -1.076920 -0.020210 -0.971708 0.000000 0.000000
    36 -0.249534 -2.846964 -0.174213 -1.022486 0.040910 0.105577
    37 0.043235 -1.683941 0.096012 -1.580584 0.002823 -0.000167
    38 0.031729 -1.160830 0.058838 -1.629035 0.000642 0.008372
    39 -0.963866 -2.785145 -0.085350 -0.988719 0.073698 0.103385
    40 0.028479 -1.403067 0.006271 -1.327033 0.000000 0.000000
    41 0.021413 -0.957781 0.020046 -1.350994 0.000000 0.000000
    42 1.164475 -2.543940 -0.170330 -1.206683 -0.190581 0.231608
    43 0.024032 -1.129042 0.017807 -1.338123 0.000000 0.000001
    44 0.014898 -0.883989 -0.019848 -1.030508 0.000000 0.000000
    45 -0.586770 -1.264477 0.200161 0.369677 -0.600720 -2.485807
    46 1.522835 0.058681 0.016848 0.001410 0.008985 0.795215
    47 1.117947 0.048424 -0.005766 -0.022295 -0.011751 1.141767
    48 -0.139399 -0.111698 0.014397 0.879007 0.019582 1.538885
    49 -1.393470 8.839177 -0.239433 1.580804 -0.005023 -1.566847
  time 1
    0 -1.701054 -1.756239 3.259746 0.000000 0.000000 0.000000
    1 9.213061 5.370525 -8.789441 0.150631 -1.649281 -0.345630
    2 -0.071918 -8.498730 -0.104137 0.150845 0.279811 0.049468
    3 2.902373 -1.028308 1.363887 0.246174 3.088492 1.568953
    4 9.016968 -0.977799 -0.495297 1.570796 1.570796 0.000000
    5 4.408684 -0.044232 0.000002 0.000001 0.000000 -1.570796
    6 3.872081 1.346180 0.000001 0.000000 0.000000 2.043748
    7 6.106668 1.919336 0.000002 0.000000 0.000000 1.570795
    8 7.604102 4.136611 0.000002 0.000001 0.000000 1.348977
    9 23.985891 20.395915 -0.074224 -0.000001 0.000000 0.000000
    10 0.000000 0.000000 0.000000 0.000000 0.000000 0.000000
    11 1.218365 -1.897359 0.000000 0.000002 0.000001 -1.685017
    12 0.585307 -0.000003 0.000000 -0.000002 0.000000 -0.249335
    13 0.606010 0.000000 0.000000 -0.000002 0.000000 -0.267288
    14 1.257180 8.762585 -0.153713 -1.570562 0.002683 -1.566807
    15 -0.488518 -2.755602 -0.228260 -0.871614 -0.202562 -0.209541
    16 0.039887 -1.479790 0.029854 -2.058952 0.000000 0.000001
    17 0.028786 -1.075731 -0.023109 -0.606348 0.000000 0.000000
    18 0.250027 -2.820665 -0.238396 -0.797118 -0.167517 -0.114938
    19 -0.049759 -1.680544 0.100479 -1.934764 0.000000 -0.000002
    20 -0.034142 -1.148312 0.084782 -0.925879 0.000000 0.000000
    21 0.957766 -2.746780 -0.090302 0.020255 -0.194156 0.008841
    22 -0.033420 -1.397129 -0.011257 -1.230839 0.000000 -0.000001
    23 -0.022360 -0.957436 0.018784 -0.975516 0.000000 0.000000
    24 -1.180681 -2.507217 -0.193859 -0.671429 -0.081516 -0.261329
    25 -0.024967 -1.123934 0.017597 -2.056303 0.000000 0.000001
    26 -0.020057 -0.890968 0.010090 -0.677843 0.000000 0.000000
    27 0.583510 -1.197277 0.185379 0.180209 -0.812070 -1.291294
    28 1.535927 0.010246 0.005009 -0.002964 -0.012979 -0.506650
    29 1.100771 0.004527 -0.010679 -0.015488 -0.004784 -1.694062
    30 0.120153 -0.050270 -0.054489 0.287569 3.110905 1.561085
    31 -0.493432 -8.489172 -12.943084 0.473203 -3.268354 0.921861
    32 0.096944 -8.450418 -0.009365 -0.171351 -1.236953 0.379483
    33 0.447953 -2.798986 -0.200443 -1.198628 -0.014267 0.163836
    34 -0.032909 -1.480204 0.004940 -1.683884 0.000000 0.000002
    35 -0.027022 -1.076920 -0.020210 -0.971708 0.000000 0.000000
    36 -0.249534 -2.846964 -0.174213 -1.022486 0.040910 0.105577
    37 0.043235 -1.683941 0.096012 -1.580584 0.002823 -0.000167
    38 0.031729 -1.160830 0.058838 -1.629035 0.000642 0.008372
    39 -0.963866 -2.785145 -0.085350 -0.988719 0.073698 0.103385
    40 0.028479 -1.403067 0.006271 -1.327033 0.000000 0.000000
    41 0.021413 -0.957781 0.020046 -1.350994 0.000000 0.000000
    42 1.164475 -2.543940 -0.170330 -1.206683 -0.190581 0.231608
    43 0.024032 -1.129042 0.017807 -1.338123 0.000000 0.000001
    44 0.014898 -0.883989 -0.019848 -1.030508 0.000000 0.000000
    45 -0.586770 -1.264477 0.200161 0.369677 -0.600720 -2.485807
    46 1.522835 0.058681 0.016848 0.001410 0.008985 0.795215
    47 1.117947 0.048424 -0.005766 -0.022295 -0.011751 1.141767
    48 -0.139399 -0.111698 0.014397 0.879007 0.019582 1.538885
    49 -1.393470 8.839177 -0.239433 1.580804 -0.005023 -1.566847
  time 2
    0 -1.701054 -1.756239 3.259746 0.000000 0.000000 0.000000
    1 9.213061 5.722098 -8.734752 0.254783 -1.664225 -0.449281
    2 -0.071918 -8.498730 -0.104137 0.150845 0.279811 0.049468
    3 2.902373 -1.028308 1.363887 0.246174 3.088492 1.568953
    4 9.016968 -0.977799 -0.495297 1.570796 1.570796 0.000000
    5 4.408684 -0.044232 0.000002 0.000001 0.000000 -1.570796
    6 3.872081 1.346180 0.000001 0.000000 0.000000 2.043748
    7 6.106668 1.919336 0.000002 0.000000 0.000000 1.570795
    8 7.604102 4.136611 0.000002 0.000001 0.000000 1.348977
    9 23.985891 20.395915 -0.074224 -0.000001 0.000000 0.000000
    10 0.000000 0.000000 0.000000 0.000000 0.000000 0.000000
    11 1.218365 -1.897359 0.000000 0.000002 0.000001 -1.685017
    12 0.585307 -0.000003 0.000000 -0.000002 0.000000 -0.249335
    13 0.606010 0.000000 0.000000 -0.000002 0.000000 -0.267288
    14 1.257180 8.762585 -0.153713 -1.570562 0.002683 -1.566807
    15 -0.488518 -2.755602 -0.228260 -0.871614 -0.202562 -0.209541
    16 0.039887 -1.479790 0.029854 -2.058952 0.000000 0.000001
    17 0.028786 -1.075731 -0.023109 -0.606348 0.000000 0.000000
    18 0.250027 -2.820665 -0.238396 -0.797118 -0.167517 -0.114938
    19 -0.049759 -1.680544 0.100479 -1.934764 0.000000 -0.000002
    20 -0.034142 -1.148312 0.084782 -0.925906 0.000000 0.000000
    21 0.957766 -2.746780 -0.090302 0.020255 -0.194156 0.008841
    22 -0.033420 -1.397129 -0.011257 -1.230839 0.000000 -0.000001
    23 -0.022360 -0.957436 0.018784 -0.975516 0.000000 0.000000
    24 -1.180681 -2.507217 -0.193859 -0.671429 -0.081516 -0.261329
    25 -0.024967 -1.123934 0.017597 -2.056303 0.000000 0.000001
    26 -0.020057 -0.890968 0.010090 -0.677843 0.000000 0.000000
    27 0.583510 -1.197277 0.185379 0.180209 -0.812070 -1.291294
    28 1.535927 0.010246 0.005009 -0.002964 -0.012979 -0.506650
    29 1.100771 0.004527 -0.010679 -0.015488 -0.004784 -1.694062
    30 0.120153 -0.050270 -0.054489 0.287569 3.110905 1.561085
    31 -0.450462 -8.196194 -12.794642 0.490062 -3.263373 0.924121
    32 0.096944 -8.450418 -0.009365 -0.171351 -1.236953 0.379483
    33 0.447953 -2.798986 -0.200443 -1.198628 -0.014267 0.163836
    34 -0.032909 -1.480204 0.004940 -1.683884 0.000000 0.000002
    35 -0.027022 -1.076920 -0.020210 -0.971708 0.000000 0.000000
    36 -0.249534 -2.846964 -0.174213 -1.022486 0.040910 0.105577
    37 0.043235 -1.683941 0.096012 -1.580584 0.002823 -0.000167
    38 0.031729 -1.160830 0.058838 -1.629035 0.000642 0.008372
    39 -0.963866 -2.785145 -0.085350 -0.988719 0.073698 0.103385
    40 0.028479 -1.403067 0.006271 -1.327033 0.000000 0.000000
    41 0.021413 -0.957781 0.020046 -1.350994 0.000000 0.000000
    42 1.164475 -2.543940 -0.170330 -1.206683 -0.190581 0.231608
    43 0.024032 -1.129042 0.017807 -1.338123 0.000000 0.000001
    44 0.014898 -0.883989 -0.019848 -1.030508 0.000000 0.000000
    45 -0.586770 -1.264477 0.200161 0.369677 -0.600720 -2.485807
    46 1.522835 0.058681 0.016848 0.001410 0.008985 0.795215
    47 1.117947 0.048424 -0.005766 -0.022295 -0.011751 1.141767
    48 -0.139399 -0.111698 0.014397 0.879007 0.019582 1.538885
    49 -1.393470 8.839177 -0.239433 1.580804 -0.005023 -1.566847
  time 3
    0 -1.701054 -1.756239 3.259746 0.000000 0.000000 0.000000
    1 9.213061 5.550218 -8.488650 0.186835 -1.641958 -0.381639
    2 -0.071918 -8.498730 -0.104137 0.150845 0.279811 0.049468
    3 2.902373 -1.028308 1.363887 0.246174 3.088492 1.568953
    4 9.016968 -0.977799 -0.495297 1.570796 1.570796 0.000000
    5 4.408684 -0.044232 0.000002 0.000001 0.000000 -1.570796
    6 3.872081 1.346180 0.000001 0.000000 0.000000 1.921119
    7 6.106668 1.919336 0.000002 0.000000 0.000000 1.570795
    8 7.604102 4.136611 0.000002 0.000001 0.000000 1.348977
    9 23.985891 20.395915 -0.074224 -0.000001 0.000000 0.000000
    10 0.000000 0.000000 0.000000 0.000000 0.000000 0.000000
    11 1.218365 -1.897359 0.000000 0.000002 0.000001 -1.685017
    12 0.585307 -0.000003 0.000000 -0.000002 0.000000 -0.249335
    13 0.606010 0.000000 0.000000 -0.000002 0.000000 -0.267288
    14 1.257180 8.762585 -0.153713 -1.570562 0.002683 -1.566807
    15 -0.488518 -2.755602 -0.228260 -0.871614 -0.202562 -0.209541
    16 0.039887 -1.479790 0.029854 -2.058952 0.000000 0.000001
    17 0.028786 -1.075731 -0.023109 -0.606348 0.000000 0.000000
    18 0.250027 -2.820665 -0.238396 -0.797118 -0.167517 -0.114938
    19 -0.049759 -1.680544 0.100479 -1.934764 0.000000 -0.000002
    20 -0.034142 -1.148312 0.084782 -0.925906 0.000000 0.000000
    21 0.957766 -2.746780 -0.090302 0.020255 -0.194156 0.008841
    22 -0.033420 -1.397129 -0.011257 -1.046823 0.000000 -0.000001
    23 -0.022360 -0.957436 0.018784 -0.975516 0.000000 0.000000
    24 -1.180681 -2.507217 -0.193859 -0.671429 -0.081516 -0.261329
    25 -0.024967 -1.123934 0.017597 -2.056303 0.000000 0.000001
    26 -0.020057 -0.890968 0.010090 -0.677843 0.000000 0.000000
    27 0.583510 -1.197277 0.185379 0.180209 -0.812070 -1.291294
    28 1.535927 0.010246 0.005009 -0.002964 -0.012979 -0.506650
    29 1.100771 0.004527 -0.010679 -0.015488 -0.004784 -1.694062
    30 0.120153 -0.050270 -0.054489 0.287569 3.110905 1.561085
    31 -0.524683 -8.309479 -12.571979 0.466932 -3.263661 0.921202
    32 0.096944 -8.450418 -0.009365 -0.171351 -1.236953 0.379483
    33 0.447953 -2.798986 -0.200443 -1.198628 -0.014267 0.163836
    34 -0.032909 -1.480204 0.004940 -1.683884 0.000000 0.000002
    35 -0.027022 -1.076920 -0.020210 -0.971708 0.000000 0.000000
    36 -0.249534 -2.846964 -0.174213 -1.022486 0.040910 0.105577
    37 0.043235 -1.683941 0.096012 -1.580584 0.002823 -0.000167
    38 0.031729 -1.160830 0.058838 -1.629035 0.000642 0.008372
    39 -0.963866 -2.785145 -0.085350 -0.988719 0.073698 0.103385
    40 0.028479 -1.403067 0.006271 -1.327033 0.000000 0.000000
    41 0.021413 -0.957781 0.020046 -1.350994 0.000000 0.000000
    42 1.164475 -2.543940 -0.170330 -1.206683 -0.190581 0.231608
    43 0.024032 -1.129042 0.017807 -1.338123 0.000000 0.000001
    44 0.014898 -0.883989 -0.019848 -1.030508 0.000000 0.000000
    45 -0.586770 -1.264477 0.200161 0.369677 -0.600720 -2.485807
    46 1.522835 0.058681 0.016848 0.001410 0.008985 0.795215
    47 1.117947 0.048424 -0.005766 -0.022295 -0.011751 1.141767
    48 -0.139399 -0.111698 0.014397 0.879007 0.019582 1.538885
    49 -1.393470 8.839177 -0.239433 1.580804 -0.005023 -1.566847
  time 4
    0 -1.701054 -1.756239 3.259746 0.000000 0.000000 0.000000
    1 9.213061 5.163487 -8.187860 -0.128453 -1.609082 -0.066944
    2 -0.071918 -8.498730 -0.104137 0.150845 0.279811 0.049468
    3 2.902373 -1.028308 1.363887 0.246174 3.088492 1.568953
    4 12.020966 -0.977799 -0.495297 1.570796 1.570796 0.000000
    5 4.408684 -0.044232 0.000002 0.000001 0.000000 -1.570796
    6 3.872081 1.346180 0.000001 0.000000 0.000000 1.693412
    7 6.106668 1.919336 0.000002 0.000000 0.000000 1.570795
    8 7.604102 4.136611 0.000002 0.000001 0.000000 1.348977
    9 23.985891 20.395915 -0.074224 -0.000001 0.000000 0.000000
    10 0.000000 0.000000 0.000000 0.000000 0.000000 0.000000
    11 1.218365 -1.897359 0.000000 0.000002 0.000001 -1.685017
    12 0.585307 -0.000003 0.000000 -0.000002 0.000000 -0.249335
    13 0.606010 0.000000 0.000000 -0.000002 0.000000 -0.267288
    14 1.257180 8.762585 -0.153713 -1.570562 0.002683 -1.566807
    15 -0.488518 -2.755602 -0.228260 -0.871614 -0.202562 -0.209541
    16 0.039887 -1.479790 0.029854 -2.058952 0.000000 0.000001
    17 0.028786 -1.075731 -0.023109 -0.606348 0.000000 0.000000
    18 0.250027 -2.820665 -0.238396 -0.797118 -0.167517 -0.114938
    19 -0.049759 -1.680544 0.100479 -1.934764 0.000000 -0.000002
    20 -0.034142 -1.148312 0.084782 -0.925906 0.000000 0.000000
    21 0.957766 -2.746780 -0.090302 0.020255 -0.194156 0.008841
    22 -0.033420 -1.397129 -0.011257 -0.705040 0.000000 -0.000001
    23 -0.022360 -0.957436 0.018784 -0.975516 0.000000 0.000000
    24 -1.180681 -2.507217 -0.193859 -0.671429 -0.081516 -0.261329
    25 -0.024967 -1.123934 0.017597 -2.056303 0.000000 0.000001
    26 -0.020057 -0.890968 0.010090 -0.677843 0.000000 0.000000
    27 0.583510 -1.197277 0.185379 0.180209 -0.812070 -1.291294
    28 1.535927 0.010246 0.005009 -0.002964 -0.012979 -0.506650
    29 1.100771 0.004527 -0.010679 -0.015488 -0.004784 -1.694062
    30 0.120153 -0.050270 -0.054489 0.287569 3.110905 1.561085
    31 -0.641874 -8.598550 -12.329785 0.429957 -3.265864 0.916588
    32 0.096944 -8.450418 -0.009365 -0.171351 -1.236953 0.379483
    33 0.447953 -2.798986 -0.200443 -1.198628 -0.014267 0.163836
    34 -0.032909 -1.480204 0.004940 -1.683884 0.000000 0.000002
    35 -0.027022 -1.076920 -0.020210 -0.971708 0.000000 0.000000
    36 -0.249534 -2.846964 -0.174213 -1.022486 0.040910 0.105577
    37 0.043235 -1.683941 0.096012 -1.580584 0.002823 -0.000167
    38 0.031729 -1.160830 0.058838 -1.629035 0.000642 0.008372
    39 -0.963866 -2.785145 -0.085350 -0.988719 0.073698 0.103385
    40 0.028479 -1.403067 0.006271 -1.327033 0.000000 0.000000
    41 0.021413 -0.957781 0.020046 -1.350994 0.000000 0.000000
    42 1.164475 -2.543940 -0.170330 -1.206683 -0.190581 0.231608
    43 0.024032 -1.129042 0.017807 -1.338123 0.000000 0.000001
    44 0.014898 -0.883989 -0.019848 -1.030508 0.000000 0.000000
    45 -0.586770 -1.264477 0.200161 0.369677 -0.600720 -2.485807
    46 1.522835 0.058681 0.016848 0.001410 0.008985 0.795215
    47 1.117947 0.048424 -0.005766 -0.022295 -0.011751 1.141767
    48 -0.139399 -0.111698 0.014397 0.879007 0.019582 1.538885
    49 -1.393470 8.839177 -0.239433 1.580804 -0.005023 -1.566847
  time 5
    0 -1.701054 -1.756239 3.259746 0.000000 0.000000 0.000000
    1 9.213061 4.847071 -7.992541 -0.843399 -1.596858 0.647698
    2 -0.071918 -8.498730 -0.104137 0.150845 0.279811 0.049468
    3 2.902373 -1.028308 1.363887 0.246174 3.088492 1.568953
    4 12.020966 -0.977799 -0.495297 1.570796 1.570796 0.000000
    5 6.283741 -0.044232 0.000002 0.000001 0.000000 -1.570796
    6 3.872081 1.346180 0.000001 0.000000 0.000000 1.570797
    7 6.106668 1.919336 0.000002 0.000000 0.000000 1.570795
    8 7.604102 4.136611 0.000002 0.000001 0.000000 1.348977
    9 23.985891 20.395915 -0.074224 -0.000001 0.000000 0.000000
    10 0.000000 0.000000 0.000000 0.000000 0.000000 0.000000
    11 1.218365 -1.897359 0.000000 0.000002 0.000001 -1.685017
    12 0.585307 -0.000003 0.000000 -0.000002 0.000000 -0.249335
    13 0.606010 0.000000 0.000000 -0.000002 0.000000 -0.267288
    14 1.257180 8.762585 -0.153713 -1.570562 0.002683 -1.566807
    15 -0.488518 -2.755602 -0.228260 -0.871614 -0.202562 -0.209541
    16 0.039887 -1.479790 0.029854 -2.058952 0.000000 0.000001
    17 0.028786 -1.075731 -0.023109 -0.606348 0.000000 0.000000
    18 0.250027 -2.820665 -0.238396 -0.797118 -0.167517 -0.114938
    19 -0.049759 -1.680544 0.100479 -1.934764 0.000000 -0.000002
    20 -0.034142 -1.148312 0.084782 -0.925906 0.000000 0.000000
    21 0.957766 -2.746780 -0.090302 0.020255 -0.194156 0.008841
    22 -0.033420 -1.397129 -0.011257 -0.520985 0.000000 -0.000001
    23 -0.022360 -0.957436 0.018784 -0.975516 0.000000 0.000000
    24 -1.180681 -2.507217 -0.193859 -0.671429 -0.081516 -0.261329
    25 -0.024967 -1.123934 0.017597 -2.056303 0.000000 0.000001
    26 -0.020057 -0.890968 0.010090 -0.677843 0.000000 0.000000
    27 0.583510 -1.197277 0.185379 0.180209 -0.812070 -1.291294
    28 1.535927 0.010246 0.005009 -0.002964 -0.012979 -0.506650
    29 1.100771 0.004527 -0.010679 -0.015488 -0.004784 -1.694062
    30 0.120153 -0.050270 -0.054489 0.287569 3.110905 1.561085
    31 -0.716095 -8.836839 -12.212593 0.404790 -3.269695 0.913292
    32 0.096944 -8.450418 -0.009365 -0.171351 -1.236953 0.379483
    33 0.447953 -2.798986 -0.200443 -1.198628 -0.014267 0.163836
    34 -0.032909 -1.480204 0.004940 -1.683884 0.000000 0.000002
    35 -0.027022 -1.076920 -0.020210 -0.971708 0.000000 0.000000
    36 -0.249534 -2.846964 -0.174213 -1.022486 0.040910 0.105577
    37 0.043235 -1.683941 0.096012 -1.580584 0.002823 -0.000167
    38 0.031729 -1.160830 0.058838 -1.629035 0.000642 0.008372
    39 -0.963866 -2.785145 -0.085350 -0.988719 0.073698 0.103385
    40 0.028479 -1.403067 0.006271 -1.327033 0.000000 0.000000
    41 0.021413 -0.957781 0.020046 -1.350994 0.000000 0.000000
    42 1.164475 -2.543940 -0.170330 -1.206683 -0.190581 0.231608
    43 0.024032 -1.129042 0.017807 -1.338123 0.000000 0.000001
    44 0.014898 -0.883989 -0.019848 -1.030508 0.000000 0.000000
    45 -0.586770 -1.264477 0.200161 0.369677 -0.600720 -2.485807
    46 1.522835 0.058681 0.016848 0.001410 0.008985 0.795215
    47 1.117947 0.048424 -0.005766 -0.022295 -0.011751 1.141767
    48 -0.139399 -0.111698 0.014397 0.879007 0.019582 1.538885
    49 -1.393470 8.839177 -0.239433 1.580804 -0.005023 -1.566847
  time 6
    0 -1.701054 -1.756239 3.259746 0.000000 0.000000 0.000000
    1 9.213061 4.683004 -7.914414 -1.118495 -1.602387 0.922694
    2 -0.071918 -8.498730 -0.104137 0.150845 0.279811 0.049468
    3 2.902373 -1.028308 1.363887 0.246174 3.088492 1.568953
    4 12.020966 -0.977799 -0.495297 1.570796 1.570796 0.000000
    5 6.283741 -0.044232 0.000002 0.000001 0.000000 -1.570796
    6 3.872081 1.346180 0.000001 0.000000 0.000000 1.570797
    7 6.106668 1.919336 0.000002 0.000000 0.000000 1.570795
    8 7.604102 4.136611 0.000002 0.000001 0.000000 1.348977
    9 23.985891 20.395915 -0.074224 -0.000001 0.000000 0.000000
    10 0.000000 0.000000 0.000000 0.000000 0.000000 0.000000
    11 1.218365 -1.897359 0.000000 0.000002 0.000001 -1.685017
    12 0.585307 -0.000003 0.000000 -0.000002 0.000000 -0.249335
    13 0.606010 0.000000 0.000000 -0.000002 0.000000 -0.267288
    14 1.257180 8.762585 -0.153713 -1.570562 0.002683 -1.566807
    15 -0.488518 -2.755602 -0.228260 -0.871614 -0.202562 -0.209541
    16 0.039887 -1.479790 0.029854 -2.058952 0.000000 0.000001
    17 0.028786 -1.075731 -0.023109 -0.606348 0.000000 0.000000
    18 0.250027 -2.820665 -0.238396 -0.797118 -0.167517 -0.114938
    19 -0.049759 -1.680544 0.100479 -1.934764 0.000000 -0.000002
    20 -0.034142 -1.148312 0.084782 -0.925906 0.000000 0.000000
    21 0.957766 -2.746780 -0.090302 0.020255 -0.194156 0.008841
    22 -0.033420 -1.397129 -0.011257 -0.520985 0.000000 -0.000001
    23 -0.022360 -0.957436 0.018784 -0.975516 0.000000 0.000000
    24 -1.180681 -2.507217 -0.193859 -0.671429 -0.081516 -0.261329
    25 -0.024967 -1.123934 0.017597 -2.056303 0.000000 0.000001
    26 -0.020057 -0.890968 0.010090 -0.677843 0.000000 0.000000
    27 0.583510 -1.197277 0.185379 0.180209 -0.812070 -1.291294
    28 1.535927 0.010246 0.005009 -0.002964 -0.012979 -0.506650
    29 1.100771 0.004527 -0.010679 -0.015488 -0.004784 -1.694062
    30 0.120153 -0.050270 -0.054489 0.287569 3.110905 1.561085
    31 -0.723908 -8.961842 -12.247751 0.397542 -3.276113 0.912445
    32 0.096944 -8.450418 -0.009365 -0.171351 -1.236953 0.379483
    33 0.447953 -2.798986 -0.200443 -1.198628 -0.014267 0.163836
    34 -0.032909 -1.480204 0.004940 -1.683884 0.000000 0.000002
    35 -0.027022 -1.076920 -0.020210 -0.971708 0.000000 0.000000
    36 -0.249534 -2.846964 -0.174213 -1.022486 0.040910 0.105577
    37 0.043235 -1.683941 0.096012 -1.580584 0.002823 -0.000167
    38 0.031729 -1.160830 0.058838 -1.629035 0.000642 0.008372
    39 -0.963866 -2.785145 -0.085350 -0.988719 0.073698 0.103385
    40 0.028479 -1.403067 0.006271 -1.327033 0.000000 0.000000
    41 0.021413 -0.957781 0.020046 -1.350994 0.000000 0.000000
    42 1.164475 -2.543940 -0.170330 -1.206683 -0.190581 0.231608
    43 0.024032 -1.129042 0.017807 -1.338123 0.000000 0.000001
    44 0.014898 -0.883989 -0.019848 -1.030508 0.000000 0.000000
    45 -0.586770 -1.264477 0.200161 0.369677 -0.600720 -2.485807
    46 1.522835 0.058681 0.016848 0.001410 0.008985 0.795215
    47 1.117947 0.048424 -0.005766 -0.022295 -0.011751 1.141767
    48 -0.139399 -0.111698 0.014397 0.879007 0.019582 1.538885
    49 -1.393470 8.839177 -0.239433 1.580804 -0.005023 -1.566847
  time 7
    0 -1.701054 -1.756239 3.259746 0.000000 0.000000 0.000000
    1 9.213061 4.550187 -7.871444 -1.155853 -1.610845 0.960073
    2 -0.071918 -8.498730 -0.104137 0.150845 0.279811 0.049468
    3 2.902373 -1.028308 1.363887 0.246174 3.088492 1.568953
    4 12.020966 -0.977799 -0.495297 1.570796 1.570796 0.000000
    5 6.283741 -0.044232 0.000002 0.000001 0.000000 -1.570796
    6 3.872081 1.346180 0.000001 0.000000 0.000000 1.570797
    7 6.106668 1.919336 0.000002 0.000000 0.000000 1.570795
    8 7.604102 4.136611 0.000002 0.000001 0.000000 1.348977
    9 23.985891 20.395915 -0.074224 -0.000001 0.000000 0.000000
    10 0.000000 0.000000 0.000000 0.000000 0.000000 0.000000
    11 1.218365 -1.897359 0.000000 0.000002 0.000001 -1.685017
    12 0.585307 -0.000003 0.000000 -0.000002 0.000000 -0.249335
    13 0.606010 0.000000 0.000000 -0.000002 0.000000 -0.267288
    14 1.257180 8.762585 -0.153713 -1.570562 0.002683 -1.566807
    15 -0.488518 -2.755602 -0.228260 -0.871614 -0.202562 -0.209541
    16 0.039887 -1.479790 0.029854 -2.058952 0.000000 0.000001
    17 0.028786 -1.075731 -0.023109 -0.606348 0.000000 0.000000
    18 0.250027 -2.820665 -0.238396 -0.797118 -0.167517 -0.114938
    19 -0.049759 -1.680544 0.100479 -1.934764 0.000000 -0.000002
    20 -0.034142 -1.148312 0.084782 -0.925906 0.000000 0.000000
    21 0.957766 -2.746780 -0.090302 0.020255 -0.194156 0.008841
    22 -0.033420 -1.397129 -0.011257 -0.520985 0.000000 -0.000001
    23 -0.022360 -0.957436 0.018784 -0.975516 0.000000 0.000000
    24 -1.180681 -2.507217 -0.193859 -0.671429 -0.081516 -0.261329
    25 -0.024967 -1.123934 0.017597 -2.056303 0.000000 0.000001
    26 -0.020057 -0.890968 0.010090 -0.677843 0.000000 0.000000
    27 0.583510 -1.197277 0.185379 0.180209 -0.812070 -1.291294
    28 1.535927 0.010246 0.005009 -0.002964 -0.012979 -0.506650
    29 1.100771 0.004527 -0.010679 -0.015488 -0.004784 -1.694062
    30 0.120153 -0.050270 -0.054489 0.287569 3.110905 1.561085
    31 -0.704376 -9.059502 -12.349316 0.395995 -3.284543 0.912256
    32 0.096944 -8.450418 -0.009365 -0.171351 -1.236953 0.379483
    33 0.447953 -2.798986 -0.200443 -1.198628 -0.014267 0.163836
    34 -0.032909 -1.480204 0.004940 -1.683884 0.000000 0.000002
    35 -0.027022 -1.076920 -0.020210 -0.971708 0.000000 0.000000
    36 -0.249534 -2.846964 -0.174213 -1.022486 0.040910 0.105577
    37 0.043235 -1.683941 0.096012 -1.580584 0.002823 -0.000167
    38 0.031729 -1.160830 0.058838 -1.629035 0.000642 0.008372
    39 -0.963866 -2.785145 -0.085350 -0.988719 0.073698 0.103385
    40 0.028479 -1.403067 0.006271 -1.327033 0.000000 0.000000
    41 0.021413 -0.957781 0.020046 -1.350994 0.000000 0.000000
    42 1.164475 -2.543940 -0.170330 -1.206683 -0.190581 0.231608
    43 0.024032 -1.129042 0.017807 -1.338123 0.000000 0.000001
    44 0.014898 -0.883989 -0.019848 -1.030508 0.000000 0.000000
    45 -0.586770 -1.264477 0.200161 0.369677 -0.600720 -2.485807
    46 1.522835 0.058681 0.016848 0.001410 0.008985 0.795215
    47 1.117947 0.048424 -0.005766 -0.022295 -0.011751 1.141767
    48 -0.139399 -0.111698 0.014397 0.879007 0.019582 1.538885
    49 -1.393470 8.839177 -0.239433 1.580804 -0.005023 -1.566847
  time 8
    0 -1.701054 -1.756239 3.259746 0.000000 0.000000 0.000000
    1 9.213061 4.440809 -7.871444 -1.106532 -1.619214 0.910831
    2 -0.071918 -8.498730 -0.104137 0.150845 0.279811 0.049468
    3 2.902373 -1.028308 1.363887 0.246174 3.088492 1.568953
    4 12.020966 -0.977799 -0.495297 1.570796 1.570796 0.000000
    5 6.283741 -0.044232 0.000002 0.000001 0.000000 -1.570796
    6 3.872081 1.346180 0.000001 0.000000 0.000000 1.570797
    7 6.106668 1.919336 0.000002 0.000000 0.000000 1.570795
    8 7.604102 4.136611 0.000002 0.000001 0.000000 1.348977
    9 23.985891 20.395915 -0.074224 -0.000001 0.000000 0.000000
    10 0.000000 0.000000 0.000000 0.000000 0.000000 0.000000
    11 1.218365 -1.897359 0.000000 0.000002 0.000001 -1.685017
    12 0.585307 -0.000003 0.000000 -0.000002 0.000000 -0.249335
    13 0.606010 0.000000 0.000000 -0.000002 0.000000 -0.267288
    14 1.257180 8.762585 -0.153713 -1.570562 0.002683 -1.566807
    15 -0.488518 -2.755602 -0.228260 -0.871614 -0.202562 -0.209541
    16 0.039887 -1.479790 0.029854 -2.058952 0.000000 0.000001
    17 0.028786 -1.075731 -0.023109 -0.606348 0.000000 0.000000
    18 0.250027 -2.820665 -0.238396 -0.797118 -0.167517 -0.114938
    19 -0.049759 -1.680544 0.100479 -1.934764 0.000000 -0.000002
    20 -0.034142 -1.148312 0.084782 -0.925879 0.000000 0.000000
    21 0.957766 -2.746780 -0.090302 0.020255 -0.194156 0.008841
    22 -0.033420 -1.397129 -0.011257 -0.520985 0.000000 -0.000001
    23 -0.022360 -0.957436 0.018784 -0.975516 0.000000 0.000000
    24 -1.180681 -2.507217 -0.193859 -0.671429 -0.081516 -0.261329
    25 -0.024967 -1.123934 0.017597 -2.056303 0.000000 0.000001
    26 -0.020057 -0.890968 0.010090 -0.677843 0.000000 0.000000
    27 0.583510 -1.197277 0.185379 0.180209 -0.812070 -1.291294
    28 1.535927 0.010246 0.005009 -0.002964 -0.012979 -0.506650
    29 1.100771 0.004527 -0.010679 -0.015488 -0.004784 -1.694062
    30 0.120153 -0.050270 -0.054489 0.287569 3.110905 1.561085
    31 -0.673125 -9.145442 -12.486039 0.397949 -3.292973 0.912539
    32 0.096944 -8.450418 -0.009365 -0.171351 -1.236953 0.379483
    33 0.447953 -2.798986 -0.200443 -1.198628 -0.014267 0.163836
    34 -0.032909 -1.480204 0.004940 -1.683884 0.000000 0.000002
    35 -0.027022 -1.076920 -0.020210 -0.971708 0.000000 0.000000
    36 -0.249534 -2.846964 -0.174213 -1.022486 0.040910 0.105577
    37 0.043235 -1.683941 0.096012 -1.580584 0.002823 -0.000167
    38 0.031729 -1.160830 0.058838 -1.629035 0.000642 0.008372
    39 -0.963866 -2.785145 -0.085350 -0.988719 0.073698 0.103385
    40 0.028479 -1.403067 0.006271 -1.327033 0.000000 0.000000
    41 0.021413 -0.957781 0.020046 -1.350994 0.000000 0.000000
    42 1.164475 -2.543940 -0.170330 -1.206683 -0.190581 0.231608
    43 0.024032 -1.129042 0.017807 -1.338123 0.000000 0.000001
    44 0.014898 -0.883989 -0.019848 -1.030508 0.000000 0.000000
    45 -0.586770 -1.264477 0.200161 0.369677 -0.600720 -2.485807
    46 1.522835 0.058681 0.016848 0.001410 0.008985 0.795215
    47 1.117947 0.048424 -0.005766 -0.022295 -0.011751 1.141767
    48 -0.139399 -0.111698 0.014397 0.879007 0.019582 1.538885
    49 -1.393470 8.839177 -0.239433 1.580804 -0.005023 -1.566847
  time 9
    0 -1.701054 -1.756239 3.259746 0.000000 0.000000 0.000000
    1 9.213061 4.343149 -7.902695 -1.041890 -1.625849 0.846247
    2 -0.071918 -8.498730 -0.104137 0.150845 0.279811 0.049468
    3 2.902373 -1.028308 1.363887 0.246174 3.088492 1.568953
    4 12.020966 -0.977799 -0.495297 1.570796 1.570796 0.000000
    5 6.283741 -0.044232 0.000002 0.000001 0.000000 -1.570796
    6 3.872081 1.346180 0.000001 0.000000 0.000000 1.570797
    7 6.106668 1.919336 0.000002 0.000000 0.000000 1.570795
    8 7.604102 4.136611 0.000002 0.000001 0.000000 1.348977
    9 23.985891 20.395915 -0.074224 -0.000001 0.000000 0.000000
    10 0.000000 0.000000 0.000000 0.000000 0.000000 0.000000
    11 1.218365 -1.897359 0.000000 0.000002 0.000001 -1.685017
    12 0.585307 -0.000003 0.000000 -0.000002 0.000000 -0.249335
    13 0.606010 0.000000 0.000000 -0.000002 0.000000 -0.267288
    14 1.257180 8.762585 -0.153713 -1.570562 0.002683 -1.566807
    15 -0.488518 -2.755602 -0.228260 -0.871614 -0.202562 -0.209541
    16 0.039887 -1.479790 0.029854 -2.058952 0.000000 0.000001
    17 0.028786 -1.075731 -0.023109 -0.606348 0.000000 0.000000
    18 0.250027 -2.820665 -0.238396 -0.797118 -0.167517 -0.114938
    19 -0.049759 -1.680544 0.100479 -1.934764 0.000000 -0.000002
    20 -0.034142 -1.148312 0.084782 -0.925906 0.000000 0.000000
    21 0.957766 -2.746780 -0.090302 0.020255 -0.194156 0.008841
    22 -0.033420 -1.397129 -0.011257 -0.520985 0.000000 -0.000001
    23 -0.022360 -0.957436 0.018784 -0.975516 0.000000 0.000000
    24 -1.180681 -2.507217 -0.193859 -0.671429 -0.081516 -0.261329
    25 -0.024967 -1.123934 0.017597 -2.056303 0.000000 0.000001
    26 -0.020057 -0.890968 0.010090 -0.677843 0.000000 0.000000
    27 0.583510 -1.197277 0.185379 0.180209 -0.812070 -1.291294
    28 1.535927 0.010246 0.005009 -0.002964 -0.012979 -0.506650
    29 1.100771 0.004527 -0.010679 -0.015488 -0.004784 -1.694062
    30 0.120153 -0.050270 -0.054489 0.287569 3.110905 1.561085
    31 -0.641874 -9.227476 -12.622762 0.401614 -3.299486 0.913104
    32 0.096944 -8.450418 -0.009365 -0.171351 -1.236953 0.379483
    33 0.447953 -2.798986 -0.200443 -1.198628 -0.014267 0.163836
    34 -0.032909 -1.480204 0.004940 -1.683884 0.000000 0.000002
    35 -0.027022 -1.076920 -0.020210 -0.971708 0.000000 0.000000
    36 -0.249534 -2.846964 -0.174213 -1.022486 0.040910 0.105577
    37 0.043235 -1.683941 0.096012 -1.580584 0.002823 -0.000167
    38 0.031729 -1.160830 0.058838 -1.629035 0.000642 0.008372
    39 -0.963866 -2.785145 -0.085350 -0.988719 0.073698 0.103385
    40 0.028479 -1.403067 0.006271 -1.327033 0.000000 0.000000
    41 0.021413 -0.957781 0.020046 -1.350994 0.000000 0.000000
    42 1.164475 -2.543940 -0.170330 -1.206683 -0.190581 0.231608
    43 0.024032 -1.129042 0.017807 -1.338123 0.000000 0.000001
    44 0.014898 -0.883989 -0.019848 -1.030508 0.000000 0.000000
    45 -0.586770 -1.264477 0.200161 0.369677 -0.600720 -2.485807
    46 1.522835 0.058681 0.016848 0.001410 0.008985 0.795215
    47 1.117947 0.048424 -0.005766 -0.022295 -0.011751 1.141767
    48 -0.139399 -0.111698 0.014397 0.879007 0.019582 1.538885
    49 -1.393470 8.839177 -0.239433 1.580804 -0.005023 -1.566847
  time 10
    0 -1.701054 -1.756239 3.259746 0.000000 0.000000 0.000000
    1 9.213061 4.253303 -7.976916 -0.990313 -1.628658 0.794686
    2 -0.071918 -8.498730 -0.104137 0.150845 0.279811 0.049468
    3 2.902373 -1.028308 1.363887 0.246174 3.088492 1.568953
    4 12.020966 -0.977799 -0.495297 1.570796 1.570796 0.000000
    5 6.283741 -0.044232 0.000002 0.000001 0.000000 -1.570796
    6 3.872081 1.346180 0.000001 0.000000 0.000000 1.570797
    7 6.106668 1.919336 0.000002 0.000000 0.000000 1.570795
    8 7.604102 4.136611 0.000002 0.000001 0.000000 1.348977
    9 23.985891 20.395915 -0.074224 -0.000001 0.000000 0.000000
    10 0.000000 0.000000 0.000000 0.000000 0.000000 0.000000
    11 1.218365 -1.897359 0.000000 0.000002 0.000001 -1.685017
    12 0.585307 -0.000003 0.000000 -0.000002 0.000000 -0.249335
    13 0.606010 0.000000 0.000000 -0.000002 0.000000 -0.267288
    14 1.257180 8.762585 -0.153713 -1.570562 0.002683 -1.566807
    15 -0.488518 -2.755602 -0.228260 -0.871614 -0.202562 -0.209541
    16 0.039887 -1.479790 0.029854 -2.058952 0.000000 0.000001
    17 0.028786 -1.075731 -0.023109 -0.606348 0.000000 0.000000
    18 0.250027 -2.820665 -0.238396 -0.797118 -0.167517 -0.114938
    19 -0.049759 -1.680544 0.100479 -1.934764 0.000000 -0.000002
    20 -0.034142 -1.148312 0.084782 -0.925906 0.000000 0.000000
    21 0.957766 -2.746780 -0.090302 0.020255 -0.194156 0.008841
    22 -0.033420 -1.397129 -0.011257 -0.520985 0.000000 -0.000001
    23 -0.022360 -0.957436 0.018784 -0.975516 0.000000 0.000000
    24 -1.180681 -2.507217 -0.193859 -0.671429 -0.081516 -0.261329
    25 -0.024967 -1.123934 0.017597 -2.056303 0.000000 0.000001
    26 -0.020057 -0.890968 0.010090 -0.677843 0.000000 0.000000
    27 0.583510 -1.197277 0.185379 0.180209 -0.812070 -1.291294
    28 1.535927 0.010246 0.005009 -0.002964 -0.012979 -0.506650
    29 1.100771 0.004527 -0.010679 -0.015488 -0.004784 -1.694062
    30 0.120153 -0.050270 -0.054489 0.287569 3.110905 1.561085
    31 -0.622342 -9.317322 -12.739953 0.404790 -3.302073 0.913575
    32 0.096944 -8.450418 -0.009365 -0.171351 -1.236953 0.379483
    33 0.447953 -2.798986 -0.200443 -1.198628 -0.014267 0.163836
    34 -0.032909 -1.480204 0.004940 -1.683884 0.000000 0.000002
    35 -0.027022 -1.076920 -0.020210 -0.971708 0.000000 0.000000
    36 -0.249534 -2.846964 -0.174213 -1.022486 0.040910 0.105577
    37 0.043235 -1.683941 0.096012 -1.580584 0.002823 -0.000167
    38 0.031729 -1.160830 0.058838 -1.629035 0.000642 0.008372
    39 -0.963866 -2.785145 -0.085350 -0.988719 0.073698 0.103385
    40 0.028479 -1.403067 0.006271 -1.327033 0.000000 0.000000
    41 0.021413 -0.957781 0.020046 -1.350994 0.000000 0.000000
    42 1.164475 -2.543940 -0.170330 -1.206683 -0.190581 0.231608
    43 0.024032 -1.129042 0.017807 -1.338123 0.000000 0.000001
    44 0.014898 -0.883989 -0.019848 -1.030508 0.000000 0.000000
    45 -0.586770 -1.264477 0.200161 0.369677 -0.600720 -2.485807
    46 1.522835 0.058681 0.016848 0.001410 0.008985 0.795215
    47 1.117947 0.048424 -0.005766 -0.022295 -0.011751 1.141767
    48 -0.139399 -0.111698 0.014397 0.879007 0.019582 1.538885
    49 -1.393470 8.839177 -0.239433 1.580804 -0.005023 -1.566847
  time 11
    0 -1.701054 -1.756239 3.259746 0.000000 0.000000 0.000000
    1 9.213061 4.163456 -8.101920 -0.933593 -1.627433 0.738010
    2 -0.071918 -8.498730 -0.104137 0.150845 0.279811 0.049468
    3 2.902373 -1.028308 1.363887 0.246174 3.088492 1.568953
    4 12.020966 -0.977799 -0.495297 1.570796 1.570796 0.000000
    5 6.283741 -0.044232 0.000002 0.000001 0.000000 -1.570796
    6 3.872081 1.346180 0.000001 0.000000 0.000000 1.570797
    7 6.106668 1.919336 0.000002 0.000000 0.000000 1.570795
    8 7.604102 4.136611 0.000002 0.000001 0.000000 1.348977
    9 23.985891 20.395915 -0.074224 -0.000001 0.000000 0.000000
    10 0.000000 0.000000 0.000000 0.000000 0.000000 0.000000
    11 1.218365 -1.897359 0.000000 0.000002 0.000001 -1.685017
    12 0.585307 -0.000003 0.000000 -0.000002 0.000000 -0.249335
    13 0.606010 0.000000 0.000000 -0.000002 0.000000 -0.267288
    14 1.257180 8.762585 -0.153713 -1.570562 0.002683 -1.566807
    15 -0.488518 -2.755602 -0.228260 -0.871614 -0.202562 -0.209541
    16 0.039887 -1.479790 0.029854 -2.058952 0.000000 0.000001
    17 0.028786 -1.075731 -0.023109 -0.606348 0.000000 0.000000
    18 0.250027 -2.820665 -0.238396 -0.797118 -0.167517 -0.114938
    19 -0.049759 -1.680544 0.100479 -1.934764 0.000000 -0.000002
    20 -0.034142 -1.148312 0.084782 -0.925906 0.000000 0.000000
    21 0.957766 -2.746780 -0.090302 0.020255 -0.194156 0.008841
    22 -0.033420 -1.397129 -0.011257 -0.520985 0.000000 -0.000001
    23 -0.022360 -0.957436 0.018784 -0.975516 0.000000 0.000000
    24 -1.180681 -2.507217 -0.193859 -0.671429 -0.081516 -0.261329
    25 -0.024967 -1.123934 0.017597 -2.056303 0.000000 0.000001
    26 -0.020057 -0.890968 0.010090 -0.677843 0.000000 0.000000
    27 0.583510 -1.197277 0.185379 0.180209 -0.812070 -1.291294
    28 1.535927 0.010246 0.005009 -0.002964 -0.012979 -0.506650
    29 1.100771 0.004527 -0.010679 -0.015488 -0.004784 -1.694062
    30 0.120153 -0.050270 -0.054489 0.287569 3.110905 1.561085
    31 -0.618436 -9.422794 -12.833706 0.407885 -3.300348 0.913951
    32 0.096944 -8.450418 -0.009365 -0.171351 -1.236953 0.379483
    33 0.447953 -2.798986 -0.200443 -1.198628 -0.014267 0.163836
    34 -0.032909 -1.480204 0.004940 -1.683884 0.000000 0.000002
    35 -0.027022 -1.076920 -0.020210 -0.971708 0.000000 0.000000
    36 -0.249534 -2.846964 -0.174213 -1.022486 0.040910 0.105577
    37 0.043235 -1.683941 0.096012 -1.580584 0.002823 -0.000167
    38 0.031729 -1.160830 0.058838 -1.629035 0.000642 0.008372
    39 -0.963866 -2.785145 -0.085350 -0.988719 0.073698 0.103385
    40 0.028479 -1.403067 0.006271 -1.327033 0.000000 0.000000
    41 0.021413 -0.957781 0.020046 -1.350994 0.000000 0.000000
    42 1.164475 -2.543940 -0.170330 -1.206683 -0.190581 0.231608
    43 0.024032 -1.129042 0.017807 -1.338123 0.000000 0.000001
    44 0.014898 -0.883989 -0.019848 -1.030508 0.000000 0.000000
    45 -0.586770 -1.264477 0.200161 0.369677 -0.600720 -2.485807
    46 1.522835 0.058681 0.016848 0.001410 0.008985 0.795215
    47 1.117947 0.048424 -0.005766 -0.022295 -0.011751 1.141767
    48 -0.139399 -0.111698 0.014397 0.879007 0.019582 1.538885
    49 -1.393470 8.839177 -0.239433 1.580804 -0.005023 -1.566847
  time 12
    0 -1.701054 -1.756239 3.259746 0.000000 0.000000 0.000000
    1 9.213061 4.073610 -8.273800 -0.842559 -1.624145 0.646960
    2 -0.071918 -8.498730 -0.104137 0.150845 0.279811 0.049468
    3 2.902373 -1.028308 1.363887 0.246174 3.088492 1.568953
    4 12.020966 -0.977799 -0.495297 1.570796 1.570796 0.000000
    5 6.283741 -0.044232 0.000002 0.000001 0.000000 -1.570796
    6 3.872081 1.346180 0.000001 0.000000 0.000000 1.570797
    7 6.106668 1.919336 0.000002 0.000000 0.000000 1.570795
    8 7.604102 4.136611 0.000002 0.000001 0.000000 1.348977
    9 23.985891 20.395915 -0.074224 -0.000001 0.000000 0.000000
    10 0.000000 0.000000 0.000000 0.000000 0.000000 0.000000
    11 1.218365 -1.897359 0.000000 0.000002 0.000001 -1.685017
    12 0.585307 -0.000003 0.000000 -0.000002 0.000000 -0.249335
    13 0.606010 0.000000 0.000000 -0.000002 0.000000 -0.267288
    14 1.257180 8.762585 -0.153713 -1.570562 0.002683 -1.566807
    15 -0.488518 -2.755602 -0.228260 -0.871614 -0.202562 -0.209541
    16 0.039887 -1.479790 0.029854 -2.058952 0.000000 0.000001
    17 0.028786 -1.075731 -0.023109 -0.606348 0.000000 0.000000
    18 0.250027 -2.820665 -0.238396 -0.797118 -0.167517 -0.114938
    19 -0.049759 -1.680544 0.100479 -1.934764 0.000000 -0.000002
    20 -0.034142 -1.148312 0.084782 -0.925879 0.000000 0.000000
    21 0.957766 -2.746780 -0.090302 0.020255 -0.194156 0.008841
    22 -0.033420 -1.397129 -0.011257 -0.520985 0.000000 -0.000001
    23 -0.022360 -0.957436 0.018784 -0.975516 0.000000 0.000000
    24 -1.180681 -2.507217 -0.193859 -0.671429 -0.081516 -0.261329
    25 -0.024967 -1.123934 0.017597 -2.056303 0.000000 0.000001
    26 -0.020057 -0.890968 0.010090 -0.677843 0.000000 0.000000
    27 0.583510 -1.197277 0.185379 0.180209 -0.812070 -1.291294
    28 1.535927 0.010246 0.005009 -0.002964 -0.012979 -0.506650
    29 1.100771 0.004527 -0.010679 -0.015488 -0.004784 -1.694062
    30 0.120153 -0.050270 -0.054489 0.287569 3.110905 1.561085
    31 -0.618436 -9.539985 -12.931365 0.412039 -3.296038 0.914516
    32 0.096944 -8.450418 -0.009365 -0.171351 -1.236953 0.379483
    33 0.447953 -2.798986 -0.200443 -1.198628 -0.014267 0.163836
    34 -0.032909 -1.480204 0.004940 -1.683884 0.000000 0.000002
    35 -0.027022 -1.076920 -0.020210 -0.971708 0.000000 0.000000
    36 -0.249534 -2.846964 -0.174213 -1.022486 0.040910 0.105577
    37 0.043235 -1.683941 0.096012 -1.580584 0.002823 -0.000167
    38 0.031729 -1.160830 0.058838 -1.629035 0.000642 0.008372
    39 -0.963866 -2.785145 -0.085350 -0.988719 0.073698 0.103385
    40 0.028479 -1.403067 0.006271 -1.327033 0.000000 0.000000
    41 0.021413 -0.957781 0.020046 -1.350994 0.000000 0.000000
    42 1.164475 -2.543940 -0.170330 -1.206683 -0.190581 0.231608
    43 0.024032 -1.129042 0.017807 -1.338123 0.000000 0.000001
    44 0.014898 -0.883989 -0.019848 -1.030508 0.000000 0.000000
    45 -0.586770 -1.264477 0.200161 0.369677 -0.600720 -2.485807
    46 1.522835 0.058681 0.016848 0.001410 0.008985 0.795215
    47 1.117947 0.048424 -0.005766 -0.022295 -0.011751 1.141767
    48 -0.139399 -0.111698 0.014397 0.879007 0.019582 1.538885
    49 -1.393470 8.839177 -0.239433 1.580804 -0.005023 -1.566847
  time 13
    0 -1.701054 -1.756239 3.259746 0.000000 0.000000 0.000000
    1 9.213061 3.987670 -8.473025 -0.716528 -1.620050 0.520902
    2 -0.071918 -8.498730 -0.104137 0.150845 0.279811 0.049468
    3 2.902373 -1.028308 1.363887 0.246174 3.088492 1.568953
    4 12.020966 -0.977799 -0.495297 1.570796 1.570796 0.000000
    5 6.283741 -0.044232 0.000002 0.000001 0.000000 -1.570796
    6 3.872081 1.346180 0.000001 0.000000 0.000000 1.570797
    7 6.106668 1.919336 0.000002 0.000000 0.000000 1.570795
    8 7.604102 4.136611 0.000002 0.000001 0.000000 1.348977
    9 23.985891 20.395915 -0.074224 -0.000001 0.000000 0.000000
    10 0.000000 0.000000 0.000000 0.000000 0.000000 0.000000
    11 1.218365 -1.897359 0.000000 0.000002 0.000001 -1.685017
    12 0.585307 -0.000003 0.000000 -0.000002 0.000000 -0.249335
    13 0.606010 0.000000 0.000000 -0.000002 0.000000 -0.267288
    14 1.257180 8.762585 -0.153713 -1.570562 0.002683 -1.566807
    15 -0.488518 -2.755602 -0.228260 -0.871614 -0.202562 -0.209541
    16 0.039887 -1.479790 0.029854 -2.058952 0.000000 0.000001
    17 0.028786 -1.075731 -0.023109 -0.606348 0.000000 0.000000
    18 0.250027 -2.820665 -0.238396 -0.797118 -0.167517 -0.114938
    19 -0.049759 -1.680544 0.100479 -1.934764 0.000000 -0.000002
    20 -0.034142 -1.148312 0.084782 -0.925879 0.000000 0.000000
    21 0.957766 -2.746780 -0.090302 0.020255 -0.194156 0.008841
    22 -0.033420 -1.397129 -0.011257 -0.520985 0.000000 -0.000001
    23 -0.022360 -0.957436 0.018784 -0.975516 0.000000 0.000000
    24 -1.180681 -2.507217 -0.193859 -0.671429 -0.081516 -0.261329
    25 -0.024967 -1.123934 0.017597 -2.056303 0.000000 0.000001
    26 -0.020057 -0.890968 0.010090 -0.677843 0.000000 0.000000
    27 0.583510 -1.197277 0.185379 0.180209 -0.812070 -1.291294
    28 1.535927 0.010246 0.005009 -0.002964 -0.012979 -0.506650
    29 1.100771 0.004527 -0.010679 -0.015488 -0.004784 -1.694062
    30 0.120153 -0.050270 -0.054489 0.287569 3.110905 1.561085
    31 -0.618436 -9.657176 -13.029025 0.416926 -3.290099 0.915081
    32 0.096944 -8.450418 -0.009365 -0.171351 -1.236953 0.379483
    33 0.447953 -2.798986 -0.200443 -1.198628 -0.014267 0.163836
    34 -0.032909 -1.480204 0.004940 -1.683884 0.000000 0.000002
    35 -0.027022 -1.076920 -0.020210 -0.971708 0.000000 0.000000
    36 -0.249534 -2.846964 -0.174213 -1.022486 0.040910 0.105577
    37 0.043235 -1.683941 0.096012 -1.580584 0.002823 -0.000167
    38 0.031729 -1.160830 0.058838 -1.629035 0.000642 0.008372
    39 -0.963866 -2.785145 -0.085350 -0.988719 0.073698 0.103385
    40 0.028479 -1.403067 0.006271 -1.327033 0.000000 0.000000
    41 0.021413 -0.957781 0.020046 -1.350994 0.000000 0.000000
    42 1.164475 -2.543940 -0.170330 -1.206683 -0.190581 0.231608
    43 0.024032 -1.129042 0.017807 -1.338123 0.000000 0.000001
    44 0.014898 -0.883989 -0.019848 -1.030508 0.000000 0.000000
    45 -0.586770 -1.264477 0.200161 0.369677 -0.600720 -2.485807
    46 1.522835 0.058681 0.016848 0.001410 0.008985 0.795215
    47 1.117947 0.048424 -0.005766 -0.022295 -0.011751 1.141767
    48 -0.139399 -0.111698 0.014397 0.879007 0.019582 1.538885
    49 -1.393470 8.839177 -0.239433 1.580804 -0.005023 -1.566847
  time 14
    0 -1.701054 -1.756239 3.259746 0.000000 0.000000 0.000000
    1 9.213061 3.909542 -8.680062 -0.560065 -1.616374 0.364424
    2 -0.071918 -8.498730 -0.104137 0.150845 0.279811 0.049468
    3 2.902373 -1.028308 1.363887 0.246174 3.088492 1.568953
    4 12.020966 -0.977799 -0.495297 1.570796 1.570796 0.000000
    5 6.283741 -0.044232 0.000002 0.000001 0.000000 -1.570796
    6 3.872081 1.346180 0.000001 0.000000 0.000000 1.570797
    7 6.106668 1.919336 0.000002 0.000000 0.000000 1.570795
    8 7.604102 4.136611 0.000002 0.000001 0.000000 1.348977
    9 23.985891 20.395915 -0.074224 -0.000001 0.000000 0.000000
    10 0.000000 0.000000 0.000000 0.000000 0.000000 0.000000
    11 1.218365 -1.897359 0.000000 0.000002 0.000001 -1.685017
    12 0.585307 -0.000003 0.000000 -0.000002 0.000000 -0.249335
    13 0.606010 0.000000 0.000000 -0.000002 0.000000 -0.267288
    14 1.257180 8.762585 -0.153713 -1.570562 0.002683 -1.566807
    15 -0.488518 -2.755602 -0.228260 -0.871614 -0.202562 -0.209541
    16 0.039887 -1.479790 0.029854 -2.058952 0.000000 0.000001
    17 0.028786 -1.075731 -0.023109 -0.606348 0.000000 0.000000
    18 0.250027 -2.820665 -0.238396 -0.797118 -0.167517 -0.114938
    19 -0.049759 -1.680544 0.100479 -1.934764 0.000000 -0.000002
    20 -0.034142 -1.148312 0.084782 -0.925879 0.000000 0.000000
    21 0.957766 -2.746780 -0.090302 0.020255 -0.194156 0.008841
    22 -0.033420 -1.397129 -0.011257 -0.520985 0.000000 -0.000001
    23 -0.022360 -0.957436 0.018784 -0.975516 0.000000 0.000000
    24 -1.180681 -2.507217 -0.193859 -0.671429 -0.081516 -0.261329
    25 -0.024967 -1.123934 0.017597 -2.056303 0.000000 0.000001
    26 -0.020057 -0.890968 0.010090 -0.677843 0.000000 0.000000
    27 0.583510 -1.197277 0.185379 0.180209 -0.812070 -1.291294
    28 1.535927 0.010246 0.005009 -0.002964 -0.012979 -0.506650
    29 1.100771 0.004527 -0.010679 -0.015488 -0.004784 -1.694062
    30 0.120153 -0.050270 -0.054489 0.287569 3.110905 1.561085
    31 -0.622342 -9.770461 -13.118871 0.421894 -3.283393 0.915552
    32 0.096944 -8.450418 -0.009365 -0.171351 -1.236953 0.379483
    33 0.447953 -2.798986 -0.200443 -1.198628 -0.014267 0.163836
    34 -0.032909 -1.480204 0.004940 -1.683884 0.000000 0.000002
    35 -0.027022 -1.076920 -0.020210 -0.971708 0.000000 0.000000
    36 -0.249534 -2.846964 -0.174213 -1.022486 0.040910 0.105577
    37 0.043235 -1.683941 0.096012 -1.580584 0.002823 -0.000167
    38 0.031729 -1.160830 0.058838 -1.629035 0.000642 0.008372
    39 -0.963866 -2.785145 -0.085350 -0.988719 0.073698 0.103385
    40 0.028479 -1.403067 0.006271 -1.327033 0.000000 0.000000
    41 0.021413 -0.957781 0.020046 -1.350994 0.000000 0.000000
    42 1.164475 -2.543940 -0.170330 -1.206683 -0.190581 0.231608
    43 0.024032 -1.129042 0.017807 -1.338123 0.000000 0.000001
    44 0.014898 -0.883989 -0.019848 -1.030508 0.000000 0.000000
    45 -0.586770 -1.264477 0.200161 0.369677 -0.600720 -2.485807
    46 1.522835 0.058681 0.016848 0.001410 0.008985 0.795215
    47 1.117947 0.048424 -0.005766 -0.022295 -0.011751 1.141767
    48 -0.139399 -0.111698 0.014397 0.879007 0.019582 1.538885
    49 -1.393470 8.839177 -0.239433 1.580804 -0.005023 -1.566847
  time 15
    0 -1.701054 -1.756239 3.259746 0.000000 0.000000 0.000000
    1 9.213061 3.843134 -8.867568 -0.391219 -1.613864 0.195557
    2 -0.071918 -8.498730 -0.104137 0.150845 0.279811 0.049468
    3 2.902373 -1.028308 1.363887 0.246174 3.088492 1.568953
    4 12.020966 -0.977799 -0.495297 1.570796 1.570796 0.000000
    5 6.283741 -0.044232 0.000002 0.000001 0.000000 -1.570796
    6 3.872081 1.346180 0.000001 0.000000 0.000000 1.570797
    7 6.106668 1.919336 0.000002 0.000000 0.000000 1.570795
    8 7.604102 4.136611 0.000002 0.000001 0.000000 1.348977
    9 23.985891 20.395915 -0.074224 -0.000001 0.000000 0.000000
    10 0.000000 0.000000 0.000000 0.000000 0.000000 0.000000
    11 1.218365 -1.897359 0.000000 0.000002 0.000001 -1.685017
    12 0.585307 -0.000003 0.000000 -0.000002 0.000000 -0.249335
    13 0.606010 0.000000 0.000000 -0.000002 0.000000 -0.267288
    14 1.257180 8.762585 -0.153713 -1.570562 0.002683 -1.566807
    15 -0.488518 -2.755602 -0.228260 -0.871614 -0.202562 -0.209541
    16 0.039887 -1.479790 0.029854 -2.058952 0.000000 0.000001
    17 0.028786 -1.075731 -0.023109 -0.606348 0.000000 0.000000
    18 0.250027 -2.820665 -0.238396 -0.797118 -0.167517 -0.114938
    19 -0.049759 -1.680544 0.100479 -1.934764 0.000000 -0.000002
    20 -0.034142 -1.148312 0.084782 -0.925906 0.000000 0.000000
    21 0.957766 -2.746780 -0.090302 0.020255 -0.194156 0.008841
    22 -0.033420 -1.397129 -0.011257 -0.520985 0.000000 -0.000001
    23 -0.022360 -0.957436 0.018784 -0.975516 0.000000 0.000000
    24 -1.180681 -2.507217 -0.193859 -0.671429 -0.081516 -0.261329
    25 -0.024967 -1.123934 0.017597 -2.056303 0.000000 0.000001
    26 -0.020057 -0.890968 0.010090 -0.677843 0.000000 0.000000
    27 0.583510 -1.197277 0.185379 0.180209 -0.812070 -1.291294
    28 1.535927 0.010246 0.005009 -0.002964 -0.012979 -0.506650
    29 1.100771 0.004527 -0.010679 -0.015488 -0.004784 -1.694062
    30 0.120153 -0.050270 -0.054489 0.287569 3.110905 1.561085
    31 -0.626248 -9.872026 -13.196998 0.426454 -3.276975 0.916023
    32 0.096944 -8.450418 -0.009365 -0.171351 -1.236953 0.379483
    33 0.447953 -2.798986 -0.200443 -1.198628 -0.014267 0.163836
    34 -0.032909 -1.480204 0.004940 -1.683884 0.000000 0.000002
    35 -0.027022 -1.076920 -0.020210 -0.971708 0.000000 0.000000
    36 -0.249534 -2.846964 -0.174213 -1.022486 0.040910 0.105577
    37 0.043235 -1.683941 0.096012 -1.580584 0.002823 -0.000167
    38 0.031729 -1.160830 0.058838 -1.629035 0.000642 0.008372
    39 -0.963866 -2.785145 -0.085350 -0.988719 0.073698 0.103385
    40 0.028479 -1.403067 0.006271 -1.327033 0.000000 0.000000
    41 0.021413 -0.957781 0.020046 -1.350994 0.000000 0.000000
    42 1.164475 -2.543940 -0.170330 -1.206683 -0.190581 0.231608
    43 0.024032 -1.129042 0.017807 -1.338123 0.000000 0.000001
    44 0.014898 -0.883989 -0.019848 -1.030508 0.000000 0.000000
    45 -0.586770 -1.264477 0.200161 0.369677 -0.600720 -2.485807
    46 1.522835 0.058681 0.016848 0.001410 0.008985 0.795215
    47 1.117947 0.048424 -0.005766 -0.022295 -0.011751 1.141767
    48 -0.139399 -0.111698 0.014397 0.879007 0.019582 1.538885
    49 -1.393470 8.839177 -0.239433 1.580804 -0.005023 -1.566847
  time 16
    0 -1.701054 -1.756239 3.259746 0.000000 0.000000 0.000000
    1 9.213061 3.792351 -9.019917 -0.242521 -1.612818 0.046882
    2 -0.071918 -8.498730 -0.104137 0.150845 0.279811 0.049468
    3 2.902373 -1.028308 1.363887 0.246174 3.088492 1.568953
    4 12.020966 -0.977799 -0.495297 1.570796 1.570796 0.000000
    5 6.283741 -0.044232 0.000002 0.000001 0.000000 -1.570796
    6 3.872081 1.346180 0.000001 0.000000 0.000000 1.570797
    7 6.106668 1.919336 0.000002 0.000000 0.000000 1.570795
    8 7.604102 4.136611 0.000002 0.000001 0.000000 1.348977
    9 23.985891 20.395915 -0.074224 -0.000001 0.000000 0.000000
    10 0.000000 0.000000 0.000000 0.000000 0.000000 0.000000
    11 1.218365 -1.897359 0.000000 0.000002 0.000001 -1.685017
    12 0.585307 -0.000003 0.000000 -0.000002 0.000000 -0.249335
    13 0.606010 0.000000 0.000000 -0.000002 0.000000 -0.267288
    14 1.257180 8.762585 -0.153713 -1.570562 0.002683 -1.566807
    15 -0.488518 -2.755602 -0.228260 -0.871614 -0.202562 -0.209541
    16 0.039887 -1.479790 0.029854 -2.058952 0.000000 0.000001
    17 0.028786 -1.075731 -0.023109 -0.606348 0.000000 0.000000
    18 0.250027 -2.820665 -0.238396 -0.797118 -0.167517 -0.114938
    19 -0.049759 -1.680544 0.100479 -1.934764 0.000000 -0.000002
    20 -0.034142 -1.148312 0.084782 -0.925906 0.000000 0.000000
    21 0.957766 -2.746780 -0.090302 0.020255 -0.194156 0.008841
    22 -0.033420 -1.397129 -0.011257 -0.520985 0.000000 -0.000001
    23 -0.022360 -0.957436 0.018784 -0.975516 0.000000 0.000000
    24 -1.180681 -2.507217 -0.193859 -0.671429 -0.081516 -0.261329
    25 -0.024967 -1.123934 0.017597 -2.056303 0.000000 0.000001
    26 -0.020057 -0.890968 0.010090 -0.677843 0.000000 0.000000
    27 0.583510 -1.197277 0.185379 0.180209 -0.812070 -1.291294
    28 1.535927 0.010246 0.005009 -0.002964 -0.012979 -0.506650
    29 1.100771 0.004527 -0.010679 -0.015488 -0.004784 -1.694062
    30 0.120153 -0.050270 -0.054489 0.287569 3.110905 1.561085
    31 -0.630155 -9.950154 -13.259500 0.430201 -3.271707 0.916399
    32 0.096944 -8.450418 -0.009365 -0.171351 -1.236953 0.379483
    33 0.447953 -2.798986 -0.200443 -1.198628 -0.014267 0.163836
    34 -0.032909 -1.480204 0.004940 -1.683884 0.000000 0.000002
    35 -0.027022 -1.076920 -0.020210 -0.971708 0.000000 0.000000
    36 -0.249534 -2.846964 -0.174213 -1.022486 0.040910 0.105577
    37 0.043235 -1.683941 0.096012 -1.580584 0.002823 -0.000167
    38 0.031729 -1.160830 0.058838 -1.629035 0.000642 0.008372
    39 -0.963866 -2.785145 -0.085350 -0.988719 0.073698 0.103385
    40 0.028479 -1.403067 0.006271 -1.327033 0.000000 0.000000
    41 0.021413 -0.957781 0.020046 -1.350994 0.000000 0.000000
    42 1.164475 -2.543940 -0.170330 -1.206683 -0.190581 0.231608
    43 0.024032 -1.129042 0.017807 -1.338123 0.000000 0.000001
    44 0.014898 -0.883989 -0.019848 -1.030508 0.000000 0.000000
    45 -0.586770 -1.264477 0.200161 0.369677 -0.600720 -2.485807
    46 1.522835 0.058681 0.016848 0.001410 0.008985 0.795215
    47 1.117947 0.048424 -0.005766 -0.022295 -0.011751 1.141767
    48 -0.139399 -0.111698 0.014397 0.879007 0.019582 1.538885
    49 -1.393470 8.839177 -0.239433 1.580804 -0.005023 -1.566847
  time 17
    0 -1.701054 -1.756239 3.259746 0.000000 0.000000 0.000000
    1 9.213061 3.757194 -9.113669 -0.149965 -1.612728 -0.045697
    2 -0.071918 -8.498730 -0.104137 0.150845 0.279811 0.049468
    3 2.902373 -1.028308 1.363887 0.246174 3.088492 1.568953
    4 12.020966 -0.977799 -0.495297 1.570796 1.570796 0.000000
    5 6.283741 -0.044232 0.000002 0.000001 0.000000 -1.570796
    6 3.872081 1.346180 0.000001 0.000000 0.000000 1.570797
    7 6.106668 1.919336 0.000002 0.000000 0.000000 1.570795
    8 7.604102 4.136611 0.000002 0.000001 0.000000 1.348977
    9 23.985891 20.395915 -0.074224 -0.000001 0.000000 0.000000
    10 0.000000 0.000000 0.000000 0.000000 0.000000 0.000000
    11 1.218365 -1.897359 0.000000 0.000002 0.000001 -1.685017
    12 0.585307 -0.000003 0.000000 -0.000002 0.000000 -0.249335
    13 0.606010 0.000000 0.000000 -0.000002 0.000000 -0.267288
    14 1.257180 8.762585 -0.153713 -1.570562 0.002683 -1.566807
    15 -0.488518 -2.755602 -0.228260 -0.871614 -0.202562 -0.209541
    16 0.039887 -1.479790 0.029854 -2.058952 0.000000 0.000001
    17 0.028786 -1.075731 -0.023109 -0.606348 0.000000 0.000000
    18 0.250027 -2.820665 -0.238396 -0.797118 -0.167517 -0.114938
    19 -0.049759 -1.680544 0.100479 -1.934764 0.000000 -0.000002
    20 -0.034142 -1.148312 0.084782 -0.925906 0.000000 0.000000
    21 0.957766 -2.746780 -0.090302 0.020255 -0.194156 0.008841
    22 -0.033420 -1.397129 -0.011257 -0.520985 0.000000 -0.000001
    23 -0.022360 -0.957436 0.018784 -0.975516 0.000000 0.000000
    24 -1.180681 -2.507217 -0.193859 -0.671429 -0.081516 -0.261329
    25 -0.024967 -1.123934 0.017597 -2.056303 0.000000 0.000001
    26 -0.020057 -0.890968 0.010090 -0.677843 0.000000 0.000000
    27 0.583510 -1.197277 0.185379 0.180209 -0.812070 -1.291294
    28 1.535927 0.010246 0.005009 -0.002964 -0.012979 -0.506650
    29 1.100771 0.004527 -0.010679 -0.015488 -0.004784 -1.694062
    30 0.120153 -0.050270 -0.054489 0.287569 3.110905 1.561085
    31 -0.630155 -10.000937 -13.298564 0.432481 -3.268642 0.916588
    32 0.096944 -8.450418 -0.009365 -0.171351 -1.236953 0.379483
    33 0.447953 -2.798986 -0.200443 -1.198628 -0.014267 0.163836
    34 -0.032909 -1.480204 0.004940 -1.683884 0.000000 0.000002
    35 -0.027022 -1.076920 -0.020210 -0.971708 0.000000 0.000000
    36 -0.249534 -2.846964 -0.174213 -1.022486 0.040910 0.105577
    37 0.043235 -1.683941 0.096012 -1.580584 0.002823 -0.000167
    38 0.031729 -1.160830 0.058838 -1.629035 0.000642 0.008372
    39 -0.963866 -2.785145 -0.085350 -0.988719 0.073698 0.103385
    40 0.028479 -1.403067 0.006271 -1.327033 0.000000 0.000000
    41 0.021413 -0.957781 0.020046 -1.350994 0.000000 0.000000
    42 1.164475 -2.543940 -0.170330 -1.206683 -0.190581 0.231608
    43 0.024032 -1.129042 0.017807 -1.338123 0.000000 0.000001
    44 0.014898 -0.883989 -0.019848 -1.030508 0.000000 0.000000
    45 -0.586770 -1.264477 0.200161 0.369677 -0.600720 -2.485807
    46 1.522835 0.058681 0.016848 0.001410 0.008985 0.795215
    47 1.117947 0.048424 -0.005766 -0.022295 -0.011751 1.141767
    48 -0.139399 -0.111698 0.014397 0.879007 0.019582 1.538885
    49 -1.393470 8.839177 -0.239433 1.580804 -0.005023 -1.566847
  time 18
    0 -1.701054 -1.756239 3.259746 0.000000 0.000000 0.000000
    1 9.213061 3.737662 -9.164452 -0.104684 -1.612907 -0.090932
    2 -0.071918 -8.498730 -0.104137 0.150845 0.279811 0.049468
    3 2.902373 -1.028308 1.363887 0.246174 3.088492 1.568953
    4 12.020966 -0.977799 -0.495297 1.570796 1.570796 0.000000
    5 6.283741 -0.044232 0.000002 0.000001 0.000000 -1.570796
    6 3.872081 1.346180 0.000001 0.000000 0.000000 1.570797
    7 6.106668 1.919336 0.000002 0.000000 0.000000 1.570795
    8 7.604102 4.136611 0.000002 0.000001 0.000000 1.348977
    9 23.985891 20.395915 -0.074224 -0.000001 0.000000 0.000000
    10 0.000000 0.000000 0.000000 0.000000 0.000000 0.000000
    11 1.218365 -1.897359 0.000000 0.000002 0.000001 -1.685017
    12 0.585307 -0.000003 0.000000 -0.000002 0.000000 -0.249335
    13 0.606010 0.000000 0.000000 -0.000002 0.000000 -0.267288
    14 1.257180 8.762585 -0.153713 -1.570562 0.002683 -1.566807
    15 -0.488518 -2.755602 -0.228260 -0.871614 -0.202562 -0.209541
    16 0.039887 -1.479790 0.029854 -2.058952 0.000000 0.000001
    17 0.028786 -1.075731 -0.023109 -0.606348 0.000000 0.000000
    18 0.250027 -2.820665 -0.238396 -0.797118 -0.167517 -0.114938
    19 -0.049759 -1.680544 0.100479 -1.934764 0.000000 -0.000002
    20 -0.034142 -1.148312 0.084782 -0.925879 0.000000 0.000000
    21 0.957766 -2.746780 -0.090302 0.020255 -0.194156 0.008841
    22 -0.033420 -1.397129 -0.011257 -0.520985 0.000000 -0.000001
    23 -0.022360 -0.957436 0.018784 -0.975516 0.000000 0.000000
    24 -1.180681 -2.507217 -0.193859 -0.671429 -0.081516 -0.261329
    25 -0.024967 -1.123934 0.017597 -2.056303 0.000000 0.000001
    26 -0.020057 -0.890968 0.010090 -0.677843 0.000000 0.000000
    27 0.583510 -1.197277 0.185379 0.180209 -0.812070 -1.291294
    28 1.535927 0.010246 0.005009 -0.002964 -0.012979 -0.506650
    29 1.100771 0.004527 -0.010679 -0.015488 -0.004784 -1.694062
    30 0.120153 -0.050270 -0.054489 0.287569 3.110905 1.561085
    31 -0.630155 -10.032188 -13.325909 0.433703 -3.267109 0.916682
    32 0.096944 -8.450418 -0.009365 -0.171351 -1.236953 0.379483
    33 0.447953 -2.798986 -0.200443 -1.198628 -0.014267 0.163836
    34 -0.032909 -1.480204 0.004940 -1.683884 0.000000 0.000002
    35 -0.027022 -1.076920 -0.020210 -0.971708 0.000000 0.000000
    36 -0.249534 -2.846964 -0.174213 -1.022486 0.040910 0.105577
    37 0.043235 -1.683941 0.096012 -1.580584 0.002823 -0.000167
    38 0.031729 -1.160830 0.058838 -1.629035 0.000642 0.008372
    39 -0.963866 -2.785145 -0.085350 -0.988719 0.073698 0.103385
    40 0.028479 -1.403067 0.006271 -1.327033 0.000000 0.000000
    41 0.021413 -0.957781 0.020046 -1.350994 0.000000 0.000000
    42 1.164475 -2.543940 -0.170330 -1.206683 -0.190581 0.231608
    43 0.024032 -1.129042 0.017807 -1.338123 0.000000 0.000001
    44 0.014898 -0.883989 -0.019848 -1.030508 0.000000 0.000000
    45 -0.586770 -1.264477 0.200161 0.369677 -0.600720 -2.485807
    46 1.522835 0.058681 0.016848 0.001410 0.008985 0.795215
    47 1.117947 0.048424 -0.005766 -0.022295 -0.011751 1.141767
    48 -0.139399 -0.111698 0.014397 0.879007 0.019582 1.538885
    49 -1.393470 8.839177 -0.239433 1.580804 -0.005023 -1.566847
  time 19
    0 -1.701054 -1.756239 3.259746 0.000000 0.000000 0.000000
    1 9.213061 3.718130 -9.203516 -0.075406 -1.613087 -0.120245
    2 -0.071918 -8.498730 -0.104137 0.150845 0.279811 0.049468
    3 2.902373 -1.028308 1.363887 0.246174 3.088492 1.568953
    4 12.020966 -0.977799 -0.495297 1.570796 1.570796 0.000000
    5 6.283741 -0.044232 0.000002 0.000001 0.000000 -1.570796
    6 3.872081 1.346180 0.000001 0.000000 0.000000 1.570797
    7 6.106668 1.919336 0.000002 0.000000 0.000000 1.570795
    8 7.604102 4.136611 0.000002 0.000001 0.000000 1.348977
    9 23.985891 20.395915 -0.074224 -0.000001 0.000000 0.000000
    10 0.000000 0.000000 0.000000 0.000000 0.000000 0.000000
    11 1.218365 -1.897359 0.000000 0.000002 0.000001 -1.685017
    12 0.585307 -0.000003 0.000000 -0.000002 0.000000 -0.249335
    13 0.606010 0.000000 0.000000 -0.000002 0.000000 -0.267288
    14 1.257180 8.762585 -0.153713 -1.570562 0.002683 -1.566807
    15 -0.488518 -2.755602 -0.228260 -0.871614 -0.202562 -0.209541
    16 0.039887 -1.479790 0.029854 -2.058952 0.000000 0.000001
    17 0.028786 -1.075731 -0.023109 -0.606348 0.000000 0.000000
    18 0.250027 -2.820665 -0.238396 -0.797118 -0.167517 -0.114938
    19 -0.049759 -1.680544 0.100479 -1.934764 0.000000 -0.000002
    20 -0.034142 -1.148312 0.084782 -0.925906 0.000000 0.000000
    21 0.957766 -2.746780 -0.090302 0.020255 -0.194156 0.008841
    22 -0.033420 -1.397129 -0.011257 -0.520985 0.000000 -0.000001
    23 -0.022360 -0.957436 0.018784 -0.975516 0.000000 0.000000
    24 -1.180681 -2.507217 -0.193859 -0.671429 -0.081516 -0.261329
    25 -0.024967 -1.123934 0.017597 -2.056303 0.000000 0.000001
    26 -0.020057 -0.890968 0.010090 -0.677843 0.000000 0.000000
    27 0.583510 -1.197277 0.185379 0.180209 -0.812070 -1.291294
    28 1.535927 0.010246 0.005009 -0.002964 -0.012979 -0.506650
    29 1.100771 0.004527 -0.010679 -0.015488 -0.004784 -1.694062
    30 0.120153 -0.050270 -0.054489 0.287569 3.110905 1.561085
    31 -0.630155 -10.051719 -13.349347 0.434517 -3.266151 0.916776
    32 0.096944 -8.450418 -0.009365 -0.171351 -1.236953 0.379483
    33 0.447953 -2.798986 -0.200443 -1.198628 -0.014267 0.163836
    34 -0.032909 -1.480204 0.004940 -1.683884 0.000000 0.000002
    35 -0.027022 -1.076920 -0.020210 -0.971708 0.000000 0.000000
    36 -0.249534 -2.846964 -0.174213 -1.022486 0.040910 0.105577
    37 0.043235 -1.683941 0.096012 -1.580584 0.002823 -0.000167
    38 0.031729 -1.160830 0.058838 -1.629035 0.000642 0.008372
    39 -0.963866 -2.785145 -0.085350 -0.988719 0.073698 0.103385
    40 0.028479 -1.403067 0.006271 -1.327033 0.000000 0.000000
    41 0.021413 -0.957781 0.020046 -1.350994 0.000000 0.000000
    42 1.164475 -2.543940 -0.170330 -1.206683 -0.190581 0.231608
    43 0.024032 -1.129042 0.017807 -1.338123 0.000000 0.000001
    44 0.014898 -0.883989 -0.019848 -1.030508 0.000000 0.000000
    45 -0.586770 -1.264477 0.200161 0.369677 -0.600720 -2.485807
    46 1.522835 0.058681 0.016848 0.001410 0.008985 0.795215
    47 1.117947 0.048424 -0.005766 -0.022295 -0.011751 1.141767
    48 -0.139399 -0.111698 0.014397 0.879007 0.019582 1.538885
    49 -1.393470 8.839177 -0.239433 1.580804 -0.005023 -1.566847
  time 20
    0 -1.701054 -1.756239 3.259746 0.000000 0.000000 0.000000
    1 9.213061 3.706411 -9.230860 -0.059560 -1.613176 -0.136115
    2 -0.071918 -8.498730 -0.104137 0.150845 0.279811 0.049468
    3 2.902373 -1.028308 1.363887 0.246174 3.088492 1.568953
    4 12.020966 -0.977799 -0.495297 1.570796 1.570796 0.000000
    5 6.283741 -0.044232 0.000002 0.000001 0.000000 -1.570796
    6 3.872081 1.346180 0.000001 0.000000 0.000000 1.570797
    7 6.106668 1.919336 0.000002 0.000000 0.000000 1.570795
    8 7.604102 4.136611 0.000002 0.000001 0.000000 1.348977
    9 23.985891 20.395915 -0.074224 -0.000001 0.000000 0.000000
    10 0.000000 0.000000 0.000000 0.000000 0.000000 0.000000
    11 1.218365 -1.897359 0.000000 0.000002 0.000001 -1.685017
    12 0.585307 -0.000003 0.000000 -0.000002 0.000000 -0.249335
    13 0.606010 0.000000 0.000000 -0.000002 0.000000 -0.267288
    14 1.257180 8.762585 -0.153713 -1.570562 0.002683 -1.566807
    15 -0.488518 -2.755602 -0.228260 -0.871614 -0.202562 -0.209541
    16 0.039887 -1.479790 0.029854 -2.058952 0.000000 0.000001
    17 0.028786 -1.075731 -0.023109 -0.606348 0.000000 0.000000
    18 0.250027 -2.820665 -0.238396 -0.797118 -0.167517 -0.114938
    19 -0.049759 -1.680544 0.100479 -1.934764 0.000000 -0.000002
    20 -0.034142 -1.148312 0.084782 -0.925906 0.000000 0.000000
    21 0.957766 -2.746780 -0.090302 0.020255 -0.194156 0.008841
    22 -0.033420 -1.397129 -0.011257 -0.520985 0.000000 -0.000001
    23 -0.022360 -0.957436 0.018784 -0.975516 0.000000 0.000000
    24 -1.180681 -2.507217 -0.193859 -0.671429 -0.081516 -0.261329
    25 -0.024967 -1.123934 0.017597 -2.056303 0.000000 0.000001
    26 -0.020057 -0.890968 0.010090 -0.677843 0.000000 0.000000
    27 0.583510 -1.197277 0.185379 0.180209 -0.812070 -1.291294
    28 1.535927 0.010246 0.005009 -0.002964 -0.012979 -0.506650
    29 1.100771 0.004527 -0.010679 -0.015488 -0.004784 -1.694062
    30 0.120153 -0.050270 -0.054489 0.287569 3.110905 1.561085
    31 -0.630155 -10.067345 -13.364972 0.434925 -3.265672 0.916776
    32 0.096944 -8.450418 -0.009365 -0.171351 -1.236953 0.379483
    33 0.447953 -2.798986 -0.200443 -1.198628 -0.014267 0.163836
    34 -0.032909 -1.480204 0.004940 -1.683884 0.000000 0.000002
    35 -0.027022 -1.076920 -0.020210 -0.971708 0.000000 0.000000
    36 -0.249534 -2.846964 -0.174213 -1.022486 0.040910 0.105577
    37 0.043235 -1.683941 0.096012 -1.580584 0.002823 -0.000167
    38 0.031729 -1.160830 0.058838 -1.629035 0.000642 0.008372
    39 -0.963866 -2.785145 -0.085350 -0.988719 0.073698 0.103385
    40 0.028479 -1.403067 0.006271 -1.327033 0.000000 0.000000
    41 0.021413 -0.957781 0.020046 -1.350994 0.000000 0.000000
    42 1.164475 -2.543940 -0.170330 -1.206683 -0.190581 0.231608
    43 0.024032 -1.129042 0.017807 -1.338123 0.000000 0.000001
    44 0.014898 -0.883989 -0.019848 -1.030508 0.000000 0.000000
    45 -0.586770 -1.264477 0.200161 0.369677 -0.600720 -2.485807
    46 1.522835 0.058681 0.016848 0.001410 0.008985 0.795215
    47 1.117947 0.048424 -0.005766 -0.022295 -0.011751 1.141767
    48 -0.139399 -0.111698 0.014397 0.879007 0.019582 1.538885
    49 -1.393470 8.839177 -0.239433 1.580804 -0.005023 -1.566847
  time 21
    0 -1.701054 -1.756239 3.259746 0.000000 0.000000 0.000000
    1 9.213061 3.702505 -9.246486 -0.054786 -1.613206 -0.140912
    2 -0.071918 -8.498730 -0.104137 0.150845 0.279811 0.049468
    3 2.902373 -1.028308 1.363887 0.246174 3.088492 1.568953
    4 12.020966 -0.977799 -0.495297 1.570796 1.570796 0.000000
    5 6.283741 -0.044232 0.000002 0.000001 0.000000 -1.570796
    6 3.872081 1.346180 0.000001 0.000000 0.000000 1.570797
    7 6.106668 1.919336 0.000002 0.000000 0.000000 1.570795
    8 7.604102 4.136611 0.000002 0.000001 0.000000 1.348977
    9 23.985891 20.395915 -0.074224 -0.000001 0.000000 0.000000
    10 0.000000 0.000000 0.000000 0.000000 0.000000 0.000000
    11 1.218365 -1.897359 0.000000 0.000002 0.000001 -1.685017
    12 0.585307 -0.000003 0.000000 -0.000002 0.000000 -0.249335
    13 0.606010 0.000000 0.000000 -0.000002 0.000000 -0.267288
    14 1.257180 8.762585 -0.153713 -1.570562 0.002683 -1.566807
    15 -0.488518 -2.755602 -0.228260 -0.871614 -0.202562 -0.209541
    16 0.039887 -1.479790 0.029854 -2.058952 0.000000 0.000001
    17 0.028786 -1.075731 -0.023109 -0.606348 0.000000 0.000000
    18 0.250027 -2.820665 -0.238396 -0.797118 -0.167517 -0.114938
    19 -0.049759 -1.680544 0.100479 -1.934764 0.000000 -0.000002
    20 -0.034142 -1.148312 0.084782 -0.925879 0.000000 0.000000
    21 0.957766 -2.746780 -0.090302 0.020255 -0.194156 0.008841
    22 -0.033420 -1.397129 -0.011257 -0.520985 0.000000 -0.000001
    23 -0.022360 -0.957436 0.018784 -0.975516 0.000000 0.000000
    24 -1.180681 -2.507217 -0.193859 -0.671429 -0.081516 -0.261329
    25 -0.024967 -1.123934 0.017597 -2.056303 0.000000 0.000001
    26 -0.020057 -0.890968 0.010090 -0.677843 0.000000 0.000000
    27 0.583510 -1.197277 0.185379 0.180209 -0.812070 -1.291294
    28 1.535927 0.010246 0.005009 -0.002964 -0.012979 -0.506650
    29 1.100771 0.004527 -0.010679 -0.015488 -0.004784 -1.694062
    30 0.120153 -0.050270 -0.054489 0.287569 3.110905 1.561085
    31 -0.630155 -10.075158 -13.376691 0.435087 -3.265481 0.916776
    32 0.096944 -8.450418 -0.009365 -0.171351 -1.236953 0.379483
    33 0.447953 -2.798986 -0.200443 -1.198628 -0.014267 0.163836
    34 -0.032909 -1.480204 0.004940 -1.683884 0.000000 0.000002
    35 -0.027022 -1.076920 -0.020210 -0.971708 0.000000 0.000000
    36 -0.249534 -2.846964 -0.174213 -1.022486 0.040910 0.105577
    37 0.043235 -1.683941 0.096012 -1.580584 0.002823 -0.000167
    38 0.031729 -1.160830 0.058838 -1.629035 0.000642 0.008372
    39 -0.963866 -2.785145 -0.085350 -0.988719 0.073698 0.103385
    40 0.028479 -1.403067 0.006271 -1.327033 0.000000 0.000000
    41 0.021413 -0.957781 0.020046 -1.350994 0.000000 0.000000
    42 1.164475 -2.543940 -0.170330 -1.206683 -0.190581 0.231608
    43 0.024032 -1.129042 0.017807 -1.338123 0.000000 0.000001
    44 0.014898 -0.883989 -0.019848 -1.030508 0.000000 0.000000
    45 -0.586770 -1.264477 0.200161 0.369677 -0.600720 -2.485807
    46 1.522835 0.058681 0.016848 0.001410 0.008985 0.795215
    47 1.117947 0.048424 -0.005766 -0.022295 -0.011751 1.141767
    48 -0.139399 -0.111698 0.014397 0.879007 0.019582 1.538885
    49 -1.393470 8.839177 -0.239433 1.580804 -0.005023 -1.566847
  time 22
    0 -1.701054 -1.756239 3.259746 0.000000 0.000000 0.000000
    1 9.213061 3.698599 -9.250392 -0.058826 -1.613176 -0.136853
    2 -0.071918 -8.498730 -0.104137 0.150845 0.279811 0.049468
    3 2.902373 -1.028308 1.363887 0.246174 3.088492 1.568953
    4 12.020966 -0.977799 -0.495297 1.570796 1.570796 0.000000
    5 6.283741 -0.044232 0.000002 0.000001 0.000000 -1.570796
    6 3.872081 1.346180 0.000001 0.000000 0.000000 1.570797
    7 6.106668 1.919336 0.000002 0.000000 0.000000 1.570795
    8 7.604102 4.136611 0.000002 0.000001 0.000000 1.348977
    9 23.985891 20.395915 -0.074224 -0.000001 0.000000 0.000000
    10 0.000000 0.000000 0.000000 0.000000 0.000000 0.000000
    11 1.218365 -1.897359 0.000000 0.000002 0.000001 -1.685017
    12 0.585307 -0.000003 0.000000 -0.000002 0.000000 -0.249335
    13 0.606010 0.000000 0.000000 -0.000002 0.000000 -0.267288
    14 1.257180 8.762585 -0.153713 -1.570562 0.002683 -1.566807
    15 -0.488518 -2.755602 -0.228260 -0.871614 -0.202562 -0.209541
    16 0.039887 -1.479790 0.029854 -2.058952 0.000000 0.000001
    17 0.028786 -1.075731 -0.023109 -0.606348 0.000000 0.000000
    18 0.250027 -2.820665 -0.238396 -0.797118 -0.167517 -0.114938
    19 -0.049759 -1.680544 0.100479 -1.934764 0.000000 -0.000002
    20 -0.034142 -1.148312 0.084782 -0.925906 0.000000 0.000000
    21 0.957766 -2.746780 -0.090302 0.020255 -0.194156 0.008841
    22 -0.033420 -1.397129 -0.011257 -0.520985 0.000000 -0.000001
    23 -0.022360 -0.957436 0.018784 -0.975516 0.000000 0.000000
    24 -1.180681 -2.507217 -0.193859 -0.671429 -0.081516 -0.261329
    25 -0.024967 -1.123934 0.017597 -2.056303 0.000000 0.000001
    26 -0.020057 -0.890968 0.010090 -0.677843 0.000000 0.000000
    27 0.583510 -1.197277 0.185379 0.180209 -0.812070 -1.291294
    28 1.535927 0.010246 0.005009 -0.002964 -0.012979 -0.506650
    29 1.100771 0.004527 -0.010679 -0.015488 -0.004784 -1.694062
    30 0.120153 -0.050270 -0.054489 0.287569 3.110905 1.561085
    31 -0.630155 -10.075158 -13.384504 0.434925 -3.265576 0.916776
    32 0.096944 -8.450418 -0.009365 -0.171351 -1.236953 0.379483
    33 0.447953 -2.798986 -0.200443 -1.198628 -0.014267 0.163836
    34 -0.032909 -1.480204 0.004940 -1.683884 0.000000 0.000002
    35 -0.027022 -1.076920 -0.020210 -0.971708 0.000000 0.000000
    36 -0.249534 -2.846964 -0.174213 -1.022486 0.040910 0.105577
    37 0.043235 -1.683941 0.096012 -1.580584 0.002823 -0.000167
    38 0.031729 -1.160830 0.058838 -1.629035 0.000642 0.008372
    39 -0.963866 -2.785145 -0.085350 -0.988719 0.073698 0.103385
    40 0.028479 -1.403067 0.006271 -1.327033 0.000000 0.000000
    41 0.021413 -0.957781 0.020046 -1.350994 0.000000 0.000000
    42 1.164475 -2.543940 -0.170330 -1.206683 -0.190581 0.231608
    43 0.024032 -1.129042 0.017807 -1.338123 0.000000 0.000001
    44 0.014898 -0.883989 -0.019848 -1.030508 0.000000 0.000000
    45 -0.586770 -1.264477 0.200161 0.369677 -0.600720 -2.485807
    46 1.522835 0.058681 0.016848 0.001410 0.008985 0.795215
    47 1.117947 0.048424 -0.005766 -0.022295 -0.011751 1.141767
    48 -0.139399 -0.111698 0.014397 0.879007 0.019582 1.538885
    49 -1.393470 8.839177 -0.239433 1.580804 -0.005023 -1.566847
  time 23
    0 -1.701054 -1.756239 3.259746 0.000000 0.000000 0.000000
    1 9.213061 3.698599 -9.246486 -0.069477 -1.613117 -0.126150
    2 -0.071918 -8.498730 -0.104137 0.150845 0.279811 0.049468
    3 2.902373 -1.028308 1.363887 0.246174 3.088492 1.568953
    4 12.020966 -0.977799 -0.495297 1.570796 1.570796 0.000000
    5 6.283741 -0.044232 0.000002 0.000001 0.000000 -1.570796
    6 3.872081 1.346180 0.000001 0.000000 0.000000 1.570797
    7 6.106668 1.919336 0.000002 0.000000 0.000000 1.570795
    8 7.604102 4.136611 0.000002 0.000001 0.000000 1.348977
    9 23.985891 20.395915 -0.074224 -0.000001 0.000000 0.000000
    10 0.000000 0.000000 0.000000 0.000000 0.000000 0.000000
    11 1.218365 -1.897359 0.000000 0.000002 0.000001 -1.685017
    12 0.585307 -0.000003 0.000000 -0.000002 0.000000 -0.249335
    13 0.606010 0.000000 0.000000 -0.000002 0.000000 -0.267288
    14 1.257180 8.762585 -0.153713 -1.570562 0.002683 -1.566807
    15 -0.488518 -2.755602 -0.228260 -0.871614 -0.202562 -0.209541
    16 0.039887 -1.479790 0.029854 -2.058952 0.000000 0.000001
    17 0.028786 -1.075731 -0.023109 -0.606348 0.000000 0.000000
    18 0.250027 -2.820665 -0.238396 -0.797118 -0.167517 -0.114938
    19 -0.049759 -1.680544 0.100479 -1.934764 0.000000 -0.000002
    20 -0.034142 -1.148312 0.084782 -0.925906 0.000000 0.000000
    21 0.957766 -2.746780 -0.090302 0.020255 -0.194156 0.008841
    22 -0.033420 -1.397129 -0.011257 -0.520985 0.000000 -0.000001
    23 -0.022360 -0.957436 0.018784 -0.975516 0.000000 0.000000
    24 -1.180681 -2.507217 -0.193859 -0.671429 -0.081516 -0.261329
    25 -0.024967 -1.123934 0.017597 -2.056303 0.000000 0.000001
    26 -0.020057 -0.890968 0.010090 -0.677843 0.000000 0.000000
    27 0.583510 -1.197277 0.185379 0.180209 -0.812070 -1.291294
    28 1.535927 0.010246 0.005009 -0.002964 -0.012979 -0.506650
    29 1.100771 0.004527 -0.010679 -0.015488 -0.004784 -1.694062
    30 0.120153 -0.050270 -0.054489 0.287569 3.110905 1.561085
    31 -0.630155 -10.071251 -13.388411 0.434680 -3.265960 0.916776
    32 0.096944 -8.450418 -0.009365 -0.171351 -1.236953 0.379483
    33 0.447953 -2.798986 -0.200443 -1.198628 -0.014267 0.163836
    34 -0.032909 -1.480204 0.004940 -1.683884 0.000000 0.000002
    35 -0.027022 -1.076920 -0.020210 -0.971708 0.000000 0.000000
    36 -0.249534 -2.846964 -0.174213 -1.022486 0.040910 0.105577
    37 0.043235 -1.683941 0.096012 -1.580584 0.002823 -0.000167
    38 0.031729 -1.160830 0.058838 -1.629035 0.000642 0.008372
    39 -0.963866 -2.785145 -0.085350 -0.988719 0.073698 0.103385
    40 0.028479 -1.403067 0.006271 -1.327033 0.000000 0.000000
    41 0.021413 -0.957781 0.020046 -1.350994 0.000000 0.000000
    42 1.164475 -2.543940 -0.170330 -1.206683 -0.190581 0.231608
    43 0.024032 -1.129042 0.017807 -1.338123 0.000000 0.000001
    44 0.014898 -0.883989 -0.019848 -1.030508 0.000000 0.000000
    45 -0.586770 -1.264477 0.200161 0.369677 -0.600720 -2.485807
    46 1.522835 0.058681 0.016848 0.001410 0.008985 0.795215
    47 1.117947 0.048424 -0.005766 -0.022295 -0.011751 1.141767
    48 -0.139399 -0.111698 0.014397 0.879007 0.019582 1.538885
    49 -1.393470 8.839177 -0.239433 1.580804 -0.005023 -1.566847
  time 24
    0 -1.701054 -1.756239 3.259746 0.000000 0.000000 0.000000
    1 9.213061 3.706411 -9.234767 -0.084641 -1.613027 -0.111019
    2 -0.071918 -8.498730 -0.104137 0.150845 0.279811 0.049468
    3 2.902373 -1.028308 1.363887 0.246174 3.088492 1.568953
    4 12.020966 -0.977799 -0.495297 1.570796 1.570796 0.000000
    5 6.283741 -0.044232 0.000002 0.000001 0.000000 -1.570796
    6 3.872081 1.346180 0.000001 0.000000 0.000000 1.570797
    7 6.106668 1.919336 0.000002 0.000000 0.000000 1.570795
    8 7.604102 4.136611 0.000002 0.000001 0.000000 1.348977
    9 23.985891 20.395915 -0.074224 -0.000001 0.000000 0.000000
    10 0.000000 0.000000 0.000000 0.000000 0.000000 0.000000
    11 1.218365 -1.897359 0.000000 0.000002 0.000001 -1.685017
    12 0.585307 -0.000003 0.000000 -0.000002 0.000000 -0.249335
    13 0.606010 0.000000 0.000000 -0.000002 0.000000 -0.267288
    14 1.257180 8.762585 -0.153713 -1.570562 0.002683 -1.566807
    15 -0.488518 -2.755602 -0.228260 -0.871614 -0.202562 -0.209541
    16 0.039887 -1.479790 0.029854 -2.058952 0.000000 0.000001
    17 0.028786 -1.075731 -0.023109 -0.606348 0.000000 0.000000
    18 0.250027 -2.820665 -0.238396 -0.797118 -0.167517 -0.114938
    19 -0.049759 -1.680544 0.100479 -1.934764 0.000000 -0.000002
    20 -0.034142 -1.148312 0.084782 -0.925906 0.000000 0.000000
    21 0.957766 -2.746780 -0.090302 0.020255 -0.194156 0.008841
    22 -0.033420 -1.397129 -0.011257 -0.520985 0.000000 -0.000001
    23 -0.022360 -0.957436 0.018784 -0.975516 0.000000 0.000000
    24 -1.180681 -2.507217 -0.193859 -0.671429 -0.081516 -0.261329
    25 -0.024967 -1.123934 0.017597 -2.056303 0.000000 0.000001
    26 -0.020057 -0.890968 0.010090 -0.677843 0.000000 0.000000
    27 0.583510 -1.197277 0.185379 0.180209 -0.812070 -1.291294
    28 1.535927 0.010246 0.005009 -0.002964 -0.012979 -0.506650
    29 1.100771 0.004527 -0.010679 -0.015488 -0.004784 -1.694062
    30 0.120153 -0.050270 -0.054489 0.287569 3.110905 1.561085
    31 -0.630155 -10.067345 -13.384504 0.434273 -3.266438 0.916776
    32 0.096944 -8.450418 -0.009365 -0.171351 -1.236953 0.379483
    33 0.447953 -2.798986 -0.200443 -1.198628 -0.014267 0.163836
    34 -0.032909 -1.480204 0.004940 -1.683884 0.000000 0.000002
    35 -0.027022 -1.076920 -0.020210 -0.971708 0.000000 0.000000
    36 -0.249534 -2.846964 -0.174213 -1.022486 0.040910 0.105577
    37 0.043235 -1.683941 0.096012 -1.580584 0.002823 -0.000167
    38 0.031729 -1.160830 0.058838 -1.629035 0.000642 0.008372
    39 -0.963866 -2.785145 -0.085350 -0.988719 0.073698 0.103385
    40 0.028479 -1.403067 0.006271 -1.327033 0.000000 0.000000
    41 0.021413 -0.957781 0.020046 -1.350994 0.000000 0.000000
    42 1.164475 -2.543940 -0.170330 -1.206683 -0.190581 0.231608
    43 0.024032 -1.129042 0.017807 -1.338123 0.000000 0.000001
    44 0.014898 -0.883989 -0.019848 -1.030508 0.000000 0.000000
    45 -0.586770 -1.264477 0.200161 0.369677 -0.600720 -2.485807
    46 1.522835 0.058681 0.016848 0.001410 0.008985 0.795215
    47 1.117947 0.048424 -0.005766 -0.022295 -0.011751 1.141767
    48 -0.139399 -0.111698 0.014397 0.879007 0.019582 1.538885
    49 -1.393470 8.839177 -0.239433 1.580804 -0.005023 -1.566847
  time 25
    0 -1.701054 -1.756239 3.259746 0.000000 0.000000 0.000000
    1 9.213061 3.714224 -9.219141 -0.102113 -1.612907 -0.093568
    2 -0.071918 -8.498730 -0.104137 0.150845 0.279811 0.049468
    3 2.902373 -1.028308 1.363887 0.246174 3.088492 1.568953
    4 12.020966 -0.977799 -0.495297 1.570796 1.570796 0.000000
    5 6.283741 -0.044232 0.000002 0.000001 0.000000 -1.570796
    6 3.872081 1.346180 0.000001 0.000000 0.000000 1.570797
    7 6.106668 1.919336 0.000002 0.000000 0.000000 1.570795
    8 7.604102 4.136611 0.000002 0.000001 0.000000 1.348977
    9 23.985891 20.395915 -0.074224 -0.000001 0.000000 0.000000
    10 0.000000 0.000000 0.000000 0.000000 0.000000 0.000000
    11 1.218365 -1.897359 0.000000 0.000002 0.000001 -1.685017
    12 0.585307 -0.000003 0.000000 -0.000002 0.000000 -0.249335
    13 0.606010 0.000000 0.000000 -0.000002 0.000000 -0.267288
    14 1.257180 8.762585 -0.153713 -1.570562 0.002683 -1.566807
    15 -0.488518 -2.755602 -0.228260 -0.871614 -0.202562 -0.209541
    16 0.039887 -1.479790 0.029854 -2.058952 0.000000 0.000001
    17 0.028786 -1.075731 -0.023109 -0.606348 0.000000 0.000000
    18 0.250027 -2.820665 -0.238396 -0.797118 -0.167517 -0.114938
    19 -0.049759 -1.680544 0.100479 -1.934764 0.000000 -0.000002
    20 -0.034142 -1.148312 0.084782 -0.925879 0.000000 0.000000
    21 0.957766 -2.746780 -0.090302 0.020255 -0.194156 0.008841
    22 -0.033420 -1.397129 -0.011257 -0.520985 0.000000 -0.000001
    23 -0.022360 -0.957436 0.018784 -0.975516 0.000000 0.000000
    24 -1.180681 -2.507217 -0.193859 -0.671429 -0.081516 -0.261329
    25 -0.024967 -1.123934 0.017597 -2.056303 0.000000 0.000001
    26 -0.020057 -0.890968 0.010090 -0.677843 0.000000 0.000000
    27 0.583510 -1.197277 0.185379 0.180209 -0.812070 -1.291294
    28 1.535927 0.010246 0.005009 -0.002964 -0.012979 -0.506650
    29 1.100771 0.004527 -0.010679 -0.015488 -0.004784 -1.694062
    30 0.120153 -0.050270 -0.054489 0.287569 3.110905 1.561085
    31 -0.630155 -10.055626 -13.376691 0.433784 -3.267013 0.916682
    32 0.096944 -8.450418 -0.009365 -0.171351 -1.236953 0.379483
    33 0.447953 -2.798986 -0.200443 -1.198628 -0.014267 0.163836
    34 -0.032909 -1.480204 0.004940 -1.683884 0.000000 0.000002
    35 -0.027022 -1.076920 -0.020210 -0.971708 0.000000 0.000000
    36 -0.249534 -2.846964 -0.174213 -1.022486 0.040910 0.105577
    37 0.043235 -1.683941 0.096012 -1.580584 0.002823 -0.000167
    38 0.031729 -1.160830 0.058838 -1.629035 0.000642 0.008372
    39 -0.963866 -2.785145 -0.085350 -0.988719 0.073698 0.103385
    40 0.028479 -1.403067 0.006271 -1.327033 0.000000 0.000000
    41 0.021413 -0.957781 0.020046 -1.350994 0.000000 0.000000
    42 1.164475 -2.543940 -0.170330 -1.206683 -0.190581 0.231608
    43 0.024032 -1.129042 0.017807 -1.338123 0.000000 0.000001
    44 0.014898 -0.883989 -0.019848 -1.030508 0.000000 0.000000
    45 -0.586770 -1.264477 0.200161 0.369677 -0.600720 -2.485807
    46 1.522835 0.058681 0.016848 0.001410 0.008985 0.795215
    47 1.117947 0.048424 -0.005766 -0.022295 -0.011751 1.141767
    48 -0.139399 -0.111698 0.014397 0.879007 0.019582 1.538885
    49 -1.393470 8.839177 -0.239433 1.580804 -0.005023 -1.566847
  time 26
    0 -1.701054 -1.756239 3.259746 0.000000 0.000000 0.000000
    1 9.213061 3.722037 -9.195703 -0.119638 -1.612818 -0.076012
    2 -0.071918 -8.498730 -0.104137 0.150845 0.279811 0.049468
    3 2.902373 -1.028308 1.363887 0.246174 3.088492 1.568953
    4 12.020966 -0.977799 -0.495297 1.570796 1.570796 0.000000
    5 6.283741 -0.044232 0.000002 0.000001 0.000000 -1.570796
    6 3.872081 1.346180 0.000001 0.000000 0.000000 1.570797
    7 6.106668 1.919336 0.000002 0.000000 0.000000 1.570795
    8 7.604102 4.136611 0.000002 0.000001 0.000000 1.348977
    9 23.985891 20.395915 -0.074224 -0.000001 0.000000 0.000000
    10 0.000000 0.000000 0.000000 0.000000 0.000000 0.000000
    11 1.218365 -1.897359 0.000000 0.000002 0.000001 -1.685017
    12 0.585307 -0.000003 0.000000 -0.000002 0.000000 -0.249335
    13 0.606010 0.000000 0.000000 -0.000002 0.000000 -0.267288
    14 1.257180 8.762585 -0.153713 -1.570562 0.002683 -1.566807
    15 -0.488518 -2.755602 -0.228260 -0.871614 -0.202562 -0.209541
    16 0.039887 -1.479790 0.029854 -2.058952 0.000000 0.000001
    17 0.028786 -1.075731 -0.023109 -0.606348 0.000000 0.000000
    18 0.250027 -2.820665 -0.238396 -0.797118 -0.167517 -0.114938
    19 -0.049759 -1.680544 0.100479 -1.934764 0.000000 -0.000002
    20 -0.034142 -1.148312 0.084782 -0.925906 0.000000 0.000000
    21 0.957766 -2.746780 -0.090302 0.020255 -0.194156 0.008841
    22 -0.033420 -1.397129 -0.011257 -0.520985 0.000000 -0.000001
    23 -0.022360 -0.957436 0.018784 -0.975516 0.000000 0.000000
    24 -1.180681 -2.507217 -0.193859 -0.671429 -0.081516 -0.261329
    25 -0.024967 -1.123934 0.017597 -2.056303 0.000000 0.000001
    26 -0.020057 -0.890968 0.010090 -0.677843 0.000000 0.000000
    27 0.583510 -1.197277 0.185379 0.180209 -0.812070 -1.291294
    28 1.535927 0.010246 0.005009 -0.002964 -0.012979 -0.506650
    29 1.100771 0.004527 -0.010679 -0.015488 -0.004784 -1.694062
    30 0.120153 -0.050270 -0.054489 0.287569 3.110905 1.561085
    31 -0.630155 -10.043907 -13.364972 0.433296 -3.267588 0.916682
    32 0.096944 -8.450418 -0.009365 -0.171351 -1.236953 0.379483
    33 0.447953 -2.798986 -0.200443 -1.198628 -0.014267 0.163836
    34 -0.032909 -1.480204 0.004940 -1.683884 0.000000 0.000002
    35 -0.027022 -1.076920 -0.020210 -0.971708 0.000000 0.000000
    36 -0.249534 -2.846964 -0.174213 -1.022486 0.040910 0.105577
    37 0.043235 -1.683941 0.096012 -1.580584 0.002823 -0.000167
    38 0.031729 -1.160830 0.058838 -1.629035 0.000642 0.008372
    39 -0.963866 -2.785145 -0.085350 -0.988719 0.073698 0.103385
    40 0.028479 -1.403067 0.006271 -1.327033 0.000000 0.000000
    41 0.021413 -0.957781 0.020046 -1.350994 0.000000 0.000000
    42 1.164475 -2.543940 -0.170330 -1.206683 -0.190581 0.231608
    43 0.024032 -1.129042 0.017807 -1.338123 0.000000 0.000001
    44 0.014898 -0.883989 -0.019848 -1.030508 0.000000 0.000000
    45 -0.586770 -1.264477 0.200161 0.369677 -0.600720 -2.485807
    46 1.522835 0.058681 0.016848 0.001410 0.008985 0.795215
    47 1.117947 0.048424 -0.005766 -0.022295 -0.011751 1.141767
    48 -0.139399 -0.111698 0.014397 0.879007 0.019582 1.538885
    49 -1.393470 8.839177 -0.239433 1.580804 -0.005023 -1.566847
  time 27
    0 -1.701054 -1.756239 3.259746 0.000000 0.000000 0.000000
    1 9.213061 3.733756 -9.168359 -0.134959 -1.612758 -0.060670
    2 -0.071918 -8.498730 -0.104137 0.150845 0.279811 0.049468
    3 2.902373 -1.028308 1.363887 0.246174 3.088492 1.568953
    4 12.020966 -0.977799 -0.495297 1.570796 1.570796 0.000000
    5 6.283741 -0.044232 0.000002 0.000001 0.000000 -1.570796
    6 3.872081 1.346180 0.000001 0.000000 0.000000 1.570797
    7 6.106668 1.919336 0.000002 0.000000 0.000000 1.570795
    8 7.604102 4.136611 0.000002 0.000001 0.000000 1.348977
    9 23.985891 20.395915 -0.074224 -0.000001 0.000000 0.000000
    10 0.000000 0.000000 0.000000 0.000000 0.000000 0.000000
    11 1.218365 -1.897359 0.000000 0.000002 0.000001 -1.685017
    12 0.585307 -0.000003 0.000000 -0.000002 0.000000 -0.249335
    13 0.606010 0.000000 0.000000 -0.000002 0.000000 -0.267288
    14 1.257180 8.762585 -0.153713 -1.570562 0.002683 -1.566807
    15 -0.488518 -2.755602 -0.228260 -0.871614 -0.202562 -0.209541
    16 0.039887 -1.479790 0.029854 -2.058952 0.000000 0.000001
    17 0.028786 -1.075731 -0.023109 -0.606348 0.000000 0.000000
    18 0.250027 -2.820665 -0.238396 -0.797118 -0.167517 -0.114938
    19 -0.049759 -1.680544 0.100479 -1.934764 0.000000 -0.000002
    20 -0.034142 -1.148312 0.084782 -0.925906 0.000000 0.000000
    21 0.957766 -2.746780 -0.090302 0.020255 -0.194156 0.008841
    22 -0.033420 -1.397129 -0.011257 -0.520985 0.000000 -0.000001
    23 -0.022360 -0.957436 0.018784 -0.975516 0.000000 0.000000
    24 -1.180681 -2.507217 -0.193859 -0.671429 -0.081516 -0.261329
    25 -0.024967 -1.123934 0.017597 -2.056303 0.000000 0.000001
    26 -0.020057 -0.890968 0.010090 -0.677843 0.000000 0.000000
    27 0.583510 -1.197277 0.185379 0.180209 -0.812070 -1.291294
    28 1.535927 0.010246 0.005009 -0.002964 -0.012979 -0.506650
    29 1.100771 0.004527 -0.010679 -0.015488 -0.004784 -1.694062
    30 0.120153 -0.050270 -0.054489 0.287569 3.110905 1.561085
    31 -0.630155 -10.028281 -13.349347 0.432888 -3.268067 0.916588
    32 0.096944 -8.450418 -0.009365 -0.171351 -1.236953 0.379483
    33 0.447953 -2.798986 -0.200443 -1.198628 -0.014267 0.163836
    34 -0.032909 -1.480204 0.004940 -1.683884 0.000000 0.000002
    35 -0.027022 -1.076920 -0.020210 -0.971708 0.000000 0.000000
    36 -0.249534 -2.846964 -0.174213 -1.022486 0.040910 0.105577
    37 0.043235 -1.683941 0.096012 -1.580584 0.002823 -0.000167
    38 0.031729 -1.160830 0.058838 -1.629035 0.000642 0.008372
    39 -0.963866 -2.785145 -0.085350 -0.988719 0.073698 0.103385
    40 0.028479 -1.403067 0.006271 -1.327033 0.000000 0.000000
    41 0.021413 -0.957781 0.020046 -1.350994 0.000000 0.000000
    42 1.164475 -2.543940 -0.170330 -1.206683 -0.190581 0.231608
    43 0.024032 -1.129042 0.017807 -1.338123 0.000000 0.000001
    44 0.014898 -0.883989 -0.019848 -1.030508 0.000000 0.000000
    45 -0.586770 -1.264477 0.200161 0.369677 -0.600720 -2.485807
    46 1.522835 0.058681 0.016848 0.001410 0.008985 0.795215
    47 1.117947 0.048424 -0.005766 -0.022295 -0.011751 1.141767
    48 -0.139399 -0.111698 0.014397 0.879007 0.019582 1.538885
    49 -1.393470 8.839177 -0.239433 1.580804 -0.005023 -1.566847
  time 28
    0 -1.701054 -1.756239 3.259746 0.000000 0.000000 0.000000
    1 9.213061 3.745475 -9.141014 -0.145872 -1.612728 -0.049809
    2 -0.071918 -8.498730 -0.104137 0.150845 0.279811 0.049468
    3 2.902373 -1.028308 1.363887 0.246174 3.088492 1.568953
    4 12.020966 -0.977799 -0.495297 1.570796 1.570796 0.000000
    5 6.283741 -0.044232 0.000002 0.000001 0.000000 -1.570796
    6 3.872081 1.346180 0.000001 0.000000 0.000000 1.570797
    7 6.106668 1.919336 0.000002 0.000000 0.000000 1.570795
    8 7.604102 4.136611 0.000002 0.000001 0.000000 1.348977
    9 23.985891 20.395915 -0.074224 -0.000001 0.000000 0.000000
    10 0.000000 0.000000 0.000000 0.000000 0.000000 0.000000
    11 1.218365 -1.897359 0.000000 0.000002 0.000001 -1.685017
    12 0.585307 -0.000003 0.000000 -0.000002 0.000000 -0.249335
    13 0.606010 0.000000 0.000000 -0.000002 0.000000 -0.267288
    14 1.257180 8.762585 -0.153713 -1.570562 0.002683 -1.566807
    15 -0.488518 -2.755602 -0.228260 -0.871614 -0.202562 -0.209541
    16 0.039887 -1.479790 0.029854 -2.058952 0.000000 0.000001
    17 0.028786 -1.075731 -0.023109 -0.606348 0.000000 0.000000
    18 0.250027 -2.820665 -0.238396 -0.797118 -0.167517 -0.114938
    19 -0.049759 -1.680544 0.100479 -1.934764 0.000000 -0.000002
    20 -0.034142 -1.148312 0.084782 -0.925906 0.000000 0.000000
    21 0.957766 -2.746780 -0.090302 0.020255 -0.194156 0.008841
    22 -0.033420 -1.397129 -0.011257 -0.520985 0.000000 -0.000001
    23 -0.022360 -0.957436 0.018784 -0.975516 0.000000 0.000000
    24 -1.180681 -2.507217 -0.193859 -0.671429 -0.081516 -0.261329
    25 -0.024967 -1.123934 0.017597 -2.056303 0.000000 0.000001
    26 -0.020057 -0.890968 0.010090 -0.677843 0.000000 0.000000
    27 0.583510 -1.197277 0.185379 0.180209 -0.812070 -1.291294
    28 1.535927 0.010246 0.005009 -0.002964 -0.012979 -0.506650
    29 1.100771 0.004527 -0.010679 -0.015488 -0.004784 -1.694062
    30 0.120153 -0.050270 -0.054489 0.287569 3.110905 1.561085
    31 -0.630155 -10.012656 -13.325909 0.432563 -3.268450 0.916588
    32 0.096944 -8.450418 -0.009365 -0.171351 -1.236953 0.379483
    33 0.447953 -2.798986 -0.200443 -1.198628 -0.014267 0.163836
    34 -0.032909 -1.480204 0.004940 -1.683884 0.000000 0.000002
    35 -0.027022 -1.076920 -0.020210 -0.971708 0.000000 0.000000
    36 -0.249534 -2.846964 -0.174213 -1.022486 0.040910 0.105577
    37 0.043235 -1.683941 0.096012 -1.580584 0.002823 -0.000167
    38 0.031729 -1.160830 0.058838 -1.629035 0.000642 0.008372
    39 -0.963866 -2.785145 -0.085350 -0.988719 0.073698 0.103385
    40 0.028479 -1.403067 0.006271 -1.327033 0.000000 0.000000
    41 0.021413 -0.957781 0.020046 -1.350994 0.000000 0.000000
    42 1.164475 -2.543940 -0.170330 -1.206683 -0.190581 0.231608
    43 0.024032 -1.129042 0.017807 -1.338123 0.000000 0.000001
    44 0.014898 -0.883989 -0.019848 -1.030508 0.000000 0.000000
    45 -0.586770 -1.264477 0.200161 0.369677 -0.600720 -2.485807
    46 1.522835 0.058681 0.016848 0.001410 0.008985 0.795215
    47 1.117947 0.048424 -0.005766 -0.022295 -0.011751 1.141767
    48 -0.139399 -0.111698 0.014397 0.879007 0.019582 1.538885
    49 -1.393470 8.839177 -0.239433 1.580804 -0.005023 -1.566847
  time 29
    0 -1.701054 -1.756239 3.259746 0.000000 0.000000 0.000000
    1 9.213061 3.757194 -9.113669 -0.149965 -1.612728 -0.045697
    2 -0.071918 -8.498730 -0.104137 0.150845 0.279811 0.049468
    3 2.902373 -1.028308 1.363887 0.246174 3.088492 1.568953
    4 12.020966 -0.977799 -0.495297 1.570796 1.570796 0.000000
    5 6.283741 -0.044232 0.000002 0.000001 0.000000 -1.570796
    6 3.872081 1.346180 0.000001 0.000000 0.000000 1.570797
    7 6.106668 1.919336 0.000002 0.000000 0.000000 1.570795
    8 7.604102 4.136611 0.000002 0.000001 0.000000 1.348977
    9 23.985891 20.395915 -0.074224 -0.000001 0.000000 0.000000
    10 0.000000 0.000000 0.000000 0.000000 0.000000 0.000000
    11 1.218365 -1.897359 0.000000 0.000002 0.000001 -1.685017
    12 0.585307 -0.000003 0.000000 -0.000002 0.000000 -0.249335
    13 0.606010 0.000000 0.000000 -0.000002 0.000000 -0.267288
    14 1.257180 8.762585 -0.153713 -1.570562 0.002683 -1.566807
    15 -0.488518 -2.755602 -0.228260 -0.871614 -0.202562 -0.209541
    16 0.039887 -1.479790 0.029854 -2.058952 0.000000 0.000001
    17 0.028786 -1.075731 -0.023109 -0.606348 0.000000 0.000000
    18 0.250027 -2.820665 -0.238396 -0.797118 -0.167517 -0.114938
    19 -0.049759 -1.680544 0.100479 -1.934764 0.000000 -0.000002
    20 -0.034142 -1.148312 0.084782 -0.925906 0.000000 0.000000
    21 0.957766 -2.746780 -0.090302 0.020255 -0.194156 0.008841
    22 -0.033420 -1.397129 -0.011257 -0.520985 0.000000 -0.000001
    23 -0.022360 -0.957436 0.018784 -0.975516 0.000000 0.000000
    24 -1.180681 -2.507217 -0.193859 -0.671429 -0.081516 -0.261329
    25 -0.024967 -1.123934 0.017597 -2.056303 0.000000 0.000001
    26 -0.020057 -0.890968 0.010090 -0.677843 0.000000 0.000000
    27 0.583510 -1.197277 0.185379 0.180209 -0.812070 -1.291294
    28 1.535927 0.010246 0.005009 -0.002964 -0.012979 -0.506650
    29 1.100771 0.004527 -0.010679 -0.015488 -0.004784 -1.694062
    30 0.120153 -0.050270 -0.054489 0.287569 3.110905 1.561085
    31 -0.630155 -10.000937 -13.298564 0.432481 -3.268642 0.916588
    32 0.096944 -8.450418 -0.009365 -0.171351 -1.236953 0.379483
    33 0.447953 -2.798986 -0.200443 -1.198628 -0.014267 0.163836
    34 -0.032909 -1.480204 0.004940 -1.683884 0.000000 0.000002
    35 -0.027022 -1.076920 -0.020210 -0.971708 0.000000 0.000000
    36 -0.249534 -2.846964 -0.174213 -1.022486 0.040910 0.105577
    37 0.043235 -1.683941 0.096012 -1.580584 0.002823 -0.000167
    38 0.031729 -1.160830 0.058838 -1.629035 0.000642 0.008372
    39 -0.963866 -2.785145 -0.085350 -0.988719 0.073698 0.103385
    40 0.028479 -1.403067 0.006271 -1.327033 0.000000 0.000000
    41 0.021413 -0.957781 0.020046 -1.350994 0.000000 0.000000
    42 1.164475 -2.543940 -0.170330 -1.206683 -0.190581 0.231608
    43 0.024032 -1.129042 0.017807 -1.338123 0.000000 0.000001
    44 0.014898 -0.883989 -0.019848 -1.030508 0.000000 0.000000
    45 -0.586770 -1.264477 0.200161 0.369677 -0.600720 -2.485807
    46 1.522835 0.058681 0.016848 0.001410 0.008985 0.795215
    47 1.117947 0.048424 -0.005766 -0.022295 -0.011751 1.141767
    48 -0.139399 -0.111698 0.014397 0.879007 0.019582 1.538885
    49 -1.393470 8.839177 -0.239433 1.580804 -0.005023 -1.566847
end
