version 1
nodes
  0 "Bone01" -1
  1 "Bone_Lefthand" 0
  2 "Bone02" 1
  3 "Bone03" 2
  4 "Bone50" 3
  5 "Bone48" 3
  6 "Bone25" 3
  7 "Bone 04" 1
  8 "Bone13" 7
  9 "Bone14" 8
  10 "Bone15" 9
  11 "Bone17" 7
  12 "Bone18" 11
  13 "Bone19" 12
  14 "Bone21" 7
  15 "Bone22" 14
  16 "Bone23" 15
  17 "Bone05" 7
  18 "Bone06" 17
  19 "Bone07" 18
  20 "Bone09" 7
  21 "Bone10" 20
  22 "Bone11" 21
  23 "Bone04" -1
  24 "Bone_Righthand" 23
  25 "Bone26" 24
  26 "Bone35" 25
  27 "Bone36" 26
  28 "Bone37" 27
  29 "Bone31" 25
  30 "Bone32" 29
  31 "Bone33" 30
  32 "Bone39" 25
  33 "Bone40" 32
  34 "Bone41" 33
  35 "Bone43" 25
  36 "Bone44" 35
  37 "Bone45" 36
  38 "Bone27" 25
  39 "Bone28" 38
  40 "Bone29" 39
end
skeleton
  time 0
    0 6.356513 2.165625 -6.694014 -0.774305 -1.331392 0.567276
    1 0.000000 -8.563283 0.000000 0.347509 -0.125220 -0.169570
    2 -1.049844 -2.321231 0.654214 -1.247037 1.437608 -1.233844
    3 0.000000 0.743004 1.588492 0.000000 0.000000 0.000000
    4 0.000000 3.192658 2.044578 0.000000 0.000000 0.000000
    5 0.000000 1.878595 2.044578 0.000000 0.000000 0.000000
    6 0.000000 -1.490625 0.407971 0.000000 0.000000 0.000000
    7 -0.003480 -0.404829 0.000000 0.000000 0.000000 0.000000
    8 -0.519309 -2.501156 -0.278957 -1.490008 -0.039729 -0.147496
    9 -0.010598 -1.208185 -0.000001 -0.928524 0.000000 0.000000
    10 0.000000 -0.763066 0.000001 -0.956441 0.000000 0.000000
    11 0.105981 -2.607135 -0.278958 -1.202940 -0.083077 -0.180316
    12 -0.000001 -1.250581 -0.000002 -1.029748 0.000000 0.000000
    13 0.000000 -0.932634 0.000000 -1.190315 0.000000 0.000000
    14 0.763064 -2.490556 -0.278958 -0.348897 -0.010738 0.101382
    15 -0.012323 -1.280918 0.000000 -0.762700 0.000000 0.000000
    16 -0.001697 -0.749372 -0.000001 -0.844729 0.000000 0.000000
    17 0.354567 0.016267 0.318132 0.494018 -0.554828 -1.044175
    18 1.887165 0.012877 0.000000 -0.296409 -0.074844 -0.641561
    19 1.001875 -0.000270 0.000000 0.000000 0.000000 -0.719066
    20 -1.123360 -2.195094 -0.278958 -1.567306 0.000000 -0.087266
    21 0.010771 -0.963791 0.000000 -1.213004 0.000000 0.000000
    22 -0.010412 -0.631916 0.000000 -1.197304 0.000000 0.000000
    23 -0.741723 -3.611200 -9.404878 0.808413 2.185141 1.190134
    24 0.089929 -8.543166 0.000000 0.122392 -0.156191 0.283119
    25 0.000000 -0.359714 0.000000 0.000000 0.000000 0.000000
    26 -0.170479 -2.636146 -0.277655 -1.750535 0.000000 0.000000
    27 0.010599 -1.261177 0.000001 -0.342077 0.000000 0.000000
    28 -0.000001 -0.943233 0.000001 -0.961659 0.000000 0.000000
    29 -0.827563 -2.508972 -0.277656 -1.480020 0.000000 0.000000
    30 0.000000 -1.292971 0.000001 -0.979101 0.000000 0.000000
    31 0.000000 -0.752466 0.000001 -0.502647 0.000000 0.000000
    32 0.444213 -2.561960 -0.277655 -1.748213 -0.046885 -0.024335
    33 0.021022 -1.208185 -0.000001 -0.322909 0.000000 0.000000
    34 0.010597 -0.741867 0.000000 -0.877897 0.000000 0.000000
    35 1.047444 -2.222821 -0.277655 -1.581386 -0.083393 -0.037063
    36 0.000000 -0.996223 0.000001 -1.199038 0.000000 0.000000
    37 -0.000001 -0.614689 0.000001 -1.062893 0.000000 0.000000
    38 -0.308254 -0.007814 0.307165 -0.181399 -0.369377 -2.311048
    39 1.978378 0.019545 -0.000001 0.042951 -0.179887 0.769158
    40 0.982425 0.003186 0.000000 0.000000 0.000000 1.090793
  time 1
    0 6.356513 2.165625 -6.694014 -0.774305 -1.331392 0.567276
    1 0.000000 -8.563283 0.000000 0.347509 -0.125220 -0.169570
    2 -1.049844 -2.321231 0.654214 -1.247037 1.437608 -1.233844
    3 0.000000 0.743004 1.588492 0.000000 0.000000 0.000000
    4 0.000000 3.192658 2.044578 0.000000 0.000000 0.000000
    5 0.000000 1.878595 2.044578 0.000000 0.000000 0.000000
    6 0.000000 -1.490625 0.407971 0.000000 0.000000 0.000000
    7 -0.003480 -0.404829 0.000000 0.000000 0.000000 0.000000
    8 -0.519309 -2.501156 -0.278957 -1.490008 -0.039729 -0.147496
    9 -0.010598 -1.208185 -0.000001 -0.928524 0.000000 0.000000
    10 0.000000 -0.763066 0.000001 -0.956441 0.000000 0.000000
    11 0.105981 -2.607135 -0.278958 -1.202940 -0.083077 -0.180316
    12 -0.000001 -1.250581 -0.000002 -1.029748 0.000000 0.000000
    13 0.000000 -0.932634 0.000000 -1.190315 0.000000 0.000000
    14 0.763064 -2.490556 -0.278958 -0.348897 -0.010738 0.101382
    15 -0.012323 -1.280918 0.000000 -0.762700 0.000000 0.000000
    16 -0.001697 -0.749372 -0.000001 -0.844729 0.000000 0.000000
    17 0.354567 0.016267 0.318132 0.494018 -0.554828 -1.044175
    18 1.887165 0.012877 0.000000 -0.296409 -0.074844 -0.641561
    19 1.001875 -0.000270 0.000000 0.000000 0.000000 -0.719066
    20 -1.123360 -2.195094 -0.278958 -1.567306 0.000000 -0.087266
    21 0.010771 -0.963791 0.000000 -1.213004 0.000000 0.000000
    22 -0.010412 -0.631916 0.000000 -1.197304 0.000000 0.000000
    23 -0.741723 -3.611200 -9.404878 0.808413 2.185141 1.190134
    24 0.089929 -8.543166 0.000000 0.122392 -0.156191 0.283119
    25 0.000000 -0.359714 0.000000 0.000000 0.000000 0.000000
    26 -0.170479 -2.636146 -0.277655 -1.750535 0.000000 0.000000
    27 0.010599 -1.261177 0.000001 -0.342077 0.000000 0.000000
    28 -0.000001 -0.943233 0.000001 -0.961659 0.000000 0.000000
    29 -0.827563 -2.508972 -0.277656 -1.480020 0.000000 0.000000
    30 0.000000 -1.292971 0.000001 -0.979101 0.000000 0.000000
    31 0.000000 -0.752466 0.000001 -0.502647 0.000000 0.000000
    32 0.444213 -2.561960 -0.277655 -1.748213 -0.046885 -0.024335
    33 0.021022 -1.208185 -0.000001 -0.322909 0.000000 0.000000
    34 0.010597 -0.741867 0.000000 -0.877897 0.000000 0.000000
    35 1.047444 -2.222821 -0.277655 -1.581386 -0.083393 -0.037063
    36 0.000000 -0.996223 0.000001 -1.199038 0.000000 0.000000
    37 -0.000001 -0.614689 0.000001 -1.062893 0.000000 0.000000
    38 -0.308254 -0.007814 0.307165 -0.181399 -0.369377 -2.311048
    39 1.978378 0.019545 -0.000001 0.042951 -0.179887 0.769158
    40 0.982425 0.003186 0.000000 0.000000 0.000000 1.090793
  time 2
    0 6.356513 2.165625 -6.694014 -0.774305 -1.331392 0.567276
    1 0.000000 -8.563283 0.000000 0.347509 -0.125220 -0.169570
    2 -1.049844 -2.321231 0.654214 -1.247037 1.437608 -1.233844
    3 0.000000 0.743004 1.588492 0.000000 0.000000 0.000000
    4 0.000000 3.192658 2.044578 0.000000 0.000000 0.000000
    5 0.000000 1.878595 2.044578 0.000000 0.000000 0.000000
    6 0.000000 -1.490625 0.407971 0.000000 0.000000 0.000000
    7 -0.003480 -0.404829 0.000000 0.000000 0.000000 0.000000
    8 -0.519309 -2.501156 -0.278957 -1.490008 -0.039729 -0.147496
    9 -0.010598 -1.208185 -0.000001 -0.928524 0.000000 0.000000
    10 0.000000 -0.763066 0.000001 -0.956441 0.000000 0.000000
    11 0.105981 -2.607135 -0.278958 -1.202940 -0.083077 -0.180316
    12 -0.000001 -1.250581 -0.000002 -1.029748 0.000000 0.000000
    13 0.000000 -0.932634 0.000000 -1.190315 0.000000 0.000000
    14 0.763064 -2.490556 -0.278958 -0.348897 -0.010738 0.101382
    15 -0.012323 -1.280918 0.000000 -0.762700 0.000000 0.000000
    16 -0.001697 -0.749372 -0.000001 -0.844729 0.000000 0.000000
    17 0.354567 0.016267 0.318132 0.494018 -0.554828 -1.044175
    18 1.887165 0.012877 0.000000 -0.296409 -0.074844 -0.641561
    19 1.001875 -0.000270 0.000000 0.000000 0.000000 -0.719066
    20 -1.123360 -2.195094 -0.278958 -1.567306 0.000000 -0.087266
    21 0.010771 -0.963791 0.000000 -1.213004 0.000000 0.000000
    22 -0.010412 -0.631916 0.000000 -1.197304 0.000000 0.000000
    23 -0.741723 -3.611200 -9.404878 0.808413 2.185141 1.190134
    24 0.089929 -8.543166 0.000000 0.122392 -0.156191 0.283119
    25 0.000000 -0.359714 0.000000 0.000000 0.000000 0.000000
    26 -0.170479 -2.636146 -0.277655 -1.750535 0.000000 0.000000
    27 0.010599 -1.261177 0.000001 -0.342077 0.000000 0.000000
    28 -0.000001 -0.943233 0.000001 -0.961659 0.000000 0.000000
    29 -0.827563 -2.508972 -0.277656 -1.480020 0.000000 0.000000
    30 0.000000 -1.292971 0.000001 -0.979101 0.000000 0.000000
    31 0.000000 -0.752466 0.000001 -0.502647 0.000000 0.000000
    32 0.444213 -2.561960 -0.277655 -1.748213 -0.046885 -0.024335
    33 0.021022 -1.208185 -0.000001 -0.322909 0.000000 0.000000
    34 0.010597 -0.741867 0.000000 -0.877897 0.000000 0.000000
    35 1.047444 -2.222821 -0.277655 -1.581386 -0.083393 -0.037063
    36 0.000000 -0.996223 0.000001 -1.199038 0.000000 0.000000
    37 -0.000001 -0.614689 0.000001 -1.062893 0.000000 0.000000
    38 -0.308254 -0.007814 0.307165 -0.181399 -0.369377 -2.311048
    39 1.978378 0.019545 -0.000001 0.042951 -0.179887 0.769158
    40 0.982425 0.003186 0.000000 0.000000 0.000000 1.090793
  time 3
    0 6.356513 2.165625 -6.694014 -0.774305 -1.331392 0.567276
    1 0.000000 -8.563283 0.000000 0.347509 -0.125220 -0.169570
    2 -1.049844 -2.321231 0.654214 -1.247037 1.437608 -1.233844
    3 0.000000 0.743004 1.588492 0.000000 0.000000 0.000000
    4 0.000000 3.192658 2.044578 0.000000 0.000000 0.000000
    5 0.000000 1.878595 2.044578 0.000000 0.000000 0.000000
    6 0.000000 -1.490625 0.407971 0.000000 0.000000 0.000000
    7 -0.003480 -0.404829 0.000000 0.000000 0.000000 0.000000
    8 -0.519309 -2.501156 -0.278957 -1.490008 -0.039729 -0.147496
    9 -0.010598 -1.208185 -0.000001 -0.928524 0.000000 0.000000
    10 0.000000 -0.763066 0.000001 -0.956441 0.000000 0.000000
    11 0.105981 -2.607135 -0.278958 -1.202940 -0.083077 -0.180316
    12 -0.000001 -1.250581 -0.000002 -1.029748 0.000000 0.000000
    13 0.000000 -0.932634 0.000000 -1.190315 0.000000 0.000000
    14 0.763064 -2.490556 -0.278958 -0.348897 -0.010738 0.101382
    15 -0.012323 -1.280918 0.000000 -0.762700 0.000000 0.000000
    16 -0.001697 -0.749372 -0.000001 -0.844729 0.000000 0.000000
    17 0.354567 0.016267 0.318132 0.494018 -0.554828 -1.044175
    18 1.887165 0.012877 0.000000 -0.296409 -0.074844 -0.641561
    19 1.001875 -0.000270 0.000000 0.000000 0.000000 -0.719066
    20 -1.123360 -2.195094 -0.278958 -1.567306 0.000000 -0.087266
    21 0.010771 -0.963791 0.000000 -1.213004 0.000000 0.000000
    22 -0.010412 -0.631916 0.000000 -1.197304 0.000000 0.000000
    23 -0.741723 -3.611200 -9.404878 0.808413 2.185141 1.190134
    24 0.089929 -8.543166 0.000000 0.122392 -0.156191 0.283119
    25 0.000000 -0.359714 0.000000 0.000000 0.000000 0.000000
    26 -0.170479 -2.636146 -0.277655 -1.750535 0.000000 0.000000
    27 0.010599 -1.261177 0.000001 -0.342077 0.000000 0.000000
    28 -0.000001 -0.943233 0.000001 -0.961659 0.000000 0.000000
    29 -0.827563 -2.508972 -0.277656 -1.480020 0.000000 0.000000
    30 0.000000 -1.292971 0.000001 -0.979101 0.000000 0.000000
    31 0.000000 -0.752466 0.000001 -0.502647 0.000000 0.000000
    32 0.444213 -2.561960 -0.277655 -1.748213 -0.046885 -0.024335
    33 0.021022 -1.208185 -0.000001 -0.322909 0.000000 0.000000
    34 0.010597 -0.741867 0.000000 -0.877897 0.000000 0.000000
    35 1.047444 -2.222821 -0.277655 -1.581386 -0.083393 -0.037063
    36 0.000000 -0.996223 0.000001 -1.199038 0.000000 0.000000
    37 -0.000001 -0.614689 0.000001 -1.062893 0.000000 0.000000
    38 -0.308254 -0.007814 0.307165 -0.181399 -0.369377 -2.311048
    39 1.978378 0.019545 -0.000001 0.042951 -0.179887 0.769158
    40 0.982425 0.003186 0.000000 0.000000 0.000000 1.090793
  time 4
    0 6.356513 2.165625 -6.694014 -0.774305 -1.331392 0.567276
    1 0.000000 -8.563283 0.000000 0.347509 -0.125220 -0.169570
    2 -1.049844 -2.321231 0.654214 -1.247037 1.437608 -1.233844
    3 0.000000 0.743004 1.588492 0.000000 0.000000 0.000000
    4 0.000000 3.192658 2.044578 0.000000 0.000000 0.000000
    5 0.000000 1.878595 2.044578 0.000000 0.000000 0.000000
    6 0.000000 -1.490625 0.407971 0.000000 0.000000 0.000000
    7 -0.003480 -0.404829 0.000000 0.000000 0.000000 0.000000
    8 -0.519309 -2.501156 -0.278957 -1.490008 -0.039729 -0.147496
    9 -0.010598 -1.208185 -0.000001 -0.928524 0.000000 0.000000
    10 0.000000 -0.763066 0.000001 -0.956441 0.000000 0.000000
    11 0.105981 -2.607135 -0.278958 -1.202940 -0.083077 -0.180316
    12 -0.000001 -1.250581 -0.000002 -1.029748 0.000000 0.000000
    13 0.000000 -0.932634 0.000000 -1.190315 0.000000 0.000000
    14 0.763064 -2.490556 -0.278958 -0.348897 -0.010738 0.101382
    15 -0.012323 -1.280918 0.000000 -0.762700 0.000000 0.000000
    16 -0.001697 -0.749372 -0.000001 -0.844729 0.000000 0.000000
    17 0.354567 0.016267 0.318132 0.494018 -0.554828 -1.044175
    18 1.887165 0.012877 0.000000 -0.296409 -0.074844 -0.641561
    19 1.001875 -0.000270 0.000000 0.000000 0.000000 -0.719066
    20 -1.123360 -2.195094 -0.278958 -1.567306 0.000000 -0.087266
    21 0.010771 -0.963791 0.000000 -1.213004 0.000000 0.000000
    22 -0.010412 -0.631916 0.000000 -1.197304 0.000000 0.000000
    23 -0.741723 -3.611200 -9.404878 0.808413 2.185141 1.190134
    24 0.089929 -8.543166 0.000000 0.122392 -0.156191 0.283119
    25 0.000000 -0.359714 0.000000 0.000000 0.000000 0.000000
    26 -0.170479 -2.636146 -0.277655 -1.750535 0.000000 0.000000
    27 0.010599 -1.261177 0.000001 -0.342077 0.000000 0.000000
    28 -0.000001 -0.943233 0.000001 -0.961659 0.000000 0.000000
    29 -0.827563 -2.508972 -0.277656 -1.480020 0.000000 0.000000
    30 0.000000 -1.292971 0.000001 -0.979101 0.000000 0.000000
    31 0.000000 -0.752466 0.000001 -0.502647 0.000000 0.000000
    32 0.444213 -2.561960 -0.277655 -1.748213 -0.046885 -0.024335
    33 0.021022 -1.208185 -0.000001 -0.322909 0.000000 0.000000
    34 0.010597 -0.741867 0.000000 -0.877897 0.000000 0.000000
    35 1.047444 -2.222821 -0.277655 -1.581386 -0.083393 -0.037063
    36 0.000000 -0.996223 0.000001 -1.199038 0.000000 0.000000
    37 -0.000001 -0.614689 0.000001 -1.062893 0.000000 0.000000
    38 -0.308254 -0.007814 0.307165 -0.181399 -0.369377 -2.311048
    39 1.978378 0.019545 -0.000001 0.042951 -0.179887 0.769158
    40 0.982425 0.003186 0.000000 0.000000 0.000000 1.090793
  time 5
    0 6.356513 2.165625 -6.694014 -0.774305 -1.331392 0.567276
    1 0.000000 -8.563283 0.000000 0.347509 -0.125220 -0.169570
    2 -1.049844 -2.321231 0.654214 -1.247037 1.437608 -1.233844
    3 0.000000 0.743004 1.588492 0.000000 0.000000 0.000000
    4 0.000000 3.192658 2.044578 0.000000 0.000000 0.000000
    5 0.000000 1.878595 2.044578 0.000000 0.000000 0.000000
    6 0.000000 -1.490625 0.407971 0.000000 0.000000 0.000000
    7 -0.003480 -0.404829 0.000000 0.000000 0.000000 0.000000
    8 -0.519309 -2.501156 -0.278957 -1.490008 -0.039729 -0.147496
    9 -0.010598 -1.208185 -0.000001 -0.928524 0.000000 0.000000
    10 0.000000 -0.763066 0.000001 -0.956441 0.000000 0.000000
    11 0.105981 -2.607135 -0.278958 -1.202940 -0.083077 -0.180316
    12 -0.000001 -1.250581 -0.000002 -1.029748 0.000000 0.000000
    13 0.000000 -0.932634 0.000000 -1.190315 0.000000 0.000000
    14 0.763064 -2.490556 -0.278958 -0.348897 -0.010738 0.101382
    15 -0.012323 -1.280918 0.000000 -0.762700 0.000000 0.000000
    16 -0.001697 -0.749372 -0.000001 -0.844729 0.000000 0.000000
    17 0.354567 0.016267 0.318132 0.494018 -0.554828 -1.044175
    18 1.887165 0.012877 0.000000 -0.296409 -0.074844 -0.641561
    19 1.001875 -0.000270 0.000000 0.000000 0.000000 -0.719066
    20 -1.123360 -2.195094 -0.278958 -1.567306 0.000000 -0.087266
    21 0.010771 -0.963791 0.000000 -1.213004 0.000000 0.000000
    22 -0.010412 -0.631916 0.000000 -1.197304 0.000000 0.000000
    23 -0.741723 -3.611200 -9.404878 0.808413 2.185141 1.190134
    24 0.089929 -8.543166 0.000000 0.122392 -0.156191 0.283119
    25 0.000000 -0.359714 0.000000 0.000000 0.000000 0.000000
    26 -0.170479 -2.636146 -0.277655 -1.750535 0.000000 0.000000
    27 0.010599 -1.261177 0.000001 -0.342077 0.000000 0.000000
    28 -0.000001 -0.943233 0.000001 -0.961659 0.000000 0.000000
    29 -0.827563 -2.508972 -0.277656 -1.480020 0.000000 0.000000
    30 0.000000 -1.292971 0.000001 -0.979101 0.000000 0.000000
    31 0.000000 -0.752466 0.000001 -0.502647 0.000000 0.000000
    32 0.444213 -2.561960 -0.277655 -1.748213 -0.046885 -0.024335
    33 0.021022 -1.208185 -0.000001 -0.322909 0.000000 0.000000
    34 0.010597 -0.741867 0.000000 -0.877897 0.000000 0.000000
    35 1.047444 -2.222821 -0.277655 -1.581386 -0.083393 -0.037063
    36 0.000000 -0.996223 0.000001 -1.199038 0.000000 0.000000
    37 -0.000001 -0.614689 0.000001 -1.062893 0.000000 0.000000
    38 -0.308254 -0.007814 0.307165 -0.181399 -0.369377 -2.311048
    39 1.978378 0.019545 -0.000001 0.042951 -0.179887 0.769158
    40 0.982425 0.003186 0.000000 0.000000 0.000000 1.090793
  time 6
    0 6.356513 2.165625 -6.694014 -0.774305 -1.331392 0.567276
    1 0.000000 -8.563283 0.000000 0.347509 -0.125220 -0.169570
    2 -1.049844 -2.321231 0.654214 -1.247037 1.437608 -1.233844
    3 0.000000 0.743004 1.588492 0.000000 0.000000 0.000000
    4 0.000000 3.192658 2.044578 0.000000 0.000000 0.000000
    5 0.000000 1.878595 2.044578 0.000000 0.000000 0.000000
    6 0.000000 -1.490625 0.407971 0.000000 0.000000 0.000000
    7 -0.003480 -0.404829 0.000000 0.000000 0.000000 0.000000
    8 -0.519309 -2.501156 -0.278957 -1.490008 -0.039729 -0.147496
    9 -0.010598 -1.208185 -0.000001 -0.928524 0.000000 0.000000
    10 0.000000 -0.763066 0.000001 -0.956441 0.000000 0.000000
    11 0.105981 -2.607135 -0.278958 -1.202940 -0.083077 -0.180316
    12 -0.000001 -1.250581 -0.000002 -1.029748 0.000000 0.000000
    13 0.000000 -0.932634 0.000000 -1.190315 0.000000 0.000000
    14 0.763064 -2.490556 -0.278958 -0.348897 -0.010738 0.101382
    15 -0.012323 -1.280918 0.000000 -0.762700 0.000000 0.000000
    16 -0.001697 -0.749372 -0.000001 -0.844729 0.000000 0.000000
    17 0.354567 0.016267 0.318132 0.494018 -0.554828 -1.044175
    18 1.887165 0.012877 0.000000 -0.296409 -0.074844 -0.641561
    19 1.001875 -0.000270 0.000000 0.000000 0.000000 -0.719066
    20 -1.123360 -2.195094 -0.278958 -1.567306 0.000000 -0.087266
    21 0.010771 -0.963791 0.000000 -1.213004 0.000000 0.000000
    22 -0.010412 -0.631916 0.000000 -1.197304 0.000000 0.000000
    23 -0.741723 -3.611200 -9.404878 0.808413 2.185141 1.190134
    24 0.089929 -8.543166 0.000000 0.122392 -0.156191 0.283119
    25 0.000000 -0.359714 0.000000 0.000000 0.000000 0.000000
    26 -0.170479 -2.636146 -0.277655 -1.750535 0.000000 0.000000
    27 0.010599 -1.261177 0.000001 -0.342077 0.000000 0.000000
    28 -0.000001 -0.943233 0.000001 -0.961659 0.000000 0.000000
    29 -0.827563 -2.508972 -0.277656 -1.480020 0.000000 0.000000
    30 0.000000 -1.292971 0.000001 -0.979101 0.000000 0.000000
    31 0.000000 -0.752466 0.000001 -0.502647 0.000000 0.000000
    32 0.444213 -2.561960 -0.277655 -1.748213 -0.046885 -0.024335
    33 0.021022 -1.208185 -0.000001 -0.322909 0.000000 0.000000
    34 0.010597 -0.741867 0.000000 -0.877897 0.000000 0.000000
    35 1.047444 -2.222821 -0.277655 -1.581386 -0.083393 -0.037063
    36 0.000000 -0.996223 0.000001 -1.199038 0.000000 0.000000
    37 -0.000001 -0.614689 0.000001 -1.062893 0.000000 0.000000
    38 -0.308254 -0.007814 0.307165 -0.181399 -0.369377 -2.311048
    39 1.978378 0.019545 -0.000001 0.042951 -0.179887 0.769158
    40 0.982425 0.003186 0.000000 0.000000 0.000000 1.090793
  time 7
    0 6.356513 2.165625 -6.694014 -0.774305 -1.331392 0.567276
    1 0.000000 -8.563283 0.000000 0.347509 -0.125220 -0.169570
    2 -1.049844 -2.321231 0.654214 -1.247037 1.437608 -1.233844
    3 0.000000 0.743004 1.588492 0.000000 0.000000 0.000000
    4 0.000000 3.192658 2.044578 0.000000 0.000000 0.000000
    5 0.000000 1.878595 2.044578 0.000000 0.000000 0.000000
    6 0.000000 -1.490625 0.407971 0.000000 0.000000 0.000000
    7 -0.003480 -0.404829 0.000000 0.000000 0.000000 0.000000
    8 -0.519309 -2.501156 -0.278957 -1.490008 -0.039729 -0.147496
    9 -0.010598 -1.208185 -0.000001 -0.928524 0.000000 0.000000
    10 0.000000 -0.763066 0.000001 -0.956441 0.000000 0.000000
    11 0.105981 -2.607135 -0.278958 -1.202940 -0.083077 -0.180316
    12 -0.000001 -1.250581 -0.000002 -1.029748 0.000000 0.000000
    13 0.000000 -0.932634 0.000000 -1.190315 0.000000 0.000000
    14 0.763064 -2.490556 -0.278958 -0.348897 -0.010738 0.101382
    15 -0.012323 -1.280918 0.000000 -0.762700 0.000000 0.000000
    16 -0.001697 -0.749372 -0.000001 -0.844729 0.000000 0.000000
    17 0.354567 0.016267 0.318132 0.494018 -0.554828 -1.044175
    18 1.887165 0.012877 0.000000 -0.296409 -0.074844 -0.641561
    19 1.001875 -0.000270 0.000000 0.000000 0.000000 -0.719066
    20 -1.123360 -2.195094 -0.278958 -1.567306 0.000000 -0.087266
    21 0.010771 -0.963791 0.000000 -1.213004 0.000000 0.000000
    22 -0.010412 -0.631916 0.000000 -1.197304 0.000000 0.000000
    23 -0.741723 -3.611200 -9.404878 0.808413 2.185141 1.190134
    24 0.089929 -8.543166 0.000000 0.122392 -0.156191 0.283119
    25 0.000000 -0.359714 0.000000 0.000000 0.000000 0.000000
    26 -0.170479 -2.636146 -0.277655 -1.750535 0.000000 0.000000
    27 0.010599 -1.261177 0.000001 -0.342077 0.000000 0.000000
    28 -0.000001 -0.943233 0.000001 -0.961659 0.000000 0.000000
    29 -0.827563 -2.508972 -0.277656 -1.480020 0.000000 0.000000
    30 0.000000 -1.292971 0.000001 -0.979101 0.000000 0.000000
    31 0.000000 -0.752466 0.000001 -0.502647 0.000000 0.000000
    32 0.444213 -2.561960 -0.277655 -1.748213 -0.046885 -0.024335
    33 0.021022 -1.208185 -0.000001 -0.322909 0.000000 0.000000
    34 0.010597 -0.741867 0.000000 -0.877897 0.000000 0.000000
    35 1.047444 -2.222821 -0.277655 -1.581386 -0.083393 -0.037063
    36 0.000000 -0.996223 0.000001 -1.199038 0.000000 0.000000
    37 -0.000001 -0.614689 0.000001 -1.062893 0.000000 0.000000
    38 -0.308254 -0.007814 0.307165 -0.181399 -0.369377 -2.311048
    39 1.978378 0.019545 -0.000001 0.042951 -0.179887 0.769158
    40 0.982425 0.003186 0.000000 0.000000 0.000000 1.090793
  time 8
    0 6.356513 2.165625 -6.694014 -0.774305 -1.331392 0.567276
    1 0.000000 -8.563283 0.000000 0.347509 -0.125220 -0.169570
    2 -1.049844 -2.321231 0.654214 -1.247037 1.437608 -1.233844
    3 0.000000 0.743004 1.588492 0.000000 0.000000 0.000000
    4 0.000000 3.192658 2.044578 0.000000 0.000000 0.000000
    5 0.000000 1.878595 2.044578 0.000000 0.000000 0.000000
    6 0.000000 -1.490625 0.407971 0.000000 0.000000 0.000000
    7 -0.003480 -0.404829 0.000000 0.000000 0.000000 0.000000
    8 -0.519309 -2.501156 -0.278957 -1.490008 -0.039729 -0.147496
    9 -0.010598 -1.208185 -0.000001 -0.928524 0.000000 0.000000
    10 0.000000 -0.763066 0.000001 -0.956441 0.000000 0.000000
    11 0.105981 -2.607135 -0.278958 -1.202940 -0.083077 -0.180316
    12 -0.000001 -1.250581 -0.000002 -1.029748 0.000000 0.000000
    13 0.000000 -0.932634 0.000000 -1.190315 0.000000 0.000000
    14 0.763064 -2.490556 -0.278958 -0.348897 -0.010738 0.101382
    15 -0.012323 -1.280918 0.000000 -0.762700 0.000000 0.000000
    16 -0.001697 -0.749372 -0.000001 -0.844729 0.000000 0.000000
    17 0.354567 0.016267 0.318132 0.494018 -0.554828 -1.044175
    18 1.887165 0.012877 0.000000 -0.296409 -0.074844 -0.641561
    19 1.001875 -0.000270 0.000000 0.000000 0.000000 -0.719066
    20 -1.123360 -2.195094 -0.278958 -1.567306 0.000000 -0.087266
    21 0.010771 -0.963791 0.000000 -1.213004 0.000000 0.000000
    22 -0.010412 -0.631916 0.000000 -1.197304 0.000000 0.000000
    23 -0.741723 -3.611200 -9.404878 0.808413 2.185141 1.190134
    24 0.089929 -8.543166 0.000000 0.122392 -0.156191 0.283119
    25 0.000000 -0.359714 0.000000 0.000000 0.000000 0.000000
    26 -0.170479 -2.636146 -0.277655 -1.750535 0.000000 0.000000
    27 0.010599 -1.261177 0.000001 -0.342077 0.000000 0.000000
    28 -0.000001 -0.943233 0.000001 -0.961659 0.000000 0.000000
    29 -0.827563 -2.508972 -0.277656 -1.480020 0.000000 0.000000
    30 0.000000 -1.292971 0.000001 -0.979101 0.000000 0.000000
    31 0.000000 -0.752466 0.000001 -0.502647 0.000000 0.000000
    32 0.444213 -2.561960 -0.277655 -1.748213 -0.046885 -0.024335
    33 0.021022 -1.208185 -0.000001 -0.322909 0.000000 0.000000
    34 0.010597 -0.741867 0.000000 -0.877897 0.000000 0.000000
    35 1.047444 -2.222821 -0.277655 -1.581386 -0.083393 -0.037063
    36 0.000000 -0.996223 0.000001 -1.199038 0.000000 0.000000
    37 -0.000001 -0.614689 0.000001 -1.062893 0.000000 0.000000
    38 -0.308254 -0.007814 0.307165 -0.181399 -0.369377 -2.311048
    39 1.978378 0.019545 -0.000001 0.042951 -0.179887 0.769158
    40 0.982425 0.003186 0.000000 0.000000 0.000000 1.090793
end
