// Created by Crowbar 0.34.0.0
version 1
nodes
  0 "phantom_1" -1
  1 "phantom_11" -1
  2 "phantom_22" -1
  3 "phantom_2" -1
  4 "slashfx1" -1
  5 "fxtrail" -1
  6 "fxtrailend" 5
  7 "flare_phantom" -1
  8 "root" -1
  9 "Bone01" 8
  10 "Bone_L_Upper" 9
  11 "Bone_Lefthand" 9
  12 "Bone13" 11
  13 "Bone14" 12
  14 "Bone15" 13
  15 "Bone17" 11
  16 "Bone18" 15
  17 "Bone19" 16
  18 "Bone21" 11
  19 "Bone22" 18
  20 "Bone23" 19
  21 "Bone09" 11
  22 "Bone10" 21
  23 "Bone11" 22
  24 "Bone05" 11
  25 "Bone06" 24
  26 "Bone07" 25
  27 "Bone_Se_Hand-L" 11
  28 "Bone04" 8
  29 "Bone_Righthand" 28
  30 "Bone39" 29
  31 "Bone40" 30
  32 "Bone41" 31
  33 "Bone35" 29
  34 "Bone36" 33
  35 "Bone37" 34
  36 "Bone31" 29
  37 "Bone32" 36
  38 "Bone33" 37
  39 "Bone43" 29
  40 "Bone44" 39
  41 "Bone45" 40
  42 "Bone27" 29
  43 "Bone28" 42
  44 "Bone29" 43
  45 "Bone_Se_Hand-R" 29
  46 "Bone_R_Upper" 28
end
skeleton
  time 0
    0 12.355846 -22.965776 -1.423286 -0.087810 3.839935 0.810500
    1 10.226875 -24.498237 -34.622480 -4.458689 0.004062 2.490757
    2 13.008208 10.193385 -33.278689 -4.986352 -0.177236 -2.845753
    3 23.653065 13.405447 -35.154785 -4.986352 -0.177236 -2.845753
    4 89.735512 -199.453681 94.948603 -1.570777 -1.138185 1.570796
    5 -2.316157 -38.396285 16.448812 -0.087824 -2.443186 0.810508
    6 0.000004 99.890709 0.000021 0.000000 0.000000 0.000000
    7 -42.359509 -4.725811 -10.784075 -0.873495 2.881110 1.272517
    8 -2.424590 -0.002752 -3.503394 0.000000 0.000000 1.490787
    9 -13.194490 -14.112383 -0.823225 0.577187 -2.908413 -1.510201
    10 2.550188 9.129783 0.217392 1.426741 3.094122 1.420255
    11 -0.071921 -8.498736 -0.104134 -0.514825 0.086328 -0.283620
    12 -0.488518 -2.755602 -0.228260 -0.971181 0.051942 -0.186015
    13 0.039887 -1.479790 0.029854 -1.432676 0.000000 0.000001
    14 0.028786 -1.075731 -0.023109 -0.818744 0.000000 0.000000
    15 0.250027 -2.820665 -0.238396 -0.445714 -0.002921 0.008443
    16 -0.049759 -1.680544 0.100479 -1.878786 0.000000 -0.000002
    17 -0.034142 -1.148312 0.084782 -0.639028 0.000000 0.000000
    18 0.957766 -2.746780 -0.090302 0.433776 -0.082532 0.013527
    19 -0.033420 -1.397129 -0.011257 -1.537260 0.000000 -0.000001
    20 -0.022360 -0.957436 0.018784 -1.081976 0.000000 0.000000
    21 -1.180681 -2.507217 -0.193859 -1.177585 0.117596 -0.331523
    22 -0.024967 -1.123934 0.017597 -0.774766 0.000000 0.000001
    23 -0.020057 -0.890968 0.010090 -0.891384 0.000000 0.000000
    24 0.583510 -1.197277 0.185379 0.382592 -0.620432 -0.748175
    25 1.535927 0.010246 0.005009 -0.002964 -0.012979 -0.838954
    26 1.100771 0.004527 -0.010679 -0.012827 0.009921 -0.736218
    27 0.120153 -0.050270 -0.054489 0.287569 3.110905 1.561085
    28 -13.380178 -16.364412 -8.712487 -0.897940 -0.016617 -1.574036
    29 0.096944 -8.450418 -0.009365 0.298265 0.728085 0.305498
    30 0.447953 -2.798986 -0.200443 -0.785694 0.072933 0.183371
    31 -0.032909 -1.480204 0.004940 -1.423746 0.000000 0.000002
    32 -0.027022 -1.076920 -0.020210 -0.205924 0.000000 0.000000
    33 -0.249534 -2.846964 -0.174213 -0.666757 -0.000125 -0.008396
    34 0.043235 -1.683941 0.096012 -0.729742 0.002823 -0.000167
    35 0.031729 -1.160830 0.058838 -0.456198 0.000642 0.008372
    36 -0.963866 -2.785145 -0.085350 -0.240883 0.163163 -0.073052
    37 0.028479 -1.403067 0.006271 -0.914803 0.000000 0.000000
    38 0.021413 -0.957781 0.020046 0.071792 0.000000 0.000000
    39 1.164475 -2.543940 -0.170330 -0.677886 0.010016 0.200244
    40 0.024032 -1.129042 0.017807 -1.375395 0.000000 0.000001
    41 0.014898 -0.883989 -0.019848 -0.893146 0.000000 0.000000
    42 -0.586770 -1.264477 0.200161 -0.552597 -0.787580 -2.393461
    43 1.522835 0.058681 0.016848 0.001410 0.008985 0.069371
    44 1.117947 0.048424 -0.005766 -0.013402 -0.021351 0.616699
    45 -0.139399 -0.111698 0.014397 -0.220558 0.409467 1.305270
    46 -3.268527 9.159499 -0.036302 1.601549 0.016669 -1.329001
  time 1
    0 12.363659 -21.918261 -1.544384 -0.087810 3.839935 0.810500
    1 10.226875 -24.498237 -34.622480 -4.458689 0.004062 2.490757
    2 13.008208 10.193385 -33.278689 -4.986352 -0.177236 -2.845753
    3 23.653065 13.405447 -35.154785 -4.986352 -0.177236 -2.845753
    4 89.735512 -72.654983 36.396035 -1.570777 -1.138185 1.570796
    5 -2.308344 -37.354105 16.327714 -0.087824 -2.443186 0.810508
    6 0.000004 99.890709 0.000021 0.000000 0.000000 0.000000
    7 -42.359509 -4.725811 -10.784075 -0.873495 2.881110 1.272517
    8 -2.424590 -0.002752 -3.503394 0.000000 0.000000 1.490787
    9 -12.151489 -14.038162 -0.944323 0.577187 -2.908413 -1.510201
    10 2.550188 9.129783 0.217392 1.426741 3.094122 1.420255
    11 -0.071921 -8.498736 -0.104134 -0.514825 0.086328 -0.283620
    12 -0.488518 -2.755602 -0.228260 -0.971181 0.051942 -0.186015
    13 0.039887 -1.479790 0.029854 -1.432676 0.000000 0.000001
    14 0.028786 -1.075731 -0.023109 -0.818744 0.000000 0.000000
    15 0.250027 -2.820665 -0.238396 -0.445714 -0.002921 0.008443
    16 -0.049759 -1.680544 0.100479 -1.878786 0.000000 -0.000002
    17 -0.034142 -1.148312 0.084782 -0.639028 0.000000 0.000000
    18 0.957766 -2.746780 -0.090302 0.433776 -0.082532 0.013527
    19 -0.033420 -1.397129 -0.011257 -1.537260 0.000000 -0.000001
    20 -0.022360 -0.957436 0.018784 -1.081976 0.000000 0.000000
    21 -1.180681 -2.507217 -0.193859 -1.177585 0.117596 -0.331523
    22 -0.024967 -1.123934 0.017597 -0.774766 0.000000 0.000001
    23 -0.020057 -0.890968 0.010090 -0.891384 0.000000 0.000000
    24 0.583510 -1.197277 0.185379 0.382592 -0.620432 -0.748175
    25 1.535927 0.010246 0.005009 -0.002964 -0.012979 -0.838954
    26 1.100771 0.004527 -0.010679 -0.012827 0.009921 -0.736218
    27 0.120153 -0.050270 -0.054489 0.287569 3.110905 1.561085
    28 -12.338795 -16.290191 -8.833584 -0.897940 -0.016617 -1.574036
    29 0.096944 -8.450418 -0.009365 0.298265 0.728085 0.305498
    30 0.447953 -2.798986 -0.200443 -0.785694 0.072933 0.183371
    31 -0.032909 -1.480204 0.004940 -1.423746 0.000000 0.000002
    32 -0.027022 -1.076920 -0.020210 -0.205924 0.000000 0.000000
    33 -0.249534 -2.846964 -0.174213 -0.666757 -0.000125 -0.008396
    34 0.043235 -1.683941 0.096012 -0.729742 0.002823 -0.000167
    35 0.031729 -1.160830 0.058838 -0.456198 0.000642 0.008372
    36 -0.963866 -2.785145 -0.085350 -0.240883 0.163163 -0.073052
    37 0.028479 -1.403067 0.006271 -0.914803 0.000000 0.000000
    38 0.021413 -0.957781 0.020046 0.071792 0.000000 0.000000
    39 1.164475 -2.543940 -0.170330 -0.677886 0.010016 0.200244
    40 0.024032 -1.129042 0.017807 -1.375395 0.000000 0.000001
    41 0.014898 -0.883989 -0.019848 -0.893146 0.000000 0.000000
    42 -0.586770 -1.264477 0.200161 -0.552597 -0.787580 -2.393461
    43 1.522835 0.058681 0.016848 0.001410 0.008985 0.069371
    44 1.117947 0.048424 -0.005766 -0.013402 -0.021351 0.616699
    45 -0.139399 -0.111698 0.014397 -0.220558 0.409467 1.305270
    46 -3.268527 9.159499 -0.036302 1.601549 0.016669 -1.329001
  time 2
    0 12.355846 -18.033173 -1.938927 -0.087810 3.839935 0.810500
    1 10.226875 -24.498237 -34.622480 -4.458689 0.004062 2.490757
    2 13.008208 10.193385 -33.278689 -4.986352 -0.177236 -2.845753
    3 23.653065 13.405447 -35.154785 -4.986352 -0.177236 -2.845753
    4 89.735512 36.616081 -14.070349 -1.570777 -1.138185 1.570796
    5 -2.316157 -33.463300 15.937077 -0.087824 -2.443186 0.810508
    6 0.000004 99.890709 0.000021 0.000000 0.000000 0.000000
    7 -42.359509 -4.725811 -10.784075 -0.873495 2.881110 1.272517
    8 -2.424590 -0.002752 -3.503394 0.000000 0.000000 1.490787
    9 -8.276371 -13.717840 -1.334960 0.577187 -2.908413 -1.510201
    10 2.550188 9.129783 0.217392 1.426741 3.094122 1.420255
    11 -0.071921 -8.498736 -0.104134 -0.514825 0.086328 -0.283620
    12 -0.488518 -2.755602 -0.228260 -0.971181 0.051942 -0.186015
    13 0.039887 -1.479790 0.029854 -1.432676 0.000000 0.000001
    14 0.028786 -1.075731 -0.023109 -0.818744 0.000000 0.000000
    15 0.250027 -2.820665 -0.238396 -0.445714 -0.002921 0.008443
    16 -0.049759 -1.680544 0.100479 -1.878786 0.000000 -0.000002
    17 -0.034142 -1.148312 0.084782 -0.639028 0.000000 0.000000
    18 0.957766 -2.746780 -0.090302 0.433776 -0.082532 0.013527
    19 -0.033420 -1.397129 -0.011257 -1.537260 0.000000 -0.000001
    20 -0.022360 -0.957436 0.018784 -1.081976 0.000000 0.000000
    21 -1.180681 -2.507217 -0.193859 -1.177585 0.117596 -0.331523
    22 -0.024967 -1.123934 0.017597 -0.774766 0.000000 0.000001
    23 -0.020057 -0.890968 0.010090 -0.891384 0.000000 0.000000
    24 0.583510 -1.197277 0.185379 0.382592 -0.620432 -0.748175
    25 1.535927 0.010246 0.005009 -0.002964 -0.012979 -0.838954
    26 1.100771 0.004527 -0.010679 -0.012827 0.009921 -0.736218
    27 0.120153 -0.050270 -0.054489 0.287569 3.110905 1.561085
    28 -8.468323 -15.969869 -9.224221 -0.897940 -0.016617 -1.574036
    29 0.096944 -8.450418 -0.009365 0.298265 0.728085 0.305498
    30 0.447953 -2.798986 -0.200443 -0.785694 0.072933 0.183371
    31 -0.032909 -1.480204 0.004940 -1.423746 0.000000 0.000002
    32 -0.027022 -1.076920 -0.020210 -0.205924 0.000000 0.000000
    33 -0.249534 -2.846964 -0.174213 -0.666757 -0.000125 -0.008396
    34 0.043235 -1.683941 0.096012 -0.729742 0.002823 -0.000167
    35 0.031729 -1.160830 0.058838 -0.456198 0.000642 0.008372
    36 -0.963866 -2.785145 -0.085350 -0.240883 0.163163 -0.073052
    37 0.028479 -1.403067 0.006271 -0.914803 0.000000 0.000000
    38 0.021413 -0.957781 0.020046 0.071792 0.000000 0.000000
    39 1.164475 -2.543940 -0.170330 -0.677886 0.010016 0.200244
    40 0.024032 -1.129042 0.017807 -1.375395 0.000000 0.000001
    41 0.014898 -0.883989 -0.019848 -0.893146 0.000000 0.000000
    42 -0.586770 -1.264477 0.200161 -0.552597 -0.787580 -2.393461
    43 1.522835 0.058681 0.016848 0.001410 0.008985 0.069371
    44 1.117947 0.048424 -0.005766 -0.013402 -0.021351 0.616699
    45 -0.139399 -0.111698 0.014397 -0.220558 0.409467 1.305270
    46 -3.268527 9.159499 -0.036302 1.601549 0.016669 -1.329001
  time 3
    0 18.379467 4.424313 -5.821858 -0.317787 3.596450 2.484082
    1 10.226875 -24.498237 -34.622480 -4.458689 0.004062 2.490757
    2 13.008208 10.193385 -33.278689 -4.986352 -0.177236 -2.845753
    3 23.653065 13.405447 -35.154785 -4.986352 -0.177236 -2.845753
    4 89.735512 36.616081 -14.070349 -1.570777 -1.138185 1.570796
    5 38.153828 -10.833106 6.393817 -0.317792 -2.686601 2.484038
    6 0.000004 99.890709 0.000021 0.000000 0.000000 0.000000
    7 -42.359509 -4.725811 -10.784075 -0.873495 2.881110 1.272517
    8 -2.424590 -0.002752 -3.503394 0.000000 0.000000 1.490787
    9 3.809936 -11.338861 -2.448275 0.259465 -2.921052 0.108689
    10 2.550188 9.129783 0.217392 1.426741 3.094122 1.420255
    11 -0.071921 -8.498736 -0.104134 -0.514825 0.086328 -0.283620
    12 -0.488518 -2.755602 -0.228260 -0.971181 0.051942 -0.186015
    13 0.039887 -1.479790 0.029854 -1.432676 0.000000 0.000001
    14 0.028786 -1.075731 -0.023109 -0.818744 0.000000 0.000000
    15 0.250027 -2.820665 -0.238396 -0.445714 -0.002921 0.008443
    16 -0.049759 -1.680544 0.100479 -1.878786 0.000000 -0.000002
    17 -0.034142 -1.148312 0.084782 -0.639028 0.000000 0.000000
    18 0.957766 -2.746780 -0.090302 0.433776 -0.082532 0.013527
    19 -0.033420 -1.397129 -0.011257 -1.537260 0.000000 -0.000001
    20 -0.022360 -0.957436 0.018784 -1.081976 0.000000 0.000000
    21 -1.180681 -2.507217 -0.193859 -1.177585 0.117596 -0.331523
    22 -0.024967 -1.123934 0.017597 -0.774766 0.000000 0.000001
    23 -0.020057 -0.890968 0.010090 -0.891384 0.000000 0.000000
    24 0.583510 -1.197277 0.185379 0.382592 -0.620432 -0.748175
    25 1.535927 0.010246 0.005009 -0.002964 -0.012979 -0.838954
    26 1.100771 0.004527 -0.010679 -0.012827 0.009921 -0.736218
    27 0.120153 -0.050270 -0.054489 0.287569 3.110905 1.561085
    28 5.976524 -9.164974 -10.056278 -0.588663 0.002224 -0.029503
    29 0.096944 -8.450418 -0.009365 0.298265 0.728085 0.305498
    30 0.447953 -2.798986 -0.200443 -0.785694 0.072933 0.183371
    31 -0.032909 -1.480204 0.004940 -1.423746 0.000000 0.000002
    32 -0.027022 -1.076920 -0.020210 -0.205924 0.000000 0.000000
    33 -0.249534 -2.846964 -0.174213 -0.666757 -0.000125 -0.008396
    34 0.043235 -1.683941 0.096012 -0.729742 0.002823 -0.000167
    35 0.031729 -1.160830 0.058838 -0.456198 0.000642 0.008372
    36 -0.963866 -2.785145 -0.085350 -0.240883 0.163163 -0.073052
    37 0.028479 -1.403067 0.006271 -0.914803 0.000000 0.000000
    38 0.021413 -0.957781 0.020046 0.071792 0.000000 0.000000
    39 1.164475 -2.543940 -0.170330 -0.677886 0.010016 0.200244
    40 0.024032 -1.129042 0.017807 -1.375395 0.000000 0.000001
    41 0.014898 -0.883989 -0.019848 -0.893146 0.000000 0.000000
    42 -0.586770 -1.264477 0.200161 -0.552597 -0.787580 -2.393461
    43 1.522835 0.058681 0.016848 0.001410 0.008985 0.069371
    44 1.117947 0.048424 -0.005766 -0.013402 -0.021351 0.616699
    45 -0.139399 -0.111698 0.014397 -0.220573 0.409467 1.305270
    46 -3.268527 9.159499 -0.036302 1.601549 0.016669 -1.329001
  time 4
    0 10.004212 18.289523 -11.810322 -3.532199 0.056905 0.604213
    1 10.226875 -24.498237 -34.622480 -4.458689 0.004062 2.490757
    2 13.008208 10.193385 -33.278689 -4.986352 -0.177236 -2.845753
    3 23.653065 13.405447 -35.154785 -4.986352 -0.177236 -2.845753
    4 89.735512 36.616081 -14.070349 -1.570777 -1.138185 1.570796
    5 32.852885 34.060038 -13.391943 -3.532215 0.056850 0.604218
    6 -1.226596 95.472605 -0.167953 0.000000 0.000000 0.000000
    7 -42.359509 -4.725811 -10.784075 -0.873495 2.881110 1.272517
    8 -2.424590 -0.002752 -3.503394 0.000000 0.000000 1.490787
    9 10.732022 -9.631777 -6.089011 6.252178 2.949654 1.258553
    10 2.550188 9.129783 0.217392 1.426741 3.094122 1.420255
    11 -0.071921 -8.498736 -0.104134 -0.722023 0.167952 -0.428464
    12 -0.488518 -2.755602 -0.228260 -0.971181 0.051942 -0.186015
    13 0.039887 -1.479790 0.029854 -1.432676 0.000000 0.000001
    14 0.028786 -1.075731 -0.023109 -0.818744 0.000000 0.000000
    15 0.250027 -2.820665 -0.238396 -0.445714 -0.002921 0.008443
    16 -0.049759 -1.680544 0.100479 -1.878786 0.000000 -0.000002
    17 -0.034142 -1.148312 0.084782 -0.639028 0.000000 0.000000
    18 0.957766 -2.746780 -0.090302 0.433776 -0.082532 0.013527
    19 -0.033420 -1.397129 -0.011257 -1.537260 0.000000 -0.000001
    20 -0.022360 -0.957436 0.018784 -1.081976 0.000000 0.000000
    21 -1.180681 -2.507217 -0.193859 -1.177585 0.117596 -0.331523
    22 -0.024967 -1.123934 0.017597 -0.774766 0.000000 0.000001
    23 -0.020057 -0.890968 0.010090 -0.891384 0.000000 0.000000
    24 0.583510 -1.197277 0.185379 0.382592 -0.620432 -0.748175
    25 1.535927 0.010246 0.005009 -0.002964 -0.012979 -0.838954
    26 1.100771 0.004527 -0.010679 -0.012827 0.009921 -0.736218
    27 0.120153 -0.050270 -0.054489 0.287569 3.110905 1.561085
    28 6.735865 -5.742994 -10.017214 -0.106906 -0.191737 1.170683
    29 0.096944 -8.450418 -0.009365 0.298265 0.728085 0.305498
    30 0.447953 -2.798986 -0.200443 -0.785694 0.072933 0.183371
    31 -0.032909 -1.480204 0.004940 -1.423746 0.000000 0.000002
    32 -0.027022 -1.076920 -0.020210 -0.205924 0.000000 0.000000
    33 -0.249534 -2.846964 -0.174213 -0.666757 -0.000125 -0.008396
    34 0.043235 -1.683941 0.096012 -0.729742 0.002823 -0.000167
    35 0.031729 -1.160830 0.058838 -0.456198 0.000642 0.008372
    36 -0.963866 -2.785145 -0.085350 -0.240883 0.163163 -0.073052
    37 0.028479 -1.403067 0.006271 -0.914803 0.000000 0.000000
    38 0.021413 -0.957781 0.020046 0.071792 0.000000 0.000000
    39 1.164475 -2.543940 -0.170330 -0.677886 0.010016 0.200244
    40 0.024032 -1.129042 0.017807 -1.375395 0.000000 0.000001
    41 0.014898 -0.883989 -0.019848 -0.893146 0.000000 0.000000
    42 -0.586770 -1.264477 0.200161 -0.552597 -0.787580 -2.393461
    43 1.522835 0.058681 0.016848 0.001410 0.008985 0.069371
    44 1.117947 0.048424 -0.005766 -0.013402 -0.021351 0.616699
    45 -0.139399 -0.111698 0.014397 -0.220558 0.409467 1.305270
    46 -3.268527 9.159499 -0.036302 1.601549 0.016669 -1.329001
  time 5
    0 9.301065 58.789020 -31.474985 -3.532199 0.056905 0.604213
    1 10.226875 -24.498237 -34.622480 -4.458689 0.004062 2.490757
    2 13.008208 10.193385 -33.278689 -4.986352 -0.177236 -2.845753
    3 23.653065 13.405447 -35.154785 -4.986352 -0.177236 -2.845753
    4 89.735512 36.616081 -14.070349 -1.570777 -1.138185 1.570796
    5 32.149739 74.561138 -33.056605 -3.532215 0.056850 0.604218
    6 -3.929803 84.636337 -0.542964 0.000000 0.000000 0.000000
    7 -42.359509 -4.725811 -10.784075 -0.873495 2.881110 1.272517
    8 -2.424590 -0.002752 -3.503394 0.000000 0.000000 1.490787
    9 51.045752 -5.698064 -25.749767 6.252178 2.949654 1.258553
    10 2.550188 9.129783 0.217392 1.426741 3.094122 1.420255
    11 -0.071921 -8.498736 -0.104134 -0.722023 0.167952 -0.428464
    12 -0.488518 -2.755602 -0.228260 -0.971181 0.051942 -0.186015
    13 0.039887 -1.479790 0.029854 -1.432676 0.000000 0.000001
    14 0.028786 -1.075731 -0.023109 -0.818744 0.000000 0.000000
    15 0.250027 -2.820665 -0.238396 -0.445714 -0.002921 0.008443
    16 -0.049759 -1.680544 0.100479 -1.878786 0.000000 -0.000002
    17 -0.034142 -1.148312 0.084782 -0.639028 0.000000 0.000000
    18 0.957766 -2.746780 -0.090302 0.433776 -0.082532 0.013527
    19 -0.033420 -1.397129 -0.011257 -1.537260 0.000000 -0.000001
    20 -0.022360 -0.957436 0.018784 -1.081976 0.000000 0.000000
    21 -1.180681 -2.507217 -0.193859 -1.177585 0.117596 -0.331523
    22 -0.024967 -1.123934 0.017597 -0.774766 0.000000 0.000001
    23 -0.020057 -0.890968 0.010090 -0.891384 0.000000 0.000000
    24 0.583510 -1.197277 0.185379 0.382592 -0.620432 -0.748175
    25 1.535927 0.010246 0.005009 -0.002964 -0.012979 -0.838954
    26 1.100771 0.004527 -0.010679 -0.012827 0.009921 -0.736218
    27 0.120153 -0.050270 -0.054489 0.287569 3.110905 1.561085
    28 47.050394 -1.813187 -29.677970 -0.106906 -0.191737 1.170683
    29 0.096944 -8.450418 -0.009365 0.298265 0.728085 0.305498
    30 0.447953 -2.798986 -0.200443 -0.785694 0.072933 0.183371
    31 -0.032909 -1.480204 0.004940 -1.423746 0.000000 0.000002
    32 -0.027022 -1.076920 -0.020210 -0.205924 0.000000 0.000000
    33 -0.249534 -2.846964 -0.174213 -0.666757 -0.000125 -0.008396
    34 0.043235 -1.683941 0.096012 -0.729742 0.002823 -0.000167
    35 0.031729 -1.160830 0.058838 -0.456198 0.000642 0.008372
    36 -0.963866 -2.785145 -0.085350 -0.240883 0.163163 -0.073052
    37 0.028479 -1.403067 0.006271 -0.914803 0.000000 0.000000
    38 0.021413 -0.957781 0.020046 0.071792 0.000000 0.000000
    39 1.164475 -2.543940 -0.170330 -0.677886 0.010016 0.200244
    40 0.024032 -1.129042 0.017807 -1.375395 0.000000 0.000001
    41 0.014898 -0.883989 -0.019848 -0.893146 0.000000 0.000000
    42 -0.586770 -1.264477 0.200161 -0.552597 -0.787580 -2.393461
    43 1.522835 0.058681 0.016848 0.001410 0.008985 0.069371
    44 1.117947 0.048424 -0.005766 -0.013402 -0.021351 0.616699
    45 -0.139399 -0.111698 0.014397 -0.220558 0.409467 1.305270
    46 -3.268527 9.159499 -0.036302 1.601549 0.016669 -1.329001
  time 6
    0 9.652638 115.867543 -58.507060 -3.532199 0.056905 0.604213
    1 10.226875 -24.498237 -34.622480 -4.458689 0.004062 2.490757
    2 13.008208 10.193385 -33.278689 -4.986352 -0.177236 -2.845753
    3 23.653065 13.405447 -35.154785 -4.986352 -0.177236 -2.845753
    4 89.735512 36.616081 -14.070349 -1.570777 -1.138185 1.570796
    5 32.501312 131.637863 -60.088680 -3.532215 0.056850 0.604218
    6 -6.633011 71.026547 -0.917976 0.000000 0.000000 0.000000
    7 -42.359509 -4.725811 -10.784075 -0.873495 2.881110 1.272517
    8 -2.424590 -0.002752 -3.503394 0.000000 0.000000 1.490787
    9 107.969364 -1.490904 -52.781842 6.252178 2.949654 1.258553
    10 2.550188 9.129783 0.217392 1.426741 3.094122 1.420255
    11 -0.071921 -8.498736 -0.104134 -0.722023 0.167952 -0.428464
    12 -0.488518 -2.755602 -0.228260 -0.971181 0.051942 -0.186015
    13 0.039887 -1.479790 0.029854 -1.432676 0.000000 0.000001
    14 0.028786 -1.075731 -0.023109 -0.818744 0.000000 0.000000
    15 0.250027 -2.820665 -0.238396 -0.445714 -0.002921 0.008443
    16 -0.049759 -1.680544 0.100479 -1.878786 0.000000 -0.000002
    17 -0.034142 -1.148312 0.084782 -0.639028 0.000000 0.000000
    18 0.957766 -2.746780 -0.090302 0.433776 -0.082532 0.013527
    19 -0.033420 -1.397129 -0.011257 -1.537260 0.000000 -0.000001
    20 -0.022360 -0.957436 0.018784 -1.081976 0.000000 0.000000
    21 -1.180681 -2.507217 -0.193859 -1.177585 0.117596 -0.331523
    22 -0.024967 -1.123934 0.017597 -0.774766 0.000000 0.000001
    23 -0.020057 -0.890968 0.010090 -0.891384 0.000000 0.000000
    24 0.583510 -1.197277 0.185379 0.382592 -0.620432 -0.748175
    25 1.535927 0.010246 0.005009 -0.002964 -0.012979 -0.838954
    26 1.100771 0.004527 -0.010679 -0.012827 0.009921 -0.736218
    27 0.120153 -0.050270 -0.054489 0.287569 3.110905 1.561085
    28 103.974978 2.397879 -56.713951 -0.106906 -0.191737 1.170683
    29 0.096944 -8.450418 -0.009365 0.298265 0.728085 0.305498
    30 0.447953 -2.798986 -0.200443 -0.785694 0.072933 0.183371
    31 -0.032909 -1.480204 0.004940 -1.423746 0.000000 0.000002
    32 -0.027022 -1.076920 -0.020210 -0.205924 0.000000 0.000000
    33 -0.249534 -2.846964 -0.174213 -0.666757 -0.000125 -0.008396
    34 0.043235 -1.683941 0.096012 -0.729742 0.002823 -0.000167
    35 0.031729 -1.160830 0.058838 -0.456198 0.000642 0.008372
    36 -0.963866 -2.785145 -0.085350 -0.240883 0.163163 -0.073052
    37 0.028479 -1.403067 0.006271 -0.914803 0.000000 0.000000
    38 0.021413 -0.957781 0.020046 0.071792 0.000000 0.000000
    39 1.164475 -2.543940 -0.170330 -0.677886 0.010016 0.200244
    40 0.024032 -1.129042 0.017807 -1.375395 0.000000 0.000001
    41 0.014898 -0.883989 -0.019848 -0.893146 0.000000 0.000000
    42 -0.586770 -1.264477 0.200161 -0.552597 -0.787580 -2.393461
    43 1.522835 0.058681 0.016848 0.001410 0.008985 0.069371
    44 1.117947 0.048424 -0.005766 -0.013402 -0.021351 0.616699
    45 -0.139399 -0.111698 0.014397 -0.220558 0.409467 1.305270
    46 -3.268527 9.159499 -0.036302 1.601549 0.016669 -1.329001
  time 7
    0 10.004212 144.822274 -72.136382 -3.532199 0.056905 0.604213
    1 10.226875 -24.498237 -34.622480 -4.458689 0.004062 2.490757
    2 13.008208 10.193385 -33.278689 -4.986352 -0.177236 -2.845753
    3 23.653065 13.405447 -35.154785 -4.986352 -0.177236 -2.845753
    4 89.735512 36.616081 -14.070349 -1.570777 -1.138185 1.570796
    5 32.852885 160.595578 -73.718002 -3.532215 0.056850 0.604218
    6 -7.863517 58.287877 -1.085950 0.000000 0.000000 0.000000
    7 -42.359509 -4.725811 -10.784075 -0.873495 2.881110 1.272517
    8 -2.424590 -0.002752 -3.503394 0.000000 0.000000 1.490787
    9 136.860871 0.477906 -66.411165 6.252178 2.949654 1.258553
    10 2.550188 9.129783 0.217392 1.426741 3.094122 1.420255
    11 -0.071921 -8.498736 -0.104134 -0.722023 0.167952 -0.428464
    12 -0.488518 -2.755602 -0.228260 -0.971181 0.051942 -0.186015
    13 0.039887 -1.479790 0.029854 -1.432676 0.000000 0.000001
    14 0.028786 -1.075731 -0.023109 -0.818744 0.000000 0.000000
    15 0.250027 -2.820665 -0.238396 -0.445714 -0.002921 0.008443
    16 -0.049759 -1.680544 0.100479 -1.878786 0.000000 -0.000002
    17 -0.034142 -1.148312 0.084782 -0.639028 0.000000 0.000000
    18 0.957766 -2.746780 -0.090302 0.433776 -0.082532 0.013527
    19 -0.033420 -1.397129 -0.011257 -1.537260 0.000000 -0.000001
    20 -0.022360 -0.957436 0.018784 -1.081976 0.000000 0.000000
    21 -1.180681 -2.507217 -0.193859 -1.177585 0.117596 -0.331523
    22 -0.024967 -1.123934 0.017597 -0.774766 0.000000 0.000001
    23 -0.020057 -0.890968 0.010090 -0.891384 0.000000 0.000000
    24 0.583510 -1.197277 0.185379 0.382592 -0.620432 -0.748175
    25 1.535927 0.010246 0.005009 -0.002964 -0.012979 -0.838954
    26 1.100771 0.004527 -0.010679 -0.012827 0.009921 -0.736218
    27 0.120153 -0.050270 -0.054489 0.287569 3.110905 1.561085
    28 132.869010 4.362783 -70.339367 -0.106906 -0.191737 1.170683
    29 0.096944 -8.450418 -0.009365 0.298265 0.728085 0.305498
    30 0.447953 -2.798986 -0.200443 -0.785694 0.072933 0.183371
    31 -0.032909 -1.480204 0.004940 -1.423746 0.000000 0.000002
    32 -0.027022 -1.076920 -0.020210 -0.205924 0.000000 0.000000
    33 -0.249534 -2.846964 -0.174213 -0.666757 -0.000125 -0.008396
    34 0.043235 -1.683941 0.096012 -0.729742 0.002823 -0.000167
    35 0.031729 -1.160830 0.058838 -0.456198 0.000642 0.008372
    36 -0.963866 -2.785145 -0.085350 -0.240883 0.163163 -0.073052
    37 0.028479 -1.403067 0.006271 -0.914803 0.000000 0.000000
    38 0.021413 -0.957781 0.020046 0.071792 0.000000 0.000000
    39 1.164475 -2.543940 -0.170330 -0.677886 0.010016 0.200244
    40 0.024032 -1.129042 0.017807 -1.375395 0.000000 0.000001
    41 0.014898 -0.883989 -0.019848 -0.893146 0.000000 0.000000
    42 -0.586770 -1.264477 0.200161 -0.552597 -0.787580 -2.393461
    43 1.522835 0.058681 0.016848 0.001410 0.008985 0.069371
    44 1.117947 0.048424 -0.005766 -0.013402 -0.021351 0.616699
    45 -0.139399 -0.111698 0.014397 -0.220558 0.409467 1.305270
    46 -3.268527 9.159499 -0.036302 1.601549 0.016669 -1.329001
  time 8
    0 9.988586 144.137190 -71.804340 -3.532199 0.056905 0.604213
    1 10.226875 -24.498237 -34.622480 -4.458689 0.004062 2.490757
    2 13.008208 10.193385 -33.278689 -4.986352 -0.177236 -2.845753
    3 23.653065 13.405447 -35.154785 -4.986352 -0.177236 -2.845753
    4 89.735512 36.616081 -14.070349 -1.570777 -1.138185 1.570796
    5 32.837260 159.910717 -73.385961 -3.532215 0.056850 0.604218
    6 -7.047086 45.135132 -0.972665 0.000000 0.000000 0.000000
    7 -42.359509 -4.725811 -10.784075 -0.873495 2.881110 1.272517
    8 -2.424590 -0.002752 -3.503394 0.000000 0.000000 1.490787
    9 136.177256 0.434936 -66.079123 6.252178 2.949654 1.258553
    10 2.550188 9.129783 0.217392 1.426741 3.094122 1.420255
    11 -0.071921 -8.498736 -0.104134 -0.722023 0.167952 -0.428464
    12 -0.488518 -2.755602 -0.228260 -0.971181 0.051942 -0.186015
    13 0.039887 -1.479790 0.029854 -1.432676 0.000000 0.000001
    14 0.028786 -1.075731 -0.023109 -0.818744 0.000000 0.000000
    15 0.250027 -2.820665 -0.238396 -0.445714 -0.002921 0.008443
    16 -0.049759 -1.680544 0.100479 -1.878786 0.000000 -0.000002
    17 -0.034142 -1.148312 0.084782 -0.639028 0.000000 0.000000
    18 0.957766 -2.746780 -0.090302 0.433776 -0.082532 0.013527
    19 -0.033420 -1.397129 -0.011257 -1.537260 0.000000 -0.000001
    20 -0.022360 -0.957436 0.018784 -1.081976 0.000000 0.000000
    21 -1.180681 -2.507217 -0.193859 -1.177585 0.117596 -0.331523
    22 -0.024967 -1.123934 0.017597 -0.774766 0.000000 0.000001
    23 -0.020057 -0.890968 0.010090 -0.891384 0.000000 0.000000
    24 0.583510 -1.197277 0.185379 0.382592 -0.620432 -0.748175
    25 1.535927 0.010246 0.005009 -0.002964 -0.012979 -0.838954
    26 1.100771 0.004527 -0.010679 -0.012827 0.009921 -0.736218
    27 0.120153 -0.050270 -0.054489 0.287569 3.110905 1.561085
    28 132.179094 4.323719 -70.007326 -0.106906 -0.191737 1.170683
    29 0.096944 -8.450418 -0.009365 0.298265 0.728085 0.305498
    30 0.447953 -2.798986 -0.200443 -0.785694 0.072933 0.183371
    31 -0.032909 -1.480204 0.004940 -1.423746 0.000000 0.000002
    32 -0.027022 -1.076920 -0.020210 -0.205924 0.000000 0.000000
    33 -0.249534 -2.846964 -0.174213 -0.666757 -0.000125 -0.008396
    34 0.043235 -1.683941 0.096012 -0.729742 0.002823 -0.000167
    35 0.031729 -1.160830 0.058838 -0.456198 0.000642 0.008372
    36 -0.963866 -2.785145 -0.085350 -0.240883 0.163163 -0.073052
    37 0.028479 -1.403067 0.006271 -0.914803 0.000000 0.000000
    38 0.021413 -0.957781 0.020046 0.071792 0.000000 0.000000
    39 1.164475 -2.543940 -0.170330 -0.677886 0.010016 0.200244
    40 0.024032 -1.129042 0.017807 -1.375395 0.000000 0.000001
    41 0.014898 -0.883989 -0.019848 -0.893146 0.000000 0.000000
    42 -0.586770 -1.264477 0.200161 -0.552597 -0.787580 -2.393461
    43 1.522835 0.058681 0.016848 0.001410 0.008985 0.069371
    44 1.117947 0.048424 -0.005766 -0.013402 -0.021351 0.616699
    45 -0.139399 -0.111698 0.014397 -0.220558 0.409467 1.305270
    46 -3.268527 9.159499 -0.036302 1.601549 0.016669 -1.329001
  time 9
    0 9.949522 142.152657 -70.847280 -3.532199 0.056905 0.604213
    1 10.226875 -24.498237 -34.622480 -4.458689 0.004062 2.490757
    2 13.008208 10.193385 -33.278689 -4.986352 -0.177236 -2.845753
    3 23.653065 13.405447 -35.154785 -4.986352 -0.177236 -2.845753
    4 89.735512 36.616081 -14.070349 -1.570777 -1.138185 1.570796
    5 32.798196 157.925612 -72.428900 -3.532215 0.056850 0.604218
    6 -5.093901 29.810445 -0.703125 0.000000 0.000000 0.000000
    7 -42.359509 -4.725811 -10.784075 -0.873495 2.881110 1.272517
    8 -2.424590 -0.002752 -3.503394 0.000000 0.000000 1.490787
    9 134.196727 0.317745 -65.122063 6.252178 2.949654 1.258553
    10 2.550188 9.129783 0.217392 1.426741 3.094122 1.420255
    11 -0.071921 -8.498736 -0.104134 -0.722023 0.167952 -0.428464
    12 -0.488518 -2.755602 -0.228260 -0.971181 0.051942 -0.186015
    13 0.039887 -1.479790 0.029854 -1.432676 0.000000 0.000001
    14 0.028786 -1.075731 -0.023109 -0.818744 0.000000 0.000000
    15 0.250027 -2.820665 -0.238396 -0.445714 -0.002921 0.008443
    16 -0.049759 -1.680544 0.100479 -1.878786 0.000000 -0.000002
    17 -0.034142 -1.148312 0.084782 -0.639028 0.000000 0.000000
    18 0.957766 -2.746780 -0.090302 0.433776 -0.082532 0.013527
    19 -0.033420 -1.397129 -0.011257 -1.537260 0.000000 -0.000001
    20 -0.022360 -0.957436 0.018784 -1.081976 0.000000 0.000000
    21 -1.180681 -2.507217 -0.193859 -1.177585 0.117596 -0.331523
    22 -0.024967 -1.123934 0.017597 -0.774766 0.000000 0.000001
    23 -0.020057 -0.890968 0.010090 -0.891384 0.000000 0.000000
    24 0.583510 -1.197277 0.185379 0.382592 -0.620432 -0.748175
    25 1.535927 0.010246 0.005009 -0.002964 -0.012979 -0.838954
    26 1.100771 0.004527 -0.010679 -0.012827 0.009921 -0.736218
    27 0.120153 -0.050270 -0.054489 0.287569 3.110905 1.561085
    28 130.200467 4.206528 -69.050265 -0.106906 -0.191737 1.170683
    29 0.096944 -8.450418 -0.009365 0.298265 0.728085 0.305498
    30 0.447953 -2.798986 -0.200443 -0.785694 0.072933 0.183371
    31 -0.032909 -1.480204 0.004940 -1.423746 0.000000 0.000002
    32 -0.027022 -1.076920 -0.020210 -0.205924 0.000000 0.000000
    33 -0.249534 -2.846964 -0.174213 -0.666757 -0.000125 -0.008396
    34 0.043235 -1.683941 0.096012 -0.729742 0.002823 -0.000167
    35 0.031729 -1.160830 0.058838 -0.456198 0.000642 0.008372
    36 -0.963866 -2.785145 -0.085350 -0.240883 0.163163 -0.073052
    37 0.028479 -1.403067 0.006271 -0.914803 0.000000 0.000000
    38 0.021413 -0.957781 0.020046 0.071792 0.000000 0.000000
    39 1.164475 -2.543940 -0.170330 -0.677886 0.010016 0.200244
    40 0.024032 -1.129042 0.017807 -1.375395 0.000000 0.000001
    41 0.014898 -0.883989 -0.019848 -0.893146 0.000000 0.000000
    42 -0.586770 -1.264477 0.200161 -0.552597 -0.787580 -2.393461
    43 1.522835 0.058681 0.016848 0.001410 0.008985 0.069371
    44 1.117947 0.048424 -0.005766 -0.013402 -0.021351 0.616699
    45 -0.139399 -0.111698 0.014397 -0.220558 0.409467 1.305270
    46 -3.268527 9.159499 -0.036302 1.601549 0.016669 -1.329001
  time 10
    0 9.887020 138.996852 -69.323796 -3.532199 0.056905 0.604213
    1 10.226875 -24.498237 -34.622480 -4.458689 0.004062 2.490757
    2 13.008208 10.193385 -33.278689 -4.986352 -0.177236 -2.845753
    3 23.653065 13.405447 -35.154785 -4.986352 -0.177236 -2.845753
    4 89.735512 36.616081 -14.070349 -1.570777 -1.138185 1.570796
    5 32.735694 154.769296 -70.905416 -3.532215 0.056850 0.604218
    6 -2.765705 15.239688 -0.382803 0.000000 0.000000 0.000000
    7 -42.359509 -4.725811 -10.784075 -0.873495 2.881110 1.272517
    8 -2.424590 -0.002752 -3.503394 0.000000 0.000000 1.490787
    9 131.044287 0.126333 -63.598579 6.252178 2.949654 1.258553
    10 2.550188 9.129783 0.217392 1.426741 3.094122 1.420255
    11 -0.071921 -8.498736 -0.104134 -0.722023 0.167952 -0.428464
    12 -0.488518 -2.755602 -0.228260 -0.971181 0.051942 -0.186015
    13 0.039887 -1.479790 0.029854 -1.432676 0.000000 0.000001
    14 0.028786 -1.075731 -0.023109 -0.818744 0.000000 0.000000
    15 0.250027 -2.820665 -0.238396 -0.445714 -0.002921 0.008443
    16 -0.049759 -1.680544 0.100479 -1.878786 0.000000 -0.000002
    17 -0.034142 -1.148312 0.084782 -0.639028 0.000000 0.000000
    18 0.957766 -2.746780 -0.090302 0.433776 -0.082532 0.013527
    19 -0.033420 -1.397129 -0.011257 -1.537260 0.000000 -0.000001
    20 -0.022360 -0.957436 0.018784 -1.081976 0.000000 0.000000
    21 -1.180681 -2.507217 -0.193859 -1.177585 0.117596 -0.331523
    22 -0.024967 -1.123934 0.017597 -0.774766 0.000000 0.000001
    23 -0.020057 -0.890968 0.010090 -0.891384 0.000000 0.000000
    24 0.583510 -1.197277 0.185379 0.382592 -0.620432 -0.748175
    25 1.535927 0.010246 0.005009 -0.002964 -0.012979 -0.838954
    26 1.100771 0.004527 -0.010679 -0.012827 0.009921 -0.736218
    27 0.120153 -0.050270 -0.054489 0.287569 3.110905 1.561085
    28 127.050284 4.015116 -67.530688 -0.106906 -0.191737 1.170683
    29 0.096944 -8.450418 -0.009365 0.298265 0.728085 0.305498
    30 0.447953 -2.798986 -0.200443 -0.785694 0.072933 0.183371
    31 -0.032909 -1.480204 0.004940 -1.423746 0.000000 0.000002
    32 -0.027022 -1.076920 -0.020210 -0.205924 0.000000 0.000000
    33 -0.249534 -2.846964 -0.174213 -0.666757 -0.000125 -0.008396
    34 0.043235 -1.683941 0.096012 -0.729742 0.002823 -0.000167
    35 0.031729 -1.160830 0.058838 -0.456198 0.000642 0.008372
    36 -0.963866 -2.785145 -0.085350 -0.240883 0.163163 -0.073052
    37 0.028479 -1.403067 0.006271 -0.914803 0.000000 0.000000
    38 0.021413 -0.957781 0.020046 0.071792 0.000000 0.000000
    39 1.164475 -2.543940 -0.170330 -0.677886 0.010016 0.200244
    40 0.024032 -1.129042 0.017807 -1.375395 0.000000 0.000001
    41 0.014898 -0.883989 -0.019848 -0.893146 0.000000 0.000000
    42 -0.586770 -1.264477 0.200161 -0.552597 -0.787580 -2.393461
    43 1.522835 0.058681 0.016848 0.001410 0.008985 0.069371
    44 1.117947 0.048424 -0.005766 -0.013402 -0.021351 0.616699
    45 -0.139399 -0.111698 0.014397 -0.220558 0.409467 1.305270
    46 -3.268527 9.159499 -0.036302 1.601549 0.016669 -1.329001
  time 11
    0 9.804987 134.789113 -67.296390 -3.532199 0.056905 0.604213
    1 10.226875 -24.498237 -34.622480 -4.458689 0.004062 2.490757
    2 13.008208 10.193385 -33.278689 -4.986352 -0.177236 -2.845753
    3 23.653065 13.405447 -35.154785 -4.986352 -0.177236 -2.845753
    4 89.735512 36.616081 -14.070349 -1.570777 -1.138185 1.570796
    5 32.653660 150.560874 -68.878011 -3.532215 0.056850 0.604218
    6 -0.816427 4.352637 -0.113264 0.000000 0.000000 0.000000
    7 -42.359509 -4.725811 -10.784075 -0.873495 2.881110 1.272517
    8 -2.424590 -0.002752 -3.503394 0.000000 0.000000 1.490787
    9 126.844940 -0.131487 -61.571173 6.252178 2.949654 1.258553
    10 2.550188 9.129783 0.217392 1.426741 3.094122 1.420255
    11 -0.071921 -8.498736 -0.104134 -0.722023 0.167952 -0.428464
    12 -0.488518 -2.755602 -0.228260 -0.971181 0.051942 -0.186015
    13 0.039887 -1.479790 0.029854 -1.432676 0.000000 0.000001
    14 0.028786 -1.075731 -0.023109 -0.818744 0.000000 0.000000
    15 0.250027 -2.820665 -0.238396 -0.445714 -0.002921 0.008443
    16 -0.049759 -1.680544 0.100479 -1.878786 0.000000 -0.000002
    17 -0.034142 -1.148312 0.084782 -0.639028 0.000000 0.000000
    18 0.957766 -2.746780 -0.090302 0.433776 -0.082532 0.013527
    19 -0.033420 -1.397129 -0.011257 -1.537260 0.000000 -0.000001
    20 -0.022360 -0.957436 0.018784 -1.081976 0.000000 0.000000
    21 -1.180681 -2.507217 -0.193859 -1.177585 0.117596 -0.331523
    22 -0.024967 -1.123934 0.017597 -0.774766 0.000000 0.000001
    23 -0.020057 -0.890968 0.010090 -0.891384 0.000000 0.000000
    24 0.583510 -1.197277 0.185379 0.382592 -0.620432 -0.748175
    25 1.535927 0.010246 0.005009 -0.002964 -0.012979 -0.838954
    26 1.100771 0.004527 -0.010679 -0.012827 0.009921 -0.736218
    27 0.120153 -0.050270 -0.054489 0.287569 3.110905 1.561085
    28 122.850040 3.757296 -65.503282 -0.106906 -0.191737 1.170683
    29 0.096944 -8.450418 -0.009365 0.298265 0.728085 0.305498
    30 0.447953 -2.798986 -0.200443 -0.785694 0.072933 0.183371
    31 -0.032909 -1.480204 0.004940 -1.423746 0.000000 0.000002
    32 -0.027022 -1.076920 -0.020210 -0.205924 0.000000 0.000000
    33 -0.249534 -2.846964 -0.174213 -0.666757 -0.000125 -0.008396
    34 0.043235 -1.683941 0.096012 -0.729742 0.002823 -0.000167
    35 0.031729 -1.160830 0.058838 -0.456198 0.000642 0.008372
    36 -0.963866 -2.785145 -0.085350 -0.240883 0.163163 -0.073052
    37 0.028479 -1.403067 0.006271 -0.914803 0.000000 0.000000
    38 0.021413 -0.957781 0.020046 0.071792 0.000000 0.000000
    39 1.164475 -2.543940 -0.170330 -0.677886 0.010016 0.200244
    40 0.024032 -1.129042 0.017807 -1.375395 0.000000 0.000001
    41 0.014898 -0.883989 -0.019848 -0.893146 0.000000 0.000000
    42 -0.586770 -1.264477 0.200161 -0.552597 -0.787580 -2.393461
    43 1.522835 0.058681 0.016848 0.001410 0.008985 0.069371
    44 1.117947 0.048424 -0.005766 -0.013402 -0.021351 0.616699
    45 -0.139399 -0.111698 0.014397 -0.220558 0.409467 1.305270
    46 -3.268527 9.159499 -0.036302 1.601549 0.016669 -1.329001
  time 12
    0 9.711234 129.657615 -64.823659 -3.532199 0.056905 0.604213
    1 10.226875 -24.498237 -34.622480 -4.458689 0.004062 2.490757
    2 13.008208 10.193385 -33.278689 -4.986352 -0.177236 -2.845753
    3 23.653065 13.405447 -35.154785 -4.986352 -0.177236 -2.845753
    4 89.735512 36.616081 -14.070349 -1.570777 -1.138185 1.570796
    5 32.559907 145.429378 -66.405279 -3.532215 0.056850 0.604218
    6 0.000004 0.071257 0.000021 0.000000 0.000000 0.000000
    7 -42.359509 -4.725811 -10.784075 -0.873495 2.881110 1.272517
    8 -2.424590 -0.002752 -3.503394 0.000000 0.000000 1.490787
    9 121.719784 -0.443997 -59.098441 6.252178 2.949654 1.258553
    10 2.550188 9.129783 0.217392 1.426741 3.094122 1.420255
    11 -0.071921 -8.498736 -0.104134 -0.722023 0.167952 -0.428464
    12 -0.488518 -2.755602 -0.228260 -0.971181 0.051942 -0.186015
    13 0.039887 -1.479790 0.029854 -1.432676 0.000000 0.000001
    14 0.028786 -1.075731 -0.023109 -0.818744 0.000000 0.000000
    15 0.250027 -2.820665 -0.238396 -0.445714 -0.002921 0.008443
    16 -0.049759 -1.680544 0.100479 -1.878786 0.000000 -0.000002
    17 -0.034142 -1.148312 0.084782 -0.639028 0.000000 0.000000
    18 0.957766 -2.746780 -0.090302 0.433776 -0.082532 0.013527
    19 -0.033420 -1.397129 -0.011257 -1.537260 0.000000 -0.000001
    20 -0.022360 -0.957436 0.018784 -1.081976 0.000000 0.000000
    21 -1.180681 -2.507217 -0.193859 -1.177585 0.117596 -0.331523
    22 -0.024967 -1.123934 0.017597 -0.774766 0.000000 0.000001
    23 -0.020057 -0.890968 0.010090 -0.891384 0.000000 0.000000
    24 0.583510 -1.197277 0.185379 0.382592 -0.620432 -0.748175
    25 1.535927 0.010246 0.005009 -0.002964 -0.012979 -0.838954
    26 1.100771 0.004527 -0.010679 -0.012827 0.009921 -0.736218
    27 0.120153 -0.050270 -0.054489 0.287569 3.110905 1.561085
    28 117.725569 3.440880 -63.026644 -0.106906 -0.191737 1.170683
    29 0.096944 -8.450418 -0.009365 0.298265 0.728085 0.305498
    30 0.447953 -2.798986 -0.200443 -0.785694 0.072933 0.183371
    31 -0.032909 -1.480204 0.004940 -1.423746 0.000000 0.000002
    32 -0.027022 -1.076920 -0.020210 -0.205924 0.000000 0.000000
    33 -0.249534 -2.846964 -0.174213 -0.666757 -0.000125 -0.008396
    34 0.043235 -1.683941 0.096012 -0.729742 0.002823 -0.000167
    35 0.031729 -1.160830 0.058838 -0.456198 0.000642 0.008372
    36 -0.963866 -2.785145 -0.085350 -0.240883 0.163163 -0.073052
    37 0.028479 -1.403067 0.006271 -0.914803 0.000000 0.000000
    38 0.021413 -0.957781 0.020046 0.071792 0.000000 0.000000
    39 1.164475 -2.543940 -0.170330 -0.677886 0.010016 0.200244
    40 0.024032 -1.129042 0.017807 -1.375395 0.000000 0.000001
    41 0.014898 -0.883989 -0.019848 -0.893146 0.000000 0.000000
    42 -0.586770 -1.264477 0.200161 -0.552597 -0.787580 -2.393461
    43 1.522835 0.058681 0.016848 0.001410 0.008985 0.069371
    44 1.117947 0.048424 -0.005766 -0.013402 -0.021351 0.616699
    45 -0.139399 -0.111698 0.014397 -0.220558 0.409467 1.305270
    46 -3.268527 9.159499 -0.036302 1.601549 0.016669 -1.329001
  time 13
    0 9.605762 123.717276 -61.960290 -3.532199 0.056905 0.604213
    1 10.226875 -24.498237 -34.622480 -4.458689 0.004062 2.490757
    2 13.008208 10.193385 -33.278689 -4.986352 -0.177236 -2.845753
    3 23.653065 13.405447 -35.154785 -4.986352 -0.177236 -2.845753
    4 89.735512 36.616081 -14.070349 -1.570777 -1.138185 1.570796
    5 15.520325 162.833784 -75.393835 -3.532215 0.056850 0.604218
    6 0.000004 0.071257 0.000021 0.000000 0.000000 0.000000
    7 -42.359509 -4.725811 -10.784075 -0.873495 2.881110 1.272517
    8 -2.424590 -0.002752 -3.503394 0.000000 0.000000 1.490787
    9 115.793822 -0.815102 -56.235073 6.252178 2.949654 1.258553
    10 2.550188 9.129783 0.217392 1.426741 3.094122 1.420255
    11 -0.071921 -8.498736 -0.104134 -0.722023 0.167952 -0.428464
    12 -0.488518 -2.755602 -0.228260 -0.971181 0.051942 -0.186015
    13 0.039887 -1.479790 0.029854 -1.432676 0.000000 0.000001
    14 0.028786 -1.075731 -0.023109 -0.818744 0.000000 0.000000
    15 0.250027 -2.820665 -0.238396 -0.445714 -0.002921 0.008443
    16 -0.049759 -1.680544 0.100479 -1.878786 0.000000 -0.000002
    17 -0.034142 -1.148312 0.084782 -0.639028 0.000000 0.000000
    18 0.957766 -2.746780 -0.090302 0.433776 -0.082532 0.013527
    19 -0.033420 -1.397129 -0.011257 -1.537260 0.000000 -0.000001
    20 -0.022360 -0.957436 0.018784 -1.081976 0.000000 0.000000
    21 -1.180681 -2.507217 -0.193859 -1.177585 0.117596 -0.331523
    22 -0.024967 -1.123934 0.017597 -0.774766 0.000000 0.000001
    23 -0.020057 -0.890968 0.010090 -0.891384 0.000000 0.000000
    24 0.583510 -1.197277 0.185379 0.382592 -0.620432 -0.748175
    25 1.535927 0.010246 0.005009 -0.002964 -0.012979 -0.838954
    26 1.100771 0.004527 -0.010679 -0.012827 0.009921 -0.736218
    27 0.120153 -0.050270 -0.054489 0.287569 3.110905 1.561085
    28 111.798366 3.073681 -60.167182 -0.106906 -0.191737 1.170683
    29 0.096944 -8.450418 -0.009365 0.298265 0.728085 0.305498
    30 0.447953 -2.798986 -0.200443 -0.785694 0.072933 0.183371
    31 -0.032909 -1.480204 0.004940 -1.423746 0.000000 0.000002
    32 -0.027022 -1.076920 -0.020210 -0.205924 0.000000 0.000000
    33 -0.249534 -2.846964 -0.174213 -0.666757 -0.000125 -0.008396
    34 0.043235 -1.683941 0.096012 -0.729742 0.002823 -0.000167
    35 0.031729 -1.160830 0.058838 -0.456198 0.000642 0.008372
    36 -0.963866 -2.785145 -0.085350 -0.240883 0.163163 -0.073052
    37 0.028479 -1.403067 0.006271 -0.914803 0.000000 0.000000
    38 0.021413 -0.957781 0.020046 0.071792 0.000000 0.000000
    39 1.164475 -2.543940 -0.170330 -0.677886 0.010016 0.200244
    40 0.024032 -1.129042 0.017807 -1.375395 0.000000 0.000001
    41 0.014898 -0.883989 -0.019848 -0.893146 0.000000 0.000000
    42 -0.586770 -1.264477 0.200161 -0.552597 -0.787580 -2.393461
    43 1.522835 0.058681 0.016848 0.001410 0.008985 0.069371
    44 1.117947 0.048424 -0.005766 -0.013402 -0.021351 0.616699
    45 -0.139399 -0.111698 0.014397 -0.220558 0.409467 1.305270
    46 -3.268527 9.159499 -0.036302 1.601549 0.016669 -1.329001
  time 14
    0 9.496384 117.096273 -58.772693 -3.532199 0.056905 0.604213
    1 10.226875 -24.498237 -34.622480 -4.458689 0.004062 2.490757
    2 13.008208 10.193385 -33.278689 -4.986352 -0.177236 -2.845753
    3 23.653065 13.405447 -35.154785 -4.986352 -0.177236 -2.845753
    4 89.735512 36.616081 -14.070349 -1.570777 -1.138185 1.570796
    5 15.410946 156.208497 -72.206237 -3.532215 0.056850 0.604218
    6 0.000004 0.071257 0.000021 0.000000 0.000000 0.000000
    7 -42.359509 -4.725811 -10.784075 -0.873495 2.881110 1.272517
    8 -2.424590 -0.002752 -3.503394 0.000000 0.000000 1.490787
    9 109.184245 -1.233084 -53.047475 6.252178 2.949654 1.258553
    10 2.550188 9.129783 0.217392 1.426741 3.094122 1.420255
    11 -0.071921 -8.498736 -0.104134 -0.722023 0.167952 -0.428464
    12 -0.488518 -2.755602 -0.228260 -0.971181 0.051942 -0.186015
    13 0.039887 -1.479790 0.029854 -1.432676 0.000000 0.000001
    14 0.028786 -1.075731 -0.023109 -0.818744 0.000000 0.000000
    15 0.250027 -2.820665 -0.238396 -0.445714 -0.002921 0.008443
    16 -0.049759 -1.680544 0.100479 -1.878786 0.000000 -0.000002
    17 -0.034142 -1.148312 0.084782 -0.639028 0.000000 0.000000
    18 0.957766 -2.746780 -0.090302 0.433776 -0.082532 0.013527
    19 -0.033420 -1.397129 -0.011257 -1.537260 0.000000 -0.000001
    20 -0.022360 -0.957436 0.018784 -1.081976 0.000000 0.000000
    21 -1.180681 -2.507217 -0.193859 -1.177585 0.117596 -0.331523
    22 -0.024967 -1.123934 0.017597 -0.774766 0.000000 0.000001
    23 -0.020057 -0.890968 0.010090 -0.891384 0.000000 0.000000
    24 0.583510 -1.197277 0.185379 0.382592 -0.620432 -0.748175
    25 1.535927 0.010246 0.005009 -0.002964 -0.012979 -0.838954
    26 1.100771 0.004527 -0.010679 -0.012827 0.009921 -0.736218
    27 0.120153 -0.050270 -0.054489 0.287569 3.110905 1.561085
    28 105.189925 2.655700 -56.979585 -0.106906 -0.191737 1.170683
    29 0.096944 -8.450418 -0.009365 0.298265 0.728085 0.305498
    30 0.447953 -2.798986 -0.200443 -0.785694 0.072933 0.183371
    31 -0.032909 -1.480204 0.004940 -1.423746 0.000000 0.000002
    32 -0.027022 -1.076920 -0.020210 -0.205924 0.000000 0.000000
    33 -0.249534 -2.846964 -0.174213 -0.666757 -0.000125 -0.008396
    34 0.043235 -1.683941 0.096012 -0.729742 0.002823 -0.000167
    35 0.031729 -1.160830 0.058838 -0.456198 0.000642 0.008372
    36 -0.963866 -2.785145 -0.085350 -0.240883 0.163163 -0.073052
    37 0.028479 -1.403067 0.006271 -0.914803 0.000000 0.000000
    38 0.021413 -0.957781 0.020046 0.071792 0.000000 0.000000
    39 1.164475 -2.543940 -0.170330 -0.677886 0.010016 0.200244
    40 0.024032 -1.129042 0.017807 -1.375395 0.000000 0.000001
    41 0.014898 -0.883989 -0.019848 -0.893146 0.000000 0.000000
    42 -0.586770 -1.264477 0.200161 -0.552597 -0.787580 -2.393461
    43 1.522835 0.058681 0.016848 0.001410 0.008985 0.069371
    44 1.117947 0.048424 -0.005766 -0.013402 -0.021351 0.616699
    45 -0.139399 -0.111698 0.014397 -0.220558 0.409467 1.305270
    46 -3.268527 9.159499 -0.036302 1.601549 0.016669 -1.329001
  time 15
    0 9.379192 109.918364 -55.315556 -3.532199 0.056905 0.604213
    1 10.226875 -24.498237 -34.622480 -4.458689 0.004062 2.490757
    2 13.008208 10.193385 -33.278689 -4.986352 -0.177236 -2.845753
    3 23.653065 13.405447 -35.154785 -4.986352 -0.177236 -2.845753
    4 89.735512 36.616081 -14.070349 -1.570777 -1.138185 1.570796
    5 15.293755 149.027380 -68.749101 -3.532215 0.056850 0.604218
    6 0.000004 0.071257 0.000021 0.000000 0.000000 0.000000
    7 -42.359509 -4.725811 -10.784075 -0.873495 2.881110 1.272517
    8 -2.424590 -0.002752 -3.503394 0.000000 0.000000 1.490787
    9 102.016057 -1.694035 -49.594245 6.252178 2.949654 1.258553
    10 2.550188 9.129783 0.217392 1.426741 3.094122 1.420255
    11 -0.071921 -8.498736 -0.104134 -0.722023 0.167952 -0.428464
    12 -0.488518 -2.755602 -0.228260 -0.971181 0.051942 -0.186015
    13 0.039887 -1.479790 0.029854 -1.432676 0.000000 0.000001
    14 0.028786 -1.075731 -0.023109 -0.818744 0.000000 0.000000
    15 0.250027 -2.820665 -0.238396 -0.445714 -0.002921 0.008443
    16 -0.049759 -1.680544 0.100479 -1.878786 0.000000 -0.000002
    17 -0.034142 -1.148312 0.084782 -0.639028 0.000000 0.000000
    18 0.957766 -2.746780 -0.090302 0.433776 -0.082532 0.013527
    19 -0.033420 -1.397129 -0.011257 -1.537260 0.000000 -0.000001
    20 -0.022360 -0.957436 0.018784 -1.081976 0.000000 0.000000
    21 -1.180681 -2.507217 -0.193859 -1.177585 0.117596 -0.331523
    22 -0.024967 -1.123934 0.017597 -0.774766 0.000000 0.000001
    23 -0.020057 -0.890968 0.010090 -0.891384 0.000000 0.000000
    24 0.583510 -1.197277 0.185379 0.382592 -0.620432 -0.748175
    25 1.535927 0.010246 0.005009 -0.002964 -0.012979 -0.838954
    26 1.100771 0.004527 -0.010679 -0.012827 0.009921 -0.736218
    27 0.120153 -0.050270 -0.054489 0.287569 3.110905 1.561085
    28 98.021740 2.194748 -53.522448 -0.106906 -0.191737 1.170683
    29 0.096944 -8.450418 -0.009365 0.298265 0.728085 0.305498
    30 0.447953 -2.798986 -0.200443 -0.785694 0.072933 0.183371
    31 -0.032909 -1.480204 0.004940 -1.423746 0.000000 0.000002
    32 -0.027022 -1.076920 -0.020210 -0.205924 0.000000 0.000000
    33 -0.249534 -2.846964 -0.174213 -0.666757 -0.000125 -0.008396
    34 0.043235 -1.683941 0.096012 -0.729742 0.002823 -0.000167
    35 0.031729 -1.160830 0.058838 -0.456198 0.000642 0.008372
    36 -0.963866 -2.785145 -0.085350 -0.240883 0.163163 -0.073052
    37 0.028479 -1.403067 0.006271 -0.914803 0.000000 0.000000
    38 0.021413 -0.957781 0.020046 0.071792 0.000000 0.000000
    39 1.164475 -2.543940 -0.170330 -0.677886 0.010016 0.200244
    40 0.024032 -1.129042 0.017807 -1.375395 0.000000 0.000001
    41 0.014898 -0.883989 -0.019848 -0.893146 0.000000 0.000000
    42 -0.586770 -1.264477 0.200161 -0.552597 -0.787580 -2.393461
    43 1.522835 0.058681 0.016848 0.001410 0.008985 0.069371
    44 1.117947 0.048424 -0.005766 -0.013402 -0.021351 0.616699
    45 -0.139399 -0.111698 0.014397 -0.220558 0.409467 1.305270
    46 -3.268527 9.159499 -0.036302 1.601549 0.016669 -1.329001
  time 16
    0 9.269814 102.298465 -51.651382 -3.532199 0.056905 0.604213
    1 10.226875 -24.498237 -34.622480 -4.458689 0.004062 2.490757
    2 13.008208 10.193385 -33.278689 -4.986352 -0.177236 -2.845753
    3 23.653065 13.405447 -35.154785 -4.986352 -0.177236 -2.845753
    4 89.735512 36.616081 -14.070349 -1.570777 -1.138185 1.570796
    5 15.184377 141.409541 -65.084926 -3.532215 0.056850 0.604218
    6 0.000004 0.071257 0.000021 0.000000 0.000000 0.000000
    7 -42.359509 -4.725811 -10.784075 -0.873495 2.881110 1.272517
    8 -2.424590 -0.002752 -3.503394 0.000000 0.000000 1.490787
    9 94.414263 -2.190144 -45.930071 6.252178 2.949654 1.258553
    10 2.550188 9.129783 0.217392 1.426741 3.094122 1.420255
    11 -0.071921 -8.498736 -0.104134 -0.722023 0.167952 -0.428464
    12 -0.488518 -2.755602 -0.228260 -0.971181 0.051942 -0.186015
    13 0.039887 -1.479790 0.029854 -1.432676 0.000000 0.000001
    14 0.028786 -1.075731 -0.023109 -0.818744 0.000000 0.000000
    15 0.250027 -2.820665 -0.238396 -0.445714 -0.002921 0.008443
    16 -0.049759 -1.680544 0.100479 -1.878786 0.000000 -0.000002
    17 -0.034142 -1.148312 0.084782 -0.639028 0.000000 0.000000
    18 0.957766 -2.746780 -0.090302 0.433776 -0.082532 0.013527
    19 -0.033420 -1.397129 -0.011257 -1.537260 0.000000 -0.000001
    20 -0.022360 -0.957436 0.018784 -1.081976 0.000000 0.000000
    21 -1.180681 -2.507217 -0.193859 -1.177585 0.117596 -0.331523
    22 -0.024967 -1.123934 0.017597 -0.774766 0.000000 0.000001
    23 -0.020057 -0.890968 0.010090 -0.891384 0.000000 0.000000
    24 0.583510 -1.197277 0.185379 0.382592 -0.620432 -0.748175
    25 1.535927 0.010246 0.005009 -0.002964 -0.012979 -0.838954
    26 1.100771 0.004527 -0.010679 -0.012827 0.009921 -0.736218
    27 0.120153 -0.050270 -0.054489 0.287569 3.110905 1.561085
    28 90.415307 1.698639 -49.858274 -0.106906 -0.191737 1.170683
    29 0.096944 -8.450418 -0.009365 0.298265 0.728085 0.305498
    30 0.447953 -2.798986 -0.200443 -0.785694 0.072933 0.183371
    31 -0.032909 -1.480204 0.004940 -1.423746 0.000000 0.000002
    32 -0.027022 -1.076920 -0.020210 -0.205924 0.000000 0.000000
    33 -0.249534 -2.846964 -0.174213 -0.666757 -0.000125 -0.008396
    34 0.043235 -1.683941 0.096012 -0.729742 0.002823 -0.000167
    35 0.031729 -1.160830 0.058838 -0.456198 0.000642 0.008372
    36 -0.963866 -2.785145 -0.085350 -0.240883 0.163163 -0.073052
    37 0.028479 -1.403067 0.006271 -0.914803 0.000000 0.000000
    38 0.021413 -0.957781 0.020046 0.071792 0.000000 0.000000
    39 1.164475 -2.543940 -0.170330 -0.677886 0.010016 0.200244
    40 0.024032 -1.129042 0.017807 -1.375395 0.000000 0.000001
    41 0.014898 -0.883989 -0.019848 -0.893146 0.000000 0.000000
    42 -0.586770 -1.264477 0.200161 -0.552597 -0.787580 -2.393461
    43 1.522835 0.058681 0.016848 0.001410 0.008985 0.069371
    44 1.117947 0.048424 -0.005766 -0.013402 -0.021351 0.616699
    45 -0.139399 -0.111698 0.014397 -0.220558 0.409467 1.305270
    46 -3.268527 9.159499 -0.036302 1.601549 0.016669 -1.329001
  time 17
    0 9.160436 94.364754 -47.838765 -3.532199 0.056905 0.604213
    1 10.226875 -24.498237 -34.622480 -4.458689 0.004062 2.490757
    2 13.008208 10.193385 -33.278689 -4.986352 -0.177236 -2.845753
    3 23.653065 13.405447 -35.154785 -4.986352 -0.177236 -2.845753
    4 89.735512 36.616081 -14.070349 -1.570777 -1.138185 1.570796
    5 15.074999 133.474084 -61.272310 -3.532215 0.056850 0.604218
    6 0.000004 0.071257 0.000021 0.000000 0.000000 0.000000
    7 -42.359509 -4.725811 -10.784075 -0.873495 2.881110 1.272517
    8 -2.424590 -0.002752 -3.503394 0.000000 0.000000 1.490787
    9 86.496053 -2.717504 -42.117454 6.252178 2.949654 1.258553
    10 2.550188 9.129783 0.217392 1.426741 3.094122 1.420255
    11 -0.071921 -8.498736 -0.104134 -0.722023 0.167952 -0.428464
    12 -0.488518 -2.755602 -0.228260 -0.971181 0.051942 -0.186015
    13 0.039887 -1.479790 0.029854 -1.432676 0.000000 0.000001
    14 0.028786 -1.075731 -0.023109 -0.818744 0.000000 0.000000
    15 0.250027 -2.820665 -0.238396 -0.445714 -0.002921 0.008443
    16 -0.049759 -1.680544 0.100479 -1.878786 0.000000 -0.000002
    17 -0.034142 -1.148312 0.084782 -0.639028 0.000000 0.000000
    18 0.957766 -2.746780 -0.090302 0.433776 -0.082532 0.013527
    19 -0.033420 -1.397129 -0.011257 -1.537260 0.000000 -0.000001
    20 -0.022360 -0.957436 0.018784 -1.081976 0.000000 0.000000
    21 -1.180681 -2.507217 -0.193859 -1.177585 0.117596 -0.331523
    22 -0.024967 -1.123934 0.017597 -0.774766 0.000000 0.000001
    23 -0.020057 -0.890968 0.010090 -0.891384 0.000000 0.000000
    24 0.583510 -1.197277 0.185379 0.382592 -0.620432 -0.748175
    25 1.535927 0.010246 0.005009 -0.002964 -0.012979 -0.838954
    26 1.100771 0.004527 -0.010679 -0.012827 0.009921 -0.736218
    27 0.120153 -0.050270 -0.054489 0.287569 3.110905 1.561085
    28 82.500798 1.171279 -46.045657 -0.106906 -0.191737 1.170683
    29 0.096944 -8.450418 -0.009365 0.298265 0.728085 0.305498
    30 0.447953 -2.798986 -0.200443 -0.785694 0.072933 0.183371
    31 -0.032909 -1.480204 0.004940 -1.423746 0.000000 0.000002
    32 -0.027022 -1.076920 -0.020210 -0.205924 0.000000 0.000000
    33 -0.249534 -2.846964 -0.174213 -0.666757 -0.000125 -0.008396
    34 0.043235 -1.683941 0.096012 -0.729742 0.002823 -0.000167
    35 0.031729 -1.160830 0.058838 -0.456198 0.000642 0.008372
    36 -0.963866 -2.785145 -0.085350 -0.240883 0.163163 -0.073052
    37 0.028479 -1.403067 0.006271 -0.914803 0.000000 0.000000
    38 0.021413 -0.957781 0.020046 0.071792 0.000000 0.000000
    39 1.164475 -2.543940 -0.170330 -0.677886 0.010016 0.200244
    40 0.024032 -1.129042 0.017807 -1.375395 0.000000 0.000001
    41 0.014898 -0.883989 -0.019848 -0.893146 0.000000 0.000000
    42 -0.586770 -1.264477 0.200161 -0.552597 -0.787580 -2.393461
    43 1.522835 0.058681 0.016848 0.001410 0.008985 0.069371
    44 1.117947 0.048424 -0.005766 -0.013402 -0.021351 0.616699
    45 -0.139399 -0.111698 0.014397 -0.220558 0.409467 1.305270
    46 -3.268527 9.159499 -0.036302 1.601549 0.016669 -1.329001
  time 18
    0 9.062777 86.236567 -43.940209 -3.532199 0.056905 0.604213
    1 10.226875 -24.498237 -34.622480 -4.458689 0.004062 2.490757
    2 13.008208 10.193385 -33.278689 -4.986352 -0.177236 -2.845753
    3 23.653065 13.405447 -35.154785 -4.986352 -0.177236 -2.845753
    4 89.735512 36.616081 -14.070349 -1.570777 -1.138185 1.570796
    5 14.977340 125.350043 -57.373754 -3.532215 0.056850 0.604218
    6 0.000004 0.071257 0.000021 0.000000 0.000000 0.000000
    7 -42.359509 -4.725811 -10.784075 -0.873495 2.881110 1.272517
    8 -2.424590 -0.002752 -3.503394 0.000000 0.000000 1.490787
    9 78.386430 -3.268302 -38.214992 6.252178 2.949654 1.258553
    10 2.550188 9.129783 0.217392 1.426741 3.094122 1.420255
    11 -0.071921 -8.498736 -0.104134 -0.722023 0.167952 -0.428464
    12 -0.488518 -2.755602 -0.228260 -0.971181 0.051942 -0.186015
    13 0.039887 -1.479790 0.029854 -1.432676 0.000000 0.000001
    14 0.028786 -1.075731 -0.023109 -0.818744 0.000000 0.000000
    15 0.250027 -2.820665 -0.238396 -0.445714 -0.002921 0.008443
    16 -0.049759 -1.680544 0.100479 -1.878786 0.000000 -0.000002
    17 -0.034142 -1.148312 0.084782 -0.639028 0.000000 0.000000
    18 0.957766 -2.746780 -0.090302 0.433776 -0.082532 0.013527
    19 -0.033420 -1.397129 -0.011257 -1.537260 0.000000 -0.000001
    20 -0.022360 -0.957436 0.018784 -1.081976 0.000000 0.000000
    21 -1.180681 -2.507217 -0.193859 -1.177585 0.117596 -0.331523
    22 -0.024967 -1.123934 0.017597 -0.774766 0.000000 0.000001
    23 -0.020057 -0.890968 0.010090 -0.891384 0.000000 0.000000
    24 0.583510 -1.197277 0.185379 0.382592 -0.620432 -0.748175
    25 1.535927 0.010246 0.005009 -0.002964 -0.012979 -0.838954
    26 1.100771 0.004527 -0.010679 -0.012827 0.009921 -0.736218
    27 0.120153 -0.050270 -0.054489 0.287569 3.110905 1.561085
    28 74.391030 0.620481 -42.143194 -0.106906 -0.191737 1.170683
    29 0.096944 -8.450418 -0.009365 0.298265 0.728085 0.305498
    30 0.447953 -2.798986 -0.200443 -0.785694 0.072933 0.183371
    31 -0.032909 -1.480204 0.004940 -1.423746 0.000000 0.000002
    32 -0.027022 -1.076920 -0.020210 -0.205924 0.000000 0.000000
    33 -0.249534 -2.846964 -0.174213 -0.666757 -0.000125 -0.008396
    34 0.043235 -1.683941 0.096012 -0.729742 0.002823 -0.000167
    35 0.031729 -1.160830 0.058838 -0.456198 0.000642 0.008372
    36 -0.963866 -2.785145 -0.085350 -0.240883 0.163163 -0.073052
    37 0.028479 -1.403067 0.006271 -0.914803 0.000000 0.000000
    38 0.021413 -0.957781 0.020046 0.071792 0.000000 0.000000
    39 1.164475 -2.543940 -0.170330 -0.677886 0.010016 0.200244
    40 0.024032 -1.129042 0.017807 -1.375395 0.000000 0.000001
    41 0.014898 -0.883989 -0.019848 -0.893146 0.000000 0.000000
    42 -0.586770 -1.264477 0.200161 -0.552597 -0.787580 -2.393461
    43 1.522835 0.058681 0.016848 0.001410 0.008985 0.069371
    44 1.117947 0.048424 -0.005766 -0.013402 -0.021351 0.616699
    45 -0.139399 -0.111698 0.014397 -0.220558 0.409467 1.305270
    46 -3.268527 9.159499 -0.036302 1.601549 0.016669 -1.329001
  time 19
    0 8.976836 78.042082 -40.006495 -3.532199 0.056905 0.604213
    1 10.226875 -24.498237 -34.622480 -4.458689 0.004062 2.490757
    2 13.008208 10.193385 -33.278689 -4.986352 -0.177236 -2.845753
    3 23.653065 13.405447 -35.154785 -4.986352 -0.177236 -2.845753
    4 89.735512 36.616081 -14.070349 -1.570777 -1.138185 1.570796
    5 14.891399 117.151561 -53.440040 -3.532215 0.056850 0.604218
    6 0.000004 0.071257 0.000021 0.000000 0.000000 0.000000
    7 -42.359509 -4.725811 -10.784075 -0.873495 2.881110 1.272517
    8 -2.424590 -0.002752 -3.503394 0.000000 0.000000 1.490787
    9 70.210399 -3.838632 -34.281278 6.252178 2.949654 1.258553
    10 2.550188 9.129783 0.217392 1.426741 3.094122 1.420255
    11 -0.071921 -8.498736 -0.104134 -0.722023 0.167952 -0.428464
    12 -0.488518 -2.755602 -0.228260 -0.971181 0.051942 -0.186015
    13 0.039887 -1.479790 0.029854 -1.432676 0.000000 0.000001
    14 0.028786 -1.075731 -0.023109 -0.818744 0.000000 0.000000
    15 0.250027 -2.820665 -0.238396 -0.445714 -0.002921 0.008443
    16 -0.049759 -1.680544 0.100479 -1.878786 0.000000 -0.000002
    17 -0.034142 -1.148312 0.084782 -0.639028 0.000000 0.000000
    18 0.957766 -2.746780 -0.090302 0.433776 -0.082532 0.013527
    19 -0.033420 -1.397129 -0.011257 -1.537260 0.000000 -0.000001
    20 -0.022360 -0.957436 0.018784 -1.081976 0.000000 0.000000
    21 -1.180681 -2.507217 -0.193859 -1.177585 0.117596 -0.331523
    22 -0.024967 -1.123934 0.017597 -0.774766 0.000000 0.000001
    23 -0.020057 -0.890968 0.010090 -0.891384 0.000000 0.000000
    24 0.583510 -1.197277 0.185379 0.382592 -0.620432 -0.748175
    25 1.535927 0.010246 0.005009 -0.002964 -0.012979 -0.838954
    26 1.100771 0.004527 -0.010679 -0.012827 0.009921 -0.736218
    27 0.120153 -0.050270 -0.054489 0.287569 3.110905 1.561085
    28 66.216176 0.050151 -38.213387 -0.106906 -0.191737 1.170683
    29 0.096944 -8.450418 -0.009365 0.298265 0.728085 0.305498
    30 0.447953 -2.798986 -0.200443 -0.785694 0.072933 0.183371
    31 -0.032909 -1.480204 0.004940 -1.423746 0.000000 0.000002
    32 -0.027022 -1.076920 -0.020210 -0.205924 0.000000 0.000000
    33 -0.249534 -2.846964 -0.174213 -0.666757 -0.000125 -0.008396
    34 0.043235 -1.683941 0.096012 -0.729742 0.002823 -0.000167
    35 0.031729 -1.160830 0.058838 -0.456198 0.000642 0.008372
    36 -0.963866 -2.785145 -0.085350 -0.240883 0.163163 -0.073052
    37 0.028479 -1.403067 0.006271 -0.914803 0.000000 0.000000
    38 0.021413 -0.957781 0.020046 0.071792 0.000000 0.000000
    39 1.164475 -2.543940 -0.170330 -0.677886 0.010016 0.200244
    40 0.024032 -1.129042 0.017807 -1.375395 0.000000 0.000001
    41 0.014898 -0.883989 -0.019848 -0.893146 0.000000 0.000000
    42 -0.586770 -1.264477 0.200161 -0.552597 -0.787580 -2.393461
    43 1.522835 0.058681 0.016848 0.001410 0.008985 0.069371
    44 1.117947 0.048424 -0.005766 -0.013402 -0.021351 0.616699
    45 -0.139399 -0.111698 0.014397 -0.220558 0.409467 1.305270
    46 -3.268527 9.159499 -0.036302 1.601549 0.016669 -1.329001
  time 20
    0 8.906522 69.896216 -36.104032 -3.532199 0.056905 0.604213
    1 10.226875 -24.498237 -34.622480 -4.458689 0.004062 2.490757
    2 13.008208 10.193385 -33.278689 -4.986352 -0.177236 -2.845753
    3 23.653065 13.405447 -35.154785 -4.986352 -0.177236 -2.845753
    4 89.735512 36.616081 -14.070349 -1.570777 -1.138185 1.570796
    5 14.821085 109.007668 -49.537577 -3.532215 0.056850 0.604218
    6 0.000004 0.071257 0.000021 0.000000 0.000000 0.000000
    7 -42.359509 -4.725811 -10.784075 -0.873495 2.881110 1.272517
    8 -2.424590 -0.002752 -3.503394 0.000000 0.000000 1.490787
    9 62.089058 -4.420681 -30.378815 6.252178 2.949654 1.258553
    10 2.550188 9.129783 0.217392 1.426741 3.094122 1.420255
    11 -0.071921 -8.498736 -0.104134 -0.722023 0.167952 -0.428464
    12 -0.488518 -2.755602 -0.228260 -0.971181 0.051942 -0.186015
    13 0.039887 -1.479790 0.029854 -1.432676 0.000000 0.000001
    14 0.028786 -1.075731 -0.023109 -0.818744 0.000000 0.000000
    15 0.250027 -2.820665 -0.238396 -0.445714 -0.002921 0.008443
    16 -0.049759 -1.680544 0.100479 -1.878786 0.000000 -0.000002
    17 -0.034142 -1.148312 0.084782 -0.639028 0.000000 0.000000
    18 0.957766 -2.746780 -0.090302 0.433776 -0.082532 0.013527
    19 -0.033420 -1.397129 -0.011257 -1.537260 0.000000 -0.000001
    20 -0.022360 -0.957436 0.018784 -1.081976 0.000000 0.000000
    21 -1.180681 -2.507217 -0.193859 -1.177585 0.117596 -0.331523
    22 -0.024967 -1.123934 0.017597 -0.774766 0.000000 0.000001
    23 -0.020057 -0.890968 0.010090 -0.891384 0.000000 0.000000
    24 0.583510 -1.197277 0.185379 0.382592 -0.620432 -0.748175
    25 1.535927 0.010246 0.005009 -0.002964 -0.012979 -0.838954
    26 1.100771 0.004527 -0.010679 -0.012827 0.009921 -0.736218
    27 0.120153 -0.050270 -0.054489 0.287569 3.110905 1.561085
    28 58.093390 -0.531898 -34.310924 -0.106906 -0.191737 1.170683
    29 0.096944 -8.450418 -0.009365 0.298265 0.728085 0.305498
    30 0.447953 -2.798986 -0.200443 -0.785694 0.072933 0.183371
    31 -0.032909 -1.480204 0.004940 -1.423746 0.000000 0.000002
    32 -0.027022 -1.076920 -0.020210 -0.205924 0.000000 0.000000
    33 -0.249534 -2.846964 -0.174213 -0.666757 -0.000125 -0.008396
    34 0.043235 -1.683941 0.096012 -0.729742 0.002823 -0.000167
    35 0.031729 -1.160830 0.058838 -0.456198 0.000642 0.008372
    36 -0.963866 -2.785145 -0.085350 -0.240883 0.163163 -0.073052
    37 0.028479 -1.403067 0.006271 -0.914803 0.000000 0.000000
    38 0.021413 -0.957781 0.020046 0.071792 0.000000 0.000000
    39 1.164475 -2.543940 -0.170330 -0.677886 0.010016 0.200244
    40 0.024032 -1.129042 0.017807 -1.375395 0.000000 0.000001
    41 0.014898 -0.883989 -0.019848 -0.893146 0.000000 0.000000
    42 -0.586770 -1.264477 0.200161 -0.552597 -0.787580 -2.393461
    43 1.522835 0.058681 0.016848 0.001410 0.008985 0.069371
    44 1.117947 0.048424 -0.005766 -0.013402 -0.021351 0.616699
    45 -0.139399 -0.111698 0.014397 -0.220558 0.409467 1.305270
    46 -3.268527 9.159499 -0.036302 1.601549 0.016669 -1.329001
  time 21
    0 8.859645 61.927145 -32.291416 -3.532199 0.056905 0.604213
    1 10.226875 -24.498237 -34.622480 -4.458689 0.004062 2.490757
    2 13.008208 10.193385 -33.278689 -4.986352 -0.177236 -2.845753
    3 23.653065 13.405447 -35.154785 -4.986352 -0.177236 -2.845753
    4 89.735512 36.616081 -14.070349 -1.570777 -1.138185 1.570796
    5 14.774208 101.042435 -45.724961 -3.532215 0.056850 0.604218
    6 0.000004 0.071257 0.000021 0.000000 0.000000 0.000000
    7 -42.359509 -4.725811 -10.784075 -0.873495 2.881110 1.272517
    8 -2.424590 -0.002752 -3.503394 0.000000 0.000000 1.490787
    9 54.139596 -5.010543 -26.566199 6.252178 2.949654 1.258553
    10 2.550188 9.129783 0.217392 1.426741 3.094122 1.420255
    11 -0.071921 -8.498736 -0.104134 -0.722023 0.167952 -0.428464
    12 -0.488518 -2.755602 -0.228260 -0.971181 0.051942 -0.186015
    13 0.039887 -1.479790 0.029854 -1.432676 0.000000 0.000001
    14 0.028786 -1.075731 -0.023109 -0.818744 0.000000 0.000000
    15 0.250027 -2.820665 -0.238396 -0.445714 -0.002921 0.008443
    16 -0.049759 -1.680544 0.100479 -1.878786 0.000000 -0.000002
    17 -0.034142 -1.148312 0.084782 -0.639028 0.000000 0.000000
    18 0.957766 -2.746780 -0.090302 0.433776 -0.082532 0.013527
    19 -0.033420 -1.397129 -0.011257 -1.537260 0.000000 -0.000001
    20 -0.022360 -0.957436 0.018784 -1.081976 0.000000 0.000000
    21 -1.180681 -2.507217 -0.193859 -1.177585 0.117596 -0.331523
    22 -0.024967 -1.123934 0.017597 -0.774766 0.000000 0.000001
    23 -0.020057 -0.890968 0.010090 -0.891384 0.000000 0.000000
    24 0.583510 -1.197277 0.185379 0.382592 -0.620432 -0.748175
    25 1.535927 0.010246 0.005009 -0.002964 -0.012979 -0.838954
    26 1.100771 0.004527 -0.010679 -0.012827 0.009921 -0.736218
    27 0.120153 -0.050270 -0.054489 0.287569 3.110905 1.561085
    28 50.144169 -1.121759 -30.498308 -0.106906 -0.191737 1.170683
    29 0.096944 -8.450418 -0.009365 0.298265 0.728085 0.305498
    30 0.447953 -2.798986 -0.200443 -0.785694 0.072933 0.183371
    31 -0.032909 -1.480204 0.004940 -1.423746 0.000000 0.000002
    32 -0.027022 -1.076920 -0.020210 -0.205924 0.000000 0.000000
    33 -0.249534 -2.846964 -0.174213 -0.666757 -0.000125 -0.008396
    34 0.043235 -1.683941 0.096012 -0.729742 0.002823 -0.000167
    35 0.031729 -1.160830 0.058838 -0.456198 0.000642 0.008372
    36 -0.963866 -2.785145 -0.085350 -0.240883 0.163163 -0.073052
    37 0.028479 -1.403067 0.006271 -0.914803 0.000000 0.000000
    38 0.021413 -0.957781 0.020046 0.071792 0.000000 0.000000
    39 1.164475 -2.543940 -0.170330 -0.677886 0.010016 0.200244
    40 0.024032 -1.129042 0.017807 -1.375395 0.000000 0.000001
    41 0.014898 -0.883989 -0.019848 -0.893146 0.000000 0.000000
    42 -0.586770 -1.264477 0.200161 -0.552597 -0.787580 -2.393461
    43 1.522835 0.058681 0.016848 0.001410 0.008985 0.069371
    44 1.117947 0.048424 -0.005766 -0.013402 -0.021351 0.616699
    45 -0.139399 -0.111698 0.014397 -0.220558 0.409467 1.305270
    46 -3.268527 9.159499 -0.036302 1.601549 0.016669 -1.329001
  time 22
    0 8.836207 54.254208 -28.627242 -3.532199 0.056905 0.604213
    1 10.226875 -24.498237 -34.622480 -4.458689 0.004062 2.490757
    2 13.008208 10.193385 -33.278689 -4.986352 -0.177236 -2.845753
    3 23.653065 13.405447 -35.154785 -4.986352 -0.177236 -2.845753
    4 89.735512 36.616081 -14.070349 -1.570777 -1.138185 1.570796
    5 14.750770 93.370006 -42.060786 -3.532215 0.056850 0.604218
    6 0.000004 0.071257 0.000021 0.000000 0.000000 0.000000
    7 -42.359509 -4.725811 -10.784075 -0.873495 2.881110 1.272517
    8 -2.424590 -0.002752 -3.503394 0.000000 0.000000 1.490787
    9 46.490926 -5.596498 -22.902024 6.252178 2.949654 1.258553
    10 2.550188 9.129783 0.217392 1.426741 3.094122 1.420255
    11 -0.071921 -8.498736 -0.104134 -0.722023 0.167952 -0.428464
    12 -0.488518 -2.755602 -0.228260 -0.971181 0.051942 -0.186015
    13 0.039887 -1.479790 0.029854 -1.432676 0.000000 0.000001
    14 0.028786 -1.075731 -0.023109 -0.818744 0.000000 0.000000
    15 0.250027 -2.820665 -0.238396 -0.445714 -0.002921 0.008443
    16 -0.049759 -1.680544 0.100479 -1.878786 0.000000 -0.000002
    17 -0.034142 -1.148312 0.084782 -0.639028 0.000000 0.000000
    18 0.957766 -2.746780 -0.090302 0.433776 -0.082532 0.013527
    19 -0.033420 -1.397129 -0.011257 -1.537260 0.000000 -0.000001
    20 -0.022360 -0.957436 0.018784 -1.081976 0.000000 0.000000
    21 -1.180681 -2.507217 -0.193859 -1.177585 0.117596 -0.331523
    22 -0.024967 -1.123934 0.017597 -0.774766 0.000000 0.000001
    23 -0.020057 -0.890968 0.010090 -0.891384 0.000000 0.000000
    24 0.583510 -1.197277 0.185379 0.382592 -0.620432 -0.748175
    25 1.535927 0.010246 0.005009 -0.002964 -0.012979 -0.838954
    26 1.100771 0.004527 -0.010679 -0.012827 0.009921 -0.736218
    27 0.120153 -0.050270 -0.054489 0.287569 3.110905 1.561085
    28 42.494345 -1.711621 -26.834133 -0.106906 -0.191737 1.170683
    29 0.096944 -8.450418 -0.009365 0.298265 0.728085 0.305498
    30 0.447953 -2.798986 -0.200443 -0.785694 0.072933 0.183371
    31 -0.032909 -1.480204 0.004940 -1.423746 0.000000 0.000002
    32 -0.027022 -1.076920 -0.020210 -0.205924 0.000000 0.000000
    33 -0.249534 -2.846964 -0.174213 -0.666757 -0.000125 -0.008396
    34 0.043235 -1.683941 0.096012 -0.729742 0.002823 -0.000167
    35 0.031729 -1.160830 0.058838 -0.456198 0.000642 0.008372
    36 -0.963866 -2.785145 -0.085350 -0.240883 0.163163 -0.073052
    37 0.028479 -1.403067 0.006271 -0.914803 0.000000 0.000000
    38 0.021413 -0.957781 0.020046 0.071792 0.000000 0.000000
    39 1.164475 -2.543940 -0.170330 -0.677886 0.010016 0.200244
    40 0.024032 -1.129042 0.017807 -1.375395 0.000000 0.000001
    41 0.014898 -0.883989 -0.019848 -0.893146 0.000000 0.000000
    42 -0.586770 -1.264477 0.200161 -0.552597 -0.787580 -2.393461
    43 1.522835 0.058681 0.016848 0.001410 0.008985 0.069371
    44 1.117947 0.048424 -0.005766 -0.013402 -0.021351 0.616699
    45 -0.139399 -0.111698 0.014397 -0.220558 0.409467 1.305270
    46 -3.268527 9.159499 -0.036302 1.601549 0.016669 -1.329001
  time 23
    0 8.840114 47.005580 -25.170105 -3.532199 0.056905 0.604213
    1 10.226875 -24.498237 -34.622480 -4.458689 0.004062 2.490757
    2 13.008208 10.193385 -33.278689 -4.986352 -0.177236 -2.845753
    3 23.653065 13.405447 -35.154785 -4.986352 -0.177236 -2.845753
    4 89.735512 36.616081 -14.070349 -1.570777 -1.138185 1.570796
    5 14.758583 86.119410 -38.603649 -3.532215 0.056850 0.604218
    6 0.000004 0.071257 0.000021 0.000000 0.000000 0.000000
    7 -42.359509 -4.725811 -10.784075 -0.873495 2.881110 1.272517
    8 -2.424590 -0.002752 -3.503394 0.000000 0.000000 1.490787
    9 39.264143 -6.182453 -19.448794 6.252178 2.949654 1.258553
    10 2.550188 9.129783 0.217392 1.426741 3.094122 1.420255
    11 -0.071921 -8.498736 -0.104134 -0.722023 0.167952 -0.428464
    12 -0.488518 -2.755602 -0.228260 -0.971181 0.051942 -0.186015
    13 0.039887 -1.479790 0.029854 -1.432676 0.000000 0.000001
    14 0.028786 -1.075731 -0.023109 -0.818744 0.000000 0.000000
    15 0.250027 -2.820665 -0.238396 -0.445714 -0.002921 0.008443
    16 -0.049759 -1.680544 0.100479 -1.878786 0.000000 -0.000002
    17 -0.034142 -1.148312 0.084782 -0.639028 0.000000 0.000000
    18 0.957766 -2.746780 -0.090302 0.433776 -0.082532 0.013527
    19 -0.033420 -1.397129 -0.011257 -1.537260 0.000000 -0.000001
    20 -0.022360 -0.957436 0.018784 -1.081976 0.000000 0.000000
    21 -1.180681 -2.507217 -0.193859 -1.177585 0.117596 -0.331523
    22 -0.024967 -1.123934 0.017597 -0.774766 0.000000 0.000001
    23 -0.020057 -0.890968 0.010090 -0.891384 0.000000 0.000000
    24 0.583510 -1.197277 0.185379 0.382592 -0.620432 -0.748175
    25 1.535927 0.010246 0.005009 -0.002964 -0.012979 -0.838954
    26 1.100771 0.004527 -0.010679 -0.012827 0.009921 -0.736218
    27 0.120153 -0.050270 -0.054489 0.287569 3.110905 1.561085
    28 35.265413 -2.297577 -23.376997 -0.106906 -0.191737 1.170683
    29 0.096944 -8.450418 -0.009365 0.298265 0.728085 0.305498
    30 0.447953 -2.798986 -0.200443 -0.785694 0.072933 0.183371
    31 -0.032909 -1.480204 0.004940 -1.423746 0.000000 0.000002
    32 -0.027022 -1.076920 -0.020210 -0.205924 0.000000 0.000000
    33 -0.249534 -2.846964 -0.174213 -0.666757 -0.000125 -0.008396
    34 0.043235 -1.683941 0.096012 -0.729742 0.002823 -0.000167
    35 0.031729 -1.160830 0.058838 -0.456198 0.000642 0.008372
    36 -0.963866 -2.785145 -0.085350 -0.240883 0.163163 -0.073052
    37 0.028479 -1.403067 0.006271 -0.914803 0.000000 0.000000
    38 0.021413 -0.957781 0.020046 0.071792 0.000000 0.000000
    39 1.164475 -2.543940 -0.170330 -0.677886 0.010016 0.200244
    40 0.024032 -1.129042 0.017807 -1.375395 0.000000 0.000001
    41 0.014898 -0.883989 -0.019848 -0.893146 0.000000 0.000000
    42 -0.586770 -1.264477 0.200161 -0.552597 -0.787580 -2.393461
    43 1.522835 0.058681 0.016848 0.001410 0.008985 0.069371
    44 1.117947 0.048424 -0.005766 -0.013402 -0.021351 0.616699
    45 -0.139399 -0.111698 0.014397 -0.220558 0.409467 1.305270
    46 -3.268527 9.159499 -0.036302 1.601549 0.016669 -1.329001
  time 24
    0 8.879177 40.296180 -21.982508 -3.532199 0.056905 0.604213
    1 10.226875 -24.498237 -34.622480 -4.458689 0.004062 2.490757
    2 13.008208 10.193385 -33.278689 -4.986352 -0.177236 -2.845753
    3 23.653065 13.405447 -35.154785 -4.986352 -0.177236 -2.845753
    4 89.735512 36.616081 -14.070349 -1.570777 -1.138185 1.570796
    5 14.793740 79.409756 -35.416052 -3.532215 0.056850 0.604218
    6 0.000004 0.071257 0.000021 0.000000 0.000000 0.000000
    7 -42.359509 -4.725811 -10.784075 -0.873495 2.881110 1.272517
    8 -2.424590 -0.002752 -3.503394 0.000000 0.000000 1.490787
    9 32.576438 -6.752783 -16.257290 6.252178 2.949654 1.258553
    10 2.550188 9.129783 0.217392 1.426741 3.094122 1.420255
    11 -0.071921 -8.498736 -0.104134 -0.722023 0.167952 -0.428464
    12 -0.488518 -2.755602 -0.228260 -0.971181 0.051942 -0.186015
    13 0.039887 -1.479790 0.029854 -1.432676 0.000000 0.000001
    14 0.028786 -1.075731 -0.023109 -0.818744 0.000000 0.000000
    15 0.250027 -2.820665 -0.238396 -0.445714 -0.002921 0.008443
    16 -0.049759 -1.680544 0.100479 -1.878786 0.000000 -0.000002
    17 -0.034142 -1.148312 0.084782 -0.639028 0.000000 0.000000
    18 0.957766 -2.746780 -0.090302 0.433776 -0.082532 0.013527
    19 -0.033420 -1.397129 -0.011257 -1.537260 0.000000 -0.000001
    20 -0.022360 -0.957436 0.018784 -1.081976 0.000000 0.000000
    21 -1.180681 -2.507217 -0.193859 -1.177585 0.117596 -0.331523
    22 -0.024967 -1.123934 0.017597 -0.774766 0.000000 0.000001
    23 -0.020057 -0.890968 0.010090 -0.891384 0.000000 0.000000
    24 0.583510 -1.197277 0.185379 0.382592 -0.620432 -0.748175
    25 1.535927 0.010246 0.005009 -0.002964 -0.012979 -0.838954
    26 1.100771 0.004527 -0.010679 -0.012827 0.009921 -0.736218
    27 0.120153 -0.050270 -0.054489 0.287569 3.110905 1.561085
    28 28.583207 -2.867906 -20.189399 -0.106906 -0.191737 1.170683
    29 0.096944 -8.450418 -0.009365 0.298265 0.728085 0.305498
    30 0.447953 -2.798986 -0.200443 -0.785694 0.072933 0.183371
    31 -0.032909 -1.480204 0.004940 -1.423746 0.000000 0.000002
    32 -0.027022 -1.076920 -0.020210 -0.205924 0.000000 0.000000
    33 -0.249534 -2.846964 -0.174213 -0.666757 -0.000125 -0.008396
    34 0.043235 -1.683941 0.096012 -0.729742 0.002823 -0.000167
    35 0.031729 -1.160830 0.058838 -0.456198 0.000642 0.008372
    36 -0.963866 -2.785145 -0.085350 -0.240883 0.163163 -0.073052
    37 0.028479 -1.403067 0.006271 -0.914803 0.000000 0.000000
    38 0.021413 -0.957781 0.020046 0.071792 0.000000 0.000000
    39 1.164475 -2.543940 -0.170330 -0.677886 0.010016 0.200244
    40 0.024032 -1.129042 0.017807 -1.375395 0.000000 0.000001
    41 0.014898 -0.883989 -0.019848 -0.893146 0.000000 0.000000
    42 -0.586770 -1.264477 0.200161 -0.552597 -0.787580 -2.393461
    43 1.522835 0.058681 0.016848 0.001410 0.008985 0.069371
    44 1.117947 0.048424 -0.005766 -0.013402 -0.021351 0.616699
    45 -0.139399 -0.111698 0.014397 -0.220558 0.409467 1.305270
    46 -3.268527 9.159499 -0.036302 1.601549 0.016669 -1.329001
  time 25
    0 8.953398 34.249763 -19.123045 -3.532199 0.056905 0.604213
    1 10.226875 -24.498237 -34.622480 -4.458689 0.004062 2.490757
    2 13.008208 10.193385 -33.278689 -4.986352 -0.177236 -2.845753
    3 23.653065 13.405447 -35.154785 -4.986352 -0.177236 -2.845753
    4 89.735512 36.616081 -14.070349 -1.570777 -1.138185 1.570796
    5 14.867961 73.365112 -32.556590 -3.532215 0.056850 0.604218
    6 0.000004 0.071257 0.000021 0.000000 0.000000 0.000000
    7 -42.359509 -4.725811 -10.784075 -0.873495 2.881110 1.272517
    8 -2.424590 -0.002752 -3.503394 0.000000 0.000000 1.490787
    9 26.556723 -7.311394 -13.397828 6.252178 2.949654 1.258553
    10 2.550188 9.129783 0.217392 1.426741 3.094122 1.420255
    11 -0.071921 -8.498736 -0.104134 -0.722023 0.167952 -0.428464
    12 -0.488518 -2.755602 -0.228260 -0.971181 0.051942 -0.186015
    13 0.039887 -1.479790 0.029854 -1.432676 0.000000 0.000001
    14 0.028786 -1.075731 -0.023109 -0.818744 0.000000 0.000000
    15 0.250027 -2.820665 -0.238396 -0.445714 -0.002921 0.008443
    16 -0.049759 -1.680544 0.100479 -1.878786 0.000000 -0.000002
    17 -0.034142 -1.148312 0.084782 -0.639028 0.000000 0.000000
    18 0.957766 -2.746780 -0.090302 0.433776 -0.082532 0.013527
    19 -0.033420 -1.397129 -0.011257 -1.537260 0.000000 -0.000001
    20 -0.022360 -0.957436 0.018784 -1.081976 0.000000 0.000000
    21 -1.180681 -2.507217 -0.193859 -1.177585 0.117596 -0.331523
    22 -0.024967 -1.123934 0.017597 -0.774766 0.000000 0.000001
    23 -0.020057 -0.890968 0.010090 -0.891384 0.000000 0.000000
    24 0.583510 -1.197277 0.185379 0.382592 -0.620432 -0.748175
    25 1.535927 0.010246 0.005009 -0.002964 -0.012979 -0.838954
    26 1.100771 0.004527 -0.010679 -0.012827 0.009921 -0.736218
    27 0.120153 -0.050270 -0.054489 0.287569 3.110905 1.561085
    28 22.564883 -3.426517 -17.329937 -0.106906 -0.191737 1.170683
    29 0.096944 -8.450418 -0.009365 0.298265 0.728085 0.305498
    30 0.447953 -2.798986 -0.200443 -0.785694 0.072933 0.183371
    31 -0.032909 -1.480204 0.004940 -1.423746 0.000000 0.000002
    32 -0.027022 -1.076920 -0.020210 -0.205924 0.000000 0.000000
    33 -0.249534 -2.846964 -0.174213 -0.666757 -0.000125 -0.008396
    34 0.043235 -1.683941 0.096012 -0.729742 0.002823 -0.000167
    35 0.031729 -1.160830 0.058838 -0.456198 0.000642 0.008372
    36 -0.963866 -2.785145 -0.085350 -0.240883 0.163163 -0.073052
    37 0.028479 -1.403067 0.006271 -0.914803 0.000000 0.000000
    38 0.021413 -0.957781 0.020046 0.071792 0.000000 0.000000
    39 1.164475 -2.543940 -0.170330 -0.677886 0.010016 0.200244
    40 0.024032 -1.129042 0.017807 -1.375395 0.000000 0.000001
    41 0.014898 -0.883989 -0.019848 -0.893146 0.000000 0.000000
    42 -0.586770 -1.264477 0.200161 -0.552597 -0.787580 -2.393461
    43 1.522835 0.058681 0.016848 0.001410 0.008985 0.069371
    44 1.117947 0.048424 -0.005766 -0.013402 -0.021351 0.616699
    45 -0.139399 -0.111698 0.014397 -0.220558 0.409467 1.305270
    46 -3.268527 9.159499 -0.036302 1.601549 0.016669 -1.329001
  time 26
    0 9.066683 28.994508 -16.650314 -3.532199 0.056905 0.604213
    1 10.226875 -24.498237 -34.622480 -4.458689 0.004062 2.490757
    2 13.008208 10.193385 -33.278689 -4.986352 -0.177236 -2.845753
    3 23.653065 13.405447 -35.154785 -4.986352 -0.177236 -2.845753
    4 89.735512 36.616081 -14.070349 -1.570777 -1.138185 1.570796
    5 14.981246 68.104585 -30.083858 -3.532215 0.056850 0.604218
    6 0.000004 0.071257 0.000021 0.000000 0.000000 0.000000
    7 -42.359509 -4.725811 -10.784075 -0.873495 2.881110 1.272517
    8 -2.424590 -0.002752 -3.503394 0.000000 0.000000 1.490787
    9 21.326095 -7.846567 -10.929003 6.252178 2.949654 1.258553
    10 2.550188 9.129783 0.217392 1.426741 3.094122 1.420255
    11 -0.071921 -8.498736 -0.104134 -0.722023 0.167952 -0.428464
    12 -0.488518 -2.755602 -0.228260 -0.971181 0.051942 -0.186015
    13 0.039887 -1.479790 0.029854 -1.432676 0.000000 0.000001
    14 0.028786 -1.075731 -0.023109 -0.818744 0.000000 0.000000
    15 0.250027 -2.820665 -0.238396 -0.445714 -0.002921 0.008443
    16 -0.049759 -1.680544 0.100479 -1.878786 0.000000 -0.000002
    17 -0.034142 -1.148312 0.084782 -0.639028 0.000000 0.000000
    18 0.957766 -2.746780 -0.090302 0.433776 -0.082532 0.013527
    19 -0.033420 -1.397129 -0.011257 -1.537260 0.000000 -0.000001
    20 -0.022360 -0.957436 0.018784 -1.081976 0.000000 0.000000
    21 -1.180681 -2.507217 -0.193859 -1.177585 0.117596 -0.331523
    22 -0.024967 -1.123934 0.017597 -0.774766 0.000000 0.000001
    23 -0.020057 -0.890968 0.010090 -0.891384 0.000000 0.000000
    24 0.583510 -1.197277 0.185379 0.382592 -0.620432 -0.748175
    25 1.535927 0.010246 0.005009 -0.002964 -0.012979 -0.838954
    26 1.100771 0.004527 -0.010679 -0.012827 0.009921 -0.736218
    27 0.120153 -0.050270 -0.054489 0.287569 3.110905 1.561085
    28 17.331934 -3.961690 -14.853299 -0.106906 -0.191737 1.170683
    29 0.096944 -8.450418 -0.009365 0.298265 0.728085 0.305498
    30 0.447953 -2.798986 -0.200443 -0.785694 0.072933 0.183371
    31 -0.032909 -1.480204 0.004940 -1.423746 0.000000 0.000002
    32 -0.027022 -1.076920 -0.020210 -0.205924 0.000000 0.000000
    33 -0.249534 -2.846964 -0.174213 -0.666757 -0.000125 -0.008396
    34 0.043235 -1.683941 0.096012 -0.729742 0.002823 -0.000167
    35 0.031729 -1.160830 0.058838 -0.456198 0.000642 0.008372
    36 -0.963866 -2.785145 -0.085350 -0.240883 0.163163 -0.073052
    37 0.028479 -1.403067 0.006271 -0.914803 0.000000 0.000000
    38 0.021413 -0.957781 0.020046 0.071792 0.000000 0.000000
    39 1.164475 -2.543940 -0.170330 -0.677886 0.010016 0.200244
    40 0.024032 -1.129042 0.017807 -1.375395 0.000000 0.000001
    41 0.014898 -0.883989 -0.019848 -0.893146 0.000000 0.000000
    42 -0.586770 -1.264477 0.200161 -0.552597 -0.787580 -2.393461
    43 1.522835 0.058681 0.016848 0.001410 0.008985 0.069371
    44 1.117947 0.048424 -0.005766 -0.013402 -0.021351 0.616699
    45 -0.139399 -0.111698 0.014397 -0.220558 0.409467 1.305270
    46 -3.268527 9.159499 -0.036302 1.601549 0.016669 -1.329001
  time 27
    0 9.226844 24.645332 -14.622908 -3.532199 0.056905 0.604213
    1 10.226875 -24.498237 -34.622480 -4.458689 0.004062 2.490757
    2 13.008208 10.193385 -33.278689 -4.986352 -0.177236 -2.845753
    3 23.653065 13.405447 -35.154785 -4.986352 -0.177236 -2.845753
    4 89.735512 36.616081 -14.070349 -1.570777 -1.138185 1.570796
    5 15.141407 63.757205 -28.052546 -3.532215 0.056850 0.604218
    6 0.000004 0.071257 0.000021 0.000000 0.000000 0.000000
    7 -42.359509 -4.725811 -10.784075 -0.873495 2.881110 1.272517
    8 -2.424590 -0.002752 -3.503394 0.000000 0.000000 1.490787
    9 17.005651 -8.350488 -8.901597 6.252178 2.949654 1.258553
    10 2.550188 9.129783 0.217392 1.426741 3.094122 1.420255
    11 -0.071921 -8.498736 -0.104134 -0.722023 0.167952 -0.428464
    12 -0.488518 -2.755602 -0.228260 -0.971181 0.051942 -0.186015
    13 0.039887 -1.479790 0.029854 -1.432676 0.000000 0.000001
    14 0.028786 -1.075731 -0.023109 -0.818744 0.000000 0.000000
    15 0.250027 -2.820665 -0.238396 -0.445714 -0.002921 0.008443
    16 -0.049759 -1.680544 0.100479 -1.878786 0.000000 -0.000002
    17 -0.034142 -1.148312 0.084782 -0.639028 0.000000 0.000000
    18 0.957766 -2.746780 -0.090302 0.433776 -0.082532 0.013527
    19 -0.033420 -1.397129 -0.011257 -1.537260 0.000000 -0.000001
    20 -0.022360 -0.957436 0.018784 -1.081976 0.000000 0.000000
    21 -1.180681 -2.507217 -0.193859 -1.177585 0.117596 -0.331523
    22 -0.024967 -1.123934 0.017597 -0.774766 0.000000 0.000001
    23 -0.020057 -0.890968 0.010090 -0.891384 0.000000 0.000000
    24 0.583510 -1.197277 0.185379 0.382592 -0.620432 -0.748175
    25 1.535927 0.010246 0.005009 -0.002964 -0.012979 -0.838954
    26 1.100771 0.004527 -0.010679 -0.012827 0.009921 -0.736218
    27 0.120153 -0.050270 -0.054489 0.287569 3.110905 1.561085
    28 13.010196 -4.465611 -12.825893 -0.106906 -0.191737 1.170683
    29 0.096944 -8.450418 -0.009365 0.298265 0.728085 0.305498
    30 0.447953 -2.798986 -0.200443 -0.785694 0.072933 0.183371
    31 -0.032909 -1.480204 0.004940 -1.423746 0.000000 0.000002
    32 -0.027022 -1.076920 -0.020210 -0.205924 0.000000 0.000000
    33 -0.249534 -2.846964 -0.174213 -0.666757 -0.000125 -0.008396
    34 0.043235 -1.683941 0.096012 -0.729742 0.002823 -0.000167
    35 0.031729 -1.160830 0.058838 -0.456198 0.000642 0.008372
    36 -0.963866 -2.785145 -0.085350 -0.240883 0.163163 -0.073052
    37 0.028479 -1.403067 0.006271 -0.914803 0.000000 0.000000
    38 0.021413 -0.957781 0.020046 0.071792 0.000000 0.000000
    39 1.164475 -2.543940 -0.170330 -0.677886 0.010016 0.200244
    40 0.024032 -1.129042 0.017807 -1.375395 0.000000 0.000001
    41 0.014898 -0.883989 -0.019848 -0.893146 0.000000 0.000000
    42 -0.586770 -1.264477 0.200161 -0.552597 -0.787580 -2.393461
    43 1.522835 0.058681 0.016848 0.001410 0.008985 0.069371
    44 1.117947 0.048424 -0.005766 -0.013402 -0.021351 0.616699
    45 -0.139399 -0.111698 0.014397 -0.220558 0.409467 1.305270
    46 -3.268527 9.159499 -0.036302 1.601549 0.016669 -1.329001
  time 28
    0 9.429975 21.330411 -13.099424 -3.532199 0.056905 0.604213
    1 10.226875 -24.498237 -34.622480 -4.458689 0.004062 2.490757
    2 13.008208 10.193385 -33.278689 -4.986352 -0.177236 -2.845753
    3 23.653065 13.405447 -35.154785 -4.986352 -0.177236 -2.845753
    4 89.735512 36.616081 -14.070349 -1.570777 -1.138185 1.570796
    5 15.344538 60.442080 -26.532969 -3.532215 0.056850 0.604218
    6 0.000004 0.071257 0.000021 0.000000 0.000000 0.000000
    7 -42.359509 -4.725811 -10.784075 -0.873495 2.881110 1.272517
    8 -2.424590 -0.002752 -3.503394 0.000000 0.000000 1.490787
    9 13.720394 -8.819253 -7.378113 6.252178 2.949654 1.258553
    10 2.550188 9.129783 0.217392 1.426741 3.094122 1.420255
    11 -0.071921 -8.498736 -0.104134 -0.722023 0.167952 -0.428464
    12 -0.488518 -2.755602 -0.228260 -0.971181 0.051942 -0.186015
    13 0.039887 -1.479790 0.029854 -1.432676 0.000000 0.000001
    14 0.028786 -1.075731 -0.023109 -0.818744 0.000000 0.000000
    15 0.250027 -2.820665 -0.238396 -0.445714 -0.002921 0.008443
    16 -0.049759 -1.680544 0.100479 -1.878786 0.000000 -0.000002
    17 -0.034142 -1.148312 0.084782 -0.639028 0.000000 0.000000
    18 0.957766 -2.746780 -0.090302 0.433776 -0.082532 0.013527
    19 -0.033420 -1.397129 -0.011257 -1.537260 0.000000 -0.000001
    20 -0.022360 -0.957436 0.018784 -1.081976 0.000000 0.000000
    21 -1.180681 -2.507217 -0.193859 -1.177585 0.117596 -0.331523
    22 -0.024967 -1.123934 0.017597 -0.774766 0.000000 0.000001
    23 -0.020057 -0.890968 0.010090 -0.891384 0.000000 0.000000
    24 0.583510 -1.197277 0.185379 0.382592 -0.620432 -0.748175
    25 1.535927 0.010246 0.005009 -0.002964 -0.012979 -0.838954
    26 1.100771 0.004527 -0.010679 -0.012827 0.009921 -0.736218
    27 0.120153 -0.050270 -0.054489 0.287569 3.110905 1.561085
    28 9.721162 -4.934376 -11.306316 -0.106906 -0.191737 1.170683
    29 0.096944 -8.450418 -0.009365 0.298265 0.728085 0.305498
    30 0.447953 -2.798986 -0.200443 -0.785694 0.072933 0.183371
    31 -0.032909 -1.480204 0.004940 -1.423746 0.000000 0.000002
    32 -0.027022 -1.076920 -0.020210 -0.205924 0.000000 0.000000
    33 -0.249534 -2.846964 -0.174213 -0.666757 -0.000125 -0.008396
    34 0.043235 -1.683941 0.096012 -0.729742 0.002823 -0.000167
    35 0.031729 -1.160830 0.058838 -0.456198 0.000642 0.008372
    36 -0.963866 -2.785145 -0.085350 -0.240883 0.163163 -0.073052
    37 0.028479 -1.403067 0.006271 -0.914803 0.000000 0.000000
    38 0.021413 -0.957781 0.020046 0.071792 0.000000 0.000000
    39 1.164475 -2.543940 -0.170330 -0.677886 0.010016 0.200244
    40 0.024032 -1.129042 0.017807 -1.375395 0.000000 0.000001
    41 0.014898 -0.883989 -0.019848 -0.893146 0.000000 0.000000
    42 -0.586770 -1.264477 0.200161 -0.552597 -0.787580 -2.393461
    43 1.522835 0.058681 0.016848 0.001410 0.008985 0.069371
    44 1.117947 0.048424 -0.005766 -0.013402 -0.021351 0.616699
    45 -0.139399 -0.111698 0.014397 -0.220558 0.409467 1.305270
    46 -3.268527 9.159499 -0.036302 1.601549 0.016669 -1.329001
  time 29
    0 9.687796 19.173502 -12.142364 -3.532199 0.056905 0.604213
    1 10.226875 -24.498237 -34.622480 -4.458689 0.004062 2.490757
    2 13.008208 10.193385 -33.278689 -4.986352 -0.177236 -2.845753
    3 23.653065 13.405447 -35.154785 -4.986352 -0.177236 -2.845753
    4 89.735512 36.616081 -14.070349 -1.570777 -1.138185 1.570796
    5 15.602359 58.283279 -25.575908 -3.532215 0.056850 0.604218
    6 0.000004 0.071257 0.000021 0.000000 0.000000 0.000000
    7 -42.359509 -4.725811 -10.784075 -0.873495 2.881110 1.272517
    8 -2.424590 -0.002752 -3.503394 0.000000 0.000000 1.490787
    9 11.587517 -9.248953 -6.421053 6.252178 2.949654 1.258553
    10 2.550188 9.129783 0.217392 1.426741 3.094122 1.420255
    11 -0.071921 -8.498736 -0.104134 -0.722023 0.167952 -0.428464
    12 -0.488518 -2.755602 -0.228260 -0.971181 0.051942 -0.186015
    13 0.039887 -1.479790 0.029854 -1.432676 0.000000 0.000001
    14 0.028786 -1.075731 -0.023109 -0.818744 0.000000 0.000000
    15 0.250027 -2.820665 -0.238396 -0.445714 -0.002921 0.008443
    16 -0.049759 -1.680544 0.100479 -1.878786 0.000000 -0.000002
    17 -0.034142 -1.148312 0.084782 -0.639028 0.000000 0.000000
    18 0.957766 -2.746780 -0.090302 0.433776 -0.082532 0.013527
    19 -0.033420 -1.397129 -0.011257 -1.537260 0.000000 -0.000001
    20 -0.022360 -0.957436 0.018784 -1.081976 0.000000 0.000000
    21 -1.180681 -2.507217 -0.193859 -1.177585 0.117596 -0.331523
    22 -0.024967 -1.123934 0.017597 -0.774766 0.000000 0.000001
    23 -0.020057 -0.890968 0.010090 -0.891384 0.000000 0.000000
    24 0.583510 -1.197277 0.185379 0.382592 -0.620432 -0.748175
    25 1.535927 0.010246 0.005009 -0.002964 -0.012979 -0.838954
    26 1.100771 0.004527 -0.010679 -0.012827 0.009921 -0.736218
    27 0.120153 -0.050270 -0.054489 0.287569 3.110905 1.561085
    28 7.590667 -5.360170 -10.349255 -0.106906 -0.191737 1.170683
    29 0.096944 -8.450418 -0.009365 0.298265 0.728085 0.305498
    30 0.447953 -2.798986 -0.200443 -0.785694 0.072933 0.183371
    31 -0.032909 -1.480204 0.004940 -1.423746 0.000000 0.000002
    32 -0.027022 -1.076920 -0.020210 -0.205924 0.000000 0.000000
    33 -0.249534 -2.846964 -0.174213 -0.666757 -0.000125 -0.008396
    34 0.043235 -1.683941 0.096012 -0.729742 0.002823 -0.000167
    35 0.031729 -1.160830 0.058838 -0.456198 0.000642 0.008372
    36 -0.963866 -2.785145 -0.085350 -0.240883 0.163163 -0.073052
    37 0.028479 -1.403067 0.006271 -0.914803 0.000000 0.000000
    38 0.021413 -0.957781 0.020046 0.071792 0.000000 0.000000
    39 1.164475 -2.543940 -0.170330 -0.677886 0.010016 0.200244
    40 0.024032 -1.129042 0.017807 -1.375395 0.000000 0.000001
    41 0.014898 -0.883989 -0.019848 -0.893146 0.000000 0.000000
    42 -0.586770 -1.264477 0.200161 -0.552597 -0.787580 -2.393461
    43 1.522835 0.058681 0.016848 0.001410 0.008985 0.069371
    44 1.117947 0.048424 -0.005766 -0.013402 -0.021351 0.616699
    45 -0.139399 -0.111698 0.014397 -0.220558 0.409467 1.305270
    46 -3.268527 9.159499 -0.036302 1.601549 0.016669 -1.329001
  time 30
    0 10.004212 18.289523 -11.810322 -3.532199 0.056905 0.604213
    1 10.226875 -24.498237 -34.622480 -4.458689 0.004062 2.490757
    2 13.008208 10.193385 -33.278689 -4.986352 -0.177236 -2.845753
    3 23.653065 13.405447 -35.154785 -4.986352 -0.177236 -2.845753
    4 89.735512 36.616081 -14.070349 -1.570777 -1.138185 1.570796
    5 15.918774 57.399907 -25.243867 -3.532215 0.056850 0.604218
    6 0.000004 0.071257 0.000021 0.000000 0.000000 0.000000
    7 -42.359509 -4.725811 -10.784075 -0.873495 2.881110 1.272517
    8 -2.424590 -0.002752 -3.503394 0.000000 0.000000 1.490787
    9 10.732022 -9.631777 -6.089011 6.252178 2.949654 1.258553
    10 2.550188 9.129783 0.217392 1.426741 3.094122 1.420255
    11 -0.071921 -8.498736 -0.104134 -0.722023 0.167952 -0.428464
    12 -0.488518 -2.755602 -0.228260 -0.971181 0.051942 -0.186015
    13 0.039887 -1.479790 0.029854 -1.432676 0.000000 0.000001
    14 0.028786 -1.075731 -0.023109 -0.818744 0.000000 0.000000
    15 0.250027 -2.820665 -0.238396 -0.445714 -0.002921 0.008443
    16 -0.049759 -1.680544 0.100479 -1.878786 0.000000 -0.000002
    17 -0.034142 -1.148312 0.084782 -0.639028 0.000000 0.000000
    18 0.957766 -2.746780 -0.090302 0.433776 -0.082532 0.013527
    19 -0.033420 -1.397129 -0.011257 -1.537260 0.000000 -0.000001
    20 -0.022360 -0.957436 0.018784 -1.081976 0.000000 0.000000
    21 -1.180681 -2.507217 -0.193859 -1.177585 0.117596 -0.331523
    22 -0.024967 -1.123934 0.017597 -0.774766 0.000000 0.000001
    23 -0.020057 -0.890968 0.010090 -0.891384 0.000000 0.000000
    24 0.583510 -1.197277 0.185379 0.382592 -0.620432 -0.748175
    25 1.535927 0.010246 0.005009 -0.002964 -0.012979 -0.838954
    26 1.100771 0.004527 -0.010679 -0.012827 0.009921 -0.736218
    27 0.120153 -0.050270 -0.054489 0.287569 3.110905 1.561085
    28 6.735865 -5.742994 -10.017214 -0.106906 -0.191737 1.170683
    29 0.096944 -8.450418 -0.009365 0.298265 0.728085 0.305498
    30 0.447953 -2.798986 -0.200443 -0.785694 0.072933 0.183371
    31 -0.032909 -1.480204 0.004940 -1.423746 0.000000 0.000002
    32 -0.027022 -1.076920 -0.020210 -0.205924 0.000000 0.000000
    33 -0.249534 -2.846964 -0.174213 -0.666757 -0.000125 -0.008396
    34 0.043235 -1.683941 0.096012 -0.729742 0.002823 -0.000167
    35 0.031729 -1.160830 0.058838 -0.456198 0.000642 0.008372
    36 -0.963866 -2.785145 -0.085350 -0.240883 0.163163 -0.073052
    37 0.028479 -1.403067 0.006271 -0.914803 0.000000 0.000000
    38 0.021413 -0.957781 0.020046 0.071792 0.000000 0.000000
    39 1.164475 -2.543940 -0.170330 -0.677886 0.010016 0.200244
    40 0.024032 -1.129042 0.017807 -1.375395 0.000000 0.000001
    41 0.014898 -0.883989 -0.019848 -0.893146 0.000000 0.000000
    42 -0.586770 -1.264477 0.200161 -0.552597 -0.787580 -2.393461
    43 1.522835 0.058681 0.016848 0.001410 0.008985 0.069371
    44 1.117947 0.048424 -0.005766 -0.013402 -0.021351 0.616699
    45 -0.139399 -0.111698 0.014397 -0.220558 0.409467 1.305270
    46 -3.268527 9.159499 -0.036302 1.601549 0.016669 -1.329001
end
