// Created by Crowbar 0.34.0.0

$ModelName "weapons/tfa_cso/w_skull11.mdl"

$BodyGroup "studio"
{
	studio "v_skull11_v_skull"
}

$collisionmodel "v_skull11_v_skull.smd"
{
	$mass 9
}

$CDMaterials "models\weapons\tfa_cso\skull11"

$attachment "0" "root" -0.00 -15.50 -1.70 rotate -0 0 0

$Sequence "idle" {
	"anims\idle.smd"
	fps 30
}