version 1
nodes
  0 "Bone01" -1
  1 "Bone_Lefthand" 0
  2 "USP" 1
  3 "Bone02" 2
  4 "USP_Slide-handle" 3
  5 "USP_Magazine-handle" 3
  6 "USP_Trigger-Handle" 3
  7 "Bone 04" 1
  8 "Bone13" 7
  9 "Bone14" 8
  10 "Bone15" 9
  11 "Bone17" 7
  12 "Bone18" 11
  13 "Bone19" 12
  14 "Bone21" 7
  15 "Bone22" 14
  16 "Bone23" 15
  17 "Bone05" 7
  18 "Bone06" 17
  19 "Bone07" 18
  20 "Bone09" 7
  21 "Bone10" 20
  22 "Bone11" 21
  23 "Bone04" -1
  24 "Bone_Righthand" 23
  25 "Bone26" 24
  26 "Bone35" 25
  27 "Bone36" 26
  28 "Bone37" 27
  29 "Bone31" 25
  30 "Bone32" 29
  31 "Bone33" 30
  32 "Bone39" 25
  33 "Bone40" 32
  34 "Bone41" 33
  35 "Bone43" 25
  36 "Bone44" 35
  37 "Bone45" 36
  38 "Bone27" 25
  39 "Bone28" 38
  40 "Bone29" 39
end
skeleton
  time 0
    0 6.606519 0.165564 -6.694014 -0.742856 -1.324791 0.528521
    1 0.000000 -8.563284 0.000000 0.351240 -0.108598 -0.162998
    2 0.022535 -3.459973 0.747359 -1.452340 1.442002 -1.446094
    3 -0.000001 2.373979 0.699475 0.000000 0.000000 0.000000
    4 -0.000001 -0.369274 1.718291 0.000000 0.000000 0.000000
    5 0.000000 -1.759287 0.975027 0.000000 0.000000 0.000000
    6 -0.000966 -2.992972 0.968136 0.131076 -0.001806 -0.009717
    7 -0.003480 -0.404829 0.000000 0.000000 0.000000 0.000000
    8 -0.519308 -2.501155 -0.278957 -1.003564 0.000000 -0.122173
    9 -0.010598 -1.208184 0.000001 -1.090831 0.000000 0.000000
    10 0.000000 -0.763066 0.000000 -1.343903 0.000000 0.000000
    11 0.105982 -2.607134 -0.278957 -0.890118 0.000000 -0.148353
    12 0.000000 -1.250580 0.000000 -1.213004 0.000000 0.000000
    13 0.000000 -0.932634 0.000001 -1.483530 0.000000 0.000000
    14 0.763064 -2.490556 -0.278957 -0.349065 0.000000 0.130900
    15 -0.012321 -1.280916 0.000000 -0.322887 0.000000 0.000000
    16 -0.001697 -0.749371 0.000001 -0.593412 0.000000 0.000000
    17 0.354567 0.016268 0.318133 0.342077 -0.443527 -1.083976
    18 1.887166 0.012877 0.000000 -0.305433 0.000000 -0.401426
    19 1.001874 -0.000270 0.000000 0.000000 0.000000 -0.488692
    20 -1.123358 -2.195092 -0.278957 -0.933751 0.000000 -0.087266
    21 0.010773 -0.963791 0.000000 -0.610865 0.000000 0.000000
    22 -0.010412 -0.631916 0.000000 -1.213004 0.000000 0.000000
    23 -1.147985 -2.861177 -10.854140 -0.375247 0.000057 0.602052
    24 0.089929 -8.543163 -0.000001 0.079777 -0.284686 0.455196
    25 0.000000 -0.359713 0.000000 0.000000 0.000000 0.000000
    26 -0.170480 -2.636147 -0.277655 -0.820345 0.000000 0.000000
    27 0.010599 -1.261177 0.000000 -0.584683 0.000000 0.000000
    28 -0.000001 -0.943233 0.000000 -0.532326 0.000000 0.000000
    29 -0.827563 -2.508973 -0.277656 -0.942486 0.000000 0.000000
    30 0.000001 -1.292971 0.000000 -0.287992 0.000000 0.000000
    31 0.000000 -0.752466 0.000000 -0.445059 0.000000 0.000000
    32 0.444212 -2.561960 -0.277655 -1.081578 -0.046226 -0.024599
    33 0.021022 -1.208186 0.000000 -0.427606 0.000000 0.000000
    34 0.010597 -0.741867 0.000000 -0.453786 0.000000 0.000000
    35 1.047444 -2.222821 -0.277655 -1.019692 -0.066950 -0.041090
    36 0.000000 -0.996223 -0.000001 -0.584716 0.000000 0.000000
    37 -0.000002 -0.614690 0.000000 -0.523599 0.000000 0.000000
    38 -0.308254 -0.007814 0.307166 -0.318048 -0.539821 -2.424630
    39 1.978378 0.019543 0.000000 -0.000002 -0.000010 0.549775
    40 0.982427 0.003186 0.000000 0.000000 0.000000 0.593399
  time 1
    0 6.606519 0.286662 -6.729171 -0.796769 -1.315124 0.587724
    1 0.000000 -8.563284 0.000000 0.359256 -0.095834 -0.122035
    2 0.022535 -3.459973 0.747359 -1.452340 1.442002 -1.446094
    3 -0.000001 2.373979 0.699475 0.000000 0.000000 0.000000
    4 -0.000001 0.451064 1.718291 0.000000 0.000000 0.000000
    5 0.000000 -1.759287 0.975027 0.000000 0.000000 0.000000
    6 -0.000966 -2.992972 0.968136 0.131076 -0.001806 -0.009717
    7 -0.003480 -0.404829 0.000000 0.000000 0.000000 0.000000
    8 -0.519308 -2.501155 -0.278957 -1.003564 0.000000 -0.122173
    9 -0.010598 -1.208184 0.000001 -1.090831 0.000000 0.000000
    10 0.000000 -0.763066 0.000000 -1.343903 0.000000 0.000000
    11 0.105982 -2.607134 -0.278957 -0.890118 0.000000 -0.148353
    12 0.000000 -1.250580 0.000000 -1.213004 0.000000 0.000000
    13 0.000000 -0.932634 0.000001 -1.483530 0.000000 0.000000
    14 0.763064 -2.490556 -0.278957 -0.349065 0.000000 0.130900
    15 -0.012321 -1.280916 0.000000 -0.341251 0.000000 0.000000
    16 -0.001697 -0.749371 0.000001 -0.617006 0.000000 0.000000
    17 0.354567 0.016268 0.318133 0.342077 -0.443527 -1.083976
    18 1.887166 0.012877 0.000000 -0.305433 0.000000 -0.401426
    19 1.001874 -0.000270 0.000000 0.000000 0.000000 -0.488692
    20 -1.123358 -2.195092 -0.278957 -0.933751 0.000000 -0.087266
    21 0.010773 -0.963791 0.000000 -0.610865 0.000000 0.000000
    22 -0.010412 -0.631916 0.000000 -1.213004 0.000000 0.000000
    23 -1.147985 -2.790862 -10.830702 -0.375931 0.000440 0.602052
    24 0.089929 -8.543163 -0.000001 0.086075 -0.293368 0.451821
    25 0.000000 -0.359713 0.000000 0.000000 0.000000 0.000000
    26 -0.170480 -2.636147 -0.277655 -0.820345 0.000000 0.000000
    27 0.010599 -1.261177 0.000000 -0.584683 0.000000 0.000000
    28 -0.000001 -0.943233 0.000000 -0.532326 0.000000 0.000000
    29 -0.827563 -2.508973 -0.277656 -0.942486 0.000000 0.000000
    30 0.000001 -1.292971 0.000000 -0.287992 0.000000 0.000000
    31 0.000000 -0.752466 0.000000 -0.445059 0.000000 0.000000
    32 0.444212 -2.561960 -0.277655 -1.081578 -0.046226 -0.024599
    33 0.021022 -1.208186 0.000000 -0.427606 0.000000 0.000000
    34 0.010597 -0.741867 0.000000 -0.453786 0.000000 0.000000
    35 1.047444 -2.222821 -0.277655 -1.019692 -0.066950 -0.041090
    36 0.000000 -0.996223 -0.000001 -0.584716 0.000000 0.000000
    37 -0.000002 -0.614690 0.000000 -0.523599 0.000000 0.000000
    38 -0.308254 -0.007814 0.307166 -0.318048 -0.539821 -2.424630
    39 1.978378 0.019543 0.000000 -0.000002 -0.000010 0.549775
    40 0.982427 0.003186 0.000000 0.000000 0.000000 0.593399
  time 2
    0 6.606519 0.337445 -6.733078 -0.833668 -1.310272 0.629665
    1 0.000000 -8.563284 0.000000 0.328806 -0.140633 -0.075872
    2 0.022535 -3.459973 0.747359 -1.452340 1.442002 -1.446094
    3 -0.000001 2.373979 0.699475 0.000000 0.000000 0.000000
    4 -0.000001 0.095584 1.718291 0.000000 0.000000 0.000000
    5 0.000000 -1.759287 0.975027 0.000000 0.000000 0.000000
    6 -0.000966 -2.992972 0.968136 0.131076 -0.001806 -0.009717
    7 -0.003480 -0.404829 0.000000 0.000000 0.000000 0.000000
    8 -0.519308 -2.501155 -0.278957 -1.003564 0.000000 -0.122173
    9 -0.010598 -1.208184 0.000001 -1.090831 0.000000 0.000000
    10 0.000000 -0.763066 0.000000 -1.343903 0.000000 0.000000
    11 0.105982 -2.607134 -0.278957 -0.890118 0.000000 -0.148353
    12 0.000000 -1.250580 0.000000 -1.213004 0.000000 0.000000
    13 0.000000 -0.932634 0.000001 -1.483530 0.000000 0.000000
    14 0.763064 -2.490556 -0.278957 -0.349065 0.000000 0.130900
    15 -0.012321 -1.280916 0.000000 -0.389683 0.000000 0.000000
    16 -0.001697 -0.749371 0.000001 -0.679293 0.000000 0.000000
    17 0.354567 0.016268 0.318133 0.342077 -0.443527 -1.083976
    18 1.887166 0.012877 0.000000 -0.305433 0.000000 -0.401426
    19 1.001874 -0.000270 0.000000 0.000000 0.000000 -0.488692
    20 -1.123358 -2.195092 -0.278957 -0.933751 0.000000 -0.087266
    21 0.010773 -0.963791 0.000000 -0.610865 0.000000 0.000000
    22 -0.010412 -0.631916 0.000000 -1.213004 0.000000 0.000000
    23 -1.147985 -2.720548 -10.799451 -0.375247 0.000057 0.602052
    24 0.089929 -8.543163 -0.000001 0.079777 -0.284686 0.455196
    25 0.000000 -0.359713 0.000000 0.000000 0.000000 0.000000
    26 -0.170480 -2.636147 -0.277655 -0.820345 0.000000 0.000000
    27 0.010599 -1.261177 0.000000 -0.584683 0.000000 0.000000
    28 -0.000001 -0.943233 0.000000 -0.532326 0.000000 0.000000
    29 -0.827563 -2.508973 -0.277656 -0.942486 0.000000 0.000000
    30 0.000001 -1.292971 0.000000 -0.287992 0.000000 0.000000
    31 0.000000 -0.752466 0.000000 -0.445059 0.000000 0.000000
    32 0.444212 -2.561960 -0.277655 -1.081578 -0.046226 -0.024599
    33 0.021022 -1.208186 0.000000 -0.427606 0.000000 0.000000
    34 0.010597 -0.741867 0.000000 -0.453786 0.000000 0.000000
    35 1.047444 -2.222821 -0.277655 -1.019692 -0.066950 -0.041090
    36 0.000000 -0.996223 -0.000001 -0.584716 0.000000 0.000000
    37 -0.000002 -0.614690 0.000000 -0.523599 0.000000 0.000000
    38 -0.308254 -0.007814 0.307166 -0.318048 -0.539821 -2.424630
    39 1.978378 0.019543 0.000000 -0.000002 -0.000010 0.549775
    40 0.982427 0.003186 0.000000 0.000000 0.000000 0.593399
  time 3
    0 6.606519 0.677299 -6.580729 -0.825493 -1.311539 0.622558
    1 0.000000 -8.563284 0.000000 0.295298 -0.180146 -0.038005
    2 0.022535 -3.459973 0.747359 -1.452340 1.442002 -1.446094
    3 -0.000001 2.373979 0.699475 0.000000 0.000000 0.000000
    4 -0.000001 -0.572405 1.710478 0.000000 0.000000 0.000000
    5 0.000000 -1.759287 0.975027 0.000000 0.000000 0.000000
    6 -0.000966 -2.992972 0.968136 0.131076 -0.001806 -0.009717
    7 -0.003480 -0.404829 0.000000 0.000000 0.000000 0.000000
    8 -0.519308 -2.501155 -0.278957 -1.003564 0.000000 -0.122173
    9 -0.010598 -1.208184 0.000001 -1.090831 0.000000 0.000000
    10 0.000000 -0.763066 0.000000 -1.343903 0.000000 0.000000
    11 0.105982 -2.607134 -0.278957 -0.890118 0.000000 -0.148353
    12 0.000000 -1.250580 0.000000 -1.213004 0.000000 0.000000
    13 0.000000 -0.932634 0.000001 -1.483530 0.000000 0.000000
    14 0.763064 -2.490556 -0.278957 -0.349065 0.000000 0.130900
    15 -0.012321 -1.280916 0.000000 -0.458168 0.000000 0.000000
    16 -0.001697 -0.749371 0.000001 -0.767345 0.000000 0.000000
    17 0.354567 0.016268 0.318133 0.342077 -0.443527 -1.083976
    18 1.887166 0.012877 0.000000 -0.305433 0.000000 -0.401426
    19 1.001874 -0.000270 0.000000 0.000000 0.000000 -0.488692
    20 -1.123358 -2.195092 -0.278957 -0.933751 0.000000 -0.087266
    21 0.010773 -0.963791 0.000000 -0.610865 0.000000 0.000000
    22 -0.010412 -0.631916 0.000000 -1.213004 0.000000 0.000000
    23 -1.147985 -2.728360 -10.803357 -0.371825 -0.002239 0.602052
    24 0.089929 -8.543163 -0.000001 0.022610 -0.219935 0.480298
    25 0.000000 -0.359713 0.000000 0.000000 0.000000 0.000000
    26 -0.170480 -2.636147 -0.277655 -0.820345 0.000000 0.000000
    27 0.010599 -1.261177 0.000000 -0.584683 0.000000 0.000000
    28 -0.000001 -0.943233 0.000000 -0.532326 0.000000 0.000000
    29 -0.827563 -2.508973 -0.277656 -0.942486 0.000000 0.000000
    30 0.000001 -1.292971 0.000000 -0.287992 0.000000 0.000000
    31 0.000000 -0.752466 0.000000 -0.445059 0.000000 0.000000
    32 0.444212 -2.561960 -0.277655 -1.081578 -0.046226 -0.024599
    33 0.021022 -1.208186 0.000000 -0.427606 0.000000 0.000000
    34 0.010597 -0.741867 0.000000 -0.453786 0.000000 0.000000
    35 1.047444 -2.222821 -0.277655 -1.019692 -0.066950 -0.041090
    36 0.000000 -0.996223 -0.000001 -0.584716 0.000000 0.000000
    37 -0.000002 -0.614690 0.000000 -0.523599 0.000000 0.000000
    38 -0.308254 -0.007814 0.307166 -0.318048 -0.539821 -2.424630
    39 1.978378 0.019543 0.000000 -0.000002 -0.000010 0.549775
    40 0.982427 0.003186 0.000000 0.000000 0.000000 0.593399
  time 4
    0 6.606519 0.646048 -6.588542 -0.807596 -1.314364 0.605141
    1 0.000000 -8.563284 0.000000 0.303073 -0.155757 -0.081506
    2 0.022535 -3.459973 0.747359 -1.452340 1.442002 -1.446094
    3 -0.000001 2.373979 0.699475 0.000000 0.000000 0.000000
    4 -0.000001 -0.931791 1.710478 0.000000 0.000000 0.000000
    5 0.000000 -1.759287 0.975027 0.000000 0.000000 0.000000
    6 -0.000966 -2.992972 0.968136 0.131076 -0.001806 -0.009717
    7 -0.003480 -0.404829 0.000000 0.000000 0.000000 0.000000
    8 -0.519308 -2.501155 -0.278957 -1.003564 0.000000 -0.122173
    9 -0.010598 -1.208184 0.000001 -1.090831 0.000000 0.000000
    10 0.000000 -0.763066 0.000000 -1.343903 0.000000 0.000000
    11 0.105982 -2.607134 -0.278957 -0.890118 0.000000 -0.148353
    12 0.000000 -1.250580 0.000000 -1.213004 0.000000 0.000000
    13 0.000000 -0.932634 0.000001 -1.483530 0.000000 0.000000
    14 0.763064 -2.490556 -0.278957 -0.349065 0.000000 0.130900
    15 -0.012321 -1.280916 0.000000 -0.536667 0.000000 0.000000
    16 -0.001697 -0.749371 0.000001 -0.868272 0.000000 0.000000
    17 0.354567 0.016268 0.318133 0.342077 -0.443527 -1.083976
    18 1.887166 0.012877 0.000000 -0.305433 0.000000 -0.401426
    19 1.001874 -0.000270 0.000000 0.000000 0.000000 -0.488692
    20 -1.123358 -2.195092 -0.278957 -0.933751 0.000000 -0.087266
    21 0.010773 -0.963791 0.000000 -0.610865 0.000000 0.000000
    22 -0.010412 -0.631916 0.000000 -1.213004 0.000000 0.000000
    23 -1.147985 -2.736173 -10.807264 -0.367307 -0.005396 0.602052
    24 0.089929 -8.543163 -0.000001 -0.015642 -0.143326 0.500782
    25 0.000000 -0.359713 0.000000 0.000000 0.000000 0.000000
    26 -0.170480 -2.636147 -0.277655 -0.820345 0.000000 0.000000
    27 0.010599 -1.261177 0.000000 -0.584683 0.000000 0.000000
    28 -0.000001 -0.943233 0.000000 -0.532326 0.000000 0.000000
    29 -0.827563 -2.508973 -0.277656 -0.942486 0.000000 0.000000
    30 0.000001 -1.292971 0.000000 -0.287992 0.000000 0.000000
    31 0.000000 -0.752466 0.000000 -0.445059 0.000000 0.000000
    32 0.444212 -2.561960 -0.277655 -1.081578 -0.046226 -0.024599
    33 0.021022 -1.208186 0.000000 -0.427606 0.000000 0.000000
    34 0.010597 -0.741867 0.000000 -0.453786 0.000000 0.000000
    35 1.047444 -2.222821 -0.277655 -1.019692 -0.066950 -0.041090
    36 0.000000 -0.996223 -0.000001 -0.584716 0.000000 0.000000
    37 -0.000002 -0.614690 0.000000 -0.523599 0.000000 0.000000
    38 -0.308254 -0.007814 0.307166 -0.318048 -0.539821 -2.424630
    39 1.978378 0.019543 0.000000 -0.000002 -0.000010 0.549775
    40 0.982427 0.003186 0.000000 0.000000 0.000000 0.593399
  time 5
    0 6.606519 0.610890 -6.596355 -0.783954 -1.317948 0.581710
    1 0.000000 -8.563284 0.000000 0.319911 -0.111151 -0.150256
    2 0.022535 -3.459973 0.747359 -1.452340 1.442002 -1.446094
    3 -0.000001 2.373979 0.699475 0.000000 0.000000 0.000000
    4 -0.000001 -0.931791 1.710478 0.000000 0.000000 0.000000
    5 0.000000 -1.759287 0.975027 0.000000 0.000000 0.000000
    6 -0.000966 -2.992972 0.968136 0.131076 -0.001806 -0.009717
    7 -0.003480 -0.404829 0.000000 0.000000 0.000000 0.000000
    8 -0.519308 -2.501155 -0.278957 -1.003564 0.000000 -0.122173
    9 -0.010598 -1.208184 0.000001 -1.090831 0.000000 0.000000
    10 0.000000 -0.763066 0.000000 -1.343903 0.000000 0.000000
    11 0.105982 -2.607134 -0.278957 -0.890118 0.000000 -0.148353
    12 0.000000 -1.250580 0.000000 -1.213004 0.000000 0.000000
    13 0.000000 -0.932634 0.000001 -1.483530 0.000000 0.000000
    14 0.763064 -2.490556 -0.278957 -0.349065 0.000000 0.130900
    15 -0.012321 -1.280916 0.000000 -0.615180 0.000000 0.000000
    16 -0.001697 -0.749371 0.000001 -0.969217 0.000000 0.000000
    17 0.354567 0.016268 0.318133 0.342077 -0.443527 -1.083976
    18 1.887166 0.012877 0.000000 -0.305433 0.000000 -0.401426
    19 1.001874 -0.000270 0.000000 0.000000 0.000000 -0.488692
    20 -1.123358 -2.195092 -0.278957 -0.933751 0.000000 -0.087266
    21 0.010773 -0.963791 0.000000 -0.610865 0.000000 0.000000
    22 -0.010412 -0.631916 0.000000 -1.213004 0.000000 0.000000
    23 -1.147985 -2.743986 -10.811170 -0.362470 -0.008648 0.601983
    24 0.089929 -8.543163 -0.000001 0.045704 -0.093082 0.502563
    25 0.000000 -0.359713 0.000000 0.000000 0.000000 0.000000
    26 -0.170480 -2.636147 -0.277655 -0.820345 0.000000 0.000000
    27 0.010599 -1.261177 0.000000 -0.584683 0.000000 0.000000
    28 -0.000001 -0.943233 0.000000 -0.532326 0.000000 0.000000
    29 -0.827563 -2.508973 -0.277656 -0.942486 0.000000 0.000000
    30 0.000001 -1.292971 0.000000 -0.287992 0.000000 0.000000
    31 0.000000 -0.752466 0.000000 -0.445059 0.000000 0.000000
    32 0.444212 -2.561960 -0.277655 -1.081578 -0.046226 -0.024599
    33 0.021022 -1.208186 0.000000 -0.427606 0.000000 0.000000
    34 0.010597 -0.741867 0.000000 -0.453786 0.000000 0.000000
    35 1.047444 -2.222821 -0.277655 -1.019692 -0.066950 -0.041090
    36 0.000000 -0.996223 -0.000001 -0.584716 0.000000 0.000000
    37 -0.000002 -0.614690 0.000000 -0.523599 0.000000 0.000000
    38 -0.308254 -0.007814 0.307166 -0.318048 -0.539821 -2.424630
    39 1.978378 0.019543 0.000000 -0.000002 -0.000010 0.549775
    40 0.982427 0.003186 0.000000 0.000000 0.000000 0.593399
  time 6
    0 6.606519 0.571827 -6.604168 -0.759262 -1.321460 0.556795
    1 0.000000 -8.563284 0.000000 0.334438 -0.067443 -0.212988
    2 0.022535 -3.459973 0.747359 -1.452340 1.442002 -1.446094
    3 -0.000001 2.373979 0.699475 0.000000 0.000000 0.000000
    4 -0.000001 -0.931791 1.710478 0.000000 0.000000 0.000000
    5 0.000000 -1.759287 0.975027 0.000000 0.000000 0.000000
    6 -0.000966 -2.992972 0.968136 0.131076 -0.001806 -0.009717
    7 -0.003480 -0.404829 0.000000 0.000000 0.000000 0.000000
    8 -0.519308 -2.501155 -0.278957 -1.003564 0.000000 -0.122173
    9 -0.010598 -1.208184 0.000001 -1.090831 0.000000 0.000000
    10 0.000000 -0.763066 0.000000 -1.343903 0.000000 0.000000
    11 0.105982 -2.607134 -0.278957 -0.890118 0.000000 -0.148353
    12 0.000000 -1.250580 0.000000 -1.213004 0.000000 0.000000
    13 0.000000 -0.932634 0.000001 -1.483530 0.000000 0.000000
    14 0.763064 -2.490556 -0.278957 -0.349065 0.000000 0.130900
    15 -0.012321 -1.280916 0.000000 -0.683665 0.000000 0.000000
    16 -0.001697 -0.749371 0.000001 -1.057288 0.000000 0.000000
    17 0.354567 0.016268 0.318133 0.342077 -0.443527 -1.083976
    18 1.887166 0.012877 0.000000 -0.305433 0.000000 -0.401426
    19 1.001874 -0.000270 0.000000 0.000000 0.000000 -0.488692
    20 -1.123358 -2.195092 -0.278957 -0.933751 0.000000 -0.087266
    21 0.010773 -0.963791 0.000000 -0.610865 0.000000 0.000000
    22 -0.010412 -0.631916 0.000000 -1.213004 0.000000 0.000000
    23 -1.147985 -2.751799 -10.815077 -0.358089 -0.011709 0.601983
    24 0.089929 -8.543163 -0.000001 0.115699 -0.058854 0.502610
    25 0.000000 -0.359713 0.000000 0.000000 0.000000 0.000000
    26 -0.170480 -2.636147 -0.277655 -0.820345 0.000000 0.000000
    27 0.010599 -1.261177 0.000000 -0.584683 0.000000 0.000000
    28 -0.000001 -0.943233 0.000000 -0.532326 0.000000 0.000000
    29 -0.827563 -2.508973 -0.277656 -0.942486 0.000000 0.000000
    30 0.000001 -1.292971 0.000000 -0.287992 0.000000 0.000000
    31 0.000000 -0.752466 0.000000 -0.445059 0.000000 0.000000
    32 0.444212 -2.561960 -0.277655 -1.081578 -0.046226 -0.024599
    33 0.021022 -1.208186 0.000000 -0.427606 0.000000 0.000000
    34 0.010597 -0.741867 0.000000 -0.453786 0.000000 0.000000
    35 1.047444 -2.222821 -0.277655 -1.019692 -0.066950 -0.041090
    36 0.000000 -0.996223 -0.000001 -0.584716 0.000000 0.000000
    37 -0.000002 -0.614690 0.000000 -0.523599 0.000000 0.000000
    38 -0.308254 -0.007814 0.307166 -0.318048 -0.539821 -2.424630
    39 1.978378 0.019543 0.000000 -0.000002 -0.000010 0.549775
    40 0.982427 0.003186 0.000000 0.000000 0.000000 0.593399
  time 7
    0 6.606519 0.532763 -6.611980 -0.738216 -1.324284 0.535394
    1 0.000000 -8.563284 0.000000 0.340276 -0.047644 -0.240341
    2 0.022535 -3.459973 0.747359 -1.452340 1.442002 -1.446094
    3 -0.000001 2.373979 0.699475 0.000000 0.000000 0.000000
    4 -0.000001 -0.931791 1.710478 0.000000 0.000000 0.000000
    5 0.000000 -1.759287 0.975027 0.000000 0.000000 0.000000
    6 -0.000966 -2.992972 0.968136 0.131076 -0.001806 -0.009717
    7 -0.003480 -0.404829 0.000000 0.000000 0.000000 0.000000
    8 -0.519308 -2.501155 -0.278957 -1.003564 0.000000 -0.122173
    9 -0.010598 -1.208184 0.000001 -1.090831 0.000000 0.000000
    10 0.000000 -0.763066 0.000000 -1.343903 0.000000 0.000000
    11 0.105982 -2.607134 -0.278957 -0.890118 0.000000 -0.148353
    12 0.000000 -1.250580 0.000000 -1.213004 0.000000 0.000000
    13 0.000000 -0.932634 0.000001 -1.483530 0.000000 0.000000
    14 0.763064 -2.490556 -0.278957 -0.349065 0.000000 0.130900
    15 -0.012321 -1.280916 0.000000 -0.732111 0.000000 0.000000
    16 -0.001697 -0.749371 0.000001 -1.119539 0.000000 0.000000
    17 0.354567 0.016268 0.318133 0.342077 -0.443527 -1.083976
    18 1.887166 0.012877 0.000000 -0.305433 0.000000 -0.401426
    19 1.001874 -0.000270 0.000000 0.000000 0.000000 -0.488692
    20 -1.123358 -2.195092 -0.278957 -0.933751 0.000000 -0.087266
    21 0.010773 -0.963791 0.000000 -0.610865 0.000000 0.000000
    22 -0.010412 -0.631916 0.000000 -1.213004 0.000000 0.000000
    23 -1.147985 -2.759611 -10.818983 -0.354940 -0.013909 0.601913
    24 0.089929 -8.543163 -0.000001 0.113773 -0.041362 0.506642
    25 0.000000 -0.359713 0.000000 0.000000 0.000000 0.000000
    26 -0.170480 -2.636147 -0.277655 -0.820345 0.000000 0.000000
    27 0.010599 -1.261177 0.000000 -0.584683 0.000000 0.000000
    28 -0.000001 -0.943233 0.000000 -0.532326 0.000000 0.000000
    29 -0.827563 -2.508973 -0.277656 -0.942486 0.000000 0.000000
    30 0.000001 -1.292971 0.000000 -0.287992 0.000000 0.000000
    31 0.000000 -0.752466 0.000000 -0.445059 0.000000 0.000000
    32 0.444212 -2.561960 -0.277655 -1.081578 -0.046226 -0.024599
    33 0.021022 -1.208186 0.000000 -0.427606 0.000000 0.000000
    34 0.010597 -0.741867 0.000000 -0.453786 0.000000 0.000000
    35 1.047444 -2.222821 -0.277655 -1.019692 -0.066950 -0.041090
    36 0.000000 -0.996223 -0.000001 -0.584716 0.000000 0.000000
    37 -0.000002 -0.614690 0.000000 -0.523599 0.000000 0.000000
    38 -0.308254 -0.007814 0.307166 -0.318048 -0.539821 -2.424630
    39 1.978378 0.019543 0.000000 -0.000002 -0.000010 0.549775
    40 0.982427 0.003186 0.000000 0.000000 0.000000 0.593399
  time 8
    0 6.606519 0.493699 -6.619793 -0.726340 -1.325841 0.522976
    1 0.000000 -8.563284 0.000000 0.340324 -0.047848 -0.240081
    2 0.022535 -3.459973 0.747359 -1.452340 1.442002 -1.446094
    3 -0.000001 2.373979 0.699475 0.000000 0.000000 0.000000
    4 -0.000001 -0.931791 1.710478 0.000000 0.000000 0.000000
    5 0.000000 -1.759287 0.975027 0.000000 0.000000 0.000000
    6 -0.000966 -2.992972 0.968136 0.131076 -0.001806 -0.009717
    7 -0.003480 -0.404829 0.000000 0.000000 0.000000 0.000000
    8 -0.519308 -2.501155 -0.278957 -1.003564 0.000000 -0.122173
    9 -0.010598 -1.208184 0.000001 -1.090831 0.000000 0.000000
    10 0.000000 -0.763066 0.000000 -1.343903 0.000000 0.000000
    11 0.105982 -2.607134 -0.278957 -0.890118 0.000000 -0.148353
    12 0.000000 -1.250580 0.000000 -1.213004 0.000000 0.000000
    13 0.000000 -0.932634 0.000001 -1.483530 0.000000 0.000000
    14 0.763064 -2.490556 -0.278957 -0.349065 0.000000 0.130900
    15 -0.012321 -1.280916 0.000000 -0.750475 0.000000 0.000000
    16 -0.001697 -0.749371 0.000001 -1.143169 0.000000 0.000000
    17 0.354567 0.016268 0.318133 0.342077 -0.443527 -1.083976
    18 1.887166 0.012877 0.000000 -0.305433 0.000000 -0.401426
    19 1.001874 -0.000270 0.000000 0.000000 0.000000 -0.488692
    20 -1.123358 -2.195092 -0.278957 -0.933751 0.000000 -0.087266
    21 0.010773 -0.963791 0.000000 -0.610865 0.000000 0.000000
    22 -0.010412 -0.631916 0.000000 -1.213004 0.000000 0.000000
    23 -1.147985 -2.767424 -10.818983 -0.353708 -0.014770 0.601913
    24 0.089929 -8.543163 -0.000001 0.096399 -0.044235 0.507227
    25 0.000000 -0.359713 0.000000 0.000000 0.000000 0.000000
    26 -0.170480 -2.636147 -0.277655 -0.820345 0.000000 0.000000
    27 0.010599 -1.261177 0.000000 -0.584683 0.000000 0.000000
    28 -0.000001 -0.943233 0.000000 -0.532326 0.000000 0.000000
    29 -0.827563 -2.508973 -0.277656 -0.942486 0.000000 0.000000
    30 0.000001 -1.292971 0.000000 -0.287992 0.000000 0.000000
    31 0.000000 -0.752466 0.000000 -0.445059 0.000000 0.000000
    32 0.444212 -2.561960 -0.277655 -1.081578 -0.046226 -0.024599
    33 0.021022 -1.208186 0.000000 -0.427606 0.000000 0.000000
    34 0.010597 -0.741867 0.000000 -0.453786 0.000000 0.000000
    35 1.047444 -2.222821 -0.277655 -1.019692 -0.066950 -0.041090
    36 0.000000 -0.996223 -0.000001 -0.584716 0.000000 0.000000
    37 -0.000002 -0.614690 0.000000 -0.523599 0.000000 0.000000
    38 -0.308254 -0.007814 0.307166 -0.318048 -0.539821 -2.424630
    39 1.978378 0.019543 0.000000 -0.000002 -0.000010 0.549775
    40 0.982427 0.003186 0.000000 0.000000 0.000000 0.593399
  time 9
    0 6.606519 0.454636 -6.631512 -0.722087 -1.326457 0.518055
    1 0.000000 -8.563284 0.000000 0.340793 -0.050029 -0.237283
    2 0.022535 -3.459973 0.747359 -1.452340 1.442002 -1.446094
    3 -0.000001 2.373979 0.699475 0.000000 0.000000 0.000000
    4 -0.000001 -0.931791 1.710478 0.000000 0.000000 0.000000
    5 0.000000 -1.759287 0.975027 0.000000 0.000000 0.000000
    6 -0.000966 -2.992972 0.968136 0.131076 -0.001806 -0.009717
    7 -0.003480 -0.404829 0.000000 0.000000 0.000000 0.000000
    8 -0.519308 -2.501155 -0.278957 -1.003564 0.000000 -0.122173
    9 -0.010598 -1.208184 0.000001 -1.090831 0.000000 0.000000
    10 0.000000 -0.763066 0.000000 -1.343903 0.000000 0.000000
    11 0.105982 -2.607134 -0.278957 -0.890118 0.000000 -0.148353
    12 0.000000 -1.250580 0.000000 -1.213004 0.000000 0.000000
    13 0.000000 -0.932634 0.000001 -1.483530 0.000000 0.000000
    14 0.763064 -2.490556 -0.278957 -0.349065 0.000000 0.130900
    15 -0.012321 -1.280916 0.000000 -0.744797 0.000000 0.000000
    16 -0.001697 -0.749371 0.000001 -1.135868 0.000000 0.000000
    17 0.354567 0.016268 0.318133 0.342077 -0.443527 -1.083976
    18 1.887166 0.012877 0.000000 -0.305433 0.000000 -0.401426
    19 1.001874 -0.000270 0.000000 0.000000 0.000000 -0.488692
    20 -1.123358 -2.195092 -0.278957 -0.933751 0.000000 -0.087266
    21 0.010773 -0.963791 0.000000 -0.610865 0.000000 0.000000
    22 -0.010412 -0.631916 0.000000 -1.213004 0.000000 0.000000
    23 -1.147985 -2.775237 -10.822889 -0.354028 -0.014579 0.601913
    24 0.089929 -8.543163 -0.000001 0.093606 -0.060956 0.503595
    25 0.000000 -0.359713 0.000000 0.000000 0.000000 0.000000
    26 -0.170480 -2.636147 -0.277655 -0.820345 0.000000 0.000000
    27 0.010599 -1.261177 0.000000 -0.584683 0.000000 0.000000
    28 -0.000001 -0.943233 0.000000 -0.532326 0.000000 0.000000
    29 -0.827563 -2.508973 -0.277656 -0.942486 0.000000 0.000000
    30 0.000001 -1.292971 0.000000 -0.287992 0.000000 0.000000
    31 0.000000 -0.752466 0.000000 -0.445059 0.000000 0.000000
    32 0.444212 -2.561960 -0.277655 -1.081578 -0.046226 -0.024599
    33 0.021022 -1.208186 0.000000 -0.427606 0.000000 0.000000
    34 0.010597 -0.741867 0.000000 -0.453786 0.000000 0.000000
    35 1.047444 -2.222821 -0.277655 -1.019692 -0.066950 -0.041090
    36 0.000000 -0.996223 -0.000001 -0.584716 0.000000 0.000000
    37 -0.000002 -0.614690 0.000000 -0.523599 0.000000 0.000000
    38 -0.308254 -0.007814 0.307166 -0.318048 -0.539821 -2.424630
    39 1.978378 0.019543 0.000000 -0.000002 -0.000010 0.549775
    40 0.982427 0.003186 0.000000 0.000000 0.000000 0.593399
  time 10
    0 6.606519 0.415572 -6.639325 -0.719656 -1.326819 0.514931
    1 0.000000 -8.563284 0.000000 0.341732 -0.054404 -0.231686
    2 0.022535 -3.459973 0.747359 -1.452340 1.442002 -1.446094
    3 -0.000001 2.373979 0.699475 0.000000 0.000000 0.000000
    4 -0.000001 -0.931791 1.710478 0.000000 0.000000 0.000000
    5 0.000000 -1.759287 0.975027 0.000000 0.000000 0.000000
    6 -0.000966 -2.992972 0.968136 0.131076 -0.001806 -0.009717
    7 -0.003480 -0.404829 0.000000 0.000000 0.000000 0.000000
    8 -0.519308 -2.501155 -0.278957 -1.003564 0.000000 -0.122173
    9 -0.010598 -1.208184 0.000001 -1.090831 0.000000 0.000000
    10 0.000000 -0.763066 0.000000 -1.343903 0.000000 0.000000
    11 0.105982 -2.607134 -0.278957 -0.890118 0.000000 -0.148353
    12 0.000000 -1.250580 0.000000 -1.213004 0.000000 0.000000
    13 0.000000 -0.932634 0.000001 -1.483530 0.000000 0.000000
    14 0.763064 -2.490556 -0.278957 -0.349065 0.000000 0.130900
    15 -0.012321 -1.280916 0.000000 -0.728704 0.000000 0.000000
    16 -0.001697 -0.749371 0.000001 -1.115177 0.000000 0.000000
    17 0.354567 0.016268 0.318133 0.342077 -0.443527 -1.083976
    18 1.887166 0.012877 0.000000 -0.305433 0.000000 -0.401426
    19 1.001874 -0.000270 0.000000 0.000000 0.000000 -0.488692
    20 -1.123358 -2.195092 -0.278957 -0.933751 0.000000 -0.087266
    21 0.010773 -0.963791 0.000000 -0.610865 0.000000 0.000000
    22 -0.010412 -0.631916 0.000000 -1.213004 0.000000 0.000000
    23 -1.147985 -2.783049 -10.826796 -0.354803 -0.014005 0.601913
    24 0.089929 -8.543163 -0.000001 0.091199 -0.078816 0.499727
    25 0.000000 -0.359713 0.000000 0.000000 0.000000 0.000000
    26 -0.170480 -2.636147 -0.277655 -0.820345 0.000000 0.000000
    27 0.010599 -1.261177 0.000000 -0.584683 0.000000 0.000000
    28 -0.000001 -0.943233 0.000000 -0.532326 0.000000 0.000000
    29 -0.827563 -2.508973 -0.277656 -0.942486 0.000000 0.000000
    30 0.000001 -1.292971 0.000000 -0.287992 0.000000 0.000000
    31 0.000000 -0.752466 0.000000 -0.445059 0.000000 0.000000
    32 0.444212 -2.561960 -0.277655 -1.081578 -0.046226 -0.024599
    33 0.021022 -1.208186 0.000000 -0.427606 0.000000 0.000000
    34 0.010597 -0.741867 0.000000 -0.453786 0.000000 0.000000
    35 1.047444 -2.222821 -0.277655 -1.019692 -0.066950 -0.041090
    36 0.000000 -0.996223 -0.000001 -0.584716 0.000000 0.000000
    37 -0.000002 -0.614690 0.000000 -0.523599 0.000000 0.000000
    38 -0.308254 -0.007814 0.307166 -0.318048 -0.539821 -2.424630
    39 1.978378 0.019543 0.000000 -0.000002 -0.000010 0.549775
    40 0.982427 0.003186 0.000000 0.000000 0.000000 0.593399
  time 11
    0 6.606519 0.376508 -6.647138 -0.718993 -1.326927 0.513525
    1 0.000000 -8.563284 0.000000 0.342984 -0.060444 -0.223959
    2 0.022535 -3.459973 0.747359 -1.452340 1.442002 -1.446094
    3 -0.000001 2.373979 0.699475 0.000000 0.000000 0.000000
    4 -0.000001 -0.931791 1.710478 0.000000 0.000000 0.000000
    5 0.000000 -1.759287 0.975027 0.000000 0.000000 0.000000
    6 -0.000966 -2.992972 0.968136 0.131076 -0.001806 -0.009717
    7 -0.003480 -0.404829 0.000000 0.000000 0.000000 0.000000
    8 -0.519308 -2.501155 -0.278957 -1.003564 0.000000 -0.122173
    9 -0.010598 -1.208184 0.000001 -1.090831 0.000000 0.000000
    10 0.000000 -0.763066 0.000000 -1.343903 0.000000 0.000000
    11 0.105982 -2.607134 -0.278957 -0.890118 0.000000 -0.148353
    12 0.000000 -1.250580 0.000000 -1.213004 0.000000 0.000000
    13 0.000000 -0.932634 0.000001 -1.483530 0.000000 0.000000
    14 0.763064 -2.490556 -0.278957 -0.349065 0.000000 0.130900
    15 -0.012321 -1.280916 0.000000 -0.703705 0.000000 0.000000
    16 -0.001697 -0.749371 0.000001 -1.083054 0.000000 0.000000
    17 0.354567 0.016268 0.318133 0.342077 -0.443527 -1.083976
    18 1.887166 0.012877 0.000000 -0.305433 0.000000 -0.401426
    19 1.001874 -0.000270 0.000000 0.000000 0.000000 -0.488692
    20 -1.123358 -2.195092 -0.278957 -0.933751 0.000000 -0.087266
    21 0.010773 -0.963791 0.000000 -0.610865 0.000000 0.000000
    22 -0.010412 -0.631916 0.000000 -1.213004 0.000000 0.000000
    23 -1.147985 -2.790862 -10.830702 -0.356081 -0.013144 0.601913
    24 0.089929 -8.543163 -0.000001 0.089157 -0.097688 0.495626
    25 0.000000 -0.359713 0.000000 0.000000 0.000000 0.000000
    26 -0.170480 -2.636147 -0.277655 -0.820345 0.000000 0.000000
    27 0.010599 -1.261177 0.000000 -0.584683 0.000000 0.000000
    28 -0.000001 -0.943233 0.000000 -0.532326 0.000000 0.000000
    29 -0.827563 -2.508973 -0.277656 -0.942486 0.000000 0.000000
    30 0.000001 -1.292971 0.000000 -0.287992 0.000000 0.000000
    31 0.000000 -0.752466 0.000000 -0.445059 0.000000 0.000000
    32 0.444212 -2.561960 -0.277655 -1.081578 -0.046226 -0.024599
    33 0.021022 -1.208186 0.000000 -0.427606 0.000000 0.000000
    34 0.010597 -0.741867 0.000000 -0.453786 0.000000 0.000000
    35 1.047444 -2.222821 -0.277655 -1.019692 -0.066950 -0.041090
    36 0.000000 -0.996223 -0.000001 -0.584716 0.000000 0.000000
    37 -0.000002 -0.614690 0.000000 -0.523599 0.000000 0.000000
    38 -0.308254 -0.007814 0.307166 -0.318048 -0.539821 -2.424630
    39 1.978378 0.019543 0.000000 -0.000002 -0.000010 0.549775
    40 0.982427 0.003186 0.000000 0.000000 0.000000 0.593399
  time 12
    0 6.606519 0.337445 -6.654950 -0.719822 -1.326927 0.513369
    1 0.000000 -8.563284 0.000000 0.344416 -0.067658 -0.214771
    2 0.022535 -3.459973 0.747359 -1.452340 1.442002 -1.446094
    3 -0.000001 2.373979 0.699475 0.000000 0.000000 0.000000
    4 -0.000001 -0.931791 1.710478 0.000000 0.000000 0.000000
    5 0.000000 -1.759287 0.975027 0.000000 0.000000 0.000000
    6 -0.000966 -2.992972 0.968136 0.131076 -0.001806 -0.009717
    7 -0.003480 -0.404829 0.000000 0.000000 0.000000 0.000000
    8 -0.519308 -2.501155 -0.278957 -1.003564 0.000000 -0.122173
    9 -0.010598 -1.208184 0.000001 -1.090831 0.000000 0.000000
    10 0.000000 -0.763066 0.000000 -1.343903 0.000000 0.000000
    11 0.105982 -2.607134 -0.278957 -0.890118 0.000000 -0.148353
    12 0.000000 -1.250580 0.000000 -1.213004 0.000000 0.000000
    13 0.000000 -0.932634 0.000001 -1.483530 0.000000 0.000000
    14 0.763064 -2.490556 -0.278957 -0.349065 0.000000 0.130900
    15 -0.012321 -1.280916 0.000000 -0.671284 0.000000 0.000000
    16 -0.001697 -0.749371 0.000001 -1.041351 0.000000 0.000000
    17 0.354567 0.016268 0.318133 0.342077 -0.443527 -1.083976
    18 1.887166 0.012877 0.000000 -0.305433 0.000000 -0.401426
    19 1.001874 -0.000270 0.000000 0.000000 0.000000 -0.488692
    20 -1.123358 -2.195092 -0.278957 -0.933751 0.000000 -0.087266
    21 0.010773 -0.963791 0.000000 -0.610865 0.000000 0.000000
    22 -0.010412 -0.631916 0.000000 -1.213004 0.000000 0.000000
    23 -1.147985 -2.798675 -10.834608 -0.357724 -0.011996 0.601983
    24 0.089929 -8.543163 -0.000001 0.087404 -0.117362 0.491384
    25 0.000000 -0.359713 0.000000 0.000000 0.000000 0.000000
    26 -0.170480 -2.636147 -0.277655 -0.820345 0.000000 0.000000
    27 0.010599 -1.261177 0.000000 -0.584683 0.000000 0.000000
    28 -0.000001 -0.943233 0.000000 -0.532326 0.000000 0.000000
    29 -0.827563 -2.508973 -0.277656 -0.942486 0.000000 0.000000
    30 0.000001 -1.292971 0.000000 -0.287992 0.000000 0.000000
    31 0.000000 -0.752466 0.000000 -0.445059 0.000000 0.000000
    32 0.444212 -2.561960 -0.277655 -1.081578 -0.046226 -0.024599
    33 0.021022 -1.208186 0.000000 -0.427606 0.000000 0.000000
    34 0.010597 -0.741867 0.000000 -0.453786 0.000000 0.000000
    35 1.047444 -2.222821 -0.277655 -1.019692 -0.066950 -0.041090
    36 0.000000 -0.996223 -0.000001 -0.584716 0.000000 0.000000
    37 -0.000002 -0.614690 0.000000 -0.523599 0.000000 0.000000
    38 -0.308254 -0.007814 0.307166 -0.318048 -0.539821 -2.424630
    39 1.978378 0.019543 0.000000 -0.000002 -0.000010 0.549775
    40 0.982427 0.003186 0.000000 0.000000 0.000000 0.593399
  time 13
    0 6.606519 0.302287 -6.662763 -0.721700 -1.326819 0.514306
    1 0.000000 -8.563284 0.000000 0.345896 -0.075556 -0.204741
    2 0.022535 -3.459973 0.747359 -1.452340 1.442002 -1.446094
    3 -0.000001 2.373979 0.699475 0.000000 0.000000 0.000000
    4 -0.000001 -0.931791 1.710478 0.000000 0.000000 0.000000
    5 0.000000 -1.759287 0.975027 0.000000 0.000000 0.000000
    6 -0.000966 -2.992972 0.968136 0.131076 -0.001806 -0.009717
    7 -0.003480 -0.404829 0.000000 0.000000 0.000000 0.000000
    8 -0.519308 -2.501155 -0.278957 -1.003564 0.000000 -0.122173
    9 -0.010598 -1.208184 0.000001 -1.090831 0.000000 0.000000
    10 0.000000 -0.763066 0.000000 -1.343903 0.000000 0.000000
    11 0.105982 -2.607134 -0.278957 -0.890118 0.000000 -0.148353
    12 0.000000 -1.250580 0.000000 -1.213004 0.000000 0.000000
    13 0.000000 -0.932634 0.000001 -1.483530 0.000000 0.000000
    14 0.763064 -2.490556 -0.278957 -0.349065 0.000000 0.130900
    15 -0.012321 -1.280916 0.000000 -0.632935 0.000000 0.000000
    16 -0.001697 -0.749371 0.000001 -0.992063 0.000000 0.000000
    17 0.354567 0.016268 0.318133 0.342077 -0.443527 -1.083976
    18 1.887166 0.012877 0.000000 -0.305433 0.000000 -0.401426
    19 1.001874 -0.000270 0.000000 0.000000 0.000000 -0.488692
    20 -1.123358 -2.195092 -0.278957 -0.933751 0.000000 -0.087266
    21 0.010773 -0.963791 0.000000 -0.610865 0.000000 0.000000
    22 -0.010412 -0.631916 0.000000 -1.213004 0.000000 0.000000
    23 -1.147985 -2.806488 -10.838515 -0.359640 -0.010657 0.601983
    24 0.089929 -8.543163 -0.000001 0.085941 -0.137694 0.486977
    25 0.000000 -0.359713 0.000000 0.000000 0.000000 0.000000
    26 -0.170480 -2.636147 -0.277655 -0.820345 0.000000 0.000000
    27 0.010599 -1.261177 0.000000 -0.584683 0.000000 0.000000
    28 -0.000001 -0.943233 0.000000 -0.532326 0.000000 0.000000
    29 -0.827563 -2.508973 -0.277656 -0.942486 0.000000 0.000000
    30 0.000001 -1.292971 0.000000 -0.287992 0.000000 0.000000
    31 0.000000 -0.752466 0.000000 -0.445059 0.000000 0.000000
    32 0.444212 -2.561960 -0.277655 -1.081578 -0.046226 -0.024599
    33 0.021022 -1.208186 0.000000 -0.427606 0.000000 0.000000
    34 0.010597 -0.741867 0.000000 -0.453786 0.000000 0.000000
    35 1.047444 -2.222821 -0.277655 -1.019692 -0.066950 -0.041090
    36 0.000000 -0.996223 -0.000001 -0.584716 0.000000 0.000000
    37 -0.000002 -0.614690 0.000000 -0.523599 0.000000 0.000000
    38 -0.308254 -0.007814 0.307166 -0.318048 -0.539821 -2.424630
    39 1.978378 0.019543 0.000000 -0.000002 -0.000010 0.549775
    40 0.982427 0.003186 0.000000 0.000000 0.000000 0.593399
  time 14
    0 6.606519 0.271036 -6.670576 -0.724462 -1.326529 0.516103
    1 0.000000 -8.563284 0.000000 0.347329 -0.083610 -0.194525
    2 0.022535 -3.459973 0.747359 -1.452340 1.442002 -1.446094
    3 -0.000001 2.373979 0.699475 0.000000 0.000000 0.000000
    4 -0.000001 -0.931791 1.710478 0.000000 0.000000 0.000000
    5 0.000000 -1.759287 0.975027 0.000000 0.000000 0.000000
    6 -0.000966 -2.992972 0.968136 0.131076 -0.001806 -0.009717
    7 -0.003480 -0.404829 0.000000 0.000000 0.000000 0.000000
    8 -0.519308 -2.501155 -0.278957 -1.003564 0.000000 -0.122173
    9 -0.010598 -1.208184 0.000001 -1.090831 0.000000 0.000000
    10 0.000000 -0.763066 0.000000 -1.343903 0.000000 0.000000
    11 0.105982 -2.607134 -0.278957 -0.890118 0.000000 -0.148353
    12 0.000000 -1.250580 0.000000 -1.213004 0.000000 0.000000
    13 0.000000 -0.932634 0.000001 -1.483530 0.000000 0.000000
    14 0.763064 -2.490556 -0.278957 -0.349065 0.000000 0.130900
    15 -0.012321 -1.280916 0.000000 -0.590126 0.000000 0.000000
    16 -0.001697 -0.749371 0.000001 -0.937005 0.000000 0.000000
    17 0.354567 0.016268 0.318133 0.342077 -0.443527 -1.083976
    18 1.887166 0.012877 0.000000 -0.305433 0.000000 -0.401426
    19 1.001874 -0.000270 0.000000 0.000000 0.000000 -0.488692
    20 -1.123358 -2.195092 -0.278957 -0.933751 0.000000 -0.087266
    21 0.010773 -0.963791 0.000000 -0.610865 0.000000 0.000000
    22 -0.010412 -0.631916 0.000000 -1.213004 0.000000 0.000000
    23 -1.147985 -2.814300 -10.838515 -0.361831 -0.009126 0.601983
    24 0.089929 -8.543163 -0.000001 0.084727 -0.158523 0.482477
    25 0.000000 -0.359713 0.000000 0.000000 0.000000 0.000000
    26 -0.170480 -2.636147 -0.277655 -0.820345 0.000000 0.000000
    27 0.010599 -1.261177 0.000000 -0.584683 0.000000 0.000000
    28 -0.000001 -0.943233 0.000000 -0.532326 0.000000 0.000000
    29 -0.827563 -2.508973 -0.277656 -0.942486 0.000000 0.000000
    30 0.000001 -1.292971 0.000000 -0.287992 0.000000 0.000000
    31 0.000000 -0.752466 0.000000 -0.445059 0.000000 0.000000
    32 0.444212 -2.561960 -0.277655 -1.081578 -0.046226 -0.024599
    33 0.021022 -1.208186 0.000000 -0.427606 0.000000 0.000000
    34 0.010597 -0.741867 0.000000 -0.453786 0.000000 0.000000
    35 1.047444 -2.222821 -0.277655 -1.019692 -0.066950 -0.041090
    36 0.000000 -0.996223 -0.000001 -0.584716 0.000000 0.000000
    37 -0.000002 -0.614690 0.000000 -0.523599 0.000000 0.000000
    38 -0.308254 -0.007814 0.307166 -0.318048 -0.539821 -2.424630
    39 1.978378 0.019543 0.000000 -0.000002 -0.000010 0.549775
    40 0.982427 0.003186 0.000000 0.000000 0.000000 0.593399
  time 15
    0 6.606519 0.239785 -6.678389 -0.727776 -1.326240 0.518446
    1 0.000000 -8.563284 0.000000 0.348616 -0.091328 -0.184755
    2 0.022535 -3.459973 0.747359 -1.452340 1.442002 -1.446094
    3 -0.000001 2.373979 0.699475 0.000000 0.000000 0.000000
    4 -0.000001 -0.931791 1.710478 0.000000 0.000000 0.000000
    5 0.000000 -1.759287 0.975027 0.000000 0.000000 0.000000
    6 -0.000966 -2.992972 0.968136 0.131076 -0.001806 -0.009717
    7 -0.003480 -0.404829 0.000000 0.000000 0.000000 0.000000
    8 -0.519308 -2.501155 -0.278957 -1.003564 0.000000 -0.122173
    9 -0.010598 -1.208184 0.000001 -1.090831 0.000000 0.000000
    10 0.000000 -0.763066 0.000000 -1.343903 0.000000 0.000000
    11 0.105982 -2.607134 -0.278957 -0.890118 0.000000 -0.148353
    12 0.000000 -1.250580 0.000000 -1.213004 0.000000 0.000000
    13 0.000000 -0.932634 0.000001 -1.483530 0.000000 0.000000
    14 0.763064 -2.490556 -0.278957 -0.349065 0.000000 0.130900
    15 -0.012321 -1.280916 0.000000 -0.544354 0.000000 0.000000
    16 -0.001697 -0.749371 0.000001 -0.878137 0.000000 0.000000
    17 0.354567 0.016268 0.318133 0.342077 -0.443527 -1.083976
    18 1.887166 0.012877 0.000000 -0.305433 0.000000 -0.401426
    19 1.001874 -0.000270 0.000000 0.000000 0.000000 -0.488692
    20 -1.123358 -2.195092 -0.278957 -0.933751 0.000000 -0.087266
    21 0.010773 -0.963791 0.000000 -0.610865 0.000000 0.000000
    22 -0.010412 -0.631916 0.000000 -1.213004 0.000000 0.000000
    23 -1.147985 -2.822113 -10.842421 -0.364113 -0.007596 0.602052
    24 0.089929 -8.543163 -0.000001 0.083726 -0.179673 0.477884
    25 0.000000 -0.359713 0.000000 0.000000 0.000000 0.000000
    26 -0.170480 -2.636147 -0.277655 -0.820345 0.000000 0.000000
    27 0.010599 -1.261177 0.000000 -0.584683 0.000000 0.000000
    28 -0.000001 -0.943233 0.000000 -0.532326 0.000000 0.000000
    29 -0.827563 -2.508973 -0.277656 -0.942486 0.000000 0.000000
    30 0.000001 -1.292971 0.000000 -0.287992 0.000000 0.000000
    31 0.000000 -0.752466 0.000000 -0.445059 0.000000 0.000000
    32 0.444212 -2.561960 -0.277655 -1.081578 -0.046226 -0.024599
    33 0.021022 -1.208186 0.000000 -0.427606 0.000000 0.000000
    34 0.010597 -0.741867 0.000000 -0.453786 0.000000 0.000000
    35 1.047444 -2.222821 -0.277655 -1.019692 -0.066950 -0.041090
    36 0.000000 -0.996223 -0.000001 -0.584716 0.000000 0.000000
    37 -0.000002 -0.614690 0.000000 -0.523599 0.000000 0.000000
    38 -0.308254 -0.007814 0.307166 -0.318048 -0.539821 -2.424630
    39 1.978378 0.019543 0.000000 -0.000002 -0.000010 0.549775
    40 0.982427 0.003186 0.000000 0.000000 0.000000 0.593399
  time 16
    0 6.606519 0.216347 -6.686201 -0.731422 -1.325877 0.521023
    1 0.000000 -8.563284 0.000000 0.349712 -0.098195 -0.176074
    2 0.022535 -3.459973 0.747359 -1.452340 1.442002 -1.446094
    3 -0.000001 2.373979 0.699475 0.000000 0.000000 0.000000
    4 -0.000001 -0.931791 1.710478 0.000000 0.000000 0.000000
    5 0.000000 -1.759287 0.975027 0.000000 0.000000 0.000000
    6 -0.000966 -2.992972 0.968136 0.131076 -0.001806 -0.009717
    7 -0.003480 -0.404829 0.000000 0.000000 0.000000 0.000000
    8 -0.519308 -2.501155 -0.278957 -1.003564 0.000000 -0.122173
    9 -0.010598 -1.208184 0.000001 -1.090831 0.000000 0.000000
    10 0.000000 -0.763066 0.000000 -1.343903 0.000000 0.000000
    11 0.105982 -2.607134 -0.278957 -0.890118 0.000000 -0.148353
    12 0.000000 -1.250580 0.000000 -1.213004 0.000000 0.000000
    13 0.000000 -0.932634 0.000001 -1.483530 0.000000 0.000000
    14 0.763064 -2.490556 -0.278957 -0.349065 0.000000 0.130900
    15 -0.012321 -1.280916 0.000000 -0.497072 0.000000 0.000000
    16 -0.001697 -0.749371 0.000001 -0.817382 0.000000 0.000000
    17 0.354567 0.016268 0.318133 0.342077 -0.443527 -1.083976
    18 1.887166 0.012877 0.000000 -0.305433 0.000000 -0.401426
    19 1.001874 -0.000270 0.000000 0.000000 0.000000 -0.488692
    20 -1.123358 -2.195092 -0.278957 -0.933751 0.000000 -0.087266
    21 0.010773 -0.963791 0.000000 -0.610865 0.000000 0.000000
    22 -0.010412 -0.631916 0.000000 -1.213004 0.000000 0.000000
    23 -1.147985 -2.829926 -10.846328 -0.366531 -0.005874 0.602052
    24 0.089929 -8.543163 -0.000001 0.082859 -0.201000 0.473290
    25 0.000000 -0.359713 0.000000 0.000000 0.000000 0.000000
    26 -0.170480 -2.636147 -0.277655 -0.820345 0.000000 0.000000
    27 0.010599 -1.261177 0.000000 -0.584683 0.000000 0.000000
    28 -0.000001 -0.943233 0.000000 -0.532326 0.000000 0.000000
    29 -0.827563 -2.508973 -0.277656 -0.942486 0.000000 0.000000
    30 0.000001 -1.292971 0.000000 -0.287992 0.000000 0.000000
    31 0.000000 -0.752466 0.000000 -0.445059 0.000000 0.000000
    32 0.444212 -2.561960 -0.277655 -1.081578 -0.046226 -0.024599
    33 0.021022 -1.208186 0.000000 -0.427606 0.000000 0.000000
    34 0.010597 -0.741867 0.000000 -0.453786 0.000000 0.000000
    35 1.047444 -2.222821 -0.277655 -1.019692 -0.066950 -0.041090
    36 0.000000 -0.996223 -0.000001 -0.584716 0.000000 0.000000
    37 -0.000002 -0.614690 0.000000 -0.523599 0.000000 0.000000
    38 -0.308254 -0.007814 0.307166 -0.318048 -0.539821 -2.424630
    39 1.978378 0.019543 0.000000 -0.000002 -0.000010 0.549775
    40 0.982427 0.003186 0.000000 0.000000 0.000000 0.593399
  time 17
    0 6.606519 0.192909 -6.690108 -0.734957 -1.325515 0.523523
    1 0.000000 -8.563284 0.000000 0.350542 -0.103708 -0.169140
    2 0.022535 -3.459973 0.747359 -1.452340 1.442002 -1.446094
    3 -0.000001 2.373979 0.699475 0.000000 0.000000 0.000000
    4 -0.000001 -0.931791 1.710478 0.000000 0.000000 0.000000
    5 0.000000 -1.759287 0.975027 0.000000 0.000000 0.000000
    6 -0.000966 -2.992972 0.968136 0.131076 -0.001806 -0.009717
    7 -0.003480 -0.404829 0.000000 0.000000 0.000000 0.000000
    8 -0.519308 -2.501155 -0.278957 -1.003564 0.000000 -0.122173
    9 -0.010598 -1.208184 0.000001 -1.090831 0.000000 0.000000
    10 0.000000 -0.763066 0.000000 -1.343903 0.000000 0.000000
    11 0.105982 -2.607134 -0.278957 -0.890118 0.000000 -0.148353
    12 0.000000 -1.250580 0.000000 -1.213004 0.000000 0.000000
    13 0.000000 -0.932634 0.000001 -1.483530 0.000000 0.000000
    14 0.763064 -2.490556 -0.278957 -0.349065 0.000000 0.130900
    15 -0.012321 -1.280916 0.000000 -0.449817 0.000000 0.000000
    16 -0.001697 -0.749371 0.000001 -0.756626 0.000000 0.000000
    17 0.354567 0.016268 0.318133 0.342077 -0.443527 -1.083976
    18 1.887166 0.012877 0.000000 -0.305433 0.000000 -0.401426
    19 1.001874 -0.000270 0.000000 0.000000 0.000000 -0.488692
    20 -1.123358 -2.195092 -0.278957 -0.933751 0.000000 -0.087266
    21 0.010773 -0.963791 0.000000 -0.610865 0.000000 0.000000
    22 -0.010412 -0.631916 0.000000 -1.213004 0.000000 0.000000
    23 -1.147985 -2.837739 -10.850234 -0.368858 -0.004248 0.602052
    24 0.089929 -8.543163 -0.000001 0.082069 -0.222310 0.468649
    25 0.000000 -0.359713 0.000000 0.000000 0.000000 0.000000
    26 -0.170480 -2.636147 -0.277655 -0.820345 0.000000 0.000000
    27 0.010599 -1.261177 0.000000 -0.584683 0.000000 0.000000
    28 -0.000001 -0.943233 0.000000 -0.532326 0.000000 0.000000
    29 -0.827563 -2.508973 -0.277656 -0.942486 0.000000 0.000000
    30 0.000001 -1.292971 0.000000 -0.287992 0.000000 0.000000
    31 0.000000 -0.752466 0.000000 -0.445059 0.000000 0.000000
    32 0.444212 -2.561960 -0.277655 -1.081578 -0.046226 -0.024599
    33 0.021022 -1.208186 0.000000 -0.427606 0.000000 0.000000
    34 0.010597 -0.741867 0.000000 -0.453786 0.000000 0.000000
    35 1.047444 -2.222821 -0.277655 -1.019692 -0.066950 -0.041090
    36 0.000000 -0.996223 -0.000001 -0.584716 0.000000 0.000000
    37 -0.000002 -0.614690 0.000000 -0.523599 0.000000 0.000000
    38 -0.308254 -0.007814 0.307166 -0.318048 -0.539821 -2.424630
    39 1.978378 0.019543 0.000000 -0.000002 -0.000010 0.549775
    40 0.982427 0.003186 0.000000 0.000000 0.000000 0.593399
  time 18
    0 6.606519 0.177283 -6.694014 -0.738216 -1.325190 0.525866
    1 0.000000 -8.563284 0.000000 0.351060 -0.107339 -0.164571
    2 0.022535 -3.459973 0.747359 -1.452340 1.442002 -1.446094
    3 -0.000001 2.373979 0.699475 0.000000 0.000000 0.000000
    4 -0.000001 -0.931791 1.710478 0.000000 0.000000 0.000000
    5 0.000000 -1.759287 0.975027 0.000000 0.000000 0.000000
    6 -0.000966 -2.992972 0.968136 0.131076 -0.001806 -0.009717
    7 -0.003480 -0.404829 0.000000 0.000000 0.000000 0.000000
    8 -0.519308 -2.501155 -0.278957 -1.003564 0.000000 -0.122173
    9 -0.010598 -1.208184 0.000001 -1.090831 0.000000 0.000000
    10 0.000000 -0.763066 0.000000 -1.343903 0.000000 0.000000
    11 0.105982 -2.607134 -0.278957 -0.890118 0.000000 -0.148353
    12 0.000000 -1.250580 0.000000 -1.213004 0.000000 0.000000
    13 0.000000 -0.932634 0.000001 -1.483530 0.000000 0.000000
    14 0.763064 -2.490556 -0.278957 -0.349065 0.000000 0.130900
    15 -0.012321 -1.280916 0.000000 -0.404045 0.000000 0.000000
    16 -0.001697 -0.749371 0.000001 -0.697758 0.000000 0.000000
    17 0.354567 0.016268 0.318133 0.342077 -0.443527 -1.083976
    18 1.887166 0.012877 0.000000 -0.305433 0.000000 -0.401426
    19 1.001874 -0.000270 0.000000 0.000000 0.000000 -0.488692
    20 -1.123358 -2.195092 -0.278957 -0.933751 0.000000 -0.087266
    21 0.010773 -0.963791 0.000000 -0.610865 0.000000 0.000000
    22 -0.010412 -0.631916 0.000000 -1.213004 0.000000 0.000000
    23 -1.147985 -2.845551 -10.854140 -0.371186 -0.002717 0.602052
    24 0.089929 -8.543163 -0.000001 0.081318 -0.243477 0.464055
    25 0.000000 -0.359713 0.000000 0.000000 0.000000 0.000000
    26 -0.170480 -2.636147 -0.277655 -0.820345 0.000000 0.000000
    27 0.010599 -1.261177 0.000000 -0.584683 0.000000 0.000000
    28 -0.000001 -0.943233 0.000000 -0.532326 0.000000 0.000000
    29 -0.827563 -2.508973 -0.277656 -0.942486 0.000000 0.000000
    30 0.000001 -1.292971 0.000000 -0.287992 0.000000 0.000000
    31 0.000000 -0.752466 0.000000 -0.445059 0.000000 0.000000
    32 0.444212 -2.561960 -0.277655 -1.081578 -0.046226 -0.024599
    33 0.021022 -1.208186 0.000000 -0.427606 0.000000 0.000000
    34 0.010597 -0.741867 0.000000 -0.453786 0.000000 0.000000
    35 1.047444 -2.222821 -0.277655 -1.019692 -0.066950 -0.041090
    36 0.000000 -0.996223 -0.000001 -0.584716 0.000000 0.000000
    37 -0.000002 -0.614690 0.000000 -0.523599 0.000000 0.000000
    38 -0.308254 -0.007814 0.307166 -0.318048 -0.539821 -2.424630
    39 1.978378 0.019543 0.000000 -0.000002 -0.000010 0.549775
    40 0.982427 0.003186 0.000000 0.000000 0.000000 0.593399
  time 19
    0 6.606519 0.169471 -6.694014 -0.740978 -1.324936 0.527584
    1 0.000000 -8.563284 0.000000 0.351228 -0.108514 -0.163097
    2 0.022535 -3.459973 0.747359 -1.452340 1.442002 -1.446094
    3 -0.000001 2.373979 0.699475 0.000000 0.000000 0.000000
    4 -0.000001 -0.931791 1.710478 0.000000 0.000000 0.000000
    5 0.000000 -1.759287 0.975027 0.000000 0.000000 0.000000
    6 -0.000966 -2.992972 0.968136 0.131076 -0.001806 -0.009717
    7 -0.003480 -0.404829 0.000000 0.000000 0.000000 0.000000
    8 -0.519308 -2.501155 -0.278957 -1.003564 0.000000 -0.122173
    9 -0.010598 -1.208184 0.000001 -1.090831 0.000000 0.000000
    10 0.000000 -0.763066 0.000000 -1.343903 0.000000 0.000000
    11 0.105982 -2.607134 -0.278957 -0.890118 0.000000 -0.148353
    12 0.000000 -1.250580 0.000000 -1.213004 0.000000 0.000000
    13 0.000000 -0.932634 0.000001 -1.483530 0.000000 0.000000
    14 0.763064 -2.490556 -0.278957 -0.349065 0.000000 0.130900
    15 -0.012321 -1.280916 0.000000 -0.361222 0.000000 0.000000
    16 -0.001697 -0.749371 0.000001 -0.642700 0.000000 0.000000
    17 0.354567 0.016268 0.318133 0.342077 -0.443527 -1.083976
    18 1.887166 0.012877 0.000000 -0.305433 0.000000 -0.401426
    19 1.001874 -0.000270 0.000000 0.000000 0.000000 -0.488692
    20 -1.123358 -2.195092 -0.278957 -0.933751 0.000000 -0.087266
    21 0.010773 -0.963791 0.000000 -0.610865 0.000000 0.000000
    22 -0.010412 -0.631916 0.000000 -1.213004 0.000000 0.000000
    23 -1.147985 -2.853364 -10.854140 -0.373376 -0.001187 0.602052
    24 0.089929 -8.543163 -0.000001 0.080586 -0.264322 0.459555
    25 0.000000 -0.359713 0.000000 0.000000 0.000000 0.000000
    26 -0.170480 -2.636147 -0.277655 -0.820345 0.000000 0.000000
    27 0.010599 -1.261177 0.000000 -0.584683 0.000000 0.000000
    28 -0.000001 -0.943233 0.000000 -0.532326 0.000000 0.000000
    29 -0.827563 -2.508973 -0.277656 -0.942486 0.000000 0.000000
    30 0.000001 -1.292971 0.000000 -0.287992 0.000000 0.000000
    31 0.000000 -0.752466 0.000000 -0.445059 0.000000 0.000000
    32 0.444212 -2.561960 -0.277655 -1.081578 -0.046226 -0.024599
    33 0.021022 -1.208186 0.000000 -0.427606 0.000000 0.000000
    34 0.010597 -0.741867 0.000000 -0.453786 0.000000 0.000000
    35 1.047444 -2.222821 -0.277655 -1.019692 -0.066950 -0.041090
    36 0.000000 -0.996223 -0.000001 -0.584716 0.000000 0.000000
    37 -0.000002 -0.614690 0.000000 -0.523599 0.000000 0.000000
    38 -0.308254 -0.007814 0.307166 -0.318048 -0.539821 -2.424630
    39 1.978378 0.019543 0.000000 -0.000002 -0.000010 0.549775
    40 0.982427 0.003186 0.000000 0.000000 0.000000 0.593399
  time 20
    0 6.606519 0.165564 -6.694014 -0.742856 -1.324791 0.528521
    1 0.000000 -8.563284 0.000000 0.351240 -0.108598 -0.162998
    2 0.022535 -3.459973 0.747359 -1.452340 1.442002 -1.446094
    3 -0.000001 2.373979 0.699475 0.000000 0.000000 0.000000
    4 -0.000001 -0.931791 1.710478 0.000000 0.000000 0.000000
    5 0.000000 -1.759287 0.975027 0.000000 0.000000 0.000000
    6 -0.000966 -2.992972 0.968136 0.131076 -0.001806 -0.009717
    7 -0.003480 -0.404829 0.000000 0.000000 0.000000 0.000000
    8 -0.519308 -2.501155 -0.278957 -1.003564 0.000000 -0.122173
    9 -0.010598 -1.208184 0.000001 -1.090831 0.000000 0.000000
    10 0.000000 -0.763066 0.000000 -1.343903 0.000000 0.000000
    11 0.105982 -2.607134 -0.278957 -0.890118 0.000000 -0.148353
    12 0.000000 -1.250580 0.000000 -1.213004 0.000000 0.000000
    13 0.000000 -0.932634 0.000001 -1.483530 0.000000 0.000000
    14 0.763064 -2.490556 -0.278957 -0.349065 0.000000 0.130900
    15 -0.012321 -1.280916 0.000000 -0.322887 0.000000 0.000000
    16 -0.001697 -0.749371 0.000001 -0.593412 0.000000 0.000000
    17 0.354567 0.016268 0.318133 0.342077 -0.443527 -1.083976
    18 1.887166 0.012877 0.000000 -0.305433 0.000000 -0.401426
    19 1.001874 -0.000270 0.000000 0.000000 0.000000 -0.488692
    20 -1.123358 -2.195092 -0.278957 -0.933751 0.000000 -0.087266
    21 0.010773 -0.963791 0.000000 -0.610865 0.000000 0.000000
    22 -0.010412 -0.631916 0.000000 -1.213004 0.000000 0.000000
    23 -1.147985 -2.861177 -10.854140 -0.375247 0.000057 0.602052
    24 0.089929 -8.543163 -0.000001 0.079777 -0.284686 0.455196
    25 0.000000 -0.359713 0.000000 0.000000 0.000000 0.000000
    26 -0.170480 -2.636147 -0.277655 -0.820345 0.000000 0.000000
    27 0.010599 -1.261177 0.000000 -0.584683 0.000000 0.000000
    28 -0.000001 -0.943233 0.000000 -0.532326 0.000000 0.000000
    29 -0.827563 -2.508973 -0.277656 -0.942486 0.000000 0.000000
    30 0.000001 -1.292971 0.000000 -0.287992 0.000000 0.000000
    31 0.000000 -0.752466 0.000000 -0.445059 0.000000 0.000000
    32 0.444212 -2.561960 -0.277655 -1.081578 -0.046226 -0.024599
    33 0.021022 -1.208186 0.000000 -0.427606 0.000000 0.000000
    34 0.010597 -0.741867 0.000000 -0.453786 0.000000 0.000000
    35 1.047444 -2.222821 -0.277655 -1.019692 -0.066950 -0.041090
    36 0.000000 -0.996223 -0.000001 -0.584716 0.000000 0.000000
    37 -0.000002 -0.614690 0.000000 -0.523599 0.000000 0.000000
    38 -0.308254 -0.007814 0.307166 -0.318048 -0.539821 -2.424630
    39 1.978378 0.019543 0.000000 -0.000002 -0.000010 0.549775
    40 0.982427 0.003186 0.000000 0.000000 0.000000 0.593399
end
