version 1
nodes
  0 "Bone01" -1
  1 "Bone_Lefthand" 0
  2 "USP" 1
  3 "Bone02" 2
  4 "USP_Slide-handle" 3
  5 "USP_Magazine-handle" 3
  6 "USP_Trigger-Handle" 3
  7 "Bone 04" 1
  8 "Bone13" 7
  9 "Bone14" 8
  10 "Bone15" 9
  11 "Bone17" 7
  12 "Bone18" 11
  13 "Bone19" 12
  14 "Bone21" 7
  15 "Bone22" 14
  16 "Bone23" 15
  17 "Bone05" 7
  18 "Bone06" 17
  19 "Bone07" 18
  20 "Bone09" 7
  21 "Bone10" 20
  22 "Bone11" 21
  23 "Bone04" -1
  24 "Bone_Righthand" 23
  25 "Bone26" 24
  26 "Bone35" 25
  27 "Bone36" 26
  28 "Bone37" 27
  29 "Bone31" 25
  30 "Bone32" 29
  31 "Bone33" 30
  32 "Bone39" 25
  33 "Bone40" 32
  34 "Bone41" 33
  35 "Bone43" 25
  36 "Bone44" 35
  37 "Bone45" 36
  38 "Bone27" 25
  39 "Bone28" 38
  40 "Bone29" 39
end
skeleton
  time 0
    0 6.606519 0.165564 -6.694014 -0.774287 -1.331381 0.567261
    1 0.000000 -8.563284 0.000000 0.347160 -0.117023 -0.166589
    2 0.022535 -3.459973 0.747359 -1.452340 1.442002 -1.446094
    3 -0.000001 2.373979 0.699475 0.000000 0.000000 0.000000
    4 -0.000001 -0.037232 1.722197 0.000000 0.000000 0.000000
    5 0.000000 -1.759287 0.975027 0.000000 0.000000 0.000000
    6 -0.000966 -2.992972 0.968136 0.131076 -0.001806 -0.009717
    7 -0.003480 -0.404829 0.000000 0.000000 0.000000 0.000000
    8 -0.519308 -2.501155 -0.278957 -1.003564 0.000000 -0.122173
    9 -0.010598 -1.208184 0.000001 -1.090831 0.000000 0.000000
    10 0.000000 -0.763066 0.000000 -1.343903 0.000000 0.000000
    11 0.105982 -2.607134 -0.278957 -0.890118 0.000000 -0.148353
    12 0.000000 -1.250580 0.000000 -1.213004 0.000000 0.000000
    13 0.000000 -0.932634 0.000001 -1.483530 0.000000 0.000000
    14 0.763064 -2.490556 -0.278957 -0.349065 0.000000 0.130900
    15 -0.012321 -1.280916 0.000000 -0.750475 0.000000 0.000000
    16 -0.001697 -0.749371 0.000001 -1.143169 0.000000 0.000000
    17 0.354567 0.016268 0.318133 0.342077 -0.443527 -1.083976
    18 1.887166 0.012877 0.000000 -0.305433 0.000000 -0.401426
    19 1.001874 -0.000270 0.000000 0.000000 0.000000 -0.488692
    20 -1.123358 -2.195092 -0.278957 -0.933751 0.000000 -0.087266
    21 0.010773 -0.963791 0.000000 -0.610865 0.000000 0.000000
    22 -0.010412 -0.631916 0.000000 -1.213004 0.000000 0.000000
    23 -1.147985 -2.861177 -10.854140 -0.375247 0.000057 0.602052
    24 0.089929 -8.543163 -0.000001 0.079777 -0.284686 0.455196
    25 0.000000 -0.359713 0.000000 0.000000 0.000000 0.000000
    26 -0.170480 -2.636147 -0.277655 -0.820345 0.000000 0.000000
    27 0.010599 -1.261177 0.000000 -0.584683 0.000000 0.000000
    28 -0.000001 -0.943233 0.000000 -0.532326 0.000000 0.000000
    29 -0.827563 -2.508973 -0.277656 -0.942486 0.000000 0.000000
    30 0.000001 -1.292971 0.000000 -0.287992 0.000000 0.000000
    31 0.000000 -0.752466 0.000000 -0.445059 0.000000 0.000000
    32 0.444212 -2.561960 -0.277655 -1.081578 -0.046226 -0.024599
    33 0.021022 -1.208186 0.000000 -0.427606 0.000000 0.000000
    34 0.010597 -0.741867 0.000000 -0.453786 0.000000 0.000000
    35 1.047444 -2.222821 -0.277655 -1.019692 -0.066950 -0.041090
    36 0.000000 -0.996223 -0.000001 -0.584716 0.000000 0.000000
    37 -0.000002 -0.614690 0.000000 -0.523599 0.000000 0.000000
    38 -0.308254 -0.007814 0.307166 -0.318048 -0.539821 -2.424630
    39 1.978378 0.019543 0.000000 -0.000002 -0.000010 0.549775
    40 0.982427 0.003186 0.000000 0.000000 0.000000 0.593399
  time 1
    0 6.606519 0.337445 -6.787767 -0.816876 -1.322836 0.610608
    1 0.000000 -8.563284 0.000000 0.331514 -0.115105 -0.192172
    2 0.022535 -3.459973 0.747359 -1.452340 1.442002 -1.446094
    3 -0.000001 2.373979 0.699475 0.000000 0.000000 0.000000
    4 -0.000001 0.478408 1.718291 0.000000 0.000000 0.000000
    5 0.000000 -1.759287 0.975027 0.000000 0.000000 0.000000
    6 -0.000966 -2.992972 0.968136 0.131076 -0.001806 -0.009717
    7 -0.003480 -0.404829 0.000000 0.000000 0.000000 0.000000
    8 -0.519308 -2.501155 -0.278957 -1.003564 0.000000 -0.122173
    9 -0.010598 -1.208184 0.000001 -1.090831 0.000000 0.000000
    10 0.000000 -0.763066 0.000000 -1.343903 0.000000 0.000000
    11 0.105982 -2.607134 -0.278957 -0.890118 0.000000 -0.148353
    12 0.000000 -1.250580 0.000000 -1.213004 0.000000 0.000000
    13 0.000000 -0.932634 0.000001 -1.483530 0.000000 0.000000
    14 0.763064 -2.490556 -0.278957 -0.349065 0.000000 0.130900
    15 -0.012321 -1.280916 0.000000 -0.750475 0.000000 0.000000
    16 -0.001697 -0.749371 0.000001 -1.143169 0.000000 0.000000
    17 0.354567 0.016268 0.318133 0.342077 -0.443527 -1.083976
    18 1.887166 0.012877 0.000000 -0.305433 0.000000 -0.401426
    19 1.001874 -0.000270 0.000000 0.000000 0.000000 -0.488692
    20 -1.123358 -2.195092 -0.278957 -0.933751 0.000000 -0.087266
    21 0.010773 -0.963791 0.000000 -0.610865 0.000000 0.000000
    22 -0.010412 -0.631916 0.000000 -1.213004 0.000000 0.000000
    23 -1.147985 -2.681484 -10.842421 -0.375064 -0.001569 0.602469
    24 0.089929 -8.543163 -0.000001 0.077350 -0.284686 0.455196
    25 0.000000 -0.359713 0.000000 0.000000 0.000000 0.000000
    26 -0.170480 -2.636147 -0.277655 -0.820345 0.000000 0.000000
    27 0.010599 -1.261177 0.000000 -0.584683 0.000000 0.000000
    28 -0.000001 -0.943233 0.000000 -0.532326 0.000000 0.000000
    29 -0.827563 -2.508973 -0.277656 -0.942486 0.000000 0.000000
    30 0.000001 -1.292971 0.000000 -0.287992 0.000000 0.000000
    31 0.000000 -0.752466 0.000000 -0.445059 0.000000 0.000000
    32 0.444212 -2.561960 -0.277655 -1.081578 -0.046226 -0.024599
    33 0.021022 -1.208186 0.000000 -0.427606 0.000000 0.000000
    34 0.010597 -0.741867 0.000000 -0.453786 0.000000 0.000000
    35 1.047444 -2.222821 -0.277655 -1.019692 -0.066950 -0.041090
    36 0.000000 -0.996223 -0.000001 -0.584716 0.000000 0.000000
    37 -0.000002 -0.614690 0.000000 -0.523599 0.000000 0.000000
    38 -0.308254 -0.007814 0.307166 -0.318048 -0.539821 -2.424630
    39 1.978378 0.019543 0.000000 -0.000002 -0.000010 0.549775
    40 0.982427 0.003186 0.000000 0.000000 0.000000 0.593399
  time 2
    0 6.606519 0.278849 -6.756516 -0.838474 -1.318998 0.632477
    1 0.000000 -8.563284 0.000000 0.324942 -0.113356 -0.202375
    2 0.022535 -3.459973 0.747359 -1.452340 1.442002 -1.446094
    3 -0.000001 2.373979 0.699475 0.000000 0.000000 0.000000
    4 -0.000001 -0.576311 1.722197 0.000000 0.000000 0.000000
    5 0.000000 -1.759287 0.975027 0.000000 0.000000 0.000000
    6 -0.000966 -2.992972 0.968136 0.131076 -0.001806 -0.009717
    7 -0.003480 -0.404829 0.000000 0.000000 0.000000 0.000000
    8 -0.519308 -2.501155 -0.278957 -1.003564 0.000000 -0.122173
    9 -0.010598 -1.208184 0.000001 -1.090831 0.000000 0.000000
    10 0.000000 -0.763066 0.000000 -1.343903 0.000000 0.000000
    11 0.105982 -2.607134 -0.278957 -0.890118 0.000000 -0.148353
    12 0.000000 -1.250580 0.000000 -1.213004 0.000000 0.000000
    13 0.000000 -0.932634 0.000001 -1.483530 0.000000 0.000000
    14 0.763064 -2.490556 -0.278957 -0.349065 0.000000 0.130900
    15 -0.012321 -1.280916 0.000000 -0.751694 0.000000 0.000000
    16 -0.001697 -0.749371 0.000001 -1.144735 0.000000 0.000000
    17 0.354567 0.016268 0.318133 0.342077 -0.443527 -1.083976
    18 1.887166 0.012877 0.000000 -0.305433 0.000000 -0.401426
    19 1.001874 -0.000270 0.000000 0.000000 0.000000 -0.488692
    20 -1.123358 -2.195092 -0.278957 -0.933751 0.000000 -0.087266
    21 0.010773 -0.963791 0.000000 -0.610865 0.000000 0.000000
    22 -0.010412 -0.631916 0.000000 -1.213004 0.000000 0.000000
    23 -1.147985 -2.783049 -10.854140 -0.374563 -0.005204 0.603303
    24 0.089929 -8.543163 -0.000001 0.072015 -0.284686 0.455196
    25 0.000000 -0.359713 0.000000 0.000000 0.000000 0.000000
    26 -0.170480 -2.636147 -0.277655 -0.820345 0.000000 0.000000
    27 0.010599 -1.261177 0.000000 -0.584683 0.000000 0.000000
    28 -0.000001 -0.943233 0.000000 -0.532326 0.000000 0.000000
    29 -0.827563 -2.508973 -0.277656 -0.942486 0.000000 0.000000
    30 0.000001 -1.292971 0.000000 -0.287992 0.000000 0.000000
    31 0.000000 -0.752466 0.000000 -0.445059 0.000000 0.000000
    32 0.444212 -2.561960 -0.277655 -1.081578 -0.046226 -0.024599
    33 0.021022 -1.208186 0.000000 -0.427606 0.000000 0.000000
    34 0.010597 -0.741867 0.000000 -0.453786 0.000000 0.000000
    35 1.047444 -2.222821 -0.277655 -1.019692 -0.066950 -0.041090
    36 0.000000 -0.996223 -0.000001 -0.584716 0.000000 0.000000
    37 -0.000002 -0.614690 0.000000 -0.523599 0.000000 0.000000
    38 -0.308254 -0.007814 0.307166 -0.318048 -0.539821 -2.424630
    39 1.978378 0.019543 0.000000 -0.000002 -0.000010 0.549775
    40 0.982427 0.003186 0.000000 0.000000 0.000000 0.593399
  time 3
    0 6.606519 -0.006316 -6.596355 -0.750037 -1.342569 0.541096
    1 0.000000 -8.563284 0.000000 0.368560 -0.112337 -0.127744
    2 0.022535 -3.459973 0.747359 -1.452340 1.442002 -1.446094
    3 -0.000001 2.373979 0.699475 0.000000 0.000000 0.000000
    4 -0.000001 0.415906 1.718291 0.000000 0.000000 0.000000
    5 0.000000 -1.759287 0.975027 0.000000 0.000000 0.000000
    6 -0.000966 -2.992972 0.968136 0.131076 -0.001806 -0.009717
    7 -0.003480 -0.404829 0.000000 0.000000 0.000000 0.000000
    8 -0.519308 -2.501155 -0.278957 -1.003564 0.000000 -0.122173
    9 -0.010598 -1.208184 0.000001 -1.090831 0.000000 0.000000
    10 0.000000 -0.763066 0.000000 -1.343903 0.000000 0.000000
    11 0.105982 -2.607134 -0.278957 -0.890118 0.000000 -0.148353
    12 0.000000 -1.250580 0.000000 -1.213004 0.000000 0.000000
    13 0.000000 -0.932634 0.000001 -1.483530 0.000000 0.000000
    14 0.763064 -2.490556 -0.278957 -0.349065 0.000000 0.130900
    15 -0.012321 -1.280916 0.000000 -0.754865 0.000000 0.000000
    16 -0.001697 -0.749371 0.000001 -1.148831 0.000000 0.000000
    17 0.354567 0.016268 0.318133 0.342077 -0.443527 -1.083976
    18 1.887166 0.012877 0.000000 -0.305433 0.000000 -0.401426
    19 1.001874 -0.000270 0.000000 0.000000 0.000000 -0.488692
    20 -1.123358 -2.195092 -0.278957 -0.933751 0.000000 -0.087266
    21 0.010773 -0.963791 0.000000 -0.610865 0.000000 0.000000
    22 -0.010412 -0.631916 0.000000 -1.213004 0.000000 0.000000
    23 -1.147985 -3.165874 -10.893204 -0.374106 -0.008935 0.604136
    24 0.089929 -8.543163 -0.000001 0.066699 -0.284686 0.455196
    25 0.000000 -0.359713 0.000000 0.000000 0.000000 0.000000
    26 -0.170480 -2.636147 -0.277655 -0.820345 0.000000 0.000000
    27 0.010599 -1.261177 0.000000 -0.584683 0.000000 0.000000
    28 -0.000001 -0.943233 0.000000 -0.532326 0.000000 0.000000
    29 -0.827563 -2.508973 -0.277656 -0.942486 0.000000 0.000000
    30 0.000001 -1.292971 0.000000 -0.287992 0.000000 0.000000
    31 0.000000 -0.752466 0.000000 -0.445059 0.000000 0.000000
    32 0.444212 -2.561960 -0.277655 -1.081578 -0.046226 -0.024599
    33 0.021022 -1.208186 0.000000 -0.427606 0.000000 0.000000
    34 0.010597 -0.741867 0.000000 -0.453786 0.000000 0.000000
    35 1.047444 -2.222821 -0.277655 -1.019692 -0.066950 -0.041090
    36 0.000000 -0.996223 -0.000001 -0.584716 0.000000 0.000000
    37 -0.000002 -0.614690 0.000000 -0.523599 0.000000 0.000000
    38 -0.308254 -0.007814 0.307166 -0.318048 -0.539821 -2.424630
    39 1.978378 0.019543 0.000000 -0.000002 -0.000010 0.549775
    40 0.982427 0.003186 0.000000 0.000000 0.000000 0.593399
  time 4
    0 6.606519 0.333538 -6.694014 -0.818809 -1.327145 0.611702
    1 0.000000 -8.563284 0.000000 0.323642 -0.127210 -0.189733
    2 0.022535 -3.459973 0.747359 -1.452340 1.442002 -1.446094
    3 -0.000001 2.373979 0.699475 0.000000 0.000000 0.000000
    4 -0.000001 -0.369274 1.718291 0.000000 0.000000 0.000000
    5 0.000000 -1.759287 0.975027 0.000000 0.000000 0.000000
    6 -0.000966 -2.992972 0.968136 0.131076 -0.001806 -0.009717
    7 -0.003480 -0.404829 0.000000 0.000000 0.000000 0.000000
    8 -0.519308 -2.501155 -0.278957 -1.003564 0.000000 -0.122173
    9 -0.010598 -1.208184 0.000001 -1.090831 0.000000 0.000000
    10 0.000000 -0.763066 0.000000 -1.343903 0.000000 0.000000
    11 0.105982 -2.607134 -0.278957 -0.890118 0.000000 -0.148353
    12 0.000000 -1.250580 0.000000 -1.213004 0.000000 0.000000
    13 0.000000 -0.932634 0.000001 -1.483530 0.000000 0.000000
    14 0.763064 -2.490556 -0.278957 -0.349065 0.000000 0.130900
    15 -0.012321 -1.280916 0.000000 -0.759256 0.000000 0.000000
    16 -0.001697 -0.749371 0.000001 -1.154458 0.000000 0.000000
    17 0.354567 0.016268 0.318133 0.342077 -0.443527 -1.083976
    18 1.887166 0.012877 0.000000 -0.305433 0.000000 -0.401426
    19 1.001874 -0.000270 0.000000 0.000000 0.000000 -0.488692
    20 -1.123358 -2.195092 -0.278957 -0.933751 0.000000 -0.087266
    21 0.010773 -0.963791 0.000000 -0.610865 0.000000 0.000000
    22 -0.010412 -0.631916 0.000000 -1.213004 0.000000 0.000000
    23 -1.147985 -2.704922 -10.893204 -0.373832 -0.010657 0.604484
    24 0.089929 -8.543163 -0.000001 0.064253 -0.284686 0.455196
    25 0.000000 -0.359713 0.000000 0.000000 0.000000 0.000000
    26 -0.170480 -2.636147 -0.277655 -0.820345 0.000000 0.000000
    27 0.010599 -1.261177 0.000000 -0.584683 0.000000 0.000000
    28 -0.000001 -0.943233 0.000000 -0.532326 0.000000 0.000000
    29 -0.827563 -2.508973 -0.277656 -0.942486 0.000000 0.000000
    30 0.000001 -1.292971 0.000000 -0.287992 0.000000 0.000000
    31 0.000000 -0.752466 0.000000 -0.445059 0.000000 0.000000
    32 0.444212 -2.561960 -0.277655 -1.081578 -0.046226 -0.024599
    33 0.021022 -1.208186 0.000000 -0.427606 0.000000 0.000000
    34 0.010597 -0.741867 0.000000 -0.453786 0.000000 0.000000
    35 1.047444 -2.222821 -0.277655 -1.019692 -0.066950 -0.041090
    36 0.000000 -0.996223 -0.000001 -0.584716 0.000000 0.000000
    37 -0.000002 -0.614690 0.000000 -0.523599 0.000000 0.000000
    38 -0.308254 -0.007814 0.307166 -0.318048 -0.539821 -2.424630
    39 1.978378 0.019543 0.000000 -0.000002 -0.000010 0.549775
    40 0.982427 0.003186 0.000000 0.000000 0.000000 0.593399
  time 5
    0 6.606519 -0.018035 -6.596355 -0.679940 -1.357088 0.469006
    1 0.000000 -8.563284 0.000000 0.359894 -0.112169 -0.128215
    2 0.022535 -3.459973 0.747359 -1.452340 1.442002 -1.446094
    3 -0.000001 2.373979 0.699475 0.000000 0.000000 0.000000
    4 -0.000001 0.451064 1.718291 0.000000 0.000000 0.000000
    5 0.000000 -1.759287 0.975027 0.000000 0.000000 0.000000
    6 -0.000966 -2.992972 0.968136 0.131076 -0.001806 -0.009717
    7 -0.003480 -0.404829 0.000000 0.000000 0.000000 0.000000
    8 -0.519308 -2.501155 -0.278957 -1.003564 0.000000 -0.122173
    9 -0.010598 -1.208184 0.000001 -1.090831 0.000000 0.000000
    10 0.000000 -0.763066 0.000000 -1.343903 0.000000 0.000000
    11 0.105982 -2.607134 -0.278957 -0.890118 0.000000 -0.148353
    12 0.000000 -1.250580 0.000000 -1.213004 0.000000 0.000000
    13 0.000000 -0.932634 0.000001 -1.483530 0.000000 0.000000
    14 0.763064 -2.490556 -0.278957 -0.349065 0.000000 0.130900
    15 -0.012321 -1.280916 0.000000 -0.764131 0.000000 0.000000
    16 -0.001697 -0.749371 0.000001 -1.160726 0.000000 0.000000
    17 0.354567 0.016268 0.318133 0.342077 -0.443527 -1.083976
    18 1.887166 0.012877 0.000000 -0.305433 0.000000 -0.401426
    19 1.001874 -0.000270 0.000000 0.000000 0.000000 -0.488692
    20 -1.123358 -2.195092 -0.278957 -0.933751 0.000000 -0.087266
    21 0.010773 -0.963791 0.000000 -0.610865 0.000000 0.000000
    22 -0.010412 -0.631916 0.000000 -1.213004 0.000000 0.000000
    23 -1.147985 -3.126810 -11.158837 -0.374152 -0.008265 0.603928
    24 0.089929 -8.543163 -0.000001 0.067662 -0.284686 0.455196
    25 0.000000 -0.359713 0.000000 0.000000 0.000000 0.000000
    26 -0.170480 -2.636147 -0.277655 -0.820345 0.000000 0.000000
    27 0.010599 -1.261177 0.000000 -0.584683 0.000000 0.000000
    28 -0.000001 -0.943233 0.000000 -0.532326 0.000000 0.000000
    29 -0.827563 -2.508973 -0.277656 -0.942486 0.000000 0.000000
    30 0.000001 -1.292971 0.000000 -0.287992 0.000000 0.000000
    31 0.000000 -0.752466 0.000000 -0.445059 0.000000 0.000000
    32 0.444212 -2.561960 -0.277655 -1.081578 -0.046226 -0.024599
    33 0.021022 -1.208186 0.000000 -0.427606 0.000000 0.000000
    34 0.010597 -0.741867 0.000000 -0.453786 0.000000 0.000000
    35 1.047444 -2.222821 -0.277655 -1.019692 -0.066950 -0.041090
    36 0.000000 -0.996223 -0.000001 -0.584716 0.000000 0.000000
    37 -0.000002 -0.614690 0.000000 -0.523599 0.000000 0.000000
    38 -0.308254 -0.007814 0.307166 -0.318048 -0.539821 -2.424630
    39 1.978378 0.019543 0.000000 -0.000002 -0.000010 0.549775
    40 0.982427 0.003186 0.000000 0.000000 0.000000 0.593399
  time 6
    0 6.606519 0.337445 -6.733078 -0.833668 -1.310272 0.629665
    1 0.000000 -8.563284 0.000000 0.334956 -0.118197 -0.214560
    2 0.022535 -3.459973 0.747359 -1.452340 1.442002 -1.446094
    3 -0.000001 2.373979 0.699475 0.000000 0.000000 0.000000
    4 -0.000001 0.095584 1.718291 0.000000 0.000000 0.000000
    5 0.000000 -1.759287 0.975027 0.000000 0.000000 0.000000
    6 -0.000966 -2.992972 0.968136 0.131076 -0.001806 -0.009717
    7 -0.003480 -0.404829 0.000000 0.000000 0.000000 0.000000
    8 -0.519308 -2.501155 -0.278957 -1.003564 0.000000 -0.122173
    9 -0.010598 -1.208184 0.000001 -1.090831 0.000000 0.000000
    10 0.000000 -0.763066 0.000000 -1.343903 0.000000 0.000000
    11 0.105982 -2.607134 -0.278957 -0.890118 0.000000 -0.148353
    12 0.000000 -1.250580 0.000000 -1.213004 0.000000 0.000000
    13 0.000000 -0.932634 0.000001 -1.483530 0.000000 0.000000
    14 0.763064 -2.490556 -0.278957 -0.349065 0.000000 0.130900
    15 -0.012321 -1.280916 0.000000 -0.768756 0.000000 0.000000
    16 -0.001697 -0.749371 0.000001 -1.166691 0.000000 0.000000
    17 0.354567 0.016268 0.318133 0.342077 -0.443527 -1.083976
    18 1.887166 0.012877 0.000000 -0.305433 0.000000 -0.401426
    19 1.001874 -0.000270 0.000000 0.000000 0.000000 -0.488692
    20 -1.123358 -2.195092 -0.278957 -0.933751 0.000000 -0.087266
    21 0.010773 -0.963791 0.000000 -0.610865 0.000000 0.000000
    22 -0.010412 -0.631916 0.000000 -1.213004 0.000000 0.000000
    23 -1.147985 -2.720548 -10.799451 -0.375247 0.000057 0.602052
    24 0.089929 -8.543163 -0.000001 0.079777 -0.284686 0.455196
    25 0.000000 -0.359713 0.000000 0.000000 0.000000 0.000000
    26 -0.170480 -2.636147 -0.277655 -0.820345 0.000000 0.000000
    27 0.010599 -1.261177 0.000000 -0.584683 0.000000 0.000000
    28 -0.000001 -0.943233 0.000000 -0.532326 0.000000 0.000000
    29 -0.827563 -2.508973 -0.277656 -0.942486 0.000000 0.000000
    30 0.000001 -1.292971 0.000000 -0.287992 0.000000 0.000000
    31 0.000000 -0.752466 0.000000 -0.445059 0.000000 0.000000
    32 0.444212 -2.561960 -0.277655 -1.081578 -0.046226 -0.024599
    33 0.021022 -1.208186 0.000000 -0.427606 0.000000 0.000000
    34 0.010597 -0.741867 0.000000 -0.453786 0.000000 0.000000
    35 1.047444 -2.222821 -0.277655 -1.019692 -0.066950 -0.041090
    36 0.000000 -0.996223 -0.000001 -0.584716 0.000000 0.000000
    37 -0.000002 -0.614690 0.000000 -0.523599 0.000000 0.000000
    38 -0.308254 -0.007814 0.307166 -0.318048 -0.539821 -2.424630
    39 1.978378 0.019543 0.000000 -0.000002 -0.000010 0.549775
    40 0.982427 0.003186 0.000000 0.000000 0.000000 0.593399
  time 7
    0 6.586988 0.399946 -6.713546 -0.865762 -1.270046 0.668639
    1 0.000000 -8.563284 0.000000 0.328517 -0.129151 -0.291359
    2 0.022535 -3.459973 0.747359 -1.452340 1.442002 -1.446094
    3 -0.000001 2.373979 0.699475 0.000000 0.000000 0.000000
    4 -0.000001 -0.572405 1.710478 0.000000 0.000000 0.000000
    5 0.000000 -1.759287 0.975027 0.000000 0.000000 0.000000
    6 -0.000966 -2.992972 0.968136 0.131076 -0.001806 -0.009717
    7 -0.003480 -0.404829 0.000000 0.000000 0.000000 0.000000
    8 -0.519308 -2.501155 -0.278957 -1.003564 0.000000 -0.122173
    9 -0.010598 -1.208184 0.000001 -1.090831 0.000000 0.000000
    10 0.000000 -0.763066 0.000000 -1.343903 0.000000 0.000000
    11 0.105982 -2.607134 -0.278957 -0.890118 0.000000 -0.148353
    12 0.000000 -1.250580 0.000000 -1.213004 0.000000 0.000000
    13 0.000000 -0.932634 0.000001 -1.483530 0.000000 0.000000
    14 0.763064 -2.490556 -0.278957 -0.349065 0.000000 0.130900
    15 -0.012321 -1.280916 0.000000 -0.772413 0.000000 0.000000
    16 -0.001697 -0.749371 0.000001 -1.171392 0.000000 0.000000
    17 0.354567 0.016268 0.318133 0.342077 -0.443527 -1.083976
    18 1.887166 0.012877 0.000000 -0.305433 0.000000 -0.401426
    19 1.001874 -0.000270 0.000000 0.000000 0.000000 -0.488692
    20 -1.123358 -2.195092 -0.278957 -0.933751 0.000000 -0.087266
    21 0.010773 -0.963791 0.000000 -0.610865 0.000000 0.000000
    22 -0.010412 -0.631916 0.000000 -1.213004 0.000000 0.000000
    23 -1.116734 -2.427570 -10.459597 -0.378806 0.025694 0.596148
    24 0.089929 -8.543163 -0.000001 0.152102 -0.298759 0.451868
    25 0.000000 -0.359713 0.000000 0.000000 0.000000 0.000000
    26 -0.170480 -2.636147 -0.277655 -0.820345 0.000000 0.000000
    27 0.010599 -1.261177 0.000000 -0.584683 0.000000 0.000000
    28 -0.000001 -0.943233 0.000000 -0.532326 0.000000 0.000000
    29 -0.827563 -2.508973 -0.277656 -0.942486 0.000000 0.000000
    30 0.000001 -1.292971 0.000000 -0.287992 0.000000 0.000000
    31 0.000000 -0.752466 0.000000 -0.445059 0.000000 0.000000
    32 0.444212 -2.561960 -0.277655 -1.081578 -0.046226 -0.024599
    33 0.021022 -1.208186 0.000000 -0.427606 0.000000 0.000000
    34 0.010597 -0.741867 0.000000 -0.453786 0.000000 0.000000
    35 1.047444 -2.222821 -0.277655 -1.019692 -0.066950 -0.041090
    36 0.000000 -0.996223 -0.000001 -0.584716 0.000000 0.000000
    37 -0.000002 -0.614690 0.000000 -0.523599 0.000000 0.000000
    38 -0.308254 -0.007814 0.307166 -0.318048 -0.539821 -2.424630
    39 1.978378 0.019543 0.000000 -0.000002 -0.000010 0.549775
    40 0.982427 0.003186 0.000000 0.000000 0.000000 0.593399
  time 8
    0 6.528392 0.591359 -6.654950 -0.883383 -1.224569 0.694101
    1 0.000000 -8.563284 0.000000 0.326940 -0.137648 -0.357756
    2 0.022535 -3.459973 0.747359 -1.452340 1.442002 -1.446094
    3 -0.000001 2.373979 0.699475 0.000000 0.000000 0.000000
    4 -0.000001 -0.931791 1.710478 0.000000 0.000000 0.000000
    5 0.000000 -1.759287 0.975027 0.000000 0.000000 0.000000
    6 -0.000966 -2.992972 0.968136 0.131076 -0.001806 -0.009717
    7 -0.003480 -0.404829 0.000000 0.000000 0.000000 0.000000
    8 -0.519308 -2.501155 -0.278957 -1.003564 0.000000 -0.122173
    9 -0.010598 -1.208184 0.000001 -1.090831 0.000000 0.000000
    10 0.000000 -0.763066 0.000000 -1.343903 0.000000 0.000000
    11 0.105982 -2.607134 -0.278957 -0.890118 0.000000 -0.148353
    12 0.000000 -1.250580 0.000000 -1.213004 0.000000 0.000000
    13 0.000000 -0.932634 0.000001 -1.483530 0.000000 0.000000
    14 0.763064 -2.490556 -0.278957 -0.349065 0.000000 0.130900
    15 -0.012321 -1.280916 0.000000 -0.774365 0.000000 0.000000
    16 -0.001697 -0.749371 0.000001 -1.173885 0.000000 0.000000
    17 0.354567 0.016268 0.318133 0.342077 -0.443527 -1.083976
    18 1.887166 0.012877 0.000000 -0.305433 0.000000 -0.401426
    19 1.001874 -0.000270 0.000000 0.000000 0.000000 -0.488692
    20 -1.123358 -2.195092 -0.278957 -0.933751 0.000000 -0.087266
    21 0.010773 -0.963791 0.000000 -0.610865 0.000000 0.000000
    22 -0.010412 -0.631916 0.000000 -1.213004 0.000000 0.000000
    23 -1.054232 -2.271315 -10.150994 -0.384784 0.066253 0.586561
    24 0.089929 -8.543163 -0.000001 0.219381 -0.284686 0.455196
    25 0.000000 -0.359713 0.000000 0.000000 0.000000 0.000000
    26 -0.170480 -2.636147 -0.277655 -0.820345 0.000000 0.000000
    27 0.010599 -1.261177 0.000000 -0.584683 0.000000 0.000000
    28 -0.000001 -0.943233 0.000000 -0.532326 0.000000 0.000000
    29 -0.827563 -2.508973 -0.277656 -0.942486 0.000000 0.000000
    30 0.000001 -1.292971 0.000000 -0.287992 0.000000 0.000000
    31 0.000000 -0.752466 0.000000 -0.445059 0.000000 0.000000
    32 0.444212 -2.561960 -0.277655 -1.081578 -0.046226 -0.024599
    33 0.021022 -1.208186 0.000000 -0.427606 0.000000 0.000000
    34 0.010597 -0.741867 0.000000 -0.453786 0.000000 0.000000
    35 1.047444 -2.222821 -0.277655 -1.019692 -0.066950 -0.041090
    36 0.000000 -0.996223 -0.000001 -0.584716 0.000000 0.000000
    37 -0.000002 -0.614690 0.000000 -0.523599 0.000000 0.000000
    38 -0.308254 -0.007814 0.307166 -0.318048 -0.539821 -2.424630
    39 1.978378 0.019543 0.000000 -0.000002 -0.000010 0.549775
    40 0.982427 0.003186 0.000000 0.000000 0.000000 0.593399
  time 9
    0 6.536205 0.685111 -6.717452 -0.892276 -1.183438 0.710425
    1 0.000000 -8.563284 0.000000 0.328769 -0.121230 -0.356678
    2 0.022535 -3.459973 0.747359 -1.452340 1.442002 -1.446094
    3 -0.000001 2.373979 0.699475 0.000000 0.000000 0.000000
    4 -0.000001 -0.931791 1.710478 0.000000 0.000000 0.000000
    5 0.000000 -1.759287 0.975027 0.000000 0.000000 0.000000
    6 -0.000966 -2.992972 0.968136 0.131076 -0.001806 -0.009717
    7 -0.003480 -0.404829 0.000000 0.000000 0.000000 0.000000
    8 -0.519308 -2.501155 -0.278957 -1.003564 0.000000 -0.122173
    9 -0.010598 -1.208184 0.000001 -1.090831 0.000000 0.000000
    10 0.000000 -0.763066 0.000000 -1.343903 0.000000 0.000000
    11 0.105982 -2.607134 -0.278957 -0.890118 0.000000 -0.148353
    12 0.000000 -1.250580 0.000000 -1.213004 0.000000 0.000000
    13 0.000000 -0.932634 0.000001 -1.483530 0.000000 0.000000
    14 0.763064 -2.490556 -0.278957 -0.349065 0.000000 0.130900
    15 -0.012321 -1.280916 0.000000 -0.773881 0.000000 0.000000
    16 -0.001697 -0.749371 0.000001 -1.173244 0.000000 0.000000
    17 0.354567 0.016268 0.318133 0.342077 -0.443527 -1.083976
    18 1.887166 0.012877 0.000000 -0.305433 0.000000 -0.401426
    19 1.001874 -0.000270 0.000000 0.000000 0.000000 -0.488692
    20 -1.123358 -2.195092 -0.278957 -0.933751 0.000000 -0.087266
    21 0.010773 -0.963791 0.000000 -0.610865 0.000000 0.000000
    22 -0.010412 -0.631916 0.000000 -1.213004 0.000000 0.000000
    23 -0.960479 -2.267409 -9.877548 -0.390671 0.103848 0.577392
    24 0.089929 -8.543163 -0.000001 0.175581 -0.173366 0.482220
    25 0.000000 -0.359713 0.000000 0.000000 0.000000 0.000000
    26 -0.170480 -2.636147 -0.277655 -0.820345 0.000000 0.000000
    27 0.010599 -1.261177 0.000000 -0.584683 0.000000 0.000000
    28 -0.000001 -0.943233 0.000000 -0.532326 0.000000 0.000000
    29 -0.827563 -2.508973 -0.277656 -0.942486 0.000000 0.000000
    30 0.000001 -1.292971 0.000000 -0.287992 0.000000 0.000000
    31 0.000000 -0.752466 0.000000 -0.445059 0.000000 0.000000
    32 0.444212 -2.561960 -0.277655 -1.081578 -0.046226 -0.024599
    33 0.021022 -1.208186 0.000000 -0.427606 0.000000 0.000000
    34 0.010597 -0.741867 0.000000 -0.453786 0.000000 0.000000
    35 1.047444 -2.222821 -0.277655 -1.019692 -0.066950 -0.041090
    36 0.000000 -0.996223 -0.000001 -0.584716 0.000000 0.000000
    37 -0.000002 -0.614690 0.000000 -0.523599 0.000000 0.000000
    38 -0.308254 -0.007814 0.307166 -0.318048 -0.539821 -2.424630
    39 1.978378 0.019543 0.000000 -0.000002 -0.000010 0.549775
    40 0.982427 0.003186 0.000000 0.000000 0.000000 0.593399
  time 10
    0 6.555737 0.915587 -6.881520 -0.897579 -1.155956 0.721047
    1 0.000000 -8.563284 0.000000 0.374890 0.026301 -0.024892
    2 0.022535 -3.459973 0.747359 -1.452340 1.442002 -1.446094
    3 -0.000001 2.373979 0.699475 0.000000 0.000000 0.000000
    4 -0.000001 -0.931791 1.710478 0.000000 0.000000 0.000000
    5 0.000000 -1.759287 0.975027 0.000000 0.000000 0.000000
    6 -0.000966 -2.992972 0.968136 0.131076 -0.001806 -0.009717
    7 -0.003480 -0.404829 0.000000 0.000000 0.000000 0.000000
    8 -0.519308 -2.501155 -0.278957 -1.003564 0.000000 -0.122173
    9 -0.010598 -1.208184 0.000001 -1.090831 0.000000 0.000000
    10 0.000000 -0.763066 0.000000 -1.343903 0.000000 0.000000
    11 0.105982 -2.607134 -0.278957 -0.890118 0.000000 -0.148353
    12 0.000000 -1.250580 0.000000 -1.213004 0.000000 0.000000
    13 0.000000 -0.932634 0.000001 -1.483530 0.000000 0.000000
    14 0.763064 -2.490556 -0.278957 -0.349065 0.000000 0.130900
    15 -0.012321 -1.280916 0.000000 -0.770224 0.000000 0.000000
    16 -0.001697 -0.749371 0.000001 -1.168561 0.000000 0.000000
    17 0.354567 0.016268 0.318133 0.342077 -0.443527 -1.083976
    18 1.887166 0.012877 0.000000 -0.305433 0.000000 -0.401426
    19 1.001874 -0.000270 0.000000 0.000000 0.000000 -0.488692
    20 -1.123358 -2.195092 -0.278957 -0.933751 0.000000 -0.087266
    21 0.010773 -0.963791 0.000000 -0.610865 0.000000 0.000000
    22 -0.010412 -0.631916 0.000000 -1.213004 0.000000 0.000000
    23 -0.800318 -2.404132 -9.631447 -0.393363 0.120301 0.573363
    24 0.089929 -8.543163 -0.000001 0.115699 -0.058854 0.502610
    25 0.000000 -0.359713 0.000000 0.000000 0.000000 0.000000
    26 -0.170480 -2.636147 -0.277655 -0.820345 0.000000 0.000000
    27 0.010599 -1.261177 0.000000 -0.584683 0.000000 0.000000
    28 -0.000001 -0.943233 0.000000 -0.532326 0.000000 0.000000
    29 -0.827563 -2.508973 -0.277656 -0.942486 0.000000 0.000000
    30 0.000001 -1.292971 0.000000 -0.287992 0.000000 0.000000
    31 0.000000 -0.752466 0.000000 -0.445059 0.000000 0.000000
    32 0.444212 -2.561960 -0.277655 -1.081578 -0.046226 -0.024599
    33 0.021022 -1.208186 0.000000 -0.427606 0.000000 0.000000
    34 0.010597 -0.741867 0.000000 -0.453786 0.000000 0.000000
    35 1.047444 -2.222821 -0.277655 -1.019692 -0.066950 -0.041090
    36 0.000000 -0.996223 -0.000001 -0.584716 0.000000 0.000000
    37 -0.000002 -0.614690 0.000000 -0.523599 0.000000 0.000000
    38 -0.308254 -0.007814 0.307166 -0.318048 -0.539821 -2.424630
    39 1.978378 0.019543 0.000000 -0.000002 -0.000010 0.549775
    40 0.982427 0.003186 0.000000 0.000000 0.000000 0.593399
  time 11
    0 6.579175 1.189033 -7.076838 -0.902937 -1.151575 0.728232
    1 0.000000 -8.563284 0.000000 0.382918 0.028254 0.043622
    2 0.022535 -3.459973 0.747359 -1.452340 1.442002 -1.446094
    3 -0.000001 2.373979 0.699475 0.000000 0.000000 0.000000
    4 -0.000001 -0.931791 1.710478 0.000000 0.000000 0.000000
    5 0.000000 -1.759287 0.975027 0.000000 0.000000 0.000000
    6 -0.000966 -2.992972 0.968136 0.131076 -0.001806 -0.009717
    7 -0.003480 -0.404829 0.000000 0.000000 0.000000 0.000000
    8 -0.519308 -2.501155 -0.278957 -1.003564 0.000000 -0.122173
    9 -0.010598 -1.208184 0.000001 -1.090831 0.000000 0.000000
    10 0.000000 -0.763066 0.000000 -1.343903 0.000000 0.000000
    11 0.105982 -2.607134 -0.278957 -0.890118 0.000000 -0.148353
    12 0.000000 -1.250580 0.000000 -1.213004 0.000000 0.000000
    13 0.000000 -0.932634 0.000001 -1.483530 0.000000 0.000000
    14 0.763064 -2.490556 -0.278957 -0.349065 0.000000 0.130900
    15 -0.012321 -1.280916 0.000000 -0.762676 0.000000 0.000000
    16 -0.001697 -0.749371 0.000001 -1.158856 0.000000 0.000000
    17 0.354567 0.016268 0.318133 0.342077 -0.443527 -1.083976
    18 1.887166 0.012877 0.000000 -0.305433 0.000000 -0.401426
    19 1.001874 -0.000270 0.000000 0.000000 0.000000 -0.488692
    20 -1.123358 -2.195092 -0.278957 -0.933751 0.000000 -0.087266
    21 0.010773 -0.963791 0.000000 -0.610865 0.000000 0.000000
    22 -0.010412 -0.631916 0.000000 -1.213004 0.000000 0.000000
    23 -0.628438 -2.396319 -9.490817 -0.393272 0.119727 0.573502
    24 0.089929 -8.543163 -0.000001 0.095167 -0.028171 0.508423
    25 0.000000 -0.359713 0.000000 0.000000 0.000000 0.000000
    26 -0.170480 -2.636147 -0.277655 -0.820345 0.000000 0.000000
    27 0.010599 -1.261177 0.000000 -0.584683 0.000000 0.000000
    28 -0.000001 -0.943233 0.000000 -0.532326 0.000000 0.000000
    29 -0.827563 -2.508973 -0.277656 -0.942486 0.000000 0.000000
    30 0.000001 -1.292971 0.000000 -0.287992 0.000000 0.000000
    31 0.000000 -0.752466 0.000000 -0.445059 0.000000 0.000000
    32 0.444212 -2.561960 -0.277655 -1.081578 -0.046226 -0.024599
    33 0.021022 -1.208186 0.000000 -0.427606 0.000000 0.000000
    34 0.010597 -0.741867 0.000000 -0.453786 0.000000 0.000000
    35 1.047444 -2.222821 -0.277655 -1.019692 -0.066950 -0.041090
    36 0.000000 -0.996223 -0.000001 -0.584716 0.000000 0.000000
    37 -0.000002 -0.614690 0.000000 -0.523599 0.000000 0.000000
    38 -0.308254 -0.007814 0.307166 -0.318048 -0.539821 -2.424630
    39 1.978378 0.019543 0.000000 -0.000002 -0.000010 0.549775
    40 0.982427 0.003186 0.000000 0.000000 0.000000 0.593399
  time 12
    0 6.598707 1.419509 -7.236999 -0.904594 -1.154508 0.729794
    1 0.000000 -8.563284 0.000000 0.382641 0.008719 0.095073
    2 0.022535 -3.459973 0.747359 -1.452340 1.442002 -1.446094
    3 -0.000001 2.373979 0.699475 0.000000 0.000000 0.000000
    4 -0.000001 -0.931791 1.710478 0.000000 0.000000 0.000000
    5 0.000000 -1.759287 0.975027 0.000000 0.000000 0.000000
    6 -0.000966 -2.992972 0.968136 0.131076 -0.001806 -0.009717
    7 -0.003480 -0.404829 0.000000 0.000000 0.000000 0.000000
    8 -0.519308 -2.501155 -0.278957 -1.003564 0.000000 -0.122173
    9 -0.010598 -1.208184 0.000001 -1.090831 0.000000 0.000000
    10 0.000000 -0.763066 0.000000 -1.343903 0.000000 0.000000
    11 0.105982 -2.607134 -0.278957 -0.890118 0.000000 -0.148353
    12 0.000000 -1.250580 0.000000 -1.213004 0.000000 0.000000
    13 0.000000 -0.932634 0.000001 -1.483530 0.000000 0.000000
    14 0.763064 -2.490556 -0.278957 -0.349065 0.000000 0.130900
    15 -0.012321 -1.280916 0.000000 -0.750475 0.000000 0.000000
    16 -0.001697 -0.749371 0.000001 -1.143169 0.000000 0.000000
    17 0.354567 0.016268 0.318133 0.342077 -0.443527 -1.083976
    18 1.887166 0.012877 0.000000 -0.305433 0.000000 -0.401426
    19 1.001874 -0.000270 0.000000 0.000000 0.000000 -0.488692
    20 -1.123358 -2.195092 -0.278957 -0.933751 0.000000 -0.087266
    21 0.010773 -0.963791 0.000000 -0.610865 0.000000 0.000000
    22 -0.010412 -0.631916 0.000000 -1.213004 0.000000 0.000000
    23 -0.472183 -2.290847 -9.443941 -0.392998 0.118005 0.573919
    24 0.089929 -8.543163 -0.000001 0.096399 -0.044235 0.507227
    25 0.000000 -0.359713 0.000000 0.000000 0.000000 0.000000
    26 -0.170480 -2.636147 -0.277655 -0.820345 0.000000 0.000000
    27 0.010599 -1.261177 0.000000 -0.584683 0.000000 0.000000
    28 -0.000001 -0.943233 0.000000 -0.532326 0.000000 0.000000
    29 -0.827563 -2.508973 -0.277656 -0.942486 0.000000 0.000000
    30 0.000001 -1.292971 0.000000 -0.287992 0.000000 0.000000
    31 0.000000 -0.752466 0.000000 -0.445059 0.000000 0.000000
    32 0.444212 -2.561960 -0.277655 -1.081578 -0.046226 -0.024599
    33 0.021022 -1.208186 0.000000 -0.427606 0.000000 0.000000
    34 0.010597 -0.741867 0.000000 -0.453786 0.000000 0.000000
    35 1.047444 -2.222821 -0.277655 -1.019692 -0.066950 -0.041090
    36 0.000000 -0.996223 -0.000001 -0.584716 0.000000 0.000000
    37 -0.000002 -0.614690 0.000000 -0.523599 0.000000 0.000000
    38 -0.308254 -0.007814 0.307166 -0.318048 -0.539821 -2.424630
    39 1.978378 0.019543 0.000000 -0.000002 -0.000010 0.549775
    40 0.982427 0.003186 0.000000 0.000000 0.000000 0.593399
  time 13
    0 6.606519 1.517168 -7.307314 -0.910560 -1.166963 0.734871
    1 0.000000 -8.563284 0.000000 0.376010 -0.018246 0.114564
    2 0.022535 -3.459973 0.747359 -1.452340 1.442002 -1.446094
    3 -0.000001 2.373979 0.699475 0.000000 0.000000 0.000000
    4 -0.000001 -0.931791 1.710478 0.000000 0.000000 0.000000
    5 0.000000 -1.759287 0.975027 0.000000 0.000000 0.000000
    6 -0.000966 -2.992972 0.968136 0.131076 -0.001806 -0.009717
    7 -0.003480 -0.404829 0.000000 0.000000 0.000000 0.000000
    8 -0.519308 -2.501155 -0.278957 -1.003564 0.000000 -0.122173
    9 -0.010598 -1.208184 0.000001 -1.090831 0.000000 0.000000
    10 0.000000 -0.763066 0.000000 -1.343903 0.000000 0.000000
    11 0.105982 -2.607134 -0.278957 -0.890118 0.000000 -0.148353
    12 0.000000 -1.250580 0.000000 -1.213004 0.000000 0.000000
    13 0.000000 -0.932634 0.000001 -1.483530 0.000000 0.000000
    14 0.763064 -2.490556 -0.278957 -0.349065 0.000000 0.130900
    15 -0.012321 -1.280916 0.000000 -0.734756 0.000000 0.000000
    16 -0.001697 -0.749371 0.000001 -1.122958 0.000000 0.000000
    17 0.354567 0.016268 0.318133 0.342077 -0.443527 -1.083976
    18 1.887166 0.012877 0.000000 -0.305433 0.000000 -0.401426
    19 1.001874 -0.000270 0.000000 0.000000 0.000000 -0.488692
    20 -1.123358 -2.195092 -0.278957 -0.933751 0.000000 -0.087266
    21 0.010773 -0.963791 0.000000 -0.610865 0.000000 0.000000
    22 -0.010412 -0.631916 0.000000 -1.213004 0.000000 0.000000
    23 -0.405775 -2.212720 -9.471286 -0.392542 0.115422 0.574544
    24 0.089929 -8.543163 -0.000001 0.113908 -0.080902 0.501743
    25 0.000000 -0.359713 0.000000 0.000000 0.000000 0.000000
    26 -0.170480 -2.636147 -0.277655 -0.820345 0.000000 0.000000
    27 0.010599 -1.261177 0.000000 -0.584683 0.000000 0.000000
    28 -0.000001 -0.943233 0.000000 -0.532326 0.000000 0.000000
    29 -0.827563 -2.508973 -0.277656 -0.942486 0.000000 0.000000
    30 0.000001 -1.292971 0.000000 -0.287992 0.000000 0.000000
    31 0.000000 -0.752466 0.000000 -0.445059 0.000000 0.000000
    32 0.444212 -2.561960 -0.277655 -1.081578 -0.046226 -0.024599
    33 0.021022 -1.208186 0.000000 -0.427606 0.000000 0.000000
    34 0.010597 -0.741867 0.000000 -0.453786 0.000000 0.000000
    35 1.047444 -2.222821 -0.277655 -1.019692 -0.066950 -0.041090
    36 0.000000 -0.996223 -0.000001 -0.584716 0.000000 0.000000
    37 -0.000002 -0.614690 0.000000 -0.523599 0.000000 0.000000
    38 -0.308254 -0.007814 0.307166 -0.318048 -0.539821 -2.424630
    39 1.978378 0.019543 0.000000 -0.000002 -0.000010 0.549775
    40 0.982427 0.003186 0.000000 0.000000 0.000000 0.593399
  time 14
    0 6.606519 1.493730 -7.291689 -0.921442 -1.193757 0.743462
    1 0.000000 -8.563284 0.000000 0.370533 -0.034341 0.110304
    2 0.022535 -3.459973 0.747359 -1.452340 1.442002 -1.446094
    3 -0.000001 2.373979 0.699475 0.000000 0.000000 0.000000
    4 -0.000001 -0.931791 1.710478 0.000000 0.000000 0.000000
    5 0.000000 -1.759287 0.975027 0.000000 0.000000 0.000000
    6 -0.000966 -2.992972 0.968136 0.131076 -0.001806 -0.009717
    7 -0.003480 -0.404829 0.000000 0.000000 0.000000 0.000000
    8 -0.519308 -2.501155 -0.278957 -1.003564 0.000000 -0.122173
    9 -0.010598 -1.208184 0.000001 -1.090831 0.000000 0.000000
    10 0.000000 -0.763066 0.000000 -1.343903 0.000000 0.000000
    11 0.105982 -2.607134 -0.278957 -0.890118 0.000000 -0.148353
    12 0.000000 -1.250580 0.000000 -1.213004 0.000000 0.000000
    13 0.000000 -0.932634 0.000001 -1.483530 0.000000 0.000000
    14 0.763064 -2.490556 -0.278957 -0.349065 0.000000 0.130900
    15 -0.012321 -1.280916 0.000000 -0.717209 0.000000 0.000000
    16 -0.001697 -0.749371 0.000001 -1.100380 0.000000 0.000000
    17 0.354567 0.016268 0.318133 0.342077 -0.443527 -1.083976
    18 1.887166 0.012877 0.000000 -0.305433 0.000000 -0.401426
    19 1.001874 -0.000270 0.000000 0.000000 0.000000 -0.488692
    20 -1.123358 -2.195092 -0.278957 -0.933751 0.000000 -0.087266
    21 0.010773 -0.963791 0.000000 -0.610865 0.000000 0.000000
    22 -0.010412 -0.631916 0.000000 -1.213004 0.000000 0.000000
    23 -0.479996 -2.220532 -9.580664 -0.391949 0.111692 0.575447
    24 0.089929 -8.543163 -0.000001 0.136385 -0.123973 0.494384
    25 0.000000 -0.359713 0.000000 0.000000 0.000000 0.000000
    26 -0.170480 -2.636147 -0.277655 -0.820345 0.000000 0.000000
    27 0.010599 -1.261177 0.000000 -0.584683 0.000000 0.000000
    28 -0.000001 -0.943233 0.000000 -0.532326 0.000000 0.000000
    29 -0.827563 -2.508973 -0.277656 -0.942486 0.000000 0.000000
    30 0.000001 -1.292971 0.000000 -0.287992 0.000000 0.000000
    31 0.000000 -0.752466 0.000000 -0.445059 0.000000 0.000000
    32 0.444212 -2.561960 -0.277655 -1.081578 -0.046226 -0.024599
    33 0.021022 -1.208186 0.000000 -0.427606 0.000000 0.000000
    34 0.010597 -0.741867 0.000000 -0.453786 0.000000 0.000000
    35 1.047444 -2.222821 -0.277655 -1.019692 -0.066950 -0.041090
    36 0.000000 -0.996223 -0.000001 -0.584716 0.000000 0.000000
    37 -0.000002 -0.614690 0.000000 -0.523599 0.000000 0.000000
    38 -0.308254 -0.007814 0.307166 -0.318048 -0.539821 -2.424630
    39 1.978378 0.019543 0.000000 -0.000002 -0.000010 0.549775
    40 0.982427 0.003186 0.000000 0.000000 0.000000 0.593399
  time 15
    0 6.606519 1.427322 -7.252625 -0.935528 -1.228697 0.754241
    1 0.000000 -8.563284 0.000000 0.367537 -0.040789 0.097872
    2 0.022535 -3.459973 0.747359 -1.452340 1.442002 -1.446094
    3 -0.000001 2.373979 0.699475 0.000000 0.000000 0.000000
    4 -0.000001 -0.931791 1.710478 0.000000 0.000000 0.000000
    5 0.000000 -1.759287 0.975027 0.000000 0.000000 0.000000
    6 -0.000966 -2.992972 0.968136 0.131076 -0.001806 -0.009717
    7 -0.003480 -0.404829 0.000000 0.000000 0.000000 0.000000
    8 -0.519308 -2.501155 -0.278957 -1.003564 0.000000 -0.122173
    9 -0.010598 -1.208184 0.000001 -1.090831 0.000000 0.000000
    10 0.000000 -0.763066 0.000000 -1.343903 0.000000 0.000000
    11 0.105982 -2.607134 -0.278957 -0.890118 0.000000 -0.148353
    12 0.000000 -1.250580 0.000000 -1.213004 0.000000 0.000000
    13 0.000000 -0.932634 0.000001 -1.483530 0.000000 0.000000
    14 0.763064 -2.490556 -0.278957 -0.349065 0.000000 0.130900
    15 -0.012321 -1.280916 0.000000 -0.697972 0.000000 0.000000
    16 -0.001697 -0.749371 0.000001 -1.075664 0.000000 0.000000
    17 0.354567 0.016268 0.318133 0.342077 -0.443527 -1.083976
    18 1.887166 0.012877 0.000000 -0.305433 0.000000 -0.401426
    19 1.001874 -0.000270 0.000000 0.000000 0.000000 -0.488692
    20 -1.123358 -2.195092 -0.278957 -0.933751 0.000000 -0.087266
    21 0.010773 -0.963791 0.000000 -0.610865 0.000000 0.000000
    22 -0.010412 -0.631916 0.000000 -1.213004 0.000000 0.000000
    23 -0.601093 -2.243971 -9.744731 -0.391219 0.107196 0.576628
    24 0.089929 -8.543163 -0.000001 0.162426 -0.171248 0.485032
    25 0.000000 -0.359713 0.000000 0.000000 0.000000 0.000000
    26 -0.170480 -2.636147 -0.277655 -0.820345 0.000000 0.000000
    27 0.010599 -1.261177 0.000000 -0.584683 0.000000 0.000000
    28 -0.000001 -0.943233 0.000000 -0.532326 0.000000 0.000000
    29 -0.827563 -2.508973 -0.277656 -0.942486 0.000000 0.000000
    30 0.000001 -1.292971 0.000000 -0.287992 0.000000 0.000000
    31 0.000000 -0.752466 0.000000 -0.445059 0.000000 0.000000
    32 0.444212 -2.561960 -0.277655 -1.081578 -0.046226 -0.024599
    33 0.021022 -1.208186 0.000000 -0.427606 0.000000 0.000000
    34 0.010597 -0.741867 0.000000 -0.453786 0.000000 0.000000
    35 1.047444 -2.222821 -0.277655 -1.019692 -0.066950 -0.041090
    36 0.000000 -0.996223 -0.000001 -0.584716 0.000000 0.000000
    37 -0.000002 -0.614690 0.000000 -0.523599 0.000000 0.000000
    38 -0.308254 -0.007814 0.307166 -0.318048 -0.539821 -2.424630
    39 1.978378 0.019543 0.000000 -0.000002 -0.000010 0.549775
    40 0.982427 0.003186 0.000000 0.000000 0.000000 0.593399
  time 16
    0 6.606519 1.333569 -7.197936 -0.953204 -1.268887 0.767909
    1 0.000000 -8.563284 0.000000 0.362710 -0.050005 0.071570
    2 0.022535 -3.459973 0.747359 -1.452340 1.442002 -1.446094
    3 -0.000001 2.373979 0.699475 0.000000 0.000000 0.000000
    4 -0.000001 -0.931791 1.710478 0.000000 0.000000 0.000000
    5 0.000000 -1.759287 0.975027 0.000000 0.000000 0.000000
    6 -0.000966 -2.992972 0.968136 0.131076 -0.001806 -0.009717
    7 -0.003480 -0.404829 0.000000 0.000000 0.000000 0.000000
    8 -0.519308 -2.501155 -0.278957 -1.003564 0.000000 -0.122173
    9 -0.010598 -1.208184 0.000001 -1.090831 0.000000 0.000000
    10 0.000000 -0.763066 0.000000 -1.343903 0.000000 0.000000
    11 0.105982 -2.607134 -0.278957 -0.890118 0.000000 -0.148353
    12 0.000000 -1.250580 0.000000 -1.213004 0.000000 0.000000
    13 0.000000 -0.932634 0.000001 -1.483530 0.000000 0.000000
    14 0.763064 -2.490556 -0.278957 -0.349065 0.000000 0.130900
    15 -0.012321 -1.280916 0.000000 -0.677253 0.000000 0.000000
    16 -0.001697 -0.749371 0.000001 -1.049044 0.000000 0.000000
    17 0.354567 0.016268 0.318133 0.342077 -0.443527 -1.083976
    18 1.887166 0.012877 0.000000 -0.305433 0.000000 -0.401426
    19 1.001874 -0.000270 0.000000 0.000000 0.000000 -0.488692
    20 -1.123358 -2.195092 -0.278957 -0.933751 0.000000 -0.087266
    21 0.010773 -0.963791 0.000000 -0.610865 0.000000 0.000000
    22 -0.010412 -0.631916 0.000000 -1.213004 0.000000 0.000000
    23 -0.702659 -2.247877 -9.975207 -0.390352 0.101934 0.577878
    24 0.089929 -8.543163 -0.000001 0.190798 -0.220529 0.473712
    25 0.000000 -0.359713 0.000000 0.000000 0.000000 0.000000
    26 -0.170480 -2.636147 -0.277655 -0.820345 0.000000 0.000000
    27 0.010599 -1.261177 0.000000 -0.584683 0.000000 0.000000
    28 -0.000001 -0.943233 0.000000 -0.532326 0.000000 0.000000
    29 -0.827563 -2.508973 -0.277656 -0.942486 0.000000 0.000000
    30 0.000001 -1.292971 0.000000 -0.287992 0.000000 0.000000
    31 0.000000 -0.752466 0.000000 -0.445059 0.000000 0.000000
    32 0.444212 -2.561960 -0.277655 -1.081578 -0.046226 -0.024599
    33 0.021022 -1.208186 0.000000 -0.427606 0.000000 0.000000
    34 0.010597 -0.741867 0.000000 -0.453786 0.000000 0.000000
    35 1.047444 -2.222821 -0.277655 -1.019692 -0.066950 -0.041090
    36 0.000000 -0.996223 -0.000001 -0.584716 0.000000 0.000000
    37 -0.000002 -0.614690 0.000000 -0.523599 0.000000 0.000000
    38 -0.308254 -0.007814 0.307166 -0.318048 -0.539821 -2.424630
    39 1.978378 0.019543 0.000000 -0.000002 -0.000010 0.549775
    40 0.982427 0.003186 0.000000 0.000000 0.000000 0.593399
  time 17
    0 6.606519 1.224190 -7.135434 -0.975244 -1.311793 0.785560
    1 0.000000 -8.563284 0.000000 0.357703 -0.058826 0.037926
    2 0.022535 -3.459973 0.747359 -1.452340 1.442002 -1.446094
    3 -0.000001 2.373979 0.699475 0.000000 0.000000 0.000000
    4 -0.000001 -0.931791 1.710478 0.000000 0.000000 0.000000
    5 0.000000 -1.759287 0.975027 0.000000 0.000000 0.000000
    6 -0.000966 -2.992972 0.968136 0.131076 -0.001806 -0.009717
    7 -0.003480 -0.404829 0.000000 0.000000 0.000000 0.000000
    8 -0.519308 -2.501155 -0.278957 -1.003564 0.000000 -0.122173
    9 -0.010598 -1.208184 0.000001 -1.090831 0.000000 0.000000
    10 0.000000 -0.763066 0.000000 -1.343903 0.000000 0.000000
    11 0.105982 -2.607134 -0.278957 -0.890118 0.000000 -0.148353
    12 0.000000 -1.250580 0.000000 -1.213004 0.000000 0.000000
    13 0.000000 -0.932634 0.000001 -1.483530 0.000000 0.000000
    14 0.763064 -2.490556 -0.278957 -0.349065 0.000000 0.130900
    15 -0.012321 -1.280916 0.000000 -0.655205 0.000000 0.000000
    16 -0.001697 -0.749371 0.000001 -1.020678 0.000000 0.000000
    17 0.354567 0.016268 0.318133 0.342077 -0.443527 -1.083976
    18 1.887166 0.012877 0.000000 -0.305433 0.000000 -0.401426
    19 1.001874 -0.000270 0.000000 0.000000 0.000000 -0.488692
    20 -1.123358 -2.195092 -0.278957 -0.933751 0.000000 -0.087266
    21 0.010773 -0.963791 0.000000 -0.610865 0.000000 0.000000
    22 -0.010412 -0.631916 0.000000 -1.213004 0.000000 0.000000
    23 -0.812037 -2.240064 -10.291623 -0.389393 0.096004 0.579337
    24 0.089929 -8.543163 -0.000001 0.220055 -0.269634 0.460727
    25 0.000000 -0.359713 0.000000 0.000000 0.000000 0.000000
    26 -0.170480 -2.636147 -0.277655 -0.820345 0.000000 0.000000
    27 0.010599 -1.261177 0.000000 -0.584683 0.000000 0.000000
    28 -0.000001 -0.943233 0.000000 -0.532326 0.000000 0.000000
    29 -0.827563 -2.508973 -0.277656 -0.942486 0.000000 0.000000
    30 0.000001 -1.292971 0.000000 -0.287992 0.000000 0.000000
    31 0.000000 -0.752466 0.000000 -0.445059 0.000000 0.000000
    32 0.444212 -2.561960 -0.277655 -1.081578 -0.046226 -0.024599
    33 0.021022 -1.208186 0.000000 -0.427606 0.000000 0.000000
    34 0.010597 -0.741867 0.000000 -0.453786 0.000000 0.000000
    35 1.047444 -2.222821 -0.277655 -1.019692 -0.066950 -0.041090
    36 0.000000 -0.996223 -0.000001 -0.584716 0.000000 0.000000
    37 -0.000002 -0.614690 0.000000 -0.523599 0.000000 0.000000
    38 -0.308254 -0.007814 0.307166 -0.318048 -0.539821 -2.424630
    39 1.978378 0.019543 0.000000 -0.000002 -0.000010 0.549775
    40 0.982427 0.003186 0.000000 0.000000 0.000000 0.593399
  time 18
    0 6.606519 1.106999 -7.069026 -1.002808 -1.354554 0.808366
    1 0.000000 -8.563284 0.000000 0.352793 -0.067311 -0.000894
    2 0.022535 -3.459973 0.747359 -1.452340 1.442002 -1.446094
    3 -0.000001 2.373979 0.699475 0.000000 0.000000 0.000000
    4 -0.000001 -0.931791 1.710478 0.000000 0.000000 0.000000
    5 0.000000 -1.759287 0.975027 0.000000 0.000000 0.000000
    6 -0.000966 -2.992972 0.968136 0.131076 -0.001806 -0.009717
    7 -0.003480 -0.404829 0.000000 0.000000 0.000000 0.000000
    8 -0.519308 -2.501155 -0.278957 -1.003564 0.000000 -0.122173
    9 -0.010598 -1.208184 0.000001 -1.090831 0.000000 0.000000
    10 0.000000 -0.763066 0.000000 -1.343903 0.000000 0.000000
    11 0.105982 -2.607134 -0.278957 -0.890118 0.000000 -0.148353
    12 0.000000 -1.250580 0.000000 -1.213004 0.000000 0.000000
    13 0.000000 -0.932634 0.000001 -1.483530 0.000000 0.000000
    14 0.763064 -2.490556 -0.278957 -0.349065 0.000000 0.130900
    15 -0.012321 -1.280916 0.000000 -0.631965 0.000000 0.000000
    16 -0.001697 -0.749371 0.000001 -0.990799 0.000000 0.000000
    17 0.354567 0.016268 0.318133 0.342077 -0.443527 -1.083976
    18 1.887166 0.012877 0.000000 -0.305433 0.000000 -0.401426
    19 1.001874 -0.000270 0.000000 0.000000 0.000000 -0.488692
    20 -1.123358 -2.195092 -0.278957 -0.933751 0.000000 -0.087266
    21 0.010773 -0.963791 0.000000 -0.610865 0.000000 0.000000
    22 -0.010412 -0.631916 0.000000 -1.213004 0.000000 0.000000
    23 -0.917509 -2.232251 -10.658822 -0.388344 0.089499 0.580865
    24 0.089929 -8.543163 -0.000001 0.248638 -0.316476 0.446618
    25 0.000000 -0.359713 0.000000 0.000000 0.000000 0.000000
    26 -0.170480 -2.636147 -0.277655 -0.820345 0.000000 0.000000
    27 0.010599 -1.261177 0.000000 -0.584683 0.000000 0.000000
    28 -0.000001 -0.943233 0.000000 -0.532326 0.000000 0.000000
    29 -0.827563 -2.508973 -0.277656 -0.942486 0.000000 0.000000
    30 0.000001 -1.292971 0.000000 -0.287992 0.000000 0.000000
    31 0.000000 -0.752466 0.000000 -0.445059 0.000000 0.000000
    32 0.444212 -2.561960 -0.277655 -1.081578 -0.046226 -0.024599
    33 0.021022 -1.208186 0.000000 -0.427606 0.000000 0.000000
    34 0.010597 -0.741867 0.000000 -0.453786 0.000000 0.000000
    35 1.047444 -2.222821 -0.277655 -1.019692 -0.066950 -0.041090
    36 0.000000 -0.996223 -0.000001 -0.584716 0.000000 0.000000
    37 -0.000002 -0.614690 0.000000 -0.523599 0.000000 0.000000
    38 -0.308254 -0.007814 0.307166 -0.318048 -0.539821 -2.424630
    39 1.978378 0.019543 0.000000 -0.000002 -0.000010 0.549775
    40 0.982427 0.003186 0.000000 0.000000 0.000000 0.593399
  time 19
    0 6.606519 0.993715 -7.010430 -1.036393 -1.394599 0.837343
    1 0.000000 -8.563284 0.000000 0.348183 -0.075508 -0.042798
    2 0.022535 -3.459973 0.747359 -1.452340 1.442002 -1.446094
    3 -0.000001 2.373979 0.699475 0.000000 0.000000 0.000000
    4 -0.000001 -0.931791 1.710478 0.000000 0.000000 0.000000
    5 0.000000 -1.759287 0.975027 0.000000 0.000000 0.000000
    6 -0.000966 -2.992972 0.968136 0.131076 -0.001806 -0.009717
    7 -0.003480 -0.404829 0.000000 0.000000 0.000000 0.000000
    8 -0.519308 -2.501155 -0.278957 -1.003564 0.000000 -0.122173
    9 -0.010598 -1.208184 0.000001 -1.090831 0.000000 0.000000
    10 0.000000 -0.763066 0.000000 -1.343903 0.000000 0.000000
    11 0.105982 -2.607134 -0.278957 -0.890118 0.000000 -0.148353
    12 0.000000 -1.250580 0.000000 -1.213004 0.000000 0.000000
    13 0.000000 -0.932634 0.000001 -1.483530 0.000000 0.000000
    14 0.763064 -2.490556 -0.278957 -0.349065 0.000000 0.130900
    15 -0.012321 -1.280916 0.000000 -0.607743 0.000000 0.000000
    16 -0.001697 -0.749371 0.000001 -0.959673 0.000000 0.000000
    17 0.354567 0.016268 0.318133 0.342077 -0.443527 -1.083976
    18 1.887166 0.012877 0.000000 -0.305433 0.000000 -0.401426
    19 1.001874 -0.000270 0.000000 0.000000 0.000000 -0.488692
    20 -1.123358 -2.195092 -0.278957 -0.933751 0.000000 -0.087266
    21 0.010773 -0.963791 0.000000 -0.610865 0.000000 0.000000
    22 -0.010412 -0.631916 0.000000 -1.213004 0.000000 0.000000
    23 -1.022981 -2.220532 -11.029927 -0.387294 0.082611 0.582602
    24 0.089929 -8.543163 -0.000001 0.274776 -0.359081 0.432204
    25 0.000000 -0.359713 0.000000 0.000000 0.000000 0.000000
    26 -0.170480 -2.636147 -0.277655 -0.820345 0.000000 0.000000
    27 0.010599 -1.261177 0.000000 -0.584683 0.000000 0.000000
    28 -0.000001 -0.943233 0.000000 -0.532326 0.000000 0.000000
    29 -0.827563 -2.508973 -0.277656 -0.942486 0.000000 0.000000
    30 0.000001 -1.292971 0.000000 -0.287992 0.000000 0.000000
    31 0.000000 -0.752466 0.000000 -0.445059 0.000000 0.000000
    32 0.444212 -2.561960 -0.277655 -1.081578 -0.046226 -0.024599
    33 0.021022 -1.208186 0.000000 -0.427606 0.000000 0.000000
    34 0.010597 -0.741867 0.000000 -0.453786 0.000000 0.000000
    35 1.047444 -2.222821 -0.277655 -1.019692 -0.066950 -0.041090
    36 0.000000 -0.996223 -0.000001 -0.584716 0.000000 0.000000
    37 -0.000002 -0.614690 0.000000 -0.523599 0.000000 0.000000
    38 -0.308254 -0.007814 0.307166 -0.318048 -0.539821 -2.424630
    39 1.978378 0.019543 0.000000 -0.000002 -0.000010 0.549775
    40 0.982427 0.003186 0.000000 0.000000 0.000000 0.593399
  time 20
    0 6.606519 0.899962 -6.959647 -1.074673 -1.429322 0.871396
    1 0.000000 -8.563284 0.000000 0.344091 -0.083394 -0.085618
    2 0.022535 -3.459973 0.747359 -1.452340 1.442002 -1.446094
    3 -0.000001 2.373979 0.699475 0.000000 0.000000 0.000000
    4 -0.000001 -0.931791 1.710478 0.000000 0.000000 0.000000
    5 0.000000 -1.759287 0.975027 0.000000 0.000000 0.000000
    6 -0.000966 -2.992972 0.968136 0.131076 -0.001806 -0.009717
    7 -0.003480 -0.404829 0.000000 0.000000 0.000000 0.000000
    8 -0.519308 -2.501155 -0.278957 -1.003564 0.000000 -0.122173
    9 -0.010598 -1.208184 0.000001 -1.090831 0.000000 0.000000
    10 0.000000 -0.763066 0.000000 -1.343903 0.000000 0.000000
    11 0.105982 -2.607134 -0.278957 -0.890118 0.000000 -0.148353
    12 0.000000 -1.250580 0.000000 -1.213004 0.000000 0.000000
    13 0.000000 -0.932634 0.000001 -1.483530 0.000000 0.000000
    14 0.763064 -2.490556 -0.278957 -0.349065 0.000000 0.130900
    15 -0.012321 -1.280916 0.000000 -0.582675 0.000000 0.000000
    16 -0.001697 -0.749371 0.000001 -0.927425 0.000000 0.000000
    17 0.354567 0.016268 0.318133 0.342077 -0.443527 -1.083976
    18 1.887166 0.012877 0.000000 -0.305433 0.000000 -0.401426
    19 1.001874 -0.000270 0.000000 0.000000 0.000000 -0.488692
    20 -1.123358 -2.195092 -0.278957 -0.933751 0.000000 -0.087266
    21 0.010773 -0.963791 0.000000 -0.610865 0.000000 0.000000
    22 -0.010412 -0.631916 0.000000 -1.213004 0.000000 0.000000
    23 -1.112828 -2.216626 -11.369781 -0.386153 0.075245 0.584339
    24 0.089929 -8.543163 -0.000001 0.296483 -0.395492 0.418751
    25 0.000000 -0.359713 0.000000 0.000000 0.000000 0.000000
    26 -0.170480 -2.636147 -0.277655 -0.820345 0.000000 0.000000
    27 0.010599 -1.261177 0.000000 -0.584683 0.000000 0.000000
    28 -0.000001 -0.943233 0.000000 -0.532326 0.000000 0.000000
    29 -0.827563 -2.508973 -0.277656 -0.942486 0.000000 0.000000
    30 0.000001 -1.292971 0.000000 -0.287992 0.000000 0.000000
    31 0.000000 -0.752466 0.000000 -0.445059 0.000000 0.000000
    32 0.444212 -2.561960 -0.277655 -1.081578 -0.046226 -0.024599
    33 0.021022 -1.208186 0.000000 -0.427606 0.000000 0.000000
    34 0.010597 -0.741867 0.000000 -0.453786 0.000000 0.000000
    35 1.047444 -2.222821 -0.277655 -1.019692 -0.066950 -0.041090
    36 0.000000 -0.996223 -0.000001 -0.584716 0.000000 0.000000
    37 -0.000002 -0.614690 0.000000 -0.523599 0.000000 0.000000
    38 -0.308254 -0.007814 0.307166 -0.318048 -0.539821 -2.424630
    39 1.978378 0.019543 0.000000 -0.000002 -0.000010 0.549775
    40 0.982427 0.003186 0.000000 0.000000 0.000000 0.593399
  time 21
    0 6.606519 0.814022 -6.920583 -1.110688 -1.456224 0.903809
    1 0.000000 -8.563284 0.000000 0.340601 -0.090945 -0.127199
    2 0.022535 -3.459973 0.747359 -1.452340 1.442002 -1.446094
    3 -0.000001 2.373979 0.699475 0.000000 0.000000 0.000000
    4 -0.000001 -0.931791 1.710478 0.000000 0.000000 0.000000
    5 0.000000 -1.759287 0.975027 0.000000 0.000000 0.000000
    6 -0.000966 -2.992972 0.968136 0.131076 -0.001806 -0.009717
    7 -0.003480 -0.404829 0.000000 0.000000 0.000000 0.000000
    8 -0.519308 -2.501155 -0.278957 -1.003564 0.000000 -0.122173
    9 -0.010598 -1.208184 0.000001 -1.090831 0.000000 0.000000
    10 0.000000 -0.763066 0.000000 -1.343903 0.000000 0.000000
    11 0.105982 -2.607134 -0.278957 -0.890118 0.000000 -0.148353
    12 0.000000 -1.250580 0.000000 -1.213004 0.000000 0.000000
    13 0.000000 -0.932634 0.000001 -1.483530 0.000000 0.000000
    14 0.763064 -2.490556 -0.278957 -0.349065 0.000000 0.130900
    15 -0.012321 -1.280916 0.000000 -0.556957 0.000000 0.000000
    16 -0.001697 -0.749371 0.000001 -0.894359 0.000000 0.000000
    17 0.354567 0.016268 0.318133 0.342077 -0.443527 -1.083976
    18 1.887166 0.012877 0.000000 -0.305433 0.000000 -0.401426
    19 1.001874 -0.000270 0.000000 0.000000 0.000000 -0.488692
    20 -1.123358 -2.195092 -0.278957 -0.933751 0.000000 -0.087266
    21 0.010773 -0.963791 0.000000 -0.610865 0.000000 0.000000
    22 -0.010412 -0.631916 0.000000 -1.213004 0.000000 0.000000
    23 -1.187049 -2.224439 -11.643227 -0.384967 0.067593 0.586214
    24 0.089929 -8.543163 -0.000001 0.311449 -0.423863 0.407618
    25 0.000000 -0.359713 0.000000 0.000000 0.000000 0.000000
    26 -0.170480 -2.636147 -0.277655 -0.820345 0.000000 0.000000
    27 0.010599 -1.261177 0.000000 -0.584683 0.000000 0.000000
    28 -0.000001 -0.943233 0.000000 -0.532326 0.000000 0.000000
    29 -0.827563 -2.508973 -0.277656 -0.942486 0.000000 0.000000
    30 0.000001 -1.292971 0.000000 -0.287992 0.000000 0.000000
    31 0.000000 -0.752466 0.000000 -0.445059 0.000000 0.000000
    32 0.444212 -2.561960 -0.277655 -1.081578 -0.046226 -0.024599
    33 0.021022 -1.208186 0.000000 -0.427606 0.000000 0.000000
    34 0.010597 -0.741867 0.000000 -0.453786 0.000000 0.000000
    35 1.047444 -2.222821 -0.277655 -1.019692 -0.066950 -0.041090
    36 0.000000 -0.996223 -0.000001 -0.584716 0.000000 0.000000
    37 -0.000002 -0.614690 0.000000 -0.523599 0.000000 0.000000
    38 -0.308254 -0.007814 0.307166 -0.318048 -0.539821 -2.424630
    39 1.978378 0.019543 0.000000 -0.000002 -0.000010 0.549775
    40 0.982427 0.003186 0.000000 0.000000 0.000000 0.593399
  time 22
    0 6.606519 0.720269 -6.881520 -1.126376 -1.472843 0.916696
    1 0.000000 -8.563284 0.000000 0.337856 -0.098111 -0.165425
    2 0.022535 -3.459973 0.747359 -1.452340 1.442002 -1.446094
    3 -0.000001 2.373979 0.699475 0.000000 0.000000 0.000000
    4 -0.000001 -0.931791 1.710478 0.000000 0.000000 0.000000
    5 0.000000 -1.759287 0.975027 0.000000 0.000000 0.000000
    6 -0.000966 -2.992972 0.968136 0.131076 -0.001806 -0.009717
    7 -0.003480 -0.404829 0.000000 0.000000 0.000000 0.000000
    8 -0.519308 -2.501155 -0.278957 -1.003564 0.000000 -0.122173
    9 -0.010598 -1.208184 0.000001 -1.090831 0.000000 0.000000
    10 0.000000 -0.763066 0.000000 -1.343903 0.000000 0.000000
    11 0.105982 -2.607134 -0.278957 -0.890118 0.000000 -0.148353
    12 0.000000 -1.250580 0.000000 -1.213004 0.000000 0.000000
    13 0.000000 -0.932634 0.000001 -1.483530 0.000000 0.000000
    14 0.763064 -2.490556 -0.278957 -0.349065 0.000000 0.130900
    15 -0.012321 -1.280916 0.000000 -0.530726 0.000000 0.000000
    16 -0.001697 -0.749371 0.000001 -0.860616 0.000000 0.000000
    17 0.354567 0.016268 0.318133 0.342077 -0.443527 -1.083976
    18 1.887166 0.012877 0.000000 -0.305433 0.000000 -0.401426
    19 1.001874 -0.000270 0.000000 0.000000 0.000000 -0.488692
    20 -1.123358 -2.195092 -0.278957 -0.933751 0.000000 -0.087266
    21 0.010773 -0.963791 0.000000 -0.610865 0.000000 0.000000
    22 -0.010412 -0.631916 0.000000 -1.213004 0.000000 0.000000
    23 -1.230019 -2.251783 -11.799482 -0.383780 0.059749 0.588090
    24 0.089929 -8.543163 -0.000001 0.317400 -0.442382 0.400375
    25 0.000000 -0.359713 0.000000 0.000000 0.000000 0.000000
    26 -0.170480 -2.636147 -0.277655 -0.820345 0.000000 0.000000
    27 0.010599 -1.261177 0.000000 -0.584683 0.000000 0.000000
    28 -0.000001 -0.943233 0.000000 -0.532326 0.000000 0.000000
    29 -0.827563 -2.508973 -0.277656 -0.942486 0.000000 0.000000
    30 0.000001 -1.292971 0.000000 -0.287992 0.000000 0.000000
    31 0.000000 -0.752466 0.000000 -0.445059 0.000000 0.000000
    32 0.444212 -2.561960 -0.277655 -1.081578 -0.046226 -0.024599
    33 0.021022 -1.208186 0.000000 -0.427606 0.000000 0.000000
    34 0.010597 -0.741867 0.000000 -0.453786 0.000000 0.000000
    35 1.047444 -2.222821 -0.277655 -1.019692 -0.066950 -0.041090
    36 0.000000 -0.996223 -0.000001 -0.584716 0.000000 0.000000
    37 -0.000002 -0.614690 0.000000 -0.523599 0.000000 0.000000
    38 -0.308254 -0.007814 0.307166 -0.318048 -0.539821 -2.424630
    39 1.978378 0.019543 0.000000 -0.000002 -0.000010 0.549775
    40 0.982427 0.003186 0.000000 0.000000 0.000000 0.593399
  time 23
    0 6.606519 0.622609 -6.842456 -1.122951 -1.475088 0.912713
    1 0.000000 -8.563284 0.000000 0.335919 -0.104811 -0.198091
    2 0.022535 -3.459973 0.747359 -1.452340 1.442002 -1.446094
    3 -0.000001 2.373979 0.699475 0.000000 0.000000 0.000000
    4 -0.000001 -0.931791 1.710478 0.000000 0.000000 0.000000
    5 0.000000 -1.759287 0.975027 0.000000 0.000000 0.000000
    6 -0.000966 -2.992972 0.968136 0.131076 -0.001806 -0.009717
    7 -0.003480 -0.404829 0.000000 0.000000 0.000000 0.000000
    8 -0.519308 -2.501155 -0.278957 -1.003564 0.000000 -0.122173
    9 -0.010598 -1.208184 0.000001 -1.090831 0.000000 0.000000
    10 0.000000 -0.763066 0.000000 -1.343903 0.000000 0.000000
    11 0.105982 -2.607134 -0.278957 -0.890118 0.000000 -0.148353
    12 0.000000 -1.250580 0.000000 -1.213004 0.000000 0.000000
    13 0.000000 -0.932634 0.000001 -1.483530 0.000000 0.000000
    14 0.763064 -2.490556 -0.278957 -0.349065 0.000000 0.130900
    15 -0.012321 -1.280916 0.000000 -0.504149 0.000000 0.000000
    16 -0.001697 -0.749371 0.000001 -0.826481 0.000000 0.000000
    17 0.354567 0.016268 0.318133 0.342077 -0.443527 -1.083976
    18 1.887166 0.012877 0.000000 -0.305433 0.000000 -0.401426
    19 1.001874 -0.000270 0.000000 0.000000 0.000000 -0.488692
    20 -1.123358 -2.195092 -0.278957 -0.933751 0.000000 -0.087266
    21 0.010773 -0.963791 0.000000 -0.610865 0.000000 0.000000
    22 -0.010412 -0.631916 0.000000 -1.213004 0.000000 0.000000
    23 -1.249550 -2.294753 -11.858077 -0.382594 0.051809 0.590035
    24 0.089929 -8.543163 -0.000001 0.310543 -0.447918 0.398969
    25 0.000000 -0.359713 0.000000 0.000000 0.000000 0.000000
    26 -0.170480 -2.636147 -0.277655 -0.820345 0.000000 0.000000
    27 0.010599 -1.261177 0.000000 -0.584683 0.000000 0.000000
    28 -0.000001 -0.943233 0.000000 -0.532326 0.000000 0.000000
    29 -0.827563 -2.508973 -0.277656 -0.942486 0.000000 0.000000
    30 0.000001 -1.292971 0.000000 -0.287992 0.000000 0.000000
    31 0.000000 -0.752466 0.000000 -0.445059 0.000000 0.000000
    32 0.444212 -2.561960 -0.277655 -1.081578 -0.046226 -0.024599
    33 0.021022 -1.208186 0.000000 -0.427606 0.000000 0.000000
    34 0.010597 -0.741867 0.000000 -0.453786 0.000000 0.000000
    35 1.047444 -2.222821 -0.277655 -1.019692 -0.066950 -0.041090
    36 0.000000 -0.996223 -0.000001 -0.584716 0.000000 0.000000
    37 -0.000002 -0.614690 0.000000 -0.523599 0.000000 0.000000
    38 -0.308254 -0.007814 0.307166 -0.318048 -0.539821 -2.424630
    39 1.978378 0.019543 0.000000 -0.000002 -0.000010 0.549775
    40 0.982427 0.003186 0.000000 0.000000 0.000000 0.593399
  time 24
    0 6.606519 0.524950 -6.807299 -1.084671 -1.475740 0.873036
    1 0.000000 -8.563284 0.000000 0.334980 -0.109988 -0.219637
    2 0.022535 -3.459973 0.747359 -1.452340 1.442002 -1.446094
    3 -0.000001 2.373979 0.699475 0.000000 0.000000 0.000000
    4 -0.000001 -0.931791 1.710478 0.000000 0.000000 0.000000
    5 0.000000 -1.759287 0.975027 0.000000 0.000000 0.000000
    6 -0.000966 -2.992972 0.968136 0.131076 -0.001806 -0.009717
    7 -0.003480 -0.404829 0.000000 0.000000 0.000000 0.000000
    8 -0.519308 -2.501155 -0.278957 -1.003564 0.000000 -0.122173
    9 -0.010598 -1.208184 0.000001 -1.090831 0.000000 0.000000
    10 0.000000 -0.763066 0.000000 -1.343903 0.000000 0.000000
    11 0.105982 -2.607134 -0.278957 -0.890118 0.000000 -0.148353
    12 0.000000 -1.250580 0.000000 -1.213004 0.000000 0.000000
    13 0.000000 -0.932634 0.000001 -1.483530 0.000000 0.000000
    14 0.763064 -2.490556 -0.278957 -0.349065 0.000000 0.130900
    15 -0.012321 -1.280916 0.000000 -0.477419 0.000000 0.000000
    16 -0.001697 -0.749371 0.000001 -0.792096 0.000000 0.000000
    17 0.354567 0.016268 0.318133 0.342077 -0.443527 -1.083976
    18 1.887166 0.012877 0.000000 -0.305433 0.000000 -0.401426
    19 1.001874 -0.000270 0.000000 0.000000 0.000000 -0.488692
    20 -1.123358 -2.195092 -0.278957 -0.933751 0.000000 -0.087266
    21 0.010773 -0.963791 0.000000 -0.610865 0.000000 0.000000
    22 -0.010412 -0.631916 0.000000 -1.213004 0.000000 0.000000
    23 -1.253457 -2.349442 -11.854171 -0.381407 0.043773 0.591910
    24 0.089929 -8.543163 -0.000001 0.290704 -0.440488 0.403375
    25 0.000000 -0.359713 0.000000 0.000000 0.000000 0.000000
    26 -0.170480 -2.636147 -0.277655 -0.820345 0.000000 0.000000
    27 0.010599 -1.261177 0.000000 -0.584683 0.000000 0.000000
    28 -0.000001 -0.943233 0.000000 -0.532326 0.000000 0.000000
    29 -0.827563 -2.508973 -0.277656 -0.942486 0.000000 0.000000
    30 0.000001 -1.292971 0.000000 -0.287992 0.000000 0.000000
    31 0.000000 -0.752466 0.000000 -0.445059 0.000000 0.000000
    32 0.444212 -2.561960 -0.277655 -1.081578 -0.046226 -0.024599
    33 0.021022 -1.208186 0.000000 -0.427606 0.000000 0.000000
    34 0.010597 -0.741867 0.000000 -0.453786 0.000000 0.000000
    35 1.047444 -2.222821 -0.277655 -1.019692 -0.066950 -0.041090
    36 0.000000 -0.996223 -0.000001 -0.584716 0.000000 0.000000
    37 -0.000002 -0.614690 0.000000 -0.523599 0.000000 0.000000
    38 -0.308254 -0.007814 0.307166 -0.318048 -0.539821 -2.424630
    39 1.978378 0.019543 0.000000 -0.000002 -0.000010 0.549775
    40 0.982427 0.003186 0.000000 0.000000 0.000000 0.593399
  time 25
    0 6.606519 0.431197 -6.776048 -0.998444 -1.464479 0.785716
    1 0.000000 -8.563284 0.000000 0.334799 -0.111666 -0.225507
    2 0.022535 -3.459973 0.747359 -1.452340 1.442002 -1.446094
    3 -0.000001 2.373979 0.699475 0.000000 0.000000 0.000000
    4 -0.000001 -0.931791 1.710478 0.000000 0.000000 0.000000
    5 0.000000 -1.759287 0.975027 0.000000 0.000000 0.000000
    6 -0.000966 -2.992972 0.968136 0.131076 -0.001806 -0.009717
    7 -0.003480 -0.404829 0.000000 0.000000 0.000000 0.000000
    8 -0.519308 -2.501155 -0.278957 -1.003564 0.000000 -0.122173
    9 -0.010598 -1.208184 0.000001 -1.090831 0.000000 0.000000
    10 0.000000 -0.763066 0.000000 -1.343903 0.000000 0.000000
    11 0.105982 -2.607134 -0.278957 -0.890118 0.000000 -0.148353
    12 0.000000 -1.250580 0.000000 -1.213004 0.000000 0.000000
    13 0.000000 -0.932634 0.000001 -1.483530 0.000000 0.000000
    14 0.763064 -2.490556 -0.278957 -0.349065 0.000000 0.130900
    15 -0.012321 -1.280916 0.000000 -0.450704 0.000000 0.000000
    16 -0.001697 -0.749371 0.000001 -0.757748 0.000000 0.000000
    17 0.354567 0.016268 0.318133 0.342077 -0.443527 -1.083976
    18 1.887166 0.012877 0.000000 -0.305433 0.000000 -0.401426
    19 1.001874 -0.000270 0.000000 0.000000 0.000000 -0.488692
    20 -1.123358 -2.195092 -0.278957 -0.933751 0.000000 -0.087266
    21 0.010773 -0.963791 0.000000 -0.610865 0.000000 0.000000
    22 -0.010412 -0.631916 0.000000 -1.213004 0.000000 0.000000
    23 -1.249550 -2.411944 -11.807294 -0.380221 0.035738 0.593786
    24 0.089929 -8.543163 -0.000001 0.261216 -0.422885 0.411719
    25 0.000000 -0.359713 0.000000 0.000000 0.000000 0.000000
    26 -0.170480 -2.636147 -0.277655 -0.820345 0.000000 0.000000
    27 0.010599 -1.261177 0.000000 -0.584683 0.000000 0.000000
    28 -0.000001 -0.943233 0.000000 -0.532326 0.000000 0.000000
    29 -0.827563 -2.508973 -0.277656 -0.942486 0.000000 0.000000
    30 0.000001 -1.292971 0.000000 -0.287992 0.000000 0.000000
    31 0.000000 -0.752466 0.000000 -0.445059 0.000000 0.000000
    32 0.444212 -2.561960 -0.277655 -1.081578 -0.046226 -0.024599
    33 0.021022 -1.208186 0.000000 -0.427606 0.000000 0.000000
    34 0.010597 -0.741867 0.000000 -0.453786 0.000000 0.000000
    35 1.047444 -2.222821 -0.277655 -1.019692 -0.066950 -0.041090
    36 0.000000 -0.996223 -0.000001 -0.584716 0.000000 0.000000
    37 -0.000002 -0.614690 0.000000 -0.523599 0.000000 0.000000
    38 -0.308254 -0.007814 0.307166 -0.318048 -0.539821 -2.424630
    39 1.978378 0.019543 0.000000 -0.000002 -0.000010 0.549775
    40 0.982427 0.003186 0.000000 0.000000 0.000000 0.593399
  time 26
    0 6.606519 0.345257 -6.748703 -0.912217 -1.442537 0.698943
    1 0.000000 -8.563284 0.000000 0.335100 -0.114279 -0.232107
    2 0.022535 -3.459973 0.747359 -1.452340 1.442002 -1.446094
    3 -0.000001 2.373979 0.699475 0.000000 0.000000 0.000000
    4 -0.000001 -0.931791 1.710478 0.000000 0.000000 0.000000
    5 0.000000 -1.759287 0.975027 0.000000 0.000000 0.000000
    6 -0.000966 -2.992972 0.968136 0.131076 -0.001806 -0.009717
    7 -0.003480 -0.404829 0.000000 0.000000 0.000000 0.000000
    8 -0.519308 -2.501155 -0.278957 -1.003564 0.000000 -0.122173
    9 -0.010598 -1.208184 0.000001 -1.090831 0.000000 0.000000
    10 0.000000 -0.763066 0.000000 -1.343903 0.000000 0.000000
    11 0.105982 -2.607134 -0.278957 -0.890118 0.000000 -0.148353
    12 0.000000 -1.250580 0.000000 -1.213004 0.000000 0.000000
    13 0.000000 -0.932634 0.000001 -1.483530 0.000000 0.000000
    14 0.763064 -2.490556 -0.278957 -0.349065 0.000000 0.130900
    15 -0.012321 -1.280916 0.000000 -0.424127 0.000000 0.000000
    16 -0.001697 -0.749371 0.000001 -0.723595 0.000000 0.000000
    17 0.354567 0.016268 0.318133 0.342077 -0.443527 -1.083976
    18 1.887166 0.012877 0.000000 -0.305433 0.000000 -0.401426
    19 1.001874 -0.000270 0.000000 0.000000 0.000000 -0.488692
    20 -1.123358 -2.195092 -0.278957 -0.933751 0.000000 -0.087266
    21 0.010773 -0.963791 0.000000 -0.610865 0.000000 0.000000
    22 -0.010412 -0.631916 0.000000 -1.213004 0.000000 0.000000
    23 -1.241738 -2.486165 -11.713542 -0.379171 0.027990 0.595592
    24 0.089929 -8.543163 -0.000001 0.225487 -0.397915 0.422055
    25 0.000000 -0.359713 0.000000 0.000000 0.000000 0.000000
    26 -0.170480 -2.636147 -0.277655 -0.820345 0.000000 0.000000
    27 0.010599 -1.261177 0.000000 -0.584683 0.000000 0.000000
    28 -0.000001 -0.943233 0.000000 -0.532326 0.000000 0.000000
    29 -0.827563 -2.508973 -0.277656 -0.942486 0.000000 0.000000
    30 0.000001 -1.292971 0.000000 -0.287992 0.000000 0.000000
    31 0.000000 -0.752466 0.000000 -0.445059 0.000000 0.000000
    32 0.444212 -2.561960 -0.277655 -1.081578 -0.046226 -0.024599
    33 0.021022 -1.208186 0.000000 -0.427606 0.000000 0.000000
    34 0.010597 -0.741867 0.000000 -0.453786 0.000000 0.000000
    35 1.047444 -2.222821 -0.277655 -1.019692 -0.066950 -0.041090
    36 0.000000 -0.996223 -0.000001 -0.584716 0.000000 0.000000
    37 -0.000002 -0.614690 0.000000 -0.523599 0.000000 0.000000
    38 -0.308254 -0.007814 0.307166 -0.318048 -0.539821 -2.424630
    39 1.978378 0.019543 0.000000 -0.000002 -0.000010 0.549775
    40 0.982427 0.003186 0.000000 0.000000 0.000000 0.593399
  time 27
    0 6.606519 0.271036 -6.725265 -0.846152 -1.413572 0.632555
    1 0.000000 -8.563284 0.000000 0.337760 -0.115417 -0.224900
    2 0.022535 -3.459973 0.747359 -1.452340 1.442002 -1.446094
    3 -0.000001 2.373979 0.699475 0.000000 0.000000 0.000000
    4 -0.000001 -0.931791 1.710478 0.000000 0.000000 0.000000
    5 0.000000 -1.759287 0.975027 0.000000 0.000000 0.000000
    6 -0.000966 -2.992972 0.968136 0.131076 -0.001806 -0.009717
    7 -0.003480 -0.404829 0.000000 0.000000 0.000000 0.000000
    8 -0.519308 -2.501155 -0.278957 -1.003564 0.000000 -0.122173
    9 -0.010598 -1.208184 0.000001 -1.090831 0.000000 0.000000
    10 0.000000 -0.763066 0.000000 -1.343903 0.000000 0.000000
    11 0.105982 -2.607134 -0.278957 -0.890118 0.000000 -0.148353
    12 0.000000 -1.250580 0.000000 -1.213004 0.000000 0.000000
    13 0.000000 -0.932634 0.000001 -1.483530 0.000000 0.000000
    14 0.763064 -2.490556 -0.278957 -0.349065 0.000000 0.130900
    15 -0.012321 -1.280916 0.000000 -0.397896 0.000000 0.000000
    16 -0.001697 -0.749371 0.000001 -0.689852 0.000000 0.000000
    17 0.354567 0.016268 0.318133 0.342077 -0.443527 -1.083976
    18 1.887166 0.012877 0.000000 -0.305433 0.000000 -0.401426
    19 1.001874 -0.000270 0.000000 0.000000 0.000000 -0.488692
    20 -1.123358 -2.195092 -0.278957 -0.933751 0.000000 -0.087266
    21 0.010773 -0.963791 0.000000 -0.610865 0.000000 0.000000
    22 -0.010412 -0.631916 0.000000 -1.213004 0.000000 0.000000
    23 -1.226112 -2.564293 -11.569006 -0.378076 0.020432 0.597329
    24 0.089929 -8.543163 -0.000001 0.186695 -0.368517 0.432626
    25 0.000000 -0.359713 0.000000 0.000000 0.000000 0.000000
    26 -0.170480 -2.636147 -0.277655 -0.820345 0.000000 0.000000
    27 0.010599 -1.261177 0.000000 -0.584683 0.000000 0.000000
    28 -0.000001 -0.943233 0.000000 -0.532326 0.000000 0.000000
    29 -0.827563 -2.508973 -0.277656 -0.942486 0.000000 0.000000
    30 0.000001 -1.292971 0.000000 -0.287992 0.000000 0.000000
    31 0.000000 -0.752466 0.000000 -0.445059 0.000000 0.000000
    32 0.444212 -2.561960 -0.277655 -1.081578 -0.046226 -0.024599
    33 0.021022 -1.208186 0.000000 -0.427606 0.000000 0.000000
    34 0.010597 -0.741867 0.000000 -0.453786 0.000000 0.000000
    35 1.047444 -2.222821 -0.277655 -1.019692 -0.066950 -0.041090
    36 0.000000 -0.996223 -0.000001 -0.584716 0.000000 0.000000
    37 -0.000002 -0.614690 0.000000 -0.523599 0.000000 0.000000
    38 -0.308254 -0.007814 0.307166 -0.318048 -0.539821 -2.424630
    39 1.978378 0.019543 0.000000 -0.000002 -0.000010 0.549775
    40 0.982427 0.003186 0.000000 0.000000 0.000000 0.593399
  time 28
    0 6.606519 0.216347 -6.705733 -0.799531 -1.381564 0.585927
    1 0.000000 -8.563284 0.000000 0.342045 -0.114195 -0.203899
    2 0.022535 -3.459973 0.747359 -1.452340 1.442002 -1.446094
    3 -0.000001 2.373979 0.699475 0.000000 0.000000 0.000000
    4 -0.000001 -0.931791 1.710478 0.000000 0.000000 0.000000
    5 0.000000 -1.759287 0.975027 0.000000 0.000000 0.000000
    6 -0.000966 -2.992972 0.968136 0.131076 -0.001806 -0.009717
    7 -0.003480 -0.404829 0.000000 0.000000 0.000000 0.000000
    8 -0.519308 -2.501155 -0.278957 -1.003564 0.000000 -0.122173
    9 -0.010598 -1.208184 0.000001 -1.090831 0.000000 0.000000
    10 0.000000 -0.763066 0.000000 -1.343903 0.000000 0.000000
    11 0.105982 -2.607134 -0.278957 -0.890118 0.000000 -0.148353
    12 0.000000 -1.250580 0.000000 -1.213004 0.000000 0.000000
    13 0.000000 -0.932634 0.000001 -1.483530 0.000000 0.000000
    14 0.763064 -2.490556 -0.278957 -0.349065 0.000000 0.130900
    15 -0.012321 -1.280916 0.000000 -0.372163 0.000000 0.000000
    16 -0.001697 -0.749371 0.000001 -0.656767 0.000000 0.000000
    17 0.354567 0.016268 0.318133 0.342077 -0.443527 -1.083976
    18 1.887166 0.012877 0.000000 -0.305433 0.000000 -0.401426
    19 1.001874 -0.000270 0.000000 0.000000 0.000000 -0.488692
    20 -1.123358 -2.195092 -0.278957 -0.933751 0.000000 -0.087266
    21 0.010773 -0.963791 0.000000 -0.610865 0.000000 0.000000
    22 -0.010412 -0.631916 0.000000 -1.213004 0.000000 0.000000
    23 -1.206580 -2.654139 -11.381500 -0.377072 0.013162 0.599065
    24 0.089929 -8.543163 -0.000001 0.147788 -0.337690 0.442141
    25 0.000000 -0.359713 0.000000 0.000000 0.000000 0.000000
    26 -0.170480 -2.636147 -0.277655 -0.820345 0.000000 0.000000
    27 0.010599 -1.261177 0.000000 -0.584683 0.000000 0.000000
    28 -0.000001 -0.943233 0.000000 -0.532326 0.000000 0.000000
    29 -0.827563 -2.508973 -0.277656 -0.942486 0.000000 0.000000
    30 0.000001 -1.292971 0.000000 -0.287992 0.000000 0.000000
    31 0.000000 -0.752466 0.000000 -0.445059 0.000000 0.000000
    32 0.444212 -2.561960 -0.277655 -1.081578 -0.046226 -0.024599
    33 0.021022 -1.208186 0.000000 -0.427606 0.000000 0.000000
    34 0.010597 -0.741867 0.000000 -0.453786 0.000000 0.000000
    35 1.047444 -2.222821 -0.277655 -1.019692 -0.066950 -0.041090
    36 0.000000 -0.996223 -0.000001 -0.584716 0.000000 0.000000
    37 -0.000002 -0.614690 0.000000 -0.523599 0.000000 0.000000
    38 -0.308254 -0.007814 0.307166 -0.318048 -0.539821 -2.424630
    39 1.978378 0.019543 0.000000 -0.000002 -0.000010 0.549775
    40 0.982427 0.003186 0.000000 0.000000 0.000000 0.593399
  time 29
    0 6.606519 0.177283 -6.694014 -0.766885 -1.350607 0.553046
    1 0.000000 -8.563284 0.000000 0.346775 -0.112481 -0.179418
    2 0.022535 -3.459973 0.747359 -1.452340 1.442002 -1.446094
    3 -0.000001 2.373979 0.699475 0.000000 0.000000 0.000000
    4 -0.000001 -0.931791 1.710478 0.000000 0.000000 0.000000
    5 0.000000 -1.759287 0.975027 0.000000 0.000000 0.000000
    6 -0.000966 -2.992972 0.968136 0.131076 -0.001806 -0.009717
    7 -0.003480 -0.404829 0.000000 0.000000 0.000000 0.000000
    8 -0.519308 -2.501155 -0.278957 -1.003564 0.000000 -0.122173
    9 -0.010598 -1.208184 0.000001 -1.090831 0.000000 0.000000
    10 0.000000 -0.763066 0.000000 -1.343903 0.000000 0.000000
    11 0.105982 -2.607134 -0.278957 -0.890118 0.000000 -0.148353
    12 0.000000 -1.250580 0.000000 -1.213004 0.000000 0.000000
    13 0.000000 -0.932634 0.000001 -1.483530 0.000000 0.000000
    14 0.763064 -2.490556 -0.278957 -0.349065 0.000000 0.130900
    15 -0.012321 -1.280916 0.000000 -0.347110 0.000000 0.000000
    16 -0.001697 -0.749371 0.000001 -0.624538 0.000000 0.000000
    17 0.354567 0.016268 0.318133 0.342077 -0.443527 -1.083976
    18 1.887166 0.012877 0.000000 -0.305433 0.000000 -0.401426
    19 1.001874 -0.000270 0.000000 0.000000 0.000000 -0.488692
    20 -1.123358 -2.195092 -0.278957 -0.933751 0.000000 -0.087266
    21 0.010773 -0.963791 0.000000 -0.610865 0.000000 0.000000
    22 -0.010412 -0.631916 0.000000 -1.213004 0.000000 0.000000
    23 -1.179236 -2.755705 -11.143212 -0.376114 0.006275 0.600593
    24 0.089929 -8.543163 -0.000001 0.111346 -0.308661 0.449805
    25 0.000000 -0.359713 0.000000 0.000000 0.000000 0.000000
    26 -0.170480 -2.636147 -0.277655 -0.820345 0.000000 0.000000
    27 0.010599 -1.261177 0.000000 -0.584683 0.000000 0.000000
    28 -0.000001 -0.943233 0.000000 -0.532326 0.000000 0.000000
    29 -0.827563 -2.508973 -0.277656 -0.942486 0.000000 0.000000
    30 0.000001 -1.292971 0.000000 -0.287992 0.000000 0.000000
    31 0.000000 -0.752466 0.000000 -0.445059 0.000000 0.000000
    32 0.444212 -2.561960 -0.277655 -1.081578 -0.046226 -0.024599
    33 0.021022 -1.208186 0.000000 -0.427606 0.000000 0.000000
    34 0.010597 -0.741867 0.000000 -0.453786 0.000000 0.000000
    35 1.047444 -2.222821 -0.277655 -1.019692 -0.066950 -0.041090
    36 0.000000 -0.996223 -0.000001 -0.584716 0.000000 0.000000
    37 -0.000002 -0.614690 0.000000 -0.523599 0.000000 0.000000
    38 -0.308254 -0.007814 0.307166 -0.318048 -0.539821 -2.424630
    39 1.978378 0.019543 0.000000 -0.000002 -0.000010 0.549775
    40 0.982427 0.003186 0.000000 0.000000 0.000000 0.593399
  time 30
    0 6.606519 0.165564 -6.694014 -0.742856 -1.324791 0.528521
    1 0.000000 -8.563284 0.000000 0.350012 -0.111930 -0.164335
    2 0.022535 -3.459973 0.747359 -1.452340 1.442002 -1.446094
    3 -0.000001 2.373979 0.699475 0.000000 0.000000 0.000000
    4 -0.000001 -0.931791 1.710478 0.000000 0.000000 0.000000
    5 0.000000 -1.759287 0.975027 0.000000 0.000000 0.000000
    6 -0.000966 -2.992972 0.968136 0.131076 -0.001806 -0.009717
    7 -0.003480 -0.404829 0.000000 0.000000 0.000000 0.000000
    8 -0.519308 -2.501155 -0.278957 -1.003564 0.000000 -0.122173
    9 -0.010598 -1.208184 0.000001 -1.090831 0.000000 0.000000
    10 0.000000 -0.763066 0.000000 -1.343903 0.000000 0.000000
    11 0.105982 -2.607134 -0.278957 -0.890118 0.000000 -0.148353
    12 0.000000 -1.250580 0.000000 -1.213004 0.000000 0.000000
    13 0.000000 -0.932634 0.000001 -1.483530 0.000000 0.000000
    14 0.763064 -2.490556 -0.278957 -0.349065 0.000000 0.130900
    15 -0.012321 -1.280916 0.000000 -0.322887 0.000000 0.000000
    16 -0.001697 -0.749371 0.000001 -0.593412 0.000000 0.000000
    17 0.354567 0.016268 0.318133 0.342077 -0.443527 -1.083976
    18 1.887166 0.012877 0.000000 -0.305433 0.000000 -0.401426
    19 1.001874 -0.000270 0.000000 0.000000 0.000000 -0.488692
    20 -1.123358 -2.195092 -0.278957 -0.933751 0.000000 -0.087266
    21 0.010773 -0.963791 0.000000 -0.610865 0.000000 0.000000
    22 -0.010412 -0.631916 0.000000 -1.213004 0.000000 0.000000
    23 -1.147985 -2.861177 -10.854140 -0.375247 0.000057 0.602052
    24 0.089929 -8.543163 -0.000001 0.079777 -0.284686 0.455196
    25 0.000000 -0.359713 0.000000 0.000000 0.000000 0.000000
    26 -0.170480 -2.636147 -0.277655 -0.820345 0.000000 0.000000
    27 0.010599 -1.261177 0.000000 -0.584683 0.000000 0.000000
    28 -0.000001 -0.943233 0.000000 -0.532326 0.000000 0.000000
    29 -0.827563 -2.508973 -0.277656 -0.942486 0.000000 0.000000
    30 0.000001 -1.292971 0.000000 -0.287992 0.000000 0.000000
    31 0.000000 -0.752466 0.000000 -0.445059 0.000000 0.000000
    32 0.444212 -2.561960 -0.277655 -1.081578 -0.046226 -0.024599
    33 0.021022 -1.208186 0.000000 -0.427606 0.000000 0.000000
    34 0.010597 -0.741867 0.000000 -0.453786 0.000000 0.000000
    35 1.047444 -2.222821 -0.277655 -1.019692 -0.066950 -0.041090
    36 0.000000 -0.996223 -0.000001 -0.584716 0.000000 0.000000
    37 -0.000002 -0.614690 0.000000 -0.523599 0.000000 0.000000
    38 -0.308254 -0.007814 0.307166 -0.318048 -0.539821 -2.424630
    39 1.978378 0.019543 0.000000 -0.000002 -0.000010 0.549775
    40 0.982427 0.003186 0.000000 0.000000 0.000000 0.593399
end
