version 1
nodes
  0 "root" -1
  1 "Bone01" 0
  2 "Bone_Lefthand" 1
  3 "AT4_root" 2
  4 "AT4_lens" 3
  5 "Bone_L_Upper" 1
  6 "Bone13" 2
  7 "Bone14" 6
  8 "Bone15" 7
  9 "Bone17" 2
  10 "Bone18" 9
  11 "Bone19" 10
  12 "Bone21" 2
  13 "Bone22" 12
  14 "Bone23" 13
  15 "Bone09" 2
  16 "Bone10" 15
  17 "Bone11" 16
  18 "Bone05" 2
  19 "Bone06" 18
  20 "Bone07" 19
  21 "Bone_Se_Hand-L" 2
  22 "Bone04" 0
  23 "Bone_Righthand" 22
  24 "Bone39" 23
  25 "Bone40" 24
  26 "Bone41" 25
  27 "Bone35" 23
  28 "Bone36" 27
  29 "Bone37" 28
  30 "Bone31" 23
  31 "Bone32" 30
  32 "Bone33" 31
  33 "Bone43" 23
  34 "Bone44" 33
  35 "Bone45" 34
  36 "Bone27" 23
  37 "Bone28" 36
  38 "Bone29" 37
  39 "Bone_Se_Hand-R" 23
  40 "Bone_R_Upper" 22
end
skeleton
  time 0
    0 0.001154 -0.567689 -22.617259 0.000000 0.000000 0.000000
    1 18.009588 -8.897380 10.325552 1.158761 -2.719487 -1.344242
    2 -0.071921 -8.498736 -0.104134 -0.323161 0.102711 0.079207
    3 -1.879609 -3.584201 0.911484 0.316169 -0.168185 0.360303
    4 -2.855127 1.648684 1.176711 0.050587 0.000000 -3.140162
    5 1.343120 8.715708 1.092419 -1.422480 0.140206 -1.590417
    6 -0.488518 -2.755602 -0.228260 -0.381031 -0.035162 0.165783
    7 0.039887 -1.479790 0.029854 -1.069855 0.000000 0.000001
    8 0.028786 -1.075731 -0.023109 -0.231031 0.000000 0.000000
    9 0.250027 -2.820665 -0.238396 0.040160 -0.012053 0.230266
    10 -0.049759 -1.680544 0.100479 -1.590087 0.000000 -0.000002
    11 -0.034142 -1.148312 0.084782 -0.460177 0.000000 0.000000
    12 0.957766 -2.746780 -0.090302 -0.017221 -0.162277 0.191558
    13 -0.033420 -1.397129 -0.011257 -1.261472 0.000000 -0.000001
    14 -0.022360 -0.957436 0.018784 -0.566969 0.000000 0.000000
    15 -1.180681 -2.507217 -0.193859 -0.234855 -0.038887 0.160527
    16 -0.024967 -1.123934 0.017597 -0.664637 0.000000 0.000001
    17 -0.020057 -0.890968 0.010090 -0.340158 0.000000 0.000000
    18 0.583510 -1.197277 0.185379 0.396231 -0.133810 -0.943146
    19 1.535927 0.010246 0.005009 -0.365210 -0.013303 -0.218193
    20 1.100771 0.004527 -0.010679 -0.001813 0.016105 0.065336
    21 0.120153 -0.050270 -0.054489 0.287569 3.110905 1.561085
    22 0.252685 -15.618296 5.494978 1.003203 -3.101321 0.783393
    23 0.096944 -8.450418 -0.009365 1.026618 -0.339154 -0.206590
    24 0.447953 -2.798986 -0.200443 0.000747 0.016521 0.013537
    25 -0.032909 -1.480204 0.004940 -0.791070 0.000000 0.000002
    26 -0.027022 -1.076920 -0.020210 -0.564547 0.000000 0.000000
    27 -0.249534 -2.846964 -0.174213 0.099043 -0.000125 -0.008396
    28 0.043235 -1.683941 0.096012 -0.907534 0.002823 -0.000167
    29 0.031729 -1.160830 0.058838 -0.413501 0.000642 0.008372
    30 -0.963866 -2.785145 -0.085350 0.223413 0.162612 -0.001720
    31 0.028479 -1.403067 0.006271 -0.168681 0.000000 0.000000
    32 0.021413 -0.957781 0.020046 -0.392959 0.000000 0.000000
    33 1.164475 -2.543940 -0.170330 0.316824 0.028640 -0.027609
    34 0.024032 -1.129042 0.017807 -0.797294 0.000000 0.000001
    35 0.014898 -0.883989 -0.019848 -0.236543 0.000000 0.000000
    36 -0.676616 -1.377762 0.418918 -0.353613 0.031923 -2.390715
    37 1.432989 0.253999 0.016848 0.627556 0.007289 0.439087
    38 1.117947 0.048424 -0.005766 0.000009 -0.025198 0.055341
    39 -0.041740 0.021119 -0.243423 0.261931 0.632819 1.806394
    40 -7.038174 6.628172 -0.282403 1.574392 -0.010596 -0.787827
  time 1
    0 0.001154 -0.567689 -22.617259 0.000000 0.000000 0.000000
    1 18.009588 -9.909130 10.419305 1.160577 -2.726896 -1.344925
    2 -0.071921 -8.498736 -0.104134 -0.322952 0.101888 0.082108
    3 -1.879609 -3.584201 0.911484 0.316169 -0.168185 0.360303
    4 -2.855127 1.648684 1.176711 0.050587 0.000000 -3.140162
    5 1.343120 8.715708 1.092419 -1.422480 0.140206 -1.590417
    6 -0.488518 -2.755602 -0.228260 -0.386188 0.163363 0.085666
    7 0.039887 -1.479790 0.029854 -1.069855 0.000000 0.000001
    8 0.028786 -1.075731 -0.023109 -0.231031 0.000000 0.000000
    9 0.250027 -2.820665 -0.238396 -0.127480 -0.012053 0.230266
    10 -0.049759 -1.680544 0.100479 -1.787490 0.000000 -0.000002
    11 -0.034142 -1.148312 0.084782 -0.460177 0.000000 0.000000
    12 0.957766 -2.746780 -0.090302 -0.184864 -0.162277 0.191558
    13 -0.033420 -1.397129 -0.011257 -1.458848 0.000000 -0.000001
    14 -0.022360 -0.957436 0.018784 -0.566969 0.000000 0.000000
    15 -1.180681 -2.507217 -0.193859 -0.565575 0.016458 0.215078
    16 -0.024967 -1.123934 0.017597 -0.280052 0.000000 0.000001
    17 -0.020057 -0.890968 0.010090 -0.135221 -0.009348 0.025192
    18 0.583510 -1.197277 0.185379 0.396231 -0.133810 -0.943146
    19 1.535927 0.010246 0.005009 -0.365210 -0.013303 -0.218193
    20 1.100771 0.004527 -0.010679 -0.001813 0.016105 0.065336
    21 0.120153 -0.050270 -0.054489 0.287569 3.110905 1.561085
    22 0.373782 -15.981588 6.049683 0.976471 -3.121454 0.751740
    23 0.096944 -8.450418 -0.009365 1.026618 -0.339154 -0.206590
    24 0.447953 -2.798986 -0.200443 0.000747 0.016521 0.013537
    25 -0.032909 -1.480204 0.004940 -0.791070 0.000000 0.000002
    26 -0.027022 -1.076920 -0.020210 -0.564547 0.000000 0.000000
    27 -0.249534 -2.846964 -0.174213 0.099043 -0.000125 -0.008396
    28 0.043235 -1.683941 0.096012 -0.907534 0.002823 -0.000167
    29 0.031729 -1.160830 0.058838 -0.413501 0.000642 0.008372
    30 -0.963866 -2.785145 -0.085350 0.223413 0.162612 -0.001720
    31 0.028479 -1.403067 0.006271 -0.168681 0.000000 0.000000
    32 0.021413 -0.957781 0.020046 -0.392959 0.000000 0.000000
    33 1.164475 -2.543940 -0.170330 0.307205 0.028640 -0.027609
    34 0.024032 -1.129042 0.017807 -0.797294 0.000000 0.000001
    35 0.014898 -0.883989 -0.019848 -0.236543 0.000000 0.000000
    36 -0.676616 -1.377762 0.418918 -0.361031 0.194727 -2.535242
    37 1.432989 0.250093 0.020754 0.664398 -0.089084 0.463672
    38 1.117947 0.048424 -0.005766 -0.005540 -0.024587 0.277887
    39 -0.041740 0.021119 -0.243423 0.314349 0.632819 1.806394
    40 -7.038174 6.628172 -0.282403 1.574392 -0.010596 -0.787827
  time 2
    0 0.001154 -0.567689 -22.617259 0.000000 0.000000 0.000000
    1 18.009588 -8.233297 10.130234 1.164935 -2.744523 -1.346537
    2 -0.071921 -8.498736 -0.104134 -0.334997 0.121881 0.022113
    3 -1.879609 -3.584201 0.911484 0.316169 -0.168185 0.360303
    4 -2.855127 1.648684 1.176711 0.050587 0.000000 -3.140162
    5 1.343120 8.715708 1.092419 -1.422480 0.140206 -1.590417
    6 -0.488518 -2.755602 -0.228260 -0.386188 0.163363 0.085666
    7 0.039887 -1.479790 0.029854 -1.069855 0.000000 0.000001
    8 0.028786 -1.075731 -0.023109 -0.231031 0.000000 0.000000
    9 0.250027 -2.820665 -0.238396 -0.127480 -0.012053 0.230266
    10 -0.049759 -1.680544 0.100479 -1.787374 0.000000 -0.000002
    11 -0.034142 -1.148312 0.084782 -0.460177 0.000000 0.000000
    12 0.957766 -2.746780 -0.090302 -0.184864 -0.162277 0.191558
    13 -0.033420 -1.397129 -0.011257 -1.458752 0.000000 -0.000001
    14 -0.022360 -0.957436 0.018784 -0.566969 0.000000 0.000000
    15 -1.180681 -2.507217 -0.193859 -0.565575 0.016458 0.215078
    16 -0.024967 -1.123934 0.017597 -0.280052 0.000000 0.000001
    17 -0.020057 -0.890968 0.010090 -0.135221 -0.009348 0.025192
    18 0.583510 -1.197277 0.185379 0.396231 -0.133810 -0.943146
    19 1.535927 0.010246 0.005009 -0.365210 -0.013303 -0.218193
    20 1.100771 0.004527 -0.010679 -0.001813 0.016105 0.065336
    21 0.120153 -0.050270 -0.054489 0.287569 3.110905 1.561085
    22 0.498786 -13.801834 5.541855 0.949644 -3.141321 0.699880
    23 0.096944 -8.450418 -0.009365 1.026618 -0.339154 -0.206590
    24 0.447953 -2.798986 -0.200443 0.000747 0.016521 0.013537
    25 -0.032909 -1.480204 0.004940 -0.791070 0.000000 0.000002
    26 -0.027022 -1.076920 -0.020210 -0.564547 0.000000 0.000000
    27 -0.249534 -2.846964 -0.174213 0.099043 -0.000125 -0.008396
    28 0.043235 -1.683941 0.096012 -0.907534 0.002823 -0.000167
    29 0.031729 -1.160830 0.058838 -0.413501 0.000642 0.008372
    30 -0.963866 -2.785145 -0.085350 0.223413 0.162612 -0.001720
    31 0.028479 -1.403067 0.006271 -0.168681 0.000000 0.000000
    32 0.021413 -0.957781 0.020046 -0.392959 0.000000 0.000000
    33 1.164475 -2.543940 -0.170330 0.281393 0.028640 -0.027609
    34 0.024032 -1.129042 0.017807 -0.797294 0.000000 0.000001
    35 0.014898 -0.883989 -0.019848 -0.236543 0.000000 0.000000
    36 -0.676616 -1.377762 0.418918 -0.388009 0.363323 -2.671346
    37 1.429082 0.238374 0.028567 0.738597 -0.231330 0.487949
    38 1.117947 0.048424 -0.005766 -0.012491 -0.021890 0.574876
    39 -0.041740 0.021119 -0.243423 0.418202 0.632819 1.806394
    40 -7.038174 6.628172 -0.282403 1.574392 -0.010596 -0.787827
  time 3
    0 0.001154 -0.567689 -22.617259 0.000000 0.000000 0.000000
    1 18.009588 -7.338739 9.825537 1.170111 -2.765556 -1.348504
    2 -0.071921 -8.498736 -0.104134 -0.331168 0.101487 0.052530
    3 -1.879609 -3.584201 0.911484 0.316169 -0.168185 0.360303
    4 -2.855127 1.648684 1.176711 0.050587 0.000000 -3.140162
    5 1.343120 8.715708 1.092419 -1.422480 0.140206 -1.590417
    6 -0.488518 -2.755602 -0.228260 -0.386188 0.163363 0.085666
    7 0.039887 -1.479790 0.029854 -1.069855 0.000000 0.000001
    8 0.028786 -1.075731 -0.023109 -0.231031 0.000000 0.000000
    9 0.250027 -2.820665 -0.238396 -0.127480 -0.012053 0.230266
    10 -0.049759 -1.680544 0.100479 -1.787141 0.000000 -0.000002
    11 -0.034142 -1.148312 0.084782 -0.460177 0.000000 0.000000
    12 0.957766 -2.746780 -0.090302 -0.184864 -0.162277 0.191558
    13 -0.033420 -1.397129 -0.011257 -1.458512 0.000000 -0.000001
    14 -0.022360 -0.957436 0.018784 -0.566969 0.000000 0.000000
    15 -1.180681 -2.507217 -0.193859 -0.565575 0.016458 0.215078
    16 -0.024967 -1.123934 0.017597 -0.280052 0.000000 0.000001
    17 -0.020057 -0.890968 0.010090 -0.135221 -0.009348 0.025192
    18 0.583510 -1.197277 0.185379 0.396231 -0.133810 -0.943146
    19 1.535927 0.010246 0.005009 -0.365210 -0.013303 -0.218193
    20 1.100771 0.004527 -0.010679 -0.001813 0.016105 0.065336
    21 0.120153 -0.050270 -0.054489 0.287569 3.110905 1.561085
    22 0.358157 -13.657298 5.600450 0.959348 -3.100435 0.656259
    23 0.096944 -8.450418 -0.009365 1.077764 -0.345743 -0.268302
    24 0.447953 -2.798986 -0.200443 0.000747 0.016521 0.013537
    25 -0.032909 -1.480204 0.004940 -0.820897 0.000000 0.000002
    26 -0.027022 -1.076920 -0.020210 -0.506400 0.000000 0.000000
    27 -0.249534 -2.846964 -0.174213 0.099043 -0.000125 -0.008396
    28 0.043235 -1.683941 0.096012 -0.901002 0.002823 -0.000167
    29 0.031729 -1.160830 0.058838 -0.413501 0.000642 0.008372
    30 -0.963866 -2.785145 -0.085350 0.227945 0.162612 -0.001720
    31 0.028479 -1.403067 0.006271 -0.414177 0.000000 0.000000
    32 0.021413 -0.957781 0.020046 -0.381724 0.000000 0.000000
    33 1.164475 -2.543940 -0.170330 0.244011 0.028640 -0.027609
    34 0.024032 -1.129042 0.017807 -0.797294 0.000000 0.000001
    35 0.014898 -0.883989 -0.019848 -0.236543 0.000000 0.000000
    36 -0.676616 -1.377762 0.418918 -0.437829 0.344055 -2.617649
    37 1.429082 0.226655 0.036380 0.839317 -0.327150 0.431278
    38 1.117947 0.048424 -0.005766 -0.015116 -0.020164 0.699254
    39 -0.041740 0.021119 -0.243423 0.552192 0.619733 1.823747
    40 -7.038174 6.628172 -0.282403 1.574392 -0.010596 -0.787827
  time 4
    0 0.001154 -0.567689 -22.617259 0.000000 0.000000 0.000000
    1 18.009588 -6.619967 9.516934 1.174378 -2.783183 -1.350115
    2 -0.071921 -8.498736 -0.104134 -0.322674 0.062894 0.113208
    3 -1.879609 -3.584201 0.911484 0.316169 -0.168185 0.360303
    4 -2.855127 1.648684 1.176711 0.050587 0.000000 -3.140162
    5 1.343120 8.715708 1.092419 -1.422480 0.140206 -1.590417
    6 -0.488518 -2.755602 -0.228260 -0.386188 0.163363 0.085666
    7 0.039887 -1.479790 0.029854 -1.069855 0.000000 0.000001
    8 0.028786 -1.075731 -0.023109 -0.231031 0.000000 0.000000
    9 0.250027 -2.820665 -0.238396 -0.127480 -0.012053 0.230266
    10 -0.049759 -1.680544 0.100479 -1.786558 0.000000 -0.000002
    11 -0.034142 -1.148312 0.084782 -0.460177 0.000000 0.000000
    12 0.957766 -2.746780 -0.090302 -0.184864 -0.162277 0.191558
    13 -0.033420 -1.397129 -0.011257 -1.457936 0.000000 -0.000001
    14 -0.022360 -0.957436 0.018784 -0.566969 0.000000 0.000000
    15 -1.180681 -2.507217 -0.193859 -0.565575 0.016458 0.215078
    16 -0.024967 -1.123934 0.017597 -0.280052 0.000000 0.000001
    17 -0.020057 -0.890968 0.010090 -0.135221 -0.009348 0.025192
    18 0.583510 -1.197277 0.185379 0.396231 -0.133810 -0.943146
    19 1.535927 0.010246 0.005009 -0.365210 -0.013303 -0.218193
    20 1.100771 0.004527 -0.010679 -0.001813 0.016105 0.065336
    21 0.120153 -0.050270 -0.054489 0.287569 3.110905 1.561085
    22 0.104243 -13.571358 5.709828 0.979515 -3.024781 0.613505
    23 0.096944 -8.450418 -0.009365 1.172528 -0.356679 -0.383604
    24 0.447953 -2.798986 -0.200443 0.000747 0.016521 0.013537
    25 -0.032909 -1.480204 0.004940 -0.876286 0.000000 0.000002
    26 -0.027022 -1.076920 -0.020210 -0.398456 0.000000 0.000000
    27 -0.249534 -2.846964 -0.174213 0.099043 -0.000125 -0.008396
    28 0.043235 -1.683941 0.096012 -0.886503 0.002823 -0.000167
    29 0.031729 -1.160830 0.058838 -0.413501 0.000642 0.008372
    30 -0.963866 -2.785145 -0.085350 0.237889 0.162612 -0.001720
    31 0.028479 -1.403067 0.006271 -0.659673 0.000000 0.000000
    32 0.021413 -0.957781 0.020046 -0.352779 0.000000 0.000000
    33 1.164475 -2.543940 -0.170330 0.199705 0.028640 -0.027609
    34 0.024032 -1.129042 0.017807 -0.797294 0.000000 0.000001
    35 0.014898 -0.883989 -0.019848 -0.236543 0.000000 0.000000
    36 -0.676616 -1.377762 0.418918 -0.497056 0.311677 -2.514793
    37 1.429082 0.214936 0.048099 0.948135 -0.410543 0.326699
    38 1.117947 0.048424 -0.005766 -0.016578 -0.018978 0.774303
    39 -0.041740 0.021119 -0.243423 0.693200 0.595521 1.856070
    40 -7.038174 6.628172 -0.282403 1.574392 -0.010596 -0.787827
  time 5
    0 0.001154 -0.567689 -22.617259 0.000000 0.000000 0.000000
    1 18.009588 -6.326989 9.251301 1.176194 -2.790592 -1.350798
    2 -0.071921 -8.498736 -0.104134 -0.313693 0.041465 0.160427
    3 -1.879609 -3.584201 0.911484 0.316169 -0.168185 0.360303
    4 -2.855127 1.648684 1.176711 0.050587 0.000000 -3.140162
    5 1.343120 8.715708 1.092419 -1.422480 0.140206 -1.590417
    6 -0.488518 -2.755602 -0.228260 -0.386188 0.163363 0.085666
    7 0.039887 -1.479790 0.029854 -1.069855 0.000000 0.000001
    8 0.028786 -1.075731 -0.023109 -0.231031 0.000000 0.000000
    9 0.250027 -2.820665 -0.238396 -0.127480 -0.012053 0.230266
    10 -0.049759 -1.680544 0.100479 -1.785569 0.000000 -0.000002
    11 -0.034142 -1.148312 0.084782 -0.460177 0.000000 0.000000
    12 0.957766 -2.746780 -0.090302 -0.184864 -0.162277 0.191558
    13 -0.033420 -1.397129 -0.011257 -1.456927 0.000000 -0.000001
    14 -0.022360 -0.957436 0.018784 -0.566969 0.000000 0.000000
    15 -1.180681 -2.507217 -0.193859 -0.565575 0.016458 0.215078
    16 -0.024967 -1.123934 0.017597 -0.280052 0.000000 0.000001
    17 -0.020057 -0.890968 0.010090 -0.135221 -0.009348 0.025192
    18 0.583510 -1.197277 0.185379 0.396231 -0.133810 -0.943146
    19 1.535927 0.010246 0.005009 -0.365210 -0.013303 -0.218193
    20 1.100771 0.004527 -0.010679 -0.001813 0.016105 0.065336
    21 0.120153 -0.050270 -0.054489 0.287569 3.110905 1.561085
    22 -0.032480 -13.540107 5.768424 0.996401 -2.983895 0.582459
    23 0.096944 -8.450418 -0.009365 1.223481 -0.365455 -0.446412
    24 0.447953 -2.798986 -0.200443 0.000747 0.016521 0.013537
    25 -0.032909 -1.480204 0.004940 -0.906113 0.000000 0.000002
    26 -0.027022 -1.076920 -0.020210 -0.340309 0.000000 0.000000
    27 -0.249534 -2.846964 -0.174213 0.099043 -0.000125 -0.008396
    28 0.043235 -1.683941 0.096012 -0.871772 0.002823 -0.000167
    29 0.031729 -1.160830 0.058838 -0.413501 0.000642 0.008372
    30 -0.963866 -2.785145 -0.085350 0.247739 0.162612 -0.001720
    31 0.028479 -1.403067 0.006271 -0.648676 0.000000 0.000000
    32 0.021413 -0.957781 0.020046 -0.313179 0.000000 0.000000
    33 1.164475 -2.543940 -0.170330 0.153099 0.028640 -0.027609
    34 0.024032 -1.129042 0.017807 -0.797294 0.000000 0.000001
    35 0.014898 -0.883989 -0.019848 -0.236543 0.000000 0.000000
    36 -0.676616 -1.377762 0.418918 -0.524573 0.296006 -2.457841
    37 1.425176 0.207123 0.052005 0.999043 -0.450349 0.270471
    38 1.117947 0.048424 -0.005766 -0.017057 -0.018559 0.799461
    39 -0.041740 0.021119 -0.243423 0.758527 0.582525 1.873531
    40 -7.038174 6.628172 -0.282403 1.574392 -0.010596 -0.787827
  time 6
    0 0.001154 -0.567689 -22.617259 0.000000 0.000000 0.000000
    1 18.009588 -6.409023 9.005199 1.173380 -2.786334 -1.350033
    2 -0.071921 -8.498736 -0.104134 -0.306197 0.041127 0.183473
    3 -1.879609 -3.584201 0.911484 0.316169 -0.168185 0.360303
    4 -2.855127 1.648684 1.176711 0.050587 0.000000 -3.140162
    5 1.343120 8.715708 1.092419 -1.422480 0.140206 -1.590417
    6 -0.488518 -2.755602 -0.228260 -0.386188 0.163363 0.085666
    7 0.039887 -1.479790 0.029854 -1.069855 0.000000 0.000001
    8 0.028786 -1.075731 -0.023109 -0.231031 0.000000 0.000000
    9 0.250027 -2.820665 -0.238396 -0.127480 -0.012053 0.230266
    10 -0.049759 -1.680544 0.100479 -1.784055 0.000000 -0.000002
    11 -0.034142 -1.148312 0.084782 -0.460177 0.000000 0.000000
    12 0.957766 -2.746780 -0.090302 -0.184864 -0.162277 0.191558
    13 -0.033420 -1.397129 -0.011257 -1.455438 0.000000 -0.000001
    14 -0.022360 -0.957436 0.018784 -0.566969 0.000000 0.000000
    15 -1.180681 -2.507217 -0.193859 -0.565575 0.016458 0.215078
    16 -0.024967 -1.123934 0.017597 -0.280052 0.000000 0.000001
    17 -0.020057 -0.890968 0.010090 -0.135221 -0.009348 0.025192
    18 0.583510 -1.197277 0.185379 0.396231 -0.133810 -0.943146
    19 1.535927 0.010246 0.005009 -0.365210 -0.013303 -0.218193
    20 1.100771 0.004527 -0.010679 -0.001813 0.016105 0.065336
    21 0.120153 -0.050270 -0.054489 0.287569 3.110905 1.561085
    22 -0.032480 -13.633860 5.612169 1.006343 -2.986023 0.566416
    23 0.096944 -8.450418 -0.009365 1.210704 -0.371904 -0.437630
    24 0.447953 -2.798986 -0.200443 0.000747 0.016521 0.013537
    25 -0.032909 -1.480204 0.004940 -0.874701 0.000000 0.000002
    26 -0.027022 -1.076920 -0.020210 -0.375352 0.000000 0.000000
    27 -0.249534 -2.846964 -0.174213 0.099043 -0.000125 -0.008396
    28 0.043235 -1.683941 0.096012 -0.857042 0.002823 -0.000167
    29 0.031729 -1.160830 0.058838 -0.413501 0.000642 0.008372
    30 -0.963866 -2.785145 -0.085350 0.256880 0.162612 -0.001720
    31 0.028479 -1.403067 0.006271 -0.622430 0.000000 0.000000
    32 0.021413 -0.957781 0.020046 -0.270052 0.000000 0.000000
    33 1.164475 -2.543940 -0.170330 0.108771 0.028640 -0.027609
    34 0.024032 -1.129042 0.017807 -0.797294 0.000000 0.000001
    35 0.014898 -0.883989 -0.019848 -0.236543 0.000000 0.000000
    36 -0.676616 -1.377762 0.418918 -0.522080 0.303019 -2.461503
    37 1.425176 0.207123 0.052005 0.959644 -0.454866 0.270471
    38 1.117947 0.048424 -0.005766 -0.017057 -0.018559 0.799461
    39 -0.041740 0.021119 -0.243423 0.758527 0.582525 1.873531
    40 -7.038174 6.628172 -0.282403 1.574392 -0.010596 -0.787827
  time 7
    0 0.001154 -0.567689 -22.617259 0.000000 0.000000 0.000000
    1 18.009588 -6.608248 8.763005 1.165934 -2.775264 -1.347957
    2 -0.071921 -8.498736 -0.104134 -0.299908 0.041275 0.199353
    3 -1.879609 -3.584201 0.911484 0.316169 -0.168185 0.360303
    4 -2.855127 1.648684 1.176711 0.050587 0.000000 -3.140162
    5 1.343120 8.715708 1.092419 -1.422480 0.140206 -1.590417
    6 -0.488518 -2.755602 -0.228260 -0.386188 0.163363 0.085666
    7 0.039887 -1.479790 0.029854 -1.069855 0.000000 0.000001
    8 0.028786 -1.075731 -0.023109 -0.231031 0.000000 0.000000
    9 0.250027 -2.820665 -0.238396 -0.127480 -0.012053 0.230266
    10 -0.049759 -1.680544 0.100479 -1.782016 0.000000 -0.000002
    11 -0.034142 -1.148312 0.084782 -0.460177 0.000000 0.000000
    12 0.957766 -2.746780 -0.090302 -0.184864 -0.162277 0.191558
    13 -0.033420 -1.397129 -0.011257 -1.453373 0.000000 -0.000001
    14 -0.022360 -0.957436 0.018784 -0.566969 0.000000 0.000000
    15 -1.180681 -2.507217 -0.193859 -0.565575 0.016458 0.215078
    16 -0.024967 -1.123934 0.017597 -0.280052 0.000000 0.000001
    17 -0.020057 -0.890968 0.010090 -0.135221 -0.009348 0.025192
    18 0.583510 -1.197277 0.185379 0.396231 -0.133810 -0.943128
    19 1.535927 0.010246 0.005009 -0.365210 -0.013303 -0.218193
    20 1.100771 0.004527 -0.010679 -0.001813 0.016105 0.065336
    21 0.120153 -0.050270 -0.054489 0.287569 3.110905 1.561085
    22 -0.028574 -13.840898 5.241064 1.014524 -2.991611 0.558611
    23 0.096944 -8.450418 -0.009365 1.180788 -0.376587 -0.415388
    24 0.447953 -2.798986 -0.200443 0.000747 0.016521 0.013537
    25 -0.032909 -1.480204 0.004940 -0.805615 0.000000 0.000002
    26 -0.027022 -1.076920 -0.020210 -0.452428 0.000000 0.000000
    27 -0.249534 -2.846964 -0.174213 0.099043 -0.000125 -0.008396
    28 0.043235 -1.683941 0.096012 -0.840551 0.002823 -0.000167
    29 0.031729 -1.160830 0.058838 -0.413501 0.000642 0.008372
    30 -0.963866 -2.785145 -0.085350 0.267234 0.162612 -0.001720
    31 0.028479 -1.403067 0.006271 -0.591103 0.000000 0.000000
    32 0.021413 -0.957781 0.020046 -0.230476 0.000000 0.000000
    33 1.164475 -2.543940 -0.170330 0.071434 0.028640 -0.027609
    34 0.024032 -1.129042 0.017807 -0.797294 0.000000 0.000001
    35 0.014898 -0.883989 -0.019848 -0.236543 0.000000 0.000000
    36 -0.676616 -1.377762 0.418918 -0.515285 0.322226 -2.471718
    37 1.425176 0.207123 0.052005 0.869338 -0.455862 0.270608
    38 1.117947 0.048424 -0.005766 -0.017057 -0.018559 0.799461
    39 -0.041740 0.021119 -0.243423 0.758527 0.582525 1.873531
    40 -7.038174 6.628172 -0.282403 1.574392 -0.010596 -0.787827
  time 8
    0 0.001154 -0.567689 -22.617259 0.000000 0.000000 0.000000
    1 18.009588 -6.842630 8.579405 1.155401 -2.759595 -1.345034
    2 -0.071921 -8.498736 -0.104134 -0.295591 0.042309 0.208581
    3 -1.879609 -3.584201 0.911484 0.316169 -0.168185 0.360303
    4 -2.855127 1.648684 1.176711 0.050587 0.000000 -3.140162
    5 1.343120 8.715708 1.092419 -1.422480 0.140206 -1.590417
    6 -0.488518 -2.755602 -0.228260 -0.386188 0.163363 0.085666
    7 0.039887 -1.479790 0.029854 -1.069855 0.000000 0.000001
    8 0.028786 -1.075731 -0.023109 -0.231031 0.000000 0.000000
    9 0.250027 -2.820665 -0.238396 -0.127480 -0.012053 0.230266
    10 -0.049759 -1.680544 0.100479 -1.779221 0.000000 -0.000002
    11 -0.034142 -1.148312 0.084782 -0.460177 0.000000 0.000000
    12 0.957766 -2.746780 -0.090302 -0.184864 -0.162277 0.191558
    13 -0.033420 -1.397129 -0.011257 -1.450636 0.000000 -0.000001
    14 -0.022360 -0.957436 0.018784 -0.566969 0.000000 0.000000
    15 -1.180681 -2.507217 -0.193859 -0.565575 0.016458 0.215078
    16 -0.024967 -1.123934 0.017597 -0.280052 0.000000 0.000001
    17 -0.020057 -0.890968 0.010090 -0.135221 -0.009348 0.025192
    18 0.583510 -1.197277 0.185379 0.396231 -0.133810 -0.943146
    19 1.535927 0.010246 0.005009 -0.365210 -0.013303 -0.218193
    20 1.100771 0.004527 -0.010679 -0.001813 0.016105 0.065336
    21 0.120153 -0.050270 -0.054489 0.287569 3.110905 1.561085
    22 -0.012949 -14.071373 4.803551 1.020708 -2.999149 0.554622
    23 0.096944 -8.450418 -0.009365 1.147090 -0.380933 -0.388354
    24 0.447953 -2.798986 -0.200443 0.000747 0.016521 0.013537
    25 -0.032909 -1.480204 0.004940 -0.736556 0.000000 0.000002
    26 -0.027022 -1.076920 -0.020210 -0.529504 0.000000 0.000000
    27 -0.249534 -2.846964 -0.174213 0.099031 -0.000125 -0.008396
    28 0.043235 -1.683941 0.096012 -0.827164 0.002823 -0.000167
    29 0.031729 -1.160830 0.058838 -0.413501 0.000642 0.008372
    30 -0.963866 -2.785145 -0.085350 0.280718 0.162612 -0.001720
    31 0.028479 -1.403067 0.006271 -0.564813 0.000000 0.000000
    32 0.021413 -0.957781 0.020046 -0.201532 0.000000 0.000000
    33 1.164475 -2.543940 -0.170330 0.045621 0.028640 -0.027609
    34 0.024032 -1.129042 0.017807 -0.797294 0.000000 0.000001
    35 0.014898 -0.883989 -0.019848 -0.236543 0.000000 0.000000
    36 -0.676616 -1.377762 0.418918 -0.505326 0.350884 -2.487263
    37 1.425176 0.207123 0.052005 0.769927 -0.457097 0.270881
    38 1.117947 0.048424 -0.005766 -0.017057 -0.018559 0.799461
    39 -0.041740 0.021119 -0.243423 0.758527 0.582525 1.873531
    40 -7.038174 6.628172 -0.282403 1.574392 -0.010596 -0.787827
  time 9
    0 0.001154 -0.567689 -22.617259 0.000000 0.000000 0.000000
    1 18.009588 -7.026229 8.505184 1.143325 -2.741713 -1.341701
    2 -0.071921 -8.498736 -0.104134 -0.293990 0.044568 0.211613
    3 -1.879609 -3.584201 0.911484 0.316169 -0.168185 0.360303
    4 -2.855127 1.648684 1.176711 0.050587 0.000000 -3.140162
    5 1.343120 8.715708 1.092419 -1.422480 0.140206 -1.590417
    6 -0.488518 -2.755602 -0.228260 -0.386188 0.163363 0.085666
    7 0.039887 -1.479790 0.029854 -1.069855 0.000000 0.000001
    8 0.028786 -1.075731 -0.023109 -0.231031 0.000000 0.000000
    9 0.250027 -2.820665 -0.238396 -0.127480 -0.012053 0.230266
    10 -0.049759 -1.680544 0.100479 -1.775728 0.000000 -0.000002
    11 -0.034142 -1.148312 0.084782 -0.460177 0.000000 0.000000
    12 0.957766 -2.746780 -0.090302 -0.184864 -0.162277 0.191558
    13 -0.033420 -1.397129 -0.011257 -1.447082 0.000000 -0.000001
    14 -0.022360 -0.957436 0.018784 -0.566969 0.000000 0.000000
    15 -1.180681 -2.507217 -0.193859 -0.565575 0.016458 0.215078
    16 -0.024967 -1.123934 0.017597 -0.280052 0.000000 0.000001
    17 -0.020057 -0.890968 0.010090 -0.135221 -0.009348 0.025192
    18 0.583510 -1.197277 0.185379 0.396231 -0.133810 -0.943146
    19 1.535927 0.010246 0.005009 -0.365210 -0.013303 -0.218193
    20 1.100771 0.004527 -0.010679 -0.001813 0.016105 0.065336
    21 0.120153 -0.050270 -0.054489 0.287569 3.110905 1.561085
    22 0.010490 -14.223722 4.436352 1.024798 -3.007043 0.550112
    23 0.096944 -8.450418 -0.009365 1.123081 -0.386569 -0.365169
    24 0.447953 -2.798986 -0.200443 0.000747 0.016521 0.013537
    25 -0.032909 -1.480204 0.004940 -0.705144 0.000000 0.000002
    26 -0.027022 -1.076920 -0.020210 -0.564547 0.000000 0.000000
    27 -0.249534 -2.846964 -0.174213 0.099043 -0.000125 -0.008396
    28 0.043235 -1.683941 0.096012 -0.821605 0.002823 -0.000167
    29 0.031729 -1.160830 0.058838 -0.413501 0.000642 0.008372
    30 -0.963866 -2.785145 -0.085350 0.299253 0.162612 -0.001720
    31 0.028479 -1.403067 0.006271 -0.553816 0.000000 0.000000
    32 0.021413 -0.957781 0.020046 -0.190297 0.000000 0.000000
    33 1.164475 -2.543940 -0.170330 0.035980 0.028640 -0.027609
    34 0.024032 -1.129042 0.017807 -0.797294 0.000000 0.000001
    35 0.014898 -0.883989 -0.019848 -0.236543 0.000000 0.000000
    36 -0.676616 -1.377762 0.418918 -0.493341 0.386158 -2.507000
    37 1.425176 0.207123 0.052005 0.703279 -0.462389 0.271324
    38 1.117947 0.048424 -0.005766 -0.017057 -0.018559 0.799461
    39 -0.041740 0.021119 -0.243423 0.758527 0.582525 1.873531
    40 -7.038174 6.628172 -0.282403 1.574392 -0.010596 -0.787827
  time 10
    0 0.001154 -0.567689 -22.617259 0.000000 0.000000 0.000000
    1 18.021307 -7.155139 8.532529 1.128616 -2.719913 -1.337603
    2 -0.071921 -8.498736 -0.104134 -0.295058 0.051979 0.210534
    3 -1.879609 -3.584201 0.911484 0.316337 -0.170023 0.359369
    4 -2.855127 1.648684 1.176711 0.050587 0.000000 -3.140162
    5 1.343120 8.715708 1.092419 -1.422480 0.140206 -1.590417
    6 -0.488518 -2.755602 -0.228260 -0.386188 0.163291 0.085693
    7 0.039887 -1.479790 0.029854 -1.069855 0.000000 0.000001
    8 0.028786 -1.075731 -0.023109 -0.233914 0.000000 0.000000
    9 0.250027 -2.820665 -0.238396 -0.127444 -0.012053 0.230266
    10 -0.049759 -1.680544 0.100479 -1.771593 0.000000 -0.000002
    11 -0.034142 -1.148312 0.084782 -0.456626 0.000000 0.000000
    12 0.957766 -2.746780 -0.090302 -0.184467 -0.162277 0.191558
    13 -0.033420 -1.397129 -0.011257 -1.443000 0.000000 -0.000001
    14 -0.022360 -0.957436 0.018784 -0.565122 0.000000 0.000000
    15 -1.180681 -2.507217 -0.193859 -0.565535 0.016434 0.215229
    16 -0.024967 -1.123934 0.017597 -0.280171 0.000000 0.000001
    17 -0.020057 -0.890968 0.010090 -0.135317 -0.009324 0.025156
    18 0.583510 -1.197277 0.185379 0.390826 -0.133810 -0.943146
    19 1.535927 0.010246 0.005009 -0.365210 -0.013327 -0.218236
    20 1.100771 0.004527 -0.010679 -0.001801 0.016105 0.065457
    21 0.120153 -0.050270 -0.054489 0.287569 3.110905 1.561085
    22 0.057366 -14.301849 4.131655 1.027367 -3.015025 0.543521
    23 0.096944 -8.450418 -0.009365 1.110150 -0.393831 -0.346594
    24 0.447953 -2.798986 -0.200443 0.004189 0.009726 0.013106
    25 -0.032909 -1.480204 0.004940 -0.718786 0.000000 0.000002
    26 -0.027022 -1.076920 -0.020210 -0.548111 0.000000 0.000000
    27 -0.249534 -2.846964 -0.174213 0.100887 -0.000125 -0.008396
    28 0.043235 -1.683941 0.096012 -0.836382 0.002823 -0.000167
    29 0.031729 -1.160830 0.058838 -0.403209 0.000642 0.008372
    30 -0.963866 -2.785145 -0.085350 0.326221 0.162612 -0.001720
    31 0.028479 -1.403067 0.006271 -0.570860 0.000000 0.000000
    32 0.021413 -0.957781 0.020046 -0.201532 0.000000 0.000000
    33 1.164475 -2.543940 -0.170330 0.042488 0.028640 -0.027609
    34 0.024032 -1.129042 0.017807 -0.797294 0.000000 0.000001
    35 0.014898 -0.883989 -0.019848 -0.248432 0.000000 0.000000
    36 -0.676616 -1.377762 0.418918 -0.480410 0.425365 -2.529708
    37 1.425176 0.207123 0.052005 0.670944 -0.476014 0.279985
    38 1.117947 0.048424 -0.005766 -0.017057 -0.018559 0.799461
    39 -0.041740 0.021119 -0.243423 0.743668 0.585299 1.869804
    40 -7.038174 6.628172 -0.282403 1.574392 -0.010596 -0.787827
  time 11
    0 0.001154 -0.567689 -22.617259 0.000000 0.000000 0.000000
    1 18.052558 -7.272330 8.610656 1.110456 -2.693004 -1.332577
    2 -0.071921 -8.498736 -0.104134 -0.297959 0.066314 0.207227
    3 -1.879609 -3.584201 0.911484 0.316772 -0.174759 0.356908
    4 -2.855127 1.648684 1.176711 0.050587 0.000000 -3.140162
    5 1.343120 8.715708 1.092419 -1.422480 0.140206 -1.590417
    6 -0.488518 -2.755602 -0.228260 -0.386188 0.163004 0.085811
    7 0.039887 -1.479790 0.029854 -1.069855 0.000000 0.000001
    8 0.028786 -1.075731 -0.023109 -0.241334 0.000000 0.000000
    9 0.250027 -2.820665 -0.238396 -0.127301 -0.012053 0.230266
    10 -0.049759 -1.680544 0.100479 -1.766935 0.000000 -0.000002
    11 -0.034142 -1.148312 0.084782 -0.447473 0.000000 0.000000
    12 0.957766 -2.746780 -0.090302 -0.183156 -0.162277 0.191558
    13 -0.033420 -1.397129 -0.011257 -1.438342 0.000000 -0.000001
    14 -0.022360 -0.957436 0.018784 -0.560367 0.000000 0.000000
    15 -1.180681 -2.507217 -0.193859 -0.565377 0.016350 0.215660
    16 -0.024967 -1.123934 0.017597 -0.280625 0.000000 0.000001
    17 -0.020057 -0.890968 0.010090 -0.135797 -0.009276 0.025000
    18 0.583510 -1.197277 0.185379 0.376888 -0.133810 -0.943146
    19 1.535927 0.010246 0.005009 -0.365210 -0.013363 -0.218335
    20 1.100771 0.004527 -0.010679 -0.001801 0.016105 0.065759
    21 0.120153 -0.050270 -0.054489 0.287569 3.110905 1.561085
    22 0.119868 -14.360445 3.803520 1.029269 -3.023806 0.536497
    23 0.096944 -8.450418 -0.009365 1.100036 -0.401711 -0.327794
    24 0.447953 -2.798986 -0.200443 0.013039 -0.007795 0.012003
    25 -0.032909 -1.480204 0.004940 -0.753944 0.000000 0.000002
    26 -0.027022 -1.076920 -0.020210 -0.505739 0.000000 0.000000
    27 -0.249534 -2.846964 -0.174213 0.105668 -0.000125 -0.008396
    28 0.043235 -1.683941 0.096012 -0.874459 0.002823 -0.000167
    29 0.031729 -1.160830 0.058838 -0.376695 0.000642 0.008372
    30 -0.963866 -2.785145 -0.085350 0.360868 0.162612 -0.001720
    31 0.028479 -1.403067 0.006271 -0.614807 0.000000 0.000000
    32 0.021413 -0.957781 0.020046 -0.230476 0.000000 0.000000
    33 1.164475 -2.543940 -0.170330 0.059776 0.028640 -0.027609
    34 0.024032 -1.129042 0.017807 -0.797294 0.000000 0.000001
    35 0.014898 -0.883989 -0.019848 -0.279064 0.000000 0.000000
    36 -0.676616 -1.377762 0.418918 -0.467443 0.465700 -2.554166
    37 1.425176 0.207123 0.052005 0.645977 -0.497383 0.302046
    38 1.117947 0.048424 -0.005766 -0.017057 -0.018559 0.799461
    39 -0.041740 0.021119 -0.243423 0.704362 0.592475 1.860180
    40 -7.038174 6.628172 -0.282403 1.574392 -0.010596 -0.787827
  time 12
    0 0.001154 -0.567689 -22.617259 0.000000 0.000000 0.000000
    1 18.099434 -7.385615 8.727847 1.090934 -2.664051 -1.327195
    2 -0.071921 -8.498736 -0.104134 -0.302159 0.084639 0.201774
    3 -1.879609 -3.584201 0.911484 0.317376 -0.181182 0.353429
    4 -2.855127 1.648684 1.176711 0.050587 0.000000 -3.140162
    5 1.343120 8.715708 1.092419 -1.422480 0.140206 -1.590417
    6 -0.488518 -2.755602 -0.228260 -0.386173 0.162369 0.086060
    7 0.039887 -1.479790 0.029854 -1.069855 0.000000 0.000001
    8 0.028786 -1.075731 -0.023109 -0.251486 0.000000 0.000000
    9 0.250027 -2.820665 -0.238396 -0.127001 -0.012053 0.230266
    10 -0.049759 -1.680544 0.100479 -1.761577 0.000000 -0.000002
    11 -0.034142 -1.148312 0.084782 -0.434949 0.000000 0.000000
    12 0.957766 -2.746780 -0.090302 -0.180690 -0.162277 0.191558
    13 -0.033420 -1.397129 -0.011257 -1.433012 0.000000 -0.000001
    14 -0.022360 -0.957436 0.018784 -0.553887 0.000000 0.000000
    15 -1.180681 -2.507217 -0.193859 -0.565041 0.016194 0.216243
    16 -0.024967 -1.123934 0.017597 -0.281611 0.000000 0.000001
    17 -0.020057 -0.890968 0.010090 -0.136935 -0.009168 0.024700
    18 0.583510 -1.197277 0.185379 0.357832 -0.133810 -0.943146
    19 1.535927 0.010246 0.005009 -0.365198 -0.013410 -0.218462
    20 1.100771 0.004527 -0.010679 -0.001789 0.016117 0.066181
    21 0.120153 -0.050270 -0.054489 0.287569 3.110905 1.561085
    22 0.197995 -14.407321 3.471479 1.030649 -3.032941 0.529646
    23 0.096944 -8.450418 -0.009365 1.091853 -0.409898 -0.309134
    24 0.447953 -2.798986 -0.200443 0.025213 -0.031741 0.010493
    25 -0.032909 -1.480204 0.004940 -0.802006 0.000000 0.000002
    26 -0.027022 -1.076920 -0.020210 -0.447799 0.000000 0.000000
    27 -0.249534 -2.846964 -0.174213 0.112196 -0.000125 -0.008396
    28 0.043235 -1.683941 0.096012 -0.926572 0.002823 -0.000167
    29 0.031729 -1.160830 0.058838 -0.340439 0.000642 0.008372
    30 -0.963866 -2.785145 -0.085350 0.398867 0.162612 -0.001720
    31 0.028479 -1.403067 0.006271 -0.674877 0.000000 0.000000
    32 0.021413 -0.957781 0.020046 -0.270052 0.000000 0.000000
    33 1.164475 -2.543940 -0.170330 0.084515 0.028640 -0.027609
    34 0.024032 -1.129042 0.017807 -0.797294 0.000000 0.000001
    35 0.014898 -0.883989 -0.019848 -0.320962 0.000000 0.000000
    36 -0.676616 -1.377762 0.418918 -0.455194 0.504420 -2.579010
    37 1.425176 0.207123 0.052005 0.627556 -0.522919 0.333485
    38 1.117947 0.048424 -0.005766 -0.017057 -0.018559 0.799461
    39 -0.041740 0.021119 -0.243423 0.648551 0.602275 1.847045
    40 -7.038174 6.628172 -0.282403 1.574392 -0.010596 -0.787827
  time 13
    0 0.001154 -0.567689 -22.617259 0.000000 0.000000 0.000000
    1 18.146311 -7.491087 8.868477 1.072139 -2.636120 -1.321977
    2 -0.071921 -8.498736 -0.104134 -0.307148 0.104020 0.194307
    3 -1.879609 -3.584201 0.911484 0.318079 -0.188084 0.349525
    4 -2.855127 1.648684 1.176711 0.050587 0.000000 -3.140162
    5 1.343120 8.715708 1.092419 -1.422480 0.140206 -1.590417
    6 -0.488518 -2.755602 -0.228260 -0.386158 0.161278 0.086494
    7 0.039887 -1.479790 0.029854 -1.069855 0.000000 0.000001
    8 0.028786 -1.075731 -0.023109 -0.262549 0.000000 0.000000
    9 0.250027 -2.820665 -0.238396 -0.126498 -0.012053 0.230266
    10 -0.049759 -1.680544 0.100479 -1.755230 0.000000 -0.000002
    11 -0.034142 -1.148312 0.084782 -0.421309 0.000000 0.000000
    12 0.957766 -2.746780 -0.090302 -0.176840 -0.162277 0.191558
    13 -0.033420 -1.397129 -0.011257 -1.426672 0.000000 -0.000001
    14 -0.022360 -0.957436 0.018784 -0.546814 0.000000 0.000000
    15 -1.180681 -2.507217 -0.193859 -0.564467 0.015967 0.216869
    16 -0.024967 -1.123934 0.017597 -0.283288 0.000000 0.000001
    17 -0.020057 -0.890968 0.010090 -0.138996 -0.008976 0.024197
    18 0.583510 -1.197277 0.185379 0.337063 -0.133810 -0.943128
    19 1.535927 0.010246 0.005009 -0.365198 -0.013470 -0.218604
    20 1.100771 0.004527 -0.010679 -0.001789 0.016117 0.066665
    21 0.120153 -0.050270 -0.054489 0.287569 3.110905 1.561085
    22 0.276123 -14.438572 3.166782 1.031505 -3.042076 0.523489
    23 0.096944 -8.450418 -0.009365 1.084789 -0.418086 -0.290938
    24 0.447953 -2.798986 -0.200443 0.038564 -0.057843 0.008851
    25 -0.032909 -1.480204 0.004940 -0.854388 0.000000 0.000002
    26 -0.027022 -1.076920 -0.020210 -0.384665 0.000000 0.000000
    27 -0.249534 -2.846964 -0.174213 0.119307 -0.000125 -0.008396
    28 0.043235 -1.683941 0.096012 -0.983318 0.002823 -0.000167
    29 0.031729 -1.160830 0.058838 -0.300943 0.000642 0.008372
    30 -0.963866 -2.785145 -0.085350 0.435921 0.162612 -0.001720
    31 0.028479 -1.403067 0.006271 -0.740337 0.000000 0.000000
    32 0.021413 -0.957781 0.020046 -0.313179 0.000000 0.000000
    33 1.164475 -2.543940 -0.170330 0.113417 0.028640 -0.027609
    34 0.024032 -1.129042 0.017807 -0.797294 0.000000 0.000001
    35 0.014898 -0.883989 -0.019848 -0.366600 0.000000 0.000000
    36 -0.676616 -1.377762 0.418918 -0.444180 0.538779 -2.602776
    37 1.425176 0.207123 0.052005 0.614769 -0.549045 0.370209
    38 1.117947 0.048424 -0.005766 -0.017057 -0.018559 0.799461
    39 -0.041740 0.021119 -0.243423 0.584133 0.612979 1.832760
    40 -7.038174 6.628172 -0.282403 1.574392 -0.010596 -0.787827
  time 14
    0 0.001154 -0.567689 -22.617259 0.000000 0.000000 0.000000
    1 18.189281 -7.592653 9.028638 1.056158 -2.612362 -1.317551
    2 -0.071921 -8.498736 -0.104134 -0.312416 0.121565 0.184983
    3 -1.879609 -3.584201 0.911484 0.318783 -0.194359 0.345791
    4 -2.855127 1.648684 1.176711 0.050587 0.000000 -3.140162
    5 1.343120 8.715708 1.092419 -1.422480 0.140206 -1.590417
    6 -0.488518 -2.755602 -0.228260 -0.386128 0.159612 0.087163
    7 0.039887 -1.479790 0.029854 -1.069855 0.000000 0.000001
    8 0.028786 -1.075731 -0.023109 -0.272700 0.000000 0.000000
    9 0.250027 -2.820665 -0.238396 -0.125743 -0.012053 0.230266
    10 -0.049759 -1.680544 0.100479 -1.747718 0.000000 -0.000002
    11 -0.034142 -1.148312 0.084782 -0.408797 0.000000 0.000000
    12 0.957766 -2.746780 -0.090302 -0.171379 -0.162277 0.191558
    13 -0.033420 -1.397129 -0.011257 -1.419133 0.000000 -0.000001
    14 -0.022360 -0.957436 0.018784 -0.540317 0.000000 0.000000
    15 -1.180681 -2.507217 -0.193859 -0.563615 0.015655 0.217451
    16 -0.024967 -1.123934 0.017597 -0.285854 0.000000 0.000001
    17 -0.020057 -0.890968 0.010090 -0.142280 -0.008701 0.023454
    18 0.583510 -1.197277 0.185379 0.318007 -0.133810 -0.943128
    19 1.535927 0.010246 0.005009 -0.365198 -0.013518 -0.218746
    20 1.100771 0.004527 -0.010679 -0.001777 0.016117 0.067088
    21 0.120153 -0.050270 -0.054489 0.287569 3.110905 1.561085
    22 0.342531 -14.462010 2.916775 1.031981 -3.050945 0.518372
    23 0.096944 -8.450418 -0.009365 1.077957 -0.425993 -0.273571
    24 0.447953 -2.798986 -0.200443 0.050856 -0.081788 0.007329
    25 -0.032909 -1.480204 0.004940 -0.902450 0.000000 0.000002
    26 -0.027022 -1.076920 -0.020210 -0.326726 0.000000 0.000000
    27 -0.249534 -2.846964 -0.174213 0.125835 -0.000125 -0.008396
    28 0.043235 -1.683941 0.096012 -1.035385 0.002823 -0.000167
    29 0.031729 -1.160830 0.058838 -0.264687 0.000642 0.008372
    30 -0.963866 -2.785145 -0.085350 0.467720 0.162612 -0.001720
    31 0.028479 -1.403067 0.006271 -0.800408 0.000000 0.000000
    32 0.021413 -0.957781 0.020046 -0.352779 0.000000 0.000000
    33 1.164475 -2.543940 -0.170330 0.143195 0.028640 -0.027609
    34 0.024032 -1.129042 0.017807 -0.797294 0.000000 0.000001
    35 0.014898 -0.883989 -0.019848 -0.408486 0.000000 0.000000
    36 -0.676616 -1.377762 0.418918 -0.434701 0.566066 -2.623835
    37 1.425176 0.207123 0.052005 0.606791 -0.572184 0.408194
    38 1.117947 0.048424 -0.005766 -0.017057 -0.018559 0.799461
    39 -0.041740 0.021119 -0.243423 0.519095 0.622809 1.819661
    40 -7.038174 6.628172 -0.282403 1.574392 -0.010596 -0.787827
  time 15
    0 0.001154 -0.567689 -22.617259 0.000000 0.000000 0.000000
    1 18.224438 -7.698125 9.188799 1.045080 -2.595927 -1.314492
    2 -0.071921 -8.498736 -0.104134 -0.317452 0.134337 0.173969
    3 -1.879609 -3.584201 0.911484 0.319319 -0.198900 0.342990
    4 -2.855127 1.648684 1.176711 0.050587 0.000000 -3.140162
    5 1.343120 8.715708 1.092419 -1.422480 0.140206 -1.590417
    6 -0.488518 -2.755602 -0.228260 -0.386083 0.157239 0.088109
    7 0.039887 -1.479790 0.029854 -1.069855 0.000000 0.000001
    8 0.028786 -1.075731 -0.023109 -0.280121 0.000000 0.000000
    9 0.250027 -2.820665 -0.238396 -0.124676 -0.012053 0.230266
    10 -0.049759 -1.680544 0.100479 -1.738693 0.000000 -0.000002
    11 -0.034142 -1.148312 0.084782 -0.399644 0.000000 0.000000
    12 0.957766 -2.746780 -0.090302 -0.164077 -0.162277 0.191558
    13 -0.033420 -1.397129 -0.011257 -1.410104 0.000000 -0.000001
    14 -0.022360 -0.957436 0.018784 -0.535578 0.000000 0.000000
    15 -1.180681 -2.507217 -0.193859 -0.562388 0.015236 0.217840
    16 -0.024967 -1.123934 0.017597 -0.289484 0.000000 0.000001
    17 -0.020057 -0.890968 0.010090 -0.147050 -0.008305 0.022411
    18 0.583510 -1.197277 0.185379 0.304069 -0.133810 -0.943128
    19 1.535927 0.010246 0.005009 -0.365198 -0.013554 -0.218845
    20 1.100771 0.004527 -0.010679 -0.001777 0.016117 0.067390
    21 0.120153 -0.050270 -0.054489 0.287569 3.110905 1.561085
    22 0.389408 -14.473729 2.744894 1.032219 -3.059105 0.514990
    23 0.096944 -8.450418 -0.009365 1.070546 -0.433312 -0.257398
    24 0.447953 -2.798986 -0.200443 0.059890 -0.099310 0.006203
    25 -0.032909 -1.480204 0.004940 -0.937608 0.000000 0.000002
    26 -0.027022 -1.076920 -0.020210 -0.284353 0.000000 0.000000
    27 -0.249534 -2.846964 -0.174213 0.130616 -0.000125 -0.008396
    28 0.043235 -1.683941 0.096012 -1.073462 0.002823 -0.000167
    29 0.031729 -1.160830 0.058838 -0.238173 0.000642 0.008372
    30 -0.963866 -2.785145 -0.085350 0.489968 0.162612 -0.001720
    31 0.028479 -1.403067 0.006271 -0.844354 0.000000 0.000000
    32 0.021413 -0.957781 0.020046 -0.381724 0.000000 0.000000
    33 1.164475 -2.543940 -0.170330 0.170519 0.028640 -0.027609
    34 0.024032 -1.129042 0.017807 -0.797294 0.000000 0.000001
    35 0.014898 -0.883989 -0.019848 -0.439131 0.000000 0.000000
    36 -0.676616 -1.377762 0.418918 -0.426935 0.583535 -2.640520
    37 1.425176 0.207123 0.052005 0.602712 -0.588760 0.443383
    38 1.117947 0.048424 -0.005766 -0.017057 -0.018559 0.799461
    39 -0.041740 0.021119 -0.243423 0.461364 0.630015 1.810097
    40 -7.038174 6.628172 -0.282403 1.574392 -0.010596 -0.787827
  time 16
    0 0.001154 -0.567689 -22.617259 0.000000 0.000000 0.000000
    1 18.236157 -7.803597 9.345054 1.040904 -2.589711 -1.313344
    2 -0.071921 -8.498736 -0.104134 -0.321769 0.139383 0.161494
    3 -1.879609 -3.584201 0.911484 0.319554 -0.200663 0.341887
    4 -2.855127 1.648684 1.176711 0.050587 0.000000 -3.140162
    5 1.343120 8.715708 1.092419 -1.422480 0.140206 -1.590417
    6 -0.488518 -2.755602 -0.228260 -0.386023 0.154051 0.089383
    7 0.039887 -1.479790 0.029854 -1.069855 0.000000 0.000001
    8 0.028786 -1.075731 -0.023109 -0.283004 0.000000 0.000000
    9 0.250027 -2.820665 -0.238396 -0.123262 -0.012053 0.230266
    10 -0.049759 -1.680544 0.100479 -1.728036 0.000000 -0.000002
    11 -0.034142 -1.148312 0.084782 -0.396093 0.000000 0.000000
    12 0.957766 -2.746780 -0.090302 -0.154706 -0.162277 0.191558
    13 -0.033420 -1.397129 -0.011257 -1.399443 0.000000 -0.000001
    14 -0.022360 -0.957436 0.018784 -0.533732 0.000000 0.000000
    15 -1.180681 -2.507217 -0.193859 -0.560746 0.014708 0.217969
    16 -0.024967 -1.123934 0.017597 -0.294339 0.000000 0.000001
    17 -0.020057 -0.890968 0.010090 -0.153594 -0.007802 0.021021
    18 0.583510 -1.197277 0.185379 0.298664 -0.133810 -0.943146
    19 1.535927 0.010246 0.005009 -0.365198 -0.013566 -0.218873
    20 1.100771 0.004527 -0.010679 -0.001777 0.016117 0.067510
    21 0.120153 -0.050270 -0.054489 0.287569 3.110905 1.561085
    22 0.408939 -14.481542 2.682392 1.032266 -3.066289 0.513689
    23 0.096944 -8.450418 -0.009365 1.061745 -0.439789 -0.242813
    24 0.447953 -2.798986 -0.200443 0.063400 -0.106105 0.005771
    25 -0.032909 -1.480204 0.004940 -0.951223 0.000000 0.000002
    26 -0.027022 -1.076920 -0.020210 -0.267936 0.000000 0.000000
    27 -0.249534 -2.846964 -0.174213 0.132472 -0.000125 -0.008396
    28 0.043235 -1.683941 0.096012 -1.088239 0.002823 -0.000167
    29 0.031729 -1.160830 0.058838 -0.227901 0.000642 0.008372
    30 -0.963866 -2.785145 -0.085350 0.498339 0.162612 -0.001720
    31 0.028479 -1.403067 0.006271 -0.861398 0.000000 0.000000
    32 0.021413 -0.957781 0.020046 -0.392959 0.000000 0.000000
    33 1.164475 -2.543940 -0.170330 0.192058 0.028640 -0.027609
    34 0.024032 -1.129042 0.017807 -0.797294 0.000000 0.000001
    35 0.014898 -0.883989 -0.019848 -0.451007 0.000000 0.000000
    36 -0.676616 -1.377762 0.418918 -0.421110 0.588474 -2.651141
    37 1.425176 0.207123 0.052005 0.601676 -0.595176 0.471753
    38 1.117947 0.048424 -0.005766 -0.017057 -0.018559 0.799461
    39 -0.041740 0.021119 -0.243423 0.418939 0.632819 1.806394
    40 -7.038174 6.628172 -0.282403 1.574392 -0.010596 -0.787827
  time 17
    0 0.001154 -0.567689 -22.617259 0.000000 0.000000 0.000000
    1 18.228344 -7.912975 9.516934 1.044536 -2.592606 -1.314246
    2 -0.071921 -8.498736 -0.104134 -0.325296 0.139489 0.145782
    3 -1.879609 -3.584201 0.911484 0.319420 -0.199572 0.342651
    4 -2.855127 1.648684 1.176711 0.050587 0.000000 -3.140162
    5 1.343120 8.715708 1.092419 -1.422480 0.140206 -1.590417
    6 -0.488518 -2.755602 -0.228260 -0.385842 0.144691 0.093125
    7 0.039887 -1.479790 0.029854 -1.069855 0.000000 0.000001
    8 0.028786 -1.075731 -0.023109 -0.281229 0.000000 0.000000
    9 0.250027 -2.820665 -0.238396 -0.116383 -0.012053 0.230266
    10 -0.049759 -1.680544 0.100479 -1.714119 0.000000 -0.000002
    11 -0.034142 -1.148312 0.084782 -0.398298 0.000000 0.000000
    12 0.957766 -2.746780 -0.090302 -0.141714 -0.162277 0.191558
    13 -0.033420 -1.397129 -0.011257 -1.385565 0.000000 -0.000001
    14 -0.022360 -0.957436 0.018784 -0.534882 0.000000 0.000000
    15 -1.180681 -2.507217 -0.193859 -0.548078 0.012419 0.215963
    16 -0.024967 -1.123934 0.017597 -0.311387 0.000000 0.000001
    17 -0.020057 -0.890968 0.010090 -0.165926 -0.007071 0.019055
    18 0.583510 -1.197277 0.185379 0.302020 -0.133810 -0.943146
    19 1.535927 0.010246 0.005009 -0.365198 -0.013554 -0.218859
    20 1.100771 0.004527 -0.010679 -0.001777 0.016117 0.067450
    21 0.120153 -0.050270 -0.054489 0.287569 3.110905 1.561085
    22 0.405033 -14.485448 2.783958 1.030839 -3.073118 0.522882
    23 0.096944 -8.450418 -0.009365 1.050705 -0.445986 -0.228734
    24 0.447953 -2.798986 -0.200443 0.061234 -0.101898 0.006035
    25 -0.032909 -1.480204 0.004940 -0.945755 0.000000 0.000002
    26 -0.027022 -1.076920 -0.020210 -0.278100 0.000000 0.000000
    27 -0.249534 -2.846964 -0.174213 0.131320 -0.000125 -0.008396
    28 0.043235 -1.683941 0.096012 -1.082032 0.002823 -0.000167
    29 0.031729 -1.160830 0.058838 -0.234265 0.000642 0.008372
    30 -0.963866 -2.785145 -0.085350 0.466131 0.162612 -0.001720
    31 0.028479 -1.403067 0.006271 -0.837650 0.000000 0.000000
    32 0.021413 -0.957781 0.020046 -0.392959 0.000000 0.000000
    33 1.164475 -2.543940 -0.170330 0.210201 0.028640 -0.027609
    34 0.024032 -1.129042 0.017807 -0.797294 0.000000 0.000001
    35 0.014898 -0.883989 -0.019848 -0.443649 0.000000 0.000000
    36 -0.676616 -1.377762 0.418918 -0.415837 0.574023 -2.654397
    37 1.425176 0.211029 0.048099 0.602042 -0.584077 0.496542
    38 1.117947 0.048424 -0.005766 -0.017045 -0.018571 0.798789
    39 -0.041740 0.021119 -0.243423 0.388152 0.632819 1.806394
    40 -7.038174 6.628172 -0.282403 1.574392 -0.010596 -0.787827
  time 18
    0 0.001154 -0.567689 -22.617259 0.000000 0.000000 0.000000
    1 18.208812 -8.026260 9.720065 1.054342 -2.600696 -1.316650
    2 -0.071921 -8.498736 -0.104134 -0.328406 0.139278 0.125887
    3 -1.879609 -3.584201 0.911484 0.319051 -0.196659 0.344433
    4 -2.855127 1.648684 1.176711 0.050587 0.000000 -3.140162
    5 1.343120 8.715708 1.092419 -1.422480 0.140206 -1.590417
    6 -0.488518 -2.755602 -0.228260 -0.385466 0.125768 0.100702
    7 0.039887 -1.479790 0.029854 -1.069855 0.000000 0.000001
    8 0.028786 -1.075731 -0.023109 -0.276449 0.000000 0.000000
    9 0.250027 -2.820665 -0.238396 -0.100683 -0.012053 0.230266
    10 -0.049759 -1.680544 0.100479 -1.696592 0.000000 -0.000002
    11 -0.034142 -1.148312 0.084782 -0.404182 0.000000 0.000000
    12 0.957766 -2.746780 -0.090302 -0.124680 -0.162277 0.191558
    13 -0.033420 -1.397129 -0.011257 -1.367988 0.000000 -0.000001
    14 -0.022360 -0.957436 0.018784 -0.537930 0.000000 0.000000
    15 -1.180681 -2.507217 -0.193859 -0.517340 0.007242 0.210676
    16 -0.024967 -1.123934 0.017597 -0.347754 0.000000 0.000001
    17 -0.020057 -0.890968 0.010090 -0.186228 -0.006100 0.016455
    18 0.583510 -1.197277 0.185379 0.310984 -0.133810 -0.943146
    19 1.535927 0.010246 0.005009 -0.365198 -0.013530 -0.218788
    20 1.100771 0.004527 -0.010679 -0.001777 0.016117 0.067249
    21 0.120153 -0.050270 -0.054489 0.287569 3.110905 1.561085
    22 0.401127 -14.489355 3.053497 1.026986 -3.080213 0.547684
    23 0.096944 -8.450418 -0.009365 1.037851 -0.452463 -0.214234
    24 0.447953 -2.798986 -0.200443 0.055406 -0.090633 0.006766
    25 -0.032909 -1.480204 0.004940 -0.931019 0.000000 0.000002
    26 -0.027022 -1.076920 -0.020210 -0.305360 0.000000 0.000000
    27 -0.249534 -2.846964 -0.174213 0.128250 -0.000125 -0.008396
    28 0.043235 -1.683941 0.096012 -1.065448 0.002823 -0.000167
    29 0.031729 -1.160830 0.058838 -0.251312 0.000642 0.008372
    30 -0.963866 -2.785145 -0.085350 0.392982 0.162612 -0.001720
    31 0.028479 -1.403067 0.006271 -0.773987 0.000000 0.000000
    32 0.021413 -0.957781 0.020046 -0.392959 0.000000 0.000000
    33 1.164475 -2.543940 -0.170330 0.229045 0.028640 -0.027609
    34 0.024032 -1.129042 0.017807 -0.797294 0.000000 0.000001
    35 0.014898 -0.883989 -0.019848 -0.423946 0.000000 0.000000
    36 -0.676616 -1.377762 0.418918 -0.410264 0.538322 -2.651528
    37 1.429082 0.214936 0.044193 0.602651 -0.553397 0.522934
    38 1.117947 0.048424 -0.005766 -0.016997 -0.018606 0.796414
    39 -0.041740 0.021119 -0.243423 0.360225 0.632819 1.806394
    40 -7.038174 6.628172 -0.282403 1.574392 -0.010596 -0.787827
  time 19
    0 0.001154 -0.567689 -22.617259 0.000000 0.000000 0.000000
    1 18.177562 -8.139544 9.942728 1.068688 -2.612617 -1.320174
    2 -0.071921 -8.498736 -0.104134 -0.331052 0.138687 0.103440
    3 -1.879609 -3.584201 0.911484 0.318549 -0.192417 0.346979
    4 -2.855127 1.648684 1.176711 0.050587 0.000000 -3.140162
    5 1.343120 8.715708 1.092419 -1.422480 0.140206 -1.590417
    6 -0.488518 -2.755602 -0.228260 -0.384895 0.100133 0.110984
    7 0.039887 -1.479790 0.029854 -1.069855 0.000000 0.000001
    8 0.028786 -1.075731 -0.023109 -0.269529 0.000000 0.000000
    9 0.250027 -2.820665 -0.238396 -0.078739 -0.012053 0.230266
    10 -0.049759 -1.680544 0.100479 -1.676793 0.000000 -0.000002
    11 -0.034142 -1.148312 0.084782 -0.412707 0.000000 0.000000
    12 0.957766 -2.746780 -0.090302 -0.105096 -0.162277 0.191558
    13 -0.033420 -1.397129 -0.011257 -1.348202 0.000000 -0.000001
    14 -0.022360 -0.957436 0.018784 -0.542355 0.000000 0.000000
    15 -1.180681 -2.507217 -0.193859 -0.473756 0.000027 0.203037
    16 -0.024967 -1.123934 0.017597 -0.397717 0.000000 0.000001
    17 -0.020057 -0.890968 0.010090 -0.211983 -0.004998 0.013471
    18 0.583510 -1.197277 0.185379 0.323964 -0.133810 -0.943146
    19 1.535927 0.010246 0.005009 -0.365198 -0.013494 -0.218703
    20 1.100771 0.004527 -0.010679 -0.001777 0.016117 0.066947
    21 0.120153 -0.050270 -0.054489 0.287569 3.110905 1.561085
    22 0.397220 -14.489355 3.444134 1.021374 -3.087397 0.583587
    23 0.096944 -8.450418 -0.009365 1.023955 -0.458940 -0.199845
    24 0.447953 -2.798986 -0.200443 0.047010 -0.074310 0.007797
    25 -0.032909 -1.480204 0.004940 -0.909722 0.000000 0.000002
    26 -0.027022 -1.076920 -0.020210 -0.344823 0.000000 0.000000
    27 -0.249534 -2.846964 -0.174213 0.123796 -0.000125 -0.008396
    28 0.043235 -1.683941 0.096012 -1.041407 0.002823 -0.000167
    29 0.031729 -1.160830 0.058838 -0.276020 0.000642 0.008372
    30 -0.963866 -2.785145 -0.085350 0.314012 0.162612 -0.001720
    31 0.028479 -1.403067 0.006271 -0.681800 0.000000 0.000000
    32 0.021413 -0.957781 0.020046 -0.392959 0.000000 0.000000
    33 1.164475 -2.543940 -0.170330 0.247802 0.028640 -0.027609
    34 0.024032 -1.129042 0.017807 -0.797294 0.000000 0.000001
    35 0.014898 -0.883989 -0.019848 -0.395411 0.000000 0.000000
    36 -0.676616 -1.377762 0.418918 -0.405806 0.485975 -2.644996
    37 1.429082 0.218842 0.040286 0.603503 -0.507321 0.549735
    38 1.117947 0.048424 -0.005766 -0.016914 -0.018678 0.791866
    39 -0.041740 0.021119 -0.243423 0.335374 0.632819 1.806394
    40 -7.038174 6.628172 -0.282403 1.574392 -0.010596 -0.787827
  time 20
    0 0.001154 -0.567689 -22.617259 0.000000 0.000000 0.000000
    1 18.142404 -8.252829 10.173204 1.085849 -2.627349 -1.324436
    2 -0.071921 -8.498736 -0.104134 -0.333279 0.137652 0.080058
    3 -1.879609 -3.584201 0.911484 0.318012 -0.187337 0.349949
    4 -2.855127 1.648684 1.176711 0.050587 0.000000 -3.140162
    5 1.343120 8.715708 1.092419 -1.422480 0.140206 -1.590417
    6 -0.488518 -2.755602 -0.228260 -0.384173 0.070638 0.122869
    7 0.039887 -1.479790 0.029854 -1.069855 0.000000 0.000001
    8 0.028786 -1.075731 -0.023109 -0.261335 0.000000 0.000000
    9 0.250027 -2.820665 -0.238396 -0.053116 -0.012053 0.230266
    10 -0.049759 -1.680544 0.100479 -1.656179 0.000000 -0.000002
    11 -0.034142 -1.148312 0.084782 -0.422822 0.000000 0.000000
    12 0.957766 -2.746780 -0.090302 -0.084442 -0.162277 0.191558
    13 -0.033420 -1.397129 -0.011257 -1.327600 0.000000 -0.000001
    14 -0.022360 -0.957436 0.018784 -0.547598 0.000000 0.000000
    15 -1.180681 -2.507217 -0.193859 -0.422532 -0.008374 0.193996
    16 -0.024967 -1.123934 0.017597 -0.455572 0.000000 0.000001
    17 -0.020057 -0.890968 0.010090 -0.240674 -0.003823 0.010307
    18 0.583510 -1.197277 0.185379 0.339352 -0.133810 -0.943146
    19 1.535927 0.010246 0.005009 -0.365198 -0.013458 -0.218590
    20 1.100771 0.004527 -0.010679 -0.001789 0.016117 0.066604
    21 0.120153 -0.050270 -0.054489 0.287569 3.110905 1.561085
    22 0.389408 -14.489355 3.905086 1.014762 -3.094226 0.626254
    23 0.096944 -8.450418 -0.009365 1.009904 -0.465137 -0.186104
    24 0.447953 -2.798986 -0.200443 0.037086 -0.054967 0.009031
    25 -0.032909 -1.480204 0.004940 -0.884461 0.000000 0.000002
    26 -0.027022 -1.076920 -0.020210 -0.391617 0.000000 0.000000
    27 -0.249534 -2.846964 -0.174213 0.118530 -0.000125 -0.008396
    28 0.043235 -1.683941 0.096012 -1.012872 0.002823 -0.000167
    29 0.031729 -1.160830 0.058838 -0.305303 0.000642 0.008372
    30 -0.963866 -2.785145 -0.085350 0.264354 0.162612 -0.001720
    31 0.028479 -1.403067 0.006271 -0.572525 0.000000 0.000000
    32 0.021413 -0.957781 0.020046 -0.392959 0.000000 0.000000
    33 1.164475 -2.543940 -0.170330 0.265770 0.028640 -0.027609
    34 0.024032 -1.129042 0.017807 -0.797294 0.000000 0.000001
    35 0.014898 -0.883989 -0.019848 -0.361578 0.000000 0.000000
    36 -0.676616 -1.377762 0.418918 -0.403493 0.421615 -2.636837
    37 1.429082 0.226655 0.036380 0.604599 -0.450109 0.575752
    38 1.117947 0.048424 -0.005766 -0.016782 -0.018798 0.784630
    39 -0.041740 0.021119 -0.243423 0.313771 0.632819 1.806394
    40 -7.038174 6.628172 -0.282403 1.574392 -0.010596 -0.787827
  time 21
    0 0.001154 -0.567689 -22.617259 0.000000 0.000000 0.000000
    1 18.103341 -8.362207 10.391961 1.104009 -2.643699 -1.328998
    2 -0.071921 -8.498736 -0.104134 -0.335089 0.136195 0.057347
    3 -1.879609 -3.584201 0.911484 0.317443 -0.181944 0.353004
    4 -2.855127 1.648684 1.176711 0.050587 0.000000 -3.140162
    5 1.343120 8.715708 1.092419 -1.422480 0.140206 -1.590417
    6 -0.488518 -2.755602 -0.228260 -0.383361 0.040126 0.135199
    7 0.039887 -1.479790 0.029854 -1.069855 0.000000 0.000001
    8 0.028786 -1.075731 -0.023109 -0.252700 0.000000 0.000000
    9 0.250027 -2.820665 -0.238396 -0.026390 -0.012053 0.230266
    10 -0.049759 -1.680544 0.100479 -1.636148 0.000000 -0.000002
    11 -0.034142 -1.148312 0.084782 -0.433449 0.000000 0.000000
    12 0.957766 -2.746780 -0.090302 -0.064208 -0.162277 0.191558
    13 -0.033420 -1.397129 -0.011257 -1.307575 0.000000 -0.000001
    14 -0.022360 -0.957436 0.018784 -0.553103 0.000000 0.000000
    15 -1.180681 -2.507217 -0.193859 -0.368893 -0.017123 0.184480
    16 -0.024967 -1.123934 0.017597 -0.515677 0.000000 0.000001
    17 -0.020057 -0.890968 0.010090 -0.269784 -0.002673 0.007203
    18 0.583510 -1.197277 0.185379 0.355543 -0.133810 -0.943146
    19 1.535927 0.010246 0.005009 -0.365198 -0.013410 -0.218477
    20 1.100771 0.004527 -0.010679 -0.001789 0.016117 0.066242
    21 0.120153 -0.050270 -0.054489 0.287569 3.110905 1.561085
    22 0.381595 -14.489355 4.393382 1.007817 -3.100612 0.671089
    23 0.096944 -8.450418 -0.009365 0.996471 -0.470773 -0.173584
    24 0.447953 -2.798986 -0.200443 0.026691 -0.034605 0.010314
    25 -0.032909 -1.480204 0.004940 -0.857860 0.000000 0.000002
    26 -0.027022 -1.076920 -0.020210 -0.440847 0.000000 0.000000
    27 -0.249534 -2.846964 -0.174213 0.112973 -0.000125 -0.008396
    28 0.043235 -1.683941 0.096012 -0.982901 0.002823 -0.000167
    29 0.031729 -1.160830 0.058838 -0.336099 0.000642 0.008372
    30 -0.963866 -2.785145 -0.085350 0.245205 0.162612 -0.001720
    31 0.028479 -1.403067 0.006271 -0.457554 0.000000 0.000000
    32 0.021413 -0.957781 0.020046 -0.392959 0.000000 0.000000
    33 1.164475 -2.543940 -0.170330 0.282138 0.028640 -0.027609
    34 0.024032 -1.129042 0.017807 -0.797294 0.000000 0.000001
    35 0.014898 -0.883989 -0.019848 -0.325984 0.000000 0.000000
    36 -0.676616 -1.377762 0.418918 -0.403601 0.350122 -2.628291
    37 1.429082 0.234468 0.028567 0.605908 -0.386002 0.599723
    38 1.117947 0.048424 -0.005766 -0.016578 -0.018978 0.774235
    39 -0.041740 0.021119 -0.243423 0.295649 0.632819 1.806394
    40 -7.038174 6.628172 -0.282403 1.574392 -0.010596 -0.787827
  time 22
    0 0.001154 -0.567689 -22.617259 0.000000 0.000000 0.000000
    1 18.068183 -8.471586 10.587279 1.121715 -2.660560 -1.333478
    2 -0.071921 -8.498736 -0.104134 -0.336459 0.134337 0.036914
    3 -1.879609 -3.584201 0.911484 0.316940 -0.176775 0.355890
    4 -2.855127 1.648684 1.176711 0.050587 0.000000 -3.140162
    5 1.343120 8.715708 1.092419 -1.422480 0.140206 -1.590417
    6 -0.488518 -2.755602 -0.228260 -0.382520 0.011447 0.146834
    7 0.039887 -1.479790 0.029854 -1.069855 0.000000 0.000001
    8 0.028786 -1.075731 -0.023109 -0.244506 0.000000 0.000000
    9 0.250027 -2.820665 -0.238396 -0.001127 -0.012053 0.230266
    10 -0.049759 -1.680544 0.100479 -1.618096 0.000000 -0.000002
    11 -0.034142 -1.148312 0.084782 -0.443563 0.000000 0.000000
    12 0.957766 -2.746780 -0.090302 -0.045875 -0.162277 0.191558
    13 -0.033420 -1.397129 -0.011257 -1.289518 0.000000 -0.000001
    14 -0.022360 -0.957436 0.018784 -0.558346 0.000000 0.000000
    15 -1.180681 -2.507217 -0.193859 -0.318084 -0.025380 0.175417
    16 -0.024967 -1.123934 0.017597 -0.572329 0.000000 0.000001
    17 -0.020057 -0.890968 0.010090 -0.296798 -0.001630 0.004398
    18 0.583510 -1.197277 0.185379 0.370931 -0.133810 -0.943128
    19 1.535927 0.010246 0.005009 -0.365210 -0.013374 -0.218377
    20 1.100771 0.004527 -0.010679 -0.001801 0.016105 0.065900
    21 0.120153 -0.050270 -0.054489 0.287569 3.110905 1.561085
    22 0.369876 -14.489355 4.854334 1.001253 -3.106022 0.713756
    23 0.096944 -8.450418 -0.009365 0.984582 -0.475624 -0.162835
    24 0.447953 -2.798986 -0.200443 0.016851 -0.015262 0.011536
    25 -0.032909 -1.480204 0.004940 -0.832598 0.000000 0.000002
    26 -0.027022 -1.076920 -0.020210 -0.487641 0.000000 0.000000
    27 -0.249534 -2.846964 -0.174213 0.107707 -0.000125 -0.008396
    28 0.043235 -1.683941 0.096012 -0.954412 0.002823 -0.000167
    29 0.031729 -1.160830 0.058838 -0.365382 0.000642 0.008372
    30 -0.963866 -2.785145 -0.085350 0.233184 0.162612 -0.001720
    31 0.028479 -1.403067 0.006271 -0.348279 0.000000 0.000000
    32 0.021413 -0.957781 0.020046 -0.392959 0.000000 0.000000
    33 1.164475 -2.543940 -0.170330 0.296183 0.028640 -0.027609
    34 0.024032 -1.129042 0.017807 -0.797294 0.000000 0.000001
    35 0.014898 -0.883989 -0.019848 -0.292152 0.000000 0.000000
    36 -0.676616 -1.377762 0.418918 -0.405686 0.276372 -2.619745
    37 1.429082 0.242280 0.024661 0.607431 -0.319203 0.620557
    38 1.117947 0.048424 -0.005766 -0.016314 -0.019206 0.760189
    39 -0.041740 0.021119 -0.243423 0.281223 0.632819 1.806394
    40 -7.038174 6.628172 -0.282403 1.574392 -0.010596 -0.787827
  time 23
    0 0.001154 -0.567689 -22.617259 0.000000 0.000000 0.000000
    1 18.036932 -8.569245 10.743534 1.137060 -2.676654 -1.337467
    2 -0.071921 -8.498736 -0.104134 -0.337410 0.132142 0.020363
    3 -1.879609 -3.584201 0.911484 0.316538 -0.172383 0.358181
    4 -2.855127 1.648684 1.176711 0.050587 0.000000 -3.140162
    5 1.343120 8.715708 1.092419 -1.422480 0.140206 -1.590417
    6 -0.488518 -2.755602 -0.228260 -0.381783 -0.012547 0.156578
    7 0.039887 -1.479790 0.029854 -1.069855 0.000000 0.000001
    8 0.028786 -1.075731 -0.023109 -0.237586 0.000000 0.000000
    9 0.250027 -2.820665 -0.238396 0.020098 -0.012053 0.230266
    10 -0.049759 -1.680544 0.100479 -1.603480 0.000000 -0.000002
    11 -0.034142 -1.148312 0.084782 -0.452088 0.000000 0.000000
    12 0.957766 -2.746780 -0.090302 -0.030947 -0.162277 0.191558
    13 -0.033420 -1.397129 -0.011257 -1.274871 0.000000 -0.000001
    14 -0.022360 -0.957436 0.018784 -0.562771 0.000000 0.000000
    15 -1.180681 -2.507217 -0.193859 -0.275332 -0.032331 0.167778
    16 -0.024967 -1.123934 0.017597 -0.619825 0.000000 0.000001
    17 -0.020057 -0.890968 0.010090 -0.319209 -0.000779 0.002097
    18 0.583510 -1.197277 0.185379 0.383923 -0.133810 -0.943146
    19 1.535927 0.010246 0.005009 -0.365210 -0.013339 -0.218278
    20 1.100771 0.004527 -0.010679 -0.001801 0.016105 0.065597
    21 0.120153 -0.050270 -0.054489 0.287569 3.110905 1.561085
    22 0.358157 -14.493261 5.244971 0.995735 -3.110279 0.749745
    23 0.096944 -8.450418 -0.009365 0.975048 -0.479409 -0.154461
    24 0.447953 -2.798986 -0.200443 0.008572 0.001049 0.012567
    25 -0.032909 -1.480204 0.004940 -0.811301 0.000000 0.000002
    26 -0.027022 -1.076920 -0.020210 -0.527104 0.000000 0.000000
    27 -0.249534 -2.846964 -0.174213 0.103253 -0.000125 -0.008396
    28 0.043235 -1.683941 0.096012 -0.930371 0.002823 -0.000167
    29 0.031729 -1.160830 0.058838 -0.390070 0.000642 0.008372
    30 -0.963866 -2.785145 -0.085350 0.226655 0.162612 -0.001720
    31 0.028479 -1.403067 0.006271 -0.256136 0.000000 0.000000
    32 0.021413 -0.957781 0.020046 -0.392959 0.000000 0.000000
    33 1.164475 -2.543940 -0.170330 0.307161 0.028640 -0.027609
    34 0.024032 -1.129042 0.017807 -0.797294 0.000000 0.000001
    35 0.014898 -0.883989 -0.019848 -0.263616 0.000000 0.000000
    36 -0.676616 -1.377762 0.418918 -0.408718 0.205458 -2.611057
    37 1.432989 0.250093 0.020754 0.609105 -0.253953 0.636958
    38 1.117947 0.048424 -0.005766 -0.015955 -0.019505 0.741976
    39 -0.041740 0.021119 -0.243423 0.270639 0.632819 1.806394
    40 -7.038174 6.628172 -0.282403 1.574392 -0.010596 -0.787827
  time 24
    0 0.001154 -0.567689 -22.617259 0.000000 0.000000 0.000000
    1 18.017400 -8.662998 10.849006 1.148501 -2.690875 -1.340554
    2 -0.071921 -8.498736 -0.104134 -0.337967 0.129714 0.009301
    3 -1.879609 -3.584201 0.911484 0.316270 -0.169321 0.359709
    4 -2.855127 1.648684 1.176711 0.050587 0.000000 -3.140162
    5 1.343120 8.715708 1.092419 -1.422480 0.140206 -1.590417
    6 -0.488518 -2.755602 -0.228260 -0.381242 -0.029037 0.163288
    7 0.039887 -1.479790 0.029854 -1.069855 0.000000 0.000001
    8 0.028786 -1.075731 -0.023109 -0.232806 0.000000 0.000000
    9 0.250027 -2.820665 -0.238396 0.034719 -0.012053 0.230266
    10 -0.049759 -1.680544 0.100479 -1.593639 0.000000 -0.000002
    11 -0.034142 -1.148312 0.084782 -0.457972 0.000000 0.000000
    12 0.957766 -2.746780 -0.090302 -0.020890 -0.162277 0.191558
    13 -0.033420 -1.397129 -0.011257 -1.265074 0.000000 -0.000001
    14 -0.022360 -0.957436 0.018784 -0.565819 0.000000 0.000000
    15 -1.180681 -2.507217 -0.193859 -0.245840 -0.037101 0.162513
    16 -0.024967 -1.123934 0.017597 -0.652502 0.000000 0.000001
    17 -0.020057 -0.890968 0.010090 -0.334501 -0.000204 0.000563
    18 0.583510 -1.197277 0.185379 0.392887 -0.133810 -0.943128
    19 1.535927 0.010246 0.005009 -0.365210 -0.013315 -0.218222
    20 1.100771 0.004527 -0.010679 -0.001813 0.016105 0.065396
    21 0.120153 -0.050270 -0.054489 0.287569 3.110905 1.561085
    22 0.346437 -14.493261 5.514510 0.991930 -3.113029 0.774547
    23 0.096944 -8.450418 -0.009365 0.968679 -0.481849 -0.149023
    24 0.447953 -2.798986 -0.200443 0.002879 0.012315 0.013274
    25 -0.032909 -1.480204 0.004940 -0.796566 0.000000 0.000002
    26 -0.027022 -1.076920 -0.020210 -0.554364 0.000000 0.000000
    27 -0.249534 -2.846964 -0.174213 0.100183 -0.000125 -0.008396
    28 0.043235 -1.683941 0.096012 -0.913741 0.002823 -0.000167
    29 0.031729 -1.160830 0.058838 -0.407137 0.000642 0.008372
    30 -0.963866 -2.785145 -0.085350 0.223948 0.162612 -0.001720
    31 0.028479 -1.403067 0.006271 -0.192472 0.000000 0.000000
    32 0.021413 -0.957781 0.020046 -0.392959 0.000000 0.000000
    33 1.164475 -2.543940 -0.170330 0.314282 0.028640 -0.027609
    34 0.024032 -1.129042 0.017807 -0.797294 0.000000 0.000001
    35 0.014898 -0.883989 -0.019848 -0.243902 0.000000 0.000000
    36 -0.676616 -1.377762 0.418918 -0.411295 0.142440 -2.601717
    37 1.432989 0.253999 0.016848 0.610932 -0.194492 0.647836
    38 1.117947 0.048424 -0.005766 -0.015511 -0.019865 0.719125
    39 -0.041740 0.021119 -0.243423 0.264141 0.632819 1.806394
    40 -7.038174 6.628172 -0.282403 1.574392 -0.010596 -0.787827
  time 25
    0 0.001154 -0.567689 -22.617259 0.000000 0.000000 0.000000
    1 18.009588 -8.748938 10.888069 1.154312 -2.702030 -1.342384
    2 -0.071921 -8.498736 -0.104134 -0.338153 0.127117 0.005310
    3 -1.879609 -3.584201 0.911484 0.316169 -0.168185 0.360303
    4 -2.855127 1.648684 1.176711 0.050587 0.000000 -3.140162
    5 1.343120 8.715708 1.092419 -1.422480 0.140206 -1.590417
    6 -0.488518 -2.755602 -0.228260 -0.381031 -0.035162 0.165783
    7 0.039887 -1.479790 0.029854 -1.069855 0.000000 0.000001
    8 0.028786 -1.075731 -0.023109 -0.231031 0.000000 0.000000
    9 0.250027 -2.820665 -0.238396 0.040160 -0.012053 0.230266
    10 -0.049759 -1.680544 0.100479 -1.590087 0.000000 -0.000002
    11 -0.034142 -1.148312 0.084782 -0.460177 0.000000 0.000000
    12 0.957766 -2.746780 -0.090302 -0.017221 -0.162277 0.191558
    13 -0.033420 -1.397129 -0.011257 -1.261472 0.000000 -0.000001
    14 -0.022360 -0.957436 0.018784 -0.566969 0.000000 0.000000
    15 -1.180681 -2.507217 -0.193859 -0.234855 -0.038887 0.160527
    16 -0.024967 -1.123934 0.017597 -0.664637 0.000000 0.000001
    17 -0.020057 -0.890968 0.010090 -0.340158 0.000000 0.000000
    18 0.583510 -1.197277 0.185379 0.396231 -0.133810 -0.943128
    19 1.535927 0.010246 0.005009 -0.365210 -0.013303 -0.218193
    20 1.100771 0.004527 -0.010679 -0.001813 0.016105 0.065336
    21 0.120153 -0.050270 -0.054489 0.287569 3.110905 1.561085
    22 0.334718 -14.497168 5.616076 0.990503 -3.114004 0.783827
    23 0.096944 -8.450418 -0.009365 0.966363 -0.482746 -0.147084
    24 0.447953 -2.798986 -0.200443 0.000747 0.016521 0.013537
    25 -0.032909 -1.480204 0.004940 -0.791070 0.000000 0.000002
    26 -0.027022 -1.076920 -0.020210 -0.564547 0.000000 0.000000
    27 -0.249534 -2.846964 -0.174213 0.099043 -0.000125 -0.008396
    28 0.043235 -1.683941 0.096012 -0.907534 0.002823 -0.000167
    29 0.031729 -1.160830 0.058838 -0.413501 0.000642 0.008372
    30 -0.963866 -2.785145 -0.085350 0.223413 0.162612 -0.001720
    31 0.028479 -1.403067 0.006271 -0.168681 0.000000 0.000000
    32 0.021413 -0.957781 0.020046 -0.392959 0.000000 0.000000
    33 1.164475 -2.543940 -0.170330 0.316824 0.028640 -0.027609
    34 0.024032 -1.129042 0.017807 -0.797294 0.000000 0.000001
    35 0.014898 -0.883989 -0.019848 -0.236543 0.000000 0.000000
    36 -0.676616 -1.377762 0.418918 -0.411834 0.092471 -2.591157
    37 1.432989 0.253999 0.016848 0.612820 -0.145061 0.651893
    38 1.117947 0.048424 -0.005766 -0.014948 -0.020284 0.691122
    39 -0.041740 0.021119 -0.243423 0.261931 0.632819 1.806394
    40 -7.038174 6.628172 -0.282403 1.574392 -0.010596 -0.787827
  time 26
    0 0.001154 -0.567689 -22.617259 0.000000 0.000000 0.000000
    1 18.009588 -8.811440 10.829474 1.156309 -2.709779 -1.343231
    2 -0.071921 -8.498736 -0.104134 -0.336575 0.122958 0.013088
    3 -1.879609 -3.584201 0.911484 0.316169 -0.168185 0.360303
    4 -2.855127 1.648684 1.176711 0.050587 0.000000 -3.140162
    5 1.343120 8.715708 1.092419 -1.422480 0.140206 -1.590417
    6 -0.488518 -2.755602 -0.228260 -0.381031 -0.035162 0.165783
    7 0.039887 -1.479790 0.029854 -1.069855 0.000000 0.000001
    8 0.028786 -1.075731 -0.023109 -0.231031 0.000000 0.000000
    9 0.250027 -2.820665 -0.238396 0.040160 -0.012053 0.230266
    10 -0.049759 -1.680544 0.100479 -1.590087 0.000000 -0.000002
    11 -0.034142 -1.148312 0.084782 -0.460164 0.000000 0.000000
    12 0.957766 -2.746780 -0.090302 -0.017221 -0.162277 0.191558
    13 -0.033420 -1.397129 -0.011257 -1.261472 0.000000 -0.000001
    14 -0.022360 -0.957436 0.018784 -0.566969 0.000000 0.000000
    15 -1.180681 -2.507217 -0.193859 -0.234855 -0.038887 0.160527
    16 -0.024967 -1.123934 0.017597 -0.664637 0.000000 0.000001
    17 -0.020057 -0.890968 0.010090 -0.340158 0.000000 0.000000
    18 0.583510 -1.197277 0.185379 0.396231 -0.133810 -0.943146
    19 1.535927 0.010246 0.005009 -0.365210 -0.013303 -0.218193
    20 1.100771 0.004527 -0.010679 -0.001813 0.016105 0.065336
    21 0.120153 -0.050270 -0.054489 0.287569 3.110905 1.561085
    22 0.319093 -14.614359 5.604357 0.991835 -3.112674 0.783827
    23 0.096944 -8.450418 -0.009365 0.972732 -0.467857 -0.153519
    24 0.447953 -2.798986 -0.200443 0.000747 0.016521 0.013537
    25 -0.032909 -1.480204 0.004940 -0.791070 0.000000 0.000002
    26 -0.027022 -1.076920 -0.020210 -0.564547 0.000000 0.000000
    27 -0.249534 -2.846964 -0.174213 0.099043 -0.000125 -0.008396
    28 0.043235 -1.683941 0.096012 -0.907534 0.002823 -0.000167
    29 0.031729 -1.160830 0.058838 -0.413501 0.000642 0.008372
    30 -0.963866 -2.785145 -0.085350 0.223413 0.162612 -0.001720
    31 0.028479 -1.403067 0.006271 -0.168681 0.000000 0.000000
    32 0.021413 -0.957781 0.020046 -0.392959 0.000000 0.000000
    33 1.164475 -2.543940 -0.170330 0.316824 0.028640 -0.027609
    34 0.024032 -1.129042 0.017807 -0.797294 0.000000 0.000001
    35 0.014898 -0.883989 -0.019848 -0.236543 0.000000 0.000000
    36 -0.676616 -1.377762 0.418918 -0.405638 0.058813 -2.563424
    37 1.432989 0.253999 0.016848 0.615560 -0.101677 0.629968
    38 1.117947 0.048424 -0.005766 -0.013150 -0.021495 0.605343
    39 -0.041740 0.021119 -0.243423 0.261931 0.632819 1.806394
    40 -7.038174 6.628172 -0.282403 1.574392 -0.010596 -0.787827
  time 27
    0 0.001154 -0.567689 -22.617259 0.000000 0.000000 0.000000
    1 18.009588 -8.858316 10.688845 1.157671 -2.714804 -1.343777
    2 -0.071921 -8.498736 -0.104134 -0.332862 0.116793 0.031473
    3 -1.879609 -3.584201 0.911484 0.316203 -0.168185 0.360303
    4 -2.855127 1.648684 1.176711 0.050587 0.000000 -3.140162
    5 1.343120 8.715708 1.092419 -1.422480 0.140206 -1.590417
    6 -0.488518 -2.755602 -0.228260 -0.381031 -0.035162 0.165783
    7 0.039887 -1.479790 0.029854 -1.069855 0.000000 0.000001
    8 0.028786 -1.075731 -0.023109 -0.231031 0.000000 0.000000
    9 0.250027 -2.820665 -0.238396 0.040160 -0.012053 0.230266
    10 -0.049759 -1.680544 0.100479 -1.590087 0.000000 -0.000002
    11 -0.034142 -1.148312 0.084782 -0.460177 0.000000 0.000000
    12 0.957766 -2.746780 -0.090302 -0.017221 -0.162277 0.191558
    13 -0.033420 -1.397129 -0.011257 -1.261472 0.000000 -0.000001
    14 -0.022360 -0.957436 0.018784 -0.566969 0.000000 0.000000
    15 -1.180681 -2.507217 -0.193859 -0.234855 -0.038887 0.160527
    16 -0.024967 -1.123934 0.017597 -0.664637 0.000000 0.000001
    17 -0.020057 -0.890968 0.010090 -0.340158 0.000000 0.000000
    18 0.583510 -1.197277 0.185379 0.396231 -0.133810 -0.943146
    19 1.535927 0.010246 0.005009 -0.365210 -0.013303 -0.218193
    20 1.100771 0.004527 -0.010679 -0.001813 0.016105 0.065336
    21 0.120153 -0.050270 -0.054489 0.287569 3.110905 1.561085
    22 0.299561 -14.895617 5.573106 0.994974 -3.109570 0.783653
    23 0.096944 -8.450418 -0.009365 0.987786 -0.432302 -0.168652
    24 0.447953 -2.798986 -0.200443 0.000747 0.016521 0.013537
    25 -0.032909 -1.480204 0.004940 -0.791070 0.000000 0.000002
    26 -0.027022 -1.076920 -0.020210 -0.564547 0.000000 0.000000
    27 -0.249534 -2.846964 -0.174213 0.099043 -0.000125 -0.008396
    28 0.043235 -1.683941 0.096012 -0.907534 0.002823 -0.000167
    29 0.031729 -1.160830 0.058838 -0.413501 0.000642 0.008372
    30 -0.963866 -2.785145 -0.085350 0.223413 0.162612 -0.001720
    31 0.028479 -1.403067 0.006271 -0.168681 0.000000 0.000000
    32 0.021413 -0.957781 0.020046 -0.392959 0.000000 0.000000
    33 1.164475 -2.543940 -0.170330 0.316824 0.028640 -0.027609
    34 0.024032 -1.129042 0.017807 -0.797294 0.000000 0.000001
    35 0.014898 -0.883989 -0.019848 -0.236543 0.000000 0.000000
    36 -0.676616 -1.377762 0.418918 -0.391844 0.039606 -2.513064
    37 1.432989 0.253999 0.016848 0.619397 -0.060432 0.577252
    38 1.117947 0.048424 -0.005766 -0.009555 -0.023316 0.445211
    39 -0.041740 0.021119 -0.243423 0.261931 0.632819 1.806394
    40 -7.038174 6.628172 -0.282403 1.574392 -0.010596 -0.787827
  time 28
    0 0.001154 -0.567689 -22.617259 0.000000 0.000000 0.000000
    1 18.009588 -8.881755 10.524777 1.158398 -2.717784 -1.344078
    2 -0.071921 -8.498736 -0.104134 -0.328429 0.110206 0.053333
    3 -1.879609 -3.584201 0.911484 0.316169 -0.168185 0.360303
    4 -2.855127 1.648684 1.176711 0.050587 0.000000 -3.140162
    5 1.343120 8.715708 1.092419 -1.422480 0.140206 -1.590417
    6 -0.488518 -2.755602 -0.228260 -0.381031 -0.035162 0.165783
    7 0.039887 -1.479790 0.029854 -1.069855 0.000000 0.000001
    8 0.028786 -1.075731 -0.023109 -0.231031 0.000000 0.000000
    9 0.250027 -2.820665 -0.238396 0.040160 -0.012053 0.230266
    10 -0.049759 -1.680544 0.100479 -1.590087 0.000000 -0.000002
    11 -0.034142 -1.148312 0.084782 -0.460177 0.000000 0.000000
    12 0.957766 -2.746780 -0.090302 -0.017221 -0.162277 0.191558
    13 -0.033420 -1.397129 -0.011257 -1.261472 0.000000 -0.000001
    14 -0.022360 -0.957436 0.018784 -0.566969 0.000000 0.000000
    15 -1.180681 -2.507217 -0.193859 -0.234855 -0.038887 0.160527
    16 -0.024967 -1.123934 0.017597 -0.664637 0.000000 0.000001
    17 -0.020057 -0.890968 0.010090 -0.340158 0.000000 0.000000
    18 0.583510 -1.197277 0.185379 0.396231 -0.133810 -0.943146
    19 1.535927 0.010246 0.005009 -0.365210 -0.013303 -0.218193
    20 1.100771 0.004527 -0.010679 -0.001813 0.016105 0.065336
    21 0.120153 -0.050270 -0.054489 0.287569 3.110905 1.561085
    22 0.276123 -15.223752 5.537948 0.998732 -3.105845 0.783566
    23 0.096944 -8.450418 -0.009365 1.005619 -0.389794 -0.186258
    24 0.447953 -2.798986 -0.200443 0.000747 0.016521 0.013537
    25 -0.032909 -1.480204 0.004940 -0.791070 0.000000 0.000002
    26 -0.027022 -1.076920 -0.020210 -0.564547 0.000000 0.000000
    27 -0.249534 -2.846964 -0.174213 0.099043 -0.000125 -0.008396
    28 0.043235 -1.683941 0.096012 -0.907534 0.002823 -0.000167
    29 0.031729 -1.160830 0.058838 -0.413501 0.000642 0.008372
    30 -0.963866 -2.785145 -0.085350 0.223413 0.162612 -0.001720
    31 0.028479 -1.403067 0.006271 -0.168681 0.000000 0.000000
    32 0.021413 -0.957781 0.020046 -0.392959 0.000000 0.000000
    33 1.164475 -2.543940 -0.170330 0.316824 0.028640 -0.027609
    34 0.024032 -1.129042 0.017807 -0.797294 0.000000 0.000001
    35 0.014898 -0.883989 -0.019848 -0.236543 0.000000 0.000000
    36 -0.676616 -1.377762 0.418918 -0.374862 0.031801 -2.456274
    37 1.432989 0.253999 0.016848 0.623294 -0.025659 0.514171
    38 1.117947 0.048424 -0.005766 -0.005217 -0.024659 0.264378
    39 -0.041740 0.021119 -0.243423 0.261931 0.632819 1.806394
    40 -7.038174 6.628172 -0.282403 1.574392 -0.010596 -0.787827
  time 29
    0 0.001154 -0.567689 -22.617259 0.000000 0.000000 0.000000
    1 18.009588 -8.893474 10.384148 1.158670 -2.719147 -1.344214
    2 -0.071921 -8.498736 -0.104134 -0.324716 0.104907 0.071585
    3 -1.879609 -3.584201 0.911484 0.316169 -0.168185 0.360303
    4 -2.855127 1.648684 1.176711 0.050587 0.000000 -3.140162
    5 1.343120 8.715708 1.092419 -1.422480 0.140206 -1.590417
    6 -0.488518 -2.755602 -0.228260 -0.381031 -0.035162 0.165783
    7 0.039887 -1.479790 0.029854 -1.069855 0.000000 0.000001
    8 0.028786 -1.075731 -0.023109 -0.231031 0.000000 0.000000
    9 0.250027 -2.820665 -0.238396 0.040160 -0.012053 0.230266
    10 -0.049759 -1.680544 0.100479 -1.590087 0.000000 -0.000002
    11 -0.034142 -1.148312 0.084782 -0.460177 0.000000 0.000000
    12 0.957766 -2.746780 -0.090302 -0.017221 -0.162277 0.191558
    13 -0.033420 -1.397129 -0.011257 -1.261472 0.000000 -0.000001
    14 -0.022360 -0.957436 0.018784 -0.566969 0.000000 0.000000
    15 -1.180681 -2.507217 -0.193859 -0.234855 -0.038887 0.160527
    16 -0.024967 -1.123934 0.017597 -0.664637 0.000000 0.000001
    17 -0.020057 -0.890968 0.010090 -0.340158 0.000000 0.000000
    18 0.583510 -1.197277 0.185379 0.396231 -0.133810 -0.943146
    19 1.535927 0.010246 0.005009 -0.365210 -0.013303 -0.218193
    20 1.100771 0.004527 -0.010679 -0.001813 0.016105 0.065336
    21 0.120153 -0.050270 -0.054489 0.287569 3.110905 1.561085
    22 0.260497 -15.501104 5.510604 1.001872 -3.102652 0.783480
    23 0.096944 -8.450418 -0.009365 1.020442 -0.354127 -0.200646
    24 0.447953 -2.798986 -0.200443 0.000747 0.016521 0.013537
    25 -0.032909 -1.480204 0.004940 -0.791070 0.000000 0.000002
    26 -0.027022 -1.076920 -0.020210 -0.564547 0.000000 0.000000
    27 -0.249534 -2.846964 -0.174213 0.099043 -0.000125 -0.008396
    28 0.043235 -1.683941 0.096012 -0.907534 0.002823 -0.000167
    29 0.031729 -1.160830 0.058838 -0.413501 0.000642 0.008372
    30 -0.963866 -2.785145 -0.085350 0.223413 0.162612 -0.001720
    31 0.028479 -1.403067 0.006271 -0.168681 0.000000 0.000000
    32 0.021413 -0.957781 0.020046 -0.392959 0.000000 0.000000
    33 1.164475 -2.543940 -0.170330 0.316824 0.028640 -0.027609
    34 0.024032 -1.129042 0.017807 -0.797294 0.000000 0.000001
    35 0.014898 -0.883989 -0.019848 -0.236543 0.000000 0.000000
    36 -0.676616 -1.377762 0.418918 -0.360013 0.030978 -2.409882
    37 1.432989 0.253999 0.016848 0.626339 -0.001653 0.461285
    38 1.117947 0.048424 -0.005766 -0.001525 -0.025162 0.116522
    39 -0.041740 0.021119 -0.243423 0.261931 0.632819 1.806394
    40 -7.038174 6.628172 -0.282403 1.574392 -0.010596 -0.787827
  time 30
    0 0.001154 -0.567689 -22.617259 0.000000 0.000000 0.000000
    1 18.009588 -8.897380 10.325552 1.158761 -2.719487 -1.344242
    2 -0.071921 -8.498736 -0.104134 -0.323161 0.102711 0.079207
    3 -1.879609 -3.584201 0.911484 0.316169 -0.168185 0.360303
    4 -2.855127 1.648684 1.176711 0.050587 0.000000 -3.140162
    5 1.343120 8.715708 1.092419 -1.422480 0.140206 -1.590417
    6 -0.488518 -2.755602 -0.228260 -0.381031 -0.035162 0.165783
    7 0.039887 -1.479790 0.029854 -1.069855 0.000000 0.000001
    8 0.028786 -1.075731 -0.023109 -0.231031 0.000000 0.000000
    9 0.250027 -2.820665 -0.238396 0.040160 -0.012053 0.230266
    10 -0.049759 -1.680544 0.100479 -1.590087 0.000000 -0.000002
    11 -0.034142 -1.148312 0.084782 -0.460177 0.000000 0.000000
    12 0.957766 -2.746780 -0.090302 -0.017221 -0.162277 0.191558
    13 -0.033420 -1.397129 -0.011257 -1.261472 0.000000 -0.000001
    14 -0.022360 -0.957436 0.018784 -0.566969 0.000000 0.000000
    15 -1.180681 -2.507217 -0.193859 -0.234855 -0.038887 0.160527
    16 -0.024967 -1.123934 0.017597 -0.664637 0.000000 0.000001
    17 -0.020057 -0.890968 0.010090 -0.340158 0.000000 0.000000
    18 0.583510 -1.197277 0.185379 0.396231 -0.133810 -0.943146
    19 1.535927 0.010246 0.005009 -0.365210 -0.013303 -0.218193
    20 1.100771 0.004527 -0.010679 -0.001813 0.016105 0.065336
    21 0.120153 -0.050270 -0.054489 0.287569 3.110905 1.561085
    22 0.252685 -15.618296 5.494978 1.003203 -3.101321 0.783393
    23 0.096944 -8.450418 -0.009365 1.026618 -0.339154 -0.206590
    24 0.447953 -2.798986 -0.200443 0.000747 0.016521 0.013537
    25 -0.032909 -1.480204 0.004940 -0.791070 0.000000 0.000002
    26 -0.027022 -1.076920 -0.020210 -0.564547 0.000000 0.000000
    27 -0.249534 -2.846964 -0.174213 0.099043 -0.000125 -0.008396
    28 0.043235 -1.683941 0.096012 -0.907534 0.002823 -0.000167
    29 0.031729 -1.160830 0.058838 -0.413501 0.000642 0.008372
    30 -0.963866 -2.785145 -0.085350 0.223413 0.162612 -0.001720
    31 0.028479 -1.403067 0.006271 -0.168681 0.000000 0.000000
    32 0.021413 -0.957781 0.020046 -0.392959 0.000000 0.000000
    33 1.164475 -2.543940 -0.170330 0.316824 0.028640 -0.027609
    34 0.024032 -1.129042 0.017807 -0.797294 0.000000 0.000001
    35 0.014898 -0.883989 -0.019848 -0.236543 0.000000 0.000000
    36 -0.676616 -1.377762 0.418918 -0.353613 0.031923 -2.390715
    37 1.432989 0.253999 0.016848 0.627556 0.007289 0.439087
    38 1.117947 0.048424 -0.005766 0.000009 -0.025198 0.055341
    39 -0.041740 0.021119 -0.243423 0.261931 0.632819 1.806394
    40 -7.038174 6.628172 -0.282403 1.574392 -0.010596 -0.787827
end
