version 1
nodes
  0 "Bone01" -1
  1 "Bone_Lefthand" 0
  2 "Bone17" 1
  3 "M14_Bone02" 2
  4 "M14_Bone06" 3
  5 "M14_Bone07" 4
  6 "M14_Bone04" 3
  7 "M14_Bone03" 3
  8 "M14_Bone08" 3
  9 "M14_Bone05" 3
  10 "M14_Bone12" 9
  11 "M14_Bone09" 3
  12 "M14_Bone10" 11
  13 "Bone04" -1
  14 "Bone_Righthand" 13
  15 "Bone39" 14
  16 "Bone40" 15
  17 "Bone41" 16
  18 "Bone35" 14
  19 "Bone36" 18
  20 "Bone37" 19
  21 "Bone31" 14
  22 "Bone32" 21
  23 "Bone33" 22
  24 "Bone43" 14
  25 "Bone44" 24
  26 "Bone45" 25
  27 "Bone27" 14
  28 "Bone28" 27
  29 "Bone29" 28
  30 "Bone_Se_Hand-R" 14
  31 "Bone13" 1
  32 "Bone14" 31
  33 "Bone15" 32
  34 "Bone18" 2
  35 "Bone19" 34
  36 "Bone21" 1
  37 "Bone22" 36
  38 "Bone23" 37
  39 "Bone09" 1
  40 "Bone10" 39
  41 "Bone11" 40
  42 "Bone05" 1
  43 "Bone06" 42
  44 "Bone07" 43
  45 "Bone_Se_Hand-L" 1
end
skeleton
  time 0
    0 11.668544 5.865773 -10.754081 0.934397 -1.907258 -1.453722
    1 -0.072132 -8.498731 -0.104136 0.269866 0.181479 -0.141157
    2 0.250027 -2.820663 -0.238397 -0.758577 0.008668 -0.269408
    3 1.034833 -0.368955 0.962382 1.438903 -5.718261 1.593918
    4 0.000004 7.330805 -0.181574 0.000000 0.000000 0.000000
    5 -0.000006 -4.491440 2.746747 0.000000 0.000000 0.000000
    6 -0.000006 -5.215600 0.521221 0.000000 0.000000 0.000000
    7 -0.000004 -2.584793 0.626897 0.535552 0.000000 0.000000
    8 -0.000006 -3.113141 3.685755 0.000000 0.000000 0.000000
    9 -0.000007 -7.713655 -1.563225 0.000000 0.000000 0.000000
    10 -0.000001 -0.041039 4.583956 0.000000 0.000000 0.000000
    11 -1.112914 -8.867437 2.842189 0.000000 0.000000 0.000000
    12 1.112910 1.686673 0.481230 0.000000 0.000000 0.000000
    13 -1.640473 -9.390476 -12.013804 -1.857312 -5.341361 -0.958646
    14 0.096944 -8.450419 -0.009364 0.644326 -1.866922 -0.245998
    15 0.447952 -2.798982 -0.200442 -0.632555 -0.188188 0.437361
    16 -0.032910 -1.480206 0.004936 -0.767249 0.000000 0.000002
    17 -0.027022 -1.076919 -0.020212 -0.201653 0.000000 0.000000
    18 -0.249534 -2.846962 -0.174215 -0.511235 -0.169887 0.357523
    19 0.043235 -1.683939 0.096014 -0.815272 0.002823 -0.000167
    20 0.031729 -1.160831 0.058836 -0.220793 0.000642 0.008372
    21 -0.963866 -2.785142 -0.085346 0.047962 -0.066833 0.271982
    22 0.028479 -1.403068 0.006271 -0.840839 0.000000 0.000000
    23 0.021413 -0.957782 0.020047 -0.601221 0.000000 0.000000
    24 1.164474 -2.543938 -0.170328 -0.568482 -0.246524 0.363213
    25 0.024032 -1.129043 0.017806 -0.754838 0.000000 0.000001
    26 0.014896 -0.883989 -0.019845 -0.334517 0.000000 0.000000
    27 -0.586770 -1.264475 0.200164 0.343092 -0.969980 -3.051855
    28 1.522835 0.058681 0.016850 0.296124 0.032393 0.392703
    29 1.117948 0.048424 -0.005764 -0.004929 -0.024719 0.252801
    30 -0.014395 -0.010131 0.010491 1.521827 0.323024 1.395694
    31 -0.488517 -2.755600 -0.228261 -0.945124 0.023395 -0.387835
    32 0.039888 -1.479789 0.029853 -1.586857 0.000000 0.000000
    33 0.028785 -1.075730 -0.023111 -0.303352 0.000000 0.000000
    34 -0.049759 -1.680545 0.100480 -1.511590 0.000000 -0.000002
    35 -0.034141 -1.148312 0.084779 -0.918049 0.000000 0.000000
    36 0.957766 -2.746776 -0.090301 0.329094 0.226419 0.013575
    37 -0.033419 -1.397129 -0.011255 -1.244904 0.000000 -0.000001
    38 -0.022361 -0.957434 0.018783 -1.017510 0.000000 0.000000
    39 -1.180680 -2.507215 -0.193861 -0.849276 0.096358 -0.405085
    40 -0.024966 -1.123934 0.017594 -1.517723 0.000000 0.000001
    41 -0.020057 -0.890966 0.010091 -0.909695 0.000000 0.000000
    42 0.583510 -1.197274 0.185377 1.121813 -0.962663 -1.143982
    43 1.535926 0.010245 0.005008 0.283120 -0.138086 -1.134210
    44 1.100770 0.004526 -0.010676 -0.009124 0.013408 -0.421123
    45 0.014680 -0.007296 -0.007612 -2.315981 -0.029003 -1.484436
  time 1
    0 11.668544 5.877493 -10.754081 0.935332 -1.907492 -1.453910
    1 -0.072132 -8.498731 -0.104136 0.269576 0.181575 -0.142147
    2 0.250027 -2.820663 -0.238397 -0.758577 0.008668 -0.269408
    3 1.034833 -0.368955 0.962382 1.438903 -5.718261 1.593918
    4 0.000004 7.330805 -0.181574 0.000000 0.000000 0.000000
    5 -0.000006 -4.491440 2.746747 0.000000 0.000000 0.000000
    6 -0.000006 -5.215600 0.521221 0.000000 0.000000 0.000000
    7 -0.000004 -2.584793 0.626897 0.535552 0.000000 0.000000
    8 -0.000006 -3.113141 3.685755 0.000000 0.000000 0.000000
    9 -0.000007 -7.713655 -1.563225 0.000000 0.000000 0.000000
    10 -0.000001 -0.041039 4.583956 0.000000 0.000000 0.000000
    11 -1.112914 -8.867437 2.842189 0.000000 0.000000 0.000000
    12 1.112910 1.686673 0.481230 0.000000 0.000000 0.000000
    13 -1.691256 -9.402196 -12.005991 -1.862089 -5.322944 -0.964628
    14 0.096944 -8.450419 -0.009364 0.724692 -1.870937 -0.363291
    15 0.447952 -2.798982 -0.200442 -0.632555 -0.188188 0.437361
    16 -0.032910 -1.480206 0.004936 -0.767249 0.000000 0.000002
    17 -0.027022 -1.076919 -0.020212 -0.201653 0.000000 0.000000
    18 -0.249534 -2.846962 -0.174215 -0.511235 -0.169887 0.357523
    19 0.043235 -1.683939 0.096014 -0.815272 0.002823 -0.000167
    20 0.031729 -1.160831 0.058836 -0.220793 0.000642 0.008372
    21 -0.963866 -2.785142 -0.085346 0.047962 -0.066833 0.271982
    22 0.028479 -1.403068 0.006271 -0.840839 0.000000 0.000000
    23 0.021413 -0.957782 0.020047 -0.601221 0.000000 0.000000
    24 1.164474 -2.543938 -0.170328 -0.568482 -0.246524 0.363213
    25 0.024032 -1.129043 0.017806 -0.754838 0.000000 0.000001
    26 0.014896 -0.883989 -0.019845 -0.334517 0.000000 0.000000
    27 -0.586770 -1.264475 0.200164 0.304303 -0.975708 -3.005533
    28 1.522835 0.058681 0.016850 0.292539 0.045776 0.347074
    29 1.117948 0.048424 -0.005764 -0.004246 -0.024791 0.225667
    30 -0.014395 -0.010131 0.010491 1.522169 0.305310 1.396592
    31 -0.488517 -2.755600 -0.228261 -0.945124 0.023395 -0.387835
    32 0.039888 -1.479789 0.029853 -1.586857 0.000000 0.000000
    33 0.028785 -1.075730 -0.023111 -0.303352 0.000000 0.000000
    34 -0.049759 -1.680545 0.100480 -1.511590 0.000000 -0.000002
    35 -0.034141 -1.148312 0.084779 -0.918049 0.000000 0.000000
    36 0.957766 -2.746776 -0.090301 0.329094 0.226419 0.013575
    37 -0.033419 -1.397129 -0.011255 -1.244904 0.000000 -0.000001
    38 -0.022361 -0.957434 0.018783 -1.017510 0.000000 0.000000
    39 -1.180680 -2.507215 -0.193861 -0.849276 0.096358 -0.405085
    40 -0.024966 -1.123934 0.017594 -1.517723 0.000000 0.000001
    41 -0.020057 -0.890966 0.010091 -0.909695 0.000000 0.000000
    42 0.583510 -1.197274 0.185377 1.121813 -0.962680 -1.143982
    43 1.535926 0.010245 0.005008 0.280268 -0.126533 -1.114361
    44 1.100770 0.004526 -0.010676 -0.009519 0.013073 -0.453869
    45 0.014680 -0.007296 -0.007612 -2.315981 -0.029003 -1.484436
  time 2
    0 11.668544 5.936088 -10.754081 0.938233 -1.908543 -1.455698
    1 -0.072132 -8.498731 -0.104136 0.269286 0.181683 -0.143157
    2 0.250027 -2.820663 -0.238397 -0.758577 0.008668 -0.269408
    3 1.034833 -0.368955 0.962382 1.438903 -5.718261 1.593918
    4 0.000004 7.330805 -0.181574 0.000000 0.000000 0.000000
    5 -0.000006 -4.491440 2.746747 0.000000 0.000000 0.000000
    6 -0.000006 -5.215600 0.521221 0.000000 0.000000 0.000000
    7 -0.000004 -2.584793 0.626897 0.535552 0.000000 0.000000
    8 -0.000006 -3.113141 3.685755 0.000000 0.000000 0.000000
    9 -0.000007 -7.713655 -1.563225 0.000000 0.000000 0.000000
    10 -0.000001 -0.041039 4.583956 0.000000 0.000000 0.000000
    11 -1.112914 -6.582211 2.842189 0.000000 0.000000 0.000000
    12 1.112910 1.686673 0.481230 0.000000 0.000000 0.000000
    13 -1.738132 -9.452978 -11.978646 -1.875272 -5.283305 -0.980486
    14 0.096944 -8.450419 -0.009364 0.901461 -1.880973 -0.621268
    15 0.447952 -2.798982 -0.200442 -0.632555 -0.188188 0.437361
    16 -0.032910 -1.480206 0.004936 -0.767249 0.000000 0.000002
    17 -0.027022 -1.076919 -0.020212 -0.201653 0.000000 0.000000
    18 -0.249534 -2.846962 -0.174215 -0.511235 -0.169887 0.357523
    19 0.043235 -1.683939 0.096014 -0.815272 0.002823 -0.000167
    20 0.031729 -1.160831 0.058836 -0.220793 0.000642 0.008372
    21 -0.963866 -2.785142 -0.085346 0.047962 -0.066833 0.271982
    22 0.028479 -1.403068 0.006271 -0.840839 0.000000 0.000000
    23 0.021413 -0.957782 0.020047 -0.601221 0.000000 0.000000
    24 1.164474 -2.543938 -0.170328 -0.568482 -0.246524 0.363213
    25 0.024032 -1.129043 0.017806 -0.754838 0.000000 0.000001
    26 0.014896 -0.883989 -0.019845 -0.334517 0.000000 0.000000
    27 -0.586770 -1.264475 0.200164 0.218999 -0.988259 -2.903613
    28 1.522835 0.058681 0.016850 0.284637 0.075198 0.246690
    29 1.117948 0.048424 -0.005764 -0.002760 -0.024958 0.165954
    30 -0.014395 -0.010131 0.010491 1.522778 0.266358 1.398546
    31 -0.488517 -2.755600 -0.228261 -0.945124 0.023395 -0.387835
    32 0.039888 -1.479789 0.029853 -1.586857 0.000000 0.000000
    33 0.028785 -1.075730 -0.023111 -0.303352 0.000000 0.000000
    34 -0.049759 -1.680545 0.100480 -1.511590 0.000000 -0.000002
    35 -0.034141 -1.148312 0.084779 -0.918049 0.000000 0.000000
    36 0.957766 -2.746776 -0.090301 0.329094 0.226419 0.013575
    37 -0.033419 -1.397129 -0.011255 -1.244904 0.000000 -0.000001
    38 -0.022361 -0.957434 0.018783 -1.017510 0.000000 0.000000
    39 -1.180680 -2.507215 -0.193861 -0.849276 0.096358 -0.405085
    40 -0.024966 -1.123934 0.017594 -1.517723 0.000000 0.000001
    41 -0.020057 -0.890966 0.010091 -0.909695 0.000000 0.000000
    42 0.583510 -1.197274 0.185377 1.121813 -0.962663 -1.143982
    43 1.535926 0.010245 0.005008 0.274000 -0.101114 -1.070643
    44 1.100770 0.004526 -0.010676 -0.010418 0.012318 -0.525923
    45 0.014680 -0.007296 -0.007612 -2.315981 -0.029003 -1.484436
  time 3
    0 11.668544 6.951744 -10.754081 0.944784 -1.911697 -1.462567
    1 -0.072132 -8.498731 -0.104136 0.275136 0.175451 -0.141481
    2 0.250027 -2.820663 -0.238397 -0.758577 0.008668 -0.269408
    3 1.034833 -0.368955 0.962382 1.438903 -5.718261 1.593918
    4 0.000004 7.330805 -0.181574 0.000000 0.000000 0.000000
    5 -0.000006 -4.491440 2.746747 0.000000 0.000000 0.000000
    6 -0.000006 -5.215600 0.521221 0.000000 0.000000 0.000000
    7 -0.000004 -2.584793 0.626897 0.535552 0.000000 0.000000
    8 -0.000006 -3.113141 3.685755 0.000000 0.000000 0.000000
    9 -0.000007 -7.713655 -1.563225 0.000000 0.000000 0.000000
    10 -0.000001 -0.041039 4.583956 0.000000 0.000000 0.000000
    11 -1.112914 -4.293079 2.842189 0.000000 0.000000 0.000000
    12 1.112910 0.753051 0.481230 0.000000 0.000000 0.000000
    13 -1.624847 -9.390476 -11.966927 -1.892595 -5.251296 -0.995014
    14 0.096944 -8.450419 -0.009364 1.078229 -1.893995 -0.879283
    15 0.447952 -2.798982 -0.200442 -0.632555 -0.188188 0.437361
    16 -0.032910 -1.480206 0.004936 -0.767249 0.000000 0.000002
    17 -0.027022 -1.076919 -0.020212 -0.201653 0.000000 0.000000
    18 -0.249534 -2.846962 -0.174215 -0.511235 -0.169887 0.357523
    19 0.043235 -1.683939 0.096014 -0.815272 0.002823 -0.000167
    20 0.031729 -1.160831 0.058836 -0.220793 0.000642 0.008372
    21 -0.963866 -2.785142 -0.085346 0.047962 -0.066833 0.271982
    22 0.028479 -1.403068 0.006271 -0.840839 0.000000 0.000000
    23 0.021413 -0.957782 0.020047 -0.601221 0.000000 0.000000
    24 1.164474 -2.543938 -0.170328 -0.568482 -0.246524 0.363213
    25 0.024032 -1.129043 0.017806 -0.754838 0.000000 0.000001
    26 0.014896 -0.883989 -0.019845 -0.334517 0.000000 0.000000
    27 -0.586770 -1.264475 0.200164 0.133673 -1.000838 -2.801723
    28 1.522835 0.058681 0.016850 0.276753 0.104602 0.146272
    29 1.117948 0.048424 -0.005764 -0.001262 -0.025126 0.106242
    30 -0.014395 -0.010131 0.010491 1.523196 0.227406 1.400475
    31 -0.488517 -2.755600 -0.228261 -0.945124 0.023395 -0.387835
    32 0.039888 -1.479789 0.029853 -1.586857 0.000000 0.000000
    33 0.028785 -1.075730 -0.023111 -0.303352 0.000000 0.000000
    34 -0.049759 -1.680545 0.100480 -1.511590 0.000000 -0.000002
    35 -0.034141 -1.148312 0.084779 -0.918049 0.000000 0.000000
    36 0.957766 -2.746776 -0.090301 0.329094 0.226419 0.013575
    37 -0.033419 -1.397129 -0.011255 -1.244904 0.000000 -0.000001
    38 -0.022361 -0.957434 0.018783 -1.017510 0.000000 0.000000
    39 -1.180680 -2.507215 -0.193861 -0.849276 0.096358 -0.405085
    40 -0.024966 -1.123934 0.017594 -1.517723 0.000000 0.000001
    41 -0.020057 -0.890966 0.010091 -0.909695 0.000000 0.000000
    42 0.583510 -1.197274 0.185377 1.121813 -0.962663 -1.143982
    43 1.535926 0.010245 0.005008 0.267720 -0.075694 -1.026926
    44 1.100770 0.004526 -0.010676 -0.011305 0.011563 -0.597957
    45 0.014680 -0.007296 -0.007612 -2.315981 -0.029003 -1.484436
  time 4
    0 11.668544 7.920524 -10.754081 0.949556 -1.913975 -1.467930
    1 -0.072132 -8.498731 -0.104136 0.285538 0.169231 -0.132834
    2 0.250027 -2.820663 -0.238397 -0.758577 0.008668 -0.269408
    3 1.034833 -0.368955 0.962382 1.438903 -5.718261 1.593918
    4 0.000004 7.330805 -0.181574 0.000000 0.000000 0.000000
    5 -0.000006 -4.491440 2.746747 0.000000 0.000000 0.000000
    6 -0.000006 -5.215600 0.521221 0.000000 0.000000 0.000000
    7 -0.000004 -2.584793 0.626897 0.535552 0.000000 0.000000
    8 -0.000006 -3.113141 3.685755 0.000000 0.000000 0.000000
    9 -0.000007 -7.713655 -1.563225 0.000000 0.000000 0.000000
    10 -0.000001 -0.041039 4.583956 0.000000 0.000000 0.000000
    11 -1.105101 -4.449334 2.850002 0.000000 0.000000 0.000000
    12 1.112910 -0.184478 0.481230 0.000000 0.000000 0.000000
    13 -1.484218 -9.331881 -11.873174 -1.914185 -5.243140 -1.007547
    14 0.096944 -8.450419 -0.009364 1.158595 -1.907016 -0.996539
    15 0.447952 -2.798982 -0.200442 -0.632555 -0.188188 0.437361
    16 -0.032910 -1.480206 0.004936 -0.767249 0.000000 0.000002
    17 -0.027022 -1.076919 -0.020212 -0.201653 0.000000 0.000000
    18 -0.249534 -2.846962 -0.174215 -0.511235 -0.169887 0.357523
    19 0.043235 -1.683939 0.096014 -0.815272 0.002823 -0.000167
    20 0.031729 -1.160831 0.058836 -0.220793 0.000642 0.008372
    21 -0.963866 -2.785142 -0.085346 0.047962 -0.066833 0.271982
    22 0.028479 -1.403068 0.006271 -0.840839 0.000000 0.000000
    23 0.021413 -0.957782 0.020047 -0.601221 0.000000 0.000000
    24 1.164474 -2.543938 -0.170328 -0.568482 -0.246524 0.363213
    25 0.024032 -1.129043 0.017806 -0.754838 0.000000 0.000001
    26 0.014896 -0.883989 -0.019845 -0.334517 0.000000 0.000000
    27 -0.586770 -1.264475 0.200164 0.094906 -1.006566 -2.755387
    28 1.522835 0.058681 0.016850 0.273151 0.117986 0.100643
    29 1.117948 0.048424 -0.005764 -0.000579 -0.025198 0.079107
    30 -0.014395 -0.010131 0.010491 1.523310 0.209708 1.401362
    31 -0.488517 -2.755600 -0.228261 -0.945124 0.023395 -0.387835
    32 0.039888 -1.479789 0.029853 -1.586857 0.000000 0.000000
    33 0.028785 -1.075730 -0.023111 -0.303352 0.000000 0.000000
    34 -0.049759 -1.680545 0.100480 -1.511590 0.000000 -0.000002
    35 -0.034141 -1.148312 0.084779 -0.918049 0.000000 0.000000
    36 0.957766 -2.746776 -0.090301 0.329094 0.226419 0.013575
    37 -0.033419 -1.397129 -0.011255 -1.244904 0.000000 -0.000001
    38 -0.022361 -0.957434 0.018783 -1.017510 0.000000 0.000000
    39 -1.180680 -2.507215 -0.193861 -0.849276 0.096358 -0.405085
    40 -0.024966 -1.123934 0.017594 -1.517723 0.000000 0.000001
    41 -0.020057 -0.890966 0.010091 -0.909695 0.000000 0.000000
    42 0.583510 -1.197274 0.185377 1.121813 -0.962663 -1.143982
    43 1.535926 0.010245 0.005008 0.264880 -0.064141 -1.007042
    44 1.100770 0.004526 -0.010676 -0.011713 0.011215 -0.630704
    45 0.014680 -0.007296 -0.007612 -2.315981 -0.029003 -1.484436
  time 5
    0 11.668544 7.549419 -10.765800 0.948153 -1.912923 -1.465578
    1 -0.072132 -8.498731 -0.104136 0.296548 0.170514 -0.096439
    2 0.250027 -2.820663 -0.238397 -0.758577 0.008668 -0.269408
    3 1.034833 -0.368955 0.962382 1.438903 -5.718261 1.593918
    4 0.000004 7.330805 -0.181574 0.000000 0.000000 0.000000
    5 -0.000006 -4.491440 2.746747 0.000000 0.000000 0.000000
    6 -0.000006 -5.215600 0.521221 0.000000 0.000000 0.000000
    7 -0.000004 -2.584793 0.626897 0.535552 0.000000 0.000000
    8 -0.000006 -3.113141 3.685755 0.000000 0.000000 0.000000
    9 -0.000007 -7.713655 -1.563225 0.000000 0.000000 0.000000
    10 -0.000001 -0.041039 4.583956 0.000000 0.000000 0.000000
    11 -1.097288 -5.093885 2.857815 0.000000 0.000000 0.000000
    12 1.112910 0.299912 0.481230 0.000000 0.000000 0.000000
    13 -1.538907 -9.734237 -11.396597 -1.975135 -5.259101 -1.055119
    14 0.096944 -8.450419 -0.009364 1.128340 -1.922611 -0.968296
    15 0.447952 -2.798982 -0.200442 -0.632555 -0.188188 0.437361
    16 -0.032910 -1.480206 0.004936 -0.767249 0.000000 0.000002
    17 -0.027022 -1.076919 -0.020212 -0.201653 0.000000 0.000000
    18 -0.249534 -2.846962 -0.174215 -0.511235 -0.169887 0.357523
    19 0.043235 -1.683939 0.096014 -0.815272 0.002823 -0.000167
    20 0.031729 -1.160831 0.058836 -0.220793 0.000642 0.008372
    21 -0.963866 -2.785142 -0.085346 0.047962 -0.066833 0.271982
    22 0.028479 -1.403068 0.006271 -0.840839 0.000000 0.000000
    23 0.021413 -0.957782 0.020047 -0.601221 0.000000 0.000000
    24 1.164474 -2.543938 -0.170328 -0.568482 -0.246524 0.363213
    25 0.024032 -1.129043 0.017806 -0.754838 0.000000 0.000001
    26 0.014896 -0.883989 -0.019845 -0.334517 0.000000 0.000000
    27 -0.586770 -1.264475 0.200164 0.113297 -1.003843 -2.777348
    28 1.522835 0.058681 0.016850 0.273966 0.116053 0.107573
    29 1.117948 0.048424 -0.005764 -0.000842 -0.025174 0.089417
    30 -0.014395 -0.010131 0.010491 1.523310 0.209708 1.401362
    31 -0.488517 -2.755600 -0.228261 -0.945124 0.023395 -0.387835
    32 0.039888 -1.479789 0.029853 -1.586857 0.000000 0.000000
    33 0.028785 -1.075730 -0.023111 -0.303352 0.000000 0.000000
    34 -0.049759 -1.680545 0.100480 -1.511590 0.000000 -0.000002
    35 -0.034141 -1.148312 0.084779 -0.918049 0.000000 0.000000
    36 0.957766 -2.746776 -0.090301 0.329094 0.226419 0.013575
    37 -0.033419 -1.397129 -0.011255 -1.244904 0.000000 -0.000001
    38 -0.022361 -0.957434 0.018783 -1.017510 0.000000 0.000000
    39 -1.180680 -2.507215 -0.193861 -0.849276 0.096358 -0.405085
    40 -0.024966 -1.123934 0.017594 -1.517723 0.000000 0.000001
    41 -0.020057 -0.890966 0.010091 -0.909695 0.000000 0.000000
    42 0.583510 -1.197274 0.185377 1.121813 -0.962680 -1.143982
    43 1.535926 0.010245 0.005008 0.267720 -0.075694 -1.026926
    44 1.100770 0.004526 -0.010676 -0.011305 0.011563 -0.597957
    45 0.014680 -0.007296 -0.007612 -2.315981 -0.029003 -1.484436
  time 6
    0 11.668544 6.705643 -10.804864 0.945065 -1.910529 -1.460497
    1 -0.072132 -8.498731 -0.104136 0.293775 0.172275 -0.095487
    2 0.250027 -2.820663 -0.238397 -0.758577 0.008668 -0.269408
    3 1.034833 -0.368955 0.962382 1.438903 -5.718261 1.593918
    4 0.000004 7.330805 -0.181574 0.000000 0.000000 0.000000
    5 -0.000006 -4.491440 2.746747 0.000000 0.000000 0.000000
    6 -0.000006 -5.215600 0.521221 0.000000 0.000000 0.000000
    7 -0.000004 -2.584793 0.626897 0.535552 0.000000 0.000000
    8 -0.000006 -3.113141 3.685755 0.000000 0.000000 0.000000
    9 -0.000007 -7.713655 -1.563225 0.000000 0.000000 0.000000
    10 -0.000001 -0.041039 4.583956 0.000000 0.000000 0.000000
    11 -1.101195 -6.574399 2.853908 0.000000 0.000000 0.000000
    12 1.112910 1.202283 0.481230 0.000000 0.000000 0.000000
    13 -1.644379 -10.316286 -11.400504 -1.972905 -5.259101 -1.053790
    14 0.096944 -8.450419 -0.009364 1.056774 -1.941243 -0.897859
    15 0.447952 -2.798982 -0.200442 -0.632555 -0.188188 0.437361
    16 -0.032910 -1.480206 0.004936 -0.767249 0.000000 0.000002
    17 -0.027022 -1.076919 -0.020212 -0.201653 0.000000 0.000000
    18 -0.249534 -2.846962 -0.174215 -0.511235 -0.169887 0.357523
    19 0.043235 -1.683939 0.096014 -0.815272 0.002823 -0.000167
    20 0.031729 -1.160831 0.058836 -0.220793 0.000642 0.008372
    21 -0.963866 -2.785142 -0.085346 0.047962 -0.066833 0.271982
    22 0.028479 -1.403068 0.006271 -0.840839 0.000000 0.000000
    23 0.021413 -0.957782 0.020047 -0.601221 0.000000 0.000000
    24 1.164474 -2.543938 -0.170328 -0.568482 -0.246524 0.363213
    25 0.024032 -1.129043 0.017806 -0.754838 0.000000 0.000001
    26 0.014896 -0.883989 -0.019845 -0.334517 0.000000 0.000000
    27 -0.586770 -1.264475 0.200164 0.159251 -0.997076 -2.832238
    28 1.522835 0.058681 0.016850 0.276073 0.110942 0.125756
    29 1.117948 0.048424 -0.005764 -0.001501 -0.025102 0.116002
    30 -0.014395 -0.010131 0.010491 1.523310 0.209708 1.401362
    31 -0.488517 -2.755600 -0.228261 -0.945124 0.023395 -0.387835
    32 0.039888 -1.479789 0.029853 -1.586857 0.000000 0.000000
    33 0.028785 -1.075730 -0.023111 -0.303352 0.000000 0.000000
    34 -0.049759 -1.680545 0.100480 -1.511590 0.000000 -0.000002
    35 -0.034141 -1.148312 0.084779 -0.918049 0.000000 0.000000
    36 0.957766 -2.746776 -0.090301 0.329094 0.226419 0.013575
    37 -0.033419 -1.397129 -0.011255 -1.244904 0.000000 -0.000001
    38 -0.022361 -0.957434 0.018783 -1.017510 0.000000 0.000000
    39 -1.180680 -2.507215 -0.193861 -0.849276 0.096358 -0.405085
    40 -0.024966 -1.123934 0.017594 -1.517723 0.000000 0.000001
    41 -0.020057 -0.890966 0.010091 -0.909695 0.000000 0.000000
    42 0.583510 -1.197274 0.185377 1.121813 -0.962663 -1.143982
    43 1.535926 0.010245 0.005008 0.274000 -0.101114 -1.070643
    44 1.100770 0.004526 -0.010676 -0.010418 0.012318 -0.525923
    45 0.014680 -0.007296 -0.007612 -2.315981 -0.029003 -1.484436
  time 7
    0 11.668544 5.783740 -10.840021 0.941789 -1.908134 -1.455322
    1 -0.072132 -8.498731 -0.104136 0.287980 0.174109 -0.094897
    2 0.250027 -2.820663 -0.238397 -0.758577 0.008668 -0.269408
    3 1.034833 -0.368955 0.962382 1.438903 -5.718261 1.593918
    4 0.000004 7.330805 -0.181574 0.000000 0.000000 0.000000
    5 -0.000006 -4.491440 2.746747 0.000000 0.000000 0.000000
    6 -0.000006 -5.215600 0.521221 0.000000 0.000000 0.000000
    7 -0.000004 -2.584793 0.626897 0.535552 0.000000 0.000000
    8 -0.000006 -3.113141 3.685755 0.000000 0.000000 0.000000
    9 -0.000007 -7.713655 -1.563225 0.000000 0.000000 0.000000
    10 -0.000001 -0.041039 4.583956 0.000000 0.000000 0.000000
    11 -1.109008 -8.308827 2.846095 0.000000 0.000000 0.000000
    12 1.112910 1.686673 0.481230 0.000000 0.000000 0.000000
    13 -1.777196 -10.878803 -11.388785 -1.968829 -5.260592 -1.053695
    14 0.096944 -8.450419 -0.009364 0.972517 -1.956838 -0.806534
    15 0.447952 -2.798982 -0.200442 -0.632555 -0.188188 0.437361
    16 -0.032910 -1.480206 0.004936 -0.767249 0.000000 0.000002
    17 -0.027022 -1.076919 -0.020212 -0.201653 0.000000 0.000000
    18 -0.249534 -2.846962 -0.174215 -0.511235 -0.169887 0.357523
    19 0.043235 -1.683939 0.096014 -0.815272 0.002823 -0.000167
    20 0.031729 -1.160831 0.058836 -0.220793 0.000642 0.008372
    21 -0.963866 -2.785142 -0.085346 0.047962 -0.066833 0.271982
    22 0.028479 -1.403068 0.006271 -0.840839 0.000000 0.000000
    23 0.021413 -0.957782 0.020047 -0.601221 0.000000 0.000000
    24 1.164474 -2.543938 -0.170328 -0.568482 -0.246524 0.363213
    25 0.024032 -1.129043 0.017806 -0.754838 0.000000 0.000001
    26 0.014896 -0.883989 -0.019845 -0.334517 0.000000 0.000000
    27 -0.586770 -1.264475 0.200164 0.218999 -0.988259 -2.903613
    28 1.522835 0.058681 0.016850 0.278962 0.103717 0.151383
    29 1.117948 0.048424 -0.005764 -0.002412 -0.025006 0.152243
    30 -0.014395 -0.010131 0.010491 1.523310 0.209708 1.401362
    31 -0.488517 -2.755600 -0.228261 -0.945124 0.023395 -0.387835
    32 0.039888 -1.479789 0.029853 -1.586857 0.000000 0.000000
    33 0.028785 -1.075730 -0.023111 -0.303352 0.000000 0.000000
    34 -0.049759 -1.680545 0.100480 -1.511590 0.000000 -0.000002
    35 -0.034141 -1.148312 0.084779 -0.918049 0.000000 0.000000
    36 0.957766 -2.746776 -0.090301 0.329094 0.226419 0.013575
    37 -0.033419 -1.397129 -0.011255 -1.244904 0.000000 -0.000001
    38 -0.022361 -0.957434 0.018783 -1.017510 0.000000 0.000000
    39 -1.180680 -2.507215 -0.193861 -0.849276 0.096358 -0.405085
    40 -0.024966 -1.123934 0.017594 -1.517723 0.000000 0.000001
    41 -0.020057 -0.890966 0.010091 -0.909695 0.000000 0.000000
    42 0.583510 -1.197274 0.185377 1.121813 -0.962663 -1.143982
    43 1.535926 0.010245 0.005008 0.280268 -0.126533 -1.114361
    44 1.100770 0.004526 -0.010676 -0.009519 0.013073 -0.453869
    45 0.014680 -0.007296 -0.007612 -2.315981 -0.029003 -1.484436
  time 8
    0 11.668544 5.178252 -10.859553 0.940011 -1.907083 -1.452969
    1 -0.072132 -8.498731 -0.104136 0.282903 0.175739 -0.094687
    2 0.250027 -2.820663 -0.238397 -0.758577 0.008668 -0.269408
    3 1.034833 -0.368955 0.962382 1.438903 -5.718261 1.593918
    4 0.000004 7.330805 -0.181574 0.000000 0.000000 0.000000
    5 -0.000006 -4.491440 2.746747 0.000000 0.000000 0.000000
    6 -0.000006 -5.215600 0.521221 0.000000 0.000000 0.000000
    7 -0.000004 -2.584793 0.626897 0.535552 0.000000 0.000000
    8 -0.000006 -3.113141 3.685755 0.000000 0.000000 0.000000
    9 -0.000007 -7.713655 -1.563225 0.000000 0.000000 0.000000
    10 -0.000001 -0.041039 4.583956 0.000000 0.000000 0.000000
    11 -1.112914 -9.140883 2.842189 0.000000 0.000000 0.000000
    12 1.112910 1.686673 0.481230 0.000000 0.000000 0.000000
    13 -1.863136 -11.132717 -11.338002 -1.965581 -5.263837 -1.054739
    14 0.096944 -8.450419 -0.009364 0.904188 -1.963426 -0.715778
    15 0.447952 -2.798982 -0.200442 -0.632555 -0.188188 0.437361
    16 -0.032910 -1.480206 0.004936 -0.767249 0.000000 0.000002
    17 -0.027022 -1.076919 -0.020212 -0.201653 0.000000 0.000000
    18 -0.249534 -2.846962 -0.174215 -0.511235 -0.169887 0.357523
    19 0.043235 -1.683939 0.096014 -0.815272 0.002823 -0.000167
    20 0.031729 -1.160831 0.058836 -0.220793 0.000642 0.008372
    21 -0.963866 -2.785142 -0.085346 0.047962 -0.066833 0.271982
    22 0.028479 -1.403068 0.006271 -0.840839 0.000000 0.000000
    23 0.021413 -0.957782 0.020047 -0.601221 0.000000 0.000000
    24 1.164474 -2.543938 -0.170328 -0.568482 -0.246524 0.363213
    25 0.024032 -1.129043 0.017806 -0.754838 0.000000 0.000001
    26 0.014896 -0.883989 -0.019845 -0.334517 0.000000 0.000000
    27 -0.586770 -1.264475 0.200164 0.278747 -0.979471 -2.974989
    28 1.522835 0.058681 0.016850 0.282122 0.095427 0.180613
    29 1.117948 0.048424 -0.005764 -0.003395 -0.024898 0.191519
    30 -0.014395 -0.010131 0.010491 1.523310 0.209708 1.401362
    31 -0.488517 -2.755600 -0.228261 -0.945124 0.023395 -0.387835
    32 0.039888 -1.479789 0.029853 -1.586857 0.000000 0.000000
    33 0.028785 -1.075730 -0.023111 -0.303352 0.000000 0.000000
    34 -0.049759 -1.680545 0.100480 -1.511590 0.000000 -0.000002
    35 -0.034141 -1.148312 0.084779 -0.918049 0.000000 0.000000
    36 0.957766 -2.746776 -0.090301 0.329094 0.226419 0.013575
    37 -0.033419 -1.397129 -0.011255 -1.244904 0.000000 -0.000001
    38 -0.022361 -0.957434 0.018783 -1.017510 0.000000 0.000000
    39 -1.180680 -2.507215 -0.193861 -0.849276 0.096358 -0.405085
    40 -0.024966 -1.123934 0.017594 -1.517723 0.000000 0.000001
    41 -0.020057 -0.890966 0.010091 -0.909695 0.000000 0.000000
    42 0.583510 -1.197274 0.185377 1.121813 -0.962663 -1.143982
    43 1.535926 0.010245 0.005008 0.283120 -0.138086 -1.134210
    44 1.100770 0.004526 -0.010676 -0.009124 0.013408 -0.421123
    45 0.014680 -0.007296 -0.007612 -2.315981 -0.029003 -1.484343
  time 9
    0 11.668544 4.955589 -10.820490 0.939450 -1.907083 -1.452969
    1 -0.072132 -8.498731 -0.104136 0.279206 0.177297 -0.099943
    2 0.250027 -2.820663 -0.238397 -0.758577 0.008668 -0.269408
    3 1.034833 -0.368955 0.962382 1.438903 -5.718261 1.593918
    4 0.000004 7.330805 -0.181574 0.000000 0.000000 0.000000
    5 -0.000006 -4.491440 2.746747 0.000000 0.000000 0.000000
    6 -0.000006 -5.215600 0.521221 0.000000 0.000000 0.000000
    7 -0.000004 -2.584793 0.626897 0.535552 0.000000 0.000000
    8 -0.000006 -3.113141 3.685755 0.000000 0.000000 0.000000
    9 -0.000007 -7.713655 -1.563225 0.000000 0.000000 0.000000
    10 -0.000001 -0.041039 4.583956 0.000000 0.000000 0.000000
    11 -1.112914 -8.867437 2.842189 0.000000 0.000000 0.000000
    12 1.112910 1.686673 0.481230 0.000000 0.000000 0.000000
    13 -1.886574 -10.988181 -11.275500 -1.955200 -5.265590 -1.048472
    14 0.096944 -8.450419 -0.009364 0.853750 -1.953389 -0.613535
    15 0.447952 -2.798982 -0.200442 -0.632555 -0.188188 0.437361
    16 -0.032910 -1.480206 0.004936 -0.767249 0.000000 0.000002
    17 -0.027022 -1.076919 -0.020212 -0.201653 0.000000 0.000000
    18 -0.249534 -2.846962 -0.174215 -0.511235 -0.169887 0.357523
    19 0.043235 -1.683939 0.096014 -0.815272 0.002823 -0.000167
    20 0.031729 -1.160831 0.058836 -0.220793 0.000642 0.008372
    21 -0.963866 -2.785142 -0.085346 0.047962 -0.066833 0.271982
    22 0.028479 -1.403068 0.006271 -0.840839 0.000000 0.000000
    23 0.021413 -0.957782 0.020047 -0.601221 0.000000 0.000000
    24 1.164474 -2.543938 -0.170328 -0.568482 -0.246524 0.363213
    25 0.024032 -1.129043 0.017806 -0.754838 0.000000 0.000001
    26 0.014896 -0.883989 -0.019845 -0.334517 0.000000 0.000000
    27 -0.586770 -1.264475 0.200164 0.324701 -0.972704 -3.029893
    28 1.522835 0.058681 0.016850 0.285045 0.087137 0.209672
    29 1.117948 0.048424 -0.005764 -0.004294 -0.024803 0.227237
    30 -0.030021 -0.021851 0.010491 1.523234 0.221478 1.400775
    31 -0.488517 -2.755600 -0.228261 -0.945124 0.023395 -0.387835
    32 0.039888 -1.479789 0.029853 -1.586857 0.000000 0.000000
    33 0.028785 -1.075730 -0.023111 -0.303352 0.000000 0.000000
    34 -0.049759 -1.680545 0.100480 -1.511590 0.000000 -0.000002
    35 -0.034141 -1.148312 0.084779 -0.918049 0.000000 0.000000
    36 0.957766 -2.746776 -0.090301 0.329094 0.226419 0.013575
    37 -0.033419 -1.397129 -0.011255 -1.244904 0.000000 -0.000001
    38 -0.022361 -0.957434 0.018783 -1.017510 0.000000 0.000000
    39 -1.180680 -2.507215 -0.193861 -0.849276 0.096358 -0.405085
    40 -0.024966 -1.123934 0.017594 -1.517723 0.000000 0.000001
    41 -0.020057 -0.890966 0.010091 -0.909695 0.000000 0.000000
    42 0.583510 -1.197274 0.185377 1.121813 -0.962663 -1.143982
    43 1.535926 0.010245 0.005008 0.283120 -0.138086 -1.134210
    44 1.100770 0.004526 -0.010676 -0.009124 0.013408 -0.421123
    45 0.014680 -0.007296 -0.007612 -2.315981 -0.029003 -1.484436
  time 10
    0 11.668544 4.869649 -10.754081 0.938888 -1.907083 -1.453063
    1 -0.072132 -8.498731 -0.104136 0.275412 0.178951 -0.112456
    2 0.250027 -2.820663 -0.238397 -0.758577 0.008668 -0.269408
    3 1.034833 -0.368955 0.962382 1.438903 -5.718261 1.593918
    4 0.000004 7.330805 -0.181574 0.000000 0.000000 0.000000
    5 -0.000006 -4.491440 2.746747 0.000000 0.000000 0.000000
    6 -0.000006 -5.215600 0.521221 0.000000 0.000000 0.000000
    7 -0.000004 -2.584793 0.626897 0.535552 0.000000 0.000000
    8 -0.000006 -3.113141 3.685755 0.000000 0.000000 0.000000
    9 -0.000007 -7.713655 -1.563225 0.000000 0.000000 0.000000
    10 -0.000001 -0.041039 4.583956 0.000000 0.000000 0.000000
    11 -1.112914 -8.867437 2.842189 0.000000 0.000000 0.000000
    12 1.112910 1.686673 0.481230 0.000000 0.000000 0.000000
    13 -1.870949 -10.648327 -11.240343 -1.933355 -5.263924 -1.030906
    14 0.096944 -8.450419 -0.009364 0.805749 -1.929457 -0.490365
    15 0.447952 -2.798982 -0.200442 -0.632555 -0.188188 0.437361
    16 -0.032910 -1.480206 0.004936 -0.767249 0.000000 0.000002
    17 -0.027022 -1.076919 -0.020212 -0.201653 0.000000 0.000000
    18 -0.249534 -2.846962 -0.174215 -0.511235 -0.169887 0.357523
    19 0.043235 -1.683939 0.096014 -0.815272 0.002823 -0.000167
    20 0.031729 -1.160831 0.058836 -0.220793 0.000642 0.008372
    21 -0.963866 -2.785142 -0.085346 0.047962 -0.066833 0.271982
    22 0.028479 -1.403068 0.006271 -0.840839 0.000000 0.000000
    23 0.021413 -0.957782 0.020047 -0.601221 0.000000 0.000000
    24 1.164474 -2.543938 -0.170328 -0.568482 -0.246524 0.363213
    25 0.024032 -1.129043 0.017806 -0.754838 0.000000 0.000001
    26 0.014896 -0.883989 -0.019845 -0.334517 0.000000 0.000000
    27 -0.586770 -1.264475 0.200164 0.343092 -0.969980 -3.051855
    28 1.522835 0.058681 0.016850 0.287237 0.079876 0.234648
    29 1.117948 0.048424 -0.005764 -0.004929 -0.024719 0.252801
    30 -0.061272 -0.045289 0.014397 1.522968 0.249588 1.399385
    31 -0.488517 -2.755600 -0.228261 -0.945124 0.023395 -0.387835
    32 0.039888 -1.479789 0.029853 -1.586857 0.000000 0.000000
    33 0.028785 -1.075730 -0.023111 -0.303352 0.000000 0.000000
    34 -0.049759 -1.680545 0.100480 -1.511590 0.000000 -0.000002
    35 -0.034141 -1.148312 0.084779 -0.918049 0.000000 0.000000
    36 0.957766 -2.746776 -0.090301 0.329094 0.226419 0.013575
    37 -0.033419 -1.397129 -0.011255 -1.244904 0.000000 -0.000001
    38 -0.022361 -0.957434 0.018783 -1.017510 0.000000 0.000000
    39 -1.180680 -2.507215 -0.193861 -0.849276 0.096358 -0.405085
    40 -0.024966 -1.123934 0.017594 -1.517723 0.000000 0.000001
    41 -0.020057 -0.890966 0.010091 -0.909695 0.000000 0.000000
    42 0.583510 -1.197274 0.185377 1.121813 -0.962663 -1.143982
    43 1.535926 0.010245 0.005008 0.283120 -0.138086 -1.134210
    44 1.100770 0.004526 -0.010676 -0.009124 0.013408 -0.421123
    45 0.014680 -0.007296 -0.007612 -2.315981 -0.029003 -1.484343
  time 11
    0 11.668544 4.857930 -10.718924 0.938421 -1.907083 -1.453063
    1 -0.072132 -8.498731 -0.104136 0.272045 0.180449 -0.127406
    2 0.250027 -2.820663 -0.238397 -0.758577 0.008668 -0.269408
    3 1.034833 -0.368955 0.962382 1.438903 -5.718261 1.593918
    4 0.000004 7.330805 -0.181574 0.000000 0.000000 0.000000
    5 -0.000006 -4.491440 2.746747 0.000000 0.000000 0.000000
    6 -0.000006 -5.215600 0.521221 0.000000 0.000000 0.000000
    7 -0.000004 -2.584793 0.626897 0.535552 0.000000 0.000000
    8 -0.000006 -3.113141 3.685755 0.000000 0.000000 0.000000
    9 -0.000007 -7.713655 -1.563225 0.000000 0.000000 0.000000
    10 -0.000001 -0.041039 4.583956 0.000000 0.000000 0.000000
    11 -1.112914 -8.867437 2.842189 0.000000 0.000000 0.000000
    12 1.112910 1.686673 0.481230 0.000000 0.000000 0.000000
    13 -1.839698 -10.265503 -11.263781 -1.907434 -5.261293 -1.008972
    14 0.096944 -8.450419 -0.009364 0.762657 -1.900892 -0.371328
    15 0.447952 -2.798982 -0.200442 -0.632555 -0.188188 0.437361
    16 -0.032910 -1.480206 0.004936 -0.767249 0.000000 0.000002
    17 -0.027022 -1.076919 -0.020212 -0.201653 0.000000 0.000000
    18 -0.249534 -2.846962 -0.174215 -0.511235 -0.169887 0.357523
    19 0.043235 -1.683939 0.096014 -0.815272 0.002823 -0.000167
    20 0.031729 -1.160831 0.058836 -0.220793 0.000642 0.008372
    21 -0.963866 -2.785142 -0.085346 0.047962 -0.066833 0.271982
    22 0.028479 -1.403068 0.006271 -0.840839 0.000000 0.000000
    23 0.021413 -0.957782 0.020047 -0.601221 0.000000 0.000000
    24 1.164474 -2.543938 -0.170328 -0.568482 -0.246524 0.363213
    25 0.024032 -1.129043 0.017806 -0.754838 0.000000 0.000001
    26 0.014896 -0.883989 -0.019845 -0.334517 0.000000 0.000000
    27 -0.586770 -1.264475 0.200164 0.343092 -0.969980 -3.051855
    28 1.522835 0.058681 0.016850 0.288851 0.072814 0.258560
    29 1.117948 0.048424 -0.005764 -0.005360 -0.024647 0.270333
    30 -0.096429 -0.076540 0.014397 1.522550 0.283127 1.397707
    31 -0.488517 -2.755600 -0.228261 -0.945124 0.023395 -0.387835
    32 0.039888 -1.479789 0.029853 -1.586857 0.000000 0.000000
    33 0.028785 -1.075730 -0.023111 -0.303352 0.000000 0.000000
    34 -0.049759 -1.680545 0.100480 -1.511590 0.000000 -0.000002
    35 -0.034141 -1.148312 0.084779 -0.918049 0.000000 0.000000
    36 0.957766 -2.746776 -0.090301 0.329094 0.226419 0.013575
    37 -0.033419 -1.397129 -0.011255 -1.244904 0.000000 -0.000001
    38 -0.022361 -0.957434 0.018783 -1.017510 0.000000 0.000000
    39 -1.180680 -2.507215 -0.193861 -0.849276 0.096358 -0.405085
    40 -0.024966 -1.123934 0.017594 -1.517723 0.000000 0.000001
    41 -0.020057 -0.890966 0.010091 -0.909695 0.000000 0.000000
    42 0.583510 -1.197274 0.185377 1.121813 -0.962663 -1.143982
    43 1.535926 0.010245 0.005008 0.283120 -0.138086 -1.134210
    44 1.100770 0.004526 -0.010676 -0.009124 0.013408 -0.421123
    45 0.014680 -0.007296 -0.007612 -2.315981 -0.029003 -1.484436
  time 12
    0 11.668544 4.865743 -10.773613 0.937953 -1.907083 -1.453063
    1 -0.072132 -8.498731 -0.104136 0.269645 0.181527 -0.139919
    2 0.250027 -2.820663 -0.238397 -0.758577 0.008668 -0.269408
    3 1.034833 -0.368955 0.962382 1.438903 -5.718261 1.593918
    4 0.000004 7.330805 -0.181574 0.000000 0.000000 0.000000
    5 -0.000006 -4.491440 2.746747 0.000000 0.000000 0.000000
    6 -0.000006 -5.215600 0.521221 0.000000 0.000000 0.000000
    7 -0.000004 -2.584793 0.626897 0.535552 0.000000 0.000000
    8 -0.000006 -3.113141 3.685755 0.000000 0.000000 0.000000
    9 -0.000007 -7.713655 -1.563225 0.000000 0.000000 0.000000
    10 -0.000001 -0.041039 4.583956 0.000000 0.000000 0.000000
    11 -1.112914 -8.867437 2.842189 0.000000 0.000000 0.000000
    12 1.112910 1.686673 0.481230 0.000000 0.000000 0.000000
    13 -1.804540 -9.956900 -11.380972 -1.885207 -5.260066 -0.989791
    14 0.096944 -8.450419 -0.009364 0.727019 -1.876959 -0.281519
    15 0.447952 -2.798982 -0.200442 -0.632555 -0.188188 0.437361
    16 -0.032910 -1.480206 0.004936 -0.767249 0.000000 0.000002
    17 -0.027022 -1.076919 -0.020212 -0.201653 0.000000 0.000000
    18 -0.249534 -2.846962 -0.174215 -0.511235 -0.169887 0.357523
    19 0.043235 -1.683939 0.096014 -0.815272 0.002823 -0.000167
    20 0.031729 -1.160831 0.058836 -0.220793 0.000642 0.008372
    21 -0.963866 -2.785142 -0.085346 0.047962 -0.066833 0.271982
    22 0.028479 -1.403068 0.006271 -0.840839 0.000000 0.000000
    23 0.021413 -0.957782 0.020047 -0.601221 0.000000 0.000000
    24 1.164474 -2.543938 -0.170328 -0.568482 -0.246524 0.363213
    25 0.024032 -1.129043 0.017806 -0.754838 0.000000 0.000001
    26 0.014896 -0.883989 -0.019845 -0.334517 0.000000 0.000000
    27 -0.586770 -1.264475 0.200164 0.343092 -0.969980 -3.051855
    28 1.522835 0.058681 0.016850 0.290432 0.064741 0.285560
    29 1.117948 0.048424 -0.005764 -0.005756 -0.024563 0.286242
    30 -0.127680 -0.103884 0.014397 1.522055 0.311237 1.396293
    31 -0.488517 -2.755600 -0.228261 -0.945124 0.023395 -0.387835
    32 0.039888 -1.479789 0.029853 -1.586857 0.000000 0.000000
    33 0.028785 -1.075730 -0.023111 -0.303352 0.000000 0.000000
    34 -0.049759 -1.680545 0.100480 -1.511590 0.000000 -0.000002
    35 -0.034141 -1.148312 0.084779 -0.918049 0.000000 0.000000
    36 0.957766 -2.746776 -0.090301 0.329094 0.226419 0.013575
    37 -0.033419 -1.397129 -0.011255 -1.244904 0.000000 -0.000001
    38 -0.022361 -0.957434 0.018783 -1.017510 0.000000 0.000000
    39 -1.180680 -2.507215 -0.193861 -0.849276 0.096358 -0.405085
    40 -0.024966 -1.123934 0.017594 -1.517723 0.000000 0.000001
    41 -0.020057 -0.890966 0.010091 -0.909695 0.000000 0.000000
    42 0.583510 -1.197274 0.185377 1.121813 -0.962663 -1.143982
    43 1.535926 0.010245 0.005008 0.283120 -0.138086 -1.134210
    44 1.100770 0.004526 -0.010676 -0.009124 0.013408 -0.421123
    45 0.014680 -0.007296 -0.007612 -2.315981 -0.029003 -1.484436
  time 13
    0 11.668544 4.889181 -10.906430 0.937485 -1.907083 -1.453063
    1 -0.072132 -8.498731 -0.104136 0.268734 0.181947 -0.145175
    2 0.250027 -2.820663 -0.238397 -0.758577 0.008668 -0.269408
    3 1.034833 -0.368955 0.962382 1.438903 -5.718261 1.593918
    4 0.000004 7.330805 -0.181574 0.000000 0.000000 0.000000
    5 -0.000006 -4.491440 2.746747 0.000000 0.000000 0.000000
    6 -0.000006 -5.215600 0.521221 0.000000 0.000000 0.000000
    7 -0.000004 -2.584793 0.626897 0.535552 0.000000 0.000000
    8 -0.000006 -3.113141 3.685755 0.000000 0.000000 0.000000
    9 -0.000007 -7.713655 -1.563225 0.000000 0.000000 0.000000
    10 -0.000001 -0.041039 4.583956 0.000000 0.000000 0.000000
    11 -1.112914 -8.867437 2.842189 0.000000 0.000000 0.000000
    12 1.112910 1.686673 0.481230 0.000000 0.000000 0.000000
    13 -1.781102 -9.812364 -11.537227 -1.874954 -5.262258 -0.980771
    14 0.096944 -8.450419 -0.009364 0.701237 -1.866922 -0.245998
    15 0.447952 -2.798982 -0.200442 -0.632555 -0.188188 0.437361
    16 -0.032910 -1.480206 0.004936 -0.767249 0.000000 0.000002
    17 -0.027022 -1.076919 -0.020212 -0.201653 0.000000 0.000000
    18 -0.249534 -2.846962 -0.174215 -0.511235 -0.169887 0.357523
    19 0.043235 -1.683939 0.096014 -0.815272 0.002823 -0.000167
    20 0.031729 -1.160831 0.058836 -0.220793 0.000642 0.008372
    21 -0.963866 -2.785142 -0.085346 0.047962 -0.066833 0.271982
    22 0.028479 -1.403068 0.006271 -0.840839 0.000000 0.000000
    23 0.021413 -0.957782 0.020047 -0.601221 0.000000 0.000000
    24 1.164474 -2.543938 -0.170328 -0.568482 -0.246524 0.363213
    25 0.024032 -1.129043 0.017806 -0.754838 0.000000 0.000001
    26 0.014896 -0.883989 -0.019845 -0.334517 0.000000 0.000000
    27 -0.586770 -1.264475 0.200164 0.343092 -0.969980 -3.051855
    28 1.522835 0.058681 0.016850 0.291910 0.056252 0.313761
    29 1.117948 0.048424 -0.005764 -0.006091 -0.024479 0.300294
    30 -0.139399 -0.111697 0.014397 1.521827 0.323024 1.395694
    31 -0.488517 -2.755600 -0.228261 -0.945124 0.023395 -0.387835
    32 0.039888 -1.479789 0.029853 -1.586857 0.000000 0.000000
    33 0.028785 -1.075730 -0.023111 -0.303352 0.000000 0.000000
    34 -0.049759 -1.680545 0.100480 -1.511590 0.000000 -0.000002
    35 -0.034141 -1.148312 0.084779 -0.918049 0.000000 0.000000
    36 0.957766 -2.746776 -0.090301 0.329094 0.226419 0.013575
    37 -0.033419 -1.397129 -0.011255 -1.244904 0.000000 -0.000001
    38 -0.022361 -0.957434 0.018783 -1.017510 0.000000 0.000000
    39 -1.180680 -2.507215 -0.193861 -0.849276 0.096358 -0.405085
    40 -0.024966 -1.123934 0.017594 -1.517723 0.000000 0.000001
    41 -0.020057 -0.890966 0.010091 -0.909695 0.000000 0.000000
    42 0.583510 -1.197274 0.185377 1.121813 -0.962663 -1.143982
    43 1.535926 0.010245 0.005008 0.283120 -0.138086 -1.134210
    44 1.100770 0.004526 -0.010676 -0.009124 0.013408 -0.421123
    45 0.014680 -0.007296 -0.007612 -2.315981 -0.029003 -1.484436
  time 14
    0 11.668544 4.924338 -11.039246 0.937110 -1.907083 -1.453158
    1 -0.072132 -8.498731 -0.104136 0.268734 0.181947 -0.145137
    2 0.250027 -2.820663 -0.238397 -0.758577 0.008668 -0.269408
    3 1.034833 -0.368955 0.962382 1.438903 -5.718261 1.593918
    4 0.000004 7.330805 -0.181574 0.000000 0.000000 0.000000
    5 -0.000006 -4.491440 2.746747 0.000000 0.000000 0.000000
    6 -0.000006 -5.215600 0.521221 0.000000 0.000000 0.000000
    7 -0.000004 -2.584793 0.626897 0.535552 0.000000 0.000000
    8 -0.000006 -3.113141 3.685755 0.000000 0.000000 0.000000
    9 -0.000007 -7.713655 -1.563225 0.000000 0.000000 0.000000
    10 -0.000001 -0.041039 4.583956 0.000000 0.000000 0.000000
    11 -1.112914 -8.867437 2.842189 0.000000 0.000000 0.000000
    12 1.112910 1.686673 0.481230 0.000000 0.000000 0.000000
    13 -1.769383 -9.777207 -11.689575 -1.873361 -5.267081 -0.979156
    14 0.096944 -8.450419 -0.009364 0.683491 -1.866922 -0.245998
    15 0.447952 -2.798982 -0.200442 -0.632555 -0.188188 0.437361
    16 -0.032910 -1.480206 0.004936 -0.767249 0.000000 0.000002
    17 -0.027022 -1.076919 -0.020212 -0.201653 0.000000 0.000000
    18 -0.249534 -2.846962 -0.174215 -0.511235 -0.169887 0.357523
    19 0.043235 -1.683939 0.096014 -0.815272 0.002823 -0.000167
    20 0.031729 -1.160831 0.058836 -0.220793 0.000642 0.008372
    21 -0.963866 -2.785142 -0.085346 0.047962 -0.066833 0.271982
    22 0.028479 -1.403068 0.006271 -0.840839 0.000000 0.000000
    23 0.021413 -0.957782 0.020047 -0.601221 0.000000 0.000000
    24 1.164474 -2.543938 -0.170328 -0.568482 -0.246524 0.363213
    25 0.024032 -1.129043 0.017806 -0.754838 0.000000 0.000001
    26 0.014896 -0.883989 -0.019845 -0.334517 0.000000 0.000000
    27 -0.586770 -1.264475 0.200164 0.343092 -0.969980 -3.051855
    28 1.522835 0.058681 0.016850 0.293235 0.047980 0.341207
    29 1.117948 0.048424 -0.005764 -0.006391 -0.024407 0.312252
    30 -0.139399 -0.111697 0.014397 1.521827 0.323024 1.395694
    31 -0.488517 -2.755600 -0.228261 -0.945124 0.023395 -0.387835
    32 0.039888 -1.479789 0.029853 -1.586857 0.000000 0.000000
    33 0.028785 -1.075730 -0.023111 -0.303352 0.000000 0.000000
    34 -0.049759 -1.680545 0.100480 -1.511590 0.000000 -0.000002
    35 -0.034141 -1.148312 0.084779 -0.918049 0.000000 0.000000
    36 0.957766 -2.746776 -0.090301 0.329094 0.226419 0.013575
    37 -0.033419 -1.397129 -0.011255 -1.244904 0.000000 -0.000001
    38 -0.022361 -0.957434 0.018783 -1.017510 0.000000 0.000000
    39 -1.180680 -2.507215 -0.193861 -0.849276 0.096358 -0.405085
    40 -0.024966 -1.123934 0.017594 -1.517723 0.000000 0.000001
    41 -0.020057 -0.890966 0.010091 -0.909695 0.000000 0.000000
    42 0.583510 -1.197274 0.185377 1.121813 -0.962663 -1.143982
    43 1.535926 0.010245 0.005008 0.283120 -0.138086 -1.134210
    44 1.100770 0.004526 -0.010676 -0.009124 0.013408 -0.421123
    45 0.014680 -0.007296 -0.007612 -2.315981 -0.029003 -1.484436
  time 15
    0 11.668544 4.971215 -11.101748 0.936736 -1.907083 -1.453158
    1 -0.072132 -8.498731 -0.104136 0.268776 0.181935 -0.145023
    2 0.250027 -2.820663 -0.238397 -0.758577 0.008668 -0.269408
    3 1.034833 -0.368955 0.962382 1.438903 -5.718261 1.593918
    4 0.000004 7.330805 -0.181574 0.000000 0.000000 0.000000
    5 -0.000006 -4.491440 2.746747 0.000000 0.000000 0.000000
    6 -0.000006 -5.215600 0.521221 0.000000 0.000000 0.000000
    7 -0.000004 -2.584793 0.626897 0.529521 0.000000 0.000000
    8 -0.000006 -3.113141 3.685755 0.000000 0.000000 0.000000
    9 -0.000007 -7.713655 -1.563225 0.000000 0.000000 0.000000
    10 -0.000001 -0.041039 4.583956 0.000000 0.000000 0.000000
    11 -1.112914 -8.867437 2.842189 0.000000 0.000000 0.000000
    12 1.112910 1.686673 0.481230 0.000000 0.000000 0.000000
    13 -1.757664 -9.745956 -11.795047 -1.871833 -5.272343 -0.977542
    14 0.096944 -8.450419 -0.009364 0.669854 -1.866922 -0.245998
    15 0.447952 -2.798982 -0.200442 -0.632555 -0.188188 0.437361
    16 -0.032910 -1.480206 0.004936 -0.767249 0.000000 0.000002
    17 -0.027022 -1.076919 -0.020212 -0.201653 0.000000 0.000000
    18 -0.249534 -2.846962 -0.174215 -0.511235 -0.169887 0.357523
    19 0.043235 -1.683939 0.096014 -0.815272 0.002823 -0.000167
    20 0.031729 -1.160831 0.058836 -0.220793 0.000642 0.008372
    21 -0.963866 -2.785142 -0.085346 0.047962 -0.066833 0.271982
    22 0.028479 -1.403068 0.006271 -0.840839 0.000000 0.000000
    23 0.021413 -0.957782 0.020047 -0.601221 0.000000 0.000000
    24 1.164474 -2.543938 -0.170328 -0.568482 -0.246524 0.363213
    25 0.024032 -1.129043 0.017806 -0.754838 0.000000 0.000001
    26 0.014896 -0.883989 -0.019845 -0.334517 0.000000 0.000000
    27 -0.586770 -1.264475 0.200164 0.343092 -0.969980 -3.051855
    28 1.522835 0.058681 0.016850 0.294357 0.040484 0.365943
    29 1.117948 0.048424 -0.005764 -0.006619 -0.024335 0.321934
    30 -0.139399 -0.111697 0.014397 1.521827 0.323024 1.395694
    31 -0.488517 -2.755600 -0.228261 -0.945124 0.023395 -0.387835
    32 0.039888 -1.479789 0.029853 -1.586857 0.000000 0.000000
    33 0.028785 -1.075730 -0.023111 -0.303352 0.000000 0.000000
    34 -0.049759 -1.680545 0.100480 -1.511590 0.000000 -0.000002
    35 -0.034141 -1.148312 0.084779 -0.918049 0.000000 0.000000
    36 0.957766 -2.746776 -0.090301 0.328651 0.221997 0.012904
    37 -0.033419 -1.397129 -0.011255 -1.235338 0.000000 -0.000001
    38 -0.022361 -0.957434 0.018783 -1.007879 0.000000 0.000000
    39 -1.180680 -2.507215 -0.193861 -0.849276 0.096358 -0.405085
    40 -0.024966 -1.123934 0.017594 -1.517723 0.000000 0.000001
    41 -0.020057 -0.890966 0.010091 -0.909695 0.000000 0.000000
    42 0.583510 -1.197274 0.185377 1.121813 -0.962663 -1.143982
    43 1.535926 0.010245 0.005008 0.283120 -0.138086 -1.134210
    44 1.100770 0.004526 -0.010676 -0.009124 0.013408 -0.421123
    45 0.014680 -0.007296 -0.007612 -2.315981 -0.029003 -1.484436
  time 16
    0 11.668544 5.029810 -11.093935 0.936455 -1.907141 -1.453252
    1 -0.072132 -8.498731 -0.104136 0.268817 0.181911 -0.144852
    2 0.250027 -2.820663 -0.238397 -0.758577 0.008668 -0.269408
    3 1.034833 -0.368955 0.962382 1.438903 -5.718261 1.593918
    4 0.000004 7.330805 -0.181574 0.000000 0.000000 0.000000
    5 -0.000006 -4.491440 2.746747 0.000000 0.000000 0.000000
    6 -0.000006 -5.215600 0.521221 0.000000 0.000000 0.000000
    7 -0.000004 -2.584793 0.626897 0.512539 0.000000 0.000000
    8 -0.000006 -3.113141 3.685755 0.000000 0.000000 0.000000
    9 -0.000007 -7.713655 -1.563225 0.000000 0.000000 0.000000
    10 -0.000001 -0.041039 4.583956 0.000000 0.000000 0.000000
    11 -1.112914 -8.867437 2.842189 0.000000 0.000000 0.000000
    12 1.112910 1.686673 0.481230 0.000000 0.000000 0.000000
    13 -1.745945 -9.714705 -11.849736 -1.870304 -5.277956 -0.975833
    14 0.096944 -8.450419 -0.009364 0.659818 -1.866922 -0.245998
    15 0.447952 -2.798982 -0.200442 -0.632555 -0.188188 0.437361
    16 -0.032910 -1.480206 0.004936 -0.767249 0.000000 0.000002
    17 -0.027022 -1.076919 -0.020212 -0.201653 0.000000 0.000000
    18 -0.249534 -2.846962 -0.174215 -0.511235 -0.169887 0.357523
    19 0.043235 -1.683939 0.096014 -0.815272 0.002823 -0.000167
    20 0.031729 -1.160831 0.058836 -0.220793 0.000642 0.008372
    21 -0.963866 -2.785142 -0.085346 0.047962 -0.066833 0.271982
    22 0.028479 -1.403068 0.006271 -0.840839 0.000000 0.000000
    23 0.021413 -0.957782 0.020047 -0.601221 0.000000 0.000000
    24 1.164474 -2.543938 -0.170328 -0.568482 -0.246524 0.363213
    25 0.024032 -1.129043 0.017806 -0.754838 0.000000 0.000001
    26 0.014896 -0.883989 -0.019845 -0.334517 0.000000 0.000000
    27 -0.586770 -1.264475 0.200164 0.343092 -0.969980 -3.051855
    28 1.522835 0.058681 0.016850 0.295240 0.034397 0.385979
    29 1.117948 0.048424 -0.005764 -0.006799 -0.024275 0.329130
    30 -0.139399 -0.111697 0.014397 1.521827 0.323024 1.395694
    31 -0.488517 -2.755600 -0.228261 -0.945124 0.023395 -0.387835
    32 0.039888 -1.479789 0.029853 -1.586857 0.000000 0.000000
    33 0.028785 -1.075730 -0.023111 -0.303352 0.000000 0.000000
    34 -0.049759 -1.680545 0.100480 -1.511590 0.000000 -0.000002
    35 -0.034141 -1.148312 0.084779 -0.918049 0.000000 0.000000
    36 0.957766 -2.746776 -0.090301 0.327419 0.209485 0.011022
    37 -0.033419 -1.397129 -0.011255 -1.208176 0.000000 -0.000001
    38 -0.022361 -0.957434 0.018783 -0.980761 0.000000 0.000000
    39 -1.180680 -2.507215 -0.193861 -0.849276 0.096358 -0.405085
    40 -0.024966 -1.123934 0.017594 -1.517723 0.000000 0.000001
    41 -0.020057 -0.890966 0.010091 -0.909695 0.000000 0.000000
    42 0.583510 -1.197274 0.185377 1.121813 -0.962663 -1.143982
    43 1.535926 0.010245 0.005008 0.283120 -0.138086 -1.134210
    44 1.100770 0.004526 -0.010676 -0.009124 0.013408 -0.421123
    45 0.014680 -0.007296 -0.007612 -2.315981 -0.029003 -1.484343
  time 17
    0 11.668544 5.096219 -11.082216 0.936081 -1.907141 -1.453252
    1 -0.072132 -8.498731 -0.104136 0.268886 0.181887 -0.144623
    2 0.250027 -2.820663 -0.238397 -0.758577 0.008668 -0.269408
    3 1.034833 -0.368955 0.962382 1.438903 -5.718261 1.593918
    4 0.000004 7.330805 -0.181574 0.000000 0.000000 0.000000
    5 -0.000006 -4.491440 2.746747 0.000000 0.000000 0.000000
    6 -0.000006 -5.215600 0.521221 0.000000 0.000000 0.000000
    7 -0.000004 -2.584793 0.626897 0.486127 0.000000 0.000000
    8 -0.000006 -3.113141 3.685755 0.000000 0.000000 0.000000
    9 -0.000007 -7.713655 -1.563225 0.000000 0.000000 0.000000
    10 -0.000001 -0.041039 4.583956 0.000000 0.000000 0.000000
    11 -1.112914 -8.867437 2.842189 0.000000 0.000000 0.000000
    12 1.112910 1.686673 0.481230 0.000000 0.000000 0.000000
    13 -1.738132 -9.679548 -11.904425 -1.868776 -5.283919 -0.974124
    14 0.096944 -8.450419 -0.009364 0.652799 -1.866922 -0.245998
    15 0.447952 -2.798982 -0.200442 -0.632555 -0.188188 0.437361
    16 -0.032910 -1.480206 0.004936 -0.767249 0.000000 0.000002
    17 -0.027022 -1.076919 -0.020212 -0.201653 0.000000 0.000000
    18 -0.249534 -2.846962 -0.174215 -0.511235 -0.169887 0.357523
    19 0.043235 -1.683939 0.096014 -0.815272 0.002823 -0.000167
    20 0.031729 -1.160831 0.058836 -0.220793 0.000642 0.008372
    21 -0.963866 -2.785142 -0.085346 0.047962 -0.066833 0.271982
    22 0.028479 -1.403068 0.006271 -0.840839 0.000000 0.000000
    23 0.021413 -0.957782 0.020047 -0.601221 0.000000 0.000000
    24 1.164474 -2.543938 -0.170328 -0.568482 -0.246524 0.363213
    25 0.024032 -1.129043 0.017806 -0.754838 0.000000 0.000001
    26 0.014896 -0.883989 -0.019845 -0.334517 0.000000 0.000000
    27 -0.586770 -1.264475 0.200164 0.343092 -0.969980 -3.051855
    28 1.522835 0.058681 0.016850 0.295801 0.030297 0.399461
    29 1.117948 0.048424 -0.005764 -0.006906 -0.024239 0.333604
    30 -0.139399 -0.111697 0.014397 1.521827 0.323024 1.395694
    31 -0.488517 -2.755600 -0.228261 -0.945124 0.023395 -0.387835
    32 0.039888 -1.479789 0.029853 -1.586857 0.000000 0.000000
    33 0.028785 -1.075730 -0.023111 -0.303352 0.000000 0.000000
    34 -0.049759 -1.680545 0.100480 -1.511590 0.000000 -0.000002
    35 -0.034141 -1.148312 0.084779 -0.918049 0.000000 0.000000
    36 0.957766 -2.746776 -0.090301 0.325510 0.190058 0.008110
    37 -0.033419 -1.397129 -0.011255 -1.166032 0.000000 -0.000001
    38 -0.022361 -0.957434 0.018783 -0.938589 0.000000 0.000000
    39 -1.180680 -2.507215 -0.193861 -0.849276 0.096358 -0.405085
    40 -0.024966 -1.123934 0.017594 -1.517723 0.000000 0.000001
    41 -0.020057 -0.890966 0.010091 -0.909695 0.000000 0.000000
    42 0.583510 -1.197274 0.185377 1.121813 -0.962663 -1.143982
    43 1.535926 0.010245 0.005008 0.283120 -0.138086 -1.134210
    44 1.100770 0.004526 -0.010676 -0.009124 0.013408 -0.421123
    45 0.014680 -0.007296 -0.007612 -2.315981 -0.029003 -1.484436
  time 18
    0 11.668544 5.166533 -11.062685 0.935894 -1.907141 -1.453252
    1 -0.072132 -8.498731 -0.104136 0.268969 0.181851 -0.144337
    2 0.250027 -2.820663 -0.238397 -0.758577 0.008668 -0.269408
    3 1.034833 -0.368955 0.962382 1.438903 -5.718261 1.593918
    4 0.000004 7.330805 -0.181574 0.000000 0.000000 0.000000
    5 -0.000006 -4.491440 2.746747 0.000000 0.000000 0.000000
    6 -0.000006 -5.215600 0.521221 0.000000 0.000000 0.000000
    7 -0.000004 -2.584793 0.626897 0.451869 0.000000 0.000000
    8 -0.000006 -3.113141 3.685755 0.000000 0.000000 0.000000
    9 -0.000007 -7.713655 -1.563225 0.000000 0.000000 0.000000
    10 -0.000001 -0.041039 4.583956 0.000000 0.000000 0.000000
    11 -1.112914 -8.867437 2.842189 0.000000 0.000000 0.000000
    12 1.112910 1.686673 0.481230 0.000000 0.000000 0.000000
    13 -1.726413 -9.644390 -11.947396 -1.867375 -5.289970 -0.972415
    14 0.096944 -8.450419 -0.009364 0.648290 -1.866922 -0.245998
    15 0.447952 -2.798982 -0.200442 -0.632555 -0.188188 0.437361
    16 -0.032910 -1.480206 0.004936 -0.767249 0.000000 0.000002
    17 -0.027022 -1.076919 -0.020212 -0.201653 0.000000 0.000000
    18 -0.249534 -2.846962 -0.174215 -0.511235 -0.169887 0.357523
    19 0.043235 -1.683939 0.096014 -0.815272 0.002823 -0.000167
    20 0.031729 -1.160831 0.058836 -0.220793 0.000642 0.008372
    21 -0.963866 -2.785142 -0.085346 0.047962 -0.066833 0.271982
    22 0.028479 -1.403068 0.006271 -0.840839 0.000000 0.000000
    23 0.021413 -0.957782 0.020047 -0.601221 0.000000 0.000000
    24 1.164474 -2.543938 -0.170328 -0.568482 -0.246524 0.363213
    25 0.024032 -1.129043 0.017806 -0.754838 0.000000 0.000001
    26 0.014896 -0.883989 -0.019845 -0.334517 0.000000 0.000000
    27 -0.586770 -1.264475 0.200164 0.343092 -0.969980 -3.051855
    28 1.522835 0.058681 0.016850 0.296022 0.028798 0.404367
    29 1.117948 0.048424 -0.005764 -0.006942 -0.024227 0.335148
    30 -0.139399 -0.111697 0.014397 1.521827 0.323024 1.395694
    31 -0.488517 -2.755600 -0.228261 -0.945124 0.023395 -0.387835
    32 0.039888 -1.479789 0.029853 -1.586857 0.000000 0.000000
    33 0.028785 -1.075730 -0.023111 -0.303352 0.000000 0.000000
    34 -0.049759 -1.680545 0.100480 -1.511590 0.000000 -0.000002
    35 -0.034141 -1.148312 0.084779 -0.918049 0.000000 0.000000
    36 0.957766 -2.746776 -0.090301 0.323035 0.164842 0.004323
    37 -0.033419 -1.397129 -0.011255 -1.111363 0.000000 -0.000001
    38 -0.022361 -0.957434 0.018783 -0.883918 0.000000 0.000000
    39 -1.180680 -2.507215 -0.193861 -0.849276 0.096358 -0.405085
    40 -0.024966 -1.123934 0.017594 -1.517723 0.000000 0.000001
    41 -0.020057 -0.890966 0.010091 -0.909695 0.000000 0.000000
    42 0.583510 -1.197274 0.185377 1.121813 -0.962663 -1.143982
    43 1.535926 0.010245 0.005008 0.283120 -0.138086 -1.134210
    44 1.100770 0.004526 -0.010676 -0.009124 0.013408 -0.421123
    45 0.014680 -0.007296 -0.007612 -2.315981 -0.029003 -1.484436
  time 19
    0 11.668544 5.244661 -11.039246 0.935613 -1.907141 -1.453346
    1 -0.072132 -8.498731 -0.104136 0.269052 0.181815 -0.144033
    2 0.250027 -2.820663 -0.238397 -0.758577 0.008668 -0.269408
    3 1.034833 -0.368955 0.962382 1.438903 -5.718261 1.593918
    4 0.000004 7.330805 -0.181574 0.000000 0.000000 0.000000
    5 -0.000006 -4.491440 2.746747 0.000000 0.000000 0.000000
    6 -0.000006 -5.215600 0.521221 0.000000 0.000000 0.000000
    7 -0.000004 -2.584793 0.626897 0.411336 0.000000 0.000000
    8 -0.000006 -3.113141 3.685755 0.000000 0.000000 0.000000
    9 -0.000007 -7.713655 -1.563225 0.000000 0.000000 0.000000
    10 -0.000001 -0.041039 4.583956 0.000000 0.000000 0.000000
    11 -1.112914 -8.867437 2.842189 0.000000 0.000000 0.000000
    12 1.112910 1.686673 0.481230 0.000000 0.000000 0.000000
    13 -1.718600 -9.601420 -11.970834 -1.865974 -5.296197 -0.970705
    14 0.096944 -8.450419 -0.009364 0.645744 -1.866922 -0.245998
    15 0.447952 -2.798982 -0.200442 -0.632555 -0.188188 0.437361
    16 -0.032910 -1.480206 0.004936 -0.767249 0.000000 0.000002
    17 -0.027022 -1.076919 -0.020212 -0.201653 0.000000 0.000000
    18 -0.249534 -2.846962 -0.174215 -0.511235 -0.169887 0.357523
    19 0.043235 -1.683939 0.096014 -0.815272 0.002823 -0.000167
    20 0.031729 -1.160831 0.058836 -0.220793 0.000642 0.008372
    21 -0.963866 -2.785142 -0.085346 0.047962 -0.066833 0.271982
    22 0.028479 -1.403068 0.006271 -0.840839 0.000000 0.000000
    23 0.021413 -0.957782 0.020047 -0.601221 0.000000 0.000000
    24 1.164474 -2.543938 -0.170328 -0.568482 -0.246524 0.363213
    25 0.024032 -1.129043 0.017806 -0.754838 0.000000 0.000001
    26 0.014896 -0.883989 -0.019845 -0.334517 0.000000 0.000000
    27 -0.586770 -1.264475 0.200164 0.343092 -0.969980 -3.051855
    28 1.522835 0.058681 0.016850 0.296039 0.028871 0.404162
    29 1.117948 0.048424 -0.005764 -0.006906 -0.024239 0.333526
    30 -0.139399 -0.111697 0.014397 1.521827 0.323024 1.395694
    31 -0.488517 -2.755600 -0.228261 -0.945124 0.023395 -0.387835
    32 0.039888 -1.479789 0.029853 -1.586857 0.000000 0.000000
    33 0.028785 -1.075730 -0.023111 -0.303352 0.000000 0.000000
    34 -0.049759 -1.680545 0.100480 -1.511590 0.000000 -0.000002
    35 -0.034141 -1.148312 0.084779 -0.918049 0.000000 0.000000
    36 0.957766 -2.746776 -0.090301 0.320104 0.135013 -0.000159
    37 -0.033419 -1.397129 -0.011255 -1.046630 0.000000 -0.000001
    38 -0.022361 -0.957434 0.018783 -0.819211 0.000000 0.000000
    39 -1.180680 -2.507215 -0.193861 -0.849276 0.096358 -0.405085
    40 -0.024966 -1.123934 0.017594 -1.517723 0.000000 0.000001
    41 -0.020057 -0.890966 0.010091 -0.909695 0.000000 0.000000
    42 0.583510 -1.197274 0.185377 1.121813 -0.962663 -1.143982
    43 1.535926 0.010245 0.005008 0.283120 -0.138086 -1.134210
    44 1.100770 0.004526 -0.010676 -0.009124 0.013408 -0.421123
    45 0.014680 -0.007296 -0.007612 -2.315981 -0.029003 -1.484436
  time 20
    0 11.668544 5.322788 -11.007995 0.935332 -1.907200 -1.453346
    1 -0.072132 -8.498731 -0.104136 0.269148 0.181779 -0.143690
    2 0.250027 -2.820663 -0.238397 -0.758577 0.008668 -0.269408
    3 1.034833 -0.368955 0.962382 1.438903 -5.718261 1.593918
    4 0.000004 7.330805 -0.181574 0.000000 0.000000 0.000000
    5 -0.000006 -4.491440 2.746747 0.000000 0.000000 0.000000
    6 -0.000006 -5.215600 0.521221 0.000000 0.000000 0.000000
    7 -0.000004 -2.584793 0.626897 0.366095 0.000000 0.000000
    8 -0.000006 -3.113141 3.685755 0.000000 0.000000 0.000000
    9 -0.000007 -7.713655 -1.563225 0.000000 0.000000 0.000000
    10 -0.000001 -0.041039 4.583956 0.000000 0.000000 0.000000
    11 -1.112914 -8.867437 2.842189 0.000000 0.000000 0.000000
    12 1.112910 1.686673 0.481230 0.000000 0.000000 0.000000
    13 -1.710787 -9.558450 -11.978646 -1.864636 -5.302336 -0.968996
    14 0.096944 -8.450419 -0.009364 0.644581 -1.866922 -0.245998
    15 0.447952 -2.798982 -0.200442 -0.632555 -0.188188 0.437361
    16 -0.032910 -1.480206 0.004936 -0.767249 0.000000 0.000002
    17 -0.027022 -1.076919 -0.020212 -0.201653 0.000000 0.000000
    18 -0.249534 -2.846962 -0.174215 -0.511235 -0.169887 0.357523
    19 0.043235 -1.683939 0.096014 -0.815272 0.002823 -0.000167
    20 0.031729 -1.160831 0.058836 -0.220793 0.000642 0.008372
    21 -0.963866 -2.785142 -0.085346 0.047962 -0.066833 0.271982
    22 0.028479 -1.403068 0.006271 -0.840839 0.000000 0.000000
    23 0.021413 -0.957782 0.020047 -0.601221 0.000000 0.000000
    24 1.164474 -2.543938 -0.170328 -0.568482 -0.246524 0.363213
    25 0.024032 -1.129043 0.017806 -0.754838 0.000000 0.000001
    26 0.014896 -0.883989 -0.019845 -0.334517 0.000000 0.000000
    27 -0.586770 -1.264475 0.200164 0.343092 -0.969980 -3.051855
    28 1.522835 0.058681 0.016850 0.296056 0.029069 0.403510
    29 1.117948 0.048424 -0.005764 -0.006787 -0.024263 0.329051
    30 -0.139399 -0.111697 0.014397 1.521827 0.323024 1.395694
    31 -0.488517 -2.755600 -0.228261 -0.945124 0.023395 -0.387835
    32 0.039888 -1.479789 0.029853 -1.586857 0.000000 0.000000
    33 0.028785 -1.075730 -0.023111 -0.303352 0.000000 0.000000
    34 -0.049759 -1.680545 0.100480 -1.511590 0.000000 -0.000002
    35 -0.034141 -1.148312 0.084779 -0.918049 0.000000 0.000000
    36 0.957766 -2.746776 -0.090301 0.316828 0.101732 -0.005145
    37 -0.033419 -1.397129 -0.011255 -0.974443 0.000000 -0.000001
    38 -0.022361 -0.957434 0.018783 -0.746992 0.000000 0.000000
    39 -1.180680 -2.507215 -0.193861 -0.849276 0.096358 -0.405085
    40 -0.024966 -1.123934 0.017594 -1.517723 0.000000 0.000001
    41 -0.020057 -0.890966 0.010091 -0.909695 0.000000 0.000000
    42 0.583510 -1.197274 0.185377 1.121813 -0.962663 -1.143982
    43 1.535926 0.010245 0.005008 0.283120 -0.138086 -1.134210
    44 1.100770 0.004526 -0.010676 -0.009124 0.013408 -0.421123
    45 0.014680 -0.007296 -0.007612 -2.315981 -0.029003 -1.484436
  time 21
    0 11.668544 5.400916 -10.976744 0.935145 -1.907200 -1.453440
    1 -0.072132 -8.498731 -0.104136 0.269245 0.181731 -0.143347
    2 0.250027 -2.820663 -0.238397 -0.758577 0.008668 -0.269408
    3 1.034833 -0.368955 0.962382 1.438903 -5.718261 1.593918
    4 0.000004 7.330805 -0.181574 0.000000 0.000000 0.000000
    5 -0.000006 -4.491440 2.746747 0.000000 0.000000 0.000000
    6 -0.000006 -5.215600 0.521221 0.000000 0.000000 0.000000
    7 -0.000004 -2.584793 0.626897 0.317716 0.000000 0.000000
    8 -0.000006 -3.113141 3.685755 0.000000 0.000000 0.000000
    9 -0.000007 -7.713655 -1.563225 0.000000 0.000000 0.000000
    10 -0.000001 -0.041039 4.583956 0.000000 0.000000 0.000000
    11 -1.112914 -8.867437 2.842189 0.000000 0.000000 0.000000
    12 1.112910 1.686673 0.481230 0.000000 0.000000 0.000000
    13 -1.702975 -9.523293 -11.986459 -1.863426 -5.308474 -0.967382
    14 0.096944 -8.450419 -0.009364 0.644326 -1.866922 -0.245998
    15 0.447952 -2.798982 -0.200442 -0.632555 -0.188188 0.437361
    16 -0.032910 -1.480206 0.004936 -0.767249 0.000000 0.000002
    17 -0.027022 -1.076919 -0.020212 -0.201653 0.000000 0.000000
    18 -0.249534 -2.846962 -0.174215 -0.511235 -0.169887 0.357523
    19 0.043235 -1.683939 0.096014 -0.815272 0.002823 -0.000167
    20 0.031729 -1.160831 0.058836 -0.220793 0.000642 0.008372
    21 -0.963866 -2.785142 -0.085346 0.047962 -0.066833 0.271982
    22 0.028479 -1.403068 0.006271 -0.840839 0.000000 0.000000
    23 0.021413 -0.957782 0.020047 -0.601221 0.000000 0.000000
    24 1.164474 -2.543938 -0.170328 -0.568482 -0.246524 0.363213
    25 0.024032 -1.129043 0.017806 -0.754838 0.000000 0.000001
    26 0.014896 -0.883989 -0.019845 -0.334517 0.000000 0.000000
    27 -0.586770 -1.264475 0.200164 0.343092 -0.969980 -3.051855
    28 1.522835 0.058681 0.016850 0.296073 0.029358 0.402549
    29 1.117948 0.048424 -0.005764 -0.006631 -0.024299 0.322274
    30 -0.139399 -0.111697 0.014397 1.521827 0.323024 1.395694
    31 -0.488517 -2.755600 -0.228261 -0.945124 0.023395 -0.387835
    32 0.039888 -1.479789 0.029853 -1.586857 0.000000 0.000000
    33 0.028785 -1.075730 -0.023111 -0.303352 0.000000 0.000000
    34 -0.049759 -1.680545 0.100480 -1.511590 0.000000 -0.000002
    35 -0.034141 -1.148312 0.084779 -0.918049 0.000000 0.000000
    36 0.957766 -2.746776 -0.090301 0.313318 0.066125 -0.010490
    37 -0.033419 -1.397129 -0.011255 -0.897223 0.000000 -0.000001
    38 -0.022361 -0.957434 0.018783 -0.669786 0.000000 0.000000
    39 -1.180680 -2.507215 -0.193861 -0.849276 0.096358 -0.405085
    40 -0.024966 -1.123934 0.017594 -1.517723 0.000000 0.000001
    41 -0.020057 -0.890966 0.010091 -0.909695 0.000000 0.000000
    42 0.583510 -1.197274 0.185377 1.121813 -0.962663 -1.143982
    43 1.535926 0.010245 0.005008 0.283120 -0.138086 -1.134210
    44 1.100770 0.004526 -0.010676 -0.009124 0.013408 -0.421123
    45 0.014680 -0.007296 -0.007612 -2.315981 -0.029003 -1.484436
  time 22
    0 11.668544 5.479043 -10.941587 0.935052 -1.907200 -1.453440
    1 -0.072132 -8.498731 -0.104136 0.269355 0.181695 -0.142985
    2 0.250027 -2.820663 -0.238397 -0.758577 0.008668 -0.269408
    3 1.034833 -0.368955 0.962382 1.438903 -5.718261 1.593918
    4 0.000004 7.330805 -0.181574 0.000000 0.000000 0.000000
    5 -0.000006 -4.491440 2.746747 0.000000 0.000000 0.000000
    6 -0.000006 -5.215600 0.521221 0.000000 0.000000 0.000000
    7 -0.000004 -2.584793 0.626897 0.267768 0.000000 0.000000
    8 -0.000006 -3.113141 3.685755 0.000000 0.000000 0.000000
    9 -0.000007 -7.713655 -1.563225 0.000000 0.000000 0.000000
    10 -0.000001 -0.041039 4.583956 0.000000 0.000000 0.000000
    11 -1.112914 -8.867437 2.842189 0.000000 0.000000 0.000000
    12 1.112910 1.686673 0.481230 0.000000 0.000000 0.000000
    13 -1.695162 -9.488136 -11.994272 -1.862280 -5.314262 -0.965768
    14 0.096944 -8.450419 -0.009364 0.644326 -1.866922 -0.245998
    15 0.447952 -2.798982 -0.200442 -0.632555 -0.188188 0.437361
    16 -0.032910 -1.480206 0.004936 -0.767249 0.000000 0.000002
    17 -0.027022 -1.076919 -0.020212 -0.201653 0.000000 0.000000
    18 -0.249534 -2.846962 -0.174215 -0.511235 -0.169887 0.357523
    19 0.043235 -1.683939 0.096014 -0.815272 0.002823 -0.000167
    20 0.031729 -1.160831 0.058836 -0.220793 0.000642 0.008372
    21 -0.963866 -2.785142 -0.085346 0.047962 -0.066833 0.271982
    22 0.028479 -1.403068 0.006271 -0.840839 0.000000 0.000000
    23 0.021413 -0.957782 0.020047 -0.601221 0.000000 0.000000
    24 1.164474 -2.543938 -0.170328 -0.568482 -0.246524 0.363213
    25 0.024032 -1.129043 0.017806 -0.754838 0.000000 0.000001
    26 0.014896 -0.883989 -0.019845 -0.334517 0.000000 0.000000
    27 -0.586770 -1.264475 0.200164 0.343092 -0.969980 -3.051855
    28 1.522835 0.058681 0.016850 0.296073 0.029738 0.401348
    29 1.117948 0.048424 -0.005764 -0.006415 -0.024359 0.313796
    30 -0.139399 -0.111697 0.014397 1.521827 0.323024 1.395694
    31 -0.488517 -2.755600 -0.228261 -0.945124 0.023395 -0.387835
    32 0.039888 -1.479789 0.029853 -1.586857 0.000000 0.000000
    33 0.028785 -1.075730 -0.023111 -0.303352 0.000000 0.000000
    34 -0.049759 -1.680545 0.100480 -1.511590 0.000000 -0.000002
    35 -0.034141 -1.148312 0.084779 -0.918049 0.000000 0.000000
    36 0.957766 -2.746776 -0.090301 0.309710 0.029369 -0.016015
    37 -0.033419 -1.397129 -0.011255 -0.817468 0.000000 -0.000001
    38 -0.022361 -0.957434 0.018783 -0.590054 0.000000 0.000000
    39 -1.180680 -2.507215 -0.193861 -0.849276 0.096358 -0.405085
    40 -0.024966 -1.123934 0.017594 -1.517723 0.000000 0.000001
    41 -0.020057 -0.890966 0.010091 -0.909695 0.000000 0.000000
    42 0.583510 -1.197274 0.185377 1.121813 -0.962663 -1.143982
    43 1.535926 0.010245 0.005008 0.283120 -0.138086 -1.134210
    44 1.100770 0.004526 -0.010676 -0.009124 0.013408 -0.421123
    45 0.014680 -0.007296 -0.007612 -2.315981 -0.029003 -1.484436
  time 23
    0 11.668544 5.557170 -10.906430 0.934864 -1.907200 -1.453534
    1 -0.072132 -8.498731 -0.104136 0.269452 0.181647 -0.142642
    2 0.250027 -2.820663 -0.238397 -0.758577 0.008668 -0.269408
    3 1.034833 -0.368955 0.962382 1.438903 -5.718261 1.593918
    4 0.000004 7.330805 -0.181574 0.000000 0.000000 0.000000
    5 -0.000006 -4.491440 2.746747 0.000000 0.000000 0.000000
    6 -0.000006 -5.215600 0.521221 0.000000 0.000000 0.000000
    7 -0.000004 -2.584793 0.626897 0.217820 0.000000 0.000000
    8 -0.000006 -3.113141 3.685755 0.000000 0.000000 0.000000
    9 -0.000007 -7.713655 -1.563225 0.000000 0.000000 0.000000
    10 -0.000001 -0.041039 4.583956 0.000000 0.000000 0.000000
    11 -1.112914 -8.867437 2.842189 0.000000 0.000000 0.000000
    12 1.112910 1.686673 0.481230 0.000000 0.000000 0.000000
    13 -1.683443 -9.464697 -11.998178 -1.861197 -5.319787 -0.964344
    14 0.096944 -8.450419 -0.009364 0.644326 -1.866922 -0.245998
    15 0.447952 -2.798982 -0.200442 -0.632555 -0.188188 0.437361
    16 -0.032910 -1.480206 0.004936 -0.767249 0.000000 0.000002
    17 -0.027022 -1.076919 -0.020212 -0.201653 0.000000 0.000000
    18 -0.249534 -2.846962 -0.174215 -0.511235 -0.169887 0.357523
    19 0.043235 -1.683939 0.096014 -0.815272 0.002823 -0.000167
    20 0.031729 -1.160831 0.058836 -0.220793 0.000642 0.008372
    21 -0.963866 -2.785142 -0.085346 0.047962 -0.066833 0.271982
    22 0.028479 -1.403068 0.006271 -0.840839 0.000000 0.000000
    23 0.021413 -0.957782 0.020047 -0.601221 0.000000 0.000000
    24 1.164474 -2.543938 -0.170328 -0.568482 -0.246524 0.363213
    25 0.024032 -1.129043 0.017806 -0.754838 0.000000 0.000001
    26 0.014896 -0.883989 -0.019845 -0.334517 0.000000 0.000000
    27 -0.586770 -1.264475 0.200164 0.343092 -0.969980 -3.051855
    28 1.522835 0.058681 0.016850 0.296090 0.030153 0.399976
    29 1.117948 0.048424 -0.005764 -0.006187 -0.024407 0.304167
    30 -0.139399 -0.111697 0.014397 1.521827 0.323024 1.395694
    31 -0.488517 -2.755600 -0.228261 -0.945124 0.023395 -0.387835
    32 0.039888 -1.479789 0.029853 -1.586857 0.000000 0.000000
    33 0.028785 -1.075730 -0.023111 -0.303352 0.000000 0.000000
    34 -0.049759 -1.680545 0.100480 -1.511590 0.000000 -0.000002
    35 -0.034141 -1.148312 0.084779 -0.918049 0.000000 0.000000
    36 0.957766 -2.746776 -0.090301 0.306089 -0.007376 -0.021528
    37 -0.033419 -1.397129 -0.011255 -0.737751 0.000000 -0.000001
    38 -0.022361 -0.957434 0.018783 -0.510323 0.000000 0.000000
    39 -1.180680 -2.507215 -0.193861 -0.849276 0.096358 -0.405085
    40 -0.024966 -1.123934 0.017594 -1.517723 0.000000 0.000001
    41 -0.020057 -0.890966 0.010091 -0.909695 0.000000 0.000000
    42 0.583510 -1.197274 0.185377 1.121813 -0.962663 -1.143982
    43 1.535926 0.010245 0.005008 0.283120 -0.138086 -1.134210
    44 1.100770 0.004526 -0.010676 -0.009124 0.013408 -0.421123
    45 0.014680 -0.007296 -0.007612 -2.315981 -0.029003 -1.484436
  time 24
    0 11.668544 5.627485 -10.871272 0.934771 -1.907258 -1.453534
    1 -0.072132 -8.498731 -0.104136 0.269548 0.181611 -0.142300
    2 0.250027 -2.820663 -0.238397 -0.758577 0.008668 -0.269408
    3 1.034833 -0.368955 0.962382 1.438903 -5.718261 1.593918
    4 0.000004 7.330805 -0.181574 0.000000 0.000000 0.000000
    5 -0.000006 -4.491440 2.746747 0.000000 0.000000 0.000000
    6 -0.000006 -5.215600 0.521221 0.000000 0.000000 0.000000
    7 -0.000004 -2.584793 0.626897 0.169441 0.000000 0.000000
    8 -0.000006 -3.113141 3.685755 0.000000 0.000000 0.000000
    9 -0.000007 -7.713655 -1.563225 0.000000 0.000000 0.000000
    10 -0.000001 -0.041039 4.583956 0.000000 0.000000 0.000000
    11 -1.112914 -8.867437 2.842189 0.000000 0.000000 0.000000
    12 1.112910 1.686673 0.481230 0.000000 0.000000 0.000000
    13 -1.675630 -9.441259 -12.005991 -1.860242 -5.324962 -0.962919
    14 0.096944 -8.450419 -0.009364 0.644326 -1.866922 -0.245998
    15 0.447952 -2.798982 -0.200442 -0.632555 -0.188188 0.437361
    16 -0.032910 -1.480206 0.004936 -0.767249 0.000000 0.000002
    17 -0.027022 -1.076919 -0.020212 -0.201653 0.000000 0.000000
    18 -0.249534 -2.846962 -0.174215 -0.511235 -0.169887 0.357523
    19 0.043235 -1.683939 0.096014 -0.815272 0.002823 -0.000167
    20 0.031729 -1.160831 0.058836 -0.220793 0.000642 0.008372
    21 -0.963866 -2.785142 -0.085346 0.047962 -0.066833 0.271982
    22 0.028479 -1.403068 0.006271 -0.840839 0.000000 0.000000
    23 0.021413 -0.957782 0.020047 -0.601221 0.000000 0.000000
    24 1.164474 -2.543938 -0.170328 -0.568482 -0.246524 0.363213
    25 0.024032 -1.129043 0.017806 -0.754838 0.000000 0.000001
    26 0.014896 -0.883989 -0.019845 -0.334517 0.000000 0.000000
    27 -0.586770 -1.264475 0.200164 0.343092 -0.969980 -3.051855
    28 1.522835 0.058681 0.016850 0.296107 0.030604 0.398535
    29 1.117948 0.048424 -0.005764 -0.005936 -0.024479 0.293962
    30 -0.139399 -0.111697 0.014397 1.521827 0.323024 1.395694
    31 -0.488517 -2.755600 -0.228261 -0.945124 0.023395 -0.387835
    32 0.039888 -1.479789 0.029853 -1.586857 0.000000 0.000000
    33 0.028785 -1.075730 -0.023111 -0.303352 0.000000 0.000000
    34 -0.049759 -1.680545 0.100480 -1.511590 0.000000 -0.000002
    35 -0.034141 -1.148312 0.084779 -0.918049 0.000000 0.000000
    36 0.957766 -2.746776 -0.090301 0.302591 -0.042982 -0.026873
    37 -0.033419 -1.397129 -0.011255 -0.660531 0.000000 -0.000001
    38 -0.022361 -0.957434 0.018783 -0.433086 0.000000 0.000000
    39 -1.180680 -2.507215 -0.193861 -0.849276 0.096358 -0.405085
    40 -0.024966 -1.123934 0.017594 -1.517723 0.000000 0.000001
    41 -0.020057 -0.890966 0.010091 -0.909695 0.000000 0.000000
    42 0.583510 -1.197274 0.185377 1.121813 -0.962663 -1.143982
    43 1.535926 0.010245 0.005008 0.283120 -0.138086 -1.134210
    44 1.100770 0.004526 -0.010676 -0.009124 0.013408 -0.421123
    45 0.014680 -0.007296 -0.007612 -2.315981 -0.029003 -1.484436
  time 25
    0 11.668544 5.693893 -10.840021 0.934677 -1.907258 -1.453628
    1 -0.072132 -8.498731 -0.104136 0.269631 0.181575 -0.141995
    2 0.250027 -2.820663 -0.238397 -0.758577 0.008668 -0.269408
    3 1.034833 -0.368955 0.962382 1.438903 -5.718261 1.593918
    4 0.000004 7.330805 -0.181574 0.000000 0.000000 0.000000
    5 -0.000006 -4.491440 2.746747 0.000000 0.000000 0.000000
    6 -0.000006 -5.215600 0.521221 0.000000 0.000000 0.000000
    7 -0.000004 -2.584793 0.626897 0.124200 0.000000 0.000000
    8 -0.000006 -3.113141 3.685755 0.000000 0.000000 0.000000
    9 -0.000007 -7.713655 -1.563225 0.000000 0.000000 0.000000
    10 -0.000001 -0.041039 4.583956 0.000000 0.000000 0.000000
    11 -1.112914 -8.867437 2.842189 0.000000 0.000000 0.000000
    12 1.112910 1.686673 0.481230 0.000000 0.000000 0.000000
    13 -1.663911 -9.425634 -12.005991 -1.859414 -5.329522 -0.961780
    14 0.096944 -8.450419 -0.009364 0.644326 -1.866922 -0.245998
    15 0.447952 -2.798982 -0.200442 -0.632555 -0.188188 0.437361
    16 -0.032910 -1.480206 0.004936 -0.767249 0.000000 0.000002
    17 -0.027022 -1.076919 -0.020212 -0.201653 0.000000 0.000000
    18 -0.249534 -2.846962 -0.174215 -0.511235 -0.169887 0.357523
    19 0.043235 -1.683939 0.096014 -0.815272 0.002823 -0.000167
    20 0.031729 -1.160831 0.058836 -0.220793 0.000642 0.008372
    21 -0.963866 -2.785142 -0.085346 0.047962 -0.066833 0.271982
    22 0.028479 -1.403068 0.006271 -0.840839 0.000000 0.000000
    23 0.021413 -0.957782 0.020047 -0.601221 0.000000 0.000000
    24 1.164474 -2.543938 -0.170328 -0.568482 -0.246524 0.363213
    25 0.024032 -1.129043 0.017806 -0.754838 0.000000 0.000001
    26 0.014896 -0.883989 -0.019845 -0.334517 0.000000 0.000000
    27 -0.586770 -1.264475 0.200164 0.343092 -0.969980 -3.051855
    28 1.522835 0.058681 0.016850 0.296107 0.031038 0.397094
    29 1.117948 0.048424 -0.005764 -0.005684 -0.024539 0.283783
    30 -0.139399 -0.111697 0.014397 1.521827 0.323024 1.395694
    31 -0.488517 -2.755600 -0.228261 -0.945124 0.023395 -0.387835
    32 0.039888 -1.479789 0.029853 -1.586857 0.000000 0.000000
    33 0.028785 -1.075730 -0.023111 -0.303352 0.000000 0.000000
    34 -0.049759 -1.680545 0.100480 -1.511590 0.000000 -0.000002
    35 -0.034141 -1.148312 0.084779 -0.918049 0.000000 0.000000
    36 0.957766 -2.746776 -0.090301 0.299315 -0.076276 -0.031871
    37 -0.033419 -1.397129 -0.011255 -0.588306 0.000000 -0.000001
    38 -0.022361 -0.957434 0.018783 -0.360898 0.000000 0.000000
    39 -1.180680 -2.507215 -0.193861 -0.849276 0.096358 -0.405085
    40 -0.024966 -1.123934 0.017594 -1.517723 0.000000 0.000001
    41 -0.020057 -0.890966 0.010091 -0.909695 0.000000 0.000000
    42 0.583510 -1.197274 0.185377 1.121813 -0.962663 -1.143982
    43 1.535926 0.010245 0.005008 0.283120 -0.138086 -1.134210
    44 1.100770 0.004526 -0.010676 -0.009124 0.013408 -0.421123
    45 0.014680 -0.007296 -0.007612 -2.315981 -0.029003 -1.484436
  time 26
    0 11.668544 5.752489 -10.812677 0.934584 -1.907258 -1.453628
    1 -0.072132 -8.498731 -0.104136 0.269714 0.181539 -0.141709
    2 0.250027 -2.820663 -0.238397 -0.758577 0.008668 -0.269408
    3 1.034833 -0.368955 0.962382 1.438903 -5.718261 1.593918
    4 0.000004 7.330805 -0.181574 0.000000 0.000000 0.000000
    5 -0.000006 -4.491440 2.746747 0.000000 0.000000 0.000000
    6 -0.000006 -5.215600 0.521221 0.000000 0.000000 0.000000
    7 -0.000004 -2.584793 0.626897 0.083666 0.000000 0.000000
    8 -0.000006 -3.113141 3.685755 0.000000 0.000000 0.000000
    9 -0.000007 -7.713655 -1.563225 0.000000 0.000000 0.000000
    10 -0.000001 -0.041039 4.583956 0.000000 0.000000 0.000000
    11 -1.112914 -8.867437 2.842189 0.000000 0.000000 0.000000
    12 1.112910 1.686673 0.481230 0.000000 0.000000 0.000000
    13 -1.656098 -9.410008 -12.009897 -1.858713 -5.333556 -0.960735
    14 0.096944 -8.450419 -0.009364 0.644326 -1.866922 -0.245998
    15 0.447952 -2.798982 -0.200442 -0.632555 -0.188188 0.437361
    16 -0.032910 -1.480206 0.004936 -0.767249 0.000000 0.000002
    17 -0.027022 -1.076919 -0.020212 -0.201653 0.000000 0.000000
    18 -0.249534 -2.846962 -0.174215 -0.511235 -0.169887 0.357523
    19 0.043235 -1.683939 0.096014 -0.815272 0.002823 -0.000167
    20 0.031729 -1.160831 0.058836 -0.220793 0.000642 0.008372
    21 -0.963866 -2.785142 -0.085346 0.047962 -0.066833 0.271982
    22 0.028479 -1.403068 0.006271 -0.840839 0.000000 0.000000
    23 0.021413 -0.957782 0.020047 -0.601221 0.000000 0.000000
    24 1.164474 -2.543938 -0.170328 -0.568482 -0.246524 0.363213
    25 0.024032 -1.129043 0.017806 -0.754838 0.000000 0.000001
    26 0.014896 -0.883989 -0.019845 -0.334517 0.000000 0.000000
    27 -0.586770 -1.264475 0.200164 0.343092 -0.969980 -3.051855
    28 1.522835 0.058681 0.016850 0.296107 0.031471 0.395722
    29 1.117948 0.048424 -0.005764 -0.005444 -0.024587 0.274153
    30 -0.139399 -0.111697 0.014397 1.521827 0.323024 1.395694
    31 -0.488517 -2.755600 -0.228261 -0.945124 0.023395 -0.387835
    32 0.039888 -1.479789 0.029853 -1.586857 0.000000 0.000000
    33 0.028785 -1.075730 -0.023111 -0.303352 0.000000 0.000000
    34 -0.049759 -1.680545 0.100480 -1.511590 0.000000 -0.000002
    35 -0.034141 -1.148312 0.084779 -0.918049 0.000000 0.000000
    36 0.957766 -2.746776 -0.090301 0.296384 -0.106093 -0.036353
    37 -0.033419 -1.397129 -0.011255 -0.523610 0.000000 -0.000001
    38 -0.022361 -0.957434 0.018783 -0.296191 0.000000 0.000000
    39 -1.180680 -2.507215 -0.193861 -0.849276 0.096358 -0.405085
    40 -0.024966 -1.123934 0.017594 -1.517723 0.000000 0.000001
    41 -0.020057 -0.890966 0.010091 -0.909695 0.000000 0.000000
    42 0.583510 -1.197274 0.185377 1.121813 -0.962663 -1.143982
    43 1.535926 0.010245 0.005008 0.283120 -0.138086 -1.134210
    44 1.100770 0.004526 -0.010676 -0.009124 0.013408 -0.421123
    45 0.014680 -0.007296 -0.007612 -2.315981 -0.029003 -1.484436
  time 27
    0 11.668544 5.799365 -10.785332 0.934490 -1.907258 -1.453628
    1 -0.072132 -8.498731 -0.104136 0.269783 0.181515 -0.141481
    2 0.250027 -2.820663 -0.238397 -0.758577 0.008668 -0.269408
    3 1.034833 -0.368955 0.962382 1.438903 -5.718261 1.593918
    4 0.000004 7.330805 -0.181574 0.000000 0.000000 0.000000
    5 -0.000006 -4.491440 2.746747 0.000000 0.000000 0.000000
    6 -0.000006 -5.215600 0.521221 0.000000 0.000000 0.000000
    7 -0.000004 -2.584793 0.626897 0.049409 0.000000 0.000000
    8 -0.000006 -3.113141 3.685755 0.000000 0.000000 0.000000
    9 -0.000007 -7.713655 -1.563225 0.000000 0.000000 0.000000
    10 -0.000001 -0.041039 4.583956 0.000000 0.000000 0.000000
    11 -1.112914 -8.867437 2.842189 0.000000 0.000000 0.000000
    12 1.112910 1.686673 0.481230 0.000000 0.000000 0.000000
    13 -1.648286 -9.402196 -12.013804 -1.858140 -5.336801 -0.959881
    14 0.096944 -8.450419 -0.009364 0.644326 -1.866922 -0.245998
    15 0.447952 -2.798982 -0.200442 -0.632555 -0.188188 0.437361
    16 -0.032910 -1.480206 0.004936 -0.767249 0.000000 0.000002
    17 -0.027022 -1.076919 -0.020212 -0.201653 0.000000 0.000000
    18 -0.249534 -2.846962 -0.174215 -0.511235 -0.169887 0.357523
    19 0.043235 -1.683939 0.096014 -0.815272 0.002823 -0.000167
    20 0.031729 -1.160831 0.058836 -0.220793 0.000642 0.008372
    21 -0.963866 -2.785142 -0.085346 0.047962 -0.066833 0.271982
    22 0.028479 -1.403068 0.006271 -0.840839 0.000000 0.000000
    23 0.021413 -0.957782 0.020047 -0.601221 0.000000 0.000000
    24 1.164474 -2.543938 -0.170328 -0.568482 -0.246524 0.363213
    25 0.024032 -1.129043 0.017806 -0.754838 0.000000 0.000001
    26 0.014896 -0.883989 -0.019845 -0.334517 0.000000 0.000000
    27 -0.586770 -1.264475 0.200164 0.343092 -0.969980 -3.051855
    28 1.522835 0.058681 0.016850 0.296124 0.031833 0.394521
    29 1.117948 0.048424 -0.005764 -0.005241 -0.024647 0.265649
    30 -0.139399 -0.111697 0.014397 1.521827 0.323024 1.395694
    31 -0.488517 -2.755600 -0.228261 -0.945124 0.023395 -0.387835
    32 0.039888 -1.479789 0.029853 -1.586857 0.000000 0.000000
    33 0.028785 -1.075730 -0.023111 -0.303352 0.000000 0.000000
    34 -0.049759 -1.680545 0.100480 -1.511590 0.000000 -0.000002
    35 -0.034141 -1.148312 0.084779 -0.918049 0.000000 0.000000
    36 0.957766 -2.746776 -0.090301 0.293909 -0.131309 -0.040140
    37 -0.033419 -1.397129 -0.011255 -0.468942 0.000000 -0.000001
    38 -0.022361 -0.957434 0.018783 -0.241488 0.000000 0.000000
    39 -1.180680 -2.507215 -0.193861 -0.849276 0.096358 -0.405085
    40 -0.024966 -1.123934 0.017594 -1.517723 0.000000 0.000001
    41 -0.020057 -0.890966 0.010091 -0.909695 0.000000 0.000000
    42 0.583510 -1.197274 0.185377 1.121813 -0.962663 -1.143982
    43 1.535926 0.010245 0.005008 0.283120 -0.138086 -1.134210
    44 1.100770 0.004526 -0.010676 -0.009124 0.013408 -0.421123
    45 0.014680 -0.007296 -0.007612 -2.315981 -0.029003 -1.484436
  time 28
    0 11.668544 5.834522 -10.765800 0.934397 -1.907258 -1.453628
    1 -0.072132 -8.498731 -0.104136 0.269824 0.181491 -0.141309
    2 0.250027 -2.820663 -0.238397 -0.758577 0.008668 -0.269408
    3 1.034833 -0.368955 0.962382 1.438903 -5.718261 1.593918
    4 0.000004 7.330805 -0.181574 0.000000 0.000000 0.000000
    5 -0.000006 -4.491440 2.746747 0.000000 0.000000 0.000000
    6 -0.000006 -5.215600 0.521221 0.000000 0.000000 0.000000
    7 -0.000004 -2.584793 0.626897 0.022996 0.000000 0.000000
    8 -0.000006 -3.113141 3.685755 0.000000 0.000000 0.000000
    9 -0.000007 -7.713655 -1.563225 0.000000 0.000000 0.000000
    10 -0.000001 -0.041039 4.583956 0.000000 0.000000 0.000000
    11 -1.112914 -8.867437 2.842189 0.000000 0.000000 0.000000
    12 1.112910 1.686673 0.481230 0.000000 0.000000 0.000000
    13 -1.644379 -9.394383 -12.013804 -1.857694 -5.339256 -0.959216
    14 0.096944 -8.450419 -0.009364 0.644326 -1.866922 -0.245998
    15 0.447952 -2.798982 -0.200442 -0.632555 -0.188188 0.437361
    16 -0.032910 -1.480206 0.004936 -0.767249 0.000000 0.000002
    17 -0.027022 -1.076919 -0.020212 -0.201653 0.000000 0.000000
    18 -0.249534 -2.846962 -0.174215 -0.511235 -0.169887 0.357523
    19 0.043235 -1.683939 0.096014 -0.815272 0.002823 -0.000167
    20 0.031729 -1.160831 0.058836 -0.220793 0.000642 0.008372
    21 -0.963866 -2.785142 -0.085346 0.047962 -0.066833 0.271982
    22 0.028479 -1.403068 0.006271 -0.840839 0.000000 0.000000
    23 0.021413 -0.957782 0.020047 -0.601221 0.000000 0.000000
    24 1.164474 -2.543938 -0.170328 -0.568482 -0.246524 0.363213
    25 0.024032 -1.129043 0.017806 -0.754838 0.000000 0.000001
    26 0.014896 -0.883989 -0.019845 -0.334517 0.000000 0.000000
    27 -0.586770 -1.264475 0.200164 0.343092 -0.969980 -3.051855
    28 1.522835 0.058681 0.016850 0.296124 0.032140 0.393561
    29 1.117948 0.048424 -0.005764 -0.005073 -0.024683 0.258898
    30 -0.139399 -0.111697 0.014397 1.521827 0.323024 1.395694
    31 -0.488517 -2.755600 -0.228261 -0.945124 0.023395 -0.387835
    32 0.039888 -1.479789 0.029853 -1.586857 0.000000 0.000000
    33 0.028785 -1.075730 -0.023111 -0.303352 0.000000 0.000000
    34 -0.049759 -1.680545 0.100480 -1.511590 0.000000 -0.000002
    35 -0.034141 -1.148312 0.084779 -0.918049 0.000000 0.000000
    36 0.957766 -2.746776 -0.090301 0.291987 -0.150748 -0.043052
    37 -0.033419 -1.397129 -0.011255 -0.426759 0.000000 -0.000001
    38 -0.022361 -0.957434 0.018783 -0.199348 0.000000 0.000000
    39 -1.180680 -2.507215 -0.193861 -0.849276 0.096358 -0.405085
    40 -0.024966 -1.123934 0.017594 -1.517723 0.000000 0.000001
    41 -0.020057 -0.890966 0.010091 -0.909695 0.000000 0.000000
    42 0.583510 -1.197274 0.185377 1.121813 -0.962663 -1.143982
    43 1.535926 0.010245 0.005008 0.283120 -0.138086 -1.134210
    44 1.100770 0.004526 -0.010676 -0.009124 0.013408 -0.421123
    45 0.014680 -0.007296 -0.007612 -2.315981 -0.029003 -1.484436
  time 29
    0 11.668544 5.857961 -10.757988 0.934397 -1.907258 -1.453628
    1 -0.072132 -8.498731 -0.104136 0.269852 0.181479 -0.141195
    2 0.250027 -2.820663 -0.238397 -0.758577 0.008668 -0.269408
    3 1.034833 -0.368955 0.962382 1.438903 -5.718261 1.593918
    4 0.000004 7.330805 -0.181574 0.000000 0.000000 0.000000
    5 -0.000006 -4.491440 2.746747 0.000000 0.000000 0.000000
    6 -0.000006 -5.215600 0.521221 0.000000 0.000000 0.000000
    7 -0.000004 -2.584793 0.626897 0.005998 0.000000 0.000000
    8 -0.000006 -3.113141 3.685755 0.000000 0.000000 0.000000
    9 -0.000007 -7.713655 -1.563225 0.000000 0.000000 0.000000
    10 -0.000001 -0.041039 4.583956 0.000000 0.000000 0.000000
    11 -1.112914 -8.867437 2.842189 0.000000 0.000000 0.000000
    12 1.112910 1.686673 0.481230 0.000000 0.000000 0.000000
    13 -1.640473 -9.390476 -12.013804 -1.857439 -5.340835 -0.958836
    14 0.096944 -8.450419 -0.009364 0.644326 -1.866922 -0.245998
    15 0.447952 -2.798982 -0.200442 -0.632555 -0.188188 0.437361
    16 -0.032910 -1.480206 0.004936 -0.767249 0.000000 0.000002
    17 -0.027022 -1.076919 -0.020212 -0.201653 0.000000 0.000000
    18 -0.249534 -2.846962 -0.174215 -0.511235 -0.169887 0.357523
    19 0.043235 -1.683939 0.096014 -0.815272 0.002823 -0.000167
    20 0.031729 -1.160831 0.058836 -0.220793 0.000642 0.008372
    21 -0.963866 -2.785142 -0.085346 0.047962 -0.066833 0.271982
    22 0.028479 -1.403068 0.006271 -0.840839 0.000000 0.000000
    23 0.021413 -0.957782 0.020047 -0.601221 0.000000 0.000000
    24 1.164474 -2.543938 -0.170328 -0.568482 -0.246524 0.363213
    25 0.024032 -1.129043 0.017806 -0.754838 0.000000 0.000001
    26 0.014896 -0.883989 -0.019845 -0.334517 0.000000 0.000000
    27 -0.586770 -1.264475 0.200164 0.343092 -0.969980 -3.051855
    28 1.522835 0.058681 0.016850 0.296124 0.032320 0.392943
    29 1.117948 0.048424 -0.005764 -0.004965 -0.024707 0.254424
    30 -0.139399 -0.111697 0.014397 1.521827 0.323024 1.395694
    31 -0.488517 -2.755600 -0.228261 -0.945124 0.023395 -0.387835
    32 0.039888 -1.479789 0.029853 -1.586857 0.000000 0.000000
    33 0.028785 -1.075730 -0.023111 -0.303352 0.000000 0.000000
    34 -0.049759 -1.680545 0.100480 -1.511590 0.000000 -0.000002
    35 -0.034141 -1.148312 0.084779 -0.918049 0.000000 0.000000
    36 0.957766 -2.746776 -0.090301 0.290756 -0.163236 -0.044934
    37 -0.033419 -1.397129 -0.011255 -0.399636 0.000000 -0.000001
    38 -0.022361 -0.957434 0.018783 -0.172199 0.000000 0.000000
    39 -1.180680 -2.507215 -0.193861 -0.849276 0.096358 -0.405085
    40 -0.024966 -1.123934 0.017594 -1.517723 0.000000 0.000001
    41 -0.020057 -0.890966 0.010091 -0.909695 0.000000 0.000000
    42 0.583510 -1.197274 0.185377 1.121813 -0.962663 -1.143982
    43 1.535926 0.010245 0.005008 0.283120 -0.138086 -1.134210
    44 1.100770 0.004526 -0.010676 -0.009124 0.013408 -0.421123
    45 0.014680 -0.007296 -0.007612 -2.315981 -0.029003 -1.484436
  time 30
    0 11.668544 5.865773 -10.754081 0.934397 -1.907258 -1.453722
    1 -0.072132 -8.498731 -0.104136 0.269866 0.181479 -0.141157
    2 0.250027 -2.820663 -0.238397 -0.758577 0.008668 -0.269408
    3 1.034833 -0.368955 0.962382 1.438903 -5.718261 1.593918
    4 0.000004 7.330805 -0.181574 0.000000 0.000000 0.000000
    5 -0.000006 -4.491440 2.746747 0.000000 0.000000 0.000000
    6 -0.000006 -5.215600 0.521221 0.000000 0.000000 0.000000
    7 -0.000004 -2.584793 0.626897 0.000000 0.000000 0.000000
    8 -0.000006 -3.113141 3.685755 0.000000 0.000000 0.000000
    9 -0.000007 -7.713655 -1.563225 0.000000 0.000000 0.000000
    10 -0.000001 -0.041039 4.583956 0.000000 0.000000 0.000000
    11 -1.112914 -8.867437 2.842189 0.000000 0.000000 0.000000
    12 1.112910 1.686673 0.481230 0.000000 0.000000 0.000000
    13 -1.640473 -9.390476 -12.013804 -1.857312 -5.341361 -0.958646
    14 0.096944 -8.450419 -0.009364 0.644326 -1.866922 -0.245998
    15 0.447952 -2.798982 -0.200442 -0.632555 -0.188188 0.437361
    16 -0.032910 -1.480206 0.004936 -0.767249 0.000000 0.000002
    17 -0.027022 -1.076919 -0.020212 -0.201653 0.000000 0.000000
    18 -0.249534 -2.846962 -0.174215 -0.511235 -0.169887 0.357523
    19 0.043235 -1.683939 0.096014 -0.815272 0.002823 -0.000167
    20 0.031729 -1.160831 0.058836 -0.220793 0.000642 0.008372
    21 -0.963866 -2.785142 -0.085346 0.047962 -0.066833 0.271982
    22 0.028479 -1.403068 0.006271 -0.840839 0.000000 0.000000
    23 0.021413 -0.957782 0.020047 -0.601221 0.000000 0.000000
    24 1.164474 -2.543938 -0.170328 -0.568482 -0.246524 0.363213
    25 0.024032 -1.129043 0.017806 -0.754838 0.000000 0.000001
    26 0.014896 -0.883989 -0.019845 -0.334517 0.000000 0.000000
    27 -0.586770 -1.264475 0.200164 0.343092 -0.969980 -3.051855
    28 1.522835 0.058681 0.016850 0.296124 0.032393 0.392703
    29 1.117948 0.048424 -0.005764 -0.004929 -0.024719 0.252801
    30 -0.139399 -0.111697 0.014397 1.521827 0.323024 1.395694
    31 -0.488517 -2.755600 -0.228261 -0.945124 0.023395 -0.387835
    32 0.039888 -1.479789 0.029853 -1.586857 0.000000 0.000000
    33 0.028785 -1.075730 -0.023111 -0.303352 0.000000 0.000000
    34 -0.049759 -1.680545 0.100480 -1.511590 0.000000 -0.000002
    35 -0.034141 -1.148312 0.084779 -0.918049 0.000000 0.000000
    36 0.957766 -2.746776 -0.090301 0.290325 -0.167658 -0.045593
    37 -0.033419 -1.397129 -0.011255 -0.390032 0.000000 -0.000001
    38 -0.022361 -0.957434 0.018783 -0.162599 0.000000 0.000000
    39 -1.180680 -2.507215 -0.193861 -0.849276 0.096358 -0.405085
    40 -0.024966 -1.123934 0.017594 -1.517723 0.000000 0.000001
    41 -0.020057 -0.890966 0.010091 -0.909695 0.000000 0.000000
    42 0.583510 -1.197274 0.185377 1.121813 -0.962663 -1.143982
    43 1.535926 0.010245 0.005008 0.283120 -0.138086 -1.134210
    44 1.100770 0.004526 -0.010676 -0.009124 0.013408 -0.421123
    45 0.014680 -0.007296 -0.007612 -2.315981 -0.029003 -1.484436
end
