version 1
nodes
  0 "Bone01" -1
  1 "Bone_Lefthand" 0
  2 "bone_handle01" 1
  3 "bone_trogger01" 2
  4 "bone_load01" 2
  5 "bone_R_blow01" 2
  6 "bone_R_blow02" 5
  7 "bone_R_blow03" 6
  8 "bone_L_blow01" 2
  9 "bone_L_blow02" 8
  10 "bone_L_blow03" 9
  11 "bone_megazine01" 2
  12 "bone_megazine02" 11
  13 "bone_megazine03" 2
  14 "Bone04" -1
  15 "Bone_Righthand" 14
  16 "Bone39" 15
  17 "Bone40" 16
  18 "Bone41" 17
  19 "Bone35" 15
  20 "Bone36" 19
  21 "Bone37" 20
  22 "Bone31" 15
  23 "Bone32" 22
  24 "Bone33" 23
  25 "Bone43" 15
  26 "Bone44" 25
  27 "Bone45" 26
  28 "Bone27" 15
  29 "Bone28" 28
  30 "Bone29" 29
  31 "Bone_Se_Hand-R" 15
  32 "Bone13" 1
  33 "Bone14" 32
  34 "Bone15" 33
  35 "Bone17" 1
  36 "Bone18" 35
  37 "Bone19" 36
  38 "Bone21" 1
  39 "Bone22" 38
  40 "Bone23" 39
  41 "Bone09" 1
  42 "Bone10" 41
  43 "Bone11" 42
  44 "Bone05" 1
  45 "Bone06" 44
  46 "Bone07" 45
  47 "Bone_Se_Hand-L" 1
end
skeleton
  time 0
    0 20.037942 0.974999 -8.343998 1.047695 -1.438245 -1.075717
    1 -0.071918 -8.498731 -0.104137 0.484514 -0.588321 -0.774546
    2 1.665510 -2.904478 0.631343 -0.234326 0.084943 -3.486601
    3 0.037088 1.836796 0.000000 0.000000 0.000000 0.679463
    4 -5.262330 14.242191 0.000421 0.000000 0.000000 -1.282538
    5 -5.655031 16.263659 1.047437 0.005898 -0.283504 -1.279905
    6 7.696722 0.021893 -0.405259 -0.001707 0.561568 -0.000383
    7 6.499035 0.037860 -0.093995 -1.570617 0.258250 -3.138681
    8 -5.655030 16.263657 -1.043029 3.135696 0.283496 -1.279904
    9 7.721393 -0.021960 -0.393362 0.001706 0.561568 0.000382
    10 6.490693 -0.037835 -0.107306 1.570613 0.235176 3.138681
    11 -0.489117 10.226307 1.194557 0.000000 0.000000 -1.282132
    12 1.189389 -0.289587 -1.186743 -2.869193 0.000000 0.003685
    13 -2.628362 8.546533 -0.000005 0.000000 0.000000 -1.274576
    14 -3.214740 -14.554697 -19.506220 0.943759 -5.093103 -4.663044
    15 0.096944 -8.450419 -0.009364 -0.065042 0.534393 0.167215
    16 0.447952 -2.798982 -0.200442 -0.261372 0.139657 0.485692
    17 -0.032910 -1.480206 0.004936 -0.926253 0.000000 0.000002
    18 -0.027022 -1.076919 -0.020212 -0.555463 0.000000 0.000000
    19 -0.249534 -2.846962 -0.174215 -0.007486 0.210085 0.362128
    20 0.043235 -1.683939 0.096014 -0.888276 0.002823 -0.000167
    21 0.031729 -1.160831 0.058836 -0.591217 0.000642 0.008372
    22 -0.963866 -2.785142 -0.085346 0.260711 0.267585 0.317863
    23 0.028479 -1.403068 0.006271 -0.725600 0.000000 0.000000
    24 0.021413 -0.957782 0.020047 -0.362835 0.000000 0.000000
    25 1.164474 -2.543938 -0.170328 -0.983966 0.070580 0.675853
    26 0.024032 -1.129043 0.017806 -1.337944 0.000000 0.000001
    27 0.014896 -0.883989 -0.019845 -0.672931 0.000000 0.000000
    28 -0.586770 -1.264475 0.200164 -0.145726 -0.835002 -2.512122
    29 1.522835 0.058681 0.016850 -0.018888 0.147886 0.403041
    30 1.117948 0.048424 -0.005764 -0.030612 -0.054165 0.599367
    31 -0.057365 -0.119510 0.041742 -0.323707 0.064105 1.500021
    32 -0.488517 -2.755600 -0.228261 -0.619222 -0.044186 -0.439117
    33 0.039888 -1.479789 0.029853 -2.158258 0.000000 0.000000
    34 0.028785 -1.075730 -0.023111 -0.647509 0.000000 0.000000
    35 0.250028 -2.820663 -0.238396 -0.535674 0.054413 -0.329163
    36 -0.049759 -1.680545 0.100480 -1.871489 0.000000 -0.000002
    37 -0.034141 -1.148312 0.084779 -1.387518 0.000000 0.000000
    38 0.957766 -2.746776 -0.090301 0.225143 -0.058359 -0.193630
    39 -0.033419 -1.397129 -0.011255 -0.184014 -0.032275 -0.008534
    40 -0.022361 -0.957434 0.018783 0.003845 0.000000 0.000000
    41 -1.180680 -2.507215 -0.193861 -0.379706 0.103261 -0.518998
    42 -0.024966 -1.123934 0.017594 -2.136747 0.000000 0.000001
    43 -0.020057 -0.890966 0.010091 -0.896554 0.000000 0.000000
    44 0.583510 -1.197274 0.185377 0.220453 -0.870283 -0.672925
    45 1.535926 0.010245 0.005008 -0.063786 0.310988 -1.032101
    46 1.100770 0.004526 -0.010676 -0.009999 0.012761 -0.488483
    47 0.006867 -0.065891 -0.085739 -2.852831 -0.015617 -1.424341
  time 1
    0 19.897312 0.842183 -8.343998 1.047489 -1.456558 -1.087232
    1 -0.071918 -8.498731 -0.104137 0.456957 -0.564610 -0.759030
    2 1.665510 -2.904478 0.631343 -0.234326 0.084943 -3.486601
    3 0.037088 1.836796 0.000000 0.000000 0.000000 0.679463
    4 -5.262330 14.242191 0.000421 0.000000 0.000000 -1.282538
    5 -5.655031 16.263659 1.047437 0.005898 -0.283504 -1.279905
    6 7.696722 0.021893 -0.405259 -0.001707 0.561568 -0.000383
    7 6.499035 0.037860 -0.093995 -1.570617 0.258250 -3.138681
    8 -5.655030 16.263657 -1.043029 3.135696 0.283496 -1.279904
    9 7.721393 -0.021960 -0.393362 0.001706 0.561568 0.000382
    10 6.490693 -0.037835 -0.107306 1.570613 0.235176 3.138681
    11 -0.489117 10.226307 1.194557 0.000000 0.000000 -1.282132
    12 1.189389 -0.289587 -1.186743 -2.869193 0.000000 0.003685
    13 -2.628362 8.546533 -0.000005 0.000000 0.000000 -1.274576
    14 -3.214740 -14.566416 -19.244493 0.908867 -5.121916 -4.694238
    15 0.096944 -8.450419 -0.009364 -0.065042 0.534393 0.167215
    16 0.447952 -2.798982 -0.200442 -0.269613 0.139657 0.485692
    17 -0.032910 -1.480206 0.004936 -0.928479 0.000000 0.000002
    18 -0.027022 -1.076919 -0.020212 -0.555463 0.000000 0.000000
    19 -0.249534 -2.846962 -0.174215 -0.007486 0.210085 0.362128
    20 0.043235 -1.683939 0.096014 -0.898461 0.002823 -0.000167
    21 0.031729 -1.160831 0.058836 -0.594207 0.000642 0.008372
    22 -0.963866 -2.785142 -0.085346 0.260711 0.267585 0.317863
    23 0.028479 -1.403068 0.006271 -0.725600 0.000000 0.000000
    24 0.021413 -0.957782 0.020047 -0.362835 0.000000 0.000000
    25 1.164474 -2.543938 -0.170328 -0.979333 0.070580 0.675853
    26 0.024032 -1.129043 0.017806 -1.331499 0.000000 0.000001
    27 0.014896 -0.883989 -0.019845 -0.672931 0.000000 0.000000
    28 -0.586770 -1.264475 0.200164 -0.125939 -0.830326 -2.517345
    29 1.522835 0.058681 0.016850 -0.018888 0.147886 0.403041
    30 1.117948 0.048424 -0.005764 -0.030564 -0.054285 0.598355
    31 -0.057365 -0.119510 0.041742 -0.323707 0.064105 1.500021
    32 -0.488517 -2.755600 -0.228261 -0.619222 -0.044186 -0.439117
    33 0.039888 -1.479789 0.029853 -2.158258 0.000000 0.000000
    34 0.028785 -1.075730 -0.023111 -0.647509 0.000000 0.000000
    35 0.250028 -2.820663 -0.238396 -0.535674 0.054413 -0.329163
    36 -0.049759 -1.680545 0.100480 -1.871489 0.000000 -0.000002
    37 -0.034141 -1.148312 0.084779 -1.387518 0.000000 0.000000
    38 0.957766 -2.746776 -0.090301 0.225143 -0.058359 -0.193630
    39 -0.033419 -1.397129 -0.011255 -0.184014 -0.032275 -0.008534
    40 -0.022361 -0.957434 0.018783 0.003845 0.000000 0.000000
    41 -1.180680 -2.507215 -0.193861 -0.379706 0.103261 -0.518998
    42 -0.024966 -1.123934 0.017594 -2.136747 0.000000 0.000001
    43 -0.020057 -0.890966 0.010091 -0.896554 0.000000 0.000000
    44 0.583510 -1.197274 0.185377 0.220453 -0.870283 -0.672925
    45 1.535926 0.010245 0.005008 -0.063786 0.310988 -1.032101
    46 1.100770 0.004526 -0.010676 -0.009999 0.012761 -0.488483
    47 0.006867 -0.065891 -0.085739 -2.853311 -0.019257 -1.412132
  time 2
    0 19.522301 0.490609 -8.351810 1.046872 -1.507322 -1.118947
    1 -0.071918 -8.498731 -0.104137 0.388033 -0.503582 -0.720193
    2 1.665510 -2.904478 0.631343 -0.234326 0.084943 -3.486601
    3 0.037088 1.836796 0.000000 0.000000 0.000000 0.679463
    4 -5.262330 14.242191 0.000421 0.000000 0.000000 -1.282538
    5 -5.655031 16.263659 1.047437 0.005898 -0.283504 -1.279905
    6 7.696722 0.021893 -0.405259 -0.001707 0.561568 -0.000383
    7 6.499035 0.037860 -0.093995 -1.570617 0.258250 -3.138681
    8 -5.655030 16.263657 -1.043029 3.135696 0.283496 -1.279904
    9 7.721393 -0.021960 -0.393362 0.001706 0.561568 0.000382
    10 6.490693 -0.037835 -0.107306 1.570613 0.235176 3.138681
    11 -0.489117 10.226307 1.194557 0.000000 0.000000 -1.282132
    12 1.189389 -0.289587 -1.186743 -2.869193 0.000000 0.003685
    13 -2.628362 8.546533 -0.000005 0.000000 0.000000 -1.274576
    14 -3.206927 -14.589854 -18.580410 0.815936 -5.194078 -4.777895
    15 0.096944 -8.450419 -0.009364 -0.065042 0.534393 0.167215
    16 0.447952 -2.798982 -0.200442 -0.291612 0.139657 0.485692
    17 -0.032910 -1.480206 0.004936 -0.934485 0.000000 0.000002
    18 -0.027022 -1.076919 -0.020212 -0.555463 0.000000 0.000000
    19 -0.249534 -2.846962 -0.174215 -0.007486 0.210085 0.362128
    20 0.043235 -1.683939 0.096014 -0.925860 0.002823 -0.000167
    21 0.031729 -1.160831 0.058836 -0.602227 0.000642 0.008372
    22 -0.963866 -2.785142 -0.085346 0.260711 0.267585 0.317863
    23 0.028479 -1.403068 0.006271 -0.725600 0.000000 0.000000
    24 0.021413 -0.957782 0.020047 -0.362835 0.000000 0.000000
    25 1.164474 -2.543938 -0.170328 -0.966424 0.070580 0.675853
    26 0.024032 -1.129043 0.017806 -1.313132 0.000000 0.000001
    27 0.014896 -0.883989 -0.019845 -0.672931 0.000000 0.000000
    28 -0.586770 -1.264475 0.200164 -0.072900 -0.817133 -2.531951
    29 1.522835 0.058681 0.016850 -0.018888 0.147886 0.403041
    30 1.117948 0.048424 -0.005764 -0.030396 -0.054620 0.595019
    31 -0.057365 -0.119510 0.041742 -0.323707 0.064105 1.500021
    32 -0.488517 -2.755600 -0.228261 -0.619222 -0.044186 -0.439117
    33 0.039888 -1.479789 0.029853 -2.158258 0.000000 0.000000
    34 0.028785 -1.075730 -0.023111 -0.647509 0.000000 0.000000
    35 0.250028 -2.820663 -0.238396 -0.535674 0.054413 -0.329163
    36 -0.049759 -1.680545 0.100480 -1.871489 0.000000 -0.000002
    37 -0.034141 -1.148312 0.084779 -1.387518 0.000000 0.000000
    38 0.957766 -2.746776 -0.090301 0.225143 -0.058359 -0.193630
    39 -0.033419 -1.397129 -0.011255 -0.184014 -0.032275 -0.008534
    40 -0.022361 -0.957434 0.018783 0.003845 0.000000 0.000000
    41 -1.180680 -2.507215 -0.193861 -0.379706 0.103261 -0.518998
    42 -0.024966 -1.123934 0.017594 -2.136747 0.000000 0.000001
    43 -0.020057 -0.890966 0.010091 -0.896554 0.000000 0.000000
    44 0.583510 -1.197274 0.185377 0.220453 -0.870283 -0.672925
    45 1.535926 0.010245 0.005008 -0.063786 0.310988 -1.032101
    46 1.100770 0.004526 -0.010676 -0.009999 0.012761 -0.488483
    47 0.006867 -0.065891 -0.085739 3.428639 -0.028070 -1.381885
  time 3
    0 18.979316 -0.009406 -8.363530 1.046049 -1.583989 -1.166959
    1 -0.071918 -8.498731 -0.104137 0.298456 -0.420394 -0.669695
    2 1.665510 -2.904478 0.631343 -0.234326 0.084943 -3.486601
    3 0.037088 1.836796 0.000000 0.000000 0.000000 0.679463
    4 -5.262330 14.242191 0.000421 0.000000 0.000000 -1.282538
    5 -5.655031 16.263659 1.047437 0.005898 -0.283504 -1.279905
    6 7.696722 0.021893 -0.405259 -0.001707 0.561568 -0.000383
    7 6.499035 0.037860 -0.093995 -1.570617 0.258250 -3.138681
    8 -5.655030 16.263657 -1.043029 3.135696 0.283496 -1.279904
    9 7.721393 -0.021960 -0.393362 0.001706 0.561568 0.000382
    10 6.490693 -0.037835 -0.107306 1.570613 0.235176 3.138681
    11 -0.489117 10.226307 1.194557 0.000000 0.000000 -1.282132
    12 1.189389 -0.289587 -1.186743 -2.869193 0.000000 0.003685
    13 -2.628362 8.546533 -0.000005 0.000000 0.000000 -1.274576
    14 -3.179582 -14.621105 -17.685852 0.682209 -5.287872 -4.898797
    15 0.096944 -8.450419 -0.009364 -0.065042 0.534393 0.167215
    16 0.447952 -2.798982 -0.200442 -0.323492 0.139657 0.485692
    17 -0.032910 -1.480206 0.004936 -0.943179 0.000000 0.000002
    18 -0.027022 -1.076919 -0.020212 -0.555463 0.000000 0.000000
    19 -0.249534 -2.846962 -0.174215 -0.007486 0.210085 0.362128
    20 0.043235 -1.683939 0.096014 -0.965491 0.002823 -0.000167
    21 0.031729 -1.160831 0.058836 -0.613824 0.000642 0.008372
    22 -0.963866 -2.785142 -0.085346 0.260711 0.267585 0.317863
    23 0.028479 -1.403068 0.006271 -0.725600 0.000000 0.000000
    24 0.021413 -0.957782 0.020047 -0.362835 0.000000 0.000000
    25 1.164474 -2.543938 -0.170328 -0.946981 0.070580 0.675853
    26 0.024032 -1.129043 0.017806 -1.284091 0.000000 0.000001
    27 0.014896 -0.883989 -0.019845 -0.672931 0.000000 0.000000
    28 -0.586770 -1.264475 0.200164 0.003873 -0.796685 -2.554342
    29 1.522835 0.058681 0.016850 -0.018888 0.147886 0.403041
    30 1.117948 0.048424 -0.005764 -0.030085 -0.055112 0.588811
    31 -0.057365 -0.119510 0.041742 -0.323707 0.064105 1.500021
    32 -0.488517 -2.755600 -0.228261 -0.619222 -0.044186 -0.439117
    33 0.039888 -1.479789 0.029853 -2.158258 0.000000 0.000000
    34 0.028785 -1.075730 -0.023111 -0.647509 0.000000 0.000000
    35 0.250028 -2.820663 -0.238396 -0.535674 0.054413 -0.329163
    36 -0.049759 -1.680545 0.100480 -1.871489 0.000000 -0.000002
    37 -0.034141 -1.148312 0.084779 -1.387518 0.000000 0.000000
    38 0.957766 -2.746776 -0.090301 0.225143 -0.058359 -0.193630
    39 -0.033419 -1.397129 -0.011255 -0.184014 -0.032275 -0.008534
    40 -0.022361 -0.957434 0.018783 0.003845 0.000000 0.000000
    41 -1.180680 -2.507215 -0.193861 -0.379706 0.103261 -0.518998
    42 -0.024966 -1.123934 0.017594 -2.136747 0.000000 0.000001
    43 -0.020057 -0.890966 0.010091 -0.896554 0.000000 0.000000
    44 0.583510 -1.197274 0.185377 0.220453 -0.870283 -0.672925
    45 1.535926 0.010245 0.005008 -0.063786 0.310988 -1.032101
    46 1.100770 0.004526 -0.010676 -0.009999 0.012761 -0.488483
    47 0.006867 -0.065891 -0.085739 3.427009 6.243366 -1.342526
  time 4
    0 18.330858 -0.575829 -8.386968 1.044952 -1.680155 -1.227053
    1 -0.071918 -8.498731 -0.104137 0.208864 -0.330202 -0.619196
    2 1.665510 -2.904478 0.631343 -0.234326 0.084943 -3.486601
    3 0.037088 1.836796 0.000000 0.000000 0.000000 0.679463
    4 -5.262330 14.242191 0.000421 0.000000 0.000000 -1.282538
    5 -5.655031 16.263659 1.047437 0.005898 -0.246815 -1.279905
    6 7.696722 0.021893 -0.405259 -0.001707 0.490714 -0.000383
    7 6.499035 0.037860 -0.093995 -1.570617 0.258250 -3.138681
    8 -5.655030 16.263657 -1.043029 3.135696 0.246808 -1.279904
    9 7.721393 -0.021960 -0.393362 0.001706 0.490714 0.000382
    10 6.490693 -0.037835 -0.107306 1.570613 0.235176 3.138681
    11 -0.489117 10.226307 1.194557 0.000000 0.000000 -1.282132
    12 1.189389 -0.289587 -1.186743 -2.869193 0.000000 0.003685
    13 -2.628362 8.546533 -0.000005 0.000000 0.000000 -1.274576
    14 -3.128799 -14.664075 -16.724885 0.525132 -5.381666 -5.041723
    15 0.096944 -8.450419 -0.009364 -0.065042 0.534393 0.167215
    16 0.447952 -2.798982 -0.200442 -0.361274 0.139657 0.485692
    17 -0.032910 -1.480206 0.004936 -0.953511 0.000000 0.000002
    18 -0.027022 -1.076919 -0.020212 -0.555463 0.000000 0.000000
    19 -0.249534 -2.846962 -0.174215 -0.007486 0.210085 0.362128
    20 0.043235 -1.683939 0.096014 -1.012539 0.002823 -0.000167
    21 0.031729 -1.160831 0.058836 -0.627601 0.000642 0.008372
    22 -0.963866 -2.785142 -0.085346 0.260711 0.267585 0.317863
    23 0.028479 -1.403068 0.006271 -0.725600 0.000000 0.000000
    24 0.021413 -0.957782 0.020047 -0.362835 0.000000 0.000000
    25 1.164474 -2.543938 -0.170328 -0.922628 0.070580 0.675853
    26 0.024032 -1.129043 0.017806 -1.245705 0.000000 0.000001
    27 0.014896 -0.883989 -0.019845 -0.672931 0.000000 0.000000
    28 -0.586770 -1.264475 0.200164 0.094910 -0.770273 -2.582971
    29 1.522835 0.058681 0.016850 -0.018888 0.147886 0.403041
    30 1.117948 0.048424 -0.005764 -0.029569 -0.055687 0.579241
    31 -0.057365 -0.119510 0.041742 -0.323707 0.064105 1.500021
    32 -0.488517 -2.755600 -0.228261 -0.619222 -0.044186 -0.439117
    33 0.039888 -1.479789 0.029853 -2.158258 0.000000 0.000000
    34 0.028785 -1.075730 -0.023111 -0.647509 0.000000 0.000000
    35 0.250028 -2.820663 -0.238396 -0.535674 0.054413 -0.329163
    36 -0.049759 -1.680545 0.100480 -1.871489 0.000000 -0.000002
    37 -0.034141 -1.148312 0.084779 -1.387518 0.000000 0.000000
    38 0.957766 -2.746776 -0.090301 0.225143 -0.058359 -0.193630
    39 -0.033419 -1.397129 -0.011255 -0.184014 -0.032275 -0.008534
    40 -0.022361 -0.957434 0.018783 0.003845 0.000000 0.000000
    41 -1.180680 -2.507215 -0.193861 -0.379706 0.103261 -0.518998
    42 -0.024966 -1.123934 0.017594 -2.136747 0.000000 0.000001
    43 -0.020057 -0.890966 0.010091 -0.896554 0.000000 0.000000
    44 0.583510 -1.197274 0.185377 0.220453 -0.870283 -0.672925
    45 1.535926 0.010245 0.005008 -0.063786 0.310988 -1.032101
    46 1.100770 0.004526 -0.010676 -0.009999 0.012761 -0.488483
    47 0.006867 -0.065891 -0.085739 3.425475 6.231775 -1.303076
  time 5
    0 17.647244 -1.150066 -8.422125 1.043649 -1.789202 -1.295265
    1 -0.071918 -8.498731 -0.104137 0.139940 -0.248136 -0.580359
    2 1.665510 -2.904478 0.631343 -0.234326 0.084943 -3.486601
    3 0.037088 1.836796 0.000000 0.000000 0.000000 0.679463
    4 -5.262330 14.242191 0.000421 0.000000 0.000000 -1.282538
    5 -5.655031 16.263659 1.047437 0.005898 -0.168030 -1.279905
    6 7.696722 0.021893 -0.405259 -0.001707 0.335026 -0.000383
    7 6.499035 0.037860 -0.093995 -1.570617 0.258250 -3.138681
    8 -5.655030 16.263657 -1.043029 3.135696 0.168025 -1.279904
    9 7.721393 -0.021960 -0.393362 0.001706 0.335026 0.000382
    10 6.490693 -0.037835 -0.107306 1.570613 0.235176 3.138681
    11 -0.489117 10.226307 1.194557 0.000000 0.000000 -1.282132
    12 1.189389 -0.289587 -1.186743 -2.869193 0.000000 0.003685
    13 -2.628362 8.546533 -0.000005 0.000000 0.000000 -1.274576
    14 -3.046766 -14.707045 -15.873297 0.362083 -5.453828 -5.191456
    15 0.096944 -8.450419 -0.009364 -0.065042 0.534393 0.167215
    16 0.447952 -2.798982 -0.200442 -0.401010 0.139657 0.485692
    17 -0.032910 -1.480206 0.004936 -0.964347 0.000000 0.000002
    18 -0.027022 -1.076919 -0.020212 -0.555463 0.000000 0.000000
    19 -0.249534 -2.846962 -0.174215 -0.007486 0.210085 0.362128
    20 0.043235 -1.683939 0.096014 -1.061968 0.002823 -0.000167
    21 0.031729 -1.160831 0.058836 -0.642076 0.000642 0.008372
    22 -0.963866 -2.785142 -0.085346 0.260711 0.267585 0.317863
    23 0.028479 -1.403068 0.006271 -0.725600 0.000000 0.000000
    24 0.021413 -0.957782 0.020047 -0.362835 0.000000 0.000000
    25 1.164474 -2.543938 -0.170328 -0.895029 0.070580 0.675853
    26 0.024032 -1.129043 0.017806 -1.199343 0.000000 0.000001
    27 0.014896 -0.883989 -0.019845 -0.672931 0.000000 0.000000
    28 -0.586770 -1.264475 0.200164 0.190694 -0.739110 -2.616240
    29 1.522835 0.058681 0.016850 -0.018888 0.147886 0.403041
    30 1.117948 0.048424 -0.005764 -0.028838 -0.056298 0.565759
    31 -0.057365 -0.119510 0.041742 -0.323707 0.064105 1.500021
    32 -0.488517 -2.755600 -0.228261 -0.619222 -0.044186 -0.439117
    33 0.039888 -1.479789 0.029853 -2.158258 0.000000 0.000000
    34 0.028785 -1.075730 -0.023111 -0.647509 0.000000 0.000000
    35 0.250028 -2.820663 -0.238396 -0.535674 0.054413 -0.329163
    36 -0.049759 -1.680545 0.100480 -1.871489 0.000000 -0.000002
    37 -0.034141 -1.148312 0.084779 -1.387518 0.000000 0.000000
    38 0.957766 -2.746776 -0.090301 0.225143 -0.058359 -0.193630
    39 -0.033419 -1.397129 -0.011255 -0.184014 -0.032275 -0.008534
    40 -0.022361 -0.957434 0.018783 0.003845 0.000000 0.000000
    41 -1.180680 -2.507215 -0.193861 -0.379706 0.103261 -0.518998
    42 -0.024966 -1.123934 0.017594 -2.136747 0.000000 0.000001
    43 -0.020057 -0.890966 0.010091 -0.896554 0.000000 0.000000
    44 0.583510 -1.197274 0.185377 0.220453 -0.870283 -0.672925
    45 1.535926 0.010245 0.005008 -0.063786 0.310988 -1.032101
    46 1.100770 0.004526 -0.010676 -0.009999 0.012761 -0.488483
    47 0.006867 -0.065891 -0.085739 3.424229 6.222865 -1.272828
  time 6
    0 16.990974 -1.650081 -8.476814 1.042347 -1.904726 -1.367566
    1 -0.071918 -8.498731 -0.104137 0.112383 -0.189407 -0.564843
    2 1.665510 -2.904478 0.631343 -0.234326 0.084943 -3.486601
    3 0.037088 1.836796 0.000000 0.000000 0.000000 0.679463
    4 -5.262330 14.242191 0.000421 0.000000 0.000000 -1.282538
    5 -5.655031 16.263659 1.047437 0.005898 -0.094167 -1.279905
    6 7.696722 0.021893 -0.405259 -0.001707 0.179931 -0.000383
    7 6.499035 0.037860 -0.093995 -1.570617 0.258250 -3.138681
    8 -5.655030 16.263657 -1.043029 3.135696 0.094165 -1.279904
    9 7.721393 -0.021960 -0.393362 0.001706 0.179932 0.000382
    10 6.490693 -0.037835 -0.107306 1.570613 0.235176 3.138681
    11 -0.489117 10.226307 1.194557 0.000000 0.000000 -1.282132
    12 1.189389 -0.289587 -1.186743 -2.869193 0.000000 0.003685
    13 -2.628362 8.546533 -0.000005 0.000000 0.000000 -1.274576
    14 -2.921762 -14.753921 -15.302967 0.210507 -5.482641 -5.332870
    15 0.096944 -8.450419 -0.009364 -0.065042 0.534393 0.167215
    16 0.447952 -2.798982 -0.200442 -0.438827 0.139657 0.485692
    17 -0.032910 -1.480206 0.004936 -0.974678 0.000000 0.000002
    18 -0.027022 -1.076919 -0.020212 -0.555463 0.000000 0.000000
    19 -0.249534 -2.846962 -0.174215 -0.007486 0.210085 0.362128
    20 0.043235 -1.683939 0.096014 -1.108961 0.002823 -0.000167
    21 0.031729 -1.160831 0.058836 -0.655853 0.000642 0.008372
    22 -0.963866 -2.785142 -0.085346 0.260711 0.267585 0.317863
    23 0.028479 -1.403068 0.006271 -0.725600 0.000000 0.000000
    24 0.021413 -0.957782 0.020047 -0.362835 0.000000 0.000000
    25 1.164474 -2.543938 -0.170328 -0.865805 0.070580 0.675853
    26 0.024032 -1.129043 0.017806 -1.146295 0.000000 0.000001
    27 0.014896 -0.883989 -0.019845 -0.672931 0.000000 0.000000
    28 -0.586770 -1.264475 0.200164 0.281709 -0.704483 -2.652527
    29 1.522835 0.058681 0.016850 -0.018888 0.147886 0.403041
    30 1.117948 0.048424 -0.005764 -0.027855 -0.056873 0.547848
    31 -0.057365 -0.119510 0.041742 -0.323707 0.064105 1.500021
    32 -0.488517 -2.755600 -0.228261 -0.619222 -0.044186 -0.439117
    33 0.039888 -1.479789 0.029853 -2.158258 0.000000 0.000000
    34 0.028785 -1.075730 -0.023111 -0.647509 0.000000 0.000000
    35 0.250028 -2.820663 -0.238396 -0.535674 0.054413 -0.329163
    36 -0.049759 -1.680545 0.100480 -1.871489 0.000000 -0.000002
    37 -0.034141 -1.148312 0.084779 -1.387518 0.000000 0.000000
    38 0.957766 -2.746776 -0.090301 0.225143 -0.058359 -0.193630
    39 -0.033419 -1.397129 -0.011255 -0.184014 -0.032275 -0.008534
    40 -0.022361 -0.957434 0.018783 0.003845 0.000000 0.000000
    41 -1.180680 -2.507215 -0.193861 -0.379706 0.103261 -0.518998
    42 -0.024966 -1.123934 0.017594 -2.136747 0.000000 0.000001
    43 -0.020057 -0.890966 0.010091 -0.896554 0.000000 0.000000
    44 0.583510 -1.197274 0.185377 0.220453 -0.870283 -0.672925
    45 1.535926 0.010245 0.005008 -0.063786 0.310988 -1.032101
    46 1.100770 0.004526 -0.010676 -0.009999 0.012761 -0.488483
    47 0.006867 -0.065891 -0.085739 3.423749 6.219321 -1.260711
  time 7
    0 16.303453 -2.146190 -8.574474 1.041044 -2.020249 -1.439805
    1 -0.071918 -8.498731 -0.104137 0.113191 -0.157436 -0.570722
    2 1.665510 -2.904478 0.631343 -0.234326 0.084943 -3.486601
    3 0.037088 1.836796 0.000000 0.000000 0.000000 0.679463
    4 -5.262330 14.242191 0.000421 0.000000 0.000000 -1.282538
    5 -5.655031 16.263659 1.047437 0.005898 -0.060392 -1.279905
    6 7.696722 0.021893 -0.405259 -0.001707 0.056199 -0.000383
    7 6.499035 0.037860 -0.093995 -1.570617 0.258250 -3.138681
    8 -5.655030 16.263657 -1.043029 3.135696 0.060359 -1.279904
    9 7.721393 -0.021960 -0.393362 0.001706 0.056200 0.000382
    10 6.490693 -0.037835 -0.107306 1.570613 0.235176 3.138681
    11 -0.489117 10.226307 1.194557 0.000000 0.000000 -1.282132
    12 1.189389 -0.289587 -1.186743 -2.869193 0.000000 0.003685
    13 -2.628362 8.546533 -0.000005 0.000000 0.000000 -1.274576
    14 -2.726443 -14.800798 -14.970925 0.056248 -5.482382 -5.484777
    15 0.096944 -8.450419 -0.009364 -0.065042 0.534393 0.167215
    16 0.447952 -2.798982 -0.200442 -0.470672 0.139657 0.485692
    17 -0.032910 -1.480206 0.004936 -0.983372 0.000000 0.000002
    18 -0.027022 -1.076919 -0.020212 -0.555463 0.000000 0.000000
    19 -0.249534 -2.846962 -0.174215 -0.007486 0.210085 0.362128
    20 0.043235 -1.683939 0.096014 -1.148648 0.002823 -0.000167
    21 0.031729 -1.160831 0.058836 -0.667450 0.000642 0.008372
    22 -0.963866 -2.785142 -0.085346 0.260711 0.267585 0.317863
    23 0.028479 -1.403068 0.006271 -0.725600 0.000000 0.000000
    24 0.021413 -0.957782 0.020047 -0.362835 0.000000 0.000000
    25 1.164474 -2.543938 -0.170328 -0.836622 0.070580 0.675853
    26 0.024032 -1.129043 0.017806 -1.087891 0.000000 0.000001
    27 0.014896 -0.883989 -0.019845 -0.672931 0.000000 0.000000
    28 -0.586770 -1.264475 0.200164 0.358505 -0.667683 -2.690285
    29 1.522835 0.058681 0.016850 -0.018888 0.147886 0.403041
    30 1.117948 0.048424 -0.005764 -0.026561 -0.057365 0.525042
    31 -0.057365 -0.119510 0.041742 -0.323707 0.064105 1.500021
    32 -0.488517 -2.755600 -0.228261 -0.619222 -0.044186 -0.439117
    33 0.039888 -1.479789 0.029853 -2.158258 0.000000 0.000000
    34 0.028785 -1.075730 -0.023111 -0.647509 0.000000 0.000000
    35 0.250028 -2.820663 -0.238396 -0.535674 0.054413 -0.329163
    36 -0.049759 -1.680545 0.100480 -1.871489 0.000000 -0.000002
    37 -0.034141 -1.148312 0.084779 -1.387518 0.000000 0.000000
    38 0.957766 -2.746776 -0.090301 0.225143 -0.058359 -0.193630
    39 -0.033419 -1.397129 -0.011255 -0.184014 -0.032275 -0.008534
    40 -0.022361 -0.957434 0.018783 0.003845 0.000000 0.000000
    41 -1.180680 -2.507215 -0.193861 -0.379706 0.103261 -0.518998
    42 -0.024966 -1.123934 0.017594 -2.136747 0.000000 0.000001
    43 -0.020057 -0.890966 0.010091 -0.896554 0.000000 0.000000
    44 0.583510 -1.197274 0.185377 0.220453 -0.870283 -0.672925
    45 1.535926 0.010245 0.005008 -0.063786 0.310988 -1.032101
    46 1.100770 0.004526 -0.010676 -0.009999 0.012761 -0.488483
    47 0.006867 -0.065891 -0.085739 3.424229 6.222865 -1.272828
  time 8
    0 15.522179 -2.720426 -8.742447 1.039810 -2.129366 -1.508017
    1 -0.071918 -8.498731 -0.104137 0.115835 -0.140809 -0.585491
    2 1.665510 -2.904478 0.631343 -0.234326 0.084943 -3.486601
    3 0.037088 1.836796 0.000000 0.000000 0.000000 0.679463
    4 -5.262330 14.242191 0.000421 0.000000 0.000000 -1.282538
    5 -5.655031 16.263659 1.047437 0.005898 -0.096660 -1.279905
    6 7.696722 0.021893 -0.405259 -0.001707 0.204418 -0.000383
    7 6.499035 0.037860 -0.093995 -1.570617 0.258250 -3.138681
    8 -5.655030 16.263657 -1.043029 3.135696 0.096658 -1.279904
    9 7.721393 -0.021960 -0.393362 0.001706 0.204419 0.000382
    10 6.490693 -0.037835 -0.107306 1.570613 0.235176 3.138681
    11 -0.489117 10.226307 1.194557 0.000000 0.000000 -1.282132
    12 1.189389 -0.297399 -1.194556 -2.913460 0.000000 0.003685
    13 -2.628362 8.546533 -0.000005 0.000000 0.000000 -1.274576
    14 -2.449091 -14.863300 -14.717011 -0.119147 -5.481603 -5.665987
    15 0.096944 -8.450419 -0.009364 -0.054412 0.255709 0.164764
    16 0.447952 -2.798982 -0.200442 -0.492706 0.139657 0.485692
    17 -0.032910 -1.480206 0.004936 -0.989378 0.000000 0.000002
    18 -0.027022 -1.076919 -0.020212 -0.555463 0.000000 0.000000
    19 -0.249534 -2.846962 -0.174215 -0.007486 0.210085 0.362128
    20 0.043235 -1.683939 0.096014 -1.176046 0.002823 -0.000167
    21 0.031729 -1.160831 0.058836 -0.675470 0.000642 0.008372
    22 -0.963866 -2.785142 -0.085346 0.260711 0.267585 0.317863
    23 0.028479 -1.403068 0.006271 -0.725600 0.000000 0.000000
    24 0.021413 -0.957782 0.020047 -0.362835 0.000000 0.000000
    25 1.164474 -2.543938 -0.170328 -0.809140 0.070580 0.675853
    26 0.024032 -1.129043 0.017806 -1.025458 0.000000 0.000001
    27 0.014896 -0.883989 -0.019845 -0.672931 0.000000 0.000000
    28 -0.586770 -1.264475 0.200164 0.411521 -0.629923 -2.727915
    29 1.522835 0.058681 0.016850 -0.018888 0.147886 0.403041
    30 1.117948 0.048424 -0.005764 -0.024931 -0.057700 0.496740
    31 -0.057365 -0.119510 0.041742 -0.090804 0.064105 1.500021
    32 -0.488517 -2.755600 -0.228261 -0.619222 -0.044186 -0.439117
    33 0.039888 -1.479789 0.029853 -2.158258 0.000000 0.000000
    34 0.028785 -1.075730 -0.023111 -0.647509 0.000000 0.000000
    35 0.250028 -2.820663 -0.238396 -0.535674 0.054413 -0.329163
    36 -0.049759 -1.680545 0.100480 -1.871489 0.000000 -0.000002
    37 -0.034141 -1.148312 0.084779 -1.387518 0.000000 0.000000
    38 0.957766 -2.746776 -0.090301 0.225143 -0.058359 -0.193630
    39 -0.033419 -1.397129 -0.011255 -0.184014 -0.032275 -0.008534
    40 -0.022361 -0.957434 0.018783 0.003845 0.000000 0.000000
    41 -1.180680 -2.507215 -0.193861 -0.379706 0.103261 -0.518998
    42 -0.024966 -1.123934 0.017594 -2.136747 0.000000 0.000001
    43 -0.020057 -0.890966 0.010091 -0.896554 0.000000 0.000000
    44 0.583510 -1.197274 0.185377 0.220453 -0.870283 -0.672925
    45 1.535926 0.010245 0.005008 -0.063786 0.310988 -1.032101
    46 1.100770 0.004526 -0.010676 -0.009999 0.012761 -0.488483
    47 0.006867 -0.065891 -0.085739 3.425475 6.231775 -1.303076
  time 9
    0 14.705748 -3.290756 -8.961204 1.038712 -2.225462 -1.568174
    1 -0.071918 -8.498731 -0.104137 0.120547 -0.132335 -0.604669
    2 1.665510 -2.904478 0.631343 -0.234326 0.084943 -3.486601
    3 0.037088 1.836796 0.000000 0.000000 0.000000 0.679463
    4 -5.246704 14.187502 0.000421 0.000000 0.000000 -1.282538
    5 -5.655031 16.263659 1.047437 0.005898 -0.283504 -1.279905
    6 7.696722 0.021893 -0.405259 -0.001707 0.561568 -0.000383
    7 6.499035 0.037860 -0.093995 -1.570617 0.258250 -3.138681
    8 -5.655030 16.263657 -1.043029 3.135696 0.283496 -1.279904
    9 7.721393 -0.021960 -0.393362 0.001706 0.561568 0.000382
    10 6.490693 -0.037835 -0.107306 1.570613 0.235176 3.138681
    11 -0.489117 10.226307 1.194557 0.000000 0.000000 -1.282132
    12 1.189389 -0.320837 -1.225807 -3.035624 0.000000 0.003685
    13 -2.628362 8.546533 -0.000005 0.000000 0.000000 -1.274576
    14 -2.124863 -14.925802 -14.529506 -0.305077 -5.480478 -5.861282
    15 0.096944 -8.450419 -0.009364 -0.030634 -0.261783 0.160255
    16 0.447952 -2.798982 -0.200442 -0.500911 0.139657 0.485692
    17 -0.032910 -1.480206 0.004936 -0.991646 0.000000 0.000002
    18 -0.027022 -1.076919 -0.020212 -0.555463 0.000000 0.000000
    19 -0.249534 -2.846962 -0.174215 -0.007486 0.210085 0.362128
    20 0.043235 -1.683939 0.096014 -1.186231 0.002823 -0.000167
    21 0.031729 -1.160831 0.058836 -0.678460 0.000642 0.008372
    22 -0.963866 -2.785142 -0.085346 0.260711 0.267585 0.317863
    23 0.028479 -1.403068 0.006271 -0.725600 0.000000 0.000000
    24 0.021413 -0.957782 0.020047 -0.362835 0.000000 0.000000
    25 1.164474 -2.543938 -0.170328 -0.785025 0.070580 0.675853
    26 0.024032 -1.129043 0.017806 -0.960286 0.000000 0.000001
    27 0.014896 -0.883989 -0.019845 -0.672931 0.000000 0.000000
    28 -0.586770 -1.264475 0.200164 0.431308 -0.592491 -2.763847
    29 1.522835 0.058681 0.016850 -0.018888 0.147886 0.403041
    30 1.117948 0.048424 -0.005764 -0.022942 -0.057832 0.462503
    31 -0.057365 -0.119510 0.041742 0.341741 0.064105 1.500021
    32 -0.488517 -2.755600 -0.228261 -0.619222 -0.044186 -0.439117
    33 0.039888 -1.479789 0.029853 -2.158258 0.000000 0.000000
    34 0.028785 -1.075730 -0.023111 -0.647509 0.000000 0.000000
    35 0.250028 -2.820663 -0.238396 -0.535674 0.054413 -0.329163
    36 -0.049759 -1.680545 0.100480 -1.871489 0.000000 -0.000002
    37 -0.034141 -1.148312 0.084779 -1.387518 0.000000 0.000000
    38 0.957766 -2.746776 -0.090301 0.225143 -0.058359 -0.193630
    39 -0.033419 -1.397129 -0.011255 -0.184014 -0.032275 -0.008534
    40 -0.022361 -0.957434 0.018783 0.003845 0.000000 0.000000
    41 -1.180680 -2.507215 -0.193861 -0.379706 0.103261 -0.518998
    42 -0.024966 -1.123934 0.017594 -2.136747 0.000000 0.000001
    43 -0.020057 -0.890966 0.010091 -0.896554 0.000000 0.000000
    44 0.583510 -1.197274 0.185377 0.220453 -0.870283 -0.672925
    45 1.535926 0.010245 0.005008 -0.063786 0.310988 -1.032101
    46 1.100770 0.004526 -0.010676 -0.009999 0.012761 -0.488483
    47 0.006867 -0.065891 -0.085739 3.427009 6.243366 -1.342526
  time 10
    0 13.904942 -3.790771 -9.207305 4.179341 -0.839388 -4.757625
    1 -0.071918 -8.498731 -0.104137 0.127623 -0.124823 -0.623846
    2 1.665510 -2.904478 0.631343 -0.234326 0.084943 -3.486601
    3 0.037088 1.836796 0.000000 0.000000 0.000000 0.679463
    4 -5.184202 13.980464 0.000421 0.000000 0.000000 -1.282538
    5 -5.655031 16.263659 1.047437 0.005898 -0.963815 -1.279905
    6 7.696722 0.021893 -0.405259 -0.001707 1.310017 -0.000383
    7 6.499035 0.037860 -0.093995 -1.570617 0.868358 -3.138681
    8 -5.655030 16.263657 -1.043029 3.135696 0.963818 -1.279904
    9 7.721393 -0.021960 -0.393362 0.001706 1.310015 0.000382
    10 6.490693 -0.037835 -0.107306 1.469559 0.924397 3.084223
    11 -0.489117 10.226307 1.194557 0.000000 0.000000 -1.282132
    12 1.189389 -0.352088 -1.268777 3.063698 0.000000 0.003685
    13 -2.628362 8.546533 -0.000005 0.000000 0.000000 -1.274576
    14 -1.788915 -14.992210 -14.404502 -0.490805 -5.479180 -6.055254
    15 0.096944 -8.450419 -0.009364 -0.005970 -0.540417 0.157854
    16 0.447952 -2.798982 -0.200442 -0.469206 0.141414 0.510440
    17 -0.032910 -1.480206 0.004936 -0.985808 0.000000 0.000002
    18 -0.027022 -1.076919 -0.020212 -0.542726 0.000000 0.000000
    19 -0.249534 -2.846962 -0.174215 -0.071925 0.221937 0.387177
    20 0.043235 -1.683939 0.096014 -1.078573 -0.012385 -0.000179
    21 0.031729 -1.160831 0.058836 -0.582610 0.000642 0.008372
    22 -0.963866 -2.785142 -0.085346 0.211015 0.267585 0.317863
    23 0.028479 -1.403068 0.006271 -0.611001 0.000000 0.000000
    24 0.021413 -0.957782 0.020047 -0.294677 0.000000 0.000000
    25 1.164474 -2.543938 -0.170328 -0.767523 0.070580 0.675853
    26 0.024032 -1.129043 0.017806 -0.874129 0.000000 0.000001
    27 0.014896 -0.883989 -0.019845 -0.609778 0.000000 0.000000
    28 -0.586770 -1.264475 0.200164 0.427759 -0.534789 -2.806879
    29 1.522835 0.058681 0.016850 -0.017092 0.142565 0.418592
    30 1.117948 0.048424 -0.005764 -0.017273 -0.052199 0.342020
    31 -0.057365 -0.119510 0.041742 0.574644 0.064105 1.500021
    32 -0.488517 -2.755600 -0.228261 -0.619222 -0.044186 -0.439117
    33 0.039888 -1.479789 0.029853 -2.158258 0.000000 0.000000
    34 0.028785 -1.075730 -0.023111 -0.647509 0.000000 0.000000
    35 0.250028 -2.820663 -0.238396 -0.535674 0.054413 -0.329163
    36 -0.049759 -1.680545 0.100480 -1.871489 0.000000 -0.000002
    37 -0.034141 -1.148312 0.084779 -1.387518 0.000000 0.000000
    38 0.957766 -2.746776 -0.090301 0.225143 -0.058359 -0.193630
    39 -0.033419 -1.397129 -0.011255 -0.184014 -0.032275 -0.008534
    40 -0.022361 -0.957434 0.018783 0.003845 0.000000 0.000000
    41 -1.180680 -2.507215 -0.193861 -0.379706 0.103261 -0.518998
    42 -0.024966 -1.123934 0.017594 -2.136747 0.000000 0.000001
    43 -0.020057 -0.890966 0.010091 -0.896554 0.000000 0.000000
    44 0.583510 -1.197274 0.185377 0.220453 -0.870283 -0.672925
    45 1.535926 0.010245 0.005008 -0.063786 0.310988 -1.032101
    46 1.100770 0.004526 -0.010676 -0.009999 0.012761 -0.488483
    47 0.006867 -0.065891 -0.085739 3.428639 -0.028070 -1.381885
  time 11
    0 13.182264 -4.142344 -9.469032 4.178792 -0.788625 -4.789403
    1 -0.071918 -8.498731 -0.104137 0.137327 -0.111083 -0.638591
    2 1.665510 -2.904478 0.631343 -0.234326 0.084943 -3.486601
    3 0.037088 1.836796 0.000000 0.000000 0.000000 0.679463
    4 -4.984977 13.304662 0.000421 0.000000 0.000000 -1.282538
    5 -5.655031 16.263659 1.047437 0.005898 -1.444363 -1.279905
    6 7.696722 0.021893 -0.405259 -0.001707 1.113877 -0.000383
    7 6.499035 0.037860 -0.093995 -1.570617 0.902959 -3.138681
    8 -5.655030 16.263657 -1.043029 3.135696 1.444351 -1.279904
    9 7.721393 -0.021960 -0.393362 0.001706 1.113875 0.000382
    10 6.490693 -0.037835 -0.107306 1.486817 0.986468 3.087291
    11 -0.489117 10.226307 1.194557 0.000000 0.000000 -1.282132
    12 1.189389 -0.395059 -1.323466 2.834508 0.000000 0.003685
    13 -2.628362 8.546533 -0.000005 0.000000 0.000000 -1.274576
    14 -1.468593 -15.050805 -14.322468 -0.665663 -5.477883 -6.232778
    15 0.096944 -8.450419 -0.009364 0.014731 -0.540417 0.157854
    16 0.447952 -2.798982 -0.200442 -0.399439 0.145283 0.564881
    17 -0.032910 -1.480206 0.004936 -0.972998 0.000000 0.000002
    18 -0.027022 -1.076919 -0.020212 -0.514709 0.000000 0.000000
    19 -0.249534 -2.846962 -0.174215 -0.214873 0.248040 0.442295
    20 0.043235 -1.683939 0.096014 -0.841782 -0.045846 -0.000203
    21 0.031729 -1.160831 0.058836 -0.371770 0.000642 0.008372
    22 -0.963866 -2.785142 -0.085346 0.094444 0.267585 0.317863
    23 0.028479 -1.403068 0.006271 -0.358921 0.000000 0.000000
    24 0.021413 -0.957782 0.020047 -0.144741 0.000000 0.000000
    25 1.164474 -2.543938 -0.170328 -0.753149 0.070580 0.675853
    26 0.024032 -1.129043 0.017806 -0.759172 0.000000 0.000001
    27 0.014896 -0.883989 -0.019845 -0.459205 0.000000 0.000000
    28 -0.586770 -1.264475 0.200164 0.413761 -0.455755 -2.860434
    29 1.522835 0.058681 0.016850 -0.012896 0.130856 0.455032
    30 1.117948 0.048424 -0.005764 -0.007673 -0.039831 0.125636
    31 -0.057365 -0.119510 0.041742 0.574644 0.064105 1.500021
    32 -0.488517 -2.755600 -0.228261 -0.619222 -0.044186 -0.439117
    33 0.039888 -1.479789 0.029853 -2.158258 0.000000 0.000000
    34 0.028785 -1.075730 -0.023111 -0.647509 0.000000 0.000000
    35 0.250028 -2.820663 -0.238396 -0.535674 0.054413 -0.329163
    36 -0.049759 -1.680545 0.100480 -1.871489 0.000000 -0.000002
    37 -0.034141 -1.148312 0.084779 -1.387518 0.000000 0.000000
    38 0.957766 -2.746776 -0.090301 0.225143 -0.058359 -0.193630
    39 -0.033419 -1.397129 -0.011255 -0.184014 -0.032275 -0.008534
    40 -0.022361 -0.957434 0.018783 0.003845 0.000000 0.000000
    41 -1.180680 -2.507215 -0.193861 -0.379706 0.103261 -0.518998
    42 -0.024966 -1.123934 0.017594 -2.136747 0.000000 0.000001
    43 -0.020057 -0.890966 0.010091 -0.896554 0.000000 0.000000
    44 0.583510 -1.197274 0.185377 0.220453 -0.870283 -0.672925
    45 1.535926 0.010245 0.005008 -0.063786 0.310988 -1.032101
    46 1.100770 0.004526 -0.010676 -0.009999 0.012761 -0.488483
    47 0.006867 -0.065891 -0.085739 -2.853311 -0.019257 -1.412132
  time 12
    0 12.596308 -4.275161 -9.722946 4.178586 -0.770311 -4.800855
    1 -0.071918 -8.498731 -0.104137 0.149908 -0.083951 -0.644494
    2 1.665510 -2.904478 0.631343 -0.234326 0.084943 -3.486601
    3 0.037088 1.836796 0.000000 0.000000 0.000000 0.679463
    4 -3.078669 6.874779 0.000421 0.000000 0.000000 -1.282538
    5 -5.655031 16.263659 1.047437 0.005898 -1.690465 -1.279905
    6 7.696722 0.021893 -0.405259 -0.001707 0.682400 -0.000383
    7 6.499035 0.037860 -0.093995 -1.570617 0.942318 -3.138681
    8 -5.655030 16.263657 -1.043029 6.277288 1.451118 -4.421496
    9 7.721393 -0.021960 -0.393362 0.001706 0.682399 0.000382
    10 6.490693 -0.037835 -0.107306 1.537152 0.974876 3.115191
    11 -0.489117 10.226307 1.194557 0.000000 0.000000 -1.282132
    12 1.189389 -0.441935 -1.382062 2.576189 0.000000 0.003685
    13 -2.628362 8.546533 -0.000005 0.000000 0.000000 -1.274576
    14 -1.199053 -15.101588 -14.275592 -0.818849 -5.476844 -0.095350
    15 0.096944 -8.450419 -0.009364 0.035012 -0.540417 0.157854
    16 0.447952 -2.798982 -0.200442 -0.329673 0.149152 0.619302
    17 -0.032910 -1.480206 0.004936 -0.960147 0.000000 0.000002
    18 -0.027022 -1.076919 -0.020212 -0.486716 0.000000 0.000000
    19 -0.249534 -2.846962 -0.174215 -0.360629 0.274142 0.497433
    20 0.043235 -1.683939 0.096014 -0.604935 -0.079307 -0.000239
    21 0.031729 -1.160831 0.058836 -0.160929 0.000642 0.008372
    22 -0.963866 -2.785142 -0.085346 -0.040248 0.267585 0.317863
    23 0.028479 -1.403068 0.006271 -0.106840 0.000000 0.000000
    24 0.021413 -0.957782 0.020047 0.005156 0.000000 0.000000
    25 1.164474 -2.543938 -0.170328 -0.733231 0.070580 0.675853
    26 0.024032 -1.129043 0.017806 -0.632574 0.000000 0.000001
    27 0.014896 -0.883989 -0.019845 -0.279460 0.000000 0.000000
    28 -0.586770 -1.264475 0.200164 0.384325 -0.385971 -2.915055
    29 1.522835 0.058681 0.016850 -0.008048 0.119159 0.497153
    30 1.117948 0.048424 -0.005764 0.001363 -0.027451 -0.081395
    31 -0.057365 -0.119510 0.041742 0.574644 0.064105 1.500021
    32 -0.488517 -2.755600 -0.228261 -0.619222 -0.044186 -0.439117
    33 0.039888 -1.479789 0.029853 -2.158258 0.000000 0.000000
    34 0.028785 -1.075730 -0.023111 -0.647509 0.000000 0.000000
    35 0.250028 -2.820663 -0.238396 -0.535674 0.054413 -0.329163
    36 -0.049759 -1.680545 0.100480 -1.871489 0.000000 -0.000002
    37 -0.034141 -1.148312 0.084779 -1.387518 0.000000 0.000000
    38 0.957766 -2.746776 -0.090301 0.225143 -0.058359 -0.193630
    39 -0.033419 -1.397129 -0.011255 -0.184014 -0.032275 -0.008534
    40 -0.022361 -0.957434 0.018783 0.003845 0.000000 0.000000
    41 -1.180680 -2.507215 -0.193861 -0.379706 0.103261 -0.518998
    42 -0.024966 -1.123934 0.017594 -2.136747 0.000000 0.000001
    43 -0.020057 -0.890966 0.010091 -0.896554 0.000000 0.000000
    44 0.583510 -1.197274 0.185377 0.220453 -0.870283 -0.672925
    45 1.535926 0.010245 0.005008 -0.063786 0.310988 -1.032101
    46 1.100770 0.004526 -0.010676 -0.009999 0.012761 -0.488483
    47 0.006867 -0.065891 -0.085739 -2.852831 -0.015617 -1.424341
  time 13
    0 12.111919 -4.224378 -10.012017 4.178586 -0.770311 -4.800855
    1 -0.071918 -8.498731 -0.104137 0.170328 -0.035994 -0.637266
    2 1.665510 -2.904478 0.631343 -0.234326 0.084943 -3.486601
    3 0.037088 1.836796 0.000000 0.000000 0.000000 0.679463
    4 -1.449713 1.370704 0.000421 0.000000 0.000000 -1.282538
    5 -5.655031 16.263659 1.047437 0.005898 -1.586066 -1.279905
    6 7.696722 0.021893 -0.405259 -0.001707 0.250946 -0.000383
    7 6.499035 0.037860 -0.093995 -1.570617 1.044523 -3.138681
    8 -5.655030 16.263657 -1.043029 -0.005800 1.555482 -4.421400
    9 7.721393 -0.021960 -0.393362 0.001706 0.250947 0.000382
    10 6.490693 -0.037835 -0.107306 1.570613 0.963284 3.138681
    11 -0.489117 10.226307 1.194557 0.000000 0.000000 -1.282132
    12 1.189389 -0.488811 -1.436751 2.304840 0.000000 0.003685
    13 -2.628362 8.546533 -0.000005 0.000000 0.000000 -1.274576
    14 -1.015454 -15.132839 -14.259966 -0.939693 -5.476066 -0.193943
    15 0.096944 -8.450419 -0.009364 0.055107 -0.540417 0.157854
    16 0.447952 -2.798982 -0.200442 -0.297967 0.150910 0.644051
    17 -0.032910 -1.480206 0.004936 -0.954351 0.000000 0.000002
    18 -0.027022 -1.076919 -0.020212 -0.473979 0.000000 0.000000
    19 -0.249534 -2.846962 -0.174215 -0.433600 0.285995 0.522482
    20 0.043235 -1.683939 0.096014 -0.497332 -0.094516 -0.000251
    21 0.031729 -1.160831 0.058836 -0.065107 0.000642 0.008372
    22 -0.963866 -2.785142 -0.085346 -0.144342 0.267585 0.317863
    23 0.028479 -1.403068 0.006271 0.007758 0.000000 0.000000
    24 0.021413 -0.957782 0.020047 0.073314 0.000000 0.000000
    25 1.164474 -2.543938 -0.170328 -0.699137 0.070580 0.675853
    26 0.024032 -1.129043 0.017806 -0.511374 0.000000 0.000001
    27 0.014896 -0.883989 -0.019845 -0.128862 0.000000 0.000000
    28 -0.586770 -1.264475 0.200164 0.334459 -0.355920 -2.961054
    29 1.522835 0.058681 0.016850 -0.004296 0.113838 0.529621
    30 1.117948 0.048424 -0.005764 0.005378 -0.021842 -0.173822
    31 -0.057365 -0.119510 0.041742 0.574644 0.064105 1.500021
    32 -0.488517 -2.755600 -0.228261 -0.619222 -0.044186 -0.439117
    33 0.039888 -1.479789 0.029853 -2.158258 0.000000 0.000000
    34 0.028785 -1.075730 -0.023111 -0.647509 0.000000 0.000000
    35 0.250028 -2.820663 -0.238396 -0.535674 0.054413 -0.329163
    36 -0.049759 -1.680545 0.100480 -1.871489 0.000000 -0.000002
    37 -0.034141 -1.148312 0.084779 -1.387518 0.000000 0.000000
    38 0.957766 -2.746776 -0.090301 0.225143 -0.058359 -0.193630
    39 -0.033419 -1.397129 -0.011255 -0.184014 -0.032275 -0.008534
    40 -0.022361 -0.957434 0.018783 0.003845 0.000000 0.000000
    41 -1.180680 -2.507215 -0.193861 -0.379706 0.103261 -0.518998
    42 -0.024966 -1.123934 0.017594 -2.136747 0.000000 0.000001
    43 -0.020057 -0.890966 0.010091 -0.896554 0.000000 0.000000
    44 0.583510 -1.197274 0.185377 0.220453 -0.870283 -0.672925
    45 1.535926 0.010245 0.005008 -0.063786 0.310988 -1.032101
    46 1.100770 0.004526 -0.010676 -0.009999 0.012761 -0.488483
    47 0.006867 -0.065891 -0.085739 -2.852831 -0.015617 -1.424341
  time 14
    0 11.670499 -4.083749 -10.355778 4.178586 -0.770311 -4.800855
    1 -0.071918 -8.498731 -0.104137 0.198880 0.029097 -0.621365
    2 1.665510 -2.904478 0.631343 -0.234326 0.084943 -3.486601
    3 0.037088 1.836796 0.000000 0.000000 0.000000 0.679463
    4 -1.652845 2.058225 0.000421 0.000000 0.000000 -1.282538
    5 -5.655031 16.263659 1.047437 0.005898 -1.356446 -1.279905
    6 7.696722 0.021893 -0.405259 -0.001707 0.054805 -0.000383
    7 6.499035 0.037860 -0.093995 -1.570617 1.456121 -3.138681
    8 -5.655030 16.263657 -1.043029 3.135696 1.356436 -1.279904
    9 7.721393 -0.021960 -0.393362 0.001706 0.054807 0.000382
    10 6.490693 -0.037835 -0.107306 1.570613 1.426125 3.138681
    11 -0.489117 10.226307 1.194557 0.000000 0.000000 -1.282132
    12 1.189389 -0.539594 -1.483627 2.036844 0.000000 0.003685
    13 -2.628362 8.546533 -0.000005 0.000000 0.000000 -1.274576
    14 -0.945139 -15.144558 -14.256060 -1.017595 -5.475719 -0.230242
    15 0.096944 -8.450419 -0.009364 0.075342 -0.540417 0.157854
    16 0.447952 -2.798982 -0.200442 -0.328730 0.150910 0.644051
    17 -0.032910 -1.480206 0.004936 -0.974846 0.000000 0.000002
    18 -0.027022 -1.076919 -0.020212 -0.473979 0.000000 0.000000
    19 -0.249534 -2.846962 -0.174215 -0.444013 0.282735 0.515588
    20 0.043235 -1.683939 0.096014 -0.553015 -0.090333 -0.000251
    21 0.031729 -1.160831 0.058836 -0.076732 0.000642 0.008372
    22 -0.963866 -2.785142 -0.085346 -0.219880 0.267585 0.317863
    23 0.028479 -1.403068 0.006271 -0.041990 0.000000 0.000000
    24 0.021413 -0.957782 0.020047 0.043690 0.000000 0.000000
    25 1.164474 -2.543938 -0.170328 -0.335825 0.070580 0.675853
    26 0.024032 -1.129043 0.017806 -0.412690 0.000000 0.000001
    27 0.014896 -0.883989 -0.019845 -0.065733 0.000000 0.000000
    28 -0.586770 -1.264475 0.200164 0.252960 -0.407632 -3.001702
    29 1.522835 0.058681 0.016850 -0.002023 0.114030 0.549021
    30 1.117948 0.048424 -0.005764 0.004719 -0.021998 -0.146614
    31 -0.057365 -0.119510 0.041742 0.574644 0.064105 1.500021
    32 -0.488517 -2.755600 -0.228261 -0.619222 -0.044186 -0.439117
    33 0.039888 -1.479789 0.029853 -2.158258 0.000000 0.000000
    34 0.028785 -1.075730 -0.023111 -0.647509 0.000000 0.000000
    35 0.250028 -2.820663 -0.238396 -0.535674 0.054413 -0.329163
    36 -0.049759 -1.680545 0.100480 -1.871489 0.000000 -0.000002
    37 -0.034141 -1.148312 0.084779 -1.387518 0.000000 0.000000
    38 0.957766 -2.746776 -0.090301 0.225143 -0.058359 -0.193630
    39 -0.033419 -1.397129 -0.011255 -0.184014 -0.032275 -0.008534
    40 -0.022361 -0.957434 0.018783 0.003845 0.000000 0.000000
    41 -1.180680 -2.507215 -0.193861 -0.379706 0.103261 -0.518998
    42 -0.024966 -1.123934 0.017594 -2.136747 0.000000 0.000001
    43 -0.020057 -0.890966 0.010091 -0.896554 0.000000 0.000000
    44 0.583510 -1.197274 0.185377 0.220453 -0.870283 -0.672925
    45 1.535926 0.010245 0.005008 -0.063786 0.310988 -1.032101
    46 1.100770 0.004526 -0.010676 -0.009999 0.012761 -0.488483
    47 0.006867 -0.065891 -0.085739 -2.852831 -0.015617 -1.424341
  time 15
    0 11.279862 -3.888430 -10.722977 4.178586 -0.770311 -4.800855
    1 -0.071918 -8.498731 -0.104137 0.228863 0.101887 -0.605464
    2 1.665510 -2.904478 0.631343 -0.234326 0.084943 -3.486601
    3 0.037088 1.836796 0.000000 0.000000 0.000000 0.679463
    4 -1.852069 2.741840 0.000421 0.000000 0.000000 -1.282538
    5 -5.655031 16.263659 1.047437 0.005898 -1.126826 -1.279905
    6 7.696722 0.021893 -0.405259 -0.001707 0.186190 -0.000383
    7 6.499035 0.037860 -0.093995 -1.570617 1.505568 -3.138681
    8 -5.655030 16.263657 -1.043029 3.135696 1.126824 -1.279904
    9 7.721393 -0.021960 -0.393362 0.001706 0.186191 0.000382
    10 6.490693 -0.037835 -0.107306 1.570613 1.505565 3.138681
    11 -0.489117 10.226307 1.194557 0.000000 0.000000 -1.282132
    12 1.189389 -0.582564 -1.514878 1.788203 0.000000 0.003685
    13 -2.628362 8.546533 -0.000005 0.000000 0.000000 -1.274576
    14 -0.956858 -15.140652 -14.283404 -1.059397 -5.482901 -0.215968
    15 0.096944 -8.450419 -0.009364 0.095903 -0.540417 0.157854
    16 0.447952 -2.798982 -0.200442 -0.409915 0.150910 0.644051
    17 -0.032910 -1.480206 0.004936 -1.028899 0.000000 0.000002
    18 -0.027022 -1.076919 -0.020212 -0.473979 0.000000 0.000000
    19 -0.249534 -2.846962 -0.174215 -0.452545 0.274142 0.497433
    20 0.043235 -1.683939 0.096014 -0.699917 -0.079307 -0.000239
    21 0.031729 -1.160831 0.058836 -0.107415 0.000642 0.008372
    22 -0.963866 -2.785142 -0.085346 -0.298691 0.267585 0.317863
    23 0.028479 -1.403068 0.006271 -0.173218 0.000000 0.000000
    24 0.021413 -0.957782 0.020047 -0.034380 0.000000 0.000000
    25 1.164474 -2.543938 -0.170328 -0.347111 0.153027 0.895697
    26 0.024032 -1.129043 0.017806 -0.372249 0.000000 0.000001
    27 0.014896 -0.883989 -0.019845 -0.099367 0.000000 0.000000
    28 -0.586770 -1.264475 0.200164 0.144510 -0.536836 -3.043998
    29 1.522835 0.058681 0.016850 -0.000291 0.114521 0.563734
    30 1.117948 0.048424 -0.005764 0.002993 -0.022418 -0.075707
    31 -0.057365 -0.119510 0.041742 0.574644 0.064105 1.500021
    32 -0.488517 -2.755600 -0.228261 -0.619222 -0.044186 -0.439117
    33 0.039888 -1.479789 0.029853 -2.158258 0.000000 0.000000
    34 0.028785 -1.075730 -0.023111 -0.647509 0.000000 0.000000
    35 0.250028 -2.820663 -0.238396 -0.535674 0.054413 -0.329163
    36 -0.049759 -1.680545 0.100480 -1.871489 0.000000 -0.000002
    37 -0.034141 -1.148312 0.084779 -1.387518 0.000000 0.000000
    38 0.957766 -2.746776 -0.090301 0.225143 -0.058359 -0.193630
    39 -0.033419 -1.397129 -0.011255 -0.184014 -0.032275 -0.008534
    40 -0.022361 -0.957434 0.018783 0.003845 0.000000 0.000000
    41 -1.180680 -2.507215 -0.193861 -0.379706 0.103261 -0.518998
    42 -0.024966 -1.123934 0.017594 -2.136747 0.000000 0.000001
    43 -0.020057 -0.890966 0.010091 -0.896554 0.000000 0.000000
    44 0.583510 -1.197274 0.185377 0.220453 -0.870283 -0.672925
    45 1.535926 0.010245 0.005008 -0.063786 0.310988 -1.032101
    46 1.100770 0.004526 -0.010676 -0.009999 0.012761 -0.488483
    47 0.006867 -0.065891 -0.085739 -2.852831 -0.015617 -1.424341
  time 16
    0 10.951727 -3.669674 -11.074550 4.178586 -0.770311 -4.800855
    1 -0.071918 -8.498731 -0.104137 0.253606 0.172859 -0.598236
    2 1.665510 -2.904478 0.631343 -0.234326 0.084943 -3.486601
    3 0.037088 1.836796 0.000000 0.000000 0.000000 0.679463
    4 -1.773942 2.480113 0.000421 0.000000 0.000000 -1.282538
    5 -5.655031 16.263659 1.047437 0.005898 -1.022459 -1.279905
    6 7.696722 0.021893 -0.405259 -0.001707 0.430206 -0.000383
    7 6.499035 0.037860 -0.093995 -1.570617 1.505568 -3.138681
    8 -5.655030 16.263657 -1.043029 3.135696 1.022460 -1.279904
    9 7.721393 -0.021960 -0.393362 0.001706 0.430207 0.000382
    10 6.490693 -0.037835 -0.107306 1.570613 1.505565 3.138681
    11 -0.489117 10.226307 1.194557 0.000000 0.000000 -1.282132
    12 1.189389 -0.621628 -1.526597 1.575301 0.000000 0.003685
    13 -2.628362 8.546533 -0.000005 0.000000 0.000000 -1.274576
    14 -0.980296 -15.125026 -14.357625 -1.083552 -5.500725 -0.181938
    15 0.096944 -8.450419 -0.009364 0.117070 -0.540417 0.157854
    16 0.447952 -2.798982 -0.200442 -0.524691 0.150910 0.644051
    17 -0.032910 -1.480206 0.004936 -1.105337 0.000000 0.000002
    18 -0.027022 -1.076919 -0.020212 -0.473979 0.000000 0.000000
    19 -0.249534 -2.846962 -0.174215 -0.459408 0.261978 0.471751
    20 0.043235 -1.683939 0.096014 -0.907594 -0.063715 -0.000227
    21 0.031729 -1.160831 0.058836 -0.150813 0.000642 0.008372
    22 -0.963866 -2.785142 -0.085346 -0.376635 0.267585 0.317863
    23 0.028479 -1.403068 0.006271 -0.358708 0.000000 0.000000
    24 0.021413 -0.957782 0.020047 -0.144779 0.000000 0.000000
    25 1.164474 -2.543938 -0.170328 -0.407775 0.146923 0.879415
    26 0.024032 -1.129043 0.017806 -0.443785 0.000000 0.000001
    27 0.014896 -0.883989 -0.019845 -0.186092 0.000000 0.000000
    28 -0.586770 -1.264475 0.200164 0.027697 -0.704862 -3.083861
    29 1.522835 0.058681 0.016850 0.001219 0.115156 0.576460
    30 1.117948 0.048424 -0.005764 0.000608 -0.022945 0.022736
    31 -0.057365 -0.119510 0.041742 0.574644 0.064105 1.500021
    32 -0.488517 -2.755600 -0.228261 -0.619222 -0.044186 -0.439117
    33 0.039888 -1.479789 0.029853 -2.158258 0.000000 0.000000
    34 0.028785 -1.075730 -0.023111 -0.647509 0.000000 0.000000
    35 0.250028 -2.820663 -0.238396 -0.535674 0.054413 -0.329163
    36 -0.049759 -1.680545 0.100480 -1.871489 0.000000 -0.000002
    37 -0.034141 -1.148312 0.084779 -1.387518 0.000000 0.000000
    38 0.957766 -2.746776 -0.090301 0.225143 -0.058359 -0.193630
    39 -0.033419 -1.397129 -0.011255 -0.184014 -0.032275 -0.008534
    40 -0.022361 -0.957434 0.018783 0.003845 0.000000 0.000000
    41 -1.180680 -2.507215 -0.193861 -0.379706 0.103261 -0.518998
    42 -0.024966 -1.123934 0.017594 -2.136747 0.000000 0.000001
    43 -0.020057 -0.890966 0.010091 -0.896554 0.000000 0.000000
    44 0.583510 -1.197274 0.185377 0.220453 -0.870283 -0.672925
    45 1.535926 0.010245 0.005008 -0.063786 0.310988 -1.032101
    46 1.100770 0.004526 -0.010676 -0.009999 0.012761 -0.488483
    47 0.006867 -0.065891 -0.085739 -2.852831 -0.015617 -1.424341
  time 17
    0 10.705626 -3.450917 -11.375340 4.178586 -0.770311 -4.800855
    1 -0.071918 -8.498731 -0.104137 0.271630 0.248723 -0.610330
    2 1.665510 -2.904478 0.631343 -0.234326 0.084943 -3.486601
    3 0.037088 1.836796 0.000000 0.000000 0.000000 0.679463
    4 -1.699721 2.222293 0.000421 0.000000 0.000000 -1.282538
    5 -5.655031 16.263659 1.047437 0.005898 -1.048138 -1.279905
    6 7.696722 0.021893 -0.405259 -0.001707 0.561568 -0.000383
    7 6.499035 0.037860 -0.093995 -1.570617 1.505568 -3.138681
    8 -5.655030 16.263657 -1.043029 3.135696 1.048138 -1.279904
    9 7.721393 -0.021960 -0.393362 0.001706 0.561568 0.000382
    10 6.490693 -0.037835 -0.107306 1.570613 1.505565 3.138681
    11 -0.489117 10.226307 1.194557 0.000000 0.000000 -1.282132
    12 1.189389 -0.660692 -1.514878 1.371406 0.000000 0.003685
    13 -2.628362 8.546533 -0.000005 0.000000 0.000000 -1.274576
    14 -1.003735 -15.105495 -14.463097 -1.096167 -5.523741 -0.141291
    15 0.096944 -8.450419 -0.009364 0.139030 -0.540417 0.157854
    16 0.447952 -2.798982 -0.200442 -0.656228 0.150910 0.644051
    17 -0.032910 -1.480206 0.004936 -1.192989 0.000000 0.000002
    18 -0.027022 -1.076919 -0.020212 -0.473979 0.000000 0.000000
    19 -0.249534 -2.846962 -0.174215 -0.464707 0.248040 0.442295
    20 0.043235 -1.683939 0.096014 -1.145659 -0.045846 -0.000203
    21 0.031729 -1.160831 0.058836 -0.200526 0.000642 0.008372
    22 -0.963866 -2.785142 -0.085346 -0.449623 0.267585 0.317863
    23 0.028479 -1.403068 0.006271 -0.571345 0.000000 0.000000
    24 0.021413 -0.957782 0.020047 -0.271334 0.000000 0.000000
    25 1.164474 -2.543938 -0.170328 -0.529499 0.131654 0.838703
    26 0.024032 -1.129043 0.017806 -0.622585 0.000000 0.000001
    27 0.014896 -0.883989 -0.019845 -0.304716 0.000000 0.000000
    28 -0.586770 -1.264475 0.200164 -0.078823 -0.872889 -3.117333
    29 1.522835 0.058681 0.016850 0.002777 0.115804 0.589807
    30 1.117948 0.048424 -0.005764 -0.002041 -0.023484 0.132582
    31 -0.057365 -0.119510 0.041742 0.574644 0.064105 1.500021
    32 -0.488517 -2.755600 -0.228261 -0.619222 -0.044186 -0.439117
    33 0.039888 -1.479789 0.029853 -2.158258 0.000000 0.000000
    34 0.028785 -1.075730 -0.023111 -0.647509 0.000000 0.000000
    35 0.250028 -2.820663 -0.238396 -0.535674 0.054413 -0.329163
    36 -0.049759 -1.680545 0.100480 -1.871489 0.000000 -0.000002
    37 -0.034141 -1.148312 0.084779 -1.387518 0.000000 0.000000
    38 0.957766 -2.746776 -0.090301 0.225143 -0.058359 -0.193630
    39 -0.033419 -1.397129 -0.011255 -0.184014 -0.032275 -0.008534
    40 -0.022361 -0.957434 0.018783 0.003845 0.000000 0.000000
    41 -1.180680 -2.507215 -0.193861 -0.379706 0.103261 -0.518998
    42 -0.024966 -1.123934 0.017594 -2.136747 0.000000 0.000001
    43 -0.020057 -0.890966 0.010091 -0.896554 0.000000 0.000000
    44 0.583510 -1.197274 0.185377 0.220453 -0.870283 -0.672925
    45 1.535926 0.010245 0.005008 -0.063786 0.310988 -1.032101
    46 1.100770 0.004526 -0.010676 -0.009999 0.012761 -0.488483
    47 0.006867 -0.065891 -0.085739 -2.852831 -0.015617 -1.424341
  time 18
    0 10.549371 -3.267318 -11.574565 4.178586 -0.770311 -4.800855
    1 -0.071918 -8.498731 -0.104137 0.284304 0.326993 -0.635339
    2 1.665510 -2.904478 0.631343 -0.234326 0.084943 -3.486601
    3 0.037088 1.836796 0.000000 0.000000 0.000000 0.679463
    4 -1.699721 2.222293 0.000421 0.000000 0.000000 -1.282538
    5 -5.655031 16.263659 1.047437 0.005898 -1.095772 -1.279905
    6 7.696722 0.021893 -0.405259 -0.001707 0.561568 -0.000383
    7 6.499035 0.037860 -0.093995 -1.570617 1.505568 -3.138681
    8 -5.655030 16.263657 -1.043029 3.135696 1.095770 -1.279904
    9 7.721393 -0.021960 -0.393362 0.001706 0.561568 0.000382
    10 6.490693 -0.037835 -0.107306 1.570613 1.505565 3.138681
    11 -0.489117 10.226307 1.194557 0.000000 0.000000 -1.282132
    12 1.189389 -0.703662 -1.483627 1.147006 0.000000 0.003685
    13 -2.628362 8.546533 -0.000005 0.000000 0.000000 -1.274576
    14 -1.027173 -15.089869 -14.572476 -1.103279 -5.546151 -0.107166
    15 0.096944 -8.450419 -0.009364 0.162155 -0.540417 0.157854
    16 0.447952 -2.798982 -0.200442 -0.787800 0.150910 0.644051
    17 -0.032910 -1.480206 0.004936 -1.280599 0.000000 0.000002
    18 -0.027022 -1.076919 -0.020212 -0.473979 0.000000 0.000000
    19 -0.249534 -2.846962 -0.174215 -0.468575 0.234102 0.412859
    20 0.043235 -1.683939 0.096014 -1.383668 -0.027977 -0.000191
    21 0.031729 -1.160831 0.058836 -0.250267 0.000642 0.008372
    22 -0.963866 -2.785142 -0.085346 -0.513533 0.267585 0.317863
    23 0.028479 -1.403068 0.006271 -0.783982 0.000000 0.000000
    24 0.021413 -0.957782 0.020047 -0.397888 0.000000 0.000000
    25 1.164474 -2.543938 -0.170328 -0.680130 0.111803 0.785775
    26 0.024032 -1.129043 0.017806 -0.855077 0.000000 0.000001
    27 0.014896 -0.883989 -0.019845 -0.433948 0.000000 0.000000
    28 -0.586770 -1.264475 0.200164 -0.156373 -1.002144 -3.140357
    29 1.522835 0.058681 0.016850 0.004716 0.116295 0.606382
    30 1.117948 0.048424 -0.005764 -0.004557 -0.023892 0.237780
    31 -0.057365 -0.119510 0.041742 0.574644 0.064105 1.500021
    32 -0.488517 -2.755600 -0.228261 -0.619222 -0.044186 -0.439117
    33 0.039888 -1.479789 0.029853 -2.158258 0.000000 0.000000
    34 0.028785 -1.075730 -0.023111 -0.647509 0.000000 0.000000
    35 0.250028 -2.820663 -0.238396 -0.535674 0.054413 -0.329163
    36 -0.049759 -1.680545 0.100480 -1.871489 0.000000 -0.000002
    37 -0.034141 -1.148312 0.084779 -1.387518 0.000000 0.000000
    38 0.957766 -2.746776 -0.090301 0.225143 -0.058359 -0.193630
    39 -0.033419 -1.397129 -0.011255 -0.184014 -0.032275 -0.008534
    40 -0.022361 -0.957434 0.018783 0.003845 0.000000 0.000000
    41 -1.180680 -2.507215 -0.193861 -0.379706 0.103261 -0.518998
    42 -0.024966 -1.123934 0.017594 -2.136747 0.000000 0.000001
    43 -0.020057 -0.890966 0.010091 -0.896554 0.000000 0.000000
    44 0.583510 -1.197274 0.185377 0.220453 -0.870283 -0.672925
    45 1.535926 0.010245 0.005008 -0.063786 0.310988 -1.032101
    46 1.100770 0.004526 -0.010676 -0.009999 0.012761 -0.488483
    47 0.006867 -0.065891 -0.085739 -2.852831 -0.015617 -1.424341
  time 19
    0 10.490775 -3.146220 -11.652692 4.178586 -0.770311 -4.800855
    1 -0.071918 -8.498731 -0.104137 0.289094 0.384520 -0.656299
    2 1.665510 -2.904478 0.631343 -0.234326 0.084943 -3.486601
    3 0.037088 1.836796 0.000000 0.000000 0.000000 0.679463
    4 -1.699721 2.222293 0.000421 0.000000 0.000000 -1.282538
    5 -5.655031 16.263659 1.047437 0.005898 -1.121418 -1.279905
    6 7.696722 0.021893 -0.405259 -0.001707 0.561568 -0.000383
    7 6.499035 0.037860 -0.093995 -1.570617 1.505568 -3.138681
    8 -5.655030 16.263657 -1.043029 3.135696 1.121416 -1.279904
    9 7.721393 -0.021960 -0.393362 0.001706 0.561568 0.000382
    10 6.490693 -0.037835 -0.107306 1.570613 1.505565 3.138681
    11 -0.489117 10.226307 1.194557 0.000000 0.000000 -1.282132
    12 1.189389 -0.746632 -1.440657 0.913983 0.000000 0.003685
    13 -2.628362 8.546533 -0.000005 0.000000 0.000000 -1.274576
    14 -1.038892 -15.085963 -14.677948 -1.111197 -5.562591 -0.092892
    15 0.096944 -8.450419 -0.009364 0.186586 -0.540417 0.157854
    16 0.447952 -2.798982 -0.200442 -0.902541 0.150910 0.644051
    17 -0.032910 -1.480206 0.004936 -1.357038 0.000000 0.000002
    18 -0.027022 -1.076919 -0.020212 -0.473979 0.000000 0.000000
    19 -0.249534 -2.846962 -0.174215 -0.471172 0.221937 0.387177
    20 0.043235 -1.683939 0.096014 -1.591345 -0.012385 -0.000179
    21 0.031729 -1.160831 0.058836 -0.293665 0.000642 0.008372
    22 -0.963866 -2.785142 -0.085346 -0.564278 0.267585 0.317863
    23 0.028479 -1.403068 0.006271 -0.969472 0.000000 0.000000
    24 0.021413 -0.957782 0.020047 -0.508306 0.000000 0.000000
    25 1.164474 -2.543938 -0.170328 -0.827514 0.091953 0.732848
    26 0.024032 -1.129043 0.017806 -1.087568 0.000000 0.000001
    27 0.014896 -0.883989 -0.019845 -0.552548 0.000000 0.000000
    28 -0.586770 -1.264475 0.200164 -0.186364 -1.053830 -3.148928
    29 1.522835 0.058681 0.016850 0.007323 0.116487 0.628855
    30 1.117948 0.048424 -0.005764 -0.006559 -0.024059 0.322140
    31 -0.057365 -0.119510 0.041742 0.574644 0.064105 1.500021
    32 -0.488517 -2.755600 -0.228261 -0.619222 -0.044186 -0.439117
    33 0.039888 -1.479789 0.029853 -2.158258 0.000000 0.000000
    34 0.028785 -1.075730 -0.023111 -0.647509 0.000000 0.000000
    35 0.250028 -2.820663 -0.238396 -0.535674 0.054413 -0.329163
    36 -0.049759 -1.680545 0.100480 -1.871489 0.000000 -0.000002
    37 -0.034141 -1.148312 0.084779 -1.387518 0.000000 0.000000
    38 0.957766 -2.746776 -0.090301 0.225143 -0.058359 -0.193630
    39 -0.033419 -1.397129 -0.011255 -0.184014 -0.032275 -0.008534
    40 -0.022361 -0.957434 0.018783 0.003845 0.000000 0.000000
    41 -1.180680 -2.507215 -0.193861 -0.379706 0.103261 -0.518998
    42 -0.024966 -1.123934 0.017594 -2.136747 0.000000 0.000001
    43 -0.020057 -0.890966 0.010091 -0.896554 0.000000 0.000000
    44 0.583510 -1.197274 0.185377 0.220453 -0.870283 -0.672925
    45 1.535926 0.010245 0.005008 -0.063786 0.310988 -1.032101
    46 1.100770 0.004526 -0.010676 -0.009999 0.012761 -0.488483
    47 0.006867 -0.065891 -0.085739 -2.852831 -0.015617 -1.424341
  time 20
    0 10.494682 -3.071999 -11.644880 4.178586 -0.770311 -4.800855
    1 -0.071918 -8.498731 -0.104137 0.288286 0.420473 -0.669839
    2 1.665510 -2.904478 0.631343 -0.234326 0.084943 -3.486601
    3 0.037088 1.836796 0.000000 0.000000 0.000000 0.679463
    4 -1.699721 2.222293 0.000421 0.000000 0.000000 -1.282538
    5 -5.655031 16.263659 1.047437 0.005898 -1.121418 -1.279905
    6 7.696722 0.021893 -0.405259 -0.001707 0.561568 -0.000383
    7 6.499035 0.037860 -0.093995 -1.570617 1.505568 -3.138681
    8 -5.655030 16.263657 -1.043029 3.135696 1.121416 -1.279904
    9 7.721393 -0.021960 -0.393362 0.001706 0.561568 0.000382
    10 6.490693 -0.037835 -0.107306 1.570613 1.505565 3.138681
    11 -0.489117 10.226307 1.194557 0.000000 0.000000 -1.282132
    12 1.189389 -0.789602 -1.385968 0.684218 0.000000 0.003685
    13 -2.628362 8.546533 -0.000005 0.000000 0.000000 -1.274576
    14 -1.034986 -15.089869 -14.791232 -1.118846 -5.572974 -0.094972
    15 0.096944 -8.450419 -0.009364 0.219316 -0.540417 0.157854
    16 0.447952 -2.798982 -0.200442 -0.983726 0.150910 0.644051
    17 -0.032910 -1.480206 0.004936 -1.411090 0.000000 0.000002
    18 -0.027022 -1.076919 -0.020212 -0.473979 0.000000 0.000000
    19 -0.249534 -2.846962 -0.174215 -0.472629 0.213345 0.369002
    20 0.043235 -1.683939 0.096014 -1.738247 -0.001360 -0.000167
    21 0.031729 -1.160831 0.058836 -0.324348 0.000642 0.008372
    22 -0.963866 -2.785142 -0.085346 -0.597734 0.267585 0.317863
    23 0.028479 -1.403068 0.006271 -1.100664 0.000000 0.000000
    24 0.021413 -0.957782 0.020047 -0.586395 0.000000 0.000000
    25 1.164474 -2.543938 -0.170328 -0.939497 0.076684 0.692136
    26 0.024032 -1.129043 0.017806 -1.266408 0.000000 0.000001
    27 0.014896 -0.883989 -0.019845 -0.639297 0.000000 0.000000
    28 -0.586770 -1.264475 0.200164 -0.186364 -1.053830 -3.148928
    29 1.522835 0.058681 0.016850 0.011074 0.116199 0.661602
    30 1.117948 0.048424 -0.005764 -0.008213 -0.023808 0.394468
    31 -0.057365 -0.119510 0.041742 0.574644 0.064105 1.500021
    32 -0.488517 -2.755600 -0.228261 -0.619222 -0.044186 -0.439117
    33 0.039888 -1.479789 0.029853 -2.158258 0.000000 0.000000
    34 0.028785 -1.075730 -0.023111 -0.647509 0.000000 0.000000
    35 0.250028 -2.820663 -0.238396 -0.535674 0.054413 -0.329163
    36 -0.049759 -1.680545 0.100480 -1.871489 0.000000 -0.000002
    37 -0.034141 -1.148312 0.084779 -1.387518 0.000000 0.000000
    38 0.957766 -2.746776 -0.090301 0.225143 -0.058359 -0.193630
    39 -0.033419 -1.397129 -0.011255 -0.184014 -0.032275 -0.008534
    40 -0.022361 -0.957434 0.018783 0.003845 0.000000 0.000000
    41 -1.180680 -2.507215 -0.193861 -0.379706 0.103261 -0.518998
    42 -0.024966 -1.123934 0.017594 -2.136747 0.000000 0.000001
    43 -0.020057 -0.890966 0.010091 -0.896554 0.000000 0.000000
    44 0.583510 -1.197274 0.185377 0.220453 -0.870283 -0.672925
    45 1.535926 0.010245 0.005008 -0.063786 0.310988 -1.032101
    46 1.100770 0.004526 -0.010676 -0.009999 0.012761 -0.488483
    47 0.006867 -0.065891 -0.085739 -2.852831 -0.015617 -1.424341
  time 21
    0 10.498588 -3.009497 -11.621441 4.178586 -0.770311 -4.800855
    1 -0.071918 -8.498731 -0.104137 0.286342 0.449263 -0.682897
    2 1.665510 -2.904478 0.631343 -0.234326 0.084943 -3.486601
    3 0.037088 1.836796 0.000000 0.000000 0.000000 0.679463
    4 -1.699721 2.222293 0.000421 0.000000 0.000000 -1.282538
    5 -5.655031 16.263659 1.047437 0.005898 -1.121418 -1.279905
    6 7.696722 0.021893 -0.405259 -0.001707 0.561568 -0.000383
    7 6.499035 0.037860 -0.093995 -1.570617 1.505568 -3.138681
    8 -5.655030 16.263657 -1.043029 3.135696 1.121416 -1.279904
    9 7.721393 -0.021960 -0.393362 0.001706 0.561568 0.000382
    10 6.490693 -0.037835 -0.107306 1.570613 1.505565 3.138681
    11 -0.489117 10.226307 1.194557 0.000000 0.000000 -1.282132
    12 1.189389 -0.832572 -1.331279 0.469591 0.000000 0.003685
    13 -2.628362 8.546533 -0.000005 0.000000 0.000000 -1.274576
    14 -1.031079 -15.101588 -14.927955 -1.122604 -5.581021 -0.099793
    15 0.096944 -8.450419 -0.009364 0.261044 -0.540417 0.157854
    16 0.447952 -2.798982 -0.200442 -1.014489 0.150910 0.644051
    17 -0.032910 -1.480206 0.004936 -1.431586 0.000000 0.000002
    18 -0.027022 -1.076919 -0.020212 -0.473979 0.000000 0.000000
    19 -0.249534 -2.846962 -0.174215 -0.473080 0.210085 0.362128
    20 0.043235 -1.683939 0.096014 -1.793930 0.002823 -0.000167
    21 0.031729 -1.160831 0.058836 -0.335973 0.000642 0.008372
    22 -0.963866 -2.785142 -0.085346 -0.609796 0.267585 0.317863
    23 0.028479 -1.403068 0.006271 -1.150412 0.000000 0.000000
    24 0.021413 -0.957782 0.020047 -0.616019 0.000000 0.000000
    25 1.164474 -2.543938 -0.170328 -0.983966 0.070580 0.675853
    26 0.024032 -1.129043 0.017806 -1.337944 0.000000 0.000001
    27 0.014896 -0.883989 -0.019845 -0.672931 0.000000 0.000000
    28 -0.586770 -1.264475 0.200164 -0.186364 -1.053830 -3.148928
    29 1.522835 0.058681 0.016850 0.015891 0.115468 0.703754
    30 1.117948 0.048424 -0.005764 -0.009915 -0.023185 0.470625
    31 -0.057365 -0.119510 0.041742 0.574644 0.064105 1.500021
    32 -0.488517 -2.755600 -0.228261 -0.619222 -0.044186 -0.439117
    33 0.039888 -1.479789 0.029853 -2.158258 0.000000 0.000000
    34 0.028785 -1.075730 -0.023111 -0.647509 0.000000 0.000000
    35 0.250028 -2.820663 -0.238396 -0.535674 0.054413 -0.329163
    36 -0.049759 -1.680545 0.100480 -1.871489 0.000000 -0.000002
    37 -0.034141 -1.148312 0.084779 -1.387518 0.000000 0.000000
    38 0.957766 -2.746776 -0.090301 0.225143 -0.058359 -0.193630
    39 -0.033419 -1.397129 -0.011255 -0.184014 -0.032275 -0.008534
    40 -0.022361 -0.957434 0.018783 0.003845 0.000000 0.000000
    41 -1.180680 -2.507215 -0.193861 -0.379706 0.103261 -0.518998
    42 -0.024966 -1.123934 0.017594 -2.136747 0.000000 0.000001
    43 -0.020057 -0.890966 0.010091 -0.896554 0.000000 0.000000
    44 0.583510 -1.197274 0.185377 0.220453 -0.870283 -0.672925
    45 1.535926 0.010245 0.005008 -0.063786 0.310988 -1.032101
    46 1.100770 0.004526 -0.010676 -0.009999 0.012761 -0.488483
    47 0.006867 -0.065891 -0.085739 -2.852831 -0.015617 -1.424341
  time 22
    0 10.502494 -2.958715 -11.590191 4.178586 -0.770311 -4.800855
    1 -0.071918 -8.498731 -0.104137 0.284009 0.470435 -0.694004
    2 1.665510 -2.904478 0.631343 -0.234326 0.084943 -3.486601
    3 0.037088 1.836796 0.000000 0.000000 0.000000 0.679463
    4 -1.699721 2.222293 0.000421 0.000000 0.000000 -1.282538
    5 -5.655031 16.263659 1.047437 0.005898 -1.121418 -1.279905
    6 7.696722 0.021893 -0.405259 -0.001707 0.561568 -0.000383
    7 6.499035 0.037860 -0.093995 -1.570617 1.505568 -3.138681
    8 -5.655030 16.263657 -1.043029 3.135696 1.121416 -1.279904
    9 7.721393 -0.021960 -0.393362 0.001706 0.561568 0.000382
    10 6.490693 -0.037835 -0.107306 1.570613 1.505565 3.138681
    11 -0.489117 10.226307 1.194557 0.000000 0.000000 -1.282132
    12 1.189389 -0.867729 -1.280496 0.281889 0.000000 0.003685
    13 -2.628362 8.546533 -0.000005 0.000000 0.000000 -1.274576
    14 -1.019360 -15.125026 -15.056865 -1.124214 -5.586732 -0.105654
    15 0.096944 -8.450419 -0.009364 0.302399 -0.540417 0.157854
    16 0.447952 -2.798982 -0.200442 -1.014489 0.150910 0.644051
    17 -0.032910 -1.480206 0.004936 -1.431586 0.000000 0.000002
    18 -0.027022 -1.076919 -0.020212 -0.473979 0.000000 0.000000
    19 -0.249534 -2.846962 -0.174215 -0.473080 0.210085 0.362128
    20 0.043235 -1.683939 0.096014 -1.793930 0.002823 -0.000167
    21 0.031729 -1.160831 0.058836 -0.335973 0.000642 0.008372
    22 -0.963866 -2.785142 -0.085346 -0.609796 0.267585 0.317863
    23 0.028479 -1.403068 0.006271 -1.150412 0.000000 0.000000
    24 0.021413 -0.957782 0.020047 -0.616019 0.000000 0.000000
    25 1.164474 -2.543938 -0.170328 -0.983966 0.070580 0.675853
    26 0.024032 -1.129043 0.017806 -1.337944 0.000000 0.000001
    27 0.014896 -0.883989 -0.019845 -0.672931 0.000000 0.000000
    28 -0.586770 -1.264475 0.200164 -0.186364 -1.053830 -3.148928
    29 1.522835 0.058681 0.016850 0.021184 0.114473 0.750065
    30 1.117948 0.048424 -0.005764 -0.011568 -0.022322 0.545141
    31 -0.057365 -0.119510 0.041742 0.574644 0.064105 1.500021
    32 -0.488517 -2.755600 -0.228261 -0.619222 -0.044186 -0.439117
    33 0.039888 -1.479789 0.029853 -2.158258 0.000000 0.000000
    34 0.028785 -1.075730 -0.023111 -0.647509 0.000000 0.000000
    35 0.250028 -2.820663 -0.238396 -0.535674 0.054413 -0.329163
    36 -0.049759 -1.680545 0.100480 -1.871489 0.000000 -0.000002
    37 -0.034141 -1.148312 0.084779 -1.387518 0.000000 0.000000
    38 0.957766 -2.746776 -0.090301 0.225143 -0.058359 -0.193630
    39 -0.033419 -1.397129 -0.011255 -0.184014 -0.032275 -0.008534
    40 -0.022361 -0.957434 0.018783 0.003845 0.000000 0.000000
    41 -1.180680 -2.507215 -0.193861 -0.379706 0.103261 -0.518998
    42 -0.024966 -1.123934 0.017594 -2.136747 0.000000 0.000001
    43 -0.020057 -0.890966 0.010091 -0.896554 0.000000 0.000000
    44 0.583510 -1.197274 0.185377 0.220453 -0.870283 -0.672925
    45 1.535926 0.010245 0.005008 -0.063786 0.310988 -1.032101
    46 1.100770 0.004526 -0.010676 -0.009999 0.012761 -0.488483
    47 0.006867 -0.065891 -0.085739 -2.852831 -0.015617 -1.424341
  time 23
    0 10.510307 -2.919651 -11.547220 4.178586 -0.770311 -4.800855
    1 -0.071918 -8.498731 -0.104137 0.282065 0.483453 -0.701714
    2 1.665510 -2.904478 0.631343 -0.234326 0.084943 -3.486601
    3 0.037088 1.836796 0.000000 0.000000 0.000000 0.679463
    4 -1.699721 2.222293 0.000421 0.000000 0.000000 -1.282538
    5 -5.655031 16.263659 1.047437 0.005898 -1.121418 -1.279905
    6 7.696722 0.021893 -0.405259 -0.001707 0.561568 -0.000383
    7 6.499035 0.037860 -0.093995 -1.570617 1.505568 -3.138681
    8 -5.655030 16.263657 -1.043029 3.135696 1.121416 -1.279904
    9 7.721393 -0.021960 -0.393362 0.001706 0.561568 0.000382
    10 6.490693 -0.037835 -0.107306 1.570613 1.505565 3.138681
    11 -0.489117 10.226307 1.194557 0.000000 0.000000 -1.282132
    12 1.189389 -0.895074 -1.233620 0.133183 0.000000 0.003685
    13 -2.628362 8.546533 -0.000005 0.000000 0.000000 -1.274576
    14 -0.999828 -15.148465 -15.158431 -1.125489 -5.590106 -0.110569
    15 0.096944 -8.450419 -0.009364 0.334056 -0.540417 0.157854
    16 0.447952 -2.798982 -0.200442 -1.014489 0.150910 0.644051
    17 -0.032910 -1.480206 0.004936 -1.431586 0.000000 0.000002
    18 -0.027022 -1.076919 -0.020212 -0.473979 0.000000 0.000000
    19 -0.249534 -2.846962 -0.174215 -0.473080 0.210085 0.362128
    20 0.043235 -1.683939 0.096014 -1.793930 0.002823 -0.000167
    21 0.031729 -1.160831 0.058836 -0.335973 0.000642 0.008372
    22 -0.963866 -2.785142 -0.085346 -0.609796 0.267585 0.317863
    23 0.028479 -1.403068 0.006271 -1.150412 0.000000 0.000000
    24 0.021413 -0.957782 0.020047 -0.616019 0.000000 0.000000
    25 1.164474 -2.543938 -0.170328 -0.983966 0.070580 0.675853
    26 0.024032 -1.129043 0.017806 -1.337944 0.000000 0.000001
    27 0.014896 -0.883989 -0.019845 -0.672931 0.000000 0.000000
    28 -0.586770 -1.264475 0.200164 -0.186364 -1.053830 -3.148928
    29 1.522835 0.058681 0.016850 0.026350 0.113383 0.795259
    30 1.117948 0.048424 -0.005764 -0.013043 -0.021399 0.612602
    31 -0.057365 -0.119510 0.041742 0.574644 0.064105 1.500021
    32 -0.488517 -2.755600 -0.228261 -0.619222 -0.044186 -0.439117
    33 0.039888 -1.479789 0.029853 -2.158258 0.000000 0.000000
    34 0.028785 -1.075730 -0.023111 -0.647509 0.000000 0.000000
    35 0.250028 -2.820663 -0.238396 -0.535674 0.054413 -0.329163
    36 -0.049759 -1.680545 0.100480 -1.871489 0.000000 -0.000002
    37 -0.034141 -1.148312 0.084779 -1.387518 0.000000 0.000000
    38 0.957766 -2.746776 -0.090301 0.225143 -0.058359 -0.193630
    39 -0.033419 -1.397129 -0.011255 -0.184014 -0.032275 -0.008534
    40 -0.022361 -0.957434 0.018783 0.003845 0.000000 0.000000
    41 -1.180680 -2.507215 -0.193861 -0.379706 0.103261 -0.518998
    42 -0.024966 -1.123934 0.017594 -2.136747 0.000000 0.000001
    43 -0.020057 -0.890966 0.010091 -0.896554 0.000000 0.000000
    44 0.583510 -1.197274 0.185377 0.220453 -0.870283 -0.672925
    45 1.535926 0.010245 0.005008 -0.063786 0.310988 -1.032101
    46 1.100770 0.004526 -0.010676 -0.009999 0.012761 -0.488483
    47 0.006867 -0.065891 -0.085739 -2.852831 -0.015617 -1.424341
  time 24
    0 10.518120 -2.888400 -11.500344 4.178586 -0.770311 -4.800855
    1 -0.071918 -8.498731 -0.104137 0.281256 0.487917 -0.704605
    2 1.665510 -2.904478 0.631343 -0.234326 0.084943 -3.486601
    3 0.037088 1.836796 0.000000 0.000000 0.000000 0.679463
    4 -1.699721 2.222293 0.000421 0.000000 0.000000 -1.282538
    5 -5.655031 16.263659 1.047437 0.005898 -1.121418 -1.279905
    6 7.696722 0.021893 -0.405259 -0.001707 0.561568 -0.000383
    7 6.499035 0.037860 -0.093995 -1.570617 1.505568 -3.138681
    8 -5.655030 16.263657 -1.043029 3.135696 1.121416 -1.279904
    9 7.721393 -0.021960 -0.393362 0.001706 0.561568 0.000382
    10 6.490693 -0.037835 -0.107306 1.570613 1.505565 3.138681
    11 -0.489117 10.226307 1.194557 0.000000 0.000000 -1.282132
    12 1.189389 -0.914606 -1.202369 0.035260 0.000000 0.003685
    13 -2.628362 8.546533 -0.000005 0.000000 0.000000 -1.274576
    14 -0.976390 -15.183622 -15.197495 -1.128307 -5.591231 -0.112554
    15 0.096944 -8.450419 -0.009364 0.346691 -0.540417 0.157854
    16 0.447952 -2.798982 -0.200442 -1.014489 0.150910 0.644051
    17 -0.032910 -1.480206 0.004936 -1.431586 0.000000 0.000002
    18 -0.027022 -1.076919 -0.020212 -0.473979 0.000000 0.000000
    19 -0.249534 -2.846962 -0.174215 -0.473080 0.210085 0.362128
    20 0.043235 -1.683939 0.096014 -1.793930 0.002823 -0.000167
    21 0.031729 -1.160831 0.058836 -0.335973 0.000642 0.008372
    22 -0.963866 -2.785142 -0.085346 -0.609796 0.267585 0.317863
    23 0.028479 -1.403068 0.006271 -1.150412 0.000000 0.000000
    24 0.021413 -0.957782 0.020047 -0.616019 0.000000 0.000000
    25 1.164474 -2.543938 -0.170328 -0.983966 0.070580 0.675853
    26 0.024032 -1.129043 0.017806 -1.337944 0.000000 0.000001
    27 0.014896 -0.883989 -0.019845 -0.672931 0.000000 0.000000
    28 -0.586770 -1.264475 0.200164 -0.186364 -1.053830 -3.148928
    29 1.522835 0.058681 0.016850 0.030769 0.112376 0.834059
    30 1.117948 0.048424 -0.005764 -0.014229 -0.020536 0.667511
    31 -0.057365 -0.119510 0.041742 0.574644 0.064105 1.500021
    32 -0.488517 -2.755600 -0.228261 -0.619222 -0.044186 -0.439117
    33 0.039888 -1.479789 0.029853 -2.158258 0.000000 0.000000
    34 0.028785 -1.075730 -0.023111 -0.647509 0.000000 0.000000
    35 0.250028 -2.820663 -0.238396 -0.535674 0.054413 -0.329163
    36 -0.049759 -1.680545 0.100480 -1.871489 0.000000 -0.000002
    37 -0.034141 -1.148312 0.084779 -1.387518 0.000000 0.000000
    38 0.957766 -2.746776 -0.090301 0.225143 -0.058359 -0.193630
    39 -0.033419 -1.397129 -0.011255 -0.184014 -0.032275 -0.008534
    40 -0.022361 -0.957434 0.018783 0.003845 0.000000 0.000000
    41 -1.180680 -2.507215 -0.193861 -0.379706 0.103261 -0.518998
    42 -0.024966 -1.123934 0.017594 -2.136747 0.000000 0.000001
    43 -0.020057 -0.890966 0.010091 -0.896554 0.000000 0.000000
    44 0.583510 -1.197274 0.185377 0.220453 -0.870283 -0.672925
    45 1.535926 0.010245 0.005008 -0.063786 0.310988 -1.032101
    46 1.100770 0.004526 -0.010676 -0.009999 0.012761 -0.488483
    47 0.006867 -0.065891 -0.085739 -2.852831 -0.015617 -1.424341
  time 25
    0 10.525933 -2.864962 -11.453468 4.178586 -0.770311 -4.800855
    1 -0.071918 -8.498731 -0.104137 0.283947 0.486634 -0.699883
    2 1.665510 -2.904478 0.631343 -0.234326 0.084943 -3.486601
    3 0.037088 1.836796 0.000000 0.000000 0.000000 0.679463
    4 -1.699721 2.222293 0.000421 0.000000 0.000000 -1.282538
    5 -5.655031 16.263659 1.047437 0.005898 -1.121418 -1.279905
    6 7.696722 0.021893 -0.405259 -0.001707 0.561568 -0.000383
    7 6.499035 0.037860 -0.093995 -1.570617 1.505568 -3.138681
    8 -5.655030 16.263657 -1.043029 3.135696 1.121416 -1.279904
    9 7.721393 -0.021960 -0.393362 0.001706 0.561568 0.000382
    10 6.490693 -0.037835 -0.107306 1.570613 1.505565 3.138681
    11 -0.489117 10.226307 1.194557 0.000000 0.000000 -1.282132
    12 1.189389 -0.918512 -1.194556 0.000000 0.000000 0.003685
    13 -2.628362 8.546533 -0.000005 0.000000 0.000000 -1.274576
    14 -0.937326 -15.226592 -15.142806 -1.133272 -5.591231 -0.112460
    15 0.096944 -8.450419 -0.009364 0.320536 -0.540417 0.157854
    16 0.447952 -2.798982 -0.200442 -1.014489 0.150910 0.644051
    17 -0.032910 -1.480206 0.004936 -1.431586 0.000000 0.000002
    18 -0.027022 -1.076919 -0.020212 -0.473979 0.000000 0.000000
    19 -0.249534 -2.846962 -0.174215 -0.473080 0.210085 0.362128
    20 0.043235 -1.683939 0.096014 -1.793930 0.002823 -0.000167
    21 0.031729 -1.160831 0.058836 -0.335973 0.000642 0.008372
    22 -0.963866 -2.785142 -0.085346 -0.609796 0.267585 0.317863
    23 0.028479 -1.403068 0.006271 -1.150412 0.000000 0.000000
    24 0.021413 -0.957782 0.020047 -0.616019 0.000000 0.000000
    25 1.164474 -2.543938 -0.170328 -0.983966 0.070580 0.675853
    26 0.024032 -1.129043 0.017806 -1.337944 0.000000 0.000001
    27 0.014896 -0.883989 -0.019845 -0.672931 0.000000 0.000000
    28 -0.586770 -1.264475 0.200164 -0.186364 -1.053830 -3.148928
    29 1.522835 0.058681 0.016850 0.033868 0.111645 0.861187
    30 1.117948 0.048424 -0.005764 -0.015032 -0.019913 0.704455
    31 -0.057365 -0.119510 0.041742 0.574644 0.064105 1.500021
    32 -0.488517 -2.755600 -0.228261 -0.619222 -0.044186 -0.439117
    33 0.039888 -1.479789 0.029853 -2.158258 0.000000 0.000000
    34 0.028785 -1.075730 -0.023111 -0.647509 0.000000 0.000000
    35 0.250028 -2.820663 -0.238396 -0.535674 0.054413 -0.329163
    36 -0.049759 -1.680545 0.100480 -1.871489 0.000000 -0.000002
    37 -0.034141 -1.148312 0.084779 -1.387518 0.000000 0.000000
    38 0.957766 -2.746776 -0.090301 0.225143 -0.058359 -0.193630
    39 -0.033419 -1.397129 -0.011255 -0.184014 -0.032275 -0.008534
    40 -0.022361 -0.957434 0.018783 0.003845 0.000000 0.000000
    41 -1.180680 -2.507215 -0.193861 -0.379706 0.103261 -0.518998
    42 -0.024966 -1.123934 0.017594 -2.136747 0.000000 0.000001
    43 -0.020057 -0.890966 0.010091 -0.896554 0.000000 0.000000
    44 0.583510 -1.197274 0.185377 0.220453 -0.870283 -0.672925
    45 1.535926 0.010245 0.005008 -0.063786 0.310988 -1.032101
    46 1.100770 0.004526 -0.010676 -0.009999 0.012761 -0.488483
    47 0.006867 -0.065891 -0.085739 -2.852831 -0.015617 -1.424341
  time 26
    0 10.529839 -2.849336 -11.414404 4.178586 -0.770311 -4.800855
    1 -0.071918 -8.498731 -0.104137 0.290649 0.483426 -0.688077
    2 1.665510 -2.904478 0.631343 -0.234326 0.084943 -3.486601
    3 0.037088 1.836796 0.000000 0.000000 0.000000 0.679463
    4 -1.699721 2.222293 0.000421 0.000000 0.000000 -1.282538
    5 -5.655031 16.263659 1.047437 0.005898 -1.121418 -1.279905
    6 7.696722 0.021893 -0.405259 -0.001707 0.561568 -0.000383
    7 6.499035 0.037860 -0.093995 -1.570617 1.505568 -3.138681
    8 -5.655030 16.263657 -1.043029 3.135696 1.121416 -1.279904
    9 7.721393 -0.021960 -0.393362 0.001706 0.561568 0.000382
    10 6.490693 -0.037835 -0.107306 1.570613 1.505565 3.138681
    11 -0.489117 10.226307 1.194557 0.000000 0.000000 -1.282132
    12 1.189389 -0.918512 -1.194556 0.000000 0.000000 0.003685
    13 -2.628362 8.546533 -0.000005 0.000000 0.000000 -1.274576
    14 -0.886544 -15.285188 -15.006083 -1.139311 -5.591058 -0.112081
    15 0.096944 -8.450419 -0.009364 0.255262 -0.540417 0.157854
    16 0.447952 -2.798982 -0.200442 -1.014489 0.150910 0.644051
    17 -0.032910 -1.480206 0.004936 -1.431586 0.000000 0.000002
    18 -0.027022 -1.076919 -0.020212 -0.473979 0.000000 0.000000
    19 -0.249534 -2.846962 -0.174215 -0.473080 0.210085 0.362128
    20 0.043235 -1.683939 0.096014 -1.793930 0.002823 -0.000167
    21 0.031729 -1.160831 0.058836 -0.335973 0.000642 0.008372
    22 -0.963866 -2.785142 -0.085346 -0.609796 0.267585 0.317863
    23 0.028479 -1.403068 0.006271 -1.150412 0.000000 0.000000
    24 0.021413 -0.957782 0.020047 -0.616019 0.000000 0.000000
    25 1.164474 -2.543938 -0.170328 -0.983966 0.070580 0.675853
    26 0.024032 -1.129043 0.017806 -1.337944 0.000000 0.000001
    27 0.014896 -0.883989 -0.019845 -0.672931 0.000000 0.000000
    28 -0.586770 -1.264475 0.200164 -0.186364 -1.053830 -3.148928
    29 1.522835 0.058681 0.016850 0.035029 0.111357 0.871431
    30 1.117948 0.048424 -0.005764 -0.015320 -0.019661 0.717991
    31 -0.057365 -0.119510 0.041742 0.574644 0.064105 1.500021
    32 -0.488517 -2.755600 -0.228261 -0.619222 -0.044186 -0.439117
    33 0.039888 -1.479789 0.029853 -2.158258 0.000000 0.000000
    34 0.028785 -1.075730 -0.023111 -0.647509 0.000000 0.000000
    35 0.250028 -2.820663 -0.238396 -0.535674 0.054413 -0.329163
    36 -0.049759 -1.680545 0.100480 -1.871489 0.000000 -0.000002
    37 -0.034141 -1.148312 0.084779 -1.387518 0.000000 0.000000
    38 0.957766 -2.746776 -0.090301 0.225143 -0.058359 -0.193630
    39 -0.033419 -1.397129 -0.011255 -0.184014 -0.032275 -0.008534
    40 -0.022361 -0.957434 0.018783 0.003845 0.000000 0.000000
    41 -1.180680 -2.507215 -0.193861 -0.379706 0.103261 -0.518998
    42 -0.024966 -1.123934 0.017594 -2.136747 0.000000 0.000001
    43 -0.020057 -0.890966 0.010091 -0.896554 0.000000 0.000000
    44 0.583510 -1.197274 0.185377 0.220453 -0.870283 -0.672925
    45 1.535926 0.010245 0.005008 -0.063786 0.310988 -1.032101
    46 1.100770 0.004526 -0.010676 -0.009999 0.012761 -0.488483
    47 0.006867 -0.065891 -0.085739 -2.852831 -0.015617 -1.424341
  time 27
    0 10.537652 -2.837617 -11.371434 4.178586 -0.770311 -4.800855
    1 -0.071918 -8.498731 -0.104137 0.299358 0.479256 -0.672730
    2 1.665510 -2.904478 0.631343 -0.234326 0.084943 -3.486601
    3 0.037088 1.836796 0.000000 0.000000 0.000000 0.679463
    4 -1.699721 2.222293 0.000421 0.000000 0.000000 -1.282538
    5 -5.655031 16.263659 1.047437 0.005898 -1.121418 -1.279905
    6 7.696722 0.021893 -0.405259 -0.001707 0.561568 -0.000383
    7 6.499035 0.037860 -0.093995 -1.570617 1.505568 -3.138681
    8 -5.655030 16.263657 -1.043029 3.135696 1.121416 -1.279904
    9 7.721393 -0.021960 -0.393362 0.001706 0.561568 0.000382
    10 6.490693 -0.037835 -0.107306 1.570613 1.505565 3.138681
    11 -0.489117 10.226307 1.194557 0.000000 0.000000 -1.282132
    12 1.189389 -0.918512 -1.194556 0.000000 0.000000 0.003685
    13 -2.628362 8.546533 -0.000005 0.000000 0.000000 -1.274576
    14 -0.827948 -15.347690 -14.834202 -1.145551 -5.590885 -0.111703
    15 0.096944 -8.450419 -0.009364 0.170361 -0.540417 0.157854
    16 0.447952 -2.798982 -0.200442 -1.014489 0.150910 0.644051
    17 -0.032910 -1.480206 0.004936 -1.431586 0.000000 0.000002
    18 -0.027022 -1.076919 -0.020212 -0.473979 0.000000 0.000000
    19 -0.249534 -2.846962 -0.174215 -0.473080 0.210085 0.362128
    20 0.043235 -1.683939 0.096014 -1.793930 0.002823 -0.000167
    21 0.031729 -1.160831 0.058836 -0.335973 0.000642 0.008372
    22 -0.963866 -2.785142 -0.085346 -0.609796 0.267585 0.317863
    23 0.028479 -1.403068 0.006271 -1.150412 0.000000 0.000000
    24 0.021413 -0.957782 0.020047 -0.616019 0.000000 0.000000
    25 1.164474 -2.543938 -0.170328 -0.983966 0.070580 0.675853
    26 0.024032 -1.129043 0.017806 -1.337944 0.000000 0.000001
    27 0.014896 -0.883989 -0.019845 -0.672931 0.000000 0.000000
    28 -0.586770 -1.264475 0.200164 -0.186364 -1.053830 -3.148928
    29 1.522835 0.058681 0.016850 0.035029 0.111357 0.871431
    30 1.117948 0.048424 -0.005764 -0.015320 -0.019661 0.717991
    31 -0.057365 -0.119510 0.041742 0.574644 0.064105 1.500021
    32 -0.488517 -2.755600 -0.228261 -0.619222 -0.044186 -0.439117
    33 0.039888 -1.479789 0.029853 -2.158258 0.000000 0.000000
    34 0.028785 -1.075730 -0.023111 -0.647509 0.000000 0.000000
    35 0.250028 -2.820663 -0.238396 -0.535674 0.054413 -0.329163
    36 -0.049759 -1.680545 0.100480 -1.871489 0.000000 -0.000002
    37 -0.034141 -1.148312 0.084779 -1.387518 0.000000 0.000000
    38 0.957766 -2.746776 -0.090301 0.225143 -0.058359 -0.193630
    39 -0.033419 -1.397129 -0.011255 -0.184014 -0.032275 -0.008534
    40 -0.022361 -0.957434 0.018783 0.003845 0.000000 0.000000
    41 -1.180680 -2.507215 -0.193861 -0.379706 0.103261 -0.518998
    42 -0.024966 -1.123934 0.017594 -2.136747 0.000000 0.000001
    43 -0.020057 -0.890966 0.010091 -0.896554 0.000000 0.000000
    44 0.583510 -1.197274 0.185377 0.220453 -0.870283 -0.672925
    45 1.535926 0.010245 0.005008 -0.063786 0.310988 -1.032101
    46 1.100770 0.004526 -0.010676 -0.009999 0.012761 -0.488483
    47 0.006867 -0.065891 -0.085739 -2.852831 -0.015617 -1.424341
  time 28
    0 10.545464 -2.833711 -11.340183 4.178586 -0.770311 -4.800855
    1 -0.071918 -8.498731 -0.104137 0.308083 0.475086 -0.657359
    2 1.665510 -2.904478 0.631343 -0.234326 0.084943 -3.486601
    3 0.037088 1.836796 0.000000 0.000000 0.000000 0.679463
    4 -1.699721 2.222293 0.000421 0.000000 0.000000 -1.282538
    5 -5.655031 16.263659 1.047437 0.005898 -1.121418 -1.279905
    6 7.696722 0.021893 -0.405259 -0.001707 0.561568 -0.000383
    7 6.499035 0.037860 -0.093995 -1.570617 1.505568 -3.138681
    8 -5.655030 16.263657 -1.043029 3.135696 1.121416 -1.279904
    9 7.721393 -0.021960 -0.393362 0.001706 0.561568 0.000382
    10 6.490693 -0.037835 -0.107306 1.570613 1.505565 3.138681
    11 -0.489117 10.226307 1.194557 0.000000 0.000000 -1.282132
    12 1.189389 -0.918512 -1.194556 0.000000 0.000000 0.003685
    13 -2.628362 8.546533 -0.000005 0.000000 0.000000 -1.274576
    14 -0.777165 -15.402379 -14.658416 -1.151120 -5.590712 -0.111231
    15 0.096944 -8.450419 -0.009364 0.085459 -0.540417 0.157854
    16 0.447952 -2.798982 -0.200442 -1.014489 0.150910 0.644051
    17 -0.032910 -1.480206 0.004936 -1.431586 0.000000 0.000002
    18 -0.027022 -1.076919 -0.020212 -0.473979 0.000000 0.000000
    19 -0.249534 -2.846962 -0.174215 -0.473080 0.210085 0.362128
    20 0.043235 -1.683939 0.096014 -1.793930 0.002823 -0.000167
    21 0.031729 -1.160831 0.058836 -0.335973 0.000642 0.008372
    22 -0.963866 -2.785142 -0.085346 -0.609796 0.267585 0.317863
    23 0.028479 -1.403068 0.006271 -1.150412 0.000000 0.000000
    24 0.021413 -0.957782 0.020047 -0.616019 0.000000 0.000000
    25 1.164474 -2.543938 -0.170328 -0.983966 0.070580 0.675853
    26 0.024032 -1.129043 0.017806 -1.337944 0.000000 0.000001
    27 0.014896 -0.883989 -0.019845 -0.672931 0.000000 0.000000
    28 -0.586770 -1.264475 0.200164 -0.186364 -1.053830 -3.148928
    29 1.522835 0.058681 0.016850 0.035029 0.111357 0.871431
    30 1.117948 0.048424 -0.005764 -0.015320 -0.019661 0.717991
    31 -0.057365 -0.119510 0.041742 0.574644 0.064105 1.500021
    32 -0.488517 -2.755600 -0.228261 -0.619222 -0.044186 -0.439117
    33 0.039888 -1.479789 0.029853 -2.158258 0.000000 0.000000
    34 0.028785 -1.075730 -0.023111 -0.647509 0.000000 0.000000
    35 0.250028 -2.820663 -0.238396 -0.535674 0.054413 -0.329163
    36 -0.049759 -1.680545 0.100480 -1.871489 0.000000 -0.000002
    37 -0.034141 -1.148312 0.084779 -1.387518 0.000000 0.000000
    38 0.957766 -2.746776 -0.090301 0.225143 -0.058359 -0.193630
    39 -0.033419 -1.397129 -0.011255 -0.184014 -0.032275 -0.008534
    40 -0.022361 -0.957434 0.018783 0.003845 0.000000 0.000000
    41 -1.180680 -2.507215 -0.193861 -0.379706 0.103261 -0.518998
    42 -0.024966 -1.123934 0.017594 -2.136747 0.000000 0.000001
    43 -0.020057 -0.890966 0.010091 -0.896554 0.000000 0.000000
    44 0.583510 -1.197274 0.185377 0.220453 -0.870283 -0.672925
    45 1.535926 0.010245 0.005008 -0.063786 0.310988 -1.032101
    46 1.100770 0.004526 -0.010676 -0.009999 0.012761 -0.488483
    47 0.006867 -0.065891 -0.085739 -2.852831 -0.015617 -1.424341
  time 29
    0 10.545464 -2.829804 -11.316745 4.178586 -0.770311 -4.800855
    1 -0.071918 -8.498731 -0.104137 0.314785 0.471878 -0.645554
    2 1.665510 -2.904478 0.631343 -0.234326 0.084943 -3.486601
    3 0.037088 1.836796 0.000000 0.000000 0.000000 0.679463
    4 -1.699721 2.222293 0.000421 0.000000 0.000000 -1.282538
    5 -5.655031 16.263659 1.047437 0.005898 -1.121418 -1.279905
    6 7.696722 0.021893 -0.405259 -0.001707 0.561568 -0.000383
    7 6.499035 0.037860 -0.093995 -1.570617 1.505568 -3.138681
    8 -5.655030 16.263657 -1.043029 3.135696 1.121416 -1.279904
    9 7.721393 -0.021960 -0.393362 0.001706 0.561568 0.000382
    10 6.490693 -0.037835 -0.107306 1.570613 1.505565 3.138681
    11 -0.489117 10.226307 1.194557 0.000000 0.000000 -1.282132
    12 1.189389 -0.918512 -1.194556 0.000000 0.000000 0.003685
    13 -2.628362 8.546533 -0.000005 0.000000 0.000000 -1.274576
    14 -0.738102 -15.441442 -14.521693 -1.155079 -5.590539 -0.110947
    15 0.096944 -8.450419 -0.009364 0.020139 -0.540417 0.157854
    16 0.447952 -2.798982 -0.200442 -1.014489 0.150910 0.644051
    17 -0.032910 -1.480206 0.004936 -1.431586 0.000000 0.000002
    18 -0.027022 -1.076919 -0.020212 -0.473979 0.000000 0.000000
    19 -0.249534 -2.846962 -0.174215 -0.473080 0.210085 0.362128
    20 0.043235 -1.683939 0.096014 -1.793930 0.002823 -0.000167
    21 0.031729 -1.160831 0.058836 -0.335973 0.000642 0.008372
    22 -0.963866 -2.785142 -0.085346 -0.609796 0.267585 0.317863
    23 0.028479 -1.403068 0.006271 -1.150412 0.000000 0.000000
    24 0.021413 -0.957782 0.020047 -0.616019 0.000000 0.000000
    25 1.164474 -2.543938 -0.170328 -0.983966 0.070580 0.675853
    26 0.024032 -1.129043 0.017806 -1.337944 0.000000 0.000001
    27 0.014896 -0.883989 -0.019845 -0.672931 0.000000 0.000000
    28 -0.586770 -1.264475 0.200164 -0.186364 -1.053830 -3.148928
    29 1.522835 0.058681 0.016850 0.035029 0.111357 0.871431
    30 1.117948 0.048424 -0.005764 -0.015320 -0.019661 0.717991
    31 -0.057365 -0.119510 0.041742 0.574644 0.064105 1.500021
    32 -0.488517 -2.755600 -0.228261 -0.619222 -0.044186 -0.439117
    33 0.039888 -1.479789 0.029853 -2.158258 0.000000 0.000000
    34 0.028785 -1.075730 -0.023111 -0.647509 0.000000 0.000000
    35 0.250028 -2.820663 -0.238396 -0.535674 0.054413 -0.329163
    36 -0.049759 -1.680545 0.100480 -1.871489 0.000000 -0.000002
    37 -0.034141 -1.148312 0.084779 -1.387518 0.000000 0.000000
    38 0.957766 -2.746776 -0.090301 0.225143 -0.058359 -0.193630
    39 -0.033419 -1.397129 -0.011255 -0.184014 -0.032275 -0.008534
    40 -0.022361 -0.957434 0.018783 0.003845 0.000000 0.000000
    41 -1.180680 -2.507215 -0.193861 -0.379706 0.103261 -0.518998
    42 -0.024966 -1.123934 0.017594 -2.136747 0.000000 0.000001
    43 -0.020057 -0.890966 0.010091 -0.896554 0.000000 0.000000
    44 0.583510 -1.197274 0.185377 0.220453 -0.870283 -0.672925
    45 1.535926 0.010245 0.005008 -0.063786 0.310988 -1.032101
    46 1.100770 0.004526 -0.010676 -0.009999 0.012761 -0.488483
    47 0.006867 -0.065891 -0.085739 -2.852831 -0.015617 -1.424341
  time 30
    0 10.549371 -2.829804 -11.308932 4.178586 -0.770311 -4.800855
    1 -0.071918 -8.498731 -0.104137 0.317460 0.470595 -0.640832
    2 1.665510 -2.904478 0.631343 -0.234326 0.084943 -3.486601
    3 0.037088 1.836796 0.000000 0.000000 0.000000 0.679463
    4 -1.699721 2.222293 0.000421 0.000000 0.000000 -1.282538
    5 -5.655031 16.263659 1.047437 0.005898 -1.121418 -1.279905
    6 7.696722 0.021893 -0.405259 -0.001707 0.561568 -0.000383
    7 6.499035 0.037860 -0.093995 -1.570617 1.505568 -3.138681
    8 -5.655030 16.263657 -1.043029 3.135696 1.121416 -1.279904
    9 7.721393 -0.021960 -0.393362 0.001706 0.561568 0.000382
    10 6.490693 -0.037835 -0.107306 1.570613 1.505565 3.138681
    11 -0.489117 10.226307 1.194557 0.000000 0.000000 -1.282132
    12 1.189389 -0.918512 -1.194556 0.000000 0.000000 0.003685
    13 -2.628362 8.546533 -0.000005 0.000000 0.000000 -1.274576
    14 -0.726382 -15.457068 -14.470910 -1.156622 -5.590453 -0.110758
    15 0.096944 -8.450419 -0.009364 -0.005970 -0.540417 0.157854
    16 0.447952 -2.798982 -0.200442 -1.014489 0.150910 0.644051
    17 -0.032910 -1.480206 0.004936 -1.431586 0.000000 0.000002
    18 -0.027022 -1.076919 -0.020212 -0.473979 0.000000 0.000000
    19 -0.249534 -2.846962 -0.174215 -0.473080 0.210085 0.362128
    20 0.043235 -1.683939 0.096014 -1.793930 0.002823 -0.000167
    21 0.031729 -1.160831 0.058836 -0.335973 0.000642 0.008372
    22 -0.963866 -2.785142 -0.085346 -0.609796 0.267585 0.317863
    23 0.028479 -1.403068 0.006271 -1.150412 0.000000 0.000000
    24 0.021413 -0.957782 0.020047 -0.616019 0.000000 0.000000
    25 1.164474 -2.543938 -0.170328 -0.983966 0.070580 0.675853
    26 0.024032 -1.129043 0.017806 -1.337944 0.000000 0.000001
    27 0.014896 -0.883989 -0.019845 -0.672931 0.000000 0.000000
    28 -0.586770 -1.264475 0.200164 -0.186364 -1.053830 -3.148928
    29 1.522835 0.058681 0.016850 0.035029 0.111357 0.871431
    30 1.117948 0.048424 -0.005764 -0.015320 -0.019661 0.717991
    31 -0.057365 -0.119510 0.041742 0.574644 0.064105 1.500021
    32 -0.488517 -2.755600 -0.228261 -0.619222 -0.044186 -0.439117
    33 0.039888 -1.479789 0.029853 -2.158258 0.000000 0.000000
    34 0.028785 -1.075730 -0.023111 -0.647509 0.000000 0.000000
    35 0.250028 -2.820663 -0.238396 -0.535674 0.054413 -0.329163
    36 -0.049759 -1.680545 0.100480 -1.871489 0.000000 -0.000002
    37 -0.034141 -1.148312 0.084779 -1.387518 0.000000 0.000000
    38 0.957766 -2.746776 -0.090301 0.225143 -0.058359 -0.193630
    39 -0.033419 -1.397129 -0.011255 -0.184014 -0.032275 -0.008534
    40 -0.022361 -0.957434 0.018783 0.003845 0.000000 0.000000
    41 -1.180680 -2.507215 -0.193861 -0.379706 0.103261 -0.518998
    42 -0.024966 -1.123934 0.017594 -2.136747 0.000000 0.000001
    43 -0.020057 -0.890966 0.010091 -0.896554 0.000000 0.000000
    44 0.583510 -1.197274 0.185377 0.220453 -0.870283 -0.672925
    45 1.535926 0.010245 0.005008 -0.063786 0.310988 -1.032101
    46 1.100770 0.004526 -0.010676 -0.009999 0.012761 -0.488483
    47 0.006867 -0.065891 -0.085739 -2.852831 -0.015617 -1.424341
end
