version 1
nodes
  0 "root" -1
  1 "Bone01" 0
  2 "Bone_Lefthand" 1
  3 "sfpistol_root" 2
  4 "sfpistol_magazine02" 3
  5 "sfpistol_bettery" 4
  6 "sfpistol_sub_A_Bone02" 5
  7 "sfpistol_sub_A_Bone52" 6
  8 "sfpistol_sub_A_Bone50" 6
  9 "sfpistol_sub_A_Bone46" 6
  10 "sfpistol_sub_A_Bone48" 6
  11 "sfpistol_sub_B_Bone53" 5
  12 "sfpistol_sub_B_Bone56" 11
  13 "sfpistol_sub_B_Bone57" 11
  14 "sfpistol_sub_B_Bone54" 11
  15 "sfpistol_sub_B_Bone55" 11
  16 "sfpistol_magazine01" 3
  17 "sfpistol_magazine_pin01" 16
  18 "sfpistol_magazine_pin03" 16
  19 "sfpistol_magazine_pin04" 16
  20 "sfpistol_magazine_pin02" 16
  21 "sfpistol_sub_B_Bone58" 16
  22 "sfpistol_sub_B_Bone60" 16
  23 "sfpistol_sub_B_Bone61" 16
  24 "sfpistol_sub_A_Bone64" 16
  25 "sfpistol_sub_A_Bone65" 16
  26 "sfpistol_sub_A_Bone66" 16
  27 "sfpistol_sub_A_Bone67" 16
  28 "sfpistol_sub_B_Bone20" 16
  29 "sfpistol_sub_A_Bone68" 16
  30 "sfpistol_sub_A_Bone69" 29
  31 "sfpistol_sub_B_Bone03" 16
  32 "sfpistol_sub_B_Bone12(mirrored)" 31
  33 "sfpistol_sub_B_Bone12" 31
  34 "sfpistol_trigger" 3
  35 "sfpistol_device_top" 3
  36 "sfpistol_device_side" 3
  37 "sfpistol_front_root" 3
  38 "sfpistol_front_device01" 37
  39 "sfpistol_front_device04" 38
  40 "sfpistol_front_device07" 39
  41 "sfpistol_front_device02" 37
  42 "sfpistol_front_device05" 41
  43 "sfpistol_front_device08" 42
  44 "sfpistol_front_device03" 37
  45 "sfpistol_front_device06" 44
  46 "sfpistol_front_device09" 45
  47 "ef_sfpistol_root" 3
  48 "ef_sfpistol_03" 47
  49 "ef_sfpistol_04" 47
  50 "ef_sfpistol_01" 47
  51 "ef_sfpistol_02" 47
  52 "Bone_L_Upper" 1
  53 "Bone13" 2
  54 "Bone14" 53
  55 "Bone15" 54
  56 "Bone17" 2
  57 "Bone18" 56
  58 "Bone19" 57
  59 "Bone21" 2
  60 "Bone22" 59
  61 "Bone23" 60
  62 "Bone09" 2
  63 "Bone10" 62
  64 "Bone11" 63
  65 "Bone05" 2
  66 "Bone06" 65
  67 "Bone07" 66
  68 "Bone_Se_Hand-L" 2
  69 "Bone04" 0
  70 "Bone_Righthand" 69
  71 "Bone39" 70
  72 "Bone40" 71
  73 "Bone41" 72
  74 "Bone35" 70
  75 "Bone36" 74
  76 "Bone37" 75
  77 "Bone31" 70
  78 "Bone32" 77
  79 "Bone33" 78
  80 "Bone43" 70
  81 "Bone44" 80
  82 "Bone45" 81
  83 "Bone27" 70
  84 "Bone28" 83
  85 "Bone29" 84
  86 "Bone_Se_Hand-R" 70
  87 "Bone_R_Upper" 69
end
skeleton
  time 0
    0 -3.885590 2.605077 -9.150031 0.000000 0.000000 0.000000
    1 12.559731 -5.144504 0.078804 4.023530 -1.160845 1.473101
    2 -0.071918 -8.498732 -0.104136 0.338867 0.177513 -0.231731
    3 1.514942 -3.186424 0.666113 -0.419348 -0.107262 -3.451130
    4 -1.487204 -0.072218 0.000000 0.000000 0.000000 -1.275647
    5 1.379861 0.013026 0.000000 0.000000 0.000000 0.000000
    6 1.091372 -0.009931 0.000000 0.000000 0.000000 0.000000
    7 -0.000004 -0.012830 -0.746234 0.000000 1.570460 0.000000
    8 -0.000002 -0.012831 0.743942 0.000000 -1.570796 0.000000
    9 0.000000 -0.758639 0.000000 0.000001 0.000124 -1.570921
    10 0.000000 0.740977 0.000000 0.000001 -0.000118 1.570678
    11 0.618701 -0.009931 0.000000 -0.785398 0.000000 0.000000
    12 -0.000003 -0.045880 -0.434408 0.000000 1.570460 0.000000
    13 0.000000 -0.407593 -0.045883 0.000000 0.000000 -1.570973
    14 -0.000002 -0.045882 0.340349 0.000000 -1.570460 0.000000
    15 0.000000 0.427942 -0.045883 0.000001 0.000000 1.570629
    16 -1.572389 0.220680 0.000000 0.000000 0.000000 -1.282047
    17 1.033914 -0.654510 0.906782 1.570797 -0.982795 -1.564396
    18 1.033878 -0.648745 -0.899195 1.570797 0.982794 -1.564396
    19 1.026259 0.541615 -0.895047 -1.570796 0.982794 1.577196
    20 1.026212 0.549078 0.904648 -1.570796 -0.982794 1.577100
    21 2.874126 -0.034192 1.057670 1.570796 0.789324 0.006400
    22 2.881649 0.715909 -0.754650 2.067742 -0.631794 -0.736436
    23 2.879878 0.715898 0.752527 1.067860 0.637028 -0.739986
    24 2.983432 -0.034143 -0.952297 1.570796 -0.782206 0.006400
    25 2.983687 -0.034141 0.952198 1.570796 0.789324 0.006400
    26 2.975584 0.637833 -0.668710 2.067742 -0.631794 -0.736436
    27 2.973814 0.637822 0.666587 1.067860 0.637028 -0.739986
    28 2.869965 -0.034194 -1.053863 1.570796 -0.782206 0.006400
    29 3.169655 0.883133 0.000000 0.000000 0.000000 0.006400
    30 0.005513 0.071422 0.607692 1.570797 -1.570796 0.000000
    31 2.728229 0.989643 0.000000 0.000000 0.000000 0.006400
    32 0.036764 -0.010612 -0.413052 1.309124 1.533943 0.222722
    33 0.005513 -0.018424 0.416280 -1.326226 -1.533943 -2.918781
    34 -0.203741 0.515950 0.000000 0.000000 0.000000 0.295150
    35 -3.179013 1.492042 -0.000001 0.000001 0.000000 -2.846443
    36 -1.913326 1.338252 0.551623 0.295134 -1.570317 0.000000
    37 -2.138676 2.346085 -0.000001 0.000000 0.000000 1.865946
    38 1.818063 -0.014348 0.003944 1.570797 0.000001 1.570796
    39 0.338629 0.000001 1.260262 0.000000 0.000000 0.000000
    40 0.891296 0.000000 0.321762 0.000000 0.032802 0.000000
    41 1.818064 -0.277635 0.147155 -1.570795 -0.961963 -1.570797
    42 0.338630 0.000000 1.260262 0.000000 0.000000 0.000000
    43 0.891296 0.000000 0.321763 0.000000 0.032790 0.000000
    44 1.818063 -0.264801 -0.160265 -1.570796 0.955859 -1.570796
    45 0.338629 0.000000 1.260263 0.000000 0.000000 0.000000
    46 0.891297 0.000001 0.321763 0.000000 0.032802 0.000000
    47 -0.691148 -3.020236 0.046878 0.000000 0.000000 1.865945
    48 -0.002248 -0.869789 0.841686 -1.570796 -0.874057 -1.570796
    49 -0.002249 -0.869789 -0.845820 1.570796 2.267536 1.570796
    50 -0.002249 0.786466 -0.845820 -1.570796 2.267536 -1.570796
    51 -0.002248 0.786466 0.841685 1.570796 -0.874056 1.570796
    52 1.257180 8.762585 -0.153713 -1.570562 0.002683 -1.566807
    53 -0.347889 -2.560283 0.029560 -0.746140 0.229962 -0.362943
    54 0.039887 -1.479790 0.029854 -1.759312 0.000000 0.000001
    55 0.028786 -1.075731 -0.023109 -0.810791 0.000000 0.000000
    56 0.304716 -2.726912 -0.160269 -0.642944 0.204341 -0.294863
    57 -0.049759 -1.680544 0.100479 -1.781109 0.000000 -0.000002
    58 -0.034142 -1.148312 0.084782 -0.983659 0.000000 0.000000
    59 0.875732 -3.125698 -0.211399 -0.618397 0.049575 -0.055073
    60 -0.033420 -1.397129 -0.011257 -1.773707 0.000000 -0.000001
    61 -0.022360 -0.957436 0.018784 -0.747703 0.102384 -0.052996
    62 -0.993175 -2.593157 0.396003 -0.185516 0.194141 -0.191771
    63 -0.024967 -1.123934 0.017597 -1.928490 0.013147 -0.288660
    64 -0.020057 -0.890968 0.010090 -0.755224 0.000000 0.000000
    65 0.997585 -1.123056 0.138503 0.726976 -0.934910 -0.966623
    66 1.535927 0.010246 0.005009 0.045274 0.012536 -0.936292
    67 1.100771 0.004527 -0.010679 -0.197534 0.176471 -0.178292
    68 -0.043915 -0.132304 -0.316216 -2.812193 5.925454 -1.395057
    69 -3.024759 -5.028129 -1.290385 -0.796620 -5.240276 0.069381
    70 0.096944 -8.450418 -0.009365 0.308081 -1.204013 0.335124
    71 0.447953 -2.798986 -0.200443 -0.405051 -0.173207 0.312319
    72 -0.032909 -1.480204 0.004940 -1.309596 0.000000 0.000002
    73 -0.027022 -1.076920 -0.020210 0.168442 0.000000 0.000000
    74 -0.249534 -2.846964 -0.174213 -0.171002 -0.089770 0.289110
    75 0.043235 -1.683941 0.096012 -1.549351 0.002823 -0.000167
    76 0.031729 -1.160830 0.058838 0.068761 0.000642 0.008372
    77 -0.963866 -2.785145 -0.085350 0.035043 0.089944 0.201956
    78 0.028479 -1.403067 0.006271 -1.285362 0.000000 0.000000
    79 0.021413 -0.957781 0.020046 -0.048312 0.000000 0.000000
    80 1.164475 -2.543940 -0.170330 -0.363571 -0.311871 0.210107
    81 0.024032 -1.129042 0.017807 -0.793235 0.000000 0.000001
    82 0.014898 -0.883989 -0.019848 -0.202298 0.000000 0.000000
    83 -0.586770 -1.264477 0.200161 -0.210673 -0.355487 -2.365980
    84 1.522835 0.058681 0.016848 0.025655 0.288010 0.598498
    85 1.117947 0.048424 -0.005766 0.027789 -0.079884 -0.363462
    86 -0.041740 -0.150762 -0.059824 0.806163 0.452927 1.371618
    87 -1.393470 8.839177 -0.239433 1.580804 -0.005023 -1.566847
  time 1
    0 -3.733242 2.640235 -9.134405 0.002241 0.000000 -0.001103
    1 12.559731 -5.144504 0.078804 4.023530 -1.160845 1.473101
    2 -0.071918 -8.498732 -0.104136 0.335347 0.179634 -0.240273
    3 1.514942 -3.186424 0.666113 -0.419348 -0.107262 -3.451130
    4 -1.487204 -0.072218 0.000000 0.000000 0.000000 -1.275647
    5 1.379861 0.013026 0.000000 -0.180920 0.000000 0.000000
    6 1.091372 -0.009931 0.000000 0.351772 0.000000 0.000000
    7 -0.000004 -0.012830 -0.746234 0.000000 1.570460 0.000000
    8 -0.000002 -0.012831 0.743942 0.000000 -1.570460 0.000000
    9 0.000000 -0.758639 0.000000 0.000001 0.000124 -1.570921
    10 0.000000 0.740977 0.000000 0.000001 -0.000118 1.570678
    11 0.618701 -0.009931 0.000000 -0.785398 0.000000 0.000000
    12 -0.000003 -0.045880 -0.434408 0.000000 1.570460 0.000000
    13 0.000000 -0.407593 -0.045883 0.000000 0.000000 -1.570973
    14 -0.000002 -0.045882 0.340349 0.000000 -1.570460 0.000000
    15 0.000000 0.427942 -0.045883 0.000001 0.000000 1.570629
    16 -1.572389 0.220680 0.000000 0.000000 0.000000 -1.282047
    17 1.033914 -0.654510 0.906782 1.570797 -0.982795 -1.564396
    18 1.033878 -0.648745 -0.899195 1.570797 0.982794 -1.564396
    19 1.026259 0.541615 -0.895047 -1.570796 0.982794 1.577196
    20 1.026212 0.549078 0.904648 -1.570796 -0.982794 1.577100
    21 2.874126 -0.034192 1.057670 1.570796 0.789324 0.006400
    22 2.881649 0.715909 -0.754650 2.067742 -0.631794 -0.736436
    23 2.879878 0.715898 0.752527 1.067860 0.637028 -0.739986
    24 2.983432 -0.034143 -0.952297 1.570796 -0.782206 0.006400
    25 2.983687 -0.034141 0.952198 1.570796 0.789324 0.006400
    26 2.975584 0.637833 -0.668710 2.067742 -0.631794 -0.736436
    27 2.973814 0.637822 0.666587 1.067860 0.637028 -0.739986
    28 2.869965 -0.034194 -1.053863 1.570796 -0.782206 0.006400
    29 3.169655 0.883133 0.000000 0.000000 0.000000 0.006400
    30 0.005513 0.071422 0.607692 1.570797 -1.570796 0.000000
    31 2.728229 0.989643 0.000000 0.000000 0.000000 0.006400
    32 0.036764 -0.010612 -0.413052 1.309124 1.533943 0.222722
    33 0.005513 -0.018424 0.416280 -1.326226 -1.533943 -2.918781
    34 -0.207648 0.519856 0.000000 0.000000 0.000000 0.295150
    35 -3.179013 1.492042 -0.000001 0.000001 0.000000 -2.846443
    36 -1.913326 1.338252 0.551623 0.295134 -1.570317 0.000000
    37 -2.138676 2.346085 -0.000001 0.000000 0.000000 1.865946
    38 1.818063 -0.014348 0.003944 1.570797 0.000001 1.570796
    39 0.338629 0.000001 1.260262 0.000000 0.000000 0.000000
    40 0.891296 0.000000 0.321762 0.000000 0.032802 0.000000
    41 1.818064 -0.277635 0.147155 -1.570795 -0.961963 -1.570797
    42 0.338630 0.000000 1.260262 0.000000 0.000000 0.000000
    43 0.891296 0.000000 0.321763 0.000000 0.032790 0.000000
    44 1.818063 -0.264801 -0.160265 -1.570796 0.955859 -1.570796
    45 0.338629 0.000000 1.260263 0.000000 0.000000 0.000000
    46 0.891297 0.000001 0.321763 0.000000 0.032802 0.000000
    47 -0.691148 -3.020236 0.046878 0.000000 0.000000 1.865945
    48 -0.002248 -0.869789 0.841686 -1.570796 -0.874057 -1.570796
    49 -0.002249 -0.869789 -0.845820 1.570796 2.267536 1.570796
    50 -0.002249 0.786466 -0.845820 -1.570796 2.267536 -1.570796
    51 -0.002248 0.786466 0.841685 1.570796 -0.874056 1.570796
    52 1.257180 8.762585 -0.153713 -1.570562 0.002683 -1.566807
    53 -0.347889 -2.560283 0.029560 -0.746140 0.229962 -0.362943
    54 0.039887 -1.479790 0.029854 -1.759312 0.000000 0.000001
    55 0.028786 -1.075731 -0.023109 -0.810791 0.000000 0.000000
    56 0.304716 -2.726912 -0.160269 -0.635149 0.204341 -0.294863
    57 -0.049759 -1.680544 0.100479 -1.781109 0.000000 -0.000002
    58 -0.034142 -1.148312 0.084782 -0.983659 0.000000 0.000000
    59 0.875732 -3.125698 -0.211399 -0.607222 0.048712 -0.054809
    60 -0.033420 -1.397129 -0.011257 -1.773707 0.000000 -0.000001
    61 -0.022360 -0.957436 0.018784 -0.725089 0.102384 -0.052996
    62 -0.993175 -2.593157 0.396003 -0.185516 0.194141 -0.191771
    63 -0.024967 -1.123934 0.017597 -1.928490 0.013147 -0.288660
    64 -0.020057 -0.890968 0.010090 -0.755224 0.000000 0.000000
    65 0.997585 -1.123056 0.138503 0.726976 -0.934910 -0.966623
    66 1.535927 0.010246 0.005009 0.045274 0.012536 -0.936292
    67 1.100771 0.004527 -0.010679 -0.195185 0.170706 -0.186992
    68 -0.043915 -0.132304 -0.316216 -2.812193 5.925454 -1.395057
    69 -3.001321 -4.985159 -1.290385 -0.782420 -5.245329 0.080049
    70 0.096944 -8.450418 -0.009365 0.308081 -1.204013 0.335124
    71 0.447953 -2.798986 -0.200443 -0.405051 -0.173207 0.312319
    72 -0.032909 -1.480204 0.004940 -1.309596 0.000000 0.000002
    73 -0.027022 -1.076920 -0.020210 0.168442 0.000000 0.000000
    74 -0.249534 -2.846964 -0.174213 -0.171002 -0.089770 0.289110
    75 0.043235 -1.683941 0.096012 -1.549351 0.002823 -0.000167
    76 0.031729 -1.160830 0.058838 0.068761 0.000642 0.008372
    77 -0.963866 -2.785145 -0.085350 0.035043 0.089944 0.201956
    78 0.028479 -1.403067 0.006271 -1.285362 0.000000 0.000000
    79 0.021413 -0.957781 0.020046 -0.048312 0.000000 0.000000
    80 1.164475 -2.543940 -0.170330 -0.363571 -0.311871 0.210107
    81 0.024032 -1.129042 0.017807 -0.793235 0.000000 0.000001
    82 0.014898 -0.883989 -0.019848 -0.202298 0.000000 0.000000
    83 -0.586770 -1.264477 0.200161 -0.210673 -0.355487 -2.365980
    84 1.522835 0.058681 0.016848 0.025655 0.288010 0.598498
    85 1.117947 0.048424 -0.005766 0.027789 -0.079884 -0.363462
    86 -0.041740 -0.150762 -0.059824 0.806163 0.452927 1.371618
    87 -1.393470 8.839177 -0.239433 1.580804 -0.005023 -1.566847
  time 2
    0 -3.323073 2.730081 -9.087529 0.008173 0.000000 -0.003931
    1 12.559731 -5.144504 0.078804 4.023530 -1.160845 1.473101
    2 -0.071918 -8.498732 -0.104136 0.326060 0.185231 -0.262814
    3 1.514942 -3.186424 0.666113 -0.419348 -0.107262 -3.451130
    4 -1.487204 -0.072218 0.000000 0.000000 0.000000 -1.275647
    5 1.379861 0.013026 0.000000 -0.672281 0.000000 0.000000
    6 1.091372 -0.009931 0.000000 1.306895 0.000000 0.000000
    7 -0.000004 -0.012830 -0.746234 0.000000 1.570460 0.000000
    8 -0.000002 -0.012831 0.743942 0.000000 -1.570460 0.000000
    9 0.000000 -0.758639 0.000000 0.000001 0.000124 -1.570921
    10 0.000000 0.740977 0.000000 0.000001 -0.000118 1.570678
    11 0.618701 -0.009931 0.000000 -0.785398 0.000000 0.000000
    12 -0.000003 -0.045880 -0.434408 0.000000 1.570460 0.000000
    13 0.000000 -0.407593 -0.045883 0.000000 0.000000 -1.570973
    14 -0.000002 -0.045882 0.340349 0.000000 -1.570460 0.000000
    15 0.000000 0.427942 -0.045883 0.000001 0.000000 1.570629
    16 -1.572389 0.220680 0.000000 0.000000 0.000000 -1.282047
    17 1.033914 -0.654510 0.906782 1.570797 -0.982795 -1.564396
    18 1.033878 -0.648745 -0.899195 1.570797 0.982794 -1.564396
    19 1.026259 0.541615 -0.895047 -1.570796 0.982794 1.577196
    20 1.026212 0.549078 0.904648 -1.570796 -0.982794 1.577100
    21 2.874126 -0.034192 1.057670 1.570796 0.789324 0.006400
    22 2.881649 0.715909 -0.754650 2.067742 -0.631794 -0.736436
    23 2.879878 0.715898 0.752527 1.067860 0.637028 -0.739986
    24 2.983432 -0.034143 -0.952297 1.570796 -0.782206 0.006400
    25 2.983687 -0.034141 0.952198 1.570796 0.789324 0.006400
    26 2.975584 0.637833 -0.668710 2.067742 -0.631794 -0.736436
    27 2.973814 0.637822 0.666587 1.067860 0.637028 -0.739986
    28 2.869965 -0.034194 -1.053863 1.570796 -0.782206 0.006400
    29 3.169655 0.883133 0.000000 0.000000 0.000000 0.006400
    30 0.005513 0.071422 0.607692 1.570797 -1.570796 0.000000
    31 2.728229 0.989643 0.000000 0.000000 0.000000 0.006400
    32 0.036764 -0.010612 -0.413052 1.309136 1.533943 0.222722
    33 0.005513 -0.018424 0.416280 -1.326226 -1.533943 -2.918781
    34 -0.211554 0.535482 0.000000 0.000000 0.000000 0.295150
    35 -3.179013 1.492042 -0.000001 0.000001 0.000000 -2.846443
    36 -1.913326 1.338252 0.551623 0.295134 -1.570317 0.000000
    37 -2.138676 2.346085 -0.000001 0.000000 0.000000 1.865946
    38 1.818063 -0.014348 0.003944 1.570797 0.000001 1.570796
    39 0.338629 0.000001 1.260262 0.000000 0.000000 0.000000
    40 0.891296 0.000000 0.321762 0.000000 0.032802 0.000000
    41 1.818064 -0.277635 0.147155 -1.570795 -0.961963 -1.570797
    42 0.338630 0.000000 1.260262 0.000000 0.000000 0.000000
    43 0.891296 0.000000 0.321763 0.000000 0.032790 0.000000
    44 1.818063 -0.264801 -0.160265 -1.570796 0.955859 -1.570796
    45 0.338629 0.000000 1.260263 0.000000 0.000000 0.000000
    46 0.891297 0.000001 0.321763 0.000000 0.032802 0.000000
    47 -0.691148 -3.020236 0.046878 0.000000 0.000000 1.865945
    48 -0.002248 -0.869789 0.841686 -1.570796 -0.874057 -1.570796
    49 -0.002249 -0.869789 -0.845820 1.570796 2.267536 1.570796
    50 -0.002249 0.786466 -0.845820 -1.570796 2.267536 -1.570796
    51 -0.002248 0.786466 0.841685 1.570796 -0.874056 1.570796
    52 1.257180 8.762585 -0.153713 -1.570562 0.002683 -1.566807
    53 -0.347889 -2.560283 0.029560 -0.746140 0.229962 -0.362943
    54 0.039887 -1.479790 0.029854 -1.759312 0.000000 0.000001
    55 0.028786 -1.075731 -0.023109 -0.810791 0.000000 0.000000
    56 0.304716 -2.726912 -0.160269 -0.616529 0.204341 -0.294863
    57 -0.049759 -1.680544 0.100479 -1.781109 0.000000 -0.000002
    58 -0.034142 -1.148312 0.084782 -0.983659 0.000000 0.000000
    59 0.875732 -3.125698 -0.211399 -0.575790 0.046291 -0.054066
    60 -0.033420 -1.397129 -0.011257 -1.773707 0.000000 -0.000001
    61 -0.022360 -0.957436 0.018784 -0.666764 0.102384 -0.052996
    62 -0.993175 -2.593157 0.396003 -0.185516 0.194141 -0.191771
    63 -0.024967 -1.123934 0.017597 -1.928490 0.013147 -0.288660
    64 -0.020057 -0.890968 0.010090 -0.755224 0.000000 0.000000
    65 0.997585 -1.123056 0.138503 0.726976 -0.934910 -0.966623
    66 1.535927 0.010246 0.005009 0.045274 0.012536 -0.936292
    67 1.100771 0.004527 -0.010679 -0.188605 0.154503 -0.211457
    68 -0.043915 -0.132304 -0.316216 -2.812193 5.925454 -1.395057
    69 -2.931006 -4.867967 -1.286479 -0.745942 -5.258775 0.107481
    70 0.096944 -8.450418 -0.009365 0.308081 -1.204013 0.335124
    71 0.447953 -2.798986 -0.200443 -0.405051 -0.173207 0.312319
    72 -0.032909 -1.480204 0.004940 -1.309596 0.000000 0.000002
    73 -0.027022 -1.076920 -0.020210 0.168442 0.000000 0.000000
    74 -0.249534 -2.846964 -0.174213 -0.171002 -0.089770 0.289110
    75 0.043235 -1.683941 0.096012 -1.549351 0.002823 -0.000167
    76 0.031729 -1.160830 0.058838 0.068761 0.000642 0.008372
    77 -0.963866 -2.785145 -0.085350 0.035043 0.089944 0.201956
    78 0.028479 -1.403067 0.006271 -1.285362 0.000000 0.000000
    79 0.021413 -0.957781 0.020046 -0.048312 0.000000 0.000000
    80 1.164475 -2.543940 -0.170330 -0.363571 -0.311871 0.210107
    81 0.024032 -1.129042 0.017807 -0.793235 0.000000 0.000001
    82 0.014898 -0.883989 -0.019848 -0.202298 0.000000 0.000000
    83 -0.586770 -1.264477 0.200161 -0.210673 -0.355487 -2.365980
    84 1.522835 0.058681 0.016848 0.025655 0.288010 0.598498
    85 1.117947 0.048424 -0.005766 0.027789 -0.079884 -0.363462
    86 -0.041740 -0.150762 -0.059824 0.806163 0.452927 1.371618
    87 -1.393470 8.839177 -0.239433 1.580804 -0.005023 -1.566847
  time 3
    0 -2.729305 2.855085 -9.021121 0.016563 0.000000 -0.007958
    1 12.559731 -5.144504 0.078804 4.023530 -1.160845 1.473101
    2 -0.071918 -8.498732 -0.104136 0.312944 0.193140 -0.294694
    3 1.514942 -3.186424 0.666113 -0.419348 -0.107262 -3.451130
    4 -1.487204 -0.072218 0.000000 0.000000 0.000000 -1.275647
    5 1.379861 0.013026 0.000000 -1.396240 0.000000 0.000000
    6 1.091372 -0.009931 0.000000 2.714270 0.000000 0.000000
    7 -0.000004 -0.012830 -0.746234 0.000000 1.570460 0.000000
    8 -0.000002 -0.012831 0.743942 0.000000 -1.570460 0.000000
    9 0.000000 -0.758639 0.000000 0.000001 0.000124 -1.570921
    10 0.000000 0.740977 0.000000 0.000001 -0.000118 1.570678
    11 0.618701 -0.009931 0.000000 -0.785398 0.000000 0.000000
    12 -0.000003 -0.045880 -0.434408 0.000000 1.570460 0.000000
    13 0.000000 -0.407593 -0.045883 0.000000 0.000000 -1.570973
    14 -0.000002 -0.045882 0.340349 0.000000 -1.570460 0.000000
    15 0.000000 0.427942 -0.045883 0.000001 0.000000 1.570629
    16 -1.572389 0.220680 0.000000 0.000000 0.000000 -1.282047
    17 1.033914 -0.654510 0.906782 1.570797 -0.982795 -1.564396
    18 1.033878 -0.648745 -0.899195 1.570797 0.982794 -1.564396
    19 1.026259 0.541615 -0.895047 -1.570796 0.982794 1.577196
    20 1.026212 0.549078 0.904648 -1.570796 -0.982794 1.577100
    21 2.874126 -0.034192 1.057670 1.570796 0.789324 0.006400
    22 2.881649 0.715909 -0.754650 2.067742 -0.631794 -0.736436
    23 2.879878 0.715898 0.752527 1.067860 0.637028 -0.739986
    24 2.983432 -0.034143 -0.952297 1.570796 -0.782206 0.006400
    25 2.983687 -0.034141 0.952198 1.570796 0.789324 0.006400
    26 2.975584 0.637833 -0.668710 2.067742 -0.631794 -0.736436
    27 2.973814 0.637822 0.666587 1.067860 0.637028 -0.739986
    28 2.869965 -0.034194 -1.053863 1.570796 -0.782206 0.006400
    29 3.169655 0.883133 0.000000 0.000000 0.000000 0.006400
    30 0.005513 0.071422 0.607692 1.570797 -1.570796 0.000000
    31 2.728229 0.989643 0.000000 0.000000 0.000000 0.006400
    32 0.036764 -0.010612 -0.413052 1.309124 1.533943 0.222722
    33 0.005513 -0.018424 0.416280 -1.326226 -1.533943 -2.918781
    34 -0.215460 0.558920 0.000000 0.000000 0.000000 0.295150
    35 -3.179013 1.492042 -0.000001 0.000001 0.000000 -2.846443
    36 -1.913326 1.338252 0.551623 0.295134 -1.570317 0.000000
    37 -2.138676 2.346085 -0.000001 0.000000 0.000000 1.865946
    38 1.818063 -0.014348 0.003944 1.570797 0.000001 1.570796
    39 0.338629 0.000001 1.260262 0.000000 0.000000 0.000000
    40 0.891296 0.000000 0.321762 0.000000 0.032802 0.000000
    41 1.818064 -0.277635 0.147155 -1.570795 -0.961963 -1.570797
    42 0.338630 0.000000 1.260262 0.000000 0.000000 0.000000
    43 0.891296 0.000000 0.321763 0.000000 0.032790 0.000000
    44 1.818063 -0.264801 -0.160265 -1.570796 0.955859 -1.570796
    45 0.338629 0.000000 1.260263 0.000000 0.000000 0.000000
    46 0.891297 0.000001 0.321763 0.000000 0.032802 0.000000
    47 -0.691148 -3.020236 0.046878 0.000000 0.000000 1.865945
    48 -0.002248 -0.869789 0.841686 -1.570796 -0.874057 -1.570796
    49 -0.002249 -0.869789 -0.845820 1.570796 2.267536 1.570796
    50 -0.002249 0.786466 -0.845820 -1.570796 2.267536 -1.570796
    51 -0.002248 0.786466 0.841685 1.570796 -0.874056 1.570796
    52 1.257180 8.762585 -0.153713 -1.570562 0.002683 -1.566807
    53 -0.347889 -2.560283 0.029560 -0.746140 0.229962 -0.362943
    54 0.039887 -1.479790 0.029854 -1.759312 0.000000 0.000001
    55 0.028786 -1.075731 -0.023109 -0.810791 0.000000 0.000000
    56 0.304716 -2.726912 -0.160269 -0.594293 0.204341 -0.294863
    57 -0.049759 -1.680544 0.100479 -1.781109 0.000000 -0.000002
    58 -0.034142 -1.148312 0.084782 -0.983659 0.000000 0.000000
    59 0.875732 -3.125698 -0.211399 -0.527217 0.042528 -0.052916
    60 -0.033420 -1.397129 -0.011257 -1.773707 0.000000 -0.000001
    61 -0.022360 -0.957436 0.018784 -0.587017 0.102384 -0.052996
    62 -0.993175 -2.593157 0.396003 -0.185516 0.194141 -0.191771
    63 -0.024967 -1.123934 0.017597 -1.928490 0.013147 -0.288660
    64 -0.020057 -0.890968 0.010090 -0.755224 0.000000 0.000000
    65 0.997585 -1.123056 0.138503 0.726976 -0.934910 -0.966623
    66 1.535927 0.010246 0.005009 0.045274 0.012536 -0.936292
    67 1.100771 0.004527 -0.010679 -0.178430 0.129443 -0.249236
    68 -0.043915 -0.132304 -0.316216 -2.812193 5.925454 -1.395057
    69 -2.837253 -4.703900 -1.274760 -0.696488 -5.278388 0.144153
    70 0.096944 -8.450418 -0.009365 0.308081 -1.204013 0.335124
    71 0.447953 -2.798986 -0.200443 -0.405051 -0.173207 0.312319
    72 -0.032909 -1.480204 0.004940 -1.309596 0.000000 0.000002
    73 -0.027022 -1.076920 -0.020210 0.168442 0.000000 0.000000
    74 -0.249534 -2.846964 -0.174213 -0.171002 -0.089770 0.289110
    75 0.043235 -1.683941 0.096012 -1.549351 0.002823 -0.000167
    76 0.031729 -1.160830 0.058838 0.068761 0.000642 0.008372
    77 -0.963866 -2.785145 -0.085350 0.035043 0.089944 0.201956
    78 0.028479 -1.403067 0.006271 -1.285362 0.000000 0.000000
    79 0.021413 -0.957781 0.020046 -0.048312 0.000000 0.000000
    80 1.164475 -2.543940 -0.170330 -0.363571 -0.311871 0.210107
    81 0.024032 -1.129042 0.017807 -0.793235 0.000000 0.000001
    82 0.014898 -0.883989 -0.019848 -0.202298 0.000000 0.000000
    83 -0.586770 -1.264477 0.200161 -0.210673 -0.355487 -2.365980
    84 1.522835 0.058681 0.016848 0.025655 0.288010 0.598498
    85 1.117947 0.048424 -0.005766 0.027789 -0.079884 -0.363462
    86 -0.041740 -0.150762 -0.059824 0.806163 0.452927 1.371618
    87 -1.393470 8.839177 -0.239433 1.580804 -0.005023 -1.566847
  time 4
    0 -2.026158 2.999621 -8.935181 0.026174 0.000000 -0.012560
    1 12.559731 -5.144504 0.078804 4.023530 -1.160845 1.473101
    2 -0.071918 -8.498732 -0.104136 0.297889 0.202213 -0.331213
    3 1.514942 -3.186424 0.666113 -0.419348 -0.107262 -3.451130
    4 -1.487204 -0.072218 0.000000 0.000000 0.000000 -1.275647
    5 1.379861 0.013026 0.000000 -2.275326 0.000000 0.000000
    6 1.091372 -0.009931 0.000000 -1.859816 0.000000 0.000000
    7 -0.000004 -0.012830 -0.746234 0.000000 1.570460 0.000000
    8 -0.000002 -0.012831 0.743942 0.000000 -1.570460 0.000000
    9 0.000000 -0.758639 0.000000 0.000001 0.000124 -1.570921
    10 0.000000 0.740977 0.000000 0.000001 -0.000118 1.570678
    11 0.618701 -0.009931 0.000000 -0.785398 0.000000 0.000000
    12 -0.000003 -0.045880 -0.434408 0.000000 1.570796 0.000000
    13 0.000000 -0.407593 -0.045883 0.000000 0.000000 -1.570973
    14 -0.000002 -0.045882 0.340349 0.000000 -1.570460 0.000000
    15 0.000000 0.427942 -0.045883 0.000001 0.000000 1.570629
    16 -1.572389 0.220680 0.000000 0.000000 0.000000 -1.282047
    17 1.033914 -0.654510 0.906782 1.570797 -0.982795 -1.564396
    18 1.033878 -0.648745 -0.899195 1.570797 0.982794 -1.564396
    19 1.026259 0.541615 -0.895047 -1.570796 0.982794 1.577196
    20 1.026212 0.549078 0.904648 -1.570796 -0.982794 1.577100
    21 2.874126 -0.034192 1.057670 1.570796 0.789324 0.006400
    22 2.881649 0.715909 -0.754650 2.067742 -0.631794 -0.736436
    23 2.879878 0.715898 0.752527 1.067860 0.637028 -0.739986
    24 2.983432 -0.034143 -0.952297 1.570796 -0.782206 0.006400
    25 2.983687 -0.034141 0.952198 1.570796 0.789324 0.006400
    26 2.975584 0.637833 -0.668710 2.067742 -0.631794 -0.736436
    27 2.973814 0.637822 0.666587 1.067860 0.637028 -0.739986
    28 2.869965 -0.034194 -1.053863 1.570796 -0.782206 0.006400
    29 3.169655 0.883133 0.000000 0.000000 0.000000 0.006400
    30 0.005513 0.071422 0.607692 1.570797 -1.570796 0.000000
    31 2.728229 0.989643 0.000000 0.000000 0.000000 0.006400
    32 0.036764 -0.010612 -0.413052 1.309136 1.533943 0.222722
    33 0.005513 -0.018424 0.416280 -1.326226 -1.533943 -2.918781
    34 -0.227179 0.590171 0.000000 0.000000 0.000000 0.295150
    35 -3.179013 1.492042 -0.000001 0.000001 0.000000 -2.846443
    36 -1.913326 1.338252 0.551623 0.295134 -1.570317 0.000000
    37 -2.138676 2.346085 -0.000001 0.000000 0.000000 1.865946
    38 1.818063 -0.014348 0.003944 1.570797 0.000001 1.570796
    39 0.338629 0.000001 1.260262 0.000000 0.000000 0.000000
    40 0.891296 0.000000 0.321762 0.000000 0.032802 0.000000
    41 1.818064 -0.277635 0.147155 -1.570795 -0.961963 -1.570797
    42 0.338630 0.000000 1.260262 0.000000 0.000000 0.000000
    43 0.891296 0.000000 0.321763 0.000000 0.032790 0.000000
    44 1.818063 -0.264801 -0.160265 -1.570796 0.955859 -1.570796
    45 0.338629 0.000000 1.260263 0.000000 0.000000 0.000000
    46 0.891297 0.000001 0.321763 0.000000 0.032802 0.000000
    47 -0.691148 -3.020236 0.046878 0.000000 0.000000 1.865945
    48 -0.002248 -0.869789 0.841686 -1.570796 -0.874057 -1.570796
    49 -0.002249 -0.869789 -0.845820 -1.570796 0.874099 -1.570796
    50 -0.002249 0.786466 -0.845820 -1.570796 2.267536 -1.570796
    51 -0.002248 0.786466 0.841685 1.570796 -0.874056 1.570796
    52 1.257180 8.762585 -0.153713 -1.570562 0.002683 -1.566807
    53 -0.347889 -2.560283 0.029560 -0.746140 0.229962 -0.362943
    54 0.039887 -1.479790 0.029854 -1.759312 0.000000 0.000001
    55 0.028786 -1.075731 -0.023109 -0.810791 0.000000 0.000000
    56 0.304716 -2.726912 -0.160269 -0.575673 0.204341 -0.294863
    57 -0.049759 -1.680544 0.100479 -1.781109 0.000000 -0.000002
    58 -0.034142 -1.148312 0.084782 -0.983659 0.000000 0.000000
    59 0.875732 -3.125698 -0.211399 -0.464621 0.037686 -0.051442
    60 -0.033420 -1.397129 -0.011257 -1.773707 0.000000 -0.000001
    61 -0.022360 -0.957436 0.018784 -0.500138 0.102384 -0.052996
    62 -0.993175 -2.593157 0.396003 -0.185516 0.194141 -0.191771
    63 -0.024967 -1.123934 0.017597 -1.928490 0.013147 -0.288660
    64 -0.020057 -0.890968 0.010090 -0.755224 0.000000 0.000000
    65 0.997585 -1.123056 0.138503 0.726976 -0.934910 -0.966623
    66 1.535927 0.010246 0.005009 0.045274 0.012536 -0.936292
    67 1.100771 0.004527 -0.010679 -0.165331 0.097157 -0.297956
    68 -0.043915 -0.132304 -0.316216 -2.812193 5.925454 -1.395057
    69 -2.731781 -4.524207 -1.243509 -0.642811 -5.301513 0.183301
    70 0.096944 -8.450418 -0.009365 0.308081 -1.204013 0.335124
    71 0.447953 -2.798986 -0.200443 -0.405051 -0.173207 0.312319
    72 -0.032909 -1.480204 0.004940 -1.309596 0.000000 0.000002
    73 -0.027022 -1.076920 -0.020210 0.168442 0.000000 0.000000
    74 -0.249534 -2.846964 -0.174213 -0.171002 -0.089770 0.289110
    75 0.043235 -1.683941 0.096012 -1.549351 0.002823 -0.000167
    76 0.031729 -1.160830 0.058838 0.068761 0.000642 0.008372
    77 -0.963866 -2.785145 -0.085350 0.035043 0.089944 0.201956
    78 0.028479 -1.403067 0.006271 -1.285362 0.000000 0.000000
    79 0.021413 -0.957781 0.020046 -0.048312 0.000000 0.000000
    80 1.164475 -2.543940 -0.170330 -0.363571 -0.311871 0.210107
    81 0.024032 -1.129042 0.017807 -0.793235 0.000000 0.000001
    82 0.014898 -0.883989 -0.019848 -0.202298 0.000000 0.000000
    83 -0.586770 -1.264477 0.200161 -0.210673 -0.355487 -2.365980
    84 1.522835 0.058681 0.016848 0.025655 0.288010 0.598498
    85 1.117947 0.048424 -0.005766 0.027789 -0.079884 -0.363462
    86 -0.041740 -0.150762 -0.059824 0.806163 0.452927 1.371618
    87 -1.393470 8.839177 -0.239433 1.580804 -0.005023 -1.566847
  time 5
    0 -1.287855 3.144156 -8.841428 0.035786 0.000000 -0.017162
    1 12.559731 -5.144504 0.078804 4.023530 -1.160845 1.473101
    2 -0.071918 -8.498732 -0.104136 0.282847 0.211285 -0.367753
    3 1.514942 -3.186424 0.666113 -0.419348 -0.107262 -3.451130
    4 -1.487204 -0.072218 0.000000 0.000000 0.000000 -1.275647
    5 1.379861 0.013026 0.000000 3.050963 0.000000 0.000000
    6 1.091372 -0.009931 0.000000 0.000000 0.000000 0.000000
    7 -0.000004 -0.012830 -0.746234 0.000000 1.570460 0.000000
    8 -0.000002 -0.012831 0.743942 0.000000 -1.570796 0.000000
    9 0.000000 -0.758639 0.000000 0.000001 0.000124 -1.570921
    10 0.000000 0.740977 0.000000 0.000001 -0.000118 1.570678
    11 0.618701 -0.009931 0.000000 -0.785398 0.000000 0.000000
    12 -0.000003 -0.045880 -0.434408 0.000000 1.570460 0.000000
    13 0.000000 -0.407593 -0.045883 0.000000 0.000000 -1.570973
    14 -0.000002 -0.045882 0.340349 0.000000 -1.570796 0.000000
    15 0.000000 0.427942 -0.045883 0.000001 0.000000 1.570629
    16 -1.572389 0.220680 0.000000 0.000000 0.000000 -1.282047
    17 1.033914 -0.654510 0.906782 1.570797 -0.982795 -1.564396
    18 1.033878 -0.648745 -0.899195 1.570797 0.982794 -1.564396
    19 1.026259 0.541615 -0.895047 -1.570796 0.982794 1.577196
    20 1.026212 0.549078 0.904648 -1.570796 -0.982794 1.577100
    21 2.874126 -0.034192 1.057670 1.570796 0.789324 0.006400
    22 2.881649 0.715909 -0.754650 2.067742 -0.631794 -0.736436
    23 2.879878 0.715898 0.752527 1.067860 0.637028 -0.739986
    24 2.983432 -0.034143 -0.952297 1.570796 -0.782206 0.006400
    25 2.983687 -0.034141 0.952198 1.570796 0.789324 0.006400
    26 2.975584 0.637833 -0.668710 2.067742 -0.631794 -0.736436
    27 2.973814 0.637822 0.666587 1.067860 0.637028 -0.739986
    28 2.869965 -0.034194 -1.053863 1.570796 -0.782206 0.006400
    29 3.169655 0.883133 0.000000 0.000000 0.000000 0.006400
    30 0.005513 0.071422 0.607692 1.570797 -1.570796 0.000000
    31 2.728229 0.989643 0.000000 0.000000 0.000000 0.006400
    32 0.036764 -0.010612 -0.413052 1.309136 1.533943 0.222722
    33 0.005513 -0.018424 0.416280 -1.326226 -1.533943 -2.918781
    34 -0.238899 0.625328 0.000000 0.000000 0.000000 0.295150
    35 -3.179013 1.492042 -0.000001 0.000001 0.000000 -2.846443
    36 -1.913326 1.338252 0.551623 0.295134 -1.570317 0.000000
    37 -2.138676 2.346085 -0.000001 0.000000 0.000000 1.865946
    38 1.818063 -0.014348 0.003944 1.570797 0.000001 1.570796
    39 0.338629 0.000001 1.260262 0.000000 0.000000 0.000000
    40 0.891296 0.000000 0.321762 0.000000 0.032802 0.000000
    41 1.818064 -0.277635 0.147155 -1.570795 -0.961963 -1.570797
    42 0.338630 0.000000 1.260262 0.000000 0.000000 0.000000
    43 0.891296 0.000000 0.321763 0.000000 0.032790 0.000000
    44 1.818063 -0.264801 -0.160265 -1.570796 0.955859 -1.570796
    45 0.338629 0.000000 1.260263 0.000000 0.000000 0.000000
    46 0.891297 0.000001 0.321763 0.000000 0.032802 0.000000
    47 -0.691148 -3.020236 0.046878 0.000000 0.000000 1.865945
    48 -0.002248 -0.869789 0.841686 -1.570796 -0.874057 -1.570796
    49 -0.002249 -0.869789 -0.845820 1.570796 2.267536 1.570796
    50 -0.002249 0.786466 -0.845820 -1.570796 2.267536 -1.570796
    51 -0.002248 0.786466 0.841685 1.570796 -0.874056 1.570796
    52 1.257180 8.762585 -0.153713 -1.570562 0.002683 -1.566807
    53 -0.347889 -2.560283 0.029560 -0.746140 0.229962 -0.362943
    54 0.039887 -1.479790 0.029854 -1.759312 0.000000 0.000001
    55 0.028786 -1.075731 -0.023109 -0.810791 0.000000 0.000000
    56 0.304716 -2.726912 -0.160269 -0.567857 0.204341 -0.294863
    57 -0.049759 -1.680544 0.100479 -1.781109 0.000000 -0.000002
    58 -0.034142 -1.148312 0.084782 -0.983659 0.000000 0.000000
    59 0.875732 -3.125698 -0.211399 -0.391118 0.032005 -0.049704
    60 -0.033420 -1.397129 -0.011257 -1.773707 0.000000 -0.000001
    61 -0.022360 -0.957436 0.018784 -0.420392 0.102384 -0.052996
    62 -0.993175 -2.593157 0.396003 -0.185516 0.194141 -0.191771
    63 -0.024967 -1.123934 0.017597 -1.928490 0.013147 -0.288660
    64 -0.020057 -0.890968 0.010090 -0.755224 0.000000 0.000000
    65 0.997585 -1.123056 0.138503 0.726976 -0.934910 -0.966623
    66 1.535927 0.010246 0.005009 0.045274 0.012536 -0.936292
    67 1.100771 0.004527 -0.010679 -0.149931 0.059237 -0.355138
    68 -0.043915 -0.132304 -0.316216 -2.812193 5.925454 -1.395057
    69 -2.626310 -4.344514 -1.200539 -0.591950 -5.325152 0.219592
    70 0.096944 -8.450418 -0.009365 0.308081 -1.204013 0.335124
    71 0.447953 -2.798986 -0.200443 -0.405051 -0.173207 0.312319
    72 -0.032909 -1.480204 0.004940 -1.309596 0.000000 0.000002
    73 -0.027022 -1.076920 -0.020210 0.168442 0.000000 0.000000
    74 -0.249534 -2.846964 -0.174213 -0.171002 -0.089770 0.289110
    75 0.043235 -1.683941 0.096012 -1.549351 0.002823 -0.000167
    76 0.031729 -1.160830 0.058838 0.068761 0.000642 0.008372
    77 -0.963866 -2.785145 -0.085350 0.035043 0.089944 0.201956
    78 0.028479 -1.403067 0.006271 -1.285362 0.000000 0.000000
    79 0.021413 -0.957781 0.020046 -0.048312 0.000000 0.000000
    80 1.164475 -2.543940 -0.170330 -0.363571 -0.311871 0.210107
    81 0.024032 -1.129042 0.017807 -0.793235 0.000000 0.000001
    82 0.014898 -0.883989 -0.019848 -0.202298 0.000000 0.000000
    83 -0.586770 -1.264477 0.200161 -0.210673 -0.355487 -2.365980
    84 1.522835 0.058681 0.016848 0.025655 0.288010 0.598498
    85 1.117947 0.048424 -0.005766 0.027789 -0.079884 -0.363462
    86 -0.041740 -0.150762 -0.059824 0.806163 0.452927 1.371618
    87 -1.393470 8.839177 -0.239433 1.580804 -0.005023 -1.566847
  time 6
    0 -0.584708 3.269160 -8.747675 0.044163 0.000000 -0.021189
    1 12.559731 -5.144504 0.078804 4.023530 -1.160845 1.473101
    2 -0.071918 -8.498732 -0.104136 0.269732 0.219195 -0.399613
    3 1.514942 -3.186424 0.666113 -0.419348 -0.107262 -3.451130
    4 -1.487204 -0.072218 0.000000 0.000000 0.000000 -1.275647
    5 1.379861 0.013026 0.000000 2.094313 0.000000 0.000000
    6 1.091372 -0.009931 0.000000 1.859816 0.000000 0.000000
    7 -0.000004 -0.012830 -0.746234 0.000000 1.570796 0.000000
    8 -0.000002 -0.012831 0.743942 0.000000 -1.570796 0.000000
    9 0.000000 -0.758639 0.000000 0.000001 0.000124 -1.570921
    10 0.000000 0.740977 0.000000 0.000001 -0.000118 1.570678
    11 0.618701 -0.009931 0.000000 -0.785398 0.000000 0.000000
    12 -0.000003 -0.045880 -0.434408 0.000000 1.570796 0.000000
    13 0.000000 -0.407593 -0.045883 0.000000 0.000000 -1.570973
    14 -0.000002 -0.045882 0.340349 0.000000 -1.570460 0.000000
    15 0.000000 0.427942 -0.045883 0.000001 0.000000 1.570629
    16 -1.572389 0.220680 0.000000 0.000000 0.000000 -1.282047
    17 1.033914 -0.654510 0.906782 1.570797 -0.982795 -1.564396
    18 1.033878 -0.648745 -0.899195 1.570797 0.982794 -1.564396
    19 1.026259 0.541615 -0.895047 -1.570796 0.982794 1.577196
    20 1.026212 0.549078 0.904648 -1.570796 -0.982794 1.577100
    21 2.874126 -0.034192 1.057670 1.570796 0.789324 0.006400
    22 2.881649 0.715909 -0.754650 2.067742 -0.631794 -0.736436
    23 2.879878 0.715898 0.752527 1.067860 0.637028 -0.739986
    24 2.983432 -0.034143 -0.952297 1.570796 -0.782206 0.006400
    25 2.983687 -0.034141 0.952198 1.570796 0.789324 0.006400
    26 2.975584 0.637833 -0.668710 2.067742 -0.631794 -0.736436
    27 2.973814 0.637822 0.666587 1.067860 0.637028 -0.739986
    28 2.869965 -0.034194 -1.053863 1.570796 -0.782206 0.006400
    29 3.169655 0.883133 0.000000 0.000000 0.000000 0.006400
    30 0.005513 0.071422 0.607692 1.570797 -1.570796 0.000000
    31 2.728229 0.989643 0.000000 0.000000 0.000000 0.006400
    32 0.036764 -0.010612 -0.413052 1.309124 1.533943 0.222722
    33 0.005513 -0.018424 0.416280 -1.326226 -1.533943 -2.918781
    34 -0.250618 0.660486 0.000000 0.000000 0.000000 0.295150
    35 -3.179013 1.492042 -0.000001 0.000001 0.000000 -2.846443
    36 -1.913326 1.338252 0.551623 0.295134 -1.570317 0.000000
    37 -2.138676 2.346085 -0.000001 0.000000 0.000000 1.865946
    38 1.818063 -0.014348 0.003944 1.570797 0.000001 1.570796
    39 0.338629 0.000001 1.260262 0.000000 0.000000 0.000000
    40 0.891296 0.000000 0.321762 0.000000 0.032802 0.000000
    41 1.818064 -0.277635 0.147155 -1.570795 -0.961963 -1.570797
    42 0.338630 0.000000 1.260262 0.000000 0.000000 0.000000
    43 0.891296 0.000000 0.321763 0.000000 0.032790 0.000000
    44 1.818063 -0.264801 -0.160265 -1.570796 0.955859 -1.570796
    45 0.338629 0.000000 1.260263 0.000000 0.000000 0.000000
    46 0.891297 0.000001 0.321763 0.000000 0.032802 0.000000
    47 -0.691148 -3.020236 0.046878 0.000000 0.000000 1.865945
    48 -0.002248 -0.869789 0.841686 -1.570796 -0.874057 -1.570796
    49 -0.002249 -0.869789 -0.845820 1.570796 2.267536 1.570796
    50 -0.002249 0.786466 -0.845820 -1.570796 2.267536 -1.570796
    51 -0.002248 0.786466 0.841685 1.570796 -0.874056 1.570796
    52 1.257180 8.762585 -0.153713 -1.570562 0.002683 -1.566807
    53 -0.347889 -2.560283 0.029560 -0.746140 0.229962 -0.362943
    54 0.039887 -1.479790 0.029854 -1.759312 0.000000 0.000001
    55 0.028786 -1.075731 -0.023109 -0.810791 0.000000 0.000000
    56 0.304716 -2.726912 -0.160269 -0.569968 0.204341 -0.294863
    57 -0.049759 -1.680544 0.100479 -1.781109 0.000000 -0.000002
    58 -0.034142 -1.148312 0.084782 -0.983659 0.000000 0.000000
    59 0.875732 -3.125698 -0.211399 -0.309823 0.025713 -0.047786
    60 -0.033420 -1.397129 -0.011257 -1.773707 0.000000 -0.000001
    61 -0.022360 -0.957436 0.018784 -0.362067 0.102384 -0.052996
    62 -0.993175 -2.593157 0.396003 -0.185516 0.194141 -0.191771
    63 -0.024967 -1.123934 0.017597 -1.928490 0.013147 -0.288660
    64 -0.020057 -0.890968 0.010090 -0.755224 0.000000 0.000000
    65 0.997585 -1.123056 0.138503 0.726976 -0.934910 -0.966623
    66 1.535927 0.010246 0.005009 0.045274 0.012536 -0.936292
    67 1.100771 0.004527 -0.010679 -0.132913 0.017291 -0.418411
    68 -0.043915 -0.132304 -0.316216 -2.812193 5.925454 -1.395057
    69 -2.540369 -4.192166 -1.153662 -0.549779 -5.346306 0.249311
    70 0.096944 -8.450418 -0.009365 0.308081 -1.204013 0.335124
    71 0.447953 -2.798986 -0.200443 -0.405051 -0.173207 0.312319
    72 -0.032909 -1.480204 0.004940 -1.309596 0.000000 0.000002
    73 -0.027022 -1.076920 -0.020210 0.168442 0.000000 0.000000
    74 -0.249534 -2.846964 -0.174213 -0.171002 -0.089770 0.289110
    75 0.043235 -1.683941 0.096012 -1.549351 0.002823 -0.000167
    76 0.031729 -1.160830 0.058838 0.068761 0.000642 0.008372
    77 -0.963866 -2.785145 -0.085350 0.035043 0.089944 0.201956
    78 0.028479 -1.403067 0.006271 -1.285362 0.000000 0.000000
    79 0.021413 -0.957781 0.020046 -0.048312 0.000000 0.000000
    80 1.164475 -2.543940 -0.170330 -0.363571 -0.311871 0.210107
    81 0.024032 -1.129042 0.017807 -0.793235 0.000000 0.000001
    82 0.014898 -0.883989 -0.019848 -0.202298 0.000000 0.000000
    83 -0.586770 -1.264477 0.200161 -0.210673 -0.355487 -2.365980
    84 1.522835 0.058681 0.016848 0.025655 0.288010 0.598498
    85 1.117947 0.048424 -0.005766 0.027789 -0.079884 -0.363462
    86 -0.041740 -0.150762 -0.059824 0.806163 0.452927 1.371618
    87 -1.393470 8.839177 -0.239433 1.580804 -0.005023 -1.566847
  time 7
    0 0.009060 3.359007 -8.657828 0.050096 0.000000 -0.024017
    1 12.559731 -5.144504 0.078804 4.023530 -1.160845 1.473101
    2 -0.071918 -8.498732 -0.104136 0.260445 0.224792 -0.422154
    3 1.514942 -3.186424 0.666113 -0.419348 -0.107262 -3.451130
    4 -1.487204 -0.072218 0.000000 0.000000 0.000000 -1.275647
    5 1.379861 0.013026 0.000000 1.215134 0.000000 0.000000
    6 1.091372 -0.009931 0.000000 -2.714270 0.000000 0.000000
    7 -0.000004 -0.012830 -0.746234 0.000000 1.570460 0.000000
    8 -0.000002 -0.012831 0.743942 0.000000 -1.570460 0.000000
    9 0.000000 -0.758639 0.000000 0.000001 0.000124 -1.570921
    10 0.000000 0.740977 0.000000 0.000001 -0.000118 1.570678
    11 0.618701 -0.009931 0.000000 -0.785398 0.000000 0.000000
    12 -0.000003 -0.045880 -0.434408 0.000000 1.570460 0.000000
    13 0.000000 -0.407593 -0.045883 0.000000 0.000000 -1.570973
    14 -0.000002 -0.045882 0.340349 0.000000 -1.570460 0.000000
    15 0.000000 0.427942 -0.045883 0.000001 0.000000 1.570629
    16 -1.572389 0.220680 0.000000 0.000000 0.000000 -1.282047
    17 1.033914 -0.654510 0.906782 1.570797 -0.982795 -1.564396
    18 1.033878 -0.648745 -0.899195 1.570797 0.982794 -1.564396
    19 1.026259 0.541615 -0.895047 -1.570796 0.982794 1.577196
    20 1.026212 0.549078 0.904648 -1.570796 -0.982794 1.577100
    21 2.874126 -0.034192 1.057670 1.570796 0.789324 0.006400
    22 2.881649 0.715909 -0.754650 2.067742 -0.631794 -0.736436
    23 2.879878 0.715898 0.752527 1.067860 0.637028 -0.739986
    24 2.983432 -0.034143 -0.952297 1.570796 -0.782206 0.006400
    25 2.983687 -0.034141 0.952198 1.570796 0.789324 0.006400
    26 2.975584 0.637833 -0.668710 2.067742 -0.631794 -0.736436
    27 2.973814 0.637822 0.666587 1.067860 0.637028 -0.739986
    28 2.869965 -0.034194 -1.053863 1.570796 -0.782206 0.006400
    29 3.169655 0.883133 0.000000 0.000000 0.000000 0.006400
    30 0.005513 0.071422 0.607692 1.570797 -1.570796 0.000000
    31 2.728229 0.989643 0.000000 0.000000 0.000000 0.006400
    32 0.036764 -0.010612 -0.413052 1.309124 1.533943 0.222722
    33 0.005513 -0.018424 0.416280 -1.326226 -1.533943 -2.918781
    34 -0.262337 0.703456 0.000000 0.000000 0.000000 0.295150
    35 -3.179013 1.492042 -0.000001 0.000001 0.000000 -2.846443
    36 -1.913326 1.338252 0.551623 0.295134 -1.570317 0.000000
    37 -2.138676 2.346085 -0.000001 0.000000 0.000000 1.865946
    38 1.818063 0.110655 0.003944 1.570797 0.000001 1.570796
    39 0.338629 0.000001 1.260262 0.000000 0.000000 0.000000
    40 0.891296 0.000000 0.321762 0.000000 0.032802 0.000000
    41 1.818064 -0.351856 0.252627 -1.570795 -0.961963 -1.570797
    42 0.338630 0.000000 1.260262 0.000000 0.000000 0.000000
    43 0.891296 0.000000 0.321763 0.000000 0.032790 0.000000
    44 1.818063 -0.339022 -0.269643 -1.570796 0.955859 -1.570796
    45 0.338629 0.000000 1.260263 0.000000 0.000000 0.000000
    46 0.891297 0.000001 0.321763 0.000000 0.032802 0.000000
    47 -0.691148 -3.020236 0.046878 0.000000 0.000000 1.865945
    48 -0.002248 -0.869789 0.841686 -1.570796 -0.874057 -1.570796
    49 -0.002249 -0.869789 -0.845820 1.570796 2.267536 1.570796
    50 -0.002249 0.786466 -0.845820 -1.570796 2.267536 -1.570796
    51 -0.002248 0.786466 0.841685 1.570796 -0.874056 1.570796
    52 1.257180 8.762585 -0.153713 -1.570562 0.002683 -1.566807
    53 -0.347889 -2.560283 0.029560 -0.746140 0.229962 -0.362943
    54 0.039887 -1.479790 0.029854 -1.759312 0.000000 0.000001
    55 0.028786 -1.075731 -0.023109 -0.810791 0.000000 0.000000
    56 0.304716 -2.726912 -0.160269 -0.575673 0.204341 -0.294863
    57 -0.049759 -1.680544 0.100479 -1.781109 0.000000 -0.000002
    58 -0.034142 -1.148312 0.084782 -0.983659 0.000000 0.000000
    59 0.875732 -3.125698 -0.211399 -0.223854 0.019062 -0.045761
    60 -0.033420 -1.397129 -0.011257 -1.773707 0.000000 -0.000001
    61 -0.022360 -0.957436 0.018784 -0.339475 0.102384 -0.052996
    62 -0.993175 -2.593157 0.396003 -0.185516 0.194141 -0.191771
    63 -0.024967 -1.123934 0.017597 -1.928490 0.013147 -0.288660
    64 -0.020057 -0.890968 0.010090 -0.755224 0.000000 0.000000
    65 0.997585 -1.123056 0.138503 0.726976 -0.934910 -0.966623
    66 1.535927 0.010246 0.005009 0.045274 0.012536 -0.936292
    67 1.100771 0.004527 -0.010679 -0.114912 -0.027040 -0.485295
    68 -0.043915 -0.132304 -0.316216 -2.812193 5.925454 -1.395057
    69 -2.481774 -4.082787 -1.110692 -0.521074 -5.361380 0.269218
    70 0.096944 -8.450418 -0.009365 0.308081 -1.204013 0.335124
    71 0.447953 -2.798986 -0.200443 -0.405051 -0.173207 0.312319
    72 -0.032909 -1.480204 0.004940 -1.309596 0.000000 0.000002
    73 -0.027022 -1.076920 -0.020210 0.168442 0.000000 0.000000
    74 -0.249534 -2.846964 -0.174213 -0.171002 -0.089770 0.289110
    75 0.043235 -1.683941 0.096012 -1.549351 0.002823 -0.000167
    76 0.031729 -1.160830 0.058838 0.068761 0.000642 0.008372
    77 -0.963866 -2.785145 -0.085350 0.035043 0.089944 0.201956
    78 0.028479 -1.403067 0.006271 -1.285362 0.000000 0.000000
    79 0.021413 -0.957781 0.020046 -0.048312 0.000000 0.000000
    80 1.164475 -2.543940 -0.170330 -0.363571 -0.311871 0.210107
    81 0.024032 -1.129042 0.017807 -0.793235 0.000000 0.000001
    82 0.014898 -0.883989 -0.019848 -0.202298 0.000000 0.000000
    83 -0.586770 -1.264477 0.200161 -0.210673 -0.355487 -2.365980
    84 1.522835 0.058681 0.016848 0.025655 0.288010 0.598498
    85 1.117947 0.048424 -0.005766 0.027789 -0.079884 -0.363462
    86 -0.041740 -0.150762 -0.059824 0.806163 0.452927 1.371618
    87 -1.393470 8.839177 -0.239433 1.580804 -0.005023 -1.566847
  time 8
    0 0.415322 3.394164 -8.583607 0.052349 0.000000 -0.025120
    1 12.559731 -5.144504 0.078804 4.023530 -1.160845 1.473101
    2 -0.071918 -8.498732 -0.104136 0.256925 0.226913 -0.430717
    3 1.514942 -3.186424 0.666113 -0.419348 -0.107262 -3.451130
    4 -1.487204 -0.072218 0.000000 0.000000 0.000000 -1.275647
    5 1.379861 0.013026 0.000000 0.491175 0.000000 0.000000
    6 1.091372 -0.009931 0.000000 -1.306895 0.000000 0.000000
    7 -0.000004 -0.012830 -0.746234 0.000000 1.570460 0.000000
    8 -0.000002 -0.012831 0.743942 0.000000 -1.570460 0.000000
    9 0.000000 -0.758639 0.000000 0.000001 0.000124 -1.570921
    10 0.000000 0.740977 0.000000 0.000001 -0.000118 1.570678
    11 0.618701 -0.009931 0.000000 -0.785398 0.000000 0.000000
    12 -0.000003 -0.045880 -0.434408 0.000000 1.570460 0.000000
    13 0.000000 -0.407593 -0.045883 0.000000 0.000000 -1.570973
    14 -0.000002 -0.045882 0.340349 0.000000 -1.570460 0.000000
    15 0.000000 0.427942 -0.045883 0.000001 0.000000 1.570629
    16 -1.572389 0.220680 0.000000 0.000000 0.000000 -1.282047
    17 1.033914 -0.654510 0.906782 1.570797 -0.982795 -1.564396
    18 1.033878 -0.648745 -0.899195 1.570797 0.982794 -1.564396
    19 1.026259 0.541615 -0.895047 -1.570796 0.982794 1.577196
    20 1.026212 0.549078 0.904648 -1.570796 -0.982794 1.577100
    21 2.874126 -0.034192 1.057670 1.570796 0.789324 0.006400
    22 2.881649 0.715909 -0.754650 2.067742 -0.631794 -0.736436
    23 2.879878 0.715898 0.752527 1.067860 0.637028 -0.739986
    24 2.983432 -0.034143 -0.952297 1.570796 -0.782206 0.006400
    25 2.983687 -0.034141 0.952198 1.570796 0.789324 0.006400
    26 2.975584 0.637833 -0.668710 2.067742 -0.631794 -0.736436
    27 2.973814 0.637822 0.666587 1.067860 0.637028 -0.739986
    28 2.869965 -0.034194 -1.053863 1.570796 -0.782206 0.006400
    29 3.169655 0.883133 0.000000 0.000000 0.000000 0.006400
    30 0.005513 0.071422 0.607692 1.570797 -1.570796 0.000000
    31 2.728229 0.989643 0.000000 0.000000 0.000000 0.006400
    32 0.036764 -0.010612 -0.413052 1.309124 1.533943 0.222722
    33 0.005513 -0.018424 0.416280 -1.326226 -1.533943 -2.918781
    34 -0.274056 0.746426 0.000000 0.000000 0.000000 0.295150
    35 -3.179013 1.492042 -0.000001 0.000001 0.000000 -2.846443
    36 -1.913326 1.338252 0.551623 0.295134 -1.570317 0.000000
    37 -2.138676 2.346085 -0.000001 0.000000 0.000000 1.865946
    38 1.818063 0.348944 0.003944 1.570797 0.000001 1.570796
    39 0.338629 0.000001 1.260262 0.000000 0.000000 0.000000
    40 0.891296 0.000000 0.321762 0.000000 0.032802 0.000000
    41 1.818064 -0.492485 0.455758 -1.570795 -0.961963 -1.570797
    42 0.338630 0.000000 1.260262 0.000000 0.000000 0.000000
    43 0.891296 0.000000 0.321763 0.000000 0.032790 0.000000
    44 1.818063 -0.483558 -0.468868 -1.570796 0.955859 -1.570796
    45 0.338629 0.000000 1.260263 0.000000 0.000000 0.000000
    46 0.891297 0.000001 0.321763 0.000000 0.032802 0.000000
    47 -0.691148 -3.020236 0.046878 0.000000 0.000000 1.865945
    48 -0.002248 -0.869789 0.841686 -1.570796 -0.874057 -1.570796
    49 -0.002249 -0.869789 -0.845820 1.570796 2.267536 1.570796
    50 -0.002249 0.786466 -0.845820 -1.570796 2.267536 -1.570796
    51 -0.002248 0.786466 0.841685 1.570796 -0.874056 1.570796
    52 1.257180 8.762585 -0.153713 -1.570562 0.002683 -1.566807
    53 -0.347889 -2.560283 0.029560 -0.746140 0.229962 -0.362943
    54 0.039887 -1.479790 0.029854 -1.759312 0.000000 0.000001
    55 0.028786 -1.075731 -0.023109 -0.810791 0.000000 0.000000
    56 0.304716 -2.726912 -0.160269 -0.584074 0.204341 -0.294863
    57 -0.049759 -1.680544 0.100479 -1.781109 0.000000 -0.000002
    58 -0.034142 -1.148312 0.084782 -0.983659 0.000000 0.000000
    59 0.875732 -3.125698 -0.211399 -0.136326 0.012291 -0.043700
    60 -0.033420 -1.397129 -0.011257 -1.773707 0.000000 -0.000001
    61 -0.022360 -0.957436 0.018784 -0.356998 0.102384 -0.052996
    62 -0.993175 -2.593157 0.396003 -0.185516 0.194141 -0.191771
    63 -0.024967 -1.123934 0.017597 -1.928490 0.013147 -0.288660
    64 -0.020057 -0.890968 0.010090 -0.755224 0.000000 0.000000
    65 0.997585 -1.123056 0.138503 0.726976 -0.934910 -0.966623
    66 1.535927 0.010246 0.005009 0.045274 0.012536 -0.936292
    67 1.100771 0.004527 -0.010679 -0.096575 -0.072198 -0.553418
    68 -0.043915 -0.132304 -0.316216 -2.812193 5.925454 -1.395057
    69 -2.462242 -4.043724 -1.095067 -0.510424 -5.367204 0.276648
    70 0.096944 -8.450418 -0.009365 0.308081 -1.204013 0.335124
    71 0.447953 -2.798986 -0.200443 -0.405051 -0.173207 0.312319
    72 -0.032909 -1.480204 0.004940 -1.309596 0.000000 0.000002
    73 -0.027022 -1.076920 -0.020210 0.168442 0.000000 0.000000
    74 -0.249534 -2.846964 -0.174213 -0.171002 -0.089770 0.289110
    75 0.043235 -1.683941 0.096012 -1.549351 0.002823 -0.000167
    76 0.031729 -1.160830 0.058838 0.068761 0.000642 0.008372
    77 -0.963866 -2.785145 -0.085350 0.035043 0.089944 0.201956
    78 0.028479 -1.403067 0.006271 -1.285362 0.000000 0.000000
    79 0.021413 -0.957781 0.020046 -0.048312 0.000000 0.000000
    80 1.164475 -2.543940 -0.170330 -0.363571 -0.311871 0.210107
    81 0.024032 -1.129042 0.017807 -0.793235 0.000000 0.000001
    82 0.014898 -0.883989 -0.019848 -0.202298 0.000000 0.000000
    83 -0.586770 -1.264477 0.200161 -0.210673 -0.355487 -2.365980
    84 1.522835 0.058681 0.016848 0.025655 0.288010 0.598498
    85 1.117947 0.048424 -0.005766 0.027789 -0.079884 -0.363462
    86 -0.041740 -0.150762 -0.059824 0.806163 0.452927 1.371618
    87 -1.393470 8.839177 -0.239433 1.580804 -0.005023 -1.566847
  time 9
    0 0.669236 3.366819 -8.505480 0.049448 0.000000 -0.023729
    1 12.559731 -5.144504 0.078804 4.023530 -1.160845 1.473101
    2 -0.071918 -8.498732 -0.104136 0.260792 0.225559 -0.425995
    3 1.514942 -3.186424 0.666113 -0.419348 -0.107262 -3.451130
    4 -1.487204 -0.072218 0.000000 0.000000 0.000000 -1.275647
    5 1.379861 0.013026 0.000000 0.000000 0.000000 0.000000
    6 1.091372 -0.009931 0.000000 -0.351772 0.000000 0.000000
    7 -0.000004 -0.012830 -0.746234 0.000000 1.570460 0.000000
    8 -0.000002 -0.012831 0.743942 0.000000 -1.570460 0.000000
    9 0.000000 -0.758639 0.000000 0.000001 0.000124 -1.570921
    10 0.000000 0.740977 0.000000 0.000001 -0.000118 1.570678
    11 0.618701 -0.009931 0.000000 -0.785398 0.000000 0.000000
    12 -0.000003 -0.045880 -0.434408 0.000000 1.570460 0.000000
    13 0.000000 -0.407593 -0.045883 0.000000 0.000000 -1.570973
    14 -0.000002 -0.045882 0.340349 0.000000 -1.570460 0.000000
    15 0.000000 0.427942 -0.045883 0.000001 0.000000 1.570629
    16 -1.572389 0.220680 0.000000 0.000000 0.000000 -1.282047
    17 1.033914 -0.654510 0.906782 1.570797 -0.982795 -1.564396
    18 1.033878 -0.648745 -0.899195 1.570797 0.982794 -1.564396
    19 1.026259 0.541615 -0.895047 -1.570796 0.982794 1.577196
    20 1.026212 0.549078 0.904648 -1.570796 -0.982794 1.577100
    21 2.874126 -0.034192 1.057670 1.570796 0.789324 0.006400
    22 2.881649 0.715909 -0.754650 2.067742 -0.631794 -0.736436
    23 2.879878 0.715898 0.752527 1.067860 0.637028 -0.739986
    24 2.983432 -0.034143 -0.952297 1.570796 -0.782206 0.006400
    25 2.983687 -0.034141 0.952198 1.570796 0.789324 0.006400
    26 2.975584 0.637833 -0.668710 2.067742 -0.631794 -0.736436
    27 2.973814 0.637822 0.666587 1.067860 0.637028 -0.739986
    28 2.869965 -0.034194 -1.053863 1.570796 -0.782206 0.006400
    29 3.169655 0.883133 0.000000 0.000000 0.000000 0.006400
    30 0.005513 0.071422 0.607692 1.570797 -1.570796 0.000000
    31 2.728229 0.989643 0.000000 0.000000 0.000000 0.006400
    32 0.036764 -0.010612 -0.413052 1.309136 1.533943 0.222722
    33 0.005513 -0.018424 0.416280 -1.326226 -1.533943 -2.918781
    34 -0.285775 0.785489 0.000000 0.000000 0.000000 0.295150
    35 -3.179013 1.492042 -0.000001 0.000001 0.000000 -2.846443
    36 -1.913326 1.338252 0.551623 0.295134 -1.570317 0.000000
    37 -2.138676 2.346085 -0.000001 0.000000 0.000000 1.865946
    38 1.818063 0.470041 0.003944 1.570797 0.000001 1.570796
    39 0.338629 0.000001 1.260262 0.000000 0.000000 0.000000
    40 0.891296 0.000000 0.321762 0.000000 0.032802 0.000000
    41 1.818064 -0.574519 0.572949 -1.570795 -0.961963 -1.570797
    42 0.338630 0.000000 1.260262 0.000000 0.000000 0.000000
    43 0.891296 0.000000 0.321763 0.000000 0.032790 0.000000
    44 1.818063 -0.565592 -0.586059 -1.570796 0.955859 -1.570796
    45 0.338629 0.000000 1.260263 0.000000 0.000000 0.000000
    46 0.891297 0.000001 0.321763 0.000000 0.032802 0.000000
    47 -0.691148 -3.020236 0.046878 0.000000 0.000000 1.865945
    48 -0.002248 -0.869789 0.841686 -1.570796 -0.874057 -1.570796
    49 -0.002249 -0.869789 -0.845820 1.570796 2.267536 1.570796
    50 -0.002249 0.786466 -0.845820 -1.570796 2.267536 -1.570796
    51 -0.002248 0.786466 0.841685 1.570796 -0.874056 1.570796
    52 1.257180 8.762585 -0.153713 -1.570562 0.002683 -1.566807
    53 -0.347889 -2.560283 0.029560 -0.746140 0.229962 -0.362943
    54 0.039887 -1.479790 0.029854 -1.759312 0.000000 0.000001
    55 0.028786 -1.075731 -0.023109 -0.810791 0.000000 0.000000
    56 0.304716 -2.726912 -0.160269 -0.594293 0.204341 -0.294863
    57 -0.049759 -1.680544 0.100479 -1.781109 0.000000 -0.000002
    58 -0.034142 -1.148312 0.084782 -0.983659 0.000000 0.000000
    59 0.875732 -3.125698 -0.211399 -0.050357 0.005639 -0.041662
    60 -0.033420 -1.397129 -0.011257 -1.773707 0.000000 -0.000001
    61 -0.022360 -0.957436 0.018784 -0.403259 0.102384 -0.052996
    62 -0.993175 -2.593157 0.396003 -0.185516 0.194141 -0.191771
    63 -0.024967 -1.123934 0.017597 -1.928490 0.013147 -0.288660
    64 -0.020057 -0.890968 0.010090 -0.755224 0.000000 0.000000
    65 0.997585 -1.123056 0.138503 0.726976 -0.934910 -0.966623
    66 1.535927 0.010246 0.005009 0.045274 0.012536 -0.936292
    67 1.100771 0.004527 -0.010679 -0.078575 -0.116553 -0.620302
    68 -0.043915 -0.132304 -0.316216 -2.812193 5.925454 -1.395057
    69 -2.485680 -4.086694 -1.106786 -0.516851 -5.364121 0.273981
    70 0.096944 -8.450418 -0.009365 0.308081 -1.204013 0.335124
    71 0.447953 -2.798986 -0.200443 -0.405051 -0.173207 0.312319
    72 -0.032909 -1.480204 0.004940 -1.309596 0.000000 0.000002
    73 -0.027022 -1.076920 -0.020210 0.168442 0.000000 0.000000
    74 -0.249534 -2.846964 -0.174213 -0.171002 -0.089770 0.289110
    75 0.043235 -1.683941 0.096012 -1.549351 0.002823 -0.000167
    76 0.031729 -1.160830 0.058838 0.068761 0.000642 0.008372
    77 -0.963866 -2.785145 -0.085350 0.035043 0.089944 0.201956
    78 0.028479 -1.403067 0.006271 -1.285362 0.000000 0.000000
    79 0.021413 -0.957781 0.020046 -0.048312 0.000000 0.000000
    80 1.164475 -2.543940 -0.170330 -0.363571 -0.311871 0.210107
    81 0.024032 -1.129042 0.017807 -0.793235 0.000000 0.000001
    82 0.014898 -0.883989 -0.019848 -0.202298 0.000000 0.000000
    83 -0.586770 -1.264477 0.200161 -0.210673 -0.355487 -2.365980
    84 1.522835 0.058681 0.016848 0.025655 0.288010 0.598498
    85 1.117947 0.048424 -0.005766 0.027789 -0.079884 -0.363462
    86 -0.041740 -0.150762 -0.059824 0.806163 0.452927 1.371618
    87 -1.393470 8.839177 -0.239433 1.580804 -0.005023 -1.566847
  time 10
    0 0.852836 3.292598 -8.419540 0.041970 0.000000 -0.020134
    1 12.559731 -5.144504 0.078804 4.023530 -1.160845 1.473101
    2 -0.071918 -8.498732 -0.104136 0.270760 0.222071 -0.413822
    3 1.514942 -3.186424 0.666113 -0.419348 -0.107262 -3.451130
    4 -1.487204 -0.072218 0.000000 0.000000 0.000000 -1.275647
    5 1.379861 0.013026 0.000000 -0.181013 0.000000 0.000000
    6 1.091372 -0.009931 0.000000 0.000000 0.000000 0.000000
    7 -0.000004 -0.012830 -0.746234 0.000000 1.570796 0.000000
    8 -0.000002 -0.012831 0.743942 0.000000 -1.570796 0.000000
    9 0.000000 -0.758639 0.000000 0.000001 0.000124 -1.570921
    10 0.000000 0.740977 0.000000 0.000001 -0.000118 1.570678
    11 0.618701 -0.009931 0.000000 -0.785398 0.000000 0.000000
    12 -0.000003 -0.045880 -0.434408 0.000000 1.570460 0.000000
    13 0.000000 -0.407593 -0.045883 0.000000 0.000000 -1.570973
    14 -0.000002 -0.045882 0.340349 0.000000 -1.570796 0.000000
    15 0.000000 0.427942 -0.045883 0.000001 0.000000 1.570629
    16 -1.572389 0.220680 0.000000 0.000000 0.000000 -1.282047
    17 1.033914 -0.654510 0.906782 1.570797 -0.982795 -1.564396
    18 1.033878 -0.648745 -0.899195 1.570797 0.982794 -1.564396
    19 1.026259 0.541615 -0.895047 -1.570796 0.982794 1.577196
    20 1.026212 0.549078 0.904648 -1.570796 -0.982794 1.577100
    21 2.874126 -0.034192 1.057670 1.570796 0.789324 0.006400
    22 2.881649 0.715909 -0.754650 2.067742 -0.631794 -0.736436
    23 2.879878 0.715898 0.752527 1.067860 0.637028 -0.739986
    24 2.983432 -0.034143 -0.952297 1.570796 -0.782206 0.006400
    25 2.983687 -0.034141 0.952198 1.570796 0.789324 0.006400
    26 2.975584 0.637833 -0.668710 2.067742 -0.631794 -0.736436
    27 2.973814 0.637822 0.666587 1.067860 0.637028 -0.739986
    28 2.869965 -0.034194 -1.053863 1.570796 -0.782206 0.006400
    29 3.169655 0.883133 0.000000 0.000000 0.000000 0.006400
    30 0.005513 0.071422 0.607692 1.570797 -1.570796 0.000000
    31 2.728229 0.989643 0.000000 0.000000 0.000000 0.006400
    32 0.036764 -0.010612 -0.413052 1.309136 1.533943 0.222734
    33 0.005513 -0.018424 0.416280 -1.326226 -1.533943 -2.918781
    34 -0.297494 0.824553 0.000000 0.000000 0.000000 0.295150
    35 -3.179013 1.492042 -0.000001 0.000001 0.000000 -2.846443
    36 -1.913326 1.338252 0.551623 0.295134 -1.570317 0.000000
    37 -2.138676 2.346085 -0.000001 0.000000 0.000000 1.865946
    38 1.818063 0.466135 0.003944 1.570797 0.000001 1.570796
    39 0.338629 0.000001 1.260262 0.000000 0.000000 0.000000
    40 0.891296 0.000000 0.321762 0.000000 0.032802 0.000000
    41 1.818064 -0.578425 0.580762 -1.570795 -0.961963 -1.570797
    42 0.338630 0.000000 1.260262 0.000000 0.000000 0.000000
    43 0.891296 0.000000 0.321763 0.000000 0.032790 0.000000
    44 1.818063 -0.569498 -0.593872 -1.570796 0.955859 -1.570796
    45 0.338629 0.000000 1.260263 0.000000 0.000000 0.000000
    46 0.891297 0.000001 0.321763 0.000000 0.032802 0.000000
    47 -0.691148 -3.020236 0.046878 0.000000 0.000000 1.865945
    48 -0.002248 -0.869789 0.841686 -1.570796 -0.874057 -1.570796
    49 -0.002249 -0.869789 -0.845820 1.570796 2.267536 1.570796
    50 -0.002249 0.786466 -0.845820 -1.570796 2.267536 -1.570796
    51 -0.002248 0.786466 0.841685 1.570796 -0.874056 1.570796
    52 1.257180 8.762585 -0.153713 -1.570562 0.002683 -1.566807
    53 -0.347889 -2.560283 0.029560 -0.746140 0.229962 -0.362943
    54 0.039887 -1.479790 0.029854 -1.759312 0.000000 0.000001
    55 0.028786 -1.075731 -0.023109 -0.810791 0.000000 0.000000
    56 0.304716 -2.726912 -0.160269 -0.605411 0.204341 -0.294863
    57 -0.049759 -1.680544 0.100479 -1.781109 0.000000 -0.000002
    58 -0.034142 -1.148312 0.084782 -0.983659 0.000000 0.000000
    59 0.875732 -3.125698 -0.211399 0.030937 -0.000641 -0.039745
    60 -0.033420 -1.397129 -0.011257 -1.773707 0.000000 -0.000001
    61 -0.022360 -0.957436 0.018784 -0.468625 0.102384 -0.052996
    62 -0.993175 -2.593157 0.396003 -0.185516 0.194141 -0.191771
    63 -0.024967 -1.123934 0.017597 -1.928490 0.013147 -0.288660
    64 -0.020057 -0.890968 0.010090 -0.755224 0.000000 0.000000
    65 0.997585 -1.123056 0.138503 0.726976 -0.934910 -0.966623
    66 1.535927 0.010246 0.005009 0.045274 0.012536 -0.936292
    67 1.100771 0.004527 -0.010679 -0.061544 -0.158487 -0.683575
    68 -0.043915 -0.132304 -0.316216 -2.812193 5.925454 -1.395057
    69 -2.544276 -4.188259 -1.141943 -0.533560 -5.356241 0.267218
    70 0.096944 -8.450418 -0.009365 0.308081 -1.204013 0.335124
    71 0.447953 -2.798986 -0.200443 -0.405051 -0.173207 0.312319
    72 -0.032909 -1.480204 0.004940 -1.309596 0.000000 0.000002
    73 -0.027022 -1.076920 -0.020210 0.168442 0.000000 0.000000
    74 -0.249534 -2.846964 -0.174213 -0.171002 -0.089770 0.289110
    75 0.043235 -1.683941 0.096012 -1.549351 0.002823 -0.000167
    76 0.031729 -1.160830 0.058838 0.068761 0.000642 0.008372
    77 -0.963866 -2.785145 -0.085350 0.035043 0.089944 0.201956
    78 0.028479 -1.403067 0.006271 -1.285362 0.000000 0.000000
    79 0.021413 -0.957781 0.020046 -0.048312 0.000000 0.000000
    80 1.164475 -2.543940 -0.170330 -0.363571 -0.311871 0.210107
    81 0.024032 -1.129042 0.017807 -0.793235 0.000000 0.000001
    82 0.014898 -0.883989 -0.019848 -0.202298 0.000000 0.000000
    83 -0.586770 -1.264477 0.200161 -0.210673 -0.355487 -2.365980
    84 1.522835 0.058681 0.016848 0.025655 0.288010 0.598498
    85 1.117947 0.048424 -0.005766 0.027789 -0.079884 -0.363462
    86 -0.041740 -0.150762 -0.059824 0.806163 0.452927 1.371618
    87 -1.393470 8.839177 -0.239433 1.580804 -0.005023 -1.566847
  time 11
    0 0.973933 3.194939 -8.333600 0.031747 0.000000 -0.015244
    1 12.559731 -5.144504 0.078804 4.023530 -1.160845 1.473101
    2 -0.071918 -8.498732 -0.104136 0.284402 0.217313 -0.397178
    3 1.514942 -3.186424 0.666113 -0.419348 -0.107262 -3.451130
    4 -1.487204 -0.072218 0.000000 0.000000 0.000000 -1.275647
    5 1.379861 0.013026 0.000000 -0.162204 0.000000 0.000000
    6 1.091372 -0.009931 0.000000 0.000000 0.000000 0.000000
    7 -0.000004 -0.012830 -0.746234 0.000000 1.570796 0.000000
    8 -0.000002 -0.012831 0.743942 0.000000 -1.570796 0.000000
    9 0.000000 -0.758639 0.000000 0.000001 0.000124 -1.570921
    10 0.000000 0.740977 0.000000 0.000001 -0.000118 1.570678
    11 0.618701 -0.009931 0.000000 -0.785398 0.000000 0.000000
    12 -0.000003 -0.045880 -0.434408 0.000000 1.570460 0.000000
    13 0.000000 -0.407593 -0.045883 0.000000 0.000000 -1.570973
    14 -0.000002 -0.045882 0.340349 0.000000 -1.570460 0.000000
    15 0.000000 0.427942 -0.045883 0.000001 0.000000 1.570629
    16 -1.572389 0.220680 0.000000 0.000000 0.000000 -1.282047
    17 1.033914 -0.654510 0.906782 1.570797 -0.982795 -1.564396
    18 1.033878 -0.648745 -0.899195 1.570797 0.982794 -1.564396
    19 1.026259 0.541615 -0.895047 -1.570796 0.982794 1.577196
    20 1.026212 0.549078 0.904648 -1.570796 -0.982794 1.577100
    21 2.874126 -0.034192 1.057670 1.570796 0.789324 0.006400
    22 2.881649 0.715909 -0.754650 2.067742 -0.631794 -0.736436
    23 2.879878 0.715898 0.752527 1.067860 0.637028 -0.739986
    24 2.983432 -0.034143 -0.952297 1.570796 -0.782206 0.006400
    25 2.983687 -0.034141 0.952198 1.570796 0.789324 0.006400
    26 2.975584 0.637833 -0.668710 2.067742 -0.631794 -0.736436
    27 2.973814 0.637822 0.666587 1.067860 0.637028 -0.739986
    28 2.869965 -0.034194 -1.053863 1.570796 -0.782206 0.006400
    29 3.169655 0.883133 0.000000 0.000000 0.000000 0.006400
    30 0.005513 0.071422 0.607692 1.570797 -1.570796 0.000000
    31 2.728229 0.989643 0.000000 0.000000 0.000000 0.006400
    32 0.036764 -0.010612 -0.413052 1.309136 1.533943 0.222722
    33 0.005513 -0.018424 0.416280 -1.326226 -1.533943 -2.918781
    34 -0.309213 0.859710 0.000000 0.000000 0.000000 0.295150
    35 -3.179013 1.492042 -0.000001 0.000001 0.000000 -2.846443
    36 -1.913326 1.338252 0.551623 0.295134 -1.570317 0.000000
    37 -2.138676 2.346085 -0.000001 0.000000 0.000000 1.865946
    38 1.818063 0.466135 0.003944 1.570797 0.000001 1.570796
    39 0.201906 0.000001 1.268075 0.000000 0.000000 0.000000
    40 0.891296 0.000000 0.321762 0.000000 0.027672 0.000000
    41 1.818064 -0.578425 0.580762 -1.570795 -0.961963 -1.570797
    42 0.201907 0.000000 1.268075 0.000000 0.000000 0.000000
    43 0.891296 0.000000 0.321763 0.000000 0.027672 0.000000
    44 1.818063 -0.569498 -0.593872 -1.570796 0.955859 -1.570796
    45 0.201906 0.000000 1.268076 0.000000 0.000000 0.000000
    46 0.891297 0.000001 0.321763 0.000000 0.027672 0.000000
    47 -0.691148 -3.020236 0.046878 0.000000 0.000000 1.865945
    48 -0.002248 -0.869789 0.841686 -1.570796 -0.874057 -1.570796
    49 -0.002249 -0.869789 -0.845820 1.570796 2.267536 1.570796
    50 -0.002249 0.786466 -0.845820 -1.570796 2.267536 -1.570796
    51 -0.002248 0.786466 0.841685 1.570796 -0.874056 1.570796
    52 1.257180 8.762585 -0.153713 -1.570562 0.002683 -1.566807
    53 -0.347889 -2.560283 0.029560 -0.746140 0.229962 -0.362943
    54 0.039887 -1.479790 0.029854 -1.759312 0.000000 0.000001
    55 0.028786 -1.075731 -0.023109 -0.810791 0.000000 0.000000
    56 0.304716 -2.726912 -0.160269 -0.616529 0.204341 -0.294863
    57 -0.049759 -1.680544 0.100479 -1.781109 0.000000 -0.000002
    58 -0.034142 -1.148312 0.084782 -0.983659 0.000000 0.000000
    59 0.875732 -3.125698 -0.211399 0.104441 -0.006334 -0.038019
    60 -0.033420 -1.397129 -0.011257 -1.773707 0.000000 -0.000001
    61 -0.022360 -0.957436 0.018784 -0.543578 0.102384 -0.052996
    62 -0.993175 -2.593157 0.396003 -0.185516 0.194141 -0.191771
    63 -0.024967 -1.123934 0.017597 -1.928490 0.013147 -0.288660
    64 -0.020057 -0.890968 0.010090 -0.755224 0.000000 0.000000
    65 0.997585 -1.123056 0.138503 0.726976 -0.934910 -0.966623
    66 1.535927 0.010246 0.005009 0.045274 0.012536 -0.936292
    67 1.100771 0.004527 -0.010679 -0.046156 -0.196406 -0.740757
    68 -0.043915 -0.132304 -0.316216 -2.812193 5.925454 -1.395057
    69 -2.630216 -4.332795 -1.181007 -0.556573 -5.345450 0.257693
    70 0.096944 -8.450418 -0.009365 0.308081 -1.204013 0.335124
    71 0.447953 -2.798986 -0.200443 -0.405051 -0.173207 0.312319
    72 -0.032909 -1.480204 0.004940 -1.309596 0.000000 0.000002
    73 -0.027022 -1.076920 -0.020210 0.168442 0.000000 0.000000
    74 -0.249534 -2.846964 -0.174213 -0.171002 -0.089770 0.289110
    75 0.043235 -1.683941 0.096012 -1.549351 0.002823 -0.000167
    76 0.031729 -1.160830 0.058838 0.068761 0.000642 0.008372
    77 -0.963866 -2.785145 -0.085350 0.035043 0.089944 0.201956
    78 0.028479 -1.403067 0.006271 -1.285362 0.000000 0.000000
    79 0.021413 -0.957781 0.020046 -0.048312 0.000000 0.000000
    80 1.164475 -2.543940 -0.170330 -0.363571 -0.311871 0.210107
    81 0.024032 -1.129042 0.017807 -0.793235 0.000000 0.000001
    82 0.014898 -0.883989 -0.019848 -0.202298 0.000000 0.000000
    83 -0.586770 -1.264477 0.200161 -0.210673 -0.355487 -2.365980
    84 1.522835 0.058681 0.016848 0.025655 0.288010 0.598498
    85 1.117947 0.048424 -0.005766 0.027789 -0.079884 -0.363462
    86 -0.041740 -0.150762 -0.059824 0.806163 0.452927 1.371618
    87 -1.393470 8.839177 -0.239433 1.580804 -0.005023 -1.566847
  time 12
    0 1.048154 3.085561 -8.251566 0.020602 0.000000 -0.009875
    1 12.559731 -5.144504 0.078804 4.023530 -1.160845 1.473101
    2 -0.071918 -8.498732 -0.104136 0.299264 0.212124 -0.379066
    3 1.514942 -3.186424 0.666113 -0.419348 -0.107262 -3.451130
    4 -1.487204 -0.072218 0.000000 0.000000 0.000000 -1.275647
    5 1.379861 0.013026 0.000000 -0.117323 0.000000 0.000000
    6 1.091372 -0.009931 0.000000 0.000000 0.000000 0.000000
    7 -0.000004 -0.012830 -0.746234 0.000000 1.570460 0.000000
    8 -0.000002 -0.012831 0.743942 0.000000 -1.570796 0.000000
    9 0.000000 -0.758639 0.000000 0.000001 0.000124 -1.570921
    10 0.000000 0.740977 0.000000 0.000001 -0.000118 1.570678
    11 0.618701 -0.009931 0.000000 -0.785398 0.000000 0.000000
    12 -0.000003 -0.045880 -0.434408 0.000000 1.570460 0.000000
    13 0.000000 -0.407593 -0.045883 0.000000 0.000000 -1.570973
    14 -0.000002 -0.045882 0.340349 0.000000 -1.570460 0.000000
    15 0.000000 0.427942 -0.045883 0.000001 0.000000 1.570629
    16 -1.572389 0.220680 0.000000 0.000000 0.000000 -1.282047
    17 1.033914 -0.654510 0.906782 1.570797 -0.982795 -1.564396
    18 1.033878 -0.648745 -0.899195 1.570797 0.982794 -1.564396
    19 1.026259 0.541615 -0.895047 -1.570796 0.982794 1.577196
    20 1.026212 0.549078 0.904648 -1.570796 -0.982794 1.577100
    21 2.874126 -0.034192 1.057670 1.570796 0.789324 0.006400
    22 2.881649 0.715909 -0.754650 2.067742 -0.631794 -0.736436
    23 2.879878 0.715898 0.752527 1.067860 0.637028 -0.739986
    24 2.983432 -0.034143 -0.952297 1.570796 -0.782206 0.006400
    25 2.983687 -0.034141 0.952198 1.570796 0.789324 0.006400
    26 2.975584 0.637833 -0.668710 2.067742 -0.631794 -0.736436
    27 2.973814 0.637822 0.666587 1.067860 0.637028 -0.739986
    28 2.869965 -0.034194 -1.053863 1.570796 -0.782206 0.006400
    29 3.169655 0.883133 0.000000 0.000000 0.000000 0.006400
    30 0.005513 0.071422 0.607692 1.570797 -1.570796 0.000000
    31 2.728229 0.989643 0.000000 0.000000 0.000000 0.006400
    32 0.036764 -0.010612 -0.413052 1.309136 1.533943 0.222722
    33 0.005513 -0.018424 0.416280 -1.326226 -1.533943 -2.918781
    34 -0.317026 0.887055 0.000000 0.000000 0.000000 0.295150
    35 -3.179013 1.492042 -0.000001 0.000001 0.000000 -2.846443
    36 -1.913326 1.338252 0.551623 0.295134 -1.570317 0.000000
    37 -2.138676 2.346085 -0.000001 0.000000 0.000000 1.865946
    38 1.818063 0.466135 0.003944 1.570797 0.000001 1.570796
    39 0.069090 0.000001 1.275887 0.000000 0.000000 0.000000
    40 0.891296 0.000000 0.321762 0.000000 0.016395 0.000000
    41 1.818064 -0.578425 0.580762 -1.570795 -0.961963 -1.570797
    42 0.069091 0.000000 1.275887 0.000000 0.000000 0.000000
    43 0.891296 0.000000 0.321763 0.000000 0.016395 0.000000
    44 1.818063 -0.569498 -0.593872 -1.570796 0.955859 -1.570796
    45 0.069090 0.000000 1.275888 0.000000 0.000000 0.000000
    46 0.891297 0.000001 0.321763 0.000000 0.016395 0.000000
    47 -0.691148 -3.020236 0.046878 0.000000 0.000000 1.865945
    48 -0.002248 -0.869789 0.841686 -1.570796 -0.874057 -1.570796
    49 -0.002249 -0.869789 -0.845820 1.570796 2.267536 1.570796
    50 -0.002249 0.786466 -0.845820 -1.570796 2.267536 -1.570796
    51 -0.002248 0.786466 0.841685 1.570796 -0.874056 1.570796
    52 1.257180 8.762585 -0.153713 -1.570562 0.002683 -1.566807
    53 -0.347889 -2.560283 0.029560 -0.746140 0.229962 -0.362943
    54 0.039887 -1.479790 0.029854 -1.759312 0.000000 0.000001
    55 0.028786 -1.075731 -0.023109 -0.810791 0.000000 0.000000
    56 0.304716 -2.726912 -0.160269 -0.626727 0.204341 -0.294863
    57 -0.049759 -1.680544 0.100479 -1.781109 0.000000 -0.000002
    58 -0.034142 -1.148312 0.084782 -0.983659 0.000000 0.000000
    59 0.875732 -3.125698 -0.211399 0.167037 -0.011175 -0.036533
    60 -0.033420 -1.397129 -0.011257 -1.773707 0.000000 -0.000001
    61 -0.022360 -0.957436 0.018784 -0.618531 0.102384 -0.052996
    62 -0.993175 -2.593157 0.396003 -0.185516 0.194141 -0.191771
    63 -0.024967 -1.123934 0.017597 -1.928490 0.013147 -0.288660
    64 -0.020057 -0.890968 0.010090 -0.755224 0.000000 0.000000
    65 0.997585 -1.123056 0.138503 0.726976 -0.934910 -0.966623
    66 1.535927 0.010246 0.005009 0.045274 0.012536 -0.936292
    67 1.100771 0.004527 -0.010679 -0.033045 -0.228704 -0.789477
    68 -0.043915 -0.132304 -0.316216 -2.812193 5.925454 -1.395057
    69 -2.723969 -4.492956 -1.220070 -0.582034 -5.333631 0.247025
    70 0.096944 -8.450418 -0.009365 0.308081 -1.204013 0.335124
    71 0.447953 -2.798986 -0.200443 -0.405051 -0.173207 0.312319
    72 -0.032909 -1.480204 0.004940 -1.309596 0.000000 0.000002
    73 -0.027022 -1.076920 -0.020210 0.168442 0.000000 0.000000
    74 -0.249534 -2.846964 -0.174213 -0.171002 -0.089770 0.289110
    75 0.043235 -1.683941 0.096012 -1.549351 0.002823 -0.000167
    76 0.031729 -1.160830 0.058838 0.068761 0.000642 0.008372
    77 -0.963866 -2.785145 -0.085350 0.035043 0.089944 0.201956
    78 0.028479 -1.403067 0.006271 -1.285362 0.000000 0.000000
    79 0.021413 -0.957781 0.020046 -0.048312 0.000000 0.000000
    80 1.164475 -2.543940 -0.170330 -0.363571 -0.311871 0.210107
    81 0.024032 -1.129042 0.017807 -0.793235 0.000000 0.000001
    82 0.014898 -0.883989 -0.019848 -0.202298 0.000000 0.000000
    83 -0.586770 -1.264477 0.200161 -0.210673 -0.355487 -2.365980
    84 1.522835 0.058681 0.016848 0.025655 0.288010 0.598498
    85 1.117947 0.048424 -0.005766 0.027789 -0.079884 -0.363462
    86 -0.041740 -0.150762 -0.059824 0.806163 0.452927 1.371618
    87 -1.393470 8.839177 -0.239433 1.580804 -0.005023 -1.566847
  time 13
    0 1.087218 2.987902 -8.181251 0.010379 0.000000 -0.004986
    1 12.559731 -5.144504 0.078804 4.023530 -1.160845 1.473101
    2 -0.071918 -8.498732 -0.104136 0.312893 0.207366 -0.362422
    3 1.514942 -3.186424 0.666113 -0.419348 -0.107262 -3.451130
    4 -1.487204 -0.072218 0.000000 0.000000 0.000000 -1.275647
    5 1.379861 0.013026 0.000000 -0.063690 0.000000 0.000000
    6 1.091372 -0.009931 0.000000 0.000000 0.000000 0.000000
    7 -0.000004 -0.012830 -0.746234 0.000000 1.570460 0.000000
    8 -0.000002 -0.012831 0.743942 0.000000 -1.570460 0.000000
    9 0.000000 -0.758639 0.000000 0.000001 0.000124 -1.570921
    10 0.000000 0.740977 0.000000 0.000001 -0.000118 1.570678
    11 0.618701 -0.009931 0.000000 -0.785398 0.000000 0.000000
    12 -0.000003 -0.045880 -0.434408 0.000000 1.570796 0.000000
    13 0.000000 -0.407593 -0.045883 0.000000 0.000000 -1.570973
    14 -0.000002 -0.045882 0.340349 0.000000 -1.570460 0.000000
    15 0.000000 0.427942 -0.045883 0.000001 0.000000 1.570629
    16 -1.572389 0.220680 0.000000 0.000000 0.000000 -1.282047
    17 1.033914 -0.654510 0.906782 1.570797 -0.982795 -1.564396
    18 1.033878 -0.648745 -0.899195 1.570797 0.982794 -1.564396
    19 1.026259 0.541615 -0.895047 -1.570796 0.982794 1.577196
    20 1.026212 0.549078 0.904648 -1.570796 -0.982794 1.577100
    21 2.874126 -0.034192 1.057670 1.570796 0.789324 0.006400
    22 2.881649 0.715909 -0.754650 2.067742 -0.631794 -0.736436
    23 2.879878 0.715898 0.752527 1.067860 0.637028 -0.739986
    24 2.983432 -0.034143 -0.952297 1.570796 -0.782206 0.006400
    25 2.983687 -0.034141 0.952198 1.570796 0.789324 0.006400
    26 2.975584 0.637833 -0.668710 2.067742 -0.631794 -0.736436
    27 2.973814 0.637822 0.666587 1.067860 0.637028 -0.739986
    28 2.869965 -0.034194 -1.053863 1.570796 -0.782206 0.006400
    29 3.169655 0.883133 0.000000 0.000000 0.000000 0.006400
    30 0.005513 0.071422 0.607692 1.570797 -1.570796 0.000000
    31 2.728229 0.989643 0.000000 0.000000 0.000000 0.006400
    32 0.036764 -0.010612 -0.413052 1.309136 1.533943 0.222722
    33 0.005513 -0.018424 0.416280 -1.326226 -1.533943 -2.918781
    34 -0.324839 0.910493 0.000000 0.000000 0.000000 0.295150
    35 -3.179013 1.492042 -0.000001 0.000001 0.000000 -2.846443
    36 -1.913326 1.338252 0.551623 0.295134 -1.570317 0.000000
    37 -2.138676 2.346085 -0.000001 0.000000 0.000000 1.865946
    38 1.818063 0.466135 0.003944 1.570797 0.000001 1.570796
    39 0.143311 0.000001 1.271981 0.000000 0.000000 0.000000
    40 0.891296 0.000000 0.321762 0.000000 0.005117 0.000000
    41 1.818064 -0.578425 0.580762 -1.570795 -0.961963 -1.570797
    42 0.143312 0.000000 1.271981 0.000000 0.000000 0.000000
    43 0.891296 0.000000 0.321763 0.000000 0.005117 0.000000
    44 1.818063 -0.569498 -0.593872 -1.570796 0.955859 -1.570796
    45 0.143311 0.000000 1.271982 0.000000 0.000000 0.000000
    46 0.891297 0.000001 0.321763 0.000000 0.005117 0.000000
    47 -0.691148 -3.020236 0.046878 0.000000 0.000000 1.865945
    48 -0.002248 -0.869789 0.841686 -1.570796 -0.874057 -1.570796
    49 -0.002249 -0.869789 -0.845820 1.570796 2.267536 1.570796
    50 -0.002249 0.786466 -0.845820 -1.570796 2.267536 -1.570796
    51 -0.002248 0.786466 0.841685 1.570796 -0.874056 1.570796
    52 1.257180 8.762585 -0.153713 -1.570562 0.002683 -1.566807
    53 -0.347889 -2.560283 0.029560 -0.746140 0.229962 -0.362943
    54 0.039887 -1.479790 0.029854 -1.759312 0.000000 0.000001
    55 0.028786 -1.075731 -0.023109 -0.810791 0.000000 0.000000
    56 0.304716 -2.726912 -0.160269 -0.635149 0.204341 -0.294863
    57 -0.049759 -1.680544 0.100479 -1.781109 0.000000 -0.000002
    58 -0.034142 -1.148312 0.084782 -0.983659 0.000000 0.000000
    59 0.875732 -3.125698 -0.211399 0.215609 -0.014926 -0.035394
    60 -0.033420 -1.397129 -0.011257 -1.773707 0.000000 -0.000001
    61 -0.022360 -0.957436 0.018784 -0.683897 0.102384 -0.052996
    62 -0.993175 -2.593157 0.396003 -0.185516 0.194141 -0.191771
    63 -0.024967 -1.123934 0.017597 -1.928490 0.013147 -0.288660
    64 -0.020057 -0.890968 0.010090 -0.755224 0.000000 0.000000
    65 0.997585 -1.123056 0.138503 0.726976 -0.934910 -0.966623
    66 1.535927 0.010246 0.005009 0.045274 0.012536 -0.936292
    67 1.100771 0.004527 -0.010679 -0.022870 -0.253752 -0.827256
    68 -0.043915 -0.132304 -0.316216 -2.812193 5.925454 -1.395057
    69 -2.806002 -4.641398 -1.247415 -0.605721 -5.322668 0.236833
    70 0.096944 -8.450418 -0.009365 0.308081 -1.204013 0.335124
    71 0.447953 -2.798986 -0.200443 -0.405051 -0.173207 0.312319
    72 -0.032909 -1.480204 0.004940 -1.309596 0.000000 0.000002
    73 -0.027022 -1.076920 -0.020210 0.168442 0.000000 0.000000
    74 -0.249534 -2.846964 -0.174213 -0.171002 -0.089770 0.289110
    75 0.043235 -1.683941 0.096012 -1.549351 0.002823 -0.000167
    76 0.031729 -1.160830 0.058838 0.068761 0.000642 0.008372
    77 -0.963866 -2.785145 -0.085350 0.035043 0.089944 0.201956
    78 0.028479 -1.403067 0.006271 -1.285362 0.000000 0.000000
    79 0.021413 -0.957781 0.020046 -0.048312 0.000000 0.000000
    80 1.164475 -2.543940 -0.170330 -0.363571 -0.311871 0.210107
    81 0.024032 -1.129042 0.017807 -0.793235 0.000000 0.000001
    82 0.014898 -0.883989 -0.019848 -0.202298 0.000000 0.000000
    83 -0.586770 -1.264477 0.200161 -0.210673 -0.355487 -2.365980
    84 1.522835 0.058681 0.016848 0.025655 0.288010 0.598498
    85 1.117947 0.048424 -0.005766 0.027789 -0.079884 -0.363462
    86 -0.041740 -0.150762 -0.059824 0.806163 0.452927 1.371618
    87 -1.393470 8.839177 -0.239433 1.580804 -0.005023 -1.566847
  time 14
    0 1.098937 2.913680 -8.134375 0.002888 0.000000 -0.001390
    1 12.559731 -5.144504 0.078804 4.023530 -1.160845 1.473101
    2 -0.071918 -8.498732 -0.104136 0.322874 0.203879 -0.350249
    3 1.514942 -3.186424 0.666113 -0.419348 -0.107262 -3.451130
    4 -1.487204 -0.072218 0.000000 0.000000 0.000000 -1.275647
    5 1.379861 0.013026 0.000000 -0.018809 0.000000 0.000000
    6 1.091372 -0.009931 0.000000 0.000000 0.000000 0.000000
    7 -0.000004 -0.012830 -0.746234 0.000000 1.570460 0.000000
    8 -0.000002 -0.012831 0.743942 0.000000 -1.570460 0.000000
    9 0.000000 -0.758639 0.000000 0.000001 0.000124 -1.570921
    10 0.000000 0.740977 0.000000 0.000001 -0.000118 1.570678
    11 0.618701 -0.009931 0.000000 -0.785398 0.000000 0.000000
    12 -0.000003 -0.045880 -0.434408 0.000000 1.570796 0.000000
    13 0.000000 -0.407593 -0.045883 0.000000 0.000000 -1.570973
    14 -0.000002 -0.045882 0.340349 0.000000 -1.570460 0.000000
    15 0.000000 0.427942 -0.045883 0.000001 0.000000 1.570629
    16 -1.572389 0.220680 0.000000 0.000000 0.000000 -1.282047
    17 1.033914 -0.654510 0.906782 1.570797 -0.982795 -1.564396
    18 1.033878 -0.648745 -0.899195 1.570797 0.982794 -1.564396
    19 1.026259 0.541615 -0.895047 -1.570796 0.982794 1.577196
    20 1.026212 0.549078 0.904648 -1.570796 -0.982794 1.577100
    21 2.874126 -0.034192 1.057670 1.570796 0.789324 0.006400
    22 2.881649 0.715909 -0.754650 2.067742 -0.631794 -0.736436
    23 2.879878 0.715898 0.752527 1.067860 0.637028 -0.739986
    24 2.983432 -0.034143 -0.952297 1.570796 -0.782206 0.006400
    25 2.983687 -0.034141 0.952198 1.570796 0.789324 0.006400
    26 2.975584 0.637833 -0.668710 2.067742 -0.631794 -0.736436
    27 2.973814 0.637822 0.666587 1.067860 0.637028 -0.739986
    28 2.869965 -0.034194 -1.053863 1.570796 -0.782206 0.006400
    29 3.169655 0.883133 0.000000 0.000000 0.000000 0.006400
    30 0.005513 0.071422 0.607692 1.570797 -1.570796 0.000000
    31 2.728229 0.989643 0.000000 0.000000 0.000000 0.006400
    32 0.036764 -0.010612 -0.413052 1.309136 1.533943 0.222722
    33 0.005513 -0.018424 0.416280 -1.326314 -1.533943 -2.918781
    34 -0.328745 0.926119 0.000000 0.000000 0.000000 0.295150
    35 -3.179013 1.492042 -0.000001 0.000001 0.000000 -2.846443
    36 -1.913326 1.338252 0.551623 0.295134 -1.570317 0.000000
    37 -2.138676 2.346085 -0.000001 0.000000 0.000000 1.865946
    38 1.818063 0.466135 0.003944 1.570797 0.000001 1.570796
    39 0.135498 0.000001 1.482925 0.000000 0.000000 0.000000
    40 0.891296 0.000000 0.321762 0.000000 0.000000 0.000000
    41 1.818064 -0.578425 0.580762 -1.570795 -0.961963 -1.570797
    42 0.135499 0.000000 1.482925 0.000000 0.000000 0.000000
    43 0.891296 0.000000 0.321763 0.000000 0.000000 0.000000
    44 1.818063 -0.569498 -0.593872 -1.570796 0.955859 -1.570796
    45 0.135498 0.000000 1.482926 0.000000 0.000000 0.000000
    46 0.891297 0.000001 0.321763 0.000000 0.000000 0.000000
    47 -0.691148 -3.020236 0.046878 0.000000 0.000000 1.865945
    48 -0.002248 -0.869789 0.841686 -1.570796 -0.874057 -1.570796
    49 -0.002249 -0.869789 -0.845820 -1.570796 0.874099 -1.570796
    50 -0.002249 0.786466 -0.845820 -1.570796 2.267536 -1.570796
    51 -0.002248 0.786466 0.841685 1.570796 -0.874056 1.570796
    52 1.257180 8.762585 -0.153713 -1.570562 0.002683 -1.566807
    53 -0.347889 -2.560283 0.029560 -0.746140 0.229962 -0.362943
    54 0.039887 -1.479790 0.029854 -1.759312 0.000000 0.000001
    55 0.028786 -1.075731 -0.023109 -0.810791 0.000000 0.000000
    56 0.304716 -2.726912 -0.160269 -0.640854 0.204341 -0.294863
    57 -0.049759 -1.680544 0.100479 -1.781109 0.000000 -0.000002
    58 -0.034142 -1.148312 0.084782 -0.983659 0.000000 0.000000
    59 0.875732 -3.125698 -0.211399 0.247017 -0.017359 -0.034651
    60 -0.033420 -1.397129 -0.011257 -1.773707 0.000000 -0.000001
    61 -0.022360 -0.957436 0.018784 -0.730157 0.102384 -0.052996
    62 -0.993175 -2.593157 0.396003 -0.185516 0.194141 -0.191771
    63 -0.024967 -1.123934 0.017597 -1.928490 0.013147 -0.288660
    64 -0.020057 -0.890968 0.010090 -0.755224 0.000000 0.000000
    65 0.997585 -1.123056 0.138503 0.726976 -0.934910 -0.966623
    66 1.535927 0.010246 0.005009 0.045274 0.012536 -0.936292
    67 1.100771 0.004527 -0.010679 -0.016291 -0.269967 -0.851721
    68 -0.043915 -0.132304 -0.316216 -2.812193 5.925454 -1.395057
    69 -2.868504 -4.750776 -1.263041 -0.623287 -5.314617 0.229213
    70 0.096944 -8.450418 -0.009365 0.308081 -1.204013 0.335124
    71 0.447953 -2.798986 -0.200443 -0.405051 -0.173207 0.312319
    72 -0.032909 -1.480204 0.004940 -1.309596 0.000000 0.000002
    73 -0.027022 -1.076920 -0.020210 0.168442 0.000000 0.000000
    74 -0.249534 -2.846964 -0.174213 -0.171002 -0.089770 0.289110
    75 0.043235 -1.683941 0.096012 -1.549351 0.002823 -0.000167
    76 0.031729 -1.160830 0.058838 0.068761 0.000642 0.008372
    77 -0.963866 -2.785145 -0.085350 0.035043 0.089944 0.201956
    78 0.028479 -1.403067 0.006271 -1.285362 0.000000 0.000000
    79 0.021413 -0.957781 0.020046 -0.048312 0.000000 0.000000
    80 1.164475 -2.543940 -0.170330 -0.363571 -0.311871 0.210107
    81 0.024032 -1.129042 0.017807 -0.793235 0.000000 0.000001
    82 0.014898 -0.883989 -0.019848 -0.202298 0.000000 0.000000
    83 -0.586770 -1.264477 0.200161 -0.210673 -0.355487 -2.365980
    84 1.522835 0.058681 0.016848 0.025655 0.288010 0.598498
    85 1.117947 0.048424 -0.005766 0.027789 -0.079884 -0.363462
    86 -0.041740 -0.150762 -0.059824 0.806163 0.452927 1.371618
    87 -1.393470 8.839177 -0.239433 1.580804 -0.005023 -1.566847
  time 15
    0 1.102843 2.886336 -8.118749 0.000000 0.000000 0.000000
    1 12.559731 -5.144504 0.078804 4.023530 -1.160845 1.473101
    2 -0.071918 -8.498732 -0.104136 0.326740 0.202524 -0.345548
    3 1.514942 -3.186424 0.666113 -0.419348 -0.107262 -3.451130
    4 -1.487204 -0.072218 0.000000 0.000000 0.000000 -1.275647
    5 1.379861 0.013026 0.000000 0.000000 0.000000 0.000000
    6 1.091372 -0.009931 0.000000 0.000000 0.000000 0.000000
    7 -0.000004 -0.012830 -0.746234 0.000000 1.570796 0.000000
    8 -0.000002 -0.012831 0.743942 0.000000 -1.570460 0.000000
    9 0.000000 -0.758639 0.000000 0.000001 0.000124 -1.570921
    10 0.000000 0.740977 0.000000 0.000001 -0.000118 1.570678
    11 0.618701 -0.009931 0.000000 -0.785398 0.000000 0.000000
    12 -0.000003 -0.045880 -0.434408 0.000000 1.570460 0.000000
    13 0.000000 -0.407593 -0.045883 0.000000 0.000000 -1.570973
    14 -0.000002 -0.045882 0.340349 0.000000 -1.570460 0.000000
    15 0.000000 0.427942 -0.045883 0.000001 0.000000 1.570629
    16 -1.572389 0.220680 0.000000 0.000000 0.000000 -1.282047
    17 1.033914 -0.654510 0.906782 1.570797 -0.982795 -1.564396
    18 1.033878 -0.648745 -0.899195 1.570797 0.982794 -1.564396
    19 1.026259 0.541615 -0.895047 -1.570796 0.982794 1.577196
    20 1.026212 0.549078 0.904648 -1.570796 -0.982794 1.577100
    21 2.874126 -0.034192 1.057670 1.570796 0.789324 0.006400
    22 2.881649 0.715909 -0.754650 2.067742 -0.631794 -0.736436
    23 2.879878 0.715898 0.752527 1.067860 0.637028 -0.739986
    24 2.983432 -0.034143 -0.952297 1.570796 -0.782206 0.006400
    25 2.983687 -0.034141 0.952198 1.570796 0.789324 0.006400
    26 2.975584 0.637833 -0.668710 2.067742 -0.631794 -0.736436
    27 2.973814 0.637822 0.666587 1.067860 0.637028 -0.739986
    28 2.869965 -0.034194 -1.053863 1.570796 -0.782206 0.006400
    29 3.169655 0.883133 0.000000 0.000000 0.000000 0.006400
    30 0.005513 0.071422 0.607692 1.570797 -1.570796 0.000000
    31 2.728229 0.989643 0.000000 0.000000 0.000000 0.006400
    32 0.036764 -0.010612 -0.413052 1.309124 1.533943 0.222722
    33 0.005513 -0.018424 0.416280 -1.326226 -1.533943 -2.918781
    34 -0.328745 0.930025 0.000000 0.000000 0.000000 0.295150
    35 -3.179013 1.492042 -0.000001 0.000001 0.000000 -2.846443
    36 -1.913326 1.338252 0.551623 0.295134 -1.570317 0.000000
    37 -2.138676 2.346085 -0.000001 0.000000 0.000000 1.865946
    38 1.818063 0.466135 0.003944 1.570797 0.000001 1.570796
    39 0.135498 0.000001 1.482925 0.000000 0.000000 0.000000
    40 0.891296 0.000000 0.321762 0.000000 0.000000 0.000000
    41 1.818064 -0.578425 0.580762 -1.570795 -0.961963 -1.570797
    42 0.135499 0.000000 1.482925 0.000000 0.000000 0.000000
    43 0.891296 0.000000 0.321763 0.000000 0.000000 0.000000
    44 1.818063 -0.569498 -0.593872 -1.570796 0.955859 -1.570796
    45 0.135498 0.000000 1.482926 0.000000 0.000000 0.000000
    46 0.891297 0.000001 0.321763 0.000000 0.000000 0.000000
    47 -0.691148 -3.020236 0.046878 0.000000 0.000000 1.865945
    48 -0.002248 -0.869789 0.841686 -1.570796 -0.874057 -1.570796
    49 -0.002249 -0.869789 -0.845820 1.570796 2.267536 1.570796
    50 -0.002249 0.786466 -0.845820 -1.570796 2.267536 -1.570796
    51 -0.002248 0.786466 0.841685 1.570796 -0.874056 1.570796
    52 1.257180 8.762585 -0.153713 -1.570562 0.002683 -1.566807
    53 -0.347889 -2.560283 0.029560 -0.746140 0.229962 -0.362943
    54 0.039887 -1.479790 0.029854 -1.759312 0.000000 0.000001
    55 0.028786 -1.075731 -0.023109 -0.810791 0.000000 0.000000
    56 0.304716 -2.726912 -0.160269 -0.642944 0.204341 -0.294863
    57 -0.049759 -1.680544 0.100479 -1.781109 0.000000 -0.000002
    58 -0.034142 -1.148312 0.084782 -0.983659 0.000000 0.000000
    59 0.875732 -3.125698 -0.211399 0.258192 -0.018222 -0.034387
    60 -0.033420 -1.397129 -0.011257 -1.773707 0.000000 -0.000001
    61 -0.022360 -0.957436 0.018784 -0.747703 0.102384 -0.052996
    62 -0.993175 -2.593157 0.396003 -0.185516 0.194141 -0.191771
    63 -0.024967 -1.123934 0.017597 -1.928490 0.013147 -0.288660
    64 -0.020057 -0.890968 0.010090 -0.755224 0.000000 0.000000
    65 0.997585 -1.123056 0.138503 0.726976 -0.934910 -0.966623
    66 1.535927 0.010246 0.005009 0.045274 0.012536 -0.936292
    67 1.100771 0.004527 -0.010679 -0.013954 -0.275732 -0.860395
    68 -0.043915 -0.132304 -0.316216 -2.812193 5.925454 -1.395057
    69 -2.891943 -4.793746 -1.270853 -0.630142 -5.311534 0.226164
    70 0.096944 -8.450418 -0.009365 0.308081 -1.204013 0.335124
    71 0.447953 -2.798986 -0.200443 -0.405051 -0.173207 0.312319
    72 -0.032909 -1.480204 0.004940 -1.309596 0.000000 0.000002
    73 -0.027022 -1.076920 -0.020210 0.168442 0.000000 0.000000
    74 -0.249534 -2.846964 -0.174213 -0.171002 -0.089770 0.289110
    75 0.043235 -1.683941 0.096012 -1.549351 0.002823 -0.000167
    76 0.031729 -1.160830 0.058838 0.068761 0.000642 0.008372
    77 -0.963866 -2.785145 -0.085350 0.035043 0.089944 0.201956
    78 0.028479 -1.403067 0.006271 -1.285362 0.000000 0.000000
    79 0.021413 -0.957781 0.020046 -0.048312 0.000000 0.000000
    80 1.164475 -2.543940 -0.170330 -0.363571 -0.311871 0.210107
    81 0.024032 -1.129042 0.017807 -0.793235 0.000000 0.000001
    82 0.014898 -0.883989 -0.019848 -0.202298 0.000000 0.000000
    83 -0.586770 -1.264477 0.200161 -0.210673 -0.355487 -2.365980
    84 1.522835 0.058681 0.016848 0.025655 0.288010 0.598498
    85 1.117947 0.048424 -0.005766 0.027789 -0.079884 -0.363462
    86 -0.041740 -0.150762 -0.059824 0.806163 0.452927 1.371618
    87 -1.393470 8.839177 -0.239433 1.580804 -0.005023 -1.566847
end
