version 1
nodes
  0 "root" -1
  1 "Bone01" 0
  2 "Bone_Lefthand" 1
  3 "Dummy01" 2
  4 "Bone02" 3
  5 "Bone16" 4
  6 "Bone24" 4
  7 "Bone03" 4
  8 "Bone20" 4
  9 "Dummy02" 4
  10 "Bone08" 9
  11 "Bone12" 9
  12 "Bone25" 4
  13 "Bone_L_Upper" 1
  14 "Bone13" 2
  15 "Bone14" 14
  16 "Bone15" 15
  17 "Bone17" 2
  18 "Bone18" 17
  19 "Bone19" 18
  20 "Bone21" 2
  21 "Bone22" 20
  22 "Bone23" 21
  23 "Bone09" 2
  24 "Bone10" 23
  25 "Bone11" 24
  26 "Bone05" 2
  27 "Bone06" 26
  28 "Bone07" 27
  29 "Bone_Se_Hand-L" 2
  30 "Bone04" 0
  31 "Bone_Righthand" 30
  32 "Bone39" 31
  33 "Bone40" 32
  34 "Bone41" 33
  35 "Bone35" 31
  36 "Bone36" 35
  37 "Bone37" 36
  38 "Bone31" 31
  39 "Bone32" 38
  40 "Bone33" 39
  41 "Bone43" 31
  42 "Bone44" 41
  43 "Bone45" 42
  44 "Bone27" 31
  45 "Bone28" 44
  46 "Bone29" 45
  47 "Bone_Se_Hand-R" 31
  48 "Bone_R_Upper" 30
end
skeleton
  time 0
    0 -0.349500 2.779476 -0.357537 0.000000 0.000000 0.000000
    1 11.839999 2.345011 -9.281898 1.414705 -1.179424 4.189566
    2 -0.071919 -8.498730 -0.104136 0.222400 0.086221 -0.245563
    3 3.363867 -1.495543 0.626345 0.088531 0.124697 -1.545787
    4 0.200318 -0.000001 0.000000 0.000000 0.000000 0.000000
    5 2.787795 -1.741218 0.000000 0.000000 0.000000 -1.570796
    6 6.069544 0.277893 0.632407 -1.570797 -1.570796 0.000000
    7 7.898976 3.954085 -0.001494 0.000001 0.000000 1.570797
    8 0.648045 4.007680 -0.001494 0.000001 0.000000 1.570797
    9 5.223319 -3.605453 0.000000 0.000000 0.000000 -1.570796
    10 0.000000 0.000000 0.000000 0.000001 0.000000 0.000000
    11 10.206235 0.000004 0.000002 0.000000 0.000000 0.000000
    12 3.542382 -3.061673 0.000000 0.000001 0.000000 -1.570796
    13 1.257180 8.762585 -0.153713 -1.570562 0.002683 -1.566807
    14 -0.488518 -2.755602 -0.228260 -1.030852 -0.134082 -0.416251
    15 0.039887 -1.479790 0.029854 -2.301996 0.000000 0.000001
    16 0.028786 -1.075731 -0.023109 -0.271941 0.000000 0.000000
    17 0.250027 -2.820665 -0.238396 -0.636386 -0.105209 -0.434549
    18 -0.049759 -1.680544 0.100479 -2.367108 0.000000 -0.000002
    19 -0.034142 -1.148312 0.084782 -0.535851 0.000000 0.000000
    20 0.957766 -2.746780 -0.090302 0.329300 -0.172344 0.119866
    21 -0.033420 -1.397129 -0.011257 -1.115613 0.000000 -0.000001
    22 -0.022360 -0.957436 0.018784 -1.148790 0.000000 0.000000
    23 -1.180681 -2.507217 -0.193859 -1.049561 -0.031145 -0.514372
    24 -0.024967 -1.123934 0.017597 -1.975756 0.000000 0.000001
    25 -0.020057 -0.890968 0.010090 -0.444208 0.000000 0.000000
    26 0.583510 -1.197277 0.185379 0.371183 -0.693166 -0.903076
    27 1.535927 0.010246 0.005009 -0.002964 -0.012979 -0.682290
    28 1.100771 0.004527 -0.010679 -0.016147 -0.001453 -1.484153
    29 0.120153 -0.050270 -0.054489 0.287569 3.110905 1.561085
    30 -2.013010 0.608762 -13.341534 -0.444217 -3.626602 0.197102
    31 0.096944 -8.450418 -0.009365 0.015249 -0.365432 0.224749
    32 0.447953 -2.798986 -0.200443 -0.663826 0.042804 0.170619
    33 -0.032909 -1.480204 0.004940 -1.505896 0.000000 0.000002
    34 -0.027022 -1.076920 -0.020210 -1.324913 0.000000 0.000000
    35 -0.249534 -2.846964 -0.174213 0.050685 -0.004116 0.206560
    36 0.043235 -1.683941 0.096012 -1.638272 0.002823 -0.000167
    37 0.031729 -1.160830 0.058838 -1.199316 0.000642 0.008372
    38 -0.963866 -2.785145 -0.085350 0.085357 0.060155 0.185863
    39 0.028479 -1.403067 0.006271 -1.337874 0.000000 0.000000
    40 0.021413 -0.957781 0.020046 -1.052173 0.000000 0.000000
    41 1.164475 -2.543940 -0.170330 -0.990317 -0.015463 0.162810
    42 0.024032 -1.129042 0.017807 -1.536823 0.000000 0.000001
    43 0.014898 -0.883989 -0.019848 -1.130928 0.000000 0.000000
    44 -0.586770 -1.264477 0.200161 0.526929 -0.658806 -2.506176
    45 1.522835 0.058681 0.016848 0.001410 0.008985 0.955998
    46 1.117947 0.048424 -0.005766 -0.021683 -0.012842 1.092130
    47 -0.139399 -0.111698 0.014397 0.668541 0.088632 1.606227
    48 -6.260806 6.983652 -0.294122 1.580804 -0.005023 -0.912799
  time 1
    0 -0.349500 2.779476 -0.357537 0.000000 0.000000 0.000000
    1 11.746246 1.684835 -8.746725 1.431946 -1.198497 4.183229
    2 -0.071919 -8.498730 -0.104136 0.222400 0.086221 -0.245563
    3 3.363867 -1.495543 0.626345 0.088531 0.124697 -1.545787
    4 0.200318 -0.000001 0.000000 0.000000 0.000000 0.000000
    5 2.787795 -1.741218 0.000000 0.000000 0.000000 -1.570796
    6 6.069544 0.277893 0.632407 -1.570797 -1.570796 0.000000
    7 7.898976 3.954085 -0.001494 0.000001 0.000000 1.570797
    8 0.648045 4.007680 -0.001494 0.000001 0.000000 1.570797
    9 5.223319 -3.605453 0.000000 0.000000 0.000000 -1.570796
    10 0.000000 0.000000 0.000000 0.000001 0.000000 0.000000
    11 10.206235 0.000004 0.000002 0.000000 0.000000 0.000000
    12 3.542382 -3.061673 0.000000 0.000001 0.000000 -1.570796
    13 1.257180 8.762585 -0.153713 -1.570562 0.002683 -1.566807
    14 -0.488518 -2.755602 -0.228260 -1.030852 -0.134082 -0.416251
    15 0.039887 -1.479790 0.029854 -2.301996 0.000000 0.000001
    16 0.028786 -1.075731 -0.023109 -0.271941 0.000000 0.000000
    17 0.250027 -2.820665 -0.238396 -0.636386 -0.105209 -0.434549
    18 -0.049759 -1.680544 0.100479 -2.367108 0.000000 -0.000002
    19 -0.034142 -1.148312 0.084782 -0.535851 0.000000 0.000000
    20 0.957766 -2.746780 -0.090302 0.329300 -0.172344 0.119866
    21 -0.033420 -1.397129 -0.011257 -1.115613 0.000000 -0.000001
    22 -0.022360 -0.957436 0.018784 -1.148790 0.000000 0.000000
    23 -1.180681 -2.507217 -0.193859 -1.049561 -0.031145 -0.514372
    24 -0.024967 -1.123934 0.017597 -1.975756 0.000000 0.000001
    25 -0.020057 -0.890968 0.010090 -0.444208 0.000000 0.000000
    26 0.583510 -1.197277 0.185379 0.371183 -0.693166 -0.903076
    27 1.535927 0.010246 0.005009 -0.002964 -0.012979 -0.682290
    28 1.100771 0.004527 -0.010679 -0.016147 -0.001453 -1.484153
    29 0.120153 -0.050270 -0.054489 0.287569 3.110905 1.561085
    30 -2.106762 -0.360017 -12.669639 -0.390530 -3.612200 0.230193
    31 0.096944 -8.450418 -0.009365 -0.007520 -0.370348 0.246585
    32 0.447953 -2.798986 -0.200443 -0.663826 0.042804 0.170619
    33 -0.032909 -1.480204 0.004940 -1.505896 0.000000 0.000002
    34 -0.027022 -1.076920 -0.020210 -1.324913 0.000000 0.000000
    35 -0.249534 -2.846964 -0.174213 0.050685 -0.004116 0.206560
    36 0.043235 -1.683941 0.096012 -1.617121 0.002823 -0.000167
    37 0.031729 -1.160830 0.058838 -1.186736 0.000642 0.008372
    38 -0.963866 -2.785145 -0.085350 0.088482 0.060155 0.185863
    39 0.028479 -1.403067 0.006271 -1.321967 0.000000 0.000000
    40 0.021413 -0.957781 0.020046 -1.035317 0.000000 0.000000
    41 1.164475 -2.543940 -0.170330 -0.990317 -0.015463 0.162810
    42 0.024032 -1.129042 0.017807 -1.536823 0.000000 0.000001
    43 0.014898 -0.883989 -0.019848 -1.130928 0.000000 0.000000
    44 -0.586770 -1.264477 0.200161 0.526929 -0.658806 -2.506176
    45 1.522835 0.058681 0.016848 0.001410 0.008985 0.955998
    46 1.117947 0.048424 -0.005766 -0.021683 -0.012842 1.092130
    47 -0.139399 -0.111698 0.014397 0.668541 0.088632 1.606227
    48 -6.260806 6.983652 -0.294122 1.580804 -0.005023 -0.912799
  time 2
    0 -0.349500 2.779476 -0.357537 0.000000 0.000000 0.000000
    1 11.656399 1.040284 -8.215459 1.449187 -1.217262 4.176530
    2 -0.071919 -8.498730 -0.104136 0.222400 0.086221 -0.245563
    3 3.363867 -1.495543 0.626345 0.088531 0.124697 -1.545787
    4 0.200318 -0.000001 0.000000 0.000000 0.000000 0.000000
    5 2.787795 -1.741218 0.000000 0.000000 0.000000 -1.570796
    6 6.069544 0.277893 0.632407 -1.570797 -1.570796 0.000000
    7 7.898976 3.954085 -0.001494 0.000001 0.000000 1.570797
    8 0.648045 4.007680 -0.001494 0.000001 0.000000 1.570797
    9 5.223319 -3.605453 0.000000 0.000000 0.000000 -1.570796
    10 0.000000 0.000000 0.000000 0.000001 0.000000 0.000000
    11 10.206235 0.000004 0.000002 0.000000 0.000000 0.000000
    12 3.542382 -3.061673 0.000000 0.000001 0.000000 -1.570796
    13 1.257180 8.762585 -0.153713 -1.570562 0.002683 -1.566807
    14 -0.488518 -2.755602 -0.228260 -1.030852 -0.134082 -0.416251
    15 0.039887 -1.479790 0.029854 -2.301996 0.000000 0.000001
    16 0.028786 -1.075731 -0.023109 -0.271941 0.000000 0.000000
    17 0.250027 -2.820665 -0.238396 -0.636386 -0.105209 -0.434549
    18 -0.049759 -1.680544 0.100479 -2.367108 0.000000 -0.000002
    19 -0.034142 -1.148312 0.084782 -0.535851 0.000000 0.000000
    20 0.957766 -2.746780 -0.090302 0.329300 -0.172344 0.119866
    21 -0.033420 -1.397129 -0.011257 -1.115613 0.000000 -0.000001
    22 -0.022360 -0.957436 0.018784 -1.148790 0.000000 0.000000
    23 -1.180681 -2.507217 -0.193859 -1.049561 -0.031145 -0.514372
    24 -0.024967 -1.123934 0.017597 -1.975756 0.000000 0.000001
    25 -0.020057 -0.890968 0.010090 -0.444208 0.000000 0.000000
    26 0.583510 -1.197277 0.185379 0.371183 -0.693166 -0.903076
    27 1.535927 0.010246 0.005009 -0.002964 -0.012979 -0.682290
    28 1.100771 0.004527 -0.010679 -0.016147 -0.001453 -1.484153
    29 0.120153 -0.050270 -0.054489 0.287569 3.110905 1.561085
    30 -2.196609 -1.305359 -11.997743 -0.337044 -3.597351 0.262150
    31 0.096944 -8.450418 -0.009365 -0.032979 -0.375243 0.271008
    32 0.447953 -2.798986 -0.200443 -0.663826 0.042804 0.170619
    33 -0.032909 -1.480204 0.004940 -1.505896 0.000000 0.000002
    34 -0.027022 -1.076920 -0.020210 -1.324913 0.000000 0.000000
    35 -0.249534 -2.846964 -0.174213 0.050685 -0.004116 0.206560
    36 0.043235 -1.683941 0.096012 -1.558172 0.002823 -0.000167
    37 0.031729 -1.160830 0.058838 -1.151697 0.000642 0.008372
    38 -0.963866 -2.785145 -0.085350 0.097178 0.060155 0.185863
    39 0.028479 -1.403067 0.006271 -1.277714 0.000000 0.000000
    40 0.021413 -0.957781 0.020046 -0.988329 0.000000 0.000000
    41 1.164475 -2.543940 -0.170330 -0.990317 -0.015463 0.162810
    42 0.024032 -1.129042 0.017807 -1.536823 0.000000 0.000001
    43 0.014898 -0.883989 -0.019848 -1.130928 0.000000 0.000000
    44 -0.586770 -1.264477 0.200161 0.526929 -0.658806 -2.506176
    45 1.522835 0.058681 0.016848 0.001410 0.008985 0.955998
    46 1.117947 0.048424 -0.005766 -0.021683 -0.012842 1.092130
    47 -0.139399 -0.111698 0.014397 0.668541 0.088632 1.606227
    48 -6.260806 6.983652 -0.294122 1.580804 -0.005023 -0.912799
  time 3
    0 -0.349500 2.779476 -0.357537 0.000000 0.000000 0.000000
    1 11.558740 0.434797 -7.695912 1.467666 -1.235972 4.168654
    2 -0.071919 -8.498730 -0.104136 0.222400 0.086221 -0.245563
    3 3.363867 -1.495543 0.626345 0.088531 0.124697 -1.545787
    4 0.200318 -0.000001 0.000000 0.000000 0.000000 0.000000
    5 2.787795 -1.741218 0.000000 0.000000 0.000000 -1.570796
    6 6.069544 0.277893 0.632407 -1.570797 -1.570796 0.000000
    7 7.898976 3.954085 -0.001494 0.000001 0.000000 1.570797
    8 0.648045 4.007680 -0.001494 0.000001 0.000000 1.570797
    9 5.223319 -3.605453 0.000000 0.000000 0.000000 -1.570796
    10 0.000000 0.000000 0.000000 0.000001 0.000000 0.000000
    11 10.206235 0.000004 0.000002 0.000000 0.000000 0.000000
    12 3.542382 -3.061673 0.000000 0.000001 0.000000 -1.570796
    13 1.257180 8.762585 -0.153713 -1.570562 0.002683 -1.566807
    14 -0.488518 -2.755602 -0.228260 -1.030852 -0.134082 -0.416251
    15 0.039887 -1.479790 0.029854 -2.301996 0.000000 0.000001
    16 0.028786 -1.075731 -0.023109 -0.271941 0.000000 0.000000
    17 0.250027 -2.820665 -0.238396 -0.636386 -0.105209 -0.434549
    18 -0.049759 -1.680544 0.100479 -2.367108 0.000000 -0.000002
    19 -0.034142 -1.148312 0.084782 -0.535851 0.000000 0.000000
    20 0.957766 -2.746780 -0.090302 0.329300 -0.172344 0.119866
    21 -0.033420 -1.397129 -0.011257 -1.115613 0.000000 -0.000001
    22 -0.022360 -0.957436 0.018784 -1.148790 0.000000 0.000000
    23 -1.180681 -2.507217 -0.193859 -1.049561 -0.031145 -0.514372
    24 -0.024967 -1.123934 0.017597 -1.975756 0.000000 0.000001
    25 -0.020057 -0.890968 0.010090 -0.444208 0.000000 0.000000
    26 0.583510 -1.197277 0.185379 0.371183 -0.693166 -0.903076
    27 1.535927 0.010246 0.005009 -0.002964 -0.012979 -0.682290
    28 1.100771 0.004527 -0.010679 -0.016147 -0.001453 -1.484153
    29 0.120153 -0.050270 -0.054489 0.287569 3.110905 1.561085
    30 -2.282549 -2.207730 -11.325848 -0.283558 -3.581955 0.293350
    31 0.096944 -8.450418 -0.009365 -0.060414 -0.379841 0.297328
    32 0.447953 -2.798986 -0.200443 -0.663826 0.042804 0.170619
    33 -0.032909 -1.480204 0.004940 -1.505896 0.000000 0.000002
    34 -0.027022 -1.076920 -0.020210 -1.324913 0.000000 0.000000
    35 -0.249534 -2.846964 -0.174213 0.050685 -0.004116 0.206560
    36 0.043235 -1.683941 0.096012 -1.468305 0.002823 -0.000167
    37 0.031729 -1.160830 0.058838 -1.098318 0.000642 0.008372
    38 -0.963866 -2.785145 -0.085350 0.110482 0.060155 0.185863
    39 0.028479 -1.403067 0.006271 -1.210209 0.000000 0.000000
    40 0.021413 -0.957781 0.020046 -0.916717 0.000000 0.000000
    41 1.164475 -2.543940 -0.170330 -0.990317 -0.015463 0.162810
    42 0.024032 -1.129042 0.017807 -1.536823 0.000000 0.000001
    43 0.014898 -0.883989 -0.019848 -1.130928 0.000000 0.000000
    44 -0.586770 -1.264477 0.200161 0.526929 -0.658806 -2.506176
    45 1.522835 0.058681 0.016848 0.001410 0.008985 0.955998
    46 1.117947 0.048424 -0.005766 -0.021683 -0.012842 1.092130
    47 -0.139399 -0.111698 0.014397 0.668541 0.088632 1.606227
    48 -6.260806 6.983652 -0.294122 1.580804 -0.005023 -0.912799
  time 4
    0 -0.349500 2.779476 -0.357537 0.000000 0.000000 0.000000
    1 11.464987 -0.112095 -7.191990 1.489193 -1.254877 4.157881
    2 -0.071919 -8.498730 -0.104136 0.222400 0.086221 -0.245563
    3 3.363867 -1.495543 0.626345 0.088531 0.124697 -1.545787
    4 0.200318 -0.000001 0.000000 0.000000 0.000000 0.000000
    5 2.787795 -1.741218 0.000000 0.000000 0.000000 -1.570796
    6 6.069544 0.277893 0.632407 -1.570797 -1.570796 0.000000
    7 7.898976 3.954085 -0.001494 0.000001 0.000000 1.570797
    8 0.648045 4.007680 -0.001494 0.000001 0.000000 1.570797
    9 5.223319 -3.605453 0.000000 0.000000 0.000000 -1.570796
    10 0.000000 0.000000 0.000000 0.000001 0.000000 0.000000
    11 10.206235 0.000004 0.000002 0.000000 0.000000 0.000000
    12 3.542382 -3.061673 0.000000 0.000001 0.000000 -1.570796
    13 1.257180 8.762585 -0.153713 -1.570562 0.002683 -1.566807
    14 -0.488518 -2.755602 -0.228260 -1.030852 -0.134082 -0.416251
    15 0.039887 -1.479790 0.029854 -2.301996 0.000000 0.000001
    16 0.028786 -1.075731 -0.023109 -0.271941 0.000000 0.000000
    17 0.250027 -2.820665 -0.238396 -0.636386 -0.105209 -0.434549
    18 -0.049759 -1.680544 0.100479 -2.367108 0.000000 -0.000002
    19 -0.034142 -1.148312 0.084782 -0.535851 0.000000 0.000000
    20 0.957766 -2.746780 -0.090302 0.329300 -0.172344 0.119866
    21 -0.033420 -1.397129 -0.011257 -1.115613 0.000000 -0.000001
    22 -0.022360 -0.957436 0.018784 -1.148790 0.000000 0.000000
    23 -1.180681 -2.507217 -0.193859 -1.049561 -0.031145 -0.514372
    24 -0.024967 -1.123934 0.017597 -1.975756 0.000000 0.000001
    25 -0.020057 -0.890968 0.010090 -0.444208 0.000000 0.000000
    26 0.583510 -1.197277 0.185379 0.371183 -0.693166 -0.903076
    27 1.535927 0.010246 0.005009 -0.002964 -0.012979 -0.682290
    28 1.100771 0.004527 -0.010679 -0.016147 -0.001453 -1.484153
    29 0.120153 -0.050270 -0.054489 0.287569 3.110905 1.561085
    30 -2.364583 -3.051506 -10.661765 -0.229870 -3.565815 0.324078
    31 0.096944 -8.450418 -0.009365 -0.089030 -0.383900 0.324811
    32 0.447953 -2.798986 -0.200443 -0.663826 0.042804 0.170619
    33 -0.032909 -1.480204 0.004940 -1.505896 0.000000 0.000002
    34 -0.027022 -1.076920 -0.020210 -1.324913 0.000000 0.000000
    35 -0.249534 -2.846964 -0.174213 0.050685 -0.004116 0.206560
    36 0.043235 -1.683941 0.096012 -1.354454 0.002823 -0.000167
    37 0.031729 -1.160830 0.058838 -1.030631 0.000642 0.008372
    38 -0.963866 -2.785145 -0.085350 0.127312 0.060155 0.185863
    39 0.028479 -1.403067 0.006271 -1.124634 0.000000 0.000000
    40 0.021413 -0.957781 0.020046 -0.825963 0.000000 0.000000
    41 1.164475 -2.543940 -0.170330 -0.990317 -0.015463 0.162810
    42 0.024032 -1.129042 0.017807 -1.536823 0.000000 0.000001
    43 0.014898 -0.883989 -0.019848 -1.130928 0.000000 0.000000
    44 -0.586770 -1.264477 0.200161 0.526929 -0.658806 -2.506176
    45 1.522835 0.058681 0.016848 0.001410 0.008985 0.955998
    46 1.117947 0.048424 -0.005766 -0.021683 -0.012842 1.092130
    47 -0.139399 -0.111698 0.014397 0.668541 0.088632 1.606227
    48 -6.260806 6.983652 -0.294122 1.580804 -0.005023 -0.912799
  time 5
    0 -0.349500 2.779476 -0.357537 0.000000 0.000000 0.000000
    1 11.363422 -0.588672 -6.711507 1.515674 -1.274230 4.142311
    2 -0.071919 -8.498730 -0.104136 0.222400 0.086221 -0.245563
    3 3.363867 -1.495543 0.626345 0.088531 0.124697 -1.545787
    4 0.200318 -0.000001 0.000000 0.000000 0.000000 0.000000
    5 2.787795 -1.741218 0.000000 0.000000 0.000000 -1.570796
    6 6.069544 0.277893 0.632407 -1.570797 -1.570796 0.000000
    7 7.898976 3.954085 -0.001494 0.000001 0.000000 1.570797
    8 0.648045 4.007680 -0.001494 0.000001 0.000000 1.570797
    9 5.223319 -3.605453 0.000000 0.000000 0.000000 -1.570796
    10 0.000000 0.000000 0.000000 0.000001 0.000000 0.000000
    11 10.206235 0.000004 0.000002 0.000000 0.000000 0.000000
    12 3.542382 -3.061673 0.000000 0.000001 0.000000 -1.570796
    13 1.257180 8.762585 -0.153713 -1.570562 0.002683 -1.566807
    14 -0.488518 -2.755602 -0.228260 -1.030852 -0.134082 -0.416251
    15 0.039887 -1.479790 0.029854 -2.301996 0.000000 0.000001
    16 0.028786 -1.075731 -0.023109 -0.271941 0.000000 0.000000
    17 0.250027 -2.820665 -0.238396 -0.636386 -0.105209 -0.434549
    18 -0.049759 -1.680544 0.100479 -2.367108 0.000000 -0.000002
    19 -0.034142 -1.148312 0.084782 -0.535851 0.000000 0.000000
    20 0.957766 -2.746780 -0.090302 0.329300 -0.172344 0.119866
    21 -0.033420 -1.397129 -0.011257 -1.115613 0.000000 -0.000001
    22 -0.022360 -0.957436 0.018784 -1.148790 0.000000 0.000000
    23 -1.180681 -2.507217 -0.193859 -1.049561 -0.031145 -0.514372
    24 -0.024967 -1.123934 0.017597 -1.975756 0.000000 0.000001
    25 -0.020057 -0.890968 0.010090 -0.444208 0.000000 0.000000
    26 0.583510 -1.197277 0.185379 0.371183 -0.693166 -0.903076
    27 1.535927 0.010246 0.005009 -0.002964 -0.012979 -0.682290
    28 1.100771 0.004527 -0.010679 -0.016147 -0.001453 -1.484153
    29 0.120153 -0.050270 -0.054489 0.287569 3.110905 1.561085
    30 -2.442710 -3.821061 -10.017214 -0.175846 -3.548731 0.354521
    31 0.096944 -8.450418 -0.009365 -0.118071 -0.387244 0.352691
    32 0.447953 -2.798986 -0.200443 -0.663826 0.042804 0.170619
    33 -0.032909 -1.480204 0.004940 -1.505896 0.000000 0.000002
    34 -0.027022 -1.076920 -0.020210 -1.324913 0.000000 0.000000
    35 -0.249534 -2.846964 -0.174213 0.050685 -0.004116 0.206560
    36 0.043235 -1.683941 0.096012 -1.223398 0.002823 -0.000167
    37 0.031729 -1.160830 0.058838 -0.952756 0.000642 0.008372
    38 -0.963866 -2.785145 -0.085350 0.146666 0.060155 0.185863
    39 0.028479 -1.403067 0.006271 -1.026170 0.000000 0.000000
    40 0.021413 -0.957781 0.020046 -0.721511 0.000000 0.000000
    41 1.164475 -2.543940 -0.170330 -0.990317 -0.015463 0.162810
    42 0.024032 -1.129042 0.017807 -1.536823 0.000000 0.000001
    43 0.014898 -0.883989 -0.019848 -1.130928 0.000000 0.000000
    44 -0.586770 -1.264477 0.200161 0.526929 -0.658806 -2.506176
    45 1.522835 0.058681 0.016848 0.001410 0.008985 0.955998
    46 1.117947 0.048424 -0.005766 -0.021683 -0.012842 1.092130
    47 -0.139399 -0.111698 0.014397 0.668541 0.088632 1.606227
    48 -6.260806 6.983652 -0.294122 1.580804 -0.005023 -0.912799
  time 6
    0 -0.349500 2.779476 -0.357537 0.000000 0.000000 0.000000
    1 11.261856 -0.971496 -6.262274 1.549965 -1.294172 4.119498
    2 -0.071919 -8.498730 -0.104136 0.222400 0.086221 -0.245563
    3 3.363867 -1.495543 0.626345 0.088531 0.124697 -1.545787
    4 0.200318 -0.000001 0.000000 0.000000 0.000000 0.000000
    5 2.787795 -1.741218 0.000000 0.000000 0.000000 -1.570796
    6 6.069544 0.277893 0.632407 -1.570797 -1.570796 0.000000
    7 7.898976 3.954085 -0.001494 0.000001 0.000000 1.570797
    8 0.648045 4.007680 -0.001494 0.000001 0.000000 1.570797
    9 5.223319 -3.605453 0.000000 0.000000 0.000000 -1.570796
    10 0.000000 0.000000 0.000000 0.000001 0.000000 0.000000
    11 10.206235 0.000004 0.000002 0.000000 0.000000 0.000000
    12 3.542382 -3.061673 0.000000 0.000001 0.000000 -1.570796
    13 1.257180 8.762585 -0.153713 -1.570562 0.002683 -1.566807
    14 -0.488518 -2.755602 -0.228260 -1.030852 -0.134082 -0.416251
    15 0.039887 -1.479790 0.029854 -2.301996 0.000000 0.000001
    16 0.028786 -1.075731 -0.023109 -0.271941 0.000000 0.000000
    17 0.250027 -2.820665 -0.238396 -0.636386 -0.105209 -0.434549
    18 -0.049759 -1.680544 0.100479 -2.367108 0.000000 -0.000002
    19 -0.034142 -1.148312 0.084782 -0.535851 0.000000 0.000000
    20 0.957766 -2.746780 -0.090302 0.329300 -0.172344 0.119866
    21 -0.033420 -1.397129 -0.011257 -1.115613 0.000000 -0.000001
    22 -0.022360 -0.957436 0.018784 -1.148790 0.000000 0.000000
    23 -1.180681 -2.507217 -0.193859 -1.049561 -0.031145 -0.514372
    24 -0.024967 -1.123934 0.017597 -1.975756 0.000000 0.000001
    25 -0.020057 -0.890968 0.010090 -0.444208 0.000000 0.000000
    26 0.583510 -1.197277 0.185379 0.371183 -0.693166 -0.903076
    27 1.535927 0.010246 0.005009 -0.002964 -0.012979 -0.682290
    28 1.100771 0.004527 -0.010679 -0.016147 -0.001453 -1.484153
    29 0.120153 -0.050270 -0.054489 0.287569 3.110905 1.561085
    30 -2.513025 -4.492956 -9.396101 -0.121318 -3.530480 0.384871
    31 0.096944 -8.450418 -0.009365 -0.146714 -0.389811 0.380205
    32 0.447953 -2.798986 -0.200443 -0.663826 0.042804 0.170619
    33 -0.032909 -1.480204 0.004940 -1.505896 0.000000 0.000002
    34 -0.027022 -1.076920 -0.020210 -1.324913 0.000000 0.000000
    35 -0.249534 -2.846964 -0.174213 0.050685 -0.004116 0.206560
    36 0.043235 -1.683941 0.096012 -1.082020 0.002823 -0.000167
    37 0.031729 -1.160830 0.058838 -0.868768 0.000642 0.008372
    38 -0.963866 -2.785145 -0.085350 0.167544 0.060155 0.185863
    39 0.028479 -1.403067 0.006271 -0.920000 0.000000 0.000000
    40 0.021413 -0.957781 0.020046 -0.608841 0.000000 0.000000
    41 1.164475 -2.543940 -0.170330 -0.990317 -0.015463 0.162810
    42 0.024032 -1.129042 0.017807 -1.536823 0.000000 0.000001
    43 0.014898 -0.883989 -0.019848 -1.130928 0.000000 0.000000
    44 -0.586770 -1.264477 0.200161 0.526929 -0.658806 -2.506176
    45 1.522835 0.058681 0.016848 0.001410 0.008985 0.955998
    46 1.117947 0.048424 -0.005766 -0.021683 -0.012842 1.092130
    47 -0.139399 -0.111698 0.014397 0.668541 0.088632 1.606227
    48 -6.260806 6.983652 -0.294122 1.580804 -0.005023 -0.912799
  time 7
    0 -0.349500 2.779476 -0.357537 0.000000 0.000000 0.000000
    1 11.156384 -1.233223 -5.832574 -1.554926 -1.826769 0.953216
    2 -0.071919 -8.498730 -0.104136 0.222400 0.086221 -0.245563
    3 3.363867 -1.495543 0.626345 0.088531 0.124697 -1.545787
    4 0.200318 -0.000001 0.000000 0.000000 0.000000 0.000000
    5 2.787795 -1.741218 0.000000 0.000000 0.000000 -1.570796
    6 6.069544 0.277893 0.632407 -1.570797 -1.570796 0.000000
    7 7.898976 3.954085 -0.001494 0.000001 0.000000 1.570797
    8 0.648045 4.007680 -0.001494 0.000001 0.000000 1.570797
    9 5.223319 -3.605453 0.000000 0.000000 0.000000 -1.570796
    10 0.000000 0.000000 0.000000 0.000001 0.000000 0.000000
    11 10.206235 0.000004 0.000002 0.000000 0.000000 0.000000
    12 3.542382 -3.061673 0.000000 0.000001 0.000000 -1.570796
    13 1.257180 8.762585 -0.153713 -1.570562 0.002683 -1.566807
    14 -0.488518 -2.755602 -0.228260 -1.030852 -0.134082 -0.416251
    15 0.039887 -1.479790 0.029854 -2.301996 0.000000 0.000001
    16 0.028786 -1.075731 -0.023109 -0.271941 0.000000 0.000000
    17 0.250027 -2.820665 -0.238396 -0.636386 -0.105209 -0.434549
    18 -0.049759 -1.680544 0.100479 -2.367108 0.000000 -0.000002
    19 -0.034142 -1.148312 0.084782 -0.535851 0.000000 0.000000
    20 0.957766 -2.746780 -0.090302 0.329300 -0.172344 0.119866
    21 -0.033420 -1.397129 -0.011257 -1.115613 0.000000 -0.000001
    22 -0.022360 -0.957436 0.018784 -1.148790 0.000000 0.000000
    23 -1.180681 -2.507217 -0.193859 -1.049561 -0.031145 -0.514372
    24 -0.024967 -1.123934 0.017597 -1.975756 0.000000 0.000001
    25 -0.020057 -0.890968 0.010090 -0.444208 0.000000 0.000000
    26 0.583510 -1.197277 0.185379 0.371183 -0.693166 -0.903076
    27 1.535927 0.010246 0.005009 -0.002964 -0.012979 -0.682290
    28 1.100771 0.004527 -0.010679 -0.016147 -0.001453 -1.484153
    29 0.120153 -0.050270 -0.054489 0.287569 3.110905 1.561085
    30 -2.587246 -5.051567 -8.771082 -0.068303 -3.509597 0.414369
    31 0.096944 -8.450418 -0.009365 -0.174149 -0.391562 0.406555
    32 0.447953 -2.798986 -0.200443 -0.663826 0.042804 0.170619
    33 -0.032909 -1.480204 0.004940 -1.505896 0.000000 0.000002
    34 -0.027022 -1.076920 -0.020210 -1.324913 0.000000 0.000000
    35 -0.249534 -2.846964 -0.174213 0.050685 -0.004116 0.206560
    36 0.043235 -1.683941 0.096012 -0.937252 0.002823 -0.000167
    37 0.031729 -1.160830 0.058838 -0.782742 0.000642 0.008372
    38 -0.963866 -2.785145 -0.085350 0.188942 0.060155 0.185863
    39 0.028479 -1.403067 0.006271 -0.811217 0.000000 0.000000
    40 0.021413 -0.957781 0.020046 -0.493431 0.000000 0.000000
    41 1.164475 -2.543940 -0.170330 -0.990317 -0.015463 0.162810
    42 0.024032 -1.129042 0.017807 -1.536823 0.000000 0.000001
    43 0.014898 -0.883989 -0.019848 -1.130928 0.000000 0.000000
    44 -0.586770 -1.264477 0.200161 0.526929 -0.658806 -2.506176
    45 1.522835 0.058681 0.016848 0.001410 0.008985 0.955998
    46 1.117947 0.048424 -0.005766 -0.021683 -0.012842 1.092130
    47 -0.139399 -0.111698 0.014397 0.668541 0.088632 1.606227
    48 -6.260806 6.983652 -0.294122 1.580804 -0.005023 -0.912799
  time 8
    0 -0.349500 2.779476 -0.357537 0.000000 0.000000 0.000000
    1 11.047006 -1.377759 -5.418498 -1.515777 -1.805539 0.926329
    2 -0.071919 -8.498730 -0.104136 0.222400 0.086221 -0.245563
    3 3.363867 -1.495543 0.626345 0.088531 0.124697 -1.545787
    4 0.200318 -0.000001 0.000000 0.000000 0.000000 0.000000
    5 2.787795 -1.741218 0.000000 0.000000 0.000000 -1.570796
    6 6.069544 0.277893 0.632407 -1.570797 -1.570796 0.000000
    7 7.898976 3.954085 -0.001494 0.000001 0.000000 1.570797
    8 0.648045 4.007680 -0.001494 0.000001 0.000000 1.570797
    9 5.223319 -3.605453 0.000000 0.000000 0.000000 -1.570796
    10 0.000000 0.000000 0.000000 0.000001 0.000000 0.000000
    11 10.206235 0.000004 0.000002 0.000000 0.000000 0.000000
    12 3.542382 -3.061673 0.000000 0.000001 0.000000 -1.570796
    13 1.257180 8.762585 -0.153713 -1.570562 0.002683 -1.566807
    14 -0.488518 -2.755602 -0.228260 -1.030852 -0.134082 -0.416251
    15 0.039887 -1.479790 0.029854 -2.301996 0.000000 0.000001
    16 0.028786 -1.075731 -0.023109 -0.271941 0.000000 0.000000
    17 0.250027 -2.820665 -0.238396 -0.636386 -0.105209 -0.434549
    18 -0.049759 -1.680544 0.100479 -2.367108 0.000000 -0.000002
    19 -0.034142 -1.148312 0.084782 -0.535851 0.000000 0.000000
    20 0.957766 -2.746780 -0.090302 0.329300 -0.172344 0.119866
    21 -0.033420 -1.397129 -0.011257 -1.115613 0.000000 -0.000001
    22 -0.022360 -0.957436 0.018784 -1.148790 0.000000 0.000000
    23 -1.180681 -2.507217 -0.193859 -1.049561 -0.031145 -0.514372
    24 -0.024967 -1.123934 0.017597 -1.975756 0.000000 0.000001
    25 -0.020057 -0.890968 0.010090 -0.444208 0.000000 0.000000
    26 0.583510 -1.197277 0.185379 0.371183 -0.693166 -0.903076
    27 1.535927 0.010246 0.005009 -0.002964 -0.012979 -0.682290
    28 1.100771 0.004527 -0.010679 -0.016147 -0.001453 -1.484153
    29 0.120153 -0.050270 -0.054489 0.287569 3.110905 1.561085
    30 -2.661467 -5.481267 -8.134344 -0.017506 -3.485883 0.442733
    31 0.096944 -8.450418 -0.009365 -0.199553 -0.392597 0.430962
    32 0.447953 -2.798986 -0.200443 -0.663826 0.042804 0.170619
    33 -0.032909 -1.480204 0.004940 -1.505896 0.000000 0.000002
    34 -0.027022 -1.076920 -0.020210 -1.324913 0.000000 0.000000
    35 -0.249534 -2.846964 -0.174213 0.050685 -0.004116 0.206560
    36 0.043235 -1.683941 0.096012 -0.795874 0.002823 -0.000167
    37 0.031729 -1.160830 0.058838 -0.698709 0.000642 0.008372
    38 -0.963866 -2.785145 -0.085350 0.209859 0.060155 0.185863
    39 0.028479 -1.403067 0.006271 -0.705002 0.000000 0.000000
    40 0.021413 -0.957781 0.020046 -0.380793 0.000000 0.000000
    41 1.164475 -2.543940 -0.170330 -0.990317 -0.015463 0.162810
    42 0.024032 -1.129042 0.017807 -1.536823 0.000000 0.000001
    43 0.014898 -0.883989 -0.019848 -1.130928 0.000000 0.000000
    44 -0.586770 -1.264477 0.200161 0.526929 -0.658806 -2.506176
    45 1.522835 0.058681 0.016848 0.001410 0.008985 0.955998
    46 1.117947 0.048424 -0.005766 -0.021683 -0.012842 1.092130
    47 -0.139399 -0.111698 0.014397 0.668541 0.088632 1.606227
    48 -6.260806 6.983652 -0.294122 1.580804 -0.005023 -0.912799
  time 9
    0 -0.349500 2.779476 -0.357537 0.000000 0.000000 0.000000
    1 10.933721 -1.424635 -5.047393 -1.459196 -1.784197 0.882514
    2 -0.071919 -8.498730 -0.104136 0.222400 0.086221 -0.245563
    3 3.363867 -1.495543 0.626345 0.088531 0.124697 -1.545787
    4 0.200318 -0.000001 0.000000 0.000000 0.000000 0.000000
    5 2.787795 -1.741218 0.000000 0.000000 0.000000 -1.570796
    6 6.069544 0.277893 0.632407 -1.570797 -1.570796 0.000000
    7 7.898976 3.954085 -0.001494 0.000001 0.000000 1.570797
    8 0.648045 4.007680 -0.001494 0.000001 0.000000 1.570797
    9 5.223319 -3.605453 0.000000 0.000000 0.000000 -1.570796
    10 0.000000 0.000000 0.000000 0.000001 0.000000 0.000000
    11 10.206235 0.000004 0.000002 0.000000 0.000000 0.000000
    12 3.542382 -3.061673 0.000000 0.000001 0.000000 -1.570796
    13 1.257180 8.762585 -0.153713 -1.570562 0.002683 -1.566807
    14 -0.488518 -2.755602 -0.228260 -1.030852 -0.134082 -0.416251
    15 0.039887 -1.479790 0.029854 -2.301996 0.000000 0.000001
    16 0.028786 -1.075731 -0.023109 -0.271941 0.000000 0.000000
    17 0.250027 -2.820665 -0.238396 -0.636386 -0.105209 -0.434549
    18 -0.049759 -1.680544 0.100479 -2.367108 0.000000 -0.000002
    19 -0.034142 -1.148312 0.084782 -0.535851 0.000000 0.000000
    20 0.957766 -2.746780 -0.090302 0.329300 -0.172344 0.119866
    21 -0.033420 -1.397129 -0.011257 -1.115613 0.000000 -0.000001
    22 -0.022360 -0.957436 0.018784 -1.148790 0.000000 0.000000
    23 -1.180681 -2.507217 -0.193859 -1.049561 -0.031145 -0.514372
    24 -0.024967 -1.123934 0.017597 -1.975756 0.000000 0.000001
    25 -0.020057 -0.890968 0.010090 -0.444208 0.000000 0.000000
    26 0.583510 -1.197277 0.185379 0.371183 -0.693166 -0.903076
    27 1.535927 0.010246 0.005009 -0.002964 -0.012979 -0.682290
    28 1.100771 0.004527 -0.010679 -0.016147 -0.001453 -1.484153
    29 0.120153 -0.050270 -0.054489 0.287569 3.110905 1.561085
    30 -2.723969 -5.809402 -7.544482 0.033257 -3.460952 0.470341
    31 0.096944 -8.450418 -0.009365 -0.222116 -0.393015 0.452631
    32 0.447953 -2.798986 -0.200443 -0.663826 0.042804 0.170619
    33 -0.032909 -1.480204 0.004940 -1.505896 0.000000 0.000002
    34 -0.027022 -1.076920 -0.020210 -1.324913 0.000000 0.000000
    35 -0.249534 -2.846964 -0.174213 0.050685 -0.004116 0.206560
    36 0.043235 -1.683941 0.096012 -0.664818 0.002823 -0.000167
    37 0.031729 -1.160830 0.058838 -0.620834 0.000642 0.008372
    38 -0.963866 -2.785145 -0.085350 0.229214 0.060155 0.185863
    39 0.028479 -1.403067 0.006271 -0.606538 0.000000 0.000000
    40 0.021413 -0.957781 0.020046 -0.276342 0.000000 0.000000
    41 1.164475 -2.543940 -0.170330 -0.990317 -0.015463 0.162810
    42 0.024032 -1.129042 0.017807 -1.536823 0.000000 0.000001
    43 0.014898 -0.883989 -0.019848 -1.130928 0.000000 0.000000
    44 -0.586770 -1.264477 0.200161 0.526929 -0.658806 -2.506176
    45 1.522835 0.058681 0.016848 0.001410 0.008985 0.955998
    46 1.117947 0.048424 -0.005766 -0.021683 -0.012842 1.092130
    47 -0.139399 -0.111698 0.014397 0.668541 0.088632 1.606227
    48 -6.260806 6.983652 -0.294122 1.580804 -0.005023 -0.912799
  time 10
    0 -0.349500 2.779476 -0.357537 0.000000 0.000000 0.000000
    1 10.816530 -1.381665 -4.734884 -1.364037 -1.764059 0.800677
    2 -0.071919 -8.498730 -0.104136 0.222400 0.086221 -0.245563
    3 3.363867 -1.495543 0.626345 0.088531 0.124697 -1.545787
    4 0.200318 -0.000001 0.000000 0.000000 0.000000 0.000000
    5 2.787795 -1.741218 0.000000 0.000000 0.000000 -1.570796
    6 6.069544 0.277893 0.632407 -1.570797 -1.570796 0.000000
    7 7.898976 3.954085 -0.001494 0.000001 0.000000 1.570797
    8 0.648045 4.007680 -0.001494 0.000001 0.000000 1.570797
    9 5.223319 -3.605453 0.000000 0.000000 0.000000 -1.570796
    10 0.000000 0.000000 0.000000 0.000001 0.000000 0.000000
    11 10.206235 0.000004 0.000002 0.000000 0.000000 0.000000
    12 3.542382 -3.061673 0.000000 0.000001 0.000000 -1.570796
    13 1.257180 8.762585 -0.153713 -1.570562 0.002683 -1.566807
    14 -0.488518 -2.755602 -0.228260 -1.030852 -0.134082 -0.416251
    15 0.039887 -1.479790 0.029854 -2.301996 0.000000 0.000001
    16 0.028786 -1.075731 -0.023109 -0.271941 0.000000 0.000000
    17 0.250027 -2.820665 -0.238396 -0.636386 -0.105209 -0.434549
    18 -0.049759 -1.680544 0.100479 -2.367108 0.000000 -0.000002
    19 -0.034142 -1.148312 0.084782 -0.535851 0.000000 0.000000
    20 0.957766 -2.746780 -0.090302 0.329300 -0.172344 0.119866
    21 -0.033420 -1.397129 -0.011257 -1.115613 0.000000 -0.000001
    22 -0.022360 -0.957436 0.018784 -1.148790 0.000000 0.000000
    23 -1.180681 -2.507217 -0.193859 -1.049561 -0.031145 -0.514372
    24 -0.024967 -1.123934 0.017597 -1.975756 0.000000 0.000001
    25 -0.020057 -0.890968 0.010090 -0.444208 0.000000 0.000000
    26 0.583510 -1.197277 0.185379 0.371183 -0.693166 -0.903076
    27 1.535927 0.010246 0.005009 -0.002964 -0.012979 -0.682290
    28 1.100771 0.004527 -0.010679 -0.016147 -0.001453 -1.484153
    29 0.120153 -0.050270 -0.054489 0.287569 3.110905 1.561085
    30 -2.782564 -6.047691 -7.040561 0.086305 -3.436146 0.497570
    31 0.096944 -8.450418 -0.009365 -0.241029 -0.393035 0.470810
    32 0.447953 -2.798986 -0.200443 -0.663826 0.042804 0.170619
    33 -0.032909 -1.480204 0.004940 -1.505896 0.000000 0.000002
    34 -0.027022 -1.076920 -0.020210 -1.324913 0.000000 0.000000
    35 -0.249534 -2.846964 -0.174213 0.050685 -0.004116 0.206560
    36 0.043235 -1.683941 0.096012 -0.550916 0.002823 -0.000167
    37 0.031729 -1.160830 0.058838 -0.553192 0.000642 0.008372
    38 -0.963866 -2.785145 -0.085350 0.246044 0.060155 0.185863
    39 0.028479 -1.403067 0.006271 -0.521008 0.000000 0.000000
    40 0.021413 -0.957781 0.020046 -0.185555 0.000000 0.000000
    41 1.164475 -2.543940 -0.170330 -0.990317 -0.015463 0.162810
    42 0.024032 -1.129042 0.017807 -1.536823 0.000000 0.000001
    43 0.014898 -0.883989 -0.019848 -1.130928 0.000000 0.000000
    44 -0.586770 -1.264477 0.200161 0.526929 -0.658806 -2.506176
    45 1.522835 0.058681 0.016848 0.001410 0.008985 0.955998
    46 1.117947 0.048424 -0.005766 -0.021683 -0.012842 1.092130
    47 -0.139399 -0.111698 0.014397 0.668541 0.088632 1.606227
    48 -6.260806 6.983652 -0.294122 1.580804 -0.005023 -0.912799
  time 11
    0 -0.349500 2.779476 -0.357537 0.000000 0.000000 0.000000
    1 10.695433 -1.272287 -4.500502 -1.204106 -1.748207 0.654838
    2 -0.071919 -8.498730 -0.104136 0.222400 0.086221 -0.245563
    3 3.363867 -1.495543 0.626345 0.088531 0.124697 -1.545787
    4 0.200318 -0.000001 0.000000 0.000000 0.000000 0.000000
    5 2.787795 -1.741218 0.000000 0.000000 0.000000 -1.570796
    6 6.069544 0.277893 0.632407 -1.570797 -1.570796 0.000000
    7 7.898976 3.954085 -0.001494 0.000001 0.000000 1.570797
    8 0.648045 4.007680 -0.001494 0.000001 0.000000 1.570797
    9 5.223319 -3.605453 0.000000 0.000000 0.000000 -1.570796
    10 0.000000 0.000000 0.000000 0.000001 0.000000 0.000000
    11 10.206235 0.000004 0.000002 0.000000 0.000000 0.000000
    12 3.542382 -3.061673 0.000000 0.000001 0.000000 -1.570796
    13 1.257180 8.762585 -0.153713 -1.570562 0.002683 -1.566807
    14 -0.488518 -2.755602 -0.228260 -1.030852 -0.134082 -0.416251
    15 0.039887 -1.479790 0.029854 -2.301996 0.000000 0.000001
    16 0.028786 -1.075731 -0.023109 -0.271941 0.000000 0.000000
    17 0.250027 -2.820665 -0.238396 -0.636386 -0.105209 -0.434549
    18 -0.049759 -1.680544 0.100479 -2.367108 0.000000 -0.000002
    19 -0.034142 -1.148312 0.084782 -0.535851 0.000000 0.000000
    20 0.957766 -2.746780 -0.090302 0.329300 -0.172344 0.119866
    21 -0.033420 -1.397129 -0.011257 -1.115613 0.000000 -0.000001
    22 -0.022360 -0.957436 0.018784 -1.148790 0.000000 0.000000
    23 -1.180681 -2.507217 -0.193859 -1.049561 -0.031145 -0.514372
    24 -0.024967 -1.123934 0.017597 -1.975756 0.000000 0.000001
    25 -0.020057 -0.890968 0.010090 -0.444208 0.000000 0.000000
    26 0.583510 -1.197277 0.185379 0.371183 -0.693166 -0.903076
    27 1.535927 0.010246 0.005009 -0.002964 -0.012979 -0.682290
    28 1.100771 0.004527 -0.010679 -0.016147 -0.001453 -1.484153
    29 0.120153 -0.050270 -0.054489 0.287569 3.110905 1.561085
    30 -2.825534 -6.215665 -6.677268 0.143960 -3.412705 0.524610
    31 0.096944 -8.450418 -0.009365 -0.255508 -0.392836 0.484719
    32 0.447953 -2.798986 -0.200443 -0.663826 0.042804 0.170619
    33 -0.032909 -1.480204 0.004940 -1.505896 0.000000 0.000002
    34 -0.027022 -1.076920 -0.020210 -1.324913 0.000000 0.000000
    35 -0.249534 -2.846964 -0.174213 0.050685 -0.004116 0.206560
    36 0.043235 -1.683941 0.096012 -0.461100 0.002823 -0.000167
    37 0.031729 -1.160830 0.058838 -0.499769 0.000642 0.008372
    38 -0.963866 -2.785145 -0.085350 0.259308 0.060155 0.185863
    39 0.028479 -1.403067 0.006271 -0.453503 0.000000 0.000000
    40 0.021413 -0.957781 0.020046 -0.113943 0.000000 0.000000
    41 1.164475 -2.543940 -0.170330 -0.990317 -0.015463 0.162810
    42 0.024032 -1.129042 0.017807 -1.536823 0.000000 0.000001
    43 0.014898 -0.883989 -0.019848 -1.130928 0.000000 0.000000
    44 -0.586770 -1.264477 0.200161 0.526929 -0.658806 -2.506176
    45 1.522835 0.058681 0.016848 0.001410 0.008985 0.955998
    46 1.117947 0.048424 -0.005766 -0.021683 -0.012842 1.092130
    47 -0.139399 -0.111698 0.014397 0.668541 0.088632 1.606227
    48 -6.260806 6.983652 -0.294122 1.580804 -0.005023 -0.912799
  time 12
    0 -0.349500 2.779476 -0.357537 0.000000 0.000000 0.000000
    1 10.539178 -0.893369 -4.383311 -0.908153 -1.751344 0.375923
    2 -0.071919 -8.498730 -0.104136 0.222400 0.086221 -0.245563
    3 3.363867 -1.495543 0.626345 0.088531 0.124697 -1.545787
    4 0.200318 -0.000001 0.000000 0.000000 0.000000 0.000000
    5 2.787795 -1.741218 0.000000 0.000000 0.000000 -1.570796
    6 6.069544 0.277893 0.632407 -1.570797 -1.570796 0.000000
    7 7.898976 3.954085 -0.001494 0.000001 0.000000 1.570797
    8 0.648045 4.007680 -0.001494 0.000001 0.000000 1.570797
    9 5.223319 -3.605453 0.000000 0.000000 0.000000 -1.570796
    10 0.000000 0.000000 0.000000 0.000001 0.000000 0.000000
    11 10.206235 0.000004 0.000002 0.000000 0.000000 0.000000
    12 3.542382 -3.061673 0.000000 0.000001 0.000000 -1.570796
    13 1.257180 8.762585 -0.153713 -1.570562 0.002683 -1.566807
    14 -0.488518 -2.755602 -0.228260 -1.030852 -0.134082 -0.416251
    15 0.039887 -1.479790 0.029854 -2.301996 0.000000 0.000001
    16 0.028786 -1.075731 -0.023109 -0.271941 0.000000 0.000000
    17 0.250027 -2.820665 -0.238396 -0.636386 -0.105209 -0.434549
    18 -0.049759 -1.680544 0.100479 -2.367108 0.000000 -0.000002
    19 -0.034142 -1.148312 0.084782 -0.535851 0.000000 0.000000
    20 0.957766 -2.746780 -0.090302 0.329300 -0.172344 0.119866
    21 -0.033420 -1.397129 -0.011257 -1.115613 0.000000 -0.000001
    22 -0.022360 -0.957436 0.018784 -1.148790 0.000000 0.000000
    23 -1.180681 -2.507217 -0.193859 -1.049561 -0.031145 -0.514372
    24 -0.024967 -1.123934 0.017597 -1.975756 0.000000 0.000001
    25 -0.020057 -0.890968 0.010090 -0.444208 0.000000 0.000000
    26 0.583510 -1.197277 0.185379 0.371183 -0.693166 -0.903076
    27 1.535927 0.010246 0.005009 -0.002964 -0.012979 -0.682290
    28 1.100771 0.004527 -0.010679 -0.016147 -0.001453 -1.484153
    29 0.120153 -0.050270 -0.054489 0.287569 3.110905 1.561085
    30 -2.848973 -6.129725 -6.630392 0.219634 -3.398402 0.555243
    31 0.096944 -8.450418 -0.009365 -0.264758 -0.392597 0.493610
    32 0.447953 -2.798986 -0.200443 -0.663826 0.042804 0.170619
    33 -0.032909 -1.480204 0.004940 -1.505896 0.000000 0.000002
    34 -0.027022 -1.076920 -0.020210 -1.324913 0.000000 0.000000
    35 -0.249534 -2.846964 -0.174213 0.050685 -0.004116 0.206560
    36 0.043235 -1.683941 0.096012 -0.402151 0.002823 -0.000167
    37 0.031729 -1.160830 0.058838 -0.464774 0.000642 0.008372
    38 -0.963866 -2.785145 -0.085350 0.268044 0.060155 0.185863
    39 0.028479 -1.403067 0.006271 -0.409205 0.000000 0.000000
    40 0.021413 -0.957781 0.020046 -0.066955 0.000000 0.000000
    41 1.164475 -2.543940 -0.170330 -0.990317 -0.015463 0.162810
    42 0.024032 -1.129042 0.017807 -1.536823 0.000000 0.000001
    43 0.014898 -0.883989 -0.019848 -1.130928 0.000000 0.000000
    44 -0.586770 -1.264477 0.200161 0.526929 -0.658806 -2.506176
    45 1.522835 0.058681 0.016848 0.001410 0.008985 0.955998
    46 1.117947 0.048424 -0.005766 -0.021683 -0.012842 1.092130
    47 -0.139399 -0.111698 0.014397 0.668541 0.088632 1.606227
    48 -6.260806 6.983652 -0.294122 1.580804 -0.005023 -0.912799
  time 13
    0 -0.349500 2.779476 -0.357537 0.000000 0.000000 0.000000
    1 10.367298 -0.287882 -4.445812 -0.585433 -1.781480 0.071932
    2 -0.071919 -8.498730 -0.104136 0.222400 0.086221 -0.245563
    3 3.363867 -1.495543 0.626345 0.088531 0.124697 -1.545787
    4 0.200318 -0.000001 0.000000 0.000000 0.000000 0.000000
    5 2.787795 -1.741218 0.000000 0.000000 0.000000 -1.570796
    6 6.069544 0.277893 0.632407 -1.570797 -1.570796 0.000000
    7 7.898976 3.954085 -0.001494 0.000001 0.000000 1.570797
    8 0.648045 4.007680 -0.001494 0.000001 0.000000 1.570797
    9 5.223319 -3.605453 0.000000 0.000000 0.000000 -1.570796
    10 0.000000 0.000000 0.000000 0.000001 0.000000 0.000000
    11 10.206235 0.000004 0.000002 0.000000 0.000000 0.000000
    12 3.542382 -3.061673 0.000000 0.000001 0.000000 -1.570796
    13 1.257180 8.762585 -0.153713 -1.570562 0.002683 -1.566807
    14 -0.488518 -2.755602 -0.228260 -1.030852 -0.134082 -0.416251
    15 0.039887 -1.479790 0.029854 -2.301996 0.000000 0.000001
    16 0.028786 -1.075731 -0.023109 -0.271941 0.000000 0.000000
    17 0.250027 -2.820665 -0.238396 -0.636386 -0.105209 -0.434549
    18 -0.049759 -1.680544 0.100479 -2.367108 0.000000 -0.000002
    19 -0.034142 -1.148312 0.084782 -0.535851 0.000000 0.000000
    20 0.957766 -2.746780 -0.090302 0.329300 -0.172344 0.119866
    21 -0.033420 -1.397129 -0.011257 -1.115613 0.000000 -0.000001
    22 -0.022360 -0.957436 0.018784 -1.148790 0.000000 0.000000
    23 -1.180681 -2.507217 -0.193859 -1.049561 -0.031145 -0.514372
    24 -0.024967 -1.123934 0.017597 -1.975756 0.000000 0.000001
    25 -0.020057 -0.890968 0.010090 -0.444208 0.000000 0.000000
    26 0.583510 -1.197277 0.185379 0.371183 -0.693166 -0.903076
    27 1.535927 0.010246 0.005009 -0.002964 -0.012979 -0.682290
    28 1.100771 0.004527 -0.010679 -0.016147 -0.001453 -1.484153
    29 0.120153 -0.050270 -0.054489 0.287569 3.110905 1.561085
    30 -2.845066 -5.844560 -6.876493 0.308553 -3.387179 0.587294
    31 0.096944 -8.450418 -0.009365 -0.268025 -0.392518 0.496732
    32 0.447953 -2.798986 -0.200443 -0.663826 0.042804 0.170619
    33 -0.032909 -1.480204 0.004940 -1.505896 0.000000 0.000002
    34 -0.027022 -1.076920 -0.020210 -1.324913 0.000000 0.000000
    35 -0.249534 -2.846964 -0.174213 0.050685 -0.004116 0.206560
    36 0.043235 -1.683941 0.096012 -0.380949 0.002823 -0.000167
    37 0.031729 -1.160830 0.058838 -0.452149 0.000642 0.008372
    38 -0.963866 -2.785145 -0.085350 0.271169 0.060155 0.185863
    39 0.028479 -1.403067 0.006271 -0.393298 0.000000 0.000000
    40 0.021413 -0.957781 0.020046 -0.050099 0.000000 0.000000
    41 1.164475 -2.543940 -0.170330 -0.990317 -0.015463 0.162810
    42 0.024032 -1.129042 0.017807 -1.536823 0.000000 0.000001
    43 0.014898 -0.883989 -0.019848 -1.130928 0.000000 0.000000
    44 -0.586770 -1.264477 0.200161 0.526929 -0.658806 -2.506176
    45 1.522835 0.058681 0.016848 0.001410 0.008985 0.955998
    46 1.117947 0.048424 -0.005766 -0.021683 -0.012842 1.092130
    47 -0.139399 -0.111698 0.014397 0.668541 0.088632 1.606227
    48 -6.260806 6.983652 -0.294122 1.580804 -0.005023 -0.912799
  time 14
    0 -0.349500 2.779476 -0.357537 0.000000 0.000000 0.000000
    1 10.250107 0.134006 -4.758322 -0.351109 -1.812877 -0.145695
    2 -0.071919 -8.498730 -0.104136 0.222400 0.086221 -0.245563
    3 3.363867 -1.495543 0.626345 0.088531 0.124697 -1.545787
    4 0.200318 -0.000001 0.000000 0.000000 0.000000 0.000000
    5 2.787795 -1.741218 0.000000 0.000000 0.000000 -1.570796
    6 6.069544 0.277893 0.632407 -1.570797 -1.570796 0.000000
    7 7.898976 3.954085 -0.001494 0.000001 0.000000 1.570797
    8 0.648045 4.007680 -0.001494 0.000001 0.000000 1.570797
    9 5.223319 -3.605453 0.000000 0.000000 0.000000 -1.570796
    10 0.000000 0.000000 0.000000 0.000001 0.000000 0.000000
    11 10.206235 0.000004 0.000002 0.000000 0.000000 0.000000
    12 3.542382 -3.061673 0.000000 0.000001 0.000000 -1.570796
    13 1.257180 8.762585 -0.153713 -1.570562 0.002683 -1.566807
    14 -0.488518 -2.755602 -0.228260 -1.030852 -0.134082 -0.416251
    15 0.039887 -1.479790 0.029854 -2.301996 0.000000 0.000001
    16 0.028786 -1.075731 -0.023109 -0.271941 0.000000 0.000000
    17 0.250027 -2.820665 -0.238396 -0.636386 -0.105209 -0.434549
    18 -0.049759 -1.680544 0.100479 -2.367108 0.000000 -0.000002
    19 -0.034142 -1.148312 0.084782 -0.535851 0.000000 0.000000
    20 0.957766 -2.746780 -0.090302 0.329300 -0.172344 0.119866
    21 -0.033420 -1.397129 -0.011257 -1.115613 0.000000 -0.000001
    22 -0.022360 -0.957436 0.018784 -1.148790 0.000000 0.000000
    23 -1.180681 -2.507217 -0.193859 -1.049561 -0.031145 -0.514372
    24 -0.024967 -1.123934 0.017597 -1.975756 0.000000 0.000001
    25 -0.020057 -0.890968 0.010090 -0.444208 0.000000 0.000000
    26 0.583510 -1.197277 0.185379 0.371183 -0.693166 -0.903076
    27 1.535927 0.010246 0.005009 -0.002964 -0.012979 -0.682290
    28 1.100771 0.004527 -0.010679 -0.016147 -0.001453 -1.484153
    29 0.120153 -0.050270 -0.054489 0.287569 3.110905 1.561085
    30 -2.833347 -5.700024 -7.169471 0.246427 -3.291106 0.551934
    31 0.096944 -8.450418 -0.009365 0.015249 -0.365432 0.224749
    32 0.447953 -2.798986 -0.200443 -0.663826 0.042804 0.170619
    33 -0.032909 -1.480204 0.004940 -1.505896 0.000000 0.000002
    34 -0.027022 -1.076920 -0.020210 -1.324913 0.000000 0.000000
    35 -0.249534 -2.846964 -0.174213 -0.653306 -0.004116 0.206560
    36 0.043235 -1.683941 0.096012 -1.638272 0.002823 -0.000167
    37 0.031729 -1.160830 0.058838 -1.199316 0.000642 0.008372
    38 -0.963866 -2.785145 -0.085350 -0.618663 0.060155 0.185863
    39 0.028479 -1.403067 0.006271 -1.337874 0.000000 0.000000
    40 0.021413 -0.957781 0.020046 -1.052173 0.000000 0.000000
    41 1.164475 -2.543940 -0.170330 -0.990317 -0.015463 0.162810
    42 0.024032 -1.129042 0.017807 -1.536823 0.000000 0.000001
    43 0.014898 -0.883989 -0.019848 -1.130928 0.000000 0.000000
    44 -0.586770 -1.264477 0.200161 0.526929 -0.658806 -2.506176
    45 1.522835 0.058681 0.016848 0.001410 0.008985 0.955998
    46 1.117947 0.048424 -0.005766 -0.021683 -0.012842 1.092130
    47 -0.139399 -0.111698 0.014397 0.668541 0.088632 1.606227
    48 -6.260806 6.983652 -0.294122 1.580804 -0.005023 -0.912799
  time 15
    0 -0.349500 2.779476 -0.357537 0.000000 0.000000 0.000000
    1 10.218856 0.251197 -5.363809 -0.145171 -1.817751 -0.341596
    2 -0.071919 -8.498730 -0.104136 0.222400 0.086221 -0.245563
    3 3.363867 -1.495543 0.626345 0.088531 0.124697 -1.545787
    4 0.200318 -0.000001 0.000000 0.000000 0.000000 0.000000
    5 2.787795 -1.741218 0.000000 0.000000 0.000000 -1.570796
    6 5.815630 0.277893 0.632407 -1.570797 -1.570796 0.000000
    7 7.898976 3.954085 -0.001494 0.000001 0.000000 1.570797
    8 0.648045 4.007680 -0.001494 0.000001 0.000000 1.570797
    9 5.223319 -3.605453 0.000000 0.000000 0.000000 -1.570796
    10 0.000000 0.000000 0.000000 0.000001 0.000000 0.000000
    11 10.206235 0.000004 0.000002 0.000000 0.000000 0.000000
    12 3.542382 -3.061673 0.000000 0.000001 0.000000 -1.570796
    13 1.257180 8.762585 -0.153713 -1.570562 0.002683 -1.566807
    14 -0.488518 -2.755602 -0.228260 -1.030852 -0.134082 -0.416251
    15 0.039887 -1.479790 0.029854 -2.301996 0.000000 0.000001
    16 0.028786 -1.075731 -0.023109 -0.271941 0.000000 0.000000
    17 0.250027 -2.820665 -0.238396 -0.636386 -0.105209 -0.434549
    18 -0.049759 -1.680544 0.100479 -2.367108 0.000000 -0.000002
    19 -0.034142 -1.148312 0.084782 -0.535851 0.000000 0.000000
    20 0.957766 -2.746780 -0.090302 0.329300 -0.172344 0.119866
    21 -0.033420 -1.397129 -0.011257 -1.115613 0.000000 -0.000001
    22 -0.022360 -0.957436 0.018784 -1.148790 0.000000 0.000000
    23 -1.180681 -2.507217 -0.193859 -1.049561 -0.031145 -0.514372
    24 -0.024967 -1.123934 0.017597 -1.975756 0.000000 0.000001
    25 -0.020057 -0.890968 0.010090 -0.444208 0.000000 0.000000
    26 0.583510 -1.197277 0.185379 0.371183 -0.693166 -0.903076
    27 1.535927 0.010246 0.005009 -0.002964 -0.012979 -0.682290
    28 1.100771 0.004527 -0.010679 -0.016147 -0.001453 -1.484153
    29 0.120153 -0.050270 -0.054489 0.287569 3.110905 1.561085
    30 -2.938819 -5.043754 -7.091343 0.257756 -3.290038 0.592400
    31 0.096944 -8.450418 -0.009365 0.030676 -0.345252 0.241643
    32 0.447953 -2.798986 -0.200443 -0.663826 0.042804 0.170619
    33 -0.032909 -1.480204 0.004940 -1.505896 0.000000 0.000002
    34 -0.027022 -1.076920 -0.020210 -1.324913 0.000000 0.000000
    35 -0.249534 -2.846964 -0.174213 -0.451447 -0.004116 0.206560
    36 0.043235 -1.683941 0.096012 -1.638272 0.002823 -0.000167
    37 0.031729 -1.160830 0.058838 -1.199316 0.000642 0.008372
    38 -0.963866 -2.785145 -0.085350 -0.416822 0.060155 0.185863
    39 0.028479 -1.403067 0.006271 -1.337874 0.000000 0.000000
    40 0.021413 -0.957781 0.020046 -1.052173 0.000000 0.000000
    41 1.164475 -2.543940 -0.170330 -0.990317 -0.015463 0.162810
    42 0.024032 -1.129042 0.017807 -1.536823 0.000000 0.000001
    43 0.014898 -0.883989 -0.019848 -1.130928 0.000000 0.000000
    44 -0.586770 -1.264477 0.200161 0.526929 -0.658806 -2.506176
    45 1.522835 0.058681 0.016848 0.001410 0.008985 0.955998
    46 1.117947 0.048424 -0.005766 -0.021683 -0.012842 1.092130
    47 -0.139399 -0.111698 0.014397 0.668541 0.088632 1.606227
    48 -6.260806 6.983652 -0.294122 1.580804 -0.005023 -0.912799
  time 16
    0 -0.349500 2.779476 -0.357537 0.000000 0.000000 0.000000
    1 10.234481 0.239478 -6.152896 0.078200 -1.813297 -0.557323
    2 -0.071919 -8.498730 -0.104136 0.219164 0.091686 -0.242435
    3 3.363867 -1.495543 0.626345 0.088531 0.124697 -1.545787
    4 0.200318 -0.000001 0.000000 0.000000 0.000000 0.000000
    5 2.787795 -1.741218 0.000000 0.000000 0.000000 -1.570796
    6 3.967917 0.277893 0.632407 -1.570797 -1.570796 0.000000
    7 7.898976 3.954085 -0.001494 0.000001 0.000000 1.570797
    8 0.648045 4.007680 -0.001494 0.000001 0.000000 1.570797
    9 5.223319 -3.605453 0.000000 0.000000 0.000000 -1.570796
    10 0.000000 0.000000 0.000000 0.000001 0.000000 0.000000
    11 10.206235 0.000004 0.000002 0.000000 0.000000 0.000000
    12 3.542382 -3.061673 0.000000 0.000001 0.000000 -1.570796
    13 1.257180 8.762585 -0.153713 -1.570562 0.002683 -1.566807
    14 -0.488518 -2.755602 -0.228260 -1.030852 -0.134082 -0.416251
    15 0.039887 -1.479790 0.029854 -2.301996 0.000000 0.000001
    16 0.028786 -1.075731 -0.023109 -0.271941 0.000000 0.000000
    17 0.250027 -2.820665 -0.238396 -0.636386 -0.105209 -0.434549
    18 -0.049759 -1.680544 0.100479 -2.367108 0.000000 -0.000002
    19 -0.034142 -1.148312 0.084782 -0.535851 0.000000 0.000000
    20 0.957766 -2.746780 -0.090302 0.329300 -0.172344 0.119866
    21 -0.033420 -1.397129 -0.011257 -1.115613 0.000000 -0.000001
    22 -0.022360 -0.957436 0.018784 -1.148790 0.000000 0.000000
    23 -1.180681 -2.507217 -0.193859 -1.049561 -0.031145 -0.514372
    24 -0.024967 -1.123934 0.017597 -1.975756 0.000000 0.000001
    25 -0.020057 -0.890968 0.010090 -0.444208 0.000000 0.000000
    26 0.583510 -1.197277 0.185379 0.371183 -0.693166 -0.903076
    27 1.535927 0.010246 0.005009 -0.002964 -0.012979 -0.682290
    28 1.100771 0.004527 -0.010679 -0.016147 -0.001453 -1.484153
    29 0.120153 -0.050270 -0.054489 0.287569 3.110905 1.561085
    30 -2.895849 -3.707776 -7.021029 0.261051 -3.279212 0.639767
    31 0.096944 -8.450418 -0.009365 0.015304 -0.333331 0.302331
    32 0.447953 -2.798986 -0.200443 -0.663826 0.042804 0.170619
    33 -0.032909 -1.480204 0.004940 -1.505896 0.000000 0.000002
    34 -0.027022 -1.076920 -0.020210 -1.324913 0.000000 0.000000
    35 -0.249534 -2.846964 -0.174213 -0.007363 -0.004116 0.206560
    36 0.043235 -1.683941 0.096012 -1.638272 0.002823 -0.000167
    37 0.031729 -1.160830 0.058838 -1.199316 0.000642 0.008372
    38 -0.963866 -2.785145 -0.085350 0.027253 0.060155 0.185863
    39 0.028479 -1.403067 0.006271 -1.337874 0.000000 0.000000
    40 0.021413 -0.957781 0.020046 -1.052173 0.000000 0.000000
    41 1.164475 -2.543940 -0.170330 -0.990317 -0.015463 0.162810
    42 0.024032 -1.129042 0.017807 -1.536823 0.000000 0.000001
    43 0.014898 -0.883989 -0.019848 -1.130928 0.000000 0.000000
    44 -0.586770 -1.264477 0.200161 0.526929 -0.658806 -2.506176
    45 1.522835 0.058681 0.016848 0.001410 0.008985 0.955998
    46 1.117947 0.048424 -0.005766 -0.021683 -0.012842 1.092130
    47 -0.139399 -0.111698 0.014397 0.668541 0.088632 1.606227
    48 -6.260806 6.983652 -0.294122 1.580804 -0.005023 -0.912799
  time 17
    0 -0.349500 2.779476 -0.357537 0.000000 0.000000 0.000000
    1 10.246200 0.173070 -6.988859 0.316524 -1.811085 -0.788439
    2 -0.071919 -8.498730 -0.104136 0.222400 0.086221 -0.245563
    3 3.363867 -1.495543 0.626345 0.088531 0.124697 -1.545787
    4 0.200318 -0.000001 0.000000 0.000000 0.000000 0.000000
    5 2.787795 -1.741218 0.000000 0.000000 0.000000 -1.570796
    6 2.694441 0.242736 0.706628 -1.570797 -1.570796 0.000000
    7 7.898976 3.954085 -0.001494 0.000001 0.000000 1.570797
    8 0.648045 4.007680 -0.001494 0.000001 0.000000 1.570797
    9 5.223319 -3.605453 0.000000 0.000000 0.000000 -1.570796
    10 0.000000 0.000000 0.000000 0.000001 0.000000 0.000000
    11 10.206235 0.000004 0.000002 0.000000 0.000000 0.000000
    12 3.542382 -3.061673 0.000000 0.000001 0.000000 -1.570796
    13 1.257180 8.762585 -0.153713 -1.570562 0.002683 -1.566807
    14 -0.488518 -2.755602 -0.228260 -1.030852 -0.134082 -0.416251
    15 0.039887 -1.479790 0.029854 -2.301996 0.000000 0.000001
    16 0.028786 -1.075731 -0.023109 -0.271941 0.000000 0.000000
    17 0.250027 -2.820665 -0.238396 -0.636386 -0.105209 -0.434549
    18 -0.049759 -1.680544 0.100479 -2.367108 0.000000 -0.000002
    19 -0.034142 -1.148312 0.084782 -0.535851 0.000000 0.000000
    20 0.957766 -2.746780 -0.090302 0.329300 -0.172344 0.119866
    21 -0.033420 -1.397129 -0.011257 -1.115613 0.000000 -0.000001
    22 -0.022360 -0.957436 0.018784 -1.148790 0.000000 0.000000
    23 -1.180681 -2.507217 -0.193859 -1.049561 -0.031145 -0.514372
    24 -0.024967 -1.123934 0.017597 -1.975756 0.000000 0.000001
    25 -0.020057 -0.890968 0.010090 -0.444208 0.000000 0.000000
    26 0.583510 -1.197277 0.185379 0.371183 -0.693166 -0.903076
    27 1.535927 0.010246 0.005009 -0.002964 -0.012979 -0.682290
    28 1.100771 0.004527 -0.010679 -0.016147 -0.001453 -1.484153
    29 0.120153 -0.050270 -0.054489 0.287569 3.110905 1.561085
    30 -2.833347 -2.317108 -7.153845 0.271304 -3.291628 0.691106
    31 0.096944 -8.450418 -0.009365 -0.025897 -0.314266 0.364489
    32 0.447953 -2.798986 -0.200443 -0.663826 0.042804 0.170619
    33 -0.032909 -1.480204 0.004940 -1.505896 0.000000 0.000002
    34 -0.027022 -1.076920 -0.020210 -1.324913 0.000000 0.000000
    35 -0.249534 -2.846964 -0.174213 0.436720 -0.004116 0.206560
    36 0.043235 -1.683941 0.096012 -1.638272 0.002823 -0.000167
    37 0.031729 -1.160830 0.058838 -1.199316 0.000642 0.008372
    38 -0.963866 -2.785145 -0.085350 0.471367 0.060155 0.185863
    39 0.028479 -1.403067 0.006271 -1.337874 0.000000 0.000000
    40 0.021413 -0.957781 0.020046 -1.052173 0.000000 0.000000
    41 1.164475 -2.543940 -0.170330 -0.990317 -0.015463 0.162810
    42 0.024032 -1.129042 0.017807 -1.536823 0.000000 0.000001
    43 0.014898 -0.883989 -0.019848 -1.130928 0.000000 0.000000
    44 -0.586770 -1.264477 0.200161 0.526929 -0.658806 -2.506176
    45 1.522835 0.058681 0.016848 0.001410 0.008985 0.955998
    46 1.117947 0.048424 -0.005766 -0.021683 -0.012842 1.092130
    47 -0.139399 -0.111698 0.014397 0.668541 0.088632 1.606227
    48 -6.260806 6.983652 -0.294122 1.580804 -0.005023 -0.912799
  time 18
    0 -0.349500 2.779476 -0.357537 0.000000 0.000000 0.000000
    1 10.214949 0.118381 -7.711537 0.534846 -1.816294 -0.994207
    2 -0.071919 -8.498730 -0.104136 0.262644 0.021397 -0.284513
    3 3.363867 -1.495543 0.626345 0.088531 0.124697 -1.545787
    4 0.200318 -0.000001 0.000000 0.000000 0.000000 0.000000
    5 2.787795 -1.741218 0.000000 0.000000 0.000000 -1.570796
    6 2.049890 0.207578 0.784755 -1.570797 -1.570796 0.000000
    7 7.898976 3.954085 -0.001494 0.000001 0.000000 1.570797
    8 0.648045 4.007680 -0.001494 0.000001 0.000000 1.570797
    9 5.223319 -3.605453 0.000000 0.000000 0.000000 -1.570796
    10 0.000000 0.000000 0.000000 0.000001 0.000000 0.000000
    11 10.206235 0.000004 0.000002 0.000000 0.000000 0.000000
    12 3.542382 -3.061673 0.000000 0.000001 0.000000 -1.570796
    13 1.257180 8.762585 -0.153713 -1.570562 0.002683 -1.566807
    14 -0.488518 -2.755602 -0.228260 -1.030852 -0.134082 -0.416251
    15 0.039887 -1.479790 0.029854 -2.301996 0.000000 0.000001
    16 0.028786 -1.075731 -0.023109 -0.271941 0.000000 0.000000
    17 0.250027 -2.820665 -0.238396 -0.636386 -0.105209 -0.434549
    18 -0.049759 -1.680544 0.100479 -2.367108 0.000000 -0.000002
    19 -0.034142 -1.148312 0.084782 -0.535851 0.000000 0.000000
    20 0.957766 -2.746780 -0.090302 0.329300 -0.172344 0.119866
    21 -0.033420 -1.397129 -0.011257 -1.115613 0.000000 -0.000001
    22 -0.022360 -0.957436 0.018784 -1.148790 0.000000 0.000000
    23 -1.180681 -2.507217 -0.193859 -1.049561 -0.031145 -0.514372
    24 -0.024967 -1.123934 0.017597 -1.975756 0.000000 0.000001
    25 -0.020057 -0.890968 0.010090 -0.444208 0.000000 0.000000
    26 0.583510 -1.197277 0.185379 0.371183 -0.693166 -0.903076
    27 1.535927 0.010246 0.005009 -0.002964 -0.012979 -0.682290
    28 1.100771 0.004527 -0.010679 -0.016147 -0.001453 -1.484153
    29 0.120153 -0.050270 -0.054489 0.287569 3.110905 1.561085
    30 -3.220078 -1.633494 -8.083561 0.333598 -3.385614 0.778939
    31 0.096944 -8.450418 -0.009365 -0.087685 -0.275200 0.384780
    32 0.447953 -2.798986 -0.200443 -0.663826 0.042804 0.170619
    33 -0.032909 -1.480204 0.004940 -1.505896 0.000000 0.000002
    34 -0.027022 -1.076920 -0.020210 -1.324913 0.000000 0.000000
    35 -0.249534 -2.846964 -0.174213 0.638579 -0.004116 0.206560
    36 0.043235 -1.683941 0.096012 -1.638272 0.002823 -0.000167
    37 0.031729 -1.160830 0.058838 -1.199316 0.000642 0.008372
    38 -0.963866 -2.785145 -0.085350 0.673209 0.060155 0.185863
    39 0.028479 -1.403067 0.006271 -1.337874 0.000000 0.000000
    40 0.021413 -0.957781 0.020046 -1.052173 0.000000 0.000000
    41 1.164475 -2.543940 -0.170330 -0.990317 -0.015463 0.162810
    42 0.024032 -1.129042 0.017807 -1.536823 0.000000 0.000001
    43 0.014898 -0.883989 -0.019848 -1.130928 0.000000 0.000000
    44 -0.586770 -1.264477 0.200161 0.526929 -0.658806 -2.506176
    45 1.522835 0.058681 0.016848 0.001410 0.008985 0.955998
    46 1.117947 0.048424 -0.005766 -0.021683 -0.012842 1.092130
    47 -0.139399 -0.111698 0.014397 0.668541 0.088632 1.606227
    48 -6.260806 6.983652 -0.294122 1.580804 -0.005023 -0.912799
  time 19
    0 -0.349500 2.779476 -0.357537 0.000000 0.000000 0.000000
    1 9.918065 -0.014436 -7.859979 0.602286 -1.823324 -1.021366
    2 -0.071919 -8.498730 -0.104136 0.264717 0.010323 -0.289211
    3 3.363867 -1.495543 0.626345 0.088531 0.124697 -1.545787
    4 0.200318 -0.000001 0.000000 0.000000 0.000000 0.000000
    5 2.787795 -1.741218 0.000000 0.000000 0.000000 -1.570796
    6 2.858508 0.277893 0.632407 -1.570797 -1.570796 0.000000
    7 7.898976 3.954085 -0.001494 0.000001 0.000000 1.570797
    8 0.648045 4.007680 -0.001494 0.000001 0.000000 1.570797
    9 5.223319 -3.605453 0.000000 0.000000 0.000000 -1.570796
    10 0.000000 0.000000 0.000000 0.000001 0.000000 0.000000
    11 10.206235 0.000004 0.000002 0.000000 0.000000 0.000000
    12 3.542382 -3.061673 0.000000 0.000001 0.000000 -1.570796
    13 1.257180 8.762585 -0.153713 -1.570562 0.002683 -1.566807
    14 -0.488518 -2.755602 -0.228260 -1.030852 -0.134082 -0.416251
    15 0.039887 -1.479790 0.029854 -2.301996 0.000000 0.000001
    16 0.028786 -1.075731 -0.023109 -0.271941 0.000000 0.000000
    17 0.250027 -2.820665 -0.238396 -0.636386 -0.105209 -0.434549
    18 -0.049759 -1.680544 0.100479 -2.367108 0.000000 -0.000002
    19 -0.034142 -1.148312 0.084782 -0.535851 0.000000 0.000000
    20 0.957766 -2.746780 -0.090302 0.329300 -0.172344 0.119866
    21 -0.033420 -1.397129 -0.011257 -1.115613 0.000000 -0.000001
    22 -0.022360 -0.957436 0.018784 -1.148790 0.000000 0.000000
    23 -1.180681 -2.507217 -0.193859 -1.049561 -0.031145 -0.514372
    24 -0.024967 -1.123934 0.017597 -1.975756 0.000000 0.000001
    25 -0.020057 -0.890968 0.010090 -0.444208 0.000000 0.000000
    26 0.583510 -1.197277 0.185379 0.371183 -0.693166 -0.903076
    27 1.535927 0.010246 0.005009 -0.002964 -0.012979 -0.682290
    28 1.100771 0.004527 -0.010679 -0.016147 -0.001453 -1.484153
    29 0.120153 -0.050270 -0.054489 0.287569 3.110905 1.561085
    30 -4.786532 -1.692089 -8.419509 0.392328 -3.572693 0.823376
    31 0.096944 -8.450418 -0.009365 -0.288968 -0.143393 0.253609
    32 0.447953 -2.798986 -0.200443 -0.436513 0.042804 0.170619
    33 -0.032909 -1.480204 0.004940 -1.046042 0.000000 0.000002
    34 -0.027022 -1.076920 -0.020210 -0.844744 0.000000 0.000000
    35 -0.249534 -2.846964 -0.174213 0.383465 -0.001204 0.120342
    36 0.043235 -1.683941 0.096012 -0.961490 0.002823 -0.000167
    37 0.031729 -1.160830 0.058838 -0.780438 0.000642 0.008372
    38 -0.963866 -2.785145 -0.085350 0.514044 0.091135 0.084308
    39 0.028479 -1.403067 0.006271 -0.734519 0.000000 0.000000
    40 0.021413 -0.957781 0.020046 -0.644034 0.000000 0.000000
    41 1.164475 -2.543940 -0.170330 -0.733964 -0.015463 0.162810
    42 0.024032 -1.129042 0.017807 -1.033317 0.000000 0.000001
    43 0.014898 -0.883989 -0.019848 -0.769095 0.000000 0.000000
    44 -0.586770 -1.264477 0.200161 0.574124 -0.582044 -2.545960
    45 1.522835 0.058681 0.016848 0.001410 0.008985 0.612993
    46 1.117947 0.048424 -0.005766 -0.013210 -0.016090 0.648307
    47 -0.139399 -0.111698 0.014397 0.668541 0.088632 1.606227
    48 -6.260806 6.983652 -0.294122 1.580804 -0.005023 -0.912799
  time 20
    0 -0.349500 2.779476 -0.357537 0.000000 0.000000 0.000000
    1 9.777436 -0.178503 -8.067017 0.740880 -1.812373 -1.143577
    2 -0.071919 -8.498730 -0.104136 0.259252 0.009484 -0.287042
    3 3.363867 -1.495543 0.626345 0.088531 0.124697 -1.545787
    4 0.200318 -0.000001 0.000000 0.000000 0.000000 0.000000
    5 2.787795 -1.741218 0.000000 0.000000 0.000000 -1.570796
    6 6.069544 0.277893 0.632407 -1.570797 -1.570796 0.000000
    7 7.898976 3.954085 -0.001494 0.000001 0.000000 1.570797
    8 0.648045 4.007680 -0.001494 0.000001 0.000000 1.570797
    9 5.223319 -3.605453 0.000000 0.000000 0.000000 -1.570796
    10 0.000000 0.000000 0.000000 0.000001 0.000000 0.000000
    11 10.206235 0.000004 0.000002 0.000000 0.000000 0.000000
    12 3.542382 -3.061673 0.000000 0.000001 0.000000 -1.570796
    13 1.257180 8.762585 -0.153713 -1.570562 0.002683 -1.566807
    14 -0.488518 -2.755602 -0.228260 -1.030852 -0.134082 -0.416251
    15 0.039887 -1.479790 0.029854 -2.301996 0.000000 0.000001
    16 0.028786 -1.075731 -0.023109 -0.271941 0.000000 0.000000
    17 0.250027 -2.820665 -0.238396 -0.636386 -0.105209 -0.434549
    18 -0.049759 -1.680544 0.100479 -2.367108 0.000000 -0.000002
    19 -0.034142 -1.148312 0.084782 -0.535851 0.000000 0.000000
    20 0.957766 -2.746780 -0.090302 0.329300 -0.172344 0.119866
    21 -0.033420 -1.397129 -0.011257 -1.115613 0.000000 -0.000001
    22 -0.022360 -0.957436 0.018784 -1.148790 0.000000 0.000000
    23 -1.180681 -2.507217 -0.193859 -1.049561 -0.031145 -0.514372
    24 -0.024967 -1.123934 0.017597 -1.975756 0.000000 0.000001
    25 -0.020057 -0.890968 0.010090 -0.444208 0.000000 0.000000
    26 0.583510 -1.197277 0.185379 0.371183 -0.693166 -0.903076
    27 1.535927 0.010246 0.005009 -0.002964 -0.012979 -0.682290
    28 1.100771 0.004527 -0.010679 -0.016147 -0.001453 -1.484153
    29 0.120153 -0.050270 -0.054489 0.287569 3.110905 1.561085
    30 -5.751405 -2.453831 -8.610921 0.430619 -3.754831 0.818649
    31 0.096944 -8.450418 -0.009365 -0.437097 -0.106735 0.112537
    32 0.447953 -2.798986 -0.200443 -0.209199 0.042804 0.170619
    33 -0.032909 -1.480204 0.004940 -0.586187 0.000000 0.000002
    34 -0.027022 -1.076920 -0.020210 -0.364575 0.000000 0.000000
    35 -0.249534 -2.846964 -0.174213 0.128311 0.001685 0.034125
    36 0.043235 -1.683941 0.096012 -0.284656 0.002823 -0.000167
    37 0.031729 -1.160830 0.058838 -0.361516 0.000642 0.008372
    38 -0.963866 -2.785145 -0.085350 0.354879 0.122104 -0.017247
    39 0.028479 -1.403067 0.006271 -0.131163 0.000000 0.000000
    40 0.021413 -0.957781 0.020046 -0.235863 0.000000 0.000000
    41 1.164475 -2.543940 -0.170330 -0.477611 -0.015463 0.162810
    42 0.024032 -1.129042 0.017807 -0.529812 0.000000 0.000001
    43 0.014898 -0.883989 -0.019848 -0.407262 0.000000 0.000000
    44 -0.586770 -1.264477 0.200161 0.621294 -0.505283 -2.585743
    45 1.522835 0.058681 0.016848 0.001410 0.008985 0.269987
    46 1.117947 0.048424 -0.005766 -0.004737 -0.019338 0.204453
    47 -0.139399 -0.111698 0.014397 0.668541 0.088632 1.606227
    48 -6.260806 6.983652 -0.294122 1.580804 -0.005023 -0.912799
  time 21
    0 -0.349500 2.779476 -0.357537 0.000000 0.000000 0.000000
    1 9.636807 -0.358196 -8.289680 0.905097 -1.804839 -1.291952
    2 -0.071919 -8.498730 -0.104136 0.252181 0.013882 -0.282440
    3 3.363867 -1.495543 0.626345 0.088531 0.124697 -1.545787
    4 0.200318 -0.000001 0.000000 0.000000 0.000000 0.000000
    5 2.787795 -1.741218 0.000000 0.000000 0.000000 -1.570796
    6 6.069544 0.277893 0.632407 -1.570797 -1.570796 0.000000
    7 7.898976 3.954085 -0.001494 0.000001 0.000000 1.570797
    8 0.648045 4.007680 -0.001494 0.000001 0.000000 1.570797
    9 5.223319 -3.605453 0.000000 0.000000 0.000000 -1.570796
    10 0.000000 0.000000 0.000000 0.000001 0.000000 0.000000
    11 10.206235 0.000004 0.000002 0.000000 0.000000 0.000000
    12 3.542382 -3.061673 0.000000 0.000001 0.000000 -1.570796
    13 1.257180 8.762585 -0.153713 -1.570562 0.002683 -1.566807
    14 -0.488518 -2.755602 -0.228260 -1.030852 -0.134082 -0.416251
    15 0.039887 -1.479790 0.029854 -2.301996 0.000000 0.000001
    16 0.028786 -1.075731 -0.023109 -0.271941 0.000000 0.000000
    17 0.250027 -2.820665 -0.238396 -0.636386 -0.105209 -0.434549
    18 -0.049759 -1.680544 0.100479 -2.367108 0.000000 -0.000002
    19 -0.034142 -1.148312 0.084782 -0.535851 0.000000 0.000000
    20 0.957766 -2.746780 -0.090302 0.329300 -0.172344 0.119866
    21 -0.033420 -1.397129 -0.011257 -1.115613 0.000000 -0.000001
    22 -0.022360 -0.957436 0.018784 -1.148790 0.000000 0.000000
    23 -1.180681 -2.507217 -0.193859 -1.049561 -0.031145 -0.514372
    24 -0.024967 -1.123934 0.017597 -1.975756 0.000000 0.000001
    25 -0.020057 -0.890968 0.010090 -0.444208 0.000000 0.000000
    26 0.583510 -1.197277 0.185379 0.371183 -0.693166 -0.903076
    27 1.535927 0.010246 0.005009 -0.002964 -0.012979 -0.682290
    28 1.100771 0.004527 -0.010679 -0.016147 -0.001453 -1.484153
    29 0.120153 -0.050270 -0.054489 0.287569 3.110905 1.561085
    30 -4.731843 -4.664836 -9.235940 0.437309 -3.839232 0.814583
    31 0.096944 -8.450418 -0.009365 -0.263592 -0.274165 0.152400
    32 0.447953 -2.798986 -0.200443 -0.209199 0.042804 0.170619
    33 -0.032909 -1.480204 0.004940 -0.586187 0.000000 0.000002
    34 -0.027022 -1.076920 -0.020210 -0.364575 0.000000 0.000000
    35 -0.249534 -2.846964 -0.174213 0.128311 0.001685 0.034125
    36 0.043235 -1.683941 0.096012 -0.284656 0.002823 -0.000167
    37 0.031729 -1.160830 0.058838 -0.361516 0.000642 0.008372
    38 -0.963866 -2.785145 -0.085350 0.354879 0.122104 -0.017247
    39 0.028479 -1.403067 0.006271 -0.131163 0.000000 0.000000
    40 0.021413 -0.957781 0.020046 -0.235863 0.000000 0.000000
    41 1.164475 -2.543940 -0.170330 -0.477611 -0.015463 0.162810
    42 0.024032 -1.129042 0.017807 -0.529812 0.000000 0.000001
    43 0.014898 -0.883989 -0.019848 -0.407262 0.000000 0.000000
    44 -0.586770 -1.264477 0.200161 0.621294 -0.505283 -2.585743
    45 1.522835 0.058681 0.016848 0.001410 0.008985 0.269987
    46 1.117947 0.048424 -0.005766 -0.004737 -0.019338 0.204453
    47 -0.139399 -0.111698 0.014397 0.668541 0.088632 1.606227
    48 -6.260806 6.983652 -0.294122 1.580804 -0.005023 -0.912799
  time 22
    0 -0.349500 2.779476 -0.357537 0.000000 0.000000 0.000000
    1 9.503990 -0.537889 -8.516249 1.082460 -1.802906 -1.454267
    2 -0.071919 -8.498730 -0.104136 0.245614 0.021828 -0.276675
    3 3.363867 -1.495543 0.626345 0.088531 0.124697 -1.545787
    4 0.200318 -0.000001 0.000000 0.000000 0.000000 0.000000
    5 2.787795 -1.741218 0.000000 0.000000 0.000000 -1.570796
    6 6.069544 0.277893 0.632407 -1.570797 -1.570796 0.000000
    7 7.898976 3.954085 -0.001494 0.000001 0.000000 1.570797
    8 0.648045 4.007680 -0.001494 0.000001 0.000000 1.570797
    9 5.223319 -3.605453 0.000000 0.000000 0.000000 -1.570796
    10 0.000000 0.000000 0.000000 0.000001 0.000000 0.000000
    11 10.206235 0.000004 0.000002 0.000000 0.000000 0.000000
    12 3.542382 -3.061673 0.000000 0.000001 0.000000 -1.570796
    13 1.257180 8.762585 -0.153713 -1.570562 0.002683 -1.566807
    14 -0.488518 -2.755602 -0.228260 -1.030852 -0.134082 -0.416251
    15 0.039887 -1.479790 0.029854 -2.301996 0.000000 0.000001
    16 0.028786 -1.075731 -0.023109 -0.271941 0.000000 0.000000
    17 0.250027 -2.820665 -0.238396 -0.636386 -0.105209 -0.434549
    18 -0.049759 -1.680544 0.100479 -2.367108 0.000000 -0.000002
    19 -0.034142 -1.148312 0.084782 -0.535851 0.000000 0.000000
    20 0.957766 -2.746780 -0.090302 0.329300 -0.172344 0.119866
    21 -0.033420 -1.397129 -0.011257 -1.115613 0.000000 -0.000001
    22 -0.022360 -0.957436 0.018784 -1.148790 0.000000 0.000000
    23 -1.180681 -2.507217 -0.193859 -1.049561 -0.031145 -0.514372
    24 -0.024967 -1.123934 0.017597 -1.975756 0.000000 0.000001
    25 -0.020057 -0.890968 0.010090 -0.444208 0.000000 0.000000
    26 0.583510 -1.197277 0.185379 0.371183 -0.693166 -0.903076
    27 1.535927 0.010246 0.005009 -0.002964 -0.012979 -0.682290
    28 1.100771 0.004527 -0.010679 -0.016147 -0.001453 -1.484153
    29 0.120153 -0.050270 -0.054489 0.287569 3.110905 1.561085
    30 -3.102887 -7.469609 -10.122686 0.431729 -3.888448 0.807303
    31 0.096944 -8.450418 -0.009365 0.019147 -0.525578 0.192140
    32 0.447953 -2.798986 -0.200443 -0.209199 0.042804 0.170619
    33 -0.032909 -1.480204 0.004940 -0.586187 0.000000 0.000002
    34 -0.027022 -1.076920 -0.020210 -0.364575 0.000000 0.000000
    35 -0.249534 -2.846964 -0.174213 0.128311 0.001685 0.034125
    36 0.043235 -1.683941 0.096012 -0.284656 0.002823 -0.000167
    37 0.031729 -1.160830 0.058838 -0.361516 0.000642 0.008372
    38 -0.963866 -2.785145 -0.085350 0.354879 0.122104 -0.017247
    39 0.028479 -1.403067 0.006271 -0.131163 0.000000 0.000000
    40 0.021413 -0.957781 0.020046 -0.235863 0.000000 0.000000
    41 1.164475 -2.543940 -0.170330 -0.477611 -0.015463 0.162810
    42 0.024032 -1.129042 0.017807 -0.529812 0.000000 0.000001
    43 0.014898 -0.883989 -0.019848 -0.407262 0.000000 0.000000
    44 -0.586770 -1.264477 0.200161 0.621294 -0.505283 -2.585743
    45 1.522835 0.058681 0.016848 0.001410 0.008985 0.269987
    46 1.117947 0.048424 -0.005766 -0.004737 -0.019338 0.204453
    47 -0.139399 -0.111698 0.014397 0.668541 0.088632 1.606227
    48 -6.260806 6.983652 -0.294122 1.580804 -0.005023 -0.912799
  time 23
    0 -0.349500 2.779476 -0.357537 0.000000 0.000000 0.000000
    1 9.382893 -0.713676 -8.738912 -1.886028 -1.334475 1.528064
    2 -0.071919 -8.498730 -0.104136 0.238064 0.033537 -0.269125
    3 3.363867 -1.495543 0.626345 0.088531 0.124697 -1.545787
    4 0.200318 -0.000001 0.000000 0.000000 0.000000 0.000000
    5 2.787795 -1.741218 0.000000 0.000000 0.000000 -1.570796
    6 6.069544 0.277893 0.632407 -1.570797 -1.570796 0.000000
    7 7.898976 3.954085 -0.001494 0.000001 0.000000 1.570797
    8 0.648045 4.007680 -0.001494 0.000001 0.000000 1.570797
    9 5.223319 -3.605453 0.000000 0.000000 0.000000 -1.570796
    10 0.000000 0.000000 0.000000 0.000001 0.000000 0.000000
    11 10.206235 0.000004 0.000002 0.000000 0.000000 0.000000
    12 3.542382 -3.061673 0.000000 0.000001 0.000000 -1.570796
    13 1.257180 8.762585 -0.153713 -1.570562 0.002683 -1.566807
    14 -0.488518 -2.755602 -0.228260 -1.030852 -0.134082 -0.416251
    15 0.039887 -1.479790 0.029854 -2.301996 0.000000 0.000001
    16 0.028786 -1.075731 -0.023109 -0.271941 0.000000 0.000000
    17 0.250027 -2.820665 -0.238396 -0.636386 -0.105209 -0.434549
    18 -0.049759 -1.680544 0.100479 -2.367108 0.000000 -0.000002
    19 -0.034142 -1.148312 0.084782 -0.535851 0.000000 0.000000
    20 0.957766 -2.746780 -0.090302 0.329300 -0.172344 0.119866
    21 -0.033420 -1.397129 -0.011257 -1.115613 0.000000 -0.000001
    22 -0.022360 -0.957436 0.018784 -1.148790 0.000000 0.000000
    23 -1.180681 -2.507217 -0.193859 -1.049561 -0.031145 -0.514372
    24 -0.024967 -1.123934 0.017597 -1.975756 0.000000 0.000001
    25 -0.020057 -0.890968 0.010090 -0.444208 0.000000 0.000000
    26 0.583510 -1.197277 0.185379 0.371183 -0.693166 -0.903076
    27 1.535927 0.010246 0.005009 -0.002964 -0.012979 -0.682290
    28 1.100771 0.004527 -0.010679 -0.016147 -0.001453 -1.484153
    29 0.120153 -0.050270 -0.054489 0.287569 3.110905 1.561085
    30 -1.903631 -9.836869 -10.689109 0.416668 -3.895401 0.812881
    31 0.096944 -8.450418 -0.009365 0.233936 -0.730222 0.170212
    32 0.447953 -2.798986 -0.200443 -0.209199 0.042804 0.170619
    33 -0.032909 -1.480204 0.004940 -0.586187 0.000000 0.000002
    34 -0.027022 -1.076920 -0.020210 -0.364575 0.000000 0.000000
    35 -0.249534 -2.846964 -0.174213 0.128311 0.001685 0.034125
    36 0.043235 -1.683941 0.096012 -0.284656 0.002823 -0.000167
    37 0.031729 -1.160830 0.058838 -0.361516 0.000642 0.008372
    38 -0.963866 -2.785145 -0.085350 0.354879 0.122104 -0.017247
    39 0.028479 -1.403067 0.006271 -0.131163 0.000000 0.000000
    40 0.021413 -0.957781 0.020046 -0.235863 0.000000 0.000000
    41 1.164475 -2.543940 -0.170330 -0.477611 -0.015463 0.162810
    42 0.024032 -1.129042 0.017807 -0.529812 0.000000 0.000001
    43 0.014898 -0.883989 -0.019848 -0.407262 0.000000 0.000000
    44 -0.586770 -1.264477 0.200161 0.621294 -0.505283 -2.585743
    45 1.522835 0.058681 0.016848 0.001410 0.008985 0.269987
    46 1.117947 0.048424 -0.005766 -0.004737 -0.019338 0.204453
    47 -0.139399 -0.111698 0.014397 0.668541 0.088632 1.606227
    48 -6.260806 6.983652 -0.294122 1.580804 -0.005023 -0.912799
  time 24
    0 -0.349500 2.779476 -0.357537 0.000000 0.000000 0.000000
    1 9.269608 -0.881650 -8.949856 -1.733336 -1.325513 1.387565
    2 -0.071919 -8.498730 -0.104136 0.230070 0.046732 -0.261347
    3 3.363867 -1.495543 0.626345 0.088531 0.124697 -1.545787
    4 0.200318 -0.000001 0.000000 0.000000 0.000000 0.000000
    5 2.787795 -1.741218 0.000000 0.000000 0.000000 -1.570796
    6 6.069544 0.277893 0.632407 -1.570797 -1.570796 0.000000
    7 7.898976 3.954085 -0.001494 0.000001 0.000000 1.570797
    8 0.648045 4.007680 -0.001494 0.000001 0.000000 1.570797
    9 5.223319 -3.605453 0.000000 0.000000 0.000000 -1.570796
    10 0.000000 0.000000 0.000000 0.000001 0.000000 0.000000
    11 10.206235 0.000004 0.000002 0.000000 0.000000 0.000000
    12 3.542382 -3.061673 0.000000 0.000001 0.000000 -1.570796
    13 1.257180 8.762585 -0.153713 -1.570562 0.002683 -1.566807
    14 -0.488518 -2.755602 -0.228260 -1.030852 -0.134082 -0.416251
    15 0.039887 -1.479790 0.029854 -2.301996 0.000000 0.000001
    16 0.028786 -1.075731 -0.023109 -0.271941 0.000000 0.000000
    17 0.250027 -2.820665 -0.238396 -0.636386 -0.105209 -0.434549
    18 -0.049759 -1.680544 0.100479 -2.367108 0.000000 -0.000002
    19 -0.034142 -1.148312 0.084782 -0.535851 0.000000 0.000000
    20 0.957766 -2.746780 -0.090302 0.329300 -0.172344 0.119866
    21 -0.033420 -1.397129 -0.011257 -1.115613 0.000000 -0.000001
    22 -0.022360 -0.957436 0.018784 -1.148790 0.000000 0.000000
    23 -1.180681 -2.507217 -0.193859 -1.049561 -0.031145 -0.514372
    24 -0.024967 -1.123934 0.017597 -1.975756 0.000000 0.000001
    25 -0.020057 -0.890968 0.010090 -0.444208 0.000000 0.000000
    26 0.583510 -1.197277 0.185379 0.371183 -0.693166 -0.903076
    27 1.535927 0.010246 0.005009 -0.002964 -0.012979 -0.682290
    28 1.100771 0.004527 -0.010679 -0.016147 -0.001453 -1.484153
    29 0.120153 -0.050270 -0.054489 0.287569 3.110905 1.561085
    30 -1.407522 -11.485357 -10.532855 0.396094 -3.843926 0.864409
    31 0.096944 -8.450418 -0.009365 0.239137 -0.833649 0.156822
    32 0.447953 -2.798986 -0.200443 -0.524855 0.042804 0.170619
    33 -0.032909 -1.480204 0.004940 -0.698598 0.000000 0.000002
    34 -0.027022 -1.076920 -0.020210 -0.587658 0.000000 0.000000
    35 -0.249534 -2.846964 -0.174213 -0.236253 0.001936 0.044432
    36 0.043235 -1.683941 0.096012 -0.635622 0.002823 -0.000167
    37 0.031729 -1.160830 0.058838 -0.578707 0.000642 0.008372
    38 -0.963866 -2.785145 -0.085350 -0.081983 0.108837 0.001010
    39 0.028479 -1.403067 0.006271 -0.444039 0.000000 0.000000
    40 0.021413 -0.957781 0.020046 -0.447506 0.000000 0.000000
    41 1.164475 -2.543940 -0.170330 -0.670463 -0.024703 0.177183
    42 0.024032 -1.129042 0.017807 -0.586273 0.000000 0.000001
    43 0.014898 -0.883989 -0.019848 -0.542415 0.000000 0.000000
    44 -0.586770 -1.264477 0.200161 0.633594 -0.554242 -2.650181
    45 1.522835 0.058681 0.016848 0.001410 0.008985 0.447841
    46 1.117947 0.048424 -0.005766 -0.009136 -0.017660 0.434606
    47 -0.139399 -0.111698 0.014397 0.668541 0.088632 1.606227
    48 -6.260806 6.983652 -0.294122 1.580804 -0.005023 -0.912799
  time 25
    0 -0.349500 2.779476 -0.357537 0.000000 0.000000 0.000000
    1 9.171949 -1.026186 -9.133456 -1.610745 -1.314281 1.275221
    2 -0.071919 -8.498730 -0.104136 0.222088 0.059100 -0.254863
    3 3.363867 -1.495543 0.626345 0.088531 0.124697 -1.545787
    4 0.200318 -0.000001 0.000000 0.000000 0.000000 0.000000
    5 2.787795 -1.741218 0.000000 0.000000 0.000000 -1.570796
    6 6.069544 0.277893 0.632407 -1.570797 -1.570796 0.000000
    7 7.898976 3.954085 -0.001494 0.000001 0.000000 1.570797
    8 0.648045 4.007680 -0.001494 0.000001 0.000000 1.570797
    9 5.223319 -3.605453 0.000000 0.000000 0.000000 -1.570796
    10 0.000000 0.000000 0.000000 0.000001 0.000000 0.000000
    11 10.206235 0.000004 0.000002 0.000000 0.000000 0.000000
    12 3.542382 -3.061673 0.000000 0.000001 0.000000 -1.570796
    13 1.257180 8.762585 -0.153713 -1.570562 0.002683 -1.566807
    14 -0.488518 -2.755602 -0.228260 -1.030852 -0.134082 -0.416251
    15 0.039887 -1.479790 0.029854 -2.301996 0.000000 0.000001
    16 0.028786 -1.075731 -0.023109 -0.271941 0.000000 0.000000
    17 0.250027 -2.820665 -0.238396 -0.636386 -0.105209 -0.434549
    18 -0.049759 -1.680544 0.100479 -2.367108 0.000000 -0.000002
    19 -0.034142 -1.148312 0.084782 -0.535851 0.000000 0.000000
    20 0.957766 -2.746780 -0.090302 0.329300 -0.172344 0.119866
    21 -0.033420 -1.397129 -0.011257 -1.115613 0.000000 -0.000001
    22 -0.022360 -0.957436 0.018784 -1.148790 0.000000 0.000000
    23 -1.180681 -2.507217 -0.193859 -1.049561 -0.031145 -0.514372
    24 -0.024967 -1.123934 0.017597 -1.975756 0.000000 0.000001
    25 -0.020057 -0.890968 0.010090 -0.444208 0.000000 0.000000
    26 0.583510 -1.197277 0.185379 0.371183 -0.693166 -0.903076
    27 1.535927 0.010246 0.005009 -0.002964 -0.012979 -0.682290
    28 1.100771 0.004527 -0.010679 -0.016147 -0.001453 -1.484153
    29 0.120153 -0.050270 -0.054489 0.287569 3.110905 1.561085
    30 -1.173140 -12.668987 -10.028933 0.364728 -3.762802 0.934657
    31 0.096944 -8.450418 -0.009365 0.121079 -0.888875 0.183188
    32 0.447953 -2.798986 -0.200443 -1.111106 0.042804 0.170619
    33 -0.032909 -1.480204 0.004940 -0.943397 0.000000 0.000002
    34 -0.027022 -1.076920 -0.020210 -1.001962 0.000000 0.000000
    35 -0.249534 -2.846964 -0.174213 -0.913456 0.002380 0.063559
    36 0.043235 -1.683941 0.096012 -1.287357 0.002823 -0.000167
    37 0.031729 -1.160830 0.058838 -0.982125 0.000642 0.008372
    38 -0.963866 -2.785145 -0.085350 -0.893355 0.084196 0.034912
    39 0.028479 -1.403067 0.006271 -1.025043 0.000000 0.000000
    40 0.021413 -0.957781 0.020046 -0.840562 0.000000 0.000000
    41 1.164475 -2.543940 -0.170330 -1.029508 -0.044394 0.207910
    42 0.024032 -1.129042 0.017807 -0.725151 0.000000 0.000001
    43 0.014898 -0.883989 -0.019848 -0.793417 0.000000 0.000000
    44 -0.586770 -1.264477 0.200161 0.656440 -0.645154 -2.769863
    45 1.522835 0.058681 0.016848 0.001410 0.008985 0.778145
    46 1.117947 0.048424 -0.005766 -0.017285 -0.014532 0.862009
    47 -0.139399 -0.111698 0.014397 0.668541 0.088632 1.606227
    48 -6.260806 6.983652 -0.294122 1.580804 -0.005023 -0.912799
  time 26
    0 -0.349500 2.779476 -0.357537 0.000000 0.000000 0.000000
    1 9.097728 -1.139470 -9.281898 -1.522254 -1.303947 1.194561
    2 -0.071919 -8.498730 -0.104136 0.211362 0.071289 -0.251543
    3 3.363867 -1.495543 0.626345 0.088531 0.124697 -1.545787
    4 0.200318 -0.000001 0.000000 0.000000 0.000000 0.000000
    5 2.787795 -1.741218 0.000000 0.000000 0.000000 -1.570796
    6 6.069544 0.277893 0.632407 -1.570797 -1.570796 0.000000
    7 7.898976 3.954085 -0.001494 0.000001 0.000000 1.570797
    8 0.648045 4.007680 -0.001494 0.000001 0.000000 1.570797
    9 5.223319 -3.605453 0.000000 0.000000 0.000000 -1.570796
    10 0.000000 0.000000 0.000000 0.000001 0.000000 0.000000
    11 10.206235 0.000004 0.000002 0.000000 0.000000 0.000000
    12 3.542382 -3.061673 0.000000 0.000001 0.000000 -1.570796
    13 1.257180 8.762585 -0.153713 -1.570562 0.002683 -1.566807
    14 -0.488518 -2.755602 -0.228260 -1.030852 -0.134082 -0.416251
    15 0.039887 -1.479790 0.029854 -2.301996 0.000000 0.000001
    16 0.028786 -1.075731 -0.023109 -0.271941 0.000000 0.000000
    17 0.250027 -2.820665 -0.238396 -0.636386 -0.105209 -0.434549
    18 -0.049759 -1.680544 0.100479 -2.367108 0.000000 -0.000002
    19 -0.034142 -1.148312 0.084782 -0.535851 0.000000 0.000000
    20 0.957766 -2.746780 -0.090302 0.329300 -0.172344 0.119866
    21 -0.033420 -1.397129 -0.011257 -1.115613 0.000000 -0.000001
    22 -0.022360 -0.957436 0.018784 -1.148790 0.000000 0.000000
    23 -1.180681 -2.507217 -0.193859 -1.049561 -0.031145 -0.514372
    24 -0.024967 -1.123934 0.017597 -1.975756 0.000000 0.000001
    25 -0.020057 -0.890968 0.010090 -0.444208 0.000000 0.000000
    26 0.583510 -1.197277 0.185379 0.371183 -0.693166 -0.903076
    27 1.535927 0.010246 0.005009 -0.002964 -0.012979 -0.682269
    28 1.100771 0.004527 -0.010679 -0.016147 -0.001453 -1.484153
    29 0.120153 -0.050270 -0.054489 0.287569 3.110905 1.561085
    30 -1.169234 -13.137751 -9.630483 0.327950 -3.710184 0.955646
    31 0.096944 -8.450418 -0.009365 0.023456 -0.918170 0.211558
    32 0.447953 -2.798986 -0.200443 -1.426761 0.042804 0.170619
    33 -0.032909 -1.480204 0.004940 -1.181783 0.000000 0.000002
    34 -0.027022 -1.076920 -0.020210 -1.225045 0.000000 0.000000
    35 -0.249534 -2.846964 -0.174213 -1.278060 0.002631 0.073866
    36 0.043235 -1.683941 0.096012 -1.638272 0.002823 -0.000167
    37 0.031729 -1.160830 0.058838 -1.199316 0.000642 0.008372
    38 -0.963866 -2.785145 -0.085350 -1.330297 0.070929 0.053155
    39 0.028479 -1.403067 0.006271 -1.337874 0.000000 0.000000
    40 0.021413 -0.957781 0.020046 -1.052173 0.000000 0.000000
    41 1.164475 -2.543940 -0.170330 -1.225377 -0.062515 0.236371
    42 0.024032 -1.129042 0.017807 -0.900879 0.000000 0.000001
    43 0.014898 -0.883989 -0.019848 -0.928569 0.000000 0.000000
    44 -0.586770 -1.264477 0.200161 0.668740 -0.694113 -2.834286
    45 1.522835 0.058681 0.016848 0.001410 0.008985 0.955998
    46 1.117947 0.048424 -0.005766 -0.021683 -0.012842 1.092130
    47 -0.139399 -0.111698 0.014397 0.668541 0.088632 1.606227
    48 -6.260806 6.983652 -0.294122 1.580804 -0.005023 -0.912799
  time 27
    0 -0.349500 2.779476 -0.357537 0.000000 0.000000 0.000000
    1 9.058664 -1.201972 -9.363931 -1.487581 -1.301650 1.161338
    2 -0.071919 -8.498730 -0.104136 0.204591 0.080613 -0.250009
    3 3.363867 -1.495543 0.626345 0.088531 0.124697 -1.545787
    4 0.200318 -0.000001 0.000000 0.000000 0.000000 0.000000
    5 2.787795 -1.741218 0.000000 0.000000 0.000000 -1.570796
    6 6.069544 0.277893 0.632407 -1.570797 -1.570796 0.000000
    7 7.898976 3.954085 -0.001494 0.000001 0.000000 1.570797
    8 0.648045 4.007680 -0.001494 0.000001 0.000000 1.570797
    9 5.223319 -3.605453 0.000000 0.000000 0.000000 -1.570796
    10 0.000000 0.000000 0.000000 0.000001 0.000000 0.000000
    11 10.206235 0.000004 0.000002 0.000000 0.000000 0.000000
    12 3.542382 -3.061673 0.000000 0.000001 0.000000 -1.570796
    13 1.257180 8.762585 -0.153713 -1.570562 0.002683 -1.566807
    14 -0.488518 -2.755602 -0.228260 -1.030852 -0.134082 -0.416251
    15 0.039887 -1.479790 0.029854 -2.301996 0.000000 0.000001
    16 0.028786 -1.075731 -0.023109 -0.271941 0.000000 0.000000
    17 0.250027 -2.820665 -0.238396 -0.636386 -0.105209 -0.434549
    18 -0.049759 -1.680544 0.100479 -2.367108 0.000000 -0.000002
    19 -0.034142 -1.148312 0.084782 -0.535851 0.000000 0.000000
    20 0.957766 -2.746780 -0.090302 0.329300 -0.172344 0.119866
    21 -0.033420 -1.397129 -0.011257 -1.115613 0.000000 -0.000001
    22 -0.022360 -0.957436 0.018784 -1.148790 0.000000 0.000000
    23 -1.180681 -2.507217 -0.193859 -1.049561 -0.031145 -0.514372
    24 -0.024967 -1.123934 0.017597 -1.975756 0.000000 0.000001
    25 -0.020057 -0.890968 0.010090 -0.444208 0.000000 0.000000
    26 0.583510 -1.197277 0.185379 0.371183 -0.693166 -0.903076
    27 1.535927 0.010246 0.005009 -0.002964 -0.012979 -0.682290
    28 1.100771 0.004527 -0.010679 -0.016147 -0.001453 -1.484153
    29 0.120153 -0.050270 -0.054489 0.287569 3.110905 1.561085
    30 -1.259080 -13.149470 -9.567981 0.307141 -3.698613 0.939195
    31 0.096944 -8.450418 -0.009365 0.003748 -0.932937 0.218184
    32 0.447953 -2.798986 -0.200443 -1.426761 0.042804 0.170619
    33 -0.032909 -1.480204 0.004940 -1.403548 0.000000 0.000002
    34 -0.027022 -1.076920 -0.020210 -1.225045 0.000000 0.000000
    35 -0.249534 -2.846964 -0.174213 -1.278060 0.002631 0.073866
    36 0.043235 -1.683941 0.096012 -1.638272 0.002823 -0.000167
    37 0.031729 -1.160830 0.058838 -1.199316 0.000642 0.008372
    38 -0.963866 -2.785145 -0.085350 -1.330297 0.070929 0.053155
    39 0.028479 -1.403067 0.006271 -1.337874 0.000000 0.000000
    40 0.021413 -0.957781 0.020046 -1.052173 0.000000 0.000000
    41 1.164475 -2.543940 -0.170330 -1.229107 -0.077244 0.259847
    42 0.024032 -1.129042 0.017807 -1.207399 0.000000 0.000001
    43 0.014898 -0.883989 -0.019848 -0.928569 0.000000 0.000000
    44 -0.586770 -1.264477 0.200161 0.668740 -0.694113 -2.834286
    45 1.522835 0.058681 0.016848 0.001410 0.008985 0.955998
    46 1.117947 0.048424 -0.005766 -0.021683 -0.012842 1.092130
    47 -0.139399 -0.111698 0.014397 0.668541 0.088632 1.606227
    48 -6.260806 6.983652 -0.294122 1.580804 -0.005023 -0.912799
  time 28
    0 -0.349500 2.779476 -0.357537 0.000000 0.000000 0.000000
    1 9.066477 -1.205878 -9.375650 -1.503584 -1.309128 1.171567
    2 -0.071919 -8.498730 -0.104136 0.207922 0.084076 -0.248380
    3 3.363867 -1.495543 0.626345 0.088531 0.124697 -1.545787
    4 0.200318 -0.000001 0.000000 0.000000 0.000000 0.000000
    5 2.787795 -1.741218 0.000000 0.000000 0.000000 -1.570796
    6 6.069544 0.277893 0.632407 -1.570797 -1.570796 0.000000
    7 7.898976 3.954085 -0.001494 0.000001 0.000000 1.570797
    8 0.648045 4.007680 -0.001494 0.000001 0.000000 1.570797
    9 5.223319 -3.605453 0.000000 0.000000 0.000000 -1.570796
    10 0.000000 0.000000 0.000000 0.000001 0.000000 0.000000
    11 10.206235 0.000004 0.000002 0.000000 0.000000 0.000000
    12 3.542382 -3.061673 0.000000 0.000001 0.000000 -1.570796
    13 1.257180 8.762585 -0.153713 -1.570562 0.002683 -1.566807
    14 -0.488518 -2.755602 -0.228260 -1.030852 -0.134082 -0.416251
    15 0.039887 -1.479790 0.029854 -2.301996 0.000000 0.000001
    16 0.028786 -1.075731 -0.023109 -0.271941 0.000000 0.000000
    17 0.250027 -2.820665 -0.238396 -0.636386 -0.105209 -0.434549
    18 -0.049759 -1.680544 0.100479 -2.367108 0.000000 -0.000002
    19 -0.034142 -1.148312 0.084782 -0.535851 0.000000 0.000000
    20 0.957766 -2.746780 -0.090302 0.329300 -0.172344 0.119866
    21 -0.033420 -1.397129 -0.011257 -1.115613 0.000000 -0.000001
    22 -0.022360 -0.957436 0.018784 -1.148790 0.000000 0.000000
    23 -1.180681 -2.507217 -0.193859 -1.049561 -0.031145 -0.514372
    24 -0.024967 -1.123934 0.017597 -1.975756 0.000000 0.000001
    25 -0.020057 -0.890968 0.010090 -0.444208 0.000000 0.000000
    26 0.583510 -1.197277 0.185379 0.371183 -0.693166 -0.903076
    27 1.535927 0.010246 0.005009 -0.002964 -0.012979 -0.682290
    28 1.100771 0.004527 -0.010679 -0.016147 -0.001453 -1.484153
    29 0.120153 -0.050270 -0.054489 0.287569 3.110905 1.561085
    30 -1.305957 -13.122126 -9.681266 0.305359 -3.702362 0.937682
    31 0.096944 -8.450418 -0.009365 0.005971 -0.931305 0.217419
    32 0.447953 -2.798986 -0.200443 -1.426761 0.042804 0.170619
    33 -0.032909 -1.480204 0.004940 -1.530855 0.000000 0.000002
    34 -0.027022 -1.076920 -0.020210 -1.225045 0.000000 0.000000
    35 -0.249534 -2.846964 -0.174213 -1.278060 0.002631 0.073866
    36 0.043235 -1.683941 0.096012 -1.638272 0.002823 -0.000167
    37 0.031729 -1.160830 0.058838 -1.199316 0.000642 0.008372
    38 -0.963866 -2.785145 -0.085350 -1.330297 0.070929 0.053155
    39 0.028479 -1.403067 0.006271 -1.337874 0.000000 0.000000
    40 0.021413 -0.957781 0.020046 -1.052173 0.000000 0.000000
    41 1.164475 -2.543940 -0.170330 -1.231413 -0.092308 0.284061
    42 0.024032 -1.129042 0.017807 -1.424481 0.000000 0.000001
    43 0.014898 -0.883989 -0.019848 -0.928569 0.000000 0.000000
    44 -0.586770 -1.264477 0.200161 0.668740 -0.694113 -2.834286
    45 1.522835 0.058681 0.016848 0.001410 0.008985 0.955998
    46 1.117947 0.048424 -0.005766 -0.021683 -0.012842 1.092130
    47 -0.139399 -0.111698 0.014397 0.668541 0.088632 1.606227
    48 -6.260806 6.983652 -0.294122 1.580804 -0.005023 -0.912799
  time 29
    0 -0.349500 2.779476 -0.357537 0.000000 0.000000 0.000000
    1 9.109447 -1.170721 -9.340493 -1.542162 -1.320415 1.201532
    2 -0.071919 -8.498730 -0.104136 0.215161 0.085155 -0.246977
    3 3.363867 -1.495543 0.626345 0.088531 0.124697 -1.545787
    4 0.200318 -0.000001 0.000000 0.000000 0.000000 0.000000
    5 2.787795 -1.741218 0.000000 0.000000 0.000000 -1.570796
    6 6.069544 0.277893 0.632407 -1.570797 -1.570796 0.000000
    7 7.898976 3.954085 -0.001494 0.000001 0.000000 1.570797
    8 0.648045 4.007680 -0.001494 0.000001 0.000000 1.570797
    9 5.223319 -3.605453 0.000000 0.000000 0.000000 -1.570796
    10 0.000000 0.000000 0.000000 0.000001 0.000000 0.000000
    11 10.206235 0.000004 0.000002 0.000000 0.000000 0.000000
    12 3.542382 -3.061673 0.000000 0.000001 0.000000 -1.570796
    13 1.257180 8.762585 -0.153713 -1.570562 0.002683 -1.566807
    14 -0.488518 -2.755602 -0.228260 -1.030852 -0.134082 -0.416251
    15 0.039887 -1.479790 0.029854 -2.301996 0.000000 0.000001
    16 0.028786 -1.075731 -0.023109 -0.271941 0.000000 0.000000
    17 0.250027 -2.820665 -0.238396 -0.636386 -0.105209 -0.434549
    18 -0.049759 -1.680544 0.100479 -2.367108 0.000000 -0.000002
    19 -0.034142 -1.148312 0.084782 -0.535851 0.000000 0.000000
    20 0.957766 -2.746780 -0.090302 0.329300 -0.172344 0.119866
    21 -0.033420 -1.397129 -0.011257 -1.115613 0.000000 -0.000001
    22 -0.022360 -0.957436 0.018784 -1.148790 0.000000 0.000000
    23 -1.180681 -2.507217 -0.193859 -1.049561 -0.031145 -0.514372
    24 -0.024967 -1.123934 0.017597 -1.975756 0.000000 0.000001
    25 -0.020057 -0.890968 0.010090 -0.444208 0.000000 0.000000
    26 0.583510 -1.197277 0.185379 0.371183 -0.693166 -0.903076
    27 1.535927 0.010246 0.005009 -0.002964 -0.012979 -0.682290
    28 1.100771 0.004527 -0.010679 -0.016147 -0.001453 -1.484153
    29 0.120153 -0.050270 -0.054489 0.287569 3.110905 1.561085
    30 -1.321582 -13.063530 -9.853146 0.311242 -3.712493 0.941843
    31 0.096944 -8.450418 -0.009365 0.016951 -0.923106 0.213701
    32 0.447953 -2.798986 -0.200443 -1.426761 0.042804 0.170619
    33 -0.032909 -1.480204 0.004940 -1.530855 0.000000 0.000002
    34 -0.027022 -1.076920 -0.020210 -1.225045 0.000000 0.000000
    35 -0.249534 -2.846964 -0.174213 -1.278060 0.002631 0.073866
    36 0.043235 -1.683941 0.096012 -1.638272 0.002823 -0.000167
    37 0.031729 -1.160830 0.058838 -1.199316 0.000642 0.008372
    38 -0.963866 -2.785145 -0.085350 -1.330297 0.070929 0.053155
    39 0.028479 -1.403067 0.006271 -1.337874 0.000000 0.000000
    40 0.021413 -0.957781 0.020046 -1.052173 0.000000 0.000000
    41 1.164475 -2.543940 -0.170330 -1.232544 -0.104029 0.303005
    42 0.024032 -1.129042 0.017807 -1.424481 0.000000 0.000001
    43 0.014898 -0.883989 -0.019848 -0.928569 0.000000 0.000000
    44 -0.586770 -1.264477 0.200161 0.668715 -0.694113 -2.834286
    45 1.522835 0.058681 0.016848 0.001410 0.008985 0.955998
    46 1.117947 0.048424 -0.005766 -0.021683 -0.012842 1.092130
    47 -0.139399 -0.111698 0.014397 0.668541 0.088632 1.606227
    48 -6.260806 6.983652 -0.294122 1.580804 -0.005023 -0.912799
  time 30
    0 -0.349500 2.779476 -0.357537 0.000000 0.000000 0.000000
    1 9.164136 -1.116032 -9.281898 -1.572167 -1.329574 1.224345
    2 -0.071919 -8.498730 -0.104136 0.222400 0.086221 -0.245563
    3 3.363867 -1.495543 0.626345 0.088531 0.124697 -1.545787
    4 0.200318 -0.000001 0.000000 0.000000 0.000000 0.000000
    5 2.787795 -1.741218 0.000000 0.000000 0.000000 -1.570796
    6 6.069544 0.277893 0.632407 -1.570797 -1.570796 0.000000
    7 7.898976 3.954085 -0.001494 0.000001 0.000000 1.570797
    8 0.648045 4.007680 -0.001494 0.000001 0.000000 1.570797
    9 5.223319 -3.605453 0.000000 0.000000 0.000000 -1.570796
    10 0.000000 0.000000 0.000000 0.000001 0.000000 0.000000
    11 10.206235 0.000004 0.000002 0.000000 0.000000 0.000000
    12 3.542382 -3.061673 0.000000 0.000001 0.000000 -1.570796
    13 1.257180 8.762585 -0.153713 -1.570562 0.002683 -1.566807
    14 -0.488518 -2.755602 -0.228260 -1.030852 -0.134082 -0.416251
    15 0.039887 -1.479790 0.029854 -2.301996 0.000000 0.000001
    16 0.028786 -1.075731 -0.023109 -0.271941 0.000000 0.000000
    17 0.250027 -2.820665 -0.238396 -0.636386 -0.105209 -0.434549
    18 -0.049759 -1.680544 0.100479 -2.367108 0.000000 -0.000002
    19 -0.034142 -1.148312 0.084782 -0.535851 0.000000 0.000000
    20 0.957766 -2.746780 -0.090302 0.329300 -0.172344 0.119866
    21 -0.033420 -1.397129 -0.011257 -1.115613 0.000000 -0.000001
    22 -0.022360 -0.957436 0.018784 -1.148790 0.000000 0.000000
    23 -1.180681 -2.507217 -0.193859 -1.049561 -0.031145 -0.514372
    24 -0.024967 -1.123934 0.017597 -1.975756 0.000000 0.000001
    25 -0.020057 -0.890968 0.010090 -0.444208 0.000000 0.000000
    26 0.583510 -1.197277 0.185379 0.371183 -0.693166 -0.903076
    27 1.535927 0.010246 0.005009 -0.002964 -0.012979 -0.682290
    28 1.100771 0.004527 -0.010679 -0.016147 -0.001453 -1.484153
    29 0.120153 -0.050270 -0.054489 0.287569 3.110905 1.561085
    30 -1.305957 -12.997122 -9.958618 0.314705 -3.720017 0.945908
    31 0.096944 -8.450418 -0.009365 0.023456 -0.918170 0.211558
    32 0.447953 -2.798986 -0.200443 -1.426761 0.042804 0.170619
    33 -0.032909 -1.480204 0.004940 -1.530855 0.000000 0.000002
    34 -0.027022 -1.076920 -0.020210 -1.225045 0.000000 0.000000
    35 -0.249534 -2.846964 -0.174213 -1.278060 0.002631 0.073866
    36 0.043235 -1.683941 0.096012 -1.638272 0.002823 -0.000167
    37 0.031729 -1.160830 0.058838 -1.199316 0.000642 0.008372
    38 -0.963866 -2.785145 -0.085350 -1.330297 0.070929 0.053155
    39 0.028479 -1.403067 0.006271 -1.337874 0.000000 0.000000
    40 0.021413 -0.957781 0.020046 -1.052173 0.000000 0.000000
    41 1.164475 -2.543940 -0.170330 -1.232880 -0.108763 0.310644
    42 0.024032 -1.129042 0.017807 -1.424481 0.000000 0.000001
    43 0.014898 -0.883989 -0.019848 -0.928569 0.000000 0.000000
    44 -0.586770 -1.264477 0.200161 0.668740 -0.694113 -2.834286
    45 1.522835 0.058681 0.016848 0.001410 0.008985 0.955998
    46 1.117947 0.048424 -0.005766 -0.021683 -0.012842 1.092130
    47 -0.139399 -0.111698 0.014397 0.668541 0.088632 1.606227
    48 -6.260806 6.983652 -0.294122 1.580804 -0.005023 -0.912799
end
