// Created by Crowbar 0.49.0.0

$modelname "weapons/tfa_cso/c_balrog5.mdl"

$Include "csonline_gmod.qci"

$bodygroup "weapon"
{
	studio "v_balrog5_v_ref"
}

$CDMaterials "models\weapons\tfa_cso\balrog5"

$attachment 0 "balrog5_root" 0 16 0
//$attachment 1 "balrog5_root" -1 9.664 0.74
//$attachment 2 "balrog5_root" -5 0.5 0

$sequence "idle" {
	"v_balrog5_anims\idle"
	fps 15
	loop
	activity "ACT_VM_IDLE" 1
	snap
}
$sequence "shoot1" {
	"v_balrog5_anims\shoot1"
	{ event 5001 0 "#I21 S0.05 R1.5 F0 P30 T0.01 A1 L0 O0" }
	fps 30
}
$sequence "shoot2" {
	"v_balrog5_anims\shoot2"
	{ event 5001 0 "#I21 S0.05 R1.5 F0 P30 T0.01 A1 L0 O0" }
	fps 30
}
$sequence "shoot3" {
	"v_balrog5_anims\shoot3"
	{ event 5001 0 "#I20 S0.05 R1.5 F0 P30 T0.01 A1 L0 O0" }
	{ event 5021 0 "#I20 S0.15 R2 F0 P30 T0.01 A1 L0 O0" }
	fps 30
	activity "ACT_VM_PRIMARYATTACK" 1
	snap
}
$sequence "reload" {
	"v_balrog5_anims\reload"
	{ event 5004 20 "Balrog5.ClipOut" }
	{ event 5004 47 "Balrog5.ClipIn1" }
	{ event 5004 88 "Balrog5.ClipIn2" }
	fps 45
	activity "ACT_VM_RELOAD" 1
	snap
}
$sequence "draw" {
	"v_balrog5_anims\draw"
	fps 30
	activity "ACT_VM_DRAW" 1
	snap
}
