version 1
nodes
  0 "kronos12_root001" -1
  1 "lever001" 0
  2 "trigger001" 0
  3 "TRANS_L" 0
  4 "TRANS_R" 0
  5 "magazine001" 0
  6 "magazine_003" 5
  7 "bullet004" 6
  8 "bullet005" 7
  9 "bullet006" 8
  10 "effect001" 0
  11 "root" -1
  12 "Bone01" 11
  13 "Bone_L_Upper" 12
  14 "Bone_Lefthand" 12
  15 "Bone13" 14
  16 "Bone14" 15
  17 "Bone15" 16
  18 "Bone17" 14
  19 "Bone18" 18
  20 "Bone19" 19
  21 "Bone21" 14
  22 "Bone22" 21
  23 "Bone23" 22
  24 "Bone09" 14
  25 "Bone10" 24
  26 "Bone11" 25
  27 "Bone05" 14
  28 "Bone06" 27
  29 "Bone07" 28
  30 "Bone_Se_Hand-L" 14
  31 "Bone04" 11
  32 "Bone_Righthand" 31
  33 "Bone39" 32
  34 "Bone40" 33
  35 "Bone41" 34
  36 "Bone35" 32
  37 "Bone36" 36
  38 "Bone37" 37
  39 "Bone31" 32
  40 "Bone32" 39
  41 "Bone33" 40
  42 "Bone43" 32
  43 "Bone44" 42
  44 "Bone45" 43
  45 "Bone27" 32
  46 "Bone28" 45
  47 "Bone29" 46
  48 "Bone_Se_Hand-R" 32
  49 "Bone_R_Upper" 31
end
skeleton
  time 0
    0 0.103387 -3.649279 -3.009975 1.582119 -0.073632 -1.550881
    1 4.116302 0.309474 0.579363 1.570821 -1.565877 -1.569548
    2 0.776872 -0.777959 0.000000 0.000001 0.000000 -1.828850
    3 1.657125 1.617842 -0.396090 1.570803 1.552836 -1.569519
    4 1.657129 1.623131 0.386865 1.570790 -1.588547 -1.569507
    5 4.124314 -3.447140 -0.020971 -1.570796 0.000000 0.377722
    6 -0.001059 -0.000005 0.029470 -0.000001 0.000000 -1.570797
    7 0.161901 -0.042629 2.167028 1.570796 0.008569 1.570797
    8 0.000000 0.439464 -0.149598 0.000000 0.000000 0.000000
    9 0.000001 0.360867 0.000000 0.000000 0.000000 0.000000
    10 0.974790 1.650626 -0.003569 0.000000 0.000000 0.001279
    11 -0.002752 -0.001265 -0.003287 0.000000 0.000000 0.000000
    12 7.048316 5.911666 -5.475711 6.056199 -1.927033 -0.565420
    13 7.901914 2.422547 -0.349031 1.567075 -3.120330 0.376612
    14 -0.025045 -8.623740 -0.108040 0.818581 0.400711 0.322553
    15 -0.488518 -2.755602 -0.228260 -0.855329 -0.005500 -0.245375
    16 0.039887 -1.546198 0.022041 -1.891765 -0.006292 0.042163
    17 0.028786 -1.153858 -0.120768 -0.959901 -0.014837 0.019894
    18 0.250027 -2.820665 -0.238396 -0.560831 -0.117709 -0.086571
    19 -0.045853 -1.598510 0.037977 -1.526314 0.140987 -0.053597
    20 -0.034142 -1.179563 0.045718 -1.334442 0.004518 -0.035199
    21 0.957766 -2.746780 -0.090302 -0.014872 -0.242718 0.317947
    22 -0.033420 -1.397129 -0.030789 -1.023289 0.072830 -0.009792
    23 -0.022360 -0.961342 -0.008561 -1.033442 0.072663 -0.010774
    24 -1.180681 -2.507217 -0.193859 -0.519852 0.255646 -0.222176
    25 -0.024967 -1.127840 0.017597 -1.700810 -0.017402 -0.065794
    26 -0.020057 -0.906594 0.033528 -1.037463 0.004806 -0.042545
    27 0.642106 -1.189464 0.185379 1.395565 -1.086678 -1.368343
    28 1.496863 -0.192885 0.036260 0.030976 -0.114716 -0.664694
    29 1.081239 -0.100945 0.016666 0.006756 -0.123276 -0.502104
    30 0.120153 -0.050270 -0.054489 0.287569 3.110905 1.561085
    31 -1.888006 -5.450016 -11.169593 -1.489239 -5.244682 -1.343543
    32 -0.114000 -8.333227 0.314864 -0.754606 -1.017033 0.788985
    33 0.682335 -2.556791 -0.262945 -1.403371 -0.057052 0.428144
    34 -0.032909 -1.499736 0.020565 -1.155787 0.022171 -0.019892
    35 -0.027022 -1.104265 -0.028023 -0.656005 0.016539 -0.008078
    36 0.008286 -2.733679 -0.287498 -1.224291 -0.096313 0.189198
    37 0.043235 -1.656596 0.072574 -1.332477 -0.021134 0.006053
    38 0.031729 -1.149111 0.058838 -0.700097 -0.007148 0.005304
    39 -0.709952 -2.804677 -0.253324 -1.005405 0.062193 -0.033347
    40 0.028479 -1.403067 -0.021074 -0.985528 -0.026150 -0.034588
    41 0.021413 -0.942156 0.012233 -0.995616 -0.026630 -0.034228
    42 1.332449 -2.168929 -0.178143 -1.451654 -0.251939 0.569780
    43 0.024032 -1.136855 -0.001725 -0.837936 0.005801 0.044440
    44 0.014898 -0.899614 -0.015942 -0.880686 0.004998 0.044535
    45 -0.645366 -1.248852 0.059532 -0.141697 -1.003780 -2.153974
    46 1.550180 0.039149 0.016848 -0.011845 -0.004570 0.632985
    47 1.114041 0.044518 -0.005766 -0.019502 -0.034630 0.745810
    48 -0.139399 -0.111698 0.014397 0.285382 -0.030687 1.580508
    49 -8.233523 0.409232 -0.473815 1.565500 -0.036770 -0.127486
  time 1
    0 0.103387 -3.957882 -3.009975 1.582119 -0.073632 -1.550881
    1 4.116302 0.309474 0.579363 1.570821 -1.565877 -1.569548
    2 0.776872 -0.777959 0.000000 0.000001 0.000000 -1.828850
    3 1.657125 1.617842 -0.396090 1.570803 1.552836 -1.569519
    4 1.657129 1.623131 0.386865 1.570790 -1.588547 -1.569507
    5 4.124314 -3.447140 -0.020971 -1.570796 0.000000 0.377722
    6 -0.001059 -0.000005 0.029470 -0.000001 0.000000 -1.570797
    7 0.161901 -0.042629 2.167028 1.570796 0.008569 1.570797
    8 0.000000 0.439464 -0.149598 0.000000 0.000000 0.000000
    9 0.000001 0.360867 0.000000 0.000000 0.000000 0.000000
    10 0.974790 1.650626 -0.003569 0.000000 0.000000 0.001279
    11 -0.002752 -0.001265 -0.003287 0.000000 0.000000 0.000000
    12 6.931125 5.704628 -5.436648 6.047956 -1.937502 -0.540421
    13 7.808161 2.817091 -0.341219 1.566595 -3.121289 0.426689
    14 -0.021138 -8.619834 -0.104134 0.805789 0.413292 0.328471
    15 -0.488518 -2.755602 -0.228260 -0.855329 -0.005500 -0.245375
    16 0.039887 -1.546198 0.022041 -1.891765 -0.006292 0.042163
    17 0.028786 -1.153858 -0.120768 -0.959872 -0.014837 0.019894
    18 0.250027 -2.820665 -0.238396 -0.560831 -0.117709 -0.086571
    19 -0.045853 -1.598510 0.037977 -1.526314 0.140987 -0.053597
    20 -0.034142 -1.179563 0.045718 -1.334442 0.004518 -0.035199
    21 0.957766 -2.746780 -0.090302 -0.014872 -0.242718 0.317947
    22 -0.033420 -1.397129 -0.030789 -1.023289 0.072830 -0.009792
    23 -0.022360 -0.961342 -0.008561 -1.033442 0.072663 -0.010774
    24 -1.180681 -2.507217 -0.193859 -0.519852 0.255646 -0.222176
    25 -0.024967 -1.127840 0.017597 -1.700810 -0.017402 -0.065794
    26 -0.020057 -0.906594 0.033528 -1.037463 0.004806 -0.042545
    27 0.642106 -1.189464 0.185379 1.395565 -1.086678 -1.368343
    28 1.496863 -0.192885 0.036260 0.030976 -0.114716 -0.664694
    29 1.081239 -0.100945 0.016666 0.006756 -0.123276 -0.502104
    30 0.120153 -0.050270 -0.054489 0.287569 3.110905 1.561085
    31 -1.872380 -5.692211 -11.060215 -1.487693 -5.229685 -1.345756
    32 -0.110094 -8.329321 0.310957 -0.762527 -1.016199 0.780866
    33 0.682335 -2.556791 -0.262945 -1.403371 -0.057052 0.428144
    34 -0.032909 -1.499736 0.020565 -1.155787 0.022171 -0.019892
    35 -0.027022 -1.104265 -0.028023 -0.656005 0.016539 -0.008078
    36 0.008286 -2.733679 -0.287498 -1.224291 -0.096313 0.189198
    37 0.043235 -1.656596 0.072574 -1.332477 -0.021134 0.006053
    38 0.031729 -1.149111 0.058838 -0.700097 -0.007148 0.005304
    39 -0.709952 -2.804677 -0.253324 -1.005405 0.062193 -0.033347
    40 0.028479 -1.403067 -0.021074 -0.985528 -0.026150 -0.034588
    41 0.021413 -0.942156 0.012233 -0.995616 -0.026630 -0.034228
    42 1.332449 -2.168929 -0.178143 -1.451654 -0.251939 0.569780
    43 0.024032 -1.136855 -0.001725 -0.837936 0.005801 0.044440
    44 0.014898 -0.899614 -0.015942 -0.880686 0.004998 0.044547
    45 -0.645366 -1.248852 0.059532 -0.141697 -1.003780 -2.153974
    46 1.550180 0.039149 0.016848 -0.011845 -0.004570 0.632985
    47 1.114041 0.044518 -0.005766 -0.019502 -0.034630 0.745810
    48 -0.139399 -0.111698 0.014397 0.285382 -0.030687 1.580508
    49 -8.237429 0.909248 -0.469909 1.566974 -0.036087 -0.188365
  time 2
    0 0.107293 -3.551620 -3.162323 1.581360 -0.087999 -1.551368
    1 4.116302 0.309474 0.579363 1.570821 -1.565877 -1.569548
    2 0.776872 -0.777959 0.000000 0.000001 0.000000 -1.828850
    3 1.657125 1.617842 -0.396090 1.570803 1.552836 -1.569519
    4 1.657129 1.623131 0.386865 1.570790 -1.588547 -1.569507
    5 4.124314 -3.447140 -0.020971 -1.570796 0.000000 0.377722
    6 -0.001059 -0.000005 0.029470 -0.000001 0.000000 -1.570797
    7 0.161901 -0.042629 2.167028 1.570796 0.008569 1.570797
    8 0.000000 0.439464 -0.149598 0.000000 0.000000 0.000000
    9 0.000001 0.360867 0.000000 0.000000 0.000000 0.000000
    10 0.974790 1.650626 -0.003569 0.000000 0.000000 0.001279
    11 -0.002752 -0.001265 -0.003287 0.000000 0.000000 0.000000
    12 7.048316 5.946823 -5.503056 5.995721 -1.928122 -0.509698
    13 7.874569 2.539739 -0.345125 1.566883 -3.120618 0.391459
    14 -0.025045 -8.627647 -0.111947 0.826127 0.383875 0.354321
    15 -0.488518 -2.755602 -0.228260 -0.855329 -0.005500 -0.245375
    16 0.039887 -1.546198 0.022041 -1.891765 -0.006292 0.042163
    17 0.028786 -1.153858 -0.120768 -0.959901 -0.014837 0.019894
    18 0.250027 -2.820665 -0.238396 -0.560831 -0.117709 -0.086571
    19 -0.045853 -1.598510 0.037977 -1.526314 0.140987 -0.053597
    20 -0.034142 -1.179563 0.045718 -1.334442 0.004518 -0.035199
    21 0.957766 -2.746780 -0.090302 -0.014872 -0.242718 0.317947
    22 -0.033420 -1.397129 -0.030789 -1.023289 0.072830 -0.009792
    23 -0.022360 -0.961342 -0.008561 -1.033442 0.072663 -0.010774
    24 -1.180681 -2.507217 -0.193859 -0.519852 0.255646 -0.222176
    25 -0.024967 -1.127840 0.017597 -1.700810 -0.017402 -0.065794
    26 -0.020057 -0.906594 0.033528 -1.037463 0.004806 -0.042545
    27 0.642106 -1.189464 0.185379 1.395565 -1.086678 -1.368343
    28 1.496863 -0.192885 0.036260 0.030976 -0.114716 -0.664694
    29 1.081239 -0.100945 0.016666 0.006756 -0.123276 -0.502104
    30 0.120153 -0.050270 -0.054489 0.287569 3.110905 1.561085
    31 -1.895818 -5.403140 -11.193031 -1.489239 -5.244477 -1.343451
    32 -0.110094 -8.329321 0.314864 -0.753412 -1.014383 0.773679
    33 0.682335 -2.556791 -0.262945 -1.403371 -0.057052 0.428144
    34 -0.032909 -1.499736 0.020565 -1.155787 0.022171 -0.019892
    35 -0.027022 -1.104265 -0.028023 -0.656005 0.016539 -0.008078
    36 0.008286 -2.733679 -0.287498 -1.224291 -0.096313 0.189198
    37 0.043235 -1.656596 0.072574 -1.332477 -0.021134 0.006053
    38 0.031729 -1.149111 0.058838 -0.700097 -0.007148 0.005304
    39 -0.709952 -2.804677 -0.253324 -1.005405 0.062193 -0.033347
    40 0.028479 -1.403067 -0.021074 -0.985528 -0.026150 -0.034588
    41 0.021413 -0.942156 0.012233 -0.995616 -0.026630 -0.034228
    42 1.332449 -2.168929 -0.178143 -1.451654 -0.251939 0.569780
    43 0.024032 -1.136855 -0.001725 -0.837936 0.005801 0.044440
    44 0.014898 -0.899614 -0.015942 -0.880686 0.004998 0.044535
    45 -0.645366 -1.248852 0.059532 -0.141697 -1.003780 -2.153974
    46 1.550180 0.039149 0.016848 -0.011845 -0.004570 0.632985
    47 1.114041 0.044518 -0.005766 -0.019502 -0.034630 0.745810
    48 -0.139399 -0.111698 0.014397 0.285382 -0.030687 1.580508
    49 -8.233523 0.338918 -0.473815 1.565284 -0.036854 -0.118833
  time 3
    0 0.107293 -3.422709 -3.131072 1.581265 -0.089532 -1.551422
    1 4.116302 0.309474 0.579363 1.570821 -1.565877 -1.569548
    2 0.776872 -0.777959 0.000000 0.000001 0.000000 -1.828850
    3 1.657125 1.617842 -0.396090 1.570803 1.552836 -1.569519
    4 1.657129 1.623131 0.386865 1.570790 -1.588547 -1.569507
    5 4.124314 -3.447140 -0.020971 -1.570796 0.000000 0.377722
    6 -0.001059 -0.000005 0.029470 -0.000001 0.000000 -1.570797
    7 0.161901 -0.042629 2.167028 1.570796 0.008569 1.570797
    8 0.000000 0.439464 -0.149598 0.000000 0.000000 0.000000
    9 0.000001 0.360867 0.000000 0.000000 0.000000 0.000000
    10 0.974790 1.650626 -0.003569 0.000000 0.000000 0.001279
    11 -0.002752 -0.001265 -0.003287 0.000000 0.000000 0.000000
    12 7.095192 6.028857 -5.510869 6.005497 -1.923462 -0.526027
    13 7.913633 2.360046 -0.349031 1.567075 -3.120139 0.368811
    14 -0.025045 -8.627647 -0.111947 0.830756 0.378037 0.350335
    15 -0.488518 -2.755602 -0.228260 -0.855329 -0.005500 -0.245375
    16 0.039887 -1.546198 0.022041 -1.891765 -0.006292 0.042163
    17 0.028786 -1.153858 -0.120768 -0.959872 -0.014837 0.019894
    18 0.250027 -2.820665 -0.238396 -0.560831 -0.117709 -0.086571
    19 -0.045853 -1.598510 0.037977 -1.526314 0.140987 -0.053597
    20 -0.034142 -1.179563 0.045718 -1.334442 0.004518 -0.035199
    21 0.957766 -2.746780 -0.090302 -0.014872 -0.242718 0.317947
    22 -0.033420 -1.397129 -0.030789 -1.023289 0.072830 -0.009792
    23 -0.022360 -0.961342 -0.008561 -1.033442 0.072663 -0.010774
    24 -1.180681 -2.507217 -0.193859 -0.519852 0.255646 -0.222176
    25 -0.024967 -1.127840 0.017597 -1.700810 -0.017402 -0.065794
    26 -0.020057 -0.906594 0.033528 -1.037463 0.004806 -0.042545
    27 0.642106 -1.189464 0.185379 1.395565 -1.086678 -1.368343
    28 1.496863 -0.192885 0.036260 0.030976 -0.114716 -0.664694
    29 1.081239 -0.100945 0.016666 0.006756 -0.123276 -0.502104
    30 0.120153 -0.050270 -0.054489 0.287569 3.110905 1.561085
    31 -1.899725 -5.328919 -11.220376 -1.490309 -5.254612 -1.342898
    32 -0.110094 -8.333227 0.314864 -0.749671 -1.014413 0.779047
    33 0.682335 -2.556791 -0.262945 -1.403371 -0.057052 0.428144
    34 -0.032909 -1.499736 0.020565 -1.155787 0.022171 -0.019892
    35 -0.027022 -1.104265 -0.028023 -0.656005 0.016539 -0.008078
    36 0.008286 -2.733679 -0.287498 -1.224291 -0.096313 0.189198
    37 0.043235 -1.656596 0.072574 -1.332477 -0.021134 0.006053
    38 0.031729 -1.149111 0.058838 -0.700097 -0.007148 0.005304
    39 -0.709952 -2.804677 -0.253324 -1.005405 0.062193 -0.033347
    40 0.028479 -1.403067 -0.021074 -0.985528 -0.026150 -0.034588
    41 0.021413 -0.942156 0.012233 -0.995616 -0.026630 -0.034228
    42 1.332449 -2.168929 -0.178143 -1.451654 -0.251939 0.569780
    43 0.024032 -1.136855 -0.001725 -0.837936 0.005801 0.044440
    44 0.014898 -0.899614 -0.015942 -0.880686 0.004998 0.044547
    45 -0.645366 -1.248852 0.059532 -0.141697 -1.003780 -2.153974
    46 1.550180 0.039149 0.016848 -0.011845 -0.004570 0.632985
    47 1.114041 0.044518 -0.005766 -0.019502 -0.034630 0.745810
    48 -0.139399 -0.111698 0.014397 0.285382 -0.030687 1.580508
    49 -8.221803 0.139693 -0.477722 1.564685 -0.037106 -0.094711
  time 4
    0 0.107293 -3.348488 -3.064664 1.581360 -0.088766 -1.551368
    1 4.116302 0.309474 0.579363 1.570821 -1.565877 -1.569548
    2 0.776872 -0.777959 0.000000 0.000001 0.000000 -1.828850
    3 1.657125 1.617842 -0.396090 1.570803 1.552836 -1.569519
    4 1.657129 1.623131 0.386865 1.570790 -1.588547 -1.569507
    5 4.124314 -3.447140 -0.020971 -1.570796 0.000000 0.377722
    6 -0.001059 -0.000005 0.029470 -0.000001 0.000000 -1.570797
    7 0.161901 -0.042629 2.167028 1.570796 0.008569 1.570797
    8 0.000000 0.439464 -0.149598 0.000000 0.000000 0.000000
    9 0.000001 0.360867 0.000000 0.000000 0.000000 0.000000
    10 0.974790 1.650626 -0.003569 0.000000 0.000000 0.001279
    11 -0.002752 -0.001265 -0.003287 0.000000 0.000000 0.000000
    12 7.130349 6.079640 -5.510869 6.027445 -1.919892 -0.551700
    13 7.944884 2.199884 -0.352938 1.567266 -3.119756 0.349100
    14 -0.025045 -8.627647 -0.111947 0.832467 0.376860 0.340960
    15 -0.488518 -2.755602 -0.228260 -0.855329 -0.005500 -0.245375
    16 0.039887 -1.546198 0.022041 -1.891765 -0.006292 0.042163
    17 0.028786 -1.153858 -0.120768 -0.959872 -0.014837 0.019894
    18 0.250027 -2.820665 -0.238396 -0.560831 -0.117709 -0.086571
    19 -0.045853 -1.598510 0.037977 -1.526314 0.140987 -0.053597
    20 -0.034142 -1.179563 0.045718 -1.334442 0.004518 -0.035199
    21 0.957766 -2.746780 -0.090302 -0.014872 -0.242718 0.317947
    22 -0.033420 -1.397129 -0.030789 -1.023289 0.072830 -0.009792
    23 -0.022360 -0.961342 -0.008561 -1.033442 0.072663 -0.010774
    24 -1.180681 -2.507217 -0.193859 -0.519852 0.255646 -0.222176
    25 -0.024967 -1.127840 0.017597 -1.700810 -0.017402 -0.065794
    26 -0.020057 -0.906594 0.033528 -1.037463 0.004806 -0.042545
    27 0.642106 -1.189464 0.185379 1.395565 -1.086678 -1.368343
    28 1.496863 -0.192885 0.036260 0.030976 -0.114716 -0.664694
    29 1.081239 -0.100945 0.016666 0.006756 -0.123276 -0.502104
    30 0.120153 -0.050270 -0.054489 0.287569 3.110905 1.561085
    31 -1.899725 -5.293762 -11.228188 -1.491320 -5.263857 -1.342713
    32 -0.110094 -8.333227 0.314864 -0.747083 -1.014770 0.786856
    33 0.682335 -2.556791 -0.262945 -1.403371 -0.057052 0.428144
    34 -0.032909 -1.499736 0.020565 -1.155787 0.022171 -0.019892
    35 -0.027022 -1.104265 -0.028023 -0.656005 0.016539 -0.008078
    36 0.008286 -2.733679 -0.287498 -1.224291 -0.096313 0.189198
    37 0.043235 -1.656596 0.072574 -1.332477 -0.021134 0.006053
    38 0.031729 -1.149111 0.058838 -0.700097 -0.007148 0.005304
    39 -0.709952 -2.804677 -0.253324 -1.005405 0.062193 -0.033347
    40 0.028479 -1.403067 -0.021074 -0.985528 -0.026150 -0.034588
    41 0.021413 -0.942156 0.012233 -0.995616 -0.026630 -0.034228
    42 1.332449 -2.168929 -0.178143 -1.451654 -0.251939 0.569780
    43 0.024032 -1.136855 -0.001725 -0.837936 0.005801 0.044440
    44 0.014898 -0.899614 -0.015942 -0.880686 0.004998 0.044535
    45 -0.645366 -1.248852 0.059532 -0.141697 -1.003780 -2.153974
    46 1.550180 0.039149 0.016848 -0.011845 -0.004570 0.632985
    47 1.114041 0.044518 -0.005766 -0.019502 -0.034630 0.745810
    48 -0.139399 -0.111698 0.014397 0.285382 -0.030687 1.580508
    49 -8.210084 0.014689 -0.477722 1.564301 -0.037238 -0.079625
  time 5
    0 0.107293 -3.325050 -3.013881 1.581360 -0.088574 -1.551368
    1 4.116302 0.309474 0.579363 1.570821 -1.565877 -1.569548
    2 0.776872 -0.777959 0.000000 0.000001 0.000000 -1.828850
    3 1.657125 1.617842 -0.396090 1.570803 1.552836 -1.569519
    4 1.657129 1.623131 0.386865 1.570790 -1.588547 -1.569507
    5 4.124314 -3.447140 -0.020971 -1.570796 0.000000 0.377722
    6 -0.001059 -0.000005 0.029470 -0.000001 0.000000 -1.570797
    7 0.161901 -0.042629 2.167028 1.570796 0.008569 1.570797
    8 0.000000 0.439464 -0.149598 0.000000 0.000000 0.000000
    9 0.000001 0.360867 0.000000 0.000000 0.000000 0.000000
    10 0.974790 1.650626 -0.003569 0.000000 0.000000 0.001279
    11 -0.002752 -0.001265 -0.003287 0.000000 0.000000 0.000000
    12 7.145975 6.095265 -5.510869 6.043451 -1.918379 -0.568786
    13 7.960510 2.121757 -0.352938 1.567362 -3.119564 0.339118
    14 -0.025045 -8.627647 -0.111947 0.832523 0.376951 0.334824
    15 -0.488518 -2.755602 -0.228260 -0.855329 -0.005500 -0.245375
    16 0.039887 -1.546198 0.022041 -1.891765 -0.006292 0.042163
    17 0.028786 -1.153858 -0.120768 -0.959872 -0.014837 0.019894
    18 0.250027 -2.820665 -0.238396 -0.560831 -0.117709 -0.086571
    19 -0.045853 -1.598510 0.037977 -1.526314 0.140987 -0.053597
    20 -0.034142 -1.179563 0.045718 -1.334442 0.004518 -0.035199
    21 0.957766 -2.746780 -0.090302 -0.014872 -0.242718 0.317947
    22 -0.033420 -1.397129 -0.030789 -1.023289 0.072830 -0.009792
    23 -0.022360 -0.961342 -0.008561 -1.033442 0.072663 -0.010774
    24 -1.180681 -2.507217 -0.193859 -0.519852 0.255646 -0.222176
    25 -0.024967 -1.127840 0.017597 -1.700810 -0.017402 -0.065794
    26 -0.020057 -0.906594 0.033528 -1.037463 0.004806 -0.042545
    27 0.642106 -1.189464 0.185379 1.395565 -1.086678 -1.368343
    28 1.496863 -0.192885 0.036260 0.030976 -0.114716 -0.664694
    29 1.081239 -0.100945 0.016666 0.006756 -0.123276 -0.502104
    30 0.120153 -0.050270 -0.054489 0.287569 3.110905 1.561085
    31 -1.895818 -5.293762 -11.220376 -1.491975 -5.269815 -1.342898
    32 -0.110094 -8.333227 0.314864 -0.745929 -1.014919 0.792046
    33 0.682335 -2.556791 -0.262945 -1.403371 -0.057052 0.428144
    34 -0.032909 -1.499736 0.020565 -1.155787 0.022171 -0.019892
    35 -0.027022 -1.104265 -0.028023 -0.656005 0.016539 -0.008078
    36 0.008286 -2.733679 -0.287498 -1.224291 -0.096313 0.189198
    37 0.043235 -1.656596 0.072574 -1.332477 -0.021134 0.006053
    38 0.031729 -1.149111 0.058838 -0.700097 -0.007148 0.005304
    39 -0.709952 -2.804677 -0.253324 -1.005405 0.062193 -0.033347
    40 0.028479 -1.403067 -0.021074 -0.985528 -0.026150 -0.034588
    41 0.021413 -0.942156 0.012233 -0.995616 -0.026630 -0.034228
    42 1.332449 -2.168929 -0.178143 -1.451654 -0.251939 0.569780
    43 0.024032 -1.136855 -0.001725 -0.837936 0.005801 0.044440
    44 0.014898 -0.899614 -0.015942 -0.880686 0.004998 0.044535
    45 -0.645366 -1.248852 0.059532 -0.141697 -1.003780 -2.153974
    46 1.550180 0.039149 0.016848 -0.011845 -0.004570 0.632985
    47 1.114041 0.044518 -0.005766 -0.019502 -0.034630 0.745810
    48 -0.139399 -0.111698 0.014397 0.285382 -0.030687 1.580508
    49 -8.206178 -0.028281 -0.477722 1.564169 -0.037298 -0.074111
  time 6
    0 0.107293 -3.344582 -2.998256 1.581265 -0.090585 -1.551422
    1 4.116302 0.309474 0.579363 1.570821 -1.565877 -1.569548
    2 0.776872 -0.777959 0.000000 0.000001 0.000000 -1.828850
    3 1.657125 1.617842 -0.396090 1.570803 1.552836 -1.569519
    4 1.657129 1.623131 0.386865 1.570790 -1.588547 -1.569507
    5 4.124314 -3.447140 -0.020971 -1.570796 0.000000 0.377722
    6 -0.001059 -0.000005 0.029470 -0.000001 0.000000 -1.570797
    7 0.161901 -0.042629 2.167028 1.570796 0.008569 1.570797
    8 0.000000 0.439464 -0.149598 0.000000 0.000000 0.000000
    9 0.000001 0.360867 0.000000 0.000000 0.000000 0.000000
    10 0.974790 1.650626 -0.003569 0.000000 0.000000 0.001279
    11 -0.002752 -0.001265 -0.003287 0.000000 0.000000 0.000000
    12 7.138162 6.075733 -5.506962 6.046710 -1.919166 -0.570386
    13 7.956603 2.145195 -0.352938 1.567362 -3.119660 0.342054
    14 -0.025045 -8.627647 -0.111947 0.831121 0.376860 0.335385
    15 -0.488518 -2.755602 -0.228260 -0.855329 -0.005500 -0.245375
    16 0.039887 -1.546198 0.022041 -1.891765 -0.006292 0.042163
    17 0.028786 -1.153858 -0.120768 -0.959872 -0.014837 0.019894
    18 0.250027 -2.820665 -0.238396 -0.560831 -0.117709 -0.086571
    19 -0.045853 -1.598510 0.037977 -1.526314 0.140987 -0.053597
    20 -0.034142 -1.179563 0.045718 -1.334442 0.004518 -0.035199
    21 0.957766 -2.746780 -0.090302 -0.014872 -0.242718 0.317947
    22 -0.033420 -1.397129 -0.030789 -1.023289 0.072830 -0.009792
    23 -0.022360 -0.961342 -0.008561 -1.033442 0.072663 -0.010774
    24 -1.180681 -2.507217 -0.193859 -0.519852 0.255646 -0.222176
    25 -0.024967 -1.127840 0.017597 -1.700810 -0.017402 -0.065794
    26 -0.020057 -0.906594 0.033528 -1.037463 0.004806 -0.042545
    27 0.642106 -1.189464 0.185379 1.395565 -1.086678 -1.368343
    28 1.496863 -0.192885 0.036260 0.030976 -0.114716 -0.664694
    29 1.081239 -0.100945 0.016666 0.006756 -0.123276 -0.502104
    30 0.120153 -0.050270 -0.054489 0.287569 3.110905 1.561085
    31 -1.891912 -5.332825 -11.200844 -1.492272 -5.272280 -1.343635
    32 -0.110094 -8.333227 0.314864 -0.746446 -1.014443 0.792889
    33 0.682335 -2.556791 -0.262945 -1.403371 -0.057052 0.428144
    34 -0.032909 -1.499736 0.020565 -1.155787 0.022171 -0.019892
    35 -0.027022 -1.104265 -0.028023 -0.656005 0.016539 -0.008078
    36 0.008286 -2.733679 -0.287498 -1.224291 -0.096313 0.189198
    37 0.043235 -1.656596 0.072574 -1.332477 -0.021134 0.006053
    38 0.031729 -1.149111 0.058838 -0.700097 -0.007148 0.005304
    39 -0.709952 -2.804677 -0.253324 -1.005405 0.062193 -0.033347
    40 0.028479 -1.403067 -0.021074 -0.985528 -0.026150 -0.034588
    41 0.021413 -0.942156 0.012233 -0.995616 -0.026630 -0.034228
    42 1.332449 -2.168929 -0.178143 -1.451654 -0.251939 0.569780
    43 0.024032 -1.136855 -0.001725 -0.837936 0.005801 0.044440
    44 0.014898 -0.899614 -0.015942 -0.880686 0.004998 0.044535
    45 -0.645366 -1.248852 0.059532 -0.141697 -1.003780 -2.153974
    46 1.550180 0.039149 0.016848 -0.011845 -0.004570 0.632985
    47 1.114041 0.044518 -0.005766 -0.019502 -0.034630 0.745810
    48 -0.139399 -0.111698 0.014397 0.285382 -0.030687 1.580508
    49 -8.210084 0.014689 -0.477722 1.564301 -0.037250 -0.079395
  time 7
    0 0.107293 -3.403177 -2.990443 1.581075 -0.093555 -1.551530
    1 4.116302 0.309474 0.579363 1.570821 -1.565877 -1.569560
    2 0.776872 -0.777959 0.000000 0.000001 0.000000 -1.828850
    3 1.657125 1.617842 -0.396090 1.570803 1.552836 -1.569519
    4 1.657129 1.623131 0.386865 1.570790 -1.588547 -1.569507
    5 4.124314 -3.447140 -0.020971 -1.570796 0.000000 0.377722
    6 -0.001059 -0.000005 0.029470 -0.000001 0.000000 -1.570797
    7 0.161901 -0.042629 2.167028 1.570796 0.008569 1.570797
    8 0.000000 0.439464 -0.149598 0.000000 0.000000 0.000000
    9 0.000001 0.360867 0.000000 0.000000 0.000000 0.000000
    10 0.974790 1.650626 -0.003569 0.000000 0.000000 0.001279
    11 -0.002752 -0.001265 -0.003287 0.000000 0.000000 0.000000
    12 7.110818 6.032763 -5.499149 6.045177 -1.921465 -0.565167
    13 7.940978 2.227229 -0.352938 1.567266 -3.119851 0.352455
    14 -0.025045 -8.627647 -0.111947 0.828372 0.377449 0.338655
    15 -0.488518 -2.755602 -0.228260 -0.855329 -0.005500 -0.245375
    16 0.039887 -1.546198 0.022041 -1.891765 -0.006292 0.042163
    17 0.028786 -1.153858 -0.120768 -0.959872 -0.014837 0.019894
    18 0.250027 -2.820665 -0.238396 -0.560831 -0.117709 -0.086571
    19 -0.045853 -1.598510 0.037977 -1.526314 0.140987 -0.053597
    20 -0.034142 -1.179563 0.045718 -1.334442 0.004518 -0.035199
    21 0.957766 -2.746780 -0.090302 -0.014872 -0.242718 0.317947
    22 -0.033420 -1.397129 -0.030789 -1.023289 0.072830 -0.009792
    23 -0.022360 -0.961342 -0.008561 -1.033442 0.072663 -0.010774
    24 -1.180681 -2.507217 -0.193859 -0.519852 0.255646 -0.222176
    25 -0.024967 -1.127840 0.017597 -1.700810 -0.017402 -0.065794
    26 -0.020057 -0.906594 0.033528 -1.037463 0.004806 -0.042545
    27 0.642106 -1.189464 0.185379 1.395565 -1.086678 -1.368343
    28 1.496863 -0.192885 0.036260 0.030976 -0.114716 -0.664694
    29 1.081239 -0.100945 0.016666 0.006756 -0.123276 -0.502104
    30 0.120153 -0.050270 -0.054489 0.287569 3.110905 1.561085
    31 -1.884099 -5.399234 -11.169593 -1.492391 -5.272622 -1.344742
    32 -0.110094 -8.333227 0.314864 -0.748078 -1.013698 0.791780
    33 0.682335 -2.556791 -0.262945 -1.403371 -0.057052 0.428144
    34 -0.032909 -1.499736 0.020565 -1.155787 0.022171 -0.019892
    35 -0.027022 -1.104265 -0.028023 -0.656005 0.016539 -0.008078
    36 0.008286 -2.733679 -0.287498 -1.224291 -0.096313 0.189198
    37 0.043235 -1.656596 0.072574 -1.332477 -0.021134 0.006053
    38 0.031729 -1.149111 0.058838 -0.700097 -0.007148 0.005304
    39 -0.709952 -2.804677 -0.253324 -1.005405 0.062193 -0.033347
    40 0.028479 -1.403067 -0.021074 -0.985528 -0.026150 -0.034588
    41 0.021413 -0.942156 0.012233 -0.995616 -0.026630 -0.034228
    42 1.332449 -2.168929 -0.178143 -1.451654 -0.251939 0.569780
    43 0.024032 -1.136855 -0.001725 -0.837936 0.005801 0.044440
    44 0.014898 -0.899614 -0.015942 -0.880686 0.004998 0.044535
    45 -0.645366 -1.248852 0.059532 -0.141697 -1.003780 -2.153974
    46 1.550180 0.039149 0.016848 -0.011845 -0.004570 0.632985
    47 1.114041 0.044518 -0.005766 -0.019502 -0.034630 0.745810
    48 -0.139399 -0.111698 0.014397 0.285382 -0.030687 1.580508
    49 -8.217897 0.120161 -0.477722 1.564625 -0.037130 -0.092183
  time 8
    0 0.107293 -3.465679 -2.986537 1.580980 -0.095853 -1.551584
    1 4.116302 0.309474 0.579363 1.570821 -1.565877 -1.569560
    2 0.776872 -0.777959 0.000000 0.000001 0.000000 -1.828850
    3 1.657125 1.617842 -0.396090 1.570803 1.552836 -1.569519
    4 1.657129 1.623131 0.386865 1.570790 -1.588547 -1.569507
    5 4.124314 -3.447140 -0.020971 -1.570796 0.000000 0.377722
    6 -0.001059 -0.000005 0.029470 -0.000001 0.000000 -1.570797
    7 0.161901 -0.042629 2.167028 1.570796 0.008569 1.570797
    8 0.000000 0.439464 -0.149598 0.000000 0.000000 0.000000
    9 0.000001 0.360867 0.000000 0.000000 0.000000 0.000000
    10 0.974790 1.650626 -0.003569 0.000000 0.000000 0.001279
    11 -0.002752 -0.001265 -0.003287 0.000000 0.000000 0.000000
    12 7.087379 5.985887 -5.495243 6.042301 -1.923886 -0.558265
    13 7.921446 2.324888 -0.349031 1.567171 -3.120043 0.364282
    14 -0.025045 -8.627647 -0.111947 0.825454 0.378738 0.341988
    15 -0.488518 -2.755602 -0.228260 -0.855329 -0.005500 -0.245375
    16 0.039887 -1.546198 0.022041 -1.891765 -0.006292 0.042163
    17 0.028786 -1.153858 -0.120768 -0.959872 -0.014837 0.019894
    18 0.250027 -2.820665 -0.238396 -0.560831 -0.117709 -0.086571
    19 -0.045853 -1.598510 0.037977 -1.526314 0.140987 -0.053597
    20 -0.034142 -1.179563 0.045718 -1.334442 0.004518 -0.035199
    21 0.957766 -2.746780 -0.090302 -0.014872 -0.242718 0.317947
    22 -0.033420 -1.397129 -0.030789 -1.023289 0.072830 -0.009792
    23 -0.022360 -0.961342 -0.008561 -1.033442 0.072663 -0.010774
    24 -1.180681 -2.507217 -0.193859 -0.519852 0.255646 -0.222176
    25 -0.024967 -1.127840 0.017597 -1.700810 -0.017402 -0.065794
    26 -0.020057 -0.906594 0.033528 -1.037463 0.004806 -0.042545
    27 0.642106 -1.189464 0.185379 1.395565 -1.086678 -1.368343
    28 1.496863 -0.192885 0.036260 0.030976 -0.114716 -0.664694
    29 1.081239 -0.100945 0.016666 0.006756 -0.123276 -0.502104
    30 0.120153 -0.050270 -0.054489 0.287569 3.110905 1.561085
    31 -1.880193 -5.465642 -11.138342 -1.492331 -5.271390 -1.345664
    32 -0.110094 -8.333227 0.314864 -0.749909 -1.013073 0.789917
    33 0.682335 -2.556791 -0.262945 -1.403371 -0.057052 0.428144
    34 -0.032909 -1.499736 0.020565 -1.155787 0.022171 -0.019892
    35 -0.027022 -1.104265 -0.028023 -0.656005 0.016539 -0.008078
    36 0.008286 -2.733679 -0.287498 -1.224291 -0.096313 0.189198
    37 0.043235 -1.656596 0.072574 -1.332477 -0.021134 0.006053
    38 0.031729 -1.149111 0.058838 -0.700097 -0.007148 0.005304
    39 -0.709952 -2.804677 -0.253324 -1.005405 0.062193 -0.033347
    40 0.028479 -1.403067 -0.021074 -0.985528 -0.026150 -0.034588
    41 0.021413 -0.942156 0.012233 -0.995616 -0.026630 -0.034228
    42 1.332449 -2.168929 -0.178143 -1.451654 -0.251939 0.569780
    43 0.024032 -1.136855 -0.001725 -0.837936 0.005801 0.044440
    44 0.014898 -0.899614 -0.015942 -0.880686 0.004998 0.044535
    45 -0.645366 -1.248852 0.059532 -0.141697 -1.003780 -2.153974
    46 1.550180 0.039149 0.016848 -0.011845 -0.004570 0.632985
    47 1.114041 0.044518 -0.005766 -0.019502 -0.034630 0.745810
    48 -0.139399 -0.111698 0.014397 0.285382 -0.030687 1.580508
    49 -8.225710 0.233446 -0.477722 1.564960 -0.036986 -0.106197
  time 9
    0 0.107293 -3.512556 -2.990443 1.580980 -0.095662 -1.551584
    1 4.116302 0.309474 0.579363 1.570821 -1.565877 -1.569548
    2 0.776872 -0.777959 0.000000 0.000001 0.000000 -1.828850
    3 1.657125 1.617842 -0.396090 1.570803 1.552836 -1.569519
    4 1.657129 1.623131 0.386865 1.570790 -1.588547 -1.569507
    5 4.124314 -3.447140 -0.020971 -1.570796 0.000000 0.377722
    6 -0.001059 -0.000005 0.029470 -0.000001 0.000000 -1.570797
    7 0.161901 -0.042629 2.167028 1.570796 0.008569 1.570797
    8 0.000000 0.439464 -0.149598 0.000000 0.000000 0.000000
    9 0.000001 0.360867 0.000000 0.000000 0.000000 0.000000
    10 0.974790 1.650626 -0.003569 0.000000 0.000000 0.001279
    11 -0.002752 -0.001265 -0.003287 0.000000 0.000000 0.000000
    12 7.067847 5.958542 -5.487430 6.041534 -1.925399 -0.554982
    13 7.909727 2.379577 -0.349031 1.567075 -3.120235 0.371412
    14 -0.025045 -8.623740 -0.111947 0.823490 0.380752 0.342642
    15 -0.488518 -2.755602 -0.228260 -0.855329 -0.005500 -0.245375
    16 0.039887 -1.546198 0.022041 -1.891765 -0.006292 0.042163
    17 0.028786 -1.153858 -0.120768 -0.959872 -0.014837 0.019894
    18 0.250027 -2.820665 -0.238396 -0.560831 -0.117709 -0.086571
    19 -0.045853 -1.598510 0.037977 -1.526314 0.140987 -0.053597
    20 -0.034142 -1.179563 0.045718 -1.334442 0.004518 -0.035199
    21 0.957766 -2.746780 -0.090302 -0.014872 -0.242718 0.317947
    22 -0.033420 -1.397129 -0.030789 -1.023289 0.072830 -0.009792
    23 -0.022360 -0.961342 -0.008561 -1.033442 0.072663 -0.010774
    24 -1.180681 -2.507217 -0.193859 -0.519852 0.255646 -0.222176
    25 -0.024967 -1.127840 0.017597 -1.700810 -0.017402 -0.065794
    26 -0.020057 -0.906594 0.033528 -1.037463 0.004806 -0.042545
    27 0.642106 -1.189464 0.185379 1.395565 -1.086678 -1.368343
    28 1.496863 -0.192885 0.036260 0.030976 -0.114716 -0.664694
    29 1.081239 -0.100945 0.016666 0.006756 -0.123276 -0.502104
    30 0.120153 -0.050270 -0.054489 0.287569 3.110905 1.561085
    31 -1.876287 -5.500799 -11.122716 -1.492093 -5.269061 -1.346033
    32 -0.110094 -8.333227 0.314864 -0.751143 -1.012954 0.788808
    33 0.682335 -2.556791 -0.262945 -1.403371 -0.057052 0.428144
    34 -0.032909 -1.499736 0.020565 -1.155787 0.022171 -0.019892
    35 -0.027022 -1.104265 -0.028023 -0.656005 0.016539 -0.008078
    36 0.008286 -2.733679 -0.287498 -1.224291 -0.096313 0.189198
    37 0.043235 -1.656596 0.072574 -1.332477 -0.021134 0.006053
    38 0.031729 -1.149111 0.058838 -0.700097 -0.007148 0.005304
    39 -0.709952 -2.804677 -0.253324 -1.005405 0.062193 -0.033347
    40 0.028479 -1.403067 -0.021074 -0.985528 -0.026150 -0.034588
    41 0.021413 -0.942156 0.012233 -0.995616 -0.026630 -0.034228
    42 1.332449 -2.168929 -0.178143 -1.451654 -0.251939 0.569780
    43 0.024032 -1.136855 -0.001725 -0.837936 0.005801 0.044440
    44 0.014898 -0.899614 -0.015942 -0.880686 0.004998 0.044535
    45 -0.645366 -1.248852 0.059532 -0.141697 -1.003780 -2.153974
    46 1.550180 0.039149 0.016848 -0.011845 -0.004570 0.632985
    47 1.114041 0.044518 -0.005766 -0.019502 -0.034630 0.745810
    48 -0.139399 -0.111698 0.014397 0.285382 -0.030687 1.580508
    49 -8.229616 0.307667 -0.473815 1.565188 -0.036902 -0.114927
  time 10
    0 0.107293 -3.539900 -2.990443 1.581075 -0.093172 -1.551530
    1 4.116302 0.309474 0.579363 1.570821 -1.565877 -1.569548
    2 0.776872 -0.777959 0.000000 0.000001 0.000000 -1.828850
    3 1.657125 1.617842 -0.396090 1.570803 1.552836 -1.569519
    4 1.657129 1.623131 0.386865 1.570790 -1.588547 -1.569507
    5 4.124314 -3.447140 -0.020971 -1.570796 0.000000 0.377722
    6 -0.001059 -0.000005 0.029470 -0.000001 0.000000 -1.570797
    7 0.161901 -0.042629 2.167028 1.570796 0.008569 1.570797
    8 0.000000 0.439464 -0.149598 0.000000 0.000000 0.000000
    9 0.000001 0.360867 0.000000 0.000000 0.000000 0.000000
    10 0.974790 1.650626 -0.003569 0.000000 0.000000 0.001279
    11 -0.002752 -0.001265 -0.003287 0.000000 0.000000 0.000000
    12 7.063941 5.946823 -5.487430 6.043356 -1.925883 -0.555740
    13 7.905820 2.395203 -0.349031 1.567075 -3.120235 0.373509
    14 -0.025045 -8.623740 -0.111947 0.822452 0.383468 0.340431
    15 -0.488518 -2.755602 -0.228260 -0.855329 -0.005500 -0.245375
    16 0.039887 -1.546198 0.022041 -1.891765 -0.006292 0.042163
    17 0.028786 -1.153858 -0.120768 -0.959872 -0.014837 0.019894
    18 0.250027 -2.820665 -0.238396 -0.560831 -0.117709 -0.086571
    19 -0.045853 -1.598510 0.037977 -1.526314 0.140987 -0.053597
    20 -0.034142 -1.179563 0.045718 -1.334442 0.004518 -0.035199
    21 0.957766 -2.746780 -0.090302 -0.014872 -0.242718 0.317947
    22 -0.033420 -1.397129 -0.030789 -1.023289 0.072830 -0.009792
    23 -0.022360 -0.961342 -0.008561 -1.033442 0.072663 -0.010774
    24 -1.180681 -2.507217 -0.193859 -0.519852 0.255646 -0.222176
    25 -0.024967 -1.127840 0.017597 -1.700810 -0.017402 -0.065794
    26 -0.020057 -0.906594 0.033528 -1.037463 0.004806 -0.042545
    27 0.642106 -1.189464 0.185379 1.395565 -1.086678 -1.368343
    28 1.496863 -0.192885 0.036260 0.030976 -0.114716 -0.664694
    29 1.081239 -0.100945 0.016666 0.006756 -0.123276 -0.502104
    30 0.120153 -0.050270 -0.054489 0.287569 3.110905 1.561085
    31 -1.880193 -5.504706 -11.122716 -1.491737 -5.265911 -1.345940
    32 -0.110094 -8.333227 0.314864 -0.751820 -1.013401 0.788675
    33 0.682335 -2.556791 -0.262945 -1.403371 -0.057052 0.428144
    34 -0.032909 -1.499736 0.020565 -1.155787 0.022171 -0.019892
    35 -0.027022 -1.104265 -0.028023 -0.656005 0.016539 -0.008078
    36 0.008286 -2.733679 -0.287498 -1.224291 -0.096313 0.189198
    37 0.043235 -1.656596 0.072574 -1.332477 -0.021134 0.006053
    38 0.031729 -1.149111 0.058838 -0.700097 -0.007148 0.005304
    39 -0.709952 -2.804677 -0.253324 -1.005405 0.062193 -0.033347
    40 0.028479 -1.403067 -0.021074 -0.985528 -0.026150 -0.034588
    41 0.021413 -0.942156 0.012233 -0.995616 -0.026630 -0.034228
    42 1.332449 -2.168929 -0.178143 -1.451654 -0.251939 0.569780
    43 0.024032 -1.136855 -0.001725 -0.837936 0.005801 0.044440
    44 0.014898 -0.899614 -0.015942 -0.880686 0.004998 0.044535
    45 -0.645366 -1.248852 0.059532 -0.141697 -1.003780 -2.153974
    46 1.550180 0.039149 0.016848 -0.011845 -0.004570 0.632985
    47 1.114041 0.044518 -0.005766 -0.019502 -0.034630 0.745810
    48 -0.139399 -0.111698 0.014397 0.285382 -0.030687 1.580508
    49 -8.233523 0.335011 -0.473815 1.565272 -0.036866 -0.118450
  time 11
    0 0.107293 -3.563339 -2.990443 1.581265 -0.089819 -1.551422
    1 4.116302 0.309474 0.579363 1.570821 -1.565877 -1.569548
    2 0.776872 -0.777959 0.000000 0.000001 0.000000 -1.828850
    3 1.657125 1.617842 -0.396090 1.570803 1.552836 -1.569519
    4 1.657129 1.623131 0.386865 1.570790 -1.588547 -1.569507
    5 4.124314 -3.447140 -0.020971 -1.570796 0.000000 0.377722
    6 -0.001059 -0.000005 0.029470 -0.000001 0.000000 -1.570797
    7 0.161901 -0.042629 2.167028 1.570796 0.008569 1.570797
    8 0.000000 0.439464 -0.149598 0.000000 0.000000 0.000000
    9 0.000001 0.360867 0.000000 0.000000 0.000000 0.000000
    10 0.974790 1.650626 -0.003569 0.000000 0.000000 0.001279
    11 -0.002752 -0.001265 -0.003287 0.000000 0.000000 0.000000
    12 7.056128 5.935104 -5.483524 6.045847 -1.926246 -0.557423
    13 7.905820 2.406922 -0.349031 1.567075 -3.120330 0.374767
    14 -0.025045 -8.623740 -0.108040 0.821583 0.386704 0.337285
    15 -0.488518 -2.755602 -0.228260 -0.855329 -0.005500 -0.245375
    16 0.039887 -1.546198 0.022041 -1.891765 -0.006292 0.042163
    17 0.028786 -1.153858 -0.120768 -0.959872 -0.014837 0.019894
    18 0.250027 -2.820665 -0.238396 -0.560831 -0.117709 -0.086571
    19 -0.045853 -1.598510 0.037977 -1.526314 0.140987 -0.053597
    20 -0.034142 -1.179563 0.045718 -1.334442 0.004518 -0.035199
    21 0.957766 -2.746780 -0.090302 -0.014872 -0.242718 0.317947
    22 -0.033420 -1.397129 -0.030789 -1.023289 0.072830 -0.009792
    23 -0.022360 -0.961342 -0.008561 -1.033442 0.072663 -0.010774
    24 -1.180681 -2.507217 -0.193859 -0.519852 0.255646 -0.222176
    25 -0.024967 -1.127840 0.017597 -1.700810 -0.017402 -0.065794
    26 -0.020057 -0.906594 0.033528 -1.037463 0.004806 -0.042545
    27 0.642106 -1.189464 0.185379 1.395565 -1.086678 -1.368343
    28 1.496863 -0.192885 0.036260 0.030976 -0.114716 -0.664694
    29 1.081239 -0.100945 0.016666 0.006756 -0.123276 -0.502104
    30 0.120153 -0.050270 -0.054489 0.287569 3.110905 1.561085
    31 -1.880193 -5.500799 -11.130529 -1.491320 -5.262076 -1.345572
    32 -0.110094 -8.333227 0.314864 -0.752417 -1.013996 0.788675
    33 0.682335 -2.556791 -0.262945 -1.403371 -0.057052 0.428144
    34 -0.032909 -1.499736 0.020565 -1.155787 0.022171 -0.019892
    35 -0.027022 -1.104265 -0.028023 -0.656005 0.016539 -0.008078
    36 0.008286 -2.733679 -0.287498 -1.224291 -0.096313 0.189198
    37 0.043235 -1.656596 0.072574 -1.332477 -0.021134 0.006053
    38 0.031729 -1.149111 0.058838 -0.700097 -0.007148 0.005304
    39 -0.709952 -2.804677 -0.253324 -1.005405 0.062193 -0.033347
    40 0.028479 -1.403067 -0.021074 -0.985528 -0.026150 -0.034588
    41 0.021413 -0.942156 0.012233 -0.995616 -0.026630 -0.034228
    42 1.332449 -2.168929 -0.178143 -1.451654 -0.251939 0.569780
    43 0.024032 -1.136855 -0.001725 -0.837936 0.005801 0.044440
    44 0.014898 -0.899614 -0.015942 -0.880686 0.004998 0.044535
    45 -0.645366 -1.248852 0.059532 -0.141697 -1.003780 -2.153974
    46 1.550180 0.039149 0.016848 -0.011845 -0.004570 0.632985
    47 1.114041 0.044518 -0.005766 -0.019502 -0.034630 0.745810
    48 -0.139399 -0.111698 0.014397 0.285382 -0.030687 1.580508
    49 -8.233523 0.354543 -0.473815 1.565332 -0.036842 -0.121053
  time 12
    0 0.107293 -3.586777 -2.994349 1.581454 -0.085796 -1.551260
    1 4.116302 0.309474 0.579363 1.570821 -1.565877 -1.569548
    2 0.776872 -0.777959 0.000000 0.000001 0.000000 -1.828850
    3 1.657125 1.617842 -0.396090 1.570803 1.552836 -1.569519
    4 1.657129 1.623131 0.386865 1.570790 -1.588547 -1.569507
    5 4.124314 -3.447140 -0.020971 -1.570796 0.000000 0.377722
    6 -0.001059 -0.000005 0.029470 -0.000001 0.000000 -1.570797
    7 0.161901 -0.042629 2.167028 1.570796 0.008569 1.570797
    8 0.000000 0.439464 -0.149598 0.000000 0.000000 0.000000
    9 0.000001 0.360867 0.000000 0.000000 0.000000 0.000000
    10 0.974790 1.650626 -0.003569 0.000000 0.000000 0.001279
    11 -0.002752 -0.001265 -0.003287 0.000000 0.000000 0.000000
    12 7.056128 5.927291 -5.479618 6.048723 -1.926428 -0.559612
    13 7.905820 2.410828 -0.349031 1.567075 -3.120330 0.375186
    14 -0.025045 -8.623740 -0.108040 0.820797 0.390279 0.333516
    15 -0.488518 -2.755602 -0.228260 -0.855329 -0.005500 -0.245375
    16 0.039887 -1.546198 0.022041 -1.891765 -0.006292 0.042163
    17 0.028786 -1.153858 -0.120768 -0.959872 -0.014837 0.019894
    18 0.250027 -2.820665 -0.238396 -0.560831 -0.117709 -0.086571
    19 -0.045853 -1.598510 0.037977 -1.526314 0.140987 -0.053597
    20 -0.034142 -1.179563 0.045718 -1.334442 0.004518 -0.035199
    21 0.957766 -2.746780 -0.090302 -0.014872 -0.242718 0.317947
    22 -0.033420 -1.397129 -0.030789 -1.023289 0.072830 -0.009792
    23 -0.022360 -0.961342 -0.008561 -1.033442 0.072663 -0.010774
    24 -1.180681 -2.507217 -0.193859 -0.519852 0.255646 -0.222176
    25 -0.024967 -1.127840 0.017597 -1.700810 -0.017402 -0.065794
    26 -0.020057 -0.906594 0.033528 -1.037463 0.004806 -0.042545
    27 0.642106 -1.189464 0.185379 1.395565 -1.086678 -1.368343
    28 1.496863 -0.192885 0.036260 0.030976 -0.114716 -0.664694
    29 1.081239 -0.100945 0.016666 0.006756 -0.123276 -0.502104
    30 0.120153 -0.050270 -0.054489 0.287569 3.110905 1.561085
    31 -1.880193 -5.489080 -11.138342 -1.490785 -5.257762 -1.345111
    32 -0.110094 -8.333227 0.314864 -0.752974 -1.014770 0.788808
    33 0.682335 -2.556791 -0.262945 -1.403371 -0.057052 0.428144
    34 -0.032909 -1.499736 0.020565 -1.155787 0.022171 -0.019892
    35 -0.027022 -1.104265 -0.028023 -0.656005 0.016539 -0.008078
    36 0.008286 -2.733679 -0.287498 -1.224291 -0.096313 0.189198
    37 0.043235 -1.656596 0.072574 -1.332477 -0.021134 0.006053
    38 0.031729 -1.149111 0.058838 -0.700097 -0.007148 0.005304
    39 -0.709952 -2.804677 -0.253324 -1.005405 0.062193 -0.033347
    40 0.028479 -1.403067 -0.021074 -0.985528 -0.026150 -0.034588
    41 0.021413 -0.942156 0.012233 -0.995616 -0.026630 -0.034228
    42 1.332449 -2.168929 -0.178143 -1.451654 -0.251939 0.569780
    43 0.024032 -1.136855 -0.001725 -0.837936 0.005801 0.044440
    44 0.014898 -0.899614 -0.015942 -0.880686 0.004998 0.044547
    45 -0.645366 -1.248852 0.059532 -0.141697 -1.003780 -2.153974
    46 1.550180 0.039149 0.016848 -0.011845 -0.004570 0.632985
    47 1.114041 0.044518 -0.005766 -0.019502 -0.034630 0.745810
    48 -0.139399 -0.111698 0.014397 0.285382 -0.030687 1.580508
    49 -8.233523 0.370169 -0.473815 1.565380 -0.036818 -0.122815
  time 13
    0 0.107293 -3.606309 -2.998256 1.581739 -0.081391 -1.551151
    1 4.116302 0.309474 0.579363 1.570821 -1.565877 -1.569548
    2 0.776872 -0.777959 0.000000 0.000001 0.000000 -1.828850
    3 1.657125 1.617842 -0.396090 1.570803 1.552836 -1.569519
    4 1.657129 1.623131 0.386865 1.570790 -1.588547 -1.569507
    5 4.124314 -3.447140 -0.020971 -1.570796 0.000000 0.377722
    6 -0.001059 -0.000005 0.029470 -0.000001 0.000000 -1.570797
    7 0.161901 -0.042629 2.167028 1.570796 0.008569 1.570797
    8 0.000000 0.439464 -0.149598 0.000000 0.000000 0.000000
    9 0.000001 0.360867 0.000000 0.000000 0.000000 0.000000
    10 0.974790 1.650626 -0.003569 0.000000 0.000000 0.001279
    11 -0.002752 -0.001265 -0.003287 0.000000 0.000000 0.000000
    12 7.052222 5.923385 -5.479618 6.051886 -1.926549 -0.562305
    13 7.905820 2.410828 -0.349031 1.567075 -3.120330 0.375186
    14 -0.025045 -8.623740 -0.108040 0.820096 0.394013 0.329374
    15 -0.488518 -2.755602 -0.228260 -0.855329 -0.005500 -0.245375
    16 0.039887 -1.546198 0.022041 -1.891765 -0.006292 0.042163
    17 0.028786 -1.153858 -0.120768 -0.959872 -0.014837 0.019894
    18 0.250027 -2.820665 -0.238396 -0.560831 -0.117709 -0.086571
    19 -0.045853 -1.598510 0.037977 -1.526314 0.140987 -0.053597
    20 -0.034142 -1.179563 0.045718 -1.334442 0.004518 -0.035199
    21 0.957766 -2.746780 -0.090302 -0.014872 -0.242718 0.317947
    22 -0.033420 -1.397129 -0.030789 -1.023289 0.072830 -0.009792
    23 -0.022360 -0.961342 -0.008561 -1.033442 0.072663 -0.010774
    24 -1.180681 -2.507217 -0.193859 -0.519852 0.255646 -0.222176
    25 -0.024967 -1.127840 0.017597 -1.700810 -0.017402 -0.065794
    26 -0.020057 -0.906594 0.033528 -1.037463 0.004806 -0.042545
    27 0.642106 -1.189464 0.185379 1.395565 -1.086678 -1.368343
    28 1.496863 -0.192885 0.036260 0.030976 -0.114716 -0.664694
    29 1.081239 -0.100945 0.016666 0.006756 -0.123276 -0.502104
    30 0.120153 -0.050270 -0.054489 0.287569 3.110905 1.561085
    31 -1.884099 -5.473455 -11.150061 -1.490250 -5.253242 -1.344465
    32 -0.110094 -8.333227 0.314864 -0.753492 -1.015604 0.789029
    33 0.682335 -2.556791 -0.262945 -1.403371 -0.057052 0.428144
    34 -0.032909 -1.499736 0.020565 -1.155787 0.022171 -0.019892
    35 -0.027022 -1.104265 -0.028023 -0.656005 0.016539 -0.008078
    36 0.008286 -2.733679 -0.287498 -1.224291 -0.096313 0.189198
    37 0.043235 -1.656596 0.072574 -1.332477 -0.021134 0.006053
    38 0.031729 -1.149111 0.058838 -0.700097 -0.007148 0.005304
    39 -0.709952 -2.804677 -0.253324 -1.005405 0.062193 -0.033347
    40 0.028479 -1.403067 -0.021074 -0.985528 -0.026150 -0.034588
    41 0.021413 -0.942156 0.012233 -0.995616 -0.026630 -0.034228
    42 1.332449 -2.168929 -0.178143 -1.451654 -0.251939 0.569780
    43 0.024032 -1.136855 -0.001725 -0.837936 0.005801 0.044440
    44 0.014898 -0.899614 -0.015942 -0.880686 0.004998 0.044535
    45 -0.645366 -1.248852 0.059532 -0.141697 -1.003780 -2.153974
    46 1.550180 0.039149 0.016848 -0.011845 -0.004570 0.632985
    47 1.114041 0.044518 -0.005766 -0.019502 -0.034630 0.745810
    48 -0.139399 -0.111698 0.014397 0.285382 -0.030687 1.580508
    49 -8.233523 0.381888 -0.473815 1.565404 -0.036806 -0.123963
  time 14
    0 0.103387 -3.625841 -3.002162 1.581929 -0.076889 -1.550989
    1 4.116302 0.309474 0.579363 1.570821 -1.565877 -1.569548
    2 0.776872 -0.777959 0.000000 0.000001 0.000000 -1.828850
    3 1.657125 1.617842 -0.396090 1.570803 1.552836 -1.569519
    4 1.657129 1.623131 0.386865 1.570790 -1.588547 -1.569507
    5 4.124314 -3.447140 -0.020971 -1.570796 0.000000 0.377722
    6 -0.001059 -0.000005 0.029470 -0.000001 0.000000 -1.570797
    7 0.161901 -0.042629 2.167028 1.570796 0.008569 1.570797
    8 0.000000 0.439464 -0.149598 0.000000 0.000000 0.000000
    9 0.000001 0.360867 0.000000 0.000000 0.000000 0.000000
    10 0.974790 1.650626 -0.003569 0.000000 0.000000 0.001279
    11 -0.002752 -0.001265 -0.003287 0.000000 0.000000 0.000000
    12 7.052222 5.919478 -5.479618 6.055048 -1.926609 -0.565083
    13 7.905820 2.406922 -0.349031 1.567075 -3.120330 0.374767
    14 -0.025045 -8.623740 -0.108040 0.819479 0.397678 0.325107
    15 -0.488518 -2.755602 -0.228260 -0.855329 -0.005500 -0.245375
    16 0.039887 -1.546198 0.022041 -1.891765 -0.006292 0.042163
    17 0.028786 -1.153858 -0.120768 -0.959872 -0.014837 0.019894
    18 0.250027 -2.820665 -0.238396 -0.560831 -0.117709 -0.086571
    19 -0.045853 -1.598510 0.037977 -1.526314 0.140987 -0.053597
    20 -0.034142 -1.179563 0.045718 -1.334442 0.004518 -0.035199
    21 0.957766 -2.746780 -0.090302 -0.014872 -0.242718 0.317947
    22 -0.033420 -1.397129 -0.030789 -1.023289 0.072830 -0.009792
    23 -0.022360 -0.961342 -0.008561 -1.033442 0.072663 -0.010774
    24 -1.180681 -2.507217 -0.193859 -0.519852 0.255646 -0.222176
    25 -0.024967 -1.127840 0.017597 -1.700810 -0.017402 -0.065794
    26 -0.020057 -0.906594 0.033528 -1.037463 0.004806 -0.042545
    27 0.642106 -1.189464 0.185379 1.395565 -1.086678 -1.368343
    28 1.496863 -0.192885 0.036260 0.030976 -0.114716 -0.664694
    29 1.081239 -0.100945 0.016666 0.006756 -0.123276 -0.502104
    30 0.120153 -0.050270 -0.054489 0.287569 3.110905 1.561085
    31 -1.888006 -5.453923 -11.161780 -1.489715 -5.248723 -1.343912
    32 -0.110094 -8.333227 0.314864 -0.753930 -1.016438 0.789296
    33 0.682335 -2.556791 -0.262945 -1.403371 -0.057052 0.428144
    34 -0.032909 -1.499736 0.020565 -1.155787 0.022171 -0.019892
    35 -0.027022 -1.104265 -0.028023 -0.656005 0.016539 -0.008078
    36 0.008286 -2.733679 -0.287498 -1.224291 -0.096313 0.189198
    37 0.043235 -1.656596 0.072574 -1.332477 -0.021134 0.006053
    38 0.031729 -1.149111 0.058838 -0.700097 -0.007148 0.005304
    39 -0.709952 -2.804677 -0.253324 -1.005405 0.062193 -0.033347
    40 0.028479 -1.403067 -0.021074 -0.985528 -0.026150 -0.034588
    41 0.021413 -0.942156 0.012233 -0.995616 -0.026630 -0.034228
    42 1.332449 -2.168929 -0.178143 -1.451654 -0.251939 0.569780
    43 0.024032 -1.136855 -0.001725 -0.837936 0.005801 0.044440
    44 0.014898 -0.899614 -0.015942 -0.880686 0.004998 0.044535
    45 -0.645366 -1.248852 0.059532 -0.141697 -1.003780 -2.153974
    46 1.550180 0.039149 0.016848 -0.011845 -0.004570 0.632985
    47 1.114041 0.044518 -0.005766 -0.019502 -0.034630 0.745810
    48 -0.139399 -0.111698 0.014397 0.285382 -0.030687 1.580508
    49 -8.233523 0.385794 -0.473815 1.565428 -0.036794 -0.124729
  time 15
    0 0.103387 -3.641466 -3.006069 1.582214 -0.072579 -1.550881
    1 4.116302 0.309474 0.579363 1.570821 -1.565877 -1.569560
    2 0.776872 -0.777959 0.000000 0.000001 0.000000 -1.828850
    3 1.657125 1.617842 -0.396090 1.570803 1.552836 -1.569519
    4 1.657129 1.623131 0.386865 1.570790 -1.588547 -1.569507
    5 4.124314 -3.447140 -0.020971 -1.570796 0.000000 0.377722
    6 -0.001059 -0.000005 0.029470 -0.000001 0.000000 -1.570797
    7 0.161901 -0.042629 2.167028 1.570796 0.008569 1.570797
    8 0.000000 0.439464 -0.149598 0.000000 0.000000 0.000000
    9 0.000001 0.360867 0.000000 0.000000 0.000000 0.000000
    10 0.974790 1.650626 -0.003569 0.000000 0.000000 0.001279
    11 -0.002752 -0.001265 -0.003287 0.000000 0.000000 0.000000
    12 7.052222 5.915572 -5.475711 6.058020 -1.926609 -0.567776
    13 7.905820 2.403016 -0.349031 1.567075 -3.120235 0.374180
    14 -0.025045 -8.619834 -0.108040 0.818946 0.401141 0.321058
    15 -0.488518 -2.755602 -0.228260 -0.855329 -0.005500 -0.245375
    16 0.039887 -1.546198 0.022041 -1.891765 -0.006292 0.042163
    17 0.028786 -1.153858 -0.120768 -0.959872 -0.014837 0.019894
    18 0.250027 -2.820665 -0.238396 -0.560831 -0.117709 -0.086571
    19 -0.045853 -1.598510 0.037977 -1.526314 0.140987 -0.053597
    20 -0.034142 -1.179563 0.045718 -1.334442 0.004518 -0.035199
    21 0.957766 -2.746780 -0.090302 -0.014872 -0.242718 0.317947
    22 -0.033420 -1.397129 -0.030789 -1.023289 0.072830 -0.009792
    23 -0.022360 -0.961342 -0.008561 -1.033442 0.072663 -0.010774
    24 -1.180681 -2.507217 -0.193859 -0.519852 0.255646 -0.222176
    25 -0.024967 -1.127840 0.017597 -1.700810 -0.017402 -0.065794
    26 -0.020057 -0.906594 0.033528 -1.037463 0.004806 -0.042545
    27 0.642106 -1.189464 0.185379 1.395565 -1.086678 -1.368343
    28 1.496863 -0.192885 0.036260 0.030976 -0.114716 -0.664694
    29 1.081239 -0.100945 0.016666 0.006756 -0.123276 -0.502104
    30 0.120153 -0.050270 -0.054489 0.287569 3.110905 1.561085
    31 -1.888006 -5.438297 -11.177406 -1.489179 -5.244477 -1.343267
    32 -0.114000 -8.333227 0.314864 -0.754328 -1.017271 0.789606
    33 0.682335 -2.556791 -0.262945 -1.403371 -0.057052 0.428144
    34 -0.032909 -1.499736 0.020565 -1.155787 0.022171 -0.019892
    35 -0.027022 -1.104265 -0.028023 -0.656005 0.016539 -0.008078
    36 0.008286 -2.733679 -0.287498 -1.224291 -0.096313 0.189198
    37 0.043235 -1.656596 0.072574 -1.332477 -0.021134 0.006053
    38 0.031729 -1.149111 0.058838 -0.700097 -0.007148 0.005304
    39 -0.709952 -2.804677 -0.253324 -1.005405 0.062193 -0.033347
    40 0.028479 -1.403067 -0.021074 -0.985528 -0.026150 -0.034588
    41 0.021413 -0.942156 0.012233 -0.995616 -0.026630 -0.034228
    42 1.332449 -2.168929 -0.178143 -1.451654 -0.251939 0.569780
    43 0.024032 -1.136855 -0.001725 -0.837936 0.005801 0.044440
    44 0.014898 -0.899614 -0.015942 -0.880686 0.004998 0.044535
    45 -0.645366 -1.248852 0.059532 -0.141697 -1.003780 -2.153974
    46 1.550180 0.039149 0.016848 -0.011845 -0.004570 0.632985
    47 1.114041 0.044518 -0.005766 -0.019502 -0.034630 0.745810
    48 -0.139399 -0.111698 0.014397 0.285382 -0.030687 1.580508
    49 -8.233523 0.389701 -0.473815 1.565440 -0.036794 -0.125112
  time 16
    0 0.103387 -3.653185 -3.009975 1.582404 -0.068843 -1.550719
    1 4.116302 0.309474 0.579363 1.570821 -1.565877 -1.569560
    2 0.776872 -0.777959 0.000000 0.000001 0.000000 -1.828850
    3 1.657125 1.617842 -0.396090 1.570803 1.552836 -1.569519
    4 1.657129 1.623131 0.386865 1.570790 -1.588547 -1.569507
    5 4.124314 -3.447140 -0.020971 -1.570796 0.000000 0.377722
    6 -0.001059 -0.000005 0.029470 -0.000001 0.000000 -1.570797
    7 0.161901 -0.042629 2.167028 1.570796 0.008569 1.570797
    8 0.000000 0.439464 -0.149598 0.000000 0.000000 0.000000
    9 0.000001 0.360867 0.000000 0.000000 0.000000 0.000000
    10 0.974790 1.650626 -0.003569 0.000000 0.000000 0.001279
    11 -0.002752 -0.001265 -0.003287 0.000000 0.000000 0.000000
    12 7.052222 5.915572 -5.475711 6.060607 -1.926609 -0.570217
    13 7.905820 2.399109 -0.349031 1.567075 -3.120235 0.373677
    14 -0.025045 -8.619834 -0.108040 0.818497 0.404173 0.317445
    15 -0.488518 -2.755602 -0.228260 -0.855329 -0.005500 -0.245375
    16 0.039887 -1.546198 0.022041 -1.891765 -0.006292 0.042163
    17 0.028786 -1.153858 -0.120768 -0.959901 -0.014837 0.019894
    18 0.250027 -2.820665 -0.238396 -0.560831 -0.117709 -0.086571
    19 -0.045853 -1.598510 0.037977 -1.526314 0.140987 -0.053597
    20 -0.034142 -1.179563 0.045718 -1.334442 0.004518 -0.035199
    21 0.957766 -2.746780 -0.090302 -0.014872 -0.242718 0.317947
    22 -0.033420 -1.397129 -0.030789 -1.023289 0.072830 -0.009792
    23 -0.022360 -0.961342 -0.008561 -1.033442 0.072663 -0.010774
    24 -1.180681 -2.507217 -0.193859 -0.519852 0.255646 -0.222176
    25 -0.024967 -1.127840 0.017597 -1.700810 -0.017402 -0.065794
    26 -0.020057 -0.906594 0.033528 -1.037463 0.004806 -0.042545
    27 0.642106 -1.189464 0.185379 1.395565 -1.086678 -1.368343
    28 1.496863 -0.192885 0.036260 0.030976 -0.114716 -0.664694
    29 1.081239 -0.100945 0.016666 0.006756 -0.123276 -0.502104
    30 0.120153 -0.050270 -0.054489 0.287569 3.110905 1.561085
    31 -1.891912 -5.418766 -11.185218 -1.488763 -5.240710 -1.342713
    32 -0.114000 -8.333227 0.314864 -0.754686 -1.017986 0.789828
    33 0.682335 -2.556791 -0.262945 -1.403371 -0.057052 0.428144
    34 -0.032909 -1.499736 0.020565 -1.155787 0.022171 -0.019892
    35 -0.027022 -1.104265 -0.028023 -0.656005 0.016539 -0.008078
    36 0.008286 -2.733679 -0.287498 -1.224291 -0.096313 0.189198
    37 0.043235 -1.656596 0.072574 -1.332477 -0.021134 0.006053
    38 0.031729 -1.149111 0.058838 -0.700097 -0.007148 0.005304
    39 -0.709952 -2.804677 -0.253324 -1.005405 0.062193 -0.033347
    40 0.028479 -1.403067 -0.021074 -0.985528 -0.026150 -0.034588
    41 0.021413 -0.942156 0.012233 -0.995616 -0.026630 -0.034228
    42 1.332449 -2.168929 -0.178143 -1.451654 -0.251939 0.569780
    43 0.024032 -1.136855 -0.001725 -0.837936 0.005801 0.044440
    44 0.014898 -0.899614 -0.015942 -0.880686 0.004998 0.044535
    45 -0.645366 -1.248852 0.059532 -0.141697 -1.003780 -2.153974
    46 1.550180 0.039149 0.016848 -0.011845 -0.004570 0.632985
    47 1.114041 0.044518 -0.005766 -0.019502 -0.034630 0.745810
    48 -0.139399 -0.111698 0.014397 0.285382 -0.030687 1.580508
    49 -8.233523 0.393607 -0.473815 1.565440 -0.036794 -0.125418
  time 17
    0 0.103387 -3.664904 -3.013881 1.582594 -0.065874 -1.550610
    1 4.116302 0.309474 0.579363 1.570821 -1.565877 -1.569548
    2 0.776872 -0.777959 0.000000 0.000001 0.000000 -1.828850
    3 1.657125 1.617842 -0.396090 1.570803 1.552836 -1.569519
    4 1.657129 1.623131 0.386865 1.570790 -1.588547 -1.569507
    5 4.124314 -3.447140 -0.020971 -1.570796 0.000000 0.377722
    6 -0.001059 -0.000005 0.029470 -0.000001 0.000000 -1.570797
    7 0.161901 -0.042629 2.167028 1.570796 0.008569 1.570797
    8 0.000000 0.439464 -0.149598 0.000000 0.000000 0.000000
    9 0.000001 0.360867 0.000000 0.000000 0.000000 0.000000
    10 0.974790 1.650626 -0.003569 0.000000 0.000000 0.001279
    11 -0.002752 -0.001265 -0.003287 0.000000 0.000000 0.000000
    12 7.052222 5.911666 -5.475711 6.062620 -1.926609 -0.572069
    13 7.905820 2.395203 -0.349031 1.567075 -3.120235 0.373341
    14 -0.025045 -8.619834 -0.108040 0.818076 0.406617 0.314611
    15 -0.488518 -2.755602 -0.228260 -0.855329 -0.005500 -0.245375
    16 0.039887 -1.546198 0.022041 -1.891765 -0.006292 0.042163
    17 0.028786 -1.153858 -0.120768 -0.959872 -0.014837 0.019894
    18 0.250027 -2.820665 -0.238396 -0.560831 -0.117709 -0.086571
    19 -0.045853 -1.598510 0.037977 -1.526314 0.140987 -0.053597
    20 -0.034142 -1.179563 0.045718 -1.334442 0.004518 -0.035199
    21 0.957766 -2.746780 -0.090302 -0.014872 -0.242718 0.317947
    22 -0.033420 -1.397129 -0.030789 -1.023289 0.072830 -0.009792
    23 -0.022360 -0.961342 -0.008561 -1.033442 0.072663 -0.010774
    24 -1.180681 -2.507217 -0.193859 -0.519852 0.255646 -0.222176
    25 -0.024967 -1.127840 0.017597 -1.700810 -0.017402 -0.065794
    26 -0.020057 -0.906594 0.033528 -1.037463 0.004806 -0.042545
    27 0.642106 -1.189464 0.185379 1.395565 -1.086678 -1.368343
    28 1.496863 -0.192885 0.036260 0.030976 -0.114716 -0.664694
    29 1.081239 -0.100945 0.016666 0.006756 -0.123276 -0.502104
    30 0.120153 -0.050270 -0.054489 0.287569 3.110905 1.561085
    31 -1.891912 -5.407046 -11.193031 -1.488347 -5.237697 -1.342252
    32 -0.114000 -8.333227 0.314864 -0.754964 -1.018551 0.790005
    33 0.682335 -2.556791 -0.262945 -1.403371 -0.057052 0.428144
    34 -0.032909 -1.499736 0.020565 -1.155787 0.022171 -0.019892
    35 -0.027022 -1.104265 -0.028023 -0.656005 0.016539 -0.008078
    36 0.008286 -2.733679 -0.287498 -1.224291 -0.096313 0.189198
    37 0.043235 -1.656596 0.072574 -1.332477 -0.021134 0.006053
    38 0.031729 -1.149111 0.058838 -0.700097 -0.007148 0.005304
    39 -0.709952 -2.804677 -0.253324 -1.005405 0.062193 -0.033347
    40 0.028479 -1.403067 -0.021074 -0.985528 -0.026150 -0.034588
    41 0.021413 -0.942156 0.012233 -0.995616 -0.026630 -0.034228
    42 1.332449 -2.168929 -0.178143 -1.451654 -0.251939 0.569780
    43 0.024032 -1.136855 -0.001725 -0.837936 0.005801 0.044440
    44 0.014898 -0.899614 -0.015942 -0.880686 0.004998 0.044547
    45 -0.645366 -1.248852 0.059532 -0.141697 -1.003780 -2.153974
    46 1.550180 0.039149 0.016848 -0.011845 -0.004570 0.632985
    47 1.114041 0.044518 -0.005766 -0.019502 -0.034630 0.745810
    48 -0.139399 -0.111698 0.014397 0.285382 -0.030687 1.580508
    49 -8.233523 0.393607 -0.473815 1.565452 -0.036782 -0.125801
  time 18
    0 0.103387 -3.676623 -3.017788 1.582688 -0.063958 -1.550556
    1 4.116302 0.309474 0.579363 1.570821 -1.565877 -1.569548
    2 0.776872 -0.777959 0.000000 0.000001 0.000000 -1.828850
    3 1.657125 1.617842 -0.396090 1.570803 1.552836 -1.569519
    4 1.657129 1.623131 0.386865 1.570790 -1.588547 -1.569507
    5 4.124314 -3.447140 -0.020971 -1.570796 0.000000 0.377722
    6 -0.001059 -0.000005 0.029470 -0.000001 0.000000 -1.570797
    7 0.161901 -0.042629 2.167028 1.570796 0.008569 1.570797
    8 0.000000 0.439464 -0.149598 0.000000 0.000000 0.000000
    9 0.000001 0.360867 0.000000 0.000000 0.000000 0.000000
    10 0.974790 1.650626 -0.003569 0.000000 0.000000 0.001279
    11 -0.002752 -0.001265 -0.003287 0.000000 0.000000 0.000000
    12 7.048316 5.911666 -5.471805 6.063962 -1.926670 -0.573163
    13 7.905820 2.395203 -0.349031 1.567075 -3.120235 0.373425
    14 -0.025045 -8.619834 -0.108040 0.817740 0.408246 0.312805
    15 -0.488518 -2.755602 -0.228260 -0.855329 -0.005500 -0.245375
    16 0.039887 -1.546198 0.022041 -1.891765 -0.006292 0.042163
    17 0.028786 -1.153858 -0.120768 -0.959901 -0.014837 0.019894
    18 0.250027 -2.820665 -0.238396 -0.560831 -0.117709 -0.086571
    19 -0.045853 -1.598510 0.037977 -1.526314 0.140987 -0.053597
    20 -0.034142 -1.179563 0.045718 -1.334442 0.004518 -0.035199
    21 0.957766 -2.746780 -0.090302 -0.014872 -0.242718 0.317947
    22 -0.033420 -1.397129 -0.030789 -1.023289 0.072830 -0.009792
    23 -0.022360 -0.961342 -0.008561 -1.033442 0.072663 -0.010774
    24 -1.180681 -2.507217 -0.193859 -0.519852 0.255646 -0.222176
    25 -0.024967 -1.127840 0.017597 -1.700810 -0.017402 -0.065794
    26 -0.020057 -0.906594 0.033528 -1.037463 0.004806 -0.042545
    27 0.642106 -1.189464 0.185379 1.395565 -1.086678 -1.368343
    28 1.496863 -0.192885 0.036260 0.030976 -0.114716 -0.664694
    29 1.081239 -0.100945 0.016666 0.006756 -0.123276 -0.502104
    30 0.120153 -0.050270 -0.054489 0.287569 3.110905 1.561085
    31 -1.895818 -5.399234 -11.200844 -1.488109 -5.235711 -1.341976
    32 -0.114000 -8.333227 0.314864 -0.755203 -1.018939 0.790094
    33 0.682335 -2.556791 -0.262945 -1.403371 -0.057052 0.428144
    34 -0.032909 -1.499736 0.020565 -1.155787 0.022171 -0.019892
    35 -0.027022 -1.104265 -0.028023 -0.656005 0.016539 -0.008078
    36 0.008286 -2.733679 -0.287498 -1.224291 -0.096313 0.189198
    37 0.043235 -1.656596 0.072574 -1.332477 -0.021134 0.006053
    38 0.031729 -1.149111 0.058838 -0.700097 -0.007148 0.005304
    39 -0.709952 -2.804677 -0.253324 -1.005405 0.062193 -0.033347
    40 0.028479 -1.403067 -0.021074 -0.985528 -0.026150 -0.034588
    41 0.021413 -0.942156 0.012233 -0.995616 -0.026630 -0.034228
    42 1.332449 -2.168929 -0.178143 -1.451654 -0.251939 0.569780
    43 0.024032 -1.136855 -0.001725 -0.837936 0.005801 0.044440
    44 0.014898 -0.899614 -0.015942 -0.880686 0.004998 0.044547
    45 -0.645366 -1.248852 0.059532 -0.141697 -1.003780 -2.153974
    46 1.550180 0.039149 0.016848 -0.011845 -0.004570 0.632985
    47 1.114041 0.044518 -0.005766 -0.019502 -0.034630 0.745810
    48 -0.139399 -0.111698 0.014397 0.285382 -0.030687 1.580508
    49 -8.233523 0.401420 -0.473815 1.565464 -0.036782 -0.126414
  time 19
    0 0.103387 -3.680530 -3.017788 1.582688 -0.063192 -1.550556
    1 4.116302 0.309474 0.579363 1.570821 -1.565877 -1.569548
    2 0.776872 -0.777959 0.000000 0.000001 0.000000 -1.828850
    3 1.657125 1.617842 -0.396090 1.570803 1.552836 -1.569519
    4 1.657129 1.623131 0.386865 1.570790 -1.588547 -1.569507
    5 4.124314 -3.447140 -0.020971 -1.570796 0.000000 0.377722
    6 -0.001059 -0.000005 0.029470 -0.000001 0.000000 -1.570797
    7 0.161901 -0.042629 2.167028 1.570796 0.008569 1.570797
    8 0.000000 0.439464 -0.149598 0.000000 0.000000 0.000000
    9 0.000001 0.360867 0.000000 0.000000 0.000000 0.000000
    10 0.974790 1.650626 -0.003569 0.000000 0.000000 0.001279
    11 -0.002752 -0.001265 -0.003287 0.000000 0.000000 0.000000
    12 7.048316 5.907759 -5.471805 6.064345 -1.926791 -0.573332
    13 7.905820 2.399109 -0.349031 1.567075 -3.120235 0.373760
    14 -0.025045 -8.619834 -0.108040 0.817515 0.408925 0.312182
    15 -0.488518 -2.755602 -0.228260 -0.855329 -0.005500 -0.245375
    16 0.039887 -1.546198 0.022041 -1.891765 -0.006292 0.042163
    17 0.028786 -1.153858 -0.120768 -0.959901 -0.014837 0.019894
    18 0.250027 -2.820665 -0.238396 -0.560831 -0.117709 -0.086571
    19 -0.045853 -1.598510 0.037977 -1.526314 0.140987 -0.053597
    20 -0.034142 -1.179563 0.045718 -1.334442 0.004518 -0.035199
    21 0.957766 -2.746780 -0.090302 -0.014872 -0.242718 0.317947
    22 -0.033420 -1.397129 -0.030789 -1.023289 0.072830 -0.009792
    23 -0.022360 -0.961342 -0.008561 -1.033442 0.072663 -0.010774
    24 -1.180681 -2.507217 -0.193859 -0.519852 0.255646 -0.222176
    25 -0.024967 -1.127840 0.017597 -1.700810 -0.017402 -0.065794
    26 -0.020057 -0.906594 0.033528 -1.037463 0.004806 -0.042545
    27 0.642106 -1.189464 0.185379 1.395565 -1.086678 -1.368343
    28 1.496863 -0.192885 0.036260 0.030976 -0.114716 -0.664694
    29 1.081239 -0.100945 0.016666 0.006756 -0.123276 -0.502104
    30 0.120153 -0.050270 -0.054489 0.287569 3.110905 1.561085
    31 -1.895818 -5.399234 -11.200844 -1.487990 -5.234889 -1.341884
    32 -0.114000 -8.333227 0.314864 -0.755323 -1.019058 0.790094
    33 0.682335 -2.556791 -0.262945 -1.403371 -0.057052 0.428144
    34 -0.032909 -1.499736 0.020565 -1.155787 0.022171 -0.019892
    35 -0.027022 -1.104265 -0.028023 -0.656005 0.016539 -0.008078
    36 0.008286 -2.733679 -0.287498 -1.224291 -0.096313 0.189198
    37 0.043235 -1.656596 0.072574 -1.332477 -0.021134 0.006053
    38 0.031729 -1.149111 0.058838 -0.700097 -0.007148 0.005304
    39 -0.709952 -2.804677 -0.253324 -1.005405 0.062193 -0.033347
    40 0.028479 -1.403067 -0.021074 -0.985528 -0.026150 -0.034588
    41 0.021413 -0.942156 0.012233 -0.995616 -0.026630 -0.034228
    42 1.332449 -2.168929 -0.178143 -1.451654 -0.251939 0.569780
    43 0.024032 -1.136855 -0.001725 -0.837936 0.005801 0.044440
    44 0.014898 -0.899614 -0.015942 -0.880686 0.004998 0.044535
    45 -0.645366 -1.248852 0.059532 -0.141697 -1.003780 -2.153974
    46 1.550180 0.039149 0.016848 -0.011845 -0.004570 0.632985
    47 1.114041 0.044518 -0.005766 -0.019502 -0.034630 0.745810
    48 -0.139399 -0.111698 0.014397 0.285382 -0.030687 1.580508
    49 -8.233523 0.405326 -0.473815 1.565476 -0.036770 -0.127026
  time 20
    0 0.103387 -3.680530 -3.017788 1.582688 -0.063480 -1.550556
    1 4.116302 0.309474 0.579363 1.570821 -1.565877 -1.569560
    2 0.776872 -0.777959 0.000000 0.000001 0.000000 -1.828850
    3 1.657125 1.617842 -0.396090 1.570803 1.552836 -1.569519
    4 1.657129 1.623131 0.386865 1.570790 -1.588547 -1.569507
    5 4.124314 -3.447140 -0.020971 -1.570796 0.000000 0.377722
    6 -0.001059 -0.000005 0.029470 -0.000001 0.000000 -1.570797
    7 0.161901 -0.042629 2.167028 1.570796 0.008569 1.570797
    8 0.000000 0.439464 -0.149598 0.000000 0.000000 0.000000
    9 0.000001 0.360867 0.000000 0.000000 0.000000 0.000000
    10 0.974790 1.650626 -0.003569 0.000000 0.000000 0.001279
    11 -0.002752 -0.001265 -0.003287 0.000000 0.000000 0.000000
    12 7.048316 5.907759 -5.471805 6.064058 -1.926851 -0.572995
    13 7.905820 2.403016 -0.349031 1.567075 -3.120235 0.374096
    14 -0.025045 -8.619834 -0.108040 0.817487 0.408744 0.312524
    15 -0.488518 -2.755602 -0.228260 -0.855329 -0.005500 -0.245375
    16 0.039887 -1.546198 0.022041 -1.891765 -0.006292 0.042163
    17 0.028786 -1.153858 -0.120768 -0.959901 -0.014837 0.019894
    18 0.250027 -2.820665 -0.238396 -0.560831 -0.117709 -0.086571
    19 -0.045853 -1.598510 0.037977 -1.526314 0.140987 -0.053597
    20 -0.034142 -1.179563 0.045718 -1.334442 0.004518 -0.035199
    21 0.957766 -2.746780 -0.090302 -0.014872 -0.242718 0.317947
    22 -0.033420 -1.397129 -0.030789 -1.023289 0.072830 -0.009792
    23 -0.022360 -0.961342 -0.008561 -1.033442 0.072663 -0.010774
    24 -1.180681 -2.507217 -0.193859 -0.519852 0.255646 -0.222176
    25 -0.024967 -1.127840 0.017597 -1.700810 -0.017402 -0.065794
    26 -0.020057 -0.906594 0.033528 -1.037463 0.004806 -0.042545
    27 0.642106 -1.189464 0.185379 1.395565 -1.086678 -1.368343
    28 1.496863 -0.192885 0.036260 0.030976 -0.114716 -0.664694
    29 1.081239 -0.100945 0.016666 0.006756 -0.123276 -0.502104
    30 0.120153 -0.050270 -0.054489 0.287569 3.110905 1.561085
    31 -1.895818 -5.403140 -11.200844 -1.488049 -5.235095 -1.341976
    32 -0.114000 -8.333227 0.314864 -0.755362 -1.018998 0.790005
    33 0.682335 -2.556791 -0.262945 -1.403371 -0.057052 0.428144
    34 -0.032909 -1.499736 0.020565 -1.155787 0.022171 -0.019892
    35 -0.027022 -1.104265 -0.028023 -0.656005 0.016539 -0.008078
    36 0.008286 -2.733679 -0.287498 -1.224291 -0.096313 0.189198
    37 0.043235 -1.656596 0.072574 -1.332477 -0.021134 0.006053
    38 0.031729 -1.149111 0.058838 -0.700097 -0.007148 0.005304
    39 -0.709952 -2.804677 -0.253324 -1.005405 0.062193 -0.033347
    40 0.028479 -1.403067 -0.021074 -0.985528 -0.026150 -0.034588
    41 0.021413 -0.942156 0.012233 -0.995616 -0.026630 -0.034228
    42 1.332449 -2.168929 -0.178143 -1.451654 -0.251939 0.569780
    43 0.024032 -1.136855 -0.001725 -0.837936 0.005801 0.044440
    44 0.014898 -0.899614 -0.015942 -0.880686 0.004998 0.044535
    45 -0.645366 -1.248852 0.059532 -0.141697 -1.003780 -2.153974
    46 1.550180 0.039149 0.016848 -0.011845 -0.004570 0.632985
    47 1.114041 0.044518 -0.005766 -0.019502 -0.034630 0.745810
    48 -0.139399 -0.111698 0.014397 0.285382 -0.030687 1.580508
    49 -8.233523 0.409232 -0.473815 1.565488 -0.036770 -0.127333
  time 21
    0 0.103387 -3.680530 -3.017788 1.582594 -0.064629 -1.550610
    1 4.116302 0.309474 0.579363 1.570821 -1.565877 -1.569560
    2 0.776872 -0.777959 0.000000 0.000001 0.000000 -1.828850
    3 1.657125 1.617842 -0.396090 1.570803 1.552836 -1.569519
    4 1.657129 1.623131 0.386865 1.570790 -1.588547 -1.569507
    5 4.124314 -3.447140 -0.020971 -1.570796 0.000000 0.377722
    6 -0.001059 -0.000005 0.029470 -0.000001 0.000000 -1.570797
    7 0.161901 -0.042629 2.167028 1.570796 0.008569 1.570797
    8 0.000000 0.439464 -0.149598 0.000000 0.000000 0.000000
    9 0.000001 0.360867 0.000000 0.000000 0.000000 0.000000
    10 0.974790 1.650626 -0.003569 0.000000 0.000000 0.001279
    11 -0.002752 -0.001265 -0.003287 0.000000 0.000000 0.000000
    12 7.048316 5.907759 -5.471805 6.063195 -1.926851 -0.572069
    13 7.905820 2.403016 -0.349031 1.567075 -3.120235 0.374515
    14 -0.025045 -8.619834 -0.108040 0.817571 0.407906 0.313645
    15 -0.488518 -2.755602 -0.228260 -0.855329 -0.005500 -0.245375
    16 0.039887 -1.546198 0.022041 -1.891765 -0.006292 0.042163
    17 0.028786 -1.153858 -0.120768 -0.959901 -0.014837 0.019894
    18 0.250027 -2.820665 -0.238396 -0.560831 -0.117709 -0.086571
    19 -0.045853 -1.598510 0.037977 -1.526314 0.140987 -0.053597
    20 -0.034142 -1.179563 0.045718 -1.334442 0.004518 -0.035199
    21 0.957766 -2.746780 -0.090302 -0.014872 -0.242718 0.317947
    22 -0.033420 -1.397129 -0.030789 -1.023289 0.072830 -0.009792
    23 -0.022360 -0.961342 -0.008561 -1.033442 0.072663 -0.010774
    24 -1.180681 -2.507217 -0.193859 -0.519852 0.255646 -0.222176
    25 -0.024967 -1.127840 0.017597 -1.700810 -0.017402 -0.065794
    26 -0.020057 -0.906594 0.033528 -1.037463 0.004806 -0.042545
    27 0.642106 -1.189464 0.185379 1.395565 -1.086678 -1.368343
    28 1.496863 -0.192885 0.036260 0.030976 -0.114716 -0.664694
    29 1.081239 -0.100945 0.016666 0.006756 -0.123276 -0.502104
    30 0.120153 -0.050270 -0.054489 0.287569 3.110905 1.561085
    31 -1.891912 -5.407046 -11.196937 -1.488168 -5.236122 -1.342160
    32 -0.114000 -8.333227 0.314864 -0.755283 -1.018760 0.789872
    33 0.682335 -2.556791 -0.262945 -1.403371 -0.057052 0.428144
    34 -0.032909 -1.499736 0.020565 -1.155787 0.022171 -0.019892
    35 -0.027022 -1.104265 -0.028023 -0.656005 0.016539 -0.008078
    36 0.008286 -2.733679 -0.287498 -1.224291 -0.096313 0.189198
    37 0.043235 -1.656596 0.072574 -1.332477 -0.021134 0.006053
    38 0.031729 -1.149111 0.058838 -0.700097 -0.007148 0.005304
    39 -0.709952 -2.804677 -0.253324 -1.005405 0.062193 -0.033347
    40 0.028479 -1.403067 -0.021074 -0.985528 -0.026150 -0.034588
    41 0.021413 -0.942156 0.012233 -0.995616 -0.026630 -0.034228
    42 1.332449 -2.168929 -0.178143 -1.451654 -0.251939 0.569780
    43 0.024032 -1.136855 -0.001725 -0.837936 0.005801 0.044440
    44 0.014898 -0.899614 -0.015942 -0.880686 0.004998 0.044535
    45 -0.645366 -1.248852 0.059532 -0.141697 -1.003780 -2.153974
    46 1.550180 0.039149 0.016848 -0.011845 -0.004570 0.632985
    47 1.114041 0.044518 -0.005766 -0.019502 -0.034630 0.745810
    48 -0.139399 -0.111698 0.014397 0.285382 -0.030687 1.580508
    49 -8.233523 0.409232 -0.473815 1.565500 -0.036770 -0.127486
  time 22
    0 0.103387 -3.672717 -3.013881 1.582499 -0.066257 -1.550664
    1 4.116302 0.309474 0.579363 1.570821 -1.565877 -1.569548
    2 0.776872 -0.777959 0.000000 0.000001 0.000000 -1.828850
    3 1.657125 1.617842 -0.396090 1.570803 1.552836 -1.569519
    4 1.657129 1.623131 0.386865 1.570790 -1.588547 -1.569507
    5 4.124314 -3.447140 -0.020971 -1.570796 0.000000 0.377722
    6 -0.001059 -0.000005 0.029470 -0.000001 0.000000 -1.570797
    7 0.161901 -0.042629 2.167028 1.570796 0.008569 1.570797
    8 0.000000 0.439464 -0.149598 0.000000 0.000000 0.000000
    9 0.000001 0.360867 0.000000 0.000000 0.000000 0.000000
    10 0.974790 1.650626 -0.003569 0.000000 0.000000 0.001279
    11 -0.002752 -0.001265 -0.003287 0.000000 0.000000 0.000000
    12 7.048316 5.907759 -5.471805 6.061853 -1.926912 -0.570807
    13 7.905820 2.406922 -0.349031 1.567075 -3.120330 0.374935
    14 -0.025045 -8.619834 -0.108040 0.817740 0.406594 0.315265
    15 -0.488518 -2.755602 -0.228260 -0.855329 -0.005500 -0.245375
    16 0.039887 -1.546198 0.022041 -1.891765 -0.006292 0.042163
    17 0.028786 -1.153858 -0.120768 -0.959901 -0.014837 0.019894
    18 0.250027 -2.820665 -0.238396 -0.560831 -0.117709 -0.086571
    19 -0.045853 -1.598510 0.037977 -1.526314 0.140987 -0.053597
    20 -0.034142 -1.179563 0.045718 -1.334442 0.004518 -0.035199
    21 0.957766 -2.746780 -0.090302 -0.014872 -0.242718 0.317947
    22 -0.033420 -1.397129 -0.030789 -1.023289 0.072830 -0.009792
    23 -0.022360 -0.961342 -0.008561 -1.033442 0.072663 -0.010774
    24 -1.180681 -2.507217 -0.193859 -0.519852 0.255646 -0.222176
    25 -0.024967 -1.127840 0.017597 -1.700810 -0.017402 -0.065794
    26 -0.020057 -0.906594 0.033528 -1.037463 0.004806 -0.042545
    27 0.642106 -1.189464 0.185379 1.395565 -1.086678 -1.368343
    28 1.496863 -0.192885 0.036260 0.030976 -0.114716 -0.664694
    29 1.081239 -0.100945 0.016666 0.006756 -0.123276 -0.502104
    30 0.120153 -0.050270 -0.054489 0.287569 3.110905 1.561085
    31 -1.891912 -5.414859 -11.189125 -1.488347 -5.237697 -1.342437
    32 -0.114000 -8.333227 0.314864 -0.755163 -1.018462 0.789739
    33 0.682335 -2.556791 -0.262945 -1.403371 -0.057052 0.428144
    34 -0.032909 -1.499736 0.020565 -1.155787 0.022171 -0.019892
    35 -0.027022 -1.104265 -0.028023 -0.656005 0.016539 -0.008078
    36 0.008286 -2.733679 -0.287498 -1.224291 -0.096313 0.189198
    37 0.043235 -1.656596 0.072574 -1.332477 -0.021134 0.006053
    38 0.031729 -1.149111 0.058838 -0.700097 -0.007148 0.005304
    39 -0.709952 -2.804677 -0.253324 -1.005405 0.062193 -0.033347
    40 0.028479 -1.403067 -0.021074 -0.985528 -0.026150 -0.034588
    41 0.021413 -0.942156 0.012233 -0.995616 -0.026630 -0.034228
    42 1.332449 -2.168929 -0.178143 -1.451654 -0.251939 0.569780
    43 0.024032 -1.136855 -0.001725 -0.837936 0.005801 0.044440
    44 0.014898 -0.899614 -0.015942 -0.880686 0.004998 0.044535
    45 -0.645366 -1.248852 0.059532 -0.141697 -1.003780 -2.153974
    46 1.550180 0.039149 0.016848 -0.011845 -0.004570 0.632985
    47 1.114041 0.044518 -0.005766 -0.019502 -0.034630 0.745810
    48 -0.139399 -0.111698 0.014397 0.285382 -0.030687 1.580508
    49 -8.233523 0.409232 -0.473815 1.565500 -0.036770 -0.127563
  time 23
    0 0.103387 -3.668811 -3.013881 1.582404 -0.068269 -1.550719
    1 4.116302 0.309474 0.579363 1.570821 -1.565877 -1.569548
    2 0.776872 -0.777959 0.000000 0.000001 0.000000 -1.828850
    3 1.657125 1.617842 -0.396090 1.570803 1.552836 -1.569519
    4 1.657129 1.623131 0.386865 1.570790 -1.588547 -1.569507
    5 4.124314 -3.447140 -0.020971 -1.570796 0.000000 0.377722
    6 -0.001059 -0.000005 0.029470 -0.000001 0.000000 -1.570797
    7 0.161901 -0.042629 2.167028 1.570796 0.008569 1.570797
    8 0.000000 0.439464 -0.149598 0.000000 0.000000 0.000000
    9 0.000001 0.360867 0.000000 0.000000 0.000000 0.000000
    10 0.974790 1.650626 -0.003569 0.000000 0.000000 0.001279
    11 -0.002752 -0.001265 -0.003287 0.000000 0.000000 0.000000
    12 7.048316 5.907759 -5.475711 6.060416 -1.926912 -0.569376
    13 7.905820 2.410828 -0.349031 1.567075 -3.120330 0.375354
    14 -0.025045 -8.619834 -0.108040 0.817992 0.405033 0.317227
    15 -0.488518 -2.755602 -0.228260 -0.855329 -0.005500 -0.245375
    16 0.039887 -1.546198 0.022041 -1.891765 -0.006292 0.042163
    17 0.028786 -1.153858 -0.120768 -0.959872 -0.014837 0.019894
    18 0.250027 -2.820665 -0.238396 -0.560831 -0.117709 -0.086571
    19 -0.045853 -1.598510 0.037977 -1.526314 0.140987 -0.053597
    20 -0.034142 -1.179563 0.045718 -1.334442 0.004518 -0.035199
    21 0.957766 -2.746780 -0.090302 -0.014872 -0.242718 0.317947
    22 -0.033420 -1.397129 -0.030789 -1.023289 0.072830 -0.009792
    23 -0.022360 -0.961342 -0.008561 -1.033442 0.072663 -0.010774
    24 -1.180681 -2.507217 -0.193859 -0.519852 0.255646 -0.222176
    25 -0.024967 -1.127840 0.017597 -1.700810 -0.017402 -0.065794
    26 -0.020057 -0.906594 0.033528 -1.037463 0.004806 -0.042545
    27 0.642106 -1.189464 0.185379 1.395565 -1.086678 -1.368343
    28 1.496863 -0.192885 0.036260 0.030976 -0.114716 -0.664694
    29 1.081239 -0.100945 0.016666 0.006756 -0.123276 -0.502104
    30 0.120153 -0.050270 -0.054489 0.287569 3.110905 1.561085
    31 -1.891912 -5.426578 -11.185218 -1.488585 -5.239546 -1.342713
    32 -0.114000 -8.333227 0.314864 -0.755004 -1.018075 0.789517
    33 0.682335 -2.556791 -0.262945 -1.403371 -0.057052 0.428144
    34 -0.032909 -1.499736 0.020565 -1.155787 0.022171 -0.019892
    35 -0.027022 -1.104265 -0.028023 -0.656005 0.016539 -0.008078
    36 0.008286 -2.733679 -0.287498 -1.224291 -0.096313 0.189198
    37 0.043235 -1.656596 0.072574 -1.332477 -0.021134 0.006053
    38 0.031729 -1.149111 0.058838 -0.700097 -0.007148 0.005304
    39 -0.709952 -2.804677 -0.253324 -1.005405 0.062193 -0.033347
    40 0.028479 -1.403067 -0.021074 -0.985528 -0.026150 -0.034588
    41 0.021413 -0.942156 0.012233 -0.995616 -0.026630 -0.034228
    42 1.332449 -2.168929 -0.178143 -1.451654 -0.251939 0.569780
    43 0.024032 -1.136855 -0.001725 -0.837936 0.005801 0.044440
    44 0.014898 -0.899614 -0.015942 -0.880686 0.004998 0.044547
    45 -0.645366 -1.248852 0.059532 -0.141697 -1.003780 -2.153974
    46 1.550180 0.039149 0.016848 -0.011845 -0.004570 0.632985
    47 1.114041 0.044518 -0.005766 -0.019502 -0.034630 0.745810
    48 -0.139399 -0.111698 0.014397 0.285382 -0.030687 1.580508
    49 -8.233523 0.409232 -0.473815 1.565500 -0.036770 -0.127486
  time 24
    0 0.103387 -3.660998 -3.009975 1.582309 -0.070280 -1.550773
    1 4.116302 0.309474 0.579363 1.570821 -1.565877 -1.569548
    2 0.776872 -0.777959 0.000000 0.000001 0.000000 -1.828850
    3 1.657125 1.617842 -0.396090 1.570803 1.552836 -1.569519
    4 1.657129 1.623131 0.386865 1.570790 -1.588547 -1.569507
    5 4.124314 -3.447140 -0.020971 -1.570796 0.000000 0.377722
    6 -0.001059 -0.000005 0.029470 -0.000001 0.000000 -1.570797
    7 0.161901 -0.042629 2.167028 1.570796 0.008569 1.570797
    8 0.000000 0.439464 -0.149598 0.000000 0.000000 0.000000
    9 0.000001 0.360867 0.000000 0.000000 0.000000 0.000000
    10 0.974790 1.650626 -0.003569 0.000000 0.000000 0.001279
    11 -0.002752 -0.001265 -0.003287 0.000000 0.000000 0.000000
    12 7.048316 5.907759 -5.475711 6.058786 -1.926972 -0.567945
    13 7.901914 2.414735 -0.349031 1.567075 -3.120330 0.375774
    14 -0.025045 -8.619834 -0.108040 0.818217 0.403403 0.319221
    15 -0.488518 -2.755602 -0.228260 -0.855329 -0.005500 -0.245375
    16 0.039887 -1.546198 0.022041 -1.891765 -0.006292 0.042163
    17 0.028786 -1.153858 -0.120768 -0.959901 -0.014837 0.019894
    18 0.250027 -2.820665 -0.238396 -0.560831 -0.117709 -0.086571
    19 -0.045853 -1.598510 0.037977 -1.526314 0.140987 -0.053597
    20 -0.034142 -1.179563 0.045718 -1.334442 0.004518 -0.035199
    21 0.957766 -2.746780 -0.090302 -0.014872 -0.242718 0.317947
    22 -0.033420 -1.397129 -0.030789 -1.023289 0.072830 -0.009792
    23 -0.022360 -0.961342 -0.008561 -1.033442 0.072663 -0.010774
    24 -1.180681 -2.507217 -0.193859 -0.519852 0.255646 -0.222176
    25 -0.024967 -1.127840 0.017597 -1.700810 -0.017402 -0.065794
    26 -0.020057 -0.906594 0.033528 -1.037463 0.004806 -0.042545
    27 0.642106 -1.189464 0.185379 1.395565 -1.086678 -1.368343
    28 1.496863 -0.192885 0.036260 0.030976 -0.114716 -0.664694
    29 1.081239 -0.100945 0.016666 0.006756 -0.123276 -0.502104
    30 0.120153 -0.050270 -0.054489 0.287569 3.110905 1.561085
    31 -1.891912 -5.434391 -11.177406 -1.488882 -5.241532 -1.342990
    32 -0.114000 -8.333227 0.314864 -0.754845 -1.017688 0.789340
    33 0.682335 -2.556791 -0.262945 -1.403371 -0.057052 0.428144
    34 -0.032909 -1.499736 0.020565 -1.155787 0.022171 -0.019892
    35 -0.027022 -1.104265 -0.028023 -0.656005 0.016539 -0.008078
    36 0.008286 -2.733679 -0.287498 -1.224291 -0.096313 0.189198
    37 0.043235 -1.656596 0.072574 -1.332477 -0.021134 0.006053
    38 0.031729 -1.149111 0.058838 -0.700097 -0.007148 0.005304
    39 -0.709952 -2.804677 -0.253324 -1.005405 0.062193 -0.033347
    40 0.028479 -1.403067 -0.021074 -0.985528 -0.026150 -0.034588
    41 0.021413 -0.942156 0.012233 -0.995616 -0.026630 -0.034228
    42 1.332449 -2.168929 -0.178143 -1.451654 -0.251939 0.569780
    43 0.024032 -1.136855 -0.001725 -0.837936 0.005801 0.044440
    44 0.014898 -0.899614 -0.015942 -0.880686 0.004998 0.044535
    45 -0.645366 -1.248852 0.059532 -0.141697 -1.003780 -2.153974
    46 1.550180 0.039149 0.016848 -0.011845 -0.004570 0.632985
    47 1.114041 0.044518 -0.005766 -0.019502 -0.034630 0.745810
    48 -0.139399 -0.111698 0.014397 0.285382 -0.030687 1.580508
    49 -8.233523 0.409232 -0.473815 1.565488 -0.036770 -0.127486
  time 25
    0 0.103387 -3.653185 -3.009975 1.582214 -0.072196 -1.550827
    1 4.116302 0.309474 0.579363 1.570821 -1.565877 -1.569548
    2 0.776872 -0.777959 0.000000 0.000001 0.000000 -1.828850
    3 1.657125 1.617842 -0.396090 1.570803 1.552836 -1.569519
    4 1.657129 1.623131 0.386865 1.570790 -1.588547 -1.569507
    5 4.124314 -3.447140 -0.020971 -1.570796 0.000000 0.377722
    6 -0.001059 -0.000005 0.029470 -0.000001 0.000000 -1.570797
    7 0.161901 -0.042629 2.167028 1.570796 0.008569 1.570797
    8 0.000000 0.439464 -0.149598 0.000000 0.000000 0.000000
    9 0.000001 0.360867 0.000000 0.000000 0.000000 0.000000
    10 0.974790 1.650626 -0.003569 0.000000 0.000000 0.001279
    11 -0.002752 -0.001265 -0.003287 0.000000 0.000000 0.000000
    12 7.048316 5.907759 -5.475711 6.057349 -1.926972 -0.566514
    13 7.901914 2.418641 -0.349031 1.567075 -3.120330 0.376193
    14 -0.025045 -8.619834 -0.108040 0.818441 0.401887 0.321089
    15 -0.488518 -2.755602 -0.228260 -0.855329 -0.005500 -0.245375
    16 0.039887 -1.546198 0.022041 -1.891765 -0.006292 0.042163
    17 0.028786 -1.153858 -0.120768 -0.959872 -0.014837 0.019894
    18 0.250027 -2.820665 -0.238396 -0.560831 -0.117709 -0.086571
    19 -0.045853 -1.598510 0.037977 -1.526314 0.140987 -0.053597
    20 -0.034142 -1.179563 0.045718 -1.334442 0.004518 -0.035199
    21 0.957766 -2.746780 -0.090302 -0.014872 -0.242718 0.317947
    22 -0.033420 -1.397129 -0.030789 -1.023289 0.072830 -0.009792
    23 -0.022360 -0.961342 -0.008561 -1.033442 0.072663 -0.010774
    24 -1.180681 -2.507217 -0.193859 -0.519852 0.255646 -0.222176
    25 -0.024967 -1.127840 0.017597 -1.700810 -0.017402 -0.065794
    26 -0.020057 -0.906594 0.033528 -1.037463 0.004806 -0.042545
    27 0.642106 -1.189464 0.185379 1.395565 -1.086678 -1.368343
    28 1.496863 -0.192885 0.036260 0.030976 -0.114716 -0.664694
    29 1.081239 -0.100945 0.016666 0.006756 -0.123276 -0.502104
    30 0.120153 -0.050270 -0.054489 0.287569 3.110905 1.561085
    31 -1.888006 -5.442204 -11.173499 -1.489060 -5.243313 -1.343267
    32 -0.114000 -8.333227 0.314864 -0.754686 -1.017301 0.789163
    33 0.682335 -2.556791 -0.262945 -1.403371 -0.057052 0.428144
    34 -0.032909 -1.499736 0.020565 -1.155787 0.022171 -0.019892
    35 -0.027022 -1.104265 -0.028023 -0.656005 0.016539 -0.008078
    36 0.008286 -2.733679 -0.287498 -1.224291 -0.096313 0.189198
    37 0.043235 -1.656596 0.072574 -1.332477 -0.021134 0.006053
    38 0.031729 -1.149111 0.058838 -0.700097 -0.007148 0.005304
    39 -0.709952 -2.804677 -0.253324 -1.005405 0.062193 -0.033347
    40 0.028479 -1.403067 -0.021074 -0.985528 -0.026150 -0.034588
    41 0.021413 -0.942156 0.012233 -0.995616 -0.026630 -0.034228
    42 1.332449 -2.168929 -0.178143 -1.451654 -0.251939 0.569780
    43 0.024032 -1.136855 -0.001725 -0.837936 0.005801 0.044440
    44 0.014898 -0.899614 -0.015942 -0.880686 0.004998 0.044535
    45 -0.645366 -1.248852 0.059532 -0.141697 -1.003780 -2.153974
    46 1.550180 0.039149 0.016848 -0.011845 -0.004570 0.632985
    47 1.114041 0.044518 -0.005766 -0.019502 -0.034630 0.745810
    48 -0.139399 -0.111698 0.014397 0.285382 -0.030687 1.580508
    49 -8.233523 0.409232 -0.473815 1.565488 -0.036770 -0.127409
  time 26
    0 0.103387 -3.649279 -3.009975 1.582119 -0.073632 -1.550881
    1 4.116302 0.309474 0.579363 1.570821 -1.565877 -1.569548
    2 0.776872 -0.777959 0.000000 0.000001 0.000000 -1.828850
    3 1.657125 1.617842 -0.396090 1.570803 1.552836 -1.569519
    4 1.657129 1.623131 0.386865 1.570790 -1.588547 -1.569507
    5 4.124314 -3.447140 -0.020971 -1.570796 0.000000 0.377722
    6 -0.001059 -0.000005 0.029470 -0.000001 0.000000 -1.570797
    7 0.161901 -0.042629 2.167028 1.570796 0.008569 1.570797
    8 0.000000 0.439464 -0.149598 0.000000 0.000000 0.000000
    9 0.000001 0.360867 0.000000 0.000000 0.000000 0.000000
    10 0.974790 1.650626 -0.003569 0.000000 0.000000 0.001279
    11 -0.002752 -0.001265 -0.003287 0.000000 0.000000 0.000000
    12 7.048316 5.911666 -5.475711 6.056199 -1.927033 -0.565420
    13 7.901914 2.422547 -0.349031 1.567075 -3.120330 0.376612
    14 -0.025045 -8.623740 -0.108040 0.818581 0.400711 0.322553
    15 -0.488518 -2.755602 -0.228260 -0.855329 -0.005500 -0.245375
    16 0.039887 -1.546198 0.022041 -1.891765 -0.006292 0.042163
    17 0.028786 -1.153858 -0.120768 -0.959901 -0.014837 0.019894
    18 0.250027 -2.820665 -0.238396 -0.560831 -0.117709 -0.086571
    19 -0.045853 -1.598510 0.037977 -1.526314 0.140987 -0.053597
    20 -0.034142 -1.179563 0.045718 -1.334442 0.004518 -0.035199
    21 0.957766 -2.746780 -0.090302 -0.014872 -0.242718 0.317947
    22 -0.033420 -1.397129 -0.030789 -1.023289 0.072830 -0.009792
    23 -0.022360 -0.961342 -0.008561 -1.033442 0.072663 -0.010774
    24 -1.180681 -2.507217 -0.193859 -0.519852 0.255646 -0.222176
    25 -0.024967 -1.127840 0.017597 -1.700810 -0.017402 -0.065794
    26 -0.020057 -0.906594 0.033528 -1.037463 0.004806 -0.042545
    27 0.642106 -1.189464 0.185379 1.395565 -1.086678 -1.368343
    28 1.496863 -0.192885 0.036260 0.030976 -0.114716 -0.664694
    29 1.081239 -0.100945 0.016666 0.006756 -0.123276 -0.502104
    30 0.120153 -0.050270 -0.054489 0.287569 3.110905 1.561085
    31 -1.888006 -5.450016 -11.169593 -1.489239 -5.244682 -1.343543
    32 -0.114000 -8.333227 0.314864 -0.754606 -1.017033 0.788985
    33 0.682335 -2.556791 -0.262945 -1.403371 -0.057052 0.428144
    34 -0.032909 -1.499736 0.020565 -1.155787 0.022171 -0.019892
    35 -0.027022 -1.104265 -0.028023 -0.656005 0.016539 -0.008078
    36 0.008286 -2.733679 -0.287498 -1.224291 -0.096313 0.189198
    37 0.043235 -1.656596 0.072574 -1.332477 -0.021134 0.006053
    38 0.031729 -1.149111 0.058838 -0.700097 -0.007148 0.005304
    39 -0.709952 -2.804677 -0.253324 -1.005405 0.062193 -0.033347
    40 0.028479 -1.403067 -0.021074 -0.985528 -0.026150 -0.034588
    41 0.021413 -0.942156 0.012233 -0.995616 -0.026630 -0.034228
    42 1.332449 -2.168929 -0.178143 -1.451654 -0.251939 0.569780
    43 0.024032 -1.136855 -0.001725 -0.837936 0.005801 0.044440
    44 0.014898 -0.899614 -0.015942 -0.880686 0.004998 0.044535
    45 -0.645366 -1.248852 0.059532 -0.141697 -1.003780 -2.153974
    46 1.550180 0.039149 0.016848 -0.011845 -0.004570 0.632985
    47 1.114041 0.044518 -0.005766 -0.019502 -0.034630 0.745810
    48 -0.139399 -0.111698 0.014397 0.285382 -0.030687 1.580508
    49 -8.233523 0.409232 -0.473815 1.565500 -0.036770 -0.127486
end
