version 1
nodes
  0 "Bone04" -1
  1 "Bone01" -1
  2 "Bone_Lefthand" 1
  3 "Bone52" 2
  4 "Bone53" 3
  5 "Bone54" 4
  6 "Bone56" 4
  7 "Bone57" 6
  8 "Bone02" 7
  9 "Bone03" 8
  10 "Bone25" 9
  11 "Bone47" 10
  12 "Bone48" 11
  13 "Bone49" 12
  14 "Bone50" 13
  15 "Bone51" 14
  16 "Bone58" 4
  17 "Bone 04" 2
  18 "Bone17" 17
  19 "Bone18" 18
  20 "Bone19" 19
  21 "Bone21" 17
  22 "Bone22" 21
  23 "Bone23" 22
  24 "Bone05" 17
  25 "Bone06" 24
  26 "Bone07" 25
  27 "Bone_Righthand" 0
  28 "Bone26" 27
  29 "Bone35" 28
  30 "Bone36" 29
  31 "Bone37" 30
  32 "Bone31" 28
  33 "Bone32" 32
  34 "Bone33" 33
  35 "Bone39" 28
  36 "Bone40" 35
  37 "Bone41" 36
  38 "Bone43" 28
  39 "Bone44" 38
  40 "Bone45" 39
  41 "Bone27" 28
  42 "Bone28" 41
  43 "Bone29" 42
  44 "Bone09" 17
  45 "Bone10" 44
  46 "Bone11" 45
  47 "Bone13" 17
  48 "Bone14" 47
  49 "Bone15" 48
end
skeleton
  time 0
    0 -2.967126 -7.327861 -8.686107 -0.816529 0.845846 0.382147
    1 6.951840 6.235415 -8.022178 -0.906280 -1.292299 0.703845
    2 0.000000 -8.563284 -0.000004 0.360165 -0.113271 -0.202600
    3 -0.725000 -3.341002 0.707001 -1.247040 1.437607 -1.233858
    4 0.000000 1.851474 0.849855 0.000000 0.000000 0.000000
    5 0.000000 -2.655798 1.578303 0.436315 0.000000 0.000000
    6 0.004569 -5.341948 1.579177 0.000000 0.000000 0.000000
    7 0.000000 0.030355 -1.365839 0.000000 0.000000 0.000000
    8 -1.703881 0.381351 1.509396 0.000000 0.000000 0.000000
    9 0.306899 0.000000 0.000000 0.000000 -0.811579 0.000000
    10 0.311222 0.000000 0.000000 0.000000 -0.305433 0.000000
    11 0.293932 0.000000 0.000000 0.000000 -0.139626 0.000000
    12 0.298254 0.000000 0.000000 0.000000 -0.095991 0.000000
    13 0.306898 0.000000 0.000000 0.000000 0.296708 0.000000
    14 0.298253 -0.000002 0.000000 0.000000 0.471239 0.000000
    15 0.306899 0.000000 0.000000 0.000000 0.401426 0.000000
    16 0.600744 -5.369450 3.607356 0.000000 0.000000 0.000000
    17 -0.003480 -0.404829 0.000000 0.000000 0.000000 0.000000
    18 0.105981 -2.607135 -0.278958 -0.890118 0.000000 -0.148353
    19 0.000000 -1.250579 0.000000 -1.213004 0.000000 0.000000
    20 0.000000 -0.932634 0.000000 -1.483530 0.000000 0.000000
    21 0.763063 -2.490557 -0.278958 -0.349065 0.000000 0.130900
    22 -0.012322 -1.280917 0.000000 -0.837747 0.000000 0.000000
    23 -0.001697 -0.749371 0.000000 -1.317693 0.000000 0.000000
    24 0.354566 0.016267 0.318133 0.342077 -0.443527 -1.083976
    25 1.887165 0.012878 0.000000 -0.301502 -0.049640 -0.559682
    26 1.001874 -0.000270 0.000000 0.000000 0.000000 -0.715584
    27 0.089928 -8.543161 -0.000001 0.471261 -0.675289 0.268192
    28 0.000000 -0.359712 0.000000 0.000000 0.000000 0.000000
    29 -0.170479 -2.636146 -0.277655 -1.483539 0.000000 0.000000
    30 0.010598 -1.261177 0.000001 -0.340297 0.000000 0.000000
    31 -0.000001 -0.943233 -0.000002 -0.532326 0.000000 0.000000
    32 -0.827563 -2.508972 -0.277656 -1.265405 0.000000 0.000000
    33 -0.000001 -1.292971 0.000000 -0.558504 0.000000 0.000000
    34 -0.000001 -0.752466 0.000000 -0.445059 0.000000 0.000000
    35 0.444214 -2.561959 -0.277655 -1.605179 -0.046226 -0.024599
    36 0.021022 -1.208186 0.000001 -0.427606 0.000000 0.000000
    37 0.010597 -0.741867 -0.000001 -0.453786 0.000000 0.000000
    38 1.047445 -2.222820 -0.277655 -1.508123 -0.078971 -0.038609
    39 0.000000 -0.996223 -0.000002 -0.689433 0.000000 0.000000
    40 -0.000001 -0.614690 -0.000001 -0.523599 0.000000 0.000000
    41 -0.308254 -0.007813 0.307166 -0.124628 -0.088654 -2.592079
    42 1.978378 0.019542 0.000001 -0.084829 -0.061467 -0.075917
    43 0.982426 0.003185 0.000000 0.000000 0.000000 0.314179
    44 -1.122644 -2.197476 -0.281120 -1.064647 0.000001 -0.087266
    45 0.007812 -0.964973 0.000001 -0.715574 0.000000 0.000000
    46 -0.007812 -0.630317 0.000000 -1.396260 0.000000 0.000000
    47 -0.515544 -2.501512 -0.280215 -1.003564 0.000003 -0.122182
    48 -0.013191 -1.208188 0.000000 -1.090831 0.000000 0.000000
    49 -0.002946 -0.761399 0.000001 -1.343903 0.000000 0.000000
  time 1
    0 -3.127287 -7.644277 -8.686107 -0.815417 0.841822 0.375876
    1 6.971372 5.891654 -7.889362 -0.924656 -1.285372 0.722915
    2 0.000000 -8.563284 -0.000004 0.339623 -0.109053 -0.214021
    3 -0.725000 -3.341002 0.707001 -1.247040 1.437607 -1.233858
    4 0.000000 1.851474 0.849855 0.000000 0.000000 0.000000
    5 0.000000 -2.655798 1.578303 0.441753 0.000000 0.000000
    6 0.004569 -5.341948 1.579177 0.000000 0.000000 0.000000
    7 0.000000 0.030355 -1.365839 0.000000 0.000000 0.000000
    8 -1.664817 0.381351 1.591430 0.000000 0.000000 0.000000
    9 0.306899 0.000000 0.000000 0.001234 -0.885855 -0.001510
    10 0.311222 0.000000 0.000000 -0.004974 -0.311847 0.015940
    11 0.293932 0.000000 0.000000 -0.007047 0.084141 -0.028451
    12 0.298254 0.000000 0.000000 -0.006424 -0.172441 0.033305
    13 0.306898 0.000000 0.000000 0.001210 0.290901 0.005405
    14 0.298253 -0.000002 0.000000 -0.006112 0.637310 -0.008833
    15 0.306899 0.000000 0.000000 0.000000 0.231435 0.000000
    16 0.600744 -5.369450 3.607356 0.000000 0.000000 0.000000
    17 -0.003480 -0.404829 0.000000 0.000000 0.000000 0.000000
    18 0.105981 -2.607135 -0.278958 -0.890118 0.000000 -0.148353
    19 0.000000 -1.250579 0.000000 -1.213004 0.000000 0.000000
    20 0.000000 -0.932634 0.000000 -1.483530 0.000000 0.000000
    21 0.763063 -2.490557 -0.278958 -0.349065 0.000000 0.130900
    22 -0.012322 -1.280917 0.000000 -0.842379 0.000000 0.000000
    23 -0.001697 -0.749371 0.000000 -1.322028 0.000000 0.000000
    24 0.354566 0.016267 0.318133 0.342077 -0.443527 -1.083976
    25 1.887165 0.012878 0.000000 -0.301502 -0.049640 -0.559682
    26 1.001874 -0.000270 0.000000 0.000000 0.000000 -0.715584
    27 0.089928 -8.543161 -0.000001 0.451045 -0.677765 0.277298
    28 0.000000 -0.359712 0.000000 0.000000 0.000000 0.000000
    29 -0.170479 -2.636146 -0.277655 -1.483539 0.000000 0.000000
    30 0.010598 -1.261177 0.000001 -0.340297 0.000000 0.000000
    31 -0.000001 -0.943233 -0.000002 -0.532326 0.000000 0.000000
    32 -0.827563 -2.508972 -0.277656 -1.265405 0.000000 0.000000
    33 -0.000001 -1.292971 0.000000 -0.558504 0.000000 0.000000
    34 -0.000001 -0.752466 0.000000 -0.445059 0.000000 0.000000
    35 0.444214 -2.561959 -0.277655 -1.605179 -0.046226 -0.024599
    36 0.021022 -1.208186 0.000001 -0.427606 0.000000 0.000000
    37 0.010597 -0.741867 -0.000001 -0.453786 0.000000 0.000000
    38 1.047445 -2.222820 -0.277655 -1.508123 -0.078971 -0.038609
    39 0.000000 -0.996223 -0.000002 -0.689433 0.000000 0.000000
    40 -0.000001 -0.614690 -0.000001 -0.523599 0.000000 0.000000
    41 -0.308254 -0.007813 0.307166 -0.124628 -0.088654 -2.592079
    42 1.978378 0.019542 0.000001 -0.084829 -0.061467 -0.075917
    43 0.982426 0.003185 0.000000 0.000000 0.000000 0.314179
    44 -1.122644 -2.197476 -0.281120 -1.064647 0.000001 -0.087266
    45 0.007812 -0.964973 0.000001 -0.715574 0.000000 0.000000
    46 -0.007812 -0.630317 0.000000 -1.396260 0.000000 0.000000
    47 -0.515544 -2.501512 -0.280215 -1.003564 0.000003 -0.122182
    48 -0.013191 -1.208188 0.000000 -1.090831 0.000000 0.000000
    49 -0.002946 -0.761399 0.000001 -1.343903 0.000000 0.000000
  time 2
    0 -3.193695 -7.902097 -8.686107 -0.814199 0.837712 0.369604
    1 6.983091 5.598677 -7.772171 -0.913410 -1.289675 0.711213
    2 0.000000 -8.563284 -0.000004 0.327075 -0.107255 -0.219042
    3 -0.725000 -3.341002 0.707001 -1.247040 1.437607 -1.233858
    4 0.000000 1.851474 0.849855 0.000000 0.000000 0.000000
    5 0.000000 -2.655798 1.578303 0.454437 0.000000 0.000000
    6 0.004569 -5.341948 1.579177 0.000000 0.000000 0.000000
    7 0.000000 0.030355 -1.365839 0.000000 0.000000 0.000000
    8 -1.629660 0.381351 1.657838 0.000000 0.000000 0.000000
    9 0.306899 0.000000 0.000000 0.002804 -0.960201 -0.003380
    10 0.311222 0.000000 0.000000 -0.010067 -0.318186 0.031987
    11 0.293932 0.000000 0.000000 -0.021057 0.307645 -0.059851
    12 0.298254 0.000000 0.000000 -0.015592 -0.248687 0.067713
    13 0.306898 0.000000 0.000000 0.002421 0.285128 0.010810
    14 0.298253 -0.000002 0.000000 -0.015304 0.803381 -0.020518
    15 0.306899 0.000000 0.000000 0.000000 0.061423 0.000000
    16 0.600744 -5.369450 3.607356 0.000000 0.000000 0.000000
    17 -0.003480 -0.404829 0.000000 0.000000 0.000000 0.000000
    18 0.105981 -2.607135 -0.278958 -0.890118 0.000000 -0.148353
    19 0.000000 -1.250579 0.000000 -1.213004 0.000000 0.000000
    20 0.000000 -0.932634 0.000000 -1.483530 0.000000 0.000000
    21 0.763063 -2.490557 -0.278958 -0.349065 0.000000 0.130900
    22 -0.012322 -1.280917 0.000000 -0.853656 0.000000 0.000000
    23 -0.001697 -0.749371 0.000000 -1.332532 0.000000 0.000000
    24 0.354566 0.016267 0.318133 0.342077 -0.443527 -1.083976
    25 1.887165 0.012878 0.000000 -0.301502 -0.049640 -0.559682
    26 1.001874 -0.000270 0.000000 0.000000 0.000000 -0.715584
    27 0.089928 -8.543161 -0.000001 0.430765 -0.680146 0.286538
    28 0.000000 -0.359712 0.000000 0.000000 0.000000 0.000000
    29 -0.170479 -2.636146 -0.277655 -1.483539 0.000000 0.000000
    30 0.010598 -1.261177 0.000001 -0.340297 0.000000 0.000000
    31 -0.000001 -0.943233 -0.000002 -0.532326 0.000000 0.000000
    32 -0.827563 -2.508972 -0.277656 -1.265405 0.000000 0.000000
    33 -0.000001 -1.292971 0.000000 -0.558504 0.000000 0.000000
    34 -0.000001 -0.752466 0.000000 -0.445059 0.000000 0.000000
    35 0.444214 -2.561959 -0.277655 -1.605179 -0.046226 -0.024599
    36 0.021022 -1.208186 0.000001 -0.427606 0.000000 0.000000
    37 0.010597 -0.741867 -0.000001 -0.453786 0.000000 0.000000
    38 1.047445 -2.222820 -0.277655 -1.508123 -0.078971 -0.038609
    39 0.000000 -0.996223 -0.000002 -0.689433 0.000000 0.000000
    40 -0.000001 -0.614690 -0.000001 -0.523599 0.000000 0.000000
    41 -0.308254 -0.007813 0.307166 -0.124628 -0.088654 -2.592079
    42 1.978378 0.019542 0.000001 -0.084829 -0.061467 -0.075917
    43 0.982426 0.003185 0.000000 0.000000 0.000000 0.314179
    44 -1.122644 -2.197476 -0.281120 -1.064647 0.000001 -0.087266
    45 0.007812 -0.964973 0.000001 -0.715574 0.000000 0.000000
    46 -0.007812 -0.630317 0.000000 -1.396260 0.000000 0.000000
    47 -0.515544 -2.501512 -0.280215 -1.003564 0.000003 -0.122182
    48 -0.013191 -1.208188 0.000000 -1.090831 0.000000 0.000000
    49 -0.002946 -0.761399 0.000001 -1.343903 0.000000 0.000000
  time 3
    0 -3.158538 -8.105228 -8.678294 -0.813088 0.833687 0.363406
    1 6.994810 5.348669 -7.662792 -0.899603 -1.294708 0.696911
    2 0.000000 -8.563284 -0.000004 0.327483 -0.109221 -0.213446
    3 -0.725000 -3.341002 0.707001 -1.247040 1.437607 -1.233858
    4 0.000000 1.851474 0.849855 0.000000 0.000000 0.000000
    5 0.000000 -2.655798 1.578303 0.468914 0.000000 0.000000
    6 0.004569 -5.341948 1.579177 0.000000 0.000000 0.000000
    7 0.000000 0.030355 -1.365839 0.000000 0.000000 0.000000
    8 -1.598409 0.381351 1.708621 0.000000 0.000000 0.000000
    9 0.306899 0.000000 0.000000 0.000000 -1.012290 0.000000
    10 0.311222 0.000000 0.000000 -0.011673 -0.322668 0.036805
    11 0.293932 0.000000 0.000000 -0.030309 0.409079 -0.076090
    12 0.298254 0.000000 0.000000 -0.018828 -0.234855 0.080740
    13 0.306898 0.000000 0.000000 0.005825 0.322821 0.018384
    14 0.298253 -0.000002 0.000000 -0.021165 0.881158 -0.027433
    15 0.306899 0.000000 0.000000 0.000000 -0.061073 0.000000
    16 0.600744 -5.369450 3.607356 0.000000 0.000000 0.000000
    17 -0.003480 -0.404829 0.000000 0.000000 0.000000 0.000000
    18 0.105981 -2.607135 -0.278958 -0.890118 0.000000 -0.148353
    19 0.000000 -1.250579 0.000000 -1.213004 0.000000 0.000000
    20 0.000000 -0.932634 0.000000 -1.483530 0.000000 0.000000
    21 0.763063 -2.490557 -0.278958 -0.349065 0.000000 0.130900
    22 -0.012322 -1.280917 0.000000 -0.867594 0.000000 0.000000
    23 -0.001697 -0.749371 0.000000 -1.345516 0.000000 0.000000
    24 0.354566 0.016267 0.318133 0.342077 -0.443527 -1.083976
    25 1.887165 0.012878 0.000000 -0.301502 -0.049640 -0.559682
    26 1.001874 -0.000270 0.000000 0.000000 0.000000 -0.715584
    27 0.089928 -8.543161 -0.000001 0.410422 -0.682342 0.295821
    28 0.000000 -0.359712 0.000000 0.000000 0.000000 0.000000
    29 -0.170479 -2.636146 -0.277655 -1.483539 0.000000 0.000000
    30 0.010598 -1.261177 0.000001 -0.340297 0.000000 0.000000
    31 -0.000001 -0.943233 -0.000002 -0.532326 0.000000 0.000000
    32 -0.827563 -2.508972 -0.277656 -1.265405 0.000000 0.000000
    33 -0.000001 -1.292971 0.000000 -0.558504 0.000000 0.000000
    34 -0.000001 -0.752466 0.000000 -0.445059 0.000000 0.000000
    35 0.444214 -2.561959 -0.277655 -1.605179 -0.046226 -0.024599
    36 0.021022 -1.208186 0.000001 -0.427606 0.000000 0.000000
    37 0.010597 -0.741867 -0.000001 -0.453786 0.000000 0.000000
    38 1.047445 -2.222820 -0.277655 -1.508123 -0.078971 -0.038609
    39 0.000000 -0.996223 -0.000002 -0.689433 0.000000 0.000000
    40 -0.000001 -0.614690 -0.000001 -0.523599 0.000000 0.000000
    41 -0.308254 -0.007813 0.307166 -0.124628 -0.088654 -2.592079
    42 1.978378 0.019542 0.000001 -0.084829 -0.061467 -0.075917
    43 0.982426 0.003185 0.000000 0.000000 0.000000 0.314179
    44 -1.122644 -2.197476 -0.281120 -1.064647 0.000001 -0.087266
    45 0.007812 -0.964973 0.000001 -0.715574 0.000000 0.000000
    46 -0.007812 -0.630317 0.000000 -1.396260 0.000000 0.000000
    47 -0.515544 -2.501512 -0.280215 -1.003564 0.000003 -0.122182
    48 -0.013191 -1.208188 0.000000 -1.090831 0.000000 0.000000
    49 -0.002946 -0.761399 0.000001 -1.343903 0.000000 0.000000
  time 4
    0 -3.072598 -8.238045 -8.678294 -0.811764 0.829663 0.357284
    1 7.006530 5.161163 -7.580759 -0.883788 -1.300197 0.680441
    2 0.000000 -8.563284 -0.000004 0.329388 -0.111713 -0.206231
    3 -0.725000 -3.341002 0.707001 -1.247040 1.437607 -1.233858
    4 0.000000 1.851474 0.849855 0.000000 0.000000 0.000000
    5 0.000000 -2.655798 1.578303 0.479761 0.000000 0.000000
    6 0.004569 -5.341948 1.579177 0.000000 0.000000 0.000000
    7 0.000000 0.030355 -1.365839 0.000000 0.000000 0.000000
    8 -1.578877 0.381351 1.739872 0.000000 0.000000 0.000000
    9 0.306899 0.000000 0.000000 -0.013794 -1.008008 0.016287
    10 0.311222 0.000000 0.000000 -0.006484 -0.349956 0.020649
    11 0.293932 0.000000 0.000000 -0.018396 0.267686 -0.055189
    12 0.298254 0.000000 0.000000 -0.009084 -0.015100 0.050683
    13 0.306898 0.000000 0.000000 0.017066 0.461239 0.034983
    14 0.298253 -0.000002 0.000000 -0.014322 0.788839 -0.019283
    15 0.306899 0.000000 0.000000 0.000000 -0.111799 0.000000
    16 0.600744 -5.369450 3.607356 0.000000 0.000000 0.000000
    17 -0.003480 -0.404829 0.000000 0.000000 0.000000 0.000000
    18 0.105981 -2.607135 -0.278958 -0.890118 0.000000 -0.148353
    19 0.000000 -1.250579 0.000000 -1.213004 0.000000 0.000000
    20 0.000000 -0.932634 0.000000 -1.483530 0.000000 0.000000
    21 0.763063 -2.490557 -0.278958 -0.349065 0.000000 0.130900
    22 -0.012322 -1.280917 0.000000 -0.880212 0.000000 0.000000
    23 -0.001697 -0.749371 0.000000 -1.357250 0.000000 0.000000
    24 0.354566 0.016267 0.318133 0.342077 -0.443527 -1.083976
    25 1.887165 0.012878 0.000000 -0.301502 -0.049640 -0.559682
    26 1.001874 -0.000270 0.000000 0.000000 0.000000 -0.715584
    27 0.089928 -8.543161 -0.000001 0.389994 -0.684397 0.305171
    28 0.000000 -0.359712 0.000000 0.000000 0.000000 0.000000
    29 -0.170479 -2.636146 -0.277655 -1.483539 0.000000 0.000000
    30 0.010598 -1.261177 0.000001 -0.340297 0.000000 0.000000
    31 -0.000001 -0.943233 -0.000002 -0.532326 0.000000 0.000000
    32 -0.827563 -2.508972 -0.277656 -1.265405 0.000000 0.000000
    33 -0.000001 -1.292971 0.000000 -0.558504 0.000000 0.000000
    34 -0.000001 -0.752466 0.000000 -0.445059 0.000000 0.000000
    35 0.444214 -2.561959 -0.277655 -1.605179 -0.046226 -0.024599
    36 0.021022 -1.208186 0.000001 -0.427606 0.000000 0.000000
    37 0.010597 -0.741867 -0.000001 -0.453786 0.000000 0.000000
    38 1.047445 -2.222820 -0.277655 -1.508123 -0.078971 -0.038609
    39 0.000000 -0.996223 -0.000002 -0.689433 0.000000 0.000000
    40 -0.000001 -0.614690 -0.000001 -0.523599 0.000000 0.000000
    41 -0.308254 -0.007813 0.307166 -0.124628 -0.088654 -2.592079
    42 1.978378 0.019542 0.000001 -0.084829 -0.061467 -0.075917
    43 0.982426 0.003185 0.000000 0.000000 0.000000 0.314179
    44 -1.122644 -2.197476 -0.281120 -1.064647 0.000001 -0.087266
    45 0.007812 -0.964973 0.000001 -0.715574 0.000000 0.000000
    46 -0.007812 -0.630317 0.000000 -1.396260 0.000000 0.000000
    47 -0.515544 -2.501512 -0.280215 -1.003564 0.000003 -0.122182
    48 -0.013191 -1.208188 0.000000 -1.090831 0.000000 0.000000
    49 -0.002946 -0.761399 0.000001 -1.343903 0.000000 0.000000
  time 5
    0 -3.017909 -8.300547 -8.686107 -0.810600 0.825638 0.351087
    1 7.010436 5.051785 -7.518257 -0.866567 -1.305866 0.662617
    2 0.000000 -8.563284 -0.000004 0.332432 -0.114662 -0.197914
    3 -0.725000 -3.341002 0.707001 -1.247040 1.437607 -1.233858
    4 0.000000 1.851474 0.849855 0.000000 0.000000 0.000000
    5 0.000000 -2.655798 1.578303 0.481598 0.000000 0.000000
    6 0.004569 -5.341948 1.579177 0.000000 0.000000 0.000000
    7 0.000000 0.030355 -1.365839 0.000000 0.000000 0.000000
    8 -1.559345 0.381351 1.751591 0.000000 0.000000 0.000000
    9 0.306899 0.000000 0.000000 -0.030669 -0.981256 0.036517
    10 0.311222 0.000000 0.000000 0.003164 -0.375215 -0.007263
    11 0.293932 0.000000 0.000000 -0.004326 0.004047 -0.020554
    12 0.298254 0.000000 0.000000 -0.006520 0.294868 0.001163
    13 0.306898 0.000000 0.000000 0.036409 0.642887 0.059048
    14 0.298253 -0.000002 0.000000 -0.004830 0.608261 -0.007071
    15 0.306899 0.000000 0.000000 0.000000 -0.115051 0.000000
    16 0.600744 -5.369450 3.607356 0.000000 0.000000 0.000000
    17 -0.003480 -0.404829 0.000000 0.000000 0.000000 0.000000
    18 0.105981 -2.607135 -0.278958 -0.890118 0.000000 -0.148353
    19 0.000000 -1.250579 0.000000 -1.213004 0.000000 0.000000
    20 0.000000 -0.932634 0.000000 -1.483530 0.000000 0.000000
    21 0.763063 -2.490557 -0.278958 -0.349065 0.000000 0.130900
    22 -0.012322 -1.280917 0.000000 -0.887506 0.000000 0.000000
    23 -0.001697 -0.749371 0.000000 -1.364084 0.000000 0.000000
    24 0.354566 0.016267 0.318133 0.342077 -0.443527 -1.083976
    25 1.887165 0.012878 0.000000 -0.301502 -0.049640 -0.559682
    26 1.001874 -0.000270 0.000000 0.000000 0.000000 -0.715584
    27 0.089928 -8.543161 -0.000001 0.369545 -0.686265 0.314610
    28 0.000000 -0.359712 0.000000 0.000000 0.000000 0.000000
    29 -0.170479 -2.636146 -0.277655 -1.483539 0.000000 0.000000
    30 0.010598 -1.261177 0.000001 -0.340297 0.000000 0.000000
    31 -0.000001 -0.943233 -0.000002 -0.532326 0.000000 0.000000
    32 -0.827563 -2.508972 -0.277656 -1.265405 0.000000 0.000000
    33 -0.000001 -1.292971 0.000000 -0.558504 0.000000 0.000000
    34 -0.000001 -0.752466 0.000000 -0.445059 0.000000 0.000000
    35 0.444214 -2.561959 -0.277655 -1.605179 -0.046226 -0.024599
    36 0.021022 -1.208186 0.000001 -0.427606 0.000000 0.000000
    37 0.010597 -0.741867 -0.000001 -0.453786 0.000000 0.000000
    38 1.047445 -2.222820 -0.277655 -1.508123 -0.078971 -0.038609
    39 0.000000 -0.996223 -0.000002 -0.689433 0.000000 0.000000
    40 -0.000001 -0.614690 -0.000001 -0.523599 0.000000 0.000000
    41 -0.308254 -0.007813 0.307166 -0.124628 -0.088654 -2.592079
    42 1.978378 0.019542 0.000001 -0.084829 -0.061467 -0.075917
    43 0.982426 0.003185 0.000000 0.000000 0.000000 0.314179
    44 -1.122644 -2.197476 -0.281120 -1.064647 0.000001 -0.087266
    45 0.007812 -0.964973 0.000001 -0.715574 0.000000 0.000000
    46 -0.007812 -0.630317 0.000000 -1.396260 0.000000 0.000000
    47 -0.515544 -2.501512 -0.280215 -1.003564 0.000003 -0.122182
    48 -0.013191 -1.208188 0.000000 -1.090831 0.000000 0.000000
    49 -0.002946 -0.761399 0.000001 -1.343903 0.000000 0.000000
  time 6
    0 -2.955407 -8.296640 -8.697826 -0.809277 0.821614 0.344815
    1 7.018249 5.001002 -7.479193 -0.848744 -1.311403 0.644143
    2 0.000000 -8.563284 -0.000004 0.336255 -0.117837 -0.188937
    3 -0.725000 -3.341002 0.707001 -1.247040 1.437607 -1.233846
    4 0.000000 1.851474 0.849855 0.000000 0.000000 0.000000
    5 0.000000 -2.655798 1.578303 0.468914 0.000000 0.000000
    6 0.004569 -5.341948 1.579177 0.000000 0.000000 0.000000
    7 0.000000 0.030355 -1.365839 0.000000 0.000000 0.000000
    8 -1.547626 0.381351 1.739872 0.000000 0.000000 0.000000
    9 0.306899 0.000000 0.000000 -0.041838 -1.011688 0.049365
    10 0.311222 0.000000 0.000000 0.008749 -0.322767 -0.027601
    11 0.293932 0.000000 0.000000 0.000000 -0.139626 0.000000
    12 0.298254 0.000000 0.000000 -0.012188 0.436138 -0.028883
    13 0.306898 0.000000 0.000000 0.047902 0.740491 0.070961
    14 0.298253 -0.000002 0.000000 0.000000 0.497408 0.000000
    15 0.306899 0.000000 0.000000 0.000000 -0.095953 0.000000
    16 0.600744 -5.369450 3.607356 0.000000 0.000000 0.000000
    17 -0.003480 -0.404829 0.000000 0.000000 0.000000 0.000000
    18 0.105981 -2.607135 -0.278958 -0.890118 0.000000 -0.148353
    19 0.000000 -1.250579 0.000000 -1.213004 0.000000 0.000000
    20 0.000000 -0.932634 0.000000 -1.483530 0.000000 0.000000
    21 0.763063 -2.490557 -0.278958 -0.349065 0.000000 0.130900
    22 -0.012322 -1.280917 0.000000 -0.885515 0.000000 0.000000
    23 -0.001697 -0.749371 0.000000 -1.362210 0.000000 0.000000
    24 0.354566 0.016267 0.318133 0.342077 -0.443527 -1.083976
    25 1.887165 0.012878 0.000000 -0.301502 -0.049640 -0.559682
    26 1.001874 -0.000270 0.000000 0.000000 0.000000 -0.715584
    27 0.089928 -8.543161 -0.000001 0.349011 -0.687993 0.324115
    28 0.000000 -0.359712 0.000000 0.000000 0.000000 0.000000
    29 -0.170479 -2.636146 -0.277655 -1.483539 0.000000 0.000000
    30 0.010598 -1.261177 0.000001 -0.340297 0.000000 0.000000
    31 -0.000001 -0.943233 -0.000002 -0.532326 0.000000 0.000000
    32 -0.827563 -2.508972 -0.277656 -1.265405 0.000000 0.000000
    33 -0.000001 -1.292971 0.000000 -0.558504 0.000000 0.000000
    34 -0.000001 -0.752466 0.000000 -0.445059 0.000000 0.000000
    35 0.444214 -2.561959 -0.277655 -1.605179 -0.046226 -0.024599
    36 0.021022 -1.208186 0.000001 -0.427606 0.000000 0.000000
    37 0.010597 -0.741867 -0.000001 -0.453786 0.000000 0.000000
    38 1.047445 -2.222820 -0.277655 -1.508123 -0.078971 -0.038609
    39 0.000000 -0.996223 -0.000002 -0.689433 0.000000 0.000000
    40 -0.000001 -0.614690 -0.000001 -0.523599 0.000000 0.000000
    41 -0.308254 -0.007813 0.307166 -0.124628 -0.088654 -2.592079
    42 1.978378 0.019542 0.000001 -0.084829 -0.061467 -0.075917
    43 0.982426 0.003185 0.000000 0.000000 0.000000 0.314179
    44 -1.122644 -2.197476 -0.281120 -1.064647 0.000001 -0.087266
    45 0.007812 -0.964973 0.000001 -0.715574 0.000000 0.000000
    46 -0.007812 -0.630317 0.000000 -1.396260 0.000000 0.000000
    47 -0.515544 -2.501512 -0.280215 -1.003564 0.000003 -0.122182
    48 -0.013191 -1.208188 0.000000 -1.090831 0.000000 0.000000
    49 -0.002946 -0.761399 0.000001 -1.343903 0.000000 0.000000
  time 7
    0 -2.881186 -8.257577 -8.721264 -0.807953 0.817589 0.338767
    1 7.029968 5.001002 -7.455755 -0.831171 -1.316532 0.625994
    2 0.000000 -8.563284 -0.000004 0.340462 -0.121121 -0.179853
    3 -0.725000 -3.341002 0.707001 -1.247040 1.437607 -1.233858
    4 0.000000 1.851474 0.849855 0.000000 0.000000 0.000000
    5 0.000000 -2.655798 1.578303 0.436315 0.000000 0.000000
    6 0.004569 -5.341948 1.579177 0.000000 0.000000 0.000000
    7 0.000000 0.030355 -1.365839 0.000000 0.000000 0.000000
    8 -1.543720 0.381351 1.728153 0.000000 0.000000 0.000000
    9 0.306899 0.000000 0.000000 -0.048322 -1.188336 0.053991
    10 0.311222 0.000000 0.000000 0.003476 -0.090566 -0.031627
    11 0.293932 0.000000 0.000000 -0.001186 -0.002910 -0.006352
    12 0.298254 0.000000 0.000000 -0.008725 0.217028 -0.006292
    13 0.306898 0.000000 0.000000 0.030501 0.669738 0.045781
    14 0.298253 -0.000002 0.000000 0.001007 0.551029 0.001498
    15 0.306899 0.000000 0.000000 0.000000 -0.055584 0.000000
    16 0.600744 -5.369450 3.607356 0.000000 0.000000 0.000000
    17 -0.003480 -0.404829 0.000000 0.000000 0.000000 0.000000
    18 0.105981 -2.607135 -0.278958 -0.890118 0.000000 -0.148353
    19 0.000000 -1.250579 0.000000 -1.213004 0.000000 0.000000
    20 0.000000 -0.932634 0.000000 -1.483530 0.000000 0.000000
    21 0.763063 -2.490557 -0.278958 -0.349065 0.000000 0.130900
    22 -0.012322 -1.280917 0.000000 -0.870256 0.000000 0.000000
    23 -0.001697 -0.749371 0.000000 -1.347996 0.000000 0.000000
    24 0.354566 0.016267 0.318133 0.342077 -0.443527 -1.083976
    25 1.887165 0.012878 0.000000 -0.301502 -0.049640 -0.559682
    26 1.001874 -0.000270 0.000000 0.000000 0.000000 -0.715584
    27 0.089928 -8.543161 -0.000001 0.328456 -0.689628 0.333643
    28 0.000000 -0.359712 0.000000 0.000000 0.000000 0.000000
    29 -0.170479 -2.636146 -0.277655 -1.483539 0.000000 0.000000
    30 0.010598 -1.261177 0.000001 -0.340297 0.000000 0.000000
    31 -0.000001 -0.943233 -0.000002 -0.532326 0.000000 0.000000
    32 -0.827563 -2.508972 -0.277656 -1.265405 0.000000 0.000000
    33 -0.000001 -1.292971 0.000000 -0.558504 0.000000 0.000000
    34 -0.000001 -0.752466 0.000000 -0.445059 0.000000 0.000000
    35 0.444214 -2.561959 -0.277655 -1.605179 -0.046226 -0.024599
    36 0.021022 -1.208186 0.000001 -0.427606 0.000000 0.000000
    37 0.010597 -0.741867 -0.000001 -0.453786 0.000000 0.000000
    38 1.047445 -2.222820 -0.277655 -1.508123 -0.078971 -0.038609
    39 0.000000 -0.996223 -0.000002 -0.689433 0.000000 0.000000
    40 -0.000001 -0.614690 -0.000001 -0.523599 0.000000 0.000000
    41 -0.308254 -0.007813 0.307166 -0.124628 -0.088654 -2.592079
    42 1.978378 0.019542 0.000001 -0.084829 -0.061467 -0.075917
    43 0.982426 0.003185 0.000000 0.000000 0.000000 0.314179
    44 -1.122644 -2.197476 -0.281120 -1.064647 0.000001 -0.087266
    45 0.007812 -0.964973 0.000001 -0.715574 0.000000 0.000000
    46 -0.007812 -0.630317 0.000000 -1.396260 0.000000 0.000000
    47 -0.515544 -2.501512 -0.280215 -1.003564 0.000003 -0.122182
    48 -0.013191 -1.208188 0.000000 -1.090831 0.000000 0.000000
    49 -0.002946 -0.761399 0.000001 -1.343903 0.000000 0.000000
  time 8
    0 -2.767901 -8.179449 -8.756421 -0.806630 0.813565 0.332570
    1 7.029968 5.051785 -7.451848 -0.814904 -1.321050 0.609145
    2 0.000000 -8.563284 -0.000004 0.344717 -0.124333 -0.171092
    3 -0.725000 -3.341002 0.707001 -1.247040 1.437607 -1.233858
    4 0.000000 1.851474 0.849855 0.000000 0.000000 0.000000
    5 0.000000 -2.655798 1.578303 0.361298 0.000000 0.000000
    6 0.004569 -5.341948 1.579177 0.000000 0.000000 0.000000
    7 0.000000 0.030355 -1.365839 0.000000 0.000000 0.000000
    8 -1.543720 0.381351 1.708621 0.000000 0.000000 0.000000
    9 0.306899 0.000000 0.000000 -0.052193 -1.422451 0.054458
    10 0.311222 0.000000 0.000000 -0.005645 0.219142 -0.030513
    11 0.293932 0.000000 0.000000 -0.008054 0.253918 -0.025371
    12 0.298254 0.000000 0.000000 -0.014549 -0.170474 0.037512
    13 0.306898 0.000000 0.000000 0.007167 0.514471 0.009911
    14 0.298253 -0.000002 0.000000 0.000575 0.674481 0.000827
    15 0.306899 0.000000 0.000000 0.000000 0.007114 0.000000
    16 0.600744 -5.369450 3.607356 0.000000 0.000000 0.000000
    17 -0.003480 -0.404829 0.000000 0.000000 0.000000 0.000000
    18 0.105981 -2.607135 -0.278958 -0.890118 0.000000 -0.148353
    19 0.000000 -1.250579 0.000000 -1.213004 0.000000 0.000000
    20 0.000000 -0.932634 0.000000 -1.483530 0.000000 0.000000
    21 0.763063 -2.490557 -0.278958 -0.349065 0.000000 0.130900
    22 -0.012322 -1.280917 0.000000 -0.837747 0.000000 0.000000
    23 -0.001697 -0.749371 0.000000 -1.317693 0.000000 0.000000
    24 0.354566 0.016267 0.318133 0.342077 -0.443527 -1.083976
    25 1.887165 0.012878 0.000000 -0.301502 -0.049640 -0.559682
    26 1.001874 -0.000270 0.000000 0.000000 0.000000 -0.715584
    27 0.089928 -8.543161 -0.000001 0.307816 -0.691076 0.343258
    28 0.000000 -0.359712 0.000000 0.000000 0.000000 0.000000
    29 -0.170479 -2.636146 -0.277655 -1.483539 0.000000 0.000000
    30 0.010598 -1.261177 0.000001 -0.340297 0.000000 0.000000
    31 -0.000001 -0.943233 -0.000002 -0.532326 0.000000 0.000000
    32 -0.827563 -2.508972 -0.277656 -1.265405 0.000000 0.000000
    33 -0.000001 -1.292971 0.000000 -0.558504 0.000000 0.000000
    34 -0.000001 -0.752466 0.000000 -0.445059 0.000000 0.000000
    35 0.444214 -2.561959 -0.277655 -1.605179 -0.046226 -0.024599
    36 0.021022 -1.208186 0.000001 -0.427606 0.000000 0.000000
    37 0.010597 -0.741867 -0.000001 -0.453786 0.000000 0.000000
    38 1.047445 -2.222820 -0.277655 -1.508123 -0.078971 -0.038609
    39 0.000000 -0.996223 -0.000002 -0.689433 0.000000 0.000000
    40 -0.000001 -0.614690 -0.000001 -0.523599 0.000000 0.000000
    41 -0.308254 -0.007813 0.307166 -0.124628 -0.088654 -2.592079
    42 1.978378 0.019542 0.000001 -0.084829 -0.061467 -0.075917
    43 0.982426 0.003185 0.000000 0.000000 0.000000 0.314179
    44 -1.122644 -2.197476 -0.281120 -1.064647 0.000001 -0.087266
    45 0.007812 -0.964973 0.000001 -0.715574 0.000000 0.000000
    46 -0.007812 -0.630317 0.000000 -1.396260 0.000000 0.000000
    47 -0.515544 -2.501512 -0.280215 -1.003564 0.000003 -0.122182
    48 -0.013191 -1.208188 0.000000 -1.090831 0.000000 0.000000
    49 -0.002946 -0.761399 0.000001 -1.343903 0.000000 0.000000
  time 9
    0 -2.662429 -8.073977 -8.791578 -0.805254 0.809540 0.326522
    1 7.041687 5.141632 -7.451848 -0.801148 -1.324706 0.594951
    2 0.000000 -8.563284 -0.000004 0.348588 -0.127257 -0.163194
    3 -0.725000 -3.341002 0.707001 -1.247040 1.437607 -1.233858
    4 0.000000 1.851474 0.849855 0.000000 0.000000 0.000000
    5 0.000000 -2.655798 1.578303 0.243173 0.000000 0.000000
    6 0.004569 -5.341948 1.579177 0.000000 0.000000 0.000000
    7 0.000000 0.030355 -1.365839 0.000000 0.000000 0.000000
    8 -1.547626 0.381351 1.689089 0.000000 0.000000 0.000000
    9 0.306899 0.000000 0.000000 0.000072 -1.527159 -0.000072
    10 0.311222 0.000000 0.000000 -0.010307 0.375098 -0.028128
    11 0.293932 0.000000 0.000000 -0.014441 0.392446 -0.037763
    12 0.298254 0.000000 0.000000 -0.026534 -0.409281 0.066574
    13 0.306898 0.000000 0.000000 -0.003691 0.401394 -0.009480
    14 0.298253 -0.000002 0.000000 0.000000 0.741707 0.000000
    15 0.306899 0.000000 0.000000 0.000000 0.069854 0.000000
    16 0.600744 -5.369450 3.607356 0.000000 0.000000 0.000000
    17 -0.003480 -0.404829 0.000000 0.000000 0.000000 0.000000
    18 0.105981 -2.607135 -0.278958 -0.890118 0.000000 -0.148353
    19 0.000000 -1.250579 0.000000 -1.213004 0.000000 0.000000
    20 0.000000 -0.932634 0.000000 -1.483530 0.000000 0.000000
    21 0.763063 -2.490557 -0.278958 -0.349065 0.000000 0.130900
    22 -0.012322 -1.280917 0.000000 -0.782392 0.000000 0.000000
    23 -0.001697 -0.749371 0.000000 -1.266148 0.000000 0.000000
    24 0.354566 0.016267 0.318133 0.342077 -0.443527 -1.083976
    25 1.887165 0.012878 0.000000 -0.301502 -0.049640 -0.559682
    26 1.001874 -0.000270 0.000000 0.000000 0.000000 -0.715584
    27 0.089928 -8.543161 -0.000001 0.287177 -0.692383 0.352919
    28 0.000000 -0.359712 0.000000 0.000000 0.000000 0.000000
    29 -0.170479 -2.636146 -0.277655 -1.483539 0.000000 0.000000
    30 0.010598 -1.261177 0.000001 -0.340297 0.000000 0.000000
    31 -0.000001 -0.943233 -0.000002 -0.532326 0.000000 0.000000
    32 -0.827563 -2.508972 -0.277656 -1.265405 0.000000 0.000000
    33 -0.000001 -1.292971 0.000000 -0.558504 0.000000 0.000000
    34 -0.000001 -0.752466 0.000000 -0.445059 0.000000 0.000000
    35 0.444214 -2.561959 -0.277655 -1.605179 -0.046226 -0.024599
    36 0.021022 -1.208186 0.000001 -0.427606 0.000000 0.000000
    37 0.010597 -0.741867 -0.000001 -0.453786 0.000000 0.000000
    38 1.047445 -2.222820 -0.277655 -1.508123 -0.078971 -0.038609
    39 0.000000 -0.996223 -0.000002 -0.689433 0.000000 0.000000
    40 -0.000001 -0.614690 -0.000001 -0.523599 0.000000 0.000000
    41 -0.308254 -0.007813 0.307166 -0.124628 -0.088654 -2.592079
    42 1.978378 0.019542 0.000001 -0.084829 -0.061467 -0.075917
    43 0.982426 0.003185 0.000000 0.000000 0.000000 0.314179
    44 -1.122644 -2.197476 -0.281120 -1.064647 0.000001 -0.087266
    45 0.007812 -0.964973 0.000001 -0.715574 0.000000 0.000000
    46 -0.007812 -0.630317 0.000000 -1.396260 0.000000 0.000000
    47 -0.515544 -2.501512 -0.280215 -1.003564 0.000003 -0.122182
    48 -0.013191 -1.208188 0.000000 -1.090831 0.000000 0.000000
    49 -0.002946 -0.761399 0.000001 -1.343903 0.000000 0.000000
  time 10
    0 -2.588208 -7.921629 -8.807204 -0.803771 0.805516 0.320324
    1 7.049500 5.247104 -7.455755 -0.791357 -1.327198 0.584820
    2 0.000000 -8.563284 -0.000004 0.351787 -0.129750 -0.156579
    3 -0.725000 -3.341002 0.707001 -1.247040 1.437607 -1.233858
    4 0.000000 1.851474 0.849855 0.000000 0.000000 0.000000
    5 0.000000 -2.655798 1.578303 0.109351 0.000000 0.000000
    6 0.004569 -5.341948 1.579177 0.000000 0.000000 0.000000
    7 0.000000 0.030355 -1.365839 0.000000 0.000000 0.000000
    8 -1.559345 0.381351 1.665651 0.000000 0.000000 0.000000
    9 0.306899 0.000000 0.000000 0.020542 -1.475141 -0.021105
    10 0.311222 0.000000 0.000000 -0.009228 0.341792 -0.024317
    11 0.293932 0.000000 0.000000 -0.013123 0.365319 -0.035486
    12 0.298254 0.000000 0.000000 -0.026066 -0.434471 0.065712
    13 0.306898 0.000000 0.000000 -0.005561 0.361688 -0.013087
    14 0.298253 -0.000002 0.000000 0.000000 0.725951 0.000000
    15 0.306899 0.000000 0.000000 0.000000 0.125116 0.000000
    16 0.600744 -5.369450 3.607356 0.000000 0.000000 0.000000
    17 -0.003480 -0.404829 0.000000 0.000000 0.000000 0.000000
    18 0.105981 -2.607135 -0.278958 -0.890118 0.000000 -0.148353
    19 0.000000 -1.250579 0.000000 -1.213004 0.000000 0.000000
    20 0.000000 -0.932634 0.000000 -1.483530 0.000000 0.000000
    21 0.763063 -2.490557 -0.278958 -0.349065 0.000000 0.130900
    22 -0.012322 -1.280917 0.000000 -0.705239 0.000000 0.000000
    23 -0.001697 -0.749371 0.000000 -1.194296 0.000000 0.000000
    24 0.354566 0.016267 0.318133 0.342077 -0.443527 -1.083976
    25 1.887165 0.012878 0.000000 -0.301502 -0.049640 -0.559682
    26 1.001874 -0.000270 0.000000 0.000000 0.000000 -0.715584
    27 0.089928 -8.543161 -0.000001 0.266495 -0.693504 0.362601
    28 0.000000 -0.359712 0.000000 0.000000 0.000000 0.000000
    29 -0.170479 -2.636146 -0.277655 -1.483539 0.000000 0.000000
    30 0.010598 -1.261177 0.000001 -0.340297 0.000000 0.000000
    31 -0.000001 -0.943233 -0.000002 -0.532326 0.000000 0.000000
    32 -0.827563 -2.508972 -0.277656 -1.265405 0.000000 0.000000
    33 -0.000001 -1.292971 0.000000 -0.558504 0.000000 0.000000
    34 -0.000001 -0.752466 0.000000 -0.445059 0.000000 0.000000
    35 0.444214 -2.561959 -0.277655 -1.605179 -0.046226 -0.024599
    36 0.021022 -1.208186 0.000001 -0.427606 0.000000 0.000000
    37 0.010597 -0.741867 -0.000001 -0.453786 0.000000 0.000000
    38 1.047445 -2.222820 -0.277655 -1.508123 -0.078971 -0.038609
    39 0.000000 -0.996223 -0.000002 -0.689433 0.000000 0.000000
    40 -0.000001 -0.614690 -0.000001 -0.523599 0.000000 0.000000
    41 -0.308254 -0.007813 0.307166 -0.124628 -0.088654 -2.592079
    42 1.978378 0.019542 0.000001 -0.084829 -0.061467 -0.075917
    43 0.982426 0.003185 0.000000 0.000000 0.000000 0.314179
    44 -1.122644 -2.197476 -0.281120 -1.064647 0.000001 -0.087266
    45 0.007812 -0.964973 0.000001 -0.715574 0.000000 0.000000
    46 -0.007812 -0.630317 0.000000 -1.396260 0.000000 0.000000
    47 -0.515544 -2.501512 -0.280215 -1.003564 0.000003 -0.122182
    48 -0.013191 -1.208188 0.000000 -1.090831 0.000000 0.000000
    49 -0.002946 -0.761399 0.000001 -1.343903 0.000000 0.000000
  time 11
    0 -2.525706 -7.749749 -8.826736 -0.802342 0.801492 0.314276
    1 7.053406 5.379920 -7.455755 -0.785332 -1.328696 0.578698
    2 0.000000 -8.563284 -0.000004 0.353945 -0.131596 -0.151749
    3 -0.725000 -3.341002 0.707001 -1.247040 1.437607 -1.233858
    4 0.000000 1.851474 0.849855 0.000000 0.000000 0.000000
    5 0.000000 -2.655798 1.578303 -0.012802 0.000000 0.000000
    6 0.004569 -5.341948 1.579177 0.000000 0.000000 0.000000
    7 0.000000 0.030355 -1.365839 0.000000 0.000000 0.000000
    8 -1.578877 0.381351 1.646119 0.000000 0.000000 0.000000
    9 0.306899 0.000000 0.000000 0.012764 -1.374786 -0.013507
    10 0.311222 0.000000 0.000000 -0.006903 0.250789 -0.019427
    11 0.293932 0.000000 0.000000 -0.010031 0.293936 -0.029794
    12 0.298254 0.000000 0.000000 -0.021261 -0.403993 0.056459
    13 0.306898 0.000000 0.000000 -0.005549 0.337992 -0.012895
    14 0.298253 -0.000002 0.000000 0.000000 0.689023 0.000000
    15 0.306899 0.000000 0.000000 0.000000 0.180357 0.000000
    16 0.600744 -5.369450 3.607356 0.000000 0.000000 0.000000
    17 -0.003480 -0.404829 0.000000 0.000000 0.000000 0.000000
    18 0.105981 -2.607135 -0.278958 -0.890118 0.000000 -0.148353
    19 0.000000 -1.250579 0.000000 -1.213004 0.000000 0.000000
    20 0.000000 -0.932634 0.000000 -1.483530 0.000000 0.000000
    21 0.763063 -2.490557 -0.278958 -0.349065 0.000000 0.130900
    22 -0.012322 -1.280917 0.000000 -0.612282 0.000000 0.000000
    23 -0.001697 -0.749371 0.000000 -1.107665 0.000000 0.000000
    24 0.354566 0.016267 0.318133 0.342077 -0.443527 -1.083976
    25 1.887165 0.012878 0.000000 -0.301502 -0.049640 -0.559682
    26 1.001874 -0.000270 0.000000 0.000000 0.000000 -0.715584
    27 0.089928 -8.543161 -0.000001 0.245770 -0.694485 0.372328
    28 0.000000 -0.359712 0.000000 0.000000 0.000000 0.000000
    29 -0.170479 -2.636146 -0.277655 -1.483539 0.000000 0.000000
    30 0.010598 -1.261177 0.000001 -0.340297 0.000000 0.000000
    31 -0.000001 -0.943233 -0.000002 -0.532326 0.000000 0.000000
    32 -0.827563 -2.508972 -0.277656 -1.265405 0.000000 0.000000
    33 -0.000001 -1.292971 0.000000 -0.558504 0.000000 0.000000
    34 -0.000001 -0.752466 0.000000 -0.445059 0.000000 0.000000
    35 0.444214 -2.561959 -0.277655 -1.605179 -0.046226 -0.024599
    36 0.021022 -1.208186 0.000001 -0.427606 0.000000 0.000000
    37 0.010597 -0.741867 -0.000001 -0.453786 0.000000 0.000000
    38 1.047445 -2.222820 -0.277655 -1.508123 -0.078971 -0.038609
    39 0.000000 -0.996223 -0.000002 -0.689433 0.000000 0.000000
    40 -0.000001 -0.614690 -0.000001 -0.523599 0.000000 0.000000
    41 -0.308254 -0.007813 0.307166 -0.124628 -0.088654 -2.592079
    42 1.978378 0.019542 0.000001 -0.084829 -0.061467 -0.075917
    43 0.982426 0.003185 0.000000 0.000000 0.000000 0.314179
    44 -1.122644 -2.197476 -0.281120 -1.064647 0.000001 -0.087266
    45 0.007812 -0.964973 0.000001 -0.715574 0.000000 0.000000
    46 -0.007812 -0.630317 0.000000 -1.396260 0.000000 0.000000
    47 -0.515544 -2.501512 -0.280215 -1.003564 0.000003 -0.122182
    48 -0.013191 -1.208188 0.000000 -1.090831 0.000000 0.000000
    49 -0.002946 -0.761399 0.000001 -1.343903 0.000000 0.000000
  time 12
    0 -2.463204 -7.570056 -8.889238 -0.800966 0.797467 0.308154
    1 7.061219 5.516643 -7.455755 -0.781918 -1.329535 0.575177
    2 0.000000 -8.563284 -0.000004 0.354101 -0.131716 -0.151545
    3 -0.725000 -3.341002 0.707001 -1.247040 1.437607 -1.233858
    4 0.000000 1.851474 0.849855 0.000000 0.000000 0.000000
    5 0.000000 -2.655798 1.578303 -0.095976 0.000000 0.000000
    6 0.004569 -5.341948 1.579177 0.000000 0.000000 0.000000
    7 0.000000 0.030355 -1.365839 0.000000 0.000000 0.000000
    8 -1.598409 0.381351 1.614868 0.000000 0.000000 0.000000
    9 0.306899 0.000000 0.000000 0.006364 -1.242017 -0.006975
    10 0.311222 0.000000 0.000000 -0.004314 0.121353 -0.014274
    11 0.293932 0.000000 0.000000 -0.006460 0.192941 -0.022255
    12 0.298254 0.000000 0.000000 -0.014537 -0.336392 0.042413
    13 0.306898 0.000000 0.000000 -0.004374 0.325036 -0.010259
    14 0.298253 -0.000002 0.000000 0.000000 0.638073 0.000000
    15 0.306899 0.000000 0.000000 0.000000 0.235660 0.000000
    16 0.600744 -5.369450 3.607356 0.000000 0.000000 0.000000
    17 -0.003480 -0.404829 0.000000 0.000000 0.000000 0.000000
    18 0.105981 -2.607135 -0.278958 -0.890118 0.000000 -0.148353
    19 0.000000 -1.250579 0.000000 -1.213004 0.000000 0.000000
    20 0.000000 -0.932634 0.000000 -1.483530 0.000000 0.000000
    21 0.763063 -2.490557 -0.278958 -0.349065 0.000000 0.130900
    22 -0.012322 -1.280917 0.000000 -0.509368 0.000000 0.000000
    23 -0.001697 -0.749371 0.000000 -1.011837 0.000000 0.000000
    24 0.354566 0.016267 0.318133 0.342077 -0.443527 -1.083976
    25 1.887165 0.012878 0.000000 -0.301502 -0.049640 -0.559682
    26 1.001874 -0.000270 0.000000 0.000000 0.000000 -0.715584
    27 0.089928 -8.543161 -0.000001 0.225025 -0.695326 0.382099
    28 0.000000 -0.359712 0.000000 0.000000 0.000000 0.000000
    29 -0.170479 -2.636146 -0.277655 -1.483539 0.000000 0.000000
    30 0.010598 -1.261177 0.000001 -0.340297 0.000000 0.000000
    31 -0.000001 -0.943233 -0.000002 -0.532326 0.000000 0.000000
    32 -0.827563 -2.508972 -0.277656 -1.265405 0.000000 0.000000
    33 -0.000001 -1.292971 0.000000 -0.558504 0.000000 0.000000
    34 -0.000001 -0.752466 0.000000 -0.445059 0.000000 0.000000
    35 0.444214 -2.561959 -0.277655 -1.605179 -0.046226 -0.024599
    36 0.021022 -1.208186 0.000001 -0.427606 0.000000 0.000000
    37 0.010597 -0.741867 -0.000001 -0.453786 0.000000 0.000000
    38 1.047445 -2.222820 -0.277655 -1.508123 -0.078971 -0.038609
    39 0.000000 -0.996223 -0.000002 -0.689433 0.000000 0.000000
    40 -0.000001 -0.614690 -0.000001 -0.523599 0.000000 0.000000
    41 -0.308254 -0.007813 0.307166 -0.124628 -0.088654 -2.592079
    42 1.978378 0.019542 0.000001 -0.084829 -0.061467 -0.075917
    43 0.982426 0.003185 0.000000 0.000000 0.000000 0.314179
    44 -1.122644 -2.197476 -0.281120 -1.064647 0.000001 -0.087266
    45 0.007812 -0.964973 0.000001 -0.715574 0.000000 0.000000
    46 -0.007812 -0.630317 0.000000 -1.396260 0.000000 0.000000
    47 -0.515544 -2.501512 -0.280215 -1.003564 0.000003 -0.122182
    48 -0.013191 -1.208188 0.000000 -1.090831 0.000000 0.000000
    49 -0.002946 -0.761399 0.000001 -1.343903 0.000000 0.000000
  time 13
    0 -2.400702 -7.390363 -8.986897 -0.799431 0.793528 0.302181
    1 7.076844 5.645553 -7.451848 -0.779810 -1.330063 0.572955
    2 0.000000 -8.563284 -0.000004 0.352303 -0.129918 -0.156531
    3 -0.725000 -3.341002 0.707001 -1.247040 1.437607 -1.233846
    4 0.000000 1.851474 0.849855 0.000000 0.000000 0.000000
    5 0.000000 -2.655798 1.578303 -0.102443 0.000000 0.000000
    6 0.004569 -5.341948 1.579177 0.000000 0.000000 0.000000
    7 0.000000 0.030355 -1.365839 0.000000 0.000000 0.000000
    8 -1.629660 0.381351 1.583617 0.000000 0.000000 0.000000
    9 0.306899 0.000000 0.000000 0.002553 -1.093147 -0.002936
    10 0.311222 0.000000 0.000000 -0.002097 -0.027297 -0.009252
    11 0.293932 0.000000 0.000000 -0.003344 0.077155 -0.014226
    12 0.298254 0.000000 0.000000 -0.008162 -0.250111 0.026822
    13 0.306898 0.000000 0.000000 -0.002685 0.317350 -0.006400
    14 0.298253 -0.000002 0.000000 0.000000 0.580114 0.000000
    15 0.306899 0.000000 0.000000 0.000000 0.290923 0.000000
    16 0.600744 -5.369450 3.607356 0.000000 0.000000 0.000000
    17 -0.003480 -0.404829 0.000000 0.000000 0.000000 0.000000
    18 0.105981 -2.607135 -0.278958 -0.890118 0.000000 -0.148353
    19 0.000000 -1.250579 0.000000 -1.213004 0.000000 0.000000
    20 0.000000 -0.932634 0.000000 -1.483530 0.000000 0.000000
    21 0.763063 -2.490557 -0.278958 -0.349065 0.000000 0.130900
    22 -0.012322 -1.280917 0.000000 -0.402515 0.000000 0.000000
    23 -0.001697 -0.749371 0.000000 -0.912299 0.000000 0.000000
    24 0.354566 0.016267 0.318133 0.342077 -0.443527 -1.083976
    25 1.887165 0.012878 0.000000 -0.301502 -0.049640 -0.559682
    26 1.001874 -0.000270 0.000000 0.000000 0.000000 -0.715584
    27 0.089928 -8.543161 -0.000001 0.204258 -0.695980 0.391892
    28 0.000000 -0.359712 0.000000 0.000000 0.000000 0.000000
    29 -0.170479 -2.636146 -0.277655 -1.483539 0.000000 0.000000
    30 0.010598 -1.261177 0.000001 -0.340297 0.000000 0.000000
    31 -0.000001 -0.943233 -0.000002 -0.532326 0.000000 0.000000
    32 -0.827563 -2.508972 -0.277656 -1.265405 0.000000 0.000000
    33 -0.000001 -1.292971 0.000000 -0.558504 0.000000 0.000000
    34 -0.000001 -0.752466 0.000000 -0.445059 0.000000 0.000000
    35 0.444214 -2.561959 -0.277655 -1.605179 -0.046226 -0.024599
    36 0.021022 -1.208186 0.000001 -0.427606 0.000000 0.000000
    37 0.010597 -0.741867 -0.000001 -0.453786 0.000000 0.000000
    38 1.047445 -2.222820 -0.277655 -1.508123 -0.078971 -0.038609
    39 0.000000 -0.996223 -0.000002 -0.689433 0.000000 0.000000
    40 -0.000001 -0.614690 -0.000001 -0.523599 0.000000 0.000000
    41 -0.308254 -0.007813 0.307166 -0.124628 -0.088654 -2.592079
    42 1.978378 0.019542 0.000001 -0.084829 -0.061467 -0.075917
    43 0.982426 0.003185 0.000000 0.000000 0.000000 0.314179
    44 -1.122644 -2.197476 -0.281120 -1.064647 0.000001 -0.087266
    45 0.007812 -0.964973 0.000001 -0.715574 0.000000 0.000000
    46 -0.007812 -0.630317 0.000000 -1.396260 0.000000 0.000000
    47 -0.515544 -2.501512 -0.280215 -1.003564 0.000003 -0.122182
    48 -0.013191 -1.208188 0.000000 -1.090831 0.000000 0.000000
    49 -0.002946 -0.761399 0.000001 -1.343903 0.000000 0.000000
  time 14
    0 -2.342107 -7.245827 -9.119713 -0.797896 0.789504 0.296133
    1 7.088563 5.766651 -7.432317 -0.777701 -1.330554 0.570897
    2 0.000000 -8.563284 -0.000004 0.349702 -0.127353 -0.163566
    3 -0.725000 -3.341002 0.707001 -1.247040 1.437607 -1.233858
    4 0.000000 1.851474 0.849855 0.000000 0.000000 0.000000
    5 0.000000 -2.655798 1.578303 -0.051207 0.000000 0.000000
    6 0.004569 -5.341948 1.579177 0.000000 0.000000 0.000000
    7 0.000000 0.030355 -1.365839 0.000000 0.000000 0.000000
    8 -1.664817 0.381351 1.548460 0.000000 0.000000 0.000000
    9 0.306899 0.000000 0.000000 0.000587 -0.944242 -0.000707
    10 0.311222 0.000000 0.000000 -0.000599 -0.175973 -0.004494
    11 0.293932 0.000000 0.000000 -0.001163 -0.038631 -0.006544
    12 0.298254 0.000000 0.000000 -0.003260 -0.163762 0.012045
    13 0.306898 0.000000 0.000000 -0.001031 0.309664 -0.002565
    14 0.298253 -0.000002 0.000000 0.000000 0.522154 0.000000
    15 0.306899 0.000000 0.000000 0.000000 0.346185 0.000000
    16 0.600744 -5.369450 3.607356 0.000000 0.000000 0.000000
    17 -0.003480 -0.404829 0.000000 0.000000 0.000000 0.000000
    18 0.105981 -2.607135 -0.278958 -0.890118 0.000000 -0.148353
    19 0.000000 -1.250579 0.000000 -1.213004 0.000000 0.000000
    20 0.000000 -0.932634 0.000000 -1.483530 0.000000 0.000000
    21 0.763063 -2.490557 -0.278958 -0.349065 0.000000 0.130900
    22 -0.012322 -1.280917 0.000000 -0.297653 0.000000 0.000000
    23 -0.001697 -0.749371 0.000000 -0.814597 0.000000 0.000000
    24 0.354566 0.016267 0.318133 0.342077 -0.443527 -1.083976
    25 1.887165 0.012878 0.000000 -0.301502 -0.049640 -0.559682
    26 1.001874 -0.000270 0.000000 0.000000 0.000000 -0.715584
    27 0.089928 -8.543161 -0.000001 0.183449 -0.696493 0.401708
    28 0.000000 -0.359712 0.000000 0.000000 0.000000 0.000000
    29 -0.170479 -2.636146 -0.277655 -1.483539 0.000000 0.000000
    30 0.010598 -1.261177 0.000001 -0.340297 0.000000 0.000000
    31 -0.000001 -0.943233 -0.000002 -0.532326 0.000000 0.000000
    32 -0.827563 -2.508972 -0.277656 -1.265405 0.000000 0.000000
    33 -0.000001 -1.292971 0.000000 -0.558504 0.000000 0.000000
    34 -0.000001 -0.752466 0.000000 -0.445059 0.000000 0.000000
    35 0.444214 -2.561959 -0.277655 -1.605179 -0.046226 -0.024599
    36 0.021022 -1.208186 0.000001 -0.427606 0.000000 0.000000
    37 0.010597 -0.741867 -0.000001 -0.453786 0.000000 0.000000
    38 1.047445 -2.222820 -0.277655 -1.508123 -0.078971 -0.038609
    39 0.000000 -0.996223 -0.000002 -0.689433 0.000000 0.000000
    40 -0.000001 -0.614690 -0.000001 -0.523599 0.000000 0.000000
    41 -0.308254 -0.007813 0.307166 -0.124628 -0.088654 -2.592079
    42 1.978378 0.019542 0.000001 -0.084829 -0.061467 -0.075917
    43 0.982426 0.003185 0.000000 0.000000 0.000000 0.314179
    44 -1.122644 -2.197476 -0.281120 -1.064647 0.000001 -0.087266
    45 0.007812 -0.964973 0.000001 -0.715574 0.000000 0.000000
    46 -0.007812 -0.630317 0.000000 -1.396260 0.000000 0.000000
    47 -0.515544 -2.501512 -0.280215 -1.003564 0.000003 -0.122182
    48 -0.013191 -1.208188 0.000000 -1.090831 0.000000 0.000000
    49 -0.002946 -0.761399 0.000001 -1.343903 0.000000 0.000000
  time 15
    0 -2.271792 -7.132542 -9.283781 -0.796308 0.785479 0.290085
    1 7.108095 5.868216 -7.393253 -0.774287 -1.331381 0.567267
    2 0.000000 -8.563284 -0.000004 0.347509 -0.125220 -0.169558
    3 -0.725000 -3.341002 0.707001 -1.247040 1.437607 -1.233858
    4 0.000000 1.851474 0.849855 0.000000 0.000000 0.000000
    5 0.000000 -2.655798 1.578303 0.000000 0.000000 0.000000
    6 0.004569 -5.341948 1.579177 0.000000 0.000000 0.000000
    7 0.000000 0.030355 -1.365839 0.000000 0.000000 0.000000
    8 -1.703881 0.381351 1.509396 0.000000 0.000000 0.000000
    9 0.306899 0.000000 0.000000 0.000000 -0.811579 0.000000
    10 0.311222 0.000000 0.000000 0.000000 -0.305433 0.000000
    11 0.293932 0.000000 0.000000 0.000000 -0.139626 0.000000
    12 0.298254 0.000000 0.000000 0.000000 -0.095991 0.000000
    13 0.306898 0.000000 0.000000 0.000000 0.296708 0.000000
    14 0.298253 -0.000002 0.000000 0.000000 0.471239 0.000000
    15 0.306899 0.000000 0.000000 0.000000 0.401426 0.000000
    16 0.600744 -5.369450 3.607356 0.000000 0.000000 0.000000
    17 -0.003480 -0.404829 0.000000 0.000000 0.000000 0.000000
    18 0.105981 -2.607135 -0.278958 -0.890118 0.000000 -0.148353
    19 0.000000 -1.250579 0.000000 -1.213004 0.000000 0.000000
    20 0.000000 -0.932634 0.000000 -1.483530 0.000000 0.000000
    21 0.763063 -2.490557 -0.278958 -0.349065 0.000000 0.130900
    22 -0.012322 -1.280917 0.000000 -0.200713 0.000000 0.000000
    23 -0.001697 -0.749371 0.000000 -0.724295 0.000000 0.000000
    24 0.354566 0.016267 0.318133 0.342077 -0.443527 -1.083976
    25 1.887165 0.012878 0.000000 -0.301502 -0.049640 -0.559682
    26 1.001874 -0.000270 0.000000 0.000000 0.000000 -0.715584
    27 0.089928 -8.543161 -0.000001 0.162661 -0.696867 0.411523
    28 0.000000 -0.359712 0.000000 0.000000 0.000000 0.000000
    29 -0.170479 -2.636146 -0.277655 -1.483539 0.000000 0.000000
    30 0.010598 -1.261177 0.000001 -0.340297 0.000000 0.000000
    31 -0.000001 -0.943233 -0.000002 -0.532326 0.000000 0.000000
    32 -0.827563 -2.508972 -0.277656 -1.265405 0.000000 0.000000
    33 -0.000001 -1.292971 0.000000 -0.558504 0.000000 0.000000
    34 -0.000001 -0.752466 0.000000 -0.445059 0.000000 0.000000
    35 0.444214 -2.561959 -0.277655 -1.605179 -0.046226 -0.024599
    36 0.021022 -1.208186 0.000001 -0.427606 0.000000 0.000000
    37 0.010597 -0.741867 -0.000001 -0.453786 0.000000 0.000000
    38 1.047445 -2.222820 -0.277655 -1.508123 -0.078971 -0.038609
    39 0.000000 -0.996223 -0.000002 -0.689433 0.000000 0.000000
    40 -0.000001 -0.614690 -0.000001 -0.523599 0.000000 0.000000
    41 -0.308254 -0.007813 0.307166 -0.124628 -0.088654 -2.592079
    42 1.978378 0.019542 0.000001 -0.084829 -0.061467 -0.075917
    43 0.982426 0.003185 0.000000 0.000000 0.000000 0.314179
    44 -1.122644 -2.197476 -0.281120 -1.064647 0.000001 -0.087266
    45 0.007812 -0.964973 0.000001 -0.715574 0.000000 0.000000
    46 -0.007812 -0.630317 0.000000 -1.396260 0.000000 0.000000
    47 -0.515544 -2.501512 -0.280215 -1.003564 0.000003 -0.122182
    48 -0.013191 -1.208188 0.000000 -1.090831 0.000000 0.000000
    49 -0.002946 -0.761399 0.000001 -1.343903 0.000000 0.000000
end
