// Created by Crowbar 0.49.0.0

$modelname "weapons/tfa_cso/c_destroyer.mdl"

$Include "csonline_gmod.qci"

$bodygroup "weapon"
{
	studio "v_destroyer"
}

$CDMaterials "models\weapons\tfa_cso\destroyer"

$attachment 0 "destroyer_root" 0.799 -39.306 1.403
//$attachment 1 "destroyer_root" -0.35 -1.089 1.462
//$attachment 2 "destroyer_root" -7.299 -36.306 0.403
//$attachment 3 "destroyer_root" 7.299 -36.306 0.403

$sequence "idle1" {
	"v_destroyer_anims\idle1"
	fps 30
	loop
	activity "ACT_VM_IDLE" 1
	snap
}
$sequence "shoot1" {
	"v_destroyer_anims\shoot1"
	{ event 5001 0 "#I6 S0.3 R1 F0 P30 T1 A1 L0 O0" }
	//{ event 5001 1 "#I46 S0.22 R0 F0 P20 T1 A1 L0 O0" }
	//{ event 5021 9 "#I47 S0.08 R0 F0 P30 T1 A1 L0 O0" }
	//{ event 5031 9 "#I48 S0.08 R0 F0 P30 T1 A1 L0 O0" }
	fps 30
	activity "ACT_VM_PRIMARYATTACK" 1
	snap
}
$sequence "shoot2" {
	"v_destroyer_anims\shoot2"
	{ event 5001 0 "#I6 S0.3 R1 F0 P30 T1 A1 L0 O0" }
	//{ event 5001 1 "#I46 S0.22 R0 F0 P20 T1 A1 L0 O0" }
	//{ event 5021 9 "#I47 S0.08 R0 F0 P30 T1 A1 L0 O0" }
	//{ event 5031 9 "#I48 S0.08 R0 F0 P30 T1 A1 L0 O0" }
	fps 30
	activity "ACT_VM_PRIMARYATTACK" 2
	snap
}
$sequence "reload" {
	"v_destroyer_anims\reload"
	{ event 5004 3 "Destroyer.ClipOut" }
	{ event 5004 48 "Destroyer.ClipIn" }
	fps 30
	activity "ACT_VM_RELOAD" 1
	snap
}
$sequence "draw" {
	"v_destroyer_anims\draw"
	{ event 5004 9 "Destroyer.Draw" }
	fps 30
	activity "ACT_VM_DRAW" 1
	snap
}
